{"verses":[{"id":4425,"verse_number":11,"verse_key":"44:11","hizb_number":50,"rub_el_hizb_number":198,"ruku_number":433,"manzil_number":6,"sajdah_number":null,"page_number":496,"juz_number":25,"words":[{"id":12265,"position":1,"audio_url":"wbw/044_011_001.mp3","char_type_name":"word","page_number":496,"line_number":9,"text":"يَغْشَى","translation":{"text":"ঢেকে নিবে","language_name":"bengali","language_id":20},"transliteration":{"text":"yaghshā","language_name":"english","language_id":38}},{"id":12266,"position":2,"audio_url":"wbw/044_011_002.mp3","char_type_name":"word","page_number":496,"line_number":9,"text":"ٱلنَّاسَ ۖ","translation":{"text":"মানুষকে","language_name":"bengali","language_id":20},"transliteration":{"text":"l-nāsa","language_name":"english","language_id":38}},{"id":12268,"position":3,"audio_url":"wbw/044_011_004.mp3","char_type_name":"word","page_number":496,"line_number":10,"text":"هَـٰذَا","translation":{"text":"এটাই","language_name":"bengali","language_id":20},"transliteration":{"text":"hādhā","language_name":"english","language_id":38}},{"id":12269,"position":4,"audio_url":"wbw/044_011_005.mp3","char_type_name":"word","page_number":496,"line_number":10,"text":"عَذَابٌ","translation":{"text":"শাস্তি","language_name":"bengali","language_id":20},"transliteration":{"text":"ʿadhābun","language_name":"english","language_id":38}},{"id":12270,"position":5,"audio_url":"wbw/044_011_006.mp3","char_type_name":"word","page_number":496,"line_number":10,"text":"أَلِيمٌۭ","translation":{"text":"নিদারুণ","language_name":"bengali","language_id":20},"transliteration":{"text":"alīmun","language_name":"english","language_id":38}},{"id":12271,"position":6,"audio_url":null,"char_type_name":"end","page_number":496,"line_number":10,"text":"١١","translation":{"text":"(১১)","language_name":"bengali","language_id":20},"transliteration":{"text":null,"language_name":"english","language_id":38}}]},{"id":4426,"verse_number":12,"verse_key":"44:12","hizb_number":50,"rub_el_hizb_number":198,"ruku_number":433,"manzil_number":6,"sajdah_number":null,"page_number":496,"juz_number":25,"words":[{"id":13603,"position":1,"audio_url":"wbw/044_012_001.mp3","char_type_name":"word","page_number":496,"line_number":10,"text":"رَّبَّنَا","translation":{"text":"\"(এখন তারা বলে) হে আমাদের রব","language_name":"bengali","language_id":20},"transliteration":{"text":"rabbanā","language_name":"english","language_id":38}},{"id":13604,"position":2,"audio_url":"wbw/044_012_002.mp3","char_type_name":"word","page_number":496,"line_number":10,"text":"ٱكْشِفْ","translation":{"text":"দূর করো","language_name":"bengali","language_id":20},"transliteration":{"text":"ik'shif","language_name":"english","language_id":38}},{"id":13605,"position":3,"audio_url":"wbw/044_012_003.mp3","char_type_name":"word","page_number":496,"line_number":10,"text":"عَنَّا","translation":{"text":"আমাদের থেকে","language_name":"bengali","language_id":20},"transliteration":{"text":"ʿannā","language_name":"english","language_id":38}},{"id":13606,"position":4,"audio_url":"wbw/044_012_004.mp3","char_type_name":"word","page_number":496,"line_number":10,"text":"ٱلْعَذَابَ","translation":{"text":"শাস্তি","language_name":"bengali","language_id":20},"transliteration":{"text":"l-ʿadhāba","language_name":"english","language_id":38}},{"id":13607,"position":5,"audio_url":"wbw/044_012_005.mp3","char_type_name":"word","page_number":496,"line_number":10,"text":"إِنَّا","translation":{"text":"নিশ্চয়ই আমরা","language_name":"bengali","language_id":20},"transliteration":{"text":"innā","language_name":"english","language_id":38}},{"id":13608,"position":6,"audio_url":"wbw/044_012_006.mp3","char_type_name":"word","page_number":496,"line_number":10,"text":"مُؤْمِنُونَ","translation":{"text":"বিশ্বাসী হবো (ঈমান আনবো)\"","language_name":"bengali","language_id":20},"transliteration":{"text":"mu'minūna","language_name":"english","language_id":38}},{"id":13609,"position":7,"audio_url":null,"char_type_name":"end","page_number":496,"line_number":11,"text":"١٢","translation":{"text":"(১২)","language_name":"bengali","language_id":20},"transliteration":{"text":null,"language_name":"english","language_id":38}}]},{"id":4427,"verse_number":13,"verse_key":"44:13","hizb_number":50,"rub_el_hizb_number":198,"ruku_number":433,"manzil_number":6,"sajdah_number":null,"page_number":496,"juz_number":25,"words":[{"id":14802,"position":1,"audio_url":"wbw/044_013_001.mp3","char_type_name":"word","page_number":496,"line_number":11,"text":"أَنَّىٰ","translation":{"text":"কেমন করে হবে","language_name":"bengali","language_id":20},"transliteration":{"text":"annā","language_name":"english","language_id":38}},{"id":14803,"position":2,"audio_url":"wbw/044_013_002.mp3","char_type_name":"word","page_number":496,"line_number":11,"text":"لَهُمُ","translation":{"text":"তাদের জন্যে","language_name":"bengali","language_id":20},"transliteration":{"text":"lahumu","language_name":"english","language_id":38}},{"id":14804,"position":3,"audio_url":"wbw/044_013_003.mp3","char_type_name":"word","page_number":496,"line_number":11,"text":"ٱلذِّكْرَىٰ","translation":{"text":"উপদেশ গ্রহণ (সম্ভব হবে)","language_name":"bengali","language_id":20},"transliteration":{"text":"l-dhik'rā","language_name":"english","language_id":38}},{"id":14805,"position":4,"audio_url":"wbw/044_013_004.mp3","char_type_name":"word","page_number":496,"line_number":11,"text":"وَقَدْ","translation":{"text":"অথচ নিশ্চয়ই","language_name":"bengali","language_id":20},"transliteration":{"text":"waqad","language_name":"english","language_id":38}},{"id":14806,"position":5,"audio_url":"wbw/044_013_005.mp3","char_type_name":"word","page_number":496,"line_number":11,"text":"جَآءَهُمْ","translation":{"text":"তাদের কাছে এসেছে","language_name":"bengali","language_id":20},"transliteration":{"text":"jāahum","language_name":"english","language_id":38}},{"id":14807,"position":6,"audio_url":"wbw/044_013_006.mp3","char_type_name":"word","page_number":496,"line_number":11,"text":"رَسُولٌۭ","translation":{"text":"একজন রাসূল","language_name":"bengali","language_id":20},"transliteration":{"text":"rasūlun","language_name":"english","language_id":38}},{"id":14808,"position":7,"audio_url":"wbw/044_013_007.mp3","char_type_name":"word","page_number":496,"line_number":11,"text":"مُّبِينٌۭ","translation":{"text":"সুস্পষ্ট","language_name":"bengali","language_id":20},"transliteration":{"text":"mubīnun","language_name":"english","language_id":38}},{"id":14809,"position":8,"audio_url":null,"char_type_name":"end","page_number":496,"line_number":11,"text":"١٣","translation":{"text":"(১৩)","language_name":"bengali","language_id":20},"transliteration":{"text":null,"language_name":"english","language_id":38}}]},{"id":4428,"verse_number":14,"verse_key":"44:14","hizb_number":50,"rub_el_hizb_number":198,"ruku_number":433,"manzil_number":6,"sajdah_number":null,"page_number":496,"juz_number":25,"words":[{"id":15880,"position":1,"audio_url":"wbw/044_014_001.mp3","char_type_name":"word","page_number":496,"line_number":11,"text":"ثُمَّ","translation":{"text":"এরপরও","language_name":"bengali","language_id":20},"transliteration":{"text":"thumma","language_name":"english","language_id":38}},{"id":15881,"position":2,"audio_url":"wbw/044_014_002.mp3","char_type_name":"word","page_number":496,"line_number":12,"text":"تَوَلَّوْا۟","translation":{"text":"তারা ফিরে যায়","language_name":"bengali","language_id":20},"transliteration":{"text":"tawallaw","language_name":"english","language_id":38}},{"id":15882,"position":3,"audio_url":"wbw/044_014_003.mp3","char_type_name":"word","page_number":496,"line_number":12,"text":"عَنْهُ","translation":{"text":"তা হ'তে","language_name":"bengali","language_id":20},"transliteration":{"text":"ʿanhu","language_name":"english","language_id":38}},{"id":15883,"position":4,"audio_url":"wbw/044_014_004.mp3","char_type_name":"word","page_number":496,"line_number":12,"text":"وَقَالُوا۟","translation":{"text":"এবং তারা বললো","language_name":"bengali","language_id":20},"transliteration":{"text":"waqālū","language_name":"english","language_id":38}},{"id":15884,"position":5,"audio_url":"wbw/044_014_005.mp3","char_type_name":"word","page_number":496,"line_number":12,"text":"مُعَلَّمٌۭ","translation":{"text":"\"(সে একজন) প্রশিক্ষণপ্রাপ্ত","language_name":"bengali","language_id":20},"transliteration":{"text":"muʿallamun","language_name":"english","language_id":38}},{"id":15885,"position":6,"audio_url":"wbw/044_014_006.mp3","char_type_name":"word","page_number":496,"line_number":12,"text":"مَّجْنُونٌ","translation":{"text":"পাগল\"","language_name":"bengali","language_id":20},"transliteration":{"text":"majnūnun","language_name":"english","language_id":38}},{"id":15886,"position":7,"audio_url":null,"char_type_name":"end","page_number":496,"line_number":12,"text":"١٤","translation":{"text":"(১৪)","language_name":"bengali","language_id":20},"transliteration":{"text":null,"language_name":"english","language_id":38}}]},{"id":4429,"verse_number":15,"verse_key":"44:15","hizb_number":50,"rub_el_hizb_number":198,"ruku_number":433,"manzil_number":6,"sajdah_number":null,"page_number":496,"juz_number":25,"words":[{"id":17000,"position":1,"audio_url":"wbw/044_015_001.mp3","char_type_name":"word","page_number":496,"line_number":12,"text":"إِنَّا","translation":{"text":"নিশ্চয়ই আমরা","language_name":"bengali","language_id":20},"transliteration":{"text":"innā","language_name":"english","language_id":38}},{"id":17001,"position":2,"audio_url":"wbw/044_015_002.mp3","char_type_name":"word","page_number":496,"line_number":12,"text":"كَاشِفُوا۟","translation":{"text":"দূর করে দিই","language_name":"bengali","language_id":20},"transliteration":{"text":"kāshifū","language_name":"english","language_id":38}},{"id":17002,"position":3,"audio_url":"wbw/044_015_003.mp3","char_type_name":"word","page_number":496,"line_number":12,"text":"ٱلْعَذَابِ","translation":{"text":"শাস্তি","language_name":"bengali","language_id":20},"transliteration":{"text":"l-ʿadhābi","language_name":"english","language_id":38}},{"id":17003,"position":4,"audio_url":"wbw/044_015_004.mp3","char_type_name":"word","page_number":496,"line_number":12,"text":"قَلِيلًا ۚ","translation":{"text":"কিছুটা (তবুও)","language_name":"bengali","language_id":20},"transliteration":{"text":"qalīlan","language_name":"english","language_id":38}},{"id":17005,"position":5,"audio_url":"wbw/044_015_006.mp3","char_type_name":"word","page_number":496,"line_number":13,"text":"إِنَّكُمْ","translation":{"text":"তোমরা নিশ্চয়ই","language_name":"bengali","language_id":20},"transliteration":{"text":"innakum","language_name":"english","language_id":38}},{"id":17006,"position":6,"audio_url":"wbw/044_015_007.mp3","char_type_name":"word","page_number":496,"line_number":13,"text":"عَآئِدُونَ","translation":{"text":"আগের অবস্হায় ফিরে যাও (যা পূর্বে করতে)","language_name":"bengali","language_id":20},"transliteration":{"text":"ʿāidūna","language_name":"english","language_id":38}},{"id":17007,"position":7,"audio_url":null,"char_type_name":"end","page_number":496,"line_number":13,"text":"١٥","translation":{"text":"(১৫)","language_name":"bengali","language_id":20},"transliteration":{"text":null,"language_name":"english","language_id":38}}]},{"id":4430,"verse_number":16,"verse_key":"44:16","hizb_number":50,"rub_el_hizb_number":198,"ruku_number":433,"manzil_number":6,"sajdah_number":null,"page_number":496,"juz_number":25,"words":[{"id":18106,"position":1,"audio_url":"wbw/044_016_001.mp3","char_type_name":"word","page_number":496,"line_number":13,"text":"يَوْمَ","translation":{"text":"যেদিন","language_name":"bengali","language_id":20},"transliteration":{"text":"yawma","language_name":"english","language_id":38}},{"id":18107,"position":2,"audio_url":"wbw/044_016_002.mp3","char_type_name":"word","page_number":496,"line_number":13,"text":"نَبْطِشُ","translation":{"text":"আমরা পাকড়াও করবো","language_name":"bengali","language_id":20},"transliteration":{"text":"nabṭishu","language_name":"english","language_id":38}},{"id":18108,"position":3,"audio_url":"wbw/044_016_003.mp3","char_type_name":"word","page_number":496,"line_number":13,"text":"ٱلْبَطْشَةَ","translation":{"text":"পাকড়াও","language_name":"bengali","language_id":20},"transliteration":{"text":"l-baṭshata","language_name":"english","language_id":38}},{"id":18109,"position":4,"audio_url":"wbw/044_016_004.mp3","char_type_name":"word","page_number":496,"line_number":13,"text":"ٱلْكُبْرَىٰٓ","translation":{"text":"কঠিনভাবে","language_name":"bengali","language_id":20},"transliteration":{"text":"l-kub'rā","language_name":"english","language_id":38}},{"id":18110,"position":5,"audio_url":"wbw/044_016_005.mp3","char_type_name":"word","page_number":496,"line_number":13,"text":"إِنَّا","translation":{"text":"নিশ্চয়ই আমরা","language_name":"bengali","language_id":20},"transliteration":{"text":"innā","language_name":"english","language_id":38}},{"id":18111,"position":6,"audio_url":"wbw/044_016_006.mp3","char_type_name":"word","page_number":496,"line_number":13,"text":"مُنتَقِمُونَ","translation":{"text":"প্রতিশোধ গ্রহণকারী(সেহদিন)","language_name":"bengali","language_id":20},"transliteration":{"text":"muntaqimūna","language_name":"english","language_id":38}},{"id":18112,"position":7,"audio_url":null,"char_type_name":"end","page_number":496,"line_number":14,"text":"١٦","translation":{"text":"(১৬)","language_name":"bengali","language_id":20},"transliteration":{"text":null,"language_name":"english","language_id":38}}]},{"id":4431,"verse_number":17,"verse_key":"44:17","hizb_number":50,"rub_el_hizb_number":199,"ruku_number":433,"manzil_number":6,"sajdah_number":null,"page_number":496,"juz_number":25,"words":[{"id":19132,"position":1,"audio_url":"wbw/044_017_002.mp3","char_type_name":"word","page_number":496,"line_number":14,"text":"۞ وَلَقَدْ","translation":{"text":"এবং নিশ্চয়ই","language_name":"bengali","language_id":20},"transliteration":{"text":"walaqad","language_name":"english","language_id":38}},{"id":19133,"position":2,"audio_url":"wbw/044_017_003.mp3","char_type_name":"word","page_number":496,"line_number":14,"text":"فَتَنَّا","translation":{"text":"আমরা পরীক্ষা করেছি","language_name":"bengali","language_id":20},"transliteration":{"text":"fatannā","language_name":"english","language_id":38}},{"id":19134,"position":3,"audio_url":"wbw/044_017_004.mp3","char_type_name":"word","page_number":496,"line_number":14,"text":"قَبْلَهُمْ","translation":{"text":"তাদের পুর্বে","language_name":"bengali","language_id":20},"transliteration":{"text":"qablahum","language_name":"english","language_id":38}},{"id":19135,"position":4,"audio_url":"wbw/044_017_005.mp3","char_type_name":"word","page_number":496,"line_number":14,"text":"قَوْمَ","translation":{"text":"জাতিকে","language_name":"bengali","language_id":20},"transliteration":{"text":"qawma","language_name":"english","language_id":38}},{"id":19136,"position":5,"audio_url":"wbw/044_017_006.mp3","char_type_name":"word","page_number":496,"line_number":14,"text":"فِرْعَوْنَ","translation":{"text":"ফিরআউনের","language_name":"bengali","language_id":20},"transliteration":{"text":"fir'ʿawna","language_name":"english","language_id":38}},{"id":19137,"position":6,"audio_url":"wbw/044_017_007.mp3","char_type_name":"word","page_number":496,"line_number":14,"text":"وَجَآءَهُمْ","translation":{"text":"এবং তাদের কাছে এসেছিলো","language_name":"bengali","language_id":20},"transliteration":{"text":"wajāahum","language_name":"english","language_id":38}},{"id":19138,"position":7,"audio_url":"wbw/044_017_008.mp3","char_type_name":"word","page_number":496,"line_number":14,"text":"رَسُولٌۭ","translation":{"text":"একজন রাসূল","language_name":"bengali","language_id":20},"transliteration":{"text":"rasūlun","language_name":"english","language_id":38}},{"id":19139,"position":8,"audio_url":"wbw/044_017_009.mp3","char_type_name":"word","page_number":496,"line_number":14,"text":"كَرِيمٌ","translation":{"text":"মহান","language_name":"bengali","language_id":20},"transliteration":{"text":"karīmun","language_name":"english","language_id":38}},{"id":19140,"position":9,"audio_url":null,"char_type_name":"end","page_number":496,"line_number":15,"text":"١٧","translation":{"text":"(১৭)","language_name":"bengali","language_id":20},"transliteration":{"text":null,"language_name":"english","language_id":38}}]},{"id":4432,"verse_number":18,"verse_key":"44:18","hizb_number":50,"rub_el_hizb_number":199,"ruku_number":433,"manzil_number":6,"sajdah_number":null,"page_number":496,"juz_number":25,"words":[{"id":20244,"position":1,"audio_url":"wbw/044_018_001.mp3","char_type_name":"word","page_number":496,"line_number":15,"text":"أَنْ","translation":{"text":"(সে বলেছিলো) যে","language_name":"bengali","language_id":20},"transliteration":{"text":"an","language_name":"english","language_id":38}},{"id":20245,"position":2,"audio_url":"wbw/044_018_002.mp3","char_type_name":"word","page_number":496,"line_number":15,"text":"أَدُّوٓا۟","translation":{"text":"\"তোমরা সমর্পণ করো","language_name":"bengali","language_id":20},"transliteration":{"text":"addū","language_name":"english","language_id":38}},{"id":20246,"position":3,"audio_url":"wbw/044_018_003.mp3","char_type_name":"word","page_number":496,"line_number":15,"text":"إِلَىَّ","translation":{"text":"আমার কাছে","language_name":"bengali","language_id":20},"transliteration":{"text":"ilayya","language_name":"english","language_id":38}},{"id":20247,"position":4,"audio_url":"wbw/044_018_004.mp3","char_type_name":"word","page_number":496,"line_number":15,"text":"عِبَادَ","translation":{"text":"দাসদেরকে","language_name":"bengali","language_id":20},"transliteration":{"text":"ʿibāda","language_name":"english","language_id":38}},{"id":20248,"position":5,"audio_url":"wbw/044_018_005.mp3","char_type_name":"word","page_number":496,"line_number":15,"text":"ٱللَّهِ ۖ","translation":{"text":"আল্লাহ্‌র","language_name":"bengali","language_id":20},"transliteration":{"text":"l-lahi","language_name":"english","language_id":38}},{"id":20250,"position":6,"audio_url":"wbw/044_018_007.mp3","char_type_name":"word","page_number":496,"line_number":15,"text":"إِنِّى","translation":{"text":"নিশ্চয়ই আমি","language_name":"bengali","language_id":20},"transliteration":{"text":"innī","language_name":"english","language_id":38}},{"id":20251,"position":7,"audio_url":"wbw/044_018_008.mp3","char_type_name":"word","page_number":496,"line_number":15,"text":"لَكُمْ","translation":{"text":"তোমাদের জন্যে","language_name":"bengali","language_id":20},"transliteration":{"text":"lakum","language_name":"english","language_id":38}},{"id":20252,"position":8,"audio_url":"wbw/044_018_009.mp3","char_type_name":"word","page_number":496,"line_number":15,"text":"رَسُولٌ","translation":{"text":"রাসূল","language_name":"bengali","language_id":20},"transliteration":{"text":"rasūlun","language_name":"english","language_id":38}},{"id":20253,"position":9,"audio_url":"wbw/044_018_010.mp3","char_type_name":"word","page_number":496,"line_number":15,"text":"أَمِينٌۭ","translation":{"text":"বিশ্বস্ত","language_name":"bengali","language_id":20},"transliteration":{"text":"amīnun","language_name":"english","language_id":38}},{"id":20254,"position":10,"audio_url":null,"char_type_name":"end","page_number":496,"line_number":15,"text":"١٨","translation":{"text":"(১৮)","language_name":"bengali","language_id":20},"transliteration":{"text":null,"language_name":"english","language_id":38}}]},{"id":4433,"verse_number":19,"verse_key":"44:19","hizb_number":50,"rub_el_hizb_number":199,"ruku_number":433,"manzil_number":6,"sajdah_number":null,"page_number":497,"juz_number":25,"words":[{"id":21347,"position":1,"audio_url":"wbw/044_019_001.mp3","char_type_name":"word","page_number":497,"line_number":1,"text":"وَأَن","translation":{"text":"এবং (এও বলেছিল) যে","language_name":"bengali","language_id":20},"transliteration":{"text":"wa-an","language_name":"english","language_id":38}},{"id":21348,"position":2,"audio_url":"wbw/044_019_002.mp3","char_type_name":"word","page_number":497,"line_number":1,"text":"لَّا","translation":{"text":"না","language_name":"bengali","language_id":20},"transliteration":{"text":"lā","language_name":"english","language_id":38}},{"id":21349,"position":3,"audio_url":"wbw/044_019_003.mp3","char_type_name":"word","page_number":497,"line_number":1,"text":"تَعْلُوا۟","translation":{"text":"বড়াই করো","language_name":"bengali","language_id":20},"transliteration":{"text":"taʿlū","language_name":"english","language_id":38}},{"id":21350,"position":4,"audio_url":"wbw/044_019_004.mp3","char_type_name":"word","page_number":497,"line_number":1,"text":"عَلَى","translation":{"text":"উপর","language_name":"bengali","language_id":20},"transliteration":{"text":"ʿalā","language_name":"english","language_id":38}},{"id":21351,"position":5,"audio_url":"wbw/044_019_005.mp3","char_type_name":"word","page_number":497,"line_number":1,"text":"ٱللَّهِ ۖ","translation":{"text":"আল্লাহ্‌র","language_name":"bengali","language_id":20},"transliteration":{"text":"l-lahi","language_name":"english","language_id":38}},{"id":21353,"position":6,"audio_url":"wbw/044_019_007.mp3","char_type_name":"word","page_number":497,"line_number":1,"text":"إِنِّىٓ","translation":{"text":"আমি নিশ্চয়ই","language_name":"bengali","language_id":20},"transliteration":{"text":"innī","language_name":"english","language_id":38}},{"id":21354,"position":7,"audio_url":"wbw/044_019_008.mp3","char_type_name":"word","page_number":497,"line_number":1,"text":"ءَاتِيكُم","translation":{"text":"তোমাদের কাছে এসেছি","language_name":"bengali","language_id":20},"transliteration":{"text":"ātīkum","language_name":"english","language_id":38}},{"id":21355,"position":8,"audio_url":"wbw/044_019_009.mp3","char_type_name":"word","page_number":497,"line_number":1,"text":"بِسُلْطَـٰنٍۢ","translation":{"text":"নিয়ে প্রমাণ","language_name":"bengali","language_id":20},"transliteration":{"text":"bisul'ṭānin","language_name":"english","language_id":38}},{"id":21356,"position":9,"audio_url":"wbw/044_019_010.mp3","char_type_name":"word","page_number":497,"line_number":1,"text":"مُّبِينٍۢ","translation":{"text":"সুস্পষ্ট","language_name":"bengali","language_id":20},"transliteration":{"text":"mubīnin","language_name":"english","language_id":38}},{"id":21357,"position":10,"audio_url":null,"char_type_name":"end","page_number":497,"line_number":1,"text":"١٩","translation":{"text":"(১৯)","language_name":"bengali","language_id":20},"transliteration":{"text":null,"language_name":"english","language_id":38}}]},{"id":4434,"verse_number":20,"verse_key":"44:20","hizb_number":50,"rub_el_hizb_number":199,"ruku_number":433,"manzil_number":6,"sajdah_number":null,"page_number":497,"juz_number":25,"words":[{"id":22401,"position":1,"audio_url":"wbw/044_020_001.mp3","char_type_name":"word","page_number":497,"line_number":1,"text":"وَإِنِّى","translation":{"text":"এবং নিশ্চয়ই আমি","language_name":"bengali","language_id":20},"transliteration":{"text":"wa-innī","language_name":"english","language_id":38}},{"id":22402,"position":2,"audio_url":"wbw/044_020_002.mp3","char_type_name":"word","page_number":497,"line_number":1,"text":"عُذْتُ","translation":{"text":"আশ্রয় নিয়েছি","language_name":"bengali","language_id":20},"transliteration":{"text":"ʿudh'tu","language_name":"english","language_id":38}},{"id":22403,"position":3,"audio_url":"wbw/044_020_003.mp3","char_type_name":"word","page_number":497,"line_number":2,"text":"بِرَبِّى","translation":{"text":"আমার রবের (কাছে)","language_name":"bengali","language_id":20},"transliteration":{"text":"birabbī","language_name":"english","language_id":38}},{"id":22404,"position":4,"audio_url":"wbw/044_020_004.mp3","char_type_name":"word","page_number":497,"line_number":2,"text":"وَرَبِّكُمْ","translation":{"text":"এবং তোমাদের (প্রকৃত রবের)","language_name":"bengali","language_id":20},"transliteration":{"text":"warabbikum","language_name":"english","language_id":38}},{"id":22405,"position":5,"audio_url":"wbw/044_020_005.mp3","char_type_name":"word","page_number":497,"line_number":2,"text":"أَن","translation":{"text":"(এ হ'তে) যে","language_name":"bengali","language_id":20},"transliteration":{"text":"an","language_name":"english","language_id":38}},{"id":22406,"position":6,"audio_url":"wbw/044_020_006.mp3","char_type_name":"word","page_number":497,"line_number":2,"text":"تَرْجُمُونِ","translation":{"text":"আমাকে তোমরা পাথর মেরে হত্যা করবে","language_name":"bengali","language_id":20},"transliteration":{"text":"tarjumūni","language_name":"english","language_id":38}},{"id":22407,"position":7,"audio_url":null,"char_type_name":"end","page_number":497,"line_number":2,"text":"٢٠","translation":{"text":"(২০)","language_name":"bengali","language_id":20},"transliteration":{"text":null,"language_name":"english","language_id":38}}]}],"pagination":{"per_page":10,"current_page":2,"next_page":3,"total_pages":6,"total_records":59}}
