{"verses":[{"id":4435,"verse_number":21,"verse_key":"44:21","hizb_number":50,"rub_el_hizb_number":199,"ruku_number":433,"manzil_number":6,"sajdah_number":null,"page_number":497,"juz_number":25,"words":[{"id":23533,"position":1,"audio_url":"wbw/044_021_001.mp3","verse_key":"44:21","verse_id":4435,"location":"44:21:1","text_uthmani":"وَإِن","qpc_uthmani_hafs":"وَإِن","char_type_name":"word","page_number":497,"line_number":2,"text":"وَإِن","translation":{"text":"আর যদি","language_name":"bengali","language_id":20},"transliteration":{"text":"wa-in","language_name":"english","language_id":38}},{"id":23534,"position":2,"audio_url":"wbw/044_021_002.mp3","verse_key":"44:21","verse_id":4435,"location":"44:21:2","text_uthmani":"لَّمْ","qpc_uthmani_hafs":"لَّمۡ","char_type_name":"word","page_number":497,"line_number":2,"text":"لَّمۡ","translation":{"text":"না","language_name":"bengali","language_id":20},"transliteration":{"text":"lam","language_name":"english","language_id":38}},{"id":23535,"position":3,"audio_url":"wbw/044_021_003.mp3","verse_key":"44:21","verse_id":4435,"location":"44:21:3","text_uthmani":"تُؤْمِنُوا۟","qpc_uthmani_hafs":"تُؤۡمِنُواْ","char_type_name":"word","page_number":497,"line_number":2,"text":"تُؤۡمِنُواْ","translation":{"text":"তোমরা ঈমান আনো","language_name":"bengali","language_id":20},"transliteration":{"text":"tu'minū","language_name":"english","language_id":38}},{"id":23536,"position":4,"audio_url":"wbw/044_021_004.mp3","verse_key":"44:21","verse_id":4435,"location":"44:21:4","text_uthmani":"لِى","qpc_uthmani_hafs":"لِي","char_type_name":"word","page_number":497,"line_number":2,"text":"لِي","translation":{"text":"আমার উপর","language_name":"bengali","language_id":20},"transliteration":{"text":"lī","language_name":"english","language_id":38}},{"id":23537,"position":5,"audio_url":"wbw/044_021_005.mp3","verse_key":"44:21","verse_id":4435,"location":"44:21:5","text_uthmani":"فَٱعْتَزِلُونِ","qpc_uthmani_hafs":"فَٱعۡتَزِلُونِ","char_type_name":"word","page_number":497,"line_number":2,"text":"فَٱعۡتَزِلُونِ","translation":{"text":"তবে আমার থেকে দূরে থাকো\"","language_name":"bengali","language_id":20},"transliteration":{"text":"fa-iʿ'tazilūni","language_name":"english","language_id":38}},{"id":23538,"position":6,"audio_url":null,"verse_key":"44:21","verse_id":4435,"location":"44:21:6","text_uthmani":"٢١","qpc_uthmani_hafs":"٢١","char_type_name":"end","page_number":497,"line_number":2,"text":"٢١","translation":{"text":"(২১)","language_name":"bengali","language_id":20},"transliteration":{"text":null,"language_name":"english","language_id":38}}]},{"id":4436,"verse_number":22,"verse_key":"44:22","hizb_number":50,"rub_el_hizb_number":199,"ruku_number":433,"manzil_number":6,"sajdah_number":null,"page_number":497,"juz_number":25,"words":[{"id":24568,"position":1,"audio_url":"wbw/044_022_001.mp3","verse_key":"44:22","verse_id":4436,"location":"44:22:1","text_uthmani":"فَدَعَا","qpc_uthmani_hafs":"فَدَعَا","char_type_name":"word","page_number":497,"line_number":3,"text":"فَدَعَا","translation":{"text":"অবশেষে সে ডাকলো","language_name":"bengali","language_id":20},"transliteration":{"text":"fadaʿā","language_name":"english","language_id":38}},{"id":24569,"position":2,"audio_url":"wbw/044_022_002.mp3","verse_key":"44:22","verse_id":4436,"location":"44:22:2","text_uthmani":"رَبَّهُۥٓ","qpc_uthmani_hafs":"رَبَّهُۥٓ","char_type_name":"word","page_number":497,"line_number":3,"text":"رَبَّهُۥٓ","translation":{"text":"তার রবকে","language_name":"bengali","language_id":20},"transliteration":{"text":"rabbahu","language_name":"english","language_id":38}},{"id":24570,"position":3,"audio_url":"wbw/044_022_003.mp3","verse_key":"44:22","verse_id":4436,"location":"44:22:3","text_uthmani":"أَنَّ","qpc_uthmani_hafs":"أَنَّ","char_type_name":"word","page_number":497,"line_number":3,"text":"أَنَّ","translation":{"text":"\"(এবং বললো) যে","language_name":"bengali","language_id":20},"transliteration":{"text":"anna","language_name":"english","language_id":38}},{"id":24571,"position":4,"audio_url":"wbw/044_022_004.mp3","verse_key":"44:22","verse_id":4436,"location":"44:22:4","text_uthmani":"هَـٰٓؤُلَآءِ","qpc_uthmani_hafs":"هَٰٓؤُلَآءِ","char_type_name":"word","page_number":497,"line_number":3,"text":"هَٰٓؤُلَآءِ","translation":{"text":"এসব","language_name":"bengali","language_id":20},"transliteration":{"text":"hāulāi","language_name":"english","language_id":38}},{"id":24572,"position":5,"audio_url":"wbw/044_022_005.mp3","verse_key":"44:22","verse_id":4436,"location":"44:22:5","text_uthmani":"قَوْمٌۭ","qpc_uthmani_hafs":"قَوۡمٞ","char_type_name":"word","page_number":497,"line_number":3,"text":"قَوۡمٞ","translation":{"text":"সম্প্রদায়","language_name":"bengali","language_id":20},"transliteration":{"text":"qawmun","language_name":"english","language_id":38}},{"id":24573,"position":6,"audio_url":"wbw/044_022_006.mp3","verse_key":"44:22","verse_id":4436,"location":"44:22:6","text_uthmani":"مُّجْرِمُونَ","qpc_uthmani_hafs":"مُّجۡرِمُونَ","char_type_name":"word","page_number":497,"line_number":3,"text":"مُّجۡرِمُونَ","translation":{"text":"অপরাধী (তাদের মীমাংসা করো)\"","language_name":"bengali","language_id":20},"transliteration":{"text":"muj'rimūna","language_name":"english","language_id":38}},{"id":24574,"position":7,"audio_url":null,"verse_key":"44:22","verse_id":4436,"location":"44:22:7","text_uthmani":"٢٢","qpc_uthmani_hafs":"٢٢","char_type_name":"end","page_number":497,"line_number":3,"text":"٢٢","translation":{"text":"(২২)","language_name":"bengali","language_id":20},"transliteration":{"text":null,"language_name":"english","language_id":38}}]},{"id":4437,"verse_number":23,"verse_key":"44:23","hizb_number":50,"rub_el_hizb_number":199,"ruku_number":433,"manzil_number":6,"sajdah_number":null,"page_number":497,"juz_number":25,"words":[{"id":25639,"position":1,"audio_url":"wbw/044_023_001.mp3","verse_key":"44:23","verse_id":4437,"location":"44:23:1","text_uthmani":"فَأَسْرِ","qpc_uthmani_hafs":"فَأَسۡرِ","char_type_name":"word","page_number":497,"line_number":3,"text":"فَأَسۡرِ","translation":{"text":"(বলা হলো) রওনা হও তাহ'লে","language_name":"bengali","language_id":20},"transliteration":{"text":"fa-asri","language_name":"english","language_id":38}},{"id":25640,"position":2,"audio_url":"wbw/044_023_002.mp3","verse_key":"44:23","verse_id":4437,"location":"44:23:2","text_uthmani":"بِعِبَادِى","qpc_uthmani_hafs":"بِعِبَادِي","char_type_name":"word","page_number":497,"line_number":3,"text":"بِعِبَادِي","translation":{"text":"আমার দাসদের নিয়ে","language_name":"bengali","language_id":20},"transliteration":{"text":"biʿibādī","language_name":"english","language_id":38}},{"id":25641,"position":3,"audio_url":"wbw/044_023_003.mp3","verse_key":"44:23","verse_id":4437,"location":"44:23:3","text_uthmani":"لَيْلًا","qpc_uthmani_hafs":"لَيۡلًا","char_type_name":"word","page_number":497,"line_number":3,"text":"لَيۡلًا","translation":{"text":"রাতে","language_name":"bengali","language_id":20},"transliteration":{"text":"laylan","language_name":"english","language_id":38}},{"id":25642,"position":4,"audio_url":"wbw/044_023_004.mp3","verse_key":"44:23","verse_id":4437,"location":"44:23:4","text_uthmani":"إِنَّكُم","qpc_uthmani_hafs":"إِنَّكُم","char_type_name":"word","page_number":497,"line_number":3,"text":"إِنَّكُم","translation":{"text":"নিশ্চয়ই তোমাদের","language_name":"bengali","language_id":20},"transliteration":{"text":"innakum","language_name":"english","language_id":38}},{"id":25643,"position":5,"audio_url":"wbw/044_023_005.mp3","verse_key":"44:23","verse_id":4437,"location":"44:23:5","text_uthmani":"مُّتَّبَعُونَ","qpc_uthmani_hafs":"مُّتَّبَعُونَ","char_type_name":"word","page_number":497,"line_number":4,"text":"مُّتَّبَعُونَ","translation":{"text":"পিছনে (ধাওয়া) করা হবে","language_name":"bengali","language_id":20},"transliteration":{"text":"muttabaʿūna","language_name":"english","language_id":38}},{"id":25644,"position":6,"audio_url":null,"verse_key":"44:23","verse_id":4437,"location":"44:23:6","text_uthmani":"٢٣","qpc_uthmani_hafs":"٢٣","char_type_name":"end","page_number":497,"line_number":4,"text":"٢٣","translation":{"text":"(২৩)","language_name":"bengali","language_id":20},"transliteration":{"text":null,"language_name":"english","language_id":38}}]},{"id":4438,"verse_number":24,"verse_key":"44:24","hizb_number":50,"rub_el_hizb_number":199,"ruku_number":433,"manzil_number":6,"sajdah_number":null,"page_number":497,"juz_number":25,"words":[{"id":26708,"position":1,"audio_url":"wbw/044_024_001.mp3","verse_key":"44:24","verse_id":4438,"location":"44:24:1","text_uthmani":"وَٱتْرُكِ","qpc_uthmani_hafs":"وَٱتۡرُكِ","char_type_name":"word","page_number":497,"line_number":4,"text":"وَٱتۡرُكِ","translation":{"text":"এবং ছেড়ে দাও","language_name":"bengali","language_id":20},"transliteration":{"text":"wa-ut'ruki","language_name":"english","language_id":38}},{"id":26709,"position":2,"audio_url":"wbw/044_024_002.mp3","verse_key":"44:24","verse_id":4438,"location":"44:24:2","text_uthmani":"ٱلْبَحْرَ","qpc_uthmani_hafs":"ٱلۡبَحۡرَ","char_type_name":"word","page_number":497,"line_number":4,"text":"ٱلۡبَحۡرَ","translation":{"text":"সাগরকে","language_name":"bengali","language_id":20},"transliteration":{"text":"l-baḥra","language_name":"english","language_id":38}},{"id":26710,"position":3,"audio_url":"wbw/044_024_003.mp3","verse_key":"44:24","verse_id":4438,"location":"44:24:3","text_uthmani":"رَهْوًا ۖ","qpc_uthmani_hafs":"رَهۡوًاۖ","char_type_name":"word","page_number":497,"line_number":4,"text":"رَهۡوًاۖ","translation":{"text":"শান্ত অবস্হায়","language_name":"bengali","language_id":20},"transliteration":{"text":"rahwan","language_name":"english","language_id":38}},{"id":26712,"position":4,"audio_url":"wbw/044_024_005.mp3","verse_key":"44:24","verse_id":4438,"location":"44:24:4","text_uthmani":"إِنَّهُمْ","qpc_uthmani_hafs":"إِنَّهُمۡ","char_type_name":"word","page_number":497,"line_number":4,"text":"إِنَّهُمۡ","translation":{"text":"তারা নিশ্চয়ই","language_name":"bengali","language_id":20},"transliteration":{"text":"innahum","language_name":"english","language_id":38}},{"id":26713,"position":5,"audio_url":"wbw/044_024_006.mp3","verse_key":"44:24","verse_id":4438,"location":"44:24:5","text_uthmani":"جُندٌۭ","qpc_uthmani_hafs":"جُندٞ","char_type_name":"word","page_number":497,"line_number":4,"text":"جُندٞ","translation":{"text":"(অর্থাৎ ধাওয়াকারী) সৈন্যবাহিনী","language_name":"bengali","language_id":20},"transliteration":{"text":"jundun","language_name":"english","language_id":38}},{"id":26714,"position":6,"audio_url":"wbw/044_024_007.mp3","verse_key":"44:24","verse_id":4438,"location":"44:24:6","text_uthmani":"مُّغْرَقُونَ","qpc_uthmani_hafs":"مُّغۡرَقُونَ","char_type_name":"word","page_number":497,"line_number":4,"text":"مُّغۡرَقُونَ","translation":{"text":"ডুবে যাবে\"","language_name":"bengali","language_id":20},"transliteration":{"text":"mugh'raqūna","language_name":"english","language_id":38}},{"id":26715,"position":7,"audio_url":null,"verse_key":"44:24","verse_id":4438,"location":"44:24:7","text_uthmani":"٢٤","qpc_uthmani_hafs":"٢٤","char_type_name":"end","page_number":497,"line_number":4,"text":"٢٤","translation":{"text":"(২৪)","language_name":"bengali","language_id":20},"transliteration":{"text":null,"language_name":"english","language_id":38}}]},{"id":4439,"verse_number":25,"verse_key":"44:25","hizb_number":50,"rub_el_hizb_number":199,"ruku_number":433,"manzil_number":6,"sajdah_number":null,"page_number":497,"juz_number":25,"words":[{"id":27726,"position":1,"audio_url":"wbw/044_025_001.mp3","verse_key":"44:25","verse_id":4439,"location":"44:25:1","text_uthmani":"كَمْ","qpc_uthmani_hafs":"كَمۡ","char_type_name":"word","page_number":497,"line_number":4,"text":"كَمۡ","translation":{"text":"কতই না","language_name":"bengali","language_id":20},"transliteration":{"text":"kam","language_name":"english","language_id":38}},{"id":27727,"position":2,"audio_url":"wbw/044_025_002.mp3","verse_key":"44:25","verse_id":4439,"location":"44:25:2","text_uthmani":"تَرَكُوا۟","qpc_uthmani_hafs":"تَرَكُواْ","char_type_name":"word","page_number":497,"line_number":5,"text":"تَرَكُواْ","translation":{"text":"তারা ছেড়েছিলো","language_name":"bengali","language_id":20},"transliteration":{"text":"tarakū","language_name":"english","language_id":38}},{"id":27728,"position":3,"audio_url":"wbw/044_025_003.mp3","verse_key":"44:25","verse_id":4439,"location":"44:25:3","text_uthmani":"مِن","qpc_uthmani_hafs":"مِن","char_type_name":"word","page_number":497,"line_number":5,"text":"مِن","translation":{"text":"মধ্য হতে","language_name":"bengali","language_id":20},"transliteration":{"text":"min","language_name":"english","language_id":38}},{"id":27729,"position":4,"audio_url":"wbw/044_025_004.mp3","verse_key":"44:25","verse_id":4439,"location":"44:25:4","text_uthmani":"جَنَّـٰتٍۢ","qpc_uthmani_hafs":"جَنَّٰتٖ","char_type_name":"word","page_number":497,"line_number":5,"text":"جَنَّٰتٖ","translation":{"text":"বাগান","language_name":"bengali","language_id":20},"transliteration":{"text":"jannātin","language_name":"english","language_id":38}},{"id":27730,"position":5,"audio_url":"wbw/044_025_005.mp3","verse_key":"44:25","verse_id":4439,"location":"44:25:5","text_uthmani":"وَعُيُونٍۢ","qpc_uthmani_hafs":"وَعُيُونٖ","char_type_name":"word","page_number":497,"line_number":5,"text":"وَعُيُونٖ","translation":{"text":"ও ঝর্ণাসমূহ","language_name":"bengali","language_id":20},"transliteration":{"text":"waʿuyūnin","language_name":"english","language_id":38}},{"id":27731,"position":6,"audio_url":null,"verse_key":"44:25","verse_id":4439,"location":"44:25:6","text_uthmani":"٢٥","qpc_uthmani_hafs":"٢٥","char_type_name":"end","page_number":497,"line_number":5,"text":"٢٥","translation":{"text":"(২৫)","language_name":"bengali","language_id":20},"transliteration":{"text":null,"language_name":"english","language_id":38}}]},{"id":4440,"verse_number":26,"verse_key":"44:26","hizb_number":50,"rub_el_hizb_number":199,"ruku_number":433,"manzil_number":6,"sajdah_number":null,"page_number":497,"juz_number":25,"words":[{"id":29139,"position":1,"audio_url":"wbw/044_026_001.mp3","verse_key":"44:26","verse_id":4440,"location":"44:26:1","text_uthmani":"وَزُرُوعٍۢ","qpc_uthmani_hafs":"وَزُرُوعٖ","char_type_name":"word","page_number":497,"line_number":5,"text":"وَزُرُوعٖ","translation":{"text":"এবং শস্যক্ষেত","language_name":"bengali","language_id":20},"transliteration":{"text":"wazurūʿin","language_name":"english","language_id":38}},{"id":29140,"position":2,"audio_url":"wbw/044_026_002.mp3","verse_key":"44:26","verse_id":4440,"location":"44:26:2","text_uthmani":"وَمَقَامٍۢ","qpc_uthmani_hafs":"وَمَقَامٖ","char_type_name":"word","page_number":497,"line_number":5,"text":"وَمَقَامٖ","translation":{"text":"ও বাসস্থান","language_name":"bengali","language_id":20},"transliteration":{"text":"wamaqāmin","language_name":"english","language_id":38}},{"id":29141,"position":3,"audio_url":"wbw/044_026_003.mp3","verse_key":"44:26","verse_id":4440,"location":"44:26:3","text_uthmani":"كَرِيمٍۢ","qpc_uthmani_hafs":"كَرِيمٖ","char_type_name":"word","page_number":497,"line_number":5,"text":"كَرِيمٖ","translation":{"text":"সুন্দর","language_name":"bengali","language_id":20},"transliteration":{"text":"karīmin","language_name":"english","language_id":38}},{"id":29142,"position":4,"audio_url":null,"verse_key":"44:26","verse_id":4440,"location":"44:26:4","text_uthmani":"٢٦","qpc_uthmani_hafs":"٢٦","char_type_name":"end","page_number":497,"line_number":5,"text":"٢٦","translation":{"text":"(২৬)","language_name":"bengali","language_id":20},"transliteration":{"text":null,"language_name":"english","language_id":38}}]},{"id":4441,"verse_number":27,"verse_key":"44:27","hizb_number":50,"rub_el_hizb_number":199,"ruku_number":433,"manzil_number":6,"sajdah_number":null,"page_number":497,"juz_number":25,"words":[{"id":29582,"position":1,"audio_url":"wbw/044_027_001.mp3","verse_key":"44:27","verse_id":4441,"location":"44:27:1","text_uthmani":"وَنَعْمَةٍۢ","qpc_uthmani_hafs":"وَنَعۡمَةٖ","char_type_name":"word","page_number":497,"line_number":5,"text":"وَنَعۡمَةٖ","translation":{"text":"এবং বিলাস","language_name":"bengali","language_id":20},"transliteration":{"text":"wanaʿmatin","language_name":"english","language_id":38}},{"id":29583,"position":2,"audio_url":"wbw/044_027_002.mp3","verse_key":"44:27","verse_id":4441,"location":"44:27:2","text_uthmani":"كَانُوا۟","qpc_uthmani_hafs":"كَانُواْ","char_type_name":"word","page_number":497,"line_number":6,"text":"كَانُواْ","translation":{"text":"তারা ছিলো","language_name":"bengali","language_id":20},"transliteration":{"text":"kānū","language_name":"english","language_id":38}},{"id":29584,"position":3,"audio_url":"wbw/044_027_003.mp3","verse_key":"44:27","verse_id":4441,"location":"44:27:3","text_uthmani":"فِيهَا","qpc_uthmani_hafs":"فِيهَا","char_type_name":"word","page_number":497,"line_number":6,"text":"فِيهَا","translation":{"text":"যার মধ্যে","language_name":"bengali","language_id":20},"transliteration":{"text":"fīhā","language_name":"english","language_id":38}},{"id":29585,"position":4,"audio_url":"wbw/044_027_004.mp3","verse_key":"44:27","verse_id":4441,"location":"44:27:4","text_uthmani":"فَـٰكِهِينَ","qpc_uthmani_hafs":"فَٰكِهِينَ","char_type_name":"word","page_number":497,"line_number":6,"text":"فَٰكِهِينَ","translation":{"text":"আনন্দকারী (সব ছেড়ে চলে গেলো)","language_name":"bengali","language_id":20},"transliteration":{"text":"fākihīna","language_name":"english","language_id":38}},{"id":29586,"position":5,"audio_url":null,"verse_key":"44:27","verse_id":4441,"location":"44:27:5","text_uthmani":"٢٧","qpc_uthmani_hafs":"٢٧","char_type_name":"end","page_number":497,"line_number":6,"text":"٢٧","translation":{"text":"(২৭)","language_name":"bengali","language_id":20},"transliteration":{"text":null,"language_name":"english","language_id":38}}]},{"id":4442,"verse_number":28,"verse_key":"44:28","hizb_number":50,"rub_el_hizb_number":199,"ruku_number":433,"manzil_number":6,"sajdah_number":null,"page_number":497,"juz_number":25,"words":[{"id":30612,"position":1,"audio_url":"wbw/044_028_001.mp3","verse_key":"44:28","verse_id":4442,"location":"44:28:1","text_uthmani":"كَذَٰلِكَ ۖ","qpc_uthmani_hafs":"كَذَٰلِكَۖ","char_type_name":"word","page_number":497,"line_number":6,"text":"كَذَٰلِكَۖ","translation":{"text":"এভাবেই (পরিণাম হয়েছিলো)","language_name":"bengali","language_id":20},"transliteration":{"text":"kadhālika","language_name":"english","language_id":38}},{"id":30614,"position":2,"audio_url":"wbw/044_028_003.mp3","verse_key":"44:28","verse_id":4442,"location":"44:28:2","text_uthmani":"وَأَوْرَثْنَـٰهَا","qpc_uthmani_hafs":"وَأَوۡرَثۡنَٰهَا","char_type_name":"word","page_number":497,"line_number":6,"text":"وَأَوۡرَثۡنَٰهَا","translation":{"text":"এবং তার আমরা উত্তরাধিকারী করেছিলাম","language_name":"bengali","language_id":20},"transliteration":{"text":"wa-awrathnāhā","language_name":"english","language_id":38}},{"id":30615,"position":3,"audio_url":"wbw/044_028_004.mp3","verse_key":"44:28","verse_id":4442,"location":"44:28:3","text_uthmani":"قَوْمًا","qpc_uthmani_hafs":"قَوۡمًا","char_type_name":"word","page_number":497,"line_number":6,"text":"قَوۡمًا","translation":{"text":"সম্প্রদায়কে","language_name":"bengali","language_id":20},"transliteration":{"text":"qawman","language_name":"english","language_id":38}},{"id":30616,"position":4,"audio_url":"wbw/044_028_005.mp3","verse_key":"44:28","verse_id":4442,"location":"44:28:4","text_uthmani":"ءَاخَرِينَ","qpc_uthmani_hafs":"ءَاخَرِينَ","char_type_name":"word","page_number":497,"line_number":6,"text":"ءَاخَرِينَ","translation":{"text":"অন্য","language_name":"bengali","language_id":20},"transliteration":{"text":"ākharīna","language_name":"english","language_id":38}},{"id":30617,"position":5,"audio_url":null,"verse_key":"44:28","verse_id":4442,"location":"44:28:5","text_uthmani":"٢٨","qpc_uthmani_hafs":"٢٨","char_type_name":"end","page_number":497,"line_number":6,"text":"٢٨","translation":{"text":"(২৮)","language_name":"bengali","language_id":20},"transliteration":{"text":null,"language_name":"english","language_id":38}}]},{"id":4443,"verse_number":29,"verse_key":"44:29","hizb_number":50,"rub_el_hizb_number":199,"ruku_number":433,"manzil_number":6,"sajdah_number":null,"page_number":497,"juz_number":25,"words":[{"id":31636,"position":1,"audio_url":"wbw/044_029_001.mp3","verse_key":"44:29","verse_id":4443,"location":"44:29:1","text_uthmani":"فَمَا","qpc_uthmani_hafs":"فَمَا","char_type_name":"word","page_number":497,"line_number":6,"text":"فَمَا","translation":{"text":"না অতঃপর","language_name":"bengali","language_id":20},"transliteration":{"text":"famā","language_name":"english","language_id":38}},{"id":31637,"position":2,"audio_url":"wbw/044_029_002.mp3","verse_key":"44:29","verse_id":4443,"location":"44:29:2","text_uthmani":"بَكَتْ","qpc_uthmani_hafs":"بَكَتۡ","char_type_name":"word","page_number":497,"line_number":7,"text":"بَكَتۡ","translation":{"text":"কাঁদলো","language_name":"bengali","language_id":20},"transliteration":{"text":"bakat","language_name":"english","language_id":38}},{"id":31638,"position":3,"audio_url":"wbw/044_029_003.mp3","verse_key":"44:29","verse_id":4443,"location":"44:29:3","text_uthmani":"عَلَيْهِمُ","qpc_uthmani_hafs":"عَلَيۡهِمُ","char_type_name":"word","page_number":497,"line_number":7,"text":"عَلَيۡهِمُ","translation":{"text":"তাদের উপর","language_name":"bengali","language_id":20},"transliteration":{"text":"ʿalayhimu","language_name":"english","language_id":38}},{"id":31639,"position":4,"audio_url":"wbw/044_029_004.mp3","verse_key":"44:29","verse_id":4443,"location":"44:29:4","text_uthmani":"ٱلسَّمَآءُ","qpc_uthmani_hafs":"ٱلسَّمَآءُ","char_type_name":"word","page_number":497,"line_number":7,"text":"ٱلسَّمَآءُ","translation":{"text":"আকাশ","language_name":"bengali","language_id":20},"transliteration":{"text":"l-samāu","language_name":"english","language_id":38}},{"id":31640,"position":5,"audio_url":"wbw/044_029_005.mp3","verse_key":"44:29","verse_id":4443,"location":"44:29:5","text_uthmani":"وَٱلْأَرْضُ","qpc_uthmani_hafs":"وَٱلۡأَرۡضُ","char_type_name":"word","page_number":497,"line_number":7,"text":"وَٱلۡأَرۡضُ","translation":{"text":"আর (না) পৃথিবী","language_name":"bengali","language_id":20},"transliteration":{"text":"wal-arḍu","language_name":"english","language_id":38}},{"id":31641,"position":6,"audio_url":"wbw/044_029_006.mp3","verse_key":"44:29","verse_id":4443,"location":"44:29:6","text_uthmani":"وَمَا","qpc_uthmani_hafs":"وَمَا","char_type_name":"word","page_number":497,"line_number":7,"text":"وَمَا","translation":{"text":"এবং না","language_name":"bengali","language_id":20},"transliteration":{"text":"wamā","language_name":"english","language_id":38}},{"id":31642,"position":7,"audio_url":"wbw/044_029_007.mp3","verse_key":"44:29","verse_id":4443,"location":"44:29:7","text_uthmani":"كَانُوا۟","qpc_uthmani_hafs":"كَانُواْ","char_type_name":"word","page_number":497,"line_number":7,"text":"كَانُواْ","translation":{"text":"তারা ছিলো","language_name":"bengali","language_id":20},"transliteration":{"text":"kānū","language_name":"english","language_id":38}},{"id":31643,"position":8,"audio_url":"wbw/044_029_008.mp3","verse_key":"44:29","verse_id":4443,"location":"44:29:8","text_uthmani":"مُنظَرِينَ","qpc_uthmani_hafs":"مُنظَرِينَ","char_type_name":"word","page_number":497,"line_number":7,"text":"مُنظَرِينَ","translation":{"text":"অবকাশপ্রাপ্ত","language_name":"bengali","language_id":20},"transliteration":{"text":"munẓarīna","language_name":"english","language_id":38}},{"id":31644,"position":9,"audio_url":null,"verse_key":"44:29","verse_id":4443,"location":"44:29:9","text_uthmani":"٢٩","qpc_uthmani_hafs":"٢٩","char_type_name":"end","page_number":497,"line_number":7,"text":"٢٩","translation":{"text":"(২৯)","language_name":"bengali","language_id":20},"transliteration":{"text":null,"language_name":"english","language_id":38}}]},{"id":4444,"verse_number":30,"verse_key":"44:30","hizb_number":50,"rub_el_hizb_number":199,"ruku_number":434,"manzil_number":6,"sajdah_number":null,"page_number":497,"juz_number":25,"words":[{"id":32514,"position":1,"audio_url":"wbw/044_030_001.mp3","verse_key":"44:30","verse_id":4444,"location":"44:30:1","text_uthmani":"وَلَقَدْ","qpc_uthmani_hafs":"وَلَقَدۡ","char_type_name":"word","page_number":497,"line_number":7,"text":"وَلَقَدۡ","translation":{"text":"এবং নিশ্চয়ই","language_name":"bengali","language_id":20},"transliteration":{"text":"walaqad","language_name":"english","language_id":38}},{"id":32515,"position":2,"audio_url":"wbw/044_030_002.mp3","verse_key":"44:30","verse_id":4444,"location":"44:30:2","text_uthmani":"نَجَّيْنَا","qpc_uthmani_hafs":"نَجَّيۡنَا","char_type_name":"word","page_number":497,"line_number":8,"text":"نَجَّيۡنَا","translation":{"text":"আমরা উদ্ধার করেছিলাম","language_name":"bengali","language_id":20},"transliteration":{"text":"najjaynā","language_name":"english","language_id":38}},{"id":32516,"position":3,"audio_url":"wbw/044_030_003.mp3","verse_key":"44:30","verse_id":4444,"location":"44:30:3","text_uthmani":"بَنِىٓ","qpc_uthmani_hafs":"بَنِيٓ","char_type_name":"word","page_number":497,"line_number":8,"text":"بَنِيٓ","translation":{"text":"বনী","language_name":"bengali","language_id":20},"transliteration":{"text":"banī","language_name":"english","language_id":38}},{"id":32517,"position":4,"audio_url":"wbw/044_030_004.mp3","verse_key":"44:30","verse_id":4444,"location":"44:30:4","text_uthmani":"إِسْرَٰٓءِيلَ","qpc_uthmani_hafs":"إِسۡرَٰٓءِيلَ","char_type_name":"word","page_number":497,"line_number":8,"text":"إِسۡرَٰٓءِيلَ","translation":{"text":"ইসরাঈলকে","language_name":"bengali","language_id":20},"transliteration":{"text":"is'rāīla","language_name":"english","language_id":38}},{"id":32518,"position":5,"audio_url":"wbw/044_030_005.mp3","verse_key":"44:30","verse_id":4444,"location":"44:30:5","text_uthmani":"مِنَ","qpc_uthmani_hafs":"مِنَ","char_type_name":"word","page_number":497,"line_number":8,"text":"مِنَ","translation":{"text":"থেকে","language_name":"bengali","language_id":20},"transliteration":{"text":"mina","language_name":"english","language_id":38}},{"id":32519,"position":6,"audio_url":"wbw/044_030_006.mp3","verse_key":"44:30","verse_id":4444,"location":"44:30:6","text_uthmani":"ٱلْعَذَابِ","qpc_uthmani_hafs":"ٱلۡعَذَابِ","char_type_name":"word","page_number":497,"line_number":8,"text":"ٱلۡعَذَابِ","translation":{"text":"শাস্তি","language_name":"bengali","language_id":20},"transliteration":{"text":"l-ʿadhābi","language_name":"english","language_id":38}},{"id":32520,"position":7,"audio_url":"wbw/044_030_007.mp3","verse_key":"44:30","verse_id":4444,"location":"44:30:7","text_uthmani":"ٱلْمُهِينِ","qpc_uthmani_hafs":"ٱلۡمُهِينِ","char_type_name":"word","page_number":497,"line_number":8,"text":"ٱلۡمُهِينِ","translation":{"text":"অপমানজনক","language_name":"bengali","language_id":20},"transliteration":{"text":"l-muhīni","language_name":"english","language_id":38}},{"id":32521,"position":8,"audio_url":null,"verse_key":"44:30","verse_id":4444,"location":"44:30:8","text_uthmani":"٣٠","qpc_uthmani_hafs":"٣٠","char_type_name":"end","page_number":497,"line_number":8,"text":"٣٠","translation":{"text":"(৩০)","language_name":"bengali","language_id":20},"transliteration":{"text":null,"language_name":"english","language_id":38}}]}],"pagination":{"per_page":10,"current_page":3,"next_page":4,"total_pages":6,"total_records":59}}
