{"verses":[{"id":4465,"verse_number":51,"verse_key":"44:51","hizb_number":50,"rub_el_hizb_number":199,"ruku_number":435,"manzil_number":6,"sajdah_number":null,"page_number":498,"juz_number":25,"words":[{"id":49124,"position":1,"audio_url":"wbw/044_051_001.mp3","char_type_name":"word","page_number":498,"line_number":8,"text":"إِنَّ","translation":{"text":"নিশ্চয়ই","language_name":"bengali","language_id":20},"transliteration":{"text":"inna","language_name":"english","language_id":38}},{"id":49125,"position":2,"audio_url":"wbw/044_051_002.mp3","char_type_name":"word","page_number":498,"line_number":8,"text":"ٱلْمُتَّقِينَ","translation":{"text":"মুত্তাকীরা (থাকবে)","language_name":"bengali","language_id":20},"transliteration":{"text":"l-mutaqīna","language_name":"english","language_id":38}},{"id":49126,"position":3,"audio_url":"wbw/044_051_003.mp3","char_type_name":"word","page_number":498,"line_number":8,"text":"فِى","translation":{"text":"মধ্যে","language_name":"bengali","language_id":20},"transliteration":{"text":"fī","language_name":"english","language_id":38}},{"id":49127,"position":4,"audio_url":"wbw/044_051_004.mp3","char_type_name":"word","page_number":498,"line_number":8,"text":"مَقَامٍ","translation":{"text":"স্থানের","language_name":"bengali","language_id":20},"transliteration":{"text":"maqāmin","language_name":"english","language_id":38}},{"id":49128,"position":5,"audio_url":"wbw/044_051_005.mp3","char_type_name":"word","page_number":498,"line_number":8,"text":"أَمِينٍۢ","translation":{"text":"নিরাপদ","language_name":"bengali","language_id":20},"transliteration":{"text":"amīnin","language_name":"english","language_id":38}},{"id":49129,"position":6,"audio_url":null,"char_type_name":"end","page_number":498,"line_number":8,"text":"٥١","translation":{"text":"(৫১)","language_name":"bengali","language_id":20},"transliteration":{"text":null,"language_name":"english","language_id":38}}]},{"id":4466,"verse_number":52,"verse_key":"44:52","hizb_number":50,"rub_el_hizb_number":199,"ruku_number":435,"manzil_number":6,"sajdah_number":null,"page_number":498,"juz_number":25,"words":[{"id":49820,"position":1,"audio_url":"wbw/044_052_001.mp3","char_type_name":"word","page_number":498,"line_number":8,"text":"فِى","translation":{"text":"মধ্যে","language_name":"bengali","language_id":20},"transliteration":{"text":"fī","language_name":"english","language_id":38}},{"id":49821,"position":2,"audio_url":"wbw/044_052_002.mp3","char_type_name":"word","page_number":498,"line_number":8,"text":"جَنَّـٰتٍۢ","translation":{"text":"বাগানের","language_name":"bengali","language_id":20},"transliteration":{"text":"jannātin","language_name":"english","language_id":38}},{"id":49822,"position":3,"audio_url":"wbw/044_052_003.mp3","char_type_name":"word","page_number":498,"line_number":8,"text":"وَعُيُونٍۢ","translation":{"text":"ও ঝর্ণাসমূহের","language_name":"bengali","language_id":20},"transliteration":{"text":"waʿuyūnin","language_name":"english","language_id":38}},{"id":49823,"position":4,"audio_url":null,"char_type_name":"end","page_number":498,"line_number":9,"text":"٥٢","translation":{"text":"(৫২)","language_name":"bengali","language_id":20},"transliteration":{"text":null,"language_name":"english","language_id":38}}]},{"id":4467,"verse_number":53,"verse_key":"44:53","hizb_number":50,"rub_el_hizb_number":199,"ruku_number":435,"manzil_number":6,"sajdah_number":null,"page_number":498,"juz_number":25,"words":[{"id":50523,"position":1,"audio_url":"wbw/044_053_001.mp3","char_type_name":"word","page_number":498,"line_number":9,"text":"يَلْبَسُونَ","translation":{"text":"তারা পোশাক পরবে","language_name":"bengali","language_id":20},"transliteration":{"text":"yalbasūna","language_name":"english","language_id":38}},{"id":50524,"position":2,"audio_url":"wbw/044_053_002.mp3","char_type_name":"word","page_number":498,"line_number":9,"text":"مِن","translation":{"text":"তৈরী","language_name":"bengali","language_id":20},"transliteration":{"text":"min","language_name":"english","language_id":38}},{"id":50525,"position":3,"audio_url":"wbw/044_053_003.mp3","char_type_name":"word","page_number":498,"line_number":9,"text":"سُندُسٍۢ","translation":{"text":"মিহি রেশমের","language_name":"bengali","language_id":20},"transliteration":{"text":"sundusin","language_name":"english","language_id":38}},{"id":50526,"position":4,"audio_url":"wbw/044_053_004.mp3","char_type_name":"word","page_number":498,"line_number":9,"text":"وَإِسْتَبْرَقٍۢ","translation":{"text":"ও পুরু রেশমের","language_name":"bengali","language_id":20},"transliteration":{"text":"wa-is'tabraqin","language_name":"english","language_id":38}},{"id":50527,"position":5,"audio_url":"wbw/044_053_005.mp3","char_type_name":"word","page_number":498,"line_number":9,"text":"مُّتَقَـٰبِلِينَ","translation":{"text":"মুখোমুখী (হয়ে বসবে)","language_name":"bengali","language_id":20},"transliteration":{"text":"mutaqābilīna","language_name":"english","language_id":38}},{"id":50528,"position":6,"audio_url":null,"char_type_name":"end","page_number":498,"line_number":9,"text":"٥٣","translation":{"text":"(৫৩)","language_name":"bengali","language_id":20},"transliteration":{"text":null,"language_name":"english","language_id":38}}]},{"id":4468,"verse_number":54,"verse_key":"44:54","hizb_number":50,"rub_el_hizb_number":199,"ruku_number":435,"manzil_number":6,"sajdah_number":null,"page_number":498,"juz_number":25,"words":[{"id":51052,"position":1,"audio_url":"wbw/044_054_001.mp3","char_type_name":"word","page_number":498,"line_number":10,"text":"كَذَٰلِكَ","translation":{"text":"এভাবেই (ঘটবে)","language_name":"bengali","language_id":20},"transliteration":{"text":"kadhālika","language_name":"english","language_id":38}},{"id":51053,"position":2,"audio_url":"wbw/044_054_002.mp3","char_type_name":"word","page_number":498,"line_number":10,"text":"وَزَوَّجْنَـٰهُم","translation":{"text":"এবং তাদের আমরা  বিয়ে দিবো","language_name":"bengali","language_id":20},"transliteration":{"text":"wazawwajnāhum","language_name":"english","language_id":38}},{"id":51054,"position":3,"audio_url":"wbw/044_054_003.mp3","char_type_name":"word","page_number":498,"line_number":10,"text":"بِحُورٍ","translation":{"text":"(সুন্দরী-রূপসী) সাথে হুরদের","language_name":"bengali","language_id":20},"transliteration":{"text":"biḥūrin","language_name":"english","language_id":38}},{"id":51055,"position":4,"audio_url":"wbw/044_054_004.mp3","char_type_name":"word","page_number":498,"line_number":10,"text":"عِينٍۢ","translation":{"text":"আয়তলোচনা (হরিণ-নয়না)","language_name":"bengali","language_id":20},"transliteration":{"text":"ʿīnin","language_name":"english","language_id":38}},{"id":51056,"position":5,"audio_url":null,"char_type_name":"end","page_number":498,"line_number":10,"text":"٥٤","translation":{"text":"(৫৪)","language_name":"bengali","language_id":20},"transliteration":{"text":null,"language_name":"english","language_id":38}}]},{"id":4469,"verse_number":55,"verse_key":"44:55","hizb_number":50,"rub_el_hizb_number":199,"ruku_number":435,"manzil_number":6,"sajdah_number":null,"page_number":498,"juz_number":25,"words":[{"id":51628,"position":1,"audio_url":"wbw/044_055_001.mp3","char_type_name":"word","page_number":498,"line_number":10,"text":"يَدْعُونَ","translation":{"text":"তারা চেয়ে চেয়ে নিবে","language_name":"bengali","language_id":20},"transliteration":{"text":"yadʿūna","language_name":"english","language_id":38}},{"id":51629,"position":2,"audio_url":"wbw/044_055_002.mp3","char_type_name":"word","page_number":498,"line_number":10,"text":"فِيهَا","translation":{"text":"তার মধ্যে","language_name":"bengali","language_id":20},"transliteration":{"text":"fīhā","language_name":"english","language_id":38}},{"id":51630,"position":3,"audio_url":"wbw/044_055_003.mp3","char_type_name":"word","page_number":498,"line_number":10,"text":"بِكُلِّ","translation":{"text":"প্রত্যেক প্রকার","language_name":"bengali","language_id":20},"transliteration":{"text":"bikulli","language_name":"english","language_id":38}},{"id":51631,"position":4,"audio_url":"wbw/044_055_004.mp3","char_type_name":"word","page_number":498,"line_number":11,"text":"فَـٰكِهَةٍ","translation":{"text":"ফলমূল","language_name":"bengali","language_id":20},"transliteration":{"text":"fākihatin","language_name":"english","language_id":38}},{"id":51632,"position":5,"audio_url":"wbw/044_055_005.mp3","char_type_name":"word","page_number":498,"line_number":11,"text":"ءَامِنِينَ","translation":{"text":"প্রশান্ত মনে","language_name":"bengali","language_id":20},"transliteration":{"text":"āminīna","language_name":"english","language_id":38}},{"id":51633,"position":6,"audio_url":null,"char_type_name":"end","page_number":498,"line_number":11,"text":"٥٥","translation":{"text":"(৫৫)","language_name":"bengali","language_id":20},"transliteration":{"text":null,"language_name":"english","language_id":38}}]},{"id":4470,"verse_number":56,"verse_key":"44:56","hizb_number":50,"rub_el_hizb_number":199,"ruku_number":435,"manzil_number":6,"sajdah_number":null,"page_number":498,"juz_number":25,"words":[{"id":52146,"position":1,"audio_url":"wbw/044_056_001.mp3","char_type_name":"word","page_number":498,"line_number":11,"text":"لَا","translation":{"text":"না","language_name":"bengali","language_id":20},"transliteration":{"text":"lā","language_name":"english","language_id":38}},{"id":52147,"position":2,"audio_url":"wbw/044_056_002.mp3","char_type_name":"word","page_number":498,"line_number":11,"text":"يَذُوقُونَ","translation":{"text":"তারা স্বাদ গ্রহণ করবে","language_name":"bengali","language_id":20},"transliteration":{"text":"yadhūqūna","language_name":"english","language_id":38}},{"id":52148,"position":3,"audio_url":"wbw/044_056_003.mp3","char_type_name":"word","page_number":498,"line_number":11,"text":"فِيهَا","translation":{"text":"তার মধ্যে","language_name":"bengali","language_id":20},"transliteration":{"text":"fīhā","language_name":"english","language_id":38}},{"id":52149,"position":4,"audio_url":"wbw/044_056_004.mp3","char_type_name":"word","page_number":498,"line_number":11,"text":"ٱلْمَوْتَ","translation":{"text":"মৃত্যুর","language_name":"bengali","language_id":20},"transliteration":{"text":"l-mawta","language_name":"english","language_id":38}},{"id":52150,"position":5,"audio_url":"wbw/044_056_005.mp3","char_type_name":"word","page_number":498,"line_number":11,"text":"إِلَّا","translation":{"text":"ব্যতীত","language_name":"bengali","language_id":20},"transliteration":{"text":"illā","language_name":"english","language_id":38}},{"id":52151,"position":6,"audio_url":"wbw/044_056_006.mp3","char_type_name":"word","page_number":498,"line_number":12,"text":"ٱلْمَوْتَةَ","translation":{"text":"মৃত্যু","language_name":"bengali","language_id":20},"transliteration":{"text":"l-mawtata","language_name":"english","language_id":38}},{"id":52152,"position":7,"audio_url":"wbw/044_056_007.mp3","char_type_name":"word","page_number":498,"line_number":12,"text":"ٱلْأُولَىٰ ۖ","translation":{"text":"প্রথম","language_name":"bengali","language_id":20},"transliteration":{"text":"l-ūlā","language_name":"english","language_id":38}},{"id":52154,"position":8,"audio_url":"wbw/044_056_009.mp3","char_type_name":"word","page_number":498,"line_number":12,"text":"وَوَقَىٰهُمْ","translation":{"text":"এবং তাদের তিনি রক্ষা করবেন","language_name":"bengali","language_id":20},"transliteration":{"text":"wawaqāhum","language_name":"english","language_id":38}},{"id":52155,"position":9,"audio_url":"wbw/044_056_010.mp3","char_type_name":"word","page_number":498,"line_number":12,"text":"عَذَابَ","translation":{"text":"শাস্তি (হ'তে)","language_name":"bengali","language_id":20},"transliteration":{"text":"ʿadhāba","language_name":"english","language_id":38}},{"id":52156,"position":10,"audio_url":"wbw/044_056_011.mp3","char_type_name":"word","page_number":498,"line_number":12,"text":"ٱلْجَحِيمِ","translation":{"text":"জাহান্নামের","language_name":"bengali","language_id":20},"transliteration":{"text":"l-jaḥīmi","language_name":"english","language_id":38}},{"id":52157,"position":11,"audio_url":null,"char_type_name":"end","page_number":498,"line_number":12,"text":"٥٦","translation":{"text":"(৫৬)","language_name":"bengali","language_id":20},"transliteration":{"text":null,"language_name":"english","language_id":38}}]},{"id":4471,"verse_number":57,"verse_key":"44:57","hizb_number":50,"rub_el_hizb_number":199,"ruku_number":435,"manzil_number":6,"sajdah_number":null,"page_number":498,"juz_number":25,"words":[{"id":52772,"position":1,"audio_url":"wbw/044_057_001.mp3","char_type_name":"word","page_number":498,"line_number":12,"text":"فَضْلًۭا","translation":{"text":"অনুগ্রহে","language_name":"bengali","language_id":20},"transliteration":{"text":"faḍlan","language_name":"english","language_id":38}},{"id":52773,"position":2,"audio_url":"wbw/044_057_002.mp3","char_type_name":"word","page_number":498,"line_number":12,"text":"مِّن","translation":{"text":"পক্ষ হ'তে","language_name":"bengali","language_id":20},"transliteration":{"text":"min","language_name":"english","language_id":38}},{"id":52774,"position":3,"audio_url":"wbw/044_057_003.mp3","char_type_name":"word","page_number":498,"line_number":13,"text":"رَّبِّكَ ۚ","translation":{"text":"তোমার রবের","language_name":"bengali","language_id":20},"transliteration":{"text":"rabbika","language_name":"english","language_id":38}},{"id":52776,"position":4,"audio_url":"wbw/044_057_005.mp3","char_type_name":"word","page_number":498,"line_number":13,"text":"ذَٰلِكَ","translation":{"text":"এটাই","language_name":"bengali","language_id":20},"transliteration":{"text":"dhālika","language_name":"english","language_id":38}},{"id":52777,"position":5,"audio_url":"wbw/044_057_006.mp3","char_type_name":"word","page_number":498,"line_number":13,"text":"هُوَ","translation":{"text":"সেই","language_name":"bengali","language_id":20},"transliteration":{"text":"huwa","language_name":"english","language_id":38}},{"id":52778,"position":6,"audio_url":"wbw/044_057_007.mp3","char_type_name":"word","page_number":498,"line_number":13,"text":"ٱلْفَوْزُ","translation":{"text":"সাফল্য","language_name":"bengali","language_id":20},"transliteration":{"text":"l-fawzu","language_name":"english","language_id":38}},{"id":52779,"position":7,"audio_url":"wbw/044_057_008.mp3","char_type_name":"word","page_number":498,"line_number":13,"text":"ٱلْعَظِيمُ","translation":{"text":"মহা","language_name":"bengali","language_id":20},"transliteration":{"text":"l-ʿaẓīmu","language_name":"english","language_id":38}},{"id":52780,"position":8,"audio_url":null,"char_type_name":"end","page_number":498,"line_number":13,"text":"٥٧","translation":{"text":"(৫৭)","language_name":"bengali","language_id":20},"transliteration":{"text":null,"language_name":"english","language_id":38}}]},{"id":4472,"verse_number":58,"verse_key":"44:58","hizb_number":50,"rub_el_hizb_number":199,"ruku_number":435,"manzil_number":6,"sajdah_number":null,"page_number":498,"juz_number":25,"words":[{"id":53246,"position":1,"audio_url":"wbw/044_058_001.mp3","char_type_name":"word","page_number":498,"line_number":13,"text":"فَإِنَّمَا","translation":{"text":"(হে নাবী) মূলতঃ","language_name":"bengali","language_id":20},"transliteration":{"text":"fa-innamā","language_name":"english","language_id":38}},{"id":53247,"position":2,"audio_url":"wbw/044_058_002.mp3","char_type_name":"word","page_number":498,"line_number":13,"text":"يَسَّرْنَـٰهُ","translation":{"text":"তা (অর্থাৎ এ কিতাবকে) আমরা সহজ করে দিয়েছি","language_name":"bengali","language_id":20},"transliteration":{"text":"yassarnāhu","language_name":"english","language_id":38}},{"id":53248,"position":3,"audio_url":"wbw/044_058_003.mp3","char_type_name":"word","page_number":498,"line_number":13,"text":"بِلِسَانِكَ","translation":{"text":"তোমার ভাষায়","language_name":"bengali","language_id":20},"transliteration":{"text":"bilisānika","language_name":"english","language_id":38}},{"id":53249,"position":4,"audio_url":"wbw/044_058_004.mp3","char_type_name":"word","page_number":498,"line_number":14,"text":"لَعَلَّهُمْ","translation":{"text":"তারা যেন","language_name":"bengali","language_id":20},"transliteration":{"text":"laʿallahum","language_name":"english","language_id":38}},{"id":53250,"position":5,"audio_url":"wbw/044_058_005.mp3","char_type_name":"word","page_number":498,"line_number":14,"text":"يَتَذَكَّرُونَ","translation":{"text":"উপদেশ গ্রহণ করে","language_name":"bengali","language_id":20},"transliteration":{"text":"yatadhakkarūna","language_name":"english","language_id":38}},{"id":53251,"position":6,"audio_url":null,"char_type_name":"end","page_number":498,"line_number":14,"text":"٥٨","translation":{"text":"(৫৮)","language_name":"bengali","language_id":20},"transliteration":{"text":null,"language_name":"english","language_id":38}}]},{"id":4473,"verse_number":59,"verse_key":"44:59","hizb_number":50,"rub_el_hizb_number":199,"ruku_number":435,"manzil_number":6,"sajdah_number":null,"page_number":498,"juz_number":25,"words":[{"id":53710,"position":1,"audio_url":"wbw/044_059_001.mp3","char_type_name":"word","page_number":498,"line_number":14,"text":"فَٱرْتَقِبْ","translation":{"text":"সুতরাং অপেক্ষা করো তুমি","language_name":"bengali","language_id":20},"transliteration":{"text":"fa-ir'taqib","language_name":"english","language_id":38}},{"id":53711,"position":2,"audio_url":"wbw/044_059_002.mp3","char_type_name":"word","page_number":498,"line_number":14,"text":"إِنَّهُم","translation":{"text":"তারা নিশ্চয়ই","language_name":"bengali","language_id":20},"transliteration":{"text":"innahum","language_name":"english","language_id":38}},{"id":53712,"position":3,"audio_url":"wbw/044_059_003.mp3","char_type_name":"word","page_number":498,"line_number":14,"text":"مُّرْتَقِبُونَ","translation":{"text":"অপেক্ষামান","language_name":"bengali","language_id":20},"transliteration":{"text":"mur'taqibūna","language_name":"english","language_id":38}},{"id":53713,"position":4,"audio_url":null,"char_type_name":"end","page_number":498,"line_number":14,"text":"٥٩","translation":{"text":"(৫৯)","language_name":"bengali","language_id":20},"transliteration":{"text":null,"language_name":"english","language_id":38}}]}],"pagination":{"per_page":10,"current_page":6,"next_page":null,"total_pages":6,"total_records":59}}
