{"verses":[{"id":5769,"verse_number":11,"verse_key":"80:11","hizb_number":59,"rub_el_hizb_number":234,"ruku_number":524,"manzil_number":7,"sajdah_number":null,"page_number":585,"juz_number":30,"words":[{"id":13002,"position":1,"audio_url":"wbw/080_011_001.mp3","char_type_name":"word","page_number":585,"line_number":5,"text":"كَلَّآ","translation":{"text":"কখনও না","language_name":"bengali","language_id":20},"transliteration":{"text":"kallā","language_name":"english","language_id":38}},{"id":13003,"position":2,"audio_url":"wbw/080_011_002.mp3","char_type_name":"word","page_number":585,"line_number":5,"text":"إِنَّهَا","translation":{"text":"নিশ্চয়ই তা","language_name":"bengali","language_id":20},"transliteration":{"text":"innahā","language_name":"english","language_id":38}},{"id":13004,"position":3,"audio_url":"wbw/080_011_003.mp3","char_type_name":"word","page_number":585,"line_number":5,"text":"تَذْكِرَةٌۭ","translation":{"text":"উপদেশ","language_name":"bengali","language_id":20},"transliteration":{"text":"tadhkiratun","language_name":"english","language_id":38}},{"id":13005,"position":4,"audio_url":null,"char_type_name":"end","page_number":585,"line_number":5,"text":"١١","translation":{"text":"(১১)","language_name":"bengali","language_id":20},"transliteration":{"text":null,"language_name":"english","language_id":38}}]},{"id":5770,"verse_number":12,"verse_key":"80:12","hizb_number":59,"rub_el_hizb_number":234,"ruku_number":524,"manzil_number":7,"sajdah_number":null,"page_number":585,"juz_number":30,"words":[{"id":14324,"position":1,"audio_url":"wbw/080_012_001.mp3","char_type_name":"word","page_number":585,"line_number":5,"text":"فَمَن","translation":{"text":"অতএব যে","language_name":"bengali","language_id":20},"transliteration":{"text":"faman","language_name":"english","language_id":38}},{"id":14325,"position":2,"audio_url":"wbw/080_012_002.mp3","char_type_name":"word","page_number":585,"line_number":5,"text":"شَآءَ","translation":{"text":"চায়","language_name":"bengali","language_id":20},"transliteration":{"text":"shāa","language_name":"english","language_id":38}},{"id":14326,"position":3,"audio_url":"wbw/080_012_003.mp3","char_type_name":"word","page_number":585,"line_number":5,"text":"ذَكَرَهُۥ","translation":{"text":"(তা স্মরণ করবে) তা গ্রহণ করবে","language_name":"bengali","language_id":20},"transliteration":{"text":"dhakarahu","language_name":"english","language_id":38}},{"id":14327,"position":4,"audio_url":null,"char_type_name":"end","page_number":585,"line_number":5,"text":"١٢","translation":{"text":"(১২)","language_name":"bengali","language_id":20},"transliteration":{"text":null,"language_name":"english","language_id":38}}]},{"id":5771,"verse_number":13,"verse_key":"80:13","hizb_number":59,"rub_el_hizb_number":234,"ruku_number":524,"manzil_number":7,"sajdah_number":null,"page_number":585,"juz_number":30,"words":[{"id":15695,"position":1,"audio_url":"wbw/080_013_001.mp3","char_type_name":"word","page_number":585,"line_number":5,"text":"فِى","translation":{"text":"মধ্যে (লিপিবদ্ধ)","language_name":"bengali","language_id":20},"transliteration":{"text":"fī","language_name":"english","language_id":38}},{"id":15696,"position":2,"audio_url":"wbw/080_013_002.mp3","char_type_name":"word","page_number":585,"line_number":5,"text":"صُحُفٍۢ","translation":{"text":"সহিফাসমূহের","language_name":"bengali","language_id":20},"transliteration":{"text":"ṣuḥufin","language_name":"english","language_id":38}},{"id":15697,"position":3,"audio_url":"wbw/080_013_003.mp3","char_type_name":"word","page_number":585,"line_number":6,"text":"مُّكَرَّمَةٍۢ","translation":{"text":"(যা) সম্মানিত","language_name":"bengali","language_id":20},"transliteration":{"text":"mukarramatin","language_name":"english","language_id":38}},{"id":15698,"position":4,"audio_url":null,"char_type_name":"end","page_number":585,"line_number":6,"text":"١٣","translation":{"text":"(১৩)","language_name":"bengali","language_id":20},"transliteration":{"text":null,"language_name":"english","language_id":38}}]},{"id":5772,"verse_number":14,"verse_key":"80:14","hizb_number":59,"rub_el_hizb_number":234,"ruku_number":524,"manzil_number":7,"sajdah_number":null,"page_number":585,"juz_number":30,"words":[{"id":16803,"position":1,"audio_url":"wbw/080_014_001.mp3","char_type_name":"word","page_number":585,"line_number":6,"text":"مَّرْفُوعَةٍۢ","translation":{"text":"উচ্চ মর্যাদাসম্পন্ন","language_name":"bengali","language_id":20},"transliteration":{"text":"marfūʿatin","language_name":"english","language_id":38}},{"id":16804,"position":2,"audio_url":"wbw/080_014_002.mp3","char_type_name":"word","page_number":585,"line_number":6,"text":"مُّطَهَّرَةٍۭ","translation":{"text":"পবিত্র","language_name":"bengali","language_id":20},"transliteration":{"text":"muṭahharatin","language_name":"english","language_id":38}},{"id":16805,"position":3,"audio_url":null,"char_type_name":"end","page_number":585,"line_number":6,"text":"١٤","translation":{"text":"(১৪)","language_name":"bengali","language_id":20},"transliteration":{"text":null,"language_name":"english","language_id":38}}]},{"id":5773,"verse_number":15,"verse_key":"80:15","hizb_number":59,"rub_el_hizb_number":234,"ruku_number":524,"manzil_number":7,"sajdah_number":null,"page_number":585,"juz_number":30,"words":[{"id":16813,"position":1,"audio_url":"wbw/080_015_001.mp3","char_type_name":"word","page_number":585,"line_number":6,"text":"بِأَيْدِى","translation":{"text":"হাতে","language_name":"bengali","language_id":20},"transliteration":{"text":"bi-aydī","language_name":"english","language_id":38}},{"id":16814,"position":2,"audio_url":"wbw/080_015_002.mp3","char_type_name":"word","page_number":585,"line_number":6,"text":"سَفَرَةٍۢ","translation":{"text":"দূতদের","language_name":"bengali","language_id":20},"transliteration":{"text":"safaratin","language_name":"english","language_id":38}},{"id":16815,"position":3,"audio_url":null,"char_type_name":"end","page_number":585,"line_number":6,"text":"١٥","translation":{"text":"(১৫)","language_name":"bengali","language_id":20},"transliteration":{"text":null,"language_name":"english","language_id":38}}]},{"id":5774,"verse_number":16,"verse_key":"80:16","hizb_number":59,"rub_el_hizb_number":234,"ruku_number":524,"manzil_number":7,"sajdah_number":null,"page_number":585,"juz_number":30,"words":[{"id":17980,"position":1,"audio_url":"wbw/080_016_001.mp3","char_type_name":"word","page_number":585,"line_number":6,"text":"كِرَامٍۭ","translation":{"text":"সম্মানিত","language_name":"bengali","language_id":20},"transliteration":{"text":"kirāmin","language_name":"english","language_id":38}},{"id":17981,"position":2,"audio_url":"wbw/080_016_002.mp3","char_type_name":"word","page_number":585,"line_number":6,"text":"بَرَرَةٍۢ","translation":{"text":"সততাসম্পন্ন","language_name":"bengali","language_id":20},"transliteration":{"text":"bararatin","language_name":"english","language_id":38}},{"id":17982,"position":3,"audio_url":null,"char_type_name":"end","page_number":585,"line_number":6,"text":"١٦","translation":{"text":"(১৬)","language_name":"bengali","language_id":20},"transliteration":{"text":null,"language_name":"english","language_id":38}}]},{"id":5775,"verse_number":17,"verse_key":"80:17","hizb_number":59,"rub_el_hizb_number":234,"ruku_number":524,"manzil_number":7,"sajdah_number":null,"page_number":585,"juz_number":30,"words":[{"id":19197,"position":1,"audio_url":"wbw/080_017_001.mp3","char_type_name":"word","page_number":585,"line_number":7,"text":"قُتِلَ","translation":{"text":"ধ্বংস হোক","language_name":"bengali","language_id":20},"transliteration":{"text":"qutila","language_name":"english","language_id":38}},{"id":19198,"position":2,"audio_url":"wbw/080_017_002.mp3","char_type_name":"word","page_number":585,"line_number":7,"text":"ٱلْإِنسَـٰنُ","translation":{"text":"মানুষ","language_name":"bengali","language_id":20},"transliteration":{"text":"l-insānu","language_name":"english","language_id":38}},{"id":19199,"position":3,"audio_url":"wbw/080_017_003.mp3","char_type_name":"word","page_number":585,"line_number":7,"text":"مَآ","translation":{"text":"কতই না","language_name":"bengali","language_id":20},"transliteration":{"text":"mā","language_name":"english","language_id":38}},{"id":19200,"position":4,"audio_url":"wbw/080_017_004.mp3","char_type_name":"word","page_number":585,"line_number":7,"text":"أَكْفَرَهُۥ","translation":{"text":"তা অমান্যকারী","language_name":"bengali","language_id":20},"transliteration":{"text":"akfarahu","language_name":"english","language_id":38}},{"id":19201,"position":5,"audio_url":null,"char_type_name":"end","page_number":585,"line_number":7,"text":"١٧","translation":{"text":"(১৭)","language_name":"bengali","language_id":20},"transliteration":{"text":null,"language_name":"english","language_id":38}}]},{"id":5776,"verse_number":18,"verse_key":"80:18","hizb_number":59,"rub_el_hizb_number":234,"ruku_number":524,"manzil_number":7,"sajdah_number":null,"page_number":585,"juz_number":30,"words":[{"id":20752,"position":1,"audio_url":"wbw/080_018_001.mp3","char_type_name":"word","page_number":585,"line_number":7,"text":"مِنْ","translation":{"text":"থেকে","language_name":"bengali","language_id":20},"transliteration":{"text":"min","language_name":"english","language_id":38}},{"id":20753,"position":2,"audio_url":"wbw/080_018_002.mp3","char_type_name":"word","page_number":585,"line_number":7,"text":"أَىِّ","translation":{"text":"কোন","language_name":"bengali","language_id":20},"transliteration":{"text":"ayyi","language_name":"english","language_id":38}},{"id":20754,"position":3,"audio_url":"wbw/080_018_003.mp3","char_type_name":"word","page_number":585,"line_number":7,"text":"شَىْءٍ","translation":{"text":"বস্তু","language_name":"bengali","language_id":20},"transliteration":{"text":"shayin","language_name":"english","language_id":38}},{"id":20755,"position":4,"audio_url":"wbw/080_018_004.mp3","char_type_name":"word","page_number":585,"line_number":7,"text":"خَلَقَهُۥ","translation":{"text":"তিনি তাকে সৃষ্টি করেছেন","language_name":"bengali","language_id":20},"transliteration":{"text":"khalaqahu","language_name":"english","language_id":38}},{"id":20756,"position":5,"audio_url":null,"char_type_name":"end","page_number":585,"line_number":7,"text":"١٨","translation":{"text":"(১৮)","language_name":"bengali","language_id":20},"transliteration":{"text":null,"language_name":"english","language_id":38}}]},{"id":5777,"verse_number":19,"verse_key":"80:19","hizb_number":59,"rub_el_hizb_number":234,"ruku_number":524,"manzil_number":7,"sajdah_number":null,"page_number":585,"juz_number":30,"words":[{"id":21803,"position":1,"audio_url":"wbw/080_019_001.mp3","char_type_name":"word","page_number":585,"line_number":7,"text":"مِن","translation":{"text":"হতে","language_name":"bengali","language_id":20},"transliteration":{"text":"min","language_name":"english","language_id":38}},{"id":21804,"position":2,"audio_url":"wbw/080_019_002.mp3","char_type_name":"word","page_number":585,"line_number":7,"text":"نُّطْفَةٍ","translation":{"text":"শুক্র ফোঁটা","language_name":"bengali","language_id":20},"transliteration":{"text":"nuṭ'fatin","language_name":"english","language_id":38}},{"id":21805,"position":3,"audio_url":"wbw/080_019_003.mp3","char_type_name":"word","page_number":585,"line_number":8,"text":"خَلَقَهُۥ","translation":{"text":"তিনি তাকে সৃষ্টি করেছেন","language_name":"bengali","language_id":20},"transliteration":{"text":"khalaqahu","language_name":"english","language_id":38}},{"id":21806,"position":4,"audio_url":"wbw/080_019_004.mp3","char_type_name":"word","page_number":585,"line_number":8,"text":"فَقَدَّرَهُۥ","translation":{"text":"অতঃপর তার নিয়তি নির্দিষ্ট করেছেন","language_name":"bengali","language_id":20},"transliteration":{"text":"faqaddarahu","language_name":"english","language_id":38}},{"id":21807,"position":5,"audio_url":null,"char_type_name":"end","page_number":585,"line_number":8,"text":"١٩","translation":{"text":"(১৯)","language_name":"bengali","language_id":20},"transliteration":{"text":null,"language_name":"english","language_id":38}}]},{"id":5778,"verse_number":20,"verse_key":"80:20","hizb_number":59,"rub_el_hizb_number":234,"ruku_number":524,"manzil_number":7,"sajdah_number":null,"page_number":585,"juz_number":30,"words":[{"id":22937,"position":1,"audio_url":"wbw/080_020_001.mp3","char_type_name":"word","page_number":585,"line_number":8,"text":"ثُمَّ","translation":{"text":"এরপর","language_name":"bengali","language_id":20},"transliteration":{"text":"thumma","language_name":"english","language_id":38}},{"id":22938,"position":2,"audio_url":"wbw/080_020_002.mp3","char_type_name":"word","page_number":585,"line_number":8,"text":"ٱلسَّبِيلَ","translation":{"text":"পথ","language_name":"bengali","language_id":20},"transliteration":{"text":"l-sabīla","language_name":"english","language_id":38}},{"id":22939,"position":3,"audio_url":"wbw/080_020_003.mp3","char_type_name":"word","page_number":585,"line_number":8,"text":"يَسَّرَهُۥ","translation":{"text":"তার (জন্যে) সহজ করেছেন","language_name":"bengali","language_id":20},"transliteration":{"text":"yassarahu","language_name":"english","language_id":38}},{"id":22940,"position":4,"audio_url":null,"char_type_name":"end","page_number":585,"line_number":8,"text":"٢٠","translation":{"text":"(২০)","language_name":"bengali","language_id":20},"transliteration":{"text":null,"language_name":"english","language_id":38}}]}],"pagination":{"per_page":10,"current_page":2,"next_page":3,"total_pages":5,"total_records":42}}
