{"verses":[{"id":5174,"verse_number":11,"verse_key":"61:11","hizb_number":55,"rub_el_hizb_number":220,"ruku_number":487,"manzil_number":7,"sajdah_number":null,"page_number":552,"juz_number":28,"words":[{"id":12656,"position":1,"audio_url":"wbw/061_011_001.mp3","char_type_name":"word","page_number":552,"line_number":8,"text":"تُؤْمِنُونَ","translation":{"text":"তোমরা ঈমান আনো","language_name":"bengali","language_id":20},"transliteration":{"text":"tu'minūna","language_name":"english","language_id":38}},{"id":12657,"position":2,"audio_url":"wbw/061_011_002.mp3","char_type_name":"word","page_number":552,"line_number":8,"text":"بِٱللَّهِ","translation":{"text":"আল্লাহর উপর","language_name":"bengali","language_id":20},"transliteration":{"text":"bil-lahi","language_name":"english","language_id":38}},{"id":12658,"position":3,"audio_url":"wbw/061_011_003.mp3","char_type_name":"word","page_number":552,"line_number":8,"text":"وَرَسُولِهِۦ","translation":{"text":"ও তাঁর রাসূলের","language_name":"bengali","language_id":20},"transliteration":{"text":"warasūlihi","language_name":"english","language_id":38}},{"id":12659,"position":4,"audio_url":"wbw/061_011_004.mp3","char_type_name":"word","page_number":552,"line_number":8,"text":"وَتُجَـٰهِدُونَ","translation":{"text":"এবং তোমরা জিহাদ করো","language_name":"bengali","language_id":20},"transliteration":{"text":"watujāhidūna","language_name":"english","language_id":38}},{"id":12660,"position":5,"audio_url":"wbw/061_011_005.mp3","char_type_name":"word","page_number":552,"line_number":9,"text":"فِى","translation":{"text":"(মধ্যে)","language_name":"bengali","language_id":20},"transliteration":{"text":"fī","language_name":"english","language_id":38}},{"id":12661,"position":6,"audio_url":"wbw/061_011_006.mp3","char_type_name":"word","page_number":552,"line_number":9,"text":"سَبِيلِ","translation":{"text":"পথে","language_name":"bengali","language_id":20},"transliteration":{"text":"sabīli","language_name":"english","language_id":38}},{"id":12662,"position":7,"audio_url":"wbw/061_011_007.mp3","char_type_name":"word","page_number":552,"line_number":9,"text":"ٱللَّهِ","translation":{"text":"আল্লাহর","language_name":"bengali","language_id":20},"transliteration":{"text":"l-lahi","language_name":"english","language_id":38}},{"id":12663,"position":8,"audio_url":"wbw/061_011_008.mp3","char_type_name":"word","page_number":552,"line_number":9,"text":"بِأَمْوَٰلِكُمْ","translation":{"text":"তোমাদের মালসমূহ দিয়ে","language_name":"bengali","language_id":20},"transliteration":{"text":"bi-amwālikum","language_name":"english","language_id":38}},{"id":12664,"position":9,"audio_url":"wbw/061_011_009.mp3","char_type_name":"word","page_number":552,"line_number":9,"text":"وَأَنفُسِكُمْ ۚ","translation":{"text":"ও তোমাদের জানপ্রাণ (দিয়ে)","language_name":"bengali","language_id":20},"transliteration":{"text":"wa-anfusikum","language_name":"english","language_id":38}},{"id":12666,"position":10,"audio_url":"wbw/061_011_011.mp3","char_type_name":"word","page_number":552,"line_number":9,"text":"ذَٰلِكُمْ","translation":{"text":"এটাই","language_name":"bengali","language_id":20},"transliteration":{"text":"dhālikum","language_name":"english","language_id":38}},{"id":12667,"position":11,"audio_url":"wbw/061_011_012.mp3","char_type_name":"word","page_number":552,"line_number":9,"text":"خَيْرٌۭ","translation":{"text":"উত্তম","language_name":"bengali","language_id":20},"transliteration":{"text":"khayrun","language_name":"english","language_id":38}},{"id":12668,"position":12,"audio_url":"wbw/061_011_013.mp3","char_type_name":"word","page_number":552,"line_number":9,"text":"لَّكُمْ","translation":{"text":"তোমাদের জন্যে","language_name":"bengali","language_id":20},"transliteration":{"text":"lakum","language_name":"english","language_id":38}},{"id":12669,"position":13,"audio_url":"wbw/061_011_014.mp3","char_type_name":"word","page_number":552,"line_number":9,"text":"إِن","translation":{"text":"যদি","language_name":"bengali","language_id":20},"transliteration":{"text":"in","language_name":"english","language_id":38}},{"id":12670,"position":14,"audio_url":"wbw/061_011_015.mp3","char_type_name":"word","page_number":552,"line_number":9,"text":"كُنتُمْ","translation":{"text":"তোমরা","language_name":"bengali","language_id":20},"transliteration":{"text":"kuntum","language_name":"english","language_id":38}},{"id":12671,"position":15,"audio_url":"wbw/061_011_016.mp3","char_type_name":"word","page_number":552,"line_number":9,"text":"تَعْلَمُونَ","translation":{"text":"জানো","language_name":"bengali","language_id":20},"transliteration":{"text":"taʿlamūna","language_name":"english","language_id":38}},{"id":12672,"position":16,"audio_url":null,"char_type_name":"end","page_number":552,"line_number":9,"text":"١١","translation":{"text":"(১১)","language_name":"bengali","language_id":20},"transliteration":{"text":null,"language_name":"english","language_id":38}}]},{"id":5175,"verse_number":12,"verse_key":"61:12","hizb_number":55,"rub_el_hizb_number":220,"ruku_number":487,"manzil_number":7,"sajdah_number":null,"page_number":552,"juz_number":28,"words":[{"id":13998,"position":1,"audio_url":"wbw/061_012_001.mp3","char_type_name":"word","page_number":552,"line_number":10,"text":"يَغْفِرْ","translation":{"text":"তিনি মাফ করবেন","language_name":"bengali","language_id":20},"transliteration":{"text":"yaghfir","language_name":"english","language_id":38}},{"id":13999,"position":2,"audio_url":"wbw/061_012_002.mp3","char_type_name":"word","page_number":552,"line_number":10,"text":"لَكُمْ","translation":{"text":"তোমাদের","language_name":"bengali","language_id":20},"transliteration":{"text":"lakum","language_name":"english","language_id":38}},{"id":14000,"position":3,"audio_url":"wbw/061_012_003.mp3","char_type_name":"word","page_number":552,"line_number":10,"text":"ذُنُوبَكُمْ","translation":{"text":"তোমাদের গুনাহসমূহকে","language_name":"bengali","language_id":20},"transliteration":{"text":"dhunūbakum","language_name":"english","language_id":38}},{"id":14001,"position":4,"audio_url":"wbw/061_012_004.mp3","char_type_name":"word","page_number":552,"line_number":10,"text":"وَيُدْخِلْكُمْ","translation":{"text":"ও তোমাদের প্রবেশ করাবেন","language_name":"bengali","language_id":20},"transliteration":{"text":"wayud'khil'kum","language_name":"english","language_id":38}},{"id":14002,"position":5,"audio_url":"wbw/061_012_005.mp3","char_type_name":"word","page_number":552,"line_number":10,"text":"جَنَّـٰتٍۢ","translation":{"text":"জান্নাতে","language_name":"bengali","language_id":20},"transliteration":{"text":"jannātin","language_name":"english","language_id":38}},{"id":14003,"position":6,"audio_url":"wbw/061_012_006.mp3","char_type_name":"word","page_number":552,"line_number":10,"text":"تَجْرِى","translation":{"text":"প্রবাহিত হয়","language_name":"bengali","language_id":20},"transliteration":{"text":"tajrī","language_name":"english","language_id":38}},{"id":14004,"position":7,"audio_url":"wbw/061_012_007.mp3","char_type_name":"word","page_number":552,"line_number":10,"text":"مِن","translation":{"text":"মধ্য হতে","language_name":"bengali","language_id":20},"transliteration":{"text":"min","language_name":"english","language_id":38}},{"id":14005,"position":8,"audio_url":"wbw/061_012_008.mp3","char_type_name":"word","page_number":552,"line_number":10,"text":"تَحْتِهَا","translation":{"text":"তার পাদদেশে","language_name":"bengali","language_id":20},"transliteration":{"text":"taḥtihā","language_name":"english","language_id":38}},{"id":14006,"position":9,"audio_url":"wbw/061_012_009.mp3","char_type_name":"word","page_number":552,"line_number":10,"text":"ٱلْأَنْهَـٰرُ","translation":{"text":"ঝর্ণাধারাসমূহ","language_name":"bengali","language_id":20},"transliteration":{"text":"l-anhāru","language_name":"english","language_id":38}},{"id":14007,"position":10,"audio_url":"wbw/061_012_010.mp3","char_type_name":"word","page_number":552,"line_number":10,"text":"وَمَسَـٰكِنَ","translation":{"text":"এবং বাসগৃহসমূহ","language_name":"bengali","language_id":20},"transliteration":{"text":"wamasākina","language_name":"english","language_id":38}},{"id":14008,"position":11,"audio_url":"wbw/061_012_011.mp3","char_type_name":"word","page_number":552,"line_number":11,"text":"طَيِّبَةًۭ","translation":{"text":"উত্তম","language_name":"bengali","language_id":20},"transliteration":{"text":"ṭayyibatan","language_name":"english","language_id":38}},{"id":14009,"position":12,"audio_url":"wbw/061_012_012.mp3","char_type_name":"word","page_number":552,"line_number":11,"text":"فِى","translation":{"text":"মধ্যে","language_name":"bengali","language_id":20},"transliteration":{"text":"fī","language_name":"english","language_id":38}},{"id":14010,"position":13,"audio_url":"wbw/061_012_013.mp3","char_type_name":"word","page_number":552,"line_number":11,"text":"جَنَّـٰتِ","translation":{"text":"জান্নাতের","language_name":"bengali","language_id":20},"transliteration":{"text":"jannāti","language_name":"english","language_id":38}},{"id":14011,"position":14,"audio_url":"wbw/061_012_014.mp3","char_type_name":"word","page_number":552,"line_number":11,"text":"عَدْنٍۢ ۚ","translation":{"text":"চিরস্থায়ী","language_name":"bengali","language_id":20},"transliteration":{"text":"ʿadnin","language_name":"english","language_id":38}},{"id":14013,"position":15,"audio_url":"wbw/061_012_016.mp3","char_type_name":"word","page_number":552,"line_number":11,"text":"ذَٰلِكَ","translation":{"text":"এটা","language_name":"bengali","language_id":20},"transliteration":{"text":"dhālika","language_name":"english","language_id":38}},{"id":14014,"position":16,"audio_url":"wbw/061_012_017.mp3","char_type_name":"word","page_number":552,"line_number":11,"text":"ٱلْفَوْزُ","translation":{"text":"সাফল্য","language_name":"bengali","language_id":20},"transliteration":{"text":"l-fawzu","language_name":"english","language_id":38}},{"id":14015,"position":17,"audio_url":"wbw/061_012_018.mp3","char_type_name":"word","page_number":552,"line_number":11,"text":"ٱلْعَظِيمُ","translation":{"text":"মহা","language_name":"bengali","language_id":20},"transliteration":{"text":"l-ʿaẓīmu","language_name":"english","language_id":38}},{"id":14016,"position":18,"audio_url":null,"char_type_name":"end","page_number":552,"line_number":11,"text":"١٢","translation":{"text":"(১২)","language_name":"bengali","language_id":20},"transliteration":{"text":null,"language_name":"english","language_id":38}}]},{"id":5176,"verse_number":13,"verse_key":"61:13","hizb_number":55,"rub_el_hizb_number":220,"ruku_number":487,"manzil_number":7,"sajdah_number":null,"page_number":552,"juz_number":28,"words":[{"id":15113,"position":1,"audio_url":"wbw/061_013_001.mp3","char_type_name":"word","page_number":552,"line_number":11,"text":"وَأُخْرَىٰ","translation":{"text":"এবং অন্যটি","language_name":"bengali","language_id":20},"transliteration":{"text":"wa-ukh'rā","language_name":"english","language_id":38}},{"id":15114,"position":2,"audio_url":"wbw/061_013_002.mp3","char_type_name":"word","page_number":552,"line_number":11,"text":"تُحِبُّونَهَا ۖ","translation":{"text":"যা তোমরা পছন্দ করো","language_name":"bengali","language_id":20},"transliteration":{"text":"tuḥibbūnahā","language_name":"english","language_id":38}},{"id":15116,"position":3,"audio_url":"wbw/061_013_004.mp3","char_type_name":"word","page_number":552,"line_number":11,"text":"نَصْرٌۭ","translation":{"text":"সাহায্য","language_name":"bengali","language_id":20},"transliteration":{"text":"naṣrun","language_name":"english","language_id":38}},{"id":15117,"position":4,"audio_url":"wbw/061_013_005.mp3","char_type_name":"word","page_number":552,"line_number":12,"text":"مِّنَ","translation":{"text":"থেকে","language_name":"bengali","language_id":20},"transliteration":{"text":"mina","language_name":"english","language_id":38}},{"id":15118,"position":5,"audio_url":"wbw/061_013_006.mp3","char_type_name":"word","page_number":552,"line_number":12,"text":"ٱللَّهِ","translation":{"text":"আল্লাহর","language_name":"bengali","language_id":20},"transliteration":{"text":"l-lahi","language_name":"english","language_id":38}},{"id":15119,"position":6,"audio_url":"wbw/061_013_007.mp3","char_type_name":"word","page_number":552,"line_number":12,"text":"وَفَتْحٌۭ","translation":{"text":"ও বিজয়","language_name":"bengali","language_id":20},"transliteration":{"text":"wafatḥun","language_name":"english","language_id":38}},{"id":15120,"position":7,"audio_url":"wbw/061_013_008.mp3","char_type_name":"word","page_number":552,"line_number":12,"text":"قَرِيبٌۭ ۗ","translation":{"text":"আসন্ন","language_name":"bengali","language_id":20},"transliteration":{"text":"qarībun","language_name":"english","language_id":38}},{"id":15122,"position":8,"audio_url":"wbw/061_013_010.mp3","char_type_name":"word","page_number":552,"line_number":12,"text":"وَبَشِّرِ","translation":{"text":"এবং সুসংবাদ দাও","language_name":"bengali","language_id":20},"transliteration":{"text":"wabashiri","language_name":"english","language_id":38}},{"id":15123,"position":9,"audio_url":"wbw/061_013_011.mp3","char_type_name":"word","page_number":552,"line_number":12,"text":"ٱلْمُؤْمِنِينَ","translation":{"text":"মু'মিনদের","language_name":"bengali","language_id":20},"transliteration":{"text":"l-mu'minīna","language_name":"english","language_id":38}},{"id":15124,"position":10,"audio_url":null,"char_type_name":"end","page_number":552,"line_number":12,"text":"١٣","translation":{"text":"(১৩)","language_name":"bengali","language_id":20},"transliteration":{"text":null,"language_name":"english","language_id":38}}]},{"id":5177,"verse_number":14,"verse_key":"61:14","hizb_number":55,"rub_el_hizb_number":220,"ruku_number":487,"manzil_number":7,"sajdah_number":null,"page_number":552,"juz_number":28,"words":[{"id":16163,"position":1,"audio_url":"wbw/061_014_001.mp3","char_type_name":"word","page_number":552,"line_number":12,"text":"يَـٰٓأَيُّهَا","translation":{"text":"ওহে","language_name":"bengali","language_id":20},"transliteration":{"text":"yāayyuhā","language_name":"english","language_id":38}},{"id":16164,"position":2,"audio_url":"wbw/061_014_002.mp3","char_type_name":"word","page_number":552,"line_number":12,"text":"ٱلَّذِينَ","translation":{"text":"যারা","language_name":"bengali","language_id":20},"transliteration":{"text":"alladhīna","language_name":"english","language_id":38}},{"id":16165,"position":3,"audio_url":"wbw/061_014_003.mp3","char_type_name":"word","page_number":552,"line_number":12,"text":"ءَامَنُوا۟","translation":{"text":"ঈমান এনেছো","language_name":"bengali","language_id":20},"transliteration":{"text":"āmanū","language_name":"english","language_id":38}},{"id":16166,"position":4,"audio_url":"wbw/061_014_004.mp3","char_type_name":"word","page_number":552,"line_number":12,"text":"كُونُوٓا۟","translation":{"text":"তোমরা হও","language_name":"bengali","language_id":20},"transliteration":{"text":"kūnū","language_name":"english","language_id":38}},{"id":16167,"position":5,"audio_url":"wbw/061_014_005.mp3","char_type_name":"word","page_number":552,"line_number":13,"text":"أَنصَارَ","translation":{"text":"সাহায্যকারী","language_name":"bengali","language_id":20},"transliteration":{"text":"anṣāra","language_name":"english","language_id":38}},{"id":16168,"position":6,"audio_url":"wbw/061_014_006.mp3","char_type_name":"word","page_number":552,"line_number":13,"text":"ٱللَّهِ","translation":{"text":"আল্লাহর","language_name":"bengali","language_id":20},"transliteration":{"text":"l-lahi","language_name":"english","language_id":38}},{"id":16169,"position":7,"audio_url":"wbw/061_014_007.mp3","char_type_name":"word","page_number":552,"line_number":13,"text":"كَمَا","translation":{"text":"যেমন","language_name":"bengali","language_id":20},"transliteration":{"text":"kamā","language_name":"english","language_id":38}},{"id":16170,"position":8,"audio_url":"wbw/061_014_008.mp3","char_type_name":"word","page_number":552,"line_number":13,"text":"قَالَ","translation":{"text":"বলেছিল","language_name":"bengali","language_id":20},"transliteration":{"text":"qāla","language_name":"english","language_id":38}},{"id":16171,"position":9,"audio_url":"wbw/061_014_009.mp3","char_type_name":"word","page_number":552,"line_number":13,"text":"عِيسَى","translation":{"text":"ঈসা","language_name":"bengali","language_id":20},"transliteration":{"text":"ʿīsā","language_name":"english","language_id":38}},{"id":16172,"position":10,"audio_url":"wbw/061_014_010.mp3","char_type_name":"word","page_number":552,"line_number":13,"text":"ٱبْنُ","translation":{"text":"তনয়","language_name":"bengali","language_id":20},"transliteration":{"text":"ub'nu","language_name":"english","language_id":38}},{"id":16173,"position":11,"audio_url":"wbw/061_014_011.mp3","char_type_name":"word","page_number":552,"line_number":13,"text":"مَرْيَمَ","translation":{"text":"মারয়ামের","language_name":"bengali","language_id":20},"transliteration":{"text":"maryama","language_name":"english","language_id":38}},{"id":16174,"position":12,"audio_url":"wbw/061_014_012.mp3","char_type_name":"word","page_number":552,"line_number":13,"text":"لِلْحَوَارِيِّـۧنَ","translation":{"text":"হাওয়ারীদেরকে","language_name":"bengali","language_id":20},"transliteration":{"text":"lil'ḥawāriyyīna","language_name":"english","language_id":38}},{"id":16175,"position":13,"audio_url":"wbw/061_014_013.mp3","char_type_name":"word","page_number":552,"line_number":13,"text":"مَنْ","translation":{"text":"\"কে","language_name":"bengali","language_id":20},"transliteration":{"text":"man","language_name":"english","language_id":38}},{"id":16176,"position":14,"audio_url":"wbw/061_014_014.mp3","char_type_name":"word","page_number":552,"line_number":13,"text":"أَنصَارِىٓ","translation":{"text":"আমার সাহায্যকারী","language_name":"bengali","language_id":20},"transliteration":{"text":"anṣārī","language_name":"english","language_id":38}},{"id":16177,"position":15,"audio_url":"wbw/061_014_015.mp3","char_type_name":"word","page_number":552,"line_number":13,"text":"إِلَى","translation":{"text":"দিকে","language_name":"bengali","language_id":20},"transliteration":{"text":"ilā","language_name":"english","language_id":38}},{"id":16178,"position":16,"audio_url":"wbw/061_014_016.mp3","char_type_name":"word","page_number":552,"line_number":13,"text":"ٱللَّهِ ۖ","translation":{"text":"আল্লাহর\"","language_name":"bengali","language_id":20},"transliteration":{"text":"l-lahi","language_name":"english","language_id":38}},{"id":16180,"position":17,"audio_url":"wbw/061_014_018.mp3","char_type_name":"word","page_number":552,"line_number":14,"text":"قَالَ","translation":{"text":"বলেছিল","language_name":"bengali","language_id":20},"transliteration":{"text":"qāla","language_name":"english","language_id":38}},{"id":16181,"position":18,"audio_url":"wbw/061_014_019.mp3","char_type_name":"word","page_number":552,"line_number":14,"text":"ٱلْحَوَارِيُّونَ","translation":{"text":"হাওয়ারীরা","language_name":"bengali","language_id":20},"transliteration":{"text":"l-ḥawāriyūna","language_name":"english","language_id":38}},{"id":16182,"position":19,"audio_url":"wbw/061_014_020.mp3","char_type_name":"word","page_number":552,"line_number":14,"text":"نَحْنُ","translation":{"text":"\"আমরা","language_name":"bengali","language_id":20},"transliteration":{"text":"naḥnu","language_name":"english","language_id":38}},{"id":16183,"position":20,"audio_url":"wbw/061_014_021.mp3","char_type_name":"word","page_number":552,"line_number":14,"text":"أَنصَارُ","translation":{"text":"সাহায্যকারী","language_name":"bengali","language_id":20},"transliteration":{"text":"anṣāru","language_name":"english","language_id":38}},{"id":16184,"position":21,"audio_url":"wbw/061_014_022.mp3","char_type_name":"word","page_number":552,"line_number":14,"text":"ٱللَّهِ ۖ","translation":{"text":"আল্লাহর\"","language_name":"bengali","language_id":20},"transliteration":{"text":"l-lahi","language_name":"english","language_id":38}},{"id":16186,"position":22,"audio_url":"wbw/061_014_024.mp3","char_type_name":"word","page_number":552,"line_number":14,"text":"فَـَٔامَنَت","translation":{"text":"অতঃপর ঈমান আনল","language_name":"bengali","language_id":20},"transliteration":{"text":"faāmanat","language_name":"english","language_id":38}},{"id":16187,"position":23,"audio_url":"wbw/061_014_025.mp3","char_type_name":"word","page_number":552,"line_number":14,"text":"طَّآئِفَةٌۭ","translation":{"text":"এক দল","language_name":"bengali","language_id":20},"transliteration":{"text":"ṭāifatun","language_name":"english","language_id":38}},{"id":16188,"position":24,"audio_url":"wbw/061_014_026.mp3","char_type_name":"word","page_number":552,"line_number":14,"text":"مِّنۢ","translation":{"text":"মধ্যে","language_name":"bengali","language_id":20},"transliteration":{"text":"min","language_name":"english","language_id":38}},{"id":16189,"position":25,"audio_url":"wbw/061_014_027.mp3","char_type_name":"word","page_number":552,"line_number":14,"text":"بَنِىٓ","translation":{"text":"বনী","language_name":"bengali","language_id":20},"transliteration":{"text":"banī","language_name":"english","language_id":38}},{"id":16190,"position":26,"audio_url":"wbw/061_014_028.mp3","char_type_name":"word","page_number":552,"line_number":14,"text":"إِسْرَٰٓءِيلَ","translation":{"text":"ইসরাইল","language_name":"bengali","language_id":20},"transliteration":{"text":"is'rāīla","language_name":"english","language_id":38}},{"id":16191,"position":27,"audio_url":"wbw/061_014_029.mp3","char_type_name":"word","page_number":552,"line_number":15,"text":"وَكَفَرَت","translation":{"text":"এবং কুফরি করল","language_name":"bengali","language_id":20},"transliteration":{"text":"wakafarat","language_name":"english","language_id":38}},{"id":16192,"position":28,"audio_url":"wbw/061_014_030.mp3","char_type_name":"word","page_number":552,"line_number":15,"text":"طَّآئِفَةٌۭ ۖ","translation":{"text":"এক দল","language_name":"bengali","language_id":20},"transliteration":{"text":"ṭāifatun","language_name":"english","language_id":38}},{"id":16194,"position":29,"audio_url":"wbw/061_014_032.mp3","char_type_name":"word","page_number":552,"line_number":15,"text":"فَأَيَّدْنَا","translation":{"text":"অতঃপর আমরা সাহায্য করলাম","language_name":"bengali","language_id":20},"transliteration":{"text":"fa-ayyadnā","language_name":"english","language_id":38}},{"id":16195,"position":30,"audio_url":"wbw/061_014_033.mp3","char_type_name":"word","page_number":552,"line_number":15,"text":"ٱلَّذِينَ","translation":{"text":"(তাদেরকে) যারা","language_name":"bengali","language_id":20},"transliteration":{"text":"alladhīna","language_name":"english","language_id":38}},{"id":16196,"position":31,"audio_url":"wbw/061_014_034.mp3","char_type_name":"word","page_number":552,"line_number":15,"text":"ءَامَنُوا۟","translation":{"text":"ঈমান এনেছিল","language_name":"bengali","language_id":20},"transliteration":{"text":"āmanū","language_name":"english","language_id":38}},{"id":16197,"position":32,"audio_url":"wbw/061_014_035.mp3","char_type_name":"word","page_number":552,"line_number":15,"text":"عَلَىٰ","translation":{"text":"উপর","language_name":"bengali","language_id":20},"transliteration":{"text":"ʿalā","language_name":"english","language_id":38}},{"id":16198,"position":33,"audio_url":"wbw/061_014_036.mp3","char_type_name":"word","page_number":552,"line_number":15,"text":"عَدُوِّهِمْ","translation":{"text":"তাদের দুশমনের","language_name":"bengali","language_id":20},"transliteration":{"text":"ʿaduwwihim","language_name":"english","language_id":38}},{"id":16199,"position":34,"audio_url":"wbw/061_014_037.mp3","char_type_name":"word","page_number":552,"line_number":15,"text":"فَأَصْبَحُوا۟","translation":{"text":"অতঃপর তারা হলো","language_name":"bengali","language_id":20},"transliteration":{"text":"fa-aṣbaḥū","language_name":"english","language_id":38}},{"id":16200,"position":35,"audio_url":"wbw/061_014_038.mp3","char_type_name":"word","page_number":552,"line_number":15,"text":"ظَـٰهِرِينَ","translation":{"text":"বিজয়ী","language_name":"bengali","language_id":20},"transliteration":{"text":"ẓāhirīna","language_name":"english","language_id":38}},{"id":16201,"position":36,"audio_url":null,"char_type_name":"end","page_number":552,"line_number":15,"text":"١٤","translation":{"text":"(১৪)","language_name":"bengali","language_id":20},"transliteration":{"text":null,"language_name":"english","language_id":38}}]}],"pagination":{"per_page":10,"current_page":2,"next_page":null,"total_pages":2,"total_records":14}}
