{"verses":[{"id":3250,"verse_number":91,"verse_key":"27:91","hizb_number":39,"rub_el_hizb_number":154,"ruku_number":333,"manzil_number":5,"sajdah_number":null,"page_number":385,"juz_number":20,"words":[{"id":68527,"position":1,"audio_url":"wbw/027_091_001.mp3","char_type_name":"word","page_number":385,"line_number":3,"text":"إِنَّمَآ","translation":{"text":"\"মূলত","language_name":"bengali","language_id":20},"transliteration":{"text":"innamā","language_name":"english","language_id":38}},{"id":68528,"position":2,"audio_url":"wbw/027_091_002.mp3","char_type_name":"word","page_number":385,"line_number":3,"text":"أُمِرْتُ","translation":{"text":"আমি আদিষ্ট হয়েছি","language_name":"bengali","language_id":20},"transliteration":{"text":"umir'tu","language_name":"english","language_id":38}},{"id":68529,"position":3,"audio_url":"wbw/027_091_003.mp3","char_type_name":"word","page_number":385,"line_number":3,"text":"أَنْ","translation":{"text":"যেন","language_name":"bengali","language_id":20},"transliteration":{"text":"an","language_name":"english","language_id":38}},{"id":68530,"position":4,"audio_url":"wbw/027_091_004.mp3","char_type_name":"word","page_number":385,"line_number":3,"text":"أَعْبُدَ","translation":{"text":"ইবাদত করি আমি","language_name":"bengali","language_id":20},"transliteration":{"text":"aʿbuda","language_name":"english","language_id":38}},{"id":68531,"position":5,"audio_url":"wbw/027_091_005.mp3","char_type_name":"word","page_number":385,"line_number":3,"text":"رَبَّ","translation":{"text":"রবের","language_name":"bengali","language_id":20},"transliteration":{"text":"rabba","language_name":"english","language_id":38}},{"id":68532,"position":6,"audio_url":"wbw/027_091_006.mp3","char_type_name":"word","page_number":385,"line_number":3,"text":"هَـٰذِهِ","translation":{"text":"এই","language_name":"bengali","language_id":20},"transliteration":{"text":"hādhihi","language_name":"english","language_id":38}},{"id":68533,"position":7,"audio_url":"wbw/027_091_007.mp3","char_type_name":"word","page_number":385,"line_number":3,"text":"ٱلْبَلْدَةِ","translation":{"text":"শহরের (অর্থাৎ মাক্কার)","language_name":"bengali","language_id":20},"transliteration":{"text":"l-baldati","language_name":"english","language_id":38}},{"id":68534,"position":8,"audio_url":"wbw/027_091_008.mp3","char_type_name":"word","page_number":385,"line_number":4,"text":"ٱلَّذِى","translation":{"text":"যিনি","language_name":"bengali","language_id":20},"transliteration":{"text":"alladhī","language_name":"english","language_id":38}},{"id":68535,"position":9,"audio_url":"wbw/027_091_009.mp3","char_type_name":"word","page_number":385,"line_number":4,"text":"حَرَّمَهَا","translation":{"text":"সম্মানিত করেছেন তা","language_name":"bengali","language_id":20},"transliteration":{"text":"ḥarramahā","language_name":"english","language_id":38}},{"id":68536,"position":10,"audio_url":"wbw/027_091_010.mp3","char_type_name":"word","page_number":385,"line_number":4,"text":"وَلَهُۥ","translation":{"text":"এবং জন্যে  তাঁরই (মালিকানায়)","language_name":"bengali","language_id":20},"transliteration":{"text":"walahu","language_name":"english","language_id":38}},{"id":68537,"position":11,"audio_url":"wbw/027_091_011.mp3","char_type_name":"word","page_number":385,"line_number":4,"text":"كُلُّ","translation":{"text":"প্রত্যেক","language_name":"bengali","language_id":20},"transliteration":{"text":"kullu","language_name":"english","language_id":38}},{"id":68538,"position":12,"audio_url":"wbw/027_091_012.mp3","char_type_name":"word","page_number":385,"line_number":4,"text":"شَىْءٍۢ ۖ","translation":{"text":"বস্তু","language_name":"bengali","language_id":20},"transliteration":{"text":"shayin","language_name":"english","language_id":38}},{"id":68540,"position":13,"audio_url":"wbw/027_091_014.mp3","char_type_name":"word","page_number":385,"line_number":4,"text":"وَأُمِرْتُ","translation":{"text":"এবং আমি আদিষ্ট হয়েছি","language_name":"bengali","language_id":20},"transliteration":{"text":"wa-umir'tu","language_name":"english","language_id":38}},{"id":68541,"position":14,"audio_url":"wbw/027_091_015.mp3","char_type_name":"word","page_number":385,"line_number":4,"text":"أَنْ","translation":{"text":"যেন","language_name":"bengali","language_id":20},"transliteration":{"text":"an","language_name":"english","language_id":38}},{"id":68542,"position":15,"audio_url":"wbw/027_091_016.mp3","char_type_name":"word","page_number":385,"line_number":4,"text":"أَكُونَ","translation":{"text":"আমি হই","language_name":"bengali","language_id":20},"transliteration":{"text":"akūna","language_name":"english","language_id":38}},{"id":68543,"position":16,"audio_url":"wbw/027_091_017.mp3","char_type_name":"word","page_number":385,"line_number":4,"text":"مِنَ","translation":{"text":"অন্তর্ভুক্ত","language_name":"bengali","language_id":20},"transliteration":{"text":"mina","language_name":"english","language_id":38}},{"id":68544,"position":17,"audio_url":"wbw/027_091_018.mp3","char_type_name":"word","page_number":385,"line_number":4,"text":"ٱلْمُسْلِمِينَ","translation":{"text":"আত্মসমর্পণকারীদের","language_name":"bengali","language_id":20},"transliteration":{"text":"l-mus'limīna","language_name":"english","language_id":38}},{"id":68545,"position":18,"audio_url":null,"char_type_name":"end","page_number":385,"line_number":5,"text":"٩١","translation":{"text":"(৯১)","language_name":"bengali","language_id":20},"transliteration":{"text":null,"language_name":"english","language_id":38}}]},{"id":3251,"verse_number":92,"verse_key":"27:92","hizb_number":39,"rub_el_hizb_number":154,"ruku_number":333,"manzil_number":5,"sajdah_number":null,"page_number":385,"juz_number":20,"words":[{"id":68794,"position":1,"audio_url":"wbw/027_092_001.mp3","char_type_name":"word","page_number":385,"line_number":5,"text":"وَأَنْ","translation":{"text":"(এও)এবং যে","language_name":"bengali","language_id":20},"transliteration":{"text":"wa-an","language_name":"english","language_id":38}},{"id":68795,"position":2,"audio_url":"wbw/027_092_002.mp3","char_type_name":"word","page_number":385,"line_number":5,"text":"أَتْلُوَا۟","translation":{"text":"আমি তিলাওয়াত করবো","language_name":"bengali","language_id":20},"transliteration":{"text":"atluwā","language_name":"english","language_id":38}},{"id":68796,"position":3,"audio_url":"wbw/027_092_003.mp3","char_type_name":"word","page_number":385,"line_number":5,"text":"ٱلْقُرْءَانَ ۖ","translation":{"text":"কুরআন\"","language_name":"bengali","language_id":20},"transliteration":{"text":"l-qur'āna","language_name":"english","language_id":38}},{"id":68798,"position":4,"audio_url":"wbw/027_092_005.mp3","char_type_name":"word","page_number":385,"line_number":5,"text":"فَمَنِ","translation":{"text":"অতএব যে","language_name":"bengali","language_id":20},"transliteration":{"text":"famani","language_name":"english","language_id":38}},{"id":68799,"position":5,"audio_url":"wbw/027_092_006.mp3","char_type_name":"word","page_number":385,"line_number":5,"text":"ٱهْتَدَىٰ","translation":{"text":"সৎপথ অবলম্বন করবে","language_name":"bengali","language_id":20},"transliteration":{"text":"ih'tadā","language_name":"english","language_id":38}},{"id":68800,"position":6,"audio_url":"wbw/027_092_007.mp3","char_type_name":"word","page_number":385,"line_number":5,"text":"فَإِنَّمَا","translation":{"text":"শুধুমাত্র","language_name":"bengali","language_id":20},"transliteration":{"text":"fa-innamā","language_name":"english","language_id":38}},{"id":68801,"position":7,"audio_url":"wbw/027_092_008.mp3","char_type_name":"word","page_number":385,"line_number":5,"text":"يَهْتَدِى","translation":{"text":"সে সৎপথ অবলম্বন করবে","language_name":"bengali","language_id":20},"transliteration":{"text":"yahtadī","language_name":"english","language_id":38}},{"id":68802,"position":8,"audio_url":"wbw/027_092_009.mp3","char_type_name":"word","page_number":385,"line_number":5,"text":"لِنَفْسِهِۦ ۖ","translation":{"text":"জন্যে নিজের তার","language_name":"bengali","language_id":20},"transliteration":{"text":"linafsihi","language_name":"english","language_id":38}},{"id":68804,"position":9,"audio_url":"wbw/027_092_011.mp3","char_type_name":"word","page_number":385,"line_number":6,"text":"وَمَن","translation":{"text":"আর যে","language_name":"bengali","language_id":20},"transliteration":{"text":"waman","language_name":"english","language_id":38}},{"id":68805,"position":10,"audio_url":"wbw/027_092_012.mp3","char_type_name":"word","page_number":385,"line_number":6,"text":"ضَلَّ","translation":{"text":"ভ্রান্তপথ অবলম্বন করবে","language_name":"bengali","language_id":20},"transliteration":{"text":"ḍalla","language_name":"english","language_id":38}},{"id":68806,"position":11,"audio_url":"wbw/027_092_013.mp3","char_type_name":"word","page_number":385,"line_number":6,"text":"فَقُلْ","translation":{"text":"অতঃপর বলো","language_name":"bengali","language_id":20},"transliteration":{"text":"faqul","language_name":"english","language_id":38}},{"id":68807,"position":12,"audio_url":"wbw/027_092_014.mp3","char_type_name":"word","page_number":385,"line_number":6,"text":"إِنَّمَآ","translation":{"text":"\"শুধুমাত্র","language_name":"bengali","language_id":20},"transliteration":{"text":"innamā","language_name":"english","language_id":38}},{"id":68808,"position":13,"audio_url":"wbw/027_092_015.mp3","char_type_name":"word","page_number":385,"line_number":6,"text":"أَنَا۠","translation":{"text":"আমি","language_name":"bengali","language_id":20},"transliteration":{"text":"anā","language_name":"english","language_id":38}},{"id":68809,"position":14,"audio_url":"wbw/027_092_016.mp3","char_type_name":"word","page_number":385,"line_number":6,"text":"مِنَ","translation":{"text":"অন্তর্ভুক্ত","language_name":"bengali","language_id":20},"transliteration":{"text":"mina","language_name":"english","language_id":38}},{"id":68810,"position":15,"audio_url":"wbw/027_092_017.mp3","char_type_name":"word","page_number":385,"line_number":6,"text":"ٱلْمُنذِرِينَ","translation":{"text":"সতর্ককারীদের\"","language_name":"bengali","language_id":20},"transliteration":{"text":"l-mundhirīna","language_name":"english","language_id":38}},{"id":68811,"position":16,"audio_url":null,"char_type_name":"end","page_number":385,"line_number":6,"text":"٩٢","translation":{"text":"(৯২)","language_name":"bengali","language_id":20},"transliteration":{"text":null,"language_name":"english","language_id":38}}]},{"id":3252,"verse_number":93,"verse_key":"27:93","hizb_number":39,"rub_el_hizb_number":154,"ruku_number":333,"manzil_number":5,"sajdah_number":null,"page_number":385,"juz_number":20,"words":[{"id":68960,"position":1,"audio_url":"wbw/027_093_001.mp3","char_type_name":"word","page_number":385,"line_number":6,"text":"وَقُلِ","translation":{"text":"এবং বলো","language_name":"bengali","language_id":20},"transliteration":{"text":"waquli","language_name":"english","language_id":38}},{"id":68961,"position":2,"audio_url":"wbw/027_093_002.mp3","char_type_name":"word","page_number":385,"line_number":6,"text":"ٱلْحَمْدُ","translation":{"text":"\"সব প্রশংসা","language_name":"bengali","language_id":20},"transliteration":{"text":"l-ḥamdu","language_name":"english","language_id":38}},{"id":68962,"position":3,"audio_url":"wbw/027_093_003.mp3","char_type_name":"word","page_number":385,"line_number":6,"text":"لِلَّهِ","translation":{"text":"জন্যে আল্লাহরই","language_name":"bengali","language_id":20},"transliteration":{"text":"lillahi","language_name":"english","language_id":38}},{"id":68963,"position":4,"audio_url":"wbw/027_093_004.mp3","char_type_name":"word","page_number":385,"line_number":7,"text":"سَيُرِيكُمْ","translation":{"text":"শীঘ্রই তিনি দেখাবেন তোমাদেরকে","language_name":"bengali","language_id":20},"transliteration":{"text":"sayurīkum","language_name":"english","language_id":38}},{"id":68964,"position":5,"audio_url":"wbw/027_093_005.mp3","char_type_name":"word","page_number":385,"line_number":7,"text":"ءَايَـٰتِهِۦ","translation":{"text":"নিদের্শনাবলী তাঁর","language_name":"bengali","language_id":20},"transliteration":{"text":"āyātihi","language_name":"english","language_id":38}},{"id":68965,"position":6,"audio_url":"wbw/027_093_006.mp3","char_type_name":"word","page_number":385,"line_number":7,"text":"فَتَعْرِفُونَهَا ۚ","translation":{"text":"তখন তোমরা চিনে নিবে সব তা","language_name":"bengali","language_id":20},"transliteration":{"text":"fataʿrifūnahā","language_name":"english","language_id":38}},{"id":68967,"position":7,"audio_url":"wbw/027_093_008.mp3","char_type_name":"word","page_number":385,"line_number":7,"text":"وَمَا","translation":{"text":"আর নন","language_name":"bengali","language_id":20},"transliteration":{"text":"wamā","language_name":"english","language_id":38}},{"id":68968,"position":8,"audio_url":"wbw/027_093_009.mp3","char_type_name":"word","page_number":385,"line_number":7,"text":"رَبُّكَ","translation":{"text":"তোমার রব","language_name":"bengali","language_id":20},"transliteration":{"text":"rabbuka","language_name":"english","language_id":38}},{"id":68969,"position":9,"audio_url":"wbw/027_093_010.mp3","char_type_name":"word","page_number":385,"line_number":7,"text":"بِغَـٰفِلٍ","translation":{"text":"অমনোযোগী","language_name":"bengali","language_id":20},"transliteration":{"text":"bighāfilin","language_name":"english","language_id":38}},{"id":68970,"position":10,"audio_url":"wbw/027_093_011.mp3","char_type_name":"word","page_number":385,"line_number":7,"text":"عَمَّا","translation":{"text":"সে সম্পর্কে যা","language_name":"bengali","language_id":20},"transliteration":{"text":"ʿammā","language_name":"english","language_id":38}},{"id":68971,"position":11,"audio_url":"wbw/027_093_012.mp3","char_type_name":"word","page_number":385,"line_number":7,"text":"تَعْمَلُونَ","translation":{"text":"তোমরা কাজ করছো\"","language_name":"bengali","language_id":20},"transliteration":{"text":"taʿmalūna","language_name":"english","language_id":38}},{"id":68972,"position":12,"audio_url":null,"char_type_name":"end","page_number":385,"line_number":7,"text":"٩٣","translation":{"text":"(৯৩)","language_name":"bengali","language_id":20},"transliteration":{"text":null,"language_name":"english","language_id":38}}]}],"pagination":{"per_page":10,"current_page":10,"next_page":null,"total_pages":10,"total_records":93}}
