{"verses":[{"id":3230,"verse_number":71,"verse_key":"27:71","hizb_number":39,"rub_el_hizb_number":153,"ruku_number":332,"manzil_number":5,"sajdah_number":null,"page_number":383,"juz_number":20,"words":[{"id":60209,"position":1,"audio_url":"wbw/027_071_001.mp3","char_type_name":"word","page_number":383,"line_number":10,"text":"وَيَقُولُونَ","translation":{"text":"এবং তারা বলে","language_name":"bengali","language_id":20},"transliteration":{"text":"wayaqūlūna","language_name":"english","language_id":38}},{"id":60210,"position":2,"audio_url":"wbw/027_071_002.mp3","char_type_name":"word","page_number":383,"line_number":10,"text":"مَتَىٰ","translation":{"text":"\"কখন","language_name":"bengali","language_id":20},"transliteration":{"text":"matā","language_name":"english","language_id":38}},{"id":60211,"position":3,"audio_url":"wbw/027_071_003.mp3","char_type_name":"word","page_number":383,"line_number":10,"text":"هَـٰذَا","translation":{"text":"এই","language_name":"bengali","language_id":20},"transliteration":{"text":"hādhā","language_name":"english","language_id":38}},{"id":60212,"position":4,"audio_url":"wbw/027_071_004.mp3","char_type_name":"word","page_number":383,"line_number":10,"text":"ٱلْوَعْدُ","translation":{"text":"প্রতিশ্রুতি (কার্যকর হবে)","language_name":"bengali","language_id":20},"transliteration":{"text":"l-waʿdu","language_name":"english","language_id":38}},{"id":60213,"position":5,"audio_url":"wbw/027_071_005.mp3","char_type_name":"word","page_number":383,"line_number":10,"text":"إِن","translation":{"text":"যদি","language_name":"bengali","language_id":20},"transliteration":{"text":"in","language_name":"english","language_id":38}},{"id":60214,"position":6,"audio_url":"wbw/027_071_006.mp3","char_type_name":"word","page_number":383,"line_number":10,"text":"كُنتُمْ","translation":{"text":"হও তোমরা","language_name":"bengali","language_id":20},"transliteration":{"text":"kuntum","language_name":"english","language_id":38}},{"id":60215,"position":7,"audio_url":"wbw/027_071_007.mp3","char_type_name":"word","page_number":383,"line_number":10,"text":"صَـٰدِقِينَ","translation":{"text":"সত্যবাদী\"","language_name":"bengali","language_id":20},"transliteration":{"text":"ṣādiqīna","language_name":"english","language_id":38}},{"id":60216,"position":8,"audio_url":null,"char_type_name":"end","page_number":383,"line_number":10,"text":"٧١","translation":{"text":"(৭১)","language_name":"bengali","language_id":20},"transliteration":{"text":null,"language_name":"english","language_id":38}}]},{"id":3231,"verse_number":72,"verse_key":"27:72","hizb_number":39,"rub_el_hizb_number":153,"ruku_number":332,"manzil_number":5,"sajdah_number":null,"page_number":383,"juz_number":20,"words":[{"id":60751,"position":1,"audio_url":"wbw/027_072_001.mp3","char_type_name":"word","page_number":383,"line_number":10,"text":"قُلْ","translation":{"text":"বলো","language_name":"bengali","language_id":20},"transliteration":{"text":"qul","language_name":"english","language_id":38}},{"id":60752,"position":2,"audio_url":"wbw/027_072_002.mp3","char_type_name":"word","page_number":383,"line_number":10,"text":"عَسَىٰٓ","translation":{"text":"\"সম্ভবতঃ","language_name":"bengali","language_id":20},"transliteration":{"text":"ʿasā","language_name":"english","language_id":38}},{"id":60753,"position":3,"audio_url":"wbw/027_072_003.mp3","char_type_name":"word","page_number":383,"line_number":11,"text":"أَن","translation":{"text":"(এমন) যে","language_name":"bengali","language_id":20},"transliteration":{"text":"an","language_name":"english","language_id":38}},{"id":60754,"position":4,"audio_url":"wbw/027_072_004.mp3","char_type_name":"word","page_number":383,"line_number":11,"text":"يَكُونَ","translation":{"text":"তা হয়","language_name":"bengali","language_id":20},"transliteration":{"text":"yakūna","language_name":"english","language_id":38}},{"id":60755,"position":5,"audio_url":"wbw/027_072_005.mp3","char_type_name":"word","page_number":383,"line_number":11,"text":"رَدِفَ","translation":{"text":"নিকটবর্তী হয়েছে","language_name":"bengali","language_id":20},"transliteration":{"text":"radifa","language_name":"english","language_id":38}},{"id":60756,"position":6,"audio_url":"wbw/027_072_006.mp3","char_type_name":"word","page_number":383,"line_number":11,"text":"لَكُم","translation":{"text":"জন্যে তোমাদের","language_name":"bengali","language_id":20},"transliteration":{"text":"lakum","language_name":"english","language_id":38}},{"id":60757,"position":7,"audio_url":"wbw/027_072_007.mp3","char_type_name":"word","page_number":383,"line_number":11,"text":"بَعْضُ","translation":{"text":"(তার) কিছুটা","language_name":"bengali","language_id":20},"transliteration":{"text":"baʿḍu","language_name":"english","language_id":38}},{"id":60758,"position":8,"audio_url":"wbw/027_072_008.mp3","char_type_name":"word","page_number":383,"line_number":11,"text":"ٱلَّذِى","translation":{"text":"যা","language_name":"bengali","language_id":20},"transliteration":{"text":"alladhī","language_name":"english","language_id":38}},{"id":60759,"position":9,"audio_url":"wbw/027_072_009.mp3","char_type_name":"word","page_number":383,"line_number":11,"text":"تَسْتَعْجِلُونَ","translation":{"text":"তোমরা তাড়াতাড়ি করতে চাও\"","language_name":"bengali","language_id":20},"transliteration":{"text":"tastaʿjilūna","language_name":"english","language_id":38}},{"id":60760,"position":10,"audio_url":null,"char_type_name":"end","page_number":383,"line_number":11,"text":"٧٢","translation":{"text":"(৭২)","language_name":"bengali","language_id":20},"transliteration":{"text":null,"language_name":"english","language_id":38}}]},{"id":3232,"verse_number":73,"verse_key":"27:73","hizb_number":39,"rub_el_hizb_number":153,"ruku_number":332,"manzil_number":5,"sajdah_number":null,"page_number":383,"juz_number":20,"words":[{"id":61233,"position":1,"audio_url":"wbw/027_073_001.mp3","char_type_name":"word","page_number":383,"line_number":11,"text":"وَإِنَّ","translation":{"text":"এবং নিশ্চয়ই","language_name":"bengali","language_id":20},"transliteration":{"text":"wa-inna","language_name":"english","language_id":38}},{"id":61234,"position":2,"audio_url":"wbw/027_073_002.mp3","char_type_name":"word","page_number":383,"line_number":11,"text":"رَبَّكَ","translation":{"text":"তোমার রব","language_name":"bengali","language_id":20},"transliteration":{"text":"rabbaka","language_name":"english","language_id":38}},{"id":61235,"position":3,"audio_url":"wbw/027_073_003.mp3","char_type_name":"word","page_number":383,"line_number":12,"text":"لَذُو","translation":{"text":"অবশ্যই অধিকারী","language_name":"bengali","language_id":20},"transliteration":{"text":"ladhū","language_name":"english","language_id":38}},{"id":61236,"position":4,"audio_url":"wbw/027_073_004.mp3","char_type_name":"word","page_number":383,"line_number":12,"text":"فَضْلٍ","translation":{"text":"অনুগ্রহের","language_name":"bengali","language_id":20},"transliteration":{"text":"faḍlin","language_name":"english","language_id":38}},{"id":61237,"position":5,"audio_url":"wbw/027_073_005.mp3","char_type_name":"word","page_number":383,"line_number":12,"text":"عَلَى","translation":{"text":"উপর","language_name":"bengali","language_id":20},"transliteration":{"text":"ʿalā","language_name":"english","language_id":38}},{"id":61238,"position":6,"audio_url":"wbw/027_073_006.mp3","char_type_name":"word","page_number":383,"line_number":12,"text":"ٱلنَّاسِ","translation":{"text":"মানুষের","language_name":"bengali","language_id":20},"transliteration":{"text":"l-nāsi","language_name":"english","language_id":38}},{"id":61239,"position":7,"audio_url":"wbw/027_073_007.mp3","char_type_name":"word","page_number":383,"line_number":12,"text":"وَلَـٰكِنَّ","translation":{"text":"কিন্তু","language_name":"bengali","language_id":20},"transliteration":{"text":"walākinna","language_name":"english","language_id":38}},{"id":61240,"position":8,"audio_url":"wbw/027_073_008.mp3","char_type_name":"word","page_number":383,"line_number":12,"text":"أَكْثَرَهُمْ","translation":{"text":"অধিকাংশই তাদের","language_name":"bengali","language_id":20},"transliteration":{"text":"aktharahum","language_name":"english","language_id":38}},{"id":61241,"position":9,"audio_url":"wbw/027_073_009.mp3","char_type_name":"word","page_number":383,"line_number":12,"text":"لَا","translation":{"text":"না","language_name":"bengali","language_id":20},"transliteration":{"text":"lā","language_name":"english","language_id":38}},{"id":61242,"position":10,"audio_url":"wbw/027_073_010.mp3","char_type_name":"word","page_number":383,"line_number":12,"text":"يَشْكُرُونَ","translation":{"text":"তারা কৃতজ্ঞতা প্রকাশ করে","language_name":"bengali","language_id":20},"transliteration":{"text":"yashkurūna","language_name":"english","language_id":38}},{"id":61243,"position":11,"audio_url":null,"char_type_name":"end","page_number":383,"line_number":12,"text":"٧٣","translation":{"text":"(৭৩)","language_name":"bengali","language_id":20},"transliteration":{"text":null,"language_name":"english","language_id":38}}]},{"id":3233,"verse_number":74,"verse_key":"27:74","hizb_number":39,"rub_el_hizb_number":153,"ruku_number":332,"manzil_number":5,"sajdah_number":null,"page_number":383,"juz_number":20,"words":[{"id":61635,"position":1,"audio_url":"wbw/027_074_001.mp3","char_type_name":"word","page_number":383,"line_number":12,"text":"وَإِنَّ","translation":{"text":"এবং নিশ্চয়ই","language_name":"bengali","language_id":20},"transliteration":{"text":"wa-inna","language_name":"english","language_id":38}},{"id":61636,"position":2,"audio_url":"wbw/027_074_002.mp3","char_type_name":"word","page_number":383,"line_number":13,"text":"رَبَّكَ","translation":{"text":"তোমার রব","language_name":"bengali","language_id":20},"transliteration":{"text":"rabbaka","language_name":"english","language_id":38}},{"id":61637,"position":3,"audio_url":"wbw/027_074_003.mp3","char_type_name":"word","page_number":383,"line_number":13,"text":"لَيَعْلَمُ","translation":{"text":"অবশ্যই জানেন","language_name":"bengali","language_id":20},"transliteration":{"text":"layaʿlamu","language_name":"english","language_id":38}},{"id":61638,"position":4,"audio_url":"wbw/027_074_004.mp3","char_type_name":"word","page_number":383,"line_number":13,"text":"مَا","translation":{"text":"যা","language_name":"bengali","language_id":20},"transliteration":{"text":"mā","language_name":"english","language_id":38}},{"id":61639,"position":5,"audio_url":"wbw/027_074_005.mp3","char_type_name":"word","page_number":383,"line_number":13,"text":"تُكِنُّ","translation":{"text":"গোপন করে","language_name":"bengali","language_id":20},"transliteration":{"text":"tukinnu","language_name":"english","language_id":38}},{"id":61640,"position":6,"audio_url":"wbw/027_074_006.mp3","char_type_name":"word","page_number":383,"line_number":13,"text":"صُدُورُهُمْ","translation":{"text":"তাদের অন্তরসমূহ","language_name":"bengali","language_id":20},"transliteration":{"text":"ṣudūruhum","language_name":"english","language_id":38}},{"id":61641,"position":7,"audio_url":"wbw/027_074_007.mp3","char_type_name":"word","page_number":383,"line_number":13,"text":"وَمَا","translation":{"text":"আর যা","language_name":"bengali","language_id":20},"transliteration":{"text":"wamā","language_name":"english","language_id":38}},{"id":61642,"position":8,"audio_url":"wbw/027_074_008.mp3","char_type_name":"word","page_number":383,"line_number":13,"text":"يُعْلِنُونَ","translation":{"text":"তারা প্রকাশ করে","language_name":"bengali","language_id":20},"transliteration":{"text":"yuʿ'linūna","language_name":"english","language_id":38}},{"id":61643,"position":9,"audio_url":null,"char_type_name":"end","page_number":383,"line_number":13,"text":"٧٤","translation":{"text":"(৭৪)","language_name":"bengali","language_id":20},"transliteration":{"text":null,"language_name":"english","language_id":38}}]},{"id":3234,"verse_number":75,"verse_key":"27:75","hizb_number":39,"rub_el_hizb_number":153,"ruku_number":332,"manzil_number":5,"sajdah_number":null,"page_number":383,"juz_number":20,"words":[{"id":61845,"position":1,"audio_url":"wbw/027_075_001.mp3","char_type_name":"word","page_number":383,"line_number":13,"text":"وَمَا","translation":{"text":"আর নেই","language_name":"bengali","language_id":20},"transliteration":{"text":"wamā","language_name":"english","language_id":38}},{"id":61846,"position":2,"audio_url":"wbw/027_075_002.mp3","char_type_name":"word","page_number":383,"line_number":13,"text":"مِنْ","translation":{"text":"কোনো","language_name":"bengali","language_id":20},"transliteration":{"text":"min","language_name":"english","language_id":38}},{"id":61847,"position":3,"audio_url":"wbw/027_075_003.mp3","char_type_name":"word","page_number":383,"line_number":13,"text":"غَآئِبَةٍۢ","translation":{"text":"গোপন বিষয়","language_name":"bengali","language_id":20},"transliteration":{"text":"ghāibatin","language_name":"english","language_id":38}},{"id":61848,"position":4,"audio_url":"wbw/027_075_004.mp3","char_type_name":"word","page_number":383,"line_number":14,"text":"فِى","translation":{"text":"মধ্যে","language_name":"bengali","language_id":20},"transliteration":{"text":"fī","language_name":"english","language_id":38}},{"id":61849,"position":5,"audio_url":"wbw/027_075_005.mp3","char_type_name":"word","page_number":383,"line_number":14,"text":"ٱلسَّمَآءِ","translation":{"text":"আকাশের","language_name":"bengali","language_id":20},"transliteration":{"text":"l-samāi","language_name":"english","language_id":38}},{"id":61850,"position":6,"audio_url":"wbw/027_075_006.mp3","char_type_name":"word","page_number":383,"line_number":14,"text":"وَٱلْأَرْضِ","translation":{"text":"আর (না) পৃথিবীতে","language_name":"bengali","language_id":20},"transliteration":{"text":"wal-arḍi","language_name":"english","language_id":38}},{"id":61851,"position":7,"audio_url":"wbw/027_075_007.mp3","char_type_name":"word","page_number":383,"line_number":14,"text":"إِلَّا","translation":{"text":"এ ছাড়া যে","language_name":"bengali","language_id":20},"transliteration":{"text":"illā","language_name":"english","language_id":38}},{"id":61852,"position":8,"audio_url":"wbw/027_075_008.mp3","char_type_name":"word","page_number":383,"line_number":14,"text":"فِى","translation":{"text":"আছে (তা)","language_name":"bengali","language_id":20},"transliteration":{"text":"fī","language_name":"english","language_id":38}},{"id":61853,"position":9,"audio_url":"wbw/027_075_009.mp3","char_type_name":"word","page_number":383,"line_number":14,"text":"كِتَـٰبٍۢ","translation":{"text":"কিতাবে","language_name":"bengali","language_id":20},"transliteration":{"text":"kitābin","language_name":"english","language_id":38}},{"id":61854,"position":10,"audio_url":"wbw/027_075_010.mp3","char_type_name":"word","page_number":383,"line_number":14,"text":"مُّبِينٍ","translation":{"text":"সুস্পষ্ট","language_name":"bengali","language_id":20},"transliteration":{"text":"mubīnin","language_name":"english","language_id":38}},{"id":61855,"position":11,"audio_url":null,"char_type_name":"end","page_number":383,"line_number":14,"text":"٧٥","translation":{"text":"(৭৫)","language_name":"bengali","language_id":20},"transliteration":{"text":null,"language_name":"english","language_id":38}}]},{"id":3235,"verse_number":76,"verse_key":"27:76","hizb_number":39,"rub_el_hizb_number":153,"ruku_number":332,"manzil_number":5,"sajdah_number":null,"page_number":383,"juz_number":20,"words":[{"id":62578,"position":1,"audio_url":"wbw/027_076_001.mp3","char_type_name":"word","page_number":383,"line_number":14,"text":"إِنَّ","translation":{"text":"নিশ্চয়ই","language_name":"bengali","language_id":20},"transliteration":{"text":"inna","language_name":"english","language_id":38}},{"id":62579,"position":2,"audio_url":"wbw/027_076_002.mp3","char_type_name":"word","page_number":383,"line_number":14,"text":"هَـٰذَا","translation":{"text":"এই","language_name":"bengali","language_id":20},"transliteration":{"text":"hādhā","language_name":"english","language_id":38}},{"id":62580,"position":3,"audio_url":"wbw/027_076_003.mp3","char_type_name":"word","page_number":383,"line_number":14,"text":"ٱلْقُرْءَانَ","translation":{"text":"কুরআন","language_name":"bengali","language_id":20},"transliteration":{"text":"l-qur'āna","language_name":"english","language_id":38}},{"id":62581,"position":4,"audio_url":"wbw/027_076_004.mp3","char_type_name":"word","page_number":383,"line_number":15,"text":"يَقُصُّ","translation":{"text":"বিবৃত করে","language_name":"bengali","language_id":20},"transliteration":{"text":"yaquṣṣu","language_name":"english","language_id":38}},{"id":62582,"position":5,"audio_url":"wbw/027_076_005.mp3","char_type_name":"word","page_number":383,"line_number":15,"text":"عَلَىٰ","translation":{"text":"কাছে","language_name":"bengali","language_id":20},"transliteration":{"text":"ʿalā","language_name":"english","language_id":38}},{"id":62583,"position":6,"audio_url":"wbw/027_076_006.mp3","char_type_name":"word","page_number":383,"line_number":15,"text":"بَنِىٓ","translation":{"text":"বনী","language_name":"bengali","language_id":20},"transliteration":{"text":"banī","language_name":"english","language_id":38}},{"id":62584,"position":7,"audio_url":"wbw/027_076_007.mp3","char_type_name":"word","page_number":383,"line_number":15,"text":"إِسْرَٰٓءِيلَ","translation":{"text":"ইসরাঈলদের","language_name":"bengali","language_id":20},"transliteration":{"text":"is'rāīla","language_name":"english","language_id":38}},{"id":62585,"position":8,"audio_url":"wbw/027_076_008.mp3","char_type_name":"word","page_number":383,"line_number":15,"text":"أَكْثَرَ","translation":{"text":"(এমন) অনেক কিছু","language_name":"bengali","language_id":20},"transliteration":{"text":"akthara","language_name":"english","language_id":38}},{"id":62586,"position":9,"audio_url":"wbw/027_076_009.mp3","char_type_name":"word","page_number":383,"line_number":15,"text":"ٱلَّذِى","translation":{"text":"যা","language_name":"bengali","language_id":20},"transliteration":{"text":"alladhī","language_name":"english","language_id":38}},{"id":62587,"position":10,"audio_url":"wbw/027_076_010.mp3","char_type_name":"word","page_number":383,"line_number":15,"text":"هُمْ","translation":{"text":"তারা","language_name":"bengali","language_id":20},"transliteration":{"text":"hum","language_name":"english","language_id":38}},{"id":62588,"position":11,"audio_url":"wbw/027_076_011.mp3","char_type_name":"word","page_number":383,"line_number":15,"text":"فِيهِ","translation":{"text":"মধ্যে তার","language_name":"bengali","language_id":20},"transliteration":{"text":"fīhi","language_name":"english","language_id":38}},{"id":62589,"position":12,"audio_url":"wbw/027_076_012.mp3","char_type_name":"word","page_number":383,"line_number":15,"text":"يَخْتَلِفُونَ","translation":{"text":"মতভেদ করে","language_name":"bengali","language_id":20},"transliteration":{"text":"yakhtalifūna","language_name":"english","language_id":38}},{"id":62590,"position":13,"audio_url":null,"char_type_name":"end","page_number":383,"line_number":15,"text":"٧٦","translation":{"text":"(৭৬)","language_name":"bengali","language_id":20},"transliteration":{"text":null,"language_name":"english","language_id":38}}]},{"id":3236,"verse_number":77,"verse_key":"27:77","hizb_number":39,"rub_el_hizb_number":153,"ruku_number":332,"manzil_number":5,"sajdah_number":null,"page_number":384,"juz_number":20,"words":[{"id":63122,"position":1,"audio_url":"wbw/027_077_001.mp3","char_type_name":"word","page_number":384,"line_number":1,"text":"وَإِنَّهُۥ","translation":{"text":"এবং নিশ্চয়ই তা","language_name":"bengali","language_id":20},"transliteration":{"text":"wa-innahu","language_name":"english","language_id":38}},{"id":63123,"position":2,"audio_url":"wbw/027_077_002.mp3","char_type_name":"word","page_number":384,"line_number":1,"text":"لَهُدًۭى","translation":{"text":"অবশ্যই পথনির্দেশ","language_name":"bengali","language_id":20},"transliteration":{"text":"lahudan","language_name":"english","language_id":38}},{"id":63124,"position":3,"audio_url":"wbw/027_077_003.mp3","char_type_name":"word","page_number":384,"line_number":1,"text":"وَرَحْمَةٌۭ","translation":{"text":"এবং দয়া","language_name":"bengali","language_id":20},"transliteration":{"text":"waraḥmatun","language_name":"english","language_id":38}},{"id":63125,"position":4,"audio_url":"wbw/027_077_004.mp3","char_type_name":"word","page_number":384,"line_number":1,"text":"لِّلْمُؤْمِنِينَ","translation":{"text":"জন্যে মু'মিনদের","language_name":"bengali","language_id":20},"transliteration":{"text":"lil'mu'minīna","language_name":"english","language_id":38}},{"id":63126,"position":5,"audio_url":null,"char_type_name":"end","page_number":384,"line_number":1,"text":"٧٧","translation":{"text":"(৭৭)","language_name":"bengali","language_id":20},"transliteration":{"text":null,"language_name":"english","language_id":38}}]},{"id":3237,"verse_number":78,"verse_key":"27:78","hizb_number":39,"rub_el_hizb_number":153,"ruku_number":332,"manzil_number":5,"sajdah_number":null,"page_number":384,"juz_number":20,"words":[{"id":63578,"position":1,"audio_url":"wbw/027_078_001.mp3","char_type_name":"word","page_number":384,"line_number":1,"text":"إِنَّ","translation":{"text":"নিশ্চয়ই","language_name":"bengali","language_id":20},"transliteration":{"text":"inna","language_name":"english","language_id":38}},{"id":63579,"position":2,"audio_url":"wbw/027_078_002.mp3","char_type_name":"word","page_number":384,"line_number":1,"text":"رَبَّكَ","translation":{"text":"তোমার রব","language_name":"bengali","language_id":20},"transliteration":{"text":"rabbaka","language_name":"english","language_id":38}},{"id":63580,"position":3,"audio_url":"wbw/027_078_003.mp3","char_type_name":"word","page_number":384,"line_number":1,"text":"يَقْضِى","translation":{"text":"মীমাংসা করে দিবেন","language_name":"bengali","language_id":20},"transliteration":{"text":"yaqḍī","language_name":"english","language_id":38}},{"id":63581,"position":4,"audio_url":"wbw/027_078_004.mp3","char_type_name":"word","page_number":384,"line_number":1,"text":"بَيْنَهُم","translation":{"text":"মাঝে তাদের","language_name":"bengali","language_id":20},"transliteration":{"text":"baynahum","language_name":"english","language_id":38}},{"id":63582,"position":5,"audio_url":"wbw/027_078_005.mp3","char_type_name":"word","page_number":384,"line_number":2,"text":"بِحُكْمِهِۦ ۚ","translation":{"text":"অনুযায়ী নির্দেশ তাঁর","language_name":"bengali","language_id":20},"transliteration":{"text":"biḥuk'mihi","language_name":"english","language_id":38}},{"id":63584,"position":6,"audio_url":"wbw/027_078_007.mp3","char_type_name":"word","page_number":384,"line_number":2,"text":"وَهُوَ","translation":{"text":"আর তিনি (হলেন)","language_name":"bengali","language_id":20},"transliteration":{"text":"wahuwa","language_name":"english","language_id":38}},{"id":63585,"position":7,"audio_url":"wbw/027_078_008.mp3","char_type_name":"word","page_number":384,"line_number":2,"text":"ٱلْعَزِيزُ","translation":{"text":"পরাক্রমশালী","language_name":"bengali","language_id":20},"transliteration":{"text":"l-ʿazīzu","language_name":"english","language_id":38}},{"id":63586,"position":8,"audio_url":"wbw/027_078_009.mp3","char_type_name":"word","page_number":384,"line_number":2,"text":"ٱلْعَلِيمُ","translation":{"text":"মহাবিজ্ঞ","language_name":"bengali","language_id":20},"transliteration":{"text":"l-ʿalīmu","language_name":"english","language_id":38}},{"id":63587,"position":9,"audio_url":null,"char_type_name":"end","page_number":384,"line_number":2,"text":"٧٨","translation":{"text":"(৭৮)","language_name":"bengali","language_id":20},"transliteration":{"text":null,"language_name":"english","language_id":38}}]},{"id":3238,"verse_number":79,"verse_key":"27:79","hizb_number":39,"rub_el_hizb_number":153,"ruku_number":332,"manzil_number":5,"sajdah_number":null,"page_number":384,"juz_number":20,"words":[{"id":64036,"position":1,"audio_url":"wbw/027_079_001.mp3","char_type_name":"word","page_number":384,"line_number":2,"text":"فَتَوَكَّلْ","translation":{"text":"অতএব (হে নাবী) নির্ভর করো","language_name":"bengali","language_id":20},"transliteration":{"text":"fatawakkal","language_name":"english","language_id":38}},{"id":64037,"position":2,"audio_url":"wbw/027_079_002.mp3","char_type_name":"word","page_number":384,"line_number":2,"text":"عَلَى","translation":{"text":"উপর","language_name":"bengali","language_id":20},"transliteration":{"text":"ʿalā","language_name":"english","language_id":38}},{"id":64038,"position":3,"audio_url":"wbw/027_079_003.mp3","char_type_name":"word","page_number":384,"line_number":2,"text":"ٱللَّهِ ۖ","translation":{"text":"আল্লাহর","language_name":"bengali","language_id":20},"transliteration":{"text":"l-lahi","language_name":"english","language_id":38}},{"id":64040,"position":4,"audio_url":"wbw/027_079_005.mp3","char_type_name":"word","page_number":384,"line_number":2,"text":"إِنَّكَ","translation":{"text":"তুমি নিশ্চয়ই (প্রতিষ্ঠিত)","language_name":"bengali","language_id":20},"transliteration":{"text":"innaka","language_name":"english","language_id":38}},{"id":64041,"position":5,"audio_url":"wbw/027_079_006.mp3","char_type_name":"word","page_number":384,"line_number":2,"text":"عَلَى","translation":{"text":"উপর","language_name":"bengali","language_id":20},"transliteration":{"text":"ʿalā","language_name":"english","language_id":38}},{"id":64042,"position":6,"audio_url":"wbw/027_079_007.mp3","char_type_name":"word","page_number":384,"line_number":3,"text":"ٱلْحَقِّ","translation":{"text":"সত্যের","language_name":"bengali","language_id":20},"transliteration":{"text":"l-ḥaqi","language_name":"english","language_id":38}},{"id":64043,"position":7,"audio_url":"wbw/027_079_008.mp3","char_type_name":"word","page_number":384,"line_number":3,"text":"ٱلْمُبِينِ","translation":{"text":"সুস্পষ্ট","language_name":"bengali","language_id":20},"transliteration":{"text":"l-mubīni","language_name":"english","language_id":38}},{"id":64044,"position":8,"audio_url":null,"char_type_name":"end","page_number":384,"line_number":3,"text":"٧٩","translation":{"text":"(৭৯)","language_name":"bengali","language_id":20},"transliteration":{"text":null,"language_name":"english","language_id":38}}]},{"id":3239,"verse_number":80,"verse_key":"27:80","hizb_number":39,"rub_el_hizb_number":153,"ruku_number":332,"manzil_number":5,"sajdah_number":null,"page_number":384,"juz_number":20,"words":[{"id":64287,"position":1,"audio_url":"wbw/027_080_001.mp3","char_type_name":"word","page_number":384,"line_number":3,"text":"إِنَّكَ","translation":{"text":"নিশ্চয়ই তুমি","language_name":"bengali","language_id":20},"transliteration":{"text":"innaka","language_name":"english","language_id":38}},{"id":64288,"position":2,"audio_url":"wbw/027_080_002.mp3","char_type_name":"word","page_number":384,"line_number":3,"text":"لَا","translation":{"text":"না","language_name":"bengali","language_id":20},"transliteration":{"text":"lā","language_name":"english","language_id":38}},{"id":64289,"position":3,"audio_url":"wbw/027_080_003.mp3","char_type_name":"word","page_number":384,"line_number":3,"text":"تُسْمِعُ","translation":{"text":"শুনাতে পারো","language_name":"bengali","language_id":20},"transliteration":{"text":"tus'miʿu","language_name":"english","language_id":38}},{"id":64290,"position":4,"audio_url":"wbw/027_080_004.mp3","char_type_name":"word","page_number":384,"line_number":3,"text":"ٱلْمَوْتَىٰ","translation":{"text":"মৃতদেরকে","language_name":"bengali","language_id":20},"transliteration":{"text":"l-mawtā","language_name":"english","language_id":38}},{"id":64291,"position":5,"audio_url":"wbw/027_080_005.mp3","char_type_name":"word","page_number":384,"line_number":3,"text":"وَلَا","translation":{"text":"আর না","language_name":"bengali","language_id":20},"transliteration":{"text":"walā","language_name":"english","language_id":38}},{"id":64292,"position":6,"audio_url":"wbw/027_080_006.mp3","char_type_name":"word","page_number":384,"line_number":3,"text":"تُسْمِعُ","translation":{"text":"শুনাতে পারো","language_name":"bengali","language_id":20},"transliteration":{"text":"tus'miʿu","language_name":"english","language_id":38}},{"id":64293,"position":7,"audio_url":"wbw/027_080_007.mp3","char_type_name":"word","page_number":384,"line_number":3,"text":"ٱلصُّمَّ","translation":{"text":"বধিরদেরকে","language_name":"bengali","language_id":20},"transliteration":{"text":"l-ṣuma","language_name":"english","language_id":38}},{"id":64294,"position":8,"audio_url":"wbw/027_080_008.mp3","char_type_name":"word","page_number":384,"line_number":3,"text":"ٱلدُّعَآءَ","translation":{"text":"আহবান","language_name":"bengali","language_id":20},"transliteration":{"text":"l-duʿāa","language_name":"english","language_id":38}},{"id":64295,"position":9,"audio_url":"wbw/027_080_009.mp3","char_type_name":"word","page_number":384,"line_number":4,"text":"إِذَا","translation":{"text":"যখন","language_name":"bengali","language_id":20},"transliteration":{"text":"idhā","language_name":"english","language_id":38}},{"id":64296,"position":10,"audio_url":"wbw/027_080_010.mp3","char_type_name":"word","page_number":384,"line_number":4,"text":"وَلَّوْا۟","translation":{"text":"তারা ফিরে যায়","language_name":"bengali","language_id":20},"transliteration":{"text":"wallaw","language_name":"english","language_id":38}},{"id":64297,"position":11,"audio_url":"wbw/027_080_011.mp3","char_type_name":"word","page_number":384,"line_number":4,"text":"مُدْبِرِينَ","translation":{"text":"পিঠ প্রদর্শন করে","language_name":"bengali","language_id":20},"transliteration":{"text":"mud'birīna","language_name":"english","language_id":38}},{"id":64298,"position":12,"audio_url":null,"char_type_name":"end","page_number":384,"line_number":4,"text":"٨٠","translation":{"text":"(৮০)","language_name":"bengali","language_id":20},"transliteration":{"text":null,"language_name":"english","language_id":38}}]}],"pagination":{"per_page":10,"current_page":8,"next_page":9,"total_pages":10,"total_records":93}}
