{"verses":[{"id":5562,"verse_number":11,"verse_key":"75:11","hizb_number":58,"rub_el_hizb_number":231,"ruku_number":514,"manzil_number":7,"sajdah_number":null,"page_number":577,"juz_number":29,"words":[{"id":12877,"position":1,"audio_url":"wbw/075_011_001.mp3","char_type_name":"word","page_number":577,"line_number":12,"text":"كَلَّا","translation":{"text":"কক্ষন না","language_name":"bengali","language_id":20},"transliteration":{"text":"kallā","language_name":"english","language_id":38}},{"id":12878,"position":2,"audio_url":"wbw/075_011_002.mp3","char_type_name":"word","page_number":577,"line_number":12,"text":"لَا","translation":{"text":"নাই","language_name":"bengali","language_id":20},"transliteration":{"text":"lā","language_name":"english","language_id":38}},{"id":12879,"position":3,"audio_url":"wbw/075_011_003.mp3","char_type_name":"word","page_number":577,"line_number":12,"text":"وَزَرَ","translation":{"text":"আশ্রয় স্থল","language_name":"bengali","language_id":20},"transliteration":{"text":"wazara","language_name":"english","language_id":38}},{"id":12880,"position":4,"audio_url":null,"char_type_name":"end","page_number":577,"line_number":12,"text":"١١","translation":{"text":"(১১)","language_name":"bengali","language_id":20},"transliteration":{"text":null,"language_name":"english","language_id":38}}]},{"id":5563,"verse_number":12,"verse_key":"75:12","hizb_number":58,"rub_el_hizb_number":231,"ruku_number":514,"manzil_number":7,"sajdah_number":null,"page_number":577,"juz_number":29,"words":[{"id":14131,"position":1,"audio_url":"wbw/075_012_001.mp3","char_type_name":"word","page_number":577,"line_number":12,"text":"إِلَىٰ","translation":{"text":"দিকে","language_name":"bengali","language_id":20},"transliteration":{"text":"ilā","language_name":"english","language_id":38}},{"id":14132,"position":2,"audio_url":"wbw/075_012_002.mp3","char_type_name":"word","page_number":577,"line_number":12,"text":"رَبِّكَ","translation":{"text":"তোমার রবের","language_name":"bengali","language_id":20},"transliteration":{"text":"rabbika","language_name":"english","language_id":38}},{"id":14133,"position":3,"audio_url":"wbw/075_012_003.mp3","char_type_name":"word","page_number":577,"line_number":12,"text":"يَوْمَئِذٍ","translation":{"text":"সেদিন","language_name":"bengali","language_id":20},"transliteration":{"text":"yawma-idhin","language_name":"english","language_id":38}},{"id":14134,"position":4,"audio_url":"wbw/075_012_004.mp3","char_type_name":"word","page_number":577,"line_number":12,"text":"ٱلْمُسْتَقَرُّ","translation":{"text":"অবস্থানহল","language_name":"bengali","language_id":20},"transliteration":{"text":"l-mus'taqaru","language_name":"english","language_id":38}},{"id":14135,"position":5,"audio_url":null,"char_type_name":"end","page_number":577,"line_number":12,"text":"١٢","translation":{"text":"(১২)","language_name":"bengali","language_id":20},"transliteration":{"text":null,"language_name":"english","language_id":38}}]},{"id":5564,"verse_number":13,"verse_key":"75:13","hizb_number":58,"rub_el_hizb_number":231,"ruku_number":514,"manzil_number":7,"sajdah_number":null,"page_number":577,"juz_number":29,"words":[{"id":15260,"position":1,"audio_url":"wbw/075_013_001.mp3","char_type_name":"word","page_number":577,"line_number":12,"text":"يُنَبَّؤُا۟","translation":{"text":"জানিয়ে দেয়া হবে","language_name":"bengali","language_id":20},"transliteration":{"text":"yunabba-u","language_name":"english","language_id":38}},{"id":15261,"position":2,"audio_url":"wbw/075_013_002.mp3","char_type_name":"word","page_number":577,"line_number":13,"text":"ٱلْإِنسَـٰنُ","translation":{"text":"মানুষ কে","language_name":"bengali","language_id":20},"transliteration":{"text":"l-insānu","language_name":"english","language_id":38}},{"id":15262,"position":3,"audio_url":"wbw/075_013_003.mp3","char_type_name":"word","page_number":577,"line_number":13,"text":"يَوْمَئِذٍۭ","translation":{"text":"সেদিন","language_name":"bengali","language_id":20},"transliteration":{"text":"yawma-idhin","language_name":"english","language_id":38}},{"id":15263,"position":4,"audio_url":"wbw/075_013_004.mp3","char_type_name":"word","page_number":577,"line_number":13,"text":"بِمَا","translation":{"text":"যা ওই বিষয়ে","language_name":"bengali","language_id":20},"transliteration":{"text":"bimā","language_name":"english","language_id":38}},{"id":15264,"position":5,"audio_url":"wbw/075_013_005.mp3","char_type_name":"word","page_number":577,"line_number":13,"text":"قَدَّمَ","translation":{"text":"সে আগে পাঠিয়েছে","language_name":"bengali","language_id":20},"transliteration":{"text":"qaddama","language_name":"english","language_id":38}},{"id":15265,"position":6,"audio_url":"wbw/075_013_006.mp3","char_type_name":"word","page_number":577,"line_number":13,"text":"وَأَخَّرَ","translation":{"text":"এবং পিছে ছেড়েছে","language_name":"bengali","language_id":20},"transliteration":{"text":"wa-akhara","language_name":"english","language_id":38}},{"id":15266,"position":7,"audio_url":null,"char_type_name":"end","page_number":577,"line_number":13,"text":"١٣","translation":{"text":"(১৩)","language_name":"bengali","language_id":20},"transliteration":{"text":null,"language_name":"english","language_id":38}}]},{"id":5565,"verse_number":14,"verse_key":"75:14","hizb_number":58,"rub_el_hizb_number":231,"ruku_number":514,"manzil_number":7,"sajdah_number":null,"page_number":577,"juz_number":29,"words":[{"id":16283,"position":1,"audio_url":"wbw/075_014_001.mp3","char_type_name":"word","page_number":577,"line_number":13,"text":"بَلِ","translation":{"text":"বরং","language_name":"bengali","language_id":20},"transliteration":{"text":"bali","language_name":"english","language_id":38}},{"id":16284,"position":2,"audio_url":"wbw/075_014_002.mp3","char_type_name":"word","page_number":577,"line_number":13,"text":"ٱلْإِنسَـٰنُ","translation":{"text":"মানুষ","language_name":"bengali","language_id":20},"transliteration":{"text":"l-insānu","language_name":"english","language_id":38}},{"id":16285,"position":3,"audio_url":"wbw/075_014_003.mp3","char_type_name":"word","page_number":577,"line_number":13,"text":"عَلَىٰ","translation":{"text":"সম্পর্কে","language_name":"bengali","language_id":20},"transliteration":{"text":"ʿalā","language_name":"english","language_id":38}},{"id":16286,"position":4,"audio_url":"wbw/075_014_004.mp3","char_type_name":"word","page_number":577,"line_number":13,"text":"نَفْسِهِۦ","translation":{"text":"তার নিজের","language_name":"bengali","language_id":20},"transliteration":{"text":"nafsihi","language_name":"english","language_id":38}},{"id":16287,"position":5,"audio_url":"wbw/075_014_005.mp3","char_type_name":"word","page_number":577,"line_number":13,"text":"بَصِيرَةٌۭ","translation":{"text":"খুব অবগত","language_name":"bengali","language_id":20},"transliteration":{"text":"baṣīratun","language_name":"english","language_id":38}},{"id":16288,"position":6,"audio_url":null,"char_type_name":"end","page_number":577,"line_number":13,"text":"١٤","translation":{"text":"(১৪)","language_name":"bengali","language_id":20},"transliteration":{"text":null,"language_name":"english","language_id":38}}]},{"id":5566,"verse_number":15,"verse_key":"75:15","hizb_number":58,"rub_el_hizb_number":231,"ruku_number":514,"manzil_number":7,"sajdah_number":null,"page_number":577,"juz_number":29,"words":[{"id":17471,"position":1,"audio_url":"wbw/075_015_001.mp3","char_type_name":"word","page_number":577,"line_number":14,"text":"وَلَوْ","translation":{"text":"এবং যদিও","language_name":"bengali","language_id":20},"transliteration":{"text":"walaw","language_name":"english","language_id":38}},{"id":17472,"position":2,"audio_url":"wbw/075_015_002.mp3","char_type_name":"word","page_number":577,"line_number":14,"text":"أَلْقَىٰ","translation":{"text":"পেশ করে সে","language_name":"bengali","language_id":20},"transliteration":{"text":"alqā","language_name":"english","language_id":38}},{"id":17473,"position":3,"audio_url":"wbw/075_015_003.mp3","char_type_name":"word","page_number":577,"line_number":14,"text":"مَعَاذِيرَهُۥ","translation":{"text":"তার অজুহাত সমূহ","language_name":"bengali","language_id":20},"transliteration":{"text":"maʿādhīrahu","language_name":"english","language_id":38}},{"id":17474,"position":4,"audio_url":null,"char_type_name":"end","page_number":577,"line_number":14,"text":"١٥","translation":{"text":"(১৫)","language_name":"bengali","language_id":20},"transliteration":{"text":null,"language_name":"english","language_id":38}}]},{"id":5567,"verse_number":16,"verse_key":"75:16","hizb_number":58,"rub_el_hizb_number":231,"ruku_number":514,"manzil_number":7,"sajdah_number":null,"page_number":577,"juz_number":29,"words":[{"id":18555,"position":1,"audio_url":"wbw/075_016_001.mp3","char_type_name":"word","page_number":577,"line_number":14,"text":"لَا","translation":{"text":"না","language_name":"bengali","language_id":20},"transliteration":{"text":"lā","language_name":"english","language_id":38}},{"id":18556,"position":2,"audio_url":"wbw/075_016_002.mp3","char_type_name":"word","page_number":577,"line_number":14,"text":"تُحَرِّكْ","translation":{"text":"নাড়াবে","language_name":"bengali","language_id":20},"transliteration":{"text":"tuḥarrik","language_name":"english","language_id":38}},{"id":18557,"position":3,"audio_url":"wbw/075_016_003.mp3","char_type_name":"word","page_number":577,"line_number":14,"text":"بِهِۦ","translation":{"text":"এর সাথে","language_name":"bengali","language_id":20},"transliteration":{"text":"bihi","language_name":"english","language_id":38}},{"id":18558,"position":4,"audio_url":"wbw/075_016_004.mp3","char_type_name":"word","page_number":577,"line_number":14,"text":"لِسَانَكَ","translation":{"text":"তোমার জিহ্বা","language_name":"bengali","language_id":20},"transliteration":{"text":"lisānaka","language_name":"english","language_id":38}},{"id":18559,"position":5,"audio_url":"wbw/075_016_005.mp3","char_type_name":"word","page_number":577,"line_number":14,"text":"لِتَعْجَلَ","translation":{"text":"তাড়াতাড়ির জন্য","language_name":"bengali","language_id":20},"transliteration":{"text":"litaʿjala","language_name":"english","language_id":38}},{"id":18560,"position":6,"audio_url":"wbw/075_016_006.mp3","char_type_name":"word","page_number":577,"line_number":14,"text":"بِهِۦٓ","translation":{"text":"এর সাথে","language_name":"bengali","language_id":20},"transliteration":{"text":"bihi","language_name":"english","language_id":38}},{"id":18561,"position":7,"audio_url":null,"char_type_name":"end","page_number":577,"line_number":14,"text":"١٦","translation":{"text":"(১৬)","language_name":"bengali","language_id":20},"transliteration":{"text":null,"language_name":"english","language_id":38}}]},{"id":5568,"verse_number":17,"verse_key":"75:17","hizb_number":58,"rub_el_hizb_number":231,"ruku_number":514,"manzil_number":7,"sajdah_number":null,"page_number":577,"juz_number":29,"words":[{"id":19557,"position":1,"audio_url":"wbw/075_017_001.mp3","char_type_name":"word","page_number":577,"line_number":14,"text":"إِنَّ","translation":{"text":"নিশ্চয়","language_name":"bengali","language_id":20},"transliteration":{"text":"inna","language_name":"english","language_id":38}},{"id":19558,"position":2,"audio_url":"wbw/075_017_002.mp3","char_type_name":"word","page_number":577,"line_number":14,"text":"عَلَيْنَا","translation":{"text":"আমাদের দায়িত্ব","language_name":"bengali","language_id":20},"transliteration":{"text":"ʿalaynā","language_name":"english","language_id":38}},{"id":19559,"position":3,"audio_url":"wbw/075_017_003.mp3","char_type_name":"word","page_number":577,"line_number":15,"text":"جَمْعَهُۥ","translation":{"text":"তা মুখস্ত করান","language_name":"bengali","language_id":20},"transliteration":{"text":"jamʿahu","language_name":"english","language_id":38}},{"id":19560,"position":4,"audio_url":"wbw/075_017_004.mp3","char_type_name":"word","page_number":577,"line_number":15,"text":"وَقُرْءَانَهُۥ","translation":{"text":"এবং তা পাঠ করান","language_name":"bengali","language_id":20},"transliteration":{"text":"waqur'ānahu","language_name":"english","language_id":38}},{"id":19561,"position":5,"audio_url":null,"char_type_name":"end","page_number":577,"line_number":15,"text":"١٧","translation":{"text":"(১৭)","language_name":"bengali","language_id":20},"transliteration":{"text":null,"language_name":"english","language_id":38}}]},{"id":5569,"verse_number":18,"verse_key":"75:18","hizb_number":58,"rub_el_hizb_number":231,"ruku_number":514,"manzil_number":7,"sajdah_number":null,"page_number":577,"juz_number":29,"words":[{"id":20644,"position":1,"audio_url":"wbw/075_018_001.mp3","char_type_name":"word","page_number":577,"line_number":15,"text":"فَإِذَا","translation":{"text":"যখন অতঃপর","language_name":"bengali","language_id":20},"transliteration":{"text":"fa-idhā","language_name":"english","language_id":38}},{"id":20645,"position":2,"audio_url":"wbw/075_018_002.mp3","char_type_name":"word","page_number":577,"line_number":15,"text":"قَرَأْنَـٰهُ","translation":{"text":"তা আমরা পড়ি","language_name":"bengali","language_id":20},"transliteration":{"text":"qaranāhu","language_name":"english","language_id":38}},{"id":20646,"position":3,"audio_url":"wbw/075_018_003.mp3","char_type_name":"word","page_number":577,"line_number":15,"text":"فَٱتَّبِعْ","translation":{"text":"অনিুসরণ তখন করো","language_name":"bengali","language_id":20},"transliteration":{"text":"fa-ittabiʿ","language_name":"english","language_id":38}},{"id":20647,"position":4,"audio_url":"wbw/075_018_004.mp3","char_type_name":"word","page_number":577,"line_number":15,"text":"قُرْءَانَهُۥ","translation":{"text":"তা পাঠের","language_name":"bengali","language_id":20},"transliteration":{"text":"qur'ānahu","language_name":"english","language_id":38}},{"id":20648,"position":5,"audio_url":null,"char_type_name":"end","page_number":577,"line_number":15,"text":"١٨","translation":{"text":"(১৮)","language_name":"bengali","language_id":20},"transliteration":{"text":null,"language_name":"english","language_id":38}}]},{"id":5570,"verse_number":19,"verse_key":"75:19","hizb_number":58,"rub_el_hizb_number":231,"ruku_number":514,"manzil_number":7,"sajdah_number":null,"page_number":577,"juz_number":29,"words":[{"id":21700,"position":1,"audio_url":"wbw/075_019_001.mp3","char_type_name":"word","page_number":577,"line_number":15,"text":"ثُمَّ","translation":{"text":"অতঃপর","language_name":"bengali","language_id":20},"transliteration":{"text":"thumma","language_name":"english","language_id":38}},{"id":21701,"position":2,"audio_url":"wbw/075_019_002.mp3","char_type_name":"word","page_number":577,"line_number":15,"text":"إِنَّ","translation":{"text":"নিশ্চয়","language_name":"bengali","language_id":20},"transliteration":{"text":"inna","language_name":"english","language_id":38}},{"id":21702,"position":3,"audio_url":"wbw/075_019_003.mp3","char_type_name":"word","page_number":577,"line_number":15,"text":"عَلَيْنَا","translation":{"text":"আমাদের দায়িত্ব","language_name":"bengali","language_id":20},"transliteration":{"text":"ʿalaynā","language_name":"english","language_id":38}},{"id":21703,"position":4,"audio_url":"wbw/075_019_004.mp3","char_type_name":"word","page_number":577,"line_number":15,"text":"بَيَانَهُۥ","translation":{"text":"তা ব্যাখ্যা দেয়া","language_name":"bengali","language_id":20},"transliteration":{"text":"bayānahu","language_name":"english","language_id":38}},{"id":21704,"position":5,"audio_url":null,"char_type_name":"end","page_number":577,"line_number":15,"text":"١٩","translation":{"text":"(১৯)","language_name":"bengali","language_id":20},"transliteration":{"text":null,"language_name":"english","language_id":38}}]},{"id":5571,"verse_number":20,"verse_key":"75:20","hizb_number":58,"rub_el_hizb_number":231,"ruku_number":514,"manzil_number":7,"sajdah_number":null,"page_number":578,"juz_number":29,"words":[{"id":22876,"position":1,"audio_url":"wbw/075_020_001.mp3","char_type_name":"word","page_number":578,"line_number":1,"text":"كَلَّا","translation":{"text":"কক্ষন না","language_name":"bengali","language_id":20},"transliteration":{"text":"kallā","language_name":"english","language_id":38}},{"id":22877,"position":2,"audio_url":"wbw/075_020_002.mp3","char_type_name":"word","page_number":578,"line_number":1,"text":"بَلْ","translation":{"text":"বরং","language_name":"bengali","language_id":20},"transliteration":{"text":"bal","language_name":"english","language_id":38}},{"id":22878,"position":3,"audio_url":"wbw/075_020_003.mp3","char_type_name":"word","page_number":578,"line_number":1,"text":"تُحِبُّونَ","translation":{"text":"তোমরা পছন্দ করো","language_name":"bengali","language_id":20},"transliteration":{"text":"tuḥibbūna","language_name":"english","language_id":38}},{"id":22879,"position":4,"audio_url":"wbw/075_020_004.mp3","char_type_name":"word","page_number":578,"line_number":1,"text":"ٱلْعَاجِلَةَ","translation":{"text":"পার্থিব জীবন","language_name":"bengali","language_id":20},"transliteration":{"text":"l-ʿājilata","language_name":"english","language_id":38}},{"id":22880,"position":5,"audio_url":null,"char_type_name":"end","page_number":578,"line_number":1,"text":"٢٠","translation":{"text":"(২০)","language_name":"bengali","language_id":20},"transliteration":{"text":null,"language_name":"english","language_id":38}}]}],"pagination":{"per_page":10,"current_page":2,"next_page":3,"total_pages":4,"total_records":40}}
