{"verses":[{"id":5572,"verse_number":21,"verse_key":"75:21","hizb_number":58,"rub_el_hizb_number":231,"ruku_number":514,"manzil_number":7,"sajdah_number":null,"page_number":578,"juz_number":29,"words":[{"id":23962,"position":1,"audio_url":"wbw/075_021_001.mp3","char_type_name":"word","page_number":578,"line_number":1,"text":"وَتَذَرُونَ","translation":{"text":"এবং তোমরা উপেক্ষা করো","language_name":"bengali","language_id":20},"transliteration":{"text":"watadharūna","language_name":"english","language_id":38}},{"id":23963,"position":2,"audio_url":"wbw/075_021_002.mp3","char_type_name":"word","page_number":578,"line_number":1,"text":"ٱلْـَٔاخِرَةَ","translation":{"text":"পরকাল","language_name":"bengali","language_id":20},"transliteration":{"text":"l-ākhirata","language_name":"english","language_id":38}},{"id":23964,"position":3,"audio_url":null,"char_type_name":"end","page_number":578,"line_number":1,"text":"٢١","translation":{"text":"(২১)","language_name":"bengali","language_id":20},"transliteration":{"text":null,"language_name":"english","language_id":38}}]},{"id":5573,"verse_number":22,"verse_key":"75:22","hizb_number":58,"rub_el_hizb_number":231,"ruku_number":514,"manzil_number":7,"sajdah_number":null,"page_number":578,"juz_number":29,"words":[{"id":24917,"position":1,"audio_url":"wbw/075_022_001.mp3","char_type_name":"word","page_number":578,"line_number":1,"text":"وُجُوهٌۭ","translation":{"text":"কিছুু মুখ","language_name":"bengali","language_id":20},"transliteration":{"text":"wujūhun","language_name":"english","language_id":38}},{"id":24918,"position":2,"audio_url":"wbw/075_022_002.mp3","char_type_name":"word","page_number":578,"line_number":1,"text":"يَوْمَئِذٍۢ","translation":{"text":"সে দিন","language_name":"bengali","language_id":20},"transliteration":{"text":"yawma-idhin","language_name":"english","language_id":38}},{"id":24919,"position":3,"audio_url":"wbw/075_022_003.mp3","char_type_name":"word","page_number":578,"line_number":1,"text":"نَّاضِرَةٌ","translation":{"text":"উজ্জ্বল হবে","language_name":"bengali","language_id":20},"transliteration":{"text":"nāḍiratun","language_name":"english","language_id":38}},{"id":24920,"position":4,"audio_url":null,"char_type_name":"end","page_number":578,"line_number":2,"text":"٢٢","translation":{"text":"(২২)","language_name":"bengali","language_id":20},"transliteration":{"text":null,"language_name":"english","language_id":38}}]},{"id":5574,"verse_number":23,"verse_key":"75:23","hizb_number":58,"rub_el_hizb_number":231,"ruku_number":514,"manzil_number":7,"sajdah_number":null,"page_number":578,"juz_number":29,"words":[{"id":25829,"position":1,"audio_url":"wbw/075_023_001.mp3","char_type_name":"word","page_number":578,"line_number":2,"text":"إِلَىٰ","translation":{"text":"দিকে","language_name":"bengali","language_id":20},"transliteration":{"text":"ilā","language_name":"english","language_id":38}},{"id":25830,"position":2,"audio_url":"wbw/075_023_002.mp3","char_type_name":"word","page_number":578,"line_number":2,"text":"رَبِّهَا","translation":{"text":"তার রবের","language_name":"bengali","language_id":20},"transliteration":{"text":"rabbihā","language_name":"english","language_id":38}},{"id":25831,"position":3,"audio_url":"wbw/075_023_003.mp3","char_type_name":"word","page_number":578,"line_number":2,"text":"نَاظِرَةٌۭ","translation":{"text":"দৃষ্টিমান হবে","language_name":"bengali","language_id":20},"transliteration":{"text":"nāẓiratun","language_name":"english","language_id":38}},{"id":25832,"position":4,"audio_url":null,"char_type_name":"end","page_number":578,"line_number":2,"text":"٢٣","translation":{"text":"(২৩)","language_name":"bengali","language_id":20},"transliteration":{"text":null,"language_name":"english","language_id":38}}]},{"id":5575,"verse_number":24,"verse_key":"75:24","hizb_number":58,"rub_el_hizb_number":231,"ruku_number":514,"manzil_number":7,"sajdah_number":null,"page_number":578,"juz_number":29,"words":[{"id":27414,"position":1,"audio_url":"wbw/075_024_001.mp3","char_type_name":"word","page_number":578,"line_number":2,"text":"وَوُجُوهٌۭ","translation":{"text":"এবং কিছু মুখ","language_name":"bengali","language_id":20},"transliteration":{"text":"wawujūhun","language_name":"english","language_id":38}},{"id":27415,"position":2,"audio_url":"wbw/075_024_002.mp3","char_type_name":"word","page_number":578,"line_number":2,"text":"يَوْمَئِذٍۭ","translation":{"text":"সে দিন","language_name":"bengali","language_id":20},"transliteration":{"text":"yawma-idhin","language_name":"english","language_id":38}},{"id":27416,"position":3,"audio_url":"wbw/075_024_003.mp3","char_type_name":"word","page_number":578,"line_number":2,"text":"بَاسِرَةٌۭ","translation":{"text":"স্লান হবে","language_name":"bengali","language_id":20},"transliteration":{"text":"bāsiratun","language_name":"english","language_id":38}},{"id":27417,"position":4,"audio_url":null,"char_type_name":"end","page_number":578,"line_number":2,"text":"٢٤","translation":{"text":"(২৪)","language_name":"bengali","language_id":20},"transliteration":{"text":null,"language_name":"english","language_id":38}}]},{"id":5576,"verse_number":25,"verse_key":"75:25","hizb_number":58,"rub_el_hizb_number":231,"ruku_number":514,"manzil_number":7,"sajdah_number":null,"page_number":578,"juz_number":29,"words":[{"id":27962,"position":1,"audio_url":"wbw/075_025_001.mp3","char_type_name":"word","page_number":578,"line_number":2,"text":"تَظُنُّ","translation":{"text":"ধারণা করবে","language_name":"bengali","language_id":20},"transliteration":{"text":"taẓunnu","language_name":"english","language_id":38}},{"id":27963,"position":2,"audio_url":"wbw/075_025_002.mp3","char_type_name":"word","page_number":578,"line_number":2,"text":"أَن","translation":{"text":"যে","language_name":"bengali","language_id":20},"transliteration":{"text":"an","language_name":"english","language_id":38}},{"id":27964,"position":3,"audio_url":"wbw/075_025_003.mp3","char_type_name":"word","page_number":578,"line_number":2,"text":"يُفْعَلَ","translation":{"text":"করা হবে","language_name":"bengali","language_id":20},"transliteration":{"text":"yuf'ʿala","language_name":"english","language_id":38}},{"id":27965,"position":4,"audio_url":"wbw/075_025_004.mp3","char_type_name":"word","page_number":578,"line_number":2,"text":"بِهَا","translation":{"text":"তার সাথে","language_name":"bengali","language_id":20},"transliteration":{"text":"bihā","language_name":"english","language_id":38}},{"id":27966,"position":5,"audio_url":"wbw/075_025_005.mp3","char_type_name":"word","page_number":578,"line_number":3,"text":"فَاقِرَةٌۭ","translation":{"text":"কোমর চূর্ণ আচরণ","language_name":"bengali","language_id":20},"transliteration":{"text":"fāqiratun","language_name":"english","language_id":38}},{"id":27967,"position":6,"audio_url":null,"char_type_name":"end","page_number":578,"line_number":3,"text":"٢٥","translation":{"text":"(২৫)","language_name":"bengali","language_id":20},"transliteration":{"text":null,"language_name":"english","language_id":38}}]},{"id":5577,"verse_number":26,"verse_key":"75:26","hizb_number":58,"rub_el_hizb_number":231,"ruku_number":514,"manzil_number":7,"sajdah_number":null,"page_number":578,"juz_number":29,"words":[{"id":28937,"position":1,"audio_url":"wbw/075_026_001.mp3","char_type_name":"word","page_number":578,"line_number":3,"text":"كَلَّآ","translation":{"text":"কক্ষন না","language_name":"bengali","language_id":20},"transliteration":{"text":"kallā","language_name":"english","language_id":38}},{"id":28938,"position":2,"audio_url":"wbw/075_026_002.mp3","char_type_name":"word","page_number":578,"line_number":3,"text":"إِذَا","translation":{"text":"যখন","language_name":"bengali","language_id":20},"transliteration":{"text":"idhā","language_name":"english","language_id":38}},{"id":28939,"position":3,"audio_url":"wbw/075_026_003.mp3","char_type_name":"word","page_number":578,"line_number":3,"text":"بَلَغَتِ","translation":{"text":"পৌছবে","language_name":"bengali","language_id":20},"transliteration":{"text":"balaghati","language_name":"english","language_id":38}},{"id":28940,"position":4,"audio_url":"wbw/075_026_004.mp3","char_type_name":"word","page_number":578,"line_number":3,"text":"ٱلتَّرَاقِىَ","translation":{"text":"কণ্ঠ দেশে (প্রাণ)","language_name":"bengali","language_id":20},"transliteration":{"text":"l-tarāqiya","language_name":"english","language_id":38}},{"id":28941,"position":5,"audio_url":null,"char_type_name":"end","page_number":578,"line_number":3,"text":"٢٦","translation":{"text":"(২৬)","language_name":"bengali","language_id":20},"transliteration":{"text":null,"language_name":"english","language_id":38}}]},{"id":5578,"verse_number":27,"verse_key":"75:27","hizb_number":58,"rub_el_hizb_number":231,"ruku_number":514,"manzil_number":7,"sajdah_number":null,"page_number":578,"juz_number":29,"words":[{"id":29807,"position":1,"audio_url":"wbw/075_027_001.mp3","char_type_name":"word","page_number":578,"line_number":3,"text":"وَقِيلَ","translation":{"text":"এবং বলা হবে","language_name":"bengali","language_id":20},"transliteration":{"text":"waqīla","language_name":"english","language_id":38}},{"id":29808,"position":2,"audio_url":"wbw/075_027_002.mp3","char_type_name":"word","page_number":578,"line_number":3,"text":"مَنْ ۜ","translation":{"text":"\"কে","language_name":"bengali","language_id":20},"transliteration":{"text":"man","language_name":"english","language_id":38}},{"id":29810,"position":3,"audio_url":"wbw/075_027_004.mp3","char_type_name":"word","page_number":578,"line_number":3,"text":"رَاقٍۢ","translation":{"text":"ঝাড়ফুককারী\"","language_name":"bengali","language_id":20},"transliteration":{"text":"rāqin","language_name":"english","language_id":38}},{"id":29811,"position":4,"audio_url":null,"char_type_name":"end","page_number":578,"line_number":3,"text":"٢٧","translation":{"text":"(২৭)","language_name":"bengali","language_id":20},"transliteration":{"text":null,"language_name":"english","language_id":38}}]},{"id":5579,"verse_number":28,"verse_key":"75:28","hizb_number":58,"rub_el_hizb_number":231,"ruku_number":514,"manzil_number":7,"sajdah_number":null,"page_number":578,"juz_number":29,"words":[{"id":30715,"position":1,"audio_url":"wbw/075_028_001.mp3","char_type_name":"word","page_number":578,"line_number":3,"text":"وَظَنَّ","translation":{"text":"এবং সে মনে করবে","language_name":"bengali","language_id":20},"transliteration":{"text":"waẓanna","language_name":"english","language_id":38}},{"id":30716,"position":2,"audio_url":"wbw/075_028_002.mp3","char_type_name":"word","page_number":578,"line_number":3,"text":"أَنَّهُ","translation":{"text":"তার যে","language_name":"bengali","language_id":20},"transliteration":{"text":"annahu","language_name":"english","language_id":38}},{"id":30717,"position":3,"audio_url":"wbw/075_028_003.mp3","char_type_name":"word","page_number":578,"line_number":3,"text":"ٱلْفِرَاقُ","translation":{"text":"বিদায়ক্ষণ","language_name":"bengali","language_id":20},"transliteration":{"text":"l-firāqu","language_name":"english","language_id":38}},{"id":30718,"position":4,"audio_url":null,"char_type_name":"end","page_number":578,"line_number":4,"text":"٢٨","translation":{"text":"(২৮)","language_name":"bengali","language_id":20},"transliteration":{"text":null,"language_name":"english","language_id":38}}]},{"id":5580,"verse_number":29,"verse_key":"75:29","hizb_number":58,"rub_el_hizb_number":231,"ruku_number":514,"manzil_number":7,"sajdah_number":null,"page_number":578,"juz_number":29,"words":[{"id":31739,"position":1,"audio_url":"wbw/075_029_001.mp3","char_type_name":"word","page_number":578,"line_number":4,"text":"وَٱلْتَفَّتِ","translation":{"text":"এবং জড়িয়ে যাবে","language_name":"bengali","language_id":20},"transliteration":{"text":"wal-tafati","language_name":"english","language_id":38}},{"id":31740,"position":2,"audio_url":"wbw/075_029_002.mp3","char_type_name":"word","page_number":578,"line_number":4,"text":"ٱلسَّاقُ","translation":{"text":"পিন্ডলির","language_name":"bengali","language_id":20},"transliteration":{"text":"l-sāqu","language_name":"english","language_id":38}},{"id":31741,"position":3,"audio_url":"wbw/075_029_003.mp3","char_type_name":"word","page_number":578,"line_number":4,"text":"بِٱلسَّاقِ","translation":{"text":"পিন্ডলি সাথে","language_name":"bengali","language_id":20},"transliteration":{"text":"bil-sāqi","language_name":"english","language_id":38}},{"id":31742,"position":4,"audio_url":null,"char_type_name":"end","page_number":578,"line_number":4,"text":"٢٩","translation":{"text":"(২৯)","language_name":"bengali","language_id":20},"transliteration":{"text":null,"language_name":"english","language_id":38}}]},{"id":5581,"verse_number":30,"verse_key":"75:30","hizb_number":58,"rub_el_hizb_number":231,"ruku_number":514,"manzil_number":7,"sajdah_number":null,"page_number":578,"juz_number":29,"words":[{"id":32866,"position":1,"audio_url":"wbw/075_030_001.mp3","char_type_name":"word","page_number":578,"line_number":4,"text":"إِلَىٰ","translation":{"text":"দিকে","language_name":"bengali","language_id":20},"transliteration":{"text":"ilā","language_name":"english","language_id":38}},{"id":32867,"position":2,"audio_url":"wbw/075_030_002.mp3","char_type_name":"word","page_number":578,"line_number":4,"text":"رَبِّكَ","translation":{"text":"তোমার রবের","language_name":"bengali","language_id":20},"transliteration":{"text":"rabbika","language_name":"english","language_id":38}},{"id":32868,"position":3,"audio_url":"wbw/075_030_003.mp3","char_type_name":"word","page_number":578,"line_number":4,"text":"يَوْمَئِذٍ","translation":{"text":"সে দিন","language_name":"bengali","language_id":20},"transliteration":{"text":"yawma-idhin","language_name":"english","language_id":38}},{"id":32869,"position":4,"audio_url":"wbw/075_030_004.mp3","char_type_name":"word","page_number":578,"line_number":4,"text":"ٱلْمَسَاقُ","translation":{"text":"যাত্রা","language_name":"bengali","language_id":20},"transliteration":{"text":"l-masāqu","language_name":"english","language_id":38}},{"id":32870,"position":5,"audio_url":null,"char_type_name":"end","page_number":578,"line_number":4,"text":"٣٠","translation":{"text":"(৩০)","language_name":"bengali","language_id":20},"transliteration":{"text":null,"language_name":"english","language_id":38}}]}],"pagination":{"per_page":10,"current_page":3,"next_page":4,"total_pages":4,"total_records":40}}
