{"verses":[{"id":5582,"verse_number":31,"verse_key":"75:31","hizb_number":58,"rub_el_hizb_number":231,"ruku_number":515,"manzil_number":7,"sajdah_number":null,"page_number":578,"juz_number":29,"words":[{"id":33725,"position":1,"audio_url":"wbw/075_031_001.mp3","verse_key":"75:31","verse_id":5582,"location":"75:31:1","text_uthmani":"فَلَا","qpc_uthmani_hafs":"فَلَا","char_type_name":"word","page_number":578,"line_number":4,"text":"فَلَا","translation":{"text":"না অতঃপর","language_name":"bengali","language_id":20},"transliteration":{"text":"falā","language_name":"english","language_id":38}},{"id":33726,"position":2,"audio_url":"wbw/075_031_002.mp3","verse_key":"75:31","verse_id":5582,"location":"75:31:2","text_uthmani":"صَدَّقَ","qpc_uthmani_hafs":"صَدَّقَ","char_type_name":"word","page_number":578,"line_number":5,"text":"صَدَّقَ","translation":{"text":"সত্য মানল","language_name":"bengali","language_id":20},"transliteration":{"text":"ṣaddaqa","language_name":"english","language_id":38}},{"id":33727,"position":3,"audio_url":"wbw/075_031_003.mp3","verse_key":"75:31","verse_id":5582,"location":"75:31:3","text_uthmani":"وَلَا","qpc_uthmani_hafs":"وَلَا","char_type_name":"word","page_number":578,"line_number":5,"text":"وَلَا","translation":{"text":"এবং না","language_name":"bengali","language_id":20},"transliteration":{"text":"walā","language_name":"english","language_id":38}},{"id":33728,"position":4,"audio_url":"wbw/075_031_004.mp3","verse_key":"75:31","verse_id":5582,"location":"75:31:4","text_uthmani":"صَلَّىٰ","qpc_uthmani_hafs":"صَلَّىٰ","char_type_name":"word","page_number":578,"line_number":5,"text":"صَلَّىٰ","translation":{"text":"নামায পড়ল","language_name":"bengali","language_id":20},"transliteration":{"text":"ṣallā","language_name":"english","language_id":38}},{"id":33729,"position":5,"audio_url":null,"verse_key":"75:31","verse_id":5582,"location":"75:31:5","text_uthmani":"٣١","qpc_uthmani_hafs":"٣١","char_type_name":"end","page_number":578,"line_number":5,"text":"٣١","translation":{"text":"(৩১)","language_name":"bengali","language_id":20},"transliteration":{"text":null,"language_name":"english","language_id":38}}]},{"id":5583,"verse_number":32,"verse_key":"75:32","hizb_number":58,"rub_el_hizb_number":231,"ruku_number":515,"manzil_number":7,"sajdah_number":null,"page_number":578,"juz_number":29,"words":[{"id":34746,"position":1,"audio_url":"wbw/075_032_001.mp3","verse_key":"75:32","verse_id":5583,"location":"75:32:1","text_uthmani":"وَلَـٰكِن","qpc_uthmani_hafs":"وَلَٰكِن","char_type_name":"word","page_number":578,"line_number":5,"text":"وَلَٰكِن","translation":{"text":"বরং","language_name":"bengali","language_id":20},"transliteration":{"text":"walākin","language_name":"english","language_id":38}},{"id":34747,"position":2,"audio_url":"wbw/075_032_002.mp3","verse_key":"75:32","verse_id":5583,"location":"75:32:2","text_uthmani":"كَذَّبَ","qpc_uthmani_hafs":"كَذَّبَ","char_type_name":"word","page_number":578,"line_number":5,"text":"كَذَّبَ","translation":{"text":"মিথ্যারোপ করল","language_name":"bengali","language_id":20},"transliteration":{"text":"kadhaba","language_name":"english","language_id":38}},{"id":34748,"position":3,"audio_url":"wbw/075_032_003.mp3","verse_key":"75:32","verse_id":5583,"location":"75:32:3","text_uthmani":"وَتَوَلَّىٰ","qpc_uthmani_hafs":"وَتَوَلَّىٰ","char_type_name":"word","page_number":578,"line_number":5,"text":"وَتَوَلَّىٰ","translation":{"text":"ও ফিরে গেল","language_name":"bengali","language_id":20},"transliteration":{"text":"watawallā","language_name":"english","language_id":38}},{"id":34749,"position":4,"audio_url":null,"verse_key":"75:32","verse_id":5583,"location":"75:32:4","text_uthmani":"٣٢","qpc_uthmani_hafs":"٣٢","char_type_name":"end","page_number":578,"line_number":5,"text":"٣٢","translation":{"text":"(৩২)","language_name":"bengali","language_id":20},"transliteration":{"text":null,"language_name":"english","language_id":38}}]},{"id":5584,"verse_number":33,"verse_key":"75:33","hizb_number":58,"rub_el_hizb_number":231,"ruku_number":515,"manzil_number":7,"sajdah_number":null,"page_number":578,"juz_number":29,"words":[{"id":35576,"position":1,"audio_url":"wbw/075_033_001.mp3","verse_key":"75:33","verse_id":5584,"location":"75:33:1","text_uthmani":"ثُمَّ","qpc_uthmani_hafs":"ثُمَّ","char_type_name":"word","page_number":578,"line_number":5,"text":"ثُمَّ","translation":{"text":"পরে","language_name":"bengali","language_id":20},"transliteration":{"text":"thumma","language_name":"english","language_id":38}},{"id":35577,"position":2,"audio_url":"wbw/075_033_002.mp3","verse_key":"75:33","verse_id":5584,"location":"75:33:2","text_uthmani":"ذَهَبَ","qpc_uthmani_hafs":"ذَهَبَ","char_type_name":"word","page_number":578,"line_number":5,"text":"ذَهَبَ","translation":{"text":"গেল","language_name":"bengali","language_id":20},"transliteration":{"text":"dhahaba","language_name":"english","language_id":38}},{"id":35578,"position":3,"audio_url":"wbw/075_033_003.mp3","verse_key":"75:33","verse_id":5584,"location":"75:33:3","text_uthmani":"إِلَىٰٓ","qpc_uthmani_hafs":"إِلَىٰٓ","char_type_name":"word","page_number":578,"line_number":5,"text":"إِلَىٰٓ","translation":{"text":"দিকে","language_name":"bengali","language_id":20},"transliteration":{"text":"ilā","language_name":"english","language_id":38}},{"id":35579,"position":4,"audio_url":"wbw/075_033_004.mp3","verse_key":"75:33","verse_id":5584,"location":"75:33:4","text_uthmani":"أَهْلِهِۦ","qpc_uthmani_hafs":"أَهۡلِهِۦ","char_type_name":"word","page_number":578,"line_number":5,"text":"أَهۡلِهِۦ","translation":{"text":"পরিবারের তার","language_name":"bengali","language_id":20},"transliteration":{"text":"ahlihi","language_name":"english","language_id":38}},{"id":35580,"position":5,"audio_url":"wbw/075_033_005.mp3","verse_key":"75:33","verse_id":5584,"location":"75:33:5","text_uthmani":"يَتَمَطَّىٰٓ","qpc_uthmani_hafs":"يَتَمَطَّىٰٓ","char_type_name":"word","page_number":578,"line_number":5,"text":"يَتَمَطَّىٰٓ","translation":{"text":"সদম্ভে","language_name":"bengali","language_id":20},"transliteration":{"text":"yatamaṭṭā","language_name":"english","language_id":38}},{"id":35581,"position":6,"audio_url":null,"verse_key":"75:33","verse_id":5584,"location":"75:33:6","text_uthmani":"٣٣","qpc_uthmani_hafs":"٣٣","char_type_name":"end","page_number":578,"line_number":6,"text":"٣٣","translation":{"text":"(৩৩)","language_name":"bengali","language_id":20},"transliteration":{"text":null,"language_name":"english","language_id":38}}]},{"id":5585,"verse_number":34,"verse_key":"75:34","hizb_number":58,"rub_el_hizb_number":231,"ruku_number":515,"manzil_number":7,"sajdah_number":null,"page_number":578,"juz_number":29,"words":[{"id":36505,"position":1,"audio_url":"wbw/075_034_001.mp3","verse_key":"75:34","verse_id":5585,"location":"75:34:1","text_uthmani":"أَوْلَىٰ","qpc_uthmani_hafs":"أَوۡلَىٰ","char_type_name":"word","page_number":578,"line_number":6,"text":"أَوۡلَىٰ","translation":{"text":"দুর্ভোগ","language_name":"bengali","language_id":20},"transliteration":{"text":"awlā","language_name":"english","language_id":38}},{"id":36506,"position":2,"audio_url":"wbw/075_034_002.mp3","verse_key":"75:34","verse_id":5585,"location":"75:34:2","text_uthmani":"لَكَ","qpc_uthmani_hafs":"لَكَ","char_type_name":"word","page_number":578,"line_number":6,"text":"لَكَ","translation":{"text":"তোমার জন্যে","language_name":"bengali","language_id":20},"transliteration":{"text":"laka","language_name":"english","language_id":38}},{"id":36507,"position":3,"audio_url":"wbw/075_034_003.mp3","verse_key":"75:34","verse_id":5585,"location":"75:34:3","text_uthmani":"فَأَوْلَىٰ","qpc_uthmani_hafs":"فَأَوۡلَىٰ","char_type_name":"word","page_number":578,"line_number":6,"text":"فَأَوۡلَىٰ","translation":{"text":"অতঃপর দুর্ভোগ","language_name":"bengali","language_id":20},"transliteration":{"text":"fa-awlā","language_name":"english","language_id":38}},{"id":36508,"position":4,"audio_url":null,"verse_key":"75:34","verse_id":5585,"location":"75:34:4","text_uthmani":"٣٤","qpc_uthmani_hafs":"٣٤","char_type_name":"end","page_number":578,"line_number":6,"text":"٣٤","translation":{"text":"(৩৪)","language_name":"bengali","language_id":20},"transliteration":{"text":null,"language_name":"english","language_id":38}}]},{"id":5586,"verse_number":35,"verse_key":"75:35","hizb_number":58,"rub_el_hizb_number":231,"ruku_number":515,"manzil_number":7,"sajdah_number":null,"page_number":578,"juz_number":29,"words":[{"id":37354,"position":1,"audio_url":"wbw/075_035_001.mp3","verse_key":"75:35","verse_id":5586,"location":"75:35:1","text_uthmani":"ثُمَّ","qpc_uthmani_hafs":"ثُمَّ","char_type_name":"word","page_number":578,"line_number":6,"text":"ثُمَّ","translation":{"text":"এরপর","language_name":"bengali","language_id":20},"transliteration":{"text":"thumma","language_name":"english","language_id":38}},{"id":37355,"position":2,"audio_url":"wbw/075_035_002.mp3","verse_key":"75:35","verse_id":5586,"location":"75:35:2","text_uthmani":"أَوْلَىٰ","qpc_uthmani_hafs":"أَوۡلَىٰ","char_type_name":"word","page_number":578,"line_number":6,"text":"أَوۡلَىٰ","translation":{"text":"দুুর্ভোগ","language_name":"bengali","language_id":20},"transliteration":{"text":"awlā","language_name":"english","language_id":38}},{"id":37356,"position":3,"audio_url":"wbw/075_035_003.mp3","verse_key":"75:35","verse_id":5586,"location":"75:35:3","text_uthmani":"لَكَ","qpc_uthmani_hafs":"لَكَ","char_type_name":"word","page_number":578,"line_number":6,"text":"لَكَ","translation":{"text":"তোমার জন্য","language_name":"bengali","language_id":20},"transliteration":{"text":"laka","language_name":"english","language_id":38}},{"id":37357,"position":4,"audio_url":"wbw/075_035_004.mp3","verse_key":"75:35","verse_id":5586,"location":"75:35:4","text_uthmani":"فَأَوْلَىٰٓ","qpc_uthmani_hafs":"فَأَوۡلَىٰٓ","char_type_name":"word","page_number":578,"line_number":6,"text":"فَأَوۡلَىٰٓ","translation":{"text":"দুর্ভোগ অতঃপর","language_name":"bengali","language_id":20},"transliteration":{"text":"fa-awlā","language_name":"english","language_id":38}},{"id":37358,"position":5,"audio_url":null,"verse_key":"75:35","verse_id":5586,"location":"75:35:5","text_uthmani":"٣٥","qpc_uthmani_hafs":"٣٥","char_type_name":"end","page_number":578,"line_number":6,"text":"٣٥","translation":{"text":"(৩৫)","language_name":"bengali","language_id":20},"transliteration":{"text":null,"language_name":"english","language_id":38}}]},{"id":5587,"verse_number":36,"verse_key":"75:36","hizb_number":58,"rub_el_hizb_number":231,"ruku_number":515,"manzil_number":7,"sajdah_number":null,"page_number":578,"juz_number":29,"words":[{"id":37868,"position":1,"audio_url":"wbw/075_036_001.mp3","verse_key":"75:36","verse_id":5587,"location":"75:36:1","text_uthmani":"أَيَحْسَبُ","qpc_uthmani_hafs":"أَيَحۡسَبُ","char_type_name":"word","page_number":578,"line_number":6,"text":"أَيَحۡسَبُ","translation":{"text":"মনে করেছ কি","language_name":"bengali","language_id":20},"transliteration":{"text":"ayaḥsabu","language_name":"english","language_id":38}},{"id":37869,"position":2,"audio_url":"wbw/075_036_002.mp3","verse_key":"75:36","verse_id":5587,"location":"75:36:2","text_uthmani":"ٱلْإِنسَـٰنُ","qpc_uthmani_hafs":"ٱلۡإِنسَٰنُ","char_type_name":"word","page_number":578,"line_number":6,"text":"ٱلۡإِنسَٰنُ","translation":{"text":"মানুষ","language_name":"bengali","language_id":20},"transliteration":{"text":"l-insānu","language_name":"english","language_id":38}},{"id":37870,"position":3,"audio_url":"wbw/075_036_003.mp3","verse_key":"75:36","verse_id":5587,"location":"75:36:3","text_uthmani":"أَن","qpc_uthmani_hafs":"أَن","char_type_name":"word","page_number":578,"line_number":7,"text":"أَن","translation":{"text":"যে","language_name":"bengali","language_id":20},"transliteration":{"text":"an","language_name":"english","language_id":38}},{"id":37871,"position":4,"audio_url":"wbw/075_036_004.mp3","verse_key":"75:36","verse_id":5587,"location":"75:36:4","text_uthmani":"يُتْرَكَ","qpc_uthmani_hafs":"يُتۡرَكَ","char_type_name":"word","page_number":578,"line_number":7,"text":"يُتۡرَكَ","translation":{"text":"ছেড়ে দেয়া হবে","language_name":"bengali","language_id":20},"transliteration":{"text":"yut'raka","language_name":"english","language_id":38}},{"id":37872,"position":5,"audio_url":"wbw/075_036_005.mp3","verse_key":"75:36","verse_id":5587,"location":"75:36:5","text_uthmani":"سُدًى","qpc_uthmani_hafs":"سُدًى","char_type_name":"word","page_number":578,"line_number":7,"text":"سُدًى","translation":{"text":"লাগামহিন","language_name":"bengali","language_id":20},"transliteration":{"text":"sudan","language_name":"english","language_id":38}},{"id":37873,"position":6,"audio_url":null,"verse_key":"75:36","verse_id":5587,"location":"75:36:6","text_uthmani":"٣٦","qpc_uthmani_hafs":"٣٦","char_type_name":"end","page_number":578,"line_number":7,"text":"٣٦","translation":{"text":"(৩৬)","language_name":"bengali","language_id":20},"transliteration":{"text":null,"language_name":"english","language_id":38}}]},{"id":5588,"verse_number":37,"verse_key":"75:37","hizb_number":58,"rub_el_hizb_number":231,"ruku_number":515,"manzil_number":7,"sajdah_number":null,"page_number":578,"juz_number":29,"words":[{"id":39018,"position":1,"audio_url":"wbw/075_037_001.mp3","verse_key":"75:37","verse_id":5588,"location":"75:37:1","text_uthmani":"أَلَمْ","qpc_uthmani_hafs":"أَلَمۡ","char_type_name":"word","page_number":578,"line_number":7,"text":"أَلَمۡ","translation":{"text":"না কি","language_name":"bengali","language_id":20},"transliteration":{"text":"alam","language_name":"english","language_id":38}},{"id":39019,"position":2,"audio_url":"wbw/075_037_002.mp3","verse_key":"75:37","verse_id":5588,"location":"75:37:2","text_uthmani":"يَكُ","qpc_uthmani_hafs":"يَكُ","char_type_name":"word","page_number":578,"line_number":7,"text":"يَكُ","translation":{"text":"সে ছিল","language_name":"bengali","language_id":20},"transliteration":{"text":"yaku","language_name":"english","language_id":38}},{"id":39020,"position":3,"audio_url":"wbw/075_037_003.mp3","verse_key":"75:37","verse_id":5588,"location":"75:37:3","text_uthmani":"نُطْفَةًۭ","qpc_uthmani_hafs":"نُطۡفَةٗ","char_type_name":"word","page_number":578,"line_number":7,"text":"نُطۡفَةٗ","translation":{"text":"এক ফটা","language_name":"bengali","language_id":20},"transliteration":{"text":"nuṭ'fatan","language_name":"english","language_id":38}},{"id":39021,"position":4,"audio_url":"wbw/075_037_004.mp3","verse_key":"75:37","verse_id":5588,"location":"75:37:4","text_uthmani":"مِّن","qpc_uthmani_hafs":"مِّن","char_type_name":"word","page_number":578,"line_number":7,"text":"مِّن","translation":{"text":"থেকে","language_name":"bengali","language_id":20},"transliteration":{"text":"min","language_name":"english","language_id":38}},{"id":39022,"position":5,"audio_url":"wbw/075_037_005.mp3","verse_key":"75:37","verse_id":5588,"location":"75:37:5","text_uthmani":"مَّنِىٍّۢ","qpc_uthmani_hafs":"مَّنِيّٖ","char_type_name":"word","page_number":578,"line_number":7,"text":"مَّنِيّٖ","translation":{"text":"শুক্র","language_name":"bengali","language_id":20},"transliteration":{"text":"maniyyin","language_name":"english","language_id":38}},{"id":39023,"position":6,"audio_url":"wbw/075_037_006.mp3","verse_key":"75:37","verse_id":5588,"location":"75:37:6","text_uthmani":"يُمْنَىٰ","qpc_uthmani_hafs":"يُمۡنَىٰ","char_type_name":"word","page_number":578,"line_number":7,"text":"يُمۡنَىٰ","translation":{"text":"নির্গত","language_name":"bengali","language_id":20},"transliteration":{"text":"yum'nā","language_name":"english","language_id":38}},{"id":39024,"position":7,"audio_url":null,"verse_key":"75:37","verse_id":5588,"location":"75:37:7","text_uthmani":"٣٧","qpc_uthmani_hafs":"٣٧","char_type_name":"end","page_number":578,"line_number":7,"text":"٣٧","translation":{"text":"(৩৭)","language_name":"bengali","language_id":20},"transliteration":{"text":null,"language_name":"english","language_id":38}}]},{"id":5589,"verse_number":38,"verse_key":"75:38","hizb_number":58,"rub_el_hizb_number":231,"ruku_number":515,"manzil_number":7,"sajdah_number":null,"page_number":578,"juz_number":29,"words":[{"id":39857,"position":1,"audio_url":"wbw/075_038_001.mp3","verse_key":"75:38","verse_id":5589,"location":"75:38:1","text_uthmani":"ثُمَّ","qpc_uthmani_hafs":"ثُمَّ","char_type_name":"word","page_number":578,"line_number":7,"text":"ثُمَّ","translation":{"text":"পরে","language_name":"bengali","language_id":20},"transliteration":{"text":"thumma","language_name":"english","language_id":38}},{"id":39858,"position":2,"audio_url":"wbw/075_038_002.mp3","verse_key":"75:38","verse_id":5589,"location":"75:38:2","text_uthmani":"كَانَ","qpc_uthmani_hafs":"كَانَ","char_type_name":"word","page_number":578,"line_number":7,"text":"كَانَ","translation":{"text":"হয়","language_name":"bengali","language_id":20},"transliteration":{"text":"kāna","language_name":"english","language_id":38}},{"id":39859,"position":3,"audio_url":"wbw/075_038_003.mp3","verse_key":"75:38","verse_id":5589,"location":"75:38:3","text_uthmani":"عَلَقَةًۭ","qpc_uthmani_hafs":"عَلَقَةٗ","char_type_name":"word","page_number":578,"line_number":8,"text":"عَلَقَةٗ","translation":{"text":"জমাট রক্ত","language_name":"bengali","language_id":20},"transliteration":{"text":"ʿalaqatan","language_name":"english","language_id":38}},{"id":39860,"position":4,"audio_url":"wbw/075_038_004.mp3","verse_key":"75:38","verse_id":5589,"location":"75:38:4","text_uthmani":"فَخَلَقَ","qpc_uthmani_hafs":"فَخَلَقَ","char_type_name":"word","page_number":578,"line_number":8,"text":"فَخَلَقَ","translation":{"text":"তিনি আকৃতি অতঃপর দিলেন","language_name":"bengali","language_id":20},"transliteration":{"text":"fakhalaqa","language_name":"english","language_id":38}},{"id":39861,"position":5,"audio_url":"wbw/075_038_005.mp3","verse_key":"75:38","verse_id":5589,"location":"75:38:5","text_uthmani":"فَسَوَّىٰ","qpc_uthmani_hafs":"فَسَوَّىٰ","char_type_name":"word","page_number":578,"line_number":8,"text":"فَسَوَّىٰ","translation":{"text":"সুঠাম অতঃপর করলেন","language_name":"bengali","language_id":20},"transliteration":{"text":"fasawwā","language_name":"english","language_id":38}},{"id":39862,"position":6,"audio_url":null,"verse_key":"75:38","verse_id":5589,"location":"75:38:6","text_uthmani":"٣٨","qpc_uthmani_hafs":"٣٨","char_type_name":"end","page_number":578,"line_number":8,"text":"٣٨","translation":{"text":"(৩৮)","language_name":"bengali","language_id":20},"transliteration":{"text":null,"language_name":"english","language_id":38}}]},{"id":5590,"verse_number":39,"verse_key":"75:39","hizb_number":58,"rub_el_hizb_number":231,"ruku_number":515,"manzil_number":7,"sajdah_number":null,"page_number":578,"juz_number":29,"words":[{"id":40625,"position":1,"audio_url":"wbw/075_039_001.mp3","verse_key":"75:39","verse_id":5590,"location":"75:39:1","text_uthmani":"فَجَعَلَ","qpc_uthmani_hafs":"فَجَعَلَ","char_type_name":"word","page_number":578,"line_number":8,"text":"فَجَعَلَ","translation":{"text":"বানালেন অতঃপর","language_name":"bengali","language_id":20},"transliteration":{"text":"fajaʿala","language_name":"english","language_id":38}},{"id":40626,"position":2,"audio_url":"wbw/075_039_002.mp3","verse_key":"75:39","verse_id":5590,"location":"75:39:2","text_uthmani":"مِنْهُ","qpc_uthmani_hafs":"مِنۡهُ","char_type_name":"word","page_number":578,"line_number":8,"text":"مِنۡهُ","translation":{"text":"তা থেকে","language_name":"bengali","language_id":20},"transliteration":{"text":"min'hu","language_name":"english","language_id":38}},{"id":40627,"position":3,"audio_url":"wbw/075_039_003.mp3","verse_key":"75:39","verse_id":5590,"location":"75:39:3","text_uthmani":"ٱلزَّوْجَيْنِ","qpc_uthmani_hafs":"ٱلزَّوۡجَيۡنِ","char_type_name":"word","page_number":578,"line_number":8,"text":"ٱلزَّوۡجَيۡنِ","translation":{"text":"দুই জোড়া","language_name":"bengali","language_id":20},"transliteration":{"text":"l-zawjayni","language_name":"english","language_id":38}},{"id":40628,"position":4,"audio_url":"wbw/075_039_004.mp3","verse_key":"75:39","verse_id":5590,"location":"75:39:4","text_uthmani":"ٱلذَّكَرَ","qpc_uthmani_hafs":"ٱلذَّكَرَ","char_type_name":"word","page_number":578,"line_number":8,"text":"ٱلذَّكَرَ","translation":{"text":"পুরুষ","language_name":"bengali","language_id":20},"transliteration":{"text":"l-dhakara","language_name":"english","language_id":38}},{"id":40629,"position":5,"audio_url":"wbw/075_039_005.mp3","verse_key":"75:39","verse_id":5590,"location":"75:39:5","text_uthmani":"وَٱلْأُنثَىٰٓ","qpc_uthmani_hafs":"وَٱلۡأُنثَىٰٓ","char_type_name":"word","page_number":578,"line_number":9,"text":"وَٱلۡأُنثَىٰٓ","translation":{"text":"ও নাড়ি","language_name":"bengali","language_id":20},"transliteration":{"text":"wal-unthā","language_name":"english","language_id":38}},{"id":40630,"position":6,"audio_url":null,"verse_key":"75:39","verse_id":5590,"location":"75:39:6","text_uthmani":"٣٩","qpc_uthmani_hafs":"٣٩","char_type_name":"end","page_number":578,"line_number":9,"text":"٣٩","translation":{"text":"(৩৯)","language_name":"bengali","language_id":20},"transliteration":{"text":null,"language_name":"english","language_id":38}}]},{"id":5591,"verse_number":40,"verse_key":"75:40","hizb_number":58,"rub_el_hizb_number":231,"ruku_number":515,"manzil_number":7,"sajdah_number":null,"page_number":578,"juz_number":29,"words":[{"id":41027,"position":1,"audio_url":"wbw/075_040_001.mp3","verse_key":"75:40","verse_id":5591,"location":"75:40:1","text_uthmani":"أَلَيْسَ","qpc_uthmani_hafs":"أَلَيۡسَ","char_type_name":"word","page_number":578,"line_number":9,"text":"أَلَيۡسَ","translation":{"text":"নয় কি","language_name":"bengali","language_id":20},"transliteration":{"text":"alaysa","language_name":"english","language_id":38}},{"id":41028,"position":2,"audio_url":"wbw/075_040_002.mp3","verse_key":"75:40","verse_id":5591,"location":"75:40:2","text_uthmani":"ذَٰلِكَ","qpc_uthmani_hafs":"ذَٰلِكَ","char_type_name":"word","page_number":578,"line_number":9,"text":"ذَٰلِكَ","translation":{"text":"সেই","language_name":"bengali","language_id":20},"transliteration":{"text":"dhālika","language_name":"english","language_id":38}},{"id":41029,"position":3,"audio_url":"wbw/075_040_003.mp3","verse_key":"75:40","verse_id":5591,"location":"75:40:3","text_uthmani":"بِقَـٰدِرٍ","qpc_uthmani_hafs":"بِقَٰدِرٍ","char_type_name":"word","page_number":578,"line_number":9,"text":"بِقَٰدِرٍ","translation":{"text":"সক্ষম","language_name":"bengali","language_id":20},"transliteration":{"text":"biqādirin","language_name":"english","language_id":38}},{"id":41030,"position":4,"audio_url":"wbw/075_040_004.mp3","verse_key":"75:40","verse_id":5591,"location":"75:40:4","text_uthmani":"عَلَىٰٓ","qpc_uthmani_hafs":"عَلَىٰٓ","char_type_name":"word","page_number":578,"line_number":9,"text":"عَلَىٰٓ","translation":{"text":"এতে","language_name":"bengali","language_id":20},"transliteration":{"text":"ʿalā","language_name":"english","language_id":38}},{"id":41031,"position":5,"audio_url":"wbw/075_040_005.mp3","verse_key":"75:40","verse_id":5591,"location":"75:40:5","text_uthmani":"أَن","qpc_uthmani_hafs":"أَن","char_type_name":"word","page_number":578,"line_number":9,"text":"أَن","translation":{"text":"যে","language_name":"bengali","language_id":20},"transliteration":{"text":"an","language_name":"english","language_id":38}},{"id":41032,"position":6,"audio_url":"wbw/075_040_006.mp3","verse_key":"75:40","verse_id":5591,"location":"75:40:6","text_uthmani":"يُحْـِۧىَ","qpc_uthmani_hafs":"يُحۡـِۧيَ","char_type_name":"word","page_number":578,"line_number":9,"text":"يُحۡـِۧيَ","translation":{"text":"জীবিত করবেন","language_name":"bengali","language_id":20},"transliteration":{"text":"yuḥ'yiya","language_name":"english","language_id":38}},{"id":41033,"position":7,"audio_url":"wbw/075_040_007.mp3","verse_key":"75:40","verse_id":5591,"location":"75:40:7","text_uthmani":"ٱلْمَوْتَىٰ","qpc_uthmani_hafs":"ٱلۡمَوۡتَىٰ","char_type_name":"word","page_number":578,"line_number":9,"text":"ٱلۡمَوۡتَىٰ","translation":{"text":"মৃত্যুকে","language_name":"bengali","language_id":20},"transliteration":{"text":"l-mawtā","language_name":"english","language_id":38}},{"id":41034,"position":8,"audio_url":null,"verse_key":"75:40","verse_id":5591,"location":"75:40:8","text_uthmani":"٤٠","qpc_uthmani_hafs":"٤٠","char_type_name":"end","page_number":578,"line_number":9,"text":"٤٠","translation":{"text":"(৪০)","language_name":"bengali","language_id":20},"transliteration":{"text":null,"language_name":"english","language_id":38}}]}],"pagination":{"per_page":10,"current_page":4,"next_page":null,"total_pages":4,"total_records":40}}
