{"verses":[{"id":4455,"verse_number":41,"verse_key":"44:41","hizb_number":50,"rub_el_hizb_number":199,"ruku_number":434,"manzil_number":6,"sajdah_number":null,"page_number":498,"juz_number":25,"words":[{"id":42252,"position":1,"audio_url":"wbw/044_041_001.mp3","verse_key":"44:41","verse_id":4455,"location":"44:41:1","text_uthmani":"يَوْمَ","qpc_uthmani_hafs":"يَوۡمَ","char_type_name":"word","page_number":498,"line_number":1,"text":"يَوۡمَ","translation":{"text":"(The) Day","language_name":"english","language_id":38},"transliteration":{"text":"yawma","language_name":"english","language_id":38}},{"id":42253,"position":2,"audio_url":"wbw/044_041_002.mp3","verse_key":"44:41","verse_id":4455,"location":"44:41:2","text_uthmani":"لَا","qpc_uthmani_hafs":"لَا","char_type_name":"word","page_number":498,"line_number":1,"text":"لَا","translation":{"text":"not","language_name":"english","language_id":38},"transliteration":{"text":"lā","language_name":"english","language_id":38}},{"id":42254,"position":3,"audio_url":"wbw/044_041_003.mp3","verse_key":"44:41","verse_id":4455,"location":"44:41:3","text_uthmani":"يُغْنِى","qpc_uthmani_hafs":"يُغۡنِي","char_type_name":"word","page_number":498,"line_number":1,"text":"يُغۡنِي","translation":{"text":"will avail","language_name":"english","language_id":38},"transliteration":{"text":"yugh'nī","language_name":"english","language_id":38}},{"id":42255,"position":4,"audio_url":"wbw/044_041_004.mp3","verse_key":"44:41","verse_id":4455,"location":"44:41:4","text_uthmani":"مَوْلًى","qpc_uthmani_hafs":"مَوۡلًى","char_type_name":"word","page_number":498,"line_number":1,"text":"مَوۡلًى","translation":{"text":"a relation","language_name":"english","language_id":38},"transliteration":{"text":"mawlan","language_name":"english","language_id":38}},{"id":42256,"position":5,"audio_url":"wbw/044_041_005.mp3","verse_key":"44:41","verse_id":4455,"location":"44:41:5","text_uthmani":"عَن","qpc_uthmani_hafs":"عَن","char_type_name":"word","page_number":498,"line_number":2,"text":"عَن","translation":{"text":"for","language_name":"english","language_id":38},"transliteration":{"text":"ʿan","language_name":"english","language_id":38}},{"id":42257,"position":6,"audio_url":"wbw/044_041_006.mp3","verse_key":"44:41","verse_id":4455,"location":"44:41:6","text_uthmani":"مَّوْلًۭى","qpc_uthmani_hafs":"مَّوۡلٗى","char_type_name":"word","page_number":498,"line_number":2,"text":"مَّوۡلٗى","translation":{"text":"a relation","language_name":"english","language_id":38},"transliteration":{"text":"mawlan","language_name":"english","language_id":38}},{"id":42258,"position":7,"audio_url":"wbw/044_041_007.mp3","verse_key":"44:41","verse_id":4455,"location":"44:41:7","text_uthmani":"شَيْـًۭٔا","qpc_uthmani_hafs":"شَيۡـٔٗا","char_type_name":"word","page_number":498,"line_number":2,"text":"شَيۡـٔٗا","translation":{"text":"anything","language_name":"english","language_id":38},"transliteration":{"text":"shayan","language_name":"english","language_id":38}},{"id":42259,"position":8,"audio_url":"wbw/044_041_008.mp3","verse_key":"44:41","verse_id":4455,"location":"44:41:8","text_uthmani":"وَلَا","qpc_uthmani_hafs":"وَلَا","char_type_name":"word","page_number":498,"line_number":2,"text":"وَلَا","translation":{"text":"and not","language_name":"english","language_id":38},"transliteration":{"text":"walā","language_name":"english","language_id":38}},{"id":42260,"position":9,"audio_url":"wbw/044_041_009.mp3","verse_key":"44:41","verse_id":4455,"location":"44:41:9","text_uthmani":"هُمْ","qpc_uthmani_hafs":"هُمۡ","char_type_name":"word","page_number":498,"line_number":2,"text":"هُمۡ","translation":{"text":"they","language_name":"english","language_id":38},"transliteration":{"text":"hum","language_name":"english","language_id":38}},{"id":42261,"position":10,"audio_url":"wbw/044_041_010.mp3","verse_key":"44:41","verse_id":4455,"location":"44:41:10","text_uthmani":"يُنصَرُونَ","qpc_uthmani_hafs":"يُنصَرُونَ","char_type_name":"word","page_number":498,"line_number":2,"text":"يُنصَرُونَ","translation":{"text":"will be helped","language_name":"english","language_id":38},"transliteration":{"text":"yunṣarūna","language_name":"english","language_id":38}},{"id":42262,"position":11,"audio_url":null,"verse_key":"44:41","verse_id":4455,"location":"44:41:11","text_uthmani":"٤١","qpc_uthmani_hafs":"٤١","char_type_name":"end","page_number":498,"line_number":2,"text":"٤١","translation":{"text":"(41)","language_name":"english","language_id":38},"transliteration":{"text":null,"language_name":"english","language_id":38}}]},{"id":4456,"verse_number":42,"verse_key":"44:42","hizb_number":50,"rub_el_hizb_number":199,"ruku_number":434,"manzil_number":6,"sajdah_number":null,"page_number":498,"juz_number":25,"words":[{"id":42786,"position":1,"audio_url":"wbw/044_042_001.mp3","verse_key":"44:42","verse_id":4456,"location":"44:42:1","text_uthmani":"إِلَّا","qpc_uthmani_hafs":"إِلَّا","char_type_name":"word","page_number":498,"line_number":2,"text":"إِلَّا","translation":{"text":"Except","language_name":"english","language_id":38},"transliteration":{"text":"illā","language_name":"english","language_id":38}},{"id":42787,"position":2,"audio_url":"wbw/044_042_002.mp3","verse_key":"44:42","verse_id":4456,"location":"44:42:2","text_uthmani":"مَن","qpc_uthmani_hafs":"مَن","char_type_name":"word","page_number":498,"line_number":2,"text":"مَن","translation":{"text":"(on) whom","language_name":"english","language_id":38},"transliteration":{"text":"man","language_name":"english","language_id":38}},{"id":42788,"position":3,"audio_url":"wbw/044_042_003.mp3","verse_key":"44:42","verse_id":4456,"location":"44:42:3","text_uthmani":"رَّحِمَ","qpc_uthmani_hafs":"رَّحِمَ","char_type_name":"word","page_number":498,"line_number":2,"text":"رَّحِمَ","translation":{"text":"Allah has mercy","language_name":"english","language_id":38},"transliteration":{"text":"raḥima","language_name":"english","language_id":38}},{"id":42789,"position":4,"audio_url":"wbw/044_042_004.mp3","verse_key":"44:42","verse_id":4456,"location":"44:42:4","text_uthmani":"ٱللَّهُ ۚ","qpc_uthmani_hafs":"ٱللَّهُۚ","char_type_name":"word","page_number":498,"line_number":2,"text":"ٱللَّهُۚ","translation":{"text":"Allah has mercy","language_name":"english","language_id":38},"transliteration":{"text":"l-lahu","language_name":"english","language_id":38}},{"id":42791,"position":5,"audio_url":"wbw/044_042_006.mp3","verse_key":"44:42","verse_id":4456,"location":"44:42:5","text_uthmani":"إِنَّهُۥ","qpc_uthmani_hafs":"إِنَّهُۥ","char_type_name":"word","page_number":498,"line_number":3,"text":"إِنَّهُۥ","translation":{"text":"Indeed, He","language_name":"english","language_id":38},"transliteration":{"text":"innahu","language_name":"english","language_id":38}},{"id":42792,"position":6,"audio_url":"wbw/044_042_007.mp3","verse_key":"44:42","verse_id":4456,"location":"44:42:6","text_uthmani":"هُوَ","qpc_uthmani_hafs":"هُوَ","char_type_name":"word","page_number":498,"line_number":3,"text":"هُوَ","translation":{"text":"[He]","language_name":"english","language_id":38},"transliteration":{"text":"huwa","language_name":"english","language_id":38}},{"id":42793,"position":7,"audio_url":"wbw/044_042_008.mp3","verse_key":"44:42","verse_id":4456,"location":"44:42:7","text_uthmani":"ٱلْعَزِيزُ","qpc_uthmani_hafs":"ٱلۡعَزِيزُ","char_type_name":"word","page_number":498,"line_number":3,"text":"ٱلۡعَزِيزُ","translation":{"text":"(is) the All-Mighty","language_name":"english","language_id":38},"transliteration":{"text":"l-ʿazīzu","language_name":"english","language_id":38}},{"id":42794,"position":8,"audio_url":"wbw/044_042_009.mp3","verse_key":"44:42","verse_id":4456,"location":"44:42:8","text_uthmani":"ٱلرَّحِيمُ","qpc_uthmani_hafs":"ٱلرَّحِيمُ","char_type_name":"word","page_number":498,"line_number":3,"text":"ٱلرَّحِيمُ","translation":{"text":"the Most Merciful","language_name":"english","language_id":38},"transliteration":{"text":"l-raḥīmu","language_name":"english","language_id":38}},{"id":42795,"position":9,"audio_url":null,"verse_key":"44:42","verse_id":4456,"location":"44:42:9","text_uthmani":"٤٢","qpc_uthmani_hafs":"٤٢","char_type_name":"end","page_number":498,"line_number":3,"text":"٤٢","translation":{"text":"(42)","language_name":"english","language_id":38},"transliteration":{"text":null,"language_name":"english","language_id":38}}]},{"id":4457,"verse_number":43,"verse_key":"44:43","hizb_number":50,"rub_el_hizb_number":199,"ruku_number":435,"manzil_number":6,"sajdah_number":null,"page_number":498,"juz_number":25,"words":[{"id":43568,"position":1,"audio_url":"wbw/044_043_001.mp3","verse_key":"44:43","verse_id":4457,"location":"44:43:1","text_uthmani":"إِنَّ","qpc_uthmani_hafs":"إِنَّ","char_type_name":"word","page_number":498,"line_number":3,"text":"إِنَّ","translation":{"text":"Indeed","language_name":"english","language_id":38},"transliteration":{"text":"inna","language_name":"english","language_id":38}},{"id":43569,"position":2,"audio_url":"wbw/044_043_002.mp3","verse_key":"44:43","verse_id":4457,"location":"44:43:2","text_uthmani":"شَجَرَتَ","qpc_uthmani_hafs":"شَجَرَتَ","char_type_name":"word","page_number":498,"line_number":3,"text":"شَجَرَتَ","translation":{"text":"(the) tree","language_name":"english","language_id":38},"transliteration":{"text":"shajarata","language_name":"english","language_id":38}},{"id":43570,"position":3,"audio_url":"wbw/044_043_003.mp3","verse_key":"44:43","verse_id":4457,"location":"44:43:3","text_uthmani":"ٱلزَّقُّومِ","qpc_uthmani_hafs":"ٱلزَّقُّومِ","char_type_name":"word","page_number":498,"line_number":3,"text":"ٱلزَّقُّومِ","translation":{"text":"(of) Zaqqum","language_name":"english","language_id":38},"transliteration":{"text":"l-zaqūmi","language_name":"english","language_id":38}},{"id":43571,"position":4,"audio_url":null,"verse_key":"44:43","verse_id":4457,"location":"44:43:4","text_uthmani":"٤٣","qpc_uthmani_hafs":"٤٣","char_type_name":"end","page_number":498,"line_number":3,"text":"٤٣","translation":{"text":"(43)","language_name":"english","language_id":38},"transliteration":{"text":null,"language_name":"english","language_id":38}}]},{"id":4458,"verse_number":44,"verse_key":"44:44","hizb_number":50,"rub_el_hizb_number":199,"ruku_number":435,"manzil_number":6,"sajdah_number":null,"page_number":498,"juz_number":25,"words":[{"id":44292,"position":1,"audio_url":"wbw/044_044_001.mp3","verse_key":"44:44","verse_id":4458,"location":"44:44:1","text_uthmani":"طَعَامُ","qpc_uthmani_hafs":"طَعَامُ","char_type_name":"word","page_number":498,"line_number":3,"text":"طَعَامُ","translation":{"text":"(Will be) food","language_name":"english","language_id":38},"transliteration":{"text":"ṭaʿāmu","language_name":"english","language_id":38}},{"id":44293,"position":2,"audio_url":"wbw/044_044_002.mp3","verse_key":"44:44","verse_id":4458,"location":"44:44:2","text_uthmani":"ٱلْأَثِيمِ","qpc_uthmani_hafs":"ٱلۡأَثِيمِ","char_type_name":"word","page_number":498,"line_number":4,"text":"ٱلۡأَثِيمِ","translation":{"text":"(of) the sinner(s)","language_name":"english","language_id":38},"transliteration":{"text":"l-athīmi","language_name":"english","language_id":38}},{"id":44294,"position":3,"audio_url":null,"verse_key":"44:44","verse_id":4458,"location":"44:44:3","text_uthmani":"٤٤","qpc_uthmani_hafs":"٤٤","char_type_name":"end","page_number":498,"line_number":4,"text":"٤٤","translation":{"text":"(44)","language_name":"english","language_id":38},"transliteration":{"text":null,"language_name":"english","language_id":38}}]},{"id":4459,"verse_number":45,"verse_key":"44:45","hizb_number":50,"rub_el_hizb_number":199,"ruku_number":435,"manzil_number":6,"sajdah_number":null,"page_number":498,"juz_number":25,"words":[{"id":45231,"position":1,"audio_url":"wbw/044_045_001.mp3","verse_key":"44:45","verse_id":4459,"location":"44:45:1","text_uthmani":"كَٱلْمُهْلِ","qpc_uthmani_hafs":"كَٱلۡمُهۡلِ","char_type_name":"word","page_number":498,"line_number":4,"text":"كَٱلۡمُهۡلِ","translation":{"text":"Like the murky oil","language_name":"english","language_id":38},"transliteration":{"text":"kal-muh'li","language_name":"english","language_id":38}},{"id":45232,"position":2,"audio_url":"wbw/044_045_002.mp3","verse_key":"44:45","verse_id":4459,"location":"44:45:2","text_uthmani":"يَغْلِى","qpc_uthmani_hafs":"يَغۡلِي","char_type_name":"word","page_number":498,"line_number":4,"text":"يَغۡلِي","translation":{"text":"it will boil","language_name":"english","language_id":38},"transliteration":{"text":"yaghlī","language_name":"english","language_id":38}},{"id":45233,"position":3,"audio_url":"wbw/044_045_003.mp3","verse_key":"44:45","verse_id":4459,"location":"44:45:3","text_uthmani":"فِى","qpc_uthmani_hafs":"فِي","char_type_name":"word","page_number":498,"line_number":4,"text":"فِي","translation":{"text":"in","language_name":"english","language_id":38},"transliteration":{"text":"fī","language_name":"english","language_id":38}},{"id":45234,"position":4,"audio_url":"wbw/044_045_004.mp3","verse_key":"44:45","verse_id":4459,"location":"44:45:4","text_uthmani":"ٱلْبُطُونِ","qpc_uthmani_hafs":"ٱلۡبُطُونِ","char_type_name":"word","page_number":498,"line_number":4,"text":"ٱلۡبُطُونِ","translation":{"text":"the bellies","language_name":"english","language_id":38},"transliteration":{"text":"l-buṭūni","language_name":"english","language_id":38}},{"id":45235,"position":5,"audio_url":null,"verse_key":"44:45","verse_id":4459,"location":"44:45:5","text_uthmani":"٤٥","qpc_uthmani_hafs":"٤٥","char_type_name":"end","page_number":498,"line_number":4,"text":"٤٥","translation":{"text":"(45)","language_name":"english","language_id":38},"transliteration":{"text":null,"language_name":"english","language_id":38}}]},{"id":4460,"verse_number":46,"verse_key":"44:46","hizb_number":50,"rub_el_hizb_number":199,"ruku_number":435,"manzil_number":6,"sajdah_number":null,"page_number":498,"juz_number":25,"words":[{"id":45763,"position":1,"audio_url":"wbw/044_046_001.mp3","verse_key":"44:46","verse_id":4460,"location":"44:46:1","text_uthmani":"كَغَلْىِ","qpc_uthmani_hafs":"كَغَلۡيِ","char_type_name":"word","page_number":498,"line_number":4,"text":"كَغَلۡيِ","translation":{"text":"Like boiling","language_name":"english","language_id":38},"transliteration":{"text":"kaghalyi","language_name":"english","language_id":38}},{"id":45764,"position":2,"audio_url":"wbw/044_046_002.mp3","verse_key":"44:46","verse_id":4460,"location":"44:46:2","text_uthmani":"ٱلْحَمِيمِ","qpc_uthmani_hafs":"ٱلۡحَمِيمِ","char_type_name":"word","page_number":498,"line_number":5,"text":"ٱلۡحَمِيمِ","translation":{"text":"(of) scalding water","language_name":"english","language_id":38},"transliteration":{"text":"l-ḥamīmi","language_name":"english","language_id":38}},{"id":45765,"position":3,"audio_url":null,"verse_key":"44:46","verse_id":4460,"location":"44:46:3","text_uthmani":"٤٦","qpc_uthmani_hafs":"٤٦","char_type_name":"end","page_number":498,"line_number":5,"text":"٤٦","translation":{"text":"(46)","language_name":"english","language_id":38},"transliteration":{"text":null,"language_name":"english","language_id":38}}]},{"id":4461,"verse_number":47,"verse_key":"44:47","hizb_number":50,"rub_el_hizb_number":199,"ruku_number":435,"manzil_number":6,"sajdah_number":null,"page_number":498,"juz_number":25,"words":[{"id":46439,"position":1,"audio_url":"wbw/044_047_001.mp3","verse_key":"44:47","verse_id":4461,"location":"44:47:1","text_uthmani":"خُذُوهُ","qpc_uthmani_hafs":"خُذُوهُ","char_type_name":"word","page_number":498,"line_number":5,"text":"خُذُوهُ","translation":{"text":"Seize him","language_name":"english","language_id":38},"transliteration":{"text":"khudhūhu","language_name":"english","language_id":38}},{"id":46440,"position":2,"audio_url":"wbw/044_047_002.mp3","verse_key":"44:47","verse_id":4461,"location":"44:47:2","text_uthmani":"فَٱعْتِلُوهُ","qpc_uthmani_hafs":"فَٱعۡتِلُوهُ","char_type_name":"word","page_number":498,"line_number":5,"text":"فَٱعۡتِلُوهُ","translation":{"text":"and drag him","language_name":"english","language_id":38},"transliteration":{"text":"fa-iʿ'tilūhu","language_name":"english","language_id":38}},{"id":46441,"position":3,"audio_url":"wbw/044_047_003.mp3","verse_key":"44:47","verse_id":4461,"location":"44:47:3","text_uthmani":"إِلَىٰ","qpc_uthmani_hafs":"إِلَىٰ","char_type_name":"word","page_number":498,"line_number":5,"text":"إِلَىٰ","translation":{"text":"into","language_name":"english","language_id":38},"transliteration":{"text":"ilā","language_name":"english","language_id":38}},{"id":46442,"position":4,"audio_url":"wbw/044_047_004.mp3","verse_key":"44:47","verse_id":4461,"location":"44:47:4","text_uthmani":"سَوَآءِ","qpc_uthmani_hafs":"سَوَآءِ","char_type_name":"word","page_number":498,"line_number":5,"text":"سَوَآءِ","translation":{"text":"(the) midst","language_name":"english","language_id":38},"transliteration":{"text":"sawāi","language_name":"english","language_id":38}},{"id":46443,"position":5,"audio_url":"wbw/044_047_005.mp3","verse_key":"44:47","verse_id":4461,"location":"44:47:5","text_uthmani":"ٱلْجَحِيمِ","qpc_uthmani_hafs":"ٱلۡجَحِيمِ","char_type_name":"word","page_number":498,"line_number":5,"text":"ٱلۡجَحِيمِ","translation":{"text":"(of) the Hellfire","language_name":"english","language_id":38},"transliteration":{"text":"l-jaḥīmi","language_name":"english","language_id":38}},{"id":46444,"position":6,"audio_url":null,"verse_key":"44:47","verse_id":4461,"location":"44:47:6","text_uthmani":"٤٧","qpc_uthmani_hafs":"٤٧","char_type_name":"end","page_number":498,"line_number":5,"text":"٤٧","translation":{"text":"(47)","language_name":"english","language_id":38},"transliteration":{"text":null,"language_name":"english","language_id":38}}]},{"id":4462,"verse_number":48,"verse_key":"44:48","hizb_number":50,"rub_el_hizb_number":199,"ruku_number":435,"manzil_number":6,"sajdah_number":null,"page_number":498,"juz_number":25,"words":[{"id":47096,"position":1,"audio_url":"wbw/044_048_001.mp3","verse_key":"44:48","verse_id":4462,"location":"44:48:1","text_uthmani":"ثُمَّ","qpc_uthmani_hafs":"ثُمَّ","char_type_name":"word","page_number":498,"line_number":5,"text":"ثُمَّ","translation":{"text":"Then","language_name":"english","language_id":38},"transliteration":{"text":"thumma","language_name":"english","language_id":38}},{"id":47097,"position":2,"audio_url":"wbw/044_048_002.mp3","verse_key":"44:48","verse_id":4462,"location":"44:48:2","text_uthmani":"صُبُّوا۟","qpc_uthmani_hafs":"صُبُّواْ","char_type_name":"word","page_number":498,"line_number":6,"text":"صُبُّواْ","translation":{"text":"pour","language_name":"english","language_id":38},"transliteration":{"text":"ṣubbū","language_name":"english","language_id":38}},{"id":47098,"position":3,"audio_url":"wbw/044_048_003.mp3","verse_key":"44:48","verse_id":4462,"location":"44:48:3","text_uthmani":"فَوْقَ","qpc_uthmani_hafs":"فَوۡقَ","char_type_name":"word","page_number":498,"line_number":6,"text":"فَوۡقَ","translation":{"text":"over","language_name":"english","language_id":38},"transliteration":{"text":"fawqa","language_name":"english","language_id":38}},{"id":47099,"position":4,"audio_url":"wbw/044_048_004.mp3","verse_key":"44:48","verse_id":4462,"location":"44:48:4","text_uthmani":"رَأْسِهِۦ","qpc_uthmani_hafs":"رَأۡسِهِۦ","char_type_name":"word","page_number":498,"line_number":6,"text":"رَأۡسِهِۦ","translation":{"text":"his head","language_name":"english","language_id":38},"transliteration":{"text":"rasihi","language_name":"english","language_id":38}},{"id":47100,"position":5,"audio_url":"wbw/044_048_005.mp3","verse_key":"44:48","verse_id":4462,"location":"44:48:5","text_uthmani":"مِنْ","qpc_uthmani_hafs":"مِنۡ","char_type_name":"word","page_number":498,"line_number":6,"text":"مِنۡ","translation":{"text":"of","language_name":"english","language_id":38},"transliteration":{"text":"min","language_name":"english","language_id":38}},{"id":47101,"position":6,"audio_url":"wbw/044_048_006.mp3","verse_key":"44:48","verse_id":4462,"location":"44:48:6","text_uthmani":"عَذَابِ","qpc_uthmani_hafs":"عَذَابِ","char_type_name":"word","page_number":498,"line_number":6,"text":"عَذَابِ","translation":{"text":"(the) punishment","language_name":"english","language_id":38},"transliteration":{"text":"ʿadhābi","language_name":"english","language_id":38}},{"id":47102,"position":7,"audio_url":"wbw/044_048_007.mp3","verse_key":"44:48","verse_id":4462,"location":"44:48:7","text_uthmani":"ٱلْحَمِيمِ","qpc_uthmani_hafs":"ٱلۡحَمِيمِ","char_type_name":"word","page_number":498,"line_number":6,"text":"ٱلۡحَمِيمِ","translation":{"text":"(of) the scalding water","language_name":"english","language_id":38},"transliteration":{"text":"l-ḥamīmi","language_name":"english","language_id":38}},{"id":47103,"position":8,"audio_url":null,"verse_key":"44:48","verse_id":4462,"location":"44:48:8","text_uthmani":"٤٨","qpc_uthmani_hafs":"٤٨","char_type_name":"end","page_number":498,"line_number":6,"text":"٤٨","translation":{"text":"(48)","language_name":"english","language_id":38},"transliteration":{"text":null,"language_name":"english","language_id":38}}]},{"id":4463,"verse_number":49,"verse_key":"44:49","hizb_number":50,"rub_el_hizb_number":199,"ruku_number":435,"manzil_number":6,"sajdah_number":null,"page_number":498,"juz_number":25,"words":[{"id":47928,"position":1,"audio_url":"wbw/044_049_001.mp3","verse_key":"44:49","verse_id":4463,"location":"44:49:1","text_uthmani":"ذُقْ","qpc_uthmani_hafs":"ذُقۡ","char_type_name":"word","page_number":498,"line_number":6,"text":"ذُقۡ","translation":{"text":"Taste","language_name":"english","language_id":38},"transliteration":{"text":"dhuq","language_name":"english","language_id":38}},{"id":47929,"position":2,"audio_url":"wbw/044_049_002.mp3","verse_key":"44:49","verse_id":4463,"location":"44:49:2","text_uthmani":"إِنَّكَ","qpc_uthmani_hafs":"إِنَّكَ","char_type_name":"word","page_number":498,"line_number":6,"text":"إِنَّكَ","translation":{"text":"Indeed, you","language_name":"english","language_id":38},"transliteration":{"text":"innaka","language_name":"english","language_id":38}},{"id":47930,"position":3,"audio_url":"wbw/044_049_003.mp3","verse_key":"44:49","verse_id":4463,"location":"44:49:3","text_uthmani":"أَنتَ","qpc_uthmani_hafs":"أَنتَ","char_type_name":"word","page_number":498,"line_number":7,"text":"أَنتَ","translation":{"text":"[you] (were)","language_name":"english","language_id":38},"transliteration":{"text":"anta","language_name":"english","language_id":38}},{"id":47931,"position":4,"audio_url":"wbw/044_049_004.mp3","verse_key":"44:49","verse_id":4463,"location":"44:49:4","text_uthmani":"ٱلْعَزِيزُ","qpc_uthmani_hafs":"ٱلۡعَزِيزُ","char_type_name":"word","page_number":498,"line_number":7,"text":"ٱلۡعَزِيزُ","translation":{"text":"the mighty","language_name":"english","language_id":38},"transliteration":{"text":"l-ʿazīzu","language_name":"english","language_id":38}},{"id":47932,"position":5,"audio_url":"wbw/044_049_005.mp3","verse_key":"44:49","verse_id":4463,"location":"44:49:5","text_uthmani":"ٱلْكَرِيمُ","qpc_uthmani_hafs":"ٱلۡكَرِيمُ","char_type_name":"word","page_number":498,"line_number":7,"text":"ٱلۡكَرِيمُ","translation":{"text":"the noble","language_name":"english","language_id":38},"transliteration":{"text":"l-karīmu","language_name":"english","language_id":38}},{"id":47933,"position":6,"audio_url":null,"verse_key":"44:49","verse_id":4463,"location":"44:49:6","text_uthmani":"٤٩","qpc_uthmani_hafs":"٤٩","char_type_name":"end","page_number":498,"line_number":7,"text":"٤٩","translation":{"text":"(49)","language_name":"english","language_id":38},"transliteration":{"text":null,"language_name":"english","language_id":38}}]},{"id":4464,"verse_number":50,"verse_key":"44:50","hizb_number":50,"rub_el_hizb_number":199,"ruku_number":435,"manzil_number":6,"sajdah_number":null,"page_number":498,"juz_number":25,"words":[{"id":48457,"position":1,"audio_url":"wbw/044_050_001.mp3","verse_key":"44:50","verse_id":4464,"location":"44:50:1","text_uthmani":"إِنَّ","qpc_uthmani_hafs":"إِنَّ","char_type_name":"word","page_number":498,"line_number":7,"text":"إِنَّ","translation":{"text":"Indeed","language_name":"english","language_id":38},"transliteration":{"text":"inna","language_name":"english","language_id":38}},{"id":48458,"position":2,"audio_url":"wbw/044_050_002.mp3","verse_key":"44:50","verse_id":4464,"location":"44:50:2","text_uthmani":"هَـٰذَا","qpc_uthmani_hafs":"هَٰذَا","char_type_name":"word","page_number":498,"line_number":7,"text":"هَٰذَا","translation":{"text":"this","language_name":"english","language_id":38},"transliteration":{"text":"hādhā","language_name":"english","language_id":38}},{"id":48459,"position":3,"audio_url":"wbw/044_050_003.mp3","verse_key":"44:50","verse_id":4464,"location":"44:50:3","text_uthmani":"مَا","qpc_uthmani_hafs":"مَا","char_type_name":"word","page_number":498,"line_number":7,"text":"مَا","translation":{"text":"(is) what","language_name":"english","language_id":38},"transliteration":{"text":"mā","language_name":"english","language_id":38}},{"id":48460,"position":4,"audio_url":"wbw/044_050_004.mp3","verse_key":"44:50","verse_id":4464,"location":"44:50:4","text_uthmani":"كُنتُم","qpc_uthmani_hafs":"كُنتُم","char_type_name":"word","page_number":498,"line_number":7,"text":"كُنتُم","translation":{"text":"you used to","language_name":"english","language_id":38},"transliteration":{"text":"kuntum","language_name":"english","language_id":38}},{"id":48461,"position":5,"audio_url":"wbw/044_050_005.mp3","verse_key":"44:50","verse_id":4464,"location":"44:50:5","text_uthmani":"بِهِۦ","qpc_uthmani_hafs":"بِهِۦ","char_type_name":"word","page_number":498,"line_number":7,"text":"بِهِۦ","translation":{"text":"[about it]","language_name":"english","language_id":38},"transliteration":{"text":"bihi","language_name":"english","language_id":38}},{"id":48462,"position":6,"audio_url":"wbw/044_050_006.mp3","verse_key":"44:50","verse_id":4464,"location":"44:50:6","text_uthmani":"تَمْتَرُونَ","qpc_uthmani_hafs":"تَمۡتَرُونَ","char_type_name":"word","page_number":498,"line_number":7,"text":"تَمۡتَرُونَ","translation":{"text":"doubt","language_name":"english","language_id":38},"transliteration":{"text":"tamtarūna","language_name":"english","language_id":38}},{"id":48463,"position":7,"audio_url":null,"verse_key":"44:50","verse_id":4464,"location":"44:50:7","text_uthmani":"٥٠","qpc_uthmani_hafs":"٥٠","char_type_name":"end","page_number":498,"line_number":8,"text":"٥٠","translation":{"text":"(50)","language_name":"english","language_id":38},"transliteration":{"text":null,"language_name":"english","language_id":38}}]}],"pagination":{"per_page":10,"current_page":5,"next_page":6,"total_pages":6,"total_records":59}}
