{"verses":[{"id":3604,"verse_number":71,"verse_key":"33:71","hizb_number":43,"rub_el_hizb_number":171,"ruku_number":371,"manzil_number":5,"sajdah_number":null,"page_number":427,"juz_number":22,"words":[{"id":60227,"position":1,"audio_url":"wbw/033_071_001.mp3","verse_key":"33:71","verse_id":3604,"location":"33:71:1","text_uthmani":"يُصْلِحْ","qpc_uthmani_hafs":"يُصۡلِحۡ","char_type_name":"word","page_number":427,"line_number":9,"text":"يُصۡلِحۡ","translation":{"text":"He will amend","language_name":"english","language_id":38},"transliteration":{"text":"yuṣ'liḥ","language_name":"english","language_id":38}},{"id":60228,"position":2,"audio_url":"wbw/033_071_002.mp3","verse_key":"33:71","verse_id":3604,"location":"33:71:2","text_uthmani":"لَكُمْ","qpc_uthmani_hafs":"لَكُمۡ","char_type_name":"word","page_number":427,"line_number":10,"text":"لَكُمۡ","translation":{"text":"for you","language_name":"english","language_id":38},"transliteration":{"text":"lakum","language_name":"english","language_id":38}},{"id":60229,"position":3,"audio_url":"wbw/033_071_003.mp3","verse_key":"33:71","verse_id":3604,"location":"33:71:3","text_uthmani":"أَعْمَـٰلَكُمْ","qpc_uthmani_hafs":"أَعۡمَٰلَكُمۡ","char_type_name":"word","page_number":427,"line_number":10,"text":"أَعۡمَٰلَكُمۡ","translation":{"text":"your deeds","language_name":"english","language_id":38},"transliteration":{"text":"aʿmālakum","language_name":"english","language_id":38}},{"id":60230,"position":4,"audio_url":"wbw/033_071_004.mp3","verse_key":"33:71","verse_id":3604,"location":"33:71:4","text_uthmani":"وَيَغْفِرْ","qpc_uthmani_hafs":"وَيَغۡفِرۡ","char_type_name":"word","page_number":427,"line_number":10,"text":"وَيَغۡفِرۡ","translation":{"text":"and forgive","language_name":"english","language_id":38},"transliteration":{"text":"wayaghfir","language_name":"english","language_id":38}},{"id":60231,"position":5,"audio_url":"wbw/033_071_005.mp3","verse_key":"33:71","verse_id":3604,"location":"33:71:5","text_uthmani":"لَكُمْ","qpc_uthmani_hafs":"لَكُمۡ","char_type_name":"word","page_number":427,"line_number":10,"text":"لَكُمۡ","translation":{"text":"for you","language_name":"english","language_id":38},"transliteration":{"text":"lakum","language_name":"english","language_id":38}},{"id":60232,"position":6,"audio_url":"wbw/033_071_006.mp3","verse_key":"33:71","verse_id":3604,"location":"33:71:6","text_uthmani":"ذُنُوبَكُمْ ۗ","qpc_uthmani_hafs":"ذُنُوبَكُمۡۗ","char_type_name":"word","page_number":427,"line_number":10,"text":"ذُنُوبَكُمۡۗ","translation":{"text":"your sins","language_name":"english","language_id":38},"transliteration":{"text":"dhunūbakum","language_name":"english","language_id":38}},{"id":60234,"position":7,"audio_url":"wbw/033_071_008.mp3","verse_key":"33:71","verse_id":3604,"location":"33:71:7","text_uthmani":"وَمَن","qpc_uthmani_hafs":"وَمَن","char_type_name":"word","page_number":427,"line_number":10,"text":"وَمَن","translation":{"text":"And whoever","language_name":"english","language_id":38},"transliteration":{"text":"waman","language_name":"english","language_id":38}},{"id":60235,"position":8,"audio_url":"wbw/033_071_009.mp3","verse_key":"33:71","verse_id":3604,"location":"33:71:8","text_uthmani":"يُطِعِ","qpc_uthmani_hafs":"يُطِعِ","char_type_name":"word","page_number":427,"line_number":10,"text":"يُطِعِ","translation":{"text":"obeys","language_name":"english","language_id":38},"transliteration":{"text":"yuṭiʿi","language_name":"english","language_id":38}},{"id":60236,"position":9,"audio_url":"wbw/033_071_010.mp3","verse_key":"33:71","verse_id":3604,"location":"33:71:9","text_uthmani":"ٱللَّهَ","qpc_uthmani_hafs":"ٱللَّهَ","char_type_name":"word","page_number":427,"line_number":10,"text":"ٱللَّهَ","translation":{"text":"Allah","language_name":"english","language_id":38},"transliteration":{"text":"l-laha","language_name":"english","language_id":38}},{"id":60237,"position":10,"audio_url":"wbw/033_071_011.mp3","verse_key":"33:71","verse_id":3604,"location":"33:71:10","text_uthmani":"وَرَسُولَهُۥ","qpc_uthmani_hafs":"وَرَسُولَهُۥ","char_type_name":"word","page_number":427,"line_number":10,"text":"وَرَسُولَهُۥ","translation":{"text":"and His Messenger","language_name":"english","language_id":38},"transliteration":{"text":"warasūlahu","language_name":"english","language_id":38}},{"id":60238,"position":11,"audio_url":"wbw/033_071_012.mp3","verse_key":"33:71","verse_id":3604,"location":"33:71:11","text_uthmani":"فَقَدْ","qpc_uthmani_hafs":"فَقَدۡ","char_type_name":"word","page_number":427,"line_number":11,"text":"فَقَدۡ","translation":{"text":"certainly","language_name":"english","language_id":38},"transliteration":{"text":"faqad","language_name":"english","language_id":38}},{"id":60239,"position":12,"audio_url":"wbw/033_071_013.mp3","verse_key":"33:71","verse_id":3604,"location":"33:71:12","text_uthmani":"فَازَ","qpc_uthmani_hafs":"فَازَ","char_type_name":"word","page_number":427,"line_number":11,"text":"فَازَ","translation":{"text":"has attained","language_name":"english","language_id":38},"transliteration":{"text":"fāza","language_name":"english","language_id":38}},{"id":60240,"position":13,"audio_url":"wbw/033_071_014.mp3","verse_key":"33:71","verse_id":3604,"location":"33:71:13","text_uthmani":"فَوْزًا","qpc_uthmani_hafs":"فَوۡزًا","char_type_name":"word","page_number":427,"line_number":11,"text":"فَوۡزًا","translation":{"text":"an attainment","language_name":"english","language_id":38},"transliteration":{"text":"fawzan","language_name":"english","language_id":38}},{"id":60241,"position":14,"audio_url":"wbw/033_071_015.mp3","verse_key":"33:71","verse_id":3604,"location":"33:71:14","text_uthmani":"عَظِيمًا","qpc_uthmani_hafs":"عَظِيمًا","char_type_name":"word","page_number":427,"line_number":11,"text":"عَظِيمًا","translation":{"text":"great","language_name":"english","language_id":38},"transliteration":{"text":"ʿaẓīman","language_name":"english","language_id":38}},{"id":60242,"position":15,"audio_url":null,"verse_key":"33:71","verse_id":3604,"location":"33:71:15","text_uthmani":"٧١","qpc_uthmani_hafs":"٧١","char_type_name":"end","page_number":427,"line_number":11,"text":"٧١","translation":{"text":"(71)","language_name":"english","language_id":38},"transliteration":{"text":null,"language_name":"english","language_id":38}}]},{"id":3605,"verse_number":72,"verse_key":"33:72","hizb_number":43,"rub_el_hizb_number":171,"ruku_number":371,"manzil_number":5,"sajdah_number":null,"page_number":427,"juz_number":22,"words":[{"id":60810,"position":1,"audio_url":"wbw/033_072_001.mp3","verse_key":"33:72","verse_id":3605,"location":"33:72:1","text_uthmani":"إِنَّا","qpc_uthmani_hafs":"إِنَّا","char_type_name":"word","page_number":427,"line_number":11,"text":"إِنَّا","translation":{"text":"Indeed, We","language_name":"english","language_id":38},"transliteration":{"text":"innā","language_name":"english","language_id":38}},{"id":60811,"position":2,"audio_url":"wbw/033_072_002.mp3","verse_key":"33:72","verse_id":3605,"location":"33:72:2","text_uthmani":"عَرَضْنَا","qpc_uthmani_hafs":"عَرَضۡنَا","char_type_name":"word","page_number":427,"line_number":11,"text":"عَرَضۡنَا","translation":{"text":"[We] offered","language_name":"english","language_id":38},"transliteration":{"text":"ʿaraḍnā","language_name":"english","language_id":38}},{"id":60812,"position":3,"audio_url":"wbw/033_072_003.mp3","verse_key":"33:72","verse_id":3605,"location":"33:72:3","text_uthmani":"ٱلْأَمَانَةَ","qpc_uthmani_hafs":"ٱلۡأَمَانَةَ","char_type_name":"word","page_number":427,"line_number":11,"text":"ٱلۡأَمَانَةَ","translation":{"text":"the Trust","language_name":"english","language_id":38},"transliteration":{"text":"l-amānata","language_name":"english","language_id":38}},{"id":60813,"position":4,"audio_url":"wbw/033_072_004.mp3","verse_key":"33:72","verse_id":3605,"location":"33:72:4","text_uthmani":"عَلَى","qpc_uthmani_hafs":"عَلَى","char_type_name":"word","page_number":427,"line_number":11,"text":"عَلَى","translation":{"text":"to","language_name":"english","language_id":38},"transliteration":{"text":"ʿalā","language_name":"english","language_id":38}},{"id":60814,"position":5,"audio_url":"wbw/033_072_005.mp3","verse_key":"33:72","verse_id":3605,"location":"33:72:5","text_uthmani":"ٱلسَّمَـٰوَٰتِ","qpc_uthmani_hafs":"ٱلسَّمَٰوَٰتِ","char_type_name":"word","page_number":427,"line_number":11,"text":"ٱلسَّمَٰوَٰتِ","translation":{"text":"the heavens","language_name":"english","language_id":38},"transliteration":{"text":"l-samāwāti","language_name":"english","language_id":38}},{"id":60815,"position":6,"audio_url":"wbw/033_072_006.mp3","verse_key":"33:72","verse_id":3605,"location":"33:72:6","text_uthmani":"وَٱلْأَرْضِ","qpc_uthmani_hafs":"وَٱلۡأَرۡضِ","char_type_name":"word","page_number":427,"line_number":12,"text":"وَٱلۡأَرۡضِ","translation":{"text":"and the earth","language_name":"english","language_id":38},"transliteration":{"text":"wal-arḍi","language_name":"english","language_id":38}},{"id":60816,"position":7,"audio_url":"wbw/033_072_007.mp3","verse_key":"33:72","verse_id":3605,"location":"33:72:7","text_uthmani":"وَٱلْجِبَالِ","qpc_uthmani_hafs":"وَٱلۡجِبَالِ","char_type_name":"word","page_number":427,"line_number":12,"text":"وَٱلۡجِبَالِ","translation":{"text":"and the mountains","language_name":"english","language_id":38},"transliteration":{"text":"wal-jibāli","language_name":"english","language_id":38}},{"id":60817,"position":8,"audio_url":"wbw/033_072_008.mp3","verse_key":"33:72","verse_id":3605,"location":"33:72:8","text_uthmani":"فَأَبَيْنَ","qpc_uthmani_hafs":"فَأَبَيۡنَ","char_type_name":"word","page_number":427,"line_number":12,"text":"فَأَبَيۡنَ","translation":{"text":"but they refused","language_name":"english","language_id":38},"transliteration":{"text":"fa-abayna","language_name":"english","language_id":38}},{"id":60818,"position":9,"audio_url":"wbw/033_072_009.mp3","verse_key":"33:72","verse_id":3605,"location":"33:72:9","text_uthmani":"أَن","qpc_uthmani_hafs":"أَن","char_type_name":"word","page_number":427,"line_number":12,"text":"أَن","translation":{"text":"to","language_name":"english","language_id":38},"transliteration":{"text":"an","language_name":"english","language_id":38}},{"id":60819,"position":10,"audio_url":"wbw/033_072_010.mp3","verse_key":"33:72","verse_id":3605,"location":"33:72:10","text_uthmani":"يَحْمِلْنَهَا","qpc_uthmani_hafs":"يَحۡمِلۡنَهَا","char_type_name":"word","page_number":427,"line_number":12,"text":"يَحۡمِلۡنَهَا","translation":{"text":"bear it","language_name":"english","language_id":38},"transliteration":{"text":"yaḥmil'nahā","language_name":"english","language_id":38}},{"id":60820,"position":11,"audio_url":"wbw/033_072_011.mp3","verse_key":"33:72","verse_id":3605,"location":"33:72:11","text_uthmani":"وَأَشْفَقْنَ","qpc_uthmani_hafs":"وَأَشۡفَقۡنَ","char_type_name":"word","page_number":427,"line_number":12,"text":"وَأَشۡفَقۡنَ","translation":{"text":"and they feared","language_name":"english","language_id":38},"transliteration":{"text":"wa-ashfaqna","language_name":"english","language_id":38}},{"id":60821,"position":12,"audio_url":"wbw/033_072_012.mp3","verse_key":"33:72","verse_id":3605,"location":"33:72:12","text_uthmani":"مِنْهَا","qpc_uthmani_hafs":"مِنۡهَا","char_type_name":"word","page_number":427,"line_number":12,"text":"مِنۡهَا","translation":{"text":"from it","language_name":"english","language_id":38},"transliteration":{"text":"min'hā","language_name":"english","language_id":38}},{"id":60822,"position":13,"audio_url":"wbw/033_072_013.mp3","verse_key":"33:72","verse_id":3605,"location":"33:72:13","text_uthmani":"وَحَمَلَهَا","qpc_uthmani_hafs":"وَحَمَلَهَا","char_type_name":"word","page_number":427,"line_number":12,"text":"وَحَمَلَهَا","translation":{"text":"but bore it","language_name":"english","language_id":38},"transliteration":{"text":"waḥamalahā","language_name":"english","language_id":38}},{"id":60823,"position":14,"audio_url":"wbw/033_072_014.mp3","verse_key":"33:72","verse_id":3605,"location":"33:72:14","text_uthmani":"ٱلْإِنسَـٰنُ ۖ","qpc_uthmani_hafs":"ٱلۡإِنسَٰنُۖ","char_type_name":"word","page_number":427,"line_number":13,"text":"ٱلۡإِنسَٰنُۖ","translation":{"text":"the man","language_name":"english","language_id":38},"transliteration":{"text":"l-insānu","language_name":"english","language_id":38}},{"id":60825,"position":15,"audio_url":"wbw/033_072_016.mp3","verse_key":"33:72","verse_id":3605,"location":"33:72:15","text_uthmani":"إِنَّهُۥ","qpc_uthmani_hafs":"إِنَّهُۥ","char_type_name":"word","page_number":427,"line_number":13,"text":"إِنَّهُۥ","translation":{"text":"Indeed, he","language_name":"english","language_id":38},"transliteration":{"text":"innahu","language_name":"english","language_id":38}},{"id":60826,"position":16,"audio_url":"wbw/033_072_017.mp3","verse_key":"33:72","verse_id":3605,"location":"33:72:16","text_uthmani":"كَانَ","qpc_uthmani_hafs":"كَانَ","char_type_name":"word","page_number":427,"line_number":13,"text":"كَانَ","translation":{"text":"was","language_name":"english","language_id":38},"transliteration":{"text":"kāna","language_name":"english","language_id":38}},{"id":60827,"position":17,"audio_url":"wbw/033_072_018.mp3","verse_key":"33:72","verse_id":3605,"location":"33:72:17","text_uthmani":"ظَلُومًۭا","qpc_uthmani_hafs":"ظَلُومٗا","char_type_name":"word","page_number":427,"line_number":13,"text":"ظَلُومٗا","translation":{"text":"unjust","language_name":"english","language_id":38},"transliteration":{"text":"ẓalūman","language_name":"english","language_id":38}},{"id":60828,"position":18,"audio_url":"wbw/033_072_019.mp3","verse_key":"33:72","verse_id":3605,"location":"33:72:18","text_uthmani":"جَهُولًۭا","qpc_uthmani_hafs":"جَهُولٗا","char_type_name":"word","page_number":427,"line_number":13,"text":"جَهُولٗا","translation":{"text":"ignorant","language_name":"english","language_id":38},"transliteration":{"text":"jahūlan","language_name":"english","language_id":38}},{"id":60829,"position":19,"audio_url":null,"verse_key":"33:72","verse_id":3605,"location":"33:72:19","text_uthmani":"٧٢","qpc_uthmani_hafs":"٧٢","char_type_name":"end","page_number":427,"line_number":13,"text":"٧٢","translation":{"text":"(72)","language_name":"english","language_id":38},"transliteration":{"text":null,"language_name":"english","language_id":38}}]},{"id":3606,"verse_number":73,"verse_key":"33:73","hizb_number":43,"rub_el_hizb_number":171,"ruku_number":371,"manzil_number":5,"sajdah_number":null,"page_number":427,"juz_number":22,"words":[{"id":61321,"position":1,"audio_url":"wbw/033_073_001.mp3","verse_key":"33:73","verse_id":3606,"location":"33:73:1","text_uthmani":"لِّيُعَذِّبَ","qpc_uthmani_hafs":"لِّيُعَذِّبَ","char_type_name":"word","page_number":427,"line_number":13,"text":"لِّيُعَذِّبَ","translation":{"text":"So that Allah may punish","language_name":"english","language_id":38},"transliteration":{"text":"liyuʿadhiba","language_name":"english","language_id":38}},{"id":61322,"position":2,"audio_url":"wbw/033_073_002.mp3","verse_key":"33:73","verse_id":3606,"location":"33:73:2","text_uthmani":"ٱللَّهُ","qpc_uthmani_hafs":"ٱللَّهُ","char_type_name":"word","page_number":427,"line_number":13,"text":"ٱللَّهُ","translation":{"text":"So that Allah may punish","language_name":"english","language_id":38},"transliteration":{"text":"l-lahu","language_name":"english","language_id":38}},{"id":61323,"position":3,"audio_url":"wbw/033_073_003.mp3","verse_key":"33:73","verse_id":3606,"location":"33:73:3","text_uthmani":"ٱلْمُنَـٰفِقِينَ","qpc_uthmani_hafs":"ٱلۡمُنَٰفِقِينَ","char_type_name":"word","page_number":427,"line_number":13,"text":"ٱلۡمُنَٰفِقِينَ","translation":{"text":"the hypocrite men","language_name":"english","language_id":38},"transliteration":{"text":"l-munāfiqīna","language_name":"english","language_id":38}},{"id":61324,"position":4,"audio_url":"wbw/033_073_004.mp3","verse_key":"33:73","verse_id":3606,"location":"33:73:4","text_uthmani":"وَٱلْمُنَـٰفِقَـٰتِ","qpc_uthmani_hafs":"وَٱلۡمُنَٰفِقَٰتِ","char_type_name":"word","page_number":427,"line_number":14,"text":"وَٱلۡمُنَٰفِقَٰتِ","translation":{"text":"and the hypocrite women","language_name":"english","language_id":38},"transliteration":{"text":"wal-munāfiqāti","language_name":"english","language_id":38}},{"id":61325,"position":5,"audio_url":"wbw/033_073_005.mp3","verse_key":"33:73","verse_id":3606,"location":"33:73:5","text_uthmani":"وَٱلْمُشْرِكِينَ","qpc_uthmani_hafs":"وَٱلۡمُشۡرِكِينَ","char_type_name":"word","page_number":427,"line_number":14,"text":"وَٱلۡمُشۡرِكِينَ","translation":{"text":"and the polytheist men","language_name":"english","language_id":38},"transliteration":{"text":"wal-mush'rikīna","language_name":"english","language_id":38}},{"id":61326,"position":6,"audio_url":"wbw/033_073_006.mp3","verse_key":"33:73","verse_id":3606,"location":"33:73:6","text_uthmani":"وَٱلْمُشْرِكَـٰتِ","qpc_uthmani_hafs":"وَٱلۡمُشۡرِكَٰتِ","char_type_name":"word","page_number":427,"line_number":14,"text":"وَٱلۡمُشۡرِكَٰتِ","translation":{"text":"and the polytheist women","language_name":"english","language_id":38},"transliteration":{"text":"wal-mush'rikāti","language_name":"english","language_id":38}},{"id":61327,"position":7,"audio_url":"wbw/033_073_007.mp3","verse_key":"33:73","verse_id":3606,"location":"33:73:7","text_uthmani":"وَيَتُوبَ","qpc_uthmani_hafs":"وَيَتُوبَ","char_type_name":"word","page_number":427,"line_number":14,"text":"وَيَتُوبَ","translation":{"text":"and Allah will turn (in Mercy)","language_name":"english","language_id":38},"transliteration":{"text":"wayatūba","language_name":"english","language_id":38}},{"id":61328,"position":8,"audio_url":"wbw/033_073_008.mp3","verse_key":"33:73","verse_id":3606,"location":"33:73:8","text_uthmani":"ٱللَّهُ","qpc_uthmani_hafs":"ٱللَّهُ","char_type_name":"word","page_number":427,"line_number":14,"text":"ٱللَّهُ","translation":{"text":"and Allah will turn (in Mercy)","language_name":"english","language_id":38},"transliteration":{"text":"l-lahu","language_name":"english","language_id":38}},{"id":61329,"position":9,"audio_url":"wbw/033_073_009.mp3","verse_key":"33:73","verse_id":3606,"location":"33:73:9","text_uthmani":"عَلَى","qpc_uthmani_hafs":"عَلَى","char_type_name":"word","page_number":427,"line_number":15,"text":"عَلَى","translation":{"text":"to","language_name":"english","language_id":38},"transliteration":{"text":"ʿalā","language_name":"english","language_id":38}},{"id":61330,"position":10,"audio_url":"wbw/033_073_010.mp3","verse_key":"33:73","verse_id":3606,"location":"33:73:10","text_uthmani":"ٱلْمُؤْمِنِينَ","qpc_uthmani_hafs":"ٱلۡمُؤۡمِنِينَ","char_type_name":"word","page_number":427,"line_number":15,"text":"ٱلۡمُؤۡمِنِينَ","translation":{"text":"the believing men","language_name":"english","language_id":38},"transliteration":{"text":"l-mu'minīna","language_name":"english","language_id":38}},{"id":61331,"position":11,"audio_url":"wbw/033_073_011.mp3","verse_key":"33:73","verse_id":3606,"location":"33:73:11","text_uthmani":"وَٱلْمُؤْمِنَـٰتِ ۗ","qpc_uthmani_hafs":"وَٱلۡمُؤۡمِنَٰتِۗ","char_type_name":"word","page_number":427,"line_number":15,"text":"وَٱلۡمُؤۡمِنَٰتِۗ","translation":{"text":"and the believing women","language_name":"english","language_id":38},"transliteration":{"text":"wal-mu'mināti","language_name":"english","language_id":38}},{"id":61333,"position":12,"audio_url":"wbw/033_073_013.mp3","verse_key":"33:73","verse_id":3606,"location":"33:73:12","text_uthmani":"وَكَانَ","qpc_uthmani_hafs":"وَكَانَ","char_type_name":"word","page_number":427,"line_number":15,"text":"وَكَانَ","translation":{"text":"And Allah is","language_name":"english","language_id":38},"transliteration":{"text":"wakāna","language_name":"english","language_id":38}},{"id":61334,"position":13,"audio_url":"wbw/033_073_014.mp3","verse_key":"33:73","verse_id":3606,"location":"33:73:13","text_uthmani":"ٱللَّهُ","qpc_uthmani_hafs":"ٱللَّهُ","char_type_name":"word","page_number":427,"line_number":15,"text":"ٱللَّهُ","translation":{"text":"And Allah is","language_name":"english","language_id":38},"transliteration":{"text":"l-lahu","language_name":"english","language_id":38}},{"id":61335,"position":14,"audio_url":"wbw/033_073_015.mp3","verse_key":"33:73","verse_id":3606,"location":"33:73:14","text_uthmani":"غَفُورًۭا","qpc_uthmani_hafs":"غَفُورٗا","char_type_name":"word","page_number":427,"line_number":15,"text":"غَفُورٗا","translation":{"text":"Oft-Forgiving","language_name":"english","language_id":38},"transliteration":{"text":"ghafūran","language_name":"english","language_id":38}},{"id":61336,"position":15,"audio_url":"wbw/033_073_016.mp3","verse_key":"33:73","verse_id":3606,"location":"33:73:15","text_uthmani":"رَّحِيمًۢا","qpc_uthmani_hafs":"رَّحِيمَۢا","char_type_name":"word","page_number":427,"line_number":15,"text":"رَّحِيمَۢا","translation":{"text":"Most Merciful","language_name":"english","language_id":38},"transliteration":{"text":"raḥīman","language_name":"english","language_id":38}},{"id":61337,"position":16,"audio_url":null,"verse_key":"33:73","verse_id":3606,"location":"33:73:16","text_uthmani":"٧٣","qpc_uthmani_hafs":"٧٣","char_type_name":"end","page_number":427,"line_number":15,"text":"٧٣","translation":{"text":"(73)","language_name":"english","language_id":38},"transliteration":{"text":null,"language_name":"english","language_id":38}}]}],"pagination":{"per_page":10,"current_page":8,"next_page":null,"total_pages":8,"total_records":73}}
