{"verses":[{"id":5552,"verse_number":1,"verse_key":"75:1","hizb_number":58,"rub_el_hizb_number":231,"ruku_number":514,"manzil_number":7,"sajdah_number":null,"page_number":577,"juz_number":29,"words":[{"id":634,"position":1,"audio_url":"wbw/075_001_001.mp3","verse_key":"75:1","verse_id":5552,"location":"75:1:1","text_uthmani":"لَآ","qpc_uthmani_hafs":"لَآ","char_type_name":"word","page_number":577,"line_number":8,"text":"لَآ","translation":{"text":"Nay","language_name":"english","language_id":38},"transliteration":{"text":"lā","language_name":"english","language_id":38}},{"id":635,"position":2,"audio_url":"wbw/075_001_002.mp3","verse_key":"75:1","verse_id":5552,"location":"75:1:2","text_uthmani":"أُقْسِمُ","qpc_uthmani_hafs":"أُقۡسِمُ","char_type_name":"word","page_number":577,"line_number":8,"text":"أُقۡسِمُ","translation":{"text":"I swear","language_name":"english","language_id":38},"transliteration":{"text":"uq'simu","language_name":"english","language_id":38}},{"id":636,"position":3,"audio_url":"wbw/075_001_003.mp3","verse_key":"75:1","verse_id":5552,"location":"75:1:3","text_uthmani":"بِيَوْمِ","qpc_uthmani_hafs":"بِيَوۡمِ","char_type_name":"word","page_number":577,"line_number":8,"text":"بِيَوۡمِ","translation":{"text":"by (the) Day","language_name":"english","language_id":38},"transliteration":{"text":"biyawmi","language_name":"english","language_id":38}},{"id":637,"position":4,"audio_url":"wbw/075_001_004.mp3","verse_key":"75:1","verse_id":5552,"location":"75:1:4","text_uthmani":"ٱلْقِيَـٰمَةِ","qpc_uthmani_hafs":"ٱلۡقِيَٰمَةِ","char_type_name":"word","page_number":577,"line_number":8,"text":"ٱلۡقِيَٰمَةِ","translation":{"text":"(of) the Resurrection","language_name":"english","language_id":38},"transliteration":{"text":"l-qiyāmati","language_name":"english","language_id":38}},{"id":638,"position":5,"audio_url":null,"verse_key":"75:1","verse_id":5552,"location":"75:1:5","text_uthmani":"١","qpc_uthmani_hafs":"١","char_type_name":"end","page_number":577,"line_number":8,"text":"١","translation":{"text":"(1)","language_name":"english","language_id":38},"transliteration":{"text":null,"language_name":"english","language_id":38}}]},{"id":5553,"verse_number":2,"verse_key":"75:2","hizb_number":58,"rub_el_hizb_number":231,"ruku_number":514,"manzil_number":7,"sajdah_number":null,"page_number":577,"juz_number":29,"words":[{"id":1616,"position":1,"audio_url":"wbw/075_002_001.mp3","verse_key":"75:2","verse_id":5553,"location":"75:2:1","text_uthmani":"وَلَآ","qpc_uthmani_hafs":"وَلَآ","char_type_name":"word","page_number":577,"line_number":8,"text":"وَلَآ","translation":{"text":"And nay","language_name":"english","language_id":38},"transliteration":{"text":"walā","language_name":"english","language_id":38}},{"id":1617,"position":2,"audio_url":"wbw/075_002_002.mp3","verse_key":"75:2","verse_id":5553,"location":"75:2:2","text_uthmani":"أُقْسِمُ","qpc_uthmani_hafs":"أُقۡسِمُ","char_type_name":"word","page_number":577,"line_number":8,"text":"أُقۡسِمُ","translation":{"text":"I swear","language_name":"english","language_id":38},"transliteration":{"text":"uq'simu","language_name":"english","language_id":38}},{"id":1618,"position":3,"audio_url":"wbw/075_002_003.mp3","verse_key":"75:2","verse_id":5553,"location":"75:2:3","text_uthmani":"بِٱلنَّفْسِ","qpc_uthmani_hafs":"بِٱلنَّفۡسِ","char_type_name":"word","page_number":577,"line_number":8,"text":"بِٱلنَّفۡسِ","translation":{"text":"by the soul","language_name":"english","language_id":38},"transliteration":{"text":"bil-nafsi","language_name":"english","language_id":38}},{"id":1619,"position":4,"audio_url":"wbw/075_002_004.mp3","verse_key":"75:2","verse_id":5553,"location":"75:2:4","text_uthmani":"ٱللَّوَّامَةِ","qpc_uthmani_hafs":"ٱللَّوَّامَةِ","char_type_name":"word","page_number":577,"line_number":8,"text":"ٱللَّوَّامَةِ","translation":{"text":"self-accusing","language_name":"english","language_id":38},"transliteration":{"text":"l-lawāmati","language_name":"english","language_id":38}},{"id":1620,"position":5,"audio_url":null,"verse_key":"75:2","verse_id":5553,"location":"75:2:5","text_uthmani":"٢","qpc_uthmani_hafs":"٢","char_type_name":"end","page_number":577,"line_number":8,"text":"٢","translation":{"text":"(2)","language_name":"english","language_id":38},"transliteration":{"text":null,"language_name":"english","language_id":38}}]},{"id":5554,"verse_number":3,"verse_key":"75:3","hizb_number":58,"rub_el_hizb_number":231,"ruku_number":514,"manzil_number":7,"sajdah_number":null,"page_number":577,"juz_number":29,"words":[{"id":2639,"position":1,"audio_url":"wbw/075_003_001.mp3","verse_key":"75:3","verse_id":5554,"location":"75:3:1","text_uthmani":"أَيَحْسَبُ","qpc_uthmani_hafs":"أَيَحۡسَبُ","char_type_name":"word","page_number":577,"line_number":8,"text":"أَيَحۡسَبُ","translation":{"text":"Does think","language_name":"english","language_id":38},"transliteration":{"text":"ayaḥsabu","language_name":"english","language_id":38}},{"id":2640,"position":2,"audio_url":"wbw/075_003_002.mp3","verse_key":"75:3","verse_id":5554,"location":"75:3:2","text_uthmani":"ٱلْإِنسَـٰنُ","qpc_uthmani_hafs":"ٱلۡإِنسَٰنُ","char_type_name":"word","page_number":577,"line_number":9,"text":"ٱلۡإِنسَٰنُ","translation":{"text":"[the] man","language_name":"english","language_id":38},"transliteration":{"text":"l-insānu","language_name":"english","language_id":38}},{"id":2641,"position":3,"audio_url":"wbw/075_003_003.mp3","verse_key":"75:3","verse_id":5554,"location":"75:3:3","text_uthmani":"أَلَّن","qpc_uthmani_hafs":"أَلَّن","char_type_name":"word","page_number":577,"line_number":9,"text":"أَلَّن","translation":{"text":"that not","language_name":"english","language_id":38},"transliteration":{"text":"allan","language_name":"english","language_id":38}},{"id":2642,"position":4,"audio_url":"wbw/075_003_004.mp3","verse_key":"75:3","verse_id":5554,"location":"75:3:4","text_uthmani":"نَّجْمَعَ","qpc_uthmani_hafs":"نَّجۡمَعَ","char_type_name":"word","page_number":577,"line_number":9,"text":"نَّجۡمَعَ","translation":{"text":"We will assemble","language_name":"english","language_id":38},"transliteration":{"text":"najmaʿa","language_name":"english","language_id":38}},{"id":2643,"position":5,"audio_url":"wbw/075_003_005.mp3","verse_key":"75:3","verse_id":5554,"location":"75:3:5","text_uthmani":"عِظَامَهُۥ","qpc_uthmani_hafs":"عِظَامَهُۥ","char_type_name":"word","page_number":577,"line_number":9,"text":"عِظَامَهُۥ","translation":{"text":"his bones","language_name":"english","language_id":38},"transliteration":{"text":"ʿiẓāmahu","language_name":"english","language_id":38}},{"id":2644,"position":6,"audio_url":null,"verse_key":"75:3","verse_id":5554,"location":"75:3:6","text_uthmani":"٣","qpc_uthmani_hafs":"٣","char_type_name":"end","page_number":577,"line_number":9,"text":"٣","translation":{"text":"(3)","language_name":"english","language_id":38},"transliteration":{"text":null,"language_name":"english","language_id":38}}]},{"id":5555,"verse_number":4,"verse_key":"75:4","hizb_number":58,"rub_el_hizb_number":231,"ruku_number":514,"manzil_number":7,"sajdah_number":null,"page_number":577,"juz_number":29,"words":[{"id":4048,"position":1,"audio_url":"wbw/075_004_001.mp3","verse_key":"75:4","verse_id":5555,"location":"75:4:1","text_uthmani":"بَلَىٰ","qpc_uthmani_hafs":"بَلَىٰ","char_type_name":"word","page_number":577,"line_number":9,"text":"بَلَىٰ","translation":{"text":"Nay","language_name":"english","language_id":38},"transliteration":{"text":"balā","language_name":"english","language_id":38}},{"id":4049,"position":2,"audio_url":"wbw/075_004_002.mp3","verse_key":"75:4","verse_id":5555,"location":"75:4:2","text_uthmani":"قَـٰدِرِينَ","qpc_uthmani_hafs":"قَٰدِرِينَ","char_type_name":"word","page_number":577,"line_number":9,"text":"قَٰدِرِينَ","translation":{"text":"(We are) Able","language_name":"english","language_id":38},"transliteration":{"text":"qādirīna","language_name":"english","language_id":38}},{"id":4050,"position":3,"audio_url":"wbw/075_004_003.mp3","verse_key":"75:4","verse_id":5555,"location":"75:4:3","text_uthmani":"عَلَىٰٓ","qpc_uthmani_hafs":"عَلَىٰٓ","char_type_name":"word","page_number":577,"line_number":9,"text":"عَلَىٰٓ","translation":{"text":"on","language_name":"english","language_id":38},"transliteration":{"text":"ʿalā","language_name":"english","language_id":38}},{"id":4051,"position":4,"audio_url":"wbw/075_004_004.mp3","verse_key":"75:4","verse_id":5555,"location":"75:4:4","text_uthmani":"أَن","qpc_uthmani_hafs":"أَن","char_type_name":"word","page_number":577,"line_number":9,"text":"أَن","translation":{"text":"that","language_name":"english","language_id":38},"transliteration":{"text":"an","language_name":"english","language_id":38}},{"id":4052,"position":5,"audio_url":"wbw/075_004_005.mp3","verse_key":"75:4","verse_id":5555,"location":"75:4:5","text_uthmani":"نُّسَوِّىَ","qpc_uthmani_hafs":"نُّسَوِّيَ","char_type_name":"word","page_number":577,"line_number":9,"text":"نُّسَوِّيَ","translation":{"text":"We can restore","language_name":"english","language_id":38},"transliteration":{"text":"nusawwiya","language_name":"english","language_id":38}},{"id":4053,"position":6,"audio_url":"wbw/075_004_006.mp3","verse_key":"75:4","verse_id":5555,"location":"75:4:6","text_uthmani":"بَنَانَهُۥ","qpc_uthmani_hafs":"بَنَانَهُۥ","char_type_name":"word","page_number":577,"line_number":9,"text":"بَنَانَهُۥ","translation":{"text":"his fingertips","language_name":"english","language_id":38},"transliteration":{"text":"banānahu","language_name":"english","language_id":38}},{"id":4054,"position":7,"audio_url":null,"verse_key":"75:4","verse_id":5555,"location":"75:4:7","text_uthmani":"٤","qpc_uthmani_hafs":"٤","char_type_name":"end","page_number":577,"line_number":9,"text":"٤","translation":{"text":"(4)","language_name":"english","language_id":38},"transliteration":{"text":null,"language_name":"english","language_id":38}}]},{"id":5556,"verse_number":5,"verse_key":"75:5","hizb_number":58,"rub_el_hizb_number":231,"ruku_number":514,"manzil_number":7,"sajdah_number":null,"page_number":577,"juz_number":29,"words":[{"id":5339,"position":1,"audio_url":"wbw/075_005_001.mp3","verse_key":"75:5","verse_id":5556,"location":"75:5:1","text_uthmani":"بَلْ","qpc_uthmani_hafs":"بَلۡ","char_type_name":"word","page_number":577,"line_number":9,"text":"بَلۡ","translation":{"text":"Nay","language_name":"english","language_id":38},"transliteration":{"text":"bal","language_name":"english","language_id":38}},{"id":5340,"position":2,"audio_url":"wbw/075_005_002.mp3","verse_key":"75:5","verse_id":5556,"location":"75:5:2","text_uthmani":"يُرِيدُ","qpc_uthmani_hafs":"يُرِيدُ","char_type_name":"word","page_number":577,"line_number":10,"text":"يُرِيدُ","translation":{"text":"Desires","language_name":"english","language_id":38},"transliteration":{"text":"yurīdu","language_name":"english","language_id":38}},{"id":5341,"position":3,"audio_url":"wbw/075_005_003.mp3","verse_key":"75:5","verse_id":5556,"location":"75:5:3","text_uthmani":"ٱلْإِنسَـٰنُ","qpc_uthmani_hafs":"ٱلۡإِنسَٰنُ","char_type_name":"word","page_number":577,"line_number":10,"text":"ٱلۡإِنسَٰنُ","translation":{"text":"[the] man","language_name":"english","language_id":38},"transliteration":{"text":"l-insānu","language_name":"english","language_id":38}},{"id":5342,"position":4,"audio_url":"wbw/075_005_004.mp3","verse_key":"75:5","verse_id":5556,"location":"75:5:4","text_uthmani":"لِيَفْجُرَ","qpc_uthmani_hafs":"لِيَفۡجُرَ","char_type_name":"word","page_number":577,"line_number":10,"text":"لِيَفۡجُرَ","translation":{"text":"to give (the) lie","language_name":"english","language_id":38},"transliteration":{"text":"liyafjura","language_name":"english","language_id":38}},{"id":5343,"position":5,"audio_url":"wbw/075_005_005.mp3","verse_key":"75:5","verse_id":5556,"location":"75:5:5","text_uthmani":"أَمَامَهُۥ","qpc_uthmani_hafs":"أَمَامَهُۥ","char_type_name":"word","page_number":577,"line_number":10,"text":"أَمَامَهُۥ","translation":{"text":"(to) what is before him","language_name":"english","language_id":38},"transliteration":{"text":"amāmahu","language_name":"english","language_id":38}},{"id":5344,"position":6,"audio_url":null,"verse_key":"75:5","verse_id":5556,"location":"75:5:6","text_uthmani":"٥","qpc_uthmani_hafs":"٥","char_type_name":"end","page_number":577,"line_number":10,"text":"٥","translation":{"text":"(5)","language_name":"english","language_id":38},"transliteration":{"text":null,"language_name":"english","language_id":38}}]},{"id":5557,"verse_number":6,"verse_key":"75:6","hizb_number":58,"rub_el_hizb_number":231,"ruku_number":514,"manzil_number":7,"sajdah_number":null,"page_number":577,"juz_number":29,"words":[{"id":6555,"position":1,"audio_url":"wbw/075_006_001.mp3","verse_key":"75:6","verse_id":5557,"location":"75:6:1","text_uthmani":"يَسْـَٔلُ","qpc_uthmani_hafs":"يَسۡـَٔلُ","char_type_name":"word","page_number":577,"line_number":10,"text":"يَسۡـَٔلُ","translation":{"text":"He asks","language_name":"english","language_id":38},"transliteration":{"text":"yasalu","language_name":"english","language_id":38}},{"id":6556,"position":2,"audio_url":"wbw/075_006_002.mp3","verse_key":"75:6","verse_id":5557,"location":"75:6:2","text_uthmani":"أَيَّانَ","qpc_uthmani_hafs":"أَيَّانَ","char_type_name":"word","page_number":577,"line_number":10,"text":"أَيَّانَ","translation":{"text":"When","language_name":"english","language_id":38},"transliteration":{"text":"ayyāna","language_name":"english","language_id":38}},{"id":6557,"position":3,"audio_url":"wbw/075_006_003.mp3","verse_key":"75:6","verse_id":5557,"location":"75:6:3","text_uthmani":"يَوْمُ","qpc_uthmani_hafs":"يَوۡمُ","char_type_name":"word","page_number":577,"line_number":10,"text":"يَوۡمُ","translation":{"text":"(is the) Day","language_name":"english","language_id":38},"transliteration":{"text":"yawmu","language_name":"english","language_id":38}},{"id":6558,"position":4,"audio_url":"wbw/075_006_004.mp3","verse_key":"75:6","verse_id":5557,"location":"75:6:4","text_uthmani":"ٱلْقِيَـٰمَةِ","qpc_uthmani_hafs":"ٱلۡقِيَٰمَةِ","char_type_name":"word","page_number":577,"line_number":10,"text":"ٱلۡقِيَٰمَةِ","translation":{"text":"(of) the Resurrection","language_name":"english","language_id":38},"transliteration":{"text":"l-qiyāmati","language_name":"english","language_id":38}},{"id":6559,"position":5,"audio_url":null,"verse_key":"75:6","verse_id":5557,"location":"75:6:5","text_uthmani":"٦","qpc_uthmani_hafs":"٦","char_type_name":"end","page_number":577,"line_number":10,"text":"٦","translation":{"text":"(6)","language_name":"english","language_id":38},"transliteration":{"text":null,"language_name":"english","language_id":38}}]},{"id":5558,"verse_number":7,"verse_key":"75:7","hizb_number":58,"rub_el_hizb_number":231,"ruku_number":514,"manzil_number":7,"sajdah_number":null,"page_number":577,"juz_number":29,"words":[{"id":7950,"position":1,"audio_url":"wbw/075_007_001.mp3","verse_key":"75:7","verse_id":5558,"location":"75:7:1","text_uthmani":"فَإِذَا","qpc_uthmani_hafs":"فَإِذَا","char_type_name":"word","page_number":577,"line_number":10,"text":"فَإِذَا","translation":{"text":"So when","language_name":"english","language_id":38},"transliteration":{"text":"fa-idhā","language_name":"english","language_id":38}},{"id":7951,"position":2,"audio_url":"wbw/075_007_002.mp3","verse_key":"75:7","verse_id":5558,"location":"75:7:2","text_uthmani":"بَرِقَ","qpc_uthmani_hafs":"بَرِقَ","char_type_name":"word","page_number":577,"line_number":10,"text":"بَرِقَ","translation":{"text":"is dazzled","language_name":"english","language_id":38},"transliteration":{"text":"bariqa","language_name":"english","language_id":38}},{"id":7952,"position":3,"audio_url":"wbw/075_007_003.mp3","verse_key":"75:7","verse_id":5558,"location":"75:7:3","text_uthmani":"ٱلْبَصَرُ","qpc_uthmani_hafs":"ٱلۡبَصَرُ","char_type_name":"word","page_number":577,"line_number":11,"text":"ٱلۡبَصَرُ","translation":{"text":"the vision","language_name":"english","language_id":38},"transliteration":{"text":"l-baṣaru","language_name":"english","language_id":38}},{"id":7953,"position":4,"audio_url":null,"verse_key":"75:7","verse_id":5558,"location":"75:7:4","text_uthmani":"٧","qpc_uthmani_hafs":"٧","char_type_name":"end","page_number":577,"line_number":11,"text":"٧","translation":{"text":"(7)","language_name":"english","language_id":38},"transliteration":{"text":null,"language_name":"english","language_id":38}}]},{"id":5559,"verse_number":8,"verse_key":"75:8","hizb_number":58,"rub_el_hizb_number":231,"ruku_number":514,"manzil_number":7,"sajdah_number":null,"page_number":577,"juz_number":29,"words":[{"id":8882,"position":1,"audio_url":"wbw/075_008_001.mp3","verse_key":"75:8","verse_id":5559,"location":"75:8:1","text_uthmani":"وَخَسَفَ","qpc_uthmani_hafs":"وَخَسَفَ","char_type_name":"word","page_number":577,"line_number":11,"text":"وَخَسَفَ","translation":{"text":"And becomes dark","language_name":"english","language_id":38},"transliteration":{"text":"wakhasafa","language_name":"english","language_id":38}},{"id":8883,"position":2,"audio_url":"wbw/075_008_002.mp3","verse_key":"75:8","verse_id":5559,"location":"75:8:2","text_uthmani":"ٱلْقَمَرُ","qpc_uthmani_hafs":"ٱلۡقَمَرُ","char_type_name":"word","page_number":577,"line_number":11,"text":"ٱلۡقَمَرُ","translation":{"text":"the moon","language_name":"english","language_id":38},"transliteration":{"text":"l-qamaru","language_name":"english","language_id":38}},{"id":8884,"position":3,"audio_url":null,"verse_key":"75:8","verse_id":5559,"location":"75:8:3","text_uthmani":"٨","qpc_uthmani_hafs":"٨","char_type_name":"end","page_number":577,"line_number":11,"text":"٨","translation":{"text":"(8)","language_name":"english","language_id":38},"transliteration":{"text":null,"language_name":"english","language_id":38}}]},{"id":5560,"verse_number":9,"verse_key":"75:9","hizb_number":58,"rub_el_hizb_number":231,"ruku_number":514,"manzil_number":7,"sajdah_number":null,"page_number":577,"juz_number":29,"words":[{"id":10117,"position":1,"audio_url":"wbw/075_009_001.mp3","verse_key":"75:9","verse_id":5560,"location":"75:9:1","text_uthmani":"وَجُمِعَ","qpc_uthmani_hafs":"وَجُمِعَ","char_type_name":"word","page_number":577,"line_number":11,"text":"وَجُمِعَ","translation":{"text":"And are joined","language_name":"english","language_id":38},"transliteration":{"text":"wajumiʿa","language_name":"english","language_id":38}},{"id":10118,"position":2,"audio_url":"wbw/075_009_002.mp3","verse_key":"75:9","verse_id":5560,"location":"75:9:2","text_uthmani":"ٱلشَّمْسُ","qpc_uthmani_hafs":"ٱلشَّمۡسُ","char_type_name":"word","page_number":577,"line_number":11,"text":"ٱلشَّمۡسُ","translation":{"text":"the sun","language_name":"english","language_id":38},"transliteration":{"text":"l-shamsu","language_name":"english","language_id":38}},{"id":10119,"position":3,"audio_url":"wbw/075_009_003.mp3","verse_key":"75:9","verse_id":5560,"location":"75:9:3","text_uthmani":"وَٱلْقَمَرُ","qpc_uthmani_hafs":"وَٱلۡقَمَرُ","char_type_name":"word","page_number":577,"line_number":11,"text":"وَٱلۡقَمَرُ","translation":{"text":"and the moon","language_name":"english","language_id":38},"transliteration":{"text":"wal-qamaru","language_name":"english","language_id":38}},{"id":10120,"position":4,"audio_url":null,"verse_key":"75:9","verse_id":5560,"location":"75:9:4","text_uthmani":"٩","qpc_uthmani_hafs":"٩","char_type_name":"end","page_number":577,"line_number":11,"text":"٩","translation":{"text":"(9)","language_name":"english","language_id":38},"transliteration":{"text":null,"language_name":"english","language_id":38}}]},{"id":5561,"verse_number":10,"verse_key":"75:10","hizb_number":58,"rub_el_hizb_number":231,"ruku_number":514,"manzil_number":7,"sajdah_number":null,"page_number":577,"juz_number":29,"words":[{"id":11556,"position":1,"audio_url":"wbw/075_010_001.mp3","verse_key":"75:10","verse_id":5561,"location":"75:10:1","text_uthmani":"يَقُولُ","qpc_uthmani_hafs":"يَقُولُ","char_type_name":"word","page_number":577,"line_number":11,"text":"يَقُولُ","translation":{"text":"Will say","language_name":"english","language_id":38},"transliteration":{"text":"yaqūlu","language_name":"english","language_id":38}},{"id":11557,"position":2,"audio_url":"wbw/075_010_002.mp3","verse_key":"75:10","verse_id":5561,"location":"75:10:2","text_uthmani":"ٱلْإِنسَـٰنُ","qpc_uthmani_hafs":"ٱلۡإِنسَٰنُ","char_type_name":"word","page_number":577,"line_number":11,"text":"ٱلۡإِنسَٰنُ","translation":{"text":"[the] man","language_name":"english","language_id":38},"transliteration":{"text":"l-insānu","language_name":"english","language_id":38}},{"id":11558,"position":3,"audio_url":"wbw/075_010_003.mp3","verse_key":"75:10","verse_id":5561,"location":"75:10:3","text_uthmani":"يَوْمَئِذٍ","qpc_uthmani_hafs":"يَوۡمَئِذٍ","char_type_name":"word","page_number":577,"line_number":12,"text":"يَوۡمَئِذٍ","translation":{"text":"that Day","language_name":"english","language_id":38},"transliteration":{"text":"yawma-idhin","language_name":"english","language_id":38}},{"id":11559,"position":4,"audio_url":"wbw/075_010_004.mp3","verse_key":"75:10","verse_id":5561,"location":"75:10:4","text_uthmani":"أَيْنَ","qpc_uthmani_hafs":"أَيۡنَ","char_type_name":"word","page_number":577,"line_number":12,"text":"أَيۡنَ","translation":{"text":"Where","language_name":"english","language_id":38},"transliteration":{"text":"ayna","language_name":"english","language_id":38}},{"id":11560,"position":5,"audio_url":"wbw/075_010_005.mp3","verse_key":"75:10","verse_id":5561,"location":"75:10:5","text_uthmani":"ٱلْمَفَرُّ","qpc_uthmani_hafs":"ٱلۡمَفَرُّ","char_type_name":"word","page_number":577,"line_number":12,"text":"ٱلۡمَفَرُّ","translation":{"text":"(is) the escape","language_name":"english","language_id":38},"transliteration":{"text":"l-mafaru","language_name":"english","language_id":38}},{"id":11561,"position":6,"audio_url":null,"verse_key":"75:10","verse_id":5561,"location":"75:10:6","text_uthmani":"١٠","qpc_uthmani_hafs":"١٠","char_type_name":"end","page_number":577,"line_number":12,"text":"١٠","translation":{"text":"(10)","language_name":"english","language_id":38},"transliteration":{"text":null,"language_name":"english","language_id":38}}]}],"pagination":{"per_page":10,"current_page":1,"next_page":2,"total_pages":4,"total_records":40}}
