{"verses":[{"id":5562,"verse_number":11,"verse_key":"75:11","hizb_number":58,"rub_el_hizb_number":231,"ruku_number":514,"manzil_number":7,"sajdah_number":null,"page_number":577,"juz_number":29,"words":[{"id":12877,"position":1,"audio_url":"wbw/075_011_001.mp3","verse_key":"75:11","verse_id":5562,"location":"75:11:1","text_uthmani":"كَلَّا","qpc_uthmani_hafs":"كـَلَّا","char_type_name":"word","page_number":577,"line_number":12,"text":"كـَلَّا","translation":{"text":"By no means","language_name":"english","language_id":38},"transliteration":{"text":"kallā","language_name":"english","language_id":38}},{"id":12878,"position":2,"audio_url":"wbw/075_011_002.mp3","verse_key":"75:11","verse_id":5562,"location":"75:11:2","text_uthmani":"لَا","qpc_uthmani_hafs":"لَا","char_type_name":"word","page_number":577,"line_number":12,"text":"لَا","translation":{"text":"(There is) no","language_name":"english","language_id":38},"transliteration":{"text":"lā","language_name":"english","language_id":38}},{"id":12879,"position":3,"audio_url":"wbw/075_011_003.mp3","verse_key":"75:11","verse_id":5562,"location":"75:11:3","text_uthmani":"وَزَرَ","qpc_uthmani_hafs":"وَزَرَ","char_type_name":"word","page_number":577,"line_number":12,"text":"وَزَرَ","translation":{"text":"refuge","language_name":"english","language_id":38},"transliteration":{"text":"wazara","language_name":"english","language_id":38}},{"id":12880,"position":4,"audio_url":null,"verse_key":"75:11","verse_id":5562,"location":"75:11:4","text_uthmani":"١١","qpc_uthmani_hafs":"١١","char_type_name":"end","page_number":577,"line_number":12,"text":"١١","translation":{"text":"(11)","language_name":"english","language_id":38},"transliteration":{"text":null,"language_name":"english","language_id":38}}]},{"id":5563,"verse_number":12,"verse_key":"75:12","hizb_number":58,"rub_el_hizb_number":231,"ruku_number":514,"manzil_number":7,"sajdah_number":null,"page_number":577,"juz_number":29,"words":[{"id":14131,"position":1,"audio_url":"wbw/075_012_001.mp3","verse_key":"75:12","verse_id":5563,"location":"75:12:1","text_uthmani":"إِلَىٰ","qpc_uthmani_hafs":"إِلَىٰ","char_type_name":"word","page_number":577,"line_number":12,"text":"إِلَىٰ","translation":{"text":"To","language_name":"english","language_id":38},"transliteration":{"text":"ilā","language_name":"english","language_id":38}},{"id":14132,"position":2,"audio_url":"wbw/075_012_002.mp3","verse_key":"75:12","verse_id":5563,"location":"75:12:2","text_uthmani":"رَبِّكَ","qpc_uthmani_hafs":"رَبِّكَ","char_type_name":"word","page_number":577,"line_number":12,"text":"رَبِّكَ","translation":{"text":"your Lord","language_name":"english","language_id":38},"transliteration":{"text":"rabbika","language_name":"english","language_id":38}},{"id":14133,"position":3,"audio_url":"wbw/075_012_003.mp3","verse_key":"75:12","verse_id":5563,"location":"75:12:3","text_uthmani":"يَوْمَئِذٍ","qpc_uthmani_hafs":"يَوۡمَئِذٍ","char_type_name":"word","page_number":577,"line_number":12,"text":"يَوۡمَئِذٍ","translation":{"text":"that Day","language_name":"english","language_id":38},"transliteration":{"text":"yawma-idhin","language_name":"english","language_id":38}},{"id":14134,"position":4,"audio_url":"wbw/075_012_004.mp3","verse_key":"75:12","verse_id":5563,"location":"75:12:4","text_uthmani":"ٱلْمُسْتَقَرُّ","qpc_uthmani_hafs":"ٱلۡمُسۡتَقَرُّ","char_type_name":"word","page_number":577,"line_number":12,"text":"ٱلۡمُسۡتَقَرُّ","translation":{"text":"(is) the place of rest","language_name":"english","language_id":38},"transliteration":{"text":"l-mus'taqaru","language_name":"english","language_id":38}},{"id":14135,"position":5,"audio_url":null,"verse_key":"75:12","verse_id":5563,"location":"75:12:5","text_uthmani":"١٢","qpc_uthmani_hafs":"١٢","char_type_name":"end","page_number":577,"line_number":12,"text":"١٢","translation":{"text":"(12)","language_name":"english","language_id":38},"transliteration":{"text":null,"language_name":"english","language_id":38}}]},{"id":5564,"verse_number":13,"verse_key":"75:13","hizb_number":58,"rub_el_hizb_number":231,"ruku_number":514,"manzil_number":7,"sajdah_number":null,"page_number":577,"juz_number":29,"words":[{"id":15260,"position":1,"audio_url":"wbw/075_013_001.mp3","verse_key":"75:13","verse_id":5564,"location":"75:13:1","text_uthmani":"يُنَبَّؤُا۟","qpc_uthmani_hafs":"يُنَبَّؤُاْ","char_type_name":"word","page_number":577,"line_number":12,"text":"يُنَبَّؤُاْ","translation":{"text":"Will be informed","language_name":"english","language_id":38},"transliteration":{"text":"yunabba-u","language_name":"english","language_id":38}},{"id":15261,"position":2,"audio_url":"wbw/075_013_002.mp3","verse_key":"75:13","verse_id":5564,"location":"75:13:2","text_uthmani":"ٱلْإِنسَـٰنُ","qpc_uthmani_hafs":"ٱلۡإِنسَٰنُ","char_type_name":"word","page_number":577,"line_number":13,"text":"ٱلۡإِنسَٰنُ","translation":{"text":"[the] man","language_name":"english","language_id":38},"transliteration":{"text":"l-insānu","language_name":"english","language_id":38}},{"id":15262,"position":3,"audio_url":"wbw/075_013_003.mp3","verse_key":"75:13","verse_id":5564,"location":"75:13:3","text_uthmani":"يَوْمَئِذٍۭ","qpc_uthmani_hafs":"يَوۡمَئِذِۭ","char_type_name":"word","page_number":577,"line_number":13,"text":"يَوۡمَئِذِۭ","translation":{"text":"that Day","language_name":"english","language_id":38},"transliteration":{"text":"yawma-idhin","language_name":"english","language_id":38}},{"id":15263,"position":4,"audio_url":"wbw/075_013_004.mp3","verse_key":"75:13","verse_id":5564,"location":"75:13:4","text_uthmani":"بِمَا","qpc_uthmani_hafs":"بِمَا","char_type_name":"word","page_number":577,"line_number":13,"text":"بِمَا","translation":{"text":"of what","language_name":"english","language_id":38},"transliteration":{"text":"bimā","language_name":"english","language_id":38}},{"id":15264,"position":5,"audio_url":"wbw/075_013_005.mp3","verse_key":"75:13","verse_id":5564,"location":"75:13:5","text_uthmani":"قَدَّمَ","qpc_uthmani_hafs":"قَدَّمَ","char_type_name":"word","page_number":577,"line_number":13,"text":"قَدَّمَ","translation":{"text":"he sent forth","language_name":"english","language_id":38},"transliteration":{"text":"qaddama","language_name":"english","language_id":38}},{"id":15265,"position":6,"audio_url":"wbw/075_013_006.mp3","verse_key":"75:13","verse_id":5564,"location":"75:13:6","text_uthmani":"وَأَخَّرَ","qpc_uthmani_hafs":"وَأَخَّرَ","char_type_name":"word","page_number":577,"line_number":13,"text":"وَأَخَّرَ","translation":{"text":"and kept back","language_name":"english","language_id":38},"transliteration":{"text":"wa-akhara","language_name":"english","language_id":38}},{"id":15266,"position":7,"audio_url":null,"verse_key":"75:13","verse_id":5564,"location":"75:13:7","text_uthmani":"١٣","qpc_uthmani_hafs":"١٣","char_type_name":"end","page_number":577,"line_number":13,"text":"١٣","translation":{"text":"(13)","language_name":"english","language_id":38},"transliteration":{"text":null,"language_name":"english","language_id":38}}]},{"id":5565,"verse_number":14,"verse_key":"75:14","hizb_number":58,"rub_el_hizb_number":231,"ruku_number":514,"manzil_number":7,"sajdah_number":null,"page_number":577,"juz_number":29,"words":[{"id":16283,"position":1,"audio_url":"wbw/075_014_001.mp3","verse_key":"75:14","verse_id":5565,"location":"75:14:1","text_uthmani":"بَلِ","qpc_uthmani_hafs":"بَلِ","char_type_name":"word","page_number":577,"line_number":13,"text":"بَلِ","translation":{"text":"Nay","language_name":"english","language_id":38},"transliteration":{"text":"bali","language_name":"english","language_id":38}},{"id":16284,"position":2,"audio_url":"wbw/075_014_002.mp3","verse_key":"75:14","verse_id":5565,"location":"75:14:2","text_uthmani":"ٱلْإِنسَـٰنُ","qpc_uthmani_hafs":"ٱلۡإِنسَٰنُ","char_type_name":"word","page_number":577,"line_number":13,"text":"ٱلۡإِنسَٰنُ","translation":{"text":"[The] man","language_name":"english","language_id":38},"transliteration":{"text":"l-insānu","language_name":"english","language_id":38}},{"id":16285,"position":3,"audio_url":"wbw/075_014_003.mp3","verse_key":"75:14","verse_id":5565,"location":"75:14:3","text_uthmani":"عَلَىٰ","qpc_uthmani_hafs":"عَلَىٰ","char_type_name":"word","page_number":577,"line_number":13,"text":"عَلَىٰ","translation":{"text":"against","language_name":"english","language_id":38},"transliteration":{"text":"ʿalā","language_name":"english","language_id":38}},{"id":16286,"position":4,"audio_url":"wbw/075_014_004.mp3","verse_key":"75:14","verse_id":5565,"location":"75:14:4","text_uthmani":"نَفْسِهِۦ","qpc_uthmani_hafs":"نَفۡسِهِۦ","char_type_name":"word","page_number":577,"line_number":13,"text":"نَفۡسِهِۦ","translation":{"text":"himself","language_name":"english","language_id":38},"transliteration":{"text":"nafsihi","language_name":"english","language_id":38}},{"id":16287,"position":5,"audio_url":"wbw/075_014_005.mp3","verse_key":"75:14","verse_id":5565,"location":"75:14:5","text_uthmani":"بَصِيرَةٌۭ","qpc_uthmani_hafs":"بَصِيرَةٞ","char_type_name":"word","page_number":577,"line_number":13,"text":"بَصِيرَةٞ","translation":{"text":"(will be) a witness","language_name":"english","language_id":38},"transliteration":{"text":"baṣīratun","language_name":"english","language_id":38}},{"id":16288,"position":6,"audio_url":null,"verse_key":"75:14","verse_id":5565,"location":"75:14:6","text_uthmani":"١٤","qpc_uthmani_hafs":"١٤","char_type_name":"end","page_number":577,"line_number":13,"text":"١٤","translation":{"text":"(14)","language_name":"english","language_id":38},"transliteration":{"text":null,"language_name":"english","language_id":38}}]},{"id":5566,"verse_number":15,"verse_key":"75:15","hizb_number":58,"rub_el_hizb_number":231,"ruku_number":514,"manzil_number":7,"sajdah_number":null,"page_number":577,"juz_number":29,"words":[{"id":17471,"position":1,"audio_url":"wbw/075_015_001.mp3","verse_key":"75:15","verse_id":5566,"location":"75:15:1","text_uthmani":"وَلَوْ","qpc_uthmani_hafs":"وَلَوۡ","char_type_name":"word","page_number":577,"line_number":14,"text":"وَلَوۡ","translation":{"text":"Even if","language_name":"english","language_id":38},"transliteration":{"text":"walaw","language_name":"english","language_id":38}},{"id":17472,"position":2,"audio_url":"wbw/075_015_002.mp3","verse_key":"75:15","verse_id":5566,"location":"75:15:2","text_uthmani":"أَلْقَىٰ","qpc_uthmani_hafs":"أَلۡقَىٰ","char_type_name":"word","page_number":577,"line_number":14,"text":"أَلۡقَىٰ","translation":{"text":"he presents","language_name":"english","language_id":38},"transliteration":{"text":"alqā","language_name":"english","language_id":38}},{"id":17473,"position":3,"audio_url":"wbw/075_015_003.mp3","verse_key":"75:15","verse_id":5566,"location":"75:15:3","text_uthmani":"مَعَاذِيرَهُۥ","qpc_uthmani_hafs":"مَعَاذِيرَهُۥ","char_type_name":"word","page_number":577,"line_number":14,"text":"مَعَاذِيرَهُۥ","translation":{"text":"his excuses","language_name":"english","language_id":38},"transliteration":{"text":"maʿādhīrahu","language_name":"english","language_id":38}},{"id":17474,"position":4,"audio_url":null,"verse_key":"75:15","verse_id":5566,"location":"75:15:4","text_uthmani":"١٥","qpc_uthmani_hafs":"١٥","char_type_name":"end","page_number":577,"line_number":14,"text":"١٥","translation":{"text":"(15)","language_name":"english","language_id":38},"transliteration":{"text":null,"language_name":"english","language_id":38}}]},{"id":5567,"verse_number":16,"verse_key":"75:16","hizb_number":58,"rub_el_hizb_number":231,"ruku_number":514,"manzil_number":7,"sajdah_number":null,"page_number":577,"juz_number":29,"words":[{"id":18555,"position":1,"audio_url":"wbw/075_016_001.mp3","verse_key":"75:16","verse_id":5567,"location":"75:16:1","text_uthmani":"لَا","qpc_uthmani_hafs":"لَا","char_type_name":"word","page_number":577,"line_number":14,"text":"لَا","translation":{"text":"Not","language_name":"english","language_id":38},"transliteration":{"text":"lā","language_name":"english","language_id":38}},{"id":18556,"position":2,"audio_url":"wbw/075_016_002.mp3","verse_key":"75:16","verse_id":5567,"location":"75:16:2","text_uthmani":"تُحَرِّكْ","qpc_uthmani_hafs":"تُحَرِّكۡ","char_type_name":"word","page_number":577,"line_number":14,"text":"تُحَرِّكۡ","translation":{"text":"move","language_name":"english","language_id":38},"transliteration":{"text":"tuḥarrik","language_name":"english","language_id":38}},{"id":18557,"position":3,"audio_url":"wbw/075_016_003.mp3","verse_key":"75:16","verse_id":5567,"location":"75:16:3","text_uthmani":"بِهِۦ","qpc_uthmani_hafs":"بِهِۦ","char_type_name":"word","page_number":577,"line_number":14,"text":"بِهِۦ","translation":{"text":"with it","language_name":"english","language_id":38},"transliteration":{"text":"bihi","language_name":"english","language_id":38}},{"id":18558,"position":4,"audio_url":"wbw/075_016_004.mp3","verse_key":"75:16","verse_id":5567,"location":"75:16:4","text_uthmani":"لِسَانَكَ","qpc_uthmani_hafs":"لِسَانَكَ","char_type_name":"word","page_number":577,"line_number":14,"text":"لِسَانَكَ","translation":{"text":"your tongue","language_name":"english","language_id":38},"transliteration":{"text":"lisānaka","language_name":"english","language_id":38}},{"id":18559,"position":5,"audio_url":"wbw/075_016_005.mp3","verse_key":"75:16","verse_id":5567,"location":"75:16:5","text_uthmani":"لِتَعْجَلَ","qpc_uthmani_hafs":"لِتَعۡجَلَ","char_type_name":"word","page_number":577,"line_number":14,"text":"لِتَعۡجَلَ","translation":{"text":"to hasten","language_name":"english","language_id":38},"transliteration":{"text":"litaʿjala","language_name":"english","language_id":38}},{"id":18560,"position":6,"audio_url":"wbw/075_016_006.mp3","verse_key":"75:16","verse_id":5567,"location":"75:16:6","text_uthmani":"بِهِۦٓ","qpc_uthmani_hafs":"بِهِۦٓ","char_type_name":"word","page_number":577,"line_number":14,"text":"بِهِۦٓ","translation":{"text":"with it","language_name":"english","language_id":38},"transliteration":{"text":"bihi","language_name":"english","language_id":38}},{"id":18561,"position":7,"audio_url":null,"verse_key":"75:16","verse_id":5567,"location":"75:16:7","text_uthmani":"١٦","qpc_uthmani_hafs":"١٦","char_type_name":"end","page_number":577,"line_number":14,"text":"١٦","translation":{"text":"(16)","language_name":"english","language_id":38},"transliteration":{"text":null,"language_name":"english","language_id":38}}]},{"id":5568,"verse_number":17,"verse_key":"75:17","hizb_number":58,"rub_el_hizb_number":231,"ruku_number":514,"manzil_number":7,"sajdah_number":null,"page_number":577,"juz_number":29,"words":[{"id":19557,"position":1,"audio_url":"wbw/075_017_001.mp3","verse_key":"75:17","verse_id":5568,"location":"75:17:1","text_uthmani":"إِنَّ","qpc_uthmani_hafs":"إِنَّ","char_type_name":"word","page_number":577,"line_number":14,"text":"إِنَّ","translation":{"text":"Indeed","language_name":"english","language_id":38},"transliteration":{"text":"inna","language_name":"english","language_id":38}},{"id":19558,"position":2,"audio_url":"wbw/075_017_002.mp3","verse_key":"75:17","verse_id":5568,"location":"75:17:2","text_uthmani":"عَلَيْنَا","qpc_uthmani_hafs":"عَلَيۡنَا","char_type_name":"word","page_number":577,"line_number":14,"text":"عَلَيۡنَا","translation":{"text":"upon Us","language_name":"english","language_id":38},"transliteration":{"text":"ʿalaynā","language_name":"english","language_id":38}},{"id":19559,"position":3,"audio_url":"wbw/075_017_003.mp3","verse_key":"75:17","verse_id":5568,"location":"75:17:3","text_uthmani":"جَمْعَهُۥ","qpc_uthmani_hafs":"جَمۡعَهُۥ","char_type_name":"word","page_number":577,"line_number":15,"text":"جَمۡعَهُۥ","translation":{"text":"(is) its collection","language_name":"english","language_id":38},"transliteration":{"text":"jamʿahu","language_name":"english","language_id":38}},{"id":19560,"position":4,"audio_url":"wbw/075_017_004.mp3","verse_key":"75:17","verse_id":5568,"location":"75:17:4","text_uthmani":"وَقُرْءَانَهُۥ","qpc_uthmani_hafs":"وَقُرۡءَانَهُۥ","char_type_name":"word","page_number":577,"line_number":15,"text":"وَقُرۡءَانَهُۥ","translation":{"text":"and its recitation","language_name":"english","language_id":38},"transliteration":{"text":"waqur'ānahu","language_name":"english","language_id":38}},{"id":19561,"position":5,"audio_url":null,"verse_key":"75:17","verse_id":5568,"location":"75:17:5","text_uthmani":"١٧","qpc_uthmani_hafs":"١٧","char_type_name":"end","page_number":577,"line_number":15,"text":"١٧","translation":{"text":"(17)","language_name":"english","language_id":38},"transliteration":{"text":null,"language_name":"english","language_id":38}}]},{"id":5569,"verse_number":18,"verse_key":"75:18","hizb_number":58,"rub_el_hizb_number":231,"ruku_number":514,"manzil_number":7,"sajdah_number":null,"page_number":577,"juz_number":29,"words":[{"id":20644,"position":1,"audio_url":"wbw/075_018_001.mp3","verse_key":"75:18","verse_id":5569,"location":"75:18:1","text_uthmani":"فَإِذَا","qpc_uthmani_hafs":"فَإِذَا","char_type_name":"word","page_number":577,"line_number":15,"text":"فَإِذَا","translation":{"text":"And when","language_name":"english","language_id":38},"transliteration":{"text":"fa-idhā","language_name":"english","language_id":38}},{"id":20645,"position":2,"audio_url":"wbw/075_018_002.mp3","verse_key":"75:18","verse_id":5569,"location":"75:18:2","text_uthmani":"قَرَأْنَـٰهُ","qpc_uthmani_hafs":"قَرَأۡنَٰهُ","char_type_name":"word","page_number":577,"line_number":15,"text":"قَرَأۡنَٰهُ","translation":{"text":"We have recited it","language_name":"english","language_id":38},"transliteration":{"text":"qaranāhu","language_name":"english","language_id":38}},{"id":20646,"position":3,"audio_url":"wbw/075_018_003.mp3","verse_key":"75:18","verse_id":5569,"location":"75:18:3","text_uthmani":"فَٱتَّبِعْ","qpc_uthmani_hafs":"فَٱتَّبِعۡ","char_type_name":"word","page_number":577,"line_number":15,"text":"فَٱتَّبِعۡ","translation":{"text":"then follow","language_name":"english","language_id":38},"transliteration":{"text":"fa-ittabiʿ","language_name":"english","language_id":38}},{"id":20647,"position":4,"audio_url":"wbw/075_018_004.mp3","verse_key":"75:18","verse_id":5569,"location":"75:18:4","text_uthmani":"قُرْءَانَهُۥ","qpc_uthmani_hafs":"قُرۡءَانَهُۥ","char_type_name":"word","page_number":577,"line_number":15,"text":"قُرۡءَانَهُۥ","translation":{"text":"its recitation","language_name":"english","language_id":38},"transliteration":{"text":"qur'ānahu","language_name":"english","language_id":38}},{"id":20648,"position":5,"audio_url":null,"verse_key":"75:18","verse_id":5569,"location":"75:18:5","text_uthmani":"١٨","qpc_uthmani_hafs":"١٨","char_type_name":"end","page_number":577,"line_number":15,"text":"١٨","translation":{"text":"(18)","language_name":"english","language_id":38},"transliteration":{"text":null,"language_name":"english","language_id":38}}]},{"id":5570,"verse_number":19,"verse_key":"75:19","hizb_number":58,"rub_el_hizb_number":231,"ruku_number":514,"manzil_number":7,"sajdah_number":null,"page_number":577,"juz_number":29,"words":[{"id":21700,"position":1,"audio_url":"wbw/075_019_001.mp3","verse_key":"75:19","verse_id":5570,"location":"75:19:1","text_uthmani":"ثُمَّ","qpc_uthmani_hafs":"ثُمَّ","char_type_name":"word","page_number":577,"line_number":15,"text":"ثُمَّ","translation":{"text":"Then","language_name":"english","language_id":38},"transliteration":{"text":"thumma","language_name":"english","language_id":38}},{"id":21701,"position":2,"audio_url":"wbw/075_019_002.mp3","verse_key":"75:19","verse_id":5570,"location":"75:19:2","text_uthmani":"إِنَّ","qpc_uthmani_hafs":"إِنَّ","char_type_name":"word","page_number":577,"line_number":15,"text":"إِنَّ","translation":{"text":"indeed","language_name":"english","language_id":38},"transliteration":{"text":"inna","language_name":"english","language_id":38}},{"id":21702,"position":3,"audio_url":"wbw/075_019_003.mp3","verse_key":"75:19","verse_id":5570,"location":"75:19:3","text_uthmani":"عَلَيْنَا","qpc_uthmani_hafs":"عَلَيۡنَا","char_type_name":"word","page_number":577,"line_number":15,"text":"عَلَيۡنَا","translation":{"text":"upon Us","language_name":"english","language_id":38},"transliteration":{"text":"ʿalaynā","language_name":"english","language_id":38}},{"id":21703,"position":4,"audio_url":"wbw/075_019_004.mp3","verse_key":"75:19","verse_id":5570,"location":"75:19:4","text_uthmani":"بَيَانَهُۥ","qpc_uthmani_hafs":"بَيَانَهُۥ","char_type_name":"word","page_number":577,"line_number":15,"text":"بَيَانَهُۥ","translation":{"text":"(is) its explanation","language_name":"english","language_id":38},"transliteration":{"text":"bayānahu","language_name":"english","language_id":38}},{"id":21704,"position":5,"audio_url":null,"verse_key":"75:19","verse_id":5570,"location":"75:19:5","text_uthmani":"١٩","qpc_uthmani_hafs":"١٩","char_type_name":"end","page_number":577,"line_number":15,"text":"١٩","translation":{"text":"(19)","language_name":"english","language_id":38},"transliteration":{"text":null,"language_name":"english","language_id":38}}]},{"id":5571,"verse_number":20,"verse_key":"75:20","hizb_number":58,"rub_el_hizb_number":231,"ruku_number":514,"manzil_number":7,"sajdah_number":null,"page_number":578,"juz_number":29,"words":[{"id":22876,"position":1,"audio_url":"wbw/075_020_001.mp3","verse_key":"75:20","verse_id":5571,"location":"75:20:1","text_uthmani":"كَلَّا","qpc_uthmani_hafs":"كـَلَّا","char_type_name":"word","page_number":578,"line_number":1,"text":"كـَلَّا","translation":{"text":"No","language_name":"english","language_id":38},"transliteration":{"text":"kallā","language_name":"english","language_id":38}},{"id":22877,"position":2,"audio_url":"wbw/075_020_002.mp3","verse_key":"75:20","verse_id":5571,"location":"75:20:2","text_uthmani":"بَلْ","qpc_uthmani_hafs":"بَلۡ","char_type_name":"word","page_number":578,"line_number":1,"text":"بَلۡ","translation":{"text":"But","language_name":"english","language_id":38},"transliteration":{"text":"bal","language_name":"english","language_id":38}},{"id":22878,"position":3,"audio_url":"wbw/075_020_003.mp3","verse_key":"75:20","verse_id":5571,"location":"75:20:3","text_uthmani":"تُحِبُّونَ","qpc_uthmani_hafs":"تُحِبُّونَ","char_type_name":"word","page_number":578,"line_number":1,"text":"تُحِبُّونَ","translation":{"text":"you love","language_name":"english","language_id":38},"transliteration":{"text":"tuḥibbūna","language_name":"english","language_id":38}},{"id":22879,"position":4,"audio_url":"wbw/075_020_004.mp3","verse_key":"75:20","verse_id":5571,"location":"75:20:4","text_uthmani":"ٱلْعَاجِلَةَ","qpc_uthmani_hafs":"ٱلۡعَاجِلَةَ","char_type_name":"word","page_number":578,"line_number":1,"text":"ٱلۡعَاجِلَةَ","translation":{"text":"the immediate","language_name":"english","language_id":38},"transliteration":{"text":"l-ʿājilata","language_name":"english","language_id":38}},{"id":22880,"position":5,"audio_url":null,"verse_key":"75:20","verse_id":5571,"location":"75:20:5","text_uthmani":"٢٠","qpc_uthmani_hafs":"٢٠","char_type_name":"end","page_number":578,"line_number":1,"text":"٢٠","translation":{"text":"(20)","language_name":"english","language_id":38},"transliteration":{"text":null,"language_name":"english","language_id":38}}]}],"pagination":{"per_page":10,"current_page":2,"next_page":3,"total_pages":4,"total_records":40}}
