{"verses":[{"id":5572,"verse_number":21,"verse_key":"75:21","hizb_number":58,"rub_el_hizb_number":231,"ruku_number":514,"manzil_number":7,"sajdah_number":null,"page_number":578,"juz_number":29,"words":[{"id":23962,"position":1,"audio_url":"wbw/075_021_001.mp3","verse_key":"75:21","verse_id":5572,"location":"75:21:1","text_uthmani":"وَتَذَرُونَ","qpc_uthmani_hafs":"وَتَذَرُونَ","char_type_name":"word","page_number":578,"line_number":1,"text":"وَتَذَرُونَ","translation":{"text":"And leave","language_name":"english","language_id":38},"transliteration":{"text":"watadharūna","language_name":"english","language_id":38}},{"id":23963,"position":2,"audio_url":"wbw/075_021_002.mp3","verse_key":"75:21","verse_id":5572,"location":"75:21:2","text_uthmani":"ٱلْـَٔاخِرَةَ","qpc_uthmani_hafs":"ٱلۡأٓخِرَةَ","char_type_name":"word","page_number":578,"line_number":1,"text":"ٱلۡأٓخِرَةَ","translation":{"text":"the Hereafter","language_name":"english","language_id":38},"transliteration":{"text":"l-ākhirata","language_name":"english","language_id":38}},{"id":23964,"position":3,"audio_url":null,"verse_key":"75:21","verse_id":5572,"location":"75:21:3","text_uthmani":"٢١","qpc_uthmani_hafs":"٢١","char_type_name":"end","page_number":578,"line_number":1,"text":"٢١","translation":{"text":"(21)","language_name":"english","language_id":38},"transliteration":{"text":null,"language_name":"english","language_id":38}}]},{"id":5573,"verse_number":22,"verse_key":"75:22","hizb_number":58,"rub_el_hizb_number":231,"ruku_number":514,"manzil_number":7,"sajdah_number":null,"page_number":578,"juz_number":29,"words":[{"id":24917,"position":1,"audio_url":"wbw/075_022_001.mp3","verse_key":"75:22","verse_id":5573,"location":"75:22:1","text_uthmani":"وُجُوهٌۭ","qpc_uthmani_hafs":"وُجُوهٞ","char_type_name":"word","page_number":578,"line_number":1,"text":"وُجُوهٞ","translation":{"text":"Faces","language_name":"english","language_id":38},"transliteration":{"text":"wujūhun","language_name":"english","language_id":38}},{"id":24918,"position":2,"audio_url":"wbw/075_022_002.mp3","verse_key":"75:22","verse_id":5573,"location":"75:22:2","text_uthmani":"يَوْمَئِذٍۢ","qpc_uthmani_hafs":"يَوۡمَئِذٖ","char_type_name":"word","page_number":578,"line_number":1,"text":"يَوۡمَئِذٖ","translation":{"text":"that Day","language_name":"english","language_id":38},"transliteration":{"text":"yawma-idhin","language_name":"english","language_id":38}},{"id":24919,"position":3,"audio_url":"wbw/075_022_003.mp3","verse_key":"75:22","verse_id":5573,"location":"75:22:3","text_uthmani":"نَّاضِرَةٌ","qpc_uthmani_hafs":"نَّاضِرَةٌ","char_type_name":"word","page_number":578,"line_number":1,"text":"نَّاضِرَةٌ","translation":{"text":"(will be) radiant","language_name":"english","language_id":38},"transliteration":{"text":"nāḍiratun","language_name":"english","language_id":38}},{"id":24920,"position":4,"audio_url":null,"verse_key":"75:22","verse_id":5573,"location":"75:22:4","text_uthmani":"٢٢","qpc_uthmani_hafs":"٢٢","char_type_name":"end","page_number":578,"line_number":2,"text":"٢٢","translation":{"text":"(22)","language_name":"english","language_id":38},"transliteration":{"text":null,"language_name":"english","language_id":38}}]},{"id":5574,"verse_number":23,"verse_key":"75:23","hizb_number":58,"rub_el_hizb_number":231,"ruku_number":514,"manzil_number":7,"sajdah_number":null,"page_number":578,"juz_number":29,"words":[{"id":25829,"position":1,"audio_url":"wbw/075_023_001.mp3","verse_key":"75:23","verse_id":5574,"location":"75:23:1","text_uthmani":"إِلَىٰ","qpc_uthmani_hafs":"إِلَىٰ","char_type_name":"word","page_number":578,"line_number":2,"text":"إِلَىٰ","translation":{"text":"Towards","language_name":"english","language_id":38},"transliteration":{"text":"ilā","language_name":"english","language_id":38}},{"id":25830,"position":2,"audio_url":"wbw/075_023_002.mp3","verse_key":"75:23","verse_id":5574,"location":"75:23:2","text_uthmani":"رَبِّهَا","qpc_uthmani_hafs":"رَبِّهَا","char_type_name":"word","page_number":578,"line_number":2,"text":"رَبِّهَا","translation":{"text":"their Lord","language_name":"english","language_id":38},"transliteration":{"text":"rabbihā","language_name":"english","language_id":38}},{"id":25831,"position":3,"audio_url":"wbw/075_023_003.mp3","verse_key":"75:23","verse_id":5574,"location":"75:23:3","text_uthmani":"نَاظِرَةٌۭ","qpc_uthmani_hafs":"نَاظِرَةٞ","char_type_name":"word","page_number":578,"line_number":2,"text":"نَاظِرَةٞ","translation":{"text":"looking","language_name":"english","language_id":38},"transliteration":{"text":"nāẓiratun","language_name":"english","language_id":38}},{"id":25832,"position":4,"audio_url":null,"verse_key":"75:23","verse_id":5574,"location":"75:23:4","text_uthmani":"٢٣","qpc_uthmani_hafs":"٢٣","char_type_name":"end","page_number":578,"line_number":2,"text":"٢٣","translation":{"text":"(23)","language_name":"english","language_id":38},"transliteration":{"text":null,"language_name":"english","language_id":38}}]},{"id":5575,"verse_number":24,"verse_key":"75:24","hizb_number":58,"rub_el_hizb_number":231,"ruku_number":514,"manzil_number":7,"sajdah_number":null,"page_number":578,"juz_number":29,"words":[{"id":27414,"position":1,"audio_url":"wbw/075_024_001.mp3","verse_key":"75:24","verse_id":5575,"location":"75:24:1","text_uthmani":"وَوُجُوهٌۭ","qpc_uthmani_hafs":"وَوُجُوهٞ","char_type_name":"word","page_number":578,"line_number":2,"text":"وَوُجُوهٞ","translation":{"text":"And faces","language_name":"english","language_id":38},"transliteration":{"text":"wawujūhun","language_name":"english","language_id":38}},{"id":27415,"position":2,"audio_url":"wbw/075_024_002.mp3","verse_key":"75:24","verse_id":5575,"location":"75:24:2","text_uthmani":"يَوْمَئِذٍۭ","qpc_uthmani_hafs":"يَوۡمَئِذِۭ","char_type_name":"word","page_number":578,"line_number":2,"text":"يَوۡمَئِذِۭ","translation":{"text":"that Day","language_name":"english","language_id":38},"transliteration":{"text":"yawma-idhin","language_name":"english","language_id":38}},{"id":27416,"position":3,"audio_url":"wbw/075_024_003.mp3","verse_key":"75:24","verse_id":5575,"location":"75:24:3","text_uthmani":"بَاسِرَةٌۭ","qpc_uthmani_hafs":"بَاسِرَةٞ","char_type_name":"word","page_number":578,"line_number":2,"text":"بَاسِرَةٞ","translation":{"text":"(will be) distorted","language_name":"english","language_id":38},"transliteration":{"text":"bāsiratun","language_name":"english","language_id":38}},{"id":27417,"position":4,"audio_url":null,"verse_key":"75:24","verse_id":5575,"location":"75:24:4","text_uthmani":"٢٤","qpc_uthmani_hafs":"٢٤","char_type_name":"end","page_number":578,"line_number":2,"text":"٢٤","translation":{"text":"(24)","language_name":"english","language_id":38},"transliteration":{"text":null,"language_name":"english","language_id":38}}]},{"id":5576,"verse_number":25,"verse_key":"75:25","hizb_number":58,"rub_el_hizb_number":231,"ruku_number":514,"manzil_number":7,"sajdah_number":null,"page_number":578,"juz_number":29,"words":[{"id":27962,"position":1,"audio_url":"wbw/075_025_001.mp3","verse_key":"75:25","verse_id":5576,"location":"75:25:1","text_uthmani":"تَظُنُّ","qpc_uthmani_hafs":"تَظُنُّ","char_type_name":"word","page_number":578,"line_number":2,"text":"تَظُنُّ","translation":{"text":"Thinking","language_name":"english","language_id":38},"transliteration":{"text":"taẓunnu","language_name":"english","language_id":38}},{"id":27963,"position":2,"audio_url":"wbw/075_025_002.mp3","verse_key":"75:25","verse_id":5576,"location":"75:25:2","text_uthmani":"أَن","qpc_uthmani_hafs":"أَن","char_type_name":"word","page_number":578,"line_number":2,"text":"أَن","translation":{"text":"that","language_name":"english","language_id":38},"transliteration":{"text":"an","language_name":"english","language_id":38}},{"id":27964,"position":3,"audio_url":"wbw/075_025_003.mp3","verse_key":"75:25","verse_id":5576,"location":"75:25:3","text_uthmani":"يُفْعَلَ","qpc_uthmani_hafs":"يُفۡعَلَ","char_type_name":"word","page_number":578,"line_number":2,"text":"يُفۡعَلَ","translation":{"text":"will be done","language_name":"english","language_id":38},"transliteration":{"text":"yuf'ʿala","language_name":"english","language_id":38}},{"id":27965,"position":4,"audio_url":"wbw/075_025_004.mp3","verse_key":"75:25","verse_id":5576,"location":"75:25:4","text_uthmani":"بِهَا","qpc_uthmani_hafs":"بِهَا","char_type_name":"word","page_number":578,"line_number":2,"text":"بِهَا","translation":{"text":"to them","language_name":"english","language_id":38},"transliteration":{"text":"bihā","language_name":"english","language_id":38}},{"id":27966,"position":5,"audio_url":"wbw/075_025_005.mp3","verse_key":"75:25","verse_id":5576,"location":"75:25:5","text_uthmani":"فَاقِرَةٌۭ","qpc_uthmani_hafs":"فَاقِرَةٞ","char_type_name":"word","page_number":578,"line_number":3,"text":"فَاقِرَةٞ","translation":{"text":"backbreaking","language_name":"english","language_id":38},"transliteration":{"text":"fāqiratun","language_name":"english","language_id":38}},{"id":27967,"position":6,"audio_url":null,"verse_key":"75:25","verse_id":5576,"location":"75:25:6","text_uthmani":"٢٥","qpc_uthmani_hafs":"٢٥","char_type_name":"end","page_number":578,"line_number":3,"text":"٢٥","translation":{"text":"(25)","language_name":"english","language_id":38},"transliteration":{"text":null,"language_name":"english","language_id":38}}]},{"id":5577,"verse_number":26,"verse_key":"75:26","hizb_number":58,"rub_el_hizb_number":231,"ruku_number":514,"manzil_number":7,"sajdah_number":null,"page_number":578,"juz_number":29,"words":[{"id":28937,"position":1,"audio_url":"wbw/075_026_001.mp3","verse_key":"75:26","verse_id":5577,"location":"75:26:1","text_uthmani":"كَلَّآ","qpc_uthmani_hafs":"كـَلَّآ","char_type_name":"word","page_number":578,"line_number":3,"text":"كـَلَّآ","translation":{"text":"No","language_name":"english","language_id":38},"transliteration":{"text":"kallā","language_name":"english","language_id":38}},{"id":28938,"position":2,"audio_url":"wbw/075_026_002.mp3","verse_key":"75:26","verse_id":5577,"location":"75:26:2","text_uthmani":"إِذَا","qpc_uthmani_hafs":"إِذَا","char_type_name":"word","page_number":578,"line_number":3,"text":"إِذَا","translation":{"text":"When","language_name":"english","language_id":38},"transliteration":{"text":"idhā","language_name":"english","language_id":38}},{"id":28939,"position":3,"audio_url":"wbw/075_026_003.mp3","verse_key":"75:26","verse_id":5577,"location":"75:26:3","text_uthmani":"بَلَغَتِ","qpc_uthmani_hafs":"بَلَغَتِ","char_type_name":"word","page_number":578,"line_number":3,"text":"بَلَغَتِ","translation":{"text":"it reaches","language_name":"english","language_id":38},"transliteration":{"text":"balaghati","language_name":"english","language_id":38}},{"id":28940,"position":4,"audio_url":"wbw/075_026_004.mp3","verse_key":"75:26","verse_id":5577,"location":"75:26:4","text_uthmani":"ٱلتَّرَاقِىَ","qpc_uthmani_hafs":"ٱلتَّرَاقِيَ","char_type_name":"word","page_number":578,"line_number":3,"text":"ٱلتَّرَاقِيَ","translation":{"text":"the collar bones","language_name":"english","language_id":38},"transliteration":{"text":"l-tarāqiya","language_name":"english","language_id":38}},{"id":28941,"position":5,"audio_url":null,"verse_key":"75:26","verse_id":5577,"location":"75:26:5","text_uthmani":"٢٦","qpc_uthmani_hafs":"٢٦","char_type_name":"end","page_number":578,"line_number":3,"text":"٢٦","translation":{"text":"(26)","language_name":"english","language_id":38},"transliteration":{"text":null,"language_name":"english","language_id":38}}]},{"id":5578,"verse_number":27,"verse_key":"75:27","hizb_number":58,"rub_el_hizb_number":231,"ruku_number":514,"manzil_number":7,"sajdah_number":null,"page_number":578,"juz_number":29,"words":[{"id":29807,"position":1,"audio_url":"wbw/075_027_001.mp3","verse_key":"75:27","verse_id":5578,"location":"75:27:1","text_uthmani":"وَقِيلَ","qpc_uthmani_hafs":"وَقِيلَ","char_type_name":"word","page_number":578,"line_number":3,"text":"وَقِيلَ","translation":{"text":"And it is said","language_name":"english","language_id":38},"transliteration":{"text":"waqīla","language_name":"english","language_id":38}},{"id":29808,"position":2,"audio_url":"wbw/075_027_002.mp3","verse_key":"75:27","verse_id":5578,"location":"75:27:2","text_uthmani":"مَنْ ۜ","qpc_uthmani_hafs":"مَنۡۜ","char_type_name":"word","page_number":578,"line_number":3,"text":"مَنۡۜ","translation":{"text":"Who","language_name":"english","language_id":38},"transliteration":{"text":"man","language_name":"english","language_id":38}},{"id":29810,"position":3,"audio_url":"wbw/075_027_004.mp3","verse_key":"75:27","verse_id":5578,"location":"75:27:3","text_uthmani":"رَاقٍۢ","qpc_uthmani_hafs":"رَاقٖ","char_type_name":"word","page_number":578,"line_number":3,"text":"رَاقٖ","translation":{"text":"(will) cure","language_name":"english","language_id":38},"transliteration":{"text":"rāqin","language_name":"english","language_id":38}},{"id":29811,"position":4,"audio_url":null,"verse_key":"75:27","verse_id":5578,"location":"75:27:4","text_uthmani":"٢٧","qpc_uthmani_hafs":"٢٧","char_type_name":"end","page_number":578,"line_number":3,"text":"٢٧","translation":{"text":"(27)","language_name":"english","language_id":38},"transliteration":{"text":null,"language_name":"english","language_id":38}}]},{"id":5579,"verse_number":28,"verse_key":"75:28","hizb_number":58,"rub_el_hizb_number":231,"ruku_number":514,"manzil_number":7,"sajdah_number":null,"page_number":578,"juz_number":29,"words":[{"id":30715,"position":1,"audio_url":"wbw/075_028_001.mp3","verse_key":"75:28","verse_id":5579,"location":"75:28:1","text_uthmani":"وَظَنَّ","qpc_uthmani_hafs":"وَظَنَّ","char_type_name":"word","page_number":578,"line_number":3,"text":"وَظَنَّ","translation":{"text":"And he is certain","language_name":"english","language_id":38},"transliteration":{"text":"waẓanna","language_name":"english","language_id":38}},{"id":30716,"position":2,"audio_url":"wbw/075_028_002.mp3","verse_key":"75:28","verse_id":5579,"location":"75:28:2","text_uthmani":"أَنَّهُ","qpc_uthmani_hafs":"أَنَّهُ","char_type_name":"word","page_number":578,"line_number":3,"text":"أَنَّهُ","translation":{"text":"that it","language_name":"english","language_id":38},"transliteration":{"text":"annahu","language_name":"english","language_id":38}},{"id":30717,"position":3,"audio_url":"wbw/075_028_003.mp3","verse_key":"75:28","verse_id":5579,"location":"75:28:3","text_uthmani":"ٱلْفِرَاقُ","qpc_uthmani_hafs":"ٱلۡفِرَاقُ","char_type_name":"word","page_number":578,"line_number":3,"text":"ٱلۡفِرَاقُ","translation":{"text":"(is) the parting","language_name":"english","language_id":38},"transliteration":{"text":"l-firāqu","language_name":"english","language_id":38}},{"id":30718,"position":4,"audio_url":null,"verse_key":"75:28","verse_id":5579,"location":"75:28:4","text_uthmani":"٢٨","qpc_uthmani_hafs":"٢٨","char_type_name":"end","page_number":578,"line_number":4,"text":"٢٨","translation":{"text":"(28)","language_name":"english","language_id":38},"transliteration":{"text":null,"language_name":"english","language_id":38}}]},{"id":5580,"verse_number":29,"verse_key":"75:29","hizb_number":58,"rub_el_hizb_number":231,"ruku_number":514,"manzil_number":7,"sajdah_number":null,"page_number":578,"juz_number":29,"words":[{"id":31739,"position":1,"audio_url":"wbw/075_029_001.mp3","verse_key":"75:29","verse_id":5580,"location":"75:29:1","text_uthmani":"وَٱلْتَفَّتِ","qpc_uthmani_hafs":"وَٱلۡتَفَّتِ","char_type_name":"word","page_number":578,"line_number":4,"text":"وَٱلۡتَفَّتِ","translation":{"text":"And is wound","language_name":"english","language_id":38},"transliteration":{"text":"wal-tafati","language_name":"english","language_id":38}},{"id":31740,"position":2,"audio_url":"wbw/075_029_002.mp3","verse_key":"75:29","verse_id":5580,"location":"75:29:2","text_uthmani":"ٱلسَّاقُ","qpc_uthmani_hafs":"ٱلسَّاقُ","char_type_name":"word","page_number":578,"line_number":4,"text":"ٱلسَّاقُ","translation":{"text":"the leg","language_name":"english","language_id":38},"transliteration":{"text":"l-sāqu","language_name":"english","language_id":38}},{"id":31741,"position":3,"audio_url":"wbw/075_029_003.mp3","verse_key":"75:29","verse_id":5580,"location":"75:29:3","text_uthmani":"بِٱلسَّاقِ","qpc_uthmani_hafs":"بِٱلسَّاقِ","char_type_name":"word","page_number":578,"line_number":4,"text":"بِٱلسَّاقِ","translation":{"text":"about the leg","language_name":"english","language_id":38},"transliteration":{"text":"bil-sāqi","language_name":"english","language_id":38}},{"id":31742,"position":4,"audio_url":null,"verse_key":"75:29","verse_id":5580,"location":"75:29:4","text_uthmani":"٢٩","qpc_uthmani_hafs":"٢٩","char_type_name":"end","page_number":578,"line_number":4,"text":"٢٩","translation":{"text":"(29)","language_name":"english","language_id":38},"transliteration":{"text":null,"language_name":"english","language_id":38}}]},{"id":5581,"verse_number":30,"verse_key":"75:30","hizb_number":58,"rub_el_hizb_number":231,"ruku_number":514,"manzil_number":7,"sajdah_number":null,"page_number":578,"juz_number":29,"words":[{"id":32866,"position":1,"audio_url":"wbw/075_030_001.mp3","verse_key":"75:30","verse_id":5581,"location":"75:30:1","text_uthmani":"إِلَىٰ","qpc_uthmani_hafs":"إِلَىٰ","char_type_name":"word","page_number":578,"line_number":4,"text":"إِلَىٰ","translation":{"text":"To","language_name":"english","language_id":38},"transliteration":{"text":"ilā","language_name":"english","language_id":38}},{"id":32867,"position":2,"audio_url":"wbw/075_030_002.mp3","verse_key":"75:30","verse_id":5581,"location":"75:30:2","text_uthmani":"رَبِّكَ","qpc_uthmani_hafs":"رَبِّكَ","char_type_name":"word","page_number":578,"line_number":4,"text":"رَبِّكَ","translation":{"text":"your Lord","language_name":"english","language_id":38},"transliteration":{"text":"rabbika","language_name":"english","language_id":38}},{"id":32868,"position":3,"audio_url":"wbw/075_030_003.mp3","verse_key":"75:30","verse_id":5581,"location":"75:30:3","text_uthmani":"يَوْمَئِذٍ","qpc_uthmani_hafs":"يَوۡمَئِذٍ","char_type_name":"word","page_number":578,"line_number":4,"text":"يَوۡمَئِذٍ","translation":{"text":"that Day","language_name":"english","language_id":38},"transliteration":{"text":"yawma-idhin","language_name":"english","language_id":38}},{"id":32869,"position":4,"audio_url":"wbw/075_030_004.mp3","verse_key":"75:30","verse_id":5581,"location":"75:30:4","text_uthmani":"ٱلْمَسَاقُ","qpc_uthmani_hafs":"ٱلۡمَسَاقُ","char_type_name":"word","page_number":578,"line_number":4,"text":"ٱلۡمَسَاقُ","translation":{"text":"(will be) the driving","language_name":"english","language_id":38},"transliteration":{"text":"l-masāqu","language_name":"english","language_id":38}},{"id":32870,"position":5,"audio_url":null,"verse_key":"75:30","verse_id":5581,"location":"75:30:5","text_uthmani":"٣٠","qpc_uthmani_hafs":"٣٠","char_type_name":"end","page_number":578,"line_number":4,"text":"٣٠","translation":{"text":"(30)","language_name":"english","language_id":38},"transliteration":{"text":null,"language_name":"english","language_id":38}}]}],"pagination":{"per_page":10,"current_page":3,"next_page":4,"total_pages":4,"total_records":40}}
