{"verses":[{"id":4021,"verse_number":51,"verse_key":"38:51","hizb_number":46,"rub_el_hizb_number":182,"ruku_number":396,"manzil_number":6,"sajdah_number":null,"page_number":456,"juz_number":23,"words":[{"id":49640,"position":1,"audio_url":"wbw/038_051_001.mp3","char_type_name":"word","page_number":456,"line_number":7,"text":"مُتَّكِـِٔينَ","translation":{"text":"তারা হেলান দিয়ে বসবে","language_name":"bengali","language_id":20},"transliteration":{"text":"muttakiīna","language_name":"english","language_id":38}},{"id":49641,"position":2,"audio_url":"wbw/038_051_002.mp3","char_type_name":"word","page_number":456,"line_number":8,"text":"فِيهَا","translation":{"text":"তার মধ্যে","language_name":"bengali","language_id":20},"transliteration":{"text":"fīhā","language_name":"english","language_id":38}},{"id":49642,"position":3,"audio_url":"wbw/038_051_003.mp3","char_type_name":"word","page_number":456,"line_number":8,"text":"يَدْعُونَ","translation":{"text":"তারা আদেশ করবে","language_name":"bengali","language_id":20},"transliteration":{"text":"yadʿūna","language_name":"english","language_id":38}},{"id":49643,"position":4,"audio_url":"wbw/038_051_004.mp3","char_type_name":"word","page_number":456,"line_number":8,"text":"فِيهَا","translation":{"text":"তার মধ্যে","language_name":"bengali","language_id":20},"transliteration":{"text":"fīhā","language_name":"english","language_id":38}},{"id":49644,"position":5,"audio_url":"wbw/038_051_005.mp3","char_type_name":"word","page_number":456,"line_number":8,"text":"بِفَـٰكِهَةٍۢ","translation":{"text":"ফলমূলের","language_name":"bengali","language_id":20},"transliteration":{"text":"bifākihatin","language_name":"english","language_id":38}},{"id":49645,"position":6,"audio_url":"wbw/038_051_006.mp3","char_type_name":"word","page_number":456,"line_number":8,"text":"كَثِيرَةٍۢ","translation":{"text":"অনেক","language_name":"bengali","language_id":20},"transliteration":{"text":"kathīratin","language_name":"english","language_id":38}},{"id":49646,"position":7,"audio_url":"wbw/038_051_007.mp3","char_type_name":"word","page_number":456,"line_number":8,"text":"وَشَرَابٍۢ","translation":{"text":"ও পানীয়ের","language_name":"bengali","language_id":20},"transliteration":{"text":"washarābin","language_name":"english","language_id":38}},{"id":49647,"position":8,"audio_url":null,"char_type_name":"end","page_number":456,"line_number":8,"text":"٥١","translation":{"text":"(৫১)","language_name":"bengali","language_id":20},"transliteration":{"text":null,"language_name":"english","language_id":38}}]},{"id":4022,"verse_number":52,"verse_key":"38:52","hizb_number":46,"rub_el_hizb_number":183,"ruku_number":396,"manzil_number":6,"sajdah_number":null,"page_number":456,"juz_number":23,"words":[{"id":49825,"position":1,"audio_url":"wbw/038_052_002.mp3","char_type_name":"word","page_number":456,"line_number":8,"text":"۞ وَعِندَهُمْ","translation":{"text":"এবং কাছে (থাকবে) তাদের","language_name":"bengali","language_id":20},"transliteration":{"text":"waʿindahum","language_name":"english","language_id":38}},{"id":49826,"position":2,"audio_url":"wbw/038_052_003.mp3","char_type_name":"word","page_number":456,"line_number":8,"text":"قَـٰصِرَٰتُ","translation":{"text":"আনত","language_name":"bengali","language_id":20},"transliteration":{"text":"qāṣirātu","language_name":"english","language_id":38}},{"id":49827,"position":3,"audio_url":"wbw/038_052_004.mp3","char_type_name":"word","page_number":456,"line_number":9,"text":"ٱلطَّرْفِ","translation":{"text":"নয়না","language_name":"bengali","language_id":20},"transliteration":{"text":"l-ṭarfi","language_name":"english","language_id":38}},{"id":49828,"position":4,"audio_url":"wbw/038_052_005.mp3","char_type_name":"word","page_number":456,"line_number":9,"text":"أَتْرَابٌ","translation":{"text":"সমবয়ষ্কা (সহধর্মিনী)","language_name":"bengali","language_id":20},"transliteration":{"text":"atrābun","language_name":"english","language_id":38}},{"id":49829,"position":5,"audio_url":null,"char_type_name":"end","page_number":456,"line_number":9,"text":"٥٢","translation":{"text":"(৫২)","language_name":"bengali","language_id":20},"transliteration":{"text":null,"language_name":"english","language_id":38}}]},{"id":4023,"verse_number":53,"verse_key":"38:53","hizb_number":46,"rub_el_hizb_number":183,"ruku_number":396,"manzil_number":6,"sajdah_number":null,"page_number":456,"juz_number":23,"words":[{"id":50922,"position":1,"audio_url":"wbw/038_053_001.mp3","char_type_name":"word","page_number":456,"line_number":9,"text":"هَـٰذَا","translation":{"text":"এই (সব নিয়ামাত)","language_name":"bengali","language_id":20},"transliteration":{"text":"hādhā","language_name":"english","language_id":38}},{"id":50923,"position":2,"audio_url":"wbw/038_053_002.mp3","char_type_name":"word","page_number":456,"line_number":9,"text":"مَا","translation":{"text":"যা","language_name":"bengali","language_id":20},"transliteration":{"text":"mā","language_name":"english","language_id":38}},{"id":50924,"position":3,"audio_url":"wbw/038_053_003.mp3","char_type_name":"word","page_number":456,"line_number":9,"text":"تُوعَدُونَ","translation":{"text":"তোমাদের প্রতিশ্রুতি দেওয়া হচ্ছে","language_name":"bengali","language_id":20},"transliteration":{"text":"tūʿadūna","language_name":"english","language_id":38}},{"id":50925,"position":4,"audio_url":"wbw/038_053_004.mp3","char_type_name":"word","page_number":456,"line_number":9,"text":"لِيَوْمِ","translation":{"text":"দিনের জন্যে","language_name":"bengali","language_id":20},"transliteration":{"text":"liyawmi","language_name":"english","language_id":38}},{"id":50926,"position":5,"audio_url":"wbw/038_053_005.mp3","char_type_name":"word","page_number":456,"line_number":9,"text":"ٱلْحِسَابِ","translation":{"text":"বিচারের","language_name":"bengali","language_id":20},"transliteration":{"text":"l-ḥisābi","language_name":"english","language_id":38}},{"id":50927,"position":6,"audio_url":null,"char_type_name":"end","page_number":456,"line_number":9,"text":"٥٣","translation":{"text":"(৫৩)","language_name":"bengali","language_id":20},"transliteration":{"text":null,"language_name":"english","language_id":38}}]},{"id":4024,"verse_number":54,"verse_key":"38:54","hizb_number":46,"rub_el_hizb_number":183,"ruku_number":396,"manzil_number":6,"sajdah_number":null,"page_number":456,"juz_number":23,"words":[{"id":51539,"position":1,"audio_url":"wbw/038_054_001.mp3","char_type_name":"word","page_number":456,"line_number":9,"text":"إِنَّ","translation":{"text":"নিশ্চয়ই","language_name":"bengali","language_id":20},"transliteration":{"text":"inna","language_name":"english","language_id":38}},{"id":51540,"position":2,"audio_url":"wbw/038_054_002.mp3","char_type_name":"word","page_number":456,"line_number":9,"text":"هَـٰذَا","translation":{"text":"এটা","language_name":"bengali","language_id":20},"transliteration":{"text":"hādhā","language_name":"english","language_id":38}},{"id":51541,"position":3,"audio_url":"wbw/038_054_003.mp3","char_type_name":"word","page_number":456,"line_number":10,"text":"لَرِزْقُنَا","translation":{"text":"অবশ্যই আমাদের জীবিকা","language_name":"bengali","language_id":20},"transliteration":{"text":"lariz'qunā","language_name":"english","language_id":38}},{"id":51542,"position":4,"audio_url":"wbw/038_054_004.mp3","char_type_name":"word","page_number":456,"line_number":10,"text":"مَا","translation":{"text":"নেই","language_name":"bengali","language_id":20},"transliteration":{"text":"mā","language_name":"english","language_id":38}},{"id":51543,"position":5,"audio_url":"wbw/038_054_005.mp3","char_type_name":"word","page_number":456,"line_number":10,"text":"لَهُۥ","translation":{"text":"তার","language_name":"bengali","language_id":20},"transliteration":{"text":"lahu","language_name":"english","language_id":38}},{"id":51544,"position":6,"audio_url":"wbw/038_054_006.mp3","char_type_name":"word","page_number":456,"line_number":10,"text":"مِن","translation":{"text":"কোনো","language_name":"bengali","language_id":20},"transliteration":{"text":"min","language_name":"english","language_id":38}},{"id":51545,"position":7,"audio_url":"wbw/038_054_007.mp3","char_type_name":"word","page_number":456,"line_number":10,"text":"نَّفَادٍ","translation":{"text":"শেষ","language_name":"bengali","language_id":20},"transliteration":{"text":"nafādin","language_name":"english","language_id":38}},{"id":51546,"position":8,"audio_url":null,"char_type_name":"end","page_number":456,"line_number":10,"text":"٥٤","translation":{"text":"(৫৪)","language_name":"bengali","language_id":20},"transliteration":{"text":null,"language_name":"english","language_id":38}}]},{"id":4025,"verse_number":55,"verse_key":"38:55","hizb_number":46,"rub_el_hizb_number":183,"ruku_number":396,"manzil_number":6,"sajdah_number":null,"page_number":456,"juz_number":23,"words":[{"id":52037,"position":1,"audio_url":"wbw/038_055_001.mp3","char_type_name":"word","page_number":456,"line_number":10,"text":"هَـٰذَا ۚ","translation":{"text":"এটাই (মুত্তাকীদের পরিণাম)","language_name":"bengali","language_id":20},"transliteration":{"text":"hādhā","language_name":"english","language_id":38}},{"id":52039,"position":2,"audio_url":"wbw/038_055_003.mp3","char_type_name":"word","page_number":456,"line_number":10,"text":"وَإِنَّ","translation":{"text":"আর নিশ্চয়ই (রয়েছে)","language_name":"bengali","language_id":20},"transliteration":{"text":"wa-inna","language_name":"english","language_id":38}},{"id":52040,"position":3,"audio_url":"wbw/038_055_004.mp3","char_type_name":"word","page_number":456,"line_number":10,"text":"لِلطَّـٰغِينَ","translation":{"text":"সীমালংঘনকারীদের জন্যে","language_name":"bengali","language_id":20},"transliteration":{"text":"lilṭṭāghīna","language_name":"english","language_id":38}},{"id":52041,"position":4,"audio_url":"wbw/038_055_005.mp3","char_type_name":"word","page_number":456,"line_number":10,"text":"لَشَرَّ","translation":{"text":"অবশ্যই নিকৃষ্ট","language_name":"bengali","language_id":20},"transliteration":{"text":"lasharra","language_name":"english","language_id":38}},{"id":52042,"position":5,"audio_url":"wbw/038_055_006.mp3","char_type_name":"word","page_number":456,"line_number":10,"text":"مَـَٔابٍۢ","translation":{"text":"প্রত্যাবর্তন স্থান","language_name":"bengali","language_id":20},"transliteration":{"text":"maābin","language_name":"english","language_id":38}},{"id":52043,"position":6,"audio_url":null,"char_type_name":"end","page_number":456,"line_number":11,"text":"٥٥","translation":{"text":"(৫৫)","language_name":"bengali","language_id":20},"transliteration":{"text":null,"language_name":"english","language_id":38}}]},{"id":4026,"verse_number":56,"verse_key":"38:56","hizb_number":46,"rub_el_hizb_number":183,"ruku_number":396,"manzil_number":6,"sajdah_number":null,"page_number":456,"juz_number":23,"words":[{"id":52127,"position":1,"audio_url":"wbw/038_056_001.mp3","char_type_name":"word","page_number":456,"line_number":11,"text":"جَهَنَّمَ","translation":{"text":"জাহান্নাম","language_name":"bengali","language_id":20},"transliteration":{"text":"jahannama","language_name":"english","language_id":38}},{"id":52128,"position":2,"audio_url":"wbw/038_056_002.mp3","char_type_name":"word","page_number":456,"line_number":11,"text":"يَصْلَوْنَهَا","translation":{"text":"তাতে তারা প্রবেশ জ্বলবে","language_name":"bengali","language_id":20},"transliteration":{"text":"yaṣlawnahā","language_name":"english","language_id":38}},{"id":52129,"position":3,"audio_url":"wbw/038_056_003.mp3","char_type_name":"word","page_number":456,"line_number":11,"text":"فَبِئْسَ","translation":{"text":"আর কত নিকৃষ্ট","language_name":"bengali","language_id":20},"transliteration":{"text":"fabi'sa","language_name":"english","language_id":38}},{"id":52130,"position":4,"audio_url":"wbw/038_056_004.mp3","char_type_name":"word","page_number":456,"line_number":11,"text":"ٱلْمِهَادُ","translation":{"text":"ঠিকানা","language_name":"bengali","language_id":20},"transliteration":{"text":"l-mihādu","language_name":"english","language_id":38}},{"id":52131,"position":5,"audio_url":null,"char_type_name":"end","page_number":456,"line_number":11,"text":"٥٦","translation":{"text":"(৫৬)","language_name":"bengali","language_id":20},"transliteration":{"text":null,"language_name":"english","language_id":38}}]},{"id":4027,"verse_number":57,"verse_key":"38:57","hizb_number":46,"rub_el_hizb_number":183,"ruku_number":396,"manzil_number":6,"sajdah_number":null,"page_number":456,"juz_number":23,"words":[{"id":53055,"position":1,"audio_url":"wbw/038_057_001.mp3","char_type_name":"word","page_number":456,"line_number":11,"text":"هَـٰذَا","translation":{"text":"এটাই (তাদের পরিণাম)","language_name":"bengali","language_id":20},"transliteration":{"text":"hādhā","language_name":"english","language_id":38}},{"id":53056,"position":2,"audio_url":"wbw/038_057_002.mp3","char_type_name":"word","page_number":456,"line_number":11,"text":"فَلْيَذُوقُوهُ","translation":{"text":"সুতরাং  তার তারা স্বাদ নিক","language_name":"bengali","language_id":20},"transliteration":{"text":"falyadhūqūhu","language_name":"english","language_id":38}},{"id":53057,"position":3,"audio_url":"wbw/038_057_003.mp3","char_type_name":"word","page_number":456,"line_number":11,"text":"حَمِيمٌۭ","translation":{"text":"ফুটন্ত পানির","language_name":"bengali","language_id":20},"transliteration":{"text":"ḥamīmun","language_name":"english","language_id":38}},{"id":53058,"position":4,"audio_url":"wbw/038_057_004.mp3","char_type_name":"word","page_number":456,"line_number":12,"text":"وَغَسَّاقٌۭ","translation":{"text":"ও পূঁজের","language_name":"bengali","language_id":20},"transliteration":{"text":"waghassāqun","language_name":"english","language_id":38}},{"id":53059,"position":5,"audio_url":null,"char_type_name":"end","page_number":456,"line_number":12,"text":"٥٧","translation":{"text":"(৫৭)","language_name":"bengali","language_id":20},"transliteration":{"text":null,"language_name":"english","language_id":38}}]},{"id":4028,"verse_number":58,"verse_key":"38:58","hizb_number":46,"rub_el_hizb_number":183,"ruku_number":396,"manzil_number":6,"sajdah_number":null,"page_number":456,"juz_number":23,"words":[{"id":53619,"position":1,"audio_url":"wbw/038_058_001.mp3","char_type_name":"word","page_number":456,"line_number":12,"text":"وَءَاخَرُ","translation":{"text":"এবং অন্য কিছু","language_name":"bengali","language_id":20},"transliteration":{"text":"waākharu","language_name":"english","language_id":38}},{"id":53620,"position":2,"audio_url":"wbw/038_058_002.mp3","char_type_name":"word","page_number":456,"line_number":12,"text":"مِن","translation":{"text":"মধ্যে","language_name":"bengali","language_id":20},"transliteration":{"text":"min","language_name":"english","language_id":38}},{"id":53621,"position":3,"audio_url":"wbw/038_058_003.mp3","char_type_name":"word","page_number":456,"line_number":12,"text":"شَكْلِهِۦٓ","translation":{"text":"সে ধরণের","language_name":"bengali","language_id":20},"transliteration":{"text":"shaklihi","language_name":"english","language_id":38}},{"id":53622,"position":4,"audio_url":"wbw/038_058_004.mp3","char_type_name":"word","page_number":456,"line_number":12,"text":"أَزْوَٰجٌ","translation":{"text":"বিভিন্ন প্রকার (কষ্টের)","language_name":"bengali","language_id":20},"transliteration":{"text":"azwājun","language_name":"english","language_id":38}},{"id":53623,"position":5,"audio_url":null,"char_type_name":"end","page_number":456,"line_number":12,"text":"٥٨","translation":{"text":"(৫৮)","language_name":"bengali","language_id":20},"transliteration":{"text":null,"language_name":"english","language_id":38}}]},{"id":4029,"verse_number":59,"verse_key":"38:59","hizb_number":46,"rub_el_hizb_number":183,"ruku_number":396,"manzil_number":6,"sajdah_number":null,"page_number":456,"juz_number":23,"words":[{"id":54159,"position":1,"audio_url":"wbw/038_059_001.mp3","char_type_name":"word","page_number":456,"line_number":12,"text":"هَـٰذَا","translation":{"text":"(তারা বলবে) এই তো","language_name":"bengali","language_id":20},"transliteration":{"text":"hādhā","language_name":"english","language_id":38}},{"id":54160,"position":2,"audio_url":"wbw/038_059_002.mp3","char_type_name":"word","page_number":456,"line_number":12,"text":"فَوْجٌۭ","translation":{"text":"একটি দল","language_name":"bengali","language_id":20},"transliteration":{"text":"fawjun","language_name":"english","language_id":38}},{"id":54161,"position":3,"audio_url":"wbw/038_059_003.mp3","char_type_name":"word","page_number":456,"line_number":13,"text":"مُّقْتَحِمٌۭ","translation":{"text":"প্রবেশকারী","language_name":"bengali","language_id":20},"transliteration":{"text":"muq'taḥimun","language_name":"english","language_id":38}},{"id":54162,"position":4,"audio_url":"wbw/038_059_004.mp3","char_type_name":"word","page_number":456,"line_number":13,"text":"مَّعَكُمْ ۖ","translation":{"text":"তোমাদের সাথে","language_name":"bengali","language_id":20},"transliteration":{"text":"maʿakum","language_name":"english","language_id":38}},{"id":54164,"position":5,"audio_url":"wbw/038_059_006.mp3","char_type_name":"word","page_number":456,"line_number":13,"text":"لَا","translation":{"text":"নেই","language_name":"bengali","language_id":20},"transliteration":{"text":"lā","language_name":"english","language_id":38}},{"id":54165,"position":6,"audio_url":"wbw/038_059_007.mp3","char_type_name":"word","page_number":456,"line_number":13,"text":"مَرْحَبًۢا","translation":{"text":"কোনো অভিনন্দন","language_name":"bengali","language_id":20},"transliteration":{"text":"marḥaban","language_name":"english","language_id":38}},{"id":54166,"position":7,"audio_url":"wbw/038_059_008.mp3","char_type_name":"word","page_number":456,"line_number":13,"text":"بِهِمْ ۚ","translation":{"text":"তাদের জন্যে","language_name":"bengali","language_id":20},"transliteration":{"text":"bihim","language_name":"english","language_id":38}},{"id":54168,"position":8,"audio_url":"wbw/038_059_010.mp3","char_type_name":"word","page_number":456,"line_number":13,"text":"إِنَّهُمْ","translation":{"text":"তারা নিশ্চয়ই","language_name":"bengali","language_id":20},"transliteration":{"text":"innahum","language_name":"english","language_id":38}},{"id":54169,"position":9,"audio_url":"wbw/038_059_011.mp3","char_type_name":"word","page_number":456,"line_number":13,"text":"صَالُوا۟","translation":{"text":"জ্বলবে","language_name":"bengali","language_id":20},"transliteration":{"text":"ṣālū","language_name":"english","language_id":38}},{"id":54170,"position":10,"audio_url":"wbw/038_059_012.mp3","char_type_name":"word","page_number":456,"line_number":13,"text":"ٱلنَّارِ","translation":{"text":"(জাহান্নামের) আগুনে","language_name":"bengali","language_id":20},"transliteration":{"text":"l-nāri","language_name":"english","language_id":38}},{"id":54171,"position":11,"audio_url":null,"char_type_name":"end","page_number":456,"line_number":13,"text":"٥٩","translation":{"text":"(৫৯)","language_name":"bengali","language_id":20},"transliteration":{"text":null,"language_name":"english","language_id":38}}]},{"id":4030,"verse_number":60,"verse_key":"38:60","hizb_number":46,"rub_el_hizb_number":183,"ruku_number":396,"manzil_number":6,"sajdah_number":null,"page_number":456,"juz_number":23,"words":[{"id":54172,"position":1,"audio_url":"wbw/038_060_001.mp3","char_type_name":"word","page_number":456,"line_number":13,"text":"قَالُوا۟","translation":{"text":"(অনুসারীরা) বলবে","language_name":"bengali","language_id":20},"transliteration":{"text":"qālū","language_name":"english","language_id":38}},{"id":54173,"position":2,"audio_url":"wbw/038_060_002.mp3","char_type_name":"word","page_number":456,"line_number":14,"text":"بَلْ","translation":{"text":"\"বরং","language_name":"bengali","language_id":20},"transliteration":{"text":"bal","language_name":"english","language_id":38}},{"id":54174,"position":3,"audio_url":"wbw/038_060_003.mp3","char_type_name":"word","page_number":456,"line_number":14,"text":"أَنتُمْ","translation":{"text":"তোমরাও (তাতে জ্বলছো)","language_name":"bengali","language_id":20},"transliteration":{"text":"antum","language_name":"english","language_id":38}},{"id":54175,"position":4,"audio_url":"wbw/038_060_004.mp3","char_type_name":"word","page_number":456,"line_number":14,"text":"لَا","translation":{"text":"নেই","language_name":"bengali","language_id":20},"transliteration":{"text":"lā","language_name":"english","language_id":38}},{"id":54176,"position":5,"audio_url":"wbw/038_060_005.mp3","char_type_name":"word","page_number":456,"line_number":14,"text":"مَرْحَبًۢا","translation":{"text":"কোনো অভিনন্দন","language_name":"bengali","language_id":20},"transliteration":{"text":"marḥaban","language_name":"english","language_id":38}},{"id":54177,"position":6,"audio_url":"wbw/038_060_006.mp3","char_type_name":"word","page_number":456,"line_number":14,"text":"بِكُمْ ۖ","translation":{"text":"তোমাদের জন্যও","language_name":"bengali","language_id":20},"transliteration":{"text":"bikum","language_name":"english","language_id":38}},{"id":54179,"position":7,"audio_url":"wbw/038_060_008.mp3","char_type_name":"word","page_number":456,"line_number":14,"text":"أَنتُمْ","translation":{"text":"তোমরাই","language_name":"bengali","language_id":20},"transliteration":{"text":"antum","language_name":"english","language_id":38}},{"id":54180,"position":8,"audio_url":"wbw/038_060_009.mp3","char_type_name":"word","page_number":456,"line_number":14,"text":"قَدَّمْتُمُوهُ","translation":{"text":"তা তোমরাই সামনে এনেছো","language_name":"bengali","language_id":20},"transliteration":{"text":"qaddamtumūhu","language_name":"english","language_id":38}},{"id":54181,"position":9,"audio_url":"wbw/038_060_010.mp3","char_type_name":"word","page_number":456,"line_number":14,"text":"لَنَا ۖ","translation":{"text":"আমাদের জন্যে","language_name":"bengali","language_id":20},"transliteration":{"text":"lanā","language_name":"english","language_id":38}},{"id":54183,"position":10,"audio_url":"wbw/038_060_012.mp3","char_type_name":"word","page_number":456,"line_number":14,"text":"فَبِئْسَ","translation":{"text":"অতএব কত নিকৃষ্ট","language_name":"bengali","language_id":20},"transliteration":{"text":"fabi'sa","language_name":"english","language_id":38}},{"id":54184,"position":11,"audio_url":"wbw/038_060_013.mp3","char_type_name":"word","page_number":456,"line_number":14,"text":"ٱلْقَرَارُ","translation":{"text":"আবাসস্থল\"","language_name":"bengali","language_id":20},"transliteration":{"text":"l-qarāru","language_name":"english","language_id":38}},{"id":54185,"position":12,"audio_url":null,"char_type_name":"end","page_number":456,"line_number":14,"text":"٦٠","translation":{"text":"(৬০)","language_name":"bengali","language_id":20},"transliteration":{"text":null,"language_name":"english","language_id":38}}]}],"pagination":{"per_page":10,"current_page":6,"next_page":7,"total_pages":9,"total_records":88}}
