{"verses":[{"id":1065,"verse_number":111,"verse_key":"7:111","hizb_number":17,"rub_el_hizb_number":65,"ruku_number":135,"manzil_number":2,"sajdah_number":null,"page_number":164,"juz_number":9,"words":[{"id":74477,"position":1,"audio_url":"wbw/007_111_001.mp3","char_type_name":"word","page_number":164,"line_number":7,"text":"قَالُوٓا۟","translation":{"text":"তারা বললো","language_name":"bengali","language_id":20},"transliteration":{"text":"qālū","language_name":"english","language_id":38}},{"id":74478,"position":2,"audio_url":"wbw/007_111_002.mp3","char_type_name":"word","page_number":164,"line_number":7,"text":"أَرْجِهْ","translation":{"text":"\"ঢিল দিন তাকে","language_name":"bengali","language_id":20},"transliteration":{"text":"arjih","language_name":"english","language_id":38}},{"id":74479,"position":3,"audio_url":"wbw/007_111_003.mp3","char_type_name":"word","page_number":164,"line_number":7,"text":"وَأَخَاهُ","translation":{"text":"ও ভাইকে তার","language_name":"bengali","language_id":20},"transliteration":{"text":"wa-akhāhu","language_name":"english","language_id":38}},{"id":74480,"position":4,"audio_url":"wbw/007_111_004.mp3","char_type_name":"word","page_number":164,"line_number":7,"text":"وَأَرْسِلْ","translation":{"text":"এবং পাঠান","language_name":"bengali","language_id":20},"transliteration":{"text":"wa-arsil","language_name":"english","language_id":38}},{"id":74481,"position":5,"audio_url":"wbw/007_111_005.mp3","char_type_name":"word","page_number":164,"line_number":7,"text":"فِى","translation":{"text":"মধ্যে","language_name":"bengali","language_id":20},"transliteration":{"text":"fī","language_name":"english","language_id":38}},{"id":74482,"position":6,"audio_url":"wbw/007_111_006.mp3","char_type_name":"word","page_number":164,"line_number":7,"text":"ٱلْمَدَآئِنِ","translation":{"text":"শহরগুলোর","language_name":"bengali","language_id":20},"transliteration":{"text":"l-madāini","language_name":"english","language_id":38}},{"id":74483,"position":7,"audio_url":"wbw/007_111_007.mp3","char_type_name":"word","page_number":164,"line_number":7,"text":"حَـٰشِرِينَ","translation":{"text":"সংগ্রহকারিদের","language_name":"bengali","language_id":20},"transliteration":{"text":"ḥāshirīna","language_name":"english","language_id":38}},{"id":74484,"position":8,"audio_url":null,"char_type_name":"end","page_number":164,"line_number":7,"text":"١١١","translation":{"text":"(১১১)","language_name":"bengali","language_id":20},"transliteration":{"text":null,"language_name":"english","language_id":38}}]},{"id":1066,"verse_number":112,"verse_key":"7:112","hizb_number":17,"rub_el_hizb_number":65,"ruku_number":135,"manzil_number":2,"sajdah_number":null,"page_number":164,"juz_number":9,"words":[{"id":74699,"position":1,"audio_url":"wbw/007_112_001.mp3","char_type_name":"word","page_number":164,"line_number":7,"text":"يَأْتُوكَ","translation":{"text":"আপনার কাছে আসবে তারা","language_name":"bengali","language_id":20},"transliteration":{"text":"yatūka","language_name":"english","language_id":38}},{"id":74700,"position":2,"audio_url":"wbw/007_112_002.mp3","char_type_name":"word","page_number":164,"line_number":8,"text":"بِكُلِّ","translation":{"text":"নিয়ে প্রত্যেক","language_name":"bengali","language_id":20},"transliteration":{"text":"bikulli","language_name":"english","language_id":38}},{"id":74701,"position":3,"audio_url":"wbw/007_112_003.mp3","char_type_name":"word","page_number":164,"line_number":8,"text":"سَـٰحِرٍ","translation":{"text":"জাদুকর\"","language_name":"bengali","language_id":20},"transliteration":{"text":"sāḥirin","language_name":"english","language_id":38}},{"id":74702,"position":4,"audio_url":"wbw/007_112_004.mp3","char_type_name":"word","page_number":164,"line_number":8,"text":"عَلِيمٍۢ","translation":{"text":"সুদক্ষ\"","language_name":"bengali","language_id":20},"transliteration":{"text":"ʿalīmin","language_name":"english","language_id":38}},{"id":74703,"position":5,"audio_url":null,"char_type_name":"end","page_number":164,"line_number":8,"text":"١١٢","translation":{"text":"(১১২)","language_name":"bengali","language_id":20},"transliteration":{"text":null,"language_name":"english","language_id":38}}]},{"id":1067,"verse_number":113,"verse_key":"7:113","hizb_number":17,"rub_el_hizb_number":65,"ruku_number":135,"manzil_number":2,"sajdah_number":null,"page_number":164,"juz_number":9,"words":[{"id":75031,"position":1,"audio_url":"wbw/007_113_001.mp3","char_type_name":"word","page_number":164,"line_number":8,"text":"وَجَآءَ","translation":{"text":"এবং আসলো","language_name":"bengali","language_id":20},"transliteration":{"text":"wajāa","language_name":"english","language_id":38}},{"id":75032,"position":2,"audio_url":"wbw/007_113_002.mp3","char_type_name":"word","page_number":164,"line_number":8,"text":"ٱلسَّحَرَةُ","translation":{"text":"জাদুকররা","language_name":"bengali","language_id":20},"transliteration":{"text":"l-saḥaratu","language_name":"english","language_id":38}},{"id":75033,"position":3,"audio_url":"wbw/007_113_003.mp3","char_type_name":"word","page_number":164,"line_number":8,"text":"فِرْعَوْنَ","translation":{"text":"ফিরআউনের (কাছে)","language_name":"bengali","language_id":20},"transliteration":{"text":"fir'ʿawna","language_name":"english","language_id":38}},{"id":75034,"position":4,"audio_url":"wbw/007_113_004.mp3","char_type_name":"word","page_number":164,"line_number":8,"text":"قَالُوٓا۟","translation":{"text":"তারা বললো","language_name":"bengali","language_id":20},"transliteration":{"text":"qālū","language_name":"english","language_id":38}},{"id":75035,"position":5,"audio_url":"wbw/007_113_005.mp3","char_type_name":"word","page_number":164,"line_number":8,"text":"إِنَّ","translation":{"text":"\"নিশ্চয়ই","language_name":"bengali","language_id":20},"transliteration":{"text":"inna","language_name":"english","language_id":38}},{"id":75036,"position":6,"audio_url":"wbw/007_113_006.mp3","char_type_name":"word","page_number":164,"line_number":9,"text":"لَنَا","translation":{"text":"জন্যে আমাদের (থাকবে)","language_name":"bengali","language_id":20},"transliteration":{"text":"lanā","language_name":"english","language_id":38}},{"id":75037,"position":7,"audio_url":"wbw/007_113_007.mp3","char_type_name":"word","page_number":164,"line_number":9,"text":"لَأَجْرًا","translation":{"text":"অবশ্যই পুরস্কার","language_name":"bengali","language_id":20},"transliteration":{"text":"la-ajran","language_name":"english","language_id":38}},{"id":75038,"position":8,"audio_url":"wbw/007_113_008.mp3","char_type_name":"word","page_number":164,"line_number":9,"text":"إِن","translation":{"text":"যদি","language_name":"bengali","language_id":20},"transliteration":{"text":"in","language_name":"english","language_id":38}},{"id":75039,"position":9,"audio_url":"wbw/007_113_009.mp3","char_type_name":"word","page_number":164,"line_number":9,"text":"كُنَّا","translation":{"text":"হই","language_name":"bengali","language_id":20},"transliteration":{"text":"kunnā","language_name":"english","language_id":38}},{"id":75040,"position":10,"audio_url":"wbw/007_113_010.mp3","char_type_name":"word","page_number":164,"line_number":9,"text":"نَحْنُ","translation":{"text":"আমরা","language_name":"bengali","language_id":20},"transliteration":{"text":"naḥnu","language_name":"english","language_id":38}},{"id":75041,"position":11,"audio_url":"wbw/007_113_011.mp3","char_type_name":"word","page_number":164,"line_number":9,"text":"ٱلْغَـٰلِبِينَ","translation":{"text":"বিজয়ী\"","language_name":"bengali","language_id":20},"transliteration":{"text":"l-ghālibīna","language_name":"english","language_id":38}},{"id":75042,"position":12,"audio_url":null,"char_type_name":"end","page_number":164,"line_number":9,"text":"١١٣","translation":{"text":"(১১৩)","language_name":"bengali","language_id":20},"transliteration":{"text":null,"language_name":"english","language_id":38}}]},{"id":1068,"verse_number":114,"verse_key":"7:114","hizb_number":17,"rub_el_hizb_number":65,"ruku_number":135,"manzil_number":2,"sajdah_number":null,"page_number":164,"juz_number":9,"words":[{"id":75196,"position":1,"audio_url":"wbw/007_114_001.mp3","char_type_name":"word","page_number":164,"line_number":9,"text":"قَالَ","translation":{"text":"সে বললো","language_name":"bengali","language_id":20},"transliteration":{"text":"qāla","language_name":"english","language_id":38}},{"id":75197,"position":2,"audio_url":"wbw/007_114_002.mp3","char_type_name":"word","page_number":164,"line_number":9,"text":"نَعَمْ","translation":{"text":"\"হ্যাঁ","language_name":"bengali","language_id":20},"transliteration":{"text":"naʿam","language_name":"english","language_id":38}},{"id":75198,"position":3,"audio_url":"wbw/007_114_003.mp3","char_type_name":"word","page_number":164,"line_number":9,"text":"وَإِنَّكُمْ","translation":{"text":"এবং নিশ্চয়ই তোমরা","language_name":"bengali","language_id":20},"transliteration":{"text":"wa-innakum","language_name":"english","language_id":38}},{"id":75199,"position":4,"audio_url":"wbw/007_114_004.mp3","char_type_name":"word","page_number":164,"line_number":10,"text":"لَمِنَ","translation":{"text":"অবশ্যই অন্তর্ভুক্ত","language_name":"bengali","language_id":20},"transliteration":{"text":"lamina","language_name":"english","language_id":38}},{"id":75200,"position":5,"audio_url":"wbw/007_114_005.mp3","char_type_name":"word","page_number":164,"line_number":10,"text":"ٱلْمُقَرَّبِينَ","translation":{"text":"সান্নিধ্যপ্রাপ্তদের\"","language_name":"bengali","language_id":20},"transliteration":{"text":"l-muqarabīna","language_name":"english","language_id":38}},{"id":75201,"position":6,"audio_url":null,"char_type_name":"end","page_number":164,"line_number":10,"text":"١١٤","translation":{"text":"(১১৪)","language_name":"bengali","language_id":20},"transliteration":{"text":null,"language_name":"english","language_id":38}}]},{"id":1069,"verse_number":115,"verse_key":"7:115","hizb_number":17,"rub_el_hizb_number":65,"ruku_number":135,"manzil_number":2,"sajdah_number":null,"page_number":164,"juz_number":9,"words":[{"id":75392,"position":1,"audio_url":"wbw/007_115_001.mp3","char_type_name":"word","page_number":164,"line_number":10,"text":"قَالُوا۟","translation":{"text":"তারা বললো","language_name":"bengali","language_id":20},"transliteration":{"text":"qālū","language_name":"english","language_id":38}},{"id":75393,"position":2,"audio_url":"wbw/007_115_002.mp3","char_type_name":"word","page_number":164,"line_number":10,"text":"يَـٰمُوسَىٰٓ","translation":{"text":"\"হে মূসা","language_name":"bengali","language_id":20},"transliteration":{"text":"yāmūsā","language_name":"english","language_id":38}},{"id":75394,"position":3,"audio_url":"wbw/007_115_003.mp3","char_type_name":"word","page_number":164,"line_number":10,"text":"إِمَّآ","translation":{"text":"হয়তো","language_name":"bengali","language_id":20},"transliteration":{"text":"immā","language_name":"english","language_id":38}},{"id":75395,"position":4,"audio_url":"wbw/007_115_004.mp3","char_type_name":"word","page_number":164,"line_number":10,"text":"أَن","translation":{"text":"যে","language_name":"bengali","language_id":20},"transliteration":{"text":"an","language_name":"english","language_id":38}},{"id":75396,"position":5,"audio_url":"wbw/007_115_005.mp3","char_type_name":"word","page_number":164,"line_number":10,"text":"تُلْقِىَ","translation":{"text":"তুমি ছুঁড়বে","language_name":"bengali","language_id":20},"transliteration":{"text":"tul'qiya","language_name":"english","language_id":38}},{"id":75397,"position":6,"audio_url":"wbw/007_115_006.mp3","char_type_name":"word","page_number":164,"line_number":10,"text":"وَإِمَّآ","translation":{"text":"আর নয়তো","language_name":"bengali","language_id":20},"transliteration":{"text":"wa-immā","language_name":"english","language_id":38}},{"id":75398,"position":7,"audio_url":"wbw/007_115_007.mp3","char_type_name":"word","page_number":164,"line_number":10,"text":"أَن","translation":{"text":"যে","language_name":"bengali","language_id":20},"transliteration":{"text":"an","language_name":"english","language_id":38}},{"id":75399,"position":8,"audio_url":"wbw/007_115_008.mp3","char_type_name":"word","page_number":164,"line_number":11,"text":"نَّكُونَ","translation":{"text":"আমরা হবো","language_name":"bengali","language_id":20},"transliteration":{"text":"nakūna","language_name":"english","language_id":38}},{"id":75400,"position":9,"audio_url":"wbw/007_115_009.mp3","char_type_name":"word","page_number":164,"line_number":11,"text":"نَحْنُ","translation":{"text":"আমরা","language_name":"bengali","language_id":20},"transliteration":{"text":"naḥnu","language_name":"english","language_id":38}},{"id":75401,"position":10,"audio_url":"wbw/007_115_010.mp3","char_type_name":"word","page_number":164,"line_number":11,"text":"ٱلْمُلْقِينَ","translation":{"text":"নিক্ষেপকারী\"","language_name":"bengali","language_id":20},"transliteration":{"text":"l-mul'qīna","language_name":"english","language_id":38}},{"id":75402,"position":11,"audio_url":null,"char_type_name":"end","page_number":164,"line_number":11,"text":"١١٥","translation":{"text":"(১১৫)","language_name":"bengali","language_id":20},"transliteration":{"text":null,"language_name":"english","language_id":38}}]},{"id":1070,"verse_number":116,"verse_key":"7:116","hizb_number":17,"rub_el_hizb_number":65,"ruku_number":135,"manzil_number":2,"sajdah_number":null,"page_number":164,"juz_number":9,"words":[{"id":75464,"position":1,"audio_url":"wbw/007_116_001.mp3","char_type_name":"word","page_number":164,"line_number":11,"text":"قَالَ","translation":{"text":"সে বললো","language_name":"bengali","language_id":20},"transliteration":{"text":"qāla","language_name":"english","language_id":38}},{"id":75465,"position":2,"audio_url":"wbw/007_116_002.mp3","char_type_name":"word","page_number":164,"line_number":11,"text":"أَلْقُوا۟ ۖ","translation":{"text":"\"তোমরা ছোঁড়ো\"","language_name":"bengali","language_id":20},"transliteration":{"text":"alqū","language_name":"english","language_id":38}},{"id":75467,"position":3,"audio_url":"wbw/007_116_004.mp3","char_type_name":"word","page_number":164,"line_number":11,"text":"فَلَمَّآ","translation":{"text":"অতঃপর যখন","language_name":"bengali","language_id":20},"transliteration":{"text":"falammā","language_name":"english","language_id":38}},{"id":75468,"position":4,"audio_url":"wbw/007_116_005.mp3","char_type_name":"word","page_number":164,"line_number":11,"text":"أَلْقَوْا۟","translation":{"text":"তারা ছুঁড়লো","language_name":"bengali","language_id":20},"transliteration":{"text":"alqaw","language_name":"english","language_id":38}},{"id":75469,"position":5,"audio_url":"wbw/007_116_006.mp3","char_type_name":"word","page_number":164,"line_number":11,"text":"سَحَرُوٓا۟","translation":{"text":"তারা জাদু করলো","language_name":"bengali","language_id":20},"transliteration":{"text":"saḥarū","language_name":"english","language_id":38}},{"id":75470,"position":6,"audio_url":"wbw/007_116_007.mp3","char_type_name":"word","page_number":164,"line_number":12,"text":"أَعْيُنَ","translation":{"text":"চোখগুলোকে","language_name":"bengali","language_id":20},"transliteration":{"text":"aʿyuna","language_name":"english","language_id":38}},{"id":75471,"position":7,"audio_url":"wbw/007_116_008.mp3","char_type_name":"word","page_number":164,"line_number":12,"text":"ٱلنَّاسِ","translation":{"text":"মানুষের","language_name":"bengali","language_id":20},"transliteration":{"text":"l-nāsi","language_name":"english","language_id":38}},{"id":75472,"position":8,"audio_url":"wbw/007_116_009.mp3","char_type_name":"word","page_number":164,"line_number":12,"text":"وَٱسْتَرْهَبُوهُمْ","translation":{"text":"ও তারা সন্ত্রস্ত করলো তাদেরকে","language_name":"bengali","language_id":20},"transliteration":{"text":"wa-is'tarhabūhum","language_name":"english","language_id":38}},{"id":75473,"position":9,"audio_url":"wbw/007_116_010.mp3","char_type_name":"word","page_number":164,"line_number":12,"text":"وَجَآءُو","translation":{"text":"এবং তারা আসলো","language_name":"bengali","language_id":20},"transliteration":{"text":"wajāū","language_name":"english","language_id":38}},{"id":75474,"position":10,"audio_url":"wbw/007_116_011.mp3","char_type_name":"word","page_number":164,"line_number":12,"text":"بِسِحْرٍ","translation":{"text":"নিয়ে জাদু","language_name":"bengali","language_id":20},"transliteration":{"text":"bisiḥ'rin","language_name":"english","language_id":38}},{"id":75475,"position":11,"audio_url":"wbw/007_116_012.mp3","char_type_name":"word","page_number":164,"line_number":12,"text":"عَظِيمٍۢ","translation":{"text":"বড় (ধরনের)","language_name":"bengali","language_id":20},"transliteration":{"text":"ʿaẓīmin","language_name":"english","language_id":38}},{"id":75476,"position":12,"audio_url":null,"char_type_name":"end","page_number":164,"line_number":12,"text":"١١٦","translation":{"text":"(১১৬)","language_name":"bengali","language_id":20},"transliteration":{"text":null,"language_name":"english","language_id":38}}]},{"id":1071,"verse_number":117,"verse_key":"7:117","hizb_number":17,"rub_el_hizb_number":66,"ruku_number":135,"manzil_number":2,"sajdah_number":null,"page_number":164,"juz_number":9,"words":[{"id":75842,"position":1,"audio_url":"wbw/007_117_002.mp3","char_type_name":"word","page_number":164,"line_number":13,"text":"۞ وَأَوْحَيْنَآ","translation":{"text":"এবং ওহী করলাম আমরা","language_name":"bengali","language_id":20},"transliteration":{"text":"wa-awḥaynā","language_name":"english","language_id":38}},{"id":75843,"position":2,"audio_url":"wbw/007_117_003.mp3","char_type_name":"word","page_number":164,"line_number":13,"text":"إِلَىٰ","translation":{"text":"প্রতি","language_name":"bengali","language_id":20},"transliteration":{"text":"ilā","language_name":"english","language_id":38}},{"id":75844,"position":3,"audio_url":"wbw/007_117_004.mp3","char_type_name":"word","page_number":164,"line_number":13,"text":"مُوسَىٰٓ","translation":{"text":"মূসার","language_name":"bengali","language_id":20},"transliteration":{"text":"mūsā","language_name":"english","language_id":38}},{"id":75845,"position":4,"audio_url":"wbw/007_117_005.mp3","char_type_name":"word","page_number":164,"line_number":13,"text":"أَنْ","translation":{"text":"যে","language_name":"bengali","language_id":20},"transliteration":{"text":"an","language_name":"english","language_id":38}},{"id":75846,"position":5,"audio_url":"wbw/007_117_006.mp3","char_type_name":"word","page_number":164,"line_number":13,"text":"أَلْقِ","translation":{"text":"\"ছোঁড়ো","language_name":"bengali","language_id":20},"transliteration":{"text":"alqi","language_name":"english","language_id":38}},{"id":75847,"position":6,"audio_url":"wbw/007_117_007.mp3","char_type_name":"word","page_number":164,"line_number":13,"text":"عَصَاكَ ۖ","translation":{"text":"তোমার লাঠি\"","language_name":"bengali","language_id":20},"transliteration":{"text":"ʿaṣāka","language_name":"english","language_id":38}},{"id":75849,"position":7,"audio_url":"wbw/007_117_009.mp3","char_type_name":"word","page_number":164,"line_number":13,"text":"فَإِذَا","translation":{"text":"অতঃপর যখন","language_name":"bengali","language_id":20},"transliteration":{"text":"fa-idhā","language_name":"english","language_id":38}},{"id":75850,"position":8,"audio_url":"wbw/007_117_010.mp3","char_type_name":"word","page_number":164,"line_number":13,"text":"هِىَ","translation":{"text":"তা","language_name":"bengali","language_id":20},"transliteration":{"text":"hiya","language_name":"english","language_id":38}},{"id":75851,"position":9,"audio_url":"wbw/007_117_011.mp3","char_type_name":"word","page_number":164,"line_number":13,"text":"تَلْقَفُ","translation":{"text":"গিলে ফেলতে লাগলো","language_name":"bengali","language_id":20},"transliteration":{"text":"talqafu","language_name":"english","language_id":38}},{"id":75852,"position":10,"audio_url":"wbw/007_117_012.mp3","char_type_name":"word","page_number":164,"line_number":13,"text":"مَا","translation":{"text":"যা","language_name":"bengali","language_id":20},"transliteration":{"text":"mā","language_name":"english","language_id":38}},{"id":75853,"position":11,"audio_url":"wbw/007_117_013.mp3","char_type_name":"word","page_number":164,"line_number":13,"text":"يَأْفِكُونَ","translation":{"text":"তারা কৃত্রিম সৃষ্টি করে","language_name":"bengali","language_id":20},"transliteration":{"text":"yafikūna","language_name":"english","language_id":38}},{"id":75854,"position":12,"audio_url":null,"char_type_name":"end","page_number":164,"line_number":14,"text":"١١٧","translation":{"text":"(১১৭)","language_name":"bengali","language_id":20},"transliteration":{"text":null,"language_name":"english","language_id":38}}]},{"id":1072,"verse_number":118,"verse_key":"7:118","hizb_number":17,"rub_el_hizb_number":66,"ruku_number":135,"manzil_number":2,"sajdah_number":null,"page_number":164,"juz_number":9,"words":[{"id":75913,"position":1,"audio_url":"wbw/007_118_001.mp3","char_type_name":"word","page_number":164,"line_number":14,"text":"فَوَقَعَ","translation":{"text":"ফলে প্রতিষ্ঠিত হলো","language_name":"bengali","language_id":20},"transliteration":{"text":"fawaqaʿa","language_name":"english","language_id":38}},{"id":75914,"position":2,"audio_url":"wbw/007_118_002.mp3","char_type_name":"word","page_number":164,"line_number":14,"text":"ٱلْحَقُّ","translation":{"text":"সত্য","language_name":"bengali","language_id":20},"transliteration":{"text":"l-ḥaqu","language_name":"english","language_id":38}},{"id":75915,"position":3,"audio_url":"wbw/007_118_003.mp3","char_type_name":"word","page_number":164,"line_number":14,"text":"وَبَطَلَ","translation":{"text":"ও অসত্য হলো","language_name":"bengali","language_id":20},"transliteration":{"text":"wabaṭala","language_name":"english","language_id":38}},{"id":75916,"position":4,"audio_url":"wbw/007_118_004.mp3","char_type_name":"word","page_number":164,"line_number":14,"text":"مَا","translation":{"text":"যা","language_name":"bengali","language_id":20},"transliteration":{"text":"mā","language_name":"english","language_id":38}},{"id":75917,"position":5,"audio_url":"wbw/007_118_005.mp3","char_type_name":"word","page_number":164,"line_number":14,"text":"كَانُوا۟","translation":{"text":"তারা ছিলো","language_name":"bengali","language_id":20},"transliteration":{"text":"kānū","language_name":"english","language_id":38}},{"id":75918,"position":6,"audio_url":"wbw/007_118_006.mp3","char_type_name":"word","page_number":164,"line_number":14,"text":"يَعْمَلُونَ","translation":{"text":"তারা কাজ করতে","language_name":"bengali","language_id":20},"transliteration":{"text":"yaʿmalūna","language_name":"english","language_id":38}},{"id":75919,"position":7,"audio_url":null,"char_type_name":"end","page_number":164,"line_number":14,"text":"١١٨","translation":{"text":"(১১৮)","language_name":"bengali","language_id":20},"transliteration":{"text":null,"language_name":"english","language_id":38}}]},{"id":1073,"verse_number":119,"verse_key":"7:119","hizb_number":17,"rub_el_hizb_number":66,"ruku_number":135,"manzil_number":2,"sajdah_number":null,"page_number":164,"juz_number":9,"words":[{"id":76203,"position":1,"audio_url":"wbw/007_119_001.mp3","char_type_name":"word","page_number":164,"line_number":14,"text":"فَغُلِبُوا۟","translation":{"text":"অতঃপর তারা পরাজিত হলো","language_name":"bengali","language_id":20},"transliteration":{"text":"faghulibū","language_name":"english","language_id":38}},{"id":76204,"position":2,"audio_url":"wbw/007_119_002.mp3","char_type_name":"word","page_number":164,"line_number":15,"text":"هُنَالِكَ","translation":{"text":"সেখানে","language_name":"bengali","language_id":20},"transliteration":{"text":"hunālika","language_name":"english","language_id":38}},{"id":76205,"position":3,"audio_url":"wbw/007_119_003.mp3","char_type_name":"word","page_number":164,"line_number":15,"text":"وَٱنقَلَبُوا۟","translation":{"text":"এবং তারা ফিরে গেলো","language_name":"bengali","language_id":20},"transliteration":{"text":"wa-inqalabū","language_name":"english","language_id":38}},{"id":76206,"position":4,"audio_url":"wbw/007_119_004.mp3","char_type_name":"word","page_number":164,"line_number":15,"text":"صَـٰغِرِينَ","translation":{"text":"লাঞ্ছিত হয়ে","language_name":"bengali","language_id":20},"transliteration":{"text":"ṣāghirīna","language_name":"english","language_id":38}},{"id":76207,"position":5,"audio_url":null,"char_type_name":"end","page_number":164,"line_number":15,"text":"١١٩","translation":{"text":"(১১৯)","language_name":"bengali","language_id":20},"transliteration":{"text":null,"language_name":"english","language_id":38}}]},{"id":1074,"verse_number":120,"verse_key":"7:120","hizb_number":17,"rub_el_hizb_number":66,"ruku_number":135,"manzil_number":2,"sajdah_number":null,"page_number":164,"juz_number":9,"words":[{"id":76486,"position":1,"audio_url":"wbw/007_120_001.mp3","char_type_name":"word","page_number":164,"line_number":15,"text":"وَأُلْقِىَ","translation":{"text":"এবং নত করে দিলো","language_name":"bengali","language_id":20},"transliteration":{"text":"wa-ul'qiya","language_name":"english","language_id":38}},{"id":76487,"position":2,"audio_url":"wbw/007_120_002.mp3","char_type_name":"word","page_number":164,"line_number":15,"text":"ٱلسَّحَرَةُ","translation":{"text":"জাদুকরদেরকে","language_name":"bengali","language_id":20},"transliteration":{"text":"l-saḥaratu","language_name":"english","language_id":38}},{"id":76488,"position":3,"audio_url":"wbw/007_120_003.mp3","char_type_name":"word","page_number":164,"line_number":15,"text":"سَـٰجِدِينَ","translation":{"text":"সিজদাকারী (হিসেবে)","language_name":"bengali","language_id":20},"transliteration":{"text":"sājidīna","language_name":"english","language_id":38}},{"id":76489,"position":4,"audio_url":null,"char_type_name":"end","page_number":164,"line_number":15,"text":"١٢٠","translation":{"text":"(১২০)","language_name":"bengali","language_id":20},"transliteration":{"text":null,"language_name":"english","language_id":38}}]}],"pagination":{"per_page":10,"current_page":12,"next_page":13,"total_pages":21,"total_records":206}}
