{"verses":[{"id":1155,"verse_number":201,"verse_key":"7:201","hizb_number":18,"rub_el_hizb_number":70,"ruku_number":145,"manzil_number":2,"sajdah_number":null,"page_number":176,"juz_number":9,"words":[{"id":85324,"position":1,"audio_url":"wbw/007_201_001.mp3","char_type_name":"word","page_number":176,"line_number":6,"text":"إِنَّ","translation":{"text":"নিশ্চয়ই","language_name":"bengali","language_id":20},"transliteration":{"text":"inna","language_name":"english","language_id":38}},{"id":85325,"position":2,"audio_url":"wbw/007_201_002.mp3","char_type_name":"word","page_number":176,"line_number":7,"text":"ٱلَّذِينَ","translation":{"text":"যারা","language_name":"bengali","language_id":20},"transliteration":{"text":"alladhīna","language_name":"english","language_id":38}},{"id":85326,"position":3,"audio_url":"wbw/007_201_003.mp3","char_type_name":"word","page_number":176,"line_number":7,"text":"ٱتَّقَوْا۟","translation":{"text":"তাকওয়া অবলম্বন করে","language_name":"bengali","language_id":20},"transliteration":{"text":"ittaqaw","language_name":"english","language_id":38}},{"id":85327,"position":4,"audio_url":"wbw/007_201_004.mp3","char_type_name":"word","page_number":176,"line_number":7,"text":"إِذَا","translation":{"text":"যখন","language_name":"bengali","language_id":20},"transliteration":{"text":"idhā","language_name":"english","language_id":38}},{"id":85328,"position":5,"audio_url":"wbw/007_201_005.mp3","char_type_name":"word","page_number":176,"line_number":7,"text":"مَسَّهُمْ","translation":{"text":"স্পর্শ করে তাদেরকে","language_name":"bengali","language_id":20},"transliteration":{"text":"massahum","language_name":"english","language_id":38}},{"id":85329,"position":6,"audio_url":"wbw/007_201_006.mp3","char_type_name":"word","page_number":176,"line_number":7,"text":"طَـٰٓئِفٌۭ","translation":{"text":"কোনো কুচিন্তা","language_name":"bengali","language_id":20},"transliteration":{"text":"ṭāifun","language_name":"english","language_id":38}},{"id":85330,"position":7,"audio_url":"wbw/007_201_007.mp3","char_type_name":"word","page_number":176,"line_number":7,"text":"مِّنَ","translation":{"text":"পক্ষ হতে","language_name":"bengali","language_id":20},"transliteration":{"text":"mina","language_name":"english","language_id":38}},{"id":85331,"position":8,"audio_url":"wbw/007_201_008.mp3","char_type_name":"word","page_number":176,"line_number":7,"text":"ٱلشَّيْطَـٰنِ","translation":{"text":"শয়তানের","language_name":"bengali","language_id":20},"transliteration":{"text":"l-shayṭāni","language_name":"english","language_id":38}},{"id":85332,"position":9,"audio_url":"wbw/007_201_009.mp3","char_type_name":"word","page_number":176,"line_number":7,"text":"تَذَكَّرُوا۟","translation":{"text":"তারা স্মরণ করে (আল্লাহকে)","language_name":"bengali","language_id":20},"transliteration":{"text":"tadhakkarū","language_name":"english","language_id":38}},{"id":85333,"position":10,"audio_url":"wbw/007_201_010.mp3","char_type_name":"word","page_number":176,"line_number":8,"text":"فَإِذَا","translation":{"text":"অত:পর তখন","language_name":"bengali","language_id":20},"transliteration":{"text":"fa-idhā","language_name":"english","language_id":38}},{"id":85334,"position":11,"audio_url":"wbw/007_201_011.mp3","char_type_name":"word","page_number":176,"line_number":8,"text":"هُم","translation":{"text":"তারা","language_name":"bengali","language_id":20},"transliteration":{"text":"hum","language_name":"english","language_id":38}},{"id":85335,"position":12,"audio_url":"wbw/007_201_012.mp3","char_type_name":"word","page_number":176,"line_number":8,"text":"مُّبْصِرُونَ","translation":{"text":"দেখতে পায় (সঠিক পথ)","language_name":"bengali","language_id":20},"transliteration":{"text":"mub'ṣirūna","language_name":"english","language_id":38}},{"id":85336,"position":13,"audio_url":null,"char_type_name":"end","page_number":176,"line_number":8,"text":"٢٠١","translation":{"text":"(২০১)","language_name":"bengali","language_id":20},"transliteration":{"text":null,"language_name":"english","language_id":38}}]},{"id":1156,"verse_number":202,"verse_key":"7:202","hizb_number":18,"rub_el_hizb_number":70,"ruku_number":145,"manzil_number":2,"sajdah_number":null,"page_number":176,"juz_number":9,"words":[{"id":85376,"position":1,"audio_url":"wbw/007_202_001.mp3","char_type_name":"word","page_number":176,"line_number":8,"text":"وَإِخْوَٰنُهُمْ","translation":{"text":"এবং তাদের (বিভ্রান্ত) ভাইয়েরা","language_name":"bengali","language_id":20},"transliteration":{"text":"wa-ikh'wānuhum","language_name":"english","language_id":38}},{"id":85377,"position":2,"audio_url":"wbw/007_202_002.mp3","char_type_name":"word","page_number":176,"line_number":8,"text":"يَمُدُّونَهُمْ","translation":{"text":"টেনে নেয় তাদেরকে","language_name":"bengali","language_id":20},"transliteration":{"text":"yamuddūnahum","language_name":"english","language_id":38}},{"id":85378,"position":3,"audio_url":"wbw/007_202_003.mp3","char_type_name":"word","page_number":176,"line_number":8,"text":"فِى","translation":{"text":"মধ্যে","language_name":"bengali","language_id":20},"transliteration":{"text":"fī","language_name":"english","language_id":38}},{"id":85379,"position":4,"audio_url":"wbw/007_202_004.mp3","char_type_name":"word","page_number":176,"line_number":8,"text":"ٱلْغَىِّ","translation":{"text":"ভ্রান্তির","language_name":"bengali","language_id":20},"transliteration":{"text":"l-ghayi","language_name":"english","language_id":38}},{"id":85380,"position":5,"audio_url":"wbw/007_202_005.mp3","char_type_name":"word","page_number":176,"line_number":8,"text":"ثُمَّ","translation":{"text":"এরপর","language_name":"bengali","language_id":20},"transliteration":{"text":"thumma","language_name":"english","language_id":38}},{"id":85381,"position":6,"audio_url":"wbw/007_202_006.mp3","char_type_name":"word","page_number":176,"line_number":9,"text":"لَا","translation":{"text":"না","language_name":"bengali","language_id":20},"transliteration":{"text":"lā","language_name":"english","language_id":38}},{"id":85382,"position":7,"audio_url":"wbw/007_202_007.mp3","char_type_name":"word","page_number":176,"line_number":9,"text":"يُقْصِرُونَ","translation":{"text":"তারা ত্রুটি করে (বিভ্রান্তিতে রাখতে)","language_name":"bengali","language_id":20},"transliteration":{"text":"yuq'ṣirūna","language_name":"english","language_id":38}},{"id":85383,"position":8,"audio_url":null,"char_type_name":"end","page_number":176,"line_number":9,"text":"٢٠٢","translation":{"text":"(২০২)","language_name":"bengali","language_id":20},"transliteration":{"text":null,"language_name":"english","language_id":38}}]},{"id":1157,"verse_number":203,"verse_key":"7:203","hizb_number":18,"rub_el_hizb_number":70,"ruku_number":145,"manzil_number":2,"sajdah_number":null,"page_number":176,"juz_number":9,"words":[{"id":85414,"position":1,"audio_url":"wbw/007_203_001.mp3","char_type_name":"word","page_number":176,"line_number":9,"text":"وَإِذَا","translation":{"text":"এবং যখন","language_name":"bengali","language_id":20},"transliteration":{"text":"wa-idhā","language_name":"english","language_id":38}},{"id":85415,"position":2,"audio_url":"wbw/007_203_002.mp3","char_type_name":"word","page_number":176,"line_number":9,"text":"لَمْ","translation":{"text":"না","language_name":"bengali","language_id":20},"transliteration":{"text":"lam","language_name":"english","language_id":38}},{"id":85416,"position":3,"audio_url":"wbw/007_203_003.mp3","char_type_name":"word","page_number":176,"line_number":9,"text":"تَأْتِهِم","translation":{"text":"তাদের কাছে আসো তুমি","language_name":"bengali","language_id":20},"transliteration":{"text":"tatihim","language_name":"english","language_id":38}},{"id":85417,"position":4,"audio_url":"wbw/007_203_004.mp3","char_type_name":"word","page_number":176,"line_number":9,"text":"بِـَٔايَةٍۢ","translation":{"text":"কোনো নিদর্শন","language_name":"bengali","language_id":20},"transliteration":{"text":"biāyatin","language_name":"english","language_id":38}},{"id":85418,"position":5,"audio_url":"wbw/007_203_005.mp3","char_type_name":"word","page_number":176,"line_number":9,"text":"قَالُوا۟","translation":{"text":"তারা বলে","language_name":"bengali","language_id":20},"transliteration":{"text":"qālū","language_name":"english","language_id":38}},{"id":85419,"position":6,"audio_url":"wbw/007_203_006.mp3","char_type_name":"word","page_number":176,"line_number":9,"text":"لَوْلَا","translation":{"text":"\"কেন না","language_name":"bengali","language_id":20},"transliteration":{"text":"lawlā","language_name":"english","language_id":38}},{"id":85420,"position":7,"audio_url":"wbw/007_203_007.mp3","char_type_name":"word","page_number":176,"line_number":9,"text":"ٱجْتَبَيْتَهَا ۚ","translation":{"text":"তুমি বেছে নিলে তা\"","language_name":"bengali","language_id":20},"transliteration":{"text":"ij'tabaytahā","language_name":"english","language_id":38}},{"id":85422,"position":8,"audio_url":"wbw/007_203_009.mp3","char_type_name":"word","page_number":176,"line_number":10,"text":"قُلْ","translation":{"text":"বলো","language_name":"bengali","language_id":20},"transliteration":{"text":"qul","language_name":"english","language_id":38}},{"id":85423,"position":9,"audio_url":"wbw/007_203_010.mp3","char_type_name":"word","page_number":176,"line_number":10,"text":"إِنَّمَآ","translation":{"text":"\"প্রকৃত পক্ষে","language_name":"bengali","language_id":20},"transliteration":{"text":"innamā","language_name":"english","language_id":38}},{"id":85424,"position":10,"audio_url":"wbw/007_203_011.mp3","char_type_name":"word","page_number":176,"line_number":10,"text":"أَتَّبِعُ","translation":{"text":"অনুসরণ করি আমি","language_name":"bengali","language_id":20},"transliteration":{"text":"attabiʿu","language_name":"english","language_id":38}},{"id":85425,"position":11,"audio_url":"wbw/007_203_012.mp3","char_type_name":"word","page_number":176,"line_number":10,"text":"مَا","translation":{"text":"যা","language_name":"bengali","language_id":20},"transliteration":{"text":"mā","language_name":"english","language_id":38}},{"id":85426,"position":12,"audio_url":"wbw/007_203_013.mp3","char_type_name":"word","page_number":176,"line_number":10,"text":"يُوحَىٰٓ","translation":{"text":"ওহী করা হয়","language_name":"bengali","language_id":20},"transliteration":{"text":"yūḥā","language_name":"english","language_id":38}},{"id":85427,"position":13,"audio_url":"wbw/007_203_014.mp3","char_type_name":"word","page_number":176,"line_number":10,"text":"إِلَىَّ","translation":{"text":"প্রতি আমার","language_name":"bengali","language_id":20},"transliteration":{"text":"ilayya","language_name":"english","language_id":38}},{"id":85428,"position":14,"audio_url":"wbw/007_203_015.mp3","char_type_name":"word","page_number":176,"line_number":10,"text":"مِن","translation":{"text":"পক্ষ হতে","language_name":"bengali","language_id":20},"transliteration":{"text":"min","language_name":"english","language_id":38}},{"id":85429,"position":15,"audio_url":"wbw/007_203_016.mp3","char_type_name":"word","page_number":176,"line_number":10,"text":"رَّبِّى ۚ","translation":{"text":"আমার রবের","language_name":"bengali","language_id":20},"transliteration":{"text":"rabbī","language_name":"english","language_id":38}},{"id":85431,"position":16,"audio_url":"wbw/007_203_018.mp3","char_type_name":"word","page_number":176,"line_number":10,"text":"هَـٰذَا","translation":{"text":"এটা","language_name":"bengali","language_id":20},"transliteration":{"text":"hādhā","language_name":"english","language_id":38}},{"id":85432,"position":17,"audio_url":"wbw/007_203_019.mp3","char_type_name":"word","page_number":176,"line_number":10,"text":"بَصَآئِرُ","translation":{"text":"জ্ঞানালোক","language_name":"bengali","language_id":20},"transliteration":{"text":"baṣāiru","language_name":"english","language_id":38}},{"id":85433,"position":18,"audio_url":"wbw/007_203_020.mp3","char_type_name":"word","page_number":176,"line_number":10,"text":"مِن","translation":{"text":"পক্ষ হতে","language_name":"bengali","language_id":20},"transliteration":{"text":"min","language_name":"english","language_id":38}},{"id":85434,"position":19,"audio_url":"wbw/007_203_021.mp3","char_type_name":"word","page_number":176,"line_number":10,"text":"رَّبِّكُمْ","translation":{"text":"তোমার রবের","language_name":"bengali","language_id":20},"transliteration":{"text":"rabbikum","language_name":"english","language_id":38}},{"id":85435,"position":20,"audio_url":"wbw/007_203_022.mp3","char_type_name":"word","page_number":176,"line_number":11,"text":"وَهُدًۭى","translation":{"text":"এবং পথনির্দেশ","language_name":"bengali","language_id":20},"transliteration":{"text":"wahudan","language_name":"english","language_id":38}},{"id":85436,"position":21,"audio_url":"wbw/007_203_023.mp3","char_type_name":"word","page_number":176,"line_number":11,"text":"وَرَحْمَةٌۭ","translation":{"text":"এবং দয়া","language_name":"bengali","language_id":20},"transliteration":{"text":"waraḥmatun","language_name":"english","language_id":38}},{"id":85437,"position":22,"audio_url":"wbw/007_203_024.mp3","char_type_name":"word","page_number":176,"line_number":11,"text":"لِّقَوْمٍۢ","translation":{"text":"জন্যে ঐ সম্প্রদায়ের","language_name":"bengali","language_id":20},"transliteration":{"text":"liqawmin","language_name":"english","language_id":38}},{"id":85438,"position":23,"audio_url":"wbw/007_203_025.mp3","char_type_name":"word","page_number":176,"line_number":11,"text":"يُؤْمِنُونَ","translation":{"text":"(যারা) ঈমান আনে\"","language_name":"bengali","language_id":20},"transliteration":{"text":"yu'minūna","language_name":"english","language_id":38}},{"id":85439,"position":24,"audio_url":null,"char_type_name":"end","page_number":176,"line_number":11,"text":"٢٠٣","translation":{"text":"(২০৩)","language_name":"bengali","language_id":20},"transliteration":{"text":null,"language_name":"english","language_id":38}}]},{"id":1158,"verse_number":204,"verse_key":"7:204","hizb_number":18,"rub_el_hizb_number":70,"ruku_number":145,"manzil_number":2,"sajdah_number":null,"page_number":176,"juz_number":9,"words":[{"id":85466,"position":1,"audio_url":"wbw/007_204_001.mp3","char_type_name":"word","page_number":176,"line_number":11,"text":"وَإِذَا","translation":{"text":"এবং যখন","language_name":"bengali","language_id":20},"transliteration":{"text":"wa-idhā","language_name":"english","language_id":38}},{"id":85467,"position":2,"audio_url":"wbw/007_204_002.mp3","char_type_name":"word","page_number":176,"line_number":11,"text":"قُرِئَ","translation":{"text":"তিলাওয়াত করা হয়","language_name":"bengali","language_id":20},"transliteration":{"text":"quri-a","language_name":"english","language_id":38}},{"id":85468,"position":3,"audio_url":"wbw/007_204_003.mp3","char_type_name":"word","page_number":176,"line_number":11,"text":"ٱلْقُرْءَانُ","translation":{"text":"কুরআন","language_name":"bengali","language_id":20},"transliteration":{"text":"l-qur'ānu","language_name":"english","language_id":38}},{"id":85469,"position":4,"audio_url":"wbw/007_204_004.mp3","char_type_name":"word","page_number":176,"line_number":12,"text":"فَٱسْتَمِعُوا۟","translation":{"text":"তখন তোমরা মনোযোগ দিয়ে শুনো","language_name":"bengali","language_id":20},"transliteration":{"text":"fa-is'tamiʿū","language_name":"english","language_id":38}},{"id":85470,"position":5,"audio_url":"wbw/007_204_005.mp3","char_type_name":"word","page_number":176,"line_number":12,"text":"لَهُۥ","translation":{"text":"প্রতি তার","language_name":"bengali","language_id":20},"transliteration":{"text":"lahu","language_name":"english","language_id":38}},{"id":85471,"position":6,"audio_url":"wbw/007_204_006.mp3","char_type_name":"word","page_number":176,"line_number":12,"text":"وَأَنصِتُوا۟","translation":{"text":"এবং তোমরা চুপ থাকো","language_name":"bengali","language_id":20},"transliteration":{"text":"wa-anṣitū","language_name":"english","language_id":38}},{"id":85472,"position":7,"audio_url":"wbw/007_204_007.mp3","char_type_name":"word","page_number":176,"line_number":12,"text":"لَعَلَّكُمْ","translation":{"text":"যাতে তোমরা","language_name":"bengali","language_id":20},"transliteration":{"text":"laʿallakum","language_name":"english","language_id":38}},{"id":85473,"position":8,"audio_url":"wbw/007_204_008.mp3","char_type_name":"word","page_number":176,"line_number":12,"text":"تُرْحَمُونَ","translation":{"text":"দয়াপ্রাপ্ত হও","language_name":"bengali","language_id":20},"transliteration":{"text":"tur'ḥamūna","language_name":"english","language_id":38}},{"id":85474,"position":9,"audio_url":null,"char_type_name":"end","page_number":176,"line_number":12,"text":"٢٠٤","translation":{"text":"(২০৪)","language_name":"bengali","language_id":20},"transliteration":{"text":null,"language_name":"english","language_id":38}}]},{"id":1159,"verse_number":205,"verse_key":"7:205","hizb_number":18,"rub_el_hizb_number":70,"ruku_number":145,"manzil_number":2,"sajdah_number":null,"page_number":176,"juz_number":9,"words":[{"id":85496,"position":1,"audio_url":"wbw/007_205_001.mp3","char_type_name":"word","page_number":176,"line_number":12,"text":"وَٱذْكُر","translation":{"text":"এবং স্মরণ করো","language_name":"bengali","language_id":20},"transliteration":{"text":"wa-udh'kur","language_name":"english","language_id":38}},{"id":85497,"position":2,"audio_url":"wbw/007_205_002.mp3","char_type_name":"word","page_number":176,"line_number":12,"text":"رَّبَّكَ","translation":{"text":"তোমার রবকে","language_name":"bengali","language_id":20},"transliteration":{"text":"rabbaka","language_name":"english","language_id":38}},{"id":85498,"position":3,"audio_url":"wbw/007_205_003.mp3","char_type_name":"word","page_number":176,"line_number":13,"text":"فِى","translation":{"text":"মধ্যে","language_name":"bengali","language_id":20},"transliteration":{"text":"fī","language_name":"english","language_id":38}},{"id":85499,"position":4,"audio_url":"wbw/007_205_004.mp3","char_type_name":"word","page_number":176,"line_number":13,"text":"نَفْسِكَ","translation":{"text":"তোমার মনের","language_name":"bengali","language_id":20},"transliteration":{"text":"nafsika","language_name":"english","language_id":38}},{"id":85500,"position":5,"audio_url":"wbw/007_205_005.mp3","char_type_name":"word","page_number":176,"line_number":13,"text":"تَضَرُّعًۭا","translation":{"text":"সবিনয়ে","language_name":"bengali","language_id":20},"transliteration":{"text":"taḍarruʿan","language_name":"english","language_id":38}},{"id":85501,"position":6,"audio_url":"wbw/007_205_006.mp3","char_type_name":"word","page_number":176,"line_number":13,"text":"وَخِيفَةًۭ","translation":{"text":"ও ভয়ে","language_name":"bengali","language_id":20},"transliteration":{"text":"wakhīfatan","language_name":"english","language_id":38}},{"id":85502,"position":7,"audio_url":"wbw/007_205_007.mp3","char_type_name":"word","page_number":176,"line_number":13,"text":"وَدُونَ","translation":{"text":"এবং ছাড়া","language_name":"bengali","language_id":20},"transliteration":{"text":"wadūna","language_name":"english","language_id":38}},{"id":85503,"position":8,"audio_url":"wbw/007_205_008.mp3","char_type_name":"word","page_number":176,"line_number":13,"text":"ٱلْجَهْرِ","translation":{"text":"উচ্চস্বর (অর্থাৎ নিরবে স্মরণ করো)","language_name":"bengali","language_id":20},"transliteration":{"text":"l-jahri","language_name":"english","language_id":38}},{"id":85504,"position":9,"audio_url":"wbw/007_205_009.mp3","char_type_name":"word","page_number":176,"line_number":13,"text":"مِنَ","translation":{"text":"মাধ্যমে","language_name":"bengali","language_id":20},"transliteration":{"text":"mina","language_name":"english","language_id":38}},{"id":85505,"position":10,"audio_url":"wbw/007_205_010.mp3","char_type_name":"word","page_number":176,"line_number":13,"text":"ٱلْقَوْلِ","translation":{"text":"কথার","language_name":"bengali","language_id":20},"transliteration":{"text":"l-qawli","language_name":"english","language_id":38}},{"id":85506,"position":11,"audio_url":"wbw/007_205_011.mp3","char_type_name":"word","page_number":176,"line_number":13,"text":"بِٱلْغُدُوِّ","translation":{"text":"বেলায় সকাল","language_name":"bengali","language_id":20},"transliteration":{"text":"bil-ghuduwi","language_name":"english","language_id":38}},{"id":85507,"position":12,"audio_url":"wbw/007_205_012.mp3","char_type_name":"word","page_number":176,"line_number":14,"text":"وَٱلْـَٔاصَالِ","translation":{"text":"ও সন্ধ্যায়","language_name":"bengali","language_id":20},"transliteration":{"text":"wal-āṣāli","language_name":"english","language_id":38}},{"id":85508,"position":13,"audio_url":"wbw/007_205_013.mp3","char_type_name":"word","page_number":176,"line_number":14,"text":"وَلَا","translation":{"text":"এবং না","language_name":"bengali","language_id":20},"transliteration":{"text":"walā","language_name":"english","language_id":38}},{"id":85509,"position":14,"audio_url":"wbw/007_205_014.mp3","char_type_name":"word","page_number":176,"line_number":14,"text":"تَكُن","translation":{"text":"হয়ো","language_name":"bengali","language_id":20},"transliteration":{"text":"takun","language_name":"english","language_id":38}},{"id":85510,"position":15,"audio_url":"wbw/007_205_015.mp3","char_type_name":"word","page_number":176,"line_number":14,"text":"مِّنَ","translation":{"text":"অন্তর্ভুক্ত","language_name":"bengali","language_id":20},"transliteration":{"text":"mina","language_name":"english","language_id":38}},{"id":85511,"position":16,"audio_url":"wbw/007_205_016.mp3","char_type_name":"word","page_number":176,"line_number":14,"text":"ٱلْغَـٰفِلِينَ","translation":{"text":"উদাসীনদের","language_name":"bengali","language_id":20},"transliteration":{"text":"l-ghāfilīna","language_name":"english","language_id":38}},{"id":85512,"position":17,"audio_url":null,"char_type_name":"end","page_number":176,"line_number":14,"text":"٢٠٥","translation":{"text":"(২০৫)","language_name":"bengali","language_id":20},"transliteration":{"text":null,"language_name":"english","language_id":38}}]},{"id":1160,"verse_number":206,"verse_key":"7:206","hizb_number":18,"rub_el_hizb_number":70,"ruku_number":145,"manzil_number":2,"sajdah_number":1,"page_number":176,"juz_number":9,"words":[{"id":85534,"position":1,"audio_url":"wbw/007_206_001.mp3","char_type_name":"word","page_number":176,"line_number":14,"text":"إِنَّ","translation":{"text":"নিশ্চয়ই","language_name":"bengali","language_id":20},"transliteration":{"text":"inna","language_name":"english","language_id":38}},{"id":85535,"position":2,"audio_url":"wbw/007_206_002.mp3","char_type_name":"word","page_number":176,"line_number":14,"text":"ٱلَّذِينَ","translation":{"text":"যারা (অর্থাৎ ফেরেশতারা)","language_name":"bengali","language_id":20},"transliteration":{"text":"alladhīna","language_name":"english","language_id":38}},{"id":85536,"position":3,"audio_url":"wbw/007_206_003.mp3","char_type_name":"word","page_number":176,"line_number":14,"text":"عِندَ","translation":{"text":"নিকটে (রয়েছে)","language_name":"bengali","language_id":20},"transliteration":{"text":"ʿinda","language_name":"english","language_id":38}},{"id":85537,"position":4,"audio_url":"wbw/007_206_004.mp3","char_type_name":"word","page_number":176,"line_number":14,"text":"رَبِّكَ","translation":{"text":"তোমার রবের","language_name":"bengali","language_id":20},"transliteration":{"text":"rabbika","language_name":"english","language_id":38}},{"id":85538,"position":5,"audio_url":"wbw/007_206_005.mp3","char_type_name":"word","page_number":176,"line_number":15,"text":"لَا","translation":{"text":"না","language_name":"bengali","language_id":20},"transliteration":{"text":"lā","language_name":"english","language_id":38}},{"id":85539,"position":6,"audio_url":"wbw/007_206_006.mp3","char_type_name":"word","page_number":176,"line_number":15,"text":"يَسْتَكْبِرُونَ","translation":{"text":"তারা অহংকার করে","language_name":"bengali","language_id":20},"transliteration":{"text":"yastakbirūna","language_name":"english","language_id":38}},{"id":85540,"position":7,"audio_url":"wbw/007_206_007.mp3","char_type_name":"word","page_number":176,"line_number":15,"text":"عَنْ","translation":{"text":"ব্যাপারে","language_name":"bengali","language_id":20},"transliteration":{"text":"ʿan","language_name":"english","language_id":38}},{"id":85541,"position":8,"audio_url":"wbw/007_206_008.mp3","char_type_name":"word","page_number":176,"line_number":15,"text":"عِبَادَتِهِۦ","translation":{"text":"ইবাদতের তাঁর","language_name":"bengali","language_id":20},"transliteration":{"text":"ʿibādatihi","language_name":"english","language_id":38}},{"id":85542,"position":9,"audio_url":"wbw/007_206_009.mp3","char_type_name":"word","page_number":176,"line_number":15,"text":"وَيُسَبِّحُونَهُۥ","translation":{"text":"ও মহিমা ঘোষণা করে তাঁর","language_name":"bengali","language_id":20},"transliteration":{"text":"wayusabbiḥūnahu","language_name":"english","language_id":38}},{"id":85543,"position":10,"audio_url":"wbw/007_206_010.mp3","char_type_name":"word","page_number":176,"line_number":15,"text":"وَلَهُۥ","translation":{"text":"এবং জন্যে তাঁর","language_name":"bengali","language_id":20},"transliteration":{"text":"walahu","language_name":"english","language_id":38}},{"id":85544,"position":11,"audio_url":"wbw/007_206_011.mp3","char_type_name":"word","page_number":176,"line_number":15,"text":"يَسْجُدُونَ ۩","translation":{"text":"তারা সিজদা করে","language_name":"bengali","language_id":20},"transliteration":{"text":"yasjudūna","language_name":"english","language_id":38}},{"id":85546,"position":12,"audio_url":"","char_type_name":"end","page_number":176,"line_number":15,"text":"٢٠٦","translation":{"text":"(২০৬)","language_name":"bengali","language_id":20},"transliteration":{"text":"","language_name":"english","language_id":38}}]}],"pagination":{"per_page":10,"current_page":21,"next_page":null,"total_pages":21,"total_records":206}}
