{"verses":[{"id":1833,"verse_number":31,"verse_key":"15:31","hizb_number":27,"rub_el_hizb_number":105,"ruku_number":220,"manzil_number":3,"sajdah_number":null,"page_number":263,"juz_number":14,"words":[{"id":34242,"position":1,"audio_url":"wbw/015_031_001.mp3","char_type_name":"word","page_number":263,"line_number":15,"text":"إِلَّآ","translation":{"text":"ছাড়া","language_name":"bengali","language_id":20},"transliteration":{"text":"illā","language_name":"english","language_id":38}},{"id":34243,"position":2,"audio_url":"wbw/015_031_002.mp3","char_type_name":"word","page_number":263,"line_number":15,"text":"إِبْلِيسَ","translation":{"text":"ইবলীস","language_name":"bengali","language_id":20},"transliteration":{"text":"ib'līsa","language_name":"english","language_id":38}},{"id":34244,"position":3,"audio_url":"wbw/015_031_003.mp3","char_type_name":"word","page_number":263,"line_number":15,"text":"أَبَىٰٓ","translation":{"text":"সে অস্বীকার করলো","language_name":"bengali","language_id":20},"transliteration":{"text":"abā","language_name":"english","language_id":38}},{"id":34245,"position":4,"audio_url":"wbw/015_031_004.mp3","char_type_name":"word","page_number":263,"line_number":15,"text":"أَن","translation":{"text":"যে","language_name":"bengali","language_id":20},"transliteration":{"text":"an","language_name":"english","language_id":38}},{"id":34246,"position":5,"audio_url":"wbw/015_031_005.mp3","char_type_name":"word","page_number":263,"line_number":15,"text":"يَكُونَ","translation":{"text":"হবে","language_name":"bengali","language_id":20},"transliteration":{"text":"yakūna","language_name":"english","language_id":38}},{"id":34247,"position":6,"audio_url":"wbw/015_031_006.mp3","char_type_name":"word","page_number":263,"line_number":15,"text":"مَعَ","translation":{"text":"অন্তর্ভুক্ত","language_name":"bengali","language_id":20},"transliteration":{"text":"maʿa","language_name":"english","language_id":38}},{"id":34248,"position":7,"audio_url":"wbw/015_031_007.mp3","char_type_name":"word","page_number":263,"line_number":15,"text":"ٱلسَّـٰجِدِينَ","translation":{"text":"সিজদাকারীদের","language_name":"bengali","language_id":20},"transliteration":{"text":"l-sājidīna","language_name":"english","language_id":38}},{"id":34249,"position":8,"audio_url":null,"char_type_name":"end","page_number":263,"line_number":15,"text":"٣١","translation":{"text":"(৩১)","language_name":"bengali","language_id":20},"transliteration":{"text":null,"language_name":"english","language_id":38}}]},{"id":1834,"verse_number":32,"verse_key":"15:32","hizb_number":27,"rub_el_hizb_number":105,"ruku_number":220,"manzil_number":3,"sajdah_number":null,"page_number":264,"juz_number":14,"words":[{"id":35104,"position":1,"audio_url":"wbw/015_032_001.mp3","char_type_name":"word","page_number":264,"line_number":1,"text":"قَالَ","translation":{"text":"তিনি বললেন","language_name":"bengali","language_id":20},"transliteration":{"text":"qāla","language_name":"english","language_id":38}},{"id":35105,"position":2,"audio_url":"wbw/015_032_002.mp3","char_type_name":"word","page_number":264,"line_number":1,"text":"يَـٰٓإِبْلِيسُ","translation":{"text":"\"হে ইবলীস","language_name":"bengali","language_id":20},"transliteration":{"text":"yāib'līsu","language_name":"english","language_id":38}},{"id":35106,"position":3,"audio_url":"wbw/015_032_003.mp3","char_type_name":"word","page_number":264,"line_number":1,"text":"مَا","translation":{"text":"কি","language_name":"bengali","language_id":20},"transliteration":{"text":"mā","language_name":"english","language_id":38}},{"id":35107,"position":4,"audio_url":"wbw/015_032_004.mp3","char_type_name":"word","page_number":264,"line_number":1,"text":"لَكَ","translation":{"text":"তোমার হয়েছে","language_name":"bengali","language_id":20},"transliteration":{"text":"laka","language_name":"english","language_id":38}},{"id":35108,"position":5,"audio_url":"wbw/015_032_005.mp3","char_type_name":"word","page_number":264,"line_number":1,"text":"أَلَّا","translation":{"text":"যে না","language_name":"bengali","language_id":20},"transliteration":{"text":"allā","language_name":"english","language_id":38}},{"id":35109,"position":6,"audio_url":"wbw/015_032_006.mp3","char_type_name":"word","page_number":264,"line_number":1,"text":"تَكُونَ","translation":{"text":"তুমি হ'লে","language_name":"bengali","language_id":20},"transliteration":{"text":"takūna","language_name":"english","language_id":38}},{"id":35110,"position":7,"audio_url":"wbw/015_032_007.mp3","char_type_name":"word","page_number":264,"line_number":1,"text":"مَعَ","translation":{"text":"সাথে","language_name":"bengali","language_id":20},"transliteration":{"text":"maʿa","language_name":"english","language_id":38}},{"id":35111,"position":8,"audio_url":"wbw/015_032_008.mp3","char_type_name":"word","page_number":264,"line_number":1,"text":"ٱلسَّـٰجِدِينَ","translation":{"text":"সিজদাকারীদের\"","language_name":"bengali","language_id":20},"transliteration":{"text":"l-sājidīna","language_name":"english","language_id":38}},{"id":35112,"position":9,"audio_url":null,"char_type_name":"end","page_number":264,"line_number":1,"text":"٣٢","translation":{"text":"(৩২)","language_name":"bengali","language_id":20},"transliteration":{"text":null,"language_name":"english","language_id":38}}]},{"id":1835,"verse_number":33,"verse_key":"15:33","hizb_number":27,"rub_el_hizb_number":105,"ruku_number":220,"manzil_number":3,"sajdah_number":null,"page_number":264,"juz_number":14,"words":[{"id":35960,"position":1,"audio_url":"wbw/015_033_001.mp3","char_type_name":"word","page_number":264,"line_number":1,"text":"قَالَ","translation":{"text":"সে বললো","language_name":"bengali","language_id":20},"transliteration":{"text":"qāla","language_name":"english","language_id":38}},{"id":35961,"position":2,"audio_url":"wbw/015_033_002.mp3","char_type_name":"word","page_number":264,"line_number":1,"text":"لَمْ","translation":{"text":"\"নি","language_name":"bengali","language_id":20},"transliteration":{"text":"lam","language_name":"english","language_id":38}},{"id":35962,"position":3,"audio_url":"wbw/015_033_003.mp3","char_type_name":"word","page_number":264,"line_number":1,"text":"أَكُن","translation":{"text":"\"আমি হই","language_name":"bengali","language_id":20},"transliteration":{"text":"akun","language_name":"english","language_id":38}},{"id":35963,"position":4,"audio_url":"wbw/015_033_004.mp3","char_type_name":"word","page_number":264,"line_number":2,"text":"لِّأَسْجُدَ","translation":{"text":"জন্যে আমি সিজদা করার","language_name":"bengali","language_id":20},"transliteration":{"text":"li-asjuda","language_name":"english","language_id":38}},{"id":35964,"position":5,"audio_url":"wbw/015_033_005.mp3","char_type_name":"word","page_number":264,"line_number":2,"text":"لِبَشَرٍ","translation":{"text":"মানুষকে","language_name":"bengali","language_id":20},"transliteration":{"text":"libasharin","language_name":"english","language_id":38}},{"id":35965,"position":6,"audio_url":"wbw/015_033_006.mp3","char_type_name":"word","page_number":264,"line_number":2,"text":"خَلَقْتَهُۥ","translation":{"text":"আপনি সৃষ্টি করেছেন তাকে","language_name":"bengali","language_id":20},"transliteration":{"text":"khalaqtahu","language_name":"english","language_id":38}},{"id":35966,"position":7,"audio_url":"wbw/015_033_007.mp3","char_type_name":"word","page_number":264,"line_number":2,"text":"مِن","translation":{"text":"হ'তে","language_name":"bengali","language_id":20},"transliteration":{"text":"min","language_name":"english","language_id":38}},{"id":35967,"position":8,"audio_url":"wbw/015_033_008.mp3","char_type_name":"word","page_number":264,"line_number":2,"text":"صَلْصَـٰلٍۢ","translation":{"text":"শুকনো ঠনঠনে মাটি","language_name":"bengali","language_id":20},"transliteration":{"text":"ṣalṣālin","language_name":"english","language_id":38}},{"id":35968,"position":9,"audio_url":"wbw/015_033_009.mp3","char_type_name":"word","page_number":264,"line_number":2,"text":"مِّنْ","translation":{"text":"তৈরী (থেকে)","language_name":"bengali","language_id":20},"transliteration":{"text":"min","language_name":"english","language_id":38}},{"id":35969,"position":10,"audio_url":"wbw/015_033_010.mp3","char_type_name":"word","page_number":264,"line_number":2,"text":"حَمَإٍۢ","translation":{"text":"কাদা","language_name":"bengali","language_id":20},"transliteration":{"text":"ḥama-in","language_name":"english","language_id":38}},{"id":35970,"position":11,"audio_url":"wbw/015_033_011.mp3","char_type_name":"word","page_number":264,"line_number":2,"text":"مَّسْنُونٍۢ","translation":{"text":"দুর্গন্ধযুক্ত\"","language_name":"bengali","language_id":20},"transliteration":{"text":"masnūnin","language_name":"english","language_id":38}},{"id":35971,"position":12,"audio_url":null,"char_type_name":"end","page_number":264,"line_number":2,"text":"٣٣","translation":{"text":"(৩৩)","language_name":"bengali","language_id":20},"transliteration":{"text":null,"language_name":"english","language_id":38}}]},{"id":1836,"verse_number":34,"verse_key":"15:34","hizb_number":27,"rub_el_hizb_number":105,"ruku_number":220,"manzil_number":3,"sajdah_number":null,"page_number":264,"juz_number":14,"words":[{"id":36836,"position":1,"audio_url":"wbw/015_034_001.mp3","char_type_name":"word","page_number":264,"line_number":3,"text":"قَالَ","translation":{"text":"তিনি বললেন","language_name":"bengali","language_id":20},"transliteration":{"text":"qāla","language_name":"english","language_id":38}},{"id":36837,"position":2,"audio_url":"wbw/015_034_002.mp3","char_type_name":"word","page_number":264,"line_number":3,"text":"فَٱخْرُجْ","translation":{"text":"\"তাহ'লে বের হও","language_name":"bengali","language_id":20},"transliteration":{"text":"fa-ukh'ruj","language_name":"english","language_id":38}},{"id":36838,"position":3,"audio_url":"wbw/015_034_003.mp3","char_type_name":"word","page_number":264,"line_number":3,"text":"مِنْهَا","translation":{"text":"তা থেকে","language_name":"bengali","language_id":20},"transliteration":{"text":"min'hā","language_name":"english","language_id":38}},{"id":36839,"position":4,"audio_url":"wbw/015_034_004.mp3","char_type_name":"word","page_number":264,"line_number":3,"text":"فَإِنَّكَ","translation":{"text":"কারণ নিশ্চয়ই তুমি","language_name":"bengali","language_id":20},"transliteration":{"text":"fa-innaka","language_name":"english","language_id":38}},{"id":36840,"position":5,"audio_url":"wbw/015_034_005.mp3","char_type_name":"word","page_number":264,"line_number":3,"text":"رَجِيمٌۭ","translation":{"text":"বিতাড়িত","language_name":"bengali","language_id":20},"transliteration":{"text":"rajīmun","language_name":"english","language_id":38}},{"id":36841,"position":6,"audio_url":null,"char_type_name":"end","page_number":264,"line_number":3,"text":"٣٤","translation":{"text":"(৩৪)","language_name":"bengali","language_id":20},"transliteration":{"text":null,"language_name":"english","language_id":38}}]},{"id":1837,"verse_number":35,"verse_key":"15:35","hizb_number":27,"rub_el_hizb_number":105,"ruku_number":220,"manzil_number":3,"sajdah_number":null,"page_number":264,"juz_number":14,"words":[{"id":37632,"position":1,"audio_url":"wbw/015_035_001.mp3","char_type_name":"word","page_number":264,"line_number":3,"text":"وَإِنَّ","translation":{"text":"এবং নিশ্চয়ই","language_name":"bengali","language_id":20},"transliteration":{"text":"wa-inna","language_name":"english","language_id":38}},{"id":37633,"position":2,"audio_url":"wbw/015_035_002.mp3","char_type_name":"word","page_number":264,"line_number":3,"text":"عَلَيْكَ","translation":{"text":"তোমার উপর","language_name":"bengali","language_id":20},"transliteration":{"text":"ʿalayka","language_name":"english","language_id":38}},{"id":37634,"position":3,"audio_url":"wbw/015_035_003.mp3","char_type_name":"word","page_number":264,"line_number":3,"text":"ٱللَّعْنَةَ","translation":{"text":"অভিশাপ","language_name":"bengali","language_id":20},"transliteration":{"text":"l-laʿnata","language_name":"english","language_id":38}},{"id":37635,"position":4,"audio_url":"wbw/015_035_004.mp3","char_type_name":"word","page_number":264,"line_number":3,"text":"إِلَىٰ","translation":{"text":"পর্যন্ত","language_name":"bengali","language_id":20},"transliteration":{"text":"ilā","language_name":"english","language_id":38}},{"id":37636,"position":5,"audio_url":"wbw/015_035_005.mp3","char_type_name":"word","page_number":264,"line_number":3,"text":"يَوْمِ","translation":{"text":"দিন","language_name":"bengali","language_id":20},"transliteration":{"text":"yawmi","language_name":"english","language_id":38}},{"id":37637,"position":6,"audio_url":"wbw/015_035_006.mp3","char_type_name":"word","page_number":264,"line_number":4,"text":"ٱلدِّينِ","translation":{"text":"বিচারের\"","language_name":"bengali","language_id":20},"transliteration":{"text":"l-dīni","language_name":"english","language_id":38}},{"id":37638,"position":7,"audio_url":null,"char_type_name":"end","page_number":264,"line_number":4,"text":"٣٥","translation":{"text":"(৩৫)","language_name":"bengali","language_id":20},"transliteration":{"text":null,"language_name":"english","language_id":38}}]},{"id":1838,"verse_number":36,"verse_key":"15:36","hizb_number":27,"rub_el_hizb_number":105,"ruku_number":220,"manzil_number":3,"sajdah_number":null,"page_number":264,"juz_number":14,"words":[{"id":38507,"position":1,"audio_url":"wbw/015_036_001.mp3","char_type_name":"word","page_number":264,"line_number":4,"text":"قَالَ","translation":{"text":"সে বললো","language_name":"bengali","language_id":20},"transliteration":{"text":"qāla","language_name":"english","language_id":38}},{"id":38508,"position":2,"audio_url":"wbw/015_036_002.mp3","char_type_name":"word","page_number":264,"line_number":4,"text":"رَبِّ","translation":{"text":"\"হে আমার রব","language_name":"bengali","language_id":20},"transliteration":{"text":"rabbi","language_name":"english","language_id":38}},{"id":38509,"position":3,"audio_url":"wbw/015_036_003.mp3","char_type_name":"word","page_number":264,"line_number":4,"text":"فَأَنظِرْنِىٓ","translation":{"text":"তবে আমাকে অবকাশ দিন","language_name":"bengali","language_id":20},"transliteration":{"text":"fa-anẓir'nī","language_name":"english","language_id":38}},{"id":38510,"position":4,"audio_url":"wbw/015_036_004.mp3","char_type_name":"word","page_number":264,"line_number":4,"text":"إِلَىٰ","translation":{"text":"পর্যন্ত","language_name":"bengali","language_id":20},"transliteration":{"text":"ilā","language_name":"english","language_id":38}},{"id":38511,"position":5,"audio_url":"wbw/015_036_005.mp3","char_type_name":"word","page_number":264,"line_number":4,"text":"يَوْمِ","translation":{"text":"দিবস","language_name":"bengali","language_id":20},"transliteration":{"text":"yawmi","language_name":"english","language_id":38}},{"id":38512,"position":6,"audio_url":"wbw/015_036_006.mp3","char_type_name":"word","page_number":264,"line_number":4,"text":"يُبْعَثُونَ","translation":{"text":"উত্থান\"","language_name":"bengali","language_id":20},"transliteration":{"text":"yub'ʿathūna","language_name":"english","language_id":38}},{"id":38513,"position":7,"audio_url":null,"char_type_name":"end","page_number":264,"line_number":4,"text":"٣٦","translation":{"text":"(৩৬)","language_name":"bengali","language_id":20},"transliteration":{"text":null,"language_name":"english","language_id":38}}]},{"id":1839,"verse_number":37,"verse_key":"15:37","hizb_number":27,"rub_el_hizb_number":105,"ruku_number":220,"manzil_number":3,"sajdah_number":null,"page_number":264,"juz_number":14,"words":[{"id":39378,"position":1,"audio_url":"wbw/015_037_001.mp3","char_type_name":"word","page_number":264,"line_number":4,"text":"قَالَ","translation":{"text":"তিনি বললেন","language_name":"bengali","language_id":20},"transliteration":{"text":"qāla","language_name":"english","language_id":38}},{"id":39379,"position":2,"audio_url":"wbw/015_037_002.mp3","char_type_name":"word","page_number":264,"line_number":4,"text":"فَإِنَّكَ","translation":{"text":"\"তাহ'লে নিশ্চয়ই তুমি","language_name":"bengali","language_id":20},"transliteration":{"text":"fa-innaka","language_name":"english","language_id":38}},{"id":39380,"position":3,"audio_url":"wbw/015_037_003.mp3","char_type_name":"word","page_number":264,"line_number":5,"text":"مِنَ","translation":{"text":"অন্তর্ভুক্ত","language_name":"bengali","language_id":20},"transliteration":{"text":"mina","language_name":"english","language_id":38}},{"id":39381,"position":4,"audio_url":"wbw/015_037_004.mp3","char_type_name":"word","page_number":264,"line_number":5,"text":"ٱلْمُنظَرِينَ","translation":{"text":"অবকাশপ্রাপ্তদের","language_name":"bengali","language_id":20},"transliteration":{"text":"l-munẓarīna","language_name":"english","language_id":38}},{"id":39382,"position":5,"audio_url":null,"char_type_name":"end","page_number":264,"line_number":5,"text":"٣٧","translation":{"text":"(৩৭)","language_name":"bengali","language_id":20},"transliteration":{"text":null,"language_name":"english","language_id":38}}]},{"id":1840,"verse_number":38,"verse_key":"15:38","hizb_number":27,"rub_el_hizb_number":105,"ruku_number":220,"manzil_number":3,"sajdah_number":null,"page_number":264,"juz_number":14,"words":[{"id":40207,"position":1,"audio_url":"wbw/015_038_001.mp3","char_type_name":"word","page_number":264,"line_number":5,"text":"إِلَىٰ","translation":{"text":"পর্যন্ত","language_name":"bengali","language_id":20},"transliteration":{"text":"ilā","language_name":"english","language_id":38}},{"id":40208,"position":2,"audio_url":"wbw/015_038_002.mp3","char_type_name":"word","page_number":264,"line_number":5,"text":"يَوْمِ","translation":{"text":"(ক্বিয়ামাতের) দিন","language_name":"bengali","language_id":20},"transliteration":{"text":"yawmi","language_name":"english","language_id":38}},{"id":40209,"position":3,"audio_url":"wbw/015_038_003.mp3","char_type_name":"word","page_number":264,"line_number":5,"text":"ٱلْوَقْتِ","translation":{"text":"(যার) সময়","language_name":"bengali","language_id":20},"transliteration":{"text":"l-waqti","language_name":"english","language_id":38}},{"id":40210,"position":4,"audio_url":"wbw/015_038_004.mp3","char_type_name":"word","page_number":264,"line_number":5,"text":"ٱلْمَعْلُومِ","translation":{"text":"অবধারিত\"","language_name":"bengali","language_id":20},"transliteration":{"text":"l-maʿlūmi","language_name":"english","language_id":38}},{"id":40211,"position":5,"audio_url":null,"char_type_name":"end","page_number":264,"line_number":5,"text":"٣٨","translation":{"text":"(৩৮)","language_name":"bengali","language_id":20},"transliteration":{"text":null,"language_name":"english","language_id":38}}]},{"id":1841,"verse_number":39,"verse_key":"15:39","hizb_number":27,"rub_el_hizb_number":105,"ruku_number":220,"manzil_number":3,"sajdah_number":null,"page_number":264,"juz_number":14,"words":[{"id":40942,"position":1,"audio_url":"wbw/015_039_001.mp3","char_type_name":"word","page_number":264,"line_number":5,"text":"قَالَ","translation":{"text":"সে বললো","language_name":"bengali","language_id":20},"transliteration":{"text":"qāla","language_name":"english","language_id":38}},{"id":40943,"position":2,"audio_url":"wbw/015_039_002.mp3","char_type_name":"word","page_number":264,"line_number":5,"text":"رَبِّ","translation":{"text":"\"হে আমার রব","language_name":"bengali","language_id":20},"transliteration":{"text":"rabbi","language_name":"english","language_id":38}},{"id":40944,"position":3,"audio_url":"wbw/015_039_003.mp3","char_type_name":"word","page_number":264,"line_number":5,"text":"بِمَآ","translation":{"text":"যে কারণে","language_name":"bengali","language_id":20},"transliteration":{"text":"bimā","language_name":"english","language_id":38}},{"id":40945,"position":4,"audio_url":"wbw/015_039_004.mp3","char_type_name":"word","page_number":264,"line_number":6,"text":"أَغْوَيْتَنِى","translation":{"text":"আমাকে আপনি বিপথগামী করলেন","language_name":"bengali","language_id":20},"transliteration":{"text":"aghwaytanī","language_name":"english","language_id":38}},{"id":40946,"position":5,"audio_url":"wbw/015_039_005.mp3","char_type_name":"word","page_number":264,"line_number":6,"text":"لَأُزَيِّنَنَّ","translation":{"text":"অবশ্যই আমি সুশোভন করবো","language_name":"bengali","language_id":20},"transliteration":{"text":"la-uzayyinanna","language_name":"english","language_id":38}},{"id":40947,"position":6,"audio_url":"wbw/015_039_006.mp3","char_type_name":"word","page_number":264,"line_number":6,"text":"لَهُمْ","translation":{"text":"জন্যে তাদের","language_name":"bengali","language_id":20},"transliteration":{"text":"lahum","language_name":"english","language_id":38}},{"id":40948,"position":7,"audio_url":"wbw/015_039_007.mp3","char_type_name":"word","page_number":264,"line_number":6,"text":"فِى","translation":{"text":"মধ্যে","language_name":"bengali","language_id":20},"transliteration":{"text":"fī","language_name":"english","language_id":38}},{"id":40949,"position":8,"audio_url":"wbw/015_039_008.mp3","char_type_name":"word","page_number":264,"line_number":6,"text":"ٱلْأَرْضِ","translation":{"text":"পৃথিবীর","language_name":"bengali","language_id":20},"transliteration":{"text":"l-arḍi","language_name":"english","language_id":38}},{"id":40950,"position":9,"audio_url":"wbw/015_039_009.mp3","char_type_name":"word","page_number":264,"line_number":6,"text":"وَلَأُغْوِيَنَّهُمْ","translation":{"text":"এবং অবশ্যই আমি বিপথগামী করবো তাদেরকে","language_name":"bengali","language_id":20},"transliteration":{"text":"wala-ugh'wiyannahum","language_name":"english","language_id":38}},{"id":40951,"position":10,"audio_url":"wbw/015_039_010.mp3","char_type_name":"word","page_number":264,"line_number":6,"text":"أَجْمَعِينَ","translation":{"text":"সকলকে","language_name":"bengali","language_id":20},"transliteration":{"text":"ajmaʿīna","language_name":"english","language_id":38}},{"id":40952,"position":11,"audio_url":null,"char_type_name":"end","page_number":264,"line_number":7,"text":"٣٩","translation":{"text":"(৩৯)","language_name":"bengali","language_id":20},"transliteration":{"text":null,"language_name":"english","language_id":38}}]},{"id":1842,"verse_number":40,"verse_key":"15:40","hizb_number":27,"rub_el_hizb_number":105,"ruku_number":220,"manzil_number":3,"sajdah_number":null,"page_number":264,"juz_number":14,"words":[{"id":41841,"position":1,"audio_url":"wbw/015_040_001.mp3","char_type_name":"word","page_number":264,"line_number":7,"text":"إِلَّا","translation":{"text":"ছাড়া","language_name":"bengali","language_id":20},"transliteration":{"text":"illā","language_name":"english","language_id":38}},{"id":41842,"position":2,"audio_url":"wbw/015_040_002.mp3","char_type_name":"word","page_number":264,"line_number":7,"text":"عِبَادَكَ","translation":{"text":"আপনার দাসদের","language_name":"bengali","language_id":20},"transliteration":{"text":"ʿibādaka","language_name":"english","language_id":38}},{"id":41843,"position":3,"audio_url":"wbw/015_040_003.mp3","char_type_name":"word","page_number":264,"line_number":7,"text":"مِنْهُمُ","translation":{"text":"তাদের মধ্য হ'তে","language_name":"bengali","language_id":20},"transliteration":{"text":"min'humu","language_name":"english","language_id":38}},{"id":41844,"position":4,"audio_url":"wbw/015_040_004.mp3","char_type_name":"word","page_number":264,"line_number":7,"text":"ٱلْمُخْلَصِينَ","translation":{"text":"একনিষ্ঠ\"","language_name":"bengali","language_id":20},"transliteration":{"text":"l-mukh'laṣīna","language_name":"english","language_id":38}},{"id":41845,"position":5,"audio_url":null,"char_type_name":"end","page_number":264,"line_number":7,"text":"٤٠","translation":{"text":"(৪০)","language_name":"bengali","language_id":20},"transliteration":{"text":null,"language_name":"english","language_id":38}}]}],"pagination":{"per_page":10,"current_page":4,"next_page":5,"total_pages":10,"total_records":99}}
