{"verses":[{"id":1843,"verse_number":41,"verse_key":"15:41","hizb_number":27,"rub_el_hizb_number":105,"ruku_number":220,"manzil_number":3,"sajdah_number":null,"page_number":264,"juz_number":14,"words":[{"id":42129,"position":1,"audio_url":"wbw/015_041_001.mp3","char_type_name":"word","page_number":264,"line_number":7,"text":"قَالَ","translation":{"text":"তিনি বললেন","language_name":"bengali","language_id":20},"transliteration":{"text":"qāla","language_name":"english","language_id":38}},{"id":42130,"position":2,"audio_url":"wbw/015_041_002.mp3","char_type_name":"word","page_number":264,"line_number":7,"text":"هَـٰذَا","translation":{"text":"\"এটা","language_name":"bengali","language_id":20},"transliteration":{"text":"hādhā","language_name":"english","language_id":38}},{"id":42131,"position":3,"audio_url":"wbw/015_041_003.mp3","char_type_name":"word","page_number":264,"line_number":7,"text":"صِرَٰطٌ","translation":{"text":"পথ","language_name":"bengali","language_id":20},"transliteration":{"text":"ṣirāṭun","language_name":"english","language_id":38}},{"id":42132,"position":4,"audio_url":"wbw/015_041_004.mp3","char_type_name":"word","page_number":264,"line_number":7,"text":"عَلَىَّ","translation":{"text":"আমার দিকে","language_name":"bengali","language_id":20},"transliteration":{"text":"ʿalayya","language_name":"english","language_id":38}},{"id":42133,"position":5,"audio_url":"wbw/015_041_005.mp3","char_type_name":"word","page_number":264,"line_number":8,"text":"مُسْتَقِيمٌ","translation":{"text":"সরল","language_name":"bengali","language_id":20},"transliteration":{"text":"mus'taqīmun","language_name":"english","language_id":38}},{"id":42134,"position":6,"audio_url":null,"char_type_name":"end","page_number":264,"line_number":8,"text":"٤١","translation":{"text":"(৪১)","language_name":"bengali","language_id":20},"transliteration":{"text":null,"language_name":"english","language_id":38}}]},{"id":1844,"verse_number":42,"verse_key":"15:42","hizb_number":27,"rub_el_hizb_number":105,"ruku_number":220,"manzil_number":3,"sajdah_number":null,"page_number":264,"juz_number":14,"words":[{"id":43315,"position":1,"audio_url":"wbw/015_042_001.mp3","char_type_name":"word","page_number":264,"line_number":8,"text":"إِنَّ","translation":{"text":"নিশ্চয়ই (যারা)","language_name":"bengali","language_id":20},"transliteration":{"text":"inna","language_name":"english","language_id":38}},{"id":43316,"position":2,"audio_url":"wbw/015_042_002.mp3","char_type_name":"word","page_number":264,"line_number":8,"text":"عِبَادِى","translation":{"text":"আমার দাসরা","language_name":"bengali","language_id":20},"transliteration":{"text":"ʿibādī","language_name":"english","language_id":38}},{"id":43317,"position":3,"audio_url":"wbw/015_042_003.mp3","char_type_name":"word","page_number":264,"line_number":8,"text":"لَيْسَ","translation":{"text":"নেই","language_name":"bengali","language_id":20},"transliteration":{"text":"laysa","language_name":"english","language_id":38}},{"id":43318,"position":4,"audio_url":"wbw/015_042_004.mp3","char_type_name":"word","page_number":264,"line_number":8,"text":"لَكَ","translation":{"text":"তোমার জন্যে","language_name":"bengali","language_id":20},"transliteration":{"text":"laka","language_name":"english","language_id":38}},{"id":43319,"position":5,"audio_url":"wbw/015_042_005.mp3","char_type_name":"word","page_number":264,"line_number":8,"text":"عَلَيْهِمْ","translation":{"text":"তাদের উপর","language_name":"bengali","language_id":20},"transliteration":{"text":"ʿalayhim","language_name":"english","language_id":38}},{"id":43320,"position":6,"audio_url":"wbw/015_042_006.mp3","char_type_name":"word","page_number":264,"line_number":8,"text":"سُلْطَـٰنٌ","translation":{"text":"কোন প্রভাব","language_name":"bengali","language_id":20},"transliteration":{"text":"sul'ṭānun","language_name":"english","language_id":38}},{"id":43321,"position":7,"audio_url":"wbw/015_042_007.mp3","char_type_name":"word","page_number":264,"line_number":8,"text":"إِلَّا","translation":{"text":"এ ছাড়া","language_name":"bengali","language_id":20},"transliteration":{"text":"illā","language_name":"english","language_id":38}},{"id":43322,"position":8,"audio_url":"wbw/015_042_008.mp3","char_type_name":"word","page_number":264,"line_number":8,"text":"مَنِ","translation":{"text":"যে","language_name":"bengali","language_id":20},"transliteration":{"text":"mani","language_name":"english","language_id":38}},{"id":43323,"position":9,"audio_url":"wbw/015_042_009.mp3","char_type_name":"word","page_number":264,"line_number":9,"text":"ٱتَّبَعَكَ","translation":{"text":"তোমার অনুসরণ করবে","language_name":"bengali","language_id":20},"transliteration":{"text":"ittabaʿaka","language_name":"english","language_id":38}},{"id":43324,"position":10,"audio_url":"wbw/015_042_010.mp3","char_type_name":"word","page_number":264,"line_number":9,"text":"مِنَ","translation":{"text":"থেকে","language_name":"bengali","language_id":20},"transliteration":{"text":"mina","language_name":"english","language_id":38}},{"id":43325,"position":11,"audio_url":"wbw/015_042_011.mp3","char_type_name":"word","page_number":264,"line_number":9,"text":"ٱلْغَاوِينَ","translation":{"text":"পথভ্রষ্ট\"","language_name":"bengali","language_id":20},"transliteration":{"text":"l-ghāwīna","language_name":"english","language_id":38}},{"id":43326,"position":12,"audio_url":null,"char_type_name":"end","page_number":264,"line_number":9,"text":"٤٢","translation":{"text":"(৪২)","language_name":"bengali","language_id":20},"transliteration":{"text":null,"language_name":"english","language_id":38}}]},{"id":1845,"verse_number":43,"verse_key":"15:43","hizb_number":27,"rub_el_hizb_number":105,"ruku_number":220,"manzil_number":3,"sajdah_number":null,"page_number":264,"juz_number":14,"words":[{"id":44076,"position":1,"audio_url":"wbw/015_043_001.mp3","char_type_name":"word","page_number":264,"line_number":9,"text":"وَإِنَّ","translation":{"text":"এবং নিশ্চয়ই","language_name":"bengali","language_id":20},"transliteration":{"text":"wa-inna","language_name":"english","language_id":38}},{"id":44077,"position":2,"audio_url":"wbw/015_043_002.mp3","char_type_name":"word","page_number":264,"line_number":9,"text":"جَهَنَّمَ","translation":{"text":"জাহান্নাম","language_name":"bengali","language_id":20},"transliteration":{"text":"jahannama","language_name":"english","language_id":38}},{"id":44078,"position":3,"audio_url":"wbw/015_043_003.mp3","char_type_name":"word","page_number":264,"line_number":9,"text":"لَمَوْعِدُهُمْ","translation":{"text":"অবশ্যই প্রতিশ্রুত স্হান তাদের","language_name":"bengali","language_id":20},"transliteration":{"text":"lamawʿiduhum","language_name":"english","language_id":38}},{"id":44079,"position":4,"audio_url":"wbw/015_043_004.mp3","char_type_name":"word","page_number":264,"line_number":9,"text":"أَجْمَعِينَ","translation":{"text":"সকলের","language_name":"bengali","language_id":20},"transliteration":{"text":"ajmaʿīna","language_name":"english","language_id":38}},{"id":44080,"position":5,"audio_url":null,"char_type_name":"end","page_number":264,"line_number":9,"text":"٤٣","translation":{"text":"(৪৩)","language_name":"bengali","language_id":20},"transliteration":{"text":null,"language_name":"english","language_id":38}}]},{"id":1846,"verse_number":44,"verse_key":"15:44","hizb_number":27,"rub_el_hizb_number":105,"ruku_number":220,"manzil_number":3,"sajdah_number":null,"page_number":264,"juz_number":14,"words":[{"id":44878,"position":1,"audio_url":"wbw/015_044_001.mp3","char_type_name":"word","page_number":264,"line_number":10,"text":"لَهَا","translation":{"text":"তার আছে","language_name":"bengali","language_id":20},"transliteration":{"text":"lahā","language_name":"english","language_id":38}},{"id":44879,"position":2,"audio_url":"wbw/015_044_002.mp3","char_type_name":"word","page_number":264,"line_number":10,"text":"سَبْعَةُ","translation":{"text":"সাতটি","language_name":"bengali","language_id":20},"transliteration":{"text":"sabʿatu","language_name":"english","language_id":38}},{"id":44880,"position":3,"audio_url":"wbw/015_044_003.mp3","char_type_name":"word","page_number":264,"line_number":10,"text":"أَبْوَٰبٍۢ","translation":{"text":"দরজা","language_name":"bengali","language_id":20},"transliteration":{"text":"abwābin","language_name":"english","language_id":38}},{"id":44881,"position":4,"audio_url":"wbw/015_044_004.mp3","char_type_name":"word","page_number":264,"line_number":10,"text":"لِّكُلِّ","translation":{"text":"জন্যে প্রত্যেকটির","language_name":"bengali","language_id":20},"transliteration":{"text":"likulli","language_name":"english","language_id":38}},{"id":44882,"position":5,"audio_url":"wbw/015_044_005.mp3","char_type_name":"word","page_number":264,"line_number":10,"text":"بَابٍۢ","translation":{"text":"দরজার","language_name":"bengali","language_id":20},"transliteration":{"text":"bābin","language_name":"english","language_id":38}},{"id":44883,"position":6,"audio_url":"wbw/015_044_006.mp3","char_type_name":"word","page_number":264,"line_number":10,"text":"مِّنْهُمْ","translation":{"text":"তাদের থেকে","language_name":"bengali","language_id":20},"transliteration":{"text":"min'hum","language_name":"english","language_id":38}},{"id":44884,"position":7,"audio_url":"wbw/015_044_007.mp3","char_type_name":"word","page_number":264,"line_number":10,"text":"جُزْءٌۭ","translation":{"text":"অংশ (দল)","language_name":"bengali","language_id":20},"transliteration":{"text":"juz'on","language_name":"english","language_id":38}},{"id":44885,"position":8,"audio_url":"wbw/015_044_008.mp3","char_type_name":"word","page_number":264,"line_number":10,"text":"مَّقْسُومٌ","translation":{"text":"পৃথক পৃথক","language_name":"bengali","language_id":20},"transliteration":{"text":"maqsūmun","language_name":"english","language_id":38}},{"id":44886,"position":9,"audio_url":null,"char_type_name":"end","page_number":264,"line_number":10,"text":"٤٤","translation":{"text":"(৪৪)","language_name":"bengali","language_id":20},"transliteration":{"text":null,"language_name":"english","language_id":38}}]},{"id":1847,"verse_number":45,"verse_key":"15:45","hizb_number":27,"rub_el_hizb_number":105,"ruku_number":221,"manzil_number":3,"sajdah_number":null,"page_number":264,"juz_number":14,"words":[{"id":45550,"position":1,"audio_url":"wbw/015_045_001.mp3","char_type_name":"word","page_number":264,"line_number":10,"text":"إِنَّ","translation":{"text":"নিশ্চয়ই","language_name":"bengali","language_id":20},"transliteration":{"text":"inna","language_name":"english","language_id":38}},{"id":45551,"position":2,"audio_url":"wbw/015_045_002.mp3","char_type_name":"word","page_number":264,"line_number":11,"text":"ٱلْمُتَّقِينَ","translation":{"text":"মুত্তাকীরা","language_name":"bengali","language_id":20},"transliteration":{"text":"l-mutaqīna","language_name":"english","language_id":38}},{"id":45552,"position":3,"audio_url":"wbw/015_045_003.mp3","char_type_name":"word","page_number":264,"line_number":11,"text":"فِى","translation":{"text":"মধ্যে (থাকবে)","language_name":"bengali","language_id":20},"transliteration":{"text":"fī","language_name":"english","language_id":38}},{"id":45553,"position":4,"audio_url":"wbw/015_045_004.mp3","char_type_name":"word","page_number":264,"line_number":11,"text":"جَنَّـٰتٍۢ","translation":{"text":"জান্নাতের","language_name":"bengali","language_id":20},"transliteration":{"text":"jannātin","language_name":"english","language_id":38}},{"id":45554,"position":5,"audio_url":"wbw/015_045_005.mp3","char_type_name":"word","page_number":264,"line_number":11,"text":"وَعُيُونٍ","translation":{"text":"ও ঝর্ণাধারাসমূহের","language_name":"bengali","language_id":20},"transliteration":{"text":"waʿuyūnin","language_name":"english","language_id":38}},{"id":45555,"position":6,"audio_url":null,"char_type_name":"end","page_number":264,"line_number":11,"text":"٤٥","translation":{"text":"(৪৫)","language_name":"bengali","language_id":20},"transliteration":{"text":null,"language_name":"english","language_id":38}}]},{"id":1848,"verse_number":46,"verse_key":"15:46","hizb_number":27,"rub_el_hizb_number":105,"ruku_number":221,"manzil_number":3,"sajdah_number":null,"page_number":264,"juz_number":14,"words":[{"id":46242,"position":1,"audio_url":"wbw/015_046_001.mp3","char_type_name":"word","page_number":264,"line_number":11,"text":"ٱدْخُلُوهَا","translation":{"text":"\"তাতে তোমরা প্রবেশ করো","language_name":"bengali","language_id":20},"transliteration":{"text":"ud'khulūhā","language_name":"english","language_id":38}},{"id":46243,"position":2,"audio_url":"wbw/015_046_002.mp3","char_type_name":"word","page_number":264,"line_number":11,"text":"بِسَلَـٰمٍ","translation":{"text":"সাথে শান্তির","language_name":"bengali","language_id":20},"transliteration":{"text":"bisalāmin","language_name":"english","language_id":38}},{"id":46244,"position":3,"audio_url":"wbw/015_046_003.mp3","char_type_name":"word","page_number":264,"line_number":11,"text":"ءَامِنِينَ","translation":{"text":"নিরাপদে\"","language_name":"bengali","language_id":20},"transliteration":{"text":"āminīna","language_name":"english","language_id":38}},{"id":46245,"position":4,"audio_url":null,"char_type_name":"end","page_number":264,"line_number":11,"text":"٤٦","translation":{"text":"(৪৬)","language_name":"bengali","language_id":20},"transliteration":{"text":null,"language_name":"english","language_id":38}}]},{"id":1849,"verse_number":47,"verse_key":"15:47","hizb_number":27,"rub_el_hizb_number":105,"ruku_number":221,"manzil_number":3,"sajdah_number":null,"page_number":264,"juz_number":14,"words":[{"id":46911,"position":1,"audio_url":"wbw/015_047_001.mp3","char_type_name":"word","page_number":264,"line_number":12,"text":"وَنَزَعْنَا","translation":{"text":"এবং আমরা দূর করে দিবো","language_name":"bengali","language_id":20},"transliteration":{"text":"wanazaʿnā","language_name":"english","language_id":38}},{"id":46912,"position":2,"audio_url":"wbw/015_047_002.mp3","char_type_name":"word","page_number":264,"line_number":12,"text":"مَا","translation":{"text":"যা","language_name":"bengali","language_id":20},"transliteration":{"text":"mā","language_name":"english","language_id":38}},{"id":46913,"position":3,"audio_url":"wbw/015_047_003.mp3","char_type_name":"word","page_number":264,"line_number":12,"text":"فِى","translation":{"text":"মধ্যে আছে","language_name":"bengali","language_id":20},"transliteration":{"text":"fī","language_name":"english","language_id":38}},{"id":46914,"position":4,"audio_url":"wbw/015_047_004.mp3","char_type_name":"word","page_number":264,"line_number":12,"text":"صُدُورِهِم","translation":{"text":"তাদের অন্তরসমূহের","language_name":"bengali","language_id":20},"transliteration":{"text":"ṣudūrihim","language_name":"english","language_id":38}},{"id":46915,"position":5,"audio_url":"wbw/015_047_005.mp3","char_type_name":"word","page_number":264,"line_number":12,"text":"مِّنْ","translation":{"text":"থেকে","language_name":"bengali","language_id":20},"transliteration":{"text":"min","language_name":"english","language_id":38}},{"id":46916,"position":6,"audio_url":"wbw/015_047_006.mp3","char_type_name":"word","page_number":264,"line_number":12,"text":"غِلٍّ","translation":{"text":"ঈর্ষা","language_name":"bengali","language_id":20},"transliteration":{"text":"ghillin","language_name":"english","language_id":38}},{"id":46917,"position":7,"audio_url":"wbw/015_047_007.mp3","char_type_name":"word","page_number":264,"line_number":12,"text":"إِخْوَٰنًا","translation":{"text":"ভাই ভাই হয়ে (তারা বসবে)","language_name":"bengali","language_id":20},"transliteration":{"text":"ikh'wānan","language_name":"english","language_id":38}},{"id":46918,"position":8,"audio_url":"wbw/015_047_008.mp3","char_type_name":"word","page_number":264,"line_number":12,"text":"عَلَىٰ","translation":{"text":"উপর","language_name":"bengali","language_id":20},"transliteration":{"text":"ʿalā","language_name":"english","language_id":38}},{"id":46919,"position":9,"audio_url":"wbw/015_047_009.mp3","char_type_name":"word","page_number":264,"line_number":12,"text":"سُرُرٍۢ","translation":{"text":"আসনসমূহের","language_name":"bengali","language_id":20},"transliteration":{"text":"sururin","language_name":"english","language_id":38}},{"id":46920,"position":10,"audio_url":"wbw/015_047_010.mp3","char_type_name":"word","page_number":264,"line_number":12,"text":"مُّتَقَـٰبِلِينَ","translation":{"text":"মুখোমুখি হয়ে","language_name":"bengali","language_id":20},"transliteration":{"text":"mutaqābilīna","language_name":"english","language_id":38}},{"id":46921,"position":11,"audio_url":null,"char_type_name":"end","page_number":264,"line_number":13,"text":"٤٧","translation":{"text":"(৪৭)","language_name":"bengali","language_id":20},"transliteration":{"text":null,"language_name":"english","language_id":38}}]},{"id":1850,"verse_number":48,"verse_key":"15:48","hizb_number":27,"rub_el_hizb_number":105,"ruku_number":221,"manzil_number":3,"sajdah_number":null,"page_number":264,"juz_number":14,"words":[{"id":47651,"position":1,"audio_url":"wbw/015_048_001.mp3","char_type_name":"word","page_number":264,"line_number":13,"text":"لَا","translation":{"text":"না","language_name":"bengali","language_id":20},"transliteration":{"text":"lā","language_name":"english","language_id":38}},{"id":47652,"position":2,"audio_url":"wbw/015_048_002.mp3","char_type_name":"word","page_number":264,"line_number":13,"text":"يَمَسُّهُمْ","translation":{"text":"তাদের স্পর্শ করবে","language_name":"bengali","language_id":20},"transliteration":{"text":"yamassuhum","language_name":"english","language_id":38}},{"id":47653,"position":3,"audio_url":"wbw/015_048_003.mp3","char_type_name":"word","page_number":264,"line_number":13,"text":"فِيهَا","translation":{"text":"তার মধ্যে","language_name":"bengali","language_id":20},"transliteration":{"text":"fīhā","language_name":"english","language_id":38}},{"id":47654,"position":4,"audio_url":"wbw/015_048_004.mp3","char_type_name":"word","page_number":264,"line_number":13,"text":"نَصَبٌۭ","translation":{"text":"কোনো অবসাদ","language_name":"bengali","language_id":20},"transliteration":{"text":"naṣabun","language_name":"english","language_id":38}},{"id":47655,"position":5,"audio_url":"wbw/015_048_005.mp3","char_type_name":"word","page_number":264,"line_number":13,"text":"وَمَا","translation":{"text":"আছে  না","language_name":"bengali","language_id":20},"transliteration":{"text":"wamā","language_name":"english","language_id":38}},{"id":47656,"position":6,"audio_url":"wbw/015_048_006.mp3","char_type_name":"word","page_number":264,"line_number":13,"text":"هُم","translation":{"text":"তারা","language_name":"bengali","language_id":20},"transliteration":{"text":"hum","language_name":"english","language_id":38}},{"id":47657,"position":7,"audio_url":"wbw/015_048_007.mp3","char_type_name":"word","page_number":264,"line_number":13,"text":"مِّنْهَا","translation":{"text":"তা থেকে","language_name":"bengali","language_id":20},"transliteration":{"text":"min'hā","language_name":"english","language_id":38}},{"id":47658,"position":8,"audio_url":"wbw/015_048_008.mp3","char_type_name":"word","page_number":264,"line_number":13,"text":"بِمُخْرَجِينَ","translation":{"text":"বহিষ্কৃত হবে","language_name":"bengali","language_id":20},"transliteration":{"text":"bimukh'rajīna","language_name":"english","language_id":38}},{"id":47659,"position":9,"audio_url":null,"char_type_name":"end","page_number":264,"line_number":13,"text":"٤٨","translation":{"text":"(৪৮)","language_name":"bengali","language_id":20},"transliteration":{"text":null,"language_name":"english","language_id":38}}]},{"id":1851,"verse_number":49,"verse_key":"15:49","hizb_number":27,"rub_el_hizb_number":106,"ruku_number":221,"manzil_number":3,"sajdah_number":null,"page_number":264,"juz_number":14,"words":[{"id":48307,"position":1,"audio_url":"wbw/015_049_002.mp3","char_type_name":"word","page_number":264,"line_number":14,"text":"۞ نَبِّئْ","translation":{"text":"জানিয়ে দাও","language_name":"bengali","language_id":20},"transliteration":{"text":"nabbi","language_name":"english","language_id":38}},{"id":48308,"position":2,"audio_url":"wbw/015_049_003.mp3","char_type_name":"word","page_number":264,"line_number":14,"text":"عِبَادِىٓ","translation":{"text":"আমার দাসদের","language_name":"bengali","language_id":20},"transliteration":{"text":"ʿibādī","language_name":"english","language_id":38}},{"id":48309,"position":3,"audio_url":"wbw/015_049_004.mp3","char_type_name":"word","page_number":264,"line_number":14,"text":"أَنِّىٓ","translation":{"text":"যে আমি","language_name":"bengali","language_id":20},"transliteration":{"text":"annī","language_name":"english","language_id":38}},{"id":48310,"position":4,"audio_url":"wbw/015_049_005.mp3","char_type_name":"word","page_number":264,"line_number":14,"text":"أَنَا","translation":{"text":"আমিই","language_name":"bengali","language_id":20},"transliteration":{"text":"anā","language_name":"english","language_id":38}},{"id":48311,"position":5,"audio_url":"wbw/015_049_006.mp3","char_type_name":"word","page_number":264,"line_number":14,"text":"ٱلْغَفُورُ","translation":{"text":"ক্ষমাশীল","language_name":"bengali","language_id":20},"transliteration":{"text":"l-ghafūru","language_name":"english","language_id":38}},{"id":48312,"position":6,"audio_url":"wbw/015_049_007.mp3","char_type_name":"word","page_number":264,"line_number":14,"text":"ٱلرَّحِيمُ","translation":{"text":"পরম দয়ালু","language_name":"bengali","language_id":20},"transliteration":{"text":"l-raḥīmu","language_name":"english","language_id":38}},{"id":48313,"position":7,"audio_url":null,"char_type_name":"end","page_number":264,"line_number":14,"text":"٤٩","translation":{"text":"(৪৯)","language_name":"bengali","language_id":20},"transliteration":{"text":null,"language_name":"english","language_id":38}}]},{"id":1852,"verse_number":50,"verse_key":"15:50","hizb_number":27,"rub_el_hizb_number":106,"ruku_number":221,"manzil_number":3,"sajdah_number":null,"page_number":264,"juz_number":14,"words":[{"id":48983,"position":1,"audio_url":"wbw/015_050_001.mp3","char_type_name":"word","page_number":264,"line_number":14,"text":"وَأَنَّ","translation":{"text":"এবং (এও) যে","language_name":"bengali","language_id":20},"transliteration":{"text":"wa-anna","language_name":"english","language_id":38}},{"id":48984,"position":2,"audio_url":"wbw/015_050_002.mp3","char_type_name":"word","page_number":264,"line_number":14,"text":"عَذَابِى","translation":{"text":"আমার শাস্তিও","language_name":"bengali","language_id":20},"transliteration":{"text":"ʿadhābī","language_name":"english","language_id":38}},{"id":48985,"position":3,"audio_url":"wbw/015_050_003.mp3","char_type_name":"word","page_number":264,"line_number":15,"text":"هُوَ","translation":{"text":"তা","language_name":"bengali","language_id":20},"transliteration":{"text":"huwa","language_name":"english","language_id":38}},{"id":48986,"position":4,"audio_url":"wbw/015_050_004.mp3","char_type_name":"word","page_number":264,"line_number":15,"text":"ٱلْعَذَابُ","translation":{"text":"শাস্তি","language_name":"bengali","language_id":20},"transliteration":{"text":"l-ʿadhābu","language_name":"english","language_id":38}},{"id":48987,"position":5,"audio_url":"wbw/015_050_005.mp3","char_type_name":"word","page_number":264,"line_number":15,"text":"ٱلْأَلِيمُ","translation":{"text":"নিদারুণ","language_name":"bengali","language_id":20},"transliteration":{"text":"l-alīmu","language_name":"english","language_id":38}},{"id":48988,"position":6,"audio_url":null,"char_type_name":"end","page_number":264,"line_number":15,"text":"٥٠","translation":{"text":"(৫০)","language_name":"bengali","language_id":20},"transliteration":{"text":null,"language_name":"english","language_id":38}}]}],"pagination":{"per_page":10,"current_page":5,"next_page":6,"total_pages":10,"total_records":99}}
