{"verses":[{"id":1853,"verse_number":51,"verse_key":"15:51","hizb_number":27,"rub_el_hizb_number":106,"ruku_number":221,"manzil_number":3,"sajdah_number":null,"page_number":264,"juz_number":14,"words":[{"id":49596,"position":1,"audio_url":"wbw/015_051_001.mp3","char_type_name":"word","page_number":264,"line_number":15,"text":"وَنَبِّئْهُمْ","translation":{"text":"এবং তাদের জানিয়ে দাও","language_name":"bengali","language_id":20},"transliteration":{"text":"wanabbi'hum","language_name":"english","language_id":38}},{"id":49597,"position":2,"audio_url":"wbw/015_051_002.mp3","char_type_name":"word","page_number":264,"line_number":15,"text":"عَن","translation":{"text":"সম্পর্কে","language_name":"bengali","language_id":20},"transliteration":{"text":"ʿan","language_name":"english","language_id":38}},{"id":49598,"position":3,"audio_url":"wbw/015_051_003.mp3","char_type_name":"word","page_number":264,"line_number":15,"text":"ضَيْفِ","translation":{"text":"মেহমান","language_name":"bengali","language_id":20},"transliteration":{"text":"ḍayfi","language_name":"english","language_id":38}},{"id":49599,"position":4,"audio_url":"wbw/015_051_004.mp3","char_type_name":"word","page_number":264,"line_number":15,"text":"إِبْرَٰهِيمَ","translation":{"text":"ইবরাহীমের","language_name":"bengali","language_id":20},"transliteration":{"text":"ib'rāhīma","language_name":"english","language_id":38}},{"id":49600,"position":5,"audio_url":null,"char_type_name":"end","page_number":264,"line_number":15,"text":"٥١","translation":{"text":"(৫১)","language_name":"bengali","language_id":20},"transliteration":{"text":null,"language_name":"english","language_id":38}}]},{"id":1854,"verse_number":52,"verse_key":"15:52","hizb_number":27,"rub_el_hizb_number":106,"ruku_number":221,"manzil_number":3,"sajdah_number":null,"page_number":265,"juz_number":14,"words":[{"id":50201,"position":1,"audio_url":"wbw/015_052_001.mp3","char_type_name":"word","page_number":265,"line_number":1,"text":"إِذْ","translation":{"text":"যখন","language_name":"bengali","language_id":20},"transliteration":{"text":"idh","language_name":"english","language_id":38}},{"id":50202,"position":2,"audio_url":"wbw/015_052_002.mp3","char_type_name":"word","page_number":265,"line_number":1,"text":"دَخَلُوا۟","translation":{"text":"তারা প্রবেশ  করেছিলো","language_name":"bengali","language_id":20},"transliteration":{"text":"dakhalū","language_name":"english","language_id":38}},{"id":50203,"position":3,"audio_url":"wbw/015_052_003.mp3","char_type_name":"word","page_number":265,"line_number":1,"text":"عَلَيْهِ","translation":{"text":"তার কাছে","language_name":"bengali","language_id":20},"transliteration":{"text":"ʿalayhi","language_name":"english","language_id":38}},{"id":50204,"position":4,"audio_url":"wbw/015_052_004.mp3","char_type_name":"word","page_number":265,"line_number":1,"text":"فَقَالُوا۟","translation":{"text":"অতঃপর তারা বলেছিলো","language_name":"bengali","language_id":20},"transliteration":{"text":"faqālū","language_name":"english","language_id":38}},{"id":50205,"position":5,"audio_url":"wbw/015_052_005.mp3","char_type_name":"word","page_number":265,"line_number":1,"text":"سَلَـٰمًۭا","translation":{"text":"\"(তোমাকে) সালাম\"","language_name":"bengali","language_id":20},"transliteration":{"text":"salāman","language_name":"english","language_id":38}},{"id":50206,"position":6,"audio_url":"wbw/015_052_006.mp3","char_type_name":"word","page_number":265,"line_number":1,"text":"قَالَ","translation":{"text":"সে বললো","language_name":"bengali","language_id":20},"transliteration":{"text":"qāla","language_name":"english","language_id":38}},{"id":50207,"position":7,"audio_url":"wbw/015_052_007.mp3","char_type_name":"word","page_number":265,"line_number":1,"text":"إِنَّا","translation":{"text":"\"নিশ্চয়ই আমরা","language_name":"bengali","language_id":20},"transliteration":{"text":"innā","language_name":"english","language_id":38}},{"id":50208,"position":8,"audio_url":"wbw/015_052_008.mp3","char_type_name":"word","page_number":265,"line_number":1,"text":"مِنكُمْ","translation":{"text":"তোমাদের থেকে","language_name":"bengali","language_id":20},"transliteration":{"text":"minkum","language_name":"english","language_id":38}},{"id":50209,"position":9,"audio_url":"wbw/015_052_009.mp3","char_type_name":"word","page_number":265,"line_number":1,"text":"وَجِلُونَ","translation":{"text":"আতঙ্কিত\"","language_name":"bengali","language_id":20},"transliteration":{"text":"wajilūna","language_name":"english","language_id":38}},{"id":50210,"position":10,"audio_url":null,"char_type_name":"end","page_number":265,"line_number":1,"text":"٥٢","translation":{"text":"(৫২)","language_name":"bengali","language_id":20},"transliteration":{"text":null,"language_name":"english","language_id":38}}]},{"id":1855,"verse_number":53,"verse_key":"15:53","hizb_number":27,"rub_el_hizb_number":106,"ruku_number":221,"manzil_number":3,"sajdah_number":null,"page_number":265,"juz_number":14,"words":[{"id":50870,"position":1,"audio_url":"wbw/015_053_001.mp3","char_type_name":"word","page_number":265,"line_number":1,"text":"قَالُوا۟","translation":{"text":"তারা বললো","language_name":"bengali","language_id":20},"transliteration":{"text":"qālū","language_name":"english","language_id":38}},{"id":50871,"position":2,"audio_url":"wbw/015_053_002.mp3","char_type_name":"word","page_number":265,"line_number":2,"text":"لَا","translation":{"text":"\"না","language_name":"bengali","language_id":20},"transliteration":{"text":"lā","language_name":"english","language_id":38}},{"id":50872,"position":3,"audio_url":"wbw/015_053_003.mp3","char_type_name":"word","page_number":265,"line_number":2,"text":"تَوْجَلْ","translation":{"text":"আতঙ্কিত হয়ো","language_name":"bengali","language_id":20},"transliteration":{"text":"tawjal","language_name":"english","language_id":38}},{"id":50873,"position":4,"audio_url":"wbw/015_053_004.mp3","char_type_name":"word","page_number":265,"line_number":2,"text":"إِنَّا","translation":{"text":"নিশ্চয়ই আমরা","language_name":"bengali","language_id":20},"transliteration":{"text":"innā","language_name":"english","language_id":38}},{"id":50874,"position":5,"audio_url":"wbw/015_053_005.mp3","char_type_name":"word","page_number":265,"line_number":2,"text":"نُبَشِّرُكَ","translation":{"text":"তোমাকে সুসংবাদ দিচ্ছি","language_name":"bengali","language_id":20},"transliteration":{"text":"nubashiruka","language_name":"english","language_id":38}},{"id":50875,"position":6,"audio_url":"wbw/015_053_006.mp3","char_type_name":"word","page_number":265,"line_number":2,"text":"بِغُلَـٰمٍ","translation":{"text":"একটি ছেলের","language_name":"bengali","language_id":20},"transliteration":{"text":"bighulāmin","language_name":"english","language_id":38}},{"id":50876,"position":7,"audio_url":"wbw/015_053_007.mp3","char_type_name":"word","page_number":265,"line_number":2,"text":"عَلِيمٍۢ","translation":{"text":"বড় জ্ঞানী\"","language_name":"bengali","language_id":20},"transliteration":{"text":"ʿalīmin","language_name":"english","language_id":38}},{"id":50877,"position":8,"audio_url":null,"char_type_name":"end","page_number":265,"line_number":2,"text":"٥٣","translation":{"text":"(৫৩)","language_name":"bengali","language_id":20},"transliteration":{"text":null,"language_name":"english","language_id":38}}]},{"id":1856,"verse_number":54,"verse_key":"15:54","hizb_number":27,"rub_el_hizb_number":106,"ruku_number":221,"manzil_number":3,"sajdah_number":null,"page_number":265,"juz_number":14,"words":[{"id":51322,"position":1,"audio_url":"wbw/015_054_001.mp3","char_type_name":"word","page_number":265,"line_number":2,"text":"قَالَ","translation":{"text":"সে বললো","language_name":"bengali","language_id":20},"transliteration":{"text":"qāla","language_name":"english","language_id":38}},{"id":51323,"position":2,"audio_url":"wbw/015_054_002.mp3","char_type_name":"word","page_number":265,"line_number":2,"text":"أَبَشَّرْتُمُونِى","translation":{"text":"\"কি আমাকে তোমরা সুসংবাদ দিচ্ছো","language_name":"bengali","language_id":20},"transliteration":{"text":"abashartumūnī","language_name":"english","language_id":38}},{"id":51324,"position":3,"audio_url":"wbw/015_054_003.mp3","char_type_name":"word","page_number":265,"line_number":2,"text":"عَلَىٰٓ","translation":{"text":"\"এ অবস্থায়","language_name":"bengali","language_id":20},"transliteration":{"text":"ʿalā","language_name":"english","language_id":38}},{"id":51325,"position":4,"audio_url":"wbw/015_054_004.mp3","char_type_name":"word","page_number":265,"line_number":2,"text":"أَن","translation":{"text":"যে","language_name":"bengali","language_id":20},"transliteration":{"text":"an","language_name":"english","language_id":38}},{"id":51326,"position":5,"audio_url":"wbw/015_054_005.mp3","char_type_name":"word","page_number":265,"line_number":3,"text":"مَّسَّنِىَ","translation":{"text":"আমাকে পেয়েছে","language_name":"bengali","language_id":20},"transliteration":{"text":"massaniya","language_name":"english","language_id":38}},{"id":51327,"position":6,"audio_url":"wbw/015_054_006.mp3","char_type_name":"word","page_number":265,"line_number":3,"text":"ٱلْكِبَرُ","translation":{"text":"বার্ধক্য","language_name":"bengali","language_id":20},"transliteration":{"text":"l-kibaru","language_name":"english","language_id":38}},{"id":51328,"position":7,"audio_url":"wbw/015_054_007.mp3","char_type_name":"word","page_number":265,"line_number":3,"text":"فَبِمَ","translation":{"text":"অতএব কি ধরণের","language_name":"bengali","language_id":20},"transliteration":{"text":"fabima","language_name":"english","language_id":38}},{"id":51329,"position":8,"audio_url":"wbw/015_054_008.mp3","char_type_name":"word","page_number":265,"line_number":3,"text":"تُبَشِّرُونَ","translation":{"text":"তোমরা সুসংবাদ দিচ্ছো\"","language_name":"bengali","language_id":20},"transliteration":{"text":"tubashirūna","language_name":"english","language_id":38}},{"id":51330,"position":9,"audio_url":null,"char_type_name":"end","page_number":265,"line_number":3,"text":"٥٤","translation":{"text":"(৫৪)","language_name":"bengali","language_id":20},"transliteration":{"text":null,"language_name":"english","language_id":38}}]},{"id":1857,"verse_number":55,"verse_key":"15:55","hizb_number":27,"rub_el_hizb_number":106,"ruku_number":221,"manzil_number":3,"sajdah_number":null,"page_number":265,"juz_number":14,"words":[{"id":51782,"position":1,"audio_url":"wbw/015_055_001.mp3","char_type_name":"word","page_number":265,"line_number":3,"text":"قَالُوا۟","translation":{"text":"তারা বলেছিলো","language_name":"bengali","language_id":20},"transliteration":{"text":"qālū","language_name":"english","language_id":38}},{"id":51783,"position":2,"audio_url":"wbw/015_055_002.mp3","char_type_name":"word","page_number":265,"line_number":3,"text":"بَشَّرْنَـٰكَ","translation":{"text":"\"তোমাকে সুসংবাদ দিচ্ছি আমরা","language_name":"bengali","language_id":20},"transliteration":{"text":"basharnāka","language_name":"english","language_id":38}},{"id":51784,"position":3,"audio_url":"wbw/015_055_003.mp3","char_type_name":"word","page_number":265,"line_number":3,"text":"بِٱلْحَقِّ","translation":{"text":"সহকারে সত্য","language_name":"bengali","language_id":20},"transliteration":{"text":"bil-ḥaqi","language_name":"english","language_id":38}},{"id":51785,"position":4,"audio_url":"wbw/015_055_004.mp3","char_type_name":"word","page_number":265,"line_number":4,"text":"فَلَا","translation":{"text":"অতএব না","language_name":"bengali","language_id":20},"transliteration":{"text":"falā","language_name":"english","language_id":38}},{"id":51786,"position":5,"audio_url":"wbw/015_055_005.mp3","char_type_name":"word","page_number":265,"line_number":4,"text":"تَكُن","translation":{"text":"তুমি হয়ো","language_name":"bengali","language_id":20},"transliteration":{"text":"takun","language_name":"english","language_id":38}},{"id":51787,"position":6,"audio_url":"wbw/015_055_006.mp3","char_type_name":"word","page_number":265,"line_number":4,"text":"مِّنَ","translation":{"text":"অন্তর্ভুক্ত","language_name":"bengali","language_id":20},"transliteration":{"text":"mina","language_name":"english","language_id":38}},{"id":51788,"position":7,"audio_url":"wbw/015_055_007.mp3","char_type_name":"word","page_number":265,"line_number":4,"text":"ٱلْقَـٰنِطِينَ","translation":{"text":"হতাশদের\"","language_name":"bengali","language_id":20},"transliteration":{"text":"l-qāniṭīna","language_name":"english","language_id":38}},{"id":51789,"position":8,"audio_url":null,"char_type_name":"end","page_number":265,"line_number":4,"text":"٥٥","translation":{"text":"(৫৫)","language_name":"bengali","language_id":20},"transliteration":{"text":null,"language_name":"english","language_id":38}}]},{"id":1858,"verse_number":56,"verse_key":"15:56","hizb_number":27,"rub_el_hizb_number":106,"ruku_number":221,"manzil_number":3,"sajdah_number":null,"page_number":265,"juz_number":14,"words":[{"id":52314,"position":1,"audio_url":"wbw/015_056_001.mp3","char_type_name":"word","page_number":265,"line_number":4,"text":"قَالَ","translation":{"text":"সে বললো","language_name":"bengali","language_id":20},"transliteration":{"text":"qāla","language_name":"english","language_id":38}},{"id":52315,"position":2,"audio_url":"wbw/015_056_002.mp3","char_type_name":"word","page_number":265,"line_number":4,"text":"وَمَن","translation":{"text":"\"এবং কে","language_name":"bengali","language_id":20},"transliteration":{"text":"waman","language_name":"english","language_id":38}},{"id":52316,"position":3,"audio_url":"wbw/015_056_003.mp3","char_type_name":"word","page_number":265,"line_number":4,"text":"يَقْنَطُ","translation":{"text":"নিরাশ হয়","language_name":"bengali","language_id":20},"transliteration":{"text":"yaqnaṭu","language_name":"english","language_id":38}},{"id":52317,"position":4,"audio_url":"wbw/015_056_004.mp3","char_type_name":"word","page_number":265,"line_number":4,"text":"مِن","translation":{"text":"থেকে","language_name":"bengali","language_id":20},"transliteration":{"text":"min","language_name":"english","language_id":38}},{"id":52318,"position":5,"audio_url":"wbw/015_056_005.mp3","char_type_name":"word","page_number":265,"line_number":4,"text":"رَّحْمَةِ","translation":{"text":"অনুগ্রহ","language_name":"bengali","language_id":20},"transliteration":{"text":"raḥmati","language_name":"english","language_id":38}},{"id":52319,"position":6,"audio_url":"wbw/015_056_006.mp3","char_type_name":"word","page_number":265,"line_number":5,"text":"رَبِّهِۦٓ","translation":{"text":"তার রবের","language_name":"bengali","language_id":20},"transliteration":{"text":"rabbihi","language_name":"english","language_id":38}},{"id":52320,"position":7,"audio_url":"wbw/015_056_007.mp3","char_type_name":"word","page_number":265,"line_number":5,"text":"إِلَّا","translation":{"text":"এছাড়া","language_name":"bengali","language_id":20},"transliteration":{"text":"illā","language_name":"english","language_id":38}},{"id":52321,"position":8,"audio_url":"wbw/015_056_008.mp3","char_type_name":"word","page_number":265,"line_number":5,"text":"ٱلضَّآلُّونَ","translation":{"text":"পথভ্রষ্টরা","language_name":"bengali","language_id":20},"transliteration":{"text":"l-ḍālūna","language_name":"english","language_id":38}},{"id":52322,"position":9,"audio_url":null,"char_type_name":"end","page_number":265,"line_number":5,"text":"٥٦","translation":{"text":"(৫৬)","language_name":"bengali","language_id":20},"transliteration":{"text":null,"language_name":"english","language_id":38}}]},{"id":1859,"verse_number":57,"verse_key":"15:57","hizb_number":27,"rub_el_hizb_number":106,"ruku_number":221,"manzil_number":3,"sajdah_number":null,"page_number":265,"juz_number":14,"words":[{"id":52875,"position":1,"audio_url":"wbw/015_057_001.mp3","char_type_name":"word","page_number":265,"line_number":5,"text":"قَالَ","translation":{"text":"সে বললো","language_name":"bengali","language_id":20},"transliteration":{"text":"qāla","language_name":"english","language_id":38}},{"id":52876,"position":2,"audio_url":"wbw/015_057_002.mp3","char_type_name":"word","page_number":265,"line_number":5,"text":"فَمَا","translation":{"text":"\"অতএব কি","language_name":"bengali","language_id":20},"transliteration":{"text":"famā","language_name":"english","language_id":38}},{"id":52877,"position":3,"audio_url":"wbw/015_057_003.mp3","char_type_name":"word","page_number":265,"line_number":5,"text":"خَطْبُكُمْ","translation":{"text":"আপনাদের উদ্দেশ্য","language_name":"bengali","language_id":20},"transliteration":{"text":"khaṭbukum","language_name":"english","language_id":38}},{"id":52878,"position":4,"audio_url":"wbw/015_057_004.mp3","char_type_name":"word","page_number":265,"line_number":5,"text":"أَيُّهَا","translation":{"text":"হে\"","language_name":"bengali","language_id":20},"transliteration":{"text":"ayyuhā","language_name":"english","language_id":38}},{"id":52879,"position":5,"audio_url":"wbw/015_057_005.mp3","char_type_name":"word","page_number":265,"line_number":5,"text":"ٱلْمُرْسَلُونَ","translation":{"text":"প্রেরিত (ফেরেশতারা)\"","language_name":"bengali","language_id":20},"transliteration":{"text":"l-mur'salūna","language_name":"english","language_id":38}},{"id":52880,"position":6,"audio_url":null,"char_type_name":"end","page_number":265,"line_number":6,"text":"٥٧","translation":{"text":"(৫৭)","language_name":"bengali","language_id":20},"transliteration":{"text":null,"language_name":"english","language_id":38}}]},{"id":1860,"verse_number":58,"verse_key":"15:58","hizb_number":27,"rub_el_hizb_number":106,"ruku_number":221,"manzil_number":3,"sajdah_number":null,"page_number":265,"juz_number":14,"words":[{"id":53566,"position":1,"audio_url":"wbw/015_058_001.mp3","char_type_name":"word","page_number":265,"line_number":6,"text":"قَالُوٓا۟","translation":{"text":"তারা বললো","language_name":"bengali","language_id":20},"transliteration":{"text":"qālū","language_name":"english","language_id":38}},{"id":53567,"position":2,"audio_url":"wbw/015_058_002.mp3","char_type_name":"word","page_number":265,"line_number":6,"text":"إِنَّآ","translation":{"text":"\"নিশ্চয়ই আমরা","language_name":"bengali","language_id":20},"transliteration":{"text":"innā","language_name":"english","language_id":38}},{"id":53568,"position":3,"audio_url":"wbw/015_058_003.mp3","char_type_name":"word","page_number":265,"line_number":6,"text":"أُرْسِلْنَآ","translation":{"text":"আমরা প্রেরিত হয়েছি","language_name":"bengali","language_id":20},"transliteration":{"text":"ur'sil'nā","language_name":"english","language_id":38}},{"id":53569,"position":4,"audio_url":"wbw/015_058_004.mp3","char_type_name":"word","page_number":265,"line_number":6,"text":"إِلَىٰ","translation":{"text":"প্রতি","language_name":"bengali","language_id":20},"transliteration":{"text":"ilā","language_name":"english","language_id":38}},{"id":53570,"position":5,"audio_url":"wbw/015_058_005.mp3","char_type_name":"word","page_number":265,"line_number":6,"text":"قَوْمٍۢ","translation":{"text":"সম্প্রদায়ের","language_name":"bengali","language_id":20},"transliteration":{"text":"qawmin","language_name":"english","language_id":38}},{"id":53571,"position":6,"audio_url":"wbw/015_058_006.mp3","char_type_name":"word","page_number":265,"line_number":6,"text":"مُّجْرِمِينَ","translation":{"text":"অপরাধী","language_name":"bengali","language_id":20},"transliteration":{"text":"muj'rimīna","language_name":"english","language_id":38}},{"id":53572,"position":7,"audio_url":null,"char_type_name":"end","page_number":265,"line_number":6,"text":"٥٨","translation":{"text":"(৫৮)","language_name":"bengali","language_id":20},"transliteration":{"text":null,"language_name":"english","language_id":38}}]},{"id":1861,"verse_number":59,"verse_key":"15:59","hizb_number":27,"rub_el_hizb_number":106,"ruku_number":221,"manzil_number":3,"sajdah_number":null,"page_number":265,"juz_number":14,"words":[{"id":53857,"position":1,"audio_url":"wbw/015_059_001.mp3","char_type_name":"word","page_number":265,"line_number":6,"text":"إِلَّآ","translation":{"text":"ছাড়া","language_name":"bengali","language_id":20},"transliteration":{"text":"illā","language_name":"english","language_id":38}},{"id":53858,"position":2,"audio_url":"wbw/015_059_002.mp3","char_type_name":"word","page_number":265,"line_number":6,"text":"ءَالَ","translation":{"text":"পরিবার","language_name":"bengali","language_id":20},"transliteration":{"text":"āla","language_name":"english","language_id":38}},{"id":53859,"position":3,"audio_url":"wbw/015_059_003.mp3","char_type_name":"word","page_number":265,"line_number":6,"text":"لُوطٍ","translation":{"text":"লূতের","language_name":"bengali","language_id":20},"transliteration":{"text":"lūṭin","language_name":"english","language_id":38}},{"id":53860,"position":4,"audio_url":"wbw/015_059_004.mp3","char_type_name":"word","page_number":265,"line_number":7,"text":"إِنَّا","translation":{"text":"নিশ্চয়ই আমরা","language_name":"bengali","language_id":20},"transliteration":{"text":"innā","language_name":"english","language_id":38}},{"id":53861,"position":5,"audio_url":"wbw/015_059_005.mp3","char_type_name":"word","page_number":265,"line_number":7,"text":"لَمُنَجُّوهُمْ","translation":{"text":"অবশ্যই রক্ষাকারী তাদের","language_name":"bengali","language_id":20},"transliteration":{"text":"lamunajjūhum","language_name":"english","language_id":38}},{"id":53862,"position":6,"audio_url":"wbw/015_059_006.mp3","char_type_name":"word","page_number":265,"line_number":7,"text":"أَجْمَعِينَ","translation":{"text":"সকলকে","language_name":"bengali","language_id":20},"transliteration":{"text":"ajmaʿīna","language_name":"english","language_id":38}},{"id":53863,"position":7,"audio_url":null,"char_type_name":"end","page_number":265,"line_number":7,"text":"٥٩","translation":{"text":"(৫৯)","language_name":"bengali","language_id":20},"transliteration":{"text":null,"language_name":"english","language_id":38}}]},{"id":1862,"verse_number":60,"verse_key":"15:60","hizb_number":27,"rub_el_hizb_number":106,"ruku_number":221,"manzil_number":3,"sajdah_number":null,"page_number":265,"juz_number":14,"words":[{"id":54439,"position":1,"audio_url":"wbw/015_060_001.mp3","char_type_name":"word","page_number":265,"line_number":7,"text":"إِلَّا","translation":{"text":"ছাড়া","language_name":"bengali","language_id":20},"transliteration":{"text":"illā","language_name":"english","language_id":38}},{"id":54440,"position":2,"audio_url":"wbw/015_060_002.mp3","char_type_name":"word","page_number":265,"line_number":7,"text":"ٱمْرَأَتَهُۥ","translation":{"text":"তার স্ত্রী\"","language_name":"bengali","language_id":20},"transliteration":{"text":"im'ra-atahu","language_name":"english","language_id":38}},{"id":54441,"position":3,"audio_url":"wbw/015_060_003.mp3","char_type_name":"word","page_number":265,"line_number":7,"text":"قَدَّرْنَآ ۙ","translation":{"text":"আমরা স্থির করেছি","language_name":"bengali","language_id":20},"transliteration":{"text":"qaddarnā","language_name":"english","language_id":38}},{"id":54443,"position":4,"audio_url":"wbw/015_060_005.mp3","char_type_name":"word","page_number":265,"line_number":7,"text":"إِنَّهَا","translation":{"text":"নিশ্চয়ই সে","language_name":"bengali","language_id":20},"transliteration":{"text":"innahā","language_name":"english","language_id":38}},{"id":54444,"position":5,"audio_url":"wbw/015_060_006.mp3","char_type_name":"word","page_number":265,"line_number":7,"text":"لَمِنَ","translation":{"text":"অব্যশই অন্তর্ভুক্ত","language_name":"bengali","language_id":20},"transliteration":{"text":"lamina","language_name":"english","language_id":38}},{"id":54445,"position":6,"audio_url":"wbw/015_060_007.mp3","char_type_name":"word","page_number":265,"line_number":8,"text":"ٱلْغَـٰبِرِينَ","translation":{"text":"পিছনে থেকে যাওয়া লোকদের","language_name":"bengali","language_id":20},"transliteration":{"text":"l-ghābirīna","language_name":"english","language_id":38}},{"id":54446,"position":7,"audio_url":null,"char_type_name":"end","page_number":265,"line_number":8,"text":"٦٠","translation":{"text":"(৬০)","language_name":"bengali","language_id":20},"transliteration":{"text":null,"language_name":"english","language_id":38}}]}],"pagination":{"per_page":10,"current_page":6,"next_page":7,"total_pages":10,"total_records":99}}
