{"verses":[{"id":1873,"verse_number":71,"verse_key":"15:71","hizb_number":27,"rub_el_hizb_number":106,"ruku_number":222,"manzil_number":3,"sajdah_number":null,"page_number":266,"juz_number":14,"words":[{"id":60243,"position":1,"audio_url":"wbw/015_071_001.mp3","char_type_name":"word","page_number":266,"line_number":1,"text":"قَالَ","translation":{"text":"সে বললো","language_name":"bengali","language_id":20},"transliteration":{"text":"qāla","language_name":"english","language_id":38}},{"id":60244,"position":2,"audio_url":"wbw/015_071_002.mp3","char_type_name":"word","page_number":266,"line_number":1,"text":"هَـٰٓؤُلَآءِ","translation":{"text":"\"এইসব","language_name":"bengali","language_id":20},"transliteration":{"text":"hāulāi","language_name":"english","language_id":38}},{"id":60245,"position":3,"audio_url":"wbw/015_071_003.mp3","char_type_name":"word","page_number":266,"line_number":1,"text":"بَنَاتِىٓ","translation":{"text":"আমার মেয়েরা","language_name":"bengali","language_id":20},"transliteration":{"text":"banātī","language_name":"english","language_id":38}},{"id":60246,"position":4,"audio_url":"wbw/015_071_004.mp3","char_type_name":"word","page_number":266,"line_number":1,"text":"إِن","translation":{"text":"যদি","language_name":"bengali","language_id":20},"transliteration":{"text":"in","language_name":"english","language_id":38}},{"id":60247,"position":5,"audio_url":"wbw/015_071_005.mp3","char_type_name":"word","page_number":266,"line_number":1,"text":"كُنتُمْ","translation":{"text":"তোমরা হও","language_name":"bengali","language_id":20},"transliteration":{"text":"kuntum","language_name":"english","language_id":38}},{"id":60248,"position":6,"audio_url":"wbw/015_071_006.mp3","char_type_name":"word","page_number":266,"line_number":1,"text":"فَـٰعِلِينَ","translation":{"text":"সম্পাদনকারী\"","language_name":"bengali","language_id":20},"transliteration":{"text":"fāʿilīna","language_name":"english","language_id":38}},{"id":60249,"position":7,"audio_url":null,"char_type_name":"end","page_number":266,"line_number":1,"text":"٧١","translation":{"text":"(৭১)","language_name":"bengali","language_id":20},"transliteration":{"text":null,"language_name":"english","language_id":38}}]},{"id":1874,"verse_number":72,"verse_key":"15:72","hizb_number":27,"rub_el_hizb_number":106,"ruku_number":222,"manzil_number":3,"sajdah_number":null,"page_number":266,"juz_number":14,"words":[{"id":60516,"position":1,"audio_url":"wbw/015_072_001.mp3","char_type_name":"word","page_number":266,"line_number":1,"text":"لَعَمْرُكَ","translation":{"text":"শপথ তোমার জীবনের","language_name":"bengali","language_id":20},"transliteration":{"text":"laʿamruka","language_name":"english","language_id":38}},{"id":60517,"position":2,"audio_url":"wbw/015_072_002.mp3","char_type_name":"word","page_number":266,"line_number":1,"text":"إِنَّهُمْ","translation":{"text":"নিশ্চয়ই তারা","language_name":"bengali","language_id":20},"transliteration":{"text":"innahum","language_name":"english","language_id":38}},{"id":60518,"position":3,"audio_url":"wbw/015_072_003.mp3","char_type_name":"word","page_number":266,"line_number":1,"text":"لَفِى","translation":{"text":"অবশ্যই মধ্যে (ছিলো)","language_name":"bengali","language_id":20},"transliteration":{"text":"lafī","language_name":"english","language_id":38}},{"id":60519,"position":4,"audio_url":"wbw/015_072_004.mp3","char_type_name":"word","page_number":266,"line_number":1,"text":"سَكْرَتِهِمْ","translation":{"text":"তাদের নেশার","language_name":"bengali","language_id":20},"transliteration":{"text":"sakratihim","language_name":"english","language_id":38}},{"id":60520,"position":5,"audio_url":"wbw/015_072_005.mp3","char_type_name":"word","page_number":266,"line_number":2,"text":"يَعْمَهُونَ","translation":{"text":"উদভ্রান্ত হয়ে ফিরছিলো","language_name":"bengali","language_id":20},"transliteration":{"text":"yaʿmahūna","language_name":"english","language_id":38}},{"id":60521,"position":6,"audio_url":null,"char_type_name":"end","page_number":266,"line_number":2,"text":"٧٢","translation":{"text":"(৭২)","language_name":"bengali","language_id":20},"transliteration":{"text":null,"language_name":"english","language_id":38}}]},{"id":1875,"verse_number":73,"verse_key":"15:73","hizb_number":27,"rub_el_hizb_number":106,"ruku_number":222,"manzil_number":3,"sajdah_number":null,"page_number":266,"juz_number":14,"words":[{"id":61109,"position":1,"audio_url":"wbw/015_073_001.mp3","char_type_name":"word","page_number":266,"line_number":2,"text":"فَأَخَذَتْهُمُ","translation":{"text":"অতঃপর তাদের ধরলো","language_name":"bengali","language_id":20},"transliteration":{"text":"fa-akhadhathumu","language_name":"english","language_id":38}},{"id":61110,"position":2,"audio_url":"wbw/015_073_002.mp3","char_type_name":"word","page_number":266,"line_number":2,"text":"ٱلصَّيْحَةُ","translation":{"text":"বিরাট আওয়াজ","language_name":"bengali","language_id":20},"transliteration":{"text":"l-ṣayḥatu","language_name":"english","language_id":38}},{"id":61111,"position":3,"audio_url":"wbw/015_073_003.mp3","char_type_name":"word","page_number":266,"line_number":2,"text":"مُشْرِقِينَ","translation":{"text":"সূর্যোদয় হ'তেই","language_name":"bengali","language_id":20},"transliteration":{"text":"mush'riqīna","language_name":"english","language_id":38}},{"id":61112,"position":4,"audio_url":null,"char_type_name":"end","page_number":266,"line_number":2,"text":"٧٣","translation":{"text":"(৭৩)","language_name":"bengali","language_id":20},"transliteration":{"text":null,"language_name":"english","language_id":38}}]},{"id":1876,"verse_number":74,"verse_key":"15:74","hizb_number":27,"rub_el_hizb_number":106,"ruku_number":222,"manzil_number":3,"sajdah_number":null,"page_number":266,"juz_number":14,"words":[{"id":61822,"position":1,"audio_url":"wbw/015_074_001.mp3","char_type_name":"word","page_number":266,"line_number":2,"text":"فَجَعَلْنَا","translation":{"text":"অতঃপর আমরা রাখলাম","language_name":"bengali","language_id":20},"transliteration":{"text":"fajaʿalnā","language_name":"english","language_id":38}},{"id":61823,"position":2,"audio_url":"wbw/015_074_002.mp3","char_type_name":"word","page_number":266,"line_number":2,"text":"عَـٰلِيَهَا","translation":{"text":"তার উপরভাগকে","language_name":"bengali","language_id":20},"transliteration":{"text":"ʿāliyahā","language_name":"english","language_id":38}},{"id":61824,"position":3,"audio_url":"wbw/015_074_003.mp3","char_type_name":"word","page_number":266,"line_number":3,"text":"سَافِلَهَا","translation":{"text":"তার নীচেরভাগে","language_name":"bengali","language_id":20},"transliteration":{"text":"sāfilahā","language_name":"english","language_id":38}},{"id":61825,"position":4,"audio_url":"wbw/015_074_004.mp3","char_type_name":"word","page_number":266,"line_number":3,"text":"وَأَمْطَرْنَا","translation":{"text":"এবং আমরা বর্ষণ করলাম","language_name":"bengali","language_id":20},"transliteration":{"text":"wa-amṭarnā","language_name":"english","language_id":38}},{"id":61826,"position":5,"audio_url":"wbw/015_074_005.mp3","char_type_name":"word","page_number":266,"line_number":3,"text":"عَلَيْهِمْ","translation":{"text":"তাদের উপর","language_name":"bengali","language_id":20},"transliteration":{"text":"ʿalayhim","language_name":"english","language_id":38}},{"id":61827,"position":6,"audio_url":"wbw/015_074_006.mp3","char_type_name":"word","page_number":266,"line_number":3,"text":"حِجَارَةًۭ","translation":{"text":"পাথরসমূহ","language_name":"bengali","language_id":20},"transliteration":{"text":"ḥijāratan","language_name":"english","language_id":38}},{"id":61828,"position":7,"audio_url":"wbw/015_074_007.mp3","char_type_name":"word","page_number":266,"line_number":3,"text":"مِّن","translation":{"text":"তৈরী","language_name":"bengali","language_id":20},"transliteration":{"text":"min","language_name":"english","language_id":38}},{"id":61829,"position":8,"audio_url":"wbw/015_074_008.mp3","char_type_name":"word","page_number":266,"line_number":3,"text":"سِجِّيلٍ","translation":{"text":"পোড়া মাটির","language_name":"bengali","language_id":20},"transliteration":{"text":"sijjīlin","language_name":"english","language_id":38}},{"id":61830,"position":9,"audio_url":null,"char_type_name":"end","page_number":266,"line_number":3,"text":"٧٤","translation":{"text":"(৭৪)","language_name":"bengali","language_id":20},"transliteration":{"text":null,"language_name":"english","language_id":38}}]},{"id":1877,"verse_number":75,"verse_key":"15:75","hizb_number":27,"rub_el_hizb_number":106,"ruku_number":222,"manzil_number":3,"sajdah_number":null,"page_number":266,"juz_number":14,"words":[{"id":62016,"position":1,"audio_url":"wbw/015_075_001.mp3","char_type_name":"word","page_number":266,"line_number":3,"text":"إِنَّ","translation":{"text":"নিশ্চয়ই","language_name":"bengali","language_id":20},"transliteration":{"text":"inna","language_name":"english","language_id":38}},{"id":62017,"position":2,"audio_url":"wbw/015_075_002.mp3","char_type_name":"word","page_number":266,"line_number":3,"text":"فِى","translation":{"text":"মধ্যে আছে","language_name":"bengali","language_id":20},"transliteration":{"text":"fī","language_name":"english","language_id":38}},{"id":62018,"position":3,"audio_url":"wbw/015_075_003.mp3","char_type_name":"word","page_number":266,"line_number":3,"text":"ذَٰلِكَ","translation":{"text":"এর","language_name":"bengali","language_id":20},"transliteration":{"text":"dhālika","language_name":"english","language_id":38}},{"id":62019,"position":4,"audio_url":"wbw/015_075_004.mp3","char_type_name":"word","page_number":266,"line_number":4,"text":"لَـَٔايَـٰتٍۢ","translation":{"text":"অবশ্যই নিদর্শনসমূহ","language_name":"bengali","language_id":20},"transliteration":{"text":"laāyātin","language_name":"english","language_id":38}},{"id":62020,"position":5,"audio_url":"wbw/015_075_005.mp3","char_type_name":"word","page_number":266,"line_number":4,"text":"لِّلْمُتَوَسِّمِينَ","translation":{"text":"অন্তর্দৃষ্টি-সম্পন্নদের জন্য","language_name":"bengali","language_id":20},"transliteration":{"text":"lil'mutawassimīna","language_name":"english","language_id":38}},{"id":62021,"position":6,"audio_url":null,"char_type_name":"end","page_number":266,"line_number":4,"text":"٧٥","translation":{"text":"(৭৫)","language_name":"bengali","language_id":20},"transliteration":{"text":null,"language_name":"english","language_id":38}}]},{"id":1878,"verse_number":76,"verse_key":"15:76","hizb_number":27,"rub_el_hizb_number":106,"ruku_number":222,"manzil_number":3,"sajdah_number":null,"page_number":266,"juz_number":14,"words":[{"id":62717,"position":1,"audio_url":"wbw/015_076_001.mp3","char_type_name":"word","page_number":266,"line_number":4,"text":"وَإِنَّهَا","translation":{"text":"এবং নিশ্চয়ই তা","language_name":"bengali","language_id":20},"transliteration":{"text":"wa-innahā","language_name":"english","language_id":38}},{"id":62718,"position":2,"audio_url":"wbw/015_076_002.mp3","char_type_name":"word","page_number":266,"line_number":4,"text":"لَبِسَبِيلٍۢ","translation":{"text":"অবশ্যই পথের সাথে","language_name":"bengali","language_id":20},"transliteration":{"text":"labisabīlin","language_name":"english","language_id":38}},{"id":62719,"position":3,"audio_url":"wbw/015_076_003.mp3","char_type_name":"word","page_number":266,"line_number":4,"text":"مُّقِيمٍ","translation":{"text":"অবস্থিত","language_name":"bengali","language_id":20},"transliteration":{"text":"muqīmin","language_name":"english","language_id":38}},{"id":62720,"position":4,"audio_url":null,"char_type_name":"end","page_number":266,"line_number":4,"text":"٧٦","translation":{"text":"(৭৬)","language_name":"bengali","language_id":20},"transliteration":{"text":null,"language_name":"english","language_id":38}}]},{"id":1879,"verse_number":77,"verse_key":"15:77","hizb_number":27,"rub_el_hizb_number":106,"ruku_number":222,"manzil_number":3,"sajdah_number":null,"page_number":266,"juz_number":14,"words":[{"id":62818,"position":1,"audio_url":"wbw/015_077_001.mp3","char_type_name":"word","page_number":266,"line_number":4,"text":"إِنَّ","translation":{"text":"নিশ্চয়ই","language_name":"bengali","language_id":20},"transliteration":{"text":"inna","language_name":"english","language_id":38}},{"id":62819,"position":2,"audio_url":"wbw/015_077_002.mp3","char_type_name":"word","page_number":266,"line_number":4,"text":"فِى","translation":{"text":"(রয়েছে) মধ্যে","language_name":"bengali","language_id":20},"transliteration":{"text":"fī","language_name":"english","language_id":38}},{"id":62820,"position":3,"audio_url":"wbw/015_077_003.mp3","char_type_name":"word","page_number":266,"line_number":4,"text":"ذَٰلِكَ","translation":{"text":"এর","language_name":"bengali","language_id":20},"transliteration":{"text":"dhālika","language_name":"english","language_id":38}},{"id":62821,"position":4,"audio_url":"wbw/015_077_004.mp3","char_type_name":"word","page_number":266,"line_number":5,"text":"لَـَٔايَةًۭ","translation":{"text":"অবশ্যই নিদর্শন","language_name":"bengali","language_id":20},"transliteration":{"text":"laāyatan","language_name":"english","language_id":38}},{"id":62822,"position":5,"audio_url":"wbw/015_077_005.mp3","char_type_name":"word","page_number":266,"line_number":5,"text":"لِّلْمُؤْمِنِينَ","translation":{"text":"ঈমানদারদের জন্যে","language_name":"bengali","language_id":20},"transliteration":{"text":"lil'mu'minīna","language_name":"english","language_id":38}},{"id":62823,"position":6,"audio_url":null,"char_type_name":"end","page_number":266,"line_number":5,"text":"٧٧","translation":{"text":"(৭৭)","language_name":"bengali","language_id":20},"transliteration":{"text":null,"language_name":"english","language_id":38}}]},{"id":1880,"verse_number":78,"verse_key":"15:78","hizb_number":27,"rub_el_hizb_number":106,"ruku_number":222,"manzil_number":3,"sajdah_number":null,"page_number":266,"juz_number":14,"words":[{"id":63643,"position":1,"audio_url":"wbw/015_078_001.mp3","char_type_name":"word","page_number":266,"line_number":5,"text":"وَإِن","translation":{"text":"এবং নিশ্চয়ই","language_name":"bengali","language_id":20},"transliteration":{"text":"wa-in","language_name":"english","language_id":38}},{"id":63644,"position":2,"audio_url":"wbw/015_078_002.mp3","char_type_name":"word","page_number":266,"line_number":5,"text":"كَانَ","translation":{"text":"ছিলো","language_name":"bengali","language_id":20},"transliteration":{"text":"kāna","language_name":"english","language_id":38}},{"id":63645,"position":3,"audio_url":"wbw/015_078_003.mp3","char_type_name":"word","page_number":266,"line_number":5,"text":"أَصْحَـٰبُ","translation":{"text":"অধিবাসীরা","language_name":"bengali","language_id":20},"transliteration":{"text":"aṣḥābu","language_name":"english","language_id":38}},{"id":63646,"position":4,"audio_url":"wbw/015_078_004.mp3","char_type_name":"word","page_number":266,"line_number":5,"text":"ٱلْأَيْكَةِ","translation":{"text":"আইকার","language_name":"bengali","language_id":20},"transliteration":{"text":"l-aykati","language_name":"english","language_id":38}},{"id":63647,"position":5,"audio_url":"wbw/015_078_005.mp3","char_type_name":"word","page_number":266,"line_number":5,"text":"لَظَـٰلِمِينَ","translation":{"text":"অবশ্যই সীমালঙ্ঘনকারী","language_name":"bengali","language_id":20},"transliteration":{"text":"laẓālimīna","language_name":"english","language_id":38}},{"id":63648,"position":6,"audio_url":null,"char_type_name":"end","page_number":266,"line_number":5,"text":"٧٨","translation":{"text":"(৭৮)","language_name":"bengali","language_id":20},"transliteration":{"text":null,"language_name":"english","language_id":38}}]},{"id":1881,"verse_number":79,"verse_key":"15:79","hizb_number":27,"rub_el_hizb_number":106,"ruku_number":222,"manzil_number":3,"sajdah_number":null,"page_number":266,"juz_number":14,"words":[{"id":63852,"position":1,"audio_url":"wbw/015_079_001.mp3","char_type_name":"word","page_number":266,"line_number":6,"text":"فَٱنتَقَمْنَا","translation":{"text":"অতঃপর আমরা প্রতিশোধ নিই","language_name":"bengali","language_id":20},"transliteration":{"text":"fa-intaqamnā","language_name":"english","language_id":38}},{"id":63853,"position":2,"audio_url":"wbw/015_079_002.mp3","char_type_name":"word","page_number":266,"line_number":6,"text":"مِنْهُمْ","translation":{"text":"থেকে তাদের","language_name":"bengali","language_id":20},"transliteration":{"text":"min'hum","language_name":"english","language_id":38}},{"id":63854,"position":3,"audio_url":"wbw/015_079_003.mp3","char_type_name":"word","page_number":266,"line_number":6,"text":"وَإِنَّهُمَا","translation":{"text":"এবং নিশ্চয়ই উভয়েই","language_name":"bengali","language_id":20},"transliteration":{"text":"wa-innahumā","language_name":"english","language_id":38}},{"id":63855,"position":4,"audio_url":"wbw/015_079_004.mp3","char_type_name":"word","page_number":266,"line_number":6,"text":"لَبِإِمَامٍۢ","translation":{"text":"অবশ্যই পথের সাথে","language_name":"bengali","language_id":20},"transliteration":{"text":"labi-imāmin","language_name":"english","language_id":38}},{"id":63856,"position":5,"audio_url":"wbw/015_079_005.mp3","char_type_name":"word","page_number":266,"line_number":6,"text":"مُّبِينٍۢ","translation":{"text":"প্রকাশ্য","language_name":"bengali","language_id":20},"transliteration":{"text":"mubīnin","language_name":"english","language_id":38}},{"id":63857,"position":6,"audio_url":null,"char_type_name":"end","page_number":266,"line_number":6,"text":"٧٩","translation":{"text":"(৭৯)","language_name":"bengali","language_id":20},"transliteration":{"text":null,"language_name":"english","language_id":38}}]},{"id":1882,"verse_number":80,"verse_key":"15:80","hizb_number":27,"rub_el_hizb_number":106,"ruku_number":223,"manzil_number":3,"sajdah_number":null,"page_number":266,"juz_number":14,"words":[{"id":64444,"position":1,"audio_url":"wbw/015_080_001.mp3","char_type_name":"word","page_number":266,"line_number":6,"text":"وَلَقَدْ","translation":{"text":"এবং নিশ্চয়ই","language_name":"bengali","language_id":20},"transliteration":{"text":"walaqad","language_name":"english","language_id":38}},{"id":64445,"position":2,"audio_url":"wbw/015_080_002.mp3","char_type_name":"word","page_number":266,"line_number":6,"text":"كَذَّبَ","translation":{"text":"মিথ্যারোপ করেছিলো","language_name":"bengali","language_id":20},"transliteration":{"text":"kadhaba","language_name":"english","language_id":38}},{"id":64446,"position":3,"audio_url":"wbw/015_080_003.mp3","char_type_name":"word","page_number":266,"line_number":6,"text":"أَصْحَـٰبُ","translation":{"text":"অধিবাসীরা","language_name":"bengali","language_id":20},"transliteration":{"text":"aṣḥābu","language_name":"english","language_id":38}},{"id":64447,"position":4,"audio_url":"wbw/015_080_004.mp3","char_type_name":"word","page_number":266,"line_number":7,"text":"ٱلْحِجْرِ","translation":{"text":"হিজরের","language_name":"bengali","language_id":20},"transliteration":{"text":"l-ḥij'ri","language_name":"english","language_id":38}},{"id":64448,"position":5,"audio_url":"wbw/015_080_005.mp3","char_type_name":"word","page_number":266,"line_number":7,"text":"ٱلْمُرْسَلِينَ","translation":{"text":"রাসূলদেরকে","language_name":"bengali","language_id":20},"transliteration":{"text":"l-mur'salīna","language_name":"english","language_id":38}},{"id":64449,"position":6,"audio_url":null,"char_type_name":"end","page_number":266,"line_number":7,"text":"٨٠","translation":{"text":"(৮০)","language_name":"bengali","language_id":20},"transliteration":{"text":null,"language_name":"english","language_id":38}}]}],"pagination":{"per_page":10,"current_page":8,"next_page":9,"total_pages":10,"total_records":99}}
