{"verses":[{"id":6044,"verse_number":1,"verse_key":"91:1","hizb_number":60,"rub_el_hizb_number":238,"ruku_number":535,"manzil_number":7,"sajdah_number":null,"page_number":595,"juz_number":30,"words":[{"id":793,"position":1,"audio_url":"wbw/091_001_001.mp3","verse_key":"91:1","verse_id":6044,"location":"91:1:1","text_uthmani":"وَٱلشَّمْسِ","qpc_uthmani_hafs":"وَٱلشَّمۡسِ","char_type_name":"word","page_number":595,"line_number":4,"text":"وَٱلشَّمۡسِ","translation":{"text":"By the sun","language_name":"english","language_id":38},"transliteration":{"text":"wal-shamsi","language_name":"english","language_id":38}},{"id":794,"position":2,"audio_url":"wbw/091_001_002.mp3","verse_key":"91:1","verse_id":6044,"location":"91:1:2","text_uthmani":"وَضُحَىٰهَا","qpc_uthmani_hafs":"وَضُحَىٰهَا","char_type_name":"word","page_number":595,"line_number":4,"text":"وَضُحَىٰهَا","translation":{"text":"and its brightness","language_name":"english","language_id":38},"transliteration":{"text":"waḍuḥāhā","language_name":"english","language_id":38}},{"id":795,"position":3,"audio_url":null,"verse_key":"91:1","verse_id":6044,"location":"91:1:3","text_uthmani":"١","qpc_uthmani_hafs":"١","char_type_name":"end","page_number":595,"line_number":4,"text":"١","translation":{"text":"(1)","language_name":"english","language_id":38},"transliteration":{"text":null,"language_name":"english","language_id":38}}]},{"id":6045,"verse_number":2,"verse_key":"91:2","hizb_number":60,"rub_el_hizb_number":238,"ruku_number":535,"manzil_number":7,"sajdah_number":null,"page_number":595,"juz_number":30,"words":[{"id":1781,"position":1,"audio_url":"wbw/091_002_001.mp3","verse_key":"91:2","verse_id":6045,"location":"91:2:1","text_uthmani":"وَٱلْقَمَرِ","qpc_uthmani_hafs":"وَٱلۡقَمَرِ","char_type_name":"word","page_number":595,"line_number":4,"text":"وَٱلۡقَمَرِ","translation":{"text":"And the moon","language_name":"english","language_id":38},"transliteration":{"text":"wal-qamari","language_name":"english","language_id":38}},{"id":1782,"position":2,"audio_url":"wbw/091_002_002.mp3","verse_key":"91:2","verse_id":6045,"location":"91:2:2","text_uthmani":"إِذَا","qpc_uthmani_hafs":"إِذَا","char_type_name":"word","page_number":595,"line_number":4,"text":"إِذَا","translation":{"text":"when","language_name":"english","language_id":38},"transliteration":{"text":"idhā","language_name":"english","language_id":38}},{"id":1783,"position":3,"audio_url":"wbw/091_002_003.mp3","verse_key":"91:2","verse_id":6045,"location":"91:2:3","text_uthmani":"تَلَىٰهَا","qpc_uthmani_hafs":"تَلَىٰهَا","char_type_name":"word","page_number":595,"line_number":4,"text":"تَلَىٰهَا","translation":{"text":"it follows it","language_name":"english","language_id":38},"transliteration":{"text":"talāhā","language_name":"english","language_id":38}},{"id":1784,"position":4,"audio_url":null,"verse_key":"91:2","verse_id":6045,"location":"91:2:4","text_uthmani":"٢","qpc_uthmani_hafs":"٢","char_type_name":"end","page_number":595,"line_number":4,"text":"٢","translation":{"text":"(2)","language_name":"english","language_id":38},"transliteration":{"text":null,"language_name":"english","language_id":38}}]},{"id":6046,"verse_number":3,"verse_key":"91:3","hizb_number":60,"rub_el_hizb_number":238,"ruku_number":535,"manzil_number":7,"sajdah_number":null,"page_number":595,"juz_number":30,"words":[{"id":2093,"position":1,"audio_url":"wbw/091_003_001.mp3","verse_key":"91:3","verse_id":6046,"location":"91:3:1","text_uthmani":"وَٱلنَّهَارِ","qpc_uthmani_hafs":"وَٱلنَّهَارِ","char_type_name":"word","page_number":595,"line_number":4,"text":"وَٱلنَّهَارِ","translation":{"text":"And the day","language_name":"english","language_id":38},"transliteration":{"text":"wal-nahāri","language_name":"english","language_id":38}},{"id":2094,"position":2,"audio_url":"wbw/091_003_002.mp3","verse_key":"91:3","verse_id":6046,"location":"91:3:2","text_uthmani":"إِذَا","qpc_uthmani_hafs":"إِذَا","char_type_name":"word","page_number":595,"line_number":4,"text":"إِذَا","translation":{"text":"when","language_name":"english","language_id":38},"transliteration":{"text":"idhā","language_name":"english","language_id":38}},{"id":2095,"position":3,"audio_url":"wbw/091_003_003.mp3","verse_key":"91:3","verse_id":6046,"location":"91:3:3","text_uthmani":"جَلَّىٰهَا","qpc_uthmani_hafs":"جَلَّىٰهَا","char_type_name":"word","page_number":595,"line_number":4,"text":"جَلَّىٰهَا","translation":{"text":"it displays it","language_name":"english","language_id":38},"transliteration":{"text":"jallāhā","language_name":"english","language_id":38}},{"id":2096,"position":4,"audio_url":null,"verse_key":"91:3","verse_id":6046,"location":"91:3:4","text_uthmani":"٣","qpc_uthmani_hafs":"٣","char_type_name":"end","page_number":595,"line_number":5,"text":"٣","translation":{"text":"(3)","language_name":"english","language_id":38},"transliteration":{"text":null,"language_name":"english","language_id":38}}]},{"id":6047,"verse_number":4,"verse_key":"91:4","hizb_number":60,"rub_el_hizb_number":238,"ruku_number":535,"manzil_number":7,"sajdah_number":null,"page_number":595,"juz_number":30,"words":[{"id":4507,"position":1,"audio_url":"wbw/091_004_001.mp3","verse_key":"91:4","verse_id":6047,"location":"91:4:1","text_uthmani":"وَٱلَّيْلِ","qpc_uthmani_hafs":"وَٱلَّيۡلِ","char_type_name":"word","page_number":595,"line_number":5,"text":"وَٱلَّيۡلِ","translation":{"text":"And the night","language_name":"english","language_id":38},"transliteration":{"text":"wa-al-layli","language_name":"english","language_id":38}},{"id":4508,"position":2,"audio_url":"wbw/091_004_002.mp3","verse_key":"91:4","verse_id":6047,"location":"91:4:2","text_uthmani":"إِذَا","qpc_uthmani_hafs":"إِذَا","char_type_name":"word","page_number":595,"line_number":5,"text":"إِذَا","translation":{"text":"when","language_name":"english","language_id":38},"transliteration":{"text":"idhā","language_name":"english","language_id":38}},{"id":4509,"position":3,"audio_url":"wbw/091_004_003.mp3","verse_key":"91:4","verse_id":6047,"location":"91:4:3","text_uthmani":"يَغْشَىٰهَا","qpc_uthmani_hafs":"يَغۡشَىٰهَا","char_type_name":"word","page_number":595,"line_number":5,"text":"يَغۡشَىٰهَا","translation":{"text":"it covers it","language_name":"english","language_id":38},"transliteration":{"text":"yaghshāhā","language_name":"english","language_id":38}},{"id":4510,"position":4,"audio_url":null,"verse_key":"91:4","verse_id":6047,"location":"91:4:4","text_uthmani":"٤","qpc_uthmani_hafs":"٤","char_type_name":"end","page_number":595,"line_number":5,"text":"٤","translation":{"text":"(4)","language_name":"english","language_id":38},"transliteration":{"text":null,"language_name":"english","language_id":38}}]},{"id":6048,"verse_number":5,"verse_key":"91:5","hizb_number":60,"rub_el_hizb_number":238,"ruku_number":535,"manzil_number":7,"sajdah_number":null,"page_number":595,"juz_number":30,"words":[{"id":5742,"position":1,"audio_url":"wbw/091_005_001.mp3","verse_key":"91:5","verse_id":6048,"location":"91:5:1","text_uthmani":"وَٱلسَّمَآءِ","qpc_uthmani_hafs":"وَٱلسَّمَآءِ","char_type_name":"word","page_number":595,"line_number":5,"text":"وَٱلسَّمَآءِ","translation":{"text":"And the heaven","language_name":"english","language_id":38},"transliteration":{"text":"wal-samāi","language_name":"english","language_id":38}},{"id":5743,"position":2,"audio_url":"wbw/091_005_002.mp3","verse_key":"91:5","verse_id":6048,"location":"91:5:2","text_uthmani":"وَمَا","qpc_uthmani_hafs":"وَمَا","char_type_name":"word","page_number":595,"line_number":5,"text":"وَمَا","translation":{"text":"and (He) Who","language_name":"english","language_id":38},"transliteration":{"text":"wamā","language_name":"english","language_id":38}},{"id":5744,"position":3,"audio_url":"wbw/091_005_003.mp3","verse_key":"91:5","verse_id":6048,"location":"91:5:3","text_uthmani":"بَنَىٰهَا","qpc_uthmani_hafs":"بَنَىٰهَا","char_type_name":"word","page_number":595,"line_number":5,"text":"بَنَىٰهَا","translation":{"text":"constructed it","language_name":"english","language_id":38},"transliteration":{"text":"banāhā","language_name":"english","language_id":38}},{"id":5745,"position":4,"audio_url":null,"verse_key":"91:5","verse_id":6048,"location":"91:5:4","text_uthmani":"٥","qpc_uthmani_hafs":"٥","char_type_name":"end","page_number":595,"line_number":5,"text":"٥","translation":{"text":"(5)","language_name":"english","language_id":38},"transliteration":{"text":null,"language_name":"english","language_id":38}}]},{"id":6049,"verse_number":6,"verse_key":"91:6","hizb_number":60,"rub_el_hizb_number":238,"ruku_number":535,"manzil_number":7,"sajdah_number":null,"page_number":595,"juz_number":30,"words":[{"id":7077,"position":1,"audio_url":"wbw/091_006_001.mp3","verse_key":"91:6","verse_id":6049,"location":"91:6:1","text_uthmani":"وَٱلْأَرْضِ","qpc_uthmani_hafs":"وَٱلۡأَرۡضِ","char_type_name":"word","page_number":595,"line_number":5,"text":"وَٱلۡأَرۡضِ","translation":{"text":"And the earth","language_name":"english","language_id":38},"transliteration":{"text":"wal-arḍi","language_name":"english","language_id":38}},{"id":7078,"position":2,"audio_url":"wbw/091_006_002.mp3","verse_key":"91:6","verse_id":6049,"location":"91:6:2","text_uthmani":"وَمَا","qpc_uthmani_hafs":"وَمَا","char_type_name":"word","page_number":595,"line_number":6,"text":"وَمَا","translation":{"text":"and by (He) Who","language_name":"english","language_id":38},"transliteration":{"text":"wamā","language_name":"english","language_id":38}},{"id":7079,"position":3,"audio_url":"wbw/091_006_003.mp3","verse_key":"91:6","verse_id":6049,"location":"91:6:3","text_uthmani":"طَحَىٰهَا","qpc_uthmani_hafs":"طَحَىٰهَا","char_type_name":"word","page_number":595,"line_number":6,"text":"طَحَىٰهَا","translation":{"text":"spread it","language_name":"english","language_id":38},"transliteration":{"text":"ṭaḥāhā","language_name":"english","language_id":38}},{"id":7080,"position":4,"audio_url":null,"verse_key":"91:6","verse_id":6049,"location":"91:6:4","text_uthmani":"٦","qpc_uthmani_hafs":"٦","char_type_name":"end","page_number":595,"line_number":6,"text":"٦","translation":{"text":"(6)","language_name":"english","language_id":38},"transliteration":{"text":null,"language_name":"english","language_id":38}}]},{"id":6050,"verse_number":7,"verse_key":"91:7","hizb_number":60,"rub_el_hizb_number":238,"ruku_number":535,"manzil_number":7,"sajdah_number":null,"page_number":595,"juz_number":30,"words":[{"id":8376,"position":1,"audio_url":"wbw/091_007_001.mp3","verse_key":"91:7","verse_id":6050,"location":"91:7:1","text_uthmani":"وَنَفْسٍۢ","qpc_uthmani_hafs":"وَنَفۡسٖ","char_type_name":"word","page_number":595,"line_number":6,"text":"وَنَفۡسٖ","translation":{"text":"And (the) soul","language_name":"english","language_id":38},"transliteration":{"text":"wanafsin","language_name":"english","language_id":38}},{"id":8377,"position":2,"audio_url":"wbw/091_007_002.mp3","verse_key":"91:7","verse_id":6050,"location":"91:7:2","text_uthmani":"وَمَا","qpc_uthmani_hafs":"وَمَا","char_type_name":"word","page_number":595,"line_number":6,"text":"وَمَا","translation":{"text":"and (He) Who","language_name":"english","language_id":38},"transliteration":{"text":"wamā","language_name":"english","language_id":38}},{"id":8378,"position":3,"audio_url":"wbw/091_007_003.mp3","verse_key":"91:7","verse_id":6050,"location":"91:7:3","text_uthmani":"سَوَّىٰهَا","qpc_uthmani_hafs":"سَوَّىٰهَا","char_type_name":"word","page_number":595,"line_number":6,"text":"سَوَّىٰهَا","translation":{"text":"proportioned it","language_name":"english","language_id":38},"transliteration":{"text":"sawwāhā","language_name":"english","language_id":38}},{"id":8379,"position":4,"audio_url":null,"verse_key":"91:7","verse_id":6050,"location":"91:7:4","text_uthmani":"٧","qpc_uthmani_hafs":"٧","char_type_name":"end","page_number":595,"line_number":6,"text":"٧","translation":{"text":"(7)","language_name":"english","language_id":38},"transliteration":{"text":null,"language_name":"english","language_id":38}}]},{"id":6051,"verse_number":8,"verse_key":"91:8","hizb_number":60,"rub_el_hizb_number":238,"ruku_number":535,"manzil_number":7,"sajdah_number":null,"page_number":595,"juz_number":30,"words":[{"id":9528,"position":1,"audio_url":"wbw/091_008_001.mp3","verse_key":"91:8","verse_id":6051,"location":"91:8:1","text_uthmani":"فَأَلْهَمَهَا","qpc_uthmani_hafs":"فَأَلۡهَمَهَا","char_type_name":"word","page_number":595,"line_number":6,"text":"فَأَلۡهَمَهَا","translation":{"text":"And He inspired it","language_name":"english","language_id":38},"transliteration":{"text":"fa-alhamahā","language_name":"english","language_id":38}},{"id":9529,"position":2,"audio_url":"wbw/091_008_002.mp3","verse_key":"91:8","verse_id":6051,"location":"91:8:2","text_uthmani":"فُجُورَهَا","qpc_uthmani_hafs":"فُجُورَهَا","char_type_name":"word","page_number":595,"line_number":6,"text":"فُجُورَهَا","translation":{"text":"(to distinguish) its wickedness","language_name":"english","language_id":38},"transliteration":{"text":"fujūrahā","language_name":"english","language_id":38}},{"id":9530,"position":3,"audio_url":"wbw/091_008_003.mp3","verse_key":"91:8","verse_id":6051,"location":"91:8:3","text_uthmani":"وَتَقْوَىٰهَا","qpc_uthmani_hafs":"وَتَقۡوَىٰهَا","char_type_name":"word","page_number":595,"line_number":7,"text":"وَتَقۡوَىٰهَا","translation":{"text":"and its righteousness","language_name":"english","language_id":38},"transliteration":{"text":"wataqwāhā","language_name":"english","language_id":38}},{"id":9531,"position":4,"audio_url":null,"verse_key":"91:8","verse_id":6051,"location":"91:8:4","text_uthmani":"٨","qpc_uthmani_hafs":"٨","char_type_name":"end","page_number":595,"line_number":7,"text":"٨","translation":{"text":"(8)","language_name":"english","language_id":38},"transliteration":{"text":null,"language_name":"english","language_id":38}}]},{"id":6052,"verse_number":9,"verse_key":"91:9","hizb_number":60,"rub_el_hizb_number":238,"ruku_number":535,"manzil_number":7,"sajdah_number":null,"page_number":595,"juz_number":30,"words":[{"id":10792,"position":1,"audio_url":"wbw/091_009_001.mp3","verse_key":"91:9","verse_id":6052,"location":"91:9:1","text_uthmani":"قَدْ","qpc_uthmani_hafs":"قَدۡ","char_type_name":"word","page_number":595,"line_number":7,"text":"قَدۡ","translation":{"text":"Indeed","language_name":"english","language_id":38},"transliteration":{"text":"qad","language_name":"english","language_id":38}},{"id":10793,"position":2,"audio_url":"wbw/091_009_002.mp3","verse_key":"91:9","verse_id":6052,"location":"91:9:2","text_uthmani":"أَفْلَحَ","qpc_uthmani_hafs":"أَفۡلَحَ","char_type_name":"word","page_number":595,"line_number":7,"text":"أَفۡلَحَ","translation":{"text":"he succeeds","language_name":"english","language_id":38},"transliteration":{"text":"aflaḥa","language_name":"english","language_id":38}},{"id":10794,"position":3,"audio_url":"wbw/091_009_003.mp3","verse_key":"91:9","verse_id":6052,"location":"91:9:3","text_uthmani":"مَن","qpc_uthmani_hafs":"مَن","char_type_name":"word","page_number":595,"line_number":7,"text":"مَن","translation":{"text":"who","language_name":"english","language_id":38},"transliteration":{"text":"man","language_name":"english","language_id":38}},{"id":10795,"position":4,"audio_url":"wbw/091_009_004.mp3","verse_key":"91:9","verse_id":6052,"location":"91:9:4","text_uthmani":"زَكَّىٰهَا","qpc_uthmani_hafs":"زَكَّىٰهَا","char_type_name":"word","page_number":595,"line_number":7,"text":"زَكَّىٰهَا","translation":{"text":"purifies it","language_name":"english","language_id":38},"transliteration":{"text":"zakkāhā","language_name":"english","language_id":38}},{"id":10796,"position":5,"audio_url":null,"verse_key":"91:9","verse_id":6052,"location":"91:9:5","text_uthmani":"٩","qpc_uthmani_hafs":"٩","char_type_name":"end","page_number":595,"line_number":7,"text":"٩","translation":{"text":"(9)","language_name":"english","language_id":38},"transliteration":{"text":null,"language_name":"english","language_id":38}}]},{"id":6053,"verse_number":10,"verse_key":"91:10","hizb_number":60,"rub_el_hizb_number":238,"ruku_number":535,"manzil_number":7,"sajdah_number":null,"page_number":595,"juz_number":30,"words":[{"id":12039,"position":1,"audio_url":"wbw/091_010_001.mp3","verse_key":"91:10","verse_id":6053,"location":"91:10:1","text_uthmani":"وَقَدْ","qpc_uthmani_hafs":"وَقَدۡ","char_type_name":"word","page_number":595,"line_number":7,"text":"وَقَدۡ","translation":{"text":"And indeed","language_name":"english","language_id":38},"transliteration":{"text":"waqad","language_name":"english","language_id":38}},{"id":12040,"position":2,"audio_url":"wbw/091_010_002.mp3","verse_key":"91:10","verse_id":6053,"location":"91:10:2","text_uthmani":"خَابَ","qpc_uthmani_hafs":"خَابَ","char_type_name":"word","page_number":595,"line_number":7,"text":"خَابَ","translation":{"text":"he fails","language_name":"english","language_id":38},"transliteration":{"text":"khāba","language_name":"english","language_id":38}},{"id":12041,"position":3,"audio_url":"wbw/091_010_003.mp3","verse_key":"91:10","verse_id":6053,"location":"91:10:3","text_uthmani":"مَن","qpc_uthmani_hafs":"مَن","char_type_name":"word","page_number":595,"line_number":7,"text":"مَن","translation":{"text":"who","language_name":"english","language_id":38},"transliteration":{"text":"man","language_name":"english","language_id":38}},{"id":12042,"position":4,"audio_url":"wbw/091_010_004.mp3","verse_key":"91:10","verse_id":6053,"location":"91:10:4","text_uthmani":"دَسَّىٰهَا","qpc_uthmani_hafs":"دَسَّىٰهَا","char_type_name":"word","page_number":595,"line_number":7,"text":"دَسَّىٰهَا","translation":{"text":"buries it","language_name":"english","language_id":38},"transliteration":{"text":"dassāhā","language_name":"english","language_id":38}},{"id":12043,"position":5,"audio_url":null,"verse_key":"91:10","verse_id":6053,"location":"91:10:5","text_uthmani":"١٠","qpc_uthmani_hafs":"١٠","char_type_name":"end","page_number":595,"line_number":8,"text":"١٠","translation":{"text":"(10)","language_name":"english","language_id":38},"transliteration":{"text":null,"language_name":"english","language_id":38}}]}],"pagination":{"per_page":10,"current_page":1,"next_page":2,"total_pages":2,"total_records":15}}
