{"verses":[{"id":4696,"verse_number":21,"verse_key":"51:21","hizb_number":52,"rub_el_hizb_number":208,"ruku_number":457,"manzil_number":7,"sajdah_number":null,"page_number":521,"juz_number":26,"words":[{"id":23684,"position":1,"audio_url":"wbw/051_021_001.mp3","char_type_name":"word","page_number":521,"line_number":8,"text":"وَفِىٓ","translation":{"text":"এবং মধ্যে আছে","language_name":"bengali","language_id":20},"transliteration":{"text":"wafī","language_name":"english","language_id":38}},{"id":23685,"position":2,"audio_url":"wbw/051_021_002.mp3","char_type_name":"word","page_number":521,"line_number":8,"text":"أَنفُسِكُمْ ۚ","translation":{"text":"তোমাদের নিজেদের","language_name":"bengali","language_id":20},"transliteration":{"text":"anfusikum","language_name":"english","language_id":38}},{"id":23687,"position":3,"audio_url":"wbw/051_021_004.mp3","char_type_name":"word","page_number":521,"line_number":8,"text":"أَفَلَا","translation":{"text":"না তবে কি","language_name":"bengali","language_id":20},"transliteration":{"text":"afalā","language_name":"english","language_id":38}},{"id":23688,"position":4,"audio_url":"wbw/051_021_005.mp3","char_type_name":"word","page_number":521,"line_number":8,"text":"تُبْصِرُونَ","translation":{"text":"তোমরা (ভেবে) দেখ","language_name":"bengali","language_id":20},"transliteration":{"text":"tub'ṣirūna","language_name":"english","language_id":38}},{"id":23689,"position":5,"audio_url":null,"char_type_name":"end","page_number":521,"line_number":8,"text":"٢١","translation":{"text":"(২১)","language_name":"bengali","language_id":20},"transliteration":{"text":null,"language_name":"english","language_id":38}}]},{"id":4697,"verse_number":22,"verse_key":"51:22","hizb_number":52,"rub_el_hizb_number":208,"ruku_number":457,"manzil_number":7,"sajdah_number":null,"page_number":521,"juz_number":26,"words":[{"id":24658,"position":1,"audio_url":"wbw/051_022_001.mp3","char_type_name":"word","page_number":521,"line_number":8,"text":"وَفِى","translation":{"text":"এবং মধ্যে আছে","language_name":"bengali","language_id":20},"transliteration":{"text":"wafī","language_name":"english","language_id":38}},{"id":24659,"position":2,"audio_url":"wbw/051_022_002.mp3","char_type_name":"word","page_number":521,"line_number":8,"text":"ٱلسَّمَآءِ","translation":{"text":"আকাশের","language_name":"bengali","language_id":20},"transliteration":{"text":"l-samāi","language_name":"english","language_id":38}},{"id":24660,"position":3,"audio_url":"wbw/051_022_003.mp3","char_type_name":"word","page_number":521,"line_number":8,"text":"رِزْقُكُمْ","translation":{"text":"তোমাদের জীবিকা","language_name":"bengali","language_id":20},"transliteration":{"text":"riz'qukum","language_name":"english","language_id":38}},{"id":24661,"position":4,"audio_url":"wbw/051_022_004.mp3","char_type_name":"word","page_number":521,"line_number":9,"text":"وَمَا","translation":{"text":"এবং যা","language_name":"bengali","language_id":20},"transliteration":{"text":"wamā","language_name":"english","language_id":38}},{"id":24662,"position":5,"audio_url":"wbw/051_022_005.mp3","char_type_name":"word","page_number":521,"line_number":9,"text":"تُوعَدُونَ","translation":{"text":"তোমাদের প্রতিশ্রুতি দেওয়া হয়েছে","language_name":"bengali","language_id":20},"transliteration":{"text":"tūʿadūna","language_name":"english","language_id":38}},{"id":24663,"position":6,"audio_url":null,"char_type_name":"end","page_number":521,"line_number":9,"text":"٢٢","translation":{"text":"(২২)","language_name":"bengali","language_id":20},"transliteration":{"text":null,"language_name":"english","language_id":38}}]},{"id":4698,"verse_number":23,"verse_key":"51:23","hizb_number":52,"rub_el_hizb_number":208,"ruku_number":457,"manzil_number":7,"sajdah_number":null,"page_number":521,"juz_number":26,"words":[{"id":25973,"position":1,"audio_url":"wbw/051_023_001.mp3","char_type_name":"word","page_number":521,"line_number":9,"text":"فَوَرَبِّ","translation":{"text":"অতএব রবের শপথ","language_name":"bengali","language_id":20},"transliteration":{"text":"fawarabbi","language_name":"english","language_id":38}},{"id":25974,"position":2,"audio_url":"wbw/051_023_002.mp3","char_type_name":"word","page_number":521,"line_number":9,"text":"ٱلسَّمَآءِ","translation":{"text":"আকাশের","language_name":"bengali","language_id":20},"transliteration":{"text":"l-samāi","language_name":"english","language_id":38}},{"id":25975,"position":3,"audio_url":"wbw/051_023_003.mp3","char_type_name":"word","page_number":521,"line_number":9,"text":"وَٱلْأَرْضِ","translation":{"text":"ও পৃথিবীর","language_name":"bengali","language_id":20},"transliteration":{"text":"wal-arḍi","language_name":"english","language_id":38}},{"id":25976,"position":4,"audio_url":"wbw/051_023_004.mp3","char_type_name":"word","page_number":521,"line_number":9,"text":"إِنَّهُۥ","translation":{"text":"তা নিশ্চয়","language_name":"bengali","language_id":20},"transliteration":{"text":"innahu","language_name":"english","language_id":38}},{"id":25977,"position":5,"audio_url":"wbw/051_023_005.mp3","char_type_name":"word","page_number":521,"line_number":9,"text":"لَحَقٌّۭ","translation":{"text":"সত্য অবশ্যই","language_name":"bengali","language_id":20},"transliteration":{"text":"laḥaqqun","language_name":"english","language_id":38}},{"id":25978,"position":6,"audio_url":"wbw/051_023_006.mp3","char_type_name":"word","page_number":521,"line_number":9,"text":"مِّثْلَ","translation":{"text":"(তার) মত","language_name":"bengali","language_id":20},"transliteration":{"text":"mith'la","language_name":"english","language_id":38}},{"id":25979,"position":7,"audio_url":"wbw/051_023_007.mp3","char_type_name":"word","page_number":521,"line_number":9,"text":"مَآ","translation":{"text":"যেমন","language_name":"bengali","language_id":20},"transliteration":{"text":"mā","language_name":"english","language_id":38}},{"id":25980,"position":8,"audio_url":"wbw/051_023_008.mp3","char_type_name":"word","page_number":521,"line_number":9,"text":"أَنَّكُمْ","translation":{"text":"তোমরা","language_name":"bengali","language_id":20},"transliteration":{"text":"annakum","language_name":"english","language_id":38}},{"id":25981,"position":9,"audio_url":"wbw/051_023_009.mp3","char_type_name":"word","page_number":521,"line_number":10,"text":"تَنطِقُونَ","translation":{"text":"কথাবার্তা বল","language_name":"bengali","language_id":20},"transliteration":{"text":"tanṭiqūna","language_name":"english","language_id":38}},{"id":25982,"position":10,"audio_url":null,"char_type_name":"end","page_number":521,"line_number":10,"text":"٢٣","translation":{"text":"(২৩)","language_name":"bengali","language_id":20},"transliteration":{"text":null,"language_name":"english","language_id":38}}]},{"id":4699,"verse_number":24,"verse_key":"51:24","hizb_number":52,"rub_el_hizb_number":208,"ruku_number":458,"manzil_number":7,"sajdah_number":null,"page_number":521,"juz_number":26,"words":[{"id":26800,"position":1,"audio_url":"wbw/051_024_001.mp3","char_type_name":"word","page_number":521,"line_number":10,"text":"هَلْ","translation":{"text":"(হে নবী) কি","language_name":"bengali","language_id":20},"transliteration":{"text":"hal","language_name":"english","language_id":38}},{"id":26801,"position":2,"audio_url":"wbw/051_024_002.mp3","char_type_name":"word","page_number":521,"line_number":10,"text":"أَتَىٰكَ","translation":{"text":"তোমার কাছে এসেছে","language_name":"bengali","language_id":20},"transliteration":{"text":"atāka","language_name":"english","language_id":38}},{"id":26802,"position":3,"audio_url":"wbw/051_024_003.mp3","char_type_name":"word","page_number":521,"line_number":10,"text":"حَدِيثُ","translation":{"text":"বৃত্তান্ত","language_name":"bengali","language_id":20},"transliteration":{"text":"ḥadīthu","language_name":"english","language_id":38}},{"id":26803,"position":4,"audio_url":"wbw/051_024_004.mp3","char_type_name":"word","page_number":521,"line_number":10,"text":"ضَيْفِ","translation":{"text":"মেহমানদের","language_name":"bengali","language_id":20},"transliteration":{"text":"ḍayfi","language_name":"english","language_id":38}},{"id":26804,"position":5,"audio_url":"wbw/051_024_005.mp3","char_type_name":"word","page_number":521,"line_number":10,"text":"إِبْرَٰهِيمَ","translation":{"text":"ইবরাহীমের","language_name":"bengali","language_id":20},"transliteration":{"text":"ib'rāhīma","language_name":"english","language_id":38}},{"id":26805,"position":6,"audio_url":"wbw/051_024_006.mp3","char_type_name":"word","page_number":521,"line_number":10,"text":"ٱلْمُكْرَمِينَ","translation":{"text":"(যারা ছিল বড়) সন্মানিত","language_name":"bengali","language_id":20},"transliteration":{"text":"l-muk'ramīna","language_name":"english","language_id":38}},{"id":26806,"position":7,"audio_url":null,"char_type_name":"end","page_number":521,"line_number":10,"text":"٢٤","translation":{"text":"(২৪)","language_name":"bengali","language_id":20},"transliteration":{"text":null,"language_name":"english","language_id":38}}]},{"id":4700,"verse_number":25,"verse_key":"51:25","hizb_number":52,"rub_el_hizb_number":208,"ruku_number":458,"manzil_number":7,"sajdah_number":null,"page_number":521,"juz_number":26,"words":[{"id":27852,"position":1,"audio_url":"wbw/051_025_001.mp3","char_type_name":"word","page_number":521,"line_number":10,"text":"إِذْ","translation":{"text":"যখন","language_name":"bengali","language_id":20},"transliteration":{"text":"idh","language_name":"english","language_id":38}},{"id":27853,"position":2,"audio_url":"wbw/051_025_002.mp3","char_type_name":"word","page_number":521,"line_number":11,"text":"دَخَلُوا۟","translation":{"text":"তারা প্রবেশ করল","language_name":"bengali","language_id":20},"transliteration":{"text":"dakhalū","language_name":"english","language_id":38}},{"id":27854,"position":3,"audio_url":"wbw/051_025_003.mp3","char_type_name":"word","page_number":521,"line_number":11,"text":"عَلَيْهِ","translation":{"text":"তার কাছে","language_name":"bengali","language_id":20},"transliteration":{"text":"ʿalayhi","language_name":"english","language_id":38}},{"id":27855,"position":4,"audio_url":"wbw/051_025_004.mp3","char_type_name":"word","page_number":521,"line_number":11,"text":"فَقَالُوا۟","translation":{"text":"তারা তখন বলল","language_name":"bengali","language_id":20},"transliteration":{"text":"faqālū","language_name":"english","language_id":38}},{"id":27856,"position":5,"audio_url":"wbw/051_025_005.mp3","char_type_name":"word","page_number":521,"line_number":11,"text":"سَلَـٰمًۭا ۖ","translation":{"text":"\"সালাম (বর্ষিত হউক)\"","language_name":"bengali","language_id":20},"transliteration":{"text":"salāman","language_name":"english","language_id":38}},{"id":27858,"position":6,"audio_url":"wbw/051_025_007.mp3","char_type_name":"word","page_number":521,"line_number":11,"text":"قَالَ","translation":{"text":"(ইবরাহীম) বলল","language_name":"bengali","language_id":20},"transliteration":{"text":"qāla","language_name":"english","language_id":38}},{"id":27859,"position":7,"audio_url":"wbw/051_025_008.mp3","char_type_name":"word","page_number":521,"line_number":11,"text":"سَلَـٰمٌۭ","translation":{"text":"\"সালাম (বর্ষিত হউক)","language_name":"bengali","language_id":20},"transliteration":{"text":"salāmun","language_name":"english","language_id":38}},{"id":27860,"position":8,"audio_url":"wbw/051_025_009.mp3","char_type_name":"word","page_number":521,"line_number":11,"text":"قَوْمٌۭ","translation":{"text":"(এসব) লোকজন","language_name":"bengali","language_id":20},"transliteration":{"text":"qawmun","language_name":"english","language_id":38}},{"id":27861,"position":9,"audio_url":"wbw/051_025_010.mp3","char_type_name":"word","page_number":521,"line_number":11,"text":"مُّنكَرُونَ","translation":{"text":"অপরিচিত (মনে হচ্ছে)\"","language_name":"bengali","language_id":20},"transliteration":{"text":"munkarūna","language_name":"english","language_id":38}},{"id":27862,"position":10,"audio_url":null,"char_type_name":"end","page_number":521,"line_number":11,"text":"٢٥","translation":{"text":"(২৫)","language_name":"bengali","language_id":20},"transliteration":{"text":null,"language_name":"english","language_id":38}}]},{"id":4701,"verse_number":26,"verse_key":"51:26","hizb_number":52,"rub_el_hizb_number":208,"ruku_number":458,"manzil_number":7,"sajdah_number":null,"page_number":521,"juz_number":26,"words":[{"id":28813,"position":1,"audio_url":"wbw/051_026_001.mp3","char_type_name":"word","page_number":521,"line_number":11,"text":"فَرَاغَ","translation":{"text":"অতঃপর সে চলে গেল","language_name":"bengali","language_id":20},"transliteration":{"text":"farāgha","language_name":"english","language_id":38}},{"id":28814,"position":2,"audio_url":"wbw/051_026_002.mp3","char_type_name":"word","page_number":521,"line_number":11,"text":"إِلَىٰٓ","translation":{"text":"নিকট","language_name":"bengali","language_id":20},"transliteration":{"text":"ilā","language_name":"english","language_id":38}},{"id":28815,"position":3,"audio_url":"wbw/051_026_003.mp3","char_type_name":"word","page_number":521,"line_number":12,"text":"أَهْلِهِۦ","translation":{"text":"তার স্ত্রীর","language_name":"bengali","language_id":20},"transliteration":{"text":"ahlihi","language_name":"english","language_id":38}},{"id":28816,"position":4,"audio_url":"wbw/051_026_004.mp3","char_type_name":"word","page_number":521,"line_number":12,"text":"فَجَآءَ","translation":{"text":"অতঃপর আনল","language_name":"bengali","language_id":20},"transliteration":{"text":"fajāa","language_name":"english","language_id":38}},{"id":28817,"position":5,"audio_url":"wbw/051_026_005.mp3","char_type_name":"word","page_number":521,"line_number":12,"text":"بِعِجْلٍۢ","translation":{"text":"একটি বাছুর নিয়ে (তাজা)","language_name":"bengali","language_id":20},"transliteration":{"text":"biʿij'lin","language_name":"english","language_id":38}},{"id":28818,"position":6,"audio_url":"wbw/051_026_006.mp3","char_type_name":"word","page_number":521,"line_number":12,"text":"سَمِينٍۢ","translation":{"text":"মোটা তাজা","language_name":"bengali","language_id":20},"transliteration":{"text":"samīnin","language_name":"english","language_id":38}},{"id":28819,"position":7,"audio_url":null,"char_type_name":"end","page_number":521,"line_number":12,"text":"٢٦","translation":{"text":"(২৬)","language_name":"bengali","language_id":20},"transliteration":{"text":null,"language_name":"english","language_id":38}}]},{"id":4702,"verse_number":27,"verse_key":"51:27","hizb_number":52,"rub_el_hizb_number":208,"ruku_number":458,"manzil_number":7,"sajdah_number":null,"page_number":521,"juz_number":26,"words":[{"id":29739,"position":1,"audio_url":"wbw/051_027_001.mp3","char_type_name":"word","page_number":521,"line_number":12,"text":"فَقَرَّبَهُۥٓ","translation":{"text":"তা অতঃপর কাছে আনল","language_name":"bengali","language_id":20},"transliteration":{"text":"faqarrabahu","language_name":"english","language_id":38}},{"id":29740,"position":2,"audio_url":"wbw/051_027_002.mp3","char_type_name":"word","page_number":521,"line_number":12,"text":"إِلَيْهِمْ","translation":{"text":"তাদের","language_name":"bengali","language_id":20},"transliteration":{"text":"ilayhim","language_name":"english","language_id":38}},{"id":29741,"position":3,"audio_url":"wbw/051_027_003.mp3","char_type_name":"word","page_number":521,"line_number":12,"text":"قَالَ","translation":{"text":"সে বলল","language_name":"bengali","language_id":20},"transliteration":{"text":"qāla","language_name":"english","language_id":38}},{"id":29742,"position":4,"audio_url":"wbw/051_027_004.mp3","char_type_name":"word","page_number":521,"line_number":12,"text":"أَلَا","translation":{"text":"\"না কেন","language_name":"bengali","language_id":20},"transliteration":{"text":"alā","language_name":"english","language_id":38}},{"id":29743,"position":5,"audio_url":"wbw/051_027_005.mp3","char_type_name":"word","page_number":521,"line_number":12,"text":"تَأْكُلُونَ","translation":{"text":"তোমরা খাচ্ছ\"","language_name":"bengali","language_id":20},"transliteration":{"text":"takulūna","language_name":"english","language_id":38}},{"id":29744,"position":6,"audio_url":null,"char_type_name":"end","page_number":521,"line_number":13,"text":"٢٧","translation":{"text":"(২৭)","language_name":"bengali","language_id":20},"transliteration":{"text":null,"language_name":"english","language_id":38}}]},{"id":4703,"verse_number":28,"verse_key":"51:28","hizb_number":52,"rub_el_hizb_number":208,"ruku_number":458,"manzil_number":7,"sajdah_number":null,"page_number":521,"juz_number":26,"words":[{"id":30692,"position":1,"audio_url":"wbw/051_028_001.mp3","char_type_name":"word","page_number":521,"line_number":13,"text":"فَأَوْجَسَ","translation":{"text":"ফলে তিনি অনুভব করলেন","language_name":"bengali","language_id":20},"transliteration":{"text":"fa-awjasa","language_name":"english","language_id":38}},{"id":30693,"position":2,"audio_url":"wbw/051_028_002.mp3","char_type_name":"word","page_number":521,"line_number":13,"text":"مِنْهُمْ","translation":{"text":"তাদের থেকে","language_name":"bengali","language_id":20},"transliteration":{"text":"min'hum","language_name":"english","language_id":38}},{"id":30694,"position":3,"audio_url":"wbw/051_028_003.mp3","char_type_name":"word","page_number":521,"line_number":13,"text":"خِيفَةًۭ ۖ","translation":{"text":"ভয়","language_name":"bengali","language_id":20},"transliteration":{"text":"khīfatan","language_name":"english","language_id":38}},{"id":30696,"position":4,"audio_url":"wbw/051_028_005.mp3","char_type_name":"word","page_number":521,"line_number":13,"text":"قَالُوا۟","translation":{"text":"তারা বলল","language_name":"bengali","language_id":20},"transliteration":{"text":"qālū","language_name":"english","language_id":38}},{"id":30697,"position":5,"audio_url":"wbw/051_028_006.mp3","char_type_name":"word","page_number":521,"line_number":13,"text":"لَا","translation":{"text":"\"না","language_name":"bengali","language_id":20},"transliteration":{"text":"lā","language_name":"english","language_id":38}},{"id":30698,"position":6,"audio_url":"wbw/051_028_007.mp3","char_type_name":"word","page_number":521,"line_number":13,"text":"تَخَفْ ۖ","translation":{"text":"ভয় করো\"","language_name":"bengali","language_id":20},"transliteration":{"text":"takhaf","language_name":"english","language_id":38}},{"id":30700,"position":7,"audio_url":"wbw/051_028_009.mp3","char_type_name":"word","page_number":521,"line_number":13,"text":"وَبَشَّرُوهُ","translation":{"text":"এবং তাকে তারা সুসংবাদ দিল","language_name":"bengali","language_id":20},"transliteration":{"text":"wabasharūhu","language_name":"english","language_id":38}},{"id":30701,"position":8,"audio_url":"wbw/051_028_010.mp3","char_type_name":"word","page_number":521,"line_number":13,"text":"بِغُلَـٰمٍ","translation":{"text":"একটি ছেলের (জন্মের)","language_name":"bengali","language_id":20},"transliteration":{"text":"bighulāmin","language_name":"english","language_id":38}},{"id":30702,"position":9,"audio_url":"wbw/051_028_011.mp3","char_type_name":"word","page_number":521,"line_number":13,"text":"عَلِيمٍۢ","translation":{"text":"(যে হবে) জ্ঞানী","language_name":"bengali","language_id":20},"transliteration":{"text":"ʿalīmin","language_name":"english","language_id":38}},{"id":30703,"position":10,"audio_url":null,"char_type_name":"end","page_number":521,"line_number":13,"text":"٢٨","translation":{"text":"(২৮)","language_name":"bengali","language_id":20},"transliteration":{"text":null,"language_name":"english","language_id":38}}]},{"id":4704,"verse_number":29,"verse_key":"51:29","hizb_number":52,"rub_el_hizb_number":208,"ruku_number":458,"manzil_number":7,"sajdah_number":null,"page_number":521,"juz_number":26,"words":[{"id":31773,"position":1,"audio_url":"wbw/051_029_001.mp3","char_type_name":"word","page_number":521,"line_number":14,"text":"فَأَقْبَلَتِ","translation":{"text":"তখন সামনে এল","language_name":"bengali","language_id":20},"transliteration":{"text":"fa-aqbalati","language_name":"english","language_id":38}},{"id":31774,"position":2,"audio_url":"wbw/051_029_002.mp3","char_type_name":"word","page_number":521,"line_number":14,"text":"ٱمْرَأَتُهُۥ","translation":{"text":"তার স্ত্রী","language_name":"bengali","language_id":20},"transliteration":{"text":"im'ra-atuhu","language_name":"english","language_id":38}},{"id":31775,"position":3,"audio_url":"wbw/051_029_003.mp3","char_type_name":"word","page_number":521,"line_number":14,"text":"فِى","translation":{"text":"অবস্থায়","language_name":"bengali","language_id":20},"transliteration":{"text":"fī","language_name":"english","language_id":38}},{"id":31776,"position":4,"audio_url":"wbw/051_029_004.mp3","char_type_name":"word","page_number":521,"line_number":14,"text":"صَرَّةٍۢ","translation":{"text":"চিৎকার","language_name":"bengali","language_id":20},"transliteration":{"text":"ṣarratin","language_name":"english","language_id":38}},{"id":31777,"position":5,"audio_url":"wbw/051_029_005.mp3","char_type_name":"word","page_number":521,"line_number":14,"text":"فَصَكَّتْ","translation":{"text":"এরপর চাপড়াল","language_name":"bengali","language_id":20},"transliteration":{"text":"faṣakkat","language_name":"english","language_id":38}},{"id":31778,"position":6,"audio_url":"wbw/051_029_006.mp3","char_type_name":"word","page_number":521,"line_number":14,"text":"وَجْهَهَا","translation":{"text":"তার (নিজের) গালে","language_name":"bengali","language_id":20},"transliteration":{"text":"wajhahā","language_name":"english","language_id":38}},{"id":31779,"position":7,"audio_url":"wbw/051_029_007.mp3","char_type_name":"word","page_number":521,"line_number":14,"text":"وَقَالَتْ","translation":{"text":"এবং বলল","language_name":"bengali","language_id":20},"transliteration":{"text":"waqālat","language_name":"english","language_id":38}},{"id":31780,"position":8,"audio_url":"wbw/051_029_008.mp3","char_type_name":"word","page_number":521,"line_number":14,"text":"عَجُوزٌ","translation":{"text":"\"(এই) বৃদ্ধা","language_name":"bengali","language_id":20},"transliteration":{"text":"ʿajūzun","language_name":"english","language_id":38}},{"id":31781,"position":9,"audio_url":"wbw/051_029_009.mp3","char_type_name":"word","page_number":521,"line_number":14,"text":"عَقِيمٌۭ","translation":{"text":"বন্ধ্যার (সন্তান হবে!)\"","language_name":"bengali","language_id":20},"transliteration":{"text":"ʿaqīmun","language_name":"english","language_id":38}},{"id":31782,"position":10,"audio_url":null,"char_type_name":"end","page_number":521,"line_number":15,"text":"٢٩","translation":{"text":"(২৯)","language_name":"bengali","language_id":20},"transliteration":{"text":null,"language_name":"english","language_id":38}}]},{"id":4705,"verse_number":30,"verse_key":"51:30","hizb_number":52,"rub_el_hizb_number":208,"ruku_number":458,"manzil_number":7,"sajdah_number":null,"page_number":521,"juz_number":26,"words":[{"id":32615,"position":1,"audio_url":"wbw/051_030_001.mp3","char_type_name":"word","page_number":521,"line_number":15,"text":"قَالُوا۟","translation":{"text":"তারা বলল","language_name":"bengali","language_id":20},"transliteration":{"text":"qālū","language_name":"english","language_id":38}},{"id":32616,"position":2,"audio_url":"wbw/051_030_002.mp3","char_type_name":"word","page_number":521,"line_number":15,"text":"كَذَٰلِكِ","translation":{"text":"\"এরূপই","language_name":"bengali","language_id":20},"transliteration":{"text":"kadhāliki","language_name":"english","language_id":38}},{"id":32617,"position":3,"audio_url":"wbw/051_030_003.mp3","char_type_name":"word","page_number":521,"line_number":15,"text":"قَالَ","translation":{"text":"বলেছেন","language_name":"bengali","language_id":20},"transliteration":{"text":"qāla","language_name":"english","language_id":38}},{"id":32618,"position":4,"audio_url":"wbw/051_030_004.mp3","char_type_name":"word","page_number":521,"line_number":15,"text":"رَبُّكِ ۖ","translation":{"text":"তোমার রব","language_name":"bengali","language_id":20},"transliteration":{"text":"rabbuki","language_name":"english","language_id":38}},{"id":32620,"position":5,"audio_url":"wbw/051_030_006.mp3","char_type_name":"word","page_number":521,"line_number":15,"text":"إِنَّهُۥ","translation":{"text":"নিশ্চয়ই তিনি","language_name":"bengali","language_id":20},"transliteration":{"text":"innahu","language_name":"english","language_id":38}},{"id":32621,"position":6,"audio_url":"wbw/051_030_007.mp3","char_type_name":"word","page_number":521,"line_number":15,"text":"هُوَ","translation":{"text":"তিনিই","language_name":"bengali","language_id":20},"transliteration":{"text":"huwa","language_name":"english","language_id":38}},{"id":32622,"position":7,"audio_url":"wbw/051_030_008.mp3","char_type_name":"word","page_number":521,"line_number":15,"text":"ٱلْحَكِيمُ","translation":{"text":"প্রজ্ঞাময়","language_name":"bengali","language_id":20},"transliteration":{"text":"l-ḥakīmu","language_name":"english","language_id":38}},{"id":32623,"position":8,"audio_url":"wbw/051_030_009.mp3","char_type_name":"word","page_number":521,"line_number":15,"text":"ٱلْعَلِيمُ","translation":{"text":"সবকিছু জানেন\"","language_name":"bengali","language_id":20},"transliteration":{"text":"l-ʿalīmu","language_name":"english","language_id":38}},{"id":32624,"position":9,"audio_url":null,"char_type_name":"end","page_number":521,"line_number":15,"text":"٣٠","translation":{"text":"(৩০)","language_name":"bengali","language_id":20},"transliteration":{"text":null,"language_name":"english","language_id":38}}]}],"pagination":{"per_page":10,"current_page":3,"next_page":4,"total_pages":6,"total_records":60}}
