{"verses":[{"id":4716,"verse_number":41,"verse_key":"51:41","hizb_number":53,"rub_el_hizb_number":209,"ruku_number":458,"manzil_number":7,"sajdah_number":null,"page_number":522,"juz_number":27,"words":[{"id":42063,"position":1,"audio_url":"wbw/051_041_001.mp3","char_type_name":"word","page_number":522,"line_number":7,"text":"وَفِى","translation":{"text":"এবং (আছে) মধ্যে (নিদর্শন)","language_name":"bengali","language_id":20},"transliteration":{"text":"wafī","language_name":"english","language_id":38}},{"id":42064,"position":2,"audio_url":"wbw/051_041_002.mp3","char_type_name":"word","page_number":522,"line_number":7,"text":"عَادٍ","translation":{"text":"আ'দ জাতির (ঘটনায়)","language_name":"bengali","language_id":20},"transliteration":{"text":"ʿādin","language_name":"english","language_id":38}},{"id":42065,"position":3,"audio_url":"wbw/051_041_003.mp3","char_type_name":"word","page_number":522,"line_number":7,"text":"إِذْ","translation":{"text":"যখন","language_name":"bengali","language_id":20},"transliteration":{"text":"idh","language_name":"english","language_id":38}},{"id":42066,"position":4,"audio_url":"wbw/051_041_004.mp3","char_type_name":"word","page_number":522,"line_number":7,"text":"أَرْسَلْنَا","translation":{"text":"আমরা পাঠিয়ে ছিলাম","language_name":"bengali","language_id":20},"transliteration":{"text":"arsalnā","language_name":"english","language_id":38}},{"id":42067,"position":5,"audio_url":"wbw/051_041_005.mp3","char_type_name":"word","page_number":522,"line_number":7,"text":"عَلَيْهِمُ","translation":{"text":"তাদের বিরুদ্ধে","language_name":"bengali","language_id":20},"transliteration":{"text":"ʿalayhimu","language_name":"english","language_id":38}},{"id":42068,"position":6,"audio_url":"wbw/051_041_006.mp3","char_type_name":"word","page_number":522,"line_number":7,"text":"ٱلرِّيحَ","translation":{"text":"বায়ুপ্রবাহ","language_name":"bengali","language_id":20},"transliteration":{"text":"l-rīḥa","language_name":"english","language_id":38}},{"id":42069,"position":7,"audio_url":"wbw/051_041_007.mp3","char_type_name":"word","page_number":522,"line_number":8,"text":"ٱلْعَقِيمَ","translation":{"text":"অকল্যাণকর/ বিধ্বংসী","language_name":"bengali","language_id":20},"transliteration":{"text":"l-ʿaqīma","language_name":"english","language_id":38}},{"id":42070,"position":8,"audio_url":null,"char_type_name":"end","page_number":522,"line_number":8,"text":"٤١","translation":{"text":"(৪১)","language_name":"bengali","language_id":20},"transliteration":{"text":null,"language_name":"english","language_id":38}}]},{"id":4717,"verse_number":42,"verse_key":"51:42","hizb_number":53,"rub_el_hizb_number":209,"ruku_number":458,"manzil_number":7,"sajdah_number":null,"page_number":522,"juz_number":27,"words":[{"id":42805,"position":1,"audio_url":"wbw/051_042_001.mp3","char_type_name":"word","page_number":522,"line_number":8,"text":"مَا","translation":{"text":"না","language_name":"bengali","language_id":20},"transliteration":{"text":"mā","language_name":"english","language_id":38}},{"id":42806,"position":2,"audio_url":"wbw/051_042_002.mp3","char_type_name":"word","page_number":522,"line_number":8,"text":"تَذَرُ","translation":{"text":"ছেড়েছিল","language_name":"bengali","language_id":20},"transliteration":{"text":"tadharu","language_name":"english","language_id":38}},{"id":42807,"position":3,"audio_url":"wbw/051_042_003.mp3","char_type_name":"word","page_number":522,"line_number":8,"text":"مِن","translation":{"text":"কোনো","language_name":"bengali","language_id":20},"transliteration":{"text":"min","language_name":"english","language_id":38}},{"id":42808,"position":4,"audio_url":"wbw/051_042_004.mp3","char_type_name":"word","page_number":522,"line_number":8,"text":"شَىْءٍ","translation":{"text":"কিছুই","language_name":"bengali","language_id":20},"transliteration":{"text":"shayin","language_name":"english","language_id":38}},{"id":42809,"position":5,"audio_url":"wbw/051_042_005.mp3","char_type_name":"word","page_number":522,"line_number":8,"text":"أَتَتْ","translation":{"text":"বয়ে গিয়েছিল","language_name":"bengali","language_id":20},"transliteration":{"text":"atat","language_name":"english","language_id":38}},{"id":42810,"position":6,"audio_url":"wbw/051_042_006.mp3","char_type_name":"word","page_number":522,"line_number":8,"text":"عَلَيْهِ","translation":{"text":"যার উপর (দিয়ে)","language_name":"bengali","language_id":20},"transliteration":{"text":"ʿalayhi","language_name":"english","language_id":38}},{"id":42811,"position":7,"audio_url":"wbw/051_042_007.mp3","char_type_name":"word","page_number":522,"line_number":8,"text":"إِلَّا","translation":{"text":"এছাড়া","language_name":"bengali","language_id":20},"transliteration":{"text":"illā","language_name":"english","language_id":38}},{"id":42812,"position":8,"audio_url":"wbw/051_042_008.mp3","char_type_name":"word","page_number":522,"line_number":8,"text":"جَعَلَتْهُ","translation":{"text":"তাকে করেছিল","language_name":"bengali","language_id":20},"transliteration":{"text":"jaʿalathu","language_name":"english","language_id":38}},{"id":42813,"position":9,"audio_url":"wbw/051_042_009.mp3","char_type_name":"word","page_number":522,"line_number":8,"text":"كَٱلرَّمِيمِ","translation":{"text":"যেন চূর্ণবিচূর্ণ","language_name":"bengali","language_id":20},"transliteration":{"text":"kal-ramīmi","language_name":"english","language_id":38}},{"id":42814,"position":10,"audio_url":null,"char_type_name":"end","page_number":522,"line_number":8,"text":"٤٢","translation":{"text":"(৪২)","language_name":"bengali","language_id":20},"transliteration":{"text":null,"language_name":"english","language_id":38}}]},{"id":4718,"verse_number":43,"verse_key":"51:43","hizb_number":53,"rub_el_hizb_number":209,"ruku_number":458,"manzil_number":7,"sajdah_number":null,"page_number":522,"juz_number":27,"words":[{"id":43593,"position":1,"audio_url":"wbw/051_043_001.mp3","char_type_name":"word","page_number":522,"line_number":9,"text":"وَفِى","translation":{"text":"এবং (আছে) মধ্যে (নিদর্শন)","language_name":"bengali","language_id":20},"transliteration":{"text":"wafī","language_name":"english","language_id":38}},{"id":43594,"position":2,"audio_url":"wbw/051_043_002.mp3","char_type_name":"word","page_number":522,"line_number":9,"text":"ثَمُودَ","translation":{"text":"সামূদ জাতির (ঘটনায়)","language_name":"bengali","language_id":20},"transliteration":{"text":"thamūda","language_name":"english","language_id":38}},{"id":43595,"position":3,"audio_url":"wbw/051_043_003.mp3","char_type_name":"word","page_number":522,"line_number":9,"text":"إِذْ","translation":{"text":"যখন","language_name":"bengali","language_id":20},"transliteration":{"text":"idh","language_name":"english","language_id":38}},{"id":43596,"position":4,"audio_url":"wbw/051_043_004.mp3","char_type_name":"word","page_number":522,"line_number":9,"text":"قِيلَ","translation":{"text":"বলা হয়েছিল","language_name":"bengali","language_id":20},"transliteration":{"text":"qīla","language_name":"english","language_id":38}},{"id":43597,"position":5,"audio_url":"wbw/051_043_005.mp3","char_type_name":"word","page_number":522,"line_number":9,"text":"لَهُمْ","translation":{"text":"তাদেরকে","language_name":"bengali","language_id":20},"transliteration":{"text":"lahum","language_name":"english","language_id":38}},{"id":43598,"position":6,"audio_url":"wbw/051_043_006.mp3","char_type_name":"word","page_number":522,"line_number":9,"text":"تَمَتَّعُوا۟","translation":{"text":"\"তোমরা উপভোগ করো","language_name":"bengali","language_id":20},"transliteration":{"text":"tamattaʿū","language_name":"english","language_id":38}},{"id":43599,"position":7,"audio_url":"wbw/051_043_007.mp3","char_type_name":"word","page_number":522,"line_number":9,"text":"حَتَّىٰ","translation":{"text":"পর্যন্ত","language_name":"bengali","language_id":20},"transliteration":{"text":"ḥattā","language_name":"english","language_id":38}},{"id":43600,"position":8,"audio_url":"wbw/051_043_008.mp3","char_type_name":"word","page_number":522,"line_number":9,"text":"حِينٍۢ","translation":{"text":"একটি নির্দিষ্ট সময়\"","language_name":"bengali","language_id":20},"transliteration":{"text":"ḥīnin","language_name":"english","language_id":38}},{"id":43601,"position":9,"audio_url":null,"char_type_name":"end","page_number":522,"line_number":9,"text":"٤٣","translation":{"text":"(৪৩)","language_name":"bengali","language_id":20},"transliteration":{"text":null,"language_name":"english","language_id":38}}]},{"id":4719,"verse_number":44,"verse_key":"51:44","hizb_number":53,"rub_el_hizb_number":209,"ruku_number":458,"manzil_number":7,"sajdah_number":null,"page_number":522,"juz_number":27,"words":[{"id":44396,"position":1,"audio_url":"wbw/051_044_001.mp3","char_type_name":"word","page_number":522,"line_number":9,"text":"فَعَتَوْا۟","translation":{"text":"এরপরও তারা সীমালংঘন করল","language_name":"bengali","language_id":20},"transliteration":{"text":"faʿataw","language_name":"english","language_id":38}},{"id":44397,"position":2,"audio_url":"wbw/051_044_002.mp3","char_type_name":"word","page_number":522,"line_number":9,"text":"عَنْ","translation":{"text":"ব্যাপারে","language_name":"bengali","language_id":20},"transliteration":{"text":"ʿan","language_name":"english","language_id":38}},{"id":44398,"position":3,"audio_url":"wbw/051_044_003.mp3","char_type_name":"word","page_number":522,"line_number":9,"text":"أَمْرِ","translation":{"text":"নির্দেশের","language_name":"bengali","language_id":20},"transliteration":{"text":"amri","language_name":"english","language_id":38}},{"id":44399,"position":4,"audio_url":"wbw/051_044_004.mp3","char_type_name":"word","page_number":522,"line_number":9,"text":"رَبِّهِمْ","translation":{"text":"তাদের রবের","language_name":"bengali","language_id":20},"transliteration":{"text":"rabbihim","language_name":"english","language_id":38}},{"id":44400,"position":5,"audio_url":"wbw/051_044_005.mp3","char_type_name":"word","page_number":522,"line_number":10,"text":"فَأَخَذَتْهُمُ","translation":{"text":"অবশেষে তাদেরকে পাকড়াও করল","language_name":"bengali","language_id":20},"transliteration":{"text":"fa-akhadhathumu","language_name":"english","language_id":38}},{"id":44401,"position":6,"audio_url":"wbw/051_044_006.mp3","char_type_name":"word","page_number":522,"line_number":10,"text":"ٱلصَّـٰعِقَةُ","translation":{"text":"(আমার) বজ্রাঘাতে","language_name":"bengali","language_id":20},"transliteration":{"text":"l-ṣāʿiqatu","language_name":"english","language_id":38}},{"id":44402,"position":7,"audio_url":"wbw/051_044_007.mp3","char_type_name":"word","page_number":522,"line_number":10,"text":"وَهُمْ","translation":{"text":"এ অবস্থায় যে তারা","language_name":"bengali","language_id":20},"transliteration":{"text":"wahum","language_name":"english","language_id":38}},{"id":44403,"position":8,"audio_url":"wbw/051_044_008.mp3","char_type_name":"word","page_number":522,"line_number":10,"text":"يَنظُرُونَ","translation":{"text":"দেখছিল","language_name":"bengali","language_id":20},"transliteration":{"text":"yanẓurūna","language_name":"english","language_id":38}},{"id":44404,"position":9,"audio_url":null,"char_type_name":"end","page_number":522,"line_number":10,"text":"٤٤","translation":{"text":"(৪৪)","language_name":"bengali","language_id":20},"transliteration":{"text":null,"language_name":"english","language_id":38}}]},{"id":4720,"verse_number":45,"verse_key":"51:45","hizb_number":53,"rub_el_hizb_number":209,"ruku_number":458,"manzil_number":7,"sajdah_number":null,"page_number":522,"juz_number":27,"words":[{"id":45105,"position":1,"audio_url":"wbw/051_045_001.mp3","char_type_name":"word","page_number":522,"line_number":10,"text":"فَمَا","translation":{"text":"অতঃপর না","language_name":"bengali","language_id":20},"transliteration":{"text":"famā","language_name":"english","language_id":38}},{"id":45106,"position":2,"audio_url":"wbw/051_045_002.mp3","char_type_name":"word","page_number":522,"line_number":10,"text":"ٱسْتَطَـٰعُوا۟","translation":{"text":"তারা পেরেছিল","language_name":"bengali","language_id":20},"transliteration":{"text":"is'taṭāʿū","language_name":"english","language_id":38}},{"id":45107,"position":3,"audio_url":"wbw/051_045_003.mp3","char_type_name":"word","page_number":522,"line_number":10,"text":"مِن","translation":{"text":"থেকে","language_name":"bengali","language_id":20},"transliteration":{"text":"min","language_name":"english","language_id":38}},{"id":45108,"position":4,"audio_url":"wbw/051_045_004.mp3","char_type_name":"word","page_number":522,"line_number":10,"text":"قِيَامٍۢ","translation":{"text":"উঠে দাঁড়াতে","language_name":"bengali","language_id":20},"transliteration":{"text":"qiyāmin","language_name":"english","language_id":38}},{"id":45109,"position":5,"audio_url":"wbw/051_045_005.mp3","char_type_name":"word","page_number":522,"line_number":11,"text":"وَمَا","translation":{"text":"আর না","language_name":"bengali","language_id":20},"transliteration":{"text":"wamā","language_name":"english","language_id":38}},{"id":45110,"position":6,"audio_url":"wbw/051_045_006.mp3","char_type_name":"word","page_number":522,"line_number":11,"text":"كَانُوا۟","translation":{"text":"তারা ছিল","language_name":"bengali","language_id":20},"transliteration":{"text":"kānū","language_name":"english","language_id":38}},{"id":45111,"position":7,"audio_url":"wbw/051_045_007.mp3","char_type_name":"word","page_number":522,"line_number":11,"text":"مُنتَصِرِينَ","translation":{"text":"আত্মরক্ষা করতে সক্ষম","language_name":"bengali","language_id":20},"transliteration":{"text":"muntaṣirīna","language_name":"english","language_id":38}},{"id":45112,"position":8,"audio_url":null,"char_type_name":"end","page_number":522,"line_number":11,"text":"٤٥","translation":{"text":"(৪৫)","language_name":"bengali","language_id":20},"transliteration":{"text":null,"language_name":"english","language_id":38}}]},{"id":4721,"verse_number":46,"verse_key":"51:46","hizb_number":53,"rub_el_hizb_number":209,"ruku_number":458,"manzil_number":7,"sajdah_number":null,"page_number":522,"juz_number":27,"words":[{"id":45839,"position":1,"audio_url":"wbw/051_046_001.mp3","char_type_name":"word","page_number":522,"line_number":11,"text":"وَقَوْمَ","translation":{"text":"এবং জাতিকে","language_name":"bengali","language_id":20},"transliteration":{"text":"waqawma","language_name":"english","language_id":38}},{"id":45840,"position":2,"audio_url":"wbw/051_046_002.mp3","char_type_name":"word","page_number":522,"line_number":11,"text":"نُوحٍۢ","translation":{"text":"নূহের","language_name":"bengali","language_id":20},"transliteration":{"text":"nūḥin","language_name":"english","language_id":38}},{"id":45841,"position":3,"audio_url":"wbw/051_046_003.mp3","char_type_name":"word","page_number":522,"line_number":11,"text":"مِّن","translation":{"text":"থেকে","language_name":"bengali","language_id":20},"transliteration":{"text":"min","language_name":"english","language_id":38}},{"id":45842,"position":4,"audio_url":"wbw/051_046_004.mp3","char_type_name":"word","page_number":522,"line_number":11,"text":"قَبْلُ ۖ","translation":{"text":"ইতিপূর্বে (ধ্বংস করেছি)","language_name":"bengali","language_id":20},"transliteration":{"text":"qablu","language_name":"english","language_id":38}},{"id":45844,"position":5,"audio_url":"wbw/051_046_006.mp3","char_type_name":"word","page_number":522,"line_number":11,"text":"إِنَّهُمْ","translation":{"text":"তারা নিশ্চয়ই","language_name":"bengali","language_id":20},"transliteration":{"text":"innahum","language_name":"english","language_id":38}},{"id":45845,"position":6,"audio_url":"wbw/051_046_007.mp3","char_type_name":"word","page_number":522,"line_number":11,"text":"كَانُوا۟","translation":{"text":"তারা ছিল","language_name":"bengali","language_id":20},"transliteration":{"text":"kānū","language_name":"english","language_id":38}},{"id":45846,"position":7,"audio_url":"wbw/051_046_008.mp3","char_type_name":"word","page_number":522,"line_number":11,"text":"قَوْمًۭا","translation":{"text":"জাতি","language_name":"bengali","language_id":20},"transliteration":{"text":"qawman","language_name":"english","language_id":38}},{"id":45847,"position":8,"audio_url":"wbw/051_046_009.mp3","char_type_name":"word","page_number":522,"line_number":12,"text":"فَـٰسِقِينَ","translation":{"text":"সত্যত্যাগী","language_name":"bengali","language_id":20},"transliteration":{"text":"fāsiqīna","language_name":"english","language_id":38}},{"id":45848,"position":9,"audio_url":null,"char_type_name":"end","page_number":522,"line_number":12,"text":"٤٦","translation":{"text":"(৪৬)","language_name":"bengali","language_id":20},"transliteration":{"text":null,"language_name":"english","language_id":38}}]},{"id":4722,"verse_number":47,"verse_key":"51:47","hizb_number":53,"rub_el_hizb_number":209,"ruku_number":459,"manzil_number":7,"sajdah_number":null,"page_number":522,"juz_number":27,"words":[{"id":46488,"position":1,"audio_url":"wbw/051_047_001.mp3","char_type_name":"word","page_number":522,"line_number":12,"text":"وَٱلسَّمَآءَ","translation":{"text":"এবং আকাশ","language_name":"bengali","language_id":20},"transliteration":{"text":"wal-samāa","language_name":"english","language_id":38}},{"id":46489,"position":2,"audio_url":"wbw/051_047_002.mp3","char_type_name":"word","page_number":522,"line_number":12,"text":"بَنَيْنَـٰهَا","translation":{"text":"তা আমরা সৃষ্টি করেছি","language_name":"bengali","language_id":20},"transliteration":{"text":"banaynāhā","language_name":"english","language_id":38}},{"id":46490,"position":3,"audio_url":"wbw/051_047_003.mp3","char_type_name":"word","page_number":522,"line_number":12,"text":"بِأَيْي۟دٍۢ","translation":{"text":"(নিজের) হাত দিয়ে","language_name":"bengali","language_id":20},"transliteration":{"text":"bi-aydin","language_name":"english","language_id":38}},{"id":46491,"position":4,"audio_url":"wbw/051_047_004.mp3","char_type_name":"word","page_number":522,"line_number":12,"text":"وَإِنَّا","translation":{"text":"এবং আমরা নিশ্চয়ই","language_name":"bengali","language_id":20},"transliteration":{"text":"wa-innā","language_name":"english","language_id":38}},{"id":46492,"position":5,"audio_url":"wbw/051_047_005.mp3","char_type_name":"word","page_number":522,"line_number":12,"text":"لَمُوسِعُونَ","translation":{"text":"অবশ্যই সপ্রসারণকারী","language_name":"bengali","language_id":20},"transliteration":{"text":"lamūsiʿūna","language_name":"english","language_id":38}},{"id":46493,"position":6,"audio_url":null,"char_type_name":"end","page_number":522,"line_number":12,"text":"٤٧","translation":{"text":"(৪৭)","language_name":"bengali","language_id":20},"transliteration":{"text":null,"language_name":"english","language_id":38}}]},{"id":4723,"verse_number":48,"verse_key":"51:48","hizb_number":53,"rub_el_hizb_number":209,"ruku_number":459,"manzil_number":7,"sajdah_number":null,"page_number":522,"juz_number":27,"words":[{"id":47227,"position":1,"audio_url":"wbw/051_048_001.mp3","char_type_name":"word","page_number":522,"line_number":12,"text":"وَٱلْأَرْضَ","translation":{"text":"এবং ভূমিকে","language_name":"bengali","language_id":20},"transliteration":{"text":"wal-arḍa","language_name":"english","language_id":38}},{"id":47228,"position":2,"audio_url":"wbw/051_048_002.mp3","char_type_name":"word","page_number":522,"line_number":13,"text":"فَرَشْنَـٰهَا","translation":{"text":"তা আমরা সমতল করে দিয়েছি","language_name":"bengali","language_id":20},"transliteration":{"text":"farashnāhā","language_name":"english","language_id":38}},{"id":47229,"position":3,"audio_url":"wbw/051_048_003.mp3","char_type_name":"word","page_number":522,"line_number":13,"text":"فَنِعْمَ","translation":{"text":"আর কতই না উত্তম","language_name":"bengali","language_id":20},"transliteration":{"text":"faniʿ'ma","language_name":"english","language_id":38}},{"id":47230,"position":4,"audio_url":"wbw/051_048_004.mp3","char_type_name":"word","page_number":522,"line_number":13,"text":"ٱلْمَـٰهِدُونَ","translation":{"text":"সমতলকারী (আমরা)","language_name":"bengali","language_id":20},"transliteration":{"text":"l-māhidūna","language_name":"english","language_id":38}},{"id":47231,"position":5,"audio_url":null,"char_type_name":"end","page_number":522,"line_number":13,"text":"٤٨","translation":{"text":"(৪৮)","language_name":"bengali","language_id":20},"transliteration":{"text":null,"language_name":"english","language_id":38}}]},{"id":4724,"verse_number":49,"verse_key":"51:49","hizb_number":53,"rub_el_hizb_number":209,"ruku_number":459,"manzil_number":7,"sajdah_number":null,"page_number":522,"juz_number":27,"words":[{"id":47837,"position":1,"audio_url":"wbw/051_049_001.mp3","char_type_name":"word","page_number":522,"line_number":13,"text":"وَمِن","translation":{"text":"এবং থেকে","language_name":"bengali","language_id":20},"transliteration":{"text":"wamin","language_name":"english","language_id":38}},{"id":47838,"position":2,"audio_url":"wbw/051_049_002.mp3","char_type_name":"word","page_number":522,"line_number":13,"text":"كُلِّ","translation":{"text":"প্রত্যেক","language_name":"bengali","language_id":20},"transliteration":{"text":"kulli","language_name":"english","language_id":38}},{"id":47839,"position":3,"audio_url":"wbw/051_049_003.mp3","char_type_name":"word","page_number":522,"line_number":13,"text":"شَىْءٍ","translation":{"text":"বস্তুকে","language_name":"bengali","language_id":20},"transliteration":{"text":"shayin","language_name":"english","language_id":38}},{"id":47840,"position":4,"audio_url":"wbw/051_049_004.mp3","char_type_name":"word","page_number":522,"line_number":13,"text":"خَلَقْنَا","translation":{"text":"আমরা সৃষ্টি করেছি","language_name":"bengali","language_id":20},"transliteration":{"text":"khalaqnā","language_name":"english","language_id":38}},{"id":47841,"position":5,"audio_url":"wbw/051_049_005.mp3","char_type_name":"word","page_number":522,"line_number":13,"text":"زَوْجَيْنِ","translation":{"text":"জোড়ায় জোড়ায়","language_name":"bengali","language_id":20},"transliteration":{"text":"zawjayni","language_name":"english","language_id":38}},{"id":47842,"position":6,"audio_url":"wbw/051_049_006.mp3","char_type_name":"word","page_number":522,"line_number":14,"text":"لَعَلَّكُمْ","translation":{"text":"তোমরা যাতে","language_name":"bengali","language_id":20},"transliteration":{"text":"laʿallakum","language_name":"english","language_id":38}},{"id":47843,"position":7,"audio_url":"wbw/051_049_007.mp3","char_type_name":"word","page_number":522,"line_number":14,"text":"تَذَكَّرُونَ","translation":{"text":"শিক্ষা গ্রহণ কর","language_name":"bengali","language_id":20},"transliteration":{"text":"tadhakkarūna","language_name":"english","language_id":38}},{"id":47844,"position":8,"audio_url":null,"char_type_name":"end","page_number":522,"line_number":14,"text":"٤٩","translation":{"text":"(৪৯)","language_name":"bengali","language_id":20},"transliteration":{"text":null,"language_name":"english","language_id":38}}]},{"id":4725,"verse_number":50,"verse_key":"51:50","hizb_number":53,"rub_el_hizb_number":209,"ruku_number":459,"manzil_number":7,"sajdah_number":null,"page_number":522,"juz_number":27,"words":[{"id":48517,"position":1,"audio_url":"wbw/051_050_001.mp3","char_type_name":"word","page_number":522,"line_number":14,"text":"فَفِرُّوٓا۟","translation":{"text":"অতএব তোমরা দৌড়াও","language_name":"bengali","language_id":20},"transliteration":{"text":"fafirrū","language_name":"english","language_id":38}},{"id":48518,"position":2,"audio_url":"wbw/051_050_002.mp3","char_type_name":"word","page_number":522,"line_number":14,"text":"إِلَى","translation":{"text":"দিকে","language_name":"bengali","language_id":20},"transliteration":{"text":"ilā","language_name":"english","language_id":38}},{"id":48519,"position":3,"audio_url":"wbw/051_050_003.mp3","char_type_name":"word","page_number":522,"line_number":14,"text":"ٱللَّهِ ۖ","translation":{"text":"আল্লাহর","language_name":"bengali","language_id":20},"transliteration":{"text":"l-lahi","language_name":"english","language_id":38}},{"id":48521,"position":4,"audio_url":"wbw/051_050_005.mp3","char_type_name":"word","page_number":522,"line_number":14,"text":"إِنِّى","translation":{"text":"নিশ্চয়ই আমি","language_name":"bengali","language_id":20},"transliteration":{"text":"innī","language_name":"english","language_id":38}},{"id":48522,"position":5,"audio_url":"wbw/051_050_006.mp3","char_type_name":"word","page_number":522,"line_number":14,"text":"لَكُم","translation":{"text":"তোমাদের জন্যে","language_name":"bengali","language_id":20},"transliteration":{"text":"lakum","language_name":"english","language_id":38}},{"id":48523,"position":6,"audio_url":"wbw/051_050_007.mp3","char_type_name":"word","page_number":522,"line_number":14,"text":"مِّنْهُ","translation":{"text":"তার পক্ষ হতে","language_name":"bengali","language_id":20},"transliteration":{"text":"min'hu","language_name":"english","language_id":38}},{"id":48524,"position":7,"audio_url":"wbw/051_050_008.mp3","char_type_name":"word","page_number":522,"line_number":14,"text":"نَذِيرٌۭ","translation":{"text":"একজন সতর্ককারী","language_name":"bengali","language_id":20},"transliteration":{"text":"nadhīrun","language_name":"english","language_id":38}},{"id":48525,"position":8,"audio_url":"wbw/051_050_009.mp3","char_type_name":"word","page_number":522,"line_number":14,"text":"مُّبِينٌۭ","translation":{"text":"সুস্পষ্ট","language_name":"bengali","language_id":20},"transliteration":{"text":"mubīnun","language_name":"english","language_id":38}},{"id":48526,"position":9,"audio_url":null,"char_type_name":"end","page_number":522,"line_number":14,"text":"٥٠","translation":{"text":"(৫০)","language_name":"bengali","language_id":20},"transliteration":{"text":null,"language_name":"english","language_id":38}}]}],"pagination":{"per_page":10,"current_page":5,"next_page":6,"total_pages":6,"total_records":60}}
