{"verses":[{"id":4726,"verse_number":51,"verse_key":"51:51","hizb_number":53,"rub_el_hizb_number":209,"ruku_number":459,"manzil_number":7,"sajdah_number":null,"page_number":522,"juz_number":27,"words":[{"id":49164,"position":1,"audio_url":"wbw/051_051_001.mp3","char_type_name":"word","page_number":522,"line_number":15,"text":"وَلَا","translation":{"text":"এবং না","language_name":"bengali","language_id":20},"transliteration":{"text":"walā","language_name":"english","language_id":38}},{"id":49165,"position":2,"audio_url":"wbw/051_051_002.mp3","char_type_name":"word","page_number":522,"line_number":15,"text":"تَجْعَلُوا۟","translation":{"text":"তোমরা বানাবে","language_name":"bengali","language_id":20},"transliteration":{"text":"tajʿalū","language_name":"english","language_id":38}},{"id":49166,"position":3,"audio_url":"wbw/051_051_003.mp3","char_type_name":"word","page_number":522,"line_number":15,"text":"مَعَ","translation":{"text":"সাথে","language_name":"bengali","language_id":20},"transliteration":{"text":"maʿa","language_name":"english","language_id":38}},{"id":49167,"position":4,"audio_url":"wbw/051_051_004.mp3","char_type_name":"word","page_number":522,"line_number":15,"text":"ٱللَّهِ","translation":{"text":"আল্লাহর","language_name":"bengali","language_id":20},"transliteration":{"text":"l-lahi","language_name":"english","language_id":38}},{"id":49168,"position":5,"audio_url":"wbw/051_051_005.mp3","char_type_name":"word","page_number":522,"line_number":15,"text":"إِلَـٰهًا","translation":{"text":"উপাস্য","language_name":"bengali","language_id":20},"transliteration":{"text":"ilāhan","language_name":"english","language_id":38}},{"id":49169,"position":6,"audio_url":"wbw/051_051_006.mp3","char_type_name":"word","page_number":522,"line_number":15,"text":"ءَاخَرَ ۖ","translation":{"text":"অন্য কোনো","language_name":"bengali","language_id":20},"transliteration":{"text":"ākhara","language_name":"english","language_id":38}},{"id":49171,"position":7,"audio_url":"wbw/051_051_008.mp3","char_type_name":"word","page_number":522,"line_number":15,"text":"إِنِّى","translation":{"text":"নিশ্চয়ই আমি","language_name":"bengali","language_id":20},"transliteration":{"text":"innī","language_name":"english","language_id":38}},{"id":49172,"position":8,"audio_url":"wbw/051_051_009.mp3","char_type_name":"word","page_number":522,"line_number":15,"text":"لَكُم","translation":{"text":"তোমাদের জন্যে","language_name":"bengali","language_id":20},"transliteration":{"text":"lakum","language_name":"english","language_id":38}},{"id":49173,"position":9,"audio_url":"wbw/051_051_010.mp3","char_type_name":"word","page_number":522,"line_number":15,"text":"مِّنْهُ","translation":{"text":"তাঁর পক্ষ হতে","language_name":"bengali","language_id":20},"transliteration":{"text":"min'hu","language_name":"english","language_id":38}},{"id":49174,"position":10,"audio_url":"wbw/051_051_011.mp3","char_type_name":"word","page_number":522,"line_number":15,"text":"نَذِيرٌۭ","translation":{"text":"একজন সতর্ককারী","language_name":"bengali","language_id":20},"transliteration":{"text":"nadhīrun","language_name":"english","language_id":38}},{"id":49175,"position":11,"audio_url":"wbw/051_051_012.mp3","char_type_name":"word","page_number":522,"line_number":15,"text":"مُّبِينٌۭ","translation":{"text":"সুস্পষ্ট","language_name":"bengali","language_id":20},"transliteration":{"text":"mubīnun","language_name":"english","language_id":38}},{"id":49176,"position":12,"audio_url":null,"char_type_name":"end","page_number":522,"line_number":15,"text":"٥١","translation":{"text":"(৫১)","language_name":"bengali","language_id":20},"transliteration":{"text":null,"language_name":"english","language_id":38}}]},{"id":4727,"verse_number":52,"verse_key":"51:52","hizb_number":53,"rub_el_hizb_number":209,"ruku_number":459,"manzil_number":7,"sajdah_number":null,"page_number":523,"juz_number":27,"words":[{"id":49830,"position":1,"audio_url":"wbw/051_052_001.mp3","char_type_name":"word","page_number":523,"line_number":1,"text":"كَذَٰلِكَ","translation":{"text":"এভাবেই","language_name":"bengali","language_id":20},"transliteration":{"text":"kadhālika","language_name":"english","language_id":38}},{"id":49831,"position":2,"audio_url":"wbw/051_052_002.mp3","char_type_name":"word","page_number":523,"line_number":1,"text":"مَآ","translation":{"text":"না","language_name":"bengali","language_id":20},"transliteration":{"text":"mā","language_name":"english","language_id":38}},{"id":49832,"position":3,"audio_url":"wbw/051_052_003.mp3","char_type_name":"word","page_number":523,"line_number":1,"text":"أَتَى","translation":{"text":"এসেছে","language_name":"bengali","language_id":20},"transliteration":{"text":"atā","language_name":"english","language_id":38}},{"id":49833,"position":4,"audio_url":"wbw/051_052_004.mp3","char_type_name":"word","page_number":523,"line_number":1,"text":"ٱلَّذِينَ","translation":{"text":"(তাদের কাছে) যারা","language_name":"bengali","language_id":20},"transliteration":{"text":"alladhīna","language_name":"english","language_id":38}},{"id":49834,"position":5,"audio_url":"wbw/051_052_005.mp3","char_type_name":"word","page_number":523,"line_number":1,"text":"مِن","translation":{"text":"থেকে","language_name":"bengali","language_id":20},"transliteration":{"text":"min","language_name":"english","language_id":38}},{"id":49835,"position":6,"audio_url":"wbw/051_052_006.mp3","char_type_name":"word","page_number":523,"line_number":1,"text":"قَبْلِهِم","translation":{"text":"তাদের পূর্বে (ছিল)","language_name":"bengali","language_id":20},"transliteration":{"text":"qablihim","language_name":"english","language_id":38}},{"id":49836,"position":7,"audio_url":"wbw/051_052_007.mp3","char_type_name":"word","page_number":523,"line_number":1,"text":"مِّن","translation":{"text":"কোনো","language_name":"bengali","language_id":20},"transliteration":{"text":"min","language_name":"english","language_id":38}},{"id":49837,"position":8,"audio_url":"wbw/051_052_008.mp3","char_type_name":"word","page_number":523,"line_number":1,"text":"رَّسُولٍ","translation":{"text":"রাসূল","language_name":"bengali","language_id":20},"transliteration":{"text":"rasūlin","language_name":"english","language_id":38}},{"id":49838,"position":9,"audio_url":"wbw/051_052_009.mp3","char_type_name":"word","page_number":523,"line_number":1,"text":"إِلَّا","translation":{"text":"এছাড়া যে","language_name":"bengali","language_id":20},"transliteration":{"text":"illā","language_name":"english","language_id":38}},{"id":49839,"position":10,"audio_url":"wbw/051_052_010.mp3","char_type_name":"word","page_number":523,"line_number":1,"text":"قَالُوا۟","translation":{"text":"তারা বলে ছিল","language_name":"bengali","language_id":20},"transliteration":{"text":"qālū","language_name":"english","language_id":38}},{"id":49840,"position":11,"audio_url":"wbw/051_052_011.mp3","char_type_name":"word","page_number":523,"line_number":1,"text":"سَاحِرٌ","translation":{"text":"\"(সে একজন) জাদুকর","language_name":"bengali","language_id":20},"transliteration":{"text":"sāḥirun","language_name":"english","language_id":38}},{"id":49841,"position":12,"audio_url":"wbw/051_052_012.mp3","char_type_name":"word","page_number":523,"line_number":1,"text":"أَوْ","translation":{"text":"বা","language_name":"bengali","language_id":20},"transliteration":{"text":"aw","language_name":"english","language_id":38}},{"id":49842,"position":13,"audio_url":"wbw/051_052_013.mp3","char_type_name":"word","page_number":523,"line_number":1,"text":"مَجْنُونٌ","translation":{"text":"পাগল\"","language_name":"bengali","language_id":20},"transliteration":{"text":"majnūnun","language_name":"english","language_id":38}},{"id":49843,"position":14,"audio_url":null,"char_type_name":"end","page_number":523,"line_number":2,"text":"٥٢","translation":{"text":"(৫২)","language_name":"bengali","language_id":20},"transliteration":{"text":null,"language_name":"english","language_id":38}}]},{"id":4728,"verse_number":53,"verse_key":"51:53","hizb_number":53,"rub_el_hizb_number":209,"ruku_number":459,"manzil_number":7,"sajdah_number":null,"page_number":523,"juz_number":27,"words":[{"id":50463,"position":1,"audio_url":"wbw/051_053_001.mp3","char_type_name":"word","page_number":523,"line_number":2,"text":"أَتَوَاصَوْا۟","translation":{"text":"তারা পরস্পরে কি পরামর্শ করে নিয়েছে","language_name":"bengali","language_id":20},"transliteration":{"text":"atawāṣaw","language_name":"english","language_id":38}},{"id":50464,"position":2,"audio_url":"wbw/051_053_002.mp3","char_type_name":"word","page_number":523,"line_number":2,"text":"بِهِۦ ۚ","translation":{"text":"সে বিষয়ে","language_name":"bengali","language_id":20},"transliteration":{"text":"bihi","language_name":"english","language_id":38}},{"id":50466,"position":3,"audio_url":"wbw/051_053_004.mp3","char_type_name":"word","page_number":523,"line_number":2,"text":"بَلْ","translation":{"text":"(না) বরং","language_name":"bengali","language_id":20},"transliteration":{"text":"bal","language_name":"english","language_id":38}},{"id":50467,"position":4,"audio_url":"wbw/051_053_005.mp3","char_type_name":"word","page_number":523,"line_number":2,"text":"هُمْ","translation":{"text":"তারা(ছিল)","language_name":"bengali","language_id":20},"transliteration":{"text":"hum","language_name":"english","language_id":38}},{"id":50468,"position":5,"audio_url":"wbw/051_053_006.mp3","char_type_name":"word","page_number":523,"line_number":2,"text":"قَوْمٌۭ","translation":{"text":"জাতি","language_name":"bengali","language_id":20},"transliteration":{"text":"qawmun","language_name":"english","language_id":38}},{"id":50469,"position":6,"audio_url":"wbw/051_053_007.mp3","char_type_name":"word","page_number":523,"line_number":2,"text":"طَاغُونَ","translation":{"text":"দুর্বিনীত","language_name":"bengali","language_id":20},"transliteration":{"text":"ṭāghūna","language_name":"english","language_id":38}},{"id":50470,"position":7,"audio_url":null,"char_type_name":"end","page_number":523,"line_number":2,"text":"٥٣","translation":{"text":"(৫৩)","language_name":"bengali","language_id":20},"transliteration":{"text":null,"language_name":"english","language_id":38}}]},{"id":4729,"verse_number":54,"verse_key":"51:54","hizb_number":53,"rub_el_hizb_number":209,"ruku_number":459,"manzil_number":7,"sajdah_number":null,"page_number":523,"juz_number":27,"words":[{"id":51119,"position":1,"audio_url":"wbw/051_054_001.mp3","char_type_name":"word","page_number":523,"line_number":2,"text":"فَتَوَلَّ","translation":{"text":"তাই তুমি উপেক্ষা করো","language_name":"bengali","language_id":20},"transliteration":{"text":"fatawalla","language_name":"english","language_id":38}},{"id":51120,"position":2,"audio_url":"wbw/051_054_002.mp3","char_type_name":"word","page_number":523,"line_number":2,"text":"عَنْهُمْ","translation":{"text":"তাদের হতে","language_name":"bengali","language_id":20},"transliteration":{"text":"ʿanhum","language_name":"english","language_id":38}},{"id":51121,"position":3,"audio_url":"wbw/051_054_003.mp3","char_type_name":"word","page_number":523,"line_number":2,"text":"فَمَآ","translation":{"text":"আর নও","language_name":"bengali","language_id":20},"transliteration":{"text":"famā","language_name":"english","language_id":38}},{"id":51122,"position":4,"audio_url":"wbw/051_054_004.mp3","char_type_name":"word","page_number":523,"line_number":2,"text":"أَنتَ","translation":{"text":"তুমি","language_name":"bengali","language_id":20},"transliteration":{"text":"anta","language_name":"english","language_id":38}},{"id":51123,"position":5,"audio_url":"wbw/051_054_005.mp3","char_type_name":"word","page_number":523,"line_number":3,"text":"بِمَلُومٍۢ","translation":{"text":"তিরস্কৃত","language_name":"bengali","language_id":20},"transliteration":{"text":"bimalūmin","language_name":"english","language_id":38}},{"id":51124,"position":6,"audio_url":null,"char_type_name":"end","page_number":523,"line_number":3,"text":"٥٤","translation":{"text":"(৫৪)","language_name":"bengali","language_id":20},"transliteration":{"text":null,"language_name":"english","language_id":38}}]},{"id":4730,"verse_number":55,"verse_key":"51:55","hizb_number":53,"rub_el_hizb_number":209,"ruku_number":459,"manzil_number":7,"sajdah_number":null,"page_number":523,"juz_number":27,"words":[{"id":51663,"position":1,"audio_url":"wbw/051_055_001.mp3","char_type_name":"word","page_number":523,"line_number":3,"text":"وَذَكِّرْ","translation":{"text":"এবং উপদেশ দাও","language_name":"bengali","language_id":20},"transliteration":{"text":"wadhakkir","language_name":"english","language_id":38}},{"id":51664,"position":2,"audio_url":"wbw/051_055_002.mp3","char_type_name":"word","page_number":523,"line_number":3,"text":"فَإِنَّ","translation":{"text":"কেননা নিশ্চয়ই","language_name":"bengali","language_id":20},"transliteration":{"text":"fa-inna","language_name":"english","language_id":38}},{"id":51665,"position":3,"audio_url":"wbw/051_055_003.mp3","char_type_name":"word","page_number":523,"line_number":3,"text":"ٱلذِّكْرَىٰ","translation":{"text":"উপদেশ","language_name":"bengali","language_id":20},"transliteration":{"text":"l-dhik'rā","language_name":"english","language_id":38}},{"id":51666,"position":4,"audio_url":"wbw/051_055_004.mp3","char_type_name":"word","page_number":523,"line_number":3,"text":"تَنفَعُ","translation":{"text":"উপকার দিবে","language_name":"bengali","language_id":20},"transliteration":{"text":"tanfaʿu","language_name":"english","language_id":38}},{"id":51667,"position":5,"audio_url":"wbw/051_055_005.mp3","char_type_name":"word","page_number":523,"line_number":3,"text":"ٱلْمُؤْمِنِينَ","translation":{"text":"মু'মিনদেরকে","language_name":"bengali","language_id":20},"transliteration":{"text":"l-mu'minīna","language_name":"english","language_id":38}},{"id":51668,"position":6,"audio_url":null,"char_type_name":"end","page_number":523,"line_number":3,"text":"٥٥","translation":{"text":"(৫৫)","language_name":"bengali","language_id":20},"transliteration":{"text":null,"language_name":"english","language_id":38}}]},{"id":4731,"verse_number":56,"verse_key":"51:56","hizb_number":53,"rub_el_hizb_number":209,"ruku_number":459,"manzil_number":7,"sajdah_number":null,"page_number":523,"juz_number":27,"words":[{"id":52169,"position":1,"audio_url":"wbw/051_056_001.mp3","char_type_name":"word","page_number":523,"line_number":3,"text":"وَمَا","translation":{"text":"এবং না","language_name":"bengali","language_id":20},"transliteration":{"text":"wamā","language_name":"english","language_id":38}},{"id":52170,"position":2,"audio_url":"wbw/051_056_002.mp3","char_type_name":"word","page_number":523,"line_number":3,"text":"خَلَقْتُ","translation":{"text":"আমি সৃষ্টি করেছি","language_name":"bengali","language_id":20},"transliteration":{"text":"khalaqtu","language_name":"english","language_id":38}},{"id":52171,"position":3,"audio_url":"wbw/051_056_003.mp3","char_type_name":"word","page_number":523,"line_number":4,"text":"ٱلْجِنَّ","translation":{"text":"জিনকে","language_name":"bengali","language_id":20},"transliteration":{"text":"l-jina","language_name":"english","language_id":38}},{"id":52172,"position":4,"audio_url":"wbw/051_056_004.mp3","char_type_name":"word","page_number":523,"line_number":4,"text":"وَٱلْإِنسَ","translation":{"text":"ও মানুষকে","language_name":"bengali","language_id":20},"transliteration":{"text":"wal-insa","language_name":"english","language_id":38}},{"id":52173,"position":5,"audio_url":"wbw/051_056_005.mp3","char_type_name":"word","page_number":523,"line_number":4,"text":"إِلَّا","translation":{"text":"এছাড়া যে","language_name":"bengali","language_id":20},"transliteration":{"text":"illā","language_name":"english","language_id":38}},{"id":52174,"position":6,"audio_url":"wbw/051_056_006.mp3","char_type_name":"word","page_number":523,"line_number":4,"text":"لِيَعْبُدُونِ","translation":{"text":"যেন আমাকে তারা ইবাদত করে","language_name":"bengali","language_id":20},"transliteration":{"text":"liyaʿbudūni","language_name":"english","language_id":38}},{"id":52175,"position":7,"audio_url":null,"char_type_name":"end","page_number":523,"line_number":4,"text":"٥٦","translation":{"text":"(৫৬)","language_name":"bengali","language_id":20},"transliteration":{"text":null,"language_name":"english","language_id":38}}]},{"id":4732,"verse_number":57,"verse_key":"51:57","hizb_number":53,"rub_el_hizb_number":209,"ruku_number":459,"manzil_number":7,"sajdah_number":null,"page_number":523,"juz_number":27,"words":[{"id":52743,"position":1,"audio_url":"wbw/051_057_001.mp3","char_type_name":"word","page_number":523,"line_number":4,"text":"مَآ","translation":{"text":"না","language_name":"bengali","language_id":20},"transliteration":{"text":"mā","language_name":"english","language_id":38}},{"id":52744,"position":2,"audio_url":"wbw/051_057_002.mp3","char_type_name":"word","page_number":523,"line_number":4,"text":"أُرِيدُ","translation":{"text":"চাই আমি","language_name":"bengali","language_id":20},"transliteration":{"text":"urīdu","language_name":"english","language_id":38}},{"id":52745,"position":3,"audio_url":"wbw/051_057_003.mp3","char_type_name":"word","page_number":523,"line_number":4,"text":"مِنْهُم","translation":{"text":"তাদের নিকট হতে","language_name":"bengali","language_id":20},"transliteration":{"text":"min'hum","language_name":"english","language_id":38}},{"id":52746,"position":4,"audio_url":"wbw/051_057_004.mp3","char_type_name":"word","page_number":523,"line_number":4,"text":"مِّن","translation":{"text":"কোনো","language_name":"bengali","language_id":20},"transliteration":{"text":"min","language_name":"english","language_id":38}},{"id":52747,"position":5,"audio_url":"wbw/051_057_005.mp3","char_type_name":"word","page_number":523,"line_number":4,"text":"رِّزْقٍۢ","translation":{"text":"জীবিকা","language_name":"bengali","language_id":20},"transliteration":{"text":"riz'qin","language_name":"english","language_id":38}},{"id":52748,"position":6,"audio_url":"wbw/051_057_006.mp3","char_type_name":"word","page_number":523,"line_number":4,"text":"وَمَآ","translation":{"text":"আর না","language_name":"bengali","language_id":20},"transliteration":{"text":"wamā","language_name":"english","language_id":38}},{"id":52749,"position":7,"audio_url":"wbw/051_057_007.mp3","char_type_name":"word","page_number":523,"line_number":4,"text":"أُرِيدُ","translation":{"text":"চাই আমি","language_name":"bengali","language_id":20},"transliteration":{"text":"urīdu","language_name":"english","language_id":38}},{"id":52750,"position":8,"audio_url":"wbw/051_057_008.mp3","char_type_name":"word","page_number":523,"line_number":5,"text":"أَن","translation":{"text":"যে","language_name":"bengali","language_id":20},"transliteration":{"text":"an","language_name":"english","language_id":38}},{"id":52751,"position":9,"audio_url":"wbw/051_057_009.mp3","char_type_name":"word","page_number":523,"line_number":5,"text":"يُطْعِمُونِ","translation":{"text":"আমাকে তারা খাওয়াবে","language_name":"bengali","language_id":20},"transliteration":{"text":"yuṭ'ʿimūni","language_name":"english","language_id":38}},{"id":52752,"position":10,"audio_url":null,"char_type_name":"end","page_number":523,"line_number":5,"text":"٥٧","translation":{"text":"(৫৭)","language_name":"bengali","language_id":20},"transliteration":{"text":null,"language_name":"english","language_id":38}}]},{"id":4733,"verse_number":58,"verse_key":"51:58","hizb_number":53,"rub_el_hizb_number":209,"ruku_number":459,"manzil_number":7,"sajdah_number":null,"page_number":523,"juz_number":27,"words":[{"id":53583,"position":1,"audio_url":"wbw/051_058_001.mp3","char_type_name":"word","page_number":523,"line_number":5,"text":"إِنَّ","translation":{"text":"নিশ্চয়ই","language_name":"bengali","language_id":20},"transliteration":{"text":"inna","language_name":"english","language_id":38}},{"id":53584,"position":2,"audio_url":"wbw/051_058_002.mp3","char_type_name":"word","page_number":523,"line_number":5,"text":"ٱللَّهَ","translation":{"text":"আল্লাহ","language_name":"bengali","language_id":20},"transliteration":{"text":"l-laha","language_name":"english","language_id":38}},{"id":53585,"position":3,"audio_url":"wbw/051_058_003.mp3","char_type_name":"word","page_number":523,"line_number":5,"text":"هُوَ","translation":{"text":"তিনিই","language_name":"bengali","language_id":20},"transliteration":{"text":"huwa","language_name":"english","language_id":38}},{"id":53586,"position":4,"audio_url":"wbw/051_058_004.mp3","char_type_name":"word","page_number":523,"line_number":5,"text":"ٱلرَّزَّاقُ","translation":{"text":"রিযকদাতা","language_name":"bengali","language_id":20},"transliteration":{"text":"l-razāqu","language_name":"english","language_id":38}},{"id":53587,"position":5,"audio_url":"wbw/051_058_005.mp3","char_type_name":"word","page_number":523,"line_number":5,"text":"ذُو","translation":{"text":"আছে","language_name":"bengali","language_id":20},"transliteration":{"text":"dhū","language_name":"english","language_id":38}},{"id":53588,"position":6,"audio_url":"wbw/051_058_006.mp3","char_type_name":"word","page_number":523,"line_number":5,"text":"ٱلْقُوَّةِ","translation":{"text":"শক্তিসম্পন্ন","language_name":"bengali","language_id":20},"transliteration":{"text":"l-quwati","language_name":"english","language_id":38}},{"id":53589,"position":7,"audio_url":"wbw/051_058_007.mp3","char_type_name":"word","page_number":523,"line_number":5,"text":"ٱلْمَتِينُ","translation":{"text":"প্রবল পরাক্রান্ত","language_name":"bengali","language_id":20},"transliteration":{"text":"l-matīnu","language_name":"english","language_id":38}},{"id":53590,"position":8,"audio_url":null,"char_type_name":"end","page_number":523,"line_number":5,"text":"٥٨","translation":{"text":"(৫৮)","language_name":"bengali","language_id":20},"transliteration":{"text":null,"language_name":"english","language_id":38}}]},{"id":4734,"verse_number":59,"verse_key":"51:59","hizb_number":53,"rub_el_hizb_number":209,"ruku_number":459,"manzil_number":7,"sajdah_number":null,"page_number":523,"juz_number":27,"words":[{"id":54149,"position":1,"audio_url":"wbw/051_059_001.mp3","char_type_name":"word","page_number":523,"line_number":6,"text":"فَإِنَّ","translation":{"text":"অতএব নিশ্চয়ই","language_name":"bengali","language_id":20},"transliteration":{"text":"fa-inna","language_name":"english","language_id":38}},{"id":54150,"position":2,"audio_url":"wbw/051_059_002.mp3","char_type_name":"word","page_number":523,"line_number":6,"text":"لِلَّذِينَ","translation":{"text":"তাদের জন্যে","language_name":"bengali","language_id":20},"transliteration":{"text":"lilladhīna","language_name":"english","language_id":38}},{"id":54151,"position":3,"audio_url":"wbw/051_059_003.mp3","char_type_name":"word","page_number":523,"line_number":6,"text":"ظَلَمُوا۟","translation":{"text":"(যারা) সীমালঙ্ঘন করেছে","language_name":"bengali","language_id":20},"transliteration":{"text":"ẓalamū","language_name":"english","language_id":38}},{"id":54152,"position":4,"audio_url":"wbw/051_059_004.mp3","char_type_name":"word","page_number":523,"line_number":6,"text":"ذَنُوبًۭا","translation":{"text":"(তাদের আছে) শাস্তির অংশ","language_name":"bengali","language_id":20},"transliteration":{"text":"dhanūban","language_name":"english","language_id":38}},{"id":54153,"position":5,"audio_url":"wbw/051_059_005.mp3","char_type_name":"word","page_number":523,"line_number":6,"text":"مِّثْلَ","translation":{"text":"যেমনি","language_name":"bengali","language_id":20},"transliteration":{"text":"mith'la","language_name":"english","language_id":38}},{"id":54154,"position":6,"audio_url":"wbw/051_059_006.mp3","char_type_name":"word","page_number":523,"line_number":6,"text":"ذَنُوبِ","translation":{"text":"(প্রাপ্য ছিল) শাস্তির অংশ","language_name":"bengali","language_id":20},"transliteration":{"text":"dhanūbi","language_name":"english","language_id":38}},{"id":54155,"position":7,"audio_url":"wbw/051_059_007.mp3","char_type_name":"word","page_number":523,"line_number":6,"text":"أَصْحَـٰبِهِمْ","translation":{"text":"তাদের সাথীদের","language_name":"bengali","language_id":20},"transliteration":{"text":"aṣḥābihim","language_name":"english","language_id":38}},{"id":54156,"position":8,"audio_url":"wbw/051_059_008.mp3","char_type_name":"word","page_number":523,"line_number":6,"text":"فَلَا","translation":{"text":"না তাই (যেন)","language_name":"bengali","language_id":20},"transliteration":{"text":"falā","language_name":"english","language_id":38}},{"id":54157,"position":9,"audio_url":"wbw/051_059_009.mp3","char_type_name":"word","page_number":523,"line_number":6,"text":"يَسْتَعْجِلُونِ","translation":{"text":"আমার কাছে তারা তাড়াহুড়া করে","language_name":"bengali","language_id":20},"transliteration":{"text":"yastaʿjilūni","language_name":"english","language_id":38}},{"id":54158,"position":10,"audio_url":null,"char_type_name":"end","page_number":523,"line_number":7,"text":"٥٩","translation":{"text":"(৫৯)","language_name":"bengali","language_id":20},"transliteration":{"text":null,"language_name":"english","language_id":38}}]},{"id":4735,"verse_number":60,"verse_key":"51:60","hizb_number":53,"rub_el_hizb_number":209,"ruku_number":459,"manzil_number":7,"sajdah_number":null,"page_number":523,"juz_number":27,"words":[{"id":54318,"position":1,"audio_url":"wbw/051_060_001.mp3","char_type_name":"word","page_number":523,"line_number":7,"text":"فَوَيْلٌۭ","translation":{"text":"অতঃপর দুর্ভোগ","language_name":"bengali","language_id":20},"transliteration":{"text":"fawaylun","language_name":"english","language_id":38}},{"id":54319,"position":2,"audio_url":"wbw/051_060_002.mp3","char_type_name":"word","page_number":523,"line_number":7,"text":"لِّلَّذِينَ","translation":{"text":"(তাদের) জন্যে যারা","language_name":"bengali","language_id":20},"transliteration":{"text":"lilladhīna","language_name":"english","language_id":38}},{"id":54320,"position":3,"audio_url":"wbw/051_060_003.mp3","char_type_name":"word","page_number":523,"line_number":7,"text":"كَفَرُوا۟","translation":{"text":"অস্বীকার করেছে","language_name":"bengali","language_id":20},"transliteration":{"text":"kafarū","language_name":"english","language_id":38}},{"id":54321,"position":4,"audio_url":"wbw/051_060_004.mp3","char_type_name":"word","page_number":523,"line_number":7,"text":"مِن","translation":{"text":"ব্যাপারে","language_name":"bengali","language_id":20},"transliteration":{"text":"min","language_name":"english","language_id":38}},{"id":54322,"position":5,"audio_url":"wbw/051_060_005.mp3","char_type_name":"word","page_number":523,"line_number":7,"text":"يَوْمِهِمُ","translation":{"text":"তাদের (সেই) দিনের","language_name":"bengali","language_id":20},"transliteration":{"text":"yawmihimu","language_name":"english","language_id":38}},{"id":54323,"position":6,"audio_url":"wbw/051_060_006.mp3","char_type_name":"word","page_number":523,"line_number":7,"text":"ٱلَّذِى","translation":{"text":"যার","language_name":"bengali","language_id":20},"transliteration":{"text":"alladhī","language_name":"english","language_id":38}},{"id":54324,"position":7,"audio_url":"wbw/051_060_007.mp3","char_type_name":"word","page_number":523,"line_number":7,"text":"يُوعَدُونَ","translation":{"text":"ভয় তাদের দেখান হয়েছে","language_name":"bengali","language_id":20},"transliteration":{"text":"yūʿadūna","language_name":"english","language_id":38}},{"id":54325,"position":8,"audio_url":null,"char_type_name":"end","page_number":523,"line_number":7,"text":"٦٠","translation":{"text":"(৬০)","language_name":"bengali","language_id":20},"transliteration":{"text":null,"language_name":"english","language_id":38}}]}],"pagination":{"per_page":10,"current_page":6,"next_page":null,"total_pages":6,"total_records":60}}
