{"verses":[{"id":4736,"verse_number":1,"verse_key":"52:1","hizb_number":53,"rub_el_hizb_number":209,"ruku_number":460,"manzil_number":7,"sajdah_number":null,"page_number":523,"juz_number":27,"words":[{"id":274,"position":1,"audio_url":"wbw/052_001_001.mp3","verse_key":"52:1","verse_id":4736,"location":"52:1:1","text_uthmani":"وَٱلطُّورِ","qpc_uthmani_hafs":"وَٱلطُّورِ","char_type_name":"word","page_number":523,"line_number":10,"text":"وَٱلطُّورِ","translation":{"text":"By the Mount","language_name":"english","language_id":38},"transliteration":{"text":"wal-ṭūri","language_name":"english","language_id":38}},{"id":275,"position":2,"audio_url":null,"verse_key":"52:1","verse_id":4736,"location":"52:1:2","text_uthmani":"١","qpc_uthmani_hafs":"١","char_type_name":"end","page_number":523,"line_number":10,"text":"١","translation":{"text":"(1)","language_name":"english","language_id":38},"transliteration":{"text":null,"language_name":"english","language_id":38}}]},{"id":4737,"verse_number":2,"verse_key":"52:2","hizb_number":53,"rub_el_hizb_number":209,"ruku_number":460,"manzil_number":7,"sajdah_number":null,"page_number":523,"juz_number":27,"words":[{"id":1153,"position":1,"audio_url":"wbw/052_002_001.mp3","verse_key":"52:2","verse_id":4737,"location":"52:2:1","text_uthmani":"وَكِتَـٰبٍۢ","qpc_uthmani_hafs":"وَكِتَٰبٖ","char_type_name":"word","page_number":523,"line_number":10,"text":"وَكِتَٰبٖ","translation":{"text":"And by (the) Book","language_name":"english","language_id":38},"transliteration":{"text":"wakitābin","language_name":"english","language_id":38}},{"id":1154,"position":2,"audio_url":"wbw/052_002_002.mp3","verse_key":"52:2","verse_id":4737,"location":"52:2:2","text_uthmani":"مَّسْطُورٍۢ","qpc_uthmani_hafs":"مَّسۡطُورٖ","char_type_name":"word","page_number":523,"line_number":10,"text":"مَّسۡطُورٖ","translation":{"text":"written","language_name":"english","language_id":38},"transliteration":{"text":"masṭūrin","language_name":"english","language_id":38}},{"id":1155,"position":3,"audio_url":null,"verse_key":"52:2","verse_id":4737,"location":"52:2:3","text_uthmani":"٢","qpc_uthmani_hafs":"٢","char_type_name":"end","page_number":523,"line_number":10,"text":"٢","translation":{"text":"(2)","language_name":"english","language_id":38},"transliteration":{"text":null,"language_name":"english","language_id":38}}]},{"id":4738,"verse_number":3,"verse_key":"52:3","hizb_number":53,"rub_el_hizb_number":209,"ruku_number":460,"manzil_number":7,"sajdah_number":null,"page_number":523,"juz_number":27,"words":[{"id":2192,"position":1,"audio_url":"wbw/052_003_001.mp3","verse_key":"52:3","verse_id":4738,"location":"52:3:1","text_uthmani":"فِى","qpc_uthmani_hafs":"فِي","char_type_name":"word","page_number":523,"line_number":10,"text":"فِي","translation":{"text":"In","language_name":"english","language_id":38},"transliteration":{"text":"fī","language_name":"english","language_id":38}},{"id":2193,"position":2,"audio_url":"wbw/052_003_002.mp3","verse_key":"52:3","verse_id":4738,"location":"52:3:2","text_uthmani":"رَقٍّۢ","qpc_uthmani_hafs":"رَقّٖ","char_type_name":"word","page_number":523,"line_number":10,"text":"رَقّٖ","translation":{"text":"parchment","language_name":"english","language_id":38},"transliteration":{"text":"raqqin","language_name":"english","language_id":38}},{"id":2194,"position":3,"audio_url":"wbw/052_003_003.mp3","verse_key":"52:3","verse_id":4738,"location":"52:3:3","text_uthmani":"مَّنشُورٍۢ","qpc_uthmani_hafs":"مَّنشُورٖ","char_type_name":"word","page_number":523,"line_number":10,"text":"مَّنشُورٖ","translation":{"text":"unrolled","language_name":"english","language_id":38},"transliteration":{"text":"manshūrin","language_name":"english","language_id":38}},{"id":2195,"position":4,"audio_url":null,"verse_key":"52:3","verse_id":4738,"location":"52:3:4","text_uthmani":"٣","qpc_uthmani_hafs":"٣","char_type_name":"end","page_number":523,"line_number":10,"text":"٣","translation":{"text":"(3)","language_name":"english","language_id":38},"transliteration":{"text":null,"language_name":"english","language_id":38}}]},{"id":4739,"verse_number":4,"verse_key":"52:4","hizb_number":53,"rub_el_hizb_number":209,"ruku_number":460,"manzil_number":7,"sajdah_number":null,"page_number":523,"juz_number":27,"words":[{"id":3515,"position":1,"audio_url":"wbw/052_004_001.mp3","verse_key":"52:4","verse_id":4739,"location":"52:4:1","text_uthmani":"وَٱلْبَيْتِ","qpc_uthmani_hafs":"وَٱلۡبَيۡتِ","char_type_name":"word","page_number":523,"line_number":10,"text":"وَٱلۡبَيۡتِ","translation":{"text":"By the House","language_name":"english","language_id":38},"transliteration":{"text":"wal-bayti","language_name":"english","language_id":38}},{"id":3516,"position":2,"audio_url":"wbw/052_004_002.mp3","verse_key":"52:4","verse_id":4739,"location":"52:4:2","text_uthmani":"ٱلْمَعْمُورِ","qpc_uthmani_hafs":"ٱلۡمَعۡمُورِ","char_type_name":"word","page_number":523,"line_number":11,"text":"ٱلۡمَعۡمُورِ","translation":{"text":"frequented","language_name":"english","language_id":38},"transliteration":{"text":"l-maʿmūri","language_name":"english","language_id":38}},{"id":3517,"position":3,"audio_url":null,"verse_key":"52:4","verse_id":4739,"location":"52:4:3","text_uthmani":"٤","qpc_uthmani_hafs":"٤","char_type_name":"end","page_number":523,"line_number":11,"text":"٤","translation":{"text":"(4)","language_name":"english","language_id":38},"transliteration":{"text":null,"language_name":"english","language_id":38}}]},{"id":4740,"verse_number":5,"verse_key":"52:5","hizb_number":53,"rub_el_hizb_number":209,"ruku_number":460,"manzil_number":7,"sajdah_number":null,"page_number":523,"juz_number":27,"words":[{"id":4868,"position":1,"audio_url":"wbw/052_005_001.mp3","verse_key":"52:5","verse_id":4740,"location":"52:5:1","text_uthmani":"وَٱلسَّقْفِ","qpc_uthmani_hafs":"وَٱلسَّقۡفِ","char_type_name":"word","page_number":523,"line_number":11,"text":"وَٱلسَّقۡفِ","translation":{"text":"By the roof","language_name":"english","language_id":38},"transliteration":{"text":"wal-saqfi","language_name":"english","language_id":38}},{"id":4869,"position":2,"audio_url":"wbw/052_005_002.mp3","verse_key":"52:5","verse_id":4740,"location":"52:5:2","text_uthmani":"ٱلْمَرْفُوعِ","qpc_uthmani_hafs":"ٱلۡمَرۡفُوعِ","char_type_name":"word","page_number":523,"line_number":11,"text":"ٱلۡمَرۡفُوعِ","translation":{"text":"raised high","language_name":"english","language_id":38},"transliteration":{"text":"l-marfūʿi","language_name":"english","language_id":38}},{"id":4870,"position":3,"audio_url":null,"verse_key":"52:5","verse_id":4740,"location":"52:5:3","text_uthmani":"٥","qpc_uthmani_hafs":"٥","char_type_name":"end","page_number":523,"line_number":11,"text":"٥","translation":{"text":"(5)","language_name":"english","language_id":38},"transliteration":{"text":null,"language_name":"english","language_id":38}}]},{"id":4741,"verse_number":6,"verse_key":"52:6","hizb_number":53,"rub_el_hizb_number":209,"ruku_number":460,"manzil_number":7,"sajdah_number":null,"page_number":523,"juz_number":27,"words":[{"id":6112,"position":1,"audio_url":"wbw/052_006_001.mp3","verse_key":"52:6","verse_id":4741,"location":"52:6:1","text_uthmani":"وَٱلْبَحْرِ","qpc_uthmani_hafs":"وَٱلۡبَحۡرِ","char_type_name":"word","page_number":523,"line_number":11,"text":"وَٱلۡبَحۡرِ","translation":{"text":"By the sea","language_name":"english","language_id":38},"transliteration":{"text":"wal-baḥri","language_name":"english","language_id":38}},{"id":6113,"position":2,"audio_url":"wbw/052_006_002.mp3","verse_key":"52:6","verse_id":4741,"location":"52:6:2","text_uthmani":"ٱلْمَسْجُورِ","qpc_uthmani_hafs":"ٱلۡمَسۡجُورِ","char_type_name":"word","page_number":523,"line_number":11,"text":"ٱلۡمَسۡجُورِ","translation":{"text":"filled","language_name":"english","language_id":38},"transliteration":{"text":"l-masjūri","language_name":"english","language_id":38}},{"id":6114,"position":3,"audio_url":null,"verse_key":"52:6","verse_id":4741,"location":"52:6:3","text_uthmani":"٦","qpc_uthmani_hafs":"٦","char_type_name":"end","page_number":523,"line_number":11,"text":"٦","translation":{"text":"(6)","language_name":"english","language_id":38},"transliteration":{"text":null,"language_name":"english","language_id":38}}]},{"id":4742,"verse_number":7,"verse_key":"52:7","hizb_number":53,"rub_el_hizb_number":209,"ruku_number":460,"manzil_number":7,"sajdah_number":null,"page_number":523,"juz_number":27,"words":[{"id":7445,"position":1,"audio_url":"wbw/052_007_001.mp3","verse_key":"52:7","verse_id":4742,"location":"52:7:1","text_uthmani":"إِنَّ","qpc_uthmani_hafs":"إِنَّ","char_type_name":"word","page_number":523,"line_number":11,"text":"إِنَّ","translation":{"text":"Indeed","language_name":"english","language_id":38},"transliteration":{"text":"inna","language_name":"english","language_id":38}},{"id":7446,"position":2,"audio_url":"wbw/052_007_002.mp3","verse_key":"52:7","verse_id":4742,"location":"52:7:2","text_uthmani":"عَذَابَ","qpc_uthmani_hafs":"عَذَابَ","char_type_name":"word","page_number":523,"line_number":12,"text":"عَذَابَ","translation":{"text":"(the) punishment","language_name":"english","language_id":38},"transliteration":{"text":"ʿadhāba","language_name":"english","language_id":38}},{"id":7447,"position":3,"audio_url":"wbw/052_007_003.mp3","verse_key":"52:7","verse_id":4742,"location":"52:7:3","text_uthmani":"رَبِّكَ","qpc_uthmani_hafs":"رَبِّكَ","char_type_name":"word","page_number":523,"line_number":12,"text":"رَبِّكَ","translation":{"text":"(of) your Lord","language_name":"english","language_id":38},"transliteration":{"text":"rabbika","language_name":"english","language_id":38}},{"id":7448,"position":4,"audio_url":"wbw/052_007_004.mp3","verse_key":"52:7","verse_id":4742,"location":"52:7:4","text_uthmani":"لَوَٰقِعٌۭ","qpc_uthmani_hafs":"لَوَٰقِعٞ","char_type_name":"word","page_number":523,"line_number":12,"text":"لَوَٰقِعٞ","translation":{"text":"(will) surely occur","language_name":"english","language_id":38},"transliteration":{"text":"lawāqiʿun","language_name":"english","language_id":38}},{"id":7449,"position":5,"audio_url":null,"verse_key":"52:7","verse_id":4742,"location":"52:7:5","text_uthmani":"٧","qpc_uthmani_hafs":"٧","char_type_name":"end","page_number":523,"line_number":12,"text":"٧","translation":{"text":"(7)","language_name":"english","language_id":38},"transliteration":{"text":null,"language_name":"english","language_id":38}}]},{"id":4743,"verse_number":8,"verse_key":"52:8","hizb_number":53,"rub_el_hizb_number":209,"ruku_number":460,"manzil_number":7,"sajdah_number":null,"page_number":523,"juz_number":27,"words":[{"id":8704,"position":1,"audio_url":"wbw/052_008_001.mp3","verse_key":"52:8","verse_id":4743,"location":"52:8:1","text_uthmani":"مَّا","qpc_uthmani_hafs":"مَّا","char_type_name":"word","page_number":523,"line_number":12,"text":"مَّا","translation":{"text":"Not","language_name":"english","language_id":38},"transliteration":{"text":"mā","language_name":"english","language_id":38}},{"id":8705,"position":2,"audio_url":"wbw/052_008_002.mp3","verse_key":"52:8","verse_id":4743,"location":"52:8:2","text_uthmani":"لَهُۥ","qpc_uthmani_hafs":"لَهُۥ","char_type_name":"word","page_number":523,"line_number":12,"text":"لَهُۥ","translation":{"text":"for it","language_name":"english","language_id":38},"transliteration":{"text":"lahu","language_name":"english","language_id":38}},{"id":8706,"position":3,"audio_url":"wbw/052_008_003.mp3","verse_key":"52:8","verse_id":4743,"location":"52:8:3","text_uthmani":"مِن","qpc_uthmani_hafs":"مِن","char_type_name":"word","page_number":523,"line_number":12,"text":"مِن","translation":{"text":"any","language_name":"english","language_id":38},"transliteration":{"text":"min","language_name":"english","language_id":38}},{"id":8707,"position":4,"audio_url":"wbw/052_008_004.mp3","verse_key":"52:8","verse_id":4743,"location":"52:8:4","text_uthmani":"دَافِعٍۢ","qpc_uthmani_hafs":"دَافِعٖ","char_type_name":"word","page_number":523,"line_number":12,"text":"دَافِعٖ","translation":{"text":"preventer","language_name":"english","language_id":38},"transliteration":{"text":"dāfiʿin","language_name":"english","language_id":38}},{"id":8708,"position":5,"audio_url":null,"verse_key":"52:8","verse_id":4743,"location":"52:8:5","text_uthmani":"٨","qpc_uthmani_hafs":"٨","char_type_name":"end","page_number":523,"line_number":12,"text":"٨","translation":{"text":"(8)","language_name":"english","language_id":38},"transliteration":{"text":null,"language_name":"english","language_id":38}}]},{"id":4744,"verse_number":9,"verse_key":"52:9","hizb_number":53,"rub_el_hizb_number":209,"ruku_number":460,"manzil_number":7,"sajdah_number":null,"page_number":523,"juz_number":27,"words":[{"id":9930,"position":1,"audio_url":"wbw/052_009_001.mp3","verse_key":"52:9","verse_id":4744,"location":"52:9:1","text_uthmani":"يَوْمَ","qpc_uthmani_hafs":"يَوۡمَ","char_type_name":"word","page_number":523,"line_number":12,"text":"يَوۡمَ","translation":{"text":"(On the) Day","language_name":"english","language_id":38},"transliteration":{"text":"yawma","language_name":"english","language_id":38}},{"id":9931,"position":2,"audio_url":"wbw/052_009_002.mp3","verse_key":"52:9","verse_id":4744,"location":"52:9:2","text_uthmani":"تَمُورُ","qpc_uthmani_hafs":"تَمُورُ","char_type_name":"word","page_number":523,"line_number":12,"text":"تَمُورُ","translation":{"text":"will shake","language_name":"english","language_id":38},"transliteration":{"text":"tamūru","language_name":"english","language_id":38}},{"id":9932,"position":3,"audio_url":"wbw/052_009_003.mp3","verse_key":"52:9","verse_id":4744,"location":"52:9:3","text_uthmani":"ٱلسَّمَآءُ","qpc_uthmani_hafs":"ٱلسَّمَآءُ","char_type_name":"word","page_number":523,"line_number":12,"text":"ٱلسَّمَآءُ","translation":{"text":"the heaven","language_name":"english","language_id":38},"transliteration":{"text":"l-samāu","language_name":"english","language_id":38}},{"id":9933,"position":4,"audio_url":"wbw/052_009_004.mp3","verse_key":"52:9","verse_id":4744,"location":"52:9:4","text_uthmani":"مَوْرًۭا","qpc_uthmani_hafs":"مَوۡرٗا","char_type_name":"word","page_number":523,"line_number":13,"text":"مَوۡرٗا","translation":{"text":"(with violent) shake","language_name":"english","language_id":38},"transliteration":{"text":"mawran","language_name":"english","language_id":38}},{"id":9934,"position":5,"audio_url":null,"verse_key":"52:9","verse_id":4744,"location":"52:9:5","text_uthmani":"٩","qpc_uthmani_hafs":"٩","char_type_name":"end","page_number":523,"line_number":13,"text":"٩","translation":{"text":"(9)","language_name":"english","language_id":38},"transliteration":{"text":null,"language_name":"english","language_id":38}}]},{"id":4745,"verse_number":10,"verse_key":"52:10","hizb_number":53,"rub_el_hizb_number":209,"ruku_number":460,"manzil_number":7,"sajdah_number":null,"page_number":523,"juz_number":27,"words":[{"id":11059,"position":1,"audio_url":"wbw/052_010_001.mp3","verse_key":"52:10","verse_id":4745,"location":"52:10:1","text_uthmani":"وَتَسِيرُ","qpc_uthmani_hafs":"وَتَسِيرُ","char_type_name":"word","page_number":523,"line_number":13,"text":"وَتَسِيرُ","translation":{"text":"And will move away","language_name":"english","language_id":38},"transliteration":{"text":"watasīru","language_name":"english","language_id":38}},{"id":11060,"position":2,"audio_url":"wbw/052_010_002.mp3","verse_key":"52:10","verse_id":4745,"location":"52:10:2","text_uthmani":"ٱلْجِبَالُ","qpc_uthmani_hafs":"ٱلۡجِبَالُ","char_type_name":"word","page_number":523,"line_number":13,"text":"ٱلۡجِبَالُ","translation":{"text":"the mountains","language_name":"english","language_id":38},"transliteration":{"text":"l-jibālu","language_name":"english","language_id":38}},{"id":11061,"position":3,"audio_url":"wbw/052_010_003.mp3","verse_key":"52:10","verse_id":4745,"location":"52:10:3","text_uthmani":"سَيْرًۭا","qpc_uthmani_hafs":"سَيۡرٗا","char_type_name":"word","page_number":523,"line_number":13,"text":"سَيۡرٗا","translation":{"text":"(with an awful) movement","language_name":"english","language_id":38},"transliteration":{"text":"sayran","language_name":"english","language_id":38}},{"id":11062,"position":4,"audio_url":null,"verse_key":"52:10","verse_id":4745,"location":"52:10:4","text_uthmani":"١٠","qpc_uthmani_hafs":"١٠","char_type_name":"end","page_number":523,"line_number":13,"text":"١٠","translation":{"text":"(10)","language_name":"english","language_id":38},"transliteration":{"text":null,"language_name":"english","language_id":38}}]}],"pagination":{"per_page":10,"current_page":1,"next_page":2,"total_pages":5,"total_records":49}}
