{"verses":[{"id":4676,"verse_number":1,"verse_key":"51:1","hizb_number":52,"rub_el_hizb_number":208,"ruku_number":457,"manzil_number":7,"sajdah_number":null,"page_number":520,"juz_number":26,"words":[{"id":269,"position":1,"audio_url":"wbw/051_001_001.mp3","char_type_name":"word","page_number":520,"line_number":14,"text":"وَٱلذَّٰرِيَـٰتِ","translation":{"text":"শপথ বিক্ষিপ্তকারীদের (অর্থাৎ বাতাসের)","language_name":"bengali","language_id":20},"transliteration":{"text":"wal-dhāriyāti","language_name":"english","language_id":38}},{"id":270,"position":2,"audio_url":"wbw/051_001_002.mp3","char_type_name":"word","page_number":520,"line_number":14,"text":"ذَرْوًۭا","translation":{"text":"বিক্ষিপ্ত করার মতো (যা ধুলাবালি)","language_name":"bengali","language_id":20},"transliteration":{"text":"dharwan","language_name":"english","language_id":38}},{"id":271,"position":3,"audio_url":null,"char_type_name":"end","page_number":520,"line_number":14,"text":"١","translation":{"text":"(১)","language_name":"bengali","language_id":20},"transliteration":{"text":null,"language_name":"english","language_id":38}}]},{"id":4677,"verse_number":2,"verse_key":"51:2","hizb_number":52,"rub_el_hizb_number":208,"ruku_number":457,"manzil_number":7,"sajdah_number":null,"page_number":520,"juz_number":26,"words":[{"id":1127,"position":1,"audio_url":"wbw/051_002_001.mp3","char_type_name":"word","page_number":520,"line_number":14,"text":"فَٱلْحَـٰمِلَـٰتِ","translation":{"text":"অতঃপর বহনকারীর","language_name":"bengali","language_id":20},"transliteration":{"text":"fal-ḥāmilāti","language_name":"english","language_id":38}},{"id":1128,"position":2,"audio_url":"wbw/051_002_002.mp3","char_type_name":"word","page_number":520,"line_number":14,"text":"وِقْرًۭا","translation":{"text":"ভার (অর্থাৎ মেঘ)","language_name":"bengali","language_id":20},"transliteration":{"text":"wiq'ran","language_name":"english","language_id":38}},{"id":1129,"position":3,"audio_url":null,"char_type_name":"end","page_number":520,"line_number":14,"text":"٢","translation":{"text":"(২)","language_name":"bengali","language_id":20},"transliteration":{"text":null,"language_name":"english","language_id":38}}]},{"id":4678,"verse_number":3,"verse_key":"51:3","hizb_number":52,"rub_el_hizb_number":208,"ruku_number":457,"manzil_number":7,"sajdah_number":null,"page_number":520,"juz_number":26,"words":[{"id":2189,"position":1,"audio_url":"wbw/051_003_001.mp3","char_type_name":"word","page_number":520,"line_number":14,"text":"فَٱلْجَـٰرِيَـٰتِ","translation":{"text":"অতঃপর বয়ে যাওয়া বাতাসের","language_name":"bengali","language_id":20},"transliteration":{"text":"fal-jāriyāti","language_name":"english","language_id":38}},{"id":2190,"position":2,"audio_url":"wbw/051_003_002.mp3","char_type_name":"word","page_number":520,"line_number":14,"text":"يُسْرًۭا","translation":{"text":"সহজে/ স্বচ্ছন্দে","language_name":"bengali","language_id":20},"transliteration":{"text":"yus'ran","language_name":"english","language_id":38}},{"id":2191,"position":3,"audio_url":null,"char_type_name":"end","page_number":520,"line_number":14,"text":"٣","translation":{"text":"(৩)","language_name":"bengali","language_id":20},"transliteration":{"text":null,"language_name":"english","language_id":38}}]},{"id":4679,"verse_number":4,"verse_key":"51:4","hizb_number":52,"rub_el_hizb_number":208,"ruku_number":457,"manzil_number":7,"sajdah_number":null,"page_number":520,"juz_number":26,"words":[{"id":3507,"position":1,"audio_url":"wbw/051_004_001.mp3","char_type_name":"word","page_number":520,"line_number":15,"text":"فَٱلْمُقَسِّمَـٰتِ","translation":{"text":"অতঃপর বণ্টনকারীর","language_name":"bengali","language_id":20},"transliteration":{"text":"fal-muqasimāti","language_name":"english","language_id":38}},{"id":3508,"position":2,"audio_url":"wbw/051_004_002.mp3","char_type_name":"word","page_number":520,"line_number":15,"text":"أَمْرًا","translation":{"text":"একটি বিষয়ের (অর্থাৎ বৃষ্টির)","language_name":"bengali","language_id":20},"transliteration":{"text":"amran","language_name":"english","language_id":38}},{"id":3509,"position":3,"audio_url":null,"char_type_name":"end","page_number":520,"line_number":15,"text":"٤","translation":{"text":"(৪)","language_name":"bengali","language_id":20},"transliteration":{"text":null,"language_name":"english","language_id":38}}]},{"id":4680,"verse_number":5,"verse_key":"51:5","hizb_number":52,"rub_el_hizb_number":208,"ruku_number":457,"manzil_number":7,"sajdah_number":null,"page_number":520,"juz_number":26,"words":[{"id":4864,"position":1,"audio_url":"wbw/051_005_001.mp3","char_type_name":"word","page_number":520,"line_number":15,"text":"إِنَّمَا","translation":{"text":"প্রকৃতপক্ষে (যা)","language_name":"bengali","language_id":20},"transliteration":{"text":"innamā","language_name":"english","language_id":38}},{"id":4865,"position":2,"audio_url":"wbw/051_005_002.mp3","char_type_name":"word","page_number":520,"line_number":15,"text":"تُوعَدُونَ","translation":{"text":"তোমাদের প্রতিশ্রুতি দেওয়া হচ্ছে","language_name":"bengali","language_id":20},"transliteration":{"text":"tūʿadūna","language_name":"english","language_id":38}},{"id":4866,"position":3,"audio_url":"wbw/051_005_003.mp3","char_type_name":"word","page_number":520,"line_number":15,"text":"لَصَادِقٌۭ","translation":{"text":"সত্য অবশ্যই","language_name":"bengali","language_id":20},"transliteration":{"text":"laṣādiqun","language_name":"english","language_id":38}},{"id":4867,"position":4,"audio_url":null,"char_type_name":"end","page_number":520,"line_number":15,"text":"٥","translation":{"text":"(৫)","language_name":"bengali","language_id":20},"transliteration":{"text":null,"language_name":"english","language_id":38}}]},{"id":4681,"verse_number":6,"verse_key":"51:6","hizb_number":52,"rub_el_hizb_number":208,"ruku_number":457,"manzil_number":7,"sajdah_number":null,"page_number":520,"juz_number":26,"words":[{"id":6108,"position":1,"audio_url":"wbw/051_006_001.mp3","char_type_name":"word","page_number":520,"line_number":15,"text":"وَإِنَّ","translation":{"text":"এবং নিশ্চয়ই","language_name":"bengali","language_id":20},"transliteration":{"text":"wa-inna","language_name":"english","language_id":38}},{"id":6109,"position":2,"audio_url":"wbw/051_006_002.mp3","char_type_name":"word","page_number":520,"line_number":15,"text":"ٱلدِّينَ","translation":{"text":"কর্মফল দিবস","language_name":"bengali","language_id":20},"transliteration":{"text":"l-dīna","language_name":"english","language_id":38}},{"id":6110,"position":3,"audio_url":"wbw/051_006_003.mp3","char_type_name":"word","page_number":520,"line_number":15,"text":"لَوَٰقِعٌۭ","translation":{"text":"অবশ্যই ঘটবে","language_name":"bengali","language_id":20},"transliteration":{"text":"lawāqiʿun","language_name":"english","language_id":38}},{"id":6111,"position":4,"audio_url":null,"char_type_name":"end","page_number":520,"line_number":15,"text":"٦","translation":{"text":"(৬)","language_name":"bengali","language_id":20},"transliteration":{"text":null,"language_name":"english","language_id":38}}]},{"id":4682,"verse_number":7,"verse_key":"51:7","hizb_number":52,"rub_el_hizb_number":208,"ruku_number":457,"manzil_number":7,"sajdah_number":null,"page_number":521,"juz_number":26,"words":[{"id":7436,"position":1,"audio_url":"wbw/051_007_001.mp3","char_type_name":"word","page_number":521,"line_number":1,"text":"وَٱلسَّمَآءِ","translation":{"text":"শপথ আকাশের","language_name":"bengali","language_id":20},"transliteration":{"text":"wal-samāi","language_name":"english","language_id":38}},{"id":7437,"position":2,"audio_url":"wbw/051_007_002.mp3","char_type_name":"word","page_number":521,"line_number":1,"text":"ذَاتِ","translation":{"text":"সম্পন্ন","language_name":"bengali","language_id":20},"transliteration":{"text":"dhāti","language_name":"english","language_id":38}},{"id":7438,"position":3,"audio_url":"wbw/051_007_003.mp3","char_type_name":"word","page_number":521,"line_number":1,"text":"ٱلْحُبُكِ","translation":{"text":"বিভিন্নরূপ","language_name":"bengali","language_id":20},"transliteration":{"text":"l-ḥubuki","language_name":"english","language_id":38}},{"id":7439,"position":4,"audio_url":null,"char_type_name":"end","page_number":521,"line_number":1,"text":"٧","translation":{"text":"(৭)","language_name":"bengali","language_id":20},"transliteration":{"text":null,"language_name":"english","language_id":38}}]},{"id":4683,"verse_number":8,"verse_key":"51:8","hizb_number":52,"rub_el_hizb_number":208,"ruku_number":457,"manzil_number":7,"sajdah_number":null,"page_number":521,"juz_number":26,"words":[{"id":8699,"position":1,"audio_url":"wbw/051_008_001.mp3","char_type_name":"word","page_number":521,"line_number":1,"text":"إِنَّكُمْ","translation":{"text":"নিশ্চয়ই তোমরা","language_name":"bengali","language_id":20},"transliteration":{"text":"innakum","language_name":"english","language_id":38}},{"id":8700,"position":2,"audio_url":"wbw/051_008_002.mp3","char_type_name":"word","page_number":521,"line_number":1,"text":"لَفِى","translation":{"text":"মধ্যে অবশ্যই (লিপ্ত)","language_name":"bengali","language_id":20},"transliteration":{"text":"lafī","language_name":"english","language_id":38}},{"id":8701,"position":3,"audio_url":"wbw/051_008_003.mp3","char_type_name":"word","page_number":521,"line_number":1,"text":"قَوْلٍۢ","translation":{"text":"কথার","language_name":"bengali","language_id":20},"transliteration":{"text":"qawlin","language_name":"english","language_id":38}},{"id":8702,"position":4,"audio_url":"wbw/051_008_004.mp3","char_type_name":"word","page_number":521,"line_number":1,"text":"مُّخْتَلِفٍۢ","translation":{"text":"বিভিন্ন","language_name":"bengali","language_id":20},"transliteration":{"text":"mukh'talifin","language_name":"english","language_id":38}},{"id":8703,"position":5,"audio_url":null,"char_type_name":"end","page_number":521,"line_number":1,"text":"٨","translation":{"text":"(৮)","language_name":"bengali","language_id":20},"transliteration":{"text":null,"language_name":"english","language_id":38}}]},{"id":4684,"verse_number":9,"verse_key":"51:9","hizb_number":52,"rub_el_hizb_number":208,"ruku_number":457,"manzil_number":7,"sajdah_number":null,"page_number":521,"juz_number":26,"words":[{"id":9925,"position":1,"audio_url":"wbw/051_009_001.mp3","char_type_name":"word","page_number":521,"line_number":1,"text":"يُؤْفَكُ","translation":{"text":"মুখ ফিরিয়ে নেয়","language_name":"bengali","language_id":20},"transliteration":{"text":"yu'faku","language_name":"english","language_id":38}},{"id":9926,"position":2,"audio_url":"wbw/051_009_002.mp3","char_type_name":"word","page_number":521,"line_number":1,"text":"عَنْهُ","translation":{"text":"তা হতে","language_name":"bengali","language_id":20},"transliteration":{"text":"ʿanhu","language_name":"english","language_id":38}},{"id":9927,"position":3,"audio_url":"wbw/051_009_003.mp3","char_type_name":"word","page_number":521,"line_number":1,"text":"مَنْ","translation":{"text":"যে","language_name":"bengali","language_id":20},"transliteration":{"text":"man","language_name":"english","language_id":38}},{"id":9928,"position":4,"audio_url":"wbw/051_009_004.mp3","char_type_name":"word","page_number":521,"line_number":2,"text":"أُفِكَ","translation":{"text":"বিমুখ হয়েছে","language_name":"bengali","language_id":20},"transliteration":{"text":"ufika","language_name":"english","language_id":38}},{"id":9929,"position":5,"audio_url":null,"char_type_name":"end","page_number":521,"line_number":2,"text":"٩","translation":{"text":"(৯)","language_name":"bengali","language_id":20},"transliteration":{"text":null,"language_name":"english","language_id":38}}]},{"id":4685,"verse_number":10,"verse_key":"51:10","hizb_number":52,"rub_el_hizb_number":208,"ruku_number":457,"manzil_number":7,"sajdah_number":null,"page_number":521,"juz_number":26,"words":[{"id":11112,"position":1,"audio_url":"wbw/051_010_001.mp3","char_type_name":"word","page_number":521,"line_number":2,"text":"قُتِلَ","translation":{"text":"ধ্বংস হয়েছে","language_name":"bengali","language_id":20},"transliteration":{"text":"qutila","language_name":"english","language_id":38}},{"id":11113,"position":2,"audio_url":"wbw/051_010_002.mp3","char_type_name":"word","page_number":521,"line_number":2,"text":"ٱلْخَرَّٰصُونَ","translation":{"text":"অনুমানকারীরা","language_name":"bengali","language_id":20},"transliteration":{"text":"l-kharāṣūna","language_name":"english","language_id":38}},{"id":11114,"position":3,"audio_url":null,"char_type_name":"end","page_number":521,"line_number":2,"text":"١٠","translation":{"text":"(১০)","language_name":"bengali","language_id":20},"transliteration":{"text":null,"language_name":"english","language_id":38}}]}],"pagination":{"per_page":10,"current_page":1,"next_page":2,"total_pages":6,"total_records":60}}
