{"verses":[{"id":4686,"verse_number":11,"verse_key":"51:11","hizb_number":52,"rub_el_hizb_number":208,"ruku_number":457,"manzil_number":7,"sajdah_number":null,"page_number":521,"juz_number":26,"words":[{"id":12440,"position":1,"audio_url":"wbw/051_011_001.mp3","char_type_name":"word","page_number":521,"line_number":2,"text":"ٱلَّذِينَ","translation":{"text":"যারা (এমন যে)","language_name":"bengali","language_id":20},"transliteration":{"text":"alladhīna","language_name":"english","language_id":38}},{"id":12441,"position":2,"audio_url":"wbw/051_011_002.mp3","char_type_name":"word","page_number":521,"line_number":2,"text":"هُمْ","translation":{"text":"তারা","language_name":"bengali","language_id":20},"transliteration":{"text":"hum","language_name":"english","language_id":38}},{"id":12442,"position":3,"audio_url":"wbw/051_011_003.mp3","char_type_name":"word","page_number":521,"line_number":2,"text":"فِى","translation":{"text":"মধ্যে আছে","language_name":"bengali","language_id":20},"transliteration":{"text":"fī","language_name":"english","language_id":38}},{"id":12443,"position":4,"audio_url":"wbw/051_011_004.mp3","char_type_name":"word","page_number":521,"line_number":2,"text":"غَمْرَةٍۢ","translation":{"text":"মূর্খতার","language_name":"bengali","language_id":20},"transliteration":{"text":"ghamratin","language_name":"english","language_id":38}},{"id":12444,"position":5,"audio_url":"wbw/051_011_005.mp3","char_type_name":"word","page_number":521,"line_number":2,"text":"سَاهُونَ","translation":{"text":"উদাসীন হয়ে","language_name":"bengali","language_id":20},"transliteration":{"text":"sāhūna","language_name":"english","language_id":38}},{"id":12445,"position":6,"audio_url":null,"char_type_name":"end","page_number":521,"line_number":2,"text":"١١","translation":{"text":"(১১)","language_name":"bengali","language_id":20},"transliteration":{"text":null,"language_name":"english","language_id":38}}]},{"id":4687,"verse_number":12,"verse_key":"51:12","hizb_number":52,"rub_el_hizb_number":208,"ruku_number":457,"manzil_number":7,"sajdah_number":null,"page_number":521,"juz_number":26,"words":[{"id":13752,"position":1,"audio_url":"wbw/051_012_001.mp3","char_type_name":"word","page_number":521,"line_number":2,"text":"يَسْـَٔلُونَ","translation":{"text":"তারা প্রশ্ন করে","language_name":"bengali","language_id":20},"transliteration":{"text":"yasalūna","language_name":"english","language_id":38}},{"id":13753,"position":2,"audio_url":"wbw/051_012_002.mp3","char_type_name":"word","page_number":521,"line_number":3,"text":"أَيَّانَ","translation":{"text":"\"কখন (হবে)","language_name":"bengali","language_id":20},"transliteration":{"text":"ayyāna","language_name":"english","language_id":38}},{"id":13754,"position":3,"audio_url":"wbw/051_012_003.mp3","char_type_name":"word","page_number":521,"line_number":3,"text":"يَوْمُ","translation":{"text":"দিবস","language_name":"bengali","language_id":20},"transliteration":{"text":"yawmu","language_name":"english","language_id":38}},{"id":13755,"position":4,"audio_url":"wbw/051_012_004.mp3","char_type_name":"word","page_number":521,"line_number":3,"text":"ٱلدِّينِ","translation":{"text":"কর্মফলের\"","language_name":"bengali","language_id":20},"transliteration":{"text":"l-dīni","language_name":"english","language_id":38}},{"id":13756,"position":5,"audio_url":null,"char_type_name":"end","page_number":521,"line_number":3,"text":"١٢","translation":{"text":"(১২)","language_name":"bengali","language_id":20},"transliteration":{"text":null,"language_name":"english","language_id":38}}]},{"id":4688,"verse_number":13,"verse_key":"51:13","hizb_number":52,"rub_el_hizb_number":208,"ruku_number":457,"manzil_number":7,"sajdah_number":null,"page_number":521,"juz_number":26,"words":[{"id":14907,"position":1,"audio_url":"wbw/051_013_001.mp3","char_type_name":"word","page_number":521,"line_number":3,"text":"يَوْمَ","translation":{"text":"(সেদিন হবে) যেদিন","language_name":"bengali","language_id":20},"transliteration":{"text":"yawma","language_name":"english","language_id":38}},{"id":14908,"position":2,"audio_url":"wbw/051_013_002.mp3","char_type_name":"word","page_number":521,"line_number":3,"text":"هُمْ","translation":{"text":"তাদেরকে","language_name":"bengali","language_id":20},"transliteration":{"text":"hum","language_name":"english","language_id":38}},{"id":14909,"position":3,"audio_url":"wbw/051_013_003.mp3","char_type_name":"word","page_number":521,"line_number":3,"text":"عَلَى","translation":{"text":"উপর","language_name":"bengali","language_id":20},"transliteration":{"text":"ʿalā","language_name":"english","language_id":38}},{"id":14910,"position":4,"audio_url":"wbw/051_013_004.mp3","char_type_name":"word","page_number":521,"line_number":3,"text":"ٱلنَّارِ","translation":{"text":"আগুনের","language_name":"bengali","language_id":20},"transliteration":{"text":"l-nāri","language_name":"english","language_id":38}},{"id":14911,"position":5,"audio_url":"wbw/051_013_005.mp3","char_type_name":"word","page_number":521,"line_number":3,"text":"يُفْتَنُونَ","translation":{"text":"শাস্তি দেওয়া হবে","language_name":"bengali","language_id":20},"transliteration":{"text":"yuf'tanūna","language_name":"english","language_id":38}},{"id":14912,"position":6,"audio_url":null,"char_type_name":"end","page_number":521,"line_number":3,"text":"١٣","translation":{"text":"(১৩)","language_name":"bengali","language_id":20},"transliteration":{"text":null,"language_name":"english","language_id":38}}]},{"id":4689,"verse_number":14,"verse_key":"51:14","hizb_number":52,"rub_el_hizb_number":208,"ruku_number":457,"manzil_number":7,"sajdah_number":null,"page_number":521,"juz_number":26,"words":[{"id":15989,"position":1,"audio_url":"wbw/051_014_001.mp3","char_type_name":"word","page_number":521,"line_number":3,"text":"ذُوقُوا۟","translation":{"text":"\"(বলা হবে) তোমরা স্বাদ নাও","language_name":"bengali","language_id":20},"transliteration":{"text":"dhūqū","language_name":"english","language_id":38}},{"id":15990,"position":2,"audio_url":"wbw/051_014_002.mp3","char_type_name":"word","page_number":521,"line_number":3,"text":"فِتْنَتَكُمْ","translation":{"text":"তোমাদের বিপর্যয়ের","language_name":"bengali","language_id":20},"transliteration":{"text":"fit'natakum","language_name":"english","language_id":38}},{"id":15991,"position":3,"audio_url":"wbw/051_014_003.mp3","char_type_name":"word","page_number":521,"line_number":4,"text":"هَـٰذَا","translation":{"text":"এটা","language_name":"bengali","language_id":20},"transliteration":{"text":"hādhā","language_name":"english","language_id":38}},{"id":15992,"position":4,"audio_url":"wbw/051_014_004.mp3","char_type_name":"word","page_number":521,"line_number":4,"text":"ٱلَّذِى","translation":{"text":"(সেই জিনিস) যা","language_name":"bengali","language_id":20},"transliteration":{"text":"alladhī","language_name":"english","language_id":38}},{"id":15993,"position":5,"audio_url":"wbw/051_014_005.mp3","char_type_name":"word","page_number":521,"line_number":4,"text":"كُنتُم","translation":{"text":"তোমরা ছিলে","language_name":"bengali","language_id":20},"transliteration":{"text":"kuntum","language_name":"english","language_id":38}},{"id":15994,"position":6,"audio_url":"wbw/051_014_006.mp3","char_type_name":"word","page_number":521,"line_number":4,"text":"بِهِۦ","translation":{"text":"সেটাকে","language_name":"bengali","language_id":20},"transliteration":{"text":"bihi","language_name":"english","language_id":38}},{"id":15995,"position":7,"audio_url":"wbw/051_014_007.mp3","char_type_name":"word","page_number":521,"line_number":4,"text":"تَسْتَعْجِلُونَ","translation":{"text":"তাড়াতাড়ি চাইতে\"","language_name":"bengali","language_id":20},"transliteration":{"text":"tastaʿjilūna","language_name":"english","language_id":38}},{"id":15996,"position":8,"audio_url":null,"char_type_name":"end","page_number":521,"line_number":4,"text":"١٤","translation":{"text":"(১৪)","language_name":"bengali","language_id":20},"transliteration":{"text":null,"language_name":"english","language_id":38}}]},{"id":4690,"verse_number":15,"verse_key":"51:15","hizb_number":52,"rub_el_hizb_number":208,"ruku_number":457,"manzil_number":7,"sajdah_number":null,"page_number":521,"juz_number":26,"words":[{"id":17216,"position":1,"audio_url":"wbw/051_015_001.mp3","char_type_name":"word","page_number":521,"line_number":4,"text":"إِنَّ","translation":{"text":"নিশ্চয়ই","language_name":"bengali","language_id":20},"transliteration":{"text":"inna","language_name":"english","language_id":38}},{"id":17217,"position":2,"audio_url":"wbw/051_015_002.mp3","char_type_name":"word","page_number":521,"line_number":4,"text":"ٱلْمُتَّقِينَ","translation":{"text":"মুত্তাকীরা","language_name":"bengali","language_id":20},"transliteration":{"text":"l-mutaqīna","language_name":"english","language_id":38}},{"id":17218,"position":3,"audio_url":"wbw/051_015_003.mp3","char_type_name":"word","page_number":521,"line_number":4,"text":"فِى","translation":{"text":"(থাকবে) মধ্যে","language_name":"bengali","language_id":20},"transliteration":{"text":"fī","language_name":"english","language_id":38}},{"id":17219,"position":4,"audio_url":"wbw/051_015_004.mp3","char_type_name":"word","page_number":521,"line_number":4,"text":"جَنَّـٰتٍۢ","translation":{"text":"জান্নাতের","language_name":"bengali","language_id":20},"transliteration":{"text":"jannātin","language_name":"english","language_id":38}},{"id":17220,"position":5,"audio_url":"wbw/051_015_005.mp3","char_type_name":"word","page_number":521,"line_number":4,"text":"وَعُيُونٍ","translation":{"text":"ও ঝর্ণাধারাসমূহের","language_name":"bengali","language_id":20},"transliteration":{"text":"waʿuyūnin","language_name":"english","language_id":38}},{"id":17221,"position":6,"audio_url":null,"char_type_name":"end","page_number":521,"line_number":5,"text":"١٥","translation":{"text":"(১৫)","language_name":"bengali","language_id":20},"transliteration":{"text":null,"language_name":"english","language_id":38}}]},{"id":4691,"verse_number":16,"verse_key":"51:16","hizb_number":52,"rub_el_hizb_number":208,"ruku_number":457,"manzil_number":7,"sajdah_number":null,"page_number":521,"juz_number":26,"words":[{"id":18256,"position":1,"audio_url":"wbw/051_016_001.mp3","char_type_name":"word","page_number":521,"line_number":5,"text":"ءَاخِذِينَ","translation":{"text":"গ্রহণকারী হয়ে","language_name":"bengali","language_id":20},"transliteration":{"text":"ākhidhīna","language_name":"english","language_id":38}},{"id":18257,"position":2,"audio_url":"wbw/051_016_002.mp3","char_type_name":"word","page_number":521,"line_number":5,"text":"مَآ","translation":{"text":"যা","language_name":"bengali","language_id":20},"transliteration":{"text":"mā","language_name":"english","language_id":38}},{"id":18258,"position":3,"audio_url":"wbw/051_016_003.mp3","char_type_name":"word","page_number":521,"line_number":5,"text":"ءَاتَىٰهُمْ","translation":{"text":"তাদেরকে দিবেন","language_name":"bengali","language_id":20},"transliteration":{"text":"ātāhum","language_name":"english","language_id":38}},{"id":18259,"position":4,"audio_url":"wbw/051_016_004.mp3","char_type_name":"word","page_number":521,"line_number":5,"text":"رَبُّهُمْ ۚ","translation":{"text":"তাদের রব","language_name":"bengali","language_id":20},"transliteration":{"text":"rabbuhum","language_name":"english","language_id":38}},{"id":18261,"position":5,"audio_url":"wbw/051_016_006.mp3","char_type_name":"word","page_number":521,"line_number":5,"text":"إِنَّهُمْ","translation":{"text":"তারা নিশ্চয়ই","language_name":"bengali","language_id":20},"transliteration":{"text":"innahum","language_name":"english","language_id":38}},{"id":18262,"position":6,"audio_url":"wbw/051_016_007.mp3","char_type_name":"word","page_number":521,"line_number":5,"text":"كَانُوا۟","translation":{"text":"ছিল","language_name":"bengali","language_id":20},"transliteration":{"text":"kānū","language_name":"english","language_id":38}},{"id":18263,"position":7,"audio_url":"wbw/051_016_008.mp3","char_type_name":"word","page_number":521,"line_number":5,"text":"قَبْلَ","translation":{"text":"পূর্বে","language_name":"bengali","language_id":20},"transliteration":{"text":"qabla","language_name":"english","language_id":38}},{"id":18264,"position":8,"audio_url":"wbw/051_016_009.mp3","char_type_name":"word","page_number":521,"line_number":5,"text":"ذَٰلِكَ","translation":{"text":"এর","language_name":"bengali","language_id":20},"transliteration":{"text":"dhālika","language_name":"english","language_id":38}},{"id":18265,"position":9,"audio_url":"wbw/051_016_010.mp3","char_type_name":"word","page_number":521,"line_number":5,"text":"مُحْسِنِينَ","translation":{"text":"সত্কর্মশীল লোক","language_name":"bengali","language_id":20},"transliteration":{"text":"muḥ'sinīna","language_name":"english","language_id":38}},{"id":18266,"position":10,"audio_url":null,"char_type_name":"end","page_number":521,"line_number":5,"text":"١٦","translation":{"text":"(১৬)","language_name":"bengali","language_id":20},"transliteration":{"text":null,"language_name":"english","language_id":38}}]},{"id":4692,"verse_number":17,"verse_key":"51:17","hizb_number":52,"rub_el_hizb_number":208,"ruku_number":457,"manzil_number":7,"sajdah_number":null,"page_number":521,"juz_number":26,"words":[{"id":19282,"position":1,"audio_url":"wbw/051_017_001.mp3","char_type_name":"word","page_number":521,"line_number":6,"text":"كَانُوا۟","translation":{"text":"তারা ছিল (এমন যে)","language_name":"bengali","language_id":20},"transliteration":{"text":"kānū","language_name":"english","language_id":38}},{"id":19283,"position":2,"audio_url":"wbw/051_017_002.mp3","char_type_name":"word","page_number":521,"line_number":6,"text":"قَلِيلًۭا","translation":{"text":"সামান্য (অংশ)","language_name":"bengali","language_id":20},"transliteration":{"text":"qalīlan","language_name":"english","language_id":38}},{"id":19284,"position":3,"audio_url":"wbw/051_017_003.mp3","char_type_name":"word","page_number":521,"line_number":6,"text":"مِّنَ","translation":{"text":"কিছু অংশ","language_name":"bengali","language_id":20},"transliteration":{"text":"mina","language_name":"english","language_id":38}},{"id":19285,"position":4,"audio_url":"wbw/051_017_004.mp3","char_type_name":"word","page_number":521,"line_number":6,"text":"ٱلَّيْلِ","translation":{"text":"রাতের","language_name":"bengali","language_id":20},"transliteration":{"text":"al-layli","language_name":"english","language_id":38}},{"id":19286,"position":5,"audio_url":"wbw/051_017_005.mp3","char_type_name":"word","page_number":521,"line_number":6,"text":"مَا","translation":{"text":"যাতে","language_name":"bengali","language_id":20},"transliteration":{"text":"mā","language_name":"english","language_id":38}},{"id":19287,"position":6,"audio_url":"wbw/051_017_006.mp3","char_type_name":"word","page_number":521,"line_number":6,"text":"يَهْجَعُونَ","translation":{"text":"তারা নিদ্রা যেত","language_name":"bengali","language_id":20},"transliteration":{"text":"yahjaʿūna","language_name":"english","language_id":38}},{"id":19288,"position":7,"audio_url":null,"char_type_name":"end","page_number":521,"line_number":6,"text":"١٧","translation":{"text":"(১৭)","language_name":"bengali","language_id":20},"transliteration":{"text":null,"language_name":"english","language_id":38}}]},{"id":4693,"verse_number":18,"verse_key":"51:18","hizb_number":52,"rub_el_hizb_number":208,"ruku_number":457,"manzil_number":7,"sajdah_number":null,"page_number":521,"juz_number":26,"words":[{"id":20357,"position":1,"audio_url":"wbw/051_018_001.mp3","char_type_name":"word","page_number":521,"line_number":6,"text":"وَبِٱلْأَسْحَارِ","translation":{"text":"এবং রাতের শেষ প্রহরে","language_name":"bengali","language_id":20},"transliteration":{"text":"wabil-asḥāri","language_name":"english","language_id":38}},{"id":20358,"position":2,"audio_url":"wbw/051_018_002.mp3","char_type_name":"word","page_number":521,"line_number":6,"text":"هُمْ","translation":{"text":"তারা","language_name":"bengali","language_id":20},"transliteration":{"text":"hum","language_name":"english","language_id":38}},{"id":20359,"position":3,"audio_url":"wbw/051_018_003.mp3","char_type_name":"word","page_number":521,"line_number":6,"text":"يَسْتَغْفِرُونَ","translation":{"text":"ক্ষমা প্রার্থনা করত","language_name":"bengali","language_id":20},"transliteration":{"text":"yastaghfirūna","language_name":"english","language_id":38}},{"id":20360,"position":4,"audio_url":null,"char_type_name":"end","page_number":521,"line_number":6,"text":"١٨","translation":{"text":"(১৮)","language_name":"bengali","language_id":20},"transliteration":{"text":null,"language_name":"english","language_id":38}}]},{"id":4694,"verse_number":19,"verse_key":"51:19","hizb_number":52,"rub_el_hizb_number":208,"ruku_number":457,"manzil_number":7,"sajdah_number":null,"page_number":521,"juz_number":26,"words":[{"id":21438,"position":1,"audio_url":"wbw/051_019_001.mp3","char_type_name":"word","page_number":521,"line_number":7,"text":"وَفِىٓ","translation":{"text":"এবং মধ্যে (আছে)","language_name":"bengali","language_id":20},"transliteration":{"text":"wafī","language_name":"english","language_id":38}},{"id":21439,"position":2,"audio_url":"wbw/051_019_002.mp3","char_type_name":"word","page_number":521,"line_number":7,"text":"أَمْوَٰلِهِمْ","translation":{"text":"তাদের সম্পদ সমূহের","language_name":"bengali","language_id":20},"transliteration":{"text":"amwālihim","language_name":"english","language_id":38}},{"id":21440,"position":3,"audio_url":"wbw/051_019_003.mp3","char_type_name":"word","page_number":521,"line_number":7,"text":"حَقٌّۭ","translation":{"text":"অধিকার","language_name":"bengali","language_id":20},"transliteration":{"text":"ḥaqqun","language_name":"english","language_id":38}},{"id":21441,"position":4,"audio_url":"wbw/051_019_004.mp3","char_type_name":"word","page_number":521,"line_number":7,"text":"لِّلسَّآئِلِ","translation":{"text":"প্রার্থনাকারীর জন্যে","language_name":"bengali","language_id":20},"transliteration":{"text":"lilssāili","language_name":"english","language_id":38}},{"id":21442,"position":5,"audio_url":"wbw/051_019_005.mp3","char_type_name":"word","page_number":521,"line_number":7,"text":"وَٱلْمَحْرُومِ","translation":{"text":"ও বঞ্চিতের","language_name":"bengali","language_id":20},"transliteration":{"text":"wal-maḥrūmi","language_name":"english","language_id":38}},{"id":21443,"position":6,"audio_url":null,"char_type_name":"end","page_number":521,"line_number":7,"text":"١٩","translation":{"text":"(১৯)","language_name":"bengali","language_id":20},"transliteration":{"text":null,"language_name":"english","language_id":38}}]},{"id":4695,"verse_number":20,"verse_key":"51:20","hizb_number":52,"rub_el_hizb_number":208,"ruku_number":457,"manzil_number":7,"sajdah_number":null,"page_number":521,"juz_number":26,"words":[{"id":22534,"position":1,"audio_url":"wbw/051_020_001.mp3","char_type_name":"word","page_number":521,"line_number":7,"text":"وَفِى","translation":{"text":"এবং মধ্যে (আছে)","language_name":"bengali","language_id":20},"transliteration":{"text":"wafī","language_name":"english","language_id":38}},{"id":22535,"position":2,"audio_url":"wbw/051_020_002.mp3","char_type_name":"word","page_number":521,"line_number":7,"text":"ٱلْأَرْضِ","translation":{"text":"পৃথিবীর","language_name":"bengali","language_id":20},"transliteration":{"text":"l-arḍi","language_name":"english","language_id":38}},{"id":22536,"position":3,"audio_url":"wbw/051_020_003.mp3","char_type_name":"word","page_number":521,"line_number":7,"text":"ءَايَـٰتٌۭ","translation":{"text":"নিদর্শন সমূহ","language_name":"bengali","language_id":20},"transliteration":{"text":"āyātun","language_name":"english","language_id":38}},{"id":22537,"position":4,"audio_url":"wbw/051_020_004.mp3","char_type_name":"word","page_number":521,"line_number":8,"text":"لِّلْمُوقِنِينَ","translation":{"text":"দৃঢ় বিশ্বাসীদের জন্যে","language_name":"bengali","language_id":20},"transliteration":{"text":"lil'mūqinīna","language_name":"english","language_id":38}},{"id":22538,"position":5,"audio_url":null,"char_type_name":"end","page_number":521,"line_number":8,"text":"٢٠","translation":{"text":"(২০)","language_name":"bengali","language_id":20},"transliteration":{"text":null,"language_name":"english","language_id":38}}]}],"pagination":{"per_page":10,"current_page":2,"next_page":3,"total_pages":6,"total_records":60}}
