{"verses":[{"id":4706,"verse_number":31,"verse_key":"51:31","hizb_number":53,"rub_el_hizb_number":209,"ruku_number":458,"manzil_number":7,"sajdah_number":null,"page_number":522,"juz_number":27,"words":[{"id":33563,"position":1,"audio_url":"wbw/051_031_002.mp3","char_type_name":"word","page_number":522,"line_number":1,"text":"۞ قَالَ","translation":{"text":"সে বলল","language_name":"bengali","language_id":20},"transliteration":{"text":"qāla","language_name":"english","language_id":38}},{"id":33564,"position":2,"audio_url":"wbw/051_031_003.mp3","char_type_name":"word","page_number":522,"line_number":1,"text":"فَمَا","translation":{"text":"\"কি তাহলে","language_name":"bengali","language_id":20},"transliteration":{"text":"famā","language_name":"english","language_id":38}},{"id":33565,"position":3,"audio_url":"wbw/051_031_004.mp3","char_type_name":"word","page_number":522,"line_number":1,"text":"خَطْبُكُمْ","translation":{"text":"তোমাদের উদ্দেশ্য","language_name":"bengali","language_id":20},"transliteration":{"text":"khaṭbukum","language_name":"english","language_id":38}},{"id":33566,"position":4,"audio_url":"wbw/051_031_005.mp3","char_type_name":"word","page_number":522,"line_number":1,"text":"أَيُّهَا","translation":{"text":"হে\"","language_name":"bengali","language_id":20},"transliteration":{"text":"ayyuhā","language_name":"english","language_id":38}},{"id":33567,"position":5,"audio_url":"wbw/051_031_006.mp3","char_type_name":"word","page_number":522,"line_number":1,"text":"ٱلْمُرْسَلُونَ","translation":{"text":"প্রেরিত (ফেরেশতা) গণ\"","language_name":"bengali","language_id":20},"transliteration":{"text":"l-mur'salūna","language_name":"english","language_id":38}},{"id":33568,"position":6,"audio_url":null,"char_type_name":"end","page_number":522,"line_number":1,"text":"٣١","translation":{"text":"(৩১)","language_name":"bengali","language_id":20},"transliteration":{"text":null,"language_name":"english","language_id":38}}]},{"id":4707,"verse_number":32,"verse_key":"51:32","hizb_number":53,"rub_el_hizb_number":209,"ruku_number":458,"manzil_number":7,"sajdah_number":null,"page_number":522,"juz_number":27,"words":[{"id":34571,"position":1,"audio_url":"wbw/051_032_001.mp3","char_type_name":"word","page_number":522,"line_number":1,"text":"قَالُوٓا۟","translation":{"text":"তারা বলল","language_name":"bengali","language_id":20},"transliteration":{"text":"qālū","language_name":"english","language_id":38}},{"id":34572,"position":2,"audio_url":"wbw/051_032_002.mp3","char_type_name":"word","page_number":522,"line_number":1,"text":"إِنَّآ","translation":{"text":"\"নিশ্চয়ই আমরা","language_name":"bengali","language_id":20},"transliteration":{"text":"innā","language_name":"english","language_id":38}},{"id":34573,"position":3,"audio_url":"wbw/051_032_003.mp3","char_type_name":"word","page_number":522,"line_number":1,"text":"أُرْسِلْنَآ","translation":{"text":"আমরা প্রেরিত হয়েছি","language_name":"bengali","language_id":20},"transliteration":{"text":"ur'sil'nā","language_name":"english","language_id":38}},{"id":34574,"position":4,"audio_url":"wbw/051_032_004.mp3","char_type_name":"word","page_number":522,"line_number":1,"text":"إِلَىٰ","translation":{"text":"প্রতি","language_name":"bengali","language_id":20},"transliteration":{"text":"ilā","language_name":"english","language_id":38}},{"id":34575,"position":5,"audio_url":"wbw/051_032_005.mp3","char_type_name":"word","page_number":522,"line_number":1,"text":"قَوْمٍۢ","translation":{"text":"জাতির","language_name":"bengali","language_id":20},"transliteration":{"text":"qawmin","language_name":"english","language_id":38}},{"id":34576,"position":6,"audio_url":"wbw/051_032_006.mp3","char_type_name":"word","page_number":522,"line_number":2,"text":"مُّجْرِمِينَ","translation":{"text":"অপরাধী","language_name":"bengali","language_id":20},"transliteration":{"text":"muj'rimīna","language_name":"english","language_id":38}},{"id":34577,"position":7,"audio_url":null,"char_type_name":"end","page_number":522,"line_number":2,"text":"٣٢","translation":{"text":"(৩২)","language_name":"bengali","language_id":20},"transliteration":{"text":null,"language_name":"english","language_id":38}}]},{"id":4708,"verse_number":33,"verse_key":"51:33","hizb_number":53,"rub_el_hizb_number":209,"ruku_number":458,"manzil_number":7,"sajdah_number":null,"page_number":522,"juz_number":27,"words":[{"id":35566,"position":1,"audio_url":"wbw/051_033_001.mp3","char_type_name":"word","page_number":522,"line_number":2,"text":"لِنُرْسِلَ","translation":{"text":"যেন আমরা নিক্ষেপ করি","language_name":"bengali","language_id":20},"transliteration":{"text":"linur'sila","language_name":"english","language_id":38}},{"id":35567,"position":2,"audio_url":"wbw/051_033_002.mp3","char_type_name":"word","page_number":522,"line_number":2,"text":"عَلَيْهِمْ","translation":{"text":"তাদের উপর","language_name":"bengali","language_id":20},"transliteration":{"text":"ʿalayhim","language_name":"english","language_id":38}},{"id":35568,"position":3,"audio_url":"wbw/051_033_003.mp3","char_type_name":"word","page_number":522,"line_number":2,"text":"حِجَارَةًۭ","translation":{"text":"পাথর","language_name":"bengali","language_id":20},"transliteration":{"text":"ḥijāratan","language_name":"english","language_id":38}},{"id":35569,"position":4,"audio_url":"wbw/051_033_004.mp3","char_type_name":"word","page_number":522,"line_number":2,"text":"مِّن","translation":{"text":"তৈরি","language_name":"bengali","language_id":20},"transliteration":{"text":"min","language_name":"english","language_id":38}},{"id":35570,"position":5,"audio_url":"wbw/051_033_005.mp3","char_type_name":"word","page_number":522,"line_number":2,"text":"طِينٍۢ","translation":{"text":"(পাকা) মাটির","language_name":"bengali","language_id":20},"transliteration":{"text":"ṭīnin","language_name":"english","language_id":38}},{"id":35571,"position":6,"audio_url":null,"char_type_name":"end","page_number":522,"line_number":2,"text":"٣٣","translation":{"text":"(৩৩)","language_name":"bengali","language_id":20},"transliteration":{"text":null,"language_name":"english","language_id":38}}]},{"id":4709,"verse_number":34,"verse_key":"51:34","hizb_number":53,"rub_el_hizb_number":209,"ruku_number":458,"manzil_number":7,"sajdah_number":null,"page_number":522,"juz_number":27,"words":[{"id":36323,"position":1,"audio_url":"wbw/051_034_001.mp3","char_type_name":"word","page_number":522,"line_number":2,"text":"مُّسَوَّمَةً","translation":{"text":"চিহ্নিত (হয়ে আছে)","language_name":"bengali","language_id":20},"transliteration":{"text":"musawwamatan","language_name":"english","language_id":38}},{"id":36324,"position":2,"audio_url":"wbw/051_034_002.mp3","char_type_name":"word","page_number":522,"line_number":2,"text":"عِندَ","translation":{"text":"কাছে","language_name":"bengali","language_id":20},"transliteration":{"text":"ʿinda","language_name":"english","language_id":38}},{"id":36325,"position":3,"audio_url":"wbw/051_034_003.mp3","char_type_name":"word","page_number":522,"line_number":2,"text":"رَبِّكَ","translation":{"text":"তোমার রবের","language_name":"bengali","language_id":20},"transliteration":{"text":"rabbika","language_name":"english","language_id":38}},{"id":36326,"position":4,"audio_url":"wbw/051_034_004.mp3","char_type_name":"word","page_number":522,"line_number":3,"text":"لِلْمُسْرِفِينَ","translation":{"text":"সীমা লঙ্ঘনকারীদের জন্যে\"","language_name":"bengali","language_id":20},"transliteration":{"text":"lil'mus'rifīna","language_name":"english","language_id":38}},{"id":36327,"position":5,"audio_url":null,"char_type_name":"end","page_number":522,"line_number":3,"text":"٣٤","translation":{"text":"(৩৪)","language_name":"bengali","language_id":20},"transliteration":{"text":null,"language_name":"english","language_id":38}}]},{"id":4710,"verse_number":35,"verse_key":"51:35","hizb_number":53,"rub_el_hizb_number":209,"ruku_number":458,"manzil_number":7,"sajdah_number":null,"page_number":522,"juz_number":27,"words":[{"id":37013,"position":1,"audio_url":"wbw/051_035_001.mp3","char_type_name":"word","page_number":522,"line_number":3,"text":"فَأَخْرَجْنَا","translation":{"text":"এরপর আমরা বের করলাম","language_name":"bengali","language_id":20},"transliteration":{"text":"fa-akhrajnā","language_name":"english","language_id":38}},{"id":37014,"position":2,"audio_url":"wbw/051_035_002.mp3","char_type_name":"word","page_number":522,"line_number":3,"text":"مَن","translation":{"text":"(তাদেরকে) যারা","language_name":"bengali","language_id":20},"transliteration":{"text":"man","language_name":"english","language_id":38}},{"id":37015,"position":3,"audio_url":"wbw/051_035_003.mp3","char_type_name":"word","page_number":522,"line_number":3,"text":"كَانَ","translation":{"text":"ছিল","language_name":"bengali","language_id":20},"transliteration":{"text":"kāna","language_name":"english","language_id":38}},{"id":37016,"position":4,"audio_url":"wbw/051_035_004.mp3","char_type_name":"word","page_number":522,"line_number":3,"text":"فِيهَا","translation":{"text":"তার মধ্যে","language_name":"bengali","language_id":20},"transliteration":{"text":"fīhā","language_name":"english","language_id":38}},{"id":37017,"position":5,"audio_url":"wbw/051_035_005.mp3","char_type_name":"word","page_number":522,"line_number":3,"text":"مِنَ","translation":{"text":"মধ্য হতে","language_name":"bengali","language_id":20},"transliteration":{"text":"mina","language_name":"english","language_id":38}},{"id":37018,"position":6,"audio_url":"wbw/051_035_006.mp3","char_type_name":"word","page_number":522,"line_number":3,"text":"ٱلْمُؤْمِنِينَ","translation":{"text":"মু'মিনদের","language_name":"bengali","language_id":20},"transliteration":{"text":"l-mu'minīna","language_name":"english","language_id":38}},{"id":37019,"position":7,"audio_url":null,"char_type_name":"end","page_number":522,"line_number":3,"text":"٣٥","translation":{"text":"(৩৫)","language_name":"bengali","language_id":20},"transliteration":{"text":null,"language_name":"english","language_id":38}}]},{"id":4711,"verse_number":36,"verse_key":"51:36","hizb_number":53,"rub_el_hizb_number":209,"ruku_number":458,"manzil_number":7,"sajdah_number":null,"page_number":522,"juz_number":27,"words":[{"id":37880,"position":1,"audio_url":"wbw/051_036_001.mp3","char_type_name":"word","page_number":522,"line_number":3,"text":"فَمَا","translation":{"text":"না অতঃপর","language_name":"bengali","language_id":20},"transliteration":{"text":"famā","language_name":"english","language_id":38}},{"id":37881,"position":2,"audio_url":"wbw/051_036_002.mp3","char_type_name":"word","page_number":522,"line_number":3,"text":"وَجَدْنَا","translation":{"text":"আমরা পেয়েছি","language_name":"bengali","language_id":20},"transliteration":{"text":"wajadnā","language_name":"english","language_id":38}},{"id":37882,"position":3,"audio_url":"wbw/051_036_003.mp3","char_type_name":"word","page_number":522,"line_number":4,"text":"فِيهَا","translation":{"text":"তার মধ্যে","language_name":"bengali","language_id":20},"transliteration":{"text":"fīhā","language_name":"english","language_id":38}},{"id":37883,"position":4,"audio_url":"wbw/051_036_004.mp3","char_type_name":"word","page_number":522,"line_number":4,"text":"غَيْرَ","translation":{"text":"এ ব্যতীত","language_name":"bengali","language_id":20},"transliteration":{"text":"ghayra","language_name":"english","language_id":38}},{"id":37884,"position":5,"audio_url":"wbw/051_036_005.mp3","char_type_name":"word","page_number":522,"line_number":4,"text":"بَيْتٍۢ","translation":{"text":"একটি ঘর","language_name":"bengali","language_id":20},"transliteration":{"text":"baytin","language_name":"english","language_id":38}},{"id":37885,"position":6,"audio_url":"wbw/051_036_006.mp3","char_type_name":"word","page_number":522,"line_number":4,"text":"مِّنَ","translation":{"text":"থেকে","language_name":"bengali","language_id":20},"transliteration":{"text":"mina","language_name":"english","language_id":38}},{"id":37886,"position":7,"audio_url":"wbw/051_036_007.mp3","char_type_name":"word","page_number":522,"line_number":4,"text":"ٱلْمُسْلِمِينَ","translation":{"text":"মুসলমানদের","language_name":"bengali","language_id":20},"transliteration":{"text":"l-mus'limīna","language_name":"english","language_id":38}},{"id":37887,"position":8,"audio_url":null,"char_type_name":"end","page_number":522,"line_number":4,"text":"٣٦","translation":{"text":"(৩৬)","language_name":"bengali","language_id":20},"transliteration":{"text":null,"language_name":"english","language_id":38}}]},{"id":4712,"verse_number":37,"verse_key":"51:37","hizb_number":53,"rub_el_hizb_number":209,"ruku_number":458,"manzil_number":7,"sajdah_number":null,"page_number":522,"juz_number":27,"words":[{"id":38741,"position":1,"audio_url":"wbw/051_037_001.mp3","char_type_name":"word","page_number":522,"line_number":4,"text":"وَتَرَكْنَا","translation":{"text":"এবং আমরা রেখেছি","language_name":"bengali","language_id":20},"transliteration":{"text":"wataraknā","language_name":"english","language_id":38}},{"id":38742,"position":2,"audio_url":"wbw/051_037_002.mp3","char_type_name":"word","page_number":522,"line_number":4,"text":"فِيهَآ","translation":{"text":"সেখানে","language_name":"bengali","language_id":20},"transliteration":{"text":"fīhā","language_name":"english","language_id":38}},{"id":38743,"position":3,"audio_url":"wbw/051_037_003.mp3","char_type_name":"word","page_number":522,"line_number":4,"text":"ءَايَةًۭ","translation":{"text":"একটি নিদর্শন","language_name":"bengali","language_id":20},"transliteration":{"text":"āyatan","language_name":"english","language_id":38}},{"id":38744,"position":4,"audio_url":"wbw/051_037_004.mp3","char_type_name":"word","page_number":522,"line_number":4,"text":"لِّلَّذِينَ","translation":{"text":"(তাদের) জন্যে যারা","language_name":"bengali","language_id":20},"transliteration":{"text":"lilladhīna","language_name":"english","language_id":38}},{"id":38745,"position":5,"audio_url":"wbw/051_037_005.mp3","char_type_name":"word","page_number":522,"line_number":4,"text":"يَخَافُونَ","translation":{"text":"ভয় করে","language_name":"bengali","language_id":20},"transliteration":{"text":"yakhāfūna","language_name":"english","language_id":38}},{"id":38746,"position":6,"audio_url":"wbw/051_037_006.mp3","char_type_name":"word","page_number":522,"line_number":5,"text":"ٱلْعَذَابَ","translation":{"text":"শাস্তির","language_name":"bengali","language_id":20},"transliteration":{"text":"l-ʿadhāba","language_name":"english","language_id":38}},{"id":38747,"position":7,"audio_url":"wbw/051_037_007.mp3","char_type_name":"word","page_number":522,"line_number":5,"text":"ٱلْأَلِيمَ","translation":{"text":"যন্ত্রণাদায়ক","language_name":"bengali","language_id":20},"transliteration":{"text":"l-alīma","language_name":"english","language_id":38}},{"id":38748,"position":8,"audio_url":null,"char_type_name":"end","page_number":522,"line_number":5,"text":"٣٧","translation":{"text":"(৩৭)","language_name":"bengali","language_id":20},"transliteration":{"text":null,"language_name":"english","language_id":38}}]},{"id":4713,"verse_number":38,"verse_key":"51:38","hizb_number":53,"rub_el_hizb_number":209,"ruku_number":458,"manzil_number":7,"sajdah_number":null,"page_number":522,"juz_number":27,"words":[{"id":39672,"position":1,"audio_url":"wbw/051_038_001.mp3","char_type_name":"word","page_number":522,"line_number":5,"text":"وَفِى","translation":{"text":"এবং মধ্যে ( নিদর্শন আছে)","language_name":"bengali","language_id":20},"transliteration":{"text":"wafī","language_name":"english","language_id":38}},{"id":39673,"position":2,"audio_url":"wbw/051_038_002.mp3","char_type_name":"word","page_number":522,"line_number":5,"text":"مُوسَىٰٓ","translation":{"text":"মুসার (কাহিনীর)","language_name":"bengali","language_id":20},"transliteration":{"text":"mūsā","language_name":"english","language_id":38}},{"id":39674,"position":3,"audio_url":"wbw/051_038_003.mp3","char_type_name":"word","page_number":522,"line_number":5,"text":"إِذْ","translation":{"text":"যখন","language_name":"bengali","language_id":20},"transliteration":{"text":"idh","language_name":"english","language_id":38}},{"id":39675,"position":4,"audio_url":"wbw/051_038_004.mp3","char_type_name":"word","page_number":522,"line_number":5,"text":"أَرْسَلْنَـٰهُ","translation":{"text":"তাকে আমরা প্রেরণ করেছিলাম","language_name":"bengali","language_id":20},"transliteration":{"text":"arsalnāhu","language_name":"english","language_id":38}},{"id":39676,"position":5,"audio_url":"wbw/051_038_005.mp3","char_type_name":"word","page_number":522,"line_number":5,"text":"إِلَىٰ","translation":{"text":"প্রতি","language_name":"bengali","language_id":20},"transliteration":{"text":"ilā","language_name":"english","language_id":38}},{"id":39677,"position":6,"audio_url":"wbw/051_038_006.mp3","char_type_name":"word","page_number":522,"line_number":5,"text":"فِرْعَوْنَ","translation":{"text":"ফিরআউনের","language_name":"bengali","language_id":20},"transliteration":{"text":"fir'ʿawna","language_name":"english","language_id":38}},{"id":39678,"position":7,"audio_url":"wbw/051_038_007.mp3","char_type_name":"word","page_number":522,"line_number":5,"text":"بِسُلْطَـٰنٍۢ","translation":{"text":"প্রমাণসহ","language_name":"bengali","language_id":20},"transliteration":{"text":"bisul'ṭānin","language_name":"english","language_id":38}},{"id":39679,"position":8,"audio_url":"wbw/051_038_008.mp3","char_type_name":"word","page_number":522,"line_number":6,"text":"مُّبِينٍۢ","translation":{"text":"সুস্পষ্ট","language_name":"bengali","language_id":20},"transliteration":{"text":"mubīnin","language_name":"english","language_id":38}},{"id":39680,"position":9,"audio_url":null,"char_type_name":"end","page_number":522,"line_number":6,"text":"٣٨","translation":{"text":"(৩৮)","language_name":"bengali","language_id":20},"transliteration":{"text":null,"language_name":"english","language_id":38}}]},{"id":4714,"verse_number":39,"verse_key":"51:39","hizb_number":53,"rub_el_hizb_number":209,"ruku_number":458,"manzil_number":7,"sajdah_number":null,"page_number":522,"juz_number":27,"words":[{"id":40464,"position":1,"audio_url":"wbw/051_039_001.mp3","char_type_name":"word","page_number":522,"line_number":6,"text":"فَتَوَلَّىٰ","translation":{"text":"অতঃপর সে মুখ ফিরায়","language_name":"bengali","language_id":20},"transliteration":{"text":"fatawallā","language_name":"english","language_id":38}},{"id":40465,"position":2,"audio_url":"wbw/051_039_002.mp3","char_type_name":"word","page_number":522,"line_number":6,"text":"بِرُكْنِهِۦ","translation":{"text":"তার সভাসদগণসহ","language_name":"bengali","language_id":20},"transliteration":{"text":"biruk'nihi","language_name":"english","language_id":38}},{"id":40466,"position":3,"audio_url":"wbw/051_039_003.mp3","char_type_name":"word","page_number":522,"line_number":6,"text":"وَقَالَ","translation":{"text":"এবং বলেছিল","language_name":"bengali","language_id":20},"transliteration":{"text":"waqāla","language_name":"english","language_id":38}},{"id":40467,"position":4,"audio_url":"wbw/051_039_004.mp3","char_type_name":"word","page_number":522,"line_number":6,"text":"سَـٰحِرٌ","translation":{"text":"\"(সে একজন) জাদুকর","language_name":"bengali","language_id":20},"transliteration":{"text":"sāḥirun","language_name":"english","language_id":38}},{"id":40468,"position":5,"audio_url":"wbw/051_039_005.mp3","char_type_name":"word","page_number":522,"line_number":6,"text":"أَوْ","translation":{"text":"অথবা","language_name":"bengali","language_id":20},"transliteration":{"text":"aw","language_name":"english","language_id":38}},{"id":40469,"position":6,"audio_url":"wbw/051_039_006.mp3","char_type_name":"word","page_number":522,"line_number":6,"text":"مَجْنُونٌۭ","translation":{"text":"পাগল (জ্বিন আশ্রিত)\"","language_name":"bengali","language_id":20},"transliteration":{"text":"majnūnun","language_name":"english","language_id":38}},{"id":40470,"position":7,"audio_url":null,"char_type_name":"end","page_number":522,"line_number":6,"text":"٣٩","translation":{"text":"(৩৯)","language_name":"bengali","language_id":20},"transliteration":{"text":null,"language_name":"english","language_id":38}}]},{"id":4715,"verse_number":40,"verse_key":"51:40","hizb_number":53,"rub_el_hizb_number":209,"ruku_number":458,"manzil_number":7,"sajdah_number":null,"page_number":522,"juz_number":27,"words":[{"id":41163,"position":1,"audio_url":"wbw/051_040_001.mp3","char_type_name":"word","page_number":522,"line_number":6,"text":"فَأَخَذْنَـٰهُ","translation":{"text":"অবশেষে তাকে আমরা পাকড়াও করলাম","language_name":"bengali","language_id":20},"transliteration":{"text":"fa-akhadhnāhu","language_name":"english","language_id":38}},{"id":41164,"position":2,"audio_url":"wbw/051_040_002.mp3","char_type_name":"word","page_number":522,"line_number":6,"text":"وَجُنُودَهُۥ","translation":{"text":"ও তার সৈন্যদেরকে","language_name":"bengali","language_id":20},"transliteration":{"text":"wajunūdahu","language_name":"english","language_id":38}},{"id":41165,"position":3,"audio_url":"wbw/051_040_003.mp3","char_type_name":"word","page_number":522,"line_number":7,"text":"فَنَبَذْنَـٰهُمْ","translation":{"text":"এরপর তাদের আমরা নিক্ষেপ করেছিলাম","language_name":"bengali","language_id":20},"transliteration":{"text":"fanabadhnāhum","language_name":"english","language_id":38}},{"id":41166,"position":4,"audio_url":"wbw/051_040_004.mp3","char_type_name":"word","page_number":522,"line_number":7,"text":"فِى","translation":{"text":"মধ্যে","language_name":"bengali","language_id":20},"transliteration":{"text":"fī","language_name":"english","language_id":38}},{"id":41167,"position":5,"audio_url":"wbw/051_040_005.mp3","char_type_name":"word","page_number":522,"line_number":7,"text":"ٱلْيَمِّ","translation":{"text":"সমুদ্রের","language_name":"bengali","language_id":20},"transliteration":{"text":"l-yami","language_name":"english","language_id":38}},{"id":41168,"position":6,"audio_url":"wbw/051_040_006.mp3","char_type_name":"word","page_number":522,"line_number":7,"text":"وَهُوَ","translation":{"text":"এবং সে (হয়েছিল)","language_name":"bengali","language_id":20},"transliteration":{"text":"wahuwa","language_name":"english","language_id":38}},{"id":41169,"position":7,"audio_url":"wbw/051_040_007.mp3","char_type_name":"word","page_number":522,"line_number":7,"text":"مُلِيمٌۭ","translation":{"text":"নিন্দিত","language_name":"bengali","language_id":20},"transliteration":{"text":"mulīmun","language_name":"english","language_id":38}},{"id":41170,"position":8,"audio_url":null,"char_type_name":"end","page_number":522,"line_number":7,"text":"٤٠","translation":{"text":"(৪০)","language_name":"bengali","language_id":20},"transliteration":{"text":null,"language_name":"english","language_id":38}}]}],"pagination":{"per_page":10,"current_page":4,"next_page":5,"total_pages":6,"total_records":60}}
