{"verses":[{"id":2674,"verse_number":1,"verse_key":"23:1","hizb_number":35,"rub_el_hizb_number":137,"ruku_number":295,"manzil_number":4,"sajdah_number":null,"page_number":342,"juz_number":18,"words":[{"id":590,"position":1,"audio_url":"wbw/023_001_001.mp3","verse_key":"23:1","verse_id":2674,"location":"23:1:1","text_uthmani":"قَدْ","qpc_uthmani_hafs":"قَدۡ","char_type_name":"word","page_number":342,"line_number":2,"text":"قَدۡ","translation":{"text":"নিশ্চয়ই","language_name":"bengali","language_id":20},"transliteration":{"text":"qad","language_name":"english","language_id":38}},{"id":591,"position":2,"audio_url":"wbw/023_001_002.mp3","verse_key":"23:1","verse_id":2674,"location":"23:1:2","text_uthmani":"أَفْلَحَ","qpc_uthmani_hafs":"أَفۡلَحَ","char_type_name":"word","page_number":342,"line_number":2,"text":"أَفۡلَحَ","translation":{"text":"সফল হয়েছে","language_name":"bengali","language_id":20},"transliteration":{"text":"aflaḥa","language_name":"english","language_id":38}},{"id":592,"position":3,"audio_url":"wbw/023_001_003.mp3","verse_key":"23:1","verse_id":2674,"location":"23:1:3","text_uthmani":"ٱلْمُؤْمِنُونَ","qpc_uthmani_hafs":"ٱلۡمُؤۡمِنُونَ","char_type_name":"word","page_number":342,"line_number":2,"text":"ٱلۡمُؤۡمِنُونَ","translation":{"text":"মু'মিনরা","language_name":"bengali","language_id":20},"transliteration":{"text":"l-mu'minūna","language_name":"english","language_id":38}},{"id":593,"position":4,"audio_url":null,"verse_key":"23:1","verse_id":2674,"location":"23:1:4","text_uthmani":"١","qpc_uthmani_hafs":"١","char_type_name":"end","page_number":342,"line_number":2,"text":"١","translation":{"text":"(১)","language_name":"bengali","language_id":20},"transliteration":{"text":null,"language_name":"english","language_id":38}}]},{"id":2675,"verse_number":2,"verse_key":"23:2","hizb_number":35,"rub_el_hizb_number":137,"ruku_number":295,"manzil_number":4,"sajdah_number":null,"page_number":342,"juz_number":18,"words":[{"id":1546,"position":1,"audio_url":"wbw/023_002_001.mp3","verse_key":"23:2","verse_id":2675,"location":"23:2:1","text_uthmani":"ٱلَّذِينَ","qpc_uthmani_hafs":"ٱلَّذِينَ","char_type_name":"word","page_number":342,"line_number":2,"text":"ٱلَّذِينَ","translation":{"text":"যারা(এমন লোক যে)","language_name":"bengali","language_id":20},"transliteration":{"text":"alladhīna","language_name":"english","language_id":38}},{"id":1547,"position":2,"audio_url":"wbw/023_002_002.mp3","verse_key":"23:2","verse_id":2675,"location":"23:2:2","text_uthmani":"هُمْ","qpc_uthmani_hafs":"هُمۡ","char_type_name":"word","page_number":342,"line_number":2,"text":"هُمۡ","translation":{"text":"তারা","language_name":"bengali","language_id":20},"transliteration":{"text":"hum","language_name":"english","language_id":38}},{"id":1548,"position":3,"audio_url":"wbw/023_002_003.mp3","verse_key":"23:2","verse_id":2675,"location":"23:2:3","text_uthmani":"فِى","qpc_uthmani_hafs":"فِي","char_type_name":"word","page_number":342,"line_number":2,"text":"فِي","translation":{"text":"মধ্যে","language_name":"bengali","language_id":20},"transliteration":{"text":"fī","language_name":"english","language_id":38}},{"id":1549,"position":4,"audio_url":"wbw/023_002_004.mp3","verse_key":"23:2","verse_id":2675,"location":"23:2:4","text_uthmani":"صَلَاتِهِمْ","qpc_uthmani_hafs":"صَلَاتِهِمۡ","char_type_name":"word","page_number":342,"line_number":2,"text":"صَلَاتِهِمۡ","translation":{"text":"সালাতসমূহের তাদের","language_name":"bengali","language_id":20},"transliteration":{"text":"ṣalātihim","language_name":"english","language_id":38}},{"id":1550,"position":5,"audio_url":"wbw/023_002_005.mp3","verse_key":"23:2","verse_id":2675,"location":"23:2:5","text_uthmani":"خَـٰشِعُونَ","qpc_uthmani_hafs":"خَٰشِعُونَ","char_type_name":"word","page_number":342,"line_number":2,"text":"خَٰشِعُونَ","translation":{"text":"বিনয়ী-নম্র-ভীত","language_name":"bengali","language_id":20},"transliteration":{"text":"khāshiʿūna","language_name":"english","language_id":38}},{"id":1551,"position":6,"audio_url":null,"verse_key":"23:2","verse_id":2675,"location":"23:2:6","text_uthmani":"٢","qpc_uthmani_hafs":"٢","char_type_name":"end","page_number":342,"line_number":3,"text":"٢","translation":{"text":"(২)","language_name":"bengali","language_id":20},"transliteration":{"text":null,"language_name":"english","language_id":38}}]},{"id":2676,"verse_number":3,"verse_key":"23:3","hizb_number":35,"rub_el_hizb_number":137,"ruku_number":295,"manzil_number":4,"sajdah_number":null,"page_number":342,"juz_number":18,"words":[{"id":2581,"position":1,"audio_url":"wbw/023_003_001.mp3","verse_key":"23:3","verse_id":2676,"location":"23:3:1","text_uthmani":"وَٱلَّذِينَ","qpc_uthmani_hafs":"وَٱلَّذِينَ","char_type_name":"word","page_number":342,"line_number":3,"text":"وَٱلَّذِينَ","translation":{"text":"এবং যারা (বৈশিষ্ট্য হলো যে)","language_name":"bengali","language_id":20},"transliteration":{"text":"wa-alladhīna","language_name":"english","language_id":38}},{"id":2582,"position":2,"audio_url":"wbw/023_003_002.mp3","verse_key":"23:3","verse_id":2676,"location":"23:3:2","text_uthmani":"هُمْ","qpc_uthmani_hafs":"هُمۡ","char_type_name":"word","page_number":342,"line_number":3,"text":"هُمۡ","translation":{"text":"তারা","language_name":"bengali","language_id":20},"transliteration":{"text":"hum","language_name":"english","language_id":38}},{"id":2583,"position":3,"audio_url":"wbw/023_003_003.mp3","verse_key":"23:3","verse_id":2676,"location":"23:3:3","text_uthmani":"عَنِ","qpc_uthmani_hafs":"عَنِ","char_type_name":"word","page_number":342,"line_number":3,"text":"عَنِ","translation":{"text":"হ'তে","language_name":"bengali","language_id":20},"transliteration":{"text":"ʿani","language_name":"english","language_id":38}},{"id":2584,"position":4,"audio_url":"wbw/023_003_004.mp3","verse_key":"23:3","verse_id":2676,"location":"23:3:4","text_uthmani":"ٱللَّغْوِ","qpc_uthmani_hafs":"ٱللَّغۡوِ","char_type_name":"word","page_number":342,"line_number":3,"text":"ٱللَّغۡوِ","translation":{"text":"অসার কথা কাজ","language_name":"bengali","language_id":20},"transliteration":{"text":"l-laghwi","language_name":"english","language_id":38}},{"id":2585,"position":5,"audio_url":"wbw/023_003_005.mp3","verse_key":"23:3","verse_id":2676,"location":"23:3:5","text_uthmani":"مُعْرِضُونَ","qpc_uthmani_hafs":"مُعۡرِضُونَ","char_type_name":"word","page_number":342,"line_number":3,"text":"مُعۡرِضُونَ","translation":{"text":"বিরত থাকে","language_name":"bengali","language_id":20},"transliteration":{"text":"muʿ'riḍūna","language_name":"english","language_id":38}},{"id":2586,"position":6,"audio_url":null,"verse_key":"23:3","verse_id":2676,"location":"23:3:6","text_uthmani":"٣","qpc_uthmani_hafs":"٣","char_type_name":"end","page_number":342,"line_number":3,"text":"٣","translation":{"text":"(৩)","language_name":"bengali","language_id":20},"transliteration":{"text":null,"language_name":"english","language_id":38}}]},{"id":2677,"verse_number":4,"verse_key":"23:4","hizb_number":35,"rub_el_hizb_number":137,"ruku_number":295,"manzil_number":4,"sajdah_number":null,"page_number":342,"juz_number":18,"words":[{"id":3987,"position":1,"audio_url":"wbw/023_004_001.mp3","verse_key":"23:4","verse_id":2677,"location":"23:4:1","text_uthmani":"وَٱلَّذِينَ","qpc_uthmani_hafs":"وَٱلَّذِينَ","char_type_name":"word","page_number":342,"line_number":3,"text":"وَٱلَّذِينَ","translation":{"text":"এবং যারা (বৈশিষ্ট্য এও যে)","language_name":"bengali","language_id":20},"transliteration":{"text":"wa-alladhīna","language_name":"english","language_id":38}},{"id":3988,"position":2,"audio_url":"wbw/023_004_002.mp3","verse_key":"23:4","verse_id":2677,"location":"23:4:2","text_uthmani":"هُمْ","qpc_uthmani_hafs":"هُمۡ","char_type_name":"word","page_number":342,"line_number":3,"text":"هُمۡ","translation":{"text":"তারা","language_name":"bengali","language_id":20},"transliteration":{"text":"hum","language_name":"english","language_id":38}},{"id":3989,"position":3,"audio_url":"wbw/023_004_003.mp3","verse_key":"23:4","verse_id":2677,"location":"23:4:3","text_uthmani":"لِلزَّكَوٰةِ","qpc_uthmani_hafs":"لِلزَّكَوٰةِ","char_type_name":"word","page_number":342,"line_number":3,"text":"لِلزَّكَوٰةِ","translation":{"text":"জাকাতের ব্যাপারে","language_name":"bengali","language_id":20},"transliteration":{"text":"lilzzakati","language_name":"english","language_id":38}},{"id":3990,"position":4,"audio_url":"wbw/023_004_004.mp3","verse_key":"23:4","verse_id":2677,"location":"23:4:4","text_uthmani":"فَـٰعِلُونَ","qpc_uthmani_hafs":"فَٰعِلُونَ","char_type_name":"word","page_number":342,"line_number":4,"text":"فَٰعِلُونَ","translation":{"text":"সক্রিয়","language_name":"bengali","language_id":20},"transliteration":{"text":"fāʿilūna","language_name":"english","language_id":38}},{"id":3991,"position":5,"audio_url":null,"verse_key":"23:4","verse_id":2677,"location":"23:4:5","text_uthmani":"٤","qpc_uthmani_hafs":"٤","char_type_name":"end","page_number":342,"line_number":4,"text":"٤","translation":{"text":"(৪)","language_name":"bengali","language_id":20},"transliteration":{"text":null,"language_name":"english","language_id":38}}]},{"id":2678,"verse_number":5,"verse_key":"23:5","hizb_number":35,"rub_el_hizb_number":137,"ruku_number":295,"manzil_number":4,"sajdah_number":null,"page_number":342,"juz_number":18,"words":[{"id":5301,"position":1,"audio_url":"wbw/023_005_001.mp3","verse_key":"23:5","verse_id":2678,"location":"23:5:1","text_uthmani":"وَٱلَّذِينَ","qpc_uthmani_hafs":"وَٱلَّذِينَ","char_type_name":"word","page_number":342,"line_number":4,"text":"وَٱلَّذِينَ","translation":{"text":"এবং যারা (এটাও গুণ যে)","language_name":"bengali","language_id":20},"transliteration":{"text":"wa-alladhīna","language_name":"english","language_id":38}},{"id":5302,"position":2,"audio_url":"wbw/023_005_002.mp3","verse_key":"23:5","verse_id":2678,"location":"23:5:2","text_uthmani":"هُمْ","qpc_uthmani_hafs":"هُمۡ","char_type_name":"word","page_number":342,"line_number":4,"text":"هُمۡ","translation":{"text":"তারা","language_name":"bengali","language_id":20},"transliteration":{"text":"hum","language_name":"english","language_id":38}},{"id":5303,"position":3,"audio_url":"wbw/023_005_003.mp3","verse_key":"23:5","verse_id":2678,"location":"23:5:3","text_uthmani":"لِفُرُوجِهِمْ","qpc_uthmani_hafs":"لِفُرُوجِهِمۡ","char_type_name":"word","page_number":342,"line_number":4,"text":"لِفُرُوجِهِمۡ","translation":{"text":"জন্যে তাদের লজ্জাস্থানগুলোর","language_name":"bengali","language_id":20},"transliteration":{"text":"lifurūjihim","language_name":"english","language_id":38}},{"id":5304,"position":4,"audio_url":"wbw/023_005_004.mp3","verse_key":"23:5","verse_id":2678,"location":"23:5:4","text_uthmani":"حَـٰفِظُونَ","qpc_uthmani_hafs":"حَٰفِظُونَ","char_type_name":"word","page_number":342,"line_number":4,"text":"حَٰفِظُونَ","translation":{"text":"সংরক্ষক","language_name":"bengali","language_id":20},"transliteration":{"text":"ḥāfiẓūna","language_name":"english","language_id":38}},{"id":5305,"position":5,"audio_url":null,"verse_key":"23:5","verse_id":2678,"location":"23:5:5","text_uthmani":"٥","qpc_uthmani_hafs":"٥","char_type_name":"end","page_number":342,"line_number":4,"text":"٥","translation":{"text":"(৫)","language_name":"bengali","language_id":20},"transliteration":{"text":null,"language_name":"english","language_id":38}}]},{"id":2679,"verse_number":6,"verse_key":"23:6","hizb_number":35,"rub_el_hizb_number":137,"ruku_number":295,"manzil_number":4,"sajdah_number":null,"page_number":342,"juz_number":18,"words":[{"id":6498,"position":1,"audio_url":"wbw/023_006_001.mp3","verse_key":"23:6","verse_id":2679,"location":"23:6:1","text_uthmani":"إِلَّا","qpc_uthmani_hafs":"إِلَّا","char_type_name":"word","page_number":342,"line_number":4,"text":"إِلَّا","translation":{"text":"তবে (এটা প্রযোজ্য নয়)","language_name":"bengali","language_id":20},"transliteration":{"text":"illā","language_name":"english","language_id":38}},{"id":6499,"position":2,"audio_url":"wbw/023_006_002.mp3","verse_key":"23:6","verse_id":2679,"location":"23:6:2","text_uthmani":"عَلَىٰٓ","qpc_uthmani_hafs":"عَلَىٰٓ","char_type_name":"word","page_number":342,"line_number":4,"text":"عَلَىٰٓ","translation":{"text":"উপর","language_name":"bengali","language_id":20},"transliteration":{"text":"ʿalā","language_name":"english","language_id":38}},{"id":6500,"position":3,"audio_url":"wbw/023_006_003.mp3","verse_key":"23:6","verse_id":2679,"location":"23:6:3","text_uthmani":"أَزْوَٰجِهِمْ","qpc_uthmani_hafs":"أَزۡوَٰجِهِمۡ","char_type_name":"word","page_number":342,"line_number":5,"text":"أَزۡوَٰجِهِمۡ","translation":{"text":"তাদের স্ত্রীদের","language_name":"bengali","language_id":20},"transliteration":{"text":"azwājihim","language_name":"english","language_id":38}},{"id":6501,"position":4,"audio_url":"wbw/023_006_004.mp3","verse_key":"23:6","verse_id":2679,"location":"23:6:4","text_uthmani":"أَوْ","qpc_uthmani_hafs":"أَوۡ","char_type_name":"word","page_number":342,"line_number":5,"text":"أَوۡ","translation":{"text":"বা","language_name":"bengali","language_id":20},"transliteration":{"text":"aw","language_name":"english","language_id":38}},{"id":6502,"position":5,"audio_url":"wbw/023_006_005.mp3","verse_key":"23:6","verse_id":2679,"location":"23:6:5","text_uthmani":"مَا","qpc_uthmani_hafs":"مَا","char_type_name":"word","page_number":342,"line_number":5,"text":"مَا","translation":{"text":"যা","language_name":"bengali","language_id":20},"transliteration":{"text":"mā","language_name":"english","language_id":38}},{"id":6503,"position":6,"audio_url":"wbw/023_006_006.mp3","verse_key":"23:6","verse_id":2679,"location":"23:6:6","text_uthmani":"مَلَكَتْ","qpc_uthmani_hafs":"مَلَكَتۡ","char_type_name":"word","page_number":342,"line_number":5,"text":"مَلَكَتۡ","translation":{"text":"মালিক হয়েছে","language_name":"bengali","language_id":20},"transliteration":{"text":"malakat","language_name":"english","language_id":38}},{"id":6504,"position":7,"audio_url":"wbw/023_006_007.mp3","verse_key":"23:6","verse_id":2679,"location":"23:6:7","text_uthmani":"أَيْمَـٰنُهُمْ","qpc_uthmani_hafs":"أَيۡمَٰنُهُمۡ","char_type_name":"word","page_number":342,"line_number":5,"text":"أَيۡمَٰنُهُمۡ","translation":{"text":"তাদের ডান হাত (অর্থাৎ দাসী)","language_name":"bengali","language_id":20},"transliteration":{"text":"aymānuhum","language_name":"english","language_id":38}},{"id":6505,"position":8,"audio_url":"wbw/023_006_008.mp3","verse_key":"23:6","verse_id":2679,"location":"23:6:8","text_uthmani":"فَإِنَّهُمْ","qpc_uthmani_hafs":"فَإِنَّهُمۡ","char_type_name":"word","page_number":342,"line_number":5,"text":"فَإِنَّهُمۡ","translation":{"text":"নিশ্চয়ই সেক্ষেত্রে তারা","language_name":"bengali","language_id":20},"transliteration":{"text":"fa-innahum","language_name":"english","language_id":38}},{"id":6506,"position":9,"audio_url":"wbw/023_006_009.mp3","verse_key":"23:6","verse_id":2679,"location":"23:6:9","text_uthmani":"غَيْرُ","qpc_uthmani_hafs":"غَيۡرُ","char_type_name":"word","page_number":342,"line_number":5,"text":"غَيۡرُ","translation":{"text":"নয়","language_name":"bengali","language_id":20},"transliteration":{"text":"ghayru","language_name":"english","language_id":38}},{"id":6507,"position":10,"audio_url":"wbw/023_006_010.mp3","verse_key":"23:6","verse_id":2679,"location":"23:6:10","text_uthmani":"مَلُومِينَ","qpc_uthmani_hafs":"مَلُومِينَ","char_type_name":"word","page_number":342,"line_number":5,"text":"مَلُومِينَ","translation":{"text":"নিন্দনীয়","language_name":"bengali","language_id":20},"transliteration":{"text":"malūmīna","language_name":"english","language_id":38}},{"id":6508,"position":11,"audio_url":null,"verse_key":"23:6","verse_id":2679,"location":"23:6:11","text_uthmani":"٦","qpc_uthmani_hafs":"٦","char_type_name":"end","page_number":342,"line_number":5,"text":"٦","translation":{"text":"(৬)","language_name":"bengali","language_id":20},"transliteration":{"text":null,"language_name":"english","language_id":38}}]},{"id":2680,"verse_number":7,"verse_key":"23:7","hizb_number":35,"rub_el_hizb_number":137,"ruku_number":295,"manzil_number":4,"sajdah_number":null,"page_number":342,"juz_number":18,"words":[{"id":7907,"position":1,"audio_url":"wbw/023_007_001.mp3","verse_key":"23:7","verse_id":2680,"location":"23:7:1","text_uthmani":"فَمَنِ","qpc_uthmani_hafs":"فَمَنِ","char_type_name":"word","page_number":342,"line_number":5,"text":"فَمَنِ","translation":{"text":"তবে যে","language_name":"bengali","language_id":20},"transliteration":{"text":"famani","language_name":"english","language_id":38}},{"id":7908,"position":2,"audio_url":"wbw/023_007_002.mp3","verse_key":"23:7","verse_id":2680,"location":"23:7:2","text_uthmani":"ٱبْتَغَىٰ","qpc_uthmani_hafs":"ٱبۡتَغَىٰ","char_type_name":"word","page_number":342,"line_number":6,"text":"ٱبۡتَغَىٰ","translation":{"text":"কামনা করে","language_name":"bengali","language_id":20},"transliteration":{"text":"ib'taghā","language_name":"english","language_id":38}},{"id":7909,"position":3,"audio_url":"wbw/023_007_003.mp3","verse_key":"23:7","verse_id":2680,"location":"23:7:3","text_uthmani":"وَرَآءَ","qpc_uthmani_hafs":"وَرَآءَ","char_type_name":"word","page_number":342,"line_number":6,"text":"وَرَآءَ","translation":{"text":"বাইরে","language_name":"bengali","language_id":20},"transliteration":{"text":"warāa","language_name":"english","language_id":38}},{"id":7910,"position":4,"audio_url":"wbw/023_007_004.mp3","verse_key":"23:7","verse_id":2680,"location":"23:7:4","text_uthmani":"ذَٰلِكَ","qpc_uthmani_hafs":"ذَٰلِكَ","char_type_name":"word","page_number":342,"line_number":6,"text":"ذَٰلِكَ","translation":{"text":"এর","language_name":"bengali","language_id":20},"transliteration":{"text":"dhālika","language_name":"english","language_id":38}},{"id":7911,"position":5,"audio_url":"wbw/023_007_005.mp3","verse_key":"23:7","verse_id":2680,"location":"23:7:5","text_uthmani":"فَأُو۟لَـٰٓئِكَ","qpc_uthmani_hafs":"فَأُوْلَٰٓئِكَ","char_type_name":"word","page_number":342,"line_number":6,"text":"فَأُوْلَٰٓئِكَ","translation":{"text":"সেক্ষেত্রে ঐসবলোক","language_name":"bengali","language_id":20},"transliteration":{"text":"fa-ulāika","language_name":"english","language_id":38}},{"id":7912,"position":6,"audio_url":"wbw/023_007_006.mp3","verse_key":"23:7","verse_id":2680,"location":"23:7:6","text_uthmani":"هُمُ","qpc_uthmani_hafs":"هُمُ","char_type_name":"word","page_number":342,"line_number":6,"text":"هُمُ","translation":{"text":"তারাই","language_name":"bengali","language_id":20},"transliteration":{"text":"humu","language_name":"english","language_id":38}},{"id":7913,"position":7,"audio_url":"wbw/023_007_007.mp3","verse_key":"23:7","verse_id":2680,"location":"23:7:7","text_uthmani":"ٱلْعَادُونَ","qpc_uthmani_hafs":"ٱلۡعَادُونَ","char_type_name":"word","page_number":342,"line_number":6,"text":"ٱلۡعَادُونَ","translation":{"text":"সীমালঙ্ঘনকারী","language_name":"bengali","language_id":20},"transliteration":{"text":"l-ʿādūna","language_name":"english","language_id":38}},{"id":7914,"position":8,"audio_url":null,"verse_key":"23:7","verse_id":2680,"location":"23:7:8","text_uthmani":"٧","qpc_uthmani_hafs":"٧","char_type_name":"end","page_number":342,"line_number":6,"text":"٧","translation":{"text":"(৭)","language_name":"bengali","language_id":20},"transliteration":{"text":null,"language_name":"english","language_id":38}}]},{"id":2681,"verse_number":8,"verse_key":"23:8","hizb_number":35,"rub_el_hizb_number":137,"ruku_number":295,"manzil_number":4,"sajdah_number":null,"page_number":342,"juz_number":18,"words":[{"id":9086,"position":1,"audio_url":"wbw/023_008_001.mp3","verse_key":"23:8","verse_id":2681,"location":"23:8:1","text_uthmani":"وَٱلَّذِينَ","qpc_uthmani_hafs":"وَٱلَّذِينَ","char_type_name":"word","page_number":342,"line_number":6,"text":"وَٱلَّذِينَ","translation":{"text":"এবং যারা (বৈশিষ্ট হলো যে)","language_name":"bengali","language_id":20},"transliteration":{"text":"wa-alladhīna","language_name":"english","language_id":38}},{"id":9087,"position":2,"audio_url":"wbw/023_008_002.mp3","verse_key":"23:8","verse_id":2681,"location":"23:8:2","text_uthmani":"هُمْ","qpc_uthmani_hafs":"هُمۡ","char_type_name":"word","page_number":342,"line_number":6,"text":"هُمۡ","translation":{"text":"তারা","language_name":"bengali","language_id":20},"transliteration":{"text":"hum","language_name":"english","language_id":38}},{"id":9088,"position":3,"audio_url":"wbw/023_008_003.mp3","verse_key":"23:8","verse_id":2681,"location":"23:8:3","text_uthmani":"لِأَمَـٰنَـٰتِهِمْ","qpc_uthmani_hafs":"لِأَمَٰنَٰتِهِمۡ","char_type_name":"word","page_number":342,"line_number":7,"text":"لِأَمَٰنَٰتِهِمۡ","translation":{"text":"জন্যে তাদের আমানতসমূহের","language_name":"bengali","language_id":20},"transliteration":{"text":"li-amānātihim","language_name":"english","language_id":38}},{"id":9089,"position":4,"audio_url":"wbw/023_008_004.mp3","verse_key":"23:8","verse_id":2681,"location":"23:8:4","text_uthmani":"وَعَهْدِهِمْ","qpc_uthmani_hafs":"وَعَهۡدِهِمۡ","char_type_name":"word","page_number":342,"line_number":7,"text":"وَعَهۡدِهِمۡ","translation":{"text":"ও তাদের প্রতিশ্রুতির","language_name":"bengali","language_id":20},"transliteration":{"text":"waʿahdihim","language_name":"english","language_id":38}},{"id":9090,"position":5,"audio_url":"wbw/023_008_005.mp3","verse_key":"23:8","verse_id":2681,"location":"23:8:5","text_uthmani":"رَٰعُونَ","qpc_uthmani_hafs":"رَٰعُونَ","char_type_name":"word","page_number":342,"line_number":7,"text":"رَٰعُونَ","translation":{"text":"সংরক্ষণকারী","language_name":"bengali","language_id":20},"transliteration":{"text":"rāʿūna","language_name":"english","language_id":38}},{"id":9091,"position":6,"audio_url":null,"verse_key":"23:8","verse_id":2681,"location":"23:8:6","text_uthmani":"٨","qpc_uthmani_hafs":"٨","char_type_name":"end","page_number":342,"line_number":7,"text":"٨","translation":{"text":"(৮)","language_name":"bengali","language_id":20},"transliteration":{"text":null,"language_name":"english","language_id":38}}]},{"id":2682,"verse_number":9,"verse_key":"23:9","hizb_number":35,"rub_el_hizb_number":137,"ruku_number":295,"manzil_number":4,"sajdah_number":null,"page_number":342,"juz_number":18,"words":[{"id":10299,"position":1,"audio_url":"wbw/023_009_001.mp3","verse_key":"23:9","verse_id":2682,"location":"23:9:1","text_uthmani":"وَٱلَّذِينَ","qpc_uthmani_hafs":"وَٱلَّذِينَ","char_type_name":"word","page_number":342,"line_number":7,"text":"وَٱلَّذِينَ","translation":{"text":"এবং যারা (বৈশিষ্ট্য হলো যে)","language_name":"bengali","language_id":20},"transliteration":{"text":"wa-alladhīna","language_name":"english","language_id":38}},{"id":10300,"position":2,"audio_url":"wbw/023_009_002.mp3","verse_key":"23:9","verse_id":2682,"location":"23:9:2","text_uthmani":"هُمْ","qpc_uthmani_hafs":"هُمۡ","char_type_name":"word","page_number":342,"line_number":7,"text":"هُمۡ","translation":{"text":"তারা","language_name":"bengali","language_id":20},"transliteration":{"text":"hum","language_name":"english","language_id":38}},{"id":10301,"position":3,"audio_url":"wbw/023_009_003.mp3","verse_key":"23:9","verse_id":2682,"location":"23:9:3","text_uthmani":"عَلَىٰ","qpc_uthmani_hafs":"عَلَىٰ","char_type_name":"word","page_number":342,"line_number":7,"text":"عَلَىٰ","translation":{"text":"ক্ষেত্রে","language_name":"bengali","language_id":20},"transliteration":{"text":"ʿalā","language_name":"english","language_id":38}},{"id":10302,"position":4,"audio_url":"wbw/023_009_004.mp3","verse_key":"23:9","verse_id":2682,"location":"23:9:4","text_uthmani":"صَلَوَٰتِهِمْ","qpc_uthmani_hafs":"صَلَوَٰتِهِمۡ","char_type_name":"word","page_number":342,"line_number":7,"text":"صَلَوَٰتِهِمۡ","translation":{"text":"তাদের সালাতসমুহের","language_name":"bengali","language_id":20},"transliteration":{"text":"ṣalawātihim","language_name":"english","language_id":38}},{"id":10303,"position":5,"audio_url":"wbw/023_009_005.mp3","verse_key":"23:9","verse_id":2682,"location":"23:9:5","text_uthmani":"يُحَافِظُونَ","qpc_uthmani_hafs":"يُحَافِظُونَ","char_type_name":"word","page_number":342,"line_number":8,"text":"يُحَافِظُونَ","translation":{"text":"তারা যত্ন করে","language_name":"bengali","language_id":20},"transliteration":{"text":"yuḥāfiẓūna","language_name":"english","language_id":38}},{"id":10304,"position":6,"audio_url":null,"verse_key":"23:9","verse_id":2682,"location":"23:9:6","text_uthmani":"٩","qpc_uthmani_hafs":"٩","char_type_name":"end","page_number":342,"line_number":8,"text":"٩","translation":{"text":"(৯)","language_name":"bengali","language_id":20},"transliteration":{"text":null,"language_name":"english","language_id":38}}]},{"id":2683,"verse_number":10,"verse_key":"23:10","hizb_number":35,"rub_el_hizb_number":137,"ruku_number":295,"manzil_number":4,"sajdah_number":null,"page_number":342,"juz_number":18,"words":[{"id":11531,"position":1,"audio_url":"wbw/023_010_001.mp3","verse_key":"23:10","verse_id":2683,"location":"23:10:1","text_uthmani":"أُو۟لَـٰٓئِكَ","qpc_uthmani_hafs":"أُوْلَٰٓئِكَ","char_type_name":"word","page_number":342,"line_number":8,"text":"أُوْلَٰٓئِكَ","translation":{"text":"ঐসবলোক","language_name":"bengali","language_id":20},"transliteration":{"text":"ulāika","language_name":"english","language_id":38}},{"id":11532,"position":2,"audio_url":"wbw/023_010_002.mp3","verse_key":"23:10","verse_id":2683,"location":"23:10:2","text_uthmani":"هُمُ","qpc_uthmani_hafs":"هُمُ","char_type_name":"word","page_number":342,"line_number":8,"text":"هُمُ","translation":{"text":"তারাই","language_name":"bengali","language_id":20},"transliteration":{"text":"humu","language_name":"english","language_id":38}},{"id":11533,"position":3,"audio_url":"wbw/023_010_003.mp3","verse_key":"23:10","verse_id":2683,"location":"23:10:3","text_uthmani":"ٱلْوَٰرِثُونَ","qpc_uthmani_hafs":"ٱلۡوَٰرِثُونَ","char_type_name":"word","page_number":342,"line_number":8,"text":"ٱلۡوَٰرِثُونَ","translation":{"text":"(সেই) উত্তরাধিকারী","language_name":"bengali","language_id":20},"transliteration":{"text":"l-wārithūna","language_name":"english","language_id":38}},{"id":11534,"position":4,"audio_url":null,"verse_key":"23:10","verse_id":2683,"location":"23:10:4","text_uthmani":"١٠","qpc_uthmani_hafs":"١٠","char_type_name":"end","page_number":342,"line_number":8,"text":"١٠","translation":{"text":"(১০)","language_name":"bengali","language_id":20},"transliteration":{"text":null,"language_name":"english","language_id":38}}]}],"pagination":{"per_page":10,"current_page":1,"next_page":2,"total_pages":12,"total_records":118}}
