{"verses":[{"id":2784,"verse_number":111,"verse_key":"23:111","hizb_number":35,"rub_el_hizb_number":139,"ruku_number":300,"manzil_number":4,"sajdah_number":null,"page_number":349,"juz_number":18,"words":[{"id":74468,"position":1,"audio_url":"wbw/023_111_001.mp3","char_type_name":"word","page_number":349,"line_number":7,"text":"إِنِّى","translation":{"text":"নিশ্চয়ই আমি","language_name":"bengali","language_id":20},"transliteration":{"text":"innī","language_name":"english","language_id":38}},{"id":74469,"position":2,"audio_url":"wbw/023_111_002.mp3","char_type_name":"word","page_number":349,"line_number":7,"text":"جَزَيْتُهُمُ","translation":{"text":"আমি পুরস্কার দিলাম তাদেরকে","language_name":"bengali","language_id":20},"transliteration":{"text":"jazaytuhumu","language_name":"english","language_id":38}},{"id":74470,"position":3,"audio_url":"wbw/023_111_003.mp3","char_type_name":"word","page_number":349,"line_number":7,"text":"ٱلْيَوْمَ","translation":{"text":"আজ","language_name":"bengali","language_id":20},"transliteration":{"text":"l-yawma","language_name":"english","language_id":38}},{"id":74471,"position":4,"audio_url":"wbw/023_111_004.mp3","char_type_name":"word","page_number":349,"line_number":7,"text":"بِمَا","translation":{"text":"এ কারণে যে","language_name":"bengali","language_id":20},"transliteration":{"text":"bimā","language_name":"english","language_id":38}},{"id":74472,"position":5,"audio_url":"wbw/023_111_005.mp3","char_type_name":"word","page_number":349,"line_number":7,"text":"صَبَرُوٓا۟","translation":{"text":"তারা ধৈর্য ধরেছিলো","language_name":"bengali","language_id":20},"transliteration":{"text":"ṣabarū","language_name":"english","language_id":38}},{"id":74473,"position":6,"audio_url":"wbw/023_111_006.mp3","char_type_name":"word","page_number":349,"line_number":7,"text":"أَنَّهُمْ","translation":{"text":"(ফল এই) যে তারা","language_name":"bengali","language_id":20},"transliteration":{"text":"annahum","language_name":"english","language_id":38}},{"id":74474,"position":7,"audio_url":"wbw/023_111_007.mp3","char_type_name":"word","page_number":349,"line_number":7,"text":"هُمُ","translation":{"text":"তারাই","language_name":"bengali","language_id":20},"transliteration":{"text":"humu","language_name":"english","language_id":38}},{"id":74475,"position":8,"audio_url":"wbw/023_111_008.mp3","char_type_name":"word","page_number":349,"line_number":7,"text":"ٱلْفَآئِزُونَ","translation":{"text":"সফলকাম (হলো)","language_name":"bengali","language_id":20},"transliteration":{"text":"l-fāizūna","language_name":"english","language_id":38}},{"id":74476,"position":9,"audio_url":null,"char_type_name":"end","page_number":349,"line_number":7,"text":"١١١","translation":{"text":"(১১১)","language_name":"bengali","language_id":20},"transliteration":{"text":null,"language_name":"english","language_id":38}}]},{"id":2785,"verse_number":112,"verse_key":"23:112","hizb_number":35,"rub_el_hizb_number":139,"ruku_number":300,"manzil_number":4,"sajdah_number":null,"page_number":349,"juz_number":18,"words":[{"id":74825,"position":1,"audio_url":"wbw/023_112_001.mp3","char_type_name":"word","page_number":349,"line_number":7,"text":"قَـٰلَ","translation":{"text":"(আল্লাহ) বলবেন","language_name":"bengali","language_id":20},"transliteration":{"text":"qāla","language_name":"english","language_id":38}},{"id":74826,"position":2,"audio_url":"wbw/023_112_002.mp3","char_type_name":"word","page_number":349,"line_number":8,"text":"كَمْ","translation":{"text":"\"কত (কাল)","language_name":"bengali","language_id":20},"transliteration":{"text":"kam","language_name":"english","language_id":38}},{"id":74827,"position":3,"audio_url":"wbw/023_112_003.mp3","char_type_name":"word","page_number":349,"line_number":8,"text":"لَبِثْتُمْ","translation":{"text":"তোমরা অবস্থান করেছিলে","language_name":"bengali","language_id":20},"transliteration":{"text":"labith'tum","language_name":"english","language_id":38}},{"id":74828,"position":4,"audio_url":"wbw/023_112_004.mp3","char_type_name":"word","page_number":349,"line_number":8,"text":"فِى","translation":{"text":"মধ্যে","language_name":"bengali","language_id":20},"transliteration":{"text":"fī","language_name":"english","language_id":38}},{"id":74829,"position":5,"audio_url":"wbw/023_112_005.mp3","char_type_name":"word","page_number":349,"line_number":8,"text":"ٱلْأَرْضِ","translation":{"text":"পৃথিবীর","language_name":"bengali","language_id":20},"transliteration":{"text":"l-arḍi","language_name":"english","language_id":38}},{"id":74830,"position":6,"audio_url":"wbw/023_112_006.mp3","char_type_name":"word","page_number":349,"line_number":8,"text":"عَدَدَ","translation":{"text":"হিসেবে","language_name":"bengali","language_id":20},"transliteration":{"text":"ʿadada","language_name":"english","language_id":38}},{"id":74831,"position":7,"audio_url":"wbw/023_112_007.mp3","char_type_name":"word","page_number":349,"line_number":8,"text":"سِنِينَ","translation":{"text":"বছরের\"","language_name":"bengali","language_id":20},"transliteration":{"text":"sinīna","language_name":"english","language_id":38}},{"id":74832,"position":8,"audio_url":null,"char_type_name":"end","page_number":349,"line_number":8,"text":"١١٢","translation":{"text":"(১১২)","language_name":"bengali","language_id":20},"transliteration":{"text":null,"language_name":"english","language_id":38}}]},{"id":2786,"verse_number":113,"verse_key":"23:113","hizb_number":35,"rub_el_hizb_number":139,"ruku_number":300,"manzil_number":4,"sajdah_number":null,"page_number":349,"juz_number":18,"words":[{"id":75022,"position":1,"audio_url":"wbw/023_113_001.mp3","char_type_name":"word","page_number":349,"line_number":8,"text":"قَالُوا۟","translation":{"text":"তারা বলবে","language_name":"bengali","language_id":20},"transliteration":{"text":"qālū","language_name":"english","language_id":38}},{"id":75023,"position":2,"audio_url":"wbw/023_113_002.mp3","char_type_name":"word","page_number":349,"line_number":8,"text":"لَبِثْنَا","translation":{"text":"\"আমরা অবস্থান করেছিলাম","language_name":"bengali","language_id":20},"transliteration":{"text":"labith'nā","language_name":"english","language_id":38}},{"id":75024,"position":3,"audio_url":"wbw/023_113_003.mp3","char_type_name":"word","page_number":349,"line_number":8,"text":"يَوْمًا","translation":{"text":"একদিন","language_name":"bengali","language_id":20},"transliteration":{"text":"yawman","language_name":"english","language_id":38}},{"id":75025,"position":4,"audio_url":"wbw/023_113_004.mp3","char_type_name":"word","page_number":349,"line_number":8,"text":"أَوْ","translation":{"text":"অথবা","language_name":"bengali","language_id":20},"transliteration":{"text":"aw","language_name":"english","language_id":38}},{"id":75026,"position":5,"audio_url":"wbw/023_113_005.mp3","char_type_name":"word","page_number":349,"line_number":8,"text":"بَعْضَ","translation":{"text":"কিছু অংশ","language_name":"bengali","language_id":20},"transliteration":{"text":"baʿḍa","language_name":"english","language_id":38}},{"id":75027,"position":6,"audio_url":"wbw/023_113_006.mp3","char_type_name":"word","page_number":349,"line_number":9,"text":"يَوْمٍۢ","translation":{"text":"দিনের","language_name":"bengali","language_id":20},"transliteration":{"text":"yawmin","language_name":"english","language_id":38}},{"id":75028,"position":7,"audio_url":"wbw/023_113_007.mp3","char_type_name":"word","page_number":349,"line_number":9,"text":"فَسْـَٔلِ","translation":{"text":"তবে জিজ্ঞেস করুন","language_name":"bengali","language_id":20},"transliteration":{"text":"fasali","language_name":"english","language_id":38}},{"id":75029,"position":8,"audio_url":"wbw/023_113_008.mp3","char_type_name":"word","page_number":349,"line_number":9,"text":"ٱلْعَآدِّينَ","translation":{"text":"গণনাকারীদেরকে\"","language_name":"bengali","language_id":20},"transliteration":{"text":"l-ʿādīna","language_name":"english","language_id":38}},{"id":75030,"position":9,"audio_url":null,"char_type_name":"end","page_number":349,"line_number":9,"text":"١١٣","translation":{"text":"(১১৩)","language_name":"bengali","language_id":20},"transliteration":{"text":null,"language_name":"english","language_id":38}}]},{"id":2787,"verse_number":114,"verse_key":"23:114","hizb_number":35,"rub_el_hizb_number":139,"ruku_number":300,"manzil_number":4,"sajdah_number":null,"page_number":349,"juz_number":18,"words":[{"id":75185,"position":1,"audio_url":"wbw/023_114_001.mp3","char_type_name":"word","page_number":349,"line_number":9,"text":"قَـٰلَ","translation":{"text":"(আল্লাহ) বলবেন","language_name":"bengali","language_id":20},"transliteration":{"text":"qāla","language_name":"english","language_id":38}},{"id":75186,"position":2,"audio_url":"wbw/023_114_002.mp3","char_type_name":"word","page_number":349,"line_number":9,"text":"إِن","translation":{"text":"\"না","language_name":"bengali","language_id":20},"transliteration":{"text":"in","language_name":"english","language_id":38}},{"id":75187,"position":3,"audio_url":"wbw/023_114_003.mp3","char_type_name":"word","page_number":349,"line_number":9,"text":"لَّبِثْتُمْ","translation":{"text":"অবস্থান করেছিলে তোমরা","language_name":"bengali","language_id":20},"transliteration":{"text":"labith'tum","language_name":"english","language_id":38}},{"id":75188,"position":4,"audio_url":"wbw/023_114_004.mp3","char_type_name":"word","page_number":349,"line_number":9,"text":"إِلَّا","translation":{"text":"এ ছাড়া","language_name":"bengali","language_id":20},"transliteration":{"text":"illā","language_name":"english","language_id":38}},{"id":75189,"position":5,"audio_url":"wbw/023_114_005.mp3","char_type_name":"word","page_number":349,"line_number":9,"text":"قَلِيلًۭا ۖ","translation":{"text":"অল্প (কালই)","language_name":"bengali","language_id":20},"transliteration":{"text":"qalīlan","language_name":"english","language_id":38}},{"id":75191,"position":6,"audio_url":"wbw/023_114_007.mp3","char_type_name":"word","page_number":349,"line_number":9,"text":"لَّوْ","translation":{"text":"যদি","language_name":"bengali","language_id":20},"transliteration":{"text":"law","language_name":"english","language_id":38}},{"id":75192,"position":7,"audio_url":"wbw/023_114_008.mp3","char_type_name":"word","page_number":349,"line_number":9,"text":"أَنَّكُمْ","translation":{"text":"(এমন হতো) যে তোমরা","language_name":"bengali","language_id":20},"transliteration":{"text":"annakum","language_name":"english","language_id":38}},{"id":75193,"position":8,"audio_url":"wbw/023_114_009.mp3","char_type_name":"word","page_number":349,"line_number":10,"text":"كُنتُمْ","translation":{"text":"তোমরা ছিলে","language_name":"bengali","language_id":20},"transliteration":{"text":"kuntum","language_name":"english","language_id":38}},{"id":75194,"position":9,"audio_url":"wbw/023_114_010.mp3","char_type_name":"word","page_number":349,"line_number":10,"text":"تَعْلَمُونَ","translation":{"text":"তোমরা জানতে","language_name":"bengali","language_id":20},"transliteration":{"text":"taʿlamūna","language_name":"english","language_id":38}},{"id":75195,"position":10,"audio_url":null,"char_type_name":"end","page_number":349,"line_number":10,"text":"١١٤","translation":{"text":"(১১৪)","language_name":"bengali","language_id":20},"transliteration":{"text":null,"language_name":"english","language_id":38}}]},{"id":2788,"verse_number":115,"verse_key":"23:115","hizb_number":35,"rub_el_hizb_number":139,"ruku_number":300,"manzil_number":4,"sajdah_number":null,"page_number":349,"juz_number":18,"words":[{"id":75383,"position":1,"audio_url":"wbw/023_115_001.mp3","char_type_name":"word","page_number":349,"line_number":10,"text":"أَفَحَسِبْتُمْ","translation":{"text":"কি তবে তোমরা মনে করেছিলে","language_name":"bengali","language_id":20},"transliteration":{"text":"afaḥasib'tum","language_name":"english","language_id":38}},{"id":75384,"position":2,"audio_url":"wbw/023_115_002.mp3","char_type_name":"word","page_number":349,"line_number":10,"text":"أَنَّمَا","translation":{"text":"যে প্রকৃতপক্ষে","language_name":"bengali","language_id":20},"transliteration":{"text":"annamā","language_name":"english","language_id":38}},{"id":75385,"position":3,"audio_url":"wbw/023_115_003.mp3","char_type_name":"word","page_number":349,"line_number":10,"text":"خَلَقْنَـٰكُمْ","translation":{"text":"তোমাদেরকে আমরা সৃষ্টি করেছি","language_name":"bengali","language_id":20},"transliteration":{"text":"khalaqnākum","language_name":"english","language_id":38}},{"id":75386,"position":4,"audio_url":"wbw/023_115_004.mp3","char_type_name":"word","page_number":349,"line_number":10,"text":"عَبَثًۭا","translation":{"text":"অনর্থক","language_name":"bengali","language_id":20},"transliteration":{"text":"ʿabathan","language_name":"english","language_id":38}},{"id":75387,"position":5,"audio_url":"wbw/023_115_005.mp3","char_type_name":"word","page_number":349,"line_number":10,"text":"وَأَنَّكُمْ","translation":{"text":"আর (এও বুঝেছিলে) যে তোমরা","language_name":"bengali","language_id":20},"transliteration":{"text":"wa-annakum","language_name":"english","language_id":38}},{"id":75388,"position":6,"audio_url":"wbw/023_115_006.mp3","char_type_name":"word","page_number":349,"line_number":11,"text":"إِلَيْنَا","translation":{"text":"আমাদের কাছে","language_name":"bengali","language_id":20},"transliteration":{"text":"ilaynā","language_name":"english","language_id":38}},{"id":75389,"position":7,"audio_url":"wbw/023_115_007.mp3","char_type_name":"word","page_number":349,"line_number":11,"text":"لَا","translation":{"text":"না","language_name":"bengali","language_id":20},"transliteration":{"text":"lā","language_name":"english","language_id":38}},{"id":75390,"position":8,"audio_url":"wbw/023_115_008.mp3","char_type_name":"word","page_number":349,"line_number":11,"text":"تُرْجَعُونَ","translation":{"text":"তোমরা প্রত্যাবর্তিত হবে\"","language_name":"bengali","language_id":20},"transliteration":{"text":"tur'jaʿūna","language_name":"english","language_id":38}},{"id":75391,"position":9,"audio_url":null,"char_type_name":"end","page_number":349,"line_number":11,"text":"١١٥","translation":{"text":"(১১৫)","language_name":"bengali","language_id":20},"transliteration":{"text":null,"language_name":"english","language_id":38}}]},{"id":2789,"verse_number":116,"verse_key":"23:116","hizb_number":35,"rub_el_hizb_number":139,"ruku_number":300,"manzil_number":4,"sajdah_number":null,"page_number":349,"juz_number":18,"words":[{"id":75653,"position":1,"audio_url":"wbw/023_116_001.mp3","char_type_name":"word","page_number":349,"line_number":11,"text":"فَتَعَـٰلَى","translation":{"text":"অতএব মহান শ্রেষ্ঠ","language_name":"bengali","language_id":20},"transliteration":{"text":"fataʿālā","language_name":"english","language_id":38}},{"id":75654,"position":2,"audio_url":"wbw/023_116_002.mp3","char_type_name":"word","page_number":349,"line_number":11,"text":"ٱللَّهُ","translation":{"text":"আল্লাহ","language_name":"bengali","language_id":20},"transliteration":{"text":"l-lahu","language_name":"english","language_id":38}},{"id":75655,"position":3,"audio_url":"wbw/023_116_003.mp3","char_type_name":"word","page_number":349,"line_number":11,"text":"ٱلْمَلِكُ","translation":{"text":"(যিনি) অধিপতি","language_name":"bengali","language_id":20},"transliteration":{"text":"l-maliku","language_name":"english","language_id":38}},{"id":75656,"position":4,"audio_url":"wbw/023_116_004.mp3","char_type_name":"word","page_number":349,"line_number":11,"text":"ٱلْحَقُّ ۖ","translation":{"text":"প্রকৃত","language_name":"bengali","language_id":20},"transliteration":{"text":"l-ḥaqu","language_name":"english","language_id":38}},{"id":75658,"position":5,"audio_url":"wbw/023_116_006.mp3","char_type_name":"word","page_number":349,"line_number":11,"text":"لَآ","translation":{"text":"নেই","language_name":"bengali","language_id":20},"transliteration":{"text":"lā","language_name":"english","language_id":38}},{"id":75659,"position":6,"audio_url":"wbw/023_116_007.mp3","char_type_name":"word","page_number":349,"line_number":11,"text":"إِلَـٰهَ","translation":{"text":"কোন ইলাহ","language_name":"bengali","language_id":20},"transliteration":{"text":"ilāha","language_name":"english","language_id":38}},{"id":75660,"position":7,"audio_url":"wbw/023_116_008.mp3","char_type_name":"word","page_number":349,"line_number":11,"text":"إِلَّا","translation":{"text":"ছাড়া","language_name":"bengali","language_id":20},"transliteration":{"text":"illā","language_name":"english","language_id":38}},{"id":75661,"position":8,"audio_url":"wbw/023_116_009.mp3","char_type_name":"word","page_number":349,"line_number":12,"text":"هُوَ","translation":{"text":"তিনি","language_name":"bengali","language_id":20},"transliteration":{"text":"huwa","language_name":"english","language_id":38}},{"id":75662,"position":9,"audio_url":"wbw/023_116_010.mp3","char_type_name":"word","page_number":349,"line_number":12,"text":"رَبُّ","translation":{"text":"রব (মালিক)","language_name":"bengali","language_id":20},"transliteration":{"text":"rabbu","language_name":"english","language_id":38}},{"id":75663,"position":10,"audio_url":"wbw/023_116_011.mp3","char_type_name":"word","page_number":349,"line_number":12,"text":"ٱلْعَرْشِ","translation":{"text":"আরশের","language_name":"bengali","language_id":20},"transliteration":{"text":"l-ʿarshi","language_name":"english","language_id":38}},{"id":75664,"position":11,"audio_url":"wbw/023_116_012.mp3","char_type_name":"word","page_number":349,"line_number":12,"text":"ٱلْكَرِيمِ","translation":{"text":"মর্যাদাবান","language_name":"bengali","language_id":20},"transliteration":{"text":"l-karīmi","language_name":"english","language_id":38}},{"id":75665,"position":12,"audio_url":null,"char_type_name":"end","page_number":349,"line_number":12,"text":"١١٦","translation":{"text":"(১১৬)","language_name":"bengali","language_id":20},"transliteration":{"text":null,"language_name":"english","language_id":38}}]},{"id":2790,"verse_number":117,"verse_key":"23:117","hizb_number":35,"rub_el_hizb_number":139,"ruku_number":300,"manzil_number":4,"sajdah_number":null,"page_number":349,"juz_number":18,"words":[{"id":75821,"position":1,"audio_url":"wbw/023_117_001.mp3","char_type_name":"word","page_number":349,"line_number":12,"text":"وَمَن","translation":{"text":"আর যে কেউ","language_name":"bengali","language_id":20},"transliteration":{"text":"waman","language_name":"english","language_id":38}},{"id":75822,"position":2,"audio_url":"wbw/023_117_002.mp3","char_type_name":"word","page_number":349,"line_number":12,"text":"يَدْعُ","translation":{"text":"ডাকবে","language_name":"bengali","language_id":20},"transliteration":{"text":"yadʿu","language_name":"english","language_id":38}},{"id":75823,"position":3,"audio_url":"wbw/023_117_003.mp3","char_type_name":"word","page_number":349,"line_number":12,"text":"مَعَ","translation":{"text":"সাথে","language_name":"bengali","language_id":20},"transliteration":{"text":"maʿa","language_name":"english","language_id":38}},{"id":75824,"position":4,"audio_url":"wbw/023_117_004.mp3","char_type_name":"word","page_number":349,"line_number":12,"text":"ٱللَّهِ","translation":{"text":"আল্লাহর","language_name":"bengali","language_id":20},"transliteration":{"text":"l-lahi","language_name":"english","language_id":38}},{"id":75825,"position":5,"audio_url":"wbw/023_117_005.mp3","char_type_name":"word","page_number":349,"line_number":12,"text":"إِلَـٰهًا","translation":{"text":"ইলাহ (হিসেবে)","language_name":"bengali","language_id":20},"transliteration":{"text":"ilāhan","language_name":"english","language_id":38}},{"id":75826,"position":6,"audio_url":"wbw/023_117_006.mp3","char_type_name":"word","page_number":349,"line_number":13,"text":"ءَاخَرَ","translation":{"text":"অন্য (কাউকে)","language_name":"bengali","language_id":20},"transliteration":{"text":"ākhara","language_name":"english","language_id":38}},{"id":75827,"position":7,"audio_url":"wbw/023_117_007.mp3","char_type_name":"word","page_number":349,"line_number":13,"text":"لَا","translation":{"text":"নেই","language_name":"bengali","language_id":20},"transliteration":{"text":"lā","language_name":"english","language_id":38}},{"id":75828,"position":8,"audio_url":"wbw/023_117_008.mp3","char_type_name":"word","page_number":349,"line_number":13,"text":"بُرْهَـٰنَ","translation":{"text":"কোন প্রমাণ","language_name":"bengali","language_id":20},"transliteration":{"text":"bur'hāna","language_name":"english","language_id":38}},{"id":75829,"position":9,"audio_url":"wbw/023_117_009.mp3","char_type_name":"word","page_number":349,"line_number":13,"text":"لَهُۥ","translation":{"text":"জন্যে তার","language_name":"bengali","language_id":20},"transliteration":{"text":"lahu","language_name":"english","language_id":38}},{"id":75830,"position":10,"audio_url":"wbw/023_117_010.mp3","char_type_name":"word","page_number":349,"line_number":13,"text":"بِهِۦ","translation":{"text":"উপর এর","language_name":"bengali","language_id":20},"transliteration":{"text":"bihi","language_name":"english","language_id":38}},{"id":75831,"position":11,"audio_url":"wbw/023_117_011.mp3","char_type_name":"word","page_number":349,"line_number":13,"text":"فَإِنَّمَا","translation":{"text":"তবে প্রকৃতপক্ষে","language_name":"bengali","language_id":20},"transliteration":{"text":"fa-innamā","language_name":"english","language_id":38}},{"id":75832,"position":12,"audio_url":"wbw/023_117_012.mp3","char_type_name":"word","page_number":349,"line_number":13,"text":"حِسَابُهُۥ","translation":{"text":"তার হিসেব (হবে)","language_name":"bengali","language_id":20},"transliteration":{"text":"ḥisābuhu","language_name":"english","language_id":38}},{"id":75833,"position":13,"audio_url":"wbw/023_117_013.mp3","char_type_name":"word","page_number":349,"line_number":13,"text":"عِندَ","translation":{"text":"কাছে","language_name":"bengali","language_id":20},"transliteration":{"text":"ʿinda","language_name":"english","language_id":38}},{"id":75834,"position":14,"audio_url":"wbw/023_117_014.mp3","char_type_name":"word","page_number":349,"line_number":13,"text":"رَبِّهِۦٓ ۚ","translation":{"text":"তার রবের","language_name":"bengali","language_id":20},"transliteration":{"text":"rabbihi","language_name":"english","language_id":38}},{"id":75836,"position":15,"audio_url":"wbw/023_117_016.mp3","char_type_name":"word","page_number":349,"line_number":13,"text":"إِنَّهُۥ","translation":{"text":"নিশ্চয়ই","language_name":"bengali","language_id":20},"transliteration":{"text":"innahu","language_name":"english","language_id":38}},{"id":75837,"position":16,"audio_url":"wbw/023_117_017.mp3","char_type_name":"word","page_number":349,"line_number":13,"text":"لَا","translation":{"text":"না","language_name":"bengali","language_id":20},"transliteration":{"text":"lā","language_name":"english","language_id":38}},{"id":75838,"position":17,"audio_url":"wbw/023_117_018.mp3","char_type_name":"word","page_number":349,"line_number":13,"text":"يُفْلِحُ","translation":{"text":"সফলকাম হবে","language_name":"bengali","language_id":20},"transliteration":{"text":"yuf'liḥu","language_name":"english","language_id":38}},{"id":75839,"position":18,"audio_url":"wbw/023_117_019.mp3","char_type_name":"word","page_number":349,"line_number":14,"text":"ٱلْكَـٰفِرُونَ","translation":{"text":"কাফিররা","language_name":"bengali","language_id":20},"transliteration":{"text":"l-kāfirūna","language_name":"english","language_id":38}},{"id":75840,"position":19,"audio_url":null,"char_type_name":"end","page_number":349,"line_number":14,"text":"١١٧","translation":{"text":"(১১৭)","language_name":"bengali","language_id":20},"transliteration":{"text":null,"language_name":"english","language_id":38}}]},{"id":2791,"verse_number":118,"verse_key":"23:118","hizb_number":35,"rub_el_hizb_number":139,"ruku_number":300,"manzil_number":4,"sajdah_number":null,"page_number":349,"juz_number":18,"words":[{"id":76095,"position":1,"audio_url":"wbw/023_118_001.mp3","char_type_name":"word","page_number":349,"line_number":14,"text":"وَقُل","translation":{"text":"আর (হে নাবী) বলো","language_name":"bengali","language_id":20},"transliteration":{"text":"waqul","language_name":"english","language_id":38}},{"id":76096,"position":2,"audio_url":"wbw/023_118_002.mp3","char_type_name":"word","page_number":349,"line_number":14,"text":"رَّبِّ","translation":{"text":"\"হে আমার রব","language_name":"bengali","language_id":20},"transliteration":{"text":"rabbi","language_name":"english","language_id":38}},{"id":76097,"position":3,"audio_url":"wbw/023_118_003.mp3","char_type_name":"word","page_number":349,"line_number":14,"text":"ٱغْفِرْ","translation":{"text":"ক্ষমা করো","language_name":"bengali","language_id":20},"transliteration":{"text":"igh'fir","language_name":"english","language_id":38}},{"id":76098,"position":4,"audio_url":"wbw/023_118_004.mp3","char_type_name":"word","page_number":349,"line_number":14,"text":"وَٱرْحَمْ","translation":{"text":"আর দয়া করো","language_name":"bengali","language_id":20},"transliteration":{"text":"wa-ir'ḥam","language_name":"english","language_id":38}},{"id":76099,"position":5,"audio_url":"wbw/023_118_005.mp3","char_type_name":"word","page_number":349,"line_number":14,"text":"وَأَنتَ","translation":{"text":"আর তুমিই","language_name":"bengali","language_id":20},"transliteration":{"text":"wa-anta","language_name":"english","language_id":38}},{"id":76100,"position":6,"audio_url":"wbw/023_118_006.mp3","char_type_name":"word","page_number":349,"line_number":14,"text":"خَيْرُ","translation":{"text":"উত্তম","language_name":"bengali","language_id":20},"transliteration":{"text":"khayru","language_name":"english","language_id":38}},{"id":76101,"position":7,"audio_url":"wbw/023_118_007.mp3","char_type_name":"word","page_number":349,"line_number":14,"text":"ٱلرَّٰحِمِينَ","translation":{"text":"দয়াকারীদের","language_name":"bengali","language_id":20},"transliteration":{"text":"l-rāḥimīna","language_name":"english","language_id":38}},{"id":76102,"position":8,"audio_url":null,"char_type_name":"end","page_number":349,"line_number":14,"text":"١١٨","translation":{"text":"(১১৮)","language_name":"bengali","language_id":20},"transliteration":{"text":null,"language_name":"english","language_id":38}}]}],"pagination":{"per_page":10,"current_page":12,"next_page":null,"total_pages":12,"total_records":118}}
