{"verses":[{"id":2714,"verse_number":41,"verse_key":"23:41","hizb_number":35,"rub_el_hizb_number":138,"ruku_number":297,"manzil_number":4,"sajdah_number":null,"page_number":344,"juz_number":18,"words":[{"id":42216,"position":1,"audio_url":"wbw/023_041_001.mp3","char_type_name":"word","page_number":344,"line_number":14,"text":"فَأَخَذَتْهُمُ","translation":{"text":"অতঃপর তাদেরকে ধরলো","language_name":"bengali","language_id":20},"transliteration":{"text":"fa-akhadhathumu","language_name":"english","language_id":38}},{"id":42217,"position":2,"audio_url":"wbw/023_041_002.mp3","char_type_name":"word","page_number":344,"line_number":14,"text":"ٱلصَّيْحَةُ","translation":{"text":"এক মহাগর্জন","language_name":"bengali","language_id":20},"transliteration":{"text":"l-ṣayḥatu","language_name":"english","language_id":38}},{"id":42218,"position":3,"audio_url":"wbw/023_041_003.mp3","char_type_name":"word","page_number":344,"line_number":14,"text":"بِٱلْحَقِّ","translation":{"text":"সাথে ন্যায়ের","language_name":"bengali","language_id":20},"transliteration":{"text":"bil-ḥaqi","language_name":"english","language_id":38}},{"id":42219,"position":4,"audio_url":"wbw/023_041_004.mp3","char_type_name":"word","page_number":344,"line_number":14,"text":"فَجَعَلْنَـٰهُمْ","translation":{"text":"অতঃপর তাদেরকে আমরা করেছিলাম","language_name":"bengali","language_id":20},"transliteration":{"text":"fajaʿalnāhum","language_name":"english","language_id":38}},{"id":42220,"position":5,"audio_url":"wbw/023_041_005.mp3","char_type_name":"word","page_number":344,"line_number":14,"text":"غُثَآءًۭ ۚ","translation":{"text":"ঢেউ তাড়িত আবর্জনার (মতো)","language_name":"bengali","language_id":20},"transliteration":{"text":"ghuthāan","language_name":"english","language_id":38}},{"id":42222,"position":6,"audio_url":"wbw/023_041_007.mp3","char_type_name":"word","page_number":344,"line_number":14,"text":"فَبُعْدًۭا","translation":{"text":"সুতরাং দূর হোক (অর্থাৎ ধ্বংস আসুক)","language_name":"bengali","language_id":20},"transliteration":{"text":"fabuʿ'dan","language_name":"english","language_id":38}},{"id":42223,"position":7,"audio_url":"wbw/023_041_008.mp3","char_type_name":"word","page_number":344,"line_number":14,"text":"لِّلْقَوْمِ","translation":{"text":"জন্যে (এমন) জাতির","language_name":"bengali","language_id":20},"transliteration":{"text":"lil'qawmi","language_name":"english","language_id":38}},{"id":42224,"position":8,"audio_url":"wbw/023_041_009.mp3","char_type_name":"word","page_number":344,"line_number":15,"text":"ٱلظَّـٰلِمِينَ","translation":{"text":"(যারা) সীমালঙ্ঘনকারী","language_name":"bengali","language_id":20},"transliteration":{"text":"l-ẓālimīna","language_name":"english","language_id":38}},{"id":42225,"position":9,"audio_url":null,"char_type_name":"end","page_number":344,"line_number":15,"text":"٤١","translation":{"text":"(৪১)","language_name":"bengali","language_id":20},"transliteration":{"text":null,"language_name":"english","language_id":38}}]},{"id":2715,"verse_number":42,"verse_key":"23:42","hizb_number":35,"rub_el_hizb_number":138,"ruku_number":297,"manzil_number":4,"sajdah_number":null,"page_number":344,"juz_number":18,"words":[{"id":43340,"position":1,"audio_url":"wbw/023_042_001.mp3","char_type_name":"word","page_number":344,"line_number":15,"text":"ثُمَّ","translation":{"text":"এরপর","language_name":"bengali","language_id":20},"transliteration":{"text":"thumma","language_name":"english","language_id":38}},{"id":43341,"position":2,"audio_url":"wbw/023_042_002.mp3","char_type_name":"word","page_number":344,"line_number":15,"text":"أَنشَأْنَا","translation":{"text":"আমরা সৃষ্টি করলাম","language_name":"bengali","language_id":20},"transliteration":{"text":"anshanā","language_name":"english","language_id":38}},{"id":43342,"position":3,"audio_url":"wbw/023_042_003.mp3","char_type_name":"word","page_number":344,"line_number":15,"text":"مِنۢ","translation":{"text":"থেকে","language_name":"bengali","language_id":20},"transliteration":{"text":"min","language_name":"english","language_id":38}},{"id":43343,"position":4,"audio_url":"wbw/023_042_004.mp3","char_type_name":"word","page_number":344,"line_number":15,"text":"بَعْدِهِمْ","translation":{"text":"পর তাদের","language_name":"bengali","language_id":20},"transliteration":{"text":"baʿdihim","language_name":"english","language_id":38}},{"id":43344,"position":5,"audio_url":"wbw/023_042_005.mp3","char_type_name":"word","page_number":344,"line_number":15,"text":"قُرُونًا","translation":{"text":"(বহু) জাতি","language_name":"bengali","language_id":20},"transliteration":{"text":"qurūnan","language_name":"english","language_id":38}},{"id":43345,"position":6,"audio_url":"wbw/023_042_006.mp3","char_type_name":"word","page_number":344,"line_number":15,"text":"ءَاخَرِينَ","translation":{"text":"অন্যান্য","language_name":"bengali","language_id":20},"transliteration":{"text":"ākharīna","language_name":"english","language_id":38}},{"id":43346,"position":7,"audio_url":null,"char_type_name":"end","page_number":344,"line_number":15,"text":"٤٢","translation":{"text":"(৪২)","language_name":"bengali","language_id":20},"transliteration":{"text":null,"language_name":"english","language_id":38}}]},{"id":2716,"verse_number":43,"verse_key":"23:43","hizb_number":35,"rub_el_hizb_number":138,"ruku_number":297,"manzil_number":4,"sajdah_number":null,"page_number":345,"juz_number":18,"words":[{"id":43715,"position":1,"audio_url":"wbw/023_043_001.mp3","char_type_name":"word","page_number":345,"line_number":1,"text":"مَا","translation":{"text":"না","language_name":"bengali","language_id":20},"transliteration":{"text":"mā","language_name":"english","language_id":38}},{"id":43716,"position":2,"audio_url":"wbw/023_043_002.mp3","char_type_name":"word","page_number":345,"line_number":1,"text":"تَسْبِقُ","translation":{"text":"তাড়াতাড়ি এগিয়ে আনতে পারে","language_name":"bengali","language_id":20},"transliteration":{"text":"tasbiqu","language_name":"english","language_id":38}},{"id":43717,"position":3,"audio_url":"wbw/023_043_003.mp3","char_type_name":"word","page_number":345,"line_number":1,"text":"مِنْ","translation":{"text":"কোন","language_name":"bengali","language_id":20},"transliteration":{"text":"min","language_name":"english","language_id":38}},{"id":43718,"position":4,"audio_url":"wbw/023_043_004.mp3","char_type_name":"word","page_number":345,"line_number":1,"text":"أُمَّةٍ","translation":{"text":"জাতি","language_name":"bengali","language_id":20},"transliteration":{"text":"ummatin","language_name":"english","language_id":38}},{"id":43719,"position":5,"audio_url":"wbw/023_043_005.mp3","char_type_name":"word","page_number":345,"line_number":1,"text":"أَجَلَهَا","translation":{"text":"তার নির্ধারিত সময়","language_name":"bengali","language_id":20},"transliteration":{"text":"ajalahā","language_name":"english","language_id":38}},{"id":43720,"position":6,"audio_url":"wbw/023_043_006.mp3","char_type_name":"word","page_number":345,"line_number":1,"text":"وَمَا","translation":{"text":"আর না","language_name":"bengali","language_id":20},"transliteration":{"text":"wamā","language_name":"english","language_id":38}},{"id":43721,"position":7,"audio_url":"wbw/023_043_007.mp3","char_type_name":"word","page_number":345,"line_number":1,"text":"يَسْتَـْٔخِرُونَ","translation":{"text":"দেরি করতে পারে","language_name":"bengali","language_id":20},"transliteration":{"text":"yastakhirūna","language_name":"english","language_id":38}},{"id":43722,"position":8,"audio_url":null,"char_type_name":"end","page_number":345,"line_number":1,"text":"٤٣","translation":{"text":"(৪৩)","language_name":"bengali","language_id":20},"transliteration":{"text":null,"language_name":"english","language_id":38}}]},{"id":2717,"verse_number":44,"verse_key":"23:44","hizb_number":35,"rub_el_hizb_number":138,"ruku_number":297,"manzil_number":4,"sajdah_number":null,"page_number":345,"juz_number":18,"words":[{"id":44788,"position":1,"audio_url":"wbw/023_044_001.mp3","char_type_name":"word","page_number":345,"line_number":1,"text":"ثُمَّ","translation":{"text":"এরপর","language_name":"bengali","language_id":20},"transliteration":{"text":"thumma","language_name":"english","language_id":38}},{"id":44789,"position":2,"audio_url":"wbw/023_044_002.mp3","char_type_name":"word","page_number":345,"line_number":1,"text":"أَرْسَلْنَا","translation":{"text":"আমরা পাঠিয়েছি","language_name":"bengali","language_id":20},"transliteration":{"text":"arsalnā","language_name":"english","language_id":38}},{"id":44790,"position":3,"audio_url":"wbw/023_044_003.mp3","char_type_name":"word","page_number":345,"line_number":1,"text":"رُسُلَنَا","translation":{"text":"আমাদের রাসূলগণকে","language_name":"bengali","language_id":20},"transliteration":{"text":"rusulanā","language_name":"english","language_id":38}},{"id":44791,"position":4,"audio_url":"wbw/023_044_004.mp3","char_type_name":"word","page_number":345,"line_number":2,"text":"تَتْرَا ۖ","translation":{"text":"একের পর এক","language_name":"bengali","language_id":20},"transliteration":{"text":"tatrā","language_name":"english","language_id":38}},{"id":44793,"position":5,"audio_url":"wbw/023_044_006.mp3","char_type_name":"word","page_number":345,"line_number":2,"text":"كُلَّ","translation":{"text":"যখনই","language_name":"bengali","language_id":20},"transliteration":{"text":"kulla","language_name":"english","language_id":38}},{"id":44794,"position":6,"audio_url":"wbw/023_044_007.mp3","char_type_name":"word","page_number":345,"line_number":2,"text":"مَا","translation":{"text":"যা","language_name":"bengali","language_id":20},"transliteration":{"text":"mā","language_name":"english","language_id":38}},{"id":44795,"position":7,"audio_url":"wbw/023_044_008.mp3","char_type_name":"word","page_number":345,"line_number":2,"text":"جَآءَ","translation":{"text":"এসেছে","language_name":"bengali","language_id":20},"transliteration":{"text":"jāa","language_name":"english","language_id":38}},{"id":44796,"position":8,"audio_url":"wbw/023_044_009.mp3","char_type_name":"word","page_number":345,"line_number":2,"text":"أُمَّةًۭ","translation":{"text":"কোন জাতির (নিকট)","language_name":"bengali","language_id":20},"transliteration":{"text":"ummatan","language_name":"english","language_id":38}},{"id":44797,"position":9,"audio_url":"wbw/023_044_010.mp3","char_type_name":"word","page_number":345,"line_number":2,"text":"رَّسُولُهَا","translation":{"text":"তার রাসূল","language_name":"bengali","language_id":20},"transliteration":{"text":"rasūluhā","language_name":"english","language_id":38}},{"id":44798,"position":10,"audio_url":"wbw/023_044_011.mp3","char_type_name":"word","page_number":345,"line_number":2,"text":"كَذَّبُوهُ ۚ","translation":{"text":"তাকে তারা মিথ্যাবাদী বলেছে","language_name":"bengali","language_id":20},"transliteration":{"text":"kadhabūhu","language_name":"english","language_id":38}},{"id":44800,"position":11,"audio_url":"wbw/023_044_013.mp3","char_type_name":"word","page_number":345,"line_number":2,"text":"فَأَتْبَعْنَا","translation":{"text":"অতঃপর আমরা পিছনে চললাম (অর্থাৎ ধ্বংস করলাম)","language_name":"bengali","language_id":20},"transliteration":{"text":"fa-atbaʿnā","language_name":"english","language_id":38}},{"id":44801,"position":12,"audio_url":"wbw/023_044_014.mp3","char_type_name":"word","page_number":345,"line_number":2,"text":"بَعْضَهُم","translation":{"text":"তাদের একের পর","language_name":"bengali","language_id":20},"transliteration":{"text":"baʿḍahum","language_name":"english","language_id":38}},{"id":44802,"position":13,"audio_url":"wbw/023_044_015.mp3","char_type_name":"word","page_number":345,"line_number":2,"text":"بَعْضًۭا","translation":{"text":"এক","language_name":"bengali","language_id":20},"transliteration":{"text":"baʿḍan","language_name":"english","language_id":38}},{"id":44803,"position":14,"audio_url":"wbw/023_044_016.mp3","char_type_name":"word","page_number":345,"line_number":3,"text":"وَجَعَلْنَـٰهُمْ","translation":{"text":"ও আমরা বানিয়েছি তাদেরকে","language_name":"bengali","language_id":20},"transliteration":{"text":"wajaʿalnāhum","language_name":"english","language_id":38}},{"id":44804,"position":15,"audio_url":"wbw/023_044_017.mp3","char_type_name":"word","page_number":345,"line_number":3,"text":"أَحَادِيثَ ۚ","translation":{"text":"কাহিনীর (মতো)","language_name":"bengali","language_id":20},"transliteration":{"text":"aḥādītha","language_name":"english","language_id":38}},{"id":44806,"position":16,"audio_url":"wbw/023_044_019.mp3","char_type_name":"word","page_number":345,"line_number":3,"text":"فَبُعْدًۭا","translation":{"text":"সুতরাং দূর হোক (অর্থাৎ ধ্বংস আসুক)","language_name":"bengali","language_id":20},"transliteration":{"text":"fabuʿ'dan","language_name":"english","language_id":38}},{"id":44807,"position":17,"audio_url":"wbw/023_044_020.mp3","char_type_name":"word","page_number":345,"line_number":3,"text":"لِّقَوْمٍۢ","translation":{"text":"জন্যে (এমন) জাতির","language_name":"bengali","language_id":20},"transliteration":{"text":"liqawmin","language_name":"english","language_id":38}},{"id":44808,"position":18,"audio_url":"wbw/023_044_021.mp3","char_type_name":"word","page_number":345,"line_number":3,"text":"لَّا","translation":{"text":"(যারা) না","language_name":"bengali","language_id":20},"transliteration":{"text":"lā","language_name":"english","language_id":38}},{"id":44809,"position":19,"audio_url":"wbw/023_044_022.mp3","char_type_name":"word","page_number":345,"line_number":3,"text":"يُؤْمِنُونَ","translation":{"text":"ঈমান আনে","language_name":"bengali","language_id":20},"transliteration":{"text":"yu'minūna","language_name":"english","language_id":38}},{"id":44810,"position":20,"audio_url":null,"char_type_name":"end","page_number":345,"line_number":3,"text":"٤٤","translation":{"text":"(৪৪)","language_name":"bengali","language_id":20},"transliteration":{"text":null,"language_name":"english","language_id":38}}]},{"id":2718,"verse_number":45,"verse_key":"23:45","hizb_number":35,"rub_el_hizb_number":138,"ruku_number":297,"manzil_number":4,"sajdah_number":null,"page_number":345,"juz_number":18,"words":[{"id":45465,"position":1,"audio_url":"wbw/023_045_001.mp3","char_type_name":"word","page_number":345,"line_number":3,"text":"ثُمَّ","translation":{"text":"এরপর","language_name":"bengali","language_id":20},"transliteration":{"text":"thumma","language_name":"english","language_id":38}},{"id":45466,"position":2,"audio_url":"wbw/023_045_002.mp3","char_type_name":"word","page_number":345,"line_number":3,"text":"أَرْسَلْنَا","translation":{"text":"আমরা পাঠালাম","language_name":"bengali","language_id":20},"transliteration":{"text":"arsalnā","language_name":"english","language_id":38}},{"id":45467,"position":3,"audio_url":"wbw/023_045_003.mp3","char_type_name":"word","page_number":345,"line_number":3,"text":"مُوسَىٰ","translation":{"text":"মূসাকে","language_name":"bengali","language_id":20},"transliteration":{"text":"mūsā","language_name":"english","language_id":38}},{"id":45468,"position":4,"audio_url":"wbw/023_045_004.mp3","char_type_name":"word","page_number":345,"line_number":4,"text":"وَأَخَاهُ","translation":{"text":"ও তার ভাই","language_name":"bengali","language_id":20},"transliteration":{"text":"wa-akhāhu","language_name":"english","language_id":38}},{"id":45469,"position":5,"audio_url":"wbw/023_045_005.mp3","char_type_name":"word","page_number":345,"line_number":4,"text":"هَـٰرُونَ","translation":{"text":"হারূনকে","language_name":"bengali","language_id":20},"transliteration":{"text":"hārūna","language_name":"english","language_id":38}},{"id":45470,"position":6,"audio_url":"wbw/023_045_006.mp3","char_type_name":"word","page_number":345,"line_number":4,"text":"بِـَٔايَـٰتِنَا","translation":{"text":"সহ আমাদের নিদর্শনাবলী","language_name":"bengali","language_id":20},"transliteration":{"text":"biāyātinā","language_name":"english","language_id":38}},{"id":45471,"position":7,"audio_url":"wbw/023_045_007.mp3","char_type_name":"word","page_number":345,"line_number":4,"text":"وَسُلْطَـٰنٍۢ","translation":{"text":"ও প্রমাণ (সহ)","language_name":"bengali","language_id":20},"transliteration":{"text":"wasul'ṭānin","language_name":"english","language_id":38}},{"id":45472,"position":8,"audio_url":"wbw/023_045_008.mp3","char_type_name":"word","page_number":345,"line_number":4,"text":"مُّبِينٍ","translation":{"text":"সুস্পষ্ট","language_name":"bengali","language_id":20},"transliteration":{"text":"mubīnin","language_name":"english","language_id":38}},{"id":45473,"position":9,"audio_url":null,"char_type_name":"end","page_number":345,"line_number":4,"text":"٤٥","translation":{"text":"(৪৫)","language_name":"bengali","language_id":20},"transliteration":{"text":null,"language_name":"english","language_id":38}}]},{"id":2719,"verse_number":46,"verse_key":"23:46","hizb_number":35,"rub_el_hizb_number":138,"ruku_number":297,"manzil_number":4,"sajdah_number":null,"page_number":345,"juz_number":18,"words":[{"id":46221,"position":1,"audio_url":"wbw/023_046_001.mp3","char_type_name":"word","page_number":345,"line_number":4,"text":"إِلَىٰ","translation":{"text":"প্রতি","language_name":"bengali","language_id":20},"transliteration":{"text":"ilā","language_name":"english","language_id":38}},{"id":46222,"position":2,"audio_url":"wbw/023_046_002.mp3","char_type_name":"word","page_number":345,"line_number":4,"text":"فِرْعَوْنَ","translation":{"text":"ফিরআউনের","language_name":"bengali","language_id":20},"transliteration":{"text":"fir'ʿawna","language_name":"english","language_id":38}},{"id":46223,"position":3,"audio_url":"wbw/023_046_003.mp3","char_type_name":"word","page_number":345,"line_number":4,"text":"وَمَلَإِي۟هِۦ","translation":{"text":"ও তার সভাষদদের (প্রতি)","language_name":"bengali","language_id":20},"transliteration":{"text":"wamala-ihi","language_name":"english","language_id":38}},{"id":46224,"position":4,"audio_url":"wbw/023_046_004.mp3","char_type_name":"word","page_number":345,"line_number":5,"text":"فَٱسْتَكْبَرُوا۟","translation":{"text":"কিন্তু তারা অহংকার করলো","language_name":"bengali","language_id":20},"transliteration":{"text":"fa-is'takbarū","language_name":"english","language_id":38}},{"id":46225,"position":5,"audio_url":"wbw/023_046_005.mp3","char_type_name":"word","page_number":345,"line_number":5,"text":"وَكَانُوا۟","translation":{"text":"ও তারা ছিলো","language_name":"bengali","language_id":20},"transliteration":{"text":"wakānū","language_name":"english","language_id":38}},{"id":46226,"position":6,"audio_url":"wbw/023_046_006.mp3","char_type_name":"word","page_number":345,"line_number":5,"text":"قَوْمًا","translation":{"text":"জাতি","language_name":"bengali","language_id":20},"transliteration":{"text":"qawman","language_name":"english","language_id":38}},{"id":46227,"position":7,"audio_url":"wbw/023_046_007.mp3","char_type_name":"word","page_number":345,"line_number":5,"text":"عَالِينَ","translation":{"text":"উদ্ধত","language_name":"bengali","language_id":20},"transliteration":{"text":"ʿālīna","language_name":"english","language_id":38}},{"id":46228,"position":8,"audio_url":null,"char_type_name":"end","page_number":345,"line_number":5,"text":"٤٦","translation":{"text":"(৪৬)","language_name":"bengali","language_id":20},"transliteration":{"text":null,"language_name":"english","language_id":38}}]},{"id":2720,"verse_number":47,"verse_key":"23:47","hizb_number":35,"rub_el_hizb_number":138,"ruku_number":297,"manzil_number":4,"sajdah_number":null,"page_number":345,"juz_number":18,"words":[{"id":46835,"position":1,"audio_url":"wbw/023_047_001.mp3","char_type_name":"word","page_number":345,"line_number":5,"text":"فَقَالُوٓا۟","translation":{"text":"অতঃপর তারা বললো","language_name":"bengali","language_id":20},"transliteration":{"text":"faqālū","language_name":"english","language_id":38}},{"id":46836,"position":2,"audio_url":"wbw/023_047_002.mp3","char_type_name":"word","page_number":345,"line_number":5,"text":"أَنُؤْمِنُ","translation":{"text":"\"কি ঈমান আনবো আমরা","language_name":"bengali","language_id":20},"transliteration":{"text":"anu'minu","language_name":"english","language_id":38}},{"id":46837,"position":3,"audio_url":"wbw/023_047_003.mp3","char_type_name":"word","page_number":345,"line_number":5,"text":"لِبَشَرَيْنِ","translation":{"text":"মানুষের উপর দুজন","language_name":"bengali","language_id":20},"transliteration":{"text":"libasharayni","language_name":"english","language_id":38}},{"id":46838,"position":4,"audio_url":"wbw/023_047_004.mp3","char_type_name":"word","page_number":345,"line_number":5,"text":"مِثْلِنَا","translation":{"text":"আমাদের মতো","language_name":"bengali","language_id":20},"transliteration":{"text":"mith'linā","language_name":"english","language_id":38}},{"id":46839,"position":5,"audio_url":"wbw/023_047_005.mp3","char_type_name":"word","page_number":345,"line_number":6,"text":"وَقَوْمُهُمَا","translation":{"text":"অথচ তাদের উভয়ের জাতি","language_name":"bengali","language_id":20},"transliteration":{"text":"waqawmuhumā","language_name":"english","language_id":38}},{"id":46840,"position":6,"audio_url":"wbw/023_047_006.mp3","char_type_name":"word","page_number":345,"line_number":6,"text":"لَنَا","translation":{"text":"জন্যে আমাদের","language_name":"bengali","language_id":20},"transliteration":{"text":"lanā","language_name":"english","language_id":38}},{"id":46841,"position":7,"audio_url":"wbw/023_047_007.mp3","char_type_name":"word","page_number":345,"line_number":6,"text":"عَـٰبِدُونَ","translation":{"text":"দাস-দাসী (হয়ে আছে)\"","language_name":"bengali","language_id":20},"transliteration":{"text":"ʿābidūna","language_name":"english","language_id":38}},{"id":46842,"position":8,"audio_url":null,"char_type_name":"end","page_number":345,"line_number":6,"text":"٤٧","translation":{"text":"(৪৭)","language_name":"bengali","language_id":20},"transliteration":{"text":null,"language_name":"english","language_id":38}}]},{"id":2721,"verse_number":48,"verse_key":"23:48","hizb_number":35,"rub_el_hizb_number":138,"ruku_number":297,"manzil_number":4,"sajdah_number":null,"page_number":345,"juz_number":18,"words":[{"id":47372,"position":1,"audio_url":"wbw/023_048_001.mp3","char_type_name":"word","page_number":345,"line_number":6,"text":"فَكَذَّبُوهُمَا","translation":{"text":"অতএব উভয়কে তারা মিথ্যারোপ করলো","language_name":"bengali","language_id":20},"transliteration":{"text":"fakadhabūhumā","language_name":"english","language_id":38}},{"id":47373,"position":2,"audio_url":"wbw/023_048_002.mp3","char_type_name":"word","page_number":345,"line_number":6,"text":"فَكَانُوا۟","translation":{"text":"অতঃপর তারা হলো","language_name":"bengali","language_id":20},"transliteration":{"text":"fakānū","language_name":"english","language_id":38}},{"id":47374,"position":3,"audio_url":"wbw/023_048_003.mp3","char_type_name":"word","page_number":345,"line_number":6,"text":"مِنَ","translation":{"text":"অন্তর্ভুক্ত","language_name":"bengali","language_id":20},"transliteration":{"text":"mina","language_name":"english","language_id":38}},{"id":47375,"position":4,"audio_url":"wbw/023_048_004.mp3","char_type_name":"word","page_number":345,"line_number":6,"text":"ٱلْمُهْلَكِينَ","translation":{"text":"ধ্বংসপ্রাপ্তদের","language_name":"bengali","language_id":20},"transliteration":{"text":"l-muh'lakīna","language_name":"english","language_id":38}},{"id":47376,"position":5,"audio_url":null,"char_type_name":"end","page_number":345,"line_number":7,"text":"٤٨","translation":{"text":"(৪৮)","language_name":"bengali","language_id":20},"transliteration":{"text":null,"language_name":"english","language_id":38}}]},{"id":2722,"verse_number":49,"verse_key":"23:49","hizb_number":35,"rub_el_hizb_number":138,"ruku_number":297,"manzil_number":4,"sajdah_number":null,"page_number":345,"juz_number":18,"words":[{"id":47940,"position":1,"audio_url":"wbw/023_049_001.mp3","char_type_name":"word","page_number":345,"line_number":7,"text":"وَلَقَدْ","translation":{"text":"আর নিশ্চয়ই","language_name":"bengali","language_id":20},"transliteration":{"text":"walaqad","language_name":"english","language_id":38}},{"id":47941,"position":2,"audio_url":"wbw/023_049_002.mp3","char_type_name":"word","page_number":345,"line_number":7,"text":"ءَاتَيْنَا","translation":{"text":"আমরা দিয়েছিলাম","language_name":"bengali","language_id":20},"transliteration":{"text":"ātaynā","language_name":"english","language_id":38}},{"id":47942,"position":3,"audio_url":"wbw/023_049_003.mp3","char_type_name":"word","page_number":345,"line_number":7,"text":"مُوسَى","translation":{"text":"মূসাকে","language_name":"bengali","language_id":20},"transliteration":{"text":"mūsā","language_name":"english","language_id":38}},{"id":47943,"position":4,"audio_url":"wbw/023_049_004.mp3","char_type_name":"word","page_number":345,"line_number":7,"text":"ٱلْكِتَـٰبَ","translation":{"text":"কিতাব","language_name":"bengali","language_id":20},"transliteration":{"text":"l-kitāba","language_name":"english","language_id":38}},{"id":47944,"position":5,"audio_url":"wbw/023_049_005.mp3","char_type_name":"word","page_number":345,"line_number":7,"text":"لَعَلَّهُمْ","translation":{"text":"যাতে তারা","language_name":"bengali","language_id":20},"transliteration":{"text":"laʿallahum","language_name":"english","language_id":38}},{"id":47945,"position":6,"audio_url":"wbw/023_049_006.mp3","char_type_name":"word","page_number":345,"line_number":7,"text":"يَهْتَدُونَ","translation":{"text":"সৎ পথ পায়","language_name":"bengali","language_id":20},"transliteration":{"text":"yahtadūna","language_name":"english","language_id":38}},{"id":47946,"position":7,"audio_url":null,"char_type_name":"end","page_number":345,"line_number":7,"text":"٤٩","translation":{"text":"(৪৯)","language_name":"bengali","language_id":20},"transliteration":{"text":null,"language_name":"english","language_id":38}}]},{"id":2723,"verse_number":50,"verse_key":"23:50","hizb_number":35,"rub_el_hizb_number":138,"ruku_number":297,"manzil_number":4,"sajdah_number":null,"page_number":345,"juz_number":18,"words":[{"id":48941,"position":1,"audio_url":"wbw/023_050_001.mp3","char_type_name":"word","page_number":345,"line_number":7,"text":"وَجَعَلْنَا","translation":{"text":"আর আমরা করেছি","language_name":"bengali","language_id":20},"transliteration":{"text":"wajaʿalnā","language_name":"english","language_id":38}},{"id":48942,"position":2,"audio_url":"wbw/023_050_002.mp3","char_type_name":"word","page_number":345,"line_number":8,"text":"ٱبْنَ","translation":{"text":"পুত্রকে","language_name":"bengali","language_id":20},"transliteration":{"text":"ib'na","language_name":"english","language_id":38}},{"id":48943,"position":3,"audio_url":"wbw/023_050_003.mp3","char_type_name":"word","page_number":345,"line_number":8,"text":"مَرْيَمَ","translation":{"text":"মারইয়ামের","language_name":"bengali","language_id":20},"transliteration":{"text":"maryama","language_name":"english","language_id":38}},{"id":48944,"position":4,"audio_url":"wbw/023_050_004.mp3","char_type_name":"word","page_number":345,"line_number":8,"text":"وَأُمَّهُۥٓ","translation":{"text":"ও তার মাকে","language_name":"bengali","language_id":20},"transliteration":{"text":"wa-ummahu","language_name":"english","language_id":38}},{"id":48945,"position":5,"audio_url":"wbw/023_050_005.mp3","char_type_name":"word","page_number":345,"line_number":8,"text":"ءَايَةًۭ","translation":{"text":"এক নিদর্শন","language_name":"bengali","language_id":20},"transliteration":{"text":"āyatan","language_name":"english","language_id":38}},{"id":48946,"position":6,"audio_url":"wbw/023_050_006.mp3","char_type_name":"word","page_number":345,"line_number":8,"text":"وَءَاوَيْنَـٰهُمَآ","translation":{"text":"এবং উভয়কে আশ্রয় দিয়েছিলাম আমরা","language_name":"bengali","language_id":20},"transliteration":{"text":"waāwaynāhumā","language_name":"english","language_id":38}},{"id":48947,"position":7,"audio_url":"wbw/023_050_007.mp3","char_type_name":"word","page_number":345,"line_number":8,"text":"إِلَىٰ","translation":{"text":"দিকে","language_name":"bengali","language_id":20},"transliteration":{"text":"ilā","language_name":"english","language_id":38}},{"id":48948,"position":8,"audio_url":"wbw/023_050_008.mp3","char_type_name":"word","page_number":345,"line_number":8,"text":"رَبْوَةٍۢ","translation":{"text":"উচ্চভূমির","language_name":"bengali","language_id":20},"transliteration":{"text":"rabwatin","language_name":"english","language_id":38}},{"id":48949,"position":9,"audio_url":"wbw/023_050_009.mp3","char_type_name":"word","page_number":345,"line_number":8,"text":"ذَاتِ","translation":{"text":"উপযোগী","language_name":"bengali","language_id":20},"transliteration":{"text":"dhāti","language_name":"english","language_id":38}},{"id":48950,"position":10,"audio_url":"wbw/023_050_010.mp3","char_type_name":"word","page_number":345,"line_number":8,"text":"قَرَارٍۢ","translation":{"text":"অবস্থানের","language_name":"bengali","language_id":20},"transliteration":{"text":"qarārin","language_name":"english","language_id":38}},{"id":48951,"position":11,"audio_url":"wbw/023_050_011.mp3","char_type_name":"word","page_number":345,"line_number":8,"text":"وَمَعِينٍۢ","translation":{"text":"ও ঝর্ণা (বিশিষ্ট)","language_name":"bengali","language_id":20},"transliteration":{"text":"wamaʿīnin","language_name":"english","language_id":38}},{"id":48952,"position":12,"audio_url":null,"char_type_name":"end","page_number":345,"line_number":9,"text":"٥٠","translation":{"text":"(৫০)","language_name":"bengali","language_id":20},"transliteration":{"text":null,"language_name":"english","language_id":38}}]}],"pagination":{"per_page":10,"current_page":5,"next_page":6,"total_pages":12,"total_records":118}}
