{"verses":[{"id":1707,"verse_number":111,"verse_key":"12:111","hizb_number":25,"rub_el_hizb_number":99,"ruku_number":204,"manzil_number":3,"sajdah_number":null,"page_number":248,"juz_number":13,"words":[{"id":74557,"position":1,"audio_url":"wbw/012_111_001.mp3","verse_key":"12:111","verse_id":1707,"location":"12:111:1","text_uthmani":"لَقَدْ","qpc_uthmani_hafs":"لَقَدۡ","char_type_name":"word","page_number":248,"line_number":13,"text":"لَقَدۡ","translation":{"text":"নিশ্চয়ই","language_name":"bengali","language_id":20},"transliteration":{"text":"laqad","language_name":"english","language_id":38}},{"id":74558,"position":2,"audio_url":"wbw/012_111_002.mp3","verse_key":"12:111","verse_id":1707,"location":"12:111:2","text_uthmani":"كَانَ","qpc_uthmani_hafs":"كَانَ","char_type_name":"word","page_number":248,"line_number":13,"text":"كَانَ","translation":{"text":"রয়েছে","language_name":"bengali","language_id":20},"transliteration":{"text":"kāna","language_name":"english","language_id":38}},{"id":74559,"position":3,"audio_url":"wbw/012_111_003.mp3","verse_key":"12:111","verse_id":1707,"location":"12:111:3","text_uthmani":"فِى","qpc_uthmani_hafs":"فِي","char_type_name":"word","page_number":248,"line_number":13,"text":"فِي","translation":{"text":"মধ্যে","language_name":"bengali","language_id":20},"transliteration":{"text":"fī","language_name":"english","language_id":38}},{"id":74560,"position":4,"audio_url":"wbw/012_111_004.mp3","verse_key":"12:111","verse_id":1707,"location":"12:111:4","text_uthmani":"قَصَصِهِمْ","qpc_uthmani_hafs":"قَصَصِهِمۡ","char_type_name":"word","page_number":248,"line_number":13,"text":"قَصَصِهِمۡ","translation":{"text":"তাদের কাহিনীগুলোর","language_name":"bengali","language_id":20},"transliteration":{"text":"qaṣaṣihim","language_name":"english","language_id":38}},{"id":74561,"position":5,"audio_url":"wbw/012_111_005.mp3","verse_key":"12:111","verse_id":1707,"location":"12:111:5","text_uthmani":"عِبْرَةٌۭ","qpc_uthmani_hafs":"عِبۡرَةٞ","char_type_name":"word","page_number":248,"line_number":13,"text":"عِبۡرَةٞ","translation":{"text":"শিক্ষা","language_name":"bengali","language_id":20},"transliteration":{"text":"ʿib'ratun","language_name":"english","language_id":38}},{"id":74562,"position":6,"audio_url":"wbw/012_111_006.mp3","verse_key":"12:111","verse_id":1707,"location":"12:111:6","text_uthmani":"لِّأُو۟لِى","qpc_uthmani_hafs":"لِّأُوْلِي","char_type_name":"word","page_number":248,"line_number":13,"text":"لِّأُوْلِي","translation":{"text":"জন্যে সম্পন্নদের","language_name":"bengali","language_id":20},"transliteration":{"text":"li-ulī","language_name":"english","language_id":38}},{"id":74563,"position":7,"audio_url":"wbw/012_111_007.mp3","verse_key":"12:111","verse_id":1707,"location":"12:111:7","text_uthmani":"ٱلْأَلْبَـٰبِ ۗ","qpc_uthmani_hafs":"ٱلۡأَلۡبَٰبِۗ","char_type_name":"word","page_number":248,"line_number":13,"text":"ٱلۡأَلۡبَٰبِۗ","translation":{"text":"জ্ঞানবুদ্ধি","language_name":"bengali","language_id":20},"transliteration":{"text":"l-albābi","language_name":"english","language_id":38}},{"id":74565,"position":8,"audio_url":"wbw/012_111_009.mp3","verse_key":"12:111","verse_id":1707,"location":"12:111:8","text_uthmani":"مَا","qpc_uthmani_hafs":"مَا","char_type_name":"word","page_number":248,"line_number":14,"text":"مَا","translation":{"text":"না","language_name":"bengali","language_id":20},"transliteration":{"text":"mā","language_name":"english","language_id":38}},{"id":74566,"position":9,"audio_url":"wbw/012_111_010.mp3","verse_key":"12:111","verse_id":1707,"location":"12:111:9","text_uthmani":"كَانَ","qpc_uthmani_hafs":"كَانَ","char_type_name":"word","page_number":248,"line_number":14,"text":"كَانَ","translation":{"text":"ছিলো","language_name":"bengali","language_id":20},"transliteration":{"text":"kāna","language_name":"english","language_id":38}},{"id":74567,"position":10,"audio_url":"wbw/012_111_011.mp3","verse_key":"12:111","verse_id":1707,"location":"12:111:10","text_uthmani":"حَدِيثًۭا","qpc_uthmani_hafs":"حَدِيثٗا","char_type_name":"word","page_number":248,"line_number":14,"text":"حَدِيثٗا","translation":{"text":"এ কথা","language_name":"bengali","language_id":20},"transliteration":{"text":"ḥadīthan","language_name":"english","language_id":38}},{"id":74568,"position":11,"audio_url":"wbw/012_111_012.mp3","verse_key":"12:111","verse_id":1707,"location":"12:111:11","text_uthmani":"يُفْتَرَىٰ","qpc_uthmani_hafs":"يُفۡتَرَىٰ","char_type_name":"word","page_number":248,"line_number":14,"text":"يُفۡتَرَىٰ","translation":{"text":"মনগড়া","language_name":"bengali","language_id":20},"transliteration":{"text":"yuf'tarā","language_name":"english","language_id":38}},{"id":74569,"position":12,"audio_url":"wbw/012_111_013.mp3","verse_key":"12:111","verse_id":1707,"location":"12:111:12","text_uthmani":"وَلَـٰكِن","qpc_uthmani_hafs":"وَلَٰكِن","char_type_name":"word","page_number":248,"line_number":14,"text":"وَلَٰكِن","translation":{"text":"কিন্তু","language_name":"bengali","language_id":20},"transliteration":{"text":"walākin","language_name":"english","language_id":38}},{"id":74570,"position":13,"audio_url":"wbw/012_111_014.mp3","verse_key":"12:111","verse_id":1707,"location":"12:111:13","text_uthmani":"تَصْدِيقَ","qpc_uthmani_hafs":"تَصۡدِيقَ","char_type_name":"word","page_number":248,"line_number":14,"text":"تَصۡدِيقَ","translation":{"text":"সত্যায়নকারী","language_name":"bengali","language_id":20},"transliteration":{"text":"taṣdīqa","language_name":"english","language_id":38}},{"id":74571,"position":14,"audio_url":"wbw/012_111_015.mp3","verse_key":"12:111","verse_id":1707,"location":"12:111:14","text_uthmani":"ٱلَّذِى","qpc_uthmani_hafs":"ٱلَّذِي","char_type_name":"word","page_number":248,"line_number":14,"text":"ٱلَّذِي","translation":{"text":"যা","language_name":"bengali","language_id":20},"transliteration":{"text":"alladhī","language_name":"english","language_id":38}},{"id":74572,"position":15,"audio_url":"wbw/012_111_016.mp3","verse_key":"12:111","verse_id":1707,"location":"12:111:15","text_uthmani":"بَيْنَ","qpc_uthmani_hafs":"بَيۡنَ","char_type_name":"word","page_number":248,"line_number":14,"text":"بَيۡنَ","translation":{"text":"বিদ্যমান","language_name":"bengali","language_id":20},"transliteration":{"text":"bayna","language_name":"english","language_id":38}},{"id":74573,"position":16,"audio_url":"wbw/012_111_017.mp3","verse_key":"12:111","verse_id":1707,"location":"12:111:16","text_uthmani":"يَدَيْهِ","qpc_uthmani_hafs":"يَدَيۡهِ","char_type_name":"word","page_number":248,"line_number":14,"text":"يَدَيۡهِ","translation":{"text":"তার সামনে","language_name":"bengali","language_id":20},"transliteration":{"text":"yadayhi","language_name":"english","language_id":38}},{"id":74574,"position":17,"audio_url":"wbw/012_111_018.mp3","verse_key":"12:111","verse_id":1707,"location":"12:111:17","text_uthmani":"وَتَفْصِيلَ","qpc_uthmani_hafs":"وَتَفۡصِيلَ","char_type_name":"word","page_number":248,"line_number":15,"text":"وَتَفۡصِيلَ","translation":{"text":"এবং বিশদ ব্যাখ্যা","language_name":"bengali","language_id":20},"transliteration":{"text":"watafṣīla","language_name":"english","language_id":38}},{"id":74575,"position":18,"audio_url":"wbw/012_111_019.mp3","verse_key":"12:111","verse_id":1707,"location":"12:111:18","text_uthmani":"كُلِّ","qpc_uthmani_hafs":"كُلِّ","char_type_name":"word","page_number":248,"line_number":15,"text":"كُلِّ","translation":{"text":"সব","language_name":"bengali","language_id":20},"transliteration":{"text":"kulli","language_name":"english","language_id":38}},{"id":74576,"position":19,"audio_url":"wbw/012_111_020.mp3","verse_key":"12:111","verse_id":1707,"location":"12:111:19","text_uthmani":"شَىْءٍۢ","qpc_uthmani_hafs":"شَيۡءٖ","char_type_name":"word","page_number":248,"line_number":15,"text":"شَيۡءٖ","translation":{"text":"কিছুর","language_name":"bengali","language_id":20},"transliteration":{"text":"shayin","language_name":"english","language_id":38}},{"id":74577,"position":20,"audio_url":"wbw/012_111_021.mp3","verse_key":"12:111","verse_id":1707,"location":"12:111:20","text_uthmani":"وَهُدًۭى","qpc_uthmani_hafs":"وَهُدٗى","char_type_name":"word","page_number":248,"line_number":15,"text":"وَهُدٗى","translation":{"text":"এবং দিশা","language_name":"bengali","language_id":20},"transliteration":{"text":"wahudan","language_name":"english","language_id":38}},{"id":74578,"position":21,"audio_url":"wbw/012_111_022.mp3","verse_key":"12:111","verse_id":1707,"location":"12:111:21","text_uthmani":"وَرَحْمَةًۭ","qpc_uthmani_hafs":"وَرَحۡمَةٗ","char_type_name":"word","page_number":248,"line_number":15,"text":"وَرَحۡمَةٗ","translation":{"text":"ও অনুগ্রহ","language_name":"bengali","language_id":20},"transliteration":{"text":"waraḥmatan","language_name":"english","language_id":38}},{"id":74579,"position":22,"audio_url":"wbw/012_111_023.mp3","verse_key":"12:111","verse_id":1707,"location":"12:111:22","text_uthmani":"لِّقَوْمٍۢ","qpc_uthmani_hafs":"لِّقَوۡمٖ","char_type_name":"word","page_number":248,"line_number":15,"text":"لِّقَوۡمٖ","translation":{"text":"লোকদের জন্যে","language_name":"bengali","language_id":20},"transliteration":{"text":"liqawmin","language_name":"english","language_id":38}},{"id":74580,"position":23,"audio_url":"wbw/012_111_024.mp3","verse_key":"12:111","verse_id":1707,"location":"12:111:23","text_uthmani":"يُؤْمِنُونَ","qpc_uthmani_hafs":"يُؤۡمِنُونَ","char_type_name":"word","page_number":248,"line_number":15,"text":"يُؤۡمِنُونَ","translation":{"text":"(যারা) ঈমান আনে","language_name":"bengali","language_id":20},"transliteration":{"text":"yu'minūna","language_name":"english","language_id":38}},{"id":74581,"position":24,"audio_url":null,"verse_key":"12:111","verse_id":1707,"location":"12:111:24","text_uthmani":"١١١","qpc_uthmani_hafs":"١١١","char_type_name":"end","page_number":248,"line_number":15,"text":"١١١","translation":{"text":"(১১১)","language_name":"bengali","language_id":20},"transliteration":{"text":null,"language_name":"english","language_id":38}}]}],"pagination":{"per_page":10,"current_page":12,"next_page":null,"total_pages":12,"total_records":111}}
