{"verses":[{"id":4686,"verse_number":11,"verse_key":"51:11","hizb_number":52,"rub_el_hizb_number":208,"ruku_number":457,"manzil_number":7,"sajdah_number":null,"page_number":521,"juz_number":26,"words":[{"id":12440,"position":1,"audio_url":"wbw/051_011_001.mp3","verse_key":"51:11","verse_id":4686,"location":"51:11:1","text_uthmani":"ٱلَّذِينَ","qpc_uthmani_hafs":"ٱلَّذِينَ","char_type_name":"word","page_number":521,"line_number":2,"text":"ٱلَّذِينَ","translation":{"text":"Those who","language_name":"english","language_id":38},"transliteration":{"text":"alladhīna","language_name":"english","language_id":38}},{"id":12441,"position":2,"audio_url":"wbw/051_011_002.mp3","verse_key":"51:11","verse_id":4686,"location":"51:11:2","text_uthmani":"هُمْ","qpc_uthmani_hafs":"هُمۡ","char_type_name":"word","page_number":521,"line_number":2,"text":"هُمۡ","translation":{"text":"[they]","language_name":"english","language_id":38},"transliteration":{"text":"hum","language_name":"english","language_id":38}},{"id":12442,"position":3,"audio_url":"wbw/051_011_003.mp3","verse_key":"51:11","verse_id":4686,"location":"51:11:3","text_uthmani":"فِى","qpc_uthmani_hafs":"فِي","char_type_name":"word","page_number":521,"line_number":2,"text":"فِي","translation":{"text":"(are) in","language_name":"english","language_id":38},"transliteration":{"text":"fī","language_name":"english","language_id":38}},{"id":12443,"position":4,"audio_url":"wbw/051_011_004.mp3","verse_key":"51:11","verse_id":4686,"location":"51:11:4","text_uthmani":"غَمْرَةٍۢ","qpc_uthmani_hafs":"غَمۡرَةٖ","char_type_name":"word","page_number":521,"line_number":2,"text":"غَمۡرَةٖ","translation":{"text":"flood","language_name":"english","language_id":38},"transliteration":{"text":"ghamratin","language_name":"english","language_id":38}},{"id":12444,"position":5,"audio_url":"wbw/051_011_005.mp3","verse_key":"51:11","verse_id":4686,"location":"51:11:5","text_uthmani":"سَاهُونَ","qpc_uthmani_hafs":"سَاهُونَ","char_type_name":"word","page_number":521,"line_number":2,"text":"سَاهُونَ","translation":{"text":"(of) heedlessness","language_name":"english","language_id":38},"transliteration":{"text":"sāhūna","language_name":"english","language_id":38}},{"id":12445,"position":6,"audio_url":null,"verse_key":"51:11","verse_id":4686,"location":"51:11:6","text_uthmani":"١١","qpc_uthmani_hafs":"١١","char_type_name":"end","page_number":521,"line_number":2,"text":"١١","translation":{"text":"(11)","language_name":"english","language_id":38},"transliteration":{"text":null,"language_name":"english","language_id":38}}]},{"id":4687,"verse_number":12,"verse_key":"51:12","hizb_number":52,"rub_el_hizb_number":208,"ruku_number":457,"manzil_number":7,"sajdah_number":null,"page_number":521,"juz_number":26,"words":[{"id":13752,"position":1,"audio_url":"wbw/051_012_001.mp3","verse_key":"51:12","verse_id":4687,"location":"51:12:1","text_uthmani":"يَسْـَٔلُونَ","qpc_uthmani_hafs":"يَسۡـَٔلُونَ","char_type_name":"word","page_number":521,"line_number":2,"text":"يَسۡـَٔلُونَ","translation":{"text":"They ask","language_name":"english","language_id":38},"transliteration":{"text":"yasalūna","language_name":"english","language_id":38}},{"id":13753,"position":2,"audio_url":"wbw/051_012_002.mp3","verse_key":"51:12","verse_id":4687,"location":"51:12:2","text_uthmani":"أَيَّانَ","qpc_uthmani_hafs":"أَيَّانَ","char_type_name":"word","page_number":521,"line_number":3,"text":"أَيَّانَ","translation":{"text":"When","language_name":"english","language_id":38},"transliteration":{"text":"ayyāna","language_name":"english","language_id":38}},{"id":13754,"position":3,"audio_url":"wbw/051_012_003.mp3","verse_key":"51:12","verse_id":4687,"location":"51:12:3","text_uthmani":"يَوْمُ","qpc_uthmani_hafs":"يَوۡمُ","char_type_name":"word","page_number":521,"line_number":3,"text":"يَوۡمُ","translation":{"text":"(is the) Day","language_name":"english","language_id":38},"transliteration":{"text":"yawmu","language_name":"english","language_id":38}},{"id":13755,"position":4,"audio_url":"wbw/051_012_004.mp3","verse_key":"51:12","verse_id":4687,"location":"51:12:4","text_uthmani":"ٱلدِّينِ","qpc_uthmani_hafs":"ٱلدِّينِ","char_type_name":"word","page_number":521,"line_number":3,"text":"ٱلدِّينِ","translation":{"text":"(of) Judgment","language_name":"english","language_id":38},"transliteration":{"text":"l-dīni","language_name":"english","language_id":38}},{"id":13756,"position":5,"audio_url":null,"verse_key":"51:12","verse_id":4687,"location":"51:12:5","text_uthmani":"١٢","qpc_uthmani_hafs":"١٢","char_type_name":"end","page_number":521,"line_number":3,"text":"١٢","translation":{"text":"(12)","language_name":"english","language_id":38},"transliteration":{"text":null,"language_name":"english","language_id":38}}]},{"id":4688,"verse_number":13,"verse_key":"51:13","hizb_number":52,"rub_el_hizb_number":208,"ruku_number":457,"manzil_number":7,"sajdah_number":null,"page_number":521,"juz_number":26,"words":[{"id":14907,"position":1,"audio_url":"wbw/051_013_001.mp3","verse_key":"51:13","verse_id":4688,"location":"51:13:1","text_uthmani":"يَوْمَ","qpc_uthmani_hafs":"يَوۡمَ","char_type_name":"word","page_number":521,"line_number":3,"text":"يَوۡمَ","translation":{"text":"A Day","language_name":"english","language_id":38},"transliteration":{"text":"yawma","language_name":"english","language_id":38}},{"id":14908,"position":2,"audio_url":"wbw/051_013_002.mp3","verse_key":"51:13","verse_id":4688,"location":"51:13:2","text_uthmani":"هُمْ","qpc_uthmani_hafs":"هُمۡ","char_type_name":"word","page_number":521,"line_number":3,"text":"هُمۡ","translation":{"text":"they","language_name":"english","language_id":38},"transliteration":{"text":"hum","language_name":"english","language_id":38}},{"id":14909,"position":3,"audio_url":"wbw/051_013_003.mp3","verse_key":"51:13","verse_id":4688,"location":"51:13:3","text_uthmani":"عَلَى","qpc_uthmani_hafs":"عَلَى","char_type_name":"word","page_number":521,"line_number":3,"text":"عَلَى","translation":{"text":"over","language_name":"english","language_id":38},"transliteration":{"text":"ʿalā","language_name":"english","language_id":38}},{"id":14910,"position":4,"audio_url":"wbw/051_013_004.mp3","verse_key":"51:13","verse_id":4688,"location":"51:13:4","text_uthmani":"ٱلنَّارِ","qpc_uthmani_hafs":"ٱلنَّارِ","char_type_name":"word","page_number":521,"line_number":3,"text":"ٱلنَّارِ","translation":{"text":"the Fire","language_name":"english","language_id":38},"transliteration":{"text":"l-nāri","language_name":"english","language_id":38}},{"id":14911,"position":5,"audio_url":"wbw/051_013_005.mp3","verse_key":"51:13","verse_id":4688,"location":"51:13:5","text_uthmani":"يُفْتَنُونَ","qpc_uthmani_hafs":"يُفۡتَنُونَ","char_type_name":"word","page_number":521,"line_number":3,"text":"يُفۡتَنُونَ","translation":{"text":"will be tried","language_name":"english","language_id":38},"transliteration":{"text":"yuf'tanūna","language_name":"english","language_id":38}},{"id":14912,"position":6,"audio_url":null,"verse_key":"51:13","verse_id":4688,"location":"51:13:6","text_uthmani":"١٣","qpc_uthmani_hafs":"١٣","char_type_name":"end","page_number":521,"line_number":3,"text":"١٣","translation":{"text":"(13)","language_name":"english","language_id":38},"transliteration":{"text":null,"language_name":"english","language_id":38}}]},{"id":4689,"verse_number":14,"verse_key":"51:14","hizb_number":52,"rub_el_hizb_number":208,"ruku_number":457,"manzil_number":7,"sajdah_number":null,"page_number":521,"juz_number":26,"words":[{"id":15989,"position":1,"audio_url":"wbw/051_014_001.mp3","verse_key":"51:14","verse_id":4689,"location":"51:14:1","text_uthmani":"ذُوقُوا۟","qpc_uthmani_hafs":"ذُوقُواْ","char_type_name":"word","page_number":521,"line_number":3,"text":"ذُوقُواْ","translation":{"text":"Taste","language_name":"english","language_id":38},"transliteration":{"text":"dhūqū","language_name":"english","language_id":38}},{"id":15990,"position":2,"audio_url":"wbw/051_014_002.mp3","verse_key":"51:14","verse_id":4689,"location":"51:14:2","text_uthmani":"فِتْنَتَكُمْ","qpc_uthmani_hafs":"فِتۡنَتَكُمۡ","char_type_name":"word","page_number":521,"line_number":3,"text":"فِتۡنَتَكُمۡ","translation":{"text":"your trial","language_name":"english","language_id":38},"transliteration":{"text":"fit'natakum","language_name":"english","language_id":38}},{"id":15991,"position":3,"audio_url":"wbw/051_014_003.mp3","verse_key":"51:14","verse_id":4689,"location":"51:14:3","text_uthmani":"هَـٰذَا","qpc_uthmani_hafs":"هَٰذَا","char_type_name":"word","page_number":521,"line_number":4,"text":"هَٰذَا","translation":{"text":"This","language_name":"english","language_id":38},"transliteration":{"text":"hādhā","language_name":"english","language_id":38}},{"id":15992,"position":4,"audio_url":"wbw/051_014_004.mp3","verse_key":"51:14","verse_id":4689,"location":"51:14:4","text_uthmani":"ٱلَّذِى","qpc_uthmani_hafs":"ٱلَّذِي","char_type_name":"word","page_number":521,"line_number":4,"text":"ٱلَّذِي","translation":{"text":"(is) what","language_name":"english","language_id":38},"transliteration":{"text":"alladhī","language_name":"english","language_id":38}},{"id":15993,"position":5,"audio_url":"wbw/051_014_005.mp3","verse_key":"51:14","verse_id":4689,"location":"51:14:5","text_uthmani":"كُنتُم","qpc_uthmani_hafs":"كُنتُم","char_type_name":"word","page_number":521,"line_number":4,"text":"كُنتُم","translation":{"text":"you were","language_name":"english","language_id":38},"transliteration":{"text":"kuntum","language_name":"english","language_id":38}},{"id":15994,"position":6,"audio_url":"wbw/051_014_006.mp3","verse_key":"51:14","verse_id":4689,"location":"51:14:6","text_uthmani":"بِهِۦ","qpc_uthmani_hafs":"بِهِۦ","char_type_name":"word","page_number":521,"line_number":4,"text":"بِهِۦ","translation":{"text":"for it","language_name":"english","language_id":38},"transliteration":{"text":"bihi","language_name":"english","language_id":38}},{"id":15995,"position":7,"audio_url":"wbw/051_014_007.mp3","verse_key":"51:14","verse_id":4689,"location":"51:14:7","text_uthmani":"تَسْتَعْجِلُونَ","qpc_uthmani_hafs":"تَسۡتَعۡجِلُونَ","char_type_name":"word","page_number":521,"line_number":4,"text":"تَسۡتَعۡجِلُونَ","translation":{"text":"seeking to hasten","language_name":"english","language_id":38},"transliteration":{"text":"tastaʿjilūna","language_name":"english","language_id":38}},{"id":15996,"position":8,"audio_url":null,"verse_key":"51:14","verse_id":4689,"location":"51:14:8","text_uthmani":"١٤","qpc_uthmani_hafs":"١٤","char_type_name":"end","page_number":521,"line_number":4,"text":"١٤","translation":{"text":"(14)","language_name":"english","language_id":38},"transliteration":{"text":null,"language_name":"english","language_id":38}}]},{"id":4690,"verse_number":15,"verse_key":"51:15","hizb_number":52,"rub_el_hizb_number":208,"ruku_number":457,"manzil_number":7,"sajdah_number":null,"page_number":521,"juz_number":26,"words":[{"id":17216,"position":1,"audio_url":"wbw/051_015_001.mp3","verse_key":"51:15","verse_id":4690,"location":"51:15:1","text_uthmani":"إِنَّ","qpc_uthmani_hafs":"إِنَّ","char_type_name":"word","page_number":521,"line_number":4,"text":"إِنَّ","translation":{"text":"Indeed","language_name":"english","language_id":38},"transliteration":{"text":"inna","language_name":"english","language_id":38}},{"id":17217,"position":2,"audio_url":"wbw/051_015_002.mp3","verse_key":"51:15","verse_id":4690,"location":"51:15:2","text_uthmani":"ٱلْمُتَّقِينَ","qpc_uthmani_hafs":"ٱلۡمُتَّقِينَ","char_type_name":"word","page_number":521,"line_number":4,"text":"ٱلۡمُتَّقِينَ","translation":{"text":"the righteous","language_name":"english","language_id":38},"transliteration":{"text":"l-mutaqīna","language_name":"english","language_id":38}},{"id":17218,"position":3,"audio_url":"wbw/051_015_003.mp3","verse_key":"51:15","verse_id":4690,"location":"51:15:3","text_uthmani":"فِى","qpc_uthmani_hafs":"فِي","char_type_name":"word","page_number":521,"line_number":4,"text":"فِي","translation":{"text":"(will be) in","language_name":"english","language_id":38},"transliteration":{"text":"fī","language_name":"english","language_id":38}},{"id":17219,"position":4,"audio_url":"wbw/051_015_004.mp3","verse_key":"51:15","verse_id":4690,"location":"51:15:4","text_uthmani":"جَنَّـٰتٍۢ","qpc_uthmani_hafs":"جَنَّٰتٖ","char_type_name":"word","page_number":521,"line_number":4,"text":"جَنَّٰتٖ","translation":{"text":"Gardens","language_name":"english","language_id":38},"transliteration":{"text":"jannātin","language_name":"english","language_id":38}},{"id":17220,"position":5,"audio_url":"wbw/051_015_005.mp3","verse_key":"51:15","verse_id":4690,"location":"51:15:5","text_uthmani":"وَعُيُونٍ","qpc_uthmani_hafs":"وَعُيُونٍ","char_type_name":"word","page_number":521,"line_number":4,"text":"وَعُيُونٍ","translation":{"text":"and springs","language_name":"english","language_id":38},"transliteration":{"text":"waʿuyūnin","language_name":"english","language_id":38}},{"id":17221,"position":6,"audio_url":null,"verse_key":"51:15","verse_id":4690,"location":"51:15:6","text_uthmani":"١٥","qpc_uthmani_hafs":"١٥","char_type_name":"end","page_number":521,"line_number":5,"text":"١٥","translation":{"text":"(15)","language_name":"english","language_id":38},"transliteration":{"text":null,"language_name":"english","language_id":38}}]},{"id":4691,"verse_number":16,"verse_key":"51:16","hizb_number":52,"rub_el_hizb_number":208,"ruku_number":457,"manzil_number":7,"sajdah_number":null,"page_number":521,"juz_number":26,"words":[{"id":18256,"position":1,"audio_url":"wbw/051_016_001.mp3","verse_key":"51:16","verse_id":4691,"location":"51:16:1","text_uthmani":"ءَاخِذِينَ","qpc_uthmani_hafs":"ءَاخِذِينَ","char_type_name":"word","page_number":521,"line_number":5,"text":"ءَاخِذِينَ","translation":{"text":"Taking","language_name":"english","language_id":38},"transliteration":{"text":"ākhidhīna","language_name":"english","language_id":38}},{"id":18257,"position":2,"audio_url":"wbw/051_016_002.mp3","verse_key":"51:16","verse_id":4691,"location":"51:16:2","text_uthmani":"مَآ","qpc_uthmani_hafs":"مَآ","char_type_name":"word","page_number":521,"line_number":5,"text":"مَآ","translation":{"text":"what","language_name":"english","language_id":38},"transliteration":{"text":"mā","language_name":"english","language_id":38}},{"id":18258,"position":3,"audio_url":"wbw/051_016_003.mp3","verse_key":"51:16","verse_id":4691,"location":"51:16:3","text_uthmani":"ءَاتَىٰهُمْ","qpc_uthmani_hafs":"ءَاتَىٰهُمۡ","char_type_name":"word","page_number":521,"line_number":5,"text":"ءَاتَىٰهُمۡ","translation":{"text":"their Lord has given them","language_name":"english","language_id":38},"transliteration":{"text":"ātāhum","language_name":"english","language_id":38}},{"id":18259,"position":4,"audio_url":"wbw/051_016_004.mp3","verse_key":"51:16","verse_id":4691,"location":"51:16:4","text_uthmani":"رَبُّهُمْ ۚ","qpc_uthmani_hafs":"رَبُّهُمۡۚ","char_type_name":"word","page_number":521,"line_number":5,"text":"رَبُّهُمۡۚ","translation":{"text":"their Lord has given them","language_name":"english","language_id":38},"transliteration":{"text":"rabbuhum","language_name":"english","language_id":38}},{"id":18261,"position":5,"audio_url":"wbw/051_016_006.mp3","verse_key":"51:16","verse_id":4691,"location":"51:16:5","text_uthmani":"إِنَّهُمْ","qpc_uthmani_hafs":"إِنَّهُمۡ","char_type_name":"word","page_number":521,"line_number":5,"text":"إِنَّهُمۡ","translation":{"text":"Indeed, they","language_name":"english","language_id":38},"transliteration":{"text":"innahum","language_name":"english","language_id":38}},{"id":18262,"position":6,"audio_url":"wbw/051_016_007.mp3","verse_key":"51:16","verse_id":4691,"location":"51:16:6","text_uthmani":"كَانُوا۟","qpc_uthmani_hafs":"كَانُواْ","char_type_name":"word","page_number":521,"line_number":5,"text":"كَانُواْ","translation":{"text":"were","language_name":"english","language_id":38},"transliteration":{"text":"kānū","language_name":"english","language_id":38}},{"id":18263,"position":7,"audio_url":"wbw/051_016_008.mp3","verse_key":"51:16","verse_id":4691,"location":"51:16:7","text_uthmani":"قَبْلَ","qpc_uthmani_hafs":"قَبۡلَ","char_type_name":"word","page_number":521,"line_number":5,"text":"قَبۡلَ","translation":{"text":"before","language_name":"english","language_id":38},"transliteration":{"text":"qabla","language_name":"english","language_id":38}},{"id":18264,"position":8,"audio_url":"wbw/051_016_009.mp3","verse_key":"51:16","verse_id":4691,"location":"51:16:8","text_uthmani":"ذَٰلِكَ","qpc_uthmani_hafs":"ذَٰلِكَ","char_type_name":"word","page_number":521,"line_number":5,"text":"ذَٰلِكَ","translation":{"text":"that","language_name":"english","language_id":38},"transliteration":{"text":"dhālika","language_name":"english","language_id":38}},{"id":18265,"position":9,"audio_url":"wbw/051_016_010.mp3","verse_key":"51:16","verse_id":4691,"location":"51:16:9","text_uthmani":"مُحْسِنِينَ","qpc_uthmani_hafs":"مُحۡسِنِينَ","char_type_name":"word","page_number":521,"line_number":5,"text":"مُحۡسِنِينَ","translation":{"text":"good-doers","language_name":"english","language_id":38},"transliteration":{"text":"muḥ'sinīna","language_name":"english","language_id":38}},{"id":18266,"position":10,"audio_url":null,"verse_key":"51:16","verse_id":4691,"location":"51:16:10","text_uthmani":"١٦","qpc_uthmani_hafs":"١٦","char_type_name":"end","page_number":521,"line_number":5,"text":"١٦","translation":{"text":"(16)","language_name":"english","language_id":38},"transliteration":{"text":null,"language_name":"english","language_id":38}}]},{"id":4692,"verse_number":17,"verse_key":"51:17","hizb_number":52,"rub_el_hizb_number":208,"ruku_number":457,"manzil_number":7,"sajdah_number":null,"page_number":521,"juz_number":26,"words":[{"id":19282,"position":1,"audio_url":"wbw/051_017_001.mp3","verse_key":"51:17","verse_id":4692,"location":"51:17:1","text_uthmani":"كَانُوا۟","qpc_uthmani_hafs":"كَانُواْ","char_type_name":"word","page_number":521,"line_number":6,"text":"كَانُواْ","translation":{"text":"They used to","language_name":"english","language_id":38},"transliteration":{"text":"kānū","language_name":"english","language_id":38}},{"id":19283,"position":2,"audio_url":"wbw/051_017_002.mp3","verse_key":"51:17","verse_id":4692,"location":"51:17:2","text_uthmani":"قَلِيلًۭا","qpc_uthmani_hafs":"قَلِيلٗا","char_type_name":"word","page_number":521,"line_number":6,"text":"قَلِيلٗا","translation":{"text":"little","language_name":"english","language_id":38},"transliteration":{"text":"qalīlan","language_name":"english","language_id":38}},{"id":19284,"position":3,"audio_url":"wbw/051_017_003.mp3","verse_key":"51:17","verse_id":4692,"location":"51:17:3","text_uthmani":"مِّنَ","qpc_uthmani_hafs":"مِّنَ","char_type_name":"word","page_number":521,"line_number":6,"text":"مِّنَ","translation":{"text":"of","language_name":"english","language_id":38},"transliteration":{"text":"mina","language_name":"english","language_id":38}},{"id":19285,"position":4,"audio_url":"wbw/051_017_004.mp3","verse_key":"51:17","verse_id":4692,"location":"51:17:4","text_uthmani":"ٱلَّيْلِ","qpc_uthmani_hafs":"ٱلَّيۡلِ","char_type_name":"word","page_number":521,"line_number":6,"text":"ٱلَّيۡلِ","translation":{"text":"the night","language_name":"english","language_id":38},"transliteration":{"text":"al-layli","language_name":"english","language_id":38}},{"id":19286,"position":5,"audio_url":"wbw/051_017_005.mp3","verse_key":"51:17","verse_id":4692,"location":"51:17:5","text_uthmani":"مَا","qpc_uthmani_hafs":"مَا","char_type_name":"word","page_number":521,"line_number":6,"text":"مَا","translation":{"text":"[what]","language_name":"english","language_id":38},"transliteration":{"text":"mā","language_name":"english","language_id":38}},{"id":19287,"position":6,"audio_url":"wbw/051_017_006.mp3","verse_key":"51:17","verse_id":4692,"location":"51:17:6","text_uthmani":"يَهْجَعُونَ","qpc_uthmani_hafs":"يَهۡجَعُونَ","char_type_name":"word","page_number":521,"line_number":6,"text":"يَهۡجَعُونَ","translation":{"text":"sleep","language_name":"english","language_id":38},"transliteration":{"text":"yahjaʿūna","language_name":"english","language_id":38}},{"id":19288,"position":7,"audio_url":null,"verse_key":"51:17","verse_id":4692,"location":"51:17:7","text_uthmani":"١٧","qpc_uthmani_hafs":"١٧","char_type_name":"end","page_number":521,"line_number":6,"text":"١٧","translation":{"text":"(17)","language_name":"english","language_id":38},"transliteration":{"text":null,"language_name":"english","language_id":38}}]},{"id":4693,"verse_number":18,"verse_key":"51:18","hizb_number":52,"rub_el_hizb_number":208,"ruku_number":457,"manzil_number":7,"sajdah_number":null,"page_number":521,"juz_number":26,"words":[{"id":20357,"position":1,"audio_url":"wbw/051_018_001.mp3","verse_key":"51:18","verse_id":4693,"location":"51:18:1","text_uthmani":"وَبِٱلْأَسْحَارِ","qpc_uthmani_hafs":"وَبِٱلۡأَسۡحَارِ","char_type_name":"word","page_number":521,"line_number":6,"text":"وَبِٱلۡأَسۡحَارِ","translation":{"text":"And in the hours before dawn","language_name":"english","language_id":38},"transliteration":{"text":"wabil-asḥāri","language_name":"english","language_id":38}},{"id":20358,"position":2,"audio_url":"wbw/051_018_002.mp3","verse_key":"51:18","verse_id":4693,"location":"51:18:2","text_uthmani":"هُمْ","qpc_uthmani_hafs":"هُمۡ","char_type_name":"word","page_number":521,"line_number":6,"text":"هُمۡ","translation":{"text":"they","language_name":"english","language_id":38},"transliteration":{"text":"hum","language_name":"english","language_id":38}},{"id":20359,"position":3,"audio_url":"wbw/051_018_003.mp3","verse_key":"51:18","verse_id":4693,"location":"51:18:3","text_uthmani":"يَسْتَغْفِرُونَ","qpc_uthmani_hafs":"يَسۡتَغۡفِرُونَ","char_type_name":"word","page_number":521,"line_number":6,"text":"يَسۡتَغۡفِرُونَ","translation":{"text":"would ask forgiveness","language_name":"english","language_id":38},"transliteration":{"text":"yastaghfirūna","language_name":"english","language_id":38}},{"id":20360,"position":4,"audio_url":null,"verse_key":"51:18","verse_id":4693,"location":"51:18:4","text_uthmani":"١٨","qpc_uthmani_hafs":"١٨","char_type_name":"end","page_number":521,"line_number":6,"text":"١٨","translation":{"text":"(18)","language_name":"english","language_id":38},"transliteration":{"text":null,"language_name":"english","language_id":38}}]},{"id":4694,"verse_number":19,"verse_key":"51:19","hizb_number":52,"rub_el_hizb_number":208,"ruku_number":457,"manzil_number":7,"sajdah_number":null,"page_number":521,"juz_number":26,"words":[{"id":21438,"position":1,"audio_url":"wbw/051_019_001.mp3","verse_key":"51:19","verse_id":4694,"location":"51:19:1","text_uthmani":"وَفِىٓ","qpc_uthmani_hafs":"وَفِيٓ","char_type_name":"word","page_number":521,"line_number":7,"text":"وَفِيٓ","translation":{"text":"And in","language_name":"english","language_id":38},"transliteration":{"text":"wafī","language_name":"english","language_id":38}},{"id":21439,"position":2,"audio_url":"wbw/051_019_002.mp3","verse_key":"51:19","verse_id":4694,"location":"51:19:2","text_uthmani":"أَمْوَٰلِهِمْ","qpc_uthmani_hafs":"أَمۡوَٰلِهِمۡ","char_type_name":"word","page_number":521,"line_number":7,"text":"أَمۡوَٰلِهِمۡ","translation":{"text":"their wealth","language_name":"english","language_id":38},"transliteration":{"text":"amwālihim","language_name":"english","language_id":38}},{"id":21440,"position":3,"audio_url":"wbw/051_019_003.mp3","verse_key":"51:19","verse_id":4694,"location":"51:19:3","text_uthmani":"حَقٌّۭ","qpc_uthmani_hafs":"حَقّٞ","char_type_name":"word","page_number":521,"line_number":7,"text":"حَقّٞ","translation":{"text":"(was the) right","language_name":"english","language_id":38},"transliteration":{"text":"ḥaqqun","language_name":"english","language_id":38}},{"id":21441,"position":4,"audio_url":"wbw/051_019_004.mp3","verse_key":"51:19","verse_id":4694,"location":"51:19:4","text_uthmani":"لِّلسَّآئِلِ","qpc_uthmani_hafs":"لِّلسَّآئِلِ","char_type_name":"word","page_number":521,"line_number":7,"text":"لِّلسَّآئِلِ","translation":{"text":"(of) those who asked","language_name":"english","language_id":38},"transliteration":{"text":"lilssāili","language_name":"english","language_id":38}},{"id":21442,"position":5,"audio_url":"wbw/051_019_005.mp3","verse_key":"51:19","verse_id":4694,"location":"51:19:5","text_uthmani":"وَٱلْمَحْرُومِ","qpc_uthmani_hafs":"وَٱلۡمَحۡرُومِ","char_type_name":"word","page_number":521,"line_number":7,"text":"وَٱلۡمَحۡرُومِ","translation":{"text":"and the deprived","language_name":"english","language_id":38},"transliteration":{"text":"wal-maḥrūmi","language_name":"english","language_id":38}},{"id":21443,"position":6,"audio_url":null,"verse_key":"51:19","verse_id":4694,"location":"51:19:6","text_uthmani":"١٩","qpc_uthmani_hafs":"١٩","char_type_name":"end","page_number":521,"line_number":7,"text":"١٩","translation":{"text":"(19)","language_name":"english","language_id":38},"transliteration":{"text":null,"language_name":"english","language_id":38}}]},{"id":4695,"verse_number":20,"verse_key":"51:20","hizb_number":52,"rub_el_hizb_number":208,"ruku_number":457,"manzil_number":7,"sajdah_number":null,"page_number":521,"juz_number":26,"words":[{"id":22534,"position":1,"audio_url":"wbw/051_020_001.mp3","verse_key":"51:20","verse_id":4695,"location":"51:20:1","text_uthmani":"وَفِى","qpc_uthmani_hafs":"وَفِي","char_type_name":"word","page_number":521,"line_number":7,"text":"وَفِي","translation":{"text":"And in","language_name":"english","language_id":38},"transliteration":{"text":"wafī","language_name":"english","language_id":38}},{"id":22535,"position":2,"audio_url":"wbw/051_020_002.mp3","verse_key":"51:20","verse_id":4695,"location":"51:20:2","text_uthmani":"ٱلْأَرْضِ","qpc_uthmani_hafs":"ٱلۡأَرۡضِ","char_type_name":"word","page_number":521,"line_number":7,"text":"ٱلۡأَرۡضِ","translation":{"text":"the earth","language_name":"english","language_id":38},"transliteration":{"text":"l-arḍi","language_name":"english","language_id":38}},{"id":22536,"position":3,"audio_url":"wbw/051_020_003.mp3","verse_key":"51:20","verse_id":4695,"location":"51:20:3","text_uthmani":"ءَايَـٰتٌۭ","qpc_uthmani_hafs":"ءَايَٰتٞ","char_type_name":"word","page_number":521,"line_number":7,"text":"ءَايَٰتٞ","translation":{"text":"(are) signs","language_name":"english","language_id":38},"transliteration":{"text":"āyātun","language_name":"english","language_id":38}},{"id":22537,"position":4,"audio_url":"wbw/051_020_004.mp3","verse_key":"51:20","verse_id":4695,"location":"51:20:4","text_uthmani":"لِّلْمُوقِنِينَ","qpc_uthmani_hafs":"لِّلۡمُوقِنِينَ","char_type_name":"word","page_number":521,"line_number":8,"text":"لِّلۡمُوقِنِينَ","translation":{"text":"for those who are certain","language_name":"english","language_id":38},"transliteration":{"text":"lil'mūqinīna","language_name":"english","language_id":38}},{"id":22538,"position":5,"audio_url":null,"verse_key":"51:20","verse_id":4695,"location":"51:20:5","text_uthmani":"٢٠","qpc_uthmani_hafs":"٢٠","char_type_name":"end","page_number":521,"line_number":8,"text":"٢٠","translation":{"text":"(20)","language_name":"english","language_id":38},"transliteration":{"text":null,"language_name":"english","language_id":38}}]}],"pagination":{"per_page":10,"current_page":2,"next_page":3,"total_pages":6,"total_records":60}}
