{"verses":[{"id":4902,"verse_number":1,"verse_key":"55:1","hizb_number":54,"rub_el_hizb_number":213,"ruku_number":468,"manzil_number":7,"sajdah_number":null,"page_number":531,"juz_number":27,"words":[{"id":297,"position":1,"audio_url":"wbw/055_001_001.mp3","char_type_name":"word","page_number":531,"line_number":7,"text":"ٱلرَّحْمَـٰنُ","translation":{"text":"অশেষ দয়ালু (আল্লাহ্‌)","language_name":"bengali","language_id":20},"transliteration":{"text":"al-raḥmānu","language_name":"english","language_id":38}},{"id":298,"position":2,"audio_url":null,"char_type_name":"end","page_number":531,"line_number":7,"text":"١","translation":{"text":"(১)","language_name":"bengali","language_id":20},"transliteration":{"text":null,"language_name":"english","language_id":38}}]},{"id":4903,"verse_number":2,"verse_key":"55:2","hizb_number":54,"rub_el_hizb_number":213,"ruku_number":468,"manzil_number":7,"sajdah_number":null,"page_number":531,"juz_number":27,"words":[{"id":1061,"position":1,"audio_url":"wbw/055_002_001.mp3","char_type_name":"word","page_number":531,"line_number":7,"text":"عَلَّمَ","translation":{"text":"শিক্ষা দিয়েছেন","language_name":"bengali","language_id":20},"transliteration":{"text":"ʿallama","language_name":"english","language_id":38}},{"id":1062,"position":2,"audio_url":"wbw/055_002_002.mp3","char_type_name":"word","page_number":531,"line_number":7,"text":"ٱلْقُرْءَانَ","translation":{"text":"(এই) কুরআন","language_name":"bengali","language_id":20},"transliteration":{"text":"l-qur'āna","language_name":"english","language_id":38}},{"id":1063,"position":3,"audio_url":null,"char_type_name":"end","page_number":531,"line_number":7,"text":"٢","translation":{"text":"(২)","language_name":"bengali","language_id":20},"transliteration":{"text":null,"language_name":"english","language_id":38}}]},{"id":4904,"verse_number":3,"verse_key":"55:3","hizb_number":54,"rub_el_hizb_number":213,"ruku_number":468,"manzil_number":7,"sajdah_number":null,"page_number":531,"juz_number":27,"words":[{"id":2223,"position":1,"audio_url":"wbw/055_003_001.mp3","char_type_name":"word","page_number":531,"line_number":7,"text":"خَلَقَ","translation":{"text":"তিনি সৃষ্টি করেছেন","language_name":"bengali","language_id":20},"transliteration":{"text":"khalaqa","language_name":"english","language_id":38}},{"id":2224,"position":2,"audio_url":"wbw/055_003_002.mp3","char_type_name":"word","page_number":531,"line_number":7,"text":"ٱلْإِنسَـٰنَ","translation":{"text":"মানুষকে","language_name":"bengali","language_id":20},"transliteration":{"text":"l-insāna","language_name":"english","language_id":38}},{"id":2225,"position":3,"audio_url":null,"char_type_name":"end","page_number":531,"line_number":7,"text":"٣","translation":{"text":"(৩)","language_name":"bengali","language_id":20},"transliteration":{"text":null,"language_name":"english","language_id":38}}]},{"id":4905,"verse_number":4,"verse_key":"55:4","hizb_number":54,"rub_el_hizb_number":213,"ruku_number":468,"manzil_number":7,"sajdah_number":null,"page_number":531,"juz_number":27,"words":[{"id":3552,"position":1,"audio_url":"wbw/055_004_001.mp3","char_type_name":"word","page_number":531,"line_number":7,"text":"عَلَّمَهُ","translation":{"text":"তাকে শিখিয়েছেন","language_name":"bengali","language_id":20},"transliteration":{"text":"ʿallamahu","language_name":"english","language_id":38}},{"id":3553,"position":2,"audio_url":"wbw/055_004_002.mp3","char_type_name":"word","page_number":531,"line_number":7,"text":"ٱلْبَيَانَ","translation":{"text":"ভাব প্রকাশ করতে","language_name":"bengali","language_id":20},"transliteration":{"text":"l-bayāna","language_name":"english","language_id":38}},{"id":3554,"position":3,"audio_url":null,"char_type_name":"end","page_number":531,"line_number":7,"text":"٤","translation":{"text":"(৪)","language_name":"bengali","language_id":20},"transliteration":{"text":null,"language_name":"english","language_id":38}}]},{"id":4906,"verse_number":5,"verse_key":"55:5","hizb_number":54,"rub_el_hizb_number":213,"ruku_number":468,"manzil_number":7,"sajdah_number":null,"page_number":531,"juz_number":27,"words":[{"id":4871,"position":1,"audio_url":"wbw/055_005_001.mp3","char_type_name":"word","page_number":531,"line_number":8,"text":"ٱلشَّمْسُ","translation":{"text":"সূর্য","language_name":"bengali","language_id":20},"transliteration":{"text":"al-shamsu","language_name":"english","language_id":38}},{"id":4872,"position":2,"audio_url":"wbw/055_005_002.mp3","char_type_name":"word","page_number":531,"line_number":8,"text":"وَٱلْقَمَرُ","translation":{"text":"ও চাঁদ","language_name":"bengali","language_id":20},"transliteration":{"text":"wal-qamaru","language_name":"english","language_id":38}},{"id":4873,"position":3,"audio_url":"wbw/055_005_003.mp3","char_type_name":"word","page_number":531,"line_number":8,"text":"بِحُسْبَانٍۢ","translation":{"text":"একটি হিসাব অনুসরণ করেই চলে","language_name":"bengali","language_id":20},"transliteration":{"text":"biḥus'bānin","language_name":"english","language_id":38}},{"id":4874,"position":4,"audio_url":null,"char_type_name":"end","page_number":531,"line_number":8,"text":"٥","translation":{"text":"(৫)","language_name":"bengali","language_id":20},"transliteration":{"text":null,"language_name":"english","language_id":38}}]},{"id":4907,"verse_number":6,"verse_key":"55:6","hizb_number":54,"rub_el_hizb_number":213,"ruku_number":468,"manzil_number":7,"sajdah_number":null,"page_number":531,"juz_number":27,"words":[{"id":6162,"position":1,"audio_url":"wbw/055_006_001.mp3","char_type_name":"word","page_number":531,"line_number":8,"text":"وَٱلنَّجْمُ","translation":{"text":"এবং তারকা","language_name":"bengali","language_id":20},"transliteration":{"text":"wal-najmu","language_name":"english","language_id":38}},{"id":6163,"position":2,"audio_url":"wbw/055_006_002.mp3","char_type_name":"word","page_number":531,"line_number":8,"text":"وَٱلشَّجَرُ","translation":{"text":"ও গাছপালা","language_name":"bengali","language_id":20},"transliteration":{"text":"wal-shajaru","language_name":"english","language_id":38}},{"id":6164,"position":3,"audio_url":"wbw/055_006_003.mp3","char_type_name":"word","page_number":531,"line_number":8,"text":"يَسْجُدَانِ","translation":{"text":"উভয়ে সিজদারত","language_name":"bengali","language_id":20},"transliteration":{"text":"yasjudāni","language_name":"english","language_id":38}},{"id":6165,"position":4,"audio_url":null,"char_type_name":"end","page_number":531,"line_number":8,"text":"٦","translation":{"text":"(৬)","language_name":"bengali","language_id":20},"transliteration":{"text":null,"language_name":"english","language_id":38}}]},{"id":4908,"verse_number":7,"verse_key":"55:7","hizb_number":54,"rub_el_hizb_number":213,"ruku_number":468,"manzil_number":7,"sajdah_number":null,"page_number":531,"juz_number":27,"words":[{"id":7495,"position":1,"audio_url":"wbw/055_007_001.mp3","char_type_name":"word","page_number":531,"line_number":9,"text":"وَٱلسَّمَآءَ","translation":{"text":"এবং আকাশকে","language_name":"bengali","language_id":20},"transliteration":{"text":"wal-samāa","language_name":"english","language_id":38}},{"id":7496,"position":2,"audio_url":"wbw/055_007_002.mp3","char_type_name":"word","page_number":531,"line_number":9,"text":"رَفَعَهَا","translation":{"text":"তা সমুন্নত করেছেন তিনি","language_name":"bengali","language_id":20},"transliteration":{"text":"rafaʿahā","language_name":"english","language_id":38}},{"id":7497,"position":3,"audio_url":"wbw/055_007_003.mp3","char_type_name":"word","page_number":531,"line_number":9,"text":"وَوَضَعَ","translation":{"text":"ও স্থাপন করেছেন","language_name":"bengali","language_id":20},"transliteration":{"text":"wawaḍaʿa","language_name":"english","language_id":38}},{"id":7498,"position":4,"audio_url":"wbw/055_007_004.mp3","char_type_name":"word","page_number":531,"line_number":9,"text":"ٱلْمِيزَانَ","translation":{"text":"মানদণ্ড","language_name":"bengali","language_id":20},"transliteration":{"text":"l-mīzāna","language_name":"english","language_id":38}},{"id":7499,"position":5,"audio_url":null,"char_type_name":"end","page_number":531,"line_number":9,"text":"٧","translation":{"text":"(৭)","language_name":"bengali","language_id":20},"transliteration":{"text":null,"language_name":"english","language_id":38}}]},{"id":4909,"verse_number":8,"verse_key":"55:8","hizb_number":54,"rub_el_hizb_number":213,"ruku_number":468,"manzil_number":7,"sajdah_number":null,"page_number":531,"juz_number":27,"words":[{"id":8741,"position":1,"audio_url":"wbw/055_008_001.mp3","char_type_name":"word","page_number":531,"line_number":9,"text":"أَلَّا","translation":{"text":"(ঐকান্তিক দাবি) না যেন","language_name":"bengali","language_id":20},"transliteration":{"text":"allā","language_name":"english","language_id":38}},{"id":8742,"position":2,"audio_url":"wbw/055_008_002.mp3","char_type_name":"word","page_number":531,"line_number":9,"text":"تَطْغَوْا۟","translation":{"text":"তোমরা সীমা লঙ্ঘন কর","language_name":"bengali","language_id":20},"transliteration":{"text":"taṭghaw","language_name":"english","language_id":38}},{"id":8743,"position":3,"audio_url":"wbw/055_008_003.mp3","char_type_name":"word","page_number":531,"line_number":9,"text":"فِى","translation":{"text":"মধ্যে","language_name":"bengali","language_id":20},"transliteration":{"text":"fī","language_name":"english","language_id":38}},{"id":8744,"position":4,"audio_url":"wbw/055_008_004.mp3","char_type_name":"word","page_number":531,"line_number":9,"text":"ٱلْمِيزَانِ","translation":{"text":"মানদণ্ডের","language_name":"bengali","language_id":20},"transliteration":{"text":"l-mīzāni","language_name":"english","language_id":38}},{"id":8745,"position":5,"audio_url":null,"char_type_name":"end","page_number":531,"line_number":9,"text":"٨","translation":{"text":"(৮)","language_name":"bengali","language_id":20},"transliteration":{"text":null,"language_name":"english","language_id":38}}]},{"id":4910,"verse_number":9,"verse_key":"55:9","hizb_number":54,"rub_el_hizb_number":213,"ruku_number":468,"manzil_number":7,"sajdah_number":null,"page_number":531,"juz_number":27,"words":[{"id":9969,"position":1,"audio_url":"wbw/055_009_001.mp3","char_type_name":"word","page_number":531,"line_number":10,"text":"وَأَقِيمُوا۟","translation":{"text":"এবং তোমরা প্রতিষ্ঠা করো","language_name":"bengali","language_id":20},"transliteration":{"text":"wa-aqīmū","language_name":"english","language_id":38}},{"id":9970,"position":2,"audio_url":"wbw/055_009_002.mp3","char_type_name":"word","page_number":531,"line_number":10,"text":"ٱلْوَزْنَ","translation":{"text":"ওজন","language_name":"bengali","language_id":20},"transliteration":{"text":"l-wazna","language_name":"english","language_id":38}},{"id":9971,"position":3,"audio_url":"wbw/055_009_003.mp3","char_type_name":"word","page_number":531,"line_number":10,"text":"بِٱلْقِسْطِ","translation":{"text":"ন্যায্য ভাবে","language_name":"bengali","language_id":20},"transliteration":{"text":"bil-qis'ṭi","language_name":"english","language_id":38}},{"id":9972,"position":4,"audio_url":"wbw/055_009_004.mp3","char_type_name":"word","page_number":531,"line_number":10,"text":"وَلَا","translation":{"text":"এবং না","language_name":"bengali","language_id":20},"transliteration":{"text":"walā","language_name":"english","language_id":38}},{"id":9973,"position":5,"audio_url":"wbw/055_009_005.mp3","char_type_name":"word","page_number":531,"line_number":10,"text":"تُخْسِرُوا۟","translation":{"text":"তোমরা কম দিয়ো","language_name":"bengali","language_id":20},"transliteration":{"text":"tukh'sirū","language_name":"english","language_id":38}},{"id":9974,"position":6,"audio_url":"wbw/055_009_006.mp3","char_type_name":"word","page_number":531,"line_number":10,"text":"ٱلْمِيزَانَ","translation":{"text":"দাঁড়িপাল্লায়/ পরিমাপে","language_name":"bengali","language_id":20},"transliteration":{"text":"l-mīzāna","language_name":"english","language_id":38}},{"id":9975,"position":7,"audio_url":null,"char_type_name":"end","page_number":531,"line_number":10,"text":"٩","translation":{"text":"(৯)","language_name":"bengali","language_id":20},"transliteration":{"text":null,"language_name":"english","language_id":38}}]},{"id":4911,"verse_number":10,"verse_key":"55:10","hizb_number":54,"rub_el_hizb_number":213,"ruku_number":468,"manzil_number":7,"sajdah_number":null,"page_number":531,"juz_number":27,"words":[{"id":11167,"position":1,"audio_url":"wbw/055_010_001.mp3","char_type_name":"word","page_number":531,"line_number":10,"text":"وَٱلْأَرْضَ","translation":{"text":"এবং পৃথিবীকে","language_name":"bengali","language_id":20},"transliteration":{"text":"wal-arḍa","language_name":"english","language_id":38}},{"id":11168,"position":2,"audio_url":"wbw/055_010_002.mp3","char_type_name":"word","page_number":531,"line_number":11,"text":"وَضَعَهَا","translation":{"text":"তা তিনি স্থাপন করেছেন","language_name":"bengali","language_id":20},"transliteration":{"text":"waḍaʿahā","language_name":"english","language_id":38}},{"id":11169,"position":3,"audio_url":"wbw/055_010_003.mp3","char_type_name":"word","page_number":531,"line_number":11,"text":"لِلْأَنَامِ","translation":{"text":"সৃষ্ট জীবের জন্যে","language_name":"bengali","language_id":20},"transliteration":{"text":"lil'anāmi","language_name":"english","language_id":38}},{"id":11170,"position":4,"audio_url":null,"char_type_name":"end","page_number":531,"line_number":11,"text":"١٠","translation":{"text":"(১০)","language_name":"bengali","language_id":20},"transliteration":{"text":null,"language_name":"english","language_id":38}}]}],"pagination":{"per_page":10,"current_page":1,"next_page":2,"total_pages":8,"total_records":78}}
