{"verses":[{"id":4922,"verse_number":21,"verse_key":"55:21","hizb_number":54,"rub_el_hizb_number":213,"ruku_number":468,"manzil_number":7,"sajdah_number":null,"page_number":532,"juz_number":27,"words":[{"id":23744,"position":1,"audio_url":"wbw/055_021_001.mp3","char_type_name":"word","page_number":532,"line_number":1,"text":"فَبِأَىِّ","translation":{"text":"অতএব কোন কোন","language_name":"bengali","language_id":20},"transliteration":{"text":"fabi-ayyi","language_name":"english","language_id":38}},{"id":23745,"position":2,"audio_url":"wbw/055_021_002.mp3","char_type_name":"word","page_number":532,"line_number":1,"text":"ءَالَآءِ","translation":{"text":"অনুগ্রহকে","language_name":"bengali","language_id":20},"transliteration":{"text":"ālāi","language_name":"english","language_id":38}},{"id":23746,"position":3,"audio_url":"wbw/055_021_003.mp3","char_type_name":"word","page_number":532,"line_number":2,"text":"رَبِّكُمَا","translation":{"text":"তোমাদের উভয়ের রবের","language_name":"bengali","language_id":20},"transliteration":{"text":"rabbikumā","language_name":"english","language_id":38}},{"id":23747,"position":4,"audio_url":"wbw/055_021_004.mp3","char_type_name":"word","page_number":532,"line_number":2,"text":"تُكَذِّبَانِ","translation":{"text":"উভয়ে অস্বীকার করবে","language_name":"bengali","language_id":20},"transliteration":{"text":"tukadhibāni","language_name":"english","language_id":38}},{"id":23748,"position":5,"audio_url":null,"char_type_name":"end","page_number":532,"line_number":2,"text":"٢١","translation":{"text":"(২১)","language_name":"bengali","language_id":20},"transliteration":{"text":null,"language_name":"english","language_id":38}}]},{"id":4923,"verse_number":22,"verse_key":"55:22","hizb_number":54,"rub_el_hizb_number":213,"ruku_number":468,"manzil_number":7,"sajdah_number":null,"page_number":532,"juz_number":27,"words":[{"id":24746,"position":1,"audio_url":"wbw/055_022_001.mp3","char_type_name":"word","page_number":532,"line_number":2,"text":"يَخْرُجُ","translation":{"text":"বের হয়","language_name":"bengali","language_id":20},"transliteration":{"text":"yakhruju","language_name":"english","language_id":38}},{"id":24747,"position":2,"audio_url":"wbw/055_022_002.mp3","char_type_name":"word","page_number":532,"line_number":2,"text":"مِنْهُمَا","translation":{"text":"তাদের উভয় হতে","language_name":"bengali","language_id":20},"transliteration":{"text":"min'humā","language_name":"english","language_id":38}},{"id":24748,"position":3,"audio_url":"wbw/055_022_003.mp3","char_type_name":"word","page_number":532,"line_number":2,"text":"ٱللُّؤْلُؤُ","translation":{"text":"মুক্তা","language_name":"bengali","language_id":20},"transliteration":{"text":"l-lu'lu-u","language_name":"english","language_id":38}},{"id":24749,"position":4,"audio_url":"wbw/055_022_004.mp3","char_type_name":"word","page_number":532,"line_number":2,"text":"وَٱلْمَرْجَانُ","translation":{"text":"ও প্রবাল","language_name":"bengali","language_id":20},"transliteration":{"text":"wal-marjānu","language_name":"english","language_id":38}},{"id":24750,"position":5,"audio_url":null,"char_type_name":"end","page_number":532,"line_number":2,"text":"٢٢","translation":{"text":"(২২)","language_name":"bengali","language_id":20},"transliteration":{"text":null,"language_name":"english","language_id":38}}]},{"id":4924,"verse_number":23,"verse_key":"55:23","hizb_number":54,"rub_el_hizb_number":213,"ruku_number":468,"manzil_number":7,"sajdah_number":null,"page_number":532,"juz_number":27,"words":[{"id":26447,"position":1,"audio_url":"wbw/055_023_001.mp3","char_type_name":"word","page_number":532,"line_number":2,"text":"فَبِأَىِّ","translation":{"text":"অতএব কোন কোন","language_name":"bengali","language_id":20},"transliteration":{"text":"fabi-ayyi","language_name":"english","language_id":38}},{"id":26448,"position":2,"audio_url":"wbw/055_023_002.mp3","char_type_name":"word","page_number":532,"line_number":2,"text":"ءَالَآءِ","translation":{"text":"অনুগ্রহকে","language_name":"bengali","language_id":20},"transliteration":{"text":"ālāi","language_name":"english","language_id":38}},{"id":26449,"position":3,"audio_url":"wbw/055_023_003.mp3","char_type_name":"word","page_number":532,"line_number":3,"text":"رَبِّكُمَا","translation":{"text":"তোমাদের উভয়ের রবের","language_name":"bengali","language_id":20},"transliteration":{"text":"rabbikumā","language_name":"english","language_id":38}},{"id":26450,"position":4,"audio_url":"wbw/055_023_004.mp3","char_type_name":"word","page_number":532,"line_number":3,"text":"تُكَذِّبَانِ","translation":{"text":"উভয়ে অস্বীকার করবে","language_name":"bengali","language_id":20},"transliteration":{"text":"tukadhibāni","language_name":"english","language_id":38}},{"id":26451,"position":5,"audio_url":null,"char_type_name":"end","page_number":532,"line_number":3,"text":"٢٣","translation":{"text":"(২৩)","language_name":"bengali","language_id":20},"transliteration":{"text":null,"language_name":"english","language_id":38}}]},{"id":4925,"verse_number":24,"verse_key":"55:24","hizb_number":54,"rub_el_hizb_number":213,"ruku_number":468,"manzil_number":7,"sajdah_number":null,"page_number":532,"juz_number":27,"words":[{"id":26869,"position":1,"audio_url":"wbw/055_024_001.mp3","char_type_name":"word","page_number":532,"line_number":3,"text":"وَلَهُ","translation":{"text":"এবং তাঁরই নিয়ন্ত্রণে","language_name":"bengali","language_id":20},"transliteration":{"text":"walahu","language_name":"english","language_id":38}},{"id":26870,"position":2,"audio_url":"wbw/055_024_002.mp3","char_type_name":"word","page_number":532,"line_number":3,"text":"ٱلْجَوَارِ","translation":{"text":"জাহাজ সমূহ","language_name":"bengali","language_id":20},"transliteration":{"text":"l-jawāri","language_name":"english","language_id":38}},{"id":26871,"position":3,"audio_url":"wbw/055_024_003.mp3","char_type_name":"word","page_number":532,"line_number":3,"text":"ٱلْمُنشَـَٔاتُ","translation":{"text":"উঁচু উঁচু (পালসহ)","language_name":"bengali","language_id":20},"transliteration":{"text":"l-munshaātu","language_name":"english","language_id":38}},{"id":26872,"position":4,"audio_url":"wbw/055_024_004.mp3","char_type_name":"word","page_number":532,"line_number":3,"text":"فِى","translation":{"text":"মধ্যে","language_name":"bengali","language_id":20},"transliteration":{"text":"fī","language_name":"english","language_id":38}},{"id":26873,"position":5,"audio_url":"wbw/055_024_005.mp3","char_type_name":"word","page_number":532,"line_number":3,"text":"ٱلْبَحْرِ","translation":{"text":"সাগরের","language_name":"bengali","language_id":20},"transliteration":{"text":"l-baḥri","language_name":"english","language_id":38}},{"id":26874,"position":6,"audio_url":"wbw/055_024_006.mp3","char_type_name":"word","page_number":532,"line_number":3,"text":"كَٱلْأَعْلَـٰمِ","translation":{"text":"পাহাড়ের মতো","language_name":"bengali","language_id":20},"transliteration":{"text":"kal-aʿlāmi","language_name":"english","language_id":38}},{"id":26875,"position":7,"audio_url":null,"char_type_name":"end","page_number":532,"line_number":3,"text":"٢٤","translation":{"text":"(২৪)","language_name":"bengali","language_id":20},"transliteration":{"text":null,"language_name":"english","language_id":38}}]},{"id":4926,"verse_number":25,"verse_key":"55:25","hizb_number":54,"rub_el_hizb_number":213,"ruku_number":468,"manzil_number":7,"sajdah_number":null,"page_number":532,"juz_number":27,"words":[{"id":27898,"position":1,"audio_url":"wbw/055_025_001.mp3","char_type_name":"word","page_number":532,"line_number":4,"text":"فَبِأَىِّ","translation":{"text":"অতএব কোন কোন","language_name":"bengali","language_id":20},"transliteration":{"text":"fabi-ayyi","language_name":"english","language_id":38}},{"id":27899,"position":2,"audio_url":"wbw/055_025_002.mp3","char_type_name":"word","page_number":532,"line_number":4,"text":"ءَالَآءِ","translation":{"text":"অনুগ্রহকে","language_name":"bengali","language_id":20},"transliteration":{"text":"ālāi","language_name":"english","language_id":38}},{"id":27900,"position":3,"audio_url":"wbw/055_025_003.mp3","char_type_name":"word","page_number":532,"line_number":4,"text":"رَبِّكُمَا","translation":{"text":"তোমাদের উভয়ের রবের","language_name":"bengali","language_id":20},"transliteration":{"text":"rabbikumā","language_name":"english","language_id":38}},{"id":27901,"position":4,"audio_url":"wbw/055_025_004.mp3","char_type_name":"word","page_number":532,"line_number":4,"text":"تُكَذِّبَانِ","translation":{"text":"উভয়ে অস্বীকার করবে","language_name":"bengali","language_id":20},"transliteration":{"text":"tukadhibāni","language_name":"english","language_id":38}},{"id":27902,"position":5,"audio_url":null,"char_type_name":"end","page_number":532,"line_number":4,"text":"٢٥","translation":{"text":"(২৫)","language_name":"bengali","language_id":20},"transliteration":{"text":null,"language_name":"english","language_id":38}}]},{"id":4927,"verse_number":26,"verse_key":"55:26","hizb_number":54,"rub_el_hizb_number":213,"ruku_number":469,"manzil_number":7,"sajdah_number":null,"page_number":532,"juz_number":27,"words":[{"id":28868,"position":1,"audio_url":"wbw/055_026_001.mp3","char_type_name":"word","page_number":532,"line_number":4,"text":"كُلُّ","translation":{"text":"প্রত্যেক (জিনিস)","language_name":"bengali","language_id":20},"transliteration":{"text":"kullu","language_name":"english","language_id":38}},{"id":28869,"position":2,"audio_url":"wbw/055_026_002.mp3","char_type_name":"word","page_number":532,"line_number":4,"text":"مَنْ","translation":{"text":"যা কিছু","language_name":"bengali","language_id":20},"transliteration":{"text":"man","language_name":"english","language_id":38}},{"id":28870,"position":3,"audio_url":"wbw/055_026_003.mp3","char_type_name":"word","page_number":532,"line_number":4,"text":"عَلَيْهَا","translation":{"text":"তার উপর (আছে)","language_name":"bengali","language_id":20},"transliteration":{"text":"ʿalayhā","language_name":"english","language_id":38}},{"id":28871,"position":4,"audio_url":"wbw/055_026_004.mp3","char_type_name":"word","page_number":532,"line_number":4,"text":"فَانٍۢ","translation":{"text":"নশ্বর","language_name":"bengali","language_id":20},"transliteration":{"text":"fānin","language_name":"english","language_id":38}},{"id":28872,"position":5,"audio_url":null,"char_type_name":"end","page_number":532,"line_number":4,"text":"٢٦","translation":{"text":"(২৬)","language_name":"bengali","language_id":20},"transliteration":{"text":null,"language_name":"english","language_id":38}}]},{"id":4928,"verse_number":27,"verse_key":"55:27","hizb_number":54,"rub_el_hizb_number":213,"ruku_number":469,"manzil_number":7,"sajdah_number":null,"page_number":532,"juz_number":27,"words":[{"id":29677,"position":1,"audio_url":"wbw/055_027_001.mp3","char_type_name":"word","page_number":532,"line_number":4,"text":"وَيَبْقَىٰ","translation":{"text":"এবং অবশিষ্ট থাকবেন","language_name":"bengali","language_id":20},"transliteration":{"text":"wayabqā","language_name":"english","language_id":38}},{"id":29678,"position":2,"audio_url":"wbw/055_027_002.mp3","char_type_name":"word","page_number":532,"line_number":4,"text":"وَجْهُ","translation":{"text":"সত্তা","language_name":"bengali","language_id":20},"transliteration":{"text":"wajhu","language_name":"english","language_id":38}},{"id":29679,"position":3,"audio_url":"wbw/055_027_003.mp3","char_type_name":"word","page_number":532,"line_number":5,"text":"رَبِّكَ","translation":{"text":"তোমার রবের","language_name":"bengali","language_id":20},"transliteration":{"text":"rabbika","language_name":"english","language_id":38}},{"id":29680,"position":4,"audio_url":"wbw/055_027_004.mp3","char_type_name":"word","page_number":532,"line_number":5,"text":"ذُو","translation":{"text":"(যিনি) সম্পন্ন","language_name":"bengali","language_id":20},"transliteration":{"text":"dhū","language_name":"english","language_id":38}},{"id":29681,"position":5,"audio_url":"wbw/055_027_005.mp3","char_type_name":"word","page_number":532,"line_number":5,"text":"ٱلْجَلَـٰلِ","translation":{"text":"মহিমা","language_name":"bengali","language_id":20},"transliteration":{"text":"l-jalāli","language_name":"english","language_id":38}},{"id":29682,"position":6,"audio_url":"wbw/055_027_006.mp3","char_type_name":"word","page_number":532,"line_number":5,"text":"وَٱلْإِكْرَامِ","translation":{"text":"মহানুভবতা","language_name":"bengali","language_id":20},"transliteration":{"text":"wal-ik'rāmi","language_name":"english","language_id":38}},{"id":29683,"position":7,"audio_url":null,"char_type_name":"end","page_number":532,"line_number":5,"text":"٢٧","translation":{"text":"(২৭)","language_name":"bengali","language_id":20},"transliteration":{"text":null,"language_name":"english","language_id":38}}]},{"id":4929,"verse_number":28,"verse_key":"55:28","hizb_number":54,"rub_el_hizb_number":213,"ruku_number":469,"manzil_number":7,"sajdah_number":null,"page_number":532,"juz_number":27,"words":[{"id":30759,"position":1,"audio_url":"wbw/055_028_001.mp3","char_type_name":"word","page_number":532,"line_number":5,"text":"فَبِأَىِّ","translation":{"text":"অতএব কোন কোন","language_name":"bengali","language_id":20},"transliteration":{"text":"fabi-ayyi","language_name":"english","language_id":38}},{"id":30760,"position":2,"audio_url":"wbw/055_028_002.mp3","char_type_name":"word","page_number":532,"line_number":5,"text":"ءَالَآءِ","translation":{"text":"অনুগ্রহকে","language_name":"bengali","language_id":20},"transliteration":{"text":"ālāi","language_name":"english","language_id":38}},{"id":30761,"position":3,"audio_url":"wbw/055_028_003.mp3","char_type_name":"word","page_number":532,"line_number":5,"text":"رَبِّكُمَا","translation":{"text":"তোমাদের উভয়ের রবের","language_name":"bengali","language_id":20},"transliteration":{"text":"rabbikumā","language_name":"english","language_id":38}},{"id":30762,"position":4,"audio_url":"wbw/055_028_004.mp3","char_type_name":"word","page_number":532,"line_number":5,"text":"تُكَذِّبَانِ","translation":{"text":"উভয়ে অস্বীকার করবে","language_name":"bengali","language_id":20},"transliteration":{"text":"tukadhibāni","language_name":"english","language_id":38}},{"id":30763,"position":5,"audio_url":null,"char_type_name":"end","page_number":532,"line_number":5,"text":"٢٨","translation":{"text":"(২৮)","language_name":"bengali","language_id":20},"transliteration":{"text":null,"language_name":"english","language_id":38}}]},{"id":4930,"verse_number":29,"verse_key":"55:29","hizb_number":54,"rub_el_hizb_number":213,"ruku_number":469,"manzil_number":7,"sajdah_number":null,"page_number":532,"juz_number":27,"words":[{"id":31835,"position":1,"audio_url":"wbw/055_029_001.mp3","char_type_name":"word","page_number":532,"line_number":6,"text":"يَسْـَٔلُهُۥ","translation":{"text":"তাঁরই কাছে প্রার্থনা করে","language_name":"bengali","language_id":20},"transliteration":{"text":"yasaluhu","language_name":"english","language_id":38}},{"id":31836,"position":2,"audio_url":"wbw/055_029_002.mp3","char_type_name":"word","page_number":532,"line_number":6,"text":"مَن","translation":{"text":"যা কিছু","language_name":"bengali","language_id":20},"transliteration":{"text":"man","language_name":"english","language_id":38}},{"id":31837,"position":3,"audio_url":"wbw/055_029_003.mp3","char_type_name":"word","page_number":532,"line_number":6,"text":"فِى","translation":{"text":"মধ্যে (আছে)","language_name":"bengali","language_id":20},"transliteration":{"text":"fī","language_name":"english","language_id":38}},{"id":31838,"position":4,"audio_url":"wbw/055_029_004.mp3","char_type_name":"word","page_number":532,"line_number":6,"text":"ٱلسَّمَـٰوَٰتِ","translation":{"text":"আকাশ","language_name":"bengali","language_id":20},"transliteration":{"text":"l-samāwāti","language_name":"english","language_id":38}},{"id":31839,"position":5,"audio_url":"wbw/055_029_005.mp3","char_type_name":"word","page_number":532,"line_number":6,"text":"وَٱلْأَرْضِ ۚ","translation":{"text":"ও পৃথিবীর","language_name":"bengali","language_id":20},"transliteration":{"text":"wal-arḍi","language_name":"english","language_id":38}},{"id":31841,"position":6,"audio_url":"wbw/055_029_007.mp3","char_type_name":"word","page_number":532,"line_number":6,"text":"كُلَّ","translation":{"text":"প্রত্যেক","language_name":"bengali","language_id":20},"transliteration":{"text":"kulla","language_name":"english","language_id":38}},{"id":31842,"position":7,"audio_url":"wbw/055_029_008.mp3","char_type_name":"word","page_number":532,"line_number":6,"text":"يَوْمٍ","translation":{"text":"দিন","language_name":"bengali","language_id":20},"transliteration":{"text":"yawmin","language_name":"english","language_id":38}},{"id":31843,"position":8,"audio_url":"wbw/055_029_009.mp3","char_type_name":"word","page_number":532,"line_number":6,"text":"هُوَ","translation":{"text":"তিনি","language_name":"bengali","language_id":20},"transliteration":{"text":"huwa","language_name":"english","language_id":38}},{"id":31844,"position":9,"audio_url":"wbw/055_029_010.mp3","char_type_name":"word","page_number":532,"line_number":6,"text":"فِى","translation":{"text":"থাকেন","language_name":"bengali","language_id":20},"transliteration":{"text":"fī","language_name":"english","language_id":38}},{"id":31845,"position":10,"audio_url":"wbw/055_029_011.mp3","char_type_name":"word","page_number":532,"line_number":6,"text":"شَأْنٍۢ","translation":{"text":"(এক বিশেষ) অবস্থায়","language_name":"bengali","language_id":20},"transliteration":{"text":"shanin","language_name":"english","language_id":38}},{"id":31846,"position":11,"audio_url":null,"char_type_name":"end","page_number":532,"line_number":6,"text":"٢٩","translation":{"text":"(২৯)","language_name":"bengali","language_id":20},"transliteration":{"text":null,"language_name":"english","language_id":38}}]},{"id":4931,"verse_number":30,"verse_key":"55:30","hizb_number":54,"rub_el_hizb_number":213,"ruku_number":469,"manzil_number":7,"sajdah_number":null,"page_number":532,"juz_number":27,"words":[{"id":32686,"position":1,"audio_url":"wbw/055_030_001.mp3","char_type_name":"word","page_number":532,"line_number":6,"text":"فَبِأَىِّ","translation":{"text":"সুতরাং কোন কোন","language_name":"bengali","language_id":20},"transliteration":{"text":"fabi-ayyi","language_name":"english","language_id":38}},{"id":32687,"position":2,"audio_url":"wbw/055_030_002.mp3","char_type_name":"word","page_number":532,"line_number":7,"text":"ءَالَآءِ","translation":{"text":"অনুগ্রহকে","language_name":"bengali","language_id":20},"transliteration":{"text":"ālāi","language_name":"english","language_id":38}},{"id":32688,"position":3,"audio_url":"wbw/055_030_003.mp3","char_type_name":"word","page_number":532,"line_number":7,"text":"رَبِّكُمَا","translation":{"text":"তোমাদের উভয়ের রবের","language_name":"bengali","language_id":20},"transliteration":{"text":"rabbikumā","language_name":"english","language_id":38}},{"id":32689,"position":4,"audio_url":"wbw/055_030_004.mp3","char_type_name":"word","page_number":532,"line_number":7,"text":"تُكَذِّبَانِ","translation":{"text":"উভয়ে অস্বীকার করবে","language_name":"bengali","language_id":20},"transliteration":{"text":"tukadhibāni","language_name":"english","language_id":38}},{"id":32690,"position":5,"audio_url":null,"char_type_name":"end","page_number":532,"line_number":7,"text":"٣٠","translation":{"text":"(৩০)","language_name":"bengali","language_id":20},"transliteration":{"text":null,"language_name":"english","language_id":38}}]}],"pagination":{"per_page":10,"current_page":3,"next_page":4,"total_pages":8,"total_records":78}}
