{"verses":[{"id":5968,"verse_number":1,"verse_key":"88:1","hizb_number":60,"rub_el_hizb_number":237,"ruku_number":532,"manzil_number":7,"sajdah_number":null,"page_number":592,"juz_number":30,"words":[{"id":724,"position":1,"audio_url":"wbw/088_001_001.mp3","char_type_name":"word","page_number":592,"line_number":7,"text":"هَلْ","translation":{"text":"কি","language_name":"bengali","language_id":20},"transliteration":{"text":"hal","language_name":"english","language_id":38}},{"id":725,"position":2,"audio_url":"wbw/088_001_002.mp3","char_type_name":"word","page_number":592,"line_number":7,"text":"أَتَىٰكَ","translation":{"text":"তোমার কাছে পৌঁছেছে","language_name":"bengali","language_id":20},"transliteration":{"text":"atāka","language_name":"english","language_id":38}},{"id":726,"position":3,"audio_url":"wbw/088_001_003.mp3","char_type_name":"word","page_number":592,"line_number":7,"text":"حَدِيثُ","translation":{"text":"সংবাদ","language_name":"bengali","language_id":20},"transliteration":{"text":"ḥadīthu","language_name":"english","language_id":38}},{"id":727,"position":4,"audio_url":"wbw/088_001_004.mp3","char_type_name":"word","page_number":592,"line_number":7,"text":"ٱلْغَـٰشِيَةِ","translation":{"text":"আচ্ছন্নকারী (ক্বিয়ামাতের)","language_name":"bengali","language_id":20},"transliteration":{"text":"l-ghāshiyati","language_name":"english","language_id":38}},{"id":728,"position":5,"audio_url":null,"char_type_name":"end","page_number":592,"line_number":7,"text":"١","translation":{"text":"(১)","language_name":"bengali","language_id":20},"transliteration":{"text":null,"language_name":"english","language_id":38}}]},{"id":5969,"verse_number":2,"verse_key":"88:2","hizb_number":60,"rub_el_hizb_number":237,"ruku_number":532,"manzil_number":7,"sajdah_number":null,"page_number":592,"juz_number":30,"words":[{"id":1774,"position":1,"audio_url":"wbw/088_002_001.mp3","char_type_name":"word","page_number":592,"line_number":7,"text":"وُجُوهٌۭ","translation":{"text":"(অনেকের) মুখমণ্ডল","language_name":"bengali","language_id":20},"transliteration":{"text":"wujūhun","language_name":"english","language_id":38}},{"id":1775,"position":2,"audio_url":"wbw/088_002_002.mp3","char_type_name":"word","page_number":592,"line_number":7,"text":"يَوْمَئِذٍ","translation":{"text":"সেদিন","language_name":"bengali","language_id":20},"transliteration":{"text":"yawma-idhin","language_name":"english","language_id":38}},{"id":1776,"position":3,"audio_url":"wbw/088_002_003.mp3","char_type_name":"word","page_number":592,"line_number":7,"text":"خَـٰشِعَةٌ","translation":{"text":"অবনত (হবে)","language_name":"bengali","language_id":20},"transliteration":{"text":"khāshiʿatun","language_name":"english","language_id":38}},{"id":1777,"position":4,"audio_url":null,"char_type_name":"end","page_number":592,"line_number":7,"text":"٢","translation":{"text":"(২)","language_name":"bengali","language_id":20},"transliteration":{"text":null,"language_name":"english","language_id":38}}]},{"id":5970,"verse_number":3,"verse_key":"88:3","hizb_number":60,"rub_el_hizb_number":237,"ruku_number":532,"manzil_number":7,"sajdah_number":null,"page_number":592,"juz_number":30,"words":[{"id":2859,"position":1,"audio_url":"wbw/088_003_001.mp3","char_type_name":"word","page_number":592,"line_number":7,"text":"عَامِلَةٌۭ","translation":{"text":"ক্লিষ্ট (হবে)","language_name":"bengali","language_id":20},"transliteration":{"text":"ʿāmilatun","language_name":"english","language_id":38}},{"id":2860,"position":2,"audio_url":"wbw/088_003_002.mp3","char_type_name":"word","page_number":592,"line_number":8,"text":"نَّاصِبَةٌۭ","translation":{"text":"ক্লান্ত (হবে)","language_name":"bengali","language_id":20},"transliteration":{"text":"nāṣibatun","language_name":"english","language_id":38}},{"id":2861,"position":3,"audio_url":null,"char_type_name":"end","page_number":592,"line_number":8,"text":"٣","translation":{"text":"(৩)","language_name":"bengali","language_id":20},"transliteration":{"text":null,"language_name":"english","language_id":38}}]},{"id":5971,"verse_number":4,"verse_key":"88:4","hizb_number":60,"rub_el_hizb_number":237,"ruku_number":532,"manzil_number":7,"sajdah_number":null,"page_number":592,"juz_number":30,"words":[{"id":3332,"position":1,"audio_url":"wbw/088_004_001.mp3","char_type_name":"word","page_number":592,"line_number":8,"text":"تَصْلَىٰ","translation":{"text":"প্রবেশ করবে","language_name":"bengali","language_id":20},"transliteration":{"text":"taṣlā","language_name":"english","language_id":38}},{"id":3333,"position":2,"audio_url":"wbw/088_004_002.mp3","char_type_name":"word","page_number":592,"line_number":8,"text":"نَارًا","translation":{"text":"আগুনে","language_name":"bengali","language_id":20},"transliteration":{"text":"nāran","language_name":"english","language_id":38}},{"id":3334,"position":3,"audio_url":"wbw/088_004_003.mp3","char_type_name":"word","page_number":592,"line_number":8,"text":"حَامِيَةًۭ","translation":{"text":"উত্তপ্ত","language_name":"bengali","language_id":20},"transliteration":{"text":"ḥāmiyatan","language_name":"english","language_id":38}},{"id":3335,"position":4,"audio_url":null,"char_type_name":"end","page_number":592,"line_number":8,"text":"٤","translation":{"text":"(৪)","language_name":"bengali","language_id":20},"transliteration":{"text":null,"language_name":"english","language_id":38}}]},{"id":5972,"verse_number":5,"verse_key":"88:5","hizb_number":60,"rub_el_hizb_number":237,"ruku_number":532,"manzil_number":7,"sajdah_number":null,"page_number":592,"juz_number":30,"words":[{"id":4671,"position":1,"audio_url":"wbw/088_005_001.mp3","char_type_name":"word","page_number":592,"line_number":8,"text":"تُسْقَىٰ","translation":{"text":"পান করানো হবে (পানি)","language_name":"bengali","language_id":20},"transliteration":{"text":"tus'qā","language_name":"english","language_id":38}},{"id":4672,"position":2,"audio_url":"wbw/088_005_002.mp3","char_type_name":"word","page_number":592,"line_number":8,"text":"مِنْ","translation":{"text":"থেকে","language_name":"bengali","language_id":20},"transliteration":{"text":"min","language_name":"english","language_id":38}},{"id":4673,"position":3,"audio_url":"wbw/088_005_003.mp3","char_type_name":"word","page_number":592,"line_number":8,"text":"عَيْنٍ","translation":{"text":"ঝর্ণা","language_name":"bengali","language_id":20},"transliteration":{"text":"ʿaynin","language_name":"english","language_id":38}},{"id":4674,"position":4,"audio_url":"wbw/088_005_004.mp3","char_type_name":"word","page_number":592,"line_number":8,"text":"ءَانِيَةٍۢ","translation":{"text":"ফুটন্ত","language_name":"bengali","language_id":20},"transliteration":{"text":"āniyatin","language_name":"english","language_id":38}},{"id":4675,"position":5,"audio_url":null,"char_type_name":"end","page_number":592,"line_number":8,"text":"٥","translation":{"text":"(৫)","language_name":"bengali","language_id":20},"transliteration":{"text":null,"language_name":"english","language_id":38}}]},{"id":5973,"verse_number":6,"verse_key":"88:6","hizb_number":60,"rub_el_hizb_number":237,"ruku_number":532,"manzil_number":7,"sajdah_number":null,"page_number":592,"juz_number":30,"words":[{"id":5859,"position":1,"audio_url":"wbw/088_006_001.mp3","char_type_name":"word","page_number":592,"line_number":8,"text":"لَّيْسَ","translation":{"text":"নেই","language_name":"bengali","language_id":20},"transliteration":{"text":"laysa","language_name":"english","language_id":38}},{"id":5860,"position":2,"audio_url":"wbw/088_006_002.mp3","char_type_name":"word","page_number":592,"line_number":9,"text":"لَهُمْ","translation":{"text":"তাদের জন্যে","language_name":"bengali","language_id":20},"transliteration":{"text":"lahum","language_name":"english","language_id":38}},{"id":5861,"position":3,"audio_url":"wbw/088_006_003.mp3","char_type_name":"word","page_number":592,"line_number":9,"text":"طَعَامٌ","translation":{"text":"(অন্য কোনো) খাদ্য","language_name":"bengali","language_id":20},"transliteration":{"text":"ṭaʿāmun","language_name":"english","language_id":38}},{"id":5862,"position":4,"audio_url":"wbw/088_006_004.mp3","char_type_name":"word","page_number":592,"line_number":9,"text":"إِلَّا","translation":{"text":"এ ছাড়া","language_name":"bengali","language_id":20},"transliteration":{"text":"illā","language_name":"english","language_id":38}},{"id":5863,"position":5,"audio_url":"wbw/088_006_005.mp3","char_type_name":"word","page_number":592,"line_number":9,"text":"مِن","translation":{"text":"থেকে","language_name":"bengali","language_id":20},"transliteration":{"text":"min","language_name":"english","language_id":38}},{"id":5864,"position":6,"audio_url":"wbw/088_006_006.mp3","char_type_name":"word","page_number":592,"line_number":9,"text":"ضَرِيعٍۢ","translation":{"text":"শুকনো কাঁটাযুক্ত ঝাড়","language_name":"bengali","language_id":20},"transliteration":{"text":"ḍarīʿin","language_name":"english","language_id":38}},{"id":5865,"position":7,"audio_url":null,"char_type_name":"end","page_number":592,"line_number":9,"text":"٦","translation":{"text":"(৬)","language_name":"bengali","language_id":20},"transliteration":{"text":null,"language_name":"english","language_id":38}}]},{"id":5974,"verse_number":7,"verse_key":"88:7","hizb_number":60,"rub_el_hizb_number":237,"ruku_number":532,"manzil_number":7,"sajdah_number":null,"page_number":592,"juz_number":30,"words":[{"id":7328,"position":1,"audio_url":"wbw/088_007_001.mp3","char_type_name":"word","page_number":592,"line_number":9,"text":"لَّا","translation":{"text":"না","language_name":"bengali","language_id":20},"transliteration":{"text":"lā","language_name":"english","language_id":38}},{"id":7329,"position":2,"audio_url":"wbw/088_007_002.mp3","char_type_name":"word","page_number":592,"line_number":9,"text":"يُسْمِنُ","translation":{"text":"পুষ্ট করবে (তা)","language_name":"bengali","language_id":20},"transliteration":{"text":"yus'minu","language_name":"english","language_id":38}},{"id":7330,"position":3,"audio_url":"wbw/088_007_003.mp3","char_type_name":"word","page_number":592,"line_number":9,"text":"وَلَا","translation":{"text":"আর না","language_name":"bengali","language_id":20},"transliteration":{"text":"walā","language_name":"english","language_id":38}},{"id":7331,"position":4,"audio_url":"wbw/088_007_004.mp3","char_type_name":"word","page_number":592,"line_number":9,"text":"يُغْنِى","translation":{"text":"মেটাবে","language_name":"bengali","language_id":20},"transliteration":{"text":"yugh'nī","language_name":"english","language_id":38}},{"id":7332,"position":5,"audio_url":"wbw/088_007_005.mp3","char_type_name":"word","page_number":592,"line_number":9,"text":"مِن","translation":{"text":"থেকে","language_name":"bengali","language_id":20},"transliteration":{"text":"min","language_name":"english","language_id":38}},{"id":7333,"position":6,"audio_url":"wbw/088_007_006.mp3","char_type_name":"word","page_number":592,"line_number":9,"text":"جُوعٍۢ","translation":{"text":"ক্ষুধা","language_name":"bengali","language_id":20},"transliteration":{"text":"jūʿin","language_name":"english","language_id":38}},{"id":7334,"position":7,"audio_url":null,"char_type_name":"end","page_number":592,"line_number":9,"text":"٧","translation":{"text":"(৭)","language_name":"bengali","language_id":20},"transliteration":{"text":null,"language_name":"english","language_id":38}}]},{"id":5975,"verse_number":8,"verse_key":"88:8","hizb_number":60,"rub_el_hizb_number":237,"ruku_number":532,"manzil_number":7,"sajdah_number":null,"page_number":592,"juz_number":30,"words":[{"id":8595,"position":1,"audio_url":"wbw/088_008_001.mp3","char_type_name":"word","page_number":592,"line_number":9,"text":"وُجُوهٌۭ","translation":{"text":"(অনেকের) মুখমণ্ডল","language_name":"bengali","language_id":20},"transliteration":{"text":"wujūhun","language_name":"english","language_id":38}},{"id":8596,"position":2,"audio_url":"wbw/088_008_002.mp3","char_type_name":"word","page_number":592,"line_number":10,"text":"يَوْمَئِذٍۢ","translation":{"text":"সেদিন","language_name":"bengali","language_id":20},"transliteration":{"text":"yawma-idhin","language_name":"english","language_id":38}},{"id":8597,"position":3,"audio_url":"wbw/088_008_003.mp3","char_type_name":"word","page_number":592,"line_number":10,"text":"نَّاعِمَةٌۭ","translation":{"text":"উজ্জ্বল হবে","language_name":"bengali","language_id":20},"transliteration":{"text":"nāʿimatun","language_name":"english","language_id":38}},{"id":8598,"position":4,"audio_url":null,"char_type_name":"end","page_number":592,"line_number":10,"text":"٨","translation":{"text":"(৮)","language_name":"bengali","language_id":20},"transliteration":{"text":null,"language_name":"english","language_id":38}}]},{"id":5976,"verse_number":9,"verse_key":"88:9","hizb_number":60,"rub_el_hizb_number":237,"ruku_number":532,"manzil_number":7,"sajdah_number":null,"page_number":592,"juz_number":30,"words":[{"id":9841,"position":1,"audio_url":"wbw/088_009_001.mp3","char_type_name":"word","page_number":592,"line_number":10,"text":"لِّسَعْيِهَا","translation":{"text":"তার প্রচেষ্টার জন্যে","language_name":"bengali","language_id":20},"transliteration":{"text":"lisaʿyihā","language_name":"english","language_id":38}},{"id":9842,"position":2,"audio_url":"wbw/088_009_002.mp3","char_type_name":"word","page_number":592,"line_number":10,"text":"رَاضِيَةٌۭ","translation":{"text":"পরিতৃপ্ত হবে","language_name":"bengali","language_id":20},"transliteration":{"text":"rāḍiyatun","language_name":"english","language_id":38}},{"id":9843,"position":3,"audio_url":null,"char_type_name":"end","page_number":592,"line_number":10,"text":"٩","translation":{"text":"(৯)","language_name":"bengali","language_id":20},"transliteration":{"text":null,"language_name":"english","language_id":38}}]},{"id":5977,"verse_number":10,"verse_key":"88:10","hizb_number":60,"rub_el_hizb_number":237,"ruku_number":532,"manzil_number":7,"sajdah_number":null,"page_number":592,"juz_number":30,"words":[{"id":10990,"position":1,"audio_url":"wbw/088_010_001.mp3","char_type_name":"word","page_number":592,"line_number":10,"text":"فِى","translation":{"text":"(তারা থাকবে) মধ্যে","language_name":"bengali","language_id":20},"transliteration":{"text":"fī","language_name":"english","language_id":38}},{"id":10991,"position":2,"audio_url":"wbw/088_010_002.mp3","char_type_name":"word","page_number":592,"line_number":10,"text":"جَنَّةٍ","translation":{"text":"জান্নাতের","language_name":"bengali","language_id":20},"transliteration":{"text":"jannatin","language_name":"english","language_id":38}},{"id":10992,"position":3,"audio_url":"wbw/088_010_003.mp3","char_type_name":"word","page_number":592,"line_number":10,"text":"عَالِيَةٍۢ","translation":{"text":"সুমহান","language_name":"bengali","language_id":20},"transliteration":{"text":"ʿāliyatin","language_name":"english","language_id":38}},{"id":10993,"position":4,"audio_url":null,"char_type_name":"end","page_number":592,"line_number":10,"text":"١٠","translation":{"text":"(১০)","language_name":"bengali","language_id":20},"transliteration":{"text":null,"language_name":"english","language_id":38}}]}],"pagination":{"per_page":10,"current_page":1,"next_page":2,"total_pages":3,"total_records":26}}
