{"verses":[{"id":5840,"verse_number":11,"verse_key":"82:11","hizb_number":59,"rub_el_hizb_number":235,"ruku_number":526,"manzil_number":7,"sajdah_number":null,"page_number":587,"juz_number":30,"words":[{"id":13006,"position":1,"audio_url":"wbw/082_011_001.mp3","verse_key":"82:11","verse_id":5840,"location":"82:11:1","text_uthmani":"كِرَامًۭا","qpc_uthmani_hafs":"كِرَامٗا","char_type_name":"word","page_number":587,"line_number":7,"text":"كِرَامٗا","translation":{"text":"Noble","language_name":"english","language_id":38},"transliteration":{"text":"kirāman","language_name":"english","language_id":38}},{"id":13007,"position":2,"audio_url":"wbw/082_011_002.mp3","verse_key":"82:11","verse_id":5840,"location":"82:11:2","text_uthmani":"كَـٰتِبِينَ","qpc_uthmani_hafs":"كَٰتِبِينَ","char_type_name":"word","page_number":587,"line_number":8,"text":"كَٰتِبِينَ","translation":{"text":"recording","language_name":"english","language_id":38},"transliteration":{"text":"kātibīna","language_name":"english","language_id":38}},{"id":13008,"position":3,"audio_url":null,"verse_key":"82:11","verse_id":5840,"location":"82:11:3","text_uthmani":"١١","qpc_uthmani_hafs":"١١","char_type_name":"end","page_number":587,"line_number":8,"text":"١١","translation":{"text":"(11)","language_name":"english","language_id":38},"transliteration":{"text":null,"language_name":"english","language_id":38}}]},{"id":5841,"verse_number":12,"verse_key":"82:12","hizb_number":59,"rub_el_hizb_number":235,"ruku_number":526,"manzil_number":7,"sajdah_number":null,"page_number":587,"juz_number":30,"words":[{"id":14263,"position":1,"audio_url":"wbw/082_012_001.mp3","verse_key":"82:12","verse_id":5841,"location":"82:12:1","text_uthmani":"يَعْلَمُونَ","qpc_uthmani_hafs":"يَعۡلَمُونَ","char_type_name":"word","page_number":587,"line_number":8,"text":"يَعۡلَمُونَ","translation":{"text":"They know","language_name":"english","language_id":38},"transliteration":{"text":"yaʿlamūna","language_name":"english","language_id":38}},{"id":14264,"position":2,"audio_url":"wbw/082_012_002.mp3","verse_key":"82:12","verse_id":5841,"location":"82:12:2","text_uthmani":"مَا","qpc_uthmani_hafs":"مَا","char_type_name":"word","page_number":587,"line_number":8,"text":"مَا","translation":{"text":"whatever","language_name":"english","language_id":38},"transliteration":{"text":"mā","language_name":"english","language_id":38}},{"id":14265,"position":3,"audio_url":"wbw/082_012_003.mp3","verse_key":"82:12","verse_id":5841,"location":"82:12:3","text_uthmani":"تَفْعَلُونَ","qpc_uthmani_hafs":"تَفۡعَلُونَ","char_type_name":"word","page_number":587,"line_number":8,"text":"تَفۡعَلُونَ","translation":{"text":"you do","language_name":"english","language_id":38},"transliteration":{"text":"tafʿalūna","language_name":"english","language_id":38}},{"id":14266,"position":4,"audio_url":null,"verse_key":"82:12","verse_id":5841,"location":"82:12:4","text_uthmani":"١٢","qpc_uthmani_hafs":"١٢","char_type_name":"end","page_number":587,"line_number":8,"text":"١٢","translation":{"text":"(12)","language_name":"english","language_id":38},"transliteration":{"text":null,"language_name":"english","language_id":38}}]},{"id":5842,"verse_number":13,"verse_key":"82:13","hizb_number":59,"rub_el_hizb_number":235,"ruku_number":526,"manzil_number":7,"sajdah_number":null,"page_number":587,"juz_number":30,"words":[{"id":15378,"position":1,"audio_url":"wbw/082_013_001.mp3","verse_key":"82:13","verse_id":5842,"location":"82:13:1","text_uthmani":"إِنَّ","qpc_uthmani_hafs":"إِنَّ","char_type_name":"word","page_number":587,"line_number":8,"text":"إِنَّ","translation":{"text":"Indeed","language_name":"english","language_id":38},"transliteration":{"text":"inna","language_name":"english","language_id":38}},{"id":15379,"position":2,"audio_url":"wbw/082_013_002.mp3","verse_key":"82:13","verse_id":5842,"location":"82:13:2","text_uthmani":"ٱلْأَبْرَارَ","qpc_uthmani_hafs":"ٱلۡأَبۡرَارَ","char_type_name":"word","page_number":587,"line_number":8,"text":"ٱلۡأَبۡرَارَ","translation":{"text":"the righteous","language_name":"english","language_id":38},"transliteration":{"text":"l-abrāra","language_name":"english","language_id":38}},{"id":15380,"position":3,"audio_url":"wbw/082_013_003.mp3","verse_key":"82:13","verse_id":5842,"location":"82:13:3","text_uthmani":"لَفِى","qpc_uthmani_hafs":"لَفِي","char_type_name":"word","page_number":587,"line_number":8,"text":"لَفِي","translation":{"text":"(will be) surely in","language_name":"english","language_id":38},"transliteration":{"text":"lafī","language_name":"english","language_id":38}},{"id":15381,"position":4,"audio_url":"wbw/082_013_004.mp3","verse_key":"82:13","verse_id":5842,"location":"82:13:4","text_uthmani":"نَعِيمٍۢ","qpc_uthmani_hafs":"نَعِيمٖ","char_type_name":"word","page_number":587,"line_number":8,"text":"نَعِيمٖ","translation":{"text":"bliss","language_name":"english","language_id":38},"transliteration":{"text":"naʿīmin","language_name":"english","language_id":38}},{"id":15382,"position":5,"audio_url":null,"verse_key":"82:13","verse_id":5842,"location":"82:13:5","text_uthmani":"١٣","qpc_uthmani_hafs":"١٣","char_type_name":"end","page_number":587,"line_number":8,"text":"١٣","translation":{"text":"(13)","language_name":"english","language_id":38},"transliteration":{"text":null,"language_name":"english","language_id":38}}]},{"id":5843,"verse_number":14,"verse_key":"82:14","hizb_number":59,"rub_el_hizb_number":235,"ruku_number":526,"manzil_number":7,"sajdah_number":null,"page_number":587,"juz_number":30,"words":[{"id":16432,"position":1,"audio_url":"wbw/082_014_001.mp3","verse_key":"82:14","verse_id":5843,"location":"82:14:1","text_uthmani":"وَإِنَّ","qpc_uthmani_hafs":"وَإِنَّ","char_type_name":"word","page_number":587,"line_number":8,"text":"وَإِنَّ","translation":{"text":"And indeed","language_name":"english","language_id":38},"transliteration":{"text":"wa-inna","language_name":"english","language_id":38}},{"id":16433,"position":2,"audio_url":"wbw/082_014_002.mp3","verse_key":"82:14","verse_id":5843,"location":"82:14:2","text_uthmani":"ٱلْفُجَّارَ","qpc_uthmani_hafs":"ٱلۡفُجَّارَ","char_type_name":"word","page_number":587,"line_number":9,"text":"ٱلۡفُجَّارَ","translation":{"text":"the wicked","language_name":"english","language_id":38},"transliteration":{"text":"l-fujāra","language_name":"english","language_id":38}},{"id":16434,"position":3,"audio_url":"wbw/082_014_003.mp3","verse_key":"82:14","verse_id":5843,"location":"82:14:3","text_uthmani":"لَفِى","qpc_uthmani_hafs":"لَفِي","char_type_name":"word","page_number":587,"line_number":9,"text":"لَفِي","translation":{"text":"(will be) surely in","language_name":"english","language_id":38},"transliteration":{"text":"lafī","language_name":"english","language_id":38}},{"id":16435,"position":4,"audio_url":"wbw/082_014_004.mp3","verse_key":"82:14","verse_id":5843,"location":"82:14:4","text_uthmani":"جَحِيمٍۢ","qpc_uthmani_hafs":"جَحِيمٖ","char_type_name":"word","page_number":587,"line_number":9,"text":"جَحِيمٖ","translation":{"text":"Hellfire","language_name":"english","language_id":38},"transliteration":{"text":"jaḥīmin","language_name":"english","language_id":38}},{"id":16436,"position":5,"audio_url":null,"verse_key":"82:14","verse_id":5843,"location":"82:14:5","text_uthmani":"١٤","qpc_uthmani_hafs":"١٤","char_type_name":"end","page_number":587,"line_number":9,"text":"١٤","translation":{"text":"(14)","language_name":"english","language_id":38},"transliteration":{"text":null,"language_name":"english","language_id":38}}]},{"id":5844,"verse_number":15,"verse_key":"82:15","hizb_number":59,"rub_el_hizb_number":235,"ruku_number":526,"manzil_number":7,"sajdah_number":null,"page_number":587,"juz_number":30,"words":[{"id":17585,"position":1,"audio_url":"wbw/082_015_001.mp3","verse_key":"82:15","verse_id":5844,"location":"82:15:1","text_uthmani":"يَصْلَوْنَهَا","qpc_uthmani_hafs":"يَصۡلَوۡنَهَا","char_type_name":"word","page_number":587,"line_number":9,"text":"يَصۡلَوۡنَهَا","translation":{"text":"They will burn (in) it","language_name":"english","language_id":38},"transliteration":{"text":"yaṣlawnahā","language_name":"english","language_id":38}},{"id":17586,"position":2,"audio_url":"wbw/082_015_002.mp3","verse_key":"82:15","verse_id":5844,"location":"82:15:2","text_uthmani":"يَوْمَ","qpc_uthmani_hafs":"يَوۡمَ","char_type_name":"word","page_number":587,"line_number":9,"text":"يَوۡمَ","translation":{"text":"(on the) Day","language_name":"english","language_id":38},"transliteration":{"text":"yawma","language_name":"english","language_id":38}},{"id":17587,"position":3,"audio_url":"wbw/082_015_003.mp3","verse_key":"82:15","verse_id":5844,"location":"82:15:3","text_uthmani":"ٱلدِّينِ","qpc_uthmani_hafs":"ٱلدِّينِ","char_type_name":"word","page_number":587,"line_number":9,"text":"ٱلدِّينِ","translation":{"text":"(of) the Judgment","language_name":"english","language_id":38},"transliteration":{"text":"l-dīni","language_name":"english","language_id":38}},{"id":17588,"position":4,"audio_url":null,"verse_key":"82:15","verse_id":5844,"location":"82:15:4","text_uthmani":"١٥","qpc_uthmani_hafs":"١٥","char_type_name":"end","page_number":587,"line_number":9,"text":"١٥","translation":{"text":"(15)","language_name":"english","language_id":38},"transliteration":{"text":null,"language_name":"english","language_id":38}}]},{"id":5845,"verse_number":16,"verse_key":"82:16","hizb_number":59,"rub_el_hizb_number":235,"ruku_number":526,"manzil_number":7,"sajdah_number":null,"page_number":587,"juz_number":30,"words":[{"id":18628,"position":1,"audio_url":"wbw/082_016_001.mp3","verse_key":"82:16","verse_id":5845,"location":"82:16:1","text_uthmani":"وَمَا","qpc_uthmani_hafs":"وَمَا","char_type_name":"word","page_number":587,"line_number":9,"text":"وَمَا","translation":{"text":"And not","language_name":"english","language_id":38},"transliteration":{"text":"wamā","language_name":"english","language_id":38}},{"id":18629,"position":2,"audio_url":"wbw/082_016_002.mp3","verse_key":"82:16","verse_id":5845,"location":"82:16:2","text_uthmani":"هُمْ","qpc_uthmani_hafs":"هُمۡ","char_type_name":"word","page_number":587,"line_number":9,"text":"هُمۡ","translation":{"text":"they","language_name":"english","language_id":38},"transliteration":{"text":"hum","language_name":"english","language_id":38}},{"id":18630,"position":3,"audio_url":"wbw/082_016_003.mp3","verse_key":"82:16","verse_id":5845,"location":"82:16:3","text_uthmani":"عَنْهَا","qpc_uthmani_hafs":"عَنۡهَا","char_type_name":"word","page_number":587,"line_number":9,"text":"عَنۡهَا","translation":{"text":"from it","language_name":"english","language_id":38},"transliteration":{"text":"ʿanhā","language_name":"english","language_id":38}},{"id":18631,"position":4,"audio_url":"wbw/082_016_004.mp3","verse_key":"82:16","verse_id":5845,"location":"82:16:4","text_uthmani":"بِغَآئِبِينَ","qpc_uthmani_hafs":"بِغَآئِبِينَ","char_type_name":"word","page_number":587,"line_number":9,"text":"بِغَآئِبِينَ","translation":{"text":"(will be) absent","language_name":"english","language_id":38},"transliteration":{"text":"bighāibīna","language_name":"english","language_id":38}},{"id":18632,"position":5,"audio_url":null,"verse_key":"82:16","verse_id":5845,"location":"82:16:5","text_uthmani":"١٦","qpc_uthmani_hafs":"١٦","char_type_name":"end","page_number":587,"line_number":10,"text":"١٦","translation":{"text":"(16)","language_name":"english","language_id":38},"transliteration":{"text":null,"language_name":"english","language_id":38}}]},{"id":5846,"verse_number":17,"verse_key":"82:17","hizb_number":59,"rub_el_hizb_number":235,"ruku_number":526,"manzil_number":7,"sajdah_number":null,"page_number":587,"juz_number":30,"words":[{"id":19681,"position":1,"audio_url":"wbw/082_017_001.mp3","verse_key":"82:17","verse_id":5846,"location":"82:17:1","text_uthmani":"وَمَآ","qpc_uthmani_hafs":"وَمَآ","char_type_name":"word","page_number":587,"line_number":10,"text":"وَمَآ","translation":{"text":"And what","language_name":"english","language_id":38},"transliteration":{"text":"wamā","language_name":"english","language_id":38}},{"id":19682,"position":2,"audio_url":"wbw/082_017_002.mp3","verse_key":"82:17","verse_id":5846,"location":"82:17:2","text_uthmani":"أَدْرَىٰكَ","qpc_uthmani_hafs":"أَدۡرَىٰكَ","char_type_name":"word","page_number":587,"line_number":10,"text":"أَدۡرَىٰكَ","translation":{"text":"can make you know","language_name":"english","language_id":38},"transliteration":{"text":"adrāka","language_name":"english","language_id":38}},{"id":19683,"position":3,"audio_url":"wbw/082_017_003.mp3","verse_key":"82:17","verse_id":5846,"location":"82:17:3","text_uthmani":"مَا","qpc_uthmani_hafs":"مَا","char_type_name":"word","page_number":587,"line_number":10,"text":"مَا","translation":{"text":"what","language_name":"english","language_id":38},"transliteration":{"text":"mā","language_name":"english","language_id":38}},{"id":19684,"position":4,"audio_url":"wbw/082_017_004.mp3","verse_key":"82:17","verse_id":5846,"location":"82:17:4","text_uthmani":"يَوْمُ","qpc_uthmani_hafs":"يَوۡمُ","char_type_name":"word","page_number":587,"line_number":10,"text":"يَوۡمُ","translation":{"text":"(is the) Day","language_name":"english","language_id":38},"transliteration":{"text":"yawmu","language_name":"english","language_id":38}},{"id":19685,"position":5,"audio_url":"wbw/082_017_005.mp3","verse_key":"82:17","verse_id":5846,"location":"82:17:5","text_uthmani":"ٱلدِّينِ","qpc_uthmani_hafs":"ٱلدِّينِ","char_type_name":"word","page_number":587,"line_number":10,"text":"ٱلدِّينِ","translation":{"text":"(of) the Judgment","language_name":"english","language_id":38},"transliteration":{"text":"l-dīni","language_name":"english","language_id":38}},{"id":19686,"position":6,"audio_url":null,"verse_key":"82:17","verse_id":5846,"location":"82:17:6","text_uthmani":"١٧","qpc_uthmani_hafs":"١٧","char_type_name":"end","page_number":587,"line_number":10,"text":"١٧","translation":{"text":"(17)","language_name":"english","language_id":38},"transliteration":{"text":null,"language_name":"english","language_id":38}}]},{"id":5847,"verse_number":18,"verse_key":"82:18","hizb_number":59,"rub_el_hizb_number":235,"ruku_number":526,"manzil_number":7,"sajdah_number":null,"page_number":587,"juz_number":30,"words":[{"id":20783,"position":1,"audio_url":"wbw/082_018_001.mp3","verse_key":"82:18","verse_id":5847,"location":"82:18:1","text_uthmani":"ثُمَّ","qpc_uthmani_hafs":"ثُمَّ","char_type_name":"word","page_number":587,"line_number":10,"text":"ثُمَّ","translation":{"text":"Then","language_name":"english","language_id":38},"transliteration":{"text":"thumma","language_name":"english","language_id":38}},{"id":20784,"position":2,"audio_url":"wbw/082_018_002.mp3","verse_key":"82:18","verse_id":5847,"location":"82:18:2","text_uthmani":"مَآ","qpc_uthmani_hafs":"مَآ","char_type_name":"word","page_number":587,"line_number":10,"text":"مَآ","translation":{"text":"what","language_name":"english","language_id":38},"transliteration":{"text":"mā","language_name":"english","language_id":38}},{"id":20785,"position":3,"audio_url":"wbw/082_018_003.mp3","verse_key":"82:18","verse_id":5847,"location":"82:18:3","text_uthmani":"أَدْرَىٰكَ","qpc_uthmani_hafs":"أَدۡرَىٰكَ","char_type_name":"word","page_number":587,"line_number":10,"text":"أَدۡرَىٰكَ","translation":{"text":"can make you know","language_name":"english","language_id":38},"transliteration":{"text":"adrāka","language_name":"english","language_id":38}},{"id":20786,"position":4,"audio_url":"wbw/082_018_004.mp3","verse_key":"82:18","verse_id":5847,"location":"82:18:4","text_uthmani":"مَا","qpc_uthmani_hafs":"مَا","char_type_name":"word","page_number":587,"line_number":10,"text":"مَا","translation":{"text":"what","language_name":"english","language_id":38},"transliteration":{"text":"mā","language_name":"english","language_id":38}},{"id":20787,"position":5,"audio_url":"wbw/082_018_005.mp3","verse_key":"82:18","verse_id":5847,"location":"82:18:5","text_uthmani":"يَوْمُ","qpc_uthmani_hafs":"يَوۡمُ","char_type_name":"word","page_number":587,"line_number":10,"text":"يَوۡمُ","translation":{"text":"(is the) Day","language_name":"english","language_id":38},"transliteration":{"text":"yawmu","language_name":"english","language_id":38}},{"id":20788,"position":6,"audio_url":"wbw/082_018_006.mp3","verse_key":"82:18","verse_id":5847,"location":"82:18:6","text_uthmani":"ٱلدِّينِ","qpc_uthmani_hafs":"ٱلدِّينِ","char_type_name":"word","page_number":587,"line_number":10,"text":"ٱلدِّينِ","translation":{"text":"(of) the Judgment","language_name":"english","language_id":38},"transliteration":{"text":"l-dīni","language_name":"english","language_id":38}},{"id":20789,"position":7,"audio_url":null,"verse_key":"82:18","verse_id":5847,"location":"82:18:7","text_uthmani":"١٨","qpc_uthmani_hafs":"١٨","char_type_name":"end","page_number":587,"line_number":11,"text":"١٨","translation":{"text":"(18)","language_name":"english","language_id":38},"transliteration":{"text":null,"language_name":"english","language_id":38}}]},{"id":5848,"verse_number":19,"verse_key":"82:19","hizb_number":59,"rub_el_hizb_number":235,"ruku_number":526,"manzil_number":7,"sajdah_number":null,"page_number":587,"juz_number":30,"words":[{"id":21813,"position":1,"audio_url":"wbw/082_019_001.mp3","verse_key":"82:19","verse_id":5848,"location":"82:19:1","text_uthmani":"يَوْمَ","qpc_uthmani_hafs":"يَوۡمَ","char_type_name":"word","page_number":587,"line_number":11,"text":"يَوۡمَ","translation":{"text":"(The) Day","language_name":"english","language_id":38},"transliteration":{"text":"yawma","language_name":"english","language_id":38}},{"id":21814,"position":2,"audio_url":"wbw/082_019_002.mp3","verse_key":"82:19","verse_id":5848,"location":"82:19:2","text_uthmani":"لَا","qpc_uthmani_hafs":"لَا","char_type_name":"word","page_number":587,"line_number":11,"text":"لَا","translation":{"text":"not","language_name":"english","language_id":38},"transliteration":{"text":"lā","language_name":"english","language_id":38}},{"id":21815,"position":3,"audio_url":"wbw/082_019_003.mp3","verse_key":"82:19","verse_id":5848,"location":"82:19:3","text_uthmani":"تَمْلِكُ","qpc_uthmani_hafs":"تَمۡلِكُ","char_type_name":"word","page_number":587,"line_number":11,"text":"تَمۡلِكُ","translation":{"text":"will have power","language_name":"english","language_id":38},"transliteration":{"text":"tamliku","language_name":"english","language_id":38}},{"id":21816,"position":4,"audio_url":"wbw/082_019_004.mp3","verse_key":"82:19","verse_id":5848,"location":"82:19:4","text_uthmani":"نَفْسٌۭ","qpc_uthmani_hafs":"نَفۡسٞ","char_type_name":"word","page_number":587,"line_number":11,"text":"نَفۡسٞ","translation":{"text":"a soul","language_name":"english","language_id":38},"transliteration":{"text":"nafsun","language_name":"english","language_id":38}},{"id":21817,"position":5,"audio_url":"wbw/082_019_005.mp3","verse_key":"82:19","verse_id":5848,"location":"82:19:5","text_uthmani":"لِّنَفْسٍۢ","qpc_uthmani_hafs":"لِّنَفۡسٖ","char_type_name":"word","page_number":587,"line_number":11,"text":"لِّنَفۡسٖ","translation":{"text":"for a soul","language_name":"english","language_id":38},"transliteration":{"text":"linafsin","language_name":"english","language_id":38}},{"id":21818,"position":6,"audio_url":"wbw/082_019_006.mp3","verse_key":"82:19","verse_id":5848,"location":"82:19:6","text_uthmani":"شَيْـًۭٔا ۖ","qpc_uthmani_hafs":"شَيۡـٔٗاۖ","char_type_name":"word","page_number":587,"line_number":11,"text":"شَيۡـٔٗاۖ","translation":{"text":"anything","language_name":"english","language_id":38},"transliteration":{"text":"shayan","language_name":"english","language_id":38}},{"id":21820,"position":7,"audio_url":"wbw/082_019_008.mp3","verse_key":"82:19","verse_id":5848,"location":"82:19:7","text_uthmani":"وَٱلْأَمْرُ","qpc_uthmani_hafs":"وَٱلۡأَمۡرُ","char_type_name":"word","page_number":587,"line_number":11,"text":"وَٱلۡأَمۡرُ","translation":{"text":"and the Command","language_name":"english","language_id":38},"transliteration":{"text":"wal-amru","language_name":"english","language_id":38}},{"id":21821,"position":8,"audio_url":"wbw/082_019_009.mp3","verse_key":"82:19","verse_id":5848,"location":"82:19:8","text_uthmani":"يَوْمَئِذٍۢ","qpc_uthmani_hafs":"يَوۡمَئِذٖ","char_type_name":"word","page_number":587,"line_number":11,"text":"يَوۡمَئِذٖ","translation":{"text":"that Day","language_name":"english","language_id":38},"transliteration":{"text":"yawma-idhin","language_name":"english","language_id":38}},{"id":21822,"position":9,"audio_url":"wbw/082_019_010.mp3","verse_key":"82:19","verse_id":5848,"location":"82:19:9","text_uthmani":"لِّلَّهِ","qpc_uthmani_hafs":"لِّلَّهِ","char_type_name":"word","page_number":587,"line_number":11,"text":"لِّلَّهِ","translation":{"text":"(will be) with Allah","language_name":"english","language_id":38},"transliteration":{"text":"lillahi","language_name":"english","language_id":38}},{"id":21823,"position":10,"audio_url":null,"verse_key":"82:19","verse_id":5848,"location":"82:19:10","text_uthmani":"١٩","qpc_uthmani_hafs":"١٩","char_type_name":"end","page_number":587,"line_number":11,"text":"١٩","translation":{"text":"(19)","language_name":"english","language_id":38},"transliteration":{"text":null,"language_name":"english","language_id":38}}]}],"pagination":{"per_page":10,"current_page":2,"next_page":null,"total_pages":2,"total_records":19}}
