{"verses":[{"id":4214,"verse_number":81,"verse_key":"40:81","hizb_number":48,"rub_el_hizb_number":190,"ruku_number":414,"manzil_number":6,"sajdah_number":null,"page_number":476,"juz_number":24,"words":[{"id":64725,"position":1,"audio_url":"wbw/040_081_001.mp3","char_type_name":"word","page_number":476,"line_number":7,"text":"وَيُرِيكُمْ","translation":{"text":"এবং তোমাদের দেখান তিনি","language_name":"bengali","language_id":20},"transliteration":{"text":"wayurīkum","language_name":"english","language_id":38}},{"id":64726,"position":2,"audio_url":"wbw/040_081_002.mp3","char_type_name":"word","page_number":476,"line_number":7,"text":"ءَايَـٰتِهِۦ","translation":{"text":"তাঁর নিদর্শনাবলী","language_name":"bengali","language_id":20},"transliteration":{"text":"āyātihi","language_name":"english","language_id":38}},{"id":64727,"position":3,"audio_url":"wbw/040_081_003.mp3","char_type_name":"word","page_number":476,"line_number":7,"text":"فَأَىَّ","translation":{"text":"সুতরাং কোন","language_name":"bengali","language_id":20},"transliteration":{"text":"fa-ayya","language_name":"english","language_id":38}},{"id":64728,"position":4,"audio_url":"wbw/040_081_004.mp3","char_type_name":"word","page_number":476,"line_number":7,"text":"ءَايَـٰتِ","translation":{"text":"নিদর্শনাবলী","language_name":"bengali","language_id":20},"transliteration":{"text":"āyāti","language_name":"english","language_id":38}},{"id":64729,"position":5,"audio_url":"wbw/040_081_005.mp3","char_type_name":"word","page_number":476,"line_number":7,"text":"ٱللَّهِ","translation":{"text":"আল্লাহর","language_name":"bengali","language_id":20},"transliteration":{"text":"l-lahi","language_name":"english","language_id":38}},{"id":64730,"position":6,"audio_url":"wbw/040_081_006.mp3","char_type_name":"word","page_number":476,"line_number":8,"text":"تُنكِرُونَ","translation":{"text":"তোমরা অস্বীকার করবে","language_name":"bengali","language_id":20},"transliteration":{"text":"tunkirūna","language_name":"english","language_id":38}},{"id":64731,"position":7,"audio_url":null,"char_type_name":"end","page_number":476,"line_number":8,"text":"٨١","translation":{"text":"(৮১)","language_name":"bengali","language_id":20},"transliteration":{"text":null,"language_name":"english","language_id":38}}]},{"id":4215,"verse_number":82,"verse_key":"40:82","hizb_number":48,"rub_el_hizb_number":190,"ruku_number":414,"manzil_number":6,"sajdah_number":null,"page_number":476,"juz_number":24,"words":[{"id":65070,"position":1,"audio_url":"wbw/040_082_001.mp3","char_type_name":"word","page_number":476,"line_number":8,"text":"أَفَلَمْ","translation":{"text":"নি তবে কি","language_name":"bengali","language_id":20},"transliteration":{"text":"afalam","language_name":"english","language_id":38}},{"id":65071,"position":2,"audio_url":"wbw/040_082_002.mp3","char_type_name":"word","page_number":476,"line_number":8,"text":"يَسِيرُوا۟","translation":{"text":"তারা ভ্রমণ করে","language_name":"bengali","language_id":20},"transliteration":{"text":"yasīrū","language_name":"english","language_id":38}},{"id":65072,"position":3,"audio_url":"wbw/040_082_003.mp3","char_type_name":"word","page_number":476,"line_number":8,"text":"فِى","translation":{"text":"মধ্যে","language_name":"bengali","language_id":20},"transliteration":{"text":"fī","language_name":"english","language_id":38}},{"id":65073,"position":4,"audio_url":"wbw/040_082_004.mp3","char_type_name":"word","page_number":476,"line_number":8,"text":"ٱلْأَرْضِ","translation":{"text":"পৃথিবীর","language_name":"bengali","language_id":20},"transliteration":{"text":"l-arḍi","language_name":"english","language_id":38}},{"id":65074,"position":5,"audio_url":"wbw/040_082_005.mp3","char_type_name":"word","page_number":476,"line_number":8,"text":"فَيَنظُرُوا۟","translation":{"text":"তারা অতঃপর দেখে (নি কি)","language_name":"bengali","language_id":20},"transliteration":{"text":"fayanẓurū","language_name":"english","language_id":38}},{"id":65075,"position":6,"audio_url":"wbw/040_082_006.mp3","char_type_name":"word","page_number":476,"line_number":8,"text":"كَيْفَ","translation":{"text":"কেমন","language_name":"bengali","language_id":20},"transliteration":{"text":"kayfa","language_name":"english","language_id":38}},{"id":65076,"position":7,"audio_url":"wbw/040_082_007.mp3","char_type_name":"word","page_number":476,"line_number":9,"text":"كَانَ","translation":{"text":"ছিলো","language_name":"bengali","language_id":20},"transliteration":{"text":"kāna","language_name":"english","language_id":38}},{"id":65077,"position":8,"audio_url":"wbw/040_082_008.mp3","char_type_name":"word","page_number":476,"line_number":9,"text":"عَـٰقِبَةُ","translation":{"text":"পরিণতি","language_name":"bengali","language_id":20},"transliteration":{"text":"ʿāqibatu","language_name":"english","language_id":38}},{"id":65078,"position":9,"audio_url":"wbw/040_082_009.mp3","char_type_name":"word","page_number":476,"line_number":9,"text":"ٱلَّذِينَ","translation":{"text":"(তাদের) যারা","language_name":"bengali","language_id":20},"transliteration":{"text":"alladhīna","language_name":"english","language_id":38}},{"id":65079,"position":10,"audio_url":"wbw/040_082_010.mp3","char_type_name":"word","page_number":476,"line_number":9,"text":"مِن","translation":{"text":"মধ্য হতে","language_name":"bengali","language_id":20},"transliteration":{"text":"min","language_name":"english","language_id":38}},{"id":65080,"position":11,"audio_url":"wbw/040_082_011.mp3","char_type_name":"word","page_number":476,"line_number":9,"text":"قَبْلِهِمْ ۚ","translation":{"text":"তাদের পূর্বে (ছিলো)","language_name":"bengali","language_id":20},"transliteration":{"text":"qablihim","language_name":"english","language_id":38}},{"id":65082,"position":12,"audio_url":"wbw/040_082_013.mp3","char_type_name":"word","page_number":476,"line_number":9,"text":"كَانُوٓا۟","translation":{"text":"তারা ছিলো","language_name":"bengali","language_id":20},"transliteration":{"text":"kānū","language_name":"english","language_id":38}},{"id":65083,"position":13,"audio_url":"wbw/040_082_014.mp3","char_type_name":"word","page_number":476,"line_number":9,"text":"أَكْثَرَ","translation":{"text":"(সংখ্যায়) বেশী","language_name":"bengali","language_id":20},"transliteration":{"text":"akthara","language_name":"english","language_id":38}},{"id":65084,"position":14,"audio_url":"wbw/040_082_015.mp3","char_type_name":"word","page_number":476,"line_number":9,"text":"مِنْهُمْ","translation":{"text":"এদের চেয়েও","language_name":"bengali","language_id":20},"transliteration":{"text":"min'hum","language_name":"english","language_id":38}},{"id":65085,"position":15,"audio_url":"wbw/040_082_016.mp3","char_type_name":"word","page_number":476,"line_number":9,"text":"وَأَشَدَّ","translation":{"text":"ও প্রবল","language_name":"bengali","language_id":20},"transliteration":{"text":"wa-ashadda","language_name":"english","language_id":38}},{"id":65086,"position":16,"audio_url":"wbw/040_082_017.mp3","char_type_name":"word","page_number":476,"line_number":10,"text":"قُوَّةًۭ","translation":{"text":"শক্তিতে","language_name":"bengali","language_id":20},"transliteration":{"text":"quwwatan","language_name":"english","language_id":38}},{"id":65087,"position":17,"audio_url":"wbw/040_082_018.mp3","char_type_name":"word","page_number":476,"line_number":10,"text":"وَءَاثَارًۭا","translation":{"text":"ও কীর্তিতে","language_name":"bengali","language_id":20},"transliteration":{"text":"waāthāran","language_name":"english","language_id":38}},{"id":65088,"position":18,"audio_url":"wbw/040_082_019.mp3","char_type_name":"word","page_number":476,"line_number":10,"text":"فِى","translation":{"text":"মধ্যে","language_name":"bengali","language_id":20},"transliteration":{"text":"fī","language_name":"english","language_id":38}},{"id":65089,"position":19,"audio_url":"wbw/040_082_020.mp3","char_type_name":"word","page_number":476,"line_number":10,"text":"ٱلْأَرْضِ","translation":{"text":"পৃথিবীর","language_name":"bengali","language_id":20},"transliteration":{"text":"l-arḍi","language_name":"english","language_id":38}},{"id":65090,"position":20,"audio_url":"wbw/040_082_021.mp3","char_type_name":"word","page_number":476,"line_number":10,"text":"فَمَآ","translation":{"text":"অতঃপর না","language_name":"bengali","language_id":20},"transliteration":{"text":"famā","language_name":"english","language_id":38}},{"id":65091,"position":21,"audio_url":"wbw/040_082_022.mp3","char_type_name":"word","page_number":476,"line_number":10,"text":"أَغْنَىٰ","translation":{"text":"কাজে আসলো","language_name":"bengali","language_id":20},"transliteration":{"text":"aghnā","language_name":"english","language_id":38}},{"id":65092,"position":22,"audio_url":"wbw/040_082_023.mp3","char_type_name":"word","page_number":476,"line_number":10,"text":"عَنْهُم","translation":{"text":"তাদের জন্যে","language_name":"bengali","language_id":20},"transliteration":{"text":"ʿanhum","language_name":"english","language_id":38}},{"id":65093,"position":23,"audio_url":"wbw/040_082_024.mp3","char_type_name":"word","page_number":476,"line_number":10,"text":"مَّا","translation":{"text":"যা","language_name":"bengali","language_id":20},"transliteration":{"text":"mā","language_name":"english","language_id":38}},{"id":65094,"position":24,"audio_url":"wbw/040_082_025.mp3","char_type_name":"word","page_number":476,"line_number":10,"text":"كَانُوا۟","translation":{"text":"তারা","language_name":"bengali","language_id":20},"transliteration":{"text":"kānū","language_name":"english","language_id":38}},{"id":65095,"position":25,"audio_url":"wbw/040_082_026.mp3","char_type_name":"word","page_number":476,"line_number":10,"text":"يَكْسِبُونَ","translation":{"text":"অর্জন করেছিলো","language_name":"bengali","language_id":20},"transliteration":{"text":"yaksibūna","language_name":"english","language_id":38}},{"id":65096,"position":26,"audio_url":null,"char_type_name":"end","page_number":476,"line_number":11,"text":"٨٢","translation":{"text":"(৮২)","language_name":"bengali","language_id":20},"transliteration":{"text":null,"language_name":"english","language_id":38}}]},{"id":4216,"verse_number":83,"verse_key":"40:83","hizb_number":48,"rub_el_hizb_number":190,"ruku_number":414,"manzil_number":6,"sajdah_number":null,"page_number":476,"juz_number":24,"words":[{"id":65337,"position":1,"audio_url":"wbw/040_083_001.mp3","char_type_name":"word","page_number":476,"line_number":11,"text":"فَلَمَّا","translation":{"text":"অতঃপর যখন","language_name":"bengali","language_id":20},"transliteration":{"text":"falammā","language_name":"english","language_id":38}},{"id":65338,"position":2,"audio_url":"wbw/040_083_002.mp3","char_type_name":"word","page_number":476,"line_number":11,"text":"جَآءَتْهُمْ","translation":{"text":"তাদের কাছে আসলো","language_name":"bengali","language_id":20},"transliteration":{"text":"jāathum","language_name":"english","language_id":38}},{"id":65339,"position":3,"audio_url":"wbw/040_083_003.mp3","char_type_name":"word","page_number":476,"line_number":11,"text":"رُسُلُهُم","translation":{"text":"তাদের রাসূলগণ","language_name":"bengali","language_id":20},"transliteration":{"text":"rusuluhum","language_name":"english","language_id":38}},{"id":65340,"position":4,"audio_url":"wbw/040_083_004.mp3","char_type_name":"word","page_number":476,"line_number":11,"text":"بِٱلْبَيِّنَـٰتِ","translation":{"text":"সুস্পষ্ট প্রমাণসহ","language_name":"bengali","language_id":20},"transliteration":{"text":"bil-bayināti","language_name":"english","language_id":38}},{"id":65341,"position":5,"audio_url":"wbw/040_083_005.mp3","char_type_name":"word","page_number":476,"line_number":11,"text":"فَرِحُوا۟","translation":{"text":"তারা খুশীতে মগ্ন রইলো","language_name":"bengali","language_id":20},"transliteration":{"text":"fariḥū","language_name":"english","language_id":38}},{"id":65342,"position":6,"audio_url":"wbw/040_083_006.mp3","char_type_name":"word","page_number":476,"line_number":11,"text":"بِمَا","translation":{"text":"ঐ বিষয়ে যা (ছিলো)","language_name":"bengali","language_id":20},"transliteration":{"text":"bimā","language_name":"english","language_id":38}},{"id":65343,"position":7,"audio_url":"wbw/040_083_007.mp3","char_type_name":"word","page_number":476,"line_number":11,"text":"عِندَهُم","translation":{"text":"তাদের কাছে","language_name":"bengali","language_id":20},"transliteration":{"text":"ʿindahum","language_name":"english","language_id":38}},{"id":65344,"position":8,"audio_url":"wbw/040_083_008.mp3","char_type_name":"word","page_number":476,"line_number":11,"text":"مِّنَ","translation":{"text":"অংশ বিশেষ","language_name":"bengali","language_id":20},"transliteration":{"text":"mina","language_name":"english","language_id":38}},{"id":65345,"position":9,"audio_url":"wbw/040_083_009.mp3","char_type_name":"word","page_number":476,"line_number":12,"text":"ٱلْعِلْمِ","translation":{"text":"(নিজস্ব) জ্ঞানের","language_name":"bengali","language_id":20},"transliteration":{"text":"l-ʿil'mi","language_name":"english","language_id":38}},{"id":65346,"position":10,"audio_url":"wbw/040_083_010.mp3","char_type_name":"word","page_number":476,"line_number":12,"text":"وَحَاقَ","translation":{"text":"এবং ঘিরে ফেললো","language_name":"bengali","language_id":20},"transliteration":{"text":"waḥāqa","language_name":"english","language_id":38}},{"id":65347,"position":11,"audio_url":"wbw/040_083_011.mp3","char_type_name":"word","page_number":476,"line_number":12,"text":"بِهِم","translation":{"text":"তাদেরকে","language_name":"bengali","language_id":20},"transliteration":{"text":"bihim","language_name":"english","language_id":38}},{"id":65348,"position":12,"audio_url":"wbw/040_083_012.mp3","char_type_name":"word","page_number":476,"line_number":12,"text":"مَّا","translation":{"text":"তাই","language_name":"bengali","language_id":20},"transliteration":{"text":"mā","language_name":"english","language_id":38}},{"id":65349,"position":13,"audio_url":"wbw/040_083_013.mp3","char_type_name":"word","page_number":476,"line_number":12,"text":"كَانُوا۟","translation":{"text":"তারা ছিলো","language_name":"bengali","language_id":20},"transliteration":{"text":"kānū","language_name":"english","language_id":38}},{"id":65350,"position":14,"audio_url":"wbw/040_083_014.mp3","char_type_name":"word","page_number":476,"line_number":12,"text":"بِهِۦ","translation":{"text":"যে সম্পর্কে","language_name":"bengali","language_id":20},"transliteration":{"text":"bihi","language_name":"english","language_id":38}},{"id":65351,"position":15,"audio_url":"wbw/040_083_015.mp3","char_type_name":"word","page_number":476,"line_number":12,"text":"يَسْتَهْزِءُونَ","translation":{"text":"ঠাট্টা-বিদ্রুপ করতো","language_name":"bengali","language_id":20},"transliteration":{"text":"yastahziūna","language_name":"english","language_id":38}},{"id":65352,"position":16,"audio_url":null,"char_type_name":"end","page_number":476,"line_number":12,"text":"٨٣","translation":{"text":"(৮৩)","language_name":"bengali","language_id":20},"transliteration":{"text":null,"language_name":"english","language_id":38}}]},{"id":4217,"verse_number":84,"verse_key":"40:84","hizb_number":48,"rub_el_hizb_number":190,"ruku_number":414,"manzil_number":6,"sajdah_number":null,"page_number":476,"juz_number":24,"words":[{"id":65621,"position":1,"audio_url":"wbw/040_084_001.mp3","char_type_name":"word","page_number":476,"line_number":12,"text":"فَلَمَّا","translation":{"text":"অতঃপর যখন","language_name":"bengali","language_id":20},"transliteration":{"text":"falammā","language_name":"english","language_id":38}},{"id":65622,"position":2,"audio_url":"wbw/040_084_002.mp3","char_type_name":"word","page_number":476,"line_number":12,"text":"رَأَوْا۟","translation":{"text":"তারা দেখলো","language_name":"bengali","language_id":20},"transliteration":{"text":"ra-aw","language_name":"english","language_id":38}},{"id":65623,"position":3,"audio_url":"wbw/040_084_003.mp3","char_type_name":"word","page_number":476,"line_number":13,"text":"بَأْسَنَا","translation":{"text":"আমাদের শাস্তি","language_name":"bengali","language_id":20},"transliteration":{"text":"basanā","language_name":"english","language_id":38}},{"id":65624,"position":4,"audio_url":"wbw/040_084_004.mp3","char_type_name":"word","page_number":476,"line_number":13,"text":"قَالُوٓا۟","translation":{"text":"তারা বললো","language_name":"bengali","language_id":20},"transliteration":{"text":"qālū","language_name":"english","language_id":38}},{"id":65625,"position":5,"audio_url":"wbw/040_084_005.mp3","char_type_name":"word","page_number":476,"line_number":13,"text":"ءَامَنَّا","translation":{"text":"\"আমরা ঈমান এনেছি","language_name":"bengali","language_id":20},"transliteration":{"text":"āmannā","language_name":"english","language_id":38}},{"id":65626,"position":6,"audio_url":"wbw/040_084_006.mp3","char_type_name":"word","page_number":476,"line_number":13,"text":"بِٱللَّهِ","translation":{"text":"আল্লাহর উপর","language_name":"bengali","language_id":20},"transliteration":{"text":"bil-lahi","language_name":"english","language_id":38}},{"id":65627,"position":7,"audio_url":"wbw/040_084_007.mp3","char_type_name":"word","page_number":476,"line_number":13,"text":"وَحْدَهُۥ","translation":{"text":"তাঁর একারই","language_name":"bengali","language_id":20},"transliteration":{"text":"waḥdahu","language_name":"english","language_id":38}},{"id":65628,"position":8,"audio_url":"wbw/040_084_008.mp3","char_type_name":"word","page_number":476,"line_number":13,"text":"وَكَفَرْنَا","translation":{"text":"এবং আমরা অস্বীকার করছি","language_name":"bengali","language_id":20},"transliteration":{"text":"wakafarnā","language_name":"english","language_id":38}},{"id":65629,"position":9,"audio_url":"wbw/040_084_009.mp3","char_type_name":"word","page_number":476,"line_number":13,"text":"بِمَا","translation":{"text":"তা সবকে","language_name":"bengali","language_id":20},"transliteration":{"text":"bimā","language_name":"english","language_id":38}},{"id":65630,"position":10,"audio_url":"wbw/040_084_010.mp3","char_type_name":"word","page_number":476,"line_number":13,"text":"كُنَّا","translation":{"text":"আমরা ছিলাম","language_name":"bengali","language_id":20},"transliteration":{"text":"kunnā","language_name":"english","language_id":38}},{"id":65631,"position":11,"audio_url":"wbw/040_084_011.mp3","char_type_name":"word","page_number":476,"line_number":13,"text":"بِهِۦ","translation":{"text":"যার সাথে","language_name":"bengali","language_id":20},"transliteration":{"text":"bihi","language_name":"english","language_id":38}},{"id":65632,"position":12,"audio_url":"wbw/040_084_012.mp3","char_type_name":"word","page_number":476,"line_number":14,"text":"مُشْرِكِينَ","translation":{"text":"শরিককারী\"","language_name":"bengali","language_id":20},"transliteration":{"text":"mush'rikīna","language_name":"english","language_id":38}},{"id":65633,"position":13,"audio_url":null,"char_type_name":"end","page_number":476,"line_number":14,"text":"٨٤","translation":{"text":"(৮৪)","language_name":"bengali","language_id":20},"transliteration":{"text":null,"language_name":"english","language_id":38}}]},{"id":4218,"verse_number":85,"verse_key":"40:85","hizb_number":48,"rub_el_hizb_number":190,"ruku_number":414,"manzil_number":6,"sajdah_number":null,"page_number":476,"juz_number":24,"words":[{"id":66101,"position":1,"audio_url":"wbw/040_085_001.mp3","char_type_name":"word","page_number":476,"line_number":14,"text":"فَلَمْ","translation":{"text":"অতঃপর","language_name":"bengali","language_id":20},"transliteration":{"text":"falam","language_name":"english","language_id":38}},{"id":66102,"position":2,"audio_url":"wbw/040_085_002.mp3","char_type_name":"word","page_number":476,"line_number":14,"text":"يَكُ","translation":{"text":"পারে নি","language_name":"bengali","language_id":20},"transliteration":{"text":"yaku","language_name":"english","language_id":38}},{"id":66103,"position":3,"audio_url":"wbw/040_085_003.mp3","char_type_name":"word","page_number":476,"line_number":14,"text":"يَنفَعُهُمْ","translation":{"text":"তাদের উপকার করতে","language_name":"bengali","language_id":20},"transliteration":{"text":"yanfaʿuhum","language_name":"english","language_id":38}},{"id":66104,"position":4,"audio_url":"wbw/040_085_004.mp3","char_type_name":"word","page_number":476,"line_number":14,"text":"إِيمَـٰنُهُمْ","translation":{"text":"তাদের ঈমান","language_name":"bengali","language_id":20},"transliteration":{"text":"īmānuhum","language_name":"english","language_id":38}},{"id":66105,"position":5,"audio_url":"wbw/040_085_005.mp3","char_type_name":"word","page_number":476,"line_number":14,"text":"لَمَّا","translation":{"text":"যখন","language_name":"bengali","language_id":20},"transliteration":{"text":"lammā","language_name":"english","language_id":38}},{"id":66106,"position":6,"audio_url":"wbw/040_085_006.mp3","char_type_name":"word","page_number":476,"line_number":14,"text":"رَأَوْا۟","translation":{"text":"তারা দেখলো","language_name":"bengali","language_id":20},"transliteration":{"text":"ra-aw","language_name":"english","language_id":38}},{"id":66107,"position":7,"audio_url":"wbw/040_085_007.mp3","char_type_name":"word","page_number":476,"line_number":14,"text":"بَأْسَنَا ۖ","translation":{"text":"আমাদের শাস্তি","language_name":"bengali","language_id":20},"transliteration":{"text":"basanā","language_name":"english","language_id":38}},{"id":66109,"position":8,"audio_url":"wbw/040_085_009.mp3","char_type_name":"word","page_number":476,"line_number":14,"text":"سُنَّتَ","translation":{"text":"বিধান","language_name":"bengali","language_id":20},"transliteration":{"text":"sunnata","language_name":"english","language_id":38}},{"id":66110,"position":9,"audio_url":"wbw/040_085_010.mp3","char_type_name":"word","page_number":476,"line_number":15,"text":"ٱللَّهِ","translation":{"text":"আল্লাহর (নির্ধারিত)","language_name":"bengali","language_id":20},"transliteration":{"text":"l-lahi","language_name":"english","language_id":38}},{"id":66111,"position":10,"audio_url":"wbw/040_085_011.mp3","char_type_name":"word","page_number":476,"line_number":15,"text":"ٱلَّتِى","translation":{"text":"যা","language_name":"bengali","language_id":20},"transliteration":{"text":"allatī","language_name":"english","language_id":38}},{"id":66112,"position":11,"audio_url":"wbw/040_085_012.mp3","char_type_name":"word","page_number":476,"line_number":15,"text":"قَدْ","translation":{"text":"নিশ্চয়ই","language_name":"bengali","language_id":20},"transliteration":{"text":"qad","language_name":"english","language_id":38}},{"id":66113,"position":12,"audio_url":"wbw/040_085_013.mp3","char_type_name":"word","page_number":476,"line_number":15,"text":"خَلَتْ","translation":{"text":"(চলে এসেছে)অতীত হয়েছে","language_name":"bengali","language_id":20},"transliteration":{"text":"khalat","language_name":"english","language_id":38}},{"id":66114,"position":13,"audio_url":"wbw/040_085_014.mp3","char_type_name":"word","page_number":476,"line_number":15,"text":"فِى","translation":{"text":"ব্যাপারে","language_name":"bengali","language_id":20},"transliteration":{"text":"fī","language_name":"english","language_id":38}},{"id":66115,"position":14,"audio_url":"wbw/040_085_015.mp3","char_type_name":"word","page_number":476,"line_number":15,"text":"عِبَادِهِۦ ۖ","translation":{"text":"তাঁর দাসদের","language_name":"bengali","language_id":20},"transliteration":{"text":"ʿibādihi","language_name":"english","language_id":38}},{"id":66117,"position":15,"audio_url":"wbw/040_085_017.mp3","char_type_name":"word","page_number":476,"line_number":15,"text":"وَخَسِرَ","translation":{"text":"এবং ক্ষতিগ্রস্ত হয়েছে","language_name":"bengali","language_id":20},"transliteration":{"text":"wakhasira","language_name":"english","language_id":38}},{"id":66118,"position":16,"audio_url":"wbw/040_085_018.mp3","char_type_name":"word","page_number":476,"line_number":15,"text":"هُنَالِكَ","translation":{"text":"এমন অবস্হায়","language_name":"bengali","language_id":20},"transliteration":{"text":"hunālika","language_name":"english","language_id":38}},{"id":66119,"position":17,"audio_url":"wbw/040_085_019.mp3","char_type_name":"word","page_number":476,"line_number":15,"text":"ٱلْكَـٰفِرُونَ","translation":{"text":"কাফেররা","language_name":"bengali","language_id":20},"transliteration":{"text":"l-kāfirūna","language_name":"english","language_id":38}},{"id":66120,"position":18,"audio_url":null,"char_type_name":"end","page_number":476,"line_number":15,"text":"٨٥","translation":{"text":"(৮৫)","language_name":"bengali","language_id":20},"transliteration":{"text":null,"language_name":"english","language_id":38}}]}],"pagination":{"per_page":10,"current_page":9,"next_page":null,"total_pages":9,"total_records":85}}
