{"verses":[{"id":4396,"verse_number":71,"verse_key":"43:71","hizb_number":50,"rub_el_hizb_number":198,"ruku_number":432,"manzil_number":6,"sajdah_number":null,"page_number":494,"juz_number":25,"words":[{"id":60280,"position":1,"audio_url":"wbw/043_071_001.mp3","char_type_name":"word","page_number":494,"line_number":12,"text":"يُطَافُ","translation":{"text":"পরিবেশন করা হবে","language_name":"bengali","language_id":20},"transliteration":{"text":"yuṭāfu","language_name":"english","language_id":38}},{"id":60281,"position":2,"audio_url":"wbw/043_071_002.mp3","char_type_name":"word","page_number":494,"line_number":12,"text":"عَلَيْهِم","translation":{"text":"তাদের কাছে","language_name":"bengali","language_id":20},"transliteration":{"text":"ʿalayhim","language_name":"english","language_id":38}},{"id":60282,"position":3,"audio_url":"wbw/043_071_003.mp3","char_type_name":"word","page_number":494,"line_number":12,"text":"بِصِحَافٍۢ","translation":{"text":"থালাসমূহকে","language_name":"bengali","language_id":20},"transliteration":{"text":"biṣiḥāfin","language_name":"english","language_id":38}},{"id":60283,"position":4,"audio_url":"wbw/043_071_004.mp3","char_type_name":"word","page_number":494,"line_number":12,"text":"مِّن","translation":{"text":"তৈরী","language_name":"bengali","language_id":20},"transliteration":{"text":"min","language_name":"english","language_id":38}},{"id":60284,"position":5,"audio_url":"wbw/043_071_005.mp3","char_type_name":"word","page_number":494,"line_number":12,"text":"ذَهَبٍۢ","translation":{"text":"স্বর্ণের","language_name":"bengali","language_id":20},"transliteration":{"text":"dhahabin","language_name":"english","language_id":38}},{"id":60285,"position":6,"audio_url":"wbw/043_071_006.mp3","char_type_name":"word","page_number":494,"line_number":12,"text":"وَأَكْوَابٍۢ ۖ","translation":{"text":"এবং পানপাত্রসমুহও (স্বর্ণের)","language_name":"bengali","language_id":20},"transliteration":{"text":"wa-akwābin","language_name":"english","language_id":38}},{"id":60287,"position":7,"audio_url":"wbw/043_071_008.mp3","char_type_name":"word","page_number":494,"line_number":13,"text":"وَفِيهَا","translation":{"text":"এবং তার মধ্যে থাকবে","language_name":"bengali","language_id":20},"transliteration":{"text":"wafīhā","language_name":"english","language_id":38}},{"id":60288,"position":8,"audio_url":"wbw/043_071_009.mp3","char_type_name":"word","page_number":494,"line_number":13,"text":"مَا","translation":{"text":"যা কিছু","language_name":"bengali","language_id":20},"transliteration":{"text":"mā","language_name":"english","language_id":38}},{"id":60289,"position":9,"audio_url":"wbw/043_071_010.mp3","char_type_name":"word","page_number":494,"line_number":13,"text":"تَشْتَهِيهِ","translation":{"text":"তা চাইবে","language_name":"bengali","language_id":20},"transliteration":{"text":"tashtahīhi","language_name":"english","language_id":38}},{"id":60290,"position":10,"audio_url":"wbw/043_071_011.mp3","char_type_name":"word","page_number":494,"line_number":13,"text":"ٱلْأَنفُسُ","translation":{"text":"(তাদের) অন্তরগুলো","language_name":"bengali","language_id":20},"transliteration":{"text":"l-anfusu","language_name":"english","language_id":38}},{"id":60291,"position":11,"audio_url":"wbw/043_071_012.mp3","char_type_name":"word","page_number":494,"line_number":13,"text":"وَتَلَذُّ","translation":{"text":"এবং তৃপ্ত হবে (তা দেখে)","language_name":"bengali","language_id":20},"transliteration":{"text":"wataladhu","language_name":"english","language_id":38}},{"id":60292,"position":12,"audio_url":"wbw/043_071_013.mp3","char_type_name":"word","page_number":494,"line_number":13,"text":"ٱلْأَعْيُنُ ۖ","translation":{"text":"(তাদের) চোখগুলো","language_name":"bengali","language_id":20},"transliteration":{"text":"l-aʿyunu","language_name":"english","language_id":38}},{"id":60294,"position":13,"audio_url":"wbw/043_071_015.mp3","char_type_name":"word","page_number":494,"line_number":13,"text":"وَأَنتُمْ","translation":{"text":"এবং (বলা হবে) তোমরা","language_name":"bengali","language_id":20},"transliteration":{"text":"wa-antum","language_name":"english","language_id":38}},{"id":60295,"position":14,"audio_url":"wbw/043_071_016.mp3","char_type_name":"word","page_number":494,"line_number":13,"text":"فِيهَا","translation":{"text":"তার মধ্যে","language_name":"bengali","language_id":20},"transliteration":{"text":"fīhā","language_name":"english","language_id":38}},{"id":60296,"position":15,"audio_url":"wbw/043_071_017.mp3","char_type_name":"word","page_number":494,"line_number":14,"text":"خَـٰلِدُونَ","translation":{"text":"চিরকাল","language_name":"bengali","language_id":20},"transliteration":{"text":"khālidūna","language_name":"english","language_id":38}},{"id":60297,"position":16,"audio_url":null,"char_type_name":"end","page_number":494,"line_number":14,"text":"٧١","translation":{"text":"(৭১)","language_name":"bengali","language_id":20},"transliteration":{"text":null,"language_name":"english","language_id":38}}]},{"id":4397,"verse_number":72,"verse_key":"43:72","hizb_number":50,"rub_el_hizb_number":198,"ruku_number":432,"manzil_number":6,"sajdah_number":null,"page_number":494,"juz_number":25,"words":[{"id":60433,"position":1,"audio_url":"wbw/043_072_001.mp3","char_type_name":"word","page_number":494,"line_number":14,"text":"وَتِلْكَ","translation":{"text":"এবং এই","language_name":"bengali","language_id":20},"transliteration":{"text":"watil'ka","language_name":"english","language_id":38}},{"id":60434,"position":2,"audio_url":"wbw/043_072_002.mp3","char_type_name":"word","page_number":494,"line_number":14,"text":"ٱلْجَنَّةُ","translation":{"text":"জান্নাত","language_name":"bengali","language_id":20},"transliteration":{"text":"l-janatu","language_name":"english","language_id":38}},{"id":60435,"position":3,"audio_url":"wbw/043_072_003.mp3","char_type_name":"word","page_number":494,"line_number":14,"text":"ٱلَّتِىٓ","translation":{"text":"(সেই) যা","language_name":"bengali","language_id":20},"transliteration":{"text":"allatī","language_name":"english","language_id":38}},{"id":60436,"position":4,"audio_url":"wbw/043_072_004.mp3","char_type_name":"word","page_number":494,"line_number":14,"text":"أُورِثْتُمُوهَا","translation":{"text":"তোমাদেরকে তার উত্তরাধিকারী করা হয়েছে","language_name":"bengali","language_id":20},"transliteration":{"text":"ūrith'tumūhā","language_name":"english","language_id":38}},{"id":60437,"position":5,"audio_url":"wbw/043_072_005.mp3","char_type_name":"word","page_number":494,"line_number":14,"text":"بِمَا","translation":{"text":"বিনিময়ে যা","language_name":"bengali","language_id":20},"transliteration":{"text":"bimā","language_name":"english","language_id":38}},{"id":60438,"position":6,"audio_url":"wbw/043_072_006.mp3","char_type_name":"word","page_number":494,"line_number":14,"text":"كُنتُمْ","translation":{"text":"তোমরা","language_name":"bengali","language_id":20},"transliteration":{"text":"kuntum","language_name":"english","language_id":38}},{"id":60439,"position":7,"audio_url":"wbw/043_072_007.mp3","char_type_name":"word","page_number":494,"line_number":15,"text":"تَعْمَلُونَ","translation":{"text":"কাজ করেছিলে","language_name":"bengali","language_id":20},"transliteration":{"text":"taʿmalūna","language_name":"english","language_id":38}},{"id":60440,"position":8,"audio_url":null,"char_type_name":"end","page_number":494,"line_number":15,"text":"٧٢","translation":{"text":"(৭২)","language_name":"bengali","language_id":20},"transliteration":{"text":null,"language_name":"english","language_id":38}}]},{"id":4398,"verse_number":73,"verse_key":"43:73","hizb_number":50,"rub_el_hizb_number":198,"ruku_number":432,"manzil_number":6,"sajdah_number":null,"page_number":494,"juz_number":25,"words":[{"id":60905,"position":1,"audio_url":"wbw/043_073_001.mp3","char_type_name":"word","page_number":494,"line_number":15,"text":"لَكُمْ","translation":{"text":"তোমাদের জন্যে","language_name":"bengali","language_id":20},"transliteration":{"text":"lakum","language_name":"english","language_id":38}},{"id":60906,"position":2,"audio_url":"wbw/043_073_002.mp3","char_type_name":"word","page_number":494,"line_number":15,"text":"فِيهَا","translation":{"text":"তার মধ্যে (থাকবে)","language_name":"bengali","language_id":20},"transliteration":{"text":"fīhā","language_name":"english","language_id":38}},{"id":60907,"position":3,"audio_url":"wbw/043_073_003.mp3","char_type_name":"word","page_number":494,"line_number":15,"text":"فَـٰكِهَةٌۭ","translation":{"text":"ফলমূল","language_name":"bengali","language_id":20},"transliteration":{"text":"fākihatun","language_name":"english","language_id":38}},{"id":60908,"position":4,"audio_url":"wbw/043_073_004.mp3","char_type_name":"word","page_number":494,"line_number":15,"text":"كَثِيرَةٌۭ","translation":{"text":"প্রচুর","language_name":"bengali","language_id":20},"transliteration":{"text":"kathīratun","language_name":"english","language_id":38}},{"id":60909,"position":5,"audio_url":"wbw/043_073_005.mp3","char_type_name":"word","page_number":494,"line_number":15,"text":"مِّنْهَا","translation":{"text":"তা থেকে","language_name":"bengali","language_id":20},"transliteration":{"text":"min'hā","language_name":"english","language_id":38}},{"id":60910,"position":6,"audio_url":"wbw/043_073_006.mp3","char_type_name":"word","page_number":494,"line_number":15,"text":"تَأْكُلُونَ","translation":{"text":"তোমরা খাবে","language_name":"bengali","language_id":20},"transliteration":{"text":"takulūna","language_name":"english","language_id":38}},{"id":60911,"position":7,"audio_url":null,"char_type_name":"end","page_number":494,"line_number":15,"text":"٧٣","translation":{"text":"(৭৩)","language_name":"bengali","language_id":20},"transliteration":{"text":null,"language_name":"english","language_id":38}}]},{"id":4399,"verse_number":74,"verse_key":"43:74","hizb_number":50,"rub_el_hizb_number":198,"ruku_number":432,"manzil_number":6,"sajdah_number":null,"page_number":495,"juz_number":25,"words":[{"id":61375,"position":1,"audio_url":"wbw/043_074_001.mp3","char_type_name":"word","page_number":495,"line_number":1,"text":"إِنَّ","translation":{"text":"নিশ্চয়ই","language_name":"bengali","language_id":20},"transliteration":{"text":"inna","language_name":"english","language_id":38}},{"id":61376,"position":2,"audio_url":"wbw/043_074_002.mp3","char_type_name":"word","page_number":495,"line_number":1,"text":"ٱلْمُجْرِمِينَ","translation":{"text":"অপরাধীরা","language_name":"bengali","language_id":20},"transliteration":{"text":"l-muj'rimīna","language_name":"english","language_id":38}},{"id":61377,"position":3,"audio_url":"wbw/043_074_003.mp3","char_type_name":"word","page_number":495,"line_number":1,"text":"فِى","translation":{"text":"(হবে) মধ্যে","language_name":"bengali","language_id":20},"transliteration":{"text":"fī","language_name":"english","language_id":38}},{"id":61378,"position":4,"audio_url":"wbw/043_074_004.mp3","char_type_name":"word","page_number":495,"line_number":1,"text":"عَذَابِ","translation":{"text":"শাস্তির","language_name":"bengali","language_id":20},"transliteration":{"text":"ʿadhābi","language_name":"english","language_id":38}},{"id":61379,"position":5,"audio_url":"wbw/043_074_005.mp3","char_type_name":"word","page_number":495,"line_number":1,"text":"جَهَنَّمَ","translation":{"text":"জাহান্নামের","language_name":"bengali","language_id":20},"transliteration":{"text":"jahannama","language_name":"english","language_id":38}},{"id":61380,"position":6,"audio_url":"wbw/043_074_006.mp3","char_type_name":"word","page_number":495,"line_number":1,"text":"خَـٰلِدُونَ","translation":{"text":"তারা স্থায়ী হবে (সেখানে)","language_name":"bengali","language_id":20},"transliteration":{"text":"khālidūna","language_name":"english","language_id":38}},{"id":61381,"position":7,"audio_url":null,"char_type_name":"end","page_number":495,"line_number":1,"text":"٧٤","translation":{"text":"(৭৪)","language_name":"bengali","language_id":20},"transliteration":{"text":null,"language_name":"english","language_id":38}}]},{"id":4400,"verse_number":75,"verse_key":"43:75","hizb_number":50,"rub_el_hizb_number":198,"ruku_number":432,"manzil_number":6,"sajdah_number":null,"page_number":495,"juz_number":25,"words":[{"id":61838,"position":1,"audio_url":"wbw/043_075_001.mp3","char_type_name":"word","page_number":495,"line_number":1,"text":"لَا","translation":{"text":"না","language_name":"bengali","language_id":20},"transliteration":{"text":"lā","language_name":"english","language_id":38}},{"id":61839,"position":2,"audio_url":"wbw/043_075_002.mp3","char_type_name":"word","page_number":495,"line_number":1,"text":"يُفَتَّرُ","translation":{"text":"কম করা হবে","language_name":"bengali","language_id":20},"transliteration":{"text":"yufattaru","language_name":"english","language_id":38}},{"id":61840,"position":3,"audio_url":"wbw/043_075_003.mp3","char_type_name":"word","page_number":495,"line_number":1,"text":"عَنْهُمْ","translation":{"text":"তাদের থেকে (শাস্তি)","language_name":"bengali","language_id":20},"transliteration":{"text":"ʿanhum","language_name":"english","language_id":38}},{"id":61841,"position":4,"audio_url":"wbw/043_075_004.mp3","char_type_name":"word","page_number":495,"line_number":1,"text":"وَهُمْ","translation":{"text":"এবং তারা","language_name":"bengali","language_id":20},"transliteration":{"text":"wahum","language_name":"english","language_id":38}},{"id":61842,"position":5,"audio_url":"wbw/043_075_005.mp3","char_type_name":"word","page_number":495,"line_number":2,"text":"فِيهِ","translation":{"text":"তার মধ্যে","language_name":"bengali","language_id":20},"transliteration":{"text":"fīhi","language_name":"english","language_id":38}},{"id":61843,"position":6,"audio_url":"wbw/043_075_006.mp3","char_type_name":"word","page_number":495,"line_number":2,"text":"مُبْلِسُونَ","translation":{"text":"হতাশ হয়ে পড়ে থাকবে","language_name":"bengali","language_id":20},"transliteration":{"text":"mub'lisūna","language_name":"english","language_id":38}},{"id":61844,"position":7,"audio_url":null,"char_type_name":"end","page_number":495,"line_number":2,"text":"٧٥","translation":{"text":"(৭৫)","language_name":"bengali","language_id":20},"transliteration":{"text":null,"language_name":"english","language_id":38}}]},{"id":4401,"verse_number":76,"verse_key":"43:76","hizb_number":50,"rub_el_hizb_number":198,"ruku_number":432,"manzil_number":6,"sajdah_number":null,"page_number":495,"juz_number":25,"words":[{"id":62346,"position":1,"audio_url":"wbw/043_076_001.mp3","char_type_name":"word","page_number":495,"line_number":2,"text":"وَمَا","translation":{"text":"এবং না","language_name":"bengali","language_id":20},"transliteration":{"text":"wamā","language_name":"english","language_id":38}},{"id":62347,"position":2,"audio_url":"wbw/043_076_002.mp3","char_type_name":"word","page_number":495,"line_number":2,"text":"ظَلَمْنَـٰهُمْ","translation":{"text":"তাদেরকে আমরা অত্যাচার করেছি","language_name":"bengali","language_id":20},"transliteration":{"text":"ẓalamnāhum","language_name":"english","language_id":38}},{"id":62348,"position":3,"audio_url":"wbw/043_076_003.mp3","char_type_name":"word","page_number":495,"line_number":2,"text":"وَلَـٰكِن","translation":{"text":"কিন্তু","language_name":"bengali","language_id":20},"transliteration":{"text":"walākin","language_name":"english","language_id":38}},{"id":62349,"position":4,"audio_url":"wbw/043_076_004.mp3","char_type_name":"word","page_number":495,"line_number":2,"text":"كَانُوا۟","translation":{"text":"ছিলো","language_name":"bengali","language_id":20},"transliteration":{"text":"kānū","language_name":"english","language_id":38}},{"id":62350,"position":5,"audio_url":"wbw/043_076_005.mp3","char_type_name":"word","page_number":495,"line_number":2,"text":"هُمُ","translation":{"text":"তারা","language_name":"bengali","language_id":20},"transliteration":{"text":"humu","language_name":"english","language_id":38}},{"id":62351,"position":6,"audio_url":"wbw/043_076_006.mp3","char_type_name":"word","page_number":495,"line_number":2,"text":"ٱلظَّـٰلِمِينَ","translation":{"text":"সীমালঙ্ঘনকারী (তাদের নিজেদের উপর)","language_name":"bengali","language_id":20},"transliteration":{"text":"l-ẓālimīna","language_name":"english","language_id":38}},{"id":62352,"position":7,"audio_url":null,"char_type_name":"end","page_number":495,"line_number":2,"text":"٧٦","translation":{"text":"(৭৬)","language_name":"bengali","language_id":20},"transliteration":{"text":null,"language_name":"english","language_id":38}}]},{"id":4402,"verse_number":77,"verse_key":"43:77","hizb_number":50,"rub_el_hizb_number":198,"ruku_number":432,"manzil_number":6,"sajdah_number":null,"page_number":495,"juz_number":25,"words":[{"id":62852,"position":1,"audio_url":"wbw/043_077_001.mp3","char_type_name":"word","page_number":495,"line_number":3,"text":"وَنَادَوْا۟","translation":{"text":"এবং তারা ডেকে বলবে","language_name":"bengali","language_id":20},"transliteration":{"text":"wanādaw","language_name":"english","language_id":38}},{"id":62853,"position":2,"audio_url":"wbw/043_077_002.mp3","char_type_name":"word","page_number":495,"line_number":3,"text":"يَـٰمَـٰلِكُ","translation":{"text":"\"হে মালিক (জাহান্নামের প্রহরী)","language_name":"bengali","language_id":20},"transliteration":{"text":"yāmāliku","language_name":"english","language_id":38}},{"id":62854,"position":3,"audio_url":"wbw/043_077_003.mp3","char_type_name":"word","page_number":495,"line_number":3,"text":"لِيَقْضِ","translation":{"text":"শেষ করে দিক","language_name":"bengali","language_id":20},"transliteration":{"text":"liyaqḍi","language_name":"english","language_id":38}},{"id":62855,"position":4,"audio_url":"wbw/043_077_004.mp3","char_type_name":"word","page_number":495,"line_number":3,"text":"عَلَيْنَا","translation":{"text":"আমাদের উপর (ব্যাপারটা)","language_name":"bengali","language_id":20},"transliteration":{"text":"ʿalaynā","language_name":"english","language_id":38}},{"id":62856,"position":5,"audio_url":"wbw/043_077_005.mp3","char_type_name":"word","page_number":495,"line_number":3,"text":"رَبُّكَ ۖ","translation":{"text":"তোমার রব\"","language_name":"bengali","language_id":20},"transliteration":{"text":"rabbuka","language_name":"english","language_id":38}},{"id":62858,"position":6,"audio_url":"wbw/043_077_007.mp3","char_type_name":"word","page_number":495,"line_number":3,"text":"قَالَ","translation":{"text":"সে বলবে","language_name":"bengali","language_id":20},"transliteration":{"text":"qāla","language_name":"english","language_id":38}},{"id":62859,"position":7,"audio_url":"wbw/043_077_008.mp3","char_type_name":"word","page_number":495,"line_number":3,"text":"إِنَّكُم","translation":{"text":"\"তোমরা নিশ্চয়ই","language_name":"bengali","language_id":20},"transliteration":{"text":"innakum","language_name":"english","language_id":38}},{"id":62860,"position":8,"audio_url":"wbw/043_077_009.mp3","char_type_name":"word","page_number":495,"line_number":3,"text":"مَّـٰكِثُونَ","translation":{"text":"অবস্থানকারী (এভাবেই)\"","language_name":"bengali","language_id":20},"transliteration":{"text":"mākithūna","language_name":"english","language_id":38}},{"id":62861,"position":9,"audio_url":null,"char_type_name":"end","page_number":495,"line_number":3,"text":"٧٧","translation":{"text":"(৭৭)","language_name":"bengali","language_id":20},"transliteration":{"text":null,"language_name":"english","language_id":38}}]},{"id":4403,"verse_number":78,"verse_key":"43:78","hizb_number":50,"rub_el_hizb_number":198,"ruku_number":432,"manzil_number":6,"sajdah_number":null,"page_number":495,"juz_number":25,"words":[{"id":63267,"position":1,"audio_url":"wbw/043_078_001.mp3","char_type_name":"word","page_number":495,"line_number":3,"text":"لَقَدْ","translation":{"text":"নিশ্চয়ই","language_name":"bengali","language_id":20},"transliteration":{"text":"laqad","language_name":"english","language_id":38}},{"id":63268,"position":2,"audio_url":"wbw/043_078_002.mp3","char_type_name":"word","page_number":495,"line_number":4,"text":"جِئْنَـٰكُم","translation":{"text":"তোমাদের কাছে আমরা এসেছিলাম","language_name":"bengali","language_id":20},"transliteration":{"text":"ji'nākum","language_name":"english","language_id":38}},{"id":63269,"position":3,"audio_url":"wbw/043_078_003.mp3","char_type_name":"word","page_number":495,"line_number":4,"text":"بِٱلْحَقِّ","translation":{"text":"সত্যসহ","language_name":"bengali","language_id":20},"transliteration":{"text":"bil-ḥaqi","language_name":"english","language_id":38}},{"id":63270,"position":4,"audio_url":"wbw/043_078_004.mp3","char_type_name":"word","page_number":495,"line_number":4,"text":"وَلَـٰكِنَّ","translation":{"text":"কিন্তু","language_name":"bengali","language_id":20},"transliteration":{"text":"walākinna","language_name":"english","language_id":38}},{"id":63271,"position":5,"audio_url":"wbw/043_078_005.mp3","char_type_name":"word","page_number":495,"line_number":4,"text":"أَكْثَرَكُمْ","translation":{"text":"তোমাদের বেশীর ভাগই (ছিলে)","language_name":"bengali","language_id":20},"transliteration":{"text":"aktharakum","language_name":"english","language_id":38}},{"id":63272,"position":6,"audio_url":"wbw/043_078_006.mp3","char_type_name":"word","page_number":495,"line_number":4,"text":"لِلْحَقِّ","translation":{"text":"সত্যের প্রতি","language_name":"bengali","language_id":20},"transliteration":{"text":"lil'ḥaqqi","language_name":"english","language_id":38}},{"id":63273,"position":7,"audio_url":"wbw/043_078_007.mp3","char_type_name":"word","page_number":495,"line_number":4,"text":"كَـٰرِهُونَ","translation":{"text":"বিমুখ","language_name":"bengali","language_id":20},"transliteration":{"text":"kārihūna","language_name":"english","language_id":38}},{"id":63274,"position":8,"audio_url":null,"char_type_name":"end","page_number":495,"line_number":4,"text":"٧٨","translation":{"text":"(৭৮)","language_name":"bengali","language_id":20},"transliteration":{"text":null,"language_name":"english","language_id":38}}]},{"id":4404,"verse_number":79,"verse_key":"43:79","hizb_number":50,"rub_el_hizb_number":198,"ruku_number":432,"manzil_number":6,"sajdah_number":null,"page_number":495,"juz_number":25,"words":[{"id":63707,"position":1,"audio_url":"wbw/043_079_001.mp3","char_type_name":"word","page_number":495,"line_number":4,"text":"أَمْ","translation":{"text":"তবে কি","language_name":"bengali","language_id":20},"transliteration":{"text":"am","language_name":"english","language_id":38}},{"id":63708,"position":2,"audio_url":"wbw/043_079_002.mp3","char_type_name":"word","page_number":495,"line_number":4,"text":"أَبْرَمُوٓا۟","translation":{"text":"তারা সিদ্ধান্ত নিয়েছে","language_name":"bengali","language_id":20},"transliteration":{"text":"abramū","language_name":"english","language_id":38}},{"id":63709,"position":3,"audio_url":"wbw/043_079_003.mp3","char_type_name":"word","page_number":495,"line_number":4,"text":"أَمْرًۭا","translation":{"text":"একটি বিষয়ে","language_name":"bengali","language_id":20},"transliteration":{"text":"amran","language_name":"english","language_id":38}},{"id":63710,"position":4,"audio_url":"wbw/043_079_004.mp3","char_type_name":"word","page_number":495,"line_number":5,"text":"فَإِنَّا","translation":{"text":"নিশ্চয়ই তবে আমরাও","language_name":"bengali","language_id":20},"transliteration":{"text":"fa-innā","language_name":"english","language_id":38}},{"id":63711,"position":5,"audio_url":"wbw/043_079_005.mp3","char_type_name":"word","page_number":495,"line_number":5,"text":"مُبْرِمُونَ","translation":{"text":"সিদ্ধান্ত গ্রহণকারী (তাদের ব্যাপারে)","language_name":"bengali","language_id":20},"transliteration":{"text":"mub'rimūna","language_name":"english","language_id":38}},{"id":63712,"position":6,"audio_url":null,"char_type_name":"end","page_number":495,"line_number":5,"text":"٧٩","translation":{"text":"(৭৯)","language_name":"bengali","language_id":20},"transliteration":{"text":null,"language_name":"english","language_id":38}}]},{"id":4405,"verse_number":80,"verse_key":"43:80","hizb_number":50,"rub_el_hizb_number":198,"ruku_number":432,"manzil_number":6,"sajdah_number":null,"page_number":495,"juz_number":25,"words":[{"id":64052,"position":1,"audio_url":"wbw/043_080_001.mp3","char_type_name":"word","page_number":495,"line_number":5,"text":"أَمْ","translation":{"text":"না কি","language_name":"bengali","language_id":20},"transliteration":{"text":"am","language_name":"english","language_id":38}},{"id":64053,"position":2,"audio_url":"wbw/043_080_002.mp3","char_type_name":"word","page_number":495,"line_number":5,"text":"يَحْسَبُونَ","translation":{"text":"তারা মনে করেছে","language_name":"bengali","language_id":20},"transliteration":{"text":"yaḥsabūna","language_name":"english","language_id":38}},{"id":64054,"position":3,"audio_url":"wbw/043_080_003.mp3","char_type_name":"word","page_number":495,"line_number":5,"text":"أَنَّا","translation":{"text":"যে আমরা","language_name":"bengali","language_id":20},"transliteration":{"text":"annā","language_name":"english","language_id":38}},{"id":64055,"position":4,"audio_url":"wbw/043_080_004.mp3","char_type_name":"word","page_number":495,"line_number":5,"text":"لَا","translation":{"text":"না","language_name":"bengali","language_id":20},"transliteration":{"text":"lā","language_name":"english","language_id":38}},{"id":64056,"position":5,"audio_url":"wbw/043_080_005.mp3","char_type_name":"word","page_number":495,"line_number":5,"text":"نَسْمَعُ","translation":{"text":"আমরা শুনি","language_name":"bengali","language_id":20},"transliteration":{"text":"nasmaʿu","language_name":"english","language_id":38}},{"id":64057,"position":6,"audio_url":"wbw/043_080_006.mp3","char_type_name":"word","page_number":495,"line_number":5,"text":"سِرَّهُمْ","translation":{"text":"তাদের গোপন কথাবার্তা","language_name":"bengali","language_id":20},"transliteration":{"text":"sirrahum","language_name":"english","language_id":38}},{"id":64058,"position":7,"audio_url":"wbw/043_080_007.mp3","char_type_name":"word","page_number":495,"line_number":5,"text":"وَنَجْوَىٰهُم ۚ","translation":{"text":"ও তাদের গোপন পরামর্শ","language_name":"bengali","language_id":20},"transliteration":{"text":"wanajwāhum","language_name":"english","language_id":38}},{"id":64060,"position":8,"audio_url":"wbw/043_080_009.mp3","char_type_name":"word","page_number":495,"line_number":5,"text":"بَلَىٰ","translation":{"text":"হ্যাঁ (সবই শুনি)","language_name":"bengali","language_id":20},"transliteration":{"text":"balā","language_name":"english","language_id":38}},{"id":64061,"position":9,"audio_url":"wbw/043_080_010.mp3","char_type_name":"word","page_number":495,"line_number":6,"text":"وَرُسُلُنَا","translation":{"text":"এবং আমাদের ফেরেশতারা","language_name":"bengali","language_id":20},"transliteration":{"text":"warusulunā","language_name":"english","language_id":38}},{"id":64062,"position":10,"audio_url":"wbw/043_080_011.mp3","char_type_name":"word","page_number":495,"line_number":6,"text":"لَدَيْهِمْ","translation":{"text":"তাদের কাছে আছে","language_name":"bengali","language_id":20},"transliteration":{"text":"ladayhim","language_name":"english","language_id":38}},{"id":64063,"position":11,"audio_url":"wbw/043_080_012.mp3","char_type_name":"word","page_number":495,"line_number":6,"text":"يَكْتُبُونَ","translation":{"text":"তারা লিখছে","language_name":"bengali","language_id":20},"transliteration":{"text":"yaktubūna","language_name":"english","language_id":38}},{"id":64064,"position":12,"audio_url":null,"char_type_name":"end","page_number":495,"line_number":6,"text":"٨٠","translation":{"text":"(৮০)","language_name":"bengali","language_id":20},"transliteration":{"text":null,"language_name":"english","language_id":38}}]}],"pagination":{"per_page":10,"current_page":8,"next_page":9,"total_pages":9,"total_records":89}}
