{"verses":[{"id":5376,"verse_number":1,"verse_key":"70:1","hizb_number":57,"rub_el_hizb_number":227,"ruku_number":504,"manzil_number":7,"sajdah_number":null,"page_number":568,"juz_number":29,"words":[{"id":594,"position":1,"audio_url":"wbw/070_001_001.mp3","verse_key":"70:1","verse_id":5376,"location":"70:1:1","text_uthmani":"سَأَلَ","qpc_uthmani_hafs":"سَأَلَ","char_type_name":"word","page_number":568,"line_number":11,"text":"سَأَلَ","translation":{"text":"Asked","language_name":"english","language_id":38},"transliteration":{"text":"sa-ala","language_name":"english","language_id":38}},{"id":595,"position":2,"audio_url":"wbw/070_001_002.mp3","verse_key":"70:1","verse_id":5376,"location":"70:1:2","text_uthmani":"سَآئِلٌۢ","qpc_uthmani_hafs":"سَآئِلُۢ","char_type_name":"word","page_number":568,"line_number":11,"text":"سَآئِلُۢ","translation":{"text":"a questioner","language_name":"english","language_id":38},"transliteration":{"text":"sāilun","language_name":"english","language_id":38}},{"id":596,"position":3,"audio_url":"wbw/070_001_003.mp3","verse_key":"70:1","verse_id":5376,"location":"70:1:3","text_uthmani":"بِعَذَابٍۢ","qpc_uthmani_hafs":"بِعَذَابٖ","char_type_name":"word","page_number":568,"line_number":11,"text":"بِعَذَابٖ","translation":{"text":"about a punishment","language_name":"english","language_id":38},"transliteration":{"text":"biʿadhābin","language_name":"english","language_id":38}},{"id":597,"position":4,"audio_url":"wbw/070_001_004.mp3","verse_key":"70:1","verse_id":5376,"location":"70:1:4","text_uthmani":"وَاقِعٍۢ","qpc_uthmani_hafs":"وَاقِعٖ","char_type_name":"word","page_number":568,"line_number":11,"text":"وَاقِعٖ","translation":{"text":"bound to happen","language_name":"english","language_id":38},"transliteration":{"text":"wāqiʿin","language_name":"english","language_id":38}},{"id":598,"position":5,"audio_url":null,"verse_key":"70:1","verse_id":5376,"location":"70:1:5","text_uthmani":"١","qpc_uthmani_hafs":"١","char_type_name":"end","page_number":568,"line_number":11,"text":"١","translation":{"text":"(1)","language_name":"english","language_id":38},"transliteration":{"text":null,"language_name":"english","language_id":38}}]},{"id":5377,"verse_number":2,"verse_key":"70:2","hizb_number":57,"rub_el_hizb_number":227,"ruku_number":504,"manzil_number":7,"sajdah_number":null,"page_number":568,"juz_number":29,"words":[{"id":1552,"position":1,"audio_url":"wbw/070_002_001.mp3","verse_key":"70:2","verse_id":5377,"location":"70:2:1","text_uthmani":"لِّلْكَـٰفِرِينَ","qpc_uthmani_hafs":"لِّلۡكَٰفِرِينَ","char_type_name":"word","page_number":568,"line_number":11,"text":"لِّلۡكَٰفِرِينَ","translation":{"text":"To the disbelievers","language_name":"english","language_id":38},"transliteration":{"text":"lil'kāfirīna","language_name":"english","language_id":38}},{"id":1553,"position":2,"audio_url":"wbw/070_002_002.mp3","verse_key":"70:2","verse_id":5377,"location":"70:2:2","text_uthmani":"لَيْسَ","qpc_uthmani_hafs":"لَيۡسَ","char_type_name":"word","page_number":568,"line_number":11,"text":"لَيۡسَ","translation":{"text":"not","language_name":"english","language_id":38},"transliteration":{"text":"laysa","language_name":"english","language_id":38}},{"id":1554,"position":3,"audio_url":"wbw/070_002_003.mp3","verse_key":"70:2","verse_id":5377,"location":"70:2:3","text_uthmani":"لَهُۥ","qpc_uthmani_hafs":"لَهُۥ","char_type_name":"word","page_number":568,"line_number":11,"text":"لَهُۥ","translation":{"text":"of it","language_name":"english","language_id":38},"transliteration":{"text":"lahu","language_name":"english","language_id":38}},{"id":1555,"position":4,"audio_url":"wbw/070_002_004.mp3","verse_key":"70:2","verse_id":5377,"location":"70:2:4","text_uthmani":"دَافِعٌۭ","qpc_uthmani_hafs":"دَافِعٞ","char_type_name":"word","page_number":568,"line_number":11,"text":"دَافِعٞ","translation":{"text":"any preventer","language_name":"english","language_id":38},"transliteration":{"text":"dāfiʿun","language_name":"english","language_id":38}},{"id":1556,"position":5,"audio_url":null,"verse_key":"70:2","verse_id":5377,"location":"70:2:5","text_uthmani":"٢","qpc_uthmani_hafs":"٢","char_type_name":"end","page_number":568,"line_number":11,"text":"٢","translation":{"text":"(2)","language_name":"english","language_id":38},"transliteration":{"text":null,"language_name":"english","language_id":38}}]},{"id":5378,"verse_number":3,"verse_key":"70:3","hizb_number":57,"rub_el_hizb_number":227,"ruku_number":504,"manzil_number":7,"sajdah_number":null,"page_number":568,"juz_number":29,"words":[{"id":2576,"position":1,"audio_url":"wbw/070_003_001.mp3","verse_key":"70:3","verse_id":5378,"location":"70:3:1","text_uthmani":"مِّنَ","qpc_uthmani_hafs":"مِّنَ","char_type_name":"word","page_number":568,"line_number":12,"text":"مِّنَ","translation":{"text":"From","language_name":"english","language_id":38},"transliteration":{"text":"mina","language_name":"english","language_id":38}},{"id":2577,"position":2,"audio_url":"wbw/070_003_002.mp3","verse_key":"70:3","verse_id":5378,"location":"70:3:2","text_uthmani":"ٱللَّهِ","qpc_uthmani_hafs":"ٱللَّهِ","char_type_name":"word","page_number":568,"line_number":12,"text":"ٱللَّهِ","translation":{"text":"Allah","language_name":"english","language_id":38},"transliteration":{"text":"l-lahi","language_name":"english","language_id":38}},{"id":2578,"position":3,"audio_url":"wbw/070_003_003.mp3","verse_key":"70:3","verse_id":5378,"location":"70:3:3","text_uthmani":"ذِى","qpc_uthmani_hafs":"ذِي","char_type_name":"word","page_number":568,"line_number":12,"text":"ذِي","translation":{"text":"Owner","language_name":"english","language_id":38},"transliteration":{"text":"dhī","language_name":"english","language_id":38}},{"id":2579,"position":4,"audio_url":"wbw/070_003_004.mp3","verse_key":"70:3","verse_id":5378,"location":"70:3:4","text_uthmani":"ٱلْمَعَارِجِ","qpc_uthmani_hafs":"ٱلۡمَعَارِجِ","char_type_name":"word","page_number":568,"line_number":12,"text":"ٱلۡمَعَارِجِ","translation":{"text":"(of) the ways of ascent","language_name":"english","language_id":38},"transliteration":{"text":"l-maʿāriji","language_name":"english","language_id":38}},{"id":2580,"position":5,"audio_url":null,"verse_key":"70:3","verse_id":5378,"location":"70:3:5","text_uthmani":"٣","qpc_uthmani_hafs":"٣","char_type_name":"end","page_number":568,"line_number":12,"text":"٣","translation":{"text":"(3)","language_name":"english","language_id":38},"transliteration":{"text":null,"language_name":"english","language_id":38}}]},{"id":5379,"verse_number":4,"verse_key":"70:4","hizb_number":57,"rub_el_hizb_number":227,"ruku_number":504,"manzil_number":7,"sajdah_number":null,"page_number":568,"juz_number":29,"words":[{"id":3975,"position":1,"audio_url":"wbw/070_004_001.mp3","verse_key":"70:4","verse_id":5379,"location":"70:4:1","text_uthmani":"تَعْرُجُ","qpc_uthmani_hafs":"تَعۡرُجُ","char_type_name":"word","page_number":568,"line_number":12,"text":"تَعۡرُجُ","translation":{"text":"Ascend","language_name":"english","language_id":38},"transliteration":{"text":"taʿruju","language_name":"english","language_id":38}},{"id":3976,"position":2,"audio_url":"wbw/070_004_002.mp3","verse_key":"70:4","verse_id":5379,"location":"70:4:2","text_uthmani":"ٱلْمَلَـٰٓئِكَةُ","qpc_uthmani_hafs":"ٱلۡمَلَٰٓئِكَةُ","char_type_name":"word","page_number":568,"line_number":12,"text":"ٱلۡمَلَٰٓئِكَةُ","translation":{"text":"the Angels","language_name":"english","language_id":38},"transliteration":{"text":"l-malāikatu","language_name":"english","language_id":38}},{"id":3977,"position":3,"audio_url":"wbw/070_004_003.mp3","verse_key":"70:4","verse_id":5379,"location":"70:4:3","text_uthmani":"وَٱلرُّوحُ","qpc_uthmani_hafs":"وَٱلرُّوحُ","char_type_name":"word","page_number":568,"line_number":12,"text":"وَٱلرُّوحُ","translation":{"text":"and the Spirit","language_name":"english","language_id":38},"transliteration":{"text":"wal-rūḥu","language_name":"english","language_id":38}},{"id":3978,"position":4,"audio_url":"wbw/070_004_004.mp3","verse_key":"70:4","verse_id":5379,"location":"70:4:4","text_uthmani":"إِلَيْهِ","qpc_uthmani_hafs":"إِلَيۡهِ","char_type_name":"word","page_number":568,"line_number":12,"text":"إِلَيۡهِ","translation":{"text":"to Him","language_name":"english","language_id":38},"transliteration":{"text":"ilayhi","language_name":"english","language_id":38}},{"id":3979,"position":5,"audio_url":"wbw/070_004_005.mp3","verse_key":"70:4","verse_id":5379,"location":"70:4:5","text_uthmani":"فِى","qpc_uthmani_hafs":"فِي","char_type_name":"word","page_number":568,"line_number":13,"text":"فِي","translation":{"text":"in","language_name":"english","language_id":38},"transliteration":{"text":"fī","language_name":"english","language_id":38}},{"id":3980,"position":6,"audio_url":"wbw/070_004_006.mp3","verse_key":"70:4","verse_id":5379,"location":"70:4:6","text_uthmani":"يَوْمٍۢ","qpc_uthmani_hafs":"يَوۡمٖ","char_type_name":"word","page_number":568,"line_number":13,"text":"يَوۡمٖ","translation":{"text":"a Day","language_name":"english","language_id":38},"transliteration":{"text":"yawmin","language_name":"english","language_id":38}},{"id":3981,"position":7,"audio_url":"wbw/070_004_007.mp3","verse_key":"70:4","verse_id":5379,"location":"70:4:7","text_uthmani":"كَانَ","qpc_uthmani_hafs":"كَانَ","char_type_name":"word","page_number":568,"line_number":13,"text":"كَانَ","translation":{"text":"[is]","language_name":"english","language_id":38},"transliteration":{"text":"kāna","language_name":"english","language_id":38}},{"id":3982,"position":8,"audio_url":"wbw/070_004_008.mp3","verse_key":"70:4","verse_id":5379,"location":"70:4:8","text_uthmani":"مِقْدَارُهُۥ","qpc_uthmani_hafs":"مِقۡدَارُهُۥ","char_type_name":"word","page_number":568,"line_number":13,"text":"مِقۡدَارُهُۥ","translation":{"text":"its measure","language_name":"english","language_id":38},"transliteration":{"text":"miq'dāruhu","language_name":"english","language_id":38}},{"id":3983,"position":9,"audio_url":"wbw/070_004_009.mp3","verse_key":"70:4","verse_id":5379,"location":"70:4:9","text_uthmani":"خَمْسِينَ","qpc_uthmani_hafs":"خَمۡسِينَ","char_type_name":"word","page_number":568,"line_number":13,"text":"خَمۡسِينَ","translation":{"text":"(is) fifty","language_name":"english","language_id":38},"transliteration":{"text":"khamsīna","language_name":"english","language_id":38}},{"id":3984,"position":10,"audio_url":"wbw/070_004_010.mp3","verse_key":"70:4","verse_id":5379,"location":"70:4:10","text_uthmani":"أَلْفَ","qpc_uthmani_hafs":"أَلۡفَ","char_type_name":"word","page_number":568,"line_number":13,"text":"أَلۡفَ","translation":{"text":"thousand","language_name":"english","language_id":38},"transliteration":{"text":"alfa","language_name":"english","language_id":38}},{"id":3985,"position":11,"audio_url":"wbw/070_004_011.mp3","verse_key":"70:4","verse_id":5379,"location":"70:4:11","text_uthmani":"سَنَةٍۢ","qpc_uthmani_hafs":"سَنَةٖ","char_type_name":"word","page_number":568,"line_number":13,"text":"سَنَةٖ","translation":{"text":"year(s)","language_name":"english","language_id":38},"transliteration":{"text":"sanatin","language_name":"english","language_id":38}},{"id":3986,"position":12,"audio_url":null,"verse_key":"70:4","verse_id":5379,"location":"70:4:12","text_uthmani":"٤","qpc_uthmani_hafs":"٤","char_type_name":"end","page_number":568,"line_number":13,"text":"٤","translation":{"text":"(4)","language_name":"english","language_id":38},"transliteration":{"text":null,"language_name":"english","language_id":38}}]},{"id":5380,"verse_number":5,"verse_key":"70:5","hizb_number":57,"rub_el_hizb_number":227,"ruku_number":504,"manzil_number":7,"sajdah_number":null,"page_number":568,"juz_number":29,"words":[{"id":5286,"position":1,"audio_url":"wbw/070_005_001.mp3","verse_key":"70:5","verse_id":5380,"location":"70:5:1","text_uthmani":"فَٱصْبِرْ","qpc_uthmani_hafs":"فَٱصۡبِرۡ","char_type_name":"word","page_number":568,"line_number":13,"text":"فَٱصۡبِرۡ","translation":{"text":"So be patient","language_name":"english","language_id":38},"transliteration":{"text":"fa-iṣ'bir","language_name":"english","language_id":38}},{"id":5287,"position":2,"audio_url":"wbw/070_005_002.mp3","verse_key":"70:5","verse_id":5380,"location":"70:5:2","text_uthmani":"صَبْرًۭا","qpc_uthmani_hafs":"صَبۡرٗا","char_type_name":"word","page_number":568,"line_number":13,"text":"صَبۡرٗا","translation":{"text":"a patience","language_name":"english","language_id":38},"transliteration":{"text":"ṣabran","language_name":"english","language_id":38}},{"id":5288,"position":3,"audio_url":"wbw/070_005_003.mp3","verse_key":"70:5","verse_id":5380,"location":"70:5:3","text_uthmani":"جَمِيلًا","qpc_uthmani_hafs":"جَمِيلًا","char_type_name":"word","page_number":568,"line_number":13,"text":"جَمِيلًا","translation":{"text":"good","language_name":"english","language_id":38},"transliteration":{"text":"jamīlan","language_name":"english","language_id":38}},{"id":5289,"position":4,"audio_url":null,"verse_key":"70:5","verse_id":5380,"location":"70:5:4","text_uthmani":"٥","qpc_uthmani_hafs":"٥","char_type_name":"end","page_number":568,"line_number":14,"text":"٥","translation":{"text":"(5)","language_name":"english","language_id":38},"transliteration":{"text":null,"language_name":"english","language_id":38}}]},{"id":5381,"verse_number":6,"verse_key":"70:6","hizb_number":57,"rub_el_hizb_number":227,"ruku_number":504,"manzil_number":7,"sajdah_number":null,"page_number":568,"juz_number":29,"words":[{"id":6494,"position":1,"audio_url":"wbw/070_006_001.mp3","verse_key":"70:6","verse_id":5381,"location":"70:6:1","text_uthmani":"إِنَّهُمْ","qpc_uthmani_hafs":"إِنَّهُمۡ","char_type_name":"word","page_number":568,"line_number":14,"text":"إِنَّهُمۡ","translation":{"text":"Indeed, they","language_name":"english","language_id":38},"transliteration":{"text":"innahum","language_name":"english","language_id":38}},{"id":6495,"position":2,"audio_url":"wbw/070_006_002.mp3","verse_key":"70:6","verse_id":5381,"location":"70:6:2","text_uthmani":"يَرَوْنَهُۥ","qpc_uthmani_hafs":"يَرَوۡنَهُۥ","char_type_name":"word","page_number":568,"line_number":14,"text":"يَرَوۡنَهُۥ","translation":{"text":"see it","language_name":"english","language_id":38},"transliteration":{"text":"yarawnahu","language_name":"english","language_id":38}},{"id":6496,"position":3,"audio_url":"wbw/070_006_003.mp3","verse_key":"70:6","verse_id":5381,"location":"70:6:3","text_uthmani":"بَعِيدًۭا","qpc_uthmani_hafs":"بَعِيدٗا","char_type_name":"word","page_number":568,"line_number":14,"text":"بَعِيدٗا","translation":{"text":"(as) far off","language_name":"english","language_id":38},"transliteration":{"text":"baʿīdan","language_name":"english","language_id":38}},{"id":6497,"position":4,"audio_url":null,"verse_key":"70:6","verse_id":5381,"location":"70:6:4","text_uthmani":"٦","qpc_uthmani_hafs":"٦","char_type_name":"end","page_number":568,"line_number":14,"text":"٦","translation":{"text":"(6)","language_name":"english","language_id":38},"transliteration":{"text":null,"language_name":"english","language_id":38}}]},{"id":5382,"verse_number":7,"verse_key":"70:7","hizb_number":57,"rub_el_hizb_number":227,"ruku_number":504,"manzil_number":7,"sajdah_number":null,"page_number":568,"juz_number":29,"words":[{"id":7904,"position":1,"audio_url":"wbw/070_007_001.mp3","verse_key":"70:7","verse_id":5382,"location":"70:7:1","text_uthmani":"وَنَرَىٰهُ","qpc_uthmani_hafs":"وَنَرَىٰهُ","char_type_name":"word","page_number":568,"line_number":14,"text":"وَنَرَىٰهُ","translation":{"text":"But We see it","language_name":"english","language_id":38},"transliteration":{"text":"wanarāhu","language_name":"english","language_id":38}},{"id":7905,"position":2,"audio_url":"wbw/070_007_002.mp3","verse_key":"70:7","verse_id":5382,"location":"70:7:2","text_uthmani":"قَرِيبًۭا","qpc_uthmani_hafs":"قَرِيبٗا","char_type_name":"word","page_number":568,"line_number":14,"text":"قَرِيبٗا","translation":{"text":"near","language_name":"english","language_id":38},"transliteration":{"text":"qarīban","language_name":"english","language_id":38}},{"id":7906,"position":3,"audio_url":null,"verse_key":"70:7","verse_id":5382,"location":"70:7:3","text_uthmani":"٧","qpc_uthmani_hafs":"٧","char_type_name":"end","page_number":568,"line_number":14,"text":"٧","translation":{"text":"(7)","language_name":"english","language_id":38},"transliteration":{"text":null,"language_name":"english","language_id":38}}]},{"id":5383,"verse_number":8,"verse_key":"70:8","hizb_number":57,"rub_el_hizb_number":227,"ruku_number":504,"manzil_number":7,"sajdah_number":null,"page_number":568,"juz_number":29,"words":[{"id":9081,"position":1,"audio_url":"wbw/070_008_001.mp3","verse_key":"70:8","verse_id":5383,"location":"70:8:1","text_uthmani":"يَوْمَ","qpc_uthmani_hafs":"يَوۡمَ","char_type_name":"word","page_number":568,"line_number":14,"text":"يَوۡمَ","translation":{"text":"(The) Day ","language_name":"english","language_id":38},"transliteration":{"text":"yawma","language_name":"english","language_id":38}},{"id":9082,"position":2,"audio_url":"wbw/070_008_002.mp3","verse_key":"70:8","verse_id":5383,"location":"70:8:2","text_uthmani":"تَكُونُ","qpc_uthmani_hafs":"تَكُونُ","char_type_name":"word","page_number":568,"line_number":14,"text":"تَكُونُ","translation":{"text":"will be","language_name":"english","language_id":38},"transliteration":{"text":"takūnu","language_name":"english","language_id":38}},{"id":9083,"position":3,"audio_url":"wbw/070_008_003.mp3","verse_key":"70:8","verse_id":5383,"location":"70:8:3","text_uthmani":"ٱلسَّمَآءُ","qpc_uthmani_hafs":"ٱلسَّمَآءُ","char_type_name":"word","page_number":568,"line_number":14,"text":"ٱلسَّمَآءُ","translation":{"text":"the sky","language_name":"english","language_id":38},"transliteration":{"text":"l-samāu","language_name":"english","language_id":38}},{"id":9084,"position":4,"audio_url":"wbw/070_008_004.mp3","verse_key":"70:8","verse_id":5383,"location":"70:8:4","text_uthmani":"كَٱلْمُهْلِ","qpc_uthmani_hafs":"كَٱلۡمُهۡلِ","char_type_name":"word","page_number":568,"line_number":15,"text":"كَٱلۡمُهۡلِ","translation":{"text":"like molten copper","language_name":"english","language_id":38},"transliteration":{"text":"kal-muh'li","language_name":"english","language_id":38}},{"id":9085,"position":5,"audio_url":null,"verse_key":"70:8","verse_id":5383,"location":"70:8:5","text_uthmani":"٨","qpc_uthmani_hafs":"٨","char_type_name":"end","page_number":568,"line_number":15,"text":"٨","translation":{"text":"(8)","language_name":"english","language_id":38},"transliteration":{"text":null,"language_name":"english","language_id":38}}]},{"id":5384,"verse_number":9,"verse_key":"70:9","hizb_number":57,"rub_el_hizb_number":227,"ruku_number":504,"manzil_number":7,"sajdah_number":null,"page_number":568,"juz_number":29,"words":[{"id":10295,"position":1,"audio_url":"wbw/070_009_001.mp3","verse_key":"70:9","verse_id":5384,"location":"70:9:1","text_uthmani":"وَتَكُونُ","qpc_uthmani_hafs":"وَتَكُونُ","char_type_name":"word","page_number":568,"line_number":15,"text":"وَتَكُونُ","translation":{"text":"And will be","language_name":"english","language_id":38},"transliteration":{"text":"watakūnu","language_name":"english","language_id":38}},{"id":10296,"position":2,"audio_url":"wbw/070_009_002.mp3","verse_key":"70:9","verse_id":5384,"location":"70:9:2","text_uthmani":"ٱلْجِبَالُ","qpc_uthmani_hafs":"ٱلۡجِبَالُ","char_type_name":"word","page_number":568,"line_number":15,"text":"ٱلۡجِبَالُ","translation":{"text":"the mountains","language_name":"english","language_id":38},"transliteration":{"text":"l-jibālu","language_name":"english","language_id":38}},{"id":10297,"position":3,"audio_url":"wbw/070_009_003.mp3","verse_key":"70:9","verse_id":5384,"location":"70:9:3","text_uthmani":"كَٱلْعِهْنِ","qpc_uthmani_hafs":"كَٱلۡعِهۡنِ","char_type_name":"word","page_number":568,"line_number":15,"text":"كَٱلۡعِهۡنِ","translation":{"text":"like wool","language_name":"english","language_id":38},"transliteration":{"text":"kal-ʿih'ni","language_name":"english","language_id":38}},{"id":10298,"position":4,"audio_url":null,"verse_key":"70:9","verse_id":5384,"location":"70:9:4","text_uthmani":"٩","qpc_uthmani_hafs":"٩","char_type_name":"end","page_number":568,"line_number":15,"text":"٩","translation":{"text":"(9)","language_name":"english","language_id":38},"transliteration":{"text":null,"language_name":"english","language_id":38}}]},{"id":5385,"verse_number":10,"verse_key":"70:10","hizb_number":57,"rub_el_hizb_number":227,"ruku_number":504,"manzil_number":7,"sajdah_number":null,"page_number":568,"juz_number":29,"words":[{"id":11526,"position":1,"audio_url":"wbw/070_010_001.mp3","verse_key":"70:10","verse_id":5385,"location":"70:10:1","text_uthmani":"وَلَا","qpc_uthmani_hafs":"وَلَا","char_type_name":"word","page_number":568,"line_number":15,"text":"وَلَا","translation":{"text":"And not","language_name":"english","language_id":38},"transliteration":{"text":"walā","language_name":"english","language_id":38}},{"id":11527,"position":2,"audio_url":"wbw/070_010_002.mp3","verse_key":"70:10","verse_id":5385,"location":"70:10:2","text_uthmani":"يَسْـَٔلُ","qpc_uthmani_hafs":"يَسۡـَٔلُ","char_type_name":"word","page_number":568,"line_number":15,"text":"يَسۡـَٔلُ","translation":{"text":"will ask","language_name":"english","language_id":38},"transliteration":{"text":"yasalu","language_name":"english","language_id":38}},{"id":11528,"position":3,"audio_url":"wbw/070_010_003.mp3","verse_key":"70:10","verse_id":5385,"location":"70:10:3","text_uthmani":"حَمِيمٌ","qpc_uthmani_hafs":"حَمِيمٌ","char_type_name":"word","page_number":568,"line_number":15,"text":"حَمِيمٌ","translation":{"text":"a friend","language_name":"english","language_id":38},"transliteration":{"text":"ḥamīmun","language_name":"english","language_id":38}},{"id":11529,"position":4,"audio_url":"wbw/070_010_004.mp3","verse_key":"70:10","verse_id":5385,"location":"70:10:4","text_uthmani":"حَمِيمًۭا","qpc_uthmani_hafs":"حَمِيمٗا","char_type_name":"word","page_number":568,"line_number":15,"text":"حَمِيمٗا","translation":{"text":"(about) a friend","language_name":"english","language_id":38},"transliteration":{"text":"ḥamīman","language_name":"english","language_id":38}},{"id":11530,"position":5,"audio_url":null,"verse_key":"70:10","verse_id":5385,"location":"70:10:5","text_uthmani":"١٠","qpc_uthmani_hafs":"١٠","char_type_name":"end","page_number":568,"line_number":15,"text":"١٠","translation":{"text":"(10)","language_name":"english","language_id":38},"transliteration":{"text":null,"language_name":"english","language_id":38}}]}],"pagination":{"per_page":10,"current_page":1,"next_page":2,"total_pages":5,"total_records":44}}
