{"verses":[{"id":5396,"verse_number":21,"verse_key":"70:21","hizb_number":57,"rub_el_hizb_number":228,"ruku_number":504,"manzil_number":7,"sajdah_number":null,"page_number":569,"juz_number":29,"words":[{"id":23903,"position":1,"audio_url":"wbw/070_021_001.mp3","verse_key":"70:21","verse_id":5396,"location":"70:21:1","text_uthmani":"وَإِذَا","qpc_uthmani_hafs":"وَإِذَا","char_type_name":"word","page_number":569,"line_number":5,"text":"وَإِذَا","translation":{"text":"And when","language_name":"english","language_id":38},"transliteration":{"text":"wa-idhā","language_name":"english","language_id":38}},{"id":23904,"position":2,"audio_url":"wbw/070_021_002.mp3","verse_key":"70:21","verse_id":5396,"location":"70:21:2","text_uthmani":"مَسَّهُ","qpc_uthmani_hafs":"مَسَّهُ","char_type_name":"word","page_number":569,"line_number":5,"text":"مَسَّهُ","translation":{"text":"touches him","language_name":"english","language_id":38},"transliteration":{"text":"massahu","language_name":"english","language_id":38}},{"id":23905,"position":3,"audio_url":"wbw/070_021_003.mp3","verse_key":"70:21","verse_id":5396,"location":"70:21:3","text_uthmani":"ٱلْخَيْرُ","qpc_uthmani_hafs":"ٱلۡخَيۡرُ","char_type_name":"word","page_number":569,"line_number":5,"text":"ٱلۡخَيۡرُ","translation":{"text":"the good","language_name":"english","language_id":38},"transliteration":{"text":"l-khayru","language_name":"english","language_id":38}},{"id":23906,"position":4,"audio_url":"wbw/070_021_004.mp3","verse_key":"70:21","verse_id":5396,"location":"70:21:4","text_uthmani":"مَنُوعًا","qpc_uthmani_hafs":"مَنُوعًا","char_type_name":"word","page_number":569,"line_number":5,"text":"مَنُوعًا","translation":{"text":"withholding","language_name":"english","language_id":38},"transliteration":{"text":"manūʿan","language_name":"english","language_id":38}},{"id":23907,"position":5,"audio_url":null,"verse_key":"70:21","verse_id":5396,"location":"70:21:5","text_uthmani":"٢١","qpc_uthmani_hafs":"٢١","char_type_name":"end","page_number":569,"line_number":5,"text":"٢١","translation":{"text":"(21)","language_name":"english","language_id":38},"transliteration":{"text":null,"language_name":"english","language_id":38}}]},{"id":5397,"verse_number":22,"verse_key":"70:22","hizb_number":57,"rub_el_hizb_number":228,"ruku_number":504,"manzil_number":7,"sajdah_number":null,"page_number":569,"juz_number":29,"words":[{"id":24909,"position":1,"audio_url":"wbw/070_022_001.mp3","verse_key":"70:22","verse_id":5397,"location":"70:22:1","text_uthmani":"إِلَّا","qpc_uthmani_hafs":"إِلَّا","char_type_name":"word","page_number":569,"line_number":5,"text":"إِلَّا","translation":{"text":"Except","language_name":"english","language_id":38},"transliteration":{"text":"illā","language_name":"english","language_id":38}},{"id":24910,"position":2,"audio_url":"wbw/070_022_002.mp3","verse_key":"70:22","verse_id":5397,"location":"70:22:2","text_uthmani":"ٱلْمُصَلِّينَ","qpc_uthmani_hafs":"ٱلۡمُصَلِّينَ","char_type_name":"word","page_number":569,"line_number":5,"text":"ٱلۡمُصَلِّينَ","translation":{"text":"those who pray ","language_name":"english","language_id":38},"transliteration":{"text":"l-muṣalīna","language_name":"english","language_id":38}},{"id":24911,"position":3,"audio_url":null,"verse_key":"70:22","verse_id":5397,"location":"70:22:3","text_uthmani":"٢٢","qpc_uthmani_hafs":"٢٢","char_type_name":"end","page_number":569,"line_number":5,"text":"٢٢","translation":{"text":"(22)","language_name":"english","language_id":38},"transliteration":{"text":null,"language_name":"english","language_id":38}}]},{"id":5398,"verse_number":23,"verse_key":"70:23","hizb_number":57,"rub_el_hizb_number":228,"ruku_number":504,"manzil_number":7,"sajdah_number":null,"page_number":569,"juz_number":29,"words":[{"id":26118,"position":1,"audio_url":"wbw/070_023_001.mp3","verse_key":"70:23","verse_id":5398,"location":"70:23:1","text_uthmani":"ٱلَّذِينَ","qpc_uthmani_hafs":"ٱلَّذِينَ","char_type_name":"word","page_number":569,"line_number":5,"text":"ٱلَّذِينَ","translation":{"text":"Those who","language_name":"english","language_id":38},"transliteration":{"text":"alladhīna","language_name":"english","language_id":38}},{"id":26119,"position":2,"audio_url":"wbw/070_023_002.mp3","verse_key":"70:23","verse_id":5398,"location":"70:23:2","text_uthmani":"هُمْ","qpc_uthmani_hafs":"هُمۡ","char_type_name":"word","page_number":569,"line_number":5,"text":"هُمۡ","translation":{"text":"[they]","language_name":"english","language_id":38},"transliteration":{"text":"hum","language_name":"english","language_id":38}},{"id":26120,"position":3,"audio_url":"wbw/070_023_003.mp3","verse_key":"70:23","verse_id":5398,"location":"70:23:3","text_uthmani":"عَلَىٰ","qpc_uthmani_hafs":"عَلَىٰ","char_type_name":"word","page_number":569,"line_number":6,"text":"عَلَىٰ","translation":{"text":"at","language_name":"english","language_id":38},"transliteration":{"text":"ʿalā","language_name":"english","language_id":38}},{"id":26121,"position":4,"audio_url":"wbw/070_023_004.mp3","verse_key":"70:23","verse_id":5398,"location":"70:23:4","text_uthmani":"صَلَاتِهِمْ","qpc_uthmani_hafs":"صَلَاتِهِمۡ","char_type_name":"word","page_number":569,"line_number":6,"text":"صَلَاتِهِمۡ","translation":{"text":"their prayer","language_name":"english","language_id":38},"transliteration":{"text":"ṣalātihim","language_name":"english","language_id":38}},{"id":26122,"position":5,"audio_url":"wbw/070_023_005.mp3","verse_key":"70:23","verse_id":5398,"location":"70:23:5","text_uthmani":"دَآئِمُونَ","qpc_uthmani_hafs":"دَآئِمُونَ","char_type_name":"word","page_number":569,"line_number":6,"text":"دَآئِمُونَ","translation":{"text":"(are) constant","language_name":"english","language_id":38},"transliteration":{"text":"dāimūna","language_name":"english","language_id":38}},{"id":26123,"position":6,"audio_url":null,"verse_key":"70:23","verse_id":5398,"location":"70:23:6","text_uthmani":"٢٣","qpc_uthmani_hafs":"٢٣","char_type_name":"end","page_number":569,"line_number":6,"text":"٢٣","translation":{"text":"(23)","language_name":"english","language_id":38},"transliteration":{"text":null,"language_name":"english","language_id":38}}]},{"id":5399,"verse_number":24,"verse_key":"70:24","hizb_number":57,"rub_el_hizb_number":228,"ruku_number":504,"manzil_number":7,"sajdah_number":null,"page_number":569,"juz_number":29,"words":[{"id":27029,"position":1,"audio_url":"wbw/070_024_001.mp3","verse_key":"70:24","verse_id":5399,"location":"70:24:1","text_uthmani":"وَٱلَّذِينَ","qpc_uthmani_hafs":"وَٱلَّذِينَ","char_type_name":"word","page_number":569,"line_number":6,"text":"وَٱلَّذِينَ","translation":{"text":"And those who","language_name":"english","language_id":38},"transliteration":{"text":"wa-alladhīna","language_name":"english","language_id":38}},{"id":27030,"position":2,"audio_url":"wbw/070_024_002.mp3","verse_key":"70:24","verse_id":5399,"location":"70:24:2","text_uthmani":"فِىٓ","qpc_uthmani_hafs":"فِيٓ","char_type_name":"word","page_number":569,"line_number":6,"text":"فِيٓ","translation":{"text":"in","language_name":"english","language_id":38},"transliteration":{"text":"fī","language_name":"english","language_id":38}},{"id":27031,"position":3,"audio_url":"wbw/070_024_003.mp3","verse_key":"70:24","verse_id":5399,"location":"70:24:3","text_uthmani":"أَمْوَٰلِهِمْ","qpc_uthmani_hafs":"أَمۡوَٰلِهِمۡ","char_type_name":"word","page_number":569,"line_number":6,"text":"أَمۡوَٰلِهِمۡ","translation":{"text":"their wealth","language_name":"english","language_id":38},"transliteration":{"text":"amwālihim","language_name":"english","language_id":38}},{"id":27032,"position":4,"audio_url":"wbw/070_024_004.mp3","verse_key":"70:24","verse_id":5399,"location":"70:24:4","text_uthmani":"حَقٌّۭ","qpc_uthmani_hafs":"حَقّٞ","char_type_name":"word","page_number":569,"line_number":6,"text":"حَقّٞ","translation":{"text":"(is) a right","language_name":"english","language_id":38},"transliteration":{"text":"ḥaqqun","language_name":"english","language_id":38}},{"id":27033,"position":5,"audio_url":"wbw/070_024_005.mp3","verse_key":"70:24","verse_id":5399,"location":"70:24:5","text_uthmani":"مَّعْلُومٌۭ","qpc_uthmani_hafs":"مَّعۡلُومٞ","char_type_name":"word","page_number":569,"line_number":6,"text":"مَّعۡلُومٞ","translation":{"text":"known","language_name":"english","language_id":38},"transliteration":{"text":"maʿlūmun","language_name":"english","language_id":38}},{"id":27034,"position":6,"audio_url":null,"verse_key":"70:24","verse_id":5399,"location":"70:24:6","text_uthmani":"٢٤","qpc_uthmani_hafs":"٢٤","char_type_name":"end","page_number":569,"line_number":6,"text":"٢٤","translation":{"text":"(24)","language_name":"english","language_id":38},"transliteration":{"text":null,"language_name":"english","language_id":38}}]},{"id":5400,"verse_number":25,"verse_key":"70:25","hizb_number":57,"rub_el_hizb_number":228,"ruku_number":504,"manzil_number":7,"sajdah_number":null,"page_number":569,"juz_number":29,"words":[{"id":28043,"position":1,"audio_url":"wbw/070_025_001.mp3","verse_key":"70:25","verse_id":5400,"location":"70:25:1","text_uthmani":"لِّلسَّآئِلِ","qpc_uthmani_hafs":"لِّلسَّآئِلِ","char_type_name":"word","page_number":569,"line_number":6,"text":"لِّلسَّآئِلِ","translation":{"text":"For the one who asks","language_name":"english","language_id":38},"transliteration":{"text":"lilssāili","language_name":"english","language_id":38}},{"id":28044,"position":2,"audio_url":"wbw/070_025_002.mp3","verse_key":"70:25","verse_id":5400,"location":"70:25:2","text_uthmani":"وَٱلْمَحْرُومِ","qpc_uthmani_hafs":"وَٱلۡمَحۡرُومِ","char_type_name":"word","page_number":569,"line_number":7,"text":"وَٱلۡمَحۡرُومِ","translation":{"text":"and the deprived","language_name":"english","language_id":38},"transliteration":{"text":"wal-maḥrūmi","language_name":"english","language_id":38}},{"id":28045,"position":3,"audio_url":null,"verse_key":"70:25","verse_id":5400,"location":"70:25:3","text_uthmani":"٢٥","qpc_uthmani_hafs":"٢٥","char_type_name":"end","page_number":569,"line_number":7,"text":"٢٥","translation":{"text":"(25)","language_name":"english","language_id":38},"transliteration":{"text":null,"language_name":"english","language_id":38}}]},{"id":5401,"verse_number":26,"verse_key":"70:26","hizb_number":57,"rub_el_hizb_number":228,"ruku_number":504,"manzil_number":7,"sajdah_number":null,"page_number":569,"juz_number":29,"words":[{"id":28995,"position":1,"audio_url":"wbw/070_026_001.mp3","verse_key":"70:26","verse_id":5401,"location":"70:26:1","text_uthmani":"وَٱلَّذِينَ","qpc_uthmani_hafs":"وَٱلَّذِينَ","char_type_name":"word","page_number":569,"line_number":7,"text":"وَٱلَّذِينَ","translation":{"text":"And those who","language_name":"english","language_id":38},"transliteration":{"text":"wa-alladhīna","language_name":"english","language_id":38}},{"id":28996,"position":2,"audio_url":"wbw/070_026_002.mp3","verse_key":"70:26","verse_id":5401,"location":"70:26:2","text_uthmani":"يُصَدِّقُونَ","qpc_uthmani_hafs":"يُصَدِّقُونَ","char_type_name":"word","page_number":569,"line_number":7,"text":"يُصَدِّقُونَ","translation":{"text":"accept (the) truth","language_name":"english","language_id":38},"transliteration":{"text":"yuṣaddiqūna","language_name":"english","language_id":38}},{"id":28997,"position":3,"audio_url":"wbw/070_026_003.mp3","verse_key":"70:26","verse_id":5401,"location":"70:26:3","text_uthmani":"بِيَوْمِ","qpc_uthmani_hafs":"بِيَوۡمِ","char_type_name":"word","page_number":569,"line_number":7,"text":"بِيَوۡمِ","translation":{"text":"(of the) Day","language_name":"english","language_id":38},"transliteration":{"text":"biyawmi","language_name":"english","language_id":38}},{"id":28998,"position":4,"audio_url":"wbw/070_026_004.mp3","verse_key":"70:26","verse_id":5401,"location":"70:26:4","text_uthmani":"ٱلدِّينِ","qpc_uthmani_hafs":"ٱلدِّينِ","char_type_name":"word","page_number":569,"line_number":7,"text":"ٱلدِّينِ","translation":{"text":"(of) the Judgment","language_name":"english","language_id":38},"transliteration":{"text":"l-dīni","language_name":"english","language_id":38}},{"id":28999,"position":5,"audio_url":null,"verse_key":"70:26","verse_id":5401,"location":"70:26:5","text_uthmani":"٢٦","qpc_uthmani_hafs":"٢٦","char_type_name":"end","page_number":569,"line_number":7,"text":"٢٦","translation":{"text":"(26)","language_name":"english","language_id":38},"transliteration":{"text":null,"language_name":"english","language_id":38}}]},{"id":5402,"verse_number":27,"verse_key":"70:27","hizb_number":57,"rub_el_hizb_number":228,"ruku_number":504,"manzil_number":7,"sajdah_number":null,"page_number":569,"juz_number":29,"words":[{"id":30268,"position":1,"audio_url":"wbw/070_027_001.mp3","verse_key":"70:27","verse_id":5402,"location":"70:27:1","text_uthmani":"وَٱلَّذِينَ","qpc_uthmani_hafs":"وَٱلَّذِينَ","char_type_name":"word","page_number":569,"line_number":7,"text":"وَٱلَّذِينَ","translation":{"text":"And those who","language_name":"english","language_id":38},"transliteration":{"text":"wa-alladhīna","language_name":"english","language_id":38}},{"id":30269,"position":2,"audio_url":"wbw/070_027_002.mp3","verse_key":"70:27","verse_id":5402,"location":"70:27:2","text_uthmani":"هُم","qpc_uthmani_hafs":"هُم","char_type_name":"word","page_number":569,"line_number":7,"text":"هُم","translation":{"text":"[they]","language_name":"english","language_id":38},"transliteration":{"text":"hum","language_name":"english","language_id":38}},{"id":30270,"position":3,"audio_url":"wbw/070_027_003.mp3","verse_key":"70:27","verse_id":5402,"location":"70:27:3","text_uthmani":"مِّنْ","qpc_uthmani_hafs":"مِّنۡ","char_type_name":"word","page_number":569,"line_number":7,"text":"مِّنۡ","translation":{"text":"of","language_name":"english","language_id":38},"transliteration":{"text":"min","language_name":"english","language_id":38}},{"id":30271,"position":4,"audio_url":"wbw/070_027_004.mp3","verse_key":"70:27","verse_id":5402,"location":"70:27:4","text_uthmani":"عَذَابِ","qpc_uthmani_hafs":"عَذَابِ","char_type_name":"word","page_number":569,"line_number":7,"text":"عَذَابِ","translation":{"text":"(the) punishment","language_name":"english","language_id":38},"transliteration":{"text":"ʿadhābi","language_name":"english","language_id":38}},{"id":30272,"position":5,"audio_url":"wbw/070_027_005.mp3","verse_key":"70:27","verse_id":5402,"location":"70:27:5","text_uthmani":"رَبِّهِم","qpc_uthmani_hafs":"رَبِّهِم","char_type_name":"word","page_number":569,"line_number":8,"text":"رَبِّهِم","translation":{"text":"(of) their Lord","language_name":"english","language_id":38},"transliteration":{"text":"rabbihim","language_name":"english","language_id":38}},{"id":30273,"position":6,"audio_url":"wbw/070_027_006.mp3","verse_key":"70:27","verse_id":5402,"location":"70:27:6","text_uthmani":"مُّشْفِقُونَ","qpc_uthmani_hafs":"مُّشۡفِقُونَ","char_type_name":"word","page_number":569,"line_number":8,"text":"مُّشۡفِقُونَ","translation":{"text":"(are) fearful ","language_name":"english","language_id":38},"transliteration":{"text":"mush'fiqūna","language_name":"english","language_id":38}},{"id":30274,"position":7,"audio_url":null,"verse_key":"70:27","verse_id":5402,"location":"70:27:7","text_uthmani":"٢٧","qpc_uthmani_hafs":"٢٧","char_type_name":"end","page_number":569,"line_number":8,"text":"٢٧","translation":{"text":"(27)","language_name":"english","language_id":38},"transliteration":{"text":null,"language_name":"english","language_id":38}}]},{"id":5403,"verse_number":28,"verse_key":"70:28","hizb_number":57,"rub_el_hizb_number":228,"ruku_number":504,"manzil_number":7,"sajdah_number":null,"page_number":569,"juz_number":29,"words":[{"id":30935,"position":1,"audio_url":"wbw/070_028_001.mp3","verse_key":"70:28","verse_id":5403,"location":"70:28:1","text_uthmani":"إِنَّ","qpc_uthmani_hafs":"إِنَّ","char_type_name":"word","page_number":569,"line_number":8,"text":"إِنَّ","translation":{"text":"Indeed","language_name":"english","language_id":38},"transliteration":{"text":"inna","language_name":"english","language_id":38}},{"id":30936,"position":2,"audio_url":"wbw/070_028_002.mp3","verse_key":"70:28","verse_id":5403,"location":"70:28:2","text_uthmani":"عَذَابَ","qpc_uthmani_hafs":"عَذَابَ","char_type_name":"word","page_number":569,"line_number":8,"text":"عَذَابَ","translation":{"text":"(the) punishment","language_name":"english","language_id":38},"transliteration":{"text":"ʿadhāba","language_name":"english","language_id":38}},{"id":30937,"position":3,"audio_url":"wbw/070_028_003.mp3","verse_key":"70:28","verse_id":5403,"location":"70:28:3","text_uthmani":"رَبِّهِمْ","qpc_uthmani_hafs":"رَبِّهِمۡ","char_type_name":"word","page_number":569,"line_number":8,"text":"رَبِّهِمۡ","translation":{"text":"(of) your Lord","language_name":"english","language_id":38},"transliteration":{"text":"rabbihim","language_name":"english","language_id":38}},{"id":30938,"position":4,"audio_url":"wbw/070_028_004.mp3","verse_key":"70:28","verse_id":5403,"location":"70:28:4","text_uthmani":"غَيْرُ","qpc_uthmani_hafs":"غَيۡرُ","char_type_name":"word","page_number":569,"line_number":8,"text":"غَيۡرُ","translation":{"text":"(is) not","language_name":"english","language_id":38},"transliteration":{"text":"ghayru","language_name":"english","language_id":38}},{"id":30939,"position":5,"audio_url":"wbw/070_028_005.mp3","verse_key":"70:28","verse_id":5403,"location":"70:28:5","text_uthmani":"مَأْمُونٍۢ","qpc_uthmani_hafs":"مَأۡمُونٖ","char_type_name":"word","page_number":569,"line_number":8,"text":"مَأۡمُونٖ","translation":{"text":"to be felt secure (of) ","language_name":"english","language_id":38},"transliteration":{"text":"mamūnin","language_name":"english","language_id":38}},{"id":30940,"position":6,"audio_url":null,"verse_key":"70:28","verse_id":5403,"location":"70:28:6","text_uthmani":"٢٨","qpc_uthmani_hafs":"٢٨","char_type_name":"end","page_number":569,"line_number":8,"text":"٢٨","translation":{"text":"(28)","language_name":"english","language_id":38},"transliteration":{"text":null,"language_name":"english","language_id":38}}]},{"id":5404,"verse_number":29,"verse_key":"70:29","hizb_number":57,"rub_el_hizb_number":228,"ruku_number":504,"manzil_number":7,"sajdah_number":null,"page_number":569,"juz_number":29,"words":[{"id":31958,"position":1,"audio_url":"wbw/070_029_001.mp3","verse_key":"70:29","verse_id":5404,"location":"70:29:1","text_uthmani":"وَٱلَّذِينَ","qpc_uthmani_hafs":"وَٱلَّذِينَ","char_type_name":"word","page_number":569,"line_number":8,"text":"وَٱلَّذِينَ","translation":{"text":"And those who","language_name":"english","language_id":38},"transliteration":{"text":"wa-alladhīna","language_name":"english","language_id":38}},{"id":31959,"position":2,"audio_url":"wbw/070_029_002.mp3","verse_key":"70:29","verse_id":5404,"location":"70:29:2","text_uthmani":"هُمْ","qpc_uthmani_hafs":"هُمۡ","char_type_name":"word","page_number":569,"line_number":8,"text":"هُمۡ","translation":{"text":"[they]","language_name":"english","language_id":38},"transliteration":{"text":"hum","language_name":"english","language_id":38}},{"id":31960,"position":3,"audio_url":"wbw/070_029_003.mp3","verse_key":"70:29","verse_id":5404,"location":"70:29:3","text_uthmani":"لِفُرُوجِهِمْ","qpc_uthmani_hafs":"لِفُرُوجِهِمۡ","char_type_name":"word","page_number":569,"line_number":9,"text":"لِفُرُوجِهِمۡ","translation":{"text":"their modesty","language_name":"english","language_id":38},"transliteration":{"text":"lifurūjihim","language_name":"english","language_id":38}},{"id":31961,"position":4,"audio_url":"wbw/070_029_004.mp3","verse_key":"70:29","verse_id":5404,"location":"70:29:4","text_uthmani":"حَـٰفِظُونَ","qpc_uthmani_hafs":"حَٰفِظُونَ","char_type_name":"word","page_number":569,"line_number":9,"text":"حَٰفِظُونَ","translation":{"text":"(are) guardians","language_name":"english","language_id":38},"transliteration":{"text":"ḥāfiẓūna","language_name":"english","language_id":38}},{"id":31962,"position":5,"audio_url":null,"verse_key":"70:29","verse_id":5404,"location":"70:29:5","text_uthmani":"٢٩","qpc_uthmani_hafs":"٢٩","char_type_name":"end","page_number":569,"line_number":9,"text":"٢٩","translation":{"text":"(29)","language_name":"english","language_id":38},"transliteration":{"text":null,"language_name":"english","language_id":38}}]},{"id":5405,"verse_number":30,"verse_key":"70:30","hizb_number":57,"rub_el_hizb_number":228,"ruku_number":504,"manzil_number":7,"sajdah_number":null,"page_number":569,"juz_number":29,"words":[{"id":32822,"position":1,"audio_url":"wbw/070_030_001.mp3","verse_key":"70:30","verse_id":5405,"location":"70:30:1","text_uthmani":"إِلَّا","qpc_uthmani_hafs":"إِلَّا","char_type_name":"word","page_number":569,"line_number":9,"text":"إِلَّا","translation":{"text":"Except","language_name":"english","language_id":38},"transliteration":{"text":"illā","language_name":"english","language_id":38}},{"id":32823,"position":2,"audio_url":"wbw/070_030_002.mp3","verse_key":"70:30","verse_id":5405,"location":"70:30:2","text_uthmani":"عَلَىٰٓ","qpc_uthmani_hafs":"عَلَىٰٓ","char_type_name":"word","page_number":569,"line_number":9,"text":"عَلَىٰٓ","translation":{"text":"from","language_name":"english","language_id":38},"transliteration":{"text":"ʿalā","language_name":"english","language_id":38}},{"id":32824,"position":3,"audio_url":"wbw/070_030_003.mp3","verse_key":"70:30","verse_id":5405,"location":"70:30:3","text_uthmani":"أَزْوَٰجِهِمْ","qpc_uthmani_hafs":"أَزۡوَٰجِهِمۡ","char_type_name":"word","page_number":569,"line_number":9,"text":"أَزۡوَٰجِهِمۡ","translation":{"text":"their spouses","language_name":"english","language_id":38},"transliteration":{"text":"azwājihim","language_name":"english","language_id":38}},{"id":32825,"position":4,"audio_url":"wbw/070_030_004.mp3","verse_key":"70:30","verse_id":5405,"location":"70:30:4","text_uthmani":"أَوْ","qpc_uthmani_hafs":"أَوۡ","char_type_name":"word","page_number":569,"line_number":9,"text":"أَوۡ","translation":{"text":"or","language_name":"english","language_id":38},"transliteration":{"text":"aw","language_name":"english","language_id":38}},{"id":32826,"position":5,"audio_url":"wbw/070_030_005.mp3","verse_key":"70:30","verse_id":5405,"location":"70:30:5","text_uthmani":"مَا","qpc_uthmani_hafs":"مَا","char_type_name":"word","page_number":569,"line_number":9,"text":"مَا","translation":{"text":"what","language_name":"english","language_id":38},"transliteration":{"text":"mā","language_name":"english","language_id":38}},{"id":32827,"position":6,"audio_url":"wbw/070_030_006.mp3","verse_key":"70:30","verse_id":5405,"location":"70:30:6","text_uthmani":"مَلَكَتْ","qpc_uthmani_hafs":"مَلَكَتۡ","char_type_name":"word","page_number":569,"line_number":9,"text":"مَلَكَتۡ","translation":{"text":"they possess","language_name":"english","language_id":38},"transliteration":{"text":"malakat","language_name":"english","language_id":38}},{"id":32828,"position":7,"audio_url":"wbw/070_030_007.mp3","verse_key":"70:30","verse_id":5405,"location":"70:30:7","text_uthmani":"أَيْمَـٰنُهُمْ","qpc_uthmani_hafs":"أَيۡمَٰنُهُمۡ","char_type_name":"word","page_number":569,"line_number":9,"text":"أَيۡمَٰنُهُمۡ","translation":{"text":"rightfully","language_name":"english","language_id":38},"transliteration":{"text":"aymānuhum","language_name":"english","language_id":38}},{"id":32829,"position":8,"audio_url":"wbw/070_030_008.mp3","verse_key":"70:30","verse_id":5405,"location":"70:30:8","text_uthmani":"فَإِنَّهُمْ","qpc_uthmani_hafs":"فَإِنَّهُمۡ","char_type_name":"word","page_number":569,"line_number":10,"text":"فَإِنَّهُمۡ","translation":{"text":"then indeed, they","language_name":"english","language_id":38},"transliteration":{"text":"fa-innahum","language_name":"english","language_id":38}},{"id":32830,"position":9,"audio_url":"wbw/070_030_009.mp3","verse_key":"70:30","verse_id":5405,"location":"70:30:9","text_uthmani":"غَيْرُ","qpc_uthmani_hafs":"غَيۡرُ","char_type_name":"word","page_number":569,"line_number":10,"text":"غَيۡرُ","translation":{"text":"(are) not","language_name":"english","language_id":38},"transliteration":{"text":"ghayru","language_name":"english","language_id":38}},{"id":32831,"position":10,"audio_url":"wbw/070_030_010.mp3","verse_key":"70:30","verse_id":5405,"location":"70:30:10","text_uthmani":"مَلُومِينَ","qpc_uthmani_hafs":"مَلُومِينَ","char_type_name":"word","page_number":569,"line_number":10,"text":"مَلُومِينَ","translation":{"text":"blameworthy","language_name":"english","language_id":38},"transliteration":{"text":"malūmīna","language_name":"english","language_id":38}},{"id":32832,"position":11,"audio_url":null,"verse_key":"70:30","verse_id":5405,"location":"70:30:11","text_uthmani":"٣٠","qpc_uthmani_hafs":"٣٠","char_type_name":"end","page_number":569,"line_number":10,"text":"٣٠","translation":{"text":"(30)","language_name":"english","language_id":38},"transliteration":{"text":null,"language_name":"english","language_id":38}}]}],"pagination":{"per_page":10,"current_page":3,"next_page":4,"total_pages":5,"total_records":44}}
