{"verses":[{"id":5406,"verse_number":31,"verse_key":"70:31","hizb_number":57,"rub_el_hizb_number":228,"ruku_number":504,"manzil_number":7,"sajdah_number":null,"page_number":569,"juz_number":29,"words":[{"id":33853,"position":1,"audio_url":"wbw/070_031_001.mp3","verse_key":"70:31","verse_id":5406,"location":"70:31:1","text_uthmani":"فَمَنِ","qpc_uthmani_hafs":"فَمَنِ","char_type_name":"word","page_number":569,"line_number":10,"text":"فَمَنِ","translation":{"text":"But whoever","language_name":"english","language_id":38},"transliteration":{"text":"famani","language_name":"english","language_id":38}},{"id":33854,"position":2,"audio_url":"wbw/070_031_002.mp3","verse_key":"70:31","verse_id":5406,"location":"70:31:2","text_uthmani":"ٱبْتَغَىٰ","qpc_uthmani_hafs":"ٱبۡتَغَىٰ","char_type_name":"word","page_number":569,"line_number":10,"text":"ٱبۡتَغَىٰ","translation":{"text":"seeks","language_name":"english","language_id":38},"transliteration":{"text":"ib'taghā","language_name":"english","language_id":38}},{"id":33855,"position":3,"audio_url":"wbw/070_031_003.mp3","verse_key":"70:31","verse_id":5406,"location":"70:31:3","text_uthmani":"وَرَآءَ","qpc_uthmani_hafs":"وَرَآءَ","char_type_name":"word","page_number":569,"line_number":10,"text":"وَرَآءَ","translation":{"text":"beyond","language_name":"english","language_id":38},"transliteration":{"text":"warāa","language_name":"english","language_id":38}},{"id":33856,"position":4,"audio_url":"wbw/070_031_004.mp3","verse_key":"70:31","verse_id":5406,"location":"70:31:4","text_uthmani":"ذَٰلِكَ","qpc_uthmani_hafs":"ذَٰلِكَ","char_type_name":"word","page_number":569,"line_number":10,"text":"ذَٰلِكَ","translation":{"text":"that","language_name":"english","language_id":38},"transliteration":{"text":"dhālika","language_name":"english","language_id":38}},{"id":33857,"position":5,"audio_url":"wbw/070_031_005.mp3","verse_key":"70:31","verse_id":5406,"location":"70:31:5","text_uthmani":"فَأُو۟لَـٰٓئِكَ","qpc_uthmani_hafs":"فَأُوْلَٰٓئِكَ","char_type_name":"word","page_number":569,"line_number":10,"text":"فَأُوْلَٰٓئِكَ","translation":{"text":"then those","language_name":"english","language_id":38},"transliteration":{"text":"fa-ulāika","language_name":"english","language_id":38}},{"id":33858,"position":6,"audio_url":"wbw/070_031_006.mp3","verse_key":"70:31","verse_id":5406,"location":"70:31:6","text_uthmani":"هُمُ","qpc_uthmani_hafs":"هُمُ","char_type_name":"word","page_number":569,"line_number":10,"text":"هُمُ","translation":{"text":"[they]","language_name":"english","language_id":38},"transliteration":{"text":"humu","language_name":"english","language_id":38}},{"id":33859,"position":7,"audio_url":"wbw/070_031_007.mp3","verse_key":"70:31","verse_id":5406,"location":"70:31:7","text_uthmani":"ٱلْعَادُونَ","qpc_uthmani_hafs":"ٱلۡعَادُونَ","char_type_name":"word","page_number":569,"line_number":10,"text":"ٱلۡعَادُونَ","translation":{"text":"(are) the transgressors ","language_name":"english","language_id":38},"transliteration":{"text":"l-ʿādūna","language_name":"english","language_id":38}},{"id":33860,"position":8,"audio_url":null,"verse_key":"70:31","verse_id":5406,"location":"70:31:8","text_uthmani":"٣١","qpc_uthmani_hafs":"٣١","char_type_name":"end","page_number":569,"line_number":10,"text":"٣١","translation":{"text":"(31)","language_name":"english","language_id":38},"transliteration":{"text":null,"language_name":"english","language_id":38}}]},{"id":5407,"verse_number":32,"verse_key":"70:32","hizb_number":57,"rub_el_hizb_number":228,"ruku_number":504,"manzil_number":7,"sajdah_number":null,"page_number":569,"juz_number":29,"words":[{"id":34708,"position":1,"audio_url":"wbw/070_032_001.mp3","verse_key":"70:32","verse_id":5407,"location":"70:32:1","text_uthmani":"وَٱلَّذِينَ","qpc_uthmani_hafs":"وَٱلَّذِينَ","char_type_name":"word","page_number":569,"line_number":11,"text":"وَٱلَّذِينَ","translation":{"text":"And those who","language_name":"english","language_id":38},"transliteration":{"text":"wa-alladhīna","language_name":"english","language_id":38}},{"id":34709,"position":2,"audio_url":"wbw/070_032_002.mp3","verse_key":"70:32","verse_id":5407,"location":"70:32:2","text_uthmani":"هُمْ","qpc_uthmani_hafs":"هُمۡ","char_type_name":"word","page_number":569,"line_number":11,"text":"هُمۡ","translation":{"text":"[they]","language_name":"english","language_id":38},"transliteration":{"text":"hum","language_name":"english","language_id":38}},{"id":34710,"position":3,"audio_url":"wbw/070_032_003.mp3","verse_key":"70:32","verse_id":5407,"location":"70:32:3","text_uthmani":"لِأَمَـٰنَـٰتِهِمْ","qpc_uthmani_hafs":"لِأَمَٰنَٰتِهِمۡ","char_type_name":"word","page_number":569,"line_number":11,"text":"لِأَمَٰنَٰتِهِمۡ","translation":{"text":"of their trusts","language_name":"english","language_id":38},"transliteration":{"text":"li-amānātihim","language_name":"english","language_id":38}},{"id":34711,"position":4,"audio_url":"wbw/070_032_004.mp3","verse_key":"70:32","verse_id":5407,"location":"70:32:4","text_uthmani":"وَعَهْدِهِمْ","qpc_uthmani_hafs":"وَعَهۡدِهِمۡ","char_type_name":"word","page_number":569,"line_number":11,"text":"وَعَهۡدِهِمۡ","translation":{"text":"and their promise","language_name":"english","language_id":38},"transliteration":{"text":"waʿahdihim","language_name":"english","language_id":38}},{"id":34712,"position":5,"audio_url":"wbw/070_032_005.mp3","verse_key":"70:32","verse_id":5407,"location":"70:32:5","text_uthmani":"رَٰعُونَ","qpc_uthmani_hafs":"رَٰعُونَ","char_type_name":"word","page_number":569,"line_number":11,"text":"رَٰعُونَ","translation":{"text":"(are) observers","language_name":"english","language_id":38},"transliteration":{"text":"rāʿūna","language_name":"english","language_id":38}},{"id":34713,"position":6,"audio_url":null,"verse_key":"70:32","verse_id":5407,"location":"70:32:6","text_uthmani":"٣٢","qpc_uthmani_hafs":"٣٢","char_type_name":"end","page_number":569,"line_number":11,"text":"٣٢","translation":{"text":"(32)","language_name":"english","language_id":38},"transliteration":{"text":null,"language_name":"english","language_id":38}}]},{"id":5408,"verse_number":33,"verse_key":"70:33","hizb_number":57,"rub_el_hizb_number":228,"ruku_number":504,"manzil_number":7,"sajdah_number":null,"page_number":569,"juz_number":29,"words":[{"id":35534,"position":1,"audio_url":"wbw/070_033_001.mp3","verse_key":"70:33","verse_id":5408,"location":"70:33:1","text_uthmani":"وَٱلَّذِينَ","qpc_uthmani_hafs":"وَٱلَّذِينَ","char_type_name":"word","page_number":569,"line_number":11,"text":"وَٱلَّذِينَ","translation":{"text":"And those who","language_name":"english","language_id":38},"transliteration":{"text":"wa-alladhīna","language_name":"english","language_id":38}},{"id":35535,"position":2,"audio_url":"wbw/070_033_002.mp3","verse_key":"70:33","verse_id":5408,"location":"70:33:2","text_uthmani":"هُم","qpc_uthmani_hafs":"هُم","char_type_name":"word","page_number":569,"line_number":11,"text":"هُم","translation":{"text":"[they]","language_name":"english","language_id":38},"transliteration":{"text":"hum","language_name":"english","language_id":38}},{"id":35536,"position":3,"audio_url":"wbw/070_033_003.mp3","verse_key":"70:33","verse_id":5408,"location":"70:33:3","text_uthmani":"بِشَهَـٰدَٰتِهِمْ","qpc_uthmani_hafs":"بِشَهَٰدَٰتِهِمۡ","char_type_name":"word","page_number":569,"line_number":11,"text":"بِشَهَٰدَٰتِهِمۡ","translation":{"text":"in their testimonies","language_name":"english","language_id":38},"transliteration":{"text":"bishahādātihim","language_name":"english","language_id":38}},{"id":35537,"position":4,"audio_url":"wbw/070_033_004.mp3","verse_key":"70:33","verse_id":5408,"location":"70:33:4","text_uthmani":"قَآئِمُونَ","qpc_uthmani_hafs":"قَآئِمُونَ","char_type_name":"word","page_number":569,"line_number":11,"text":"قَآئِمُونَ","translation":{"text":"stand firm","language_name":"english","language_id":38},"transliteration":{"text":"qāimūna","language_name":"english","language_id":38}},{"id":35538,"position":5,"audio_url":null,"verse_key":"70:33","verse_id":5408,"location":"70:33:5","text_uthmani":"٣٣","qpc_uthmani_hafs":"٣٣","char_type_name":"end","page_number":569,"line_number":12,"text":"٣٣","translation":{"text":"(33)","language_name":"english","language_id":38},"transliteration":{"text":null,"language_name":"english","language_id":38}}]},{"id":5409,"verse_number":34,"verse_key":"70:34","hizb_number":57,"rub_el_hizb_number":228,"ruku_number":504,"manzil_number":7,"sajdah_number":null,"page_number":569,"juz_number":29,"words":[{"id":36462,"position":1,"audio_url":"wbw/070_034_001.mp3","verse_key":"70:34","verse_id":5409,"location":"70:34:1","text_uthmani":"وَٱلَّذِينَ","qpc_uthmani_hafs":"وَٱلَّذِينَ","char_type_name":"word","page_number":569,"line_number":12,"text":"وَٱلَّذِينَ","translation":{"text":"And those who","language_name":"english","language_id":38},"transliteration":{"text":"wa-alladhīna","language_name":"english","language_id":38}},{"id":36463,"position":2,"audio_url":"wbw/070_034_002.mp3","verse_key":"70:34","verse_id":5409,"location":"70:34:2","text_uthmani":"هُمْ","qpc_uthmani_hafs":"هُمۡ","char_type_name":"word","page_number":569,"line_number":12,"text":"هُمۡ","translation":{"text":"[they]","language_name":"english","language_id":38},"transliteration":{"text":"hum","language_name":"english","language_id":38}},{"id":36464,"position":3,"audio_url":"wbw/070_034_003.mp3","verse_key":"70:34","verse_id":5409,"location":"70:34:3","text_uthmani":"عَلَىٰ","qpc_uthmani_hafs":"عَلَىٰ","char_type_name":"word","page_number":569,"line_number":12,"text":"عَلَىٰ","translation":{"text":"on","language_name":"english","language_id":38},"transliteration":{"text":"ʿalā","language_name":"english","language_id":38}},{"id":36465,"position":4,"audio_url":"wbw/070_034_004.mp3","verse_key":"70:34","verse_id":5409,"location":"70:34:4","text_uthmani":"صَلَاتِهِمْ","qpc_uthmani_hafs":"صَلَاتِهِمۡ","char_type_name":"word","page_number":569,"line_number":12,"text":"صَلَاتِهِمۡ","translation":{"text":"their prayer","language_name":"english","language_id":38},"transliteration":{"text":"ṣalātihim","language_name":"english","language_id":38}},{"id":36466,"position":5,"audio_url":"wbw/070_034_005.mp3","verse_key":"70:34","verse_id":5409,"location":"70:34:5","text_uthmani":"يُحَافِظُونَ","qpc_uthmani_hafs":"يُحَافِظُونَ","char_type_name":"word","page_number":569,"line_number":12,"text":"يُحَافِظُونَ","translation":{"text":"keep a guard ","language_name":"english","language_id":38},"transliteration":{"text":"yuḥāfiẓūna","language_name":"english","language_id":38}},{"id":36467,"position":6,"audio_url":null,"verse_key":"70:34","verse_id":5409,"location":"70:34:6","text_uthmani":"٣٤","qpc_uthmani_hafs":"٣٤","char_type_name":"end","page_number":569,"line_number":12,"text":"٣٤","translation":{"text":"(34)","language_name":"english","language_id":38},"transliteration":{"text":null,"language_name":"english","language_id":38}}]},{"id":5410,"verse_number":35,"verse_key":"70:35","hizb_number":57,"rub_el_hizb_number":228,"ruku_number":504,"manzil_number":7,"sajdah_number":null,"page_number":569,"juz_number":29,"words":[{"id":37394,"position":1,"audio_url":"wbw/070_035_001.mp3","verse_key":"70:35","verse_id":5410,"location":"70:35:1","text_uthmani":"أُو۟لَـٰٓئِكَ","qpc_uthmani_hafs":"أُوْلَٰٓئِكَ","char_type_name":"word","page_number":569,"line_number":12,"text":"أُوْلَٰٓئِكَ","translation":{"text":"Those","language_name":"english","language_id":38},"transliteration":{"text":"ulāika","language_name":"english","language_id":38}},{"id":37395,"position":2,"audio_url":"wbw/070_035_002.mp3","verse_key":"70:35","verse_id":5410,"location":"70:35:2","text_uthmani":"فِى","qpc_uthmani_hafs":"فِي","char_type_name":"word","page_number":569,"line_number":12,"text":"فِي","translation":{"text":"(will be) in","language_name":"english","language_id":38},"transliteration":{"text":"fī","language_name":"english","language_id":38}},{"id":37396,"position":3,"audio_url":"wbw/070_035_003.mp3","verse_key":"70:35","verse_id":5410,"location":"70:35:3","text_uthmani":"جَنَّـٰتٍۢ","qpc_uthmani_hafs":"جَنَّٰتٖ","char_type_name":"word","page_number":569,"line_number":12,"text":"جَنَّٰتٖ","translation":{"text":"Gardens","language_name":"english","language_id":38},"transliteration":{"text":"jannātin","language_name":"english","language_id":38}},{"id":37397,"position":4,"audio_url":"wbw/070_035_004.mp3","verse_key":"70:35","verse_id":5410,"location":"70:35:4","text_uthmani":"مُّكْرَمُونَ","qpc_uthmani_hafs":"مُّكۡرَمُونَ","char_type_name":"word","page_number":569,"line_number":12,"text":"مُّكۡرَمُونَ","translation":{"text":"honored","language_name":"english","language_id":38},"transliteration":{"text":"muk'ramūna","language_name":"english","language_id":38}},{"id":37398,"position":5,"audio_url":null,"verse_key":"70:35","verse_id":5410,"location":"70:35:5","text_uthmani":"٣٥","qpc_uthmani_hafs":"٣٥","char_type_name":"end","page_number":569,"line_number":12,"text":"٣٥","translation":{"text":"(35)","language_name":"english","language_id":38},"transliteration":{"text":null,"language_name":"english","language_id":38}}]},{"id":5411,"verse_number":36,"verse_key":"70:36","hizb_number":57,"rub_el_hizb_number":228,"ruku_number":505,"manzil_number":7,"sajdah_number":null,"page_number":569,"juz_number":29,"words":[{"id":38126,"position":1,"audio_url":"wbw/070_036_001.mp3","verse_key":"70:36","verse_id":5411,"location":"70:36:1","text_uthmani":"فَمَالِ","qpc_uthmani_hafs":"فَمَالِ","char_type_name":"word","page_number":569,"line_number":13,"text":"فَمَالِ","translation":{"text":"So what is with","language_name":"english","language_id":38},"transliteration":{"text":"famāli","language_name":"english","language_id":38}},{"id":38127,"position":2,"audio_url":"wbw/070_036_002.mp3","verse_key":"70:36","verse_id":5411,"location":"70:36:2","text_uthmani":"ٱلَّذِينَ","qpc_uthmani_hafs":"ٱلَّذِينَ","char_type_name":"word","page_number":569,"line_number":13,"text":"ٱلَّذِينَ","translation":{"text":"those who","language_name":"english","language_id":38},"transliteration":{"text":"alladhīna","language_name":"english","language_id":38}},{"id":38128,"position":3,"audio_url":"wbw/070_036_003.mp3","verse_key":"70:36","verse_id":5411,"location":"70:36:3","text_uthmani":"كَفَرُوا۟","qpc_uthmani_hafs":"كَفَرُواْ","char_type_name":"word","page_number":569,"line_number":13,"text":"كَفَرُواْ","translation":{"text":"disbelieve","language_name":"english","language_id":38},"transliteration":{"text":"kafarū","language_name":"english","language_id":38}},{"id":38129,"position":4,"audio_url":"wbw/070_036_004.mp3","verse_key":"70:36","verse_id":5411,"location":"70:36:4","text_uthmani":"قِبَلَكَ","qpc_uthmani_hafs":"قِبَلَكَ","char_type_name":"word","page_number":569,"line_number":13,"text":"قِبَلَكَ","translation":{"text":"before you","language_name":"english","language_id":38},"transliteration":{"text":"qibalaka","language_name":"english","language_id":38}},{"id":38130,"position":5,"audio_url":"wbw/070_036_005.mp3","verse_key":"70:36","verse_id":5411,"location":"70:36:5","text_uthmani":"مُهْطِعِينَ","qpc_uthmani_hafs":"مُهۡطِعِينَ","char_type_name":"word","page_number":569,"line_number":13,"text":"مُهۡطِعِينَ","translation":{"text":"(they) hasten","language_name":"english","language_id":38},"transliteration":{"text":"muh'ṭiʿīna","language_name":"english","language_id":38}},{"id":38131,"position":6,"audio_url":null,"verse_key":"70:36","verse_id":5411,"location":"70:36:6","text_uthmani":"٣٦","qpc_uthmani_hafs":"٣٦","char_type_name":"end","page_number":569,"line_number":13,"text":"٣٦","translation":{"text":"(36)","language_name":"english","language_id":38},"transliteration":{"text":null,"language_name":"english","language_id":38}}]},{"id":5412,"verse_number":37,"verse_key":"70:37","hizb_number":57,"rub_el_hizb_number":228,"ruku_number":505,"manzil_number":7,"sajdah_number":null,"page_number":569,"juz_number":29,"words":[{"id":39127,"position":1,"audio_url":"wbw/070_037_001.mp3","verse_key":"70:37","verse_id":5412,"location":"70:37:1","text_uthmani":"عَنِ","qpc_uthmani_hafs":"عَنِ","char_type_name":"word","page_number":569,"line_number":13,"text":"عَنِ","translation":{"text":"On","language_name":"english","language_id":38},"transliteration":{"text":"ʿani","language_name":"english","language_id":38}},{"id":39128,"position":2,"audio_url":"wbw/070_037_002.mp3","verse_key":"70:37","verse_id":5412,"location":"70:37:2","text_uthmani":"ٱلْيَمِينِ","qpc_uthmani_hafs":"ٱلۡيَمِينِ","char_type_name":"word","page_number":569,"line_number":13,"text":"ٱلۡيَمِينِ","translation":{"text":"the right","language_name":"english","language_id":38},"transliteration":{"text":"l-yamīni","language_name":"english","language_id":38}},{"id":39129,"position":3,"audio_url":"wbw/070_037_003.mp3","verse_key":"70:37","verse_id":5412,"location":"70:37:3","text_uthmani":"وَعَنِ","qpc_uthmani_hafs":"وَعَنِ","char_type_name":"word","page_number":569,"line_number":13,"text":"وَعَنِ","translation":{"text":"and on","language_name":"english","language_id":38},"transliteration":{"text":"waʿani","language_name":"english","language_id":38}},{"id":39130,"position":4,"audio_url":"wbw/070_037_004.mp3","verse_key":"70:37","verse_id":5412,"location":"70:37:4","text_uthmani":"ٱلشِّمَالِ","qpc_uthmani_hafs":"ٱلشِّمَالِ","char_type_name":"word","page_number":569,"line_number":13,"text":"ٱلشِّمَالِ","translation":{"text":"the left","language_name":"english","language_id":38},"transliteration":{"text":"l-shimāli","language_name":"english","language_id":38}},{"id":39131,"position":5,"audio_url":"wbw/070_037_005.mp3","verse_key":"70:37","verse_id":5412,"location":"70:37:5","text_uthmani":"عِزِينَ","qpc_uthmani_hafs":"عِزِينَ","char_type_name":"word","page_number":569,"line_number":14,"text":"عِزِينَ","translation":{"text":"(in) separate groups","language_name":"english","language_id":38},"transliteration":{"text":"ʿizīna","language_name":"english","language_id":38}},{"id":39132,"position":6,"audio_url":null,"verse_key":"70:37","verse_id":5412,"location":"70:37:6","text_uthmani":"٣٧","qpc_uthmani_hafs":"٣٧","char_type_name":"end","page_number":569,"line_number":14,"text":"٣٧","translation":{"text":"(37)","language_name":"english","language_id":38},"transliteration":{"text":null,"language_name":"english","language_id":38}}]},{"id":5413,"verse_number":38,"verse_key":"70:38","hizb_number":57,"rub_el_hizb_number":228,"ruku_number":505,"manzil_number":7,"sajdah_number":null,"page_number":569,"juz_number":29,"words":[{"id":39817,"position":1,"audio_url":"wbw/070_038_001.mp3","verse_key":"70:38","verse_id":5413,"location":"70:38:1","text_uthmani":"أَيَطْمَعُ","qpc_uthmani_hafs":"أَيَطۡمَعُ","char_type_name":"word","page_number":569,"line_number":14,"text":"أَيَطۡمَعُ","translation":{"text":"Does long","language_name":"english","language_id":38},"transliteration":{"text":"ayaṭmaʿu","language_name":"english","language_id":38}},{"id":39818,"position":2,"audio_url":"wbw/070_038_002.mp3","verse_key":"70:38","verse_id":5413,"location":"70:38:2","text_uthmani":"كُلُّ","qpc_uthmani_hafs":"كُلُّ","char_type_name":"word","page_number":569,"line_number":14,"text":"كُلُّ","translation":{"text":"every","language_name":"english","language_id":38},"transliteration":{"text":"kullu","language_name":"english","language_id":38}},{"id":39819,"position":3,"audio_url":"wbw/070_038_003.mp3","verse_key":"70:38","verse_id":5413,"location":"70:38:3","text_uthmani":"ٱمْرِئٍۢ","qpc_uthmani_hafs":"ٱمۡرِيٕٖ","char_type_name":"word","page_number":569,"line_number":14,"text":"ٱمۡرِيٕٖ","translation":{"text":"person","language_name":"english","language_id":38},"transliteration":{"text":"im'ri-in","language_name":"english","language_id":38}},{"id":39820,"position":4,"audio_url":"wbw/070_038_004.mp3","verse_key":"70:38","verse_id":5413,"location":"70:38:4","text_uthmani":"مِّنْهُمْ","qpc_uthmani_hafs":"مِّنۡهُمۡ","char_type_name":"word","page_number":569,"line_number":14,"text":"مِّنۡهُمۡ","translation":{"text":"among them","language_name":"english","language_id":38},"transliteration":{"text":"min'hum","language_name":"english","language_id":38}},{"id":39821,"position":5,"audio_url":"wbw/070_038_005.mp3","verse_key":"70:38","verse_id":5413,"location":"70:38:5","text_uthmani":"أَن","qpc_uthmani_hafs":"أَن","char_type_name":"word","page_number":569,"line_number":14,"text":"أَن","translation":{"text":"that","language_name":"english","language_id":38},"transliteration":{"text":"an","language_name":"english","language_id":38}},{"id":39822,"position":6,"audio_url":"wbw/070_038_006.mp3","verse_key":"70:38","verse_id":5413,"location":"70:38:6","text_uthmani":"يُدْخَلَ","qpc_uthmani_hafs":"يُدۡخَلَ","char_type_name":"word","page_number":569,"line_number":14,"text":"يُدۡخَلَ","translation":{"text":"he enters","language_name":"english","language_id":38},"transliteration":{"text":"yud'khala","language_name":"english","language_id":38}},{"id":39823,"position":7,"audio_url":"wbw/070_038_007.mp3","verse_key":"70:38","verse_id":5413,"location":"70:38:7","text_uthmani":"جَنَّةَ","qpc_uthmani_hafs":"جَنَّةَ","char_type_name":"word","page_number":569,"line_number":14,"text":"جَنَّةَ","translation":{"text":"a Garden","language_name":"english","language_id":38},"transliteration":{"text":"jannata","language_name":"english","language_id":38}},{"id":39824,"position":8,"audio_url":"wbw/070_038_008.mp3","verse_key":"70:38","verse_id":5413,"location":"70:38:8","text_uthmani":"نَعِيمٍۢ","qpc_uthmani_hafs":"نَعِيمٖ","char_type_name":"word","page_number":569,"line_number":14,"text":"نَعِيمٖ","translation":{"text":"(of) Delight","language_name":"english","language_id":38},"transliteration":{"text":"naʿīmin","language_name":"english","language_id":38}},{"id":39825,"position":9,"audio_url":null,"verse_key":"70:38","verse_id":5413,"location":"70:38:9","text_uthmani":"٣٨","qpc_uthmani_hafs":"٣٨","char_type_name":"end","page_number":569,"line_number":14,"text":"٣٨","translation":{"text":"(38)","language_name":"english","language_id":38},"transliteration":{"text":null,"language_name":"english","language_id":38}}]},{"id":5414,"verse_number":39,"verse_key":"70:39","hizb_number":57,"rub_el_hizb_number":228,"ruku_number":505,"manzil_number":7,"sajdah_number":null,"page_number":569,"juz_number":29,"words":[{"id":40725,"position":1,"audio_url":"wbw/070_039_001.mp3","verse_key":"70:39","verse_id":5414,"location":"70:39:1","text_uthmani":"كَلَّآ ۖ","qpc_uthmani_hafs":"كـَلَّآۖ","char_type_name":"word","page_number":569,"line_number":14,"text":"كـَلَّآۖ","translation":{"text":"By no means","language_name":"english","language_id":38},"transliteration":{"text":"kallā","language_name":"english","language_id":38}},{"id":40727,"position":2,"audio_url":"wbw/070_039_003.mp3","verse_key":"70:39","verse_id":5414,"location":"70:39:2","text_uthmani":"إِنَّا","qpc_uthmani_hafs":"إِنَّا","char_type_name":"word","page_number":569,"line_number":14,"text":"إِنَّا","translation":{"text":"Indeed, We","language_name":"english","language_id":38},"transliteration":{"text":"innā","language_name":"english","language_id":38}},{"id":40728,"position":3,"audio_url":"wbw/070_039_004.mp3","verse_key":"70:39","verse_id":5414,"location":"70:39:3","text_uthmani":"خَلَقْنَـٰهُم","qpc_uthmani_hafs":"خَلَقۡنَٰهُم","char_type_name":"word","page_number":569,"line_number":14,"text":"خَلَقۡنَٰهُم","translation":{"text":"[We] have created them","language_name":"english","language_id":38},"transliteration":{"text":"khalaqnāhum","language_name":"english","language_id":38}},{"id":40729,"position":4,"audio_url":"wbw/070_039_005.mp3","verse_key":"70:39","verse_id":5414,"location":"70:39:4","text_uthmani":"مِّمَّا","qpc_uthmani_hafs":"مِّمَّا","char_type_name":"word","page_number":569,"line_number":15,"text":"مِّمَّا","translation":{"text":"from what","language_name":"english","language_id":38},"transliteration":{"text":"mimmā","language_name":"english","language_id":38}},{"id":40730,"position":5,"audio_url":"wbw/070_039_006.mp3","verse_key":"70:39","verse_id":5414,"location":"70:39:5","text_uthmani":"يَعْلَمُونَ","qpc_uthmani_hafs":"يَعۡلَمُونَ","char_type_name":"word","page_number":569,"line_number":15,"text":"يَعۡلَمُونَ","translation":{"text":"they know","language_name":"english","language_id":38},"transliteration":{"text":"yaʿlamūna","language_name":"english","language_id":38}},{"id":40731,"position":6,"audio_url":null,"verse_key":"70:39","verse_id":5414,"location":"70:39:6","text_uthmani":"٣٩","qpc_uthmani_hafs":"٣٩","char_type_name":"end","page_number":569,"line_number":15,"text":"٣٩","translation":{"text":"(39)","language_name":"english","language_id":38},"transliteration":{"text":null,"language_name":"english","language_id":38}}]},{"id":5415,"verse_number":40,"verse_key":"70:40","hizb_number":57,"rub_el_hizb_number":228,"ruku_number":505,"manzil_number":7,"sajdah_number":null,"page_number":569,"juz_number":29,"words":[{"id":41393,"position":1,"audio_url":"wbw/070_040_001.mp3","verse_key":"70:40","verse_id":5415,"location":"70:40:1","text_uthmani":"فَلَآ","qpc_uthmani_hafs":"فَلَآ","char_type_name":"word","page_number":569,"line_number":15,"text":"فَلَآ","translation":{"text":"But nay","language_name":"english","language_id":38},"transliteration":{"text":"falā","language_name":"english","language_id":38}},{"id":41394,"position":2,"audio_url":"wbw/070_040_002.mp3","verse_key":"70:40","verse_id":5415,"location":"70:40:2","text_uthmani":"أُقْسِمُ","qpc_uthmani_hafs":"أُقۡسِمُ","char_type_name":"word","page_number":569,"line_number":15,"text":"أُقۡسِمُ","translation":{"text":"I swear","language_name":"english","language_id":38},"transliteration":{"text":"uq'simu","language_name":"english","language_id":38}},{"id":41395,"position":3,"audio_url":"wbw/070_040_003.mp3","verse_key":"70:40","verse_id":5415,"location":"70:40:3","text_uthmani":"بِرَبِّ","qpc_uthmani_hafs":"بِرَبِّ","char_type_name":"word","page_number":569,"line_number":15,"text":"بِرَبِّ","translation":{"text":"by (the) Lord","language_name":"english","language_id":38},"transliteration":{"text":"birabbi","language_name":"english","language_id":38}},{"id":41396,"position":4,"audio_url":"wbw/070_040_004.mp3","verse_key":"70:40","verse_id":5415,"location":"70:40:4","text_uthmani":"ٱلْمَشَـٰرِقِ","qpc_uthmani_hafs":"ٱلۡمَشَٰرِقِ","char_type_name":"word","page_number":569,"line_number":15,"text":"ٱلۡمَشَٰرِقِ","translation":{"text":"(of) the risings","language_name":"english","language_id":38},"transliteration":{"text":"l-mashāriqi","language_name":"english","language_id":38}},{"id":41397,"position":5,"audio_url":"wbw/070_040_005.mp3","verse_key":"70:40","verse_id":5415,"location":"70:40:5","text_uthmani":"وَٱلْمَغَـٰرِبِ","qpc_uthmani_hafs":"وَٱلۡمَغَٰرِبِ","char_type_name":"word","page_number":569,"line_number":15,"text":"وَٱلۡمَغَٰرِبِ","translation":{"text":"and the settings","language_name":"english","language_id":38},"transliteration":{"text":"wal-maghāribi","language_name":"english","language_id":38}},{"id":41398,"position":6,"audio_url":"wbw/070_040_006.mp3","verse_key":"70:40","verse_id":5415,"location":"70:40:6","text_uthmani":"إِنَّا","qpc_uthmani_hafs":"إِنَّا","char_type_name":"word","page_number":569,"line_number":15,"text":"إِنَّا","translation":{"text":"that We","language_name":"english","language_id":38},"transliteration":{"text":"innā","language_name":"english","language_id":38}},{"id":41399,"position":7,"audio_url":"wbw/070_040_007.mp3","verse_key":"70:40","verse_id":5415,"location":"70:40:7","text_uthmani":"لَقَـٰدِرُونَ","qpc_uthmani_hafs":"لَقَٰدِرُونَ","char_type_name":"word","page_number":569,"line_number":15,"text":"لَقَٰدِرُونَ","translation":{"text":"(are) surely Able","language_name":"english","language_id":38},"transliteration":{"text":"laqādirūna","language_name":"english","language_id":38}},{"id":41400,"position":8,"audio_url":null,"verse_key":"70:40","verse_id":5415,"location":"70:40:8","text_uthmani":"٤٠","qpc_uthmani_hafs":"٤٠","char_type_name":"end","page_number":569,"line_number":15,"text":"٤٠","translation":{"text":"(40)","language_name":"english","language_id":38},"transliteration":{"text":null,"language_name":"english","language_id":38}}]}],"pagination":{"per_page":10,"current_page":4,"next_page":5,"total_pages":5,"total_records":44}}
