{"verses":[{"id":5416,"verse_number":41,"verse_key":"70:41","hizb_number":57,"rub_el_hizb_number":228,"ruku_number":505,"manzil_number":7,"sajdah_number":null,"page_number":570,"juz_number":29,"words":[{"id":42188,"position":1,"audio_url":"wbw/070_041_001.mp3","verse_key":"70:41","verse_id":5416,"location":"70:41:1","text_uthmani":"عَلَىٰٓ","qpc_uthmani_hafs":"عَلَىٰٓ","char_type_name":"word","page_number":570,"line_number":1,"text":"عَلَىٰٓ","translation":{"text":"[On]","language_name":"english","language_id":38},"transliteration":{"text":"ʿalā","language_name":"english","language_id":38}},{"id":42189,"position":2,"audio_url":"wbw/070_041_002.mp3","verse_key":"70:41","verse_id":5416,"location":"70:41:2","text_uthmani":"أَن","qpc_uthmani_hafs":"أَن","char_type_name":"word","page_number":570,"line_number":1,"text":"أَن","translation":{"text":"to","language_name":"english","language_id":38},"transliteration":{"text":"an","language_name":"english","language_id":38}},{"id":42190,"position":3,"audio_url":"wbw/070_041_003.mp3","verse_key":"70:41","verse_id":5416,"location":"70:41:3","text_uthmani":"نُّبَدِّلَ","qpc_uthmani_hafs":"نُّبَدِّلَ","char_type_name":"word","page_number":570,"line_number":1,"text":"نُّبَدِّلَ","translation":{"text":"[We] replace","language_name":"english","language_id":38},"transliteration":{"text":"nubaddila","language_name":"english","language_id":38}},{"id":42191,"position":4,"audio_url":"wbw/070_041_004.mp3","verse_key":"70:41","verse_id":5416,"location":"70:41:4","text_uthmani":"خَيْرًۭا","qpc_uthmani_hafs":"خَيۡرٗا","char_type_name":"word","page_number":570,"line_number":1,"text":"خَيۡرٗا","translation":{"text":"(with) better","language_name":"english","language_id":38},"transliteration":{"text":"khayran","language_name":"english","language_id":38}},{"id":42192,"position":5,"audio_url":"wbw/070_041_005.mp3","verse_key":"70:41","verse_id":5416,"location":"70:41:5","text_uthmani":"مِّنْهُمْ","qpc_uthmani_hafs":"مِّنۡهُمۡ","char_type_name":"word","page_number":570,"line_number":1,"text":"مِّنۡهُمۡ","translation":{"text":"than them","language_name":"english","language_id":38},"transliteration":{"text":"min'hum","language_name":"english","language_id":38}},{"id":42193,"position":6,"audio_url":"wbw/070_041_006.mp3","verse_key":"70:41","verse_id":5416,"location":"70:41:6","text_uthmani":"وَمَا","qpc_uthmani_hafs":"وَمَا","char_type_name":"word","page_number":570,"line_number":1,"text":"وَمَا","translation":{"text":"and not","language_name":"english","language_id":38},"transliteration":{"text":"wamā","language_name":"english","language_id":38}},{"id":42194,"position":7,"audio_url":"wbw/070_041_007.mp3","verse_key":"70:41","verse_id":5416,"location":"70:41:7","text_uthmani":"نَحْنُ","qpc_uthmani_hafs":"نَحۡنُ","char_type_name":"word","page_number":570,"line_number":1,"text":"نَحۡنُ","translation":{"text":"We","language_name":"english","language_id":38},"transliteration":{"text":"naḥnu","language_name":"english","language_id":38}},{"id":42195,"position":8,"audio_url":"wbw/070_041_008.mp3","verse_key":"70:41","verse_id":5416,"location":"70:41:8","text_uthmani":"بِمَسْبُوقِينَ","qpc_uthmani_hafs":"بِمَسۡبُوقِينَ","char_type_name":"word","page_number":570,"line_number":1,"text":"بِمَسۡبُوقِينَ","translation":{"text":"(are) to be outrun","language_name":"english","language_id":38},"transliteration":{"text":"bimasbūqīna","language_name":"english","language_id":38}},{"id":42196,"position":9,"audio_url":null,"verse_key":"70:41","verse_id":5416,"location":"70:41:9","text_uthmani":"٤١","qpc_uthmani_hafs":"٤١","char_type_name":"end","page_number":570,"line_number":1,"text":"٤١","translation":{"text":"(41)","language_name":"english","language_id":38},"transliteration":{"text":null,"language_name":"english","language_id":38}}]},{"id":5417,"verse_number":42,"verse_key":"70:42","hizb_number":57,"rub_el_hizb_number":228,"ruku_number":505,"manzil_number":7,"sajdah_number":null,"page_number":570,"juz_number":29,"words":[{"id":43034,"position":1,"audio_url":"wbw/070_042_001.mp3","verse_key":"70:42","verse_id":5417,"location":"70:42:1","text_uthmani":"فَذَرْهُمْ","qpc_uthmani_hafs":"فَذَرۡهُمۡ","char_type_name":"word","page_number":570,"line_number":1,"text":"فَذَرۡهُمۡ","translation":{"text":"So leave them","language_name":"english","language_id":38},"transliteration":{"text":"fadharhum","language_name":"english","language_id":38}},{"id":43035,"position":2,"audio_url":"wbw/070_042_002.mp3","verse_key":"70:42","verse_id":5417,"location":"70:42:2","text_uthmani":"يَخُوضُوا۟","qpc_uthmani_hafs":"يَخُوضُواْ","char_type_name":"word","page_number":570,"line_number":2,"text":"يَخُوضُواْ","translation":{"text":"(to) converse vainly","language_name":"english","language_id":38},"transliteration":{"text":"yakhūḍū","language_name":"english","language_id":38}},{"id":43036,"position":3,"audio_url":"wbw/070_042_003.mp3","verse_key":"70:42","verse_id":5417,"location":"70:42:3","text_uthmani":"وَيَلْعَبُوا۟","qpc_uthmani_hafs":"وَيَلۡعَبُواْ","char_type_name":"word","page_number":570,"line_number":2,"text":"وَيَلۡعَبُواْ","translation":{"text":"and amuse themselves","language_name":"english","language_id":38},"transliteration":{"text":"wayalʿabū","language_name":"english","language_id":38}},{"id":43037,"position":4,"audio_url":"wbw/070_042_004.mp3","verse_key":"70:42","verse_id":5417,"location":"70:42:4","text_uthmani":"حَتَّىٰ","qpc_uthmani_hafs":"حَتَّىٰ","char_type_name":"word","page_number":570,"line_number":2,"text":"حَتَّىٰ","translation":{"text":"until","language_name":"english","language_id":38},"transliteration":{"text":"ḥattā","language_name":"english","language_id":38}},{"id":43038,"position":5,"audio_url":"wbw/070_042_005.mp3","verse_key":"70:42","verse_id":5417,"location":"70:42:5","text_uthmani":"يُلَـٰقُوا۟","qpc_uthmani_hafs":"يُلَٰقُواْ","char_type_name":"word","page_number":570,"line_number":2,"text":"يُلَٰقُواْ","translation":{"text":"they meet","language_name":"english","language_id":38},"transliteration":{"text":"yulāqū","language_name":"english","language_id":38}},{"id":43039,"position":6,"audio_url":"wbw/070_042_006.mp3","verse_key":"70:42","verse_id":5417,"location":"70:42:6","text_uthmani":"يَوْمَهُمُ","qpc_uthmani_hafs":"يَوۡمَهُمُ","char_type_name":"word","page_number":570,"line_number":2,"text":"يَوۡمَهُمُ","translation":{"text":"their Day","language_name":"english","language_id":38},"transliteration":{"text":"yawmahumu","language_name":"english","language_id":38}},{"id":43040,"position":7,"audio_url":"wbw/070_042_007.mp3","verse_key":"70:42","verse_id":5417,"location":"70:42:7","text_uthmani":"ٱلَّذِى","qpc_uthmani_hafs":"ٱلَّذِي","char_type_name":"word","page_number":570,"line_number":2,"text":"ٱلَّذِي","translation":{"text":"which","language_name":"english","language_id":38},"transliteration":{"text":"alladhī","language_name":"english","language_id":38}},{"id":43041,"position":8,"audio_url":"wbw/070_042_008.mp3","verse_key":"70:42","verse_id":5417,"location":"70:42:8","text_uthmani":"يُوعَدُونَ","qpc_uthmani_hafs":"يُوعَدُونَ","char_type_name":"word","page_number":570,"line_number":2,"text":"يُوعَدُونَ","translation":{"text":"they are promised","language_name":"english","language_id":38},"transliteration":{"text":"yūʿadūna","language_name":"english","language_id":38}},{"id":43042,"position":9,"audio_url":null,"verse_key":"70:42","verse_id":5417,"location":"70:42:9","text_uthmani":"٤٢","qpc_uthmani_hafs":"٤٢","char_type_name":"end","page_number":570,"line_number":2,"text":"٤٢","translation":{"text":"(42)","language_name":"english","language_id":38},"transliteration":{"text":null,"language_name":"english","language_id":38}}]},{"id":5418,"verse_number":43,"verse_key":"70:43","hizb_number":57,"rub_el_hizb_number":228,"ruku_number":505,"manzil_number":7,"sajdah_number":null,"page_number":570,"juz_number":29,"words":[{"id":43734,"position":1,"audio_url":"wbw/070_043_001.mp3","verse_key":"70:43","verse_id":5418,"location":"70:43:1","text_uthmani":"يَوْمَ","qpc_uthmani_hafs":"يَوۡمَ","char_type_name":"word","page_number":570,"line_number":2,"text":"يَوۡمَ","translation":{"text":"(The) Day","language_name":"english","language_id":38},"transliteration":{"text":"yawma","language_name":"english","language_id":38}},{"id":43735,"position":2,"audio_url":"wbw/070_043_002.mp3","verse_key":"70:43","verse_id":5418,"location":"70:43:2","text_uthmani":"يَخْرُجُونَ","qpc_uthmani_hafs":"يَخۡرُجُونَ","char_type_name":"word","page_number":570,"line_number":3,"text":"يَخۡرُجُونَ","translation":{"text":"they will come out","language_name":"english","language_id":38},"transliteration":{"text":"yakhrujūna","language_name":"english","language_id":38}},{"id":43736,"position":3,"audio_url":"wbw/070_043_003.mp3","verse_key":"70:43","verse_id":5418,"location":"70:43:3","text_uthmani":"مِنَ","qpc_uthmani_hafs":"مِنَ","char_type_name":"word","page_number":570,"line_number":3,"text":"مِنَ","translation":{"text":"from","language_name":"english","language_id":38},"transliteration":{"text":"mina","language_name":"english","language_id":38}},{"id":43737,"position":4,"audio_url":"wbw/070_043_004.mp3","verse_key":"70:43","verse_id":5418,"location":"70:43:4","text_uthmani":"ٱلْأَجْدَاثِ","qpc_uthmani_hafs":"ٱلۡأَجۡدَاثِ","char_type_name":"word","page_number":570,"line_number":3,"text":"ٱلۡأَجۡدَاثِ","translation":{"text":"the graves","language_name":"english","language_id":38},"transliteration":{"text":"l-ajdāthi","language_name":"english","language_id":38}},{"id":43738,"position":5,"audio_url":"wbw/070_043_005.mp3","verse_key":"70:43","verse_id":5418,"location":"70:43:5","text_uthmani":"سِرَاعًۭا","qpc_uthmani_hafs":"سِرَاعٗا","char_type_name":"word","page_number":570,"line_number":3,"text":"سِرَاعٗا","translation":{"text":"rapidly","language_name":"english","language_id":38},"transliteration":{"text":"sirāʿan","language_name":"english","language_id":38}},{"id":43739,"position":6,"audio_url":"wbw/070_043_006.mp3","verse_key":"70:43","verse_id":5418,"location":"70:43:6","text_uthmani":"كَأَنَّهُمْ","qpc_uthmani_hafs":"كَأَنَّهُمۡ","char_type_name":"word","page_number":570,"line_number":3,"text":"كَأَنَّهُمۡ","translation":{"text":"as if they (were)","language_name":"english","language_id":38},"transliteration":{"text":"ka-annahum","language_name":"english","language_id":38}},{"id":43740,"position":7,"audio_url":"wbw/070_043_007.mp3","verse_key":"70:43","verse_id":5418,"location":"70:43:7","text_uthmani":"إِلَىٰ","qpc_uthmani_hafs":"إِلَىٰ","char_type_name":"word","page_number":570,"line_number":3,"text":"إِلَىٰ","translation":{"text":"to","language_name":"english","language_id":38},"transliteration":{"text":"ilā","language_name":"english","language_id":38}},{"id":43741,"position":8,"audio_url":"wbw/070_043_008.mp3","verse_key":"70:43","verse_id":5418,"location":"70:43:8","text_uthmani":"نُصُبٍۢ","qpc_uthmani_hafs":"نُصُبٖ","char_type_name":"word","page_number":570,"line_number":3,"text":"نُصُبٖ","translation":{"text":"a goal","language_name":"english","language_id":38},"transliteration":{"text":"nuṣubin","language_name":"english","language_id":38}},{"id":43742,"position":9,"audio_url":"wbw/070_043_009.mp3","verse_key":"70:43","verse_id":5418,"location":"70:43:9","text_uthmani":"يُوفِضُونَ","qpc_uthmani_hafs":"يُوفِضُونَ","char_type_name":"word","page_number":570,"line_number":3,"text":"يُوفِضُونَ","translation":{"text":"hastening","language_name":"english","language_id":38},"transliteration":{"text":"yūfiḍūna","language_name":"english","language_id":38}},{"id":43743,"position":10,"audio_url":null,"verse_key":"70:43","verse_id":5418,"location":"70:43:10","text_uthmani":"٤٣","qpc_uthmani_hafs":"٤٣","char_type_name":"end","page_number":570,"line_number":3,"text":"٤٣","translation":{"text":"(43)","language_name":"english","language_id":38},"transliteration":{"text":null,"language_name":"english","language_id":38}}]},{"id":5419,"verse_number":44,"verse_key":"70:44","hizb_number":57,"rub_el_hizb_number":228,"ruku_number":505,"manzil_number":7,"sajdah_number":null,"page_number":570,"juz_number":29,"words":[{"id":44478,"position":1,"audio_url":"wbw/070_044_001.mp3","verse_key":"70:44","verse_id":5419,"location":"70:44:1","text_uthmani":"خَـٰشِعَةً","qpc_uthmani_hafs":"خَٰشِعَةً","char_type_name":"word","page_number":570,"line_number":4,"text":"خَٰشِعَةً","translation":{"text":"Humbled","language_name":"english","language_id":38},"transliteration":{"text":"khāshiʿatan","language_name":"english","language_id":38}},{"id":44479,"position":2,"audio_url":"wbw/070_044_002.mp3","verse_key":"70:44","verse_id":5419,"location":"70:44:2","text_uthmani":"أَبْصَـٰرُهُمْ","qpc_uthmani_hafs":"أَبۡصَٰرُهُمۡ","char_type_name":"word","page_number":570,"line_number":4,"text":"أَبۡصَٰرُهُمۡ","translation":{"text":"their eyesights","language_name":"english","language_id":38},"transliteration":{"text":"abṣāruhum","language_name":"english","language_id":38}},{"id":44480,"position":3,"audio_url":"wbw/070_044_003.mp3","verse_key":"70:44","verse_id":5419,"location":"70:44:3","text_uthmani":"تَرْهَقُهُمْ","qpc_uthmani_hafs":"تَرۡهَقُهُمۡ","char_type_name":"word","page_number":570,"line_number":4,"text":"تَرۡهَقُهُمۡ","translation":{"text":"will cover them","language_name":"english","language_id":38},"transliteration":{"text":"tarhaquhum","language_name":"english","language_id":38}},{"id":44481,"position":4,"audio_url":"wbw/070_044_004.mp3","verse_key":"70:44","verse_id":5419,"location":"70:44:4","text_uthmani":"ذِلَّةٌۭ ۚ","qpc_uthmani_hafs":"ذِلَّةٞۚ","char_type_name":"word","page_number":570,"line_number":4,"text":"ذِلَّةٞۚ","translation":{"text":"humiliation","language_name":"english","language_id":38},"transliteration":{"text":"dhillatun","language_name":"english","language_id":38}},{"id":44483,"position":5,"audio_url":"wbw/070_044_006.mp3","verse_key":"70:44","verse_id":5419,"location":"70:44:5","text_uthmani":"ذَٰلِكَ","qpc_uthmani_hafs":"ذَٰلِكَ","char_type_name":"word","page_number":570,"line_number":4,"text":"ذَٰلِكَ","translation":{"text":"That","language_name":"english","language_id":38},"transliteration":{"text":"dhālika","language_name":"english","language_id":38}},{"id":44484,"position":6,"audio_url":"wbw/070_044_007.mp3","verse_key":"70:44","verse_id":5419,"location":"70:44:6","text_uthmani":"ٱلْيَوْمُ","qpc_uthmani_hafs":"ٱلۡيَوۡمُ","char_type_name":"word","page_number":570,"line_number":4,"text":"ٱلۡيَوۡمُ","translation":{"text":"(is) the Day","language_name":"english","language_id":38},"transliteration":{"text":"l-yawmu","language_name":"english","language_id":38}},{"id":44485,"position":7,"audio_url":"wbw/070_044_008.mp3","verse_key":"70:44","verse_id":5419,"location":"70:44:7","text_uthmani":"ٱلَّذِى","qpc_uthmani_hafs":"ٱلَّذِي","char_type_name":"word","page_number":570,"line_number":4,"text":"ٱلَّذِي","translation":{"text":"which","language_name":"english","language_id":38},"transliteration":{"text":"alladhī","language_name":"english","language_id":38}},{"id":44486,"position":8,"audio_url":"wbw/070_044_009.mp3","verse_key":"70:44","verse_id":5419,"location":"70:44:8","text_uthmani":"كَانُوا۟","qpc_uthmani_hafs":"كَانُواْ","char_type_name":"word","page_number":570,"line_number":4,"text":"كَانُواْ","translation":{"text":"they were","language_name":"english","language_id":38},"transliteration":{"text":"kānū","language_name":"english","language_id":38}},{"id":44487,"position":9,"audio_url":"wbw/070_044_010.mp3","verse_key":"70:44","verse_id":5419,"location":"70:44:9","text_uthmani":"يُوعَدُونَ","qpc_uthmani_hafs":"يُوعَدُونَ","char_type_name":"word","page_number":570,"line_number":4,"text":"يُوعَدُونَ","translation":{"text":"promised","language_name":"english","language_id":38},"transliteration":{"text":"yūʿadūna","language_name":"english","language_id":38}},{"id":44488,"position":10,"audio_url":null,"verse_key":"70:44","verse_id":5419,"location":"70:44:10","text_uthmani":"٤٤","qpc_uthmani_hafs":"٤٤","char_type_name":"end","page_number":570,"line_number":4,"text":"٤٤","translation":{"text":"(44)","language_name":"english","language_id":38},"transliteration":{"text":null,"language_name":"english","language_id":38}}]}],"pagination":{"per_page":10,"current_page":5,"next_page":null,"total_pages":5,"total_records":44}}
