{"verses":[{"id":5849,"verse_number":1,"verse_key":"83:1","hizb_number":59,"rub_el_hizb_number":235,"ruku_number":527,"manzil_number":7,"sajdah_number":null,"page_number":587,"juz_number":30,"words":[{"id":703,"position":1,"audio_url":"wbw/083_001_001.mp3","char_type_name":"word","page_number":587,"line_number":14,"text":"وَيْلٌۭ","translation":{"text":"দুর্ভোগ","language_name":"bengali","language_id":20},"transliteration":{"text":"waylun","language_name":"english","language_id":38}},{"id":704,"position":2,"audio_url":"wbw/083_001_002.mp3","char_type_name":"word","page_number":587,"line_number":14,"text":"لِّلْمُطَفِّفِينَ","translation":{"text":"যারা ওজনে/ মাপে কম দেয়","language_name":"bengali","language_id":20},"transliteration":{"text":"lil'muṭaffifīna","language_name":"english","language_id":38}},{"id":705,"position":3,"audio_url":null,"char_type_name":"end","page_number":587,"line_number":14,"text":"١","translation":{"text":"(১)","language_name":"bengali","language_id":20},"transliteration":{"text":null,"language_name":"english","language_id":38}}]},{"id":5850,"verse_number":2,"verse_key":"83:2","hizb_number":59,"rub_el_hizb_number":235,"ruku_number":527,"manzil_number":7,"sajdah_number":null,"page_number":587,"juz_number":30,"words":[{"id":1730,"position":1,"audio_url":"wbw/083_002_001.mp3","char_type_name":"word","page_number":587,"line_number":14,"text":"ٱلَّذِينَ","translation":{"text":"যারা","language_name":"bengali","language_id":20},"transliteration":{"text":"alladhīna","language_name":"english","language_id":38}},{"id":1731,"position":2,"audio_url":"wbw/083_002_002.mp3","char_type_name":"word","page_number":587,"line_number":14,"text":"إِذَا","translation":{"text":"যখন","language_name":"bengali","language_id":20},"transliteration":{"text":"idhā","language_name":"english","language_id":38}},{"id":1732,"position":3,"audio_url":"wbw/083_002_003.mp3","char_type_name":"word","page_number":587,"line_number":14,"text":"ٱكْتَالُوا۟","translation":{"text":"মেপে নেয়","language_name":"bengali","language_id":20},"transliteration":{"text":"ik'tālū","language_name":"english","language_id":38}},{"id":1733,"position":4,"audio_url":"wbw/083_002_004.mp3","char_type_name":"word","page_number":587,"line_number":14,"text":"عَلَى","translation":{"text":"থেকে","language_name":"bengali","language_id":20},"transliteration":{"text":"ʿalā","language_name":"english","language_id":38}},{"id":1734,"position":5,"audio_url":"wbw/083_002_005.mp3","char_type_name":"word","page_number":587,"line_number":14,"text":"ٱلنَّاسِ","translation":{"text":"লোকদের","language_name":"bengali","language_id":20},"transliteration":{"text":"l-nāsi","language_name":"english","language_id":38}},{"id":1735,"position":6,"audio_url":"wbw/083_002_006.mp3","char_type_name":"word","page_number":587,"line_number":14,"text":"يَسْتَوْفُونَ","translation":{"text":"তারা পূর্ণমাত্রায় নেয়","language_name":"bengali","language_id":20},"transliteration":{"text":"yastawfūna","language_name":"english","language_id":38}},{"id":1736,"position":7,"audio_url":null,"char_type_name":"end","page_number":587,"line_number":14,"text":"٢","translation":{"text":"(২)","language_name":"bengali","language_id":20},"transliteration":{"text":null,"language_name":"english","language_id":38}}]},{"id":5851,"verse_number":3,"verse_key":"83:3","hizb_number":59,"rub_el_hizb_number":235,"ruku_number":527,"manzil_number":7,"sajdah_number":null,"page_number":587,"juz_number":30,"words":[{"id":2853,"position":1,"audio_url":"wbw/083_003_001.mp3","char_type_name":"word","page_number":587,"line_number":15,"text":"وَإِذَا","translation":{"text":"কিন্তু যখন","language_name":"bengali","language_id":20},"transliteration":{"text":"wa-idhā","language_name":"english","language_id":38}},{"id":2854,"position":2,"audio_url":"wbw/083_003_002.mp3","char_type_name":"word","page_number":587,"line_number":15,"text":"كَالُوهُمْ","translation":{"text":"তাদের মেপে দেয়","language_name":"bengali","language_id":20},"transliteration":{"text":"kālūhum","language_name":"english","language_id":38}},{"id":2855,"position":3,"audio_url":"wbw/083_003_003.mp3","char_type_name":"word","page_number":587,"line_number":15,"text":"أَو","translation":{"text":"বা","language_name":"bengali","language_id":20},"transliteration":{"text":"aw","language_name":"english","language_id":38}},{"id":2856,"position":4,"audio_url":"wbw/083_003_004.mp3","char_type_name":"word","page_number":587,"line_number":15,"text":"وَّزَنُوهُمْ","translation":{"text":"তাদের ওজন করে দেয়","language_name":"bengali","language_id":20},"transliteration":{"text":"wazanūhum","language_name":"english","language_id":38}},{"id":2857,"position":5,"audio_url":"wbw/083_003_005.mp3","char_type_name":"word","page_number":587,"line_number":15,"text":"يُخْسِرُونَ","translation":{"text":"তারা কম করে দেয়","language_name":"bengali","language_id":20},"transliteration":{"text":"yukh'sirūna","language_name":"english","language_id":38}},{"id":2858,"position":6,"audio_url":null,"char_type_name":"end","page_number":587,"line_number":15,"text":"٣","translation":{"text":"(৩)","language_name":"bengali","language_id":20},"transliteration":{"text":null,"language_name":"english","language_id":38}}]},{"id":5852,"verse_number":4,"verse_key":"83:4","hizb_number":59,"rub_el_hizb_number":235,"ruku_number":527,"manzil_number":7,"sajdah_number":null,"page_number":587,"juz_number":30,"words":[{"id":4218,"position":1,"audio_url":"wbw/083_004_001.mp3","char_type_name":"word","page_number":587,"line_number":15,"text":"أَلَا","translation":{"text":"না কি","language_name":"bengali","language_id":20},"transliteration":{"text":"alā","language_name":"english","language_id":38}},{"id":4219,"position":2,"audio_url":"wbw/083_004_002.mp3","char_type_name":"word","page_number":587,"line_number":15,"text":"يَظُنُّ","translation":{"text":"চিন্তা করে","language_name":"bengali","language_id":20},"transliteration":{"text":"yaẓunnu","language_name":"english","language_id":38}},{"id":4220,"position":3,"audio_url":"wbw/083_004_003.mp3","char_type_name":"word","page_number":587,"line_number":15,"text":"أُو۟لَـٰٓئِكَ","translation":{"text":"ঐসব লোকেরা","language_name":"bengali","language_id":20},"transliteration":{"text":"ulāika","language_name":"english","language_id":38}},{"id":4221,"position":4,"audio_url":"wbw/083_004_004.mp3","char_type_name":"word","page_number":587,"line_number":15,"text":"أَنَّهُم","translation":{"text":"যে তারা","language_name":"bengali","language_id":20},"transliteration":{"text":"annahum","language_name":"english","language_id":38}},{"id":4222,"position":5,"audio_url":"wbw/083_004_005.mp3","char_type_name":"word","page_number":587,"line_number":15,"text":"مَّبْعُوثُونَ","translation":{"text":"আবার ওঠানো হবে","language_name":"bengali","language_id":20},"transliteration":{"text":"mabʿūthūna","language_name":"english","language_id":38}},{"id":4223,"position":6,"audio_url":null,"char_type_name":"end","page_number":587,"line_number":15,"text":"٤","translation":{"text":"(৪)","language_name":"bengali","language_id":20},"transliteration":{"text":null,"language_name":"english","language_id":38}}]},{"id":5853,"verse_number":5,"verse_key":"83:5","hizb_number":59,"rub_el_hizb_number":235,"ruku_number":527,"manzil_number":7,"sajdah_number":null,"page_number":588,"juz_number":30,"words":[{"id":5485,"position":1,"audio_url":"wbw/083_005_001.mp3","char_type_name":"word","page_number":588,"line_number":1,"text":"لِيَوْمٍ","translation":{"text":"দিনের জন্যে","language_name":"bengali","language_id":20},"transliteration":{"text":"liyawmin","language_name":"english","language_id":38}},{"id":5486,"position":2,"audio_url":"wbw/083_005_002.mp3","char_type_name":"word","page_number":588,"line_number":1,"text":"عَظِيمٍۢ","translation":{"text":"এক মহা","language_name":"bengali","language_id":20},"transliteration":{"text":"ʿaẓīmin","language_name":"english","language_id":38}},{"id":5487,"position":3,"audio_url":null,"char_type_name":"end","page_number":588,"line_number":1,"text":"٥","translation":{"text":"(৫)","language_name":"bengali","language_id":20},"transliteration":{"text":null,"language_name":"english","language_id":38}}]},{"id":5854,"verse_number":6,"verse_key":"83:6","hizb_number":59,"rub_el_hizb_number":235,"ruku_number":527,"manzil_number":7,"sajdah_number":null,"page_number":588,"juz_number":30,"words":[{"id":6714,"position":1,"audio_url":"wbw/083_006_001.mp3","char_type_name":"word","page_number":588,"line_number":1,"text":"يَوْمَ","translation":{"text":"যেদিন","language_name":"bengali","language_id":20},"transliteration":{"text":"yawma","language_name":"english","language_id":38}},{"id":6715,"position":2,"audio_url":"wbw/083_006_002.mp3","char_type_name":"word","page_number":588,"line_number":1,"text":"يَقُومُ","translation":{"text":"দাঁড়াবে","language_name":"bengali","language_id":20},"transliteration":{"text":"yaqūmu","language_name":"english","language_id":38}},{"id":6716,"position":3,"audio_url":"wbw/083_006_003.mp3","char_type_name":"word","page_number":588,"line_number":1,"text":"ٱلنَّاسُ","translation":{"text":"মানুষ","language_name":"bengali","language_id":20},"transliteration":{"text":"l-nāsu","language_name":"english","language_id":38}},{"id":6717,"position":4,"audio_url":"wbw/083_006_004.mp3","char_type_name":"word","page_number":588,"line_number":1,"text":"لِرَبِّ","translation":{"text":"রবের সামনে","language_name":"bengali","language_id":20},"transliteration":{"text":"lirabbi","language_name":"english","language_id":38}},{"id":6718,"position":5,"audio_url":"wbw/083_006_005.mp3","char_type_name":"word","page_number":588,"line_number":1,"text":"ٱلْعَـٰلَمِينَ","translation":{"text":"বিশ্বজগতের","language_name":"bengali","language_id":20},"transliteration":{"text":"l-ʿālamīna","language_name":"english","language_id":38}},{"id":6719,"position":6,"audio_url":null,"char_type_name":"end","page_number":588,"line_number":1,"text":"٦","translation":{"text":"(৬)","language_name":"bengali","language_id":20},"transliteration":{"text":null,"language_name":"english","language_id":38}}]},{"id":5855,"verse_number":7,"verse_key":"83:7","hizb_number":59,"rub_el_hizb_number":235,"ruku_number":527,"manzil_number":7,"sajdah_number":null,"page_number":588,"juz_number":30,"words":[{"id":8061,"position":1,"audio_url":"wbw/083_007_001.mp3","char_type_name":"word","page_number":588,"line_number":1,"text":"كَلَّآ","translation":{"text":"কখনও না","language_name":"bengali","language_id":20},"transliteration":{"text":"kallā","language_name":"english","language_id":38}},{"id":8062,"position":2,"audio_url":"wbw/083_007_002.mp3","char_type_name":"word","page_number":588,"line_number":1,"text":"إِنَّ","translation":{"text":"নিশ্চয়ই","language_name":"bengali","language_id":20},"transliteration":{"text":"inna","language_name":"english","language_id":38}},{"id":8063,"position":3,"audio_url":"wbw/083_007_003.mp3","char_type_name":"word","page_number":588,"line_number":1,"text":"كِتَـٰبَ","translation":{"text":"আমলনামা","language_name":"bengali","language_id":20},"transliteration":{"text":"kitāba","language_name":"english","language_id":38}},{"id":8064,"position":4,"audio_url":"wbw/083_007_004.mp3","char_type_name":"word","page_number":588,"line_number":2,"text":"ٱلْفُجَّارِ","translation":{"text":"পাপীদের","language_name":"bengali","language_id":20},"transliteration":{"text":"l-fujāri","language_name":"english","language_id":38}},{"id":8065,"position":5,"audio_url":"wbw/083_007_005.mp3","char_type_name":"word","page_number":588,"line_number":2,"text":"لَفِى","translation":{"text":"অবশ্যই মধ্যে (আছে)","language_name":"bengali","language_id":20},"transliteration":{"text":"lafī","language_name":"english","language_id":38}},{"id":8066,"position":6,"audio_url":"wbw/083_007_006.mp3","char_type_name":"word","page_number":588,"line_number":2,"text":"سِجِّينٍۢ","translation":{"text":"কয়েদখানার","language_name":"bengali","language_id":20},"transliteration":{"text":"sijjīnin","language_name":"english","language_id":38}},{"id":8067,"position":7,"audio_url":null,"char_type_name":"end","page_number":588,"line_number":2,"text":"٧","translation":{"text":"(৭)","language_name":"bengali","language_id":20},"transliteration":{"text":null,"language_name":"english","language_id":38}}]},{"id":5856,"verse_number":8,"verse_key":"83:8","hizb_number":59,"rub_el_hizb_number":235,"ruku_number":527,"manzil_number":7,"sajdah_number":null,"page_number":588,"juz_number":30,"words":[{"id":9233,"position":1,"audio_url":"wbw/083_008_001.mp3","char_type_name":"word","page_number":588,"line_number":2,"text":"وَمَآ","translation":{"text":"এবং কিসে","language_name":"bengali","language_id":20},"transliteration":{"text":"wamā","language_name":"english","language_id":38}},{"id":9234,"position":2,"audio_url":"wbw/083_008_002.mp3","char_type_name":"word","page_number":588,"line_number":2,"text":"أَدْرَىٰكَ","translation":{"text":"তোমাকে বুঝাবে/ জানাবে","language_name":"bengali","language_id":20},"transliteration":{"text":"adrāka","language_name":"english","language_id":38}},{"id":9235,"position":3,"audio_url":"wbw/083_008_003.mp3","char_type_name":"word","page_number":588,"line_number":2,"text":"مَا","translation":{"text":"(কি) সেই","language_name":"bengali","language_id":20},"transliteration":{"text":"mā","language_name":"english","language_id":38}},{"id":9236,"position":4,"audio_url":"wbw/083_008_004.mp3","char_type_name":"word","page_number":588,"line_number":2,"text":"سِجِّينٌۭ","translation":{"text":"কয়েদখানা","language_name":"bengali","language_id":20},"transliteration":{"text":"sijjīnun","language_name":"english","language_id":38}},{"id":9237,"position":5,"audio_url":null,"char_type_name":"end","page_number":588,"line_number":2,"text":"٨","translation":{"text":"(৮)","language_name":"bengali","language_id":20},"transliteration":{"text":null,"language_name":"english","language_id":38}}]},{"id":5857,"verse_number":9,"verse_key":"83:9","hizb_number":59,"rub_el_hizb_number":235,"ruku_number":527,"manzil_number":7,"sajdah_number":null,"page_number":588,"juz_number":30,"words":[{"id":10430,"position":1,"audio_url":"wbw/083_009_001.mp3","char_type_name":"word","page_number":588,"line_number":2,"text":"كِتَـٰبٌۭ","translation":{"text":"খাতা/ আমলনামা","language_name":"bengali","language_id":20},"transliteration":{"text":"kitābun","language_name":"english","language_id":38}},{"id":10431,"position":2,"audio_url":"wbw/083_009_002.mp3","char_type_name":"word","page_number":588,"line_number":2,"text":"مَّرْقُومٌۭ","translation":{"text":"চিহ্নিত","language_name":"bengali","language_id":20},"transliteration":{"text":"marqūmun","language_name":"english","language_id":38}},{"id":10432,"position":3,"audio_url":null,"char_type_name":"end","page_number":588,"line_number":2,"text":"٩","translation":{"text":"(৯)","language_name":"bengali","language_id":20},"transliteration":{"text":null,"language_name":"english","language_id":38}}]},{"id":5858,"verse_number":10,"verse_key":"83:10","hizb_number":59,"rub_el_hizb_number":235,"ruku_number":527,"manzil_number":7,"sajdah_number":null,"page_number":588,"juz_number":30,"words":[{"id":11660,"position":1,"audio_url":"wbw/083_010_001.mp3","char_type_name":"word","page_number":588,"line_number":3,"text":"وَيْلٌۭ","translation":{"text":"ধ্বংস","language_name":"bengali","language_id":20},"transliteration":{"text":"waylun","language_name":"english","language_id":38}},{"id":11661,"position":2,"audio_url":"wbw/083_010_002.mp3","char_type_name":"word","page_number":588,"line_number":3,"text":"يَوْمَئِذٍۢ","translation":{"text":"সেদিন","language_name":"bengali","language_id":20},"transliteration":{"text":"yawma-idhin","language_name":"english","language_id":38}},{"id":11662,"position":3,"audio_url":"wbw/083_010_003.mp3","char_type_name":"word","page_number":588,"line_number":3,"text":"لِّلْمُكَذِّبِينَ","translation":{"text":"মিথ্যারোপকারীদের জন্যে","language_name":"bengali","language_id":20},"transliteration":{"text":"lil'mukadhibīna","language_name":"english","language_id":38}},{"id":11663,"position":4,"audio_url":null,"char_type_name":"end","page_number":588,"line_number":3,"text":"١٠","translation":{"text":"(১০)","language_name":"bengali","language_id":20},"transliteration":{"text":null,"language_name":"english","language_id":38}}]}],"pagination":{"per_page":10,"current_page":1,"next_page":2,"total_pages":4,"total_records":36}}
