{"verses":[{"id":5869,"verse_number":21,"verse_key":"83:21","hizb_number":59,"rub_el_hizb_number":235,"ruku_number":527,"manzil_number":7,"sajdah_number":null,"page_number":588,"juz_number":30,"words":[{"id":23987,"position":1,"audio_url":"wbw/083_021_001.mp3","char_type_name":"word","page_number":588,"line_number":8,"text":"يَشْهَدُهُ","translation":{"text":"তা অবলোকন করছে","language_name":"bengali","language_id":20},"transliteration":{"text":"yashhaduhu","language_name":"english","language_id":38}},{"id":23988,"position":2,"audio_url":"wbw/083_021_002.mp3","char_type_name":"word","page_number":588,"line_number":8,"text":"ٱلْمُقَرَّبُونَ","translation":{"text":"নৈকট্যপ্রাপ্ত (ফেরেশতারা)","language_name":"bengali","language_id":20},"transliteration":{"text":"l-muqarabūna","language_name":"english","language_id":38}},{"id":23989,"position":3,"audio_url":null,"char_type_name":"end","page_number":588,"line_number":8,"text":"٢١","translation":{"text":"(২১)","language_name":"bengali","language_id":20},"transliteration":{"text":null,"language_name":"english","language_id":38}}]},{"id":5870,"verse_number":22,"verse_key":"83:22","hizb_number":59,"rub_el_hizb_number":235,"ruku_number":527,"manzil_number":7,"sajdah_number":null,"page_number":588,"juz_number":30,"words":[{"id":24934,"position":1,"audio_url":"wbw/083_022_001.mp3","char_type_name":"word","page_number":588,"line_number":9,"text":"إِنَّ","translation":{"text":"নিশ্চয়ই","language_name":"bengali","language_id":20},"transliteration":{"text":"inna","language_name":"english","language_id":38}},{"id":24935,"position":2,"audio_url":"wbw/083_022_002.mp3","char_type_name":"word","page_number":588,"line_number":9,"text":"ٱلْأَبْرَارَ","translation":{"text":"সৎ লোকেরা","language_name":"bengali","language_id":20},"transliteration":{"text":"l-abrāra","language_name":"english","language_id":38}},{"id":24936,"position":3,"audio_url":"wbw/083_022_003.mp3","char_type_name":"word","page_number":588,"line_number":9,"text":"لَفِى","translation":{"text":"অবশ্যই মধ্যে (থাকবে)","language_name":"bengali","language_id":20},"transliteration":{"text":"lafī","language_name":"english","language_id":38}},{"id":24937,"position":4,"audio_url":"wbw/083_022_004.mp3","char_type_name":"word","page_number":588,"line_number":9,"text":"نَعِيمٍ","translation":{"text":"স্বাচ্ছন্দ্যের","language_name":"bengali","language_id":20},"transliteration":{"text":"naʿīmin","language_name":"english","language_id":38}},{"id":24938,"position":5,"audio_url":null,"char_type_name":"end","page_number":588,"line_number":9,"text":"٢٢","translation":{"text":"(২২)","language_name":"bengali","language_id":20},"transliteration":{"text":null,"language_name":"english","language_id":38}}]},{"id":5871,"verse_number":23,"verse_key":"83:23","hizb_number":59,"rub_el_hizb_number":235,"ruku_number":527,"manzil_number":7,"sajdah_number":null,"page_number":588,"juz_number":30,"words":[{"id":26084,"position":1,"audio_url":"wbw/083_023_001.mp3","char_type_name":"word","page_number":588,"line_number":9,"text":"عَلَى","translation":{"text":"উপর","language_name":"bengali","language_id":20},"transliteration":{"text":"ʿalā","language_name":"english","language_id":38}},{"id":26085,"position":2,"audio_url":"wbw/083_023_002.mp3","char_type_name":"word","page_number":588,"line_number":9,"text":"ٱلْأَرَآئِكِ","translation":{"text":"সুসজ্জিত আসন","language_name":"bengali","language_id":20},"transliteration":{"text":"l-arāiki","language_name":"english","language_id":38}},{"id":26086,"position":3,"audio_url":"wbw/083_023_003.mp3","char_type_name":"word","page_number":588,"line_number":9,"text":"يَنظُرُونَ","translation":{"text":"তারা দেখবে","language_name":"bengali","language_id":20},"transliteration":{"text":"yanẓurūna","language_name":"english","language_id":38}},{"id":26087,"position":4,"audio_url":null,"char_type_name":"end","page_number":588,"line_number":9,"text":"٢٣","translation":{"text":"(২৩)","language_name":"bengali","language_id":20},"transliteration":{"text":null,"language_name":"english","language_id":38}}]},{"id":5872,"verse_number":24,"verse_key":"83:24","hizb_number":59,"rub_el_hizb_number":235,"ruku_number":527,"manzil_number":7,"sajdah_number":null,"page_number":588,"juz_number":30,"words":[{"id":27146,"position":1,"audio_url":"wbw/083_024_001.mp3","char_type_name":"word","page_number":588,"line_number":9,"text":"تَعْرِفُ","translation":{"text":"তুমি চিনবে","language_name":"bengali","language_id":20},"transliteration":{"text":"taʿrifu","language_name":"english","language_id":38}},{"id":27147,"position":2,"audio_url":"wbw/083_024_002.mp3","char_type_name":"word","page_number":588,"line_number":9,"text":"فِى","translation":{"text":"মধ্যে","language_name":"bengali","language_id":20},"transliteration":{"text":"fī","language_name":"english","language_id":38}},{"id":27148,"position":3,"audio_url":"wbw/083_024_003.mp3","char_type_name":"word","page_number":588,"line_number":10,"text":"وُجُوهِهِمْ","translation":{"text":"তাদের চেহারার","language_name":"bengali","language_id":20},"transliteration":{"text":"wujūhihim","language_name":"english","language_id":38}},{"id":27149,"position":4,"audio_url":"wbw/083_024_004.mp3","char_type_name":"word","page_number":588,"line_number":10,"text":"نَضْرَةَ","translation":{"text":"দীপ্তি","language_name":"bengali","language_id":20},"transliteration":{"text":"naḍrata","language_name":"english","language_id":38}},{"id":27150,"position":5,"audio_url":"wbw/083_024_005.mp3","char_type_name":"word","page_number":588,"line_number":10,"text":"ٱلنَّعِيمِ","translation":{"text":"স্বাচ্ছন্দ্যের","language_name":"bengali","language_id":20},"transliteration":{"text":"l-naʿīmi","language_name":"english","language_id":38}},{"id":27151,"position":6,"audio_url":null,"char_type_name":"end","page_number":588,"line_number":10,"text":"٢٤","translation":{"text":"(২৪)","language_name":"bengali","language_id":20},"transliteration":{"text":null,"language_name":"english","language_id":38}}]},{"id":5873,"verse_number":25,"verse_key":"83:25","hizb_number":59,"rub_el_hizb_number":235,"ruku_number":527,"manzil_number":7,"sajdah_number":null,"page_number":588,"juz_number":30,"words":[{"id":28159,"position":1,"audio_url":"wbw/083_025_001.mp3","char_type_name":"word","page_number":588,"line_number":10,"text":"يُسْقَوْنَ","translation":{"text":"তাদের পান করানো হবে","language_name":"bengali","language_id":20},"transliteration":{"text":"yus'qawna","language_name":"english","language_id":38}},{"id":28160,"position":2,"audio_url":"wbw/083_025_002.mp3","char_type_name":"word","page_number":588,"line_number":10,"text":"مِن","translation":{"text":"হতে","language_name":"bengali","language_id":20},"transliteration":{"text":"min","language_name":"english","language_id":38}},{"id":28161,"position":3,"audio_url":"wbw/083_025_003.mp3","char_type_name":"word","page_number":588,"line_number":10,"text":"رَّحِيقٍۢ","translation":{"text":"বিশুদ্ধ পানীয়","language_name":"bengali","language_id":20},"transliteration":{"text":"raḥīqin","language_name":"english","language_id":38}},{"id":28162,"position":4,"audio_url":"wbw/083_025_004.mp3","char_type_name":"word","page_number":588,"line_number":10,"text":"مَّخْتُومٍ","translation":{"text":"মোহর করা","language_name":"bengali","language_id":20},"transliteration":{"text":"makhtūmin","language_name":"english","language_id":38}},{"id":28163,"position":5,"audio_url":null,"char_type_name":"end","page_number":588,"line_number":10,"text":"٢٥","translation":{"text":"(২৫)","language_name":"bengali","language_id":20},"transliteration":{"text":null,"language_name":"english","language_id":38}}]},{"id":5874,"verse_number":26,"verse_key":"83:26","hizb_number":59,"rub_el_hizb_number":235,"ruku_number":527,"manzil_number":7,"sajdah_number":null,"page_number":588,"juz_number":30,"words":[{"id":29131,"position":1,"audio_url":"wbw/083_026_001.mp3","char_type_name":"word","page_number":588,"line_number":10,"text":"خِتَـٰمُهُۥ","translation":{"text":"তার মোহর (হবে)","language_name":"bengali","language_id":20},"transliteration":{"text":"khitāmuhu","language_name":"english","language_id":38}},{"id":29132,"position":2,"audio_url":"wbw/083_026_002.mp3","char_type_name":"word","page_number":588,"line_number":11,"text":"مِسْكٌۭ ۚ","translation":{"text":"কস্তুরির","language_name":"bengali","language_id":20},"transliteration":{"text":"mis'kun","language_name":"english","language_id":38}},{"id":29134,"position":3,"audio_url":"wbw/083_026_004.mp3","char_type_name":"word","page_number":588,"line_number":11,"text":"وَفِى","translation":{"text":"এবং ক্ষেত্রে","language_name":"bengali","language_id":20},"transliteration":{"text":"wafī","language_name":"english","language_id":38}},{"id":29135,"position":4,"audio_url":"wbw/083_026_005.mp3","char_type_name":"word","page_number":588,"line_number":11,"text":"ذَٰلِكَ","translation":{"text":"এই","language_name":"bengali","language_id":20},"transliteration":{"text":"dhālika","language_name":"english","language_id":38}},{"id":29136,"position":5,"audio_url":"wbw/083_026_006.mp3","char_type_name":"word","page_number":588,"line_number":11,"text":"فَلْيَتَنَافَسِ","translation":{"text":"প্রতিযোগিতা করুক","language_name":"bengali","language_id":20},"transliteration":{"text":"falyatanāfasi","language_name":"english","language_id":38}},{"id":29137,"position":6,"audio_url":"wbw/083_026_007.mp3","char_type_name":"word","page_number":588,"line_number":11,"text":"ٱلْمُتَنَـٰفِسُونَ","translation":{"text":"প্রতিযোগীরা","language_name":"bengali","language_id":20},"transliteration":{"text":"l-mutanāfisūna","language_name":"english","language_id":38}},{"id":29138,"position":7,"audio_url":null,"char_type_name":"end","page_number":588,"line_number":11,"text":"٢٦","translation":{"text":"(২৬)","language_name":"bengali","language_id":20},"transliteration":{"text":null,"language_name":"english","language_id":38}}]},{"id":5875,"verse_number":27,"verse_key":"83:27","hizb_number":59,"rub_el_hizb_number":235,"ruku_number":527,"manzil_number":7,"sajdah_number":null,"page_number":588,"juz_number":30,"words":[{"id":30018,"position":1,"audio_url":"wbw/083_027_001.mp3","char_type_name":"word","page_number":588,"line_number":11,"text":"وَمِزَاجُهُۥ","translation":{"text":"এবং তার মিশ্রণ হবে","language_name":"bengali","language_id":20},"transliteration":{"text":"wamizājuhu","language_name":"english","language_id":38}},{"id":30019,"position":2,"audio_url":"wbw/083_027_002.mp3","char_type_name":"word","page_number":588,"line_number":11,"text":"مِن","translation":{"text":"এর","language_name":"bengali","language_id":20},"transliteration":{"text":"min","language_name":"english","language_id":38}},{"id":30020,"position":3,"audio_url":"wbw/083_027_003.mp3","char_type_name":"word","page_number":588,"line_number":12,"text":"تَسْنِيمٍ","translation":{"text":"তাসনীম","language_name":"bengali","language_id":20},"transliteration":{"text":"tasnīmin","language_name":"english","language_id":38}},{"id":30021,"position":4,"audio_url":null,"char_type_name":"end","page_number":588,"line_number":12,"text":"٢٧","translation":{"text":"(২৭)","language_name":"bengali","language_id":20},"transliteration":{"text":null,"language_name":"english","language_id":38}}]},{"id":5876,"verse_number":28,"verse_key":"83:28","hizb_number":59,"rub_el_hizb_number":235,"ruku_number":527,"manzil_number":7,"sajdah_number":null,"page_number":588,"juz_number":30,"words":[{"id":31087,"position":1,"audio_url":"wbw/083_028_001.mp3","char_type_name":"word","page_number":588,"line_number":12,"text":"عَيْنًۭا","translation":{"text":"(এই তাসনীম) একটি ঝর্ণা","language_name":"bengali","language_id":20},"transliteration":{"text":"ʿaynan","language_name":"english","language_id":38}},{"id":31088,"position":2,"audio_url":"wbw/083_028_002.mp3","char_type_name":"word","page_number":588,"line_number":12,"text":"يَشْرَبُ","translation":{"text":"পান করবে","language_name":"bengali","language_id":20},"transliteration":{"text":"yashrabu","language_name":"english","language_id":38}},{"id":31089,"position":3,"audio_url":"wbw/083_028_003.mp3","char_type_name":"word","page_number":588,"line_number":12,"text":"بِهَا","translation":{"text":"তা থেকে","language_name":"bengali","language_id":20},"transliteration":{"text":"bihā","language_name":"english","language_id":38}},{"id":31090,"position":4,"audio_url":"wbw/083_028_004.mp3","char_type_name":"word","page_number":588,"line_number":12,"text":"ٱلْمُقَرَّبُونَ","translation":{"text":"নৈকট্যপ্রাপ্তগণ","language_name":"bengali","language_id":20},"transliteration":{"text":"l-muqarabūna","language_name":"english","language_id":38}},{"id":31091,"position":5,"audio_url":null,"char_type_name":"end","page_number":588,"line_number":12,"text":"٢٨","translation":{"text":"(২৮)","language_name":"bengali","language_id":20},"transliteration":{"text":null,"language_name":"english","language_id":38}}]},{"id":5877,"verse_number":29,"verse_key":"83:29","hizb_number":59,"rub_el_hizb_number":235,"ruku_number":527,"manzil_number":7,"sajdah_number":null,"page_number":588,"juz_number":30,"words":[{"id":32071,"position":1,"audio_url":"wbw/083_029_001.mp3","char_type_name":"word","page_number":588,"line_number":12,"text":"إِنَّ","translation":{"text":"নিশ্চয়ই","language_name":"bengali","language_id":20},"transliteration":{"text":"inna","language_name":"english","language_id":38}},{"id":32072,"position":2,"audio_url":"wbw/083_029_002.mp3","char_type_name":"word","page_number":588,"line_number":12,"text":"ٱلَّذِينَ","translation":{"text":"যারা","language_name":"bengali","language_id":20},"transliteration":{"text":"alladhīna","language_name":"english","language_id":38}},{"id":32073,"position":3,"audio_url":"wbw/083_029_003.mp3","char_type_name":"word","page_number":588,"line_number":12,"text":"أَجْرَمُوا۟","translation":{"text":"অপরাধ করেছে","language_name":"bengali","language_id":20},"transliteration":{"text":"ajramū","language_name":"english","language_id":38}},{"id":32074,"position":4,"audio_url":"wbw/083_029_004.mp3","char_type_name":"word","page_number":588,"line_number":12,"text":"كَانُوا۟","translation":{"text":"তারা ছিলো","language_name":"bengali","language_id":20},"transliteration":{"text":"kānū","language_name":"english","language_id":38}},{"id":32075,"position":5,"audio_url":"wbw/083_029_005.mp3","char_type_name":"word","page_number":588,"line_number":13,"text":"مِنَ","translation":{"text":"সাথে","language_name":"bengali","language_id":20},"transliteration":{"text":"mina","language_name":"english","language_id":38}},{"id":32076,"position":6,"audio_url":"wbw/083_029_006.mp3","char_type_name":"word","page_number":588,"line_number":13,"text":"ٱلَّذِينَ","translation":{"text":"যারা","language_name":"bengali","language_id":20},"transliteration":{"text":"alladhīna","language_name":"english","language_id":38}},{"id":32077,"position":7,"audio_url":"wbw/083_029_007.mp3","char_type_name":"word","page_number":588,"line_number":13,"text":"ءَامَنُوا۟","translation":{"text":"ঈমান এনেছে","language_name":"bengali","language_id":20},"transliteration":{"text":"āmanū","language_name":"english","language_id":38}},{"id":32078,"position":8,"audio_url":"wbw/083_029_008.mp3","char_type_name":"word","page_number":588,"line_number":13,"text":"يَضْحَكُونَ","translation":{"text":"বিদ্রুপ করত (তাদের সাথে)","language_name":"bengali","language_id":20},"transliteration":{"text":"yaḍḥakūna","language_name":"english","language_id":38}},{"id":32079,"position":9,"audio_url":null,"char_type_name":"end","page_number":588,"line_number":13,"text":"٢٩","translation":{"text":"(২৯)","language_name":"bengali","language_id":20},"transliteration":{"text":null,"language_name":"english","language_id":38}}]},{"id":5878,"verse_number":30,"verse_key":"83:30","hizb_number":59,"rub_el_hizb_number":235,"ruku_number":527,"manzil_number":7,"sajdah_number":null,"page_number":588,"juz_number":30,"words":[{"id":32746,"position":1,"audio_url":"wbw/083_030_001.mp3","char_type_name":"word","page_number":588,"line_number":13,"text":"وَإِذَا","translation":{"text":"এবং যখন","language_name":"bengali","language_id":20},"transliteration":{"text":"wa-idhā","language_name":"english","language_id":38}},{"id":32747,"position":2,"audio_url":"wbw/083_030_002.mp3","char_type_name":"word","page_number":588,"line_number":13,"text":"مَرُّوا۟","translation":{"text":"অতিক্রম করত","language_name":"bengali","language_id":20},"transliteration":{"text":"marrū","language_name":"english","language_id":38}},{"id":32748,"position":3,"audio_url":"wbw/083_030_003.mp3","char_type_name":"word","page_number":588,"line_number":13,"text":"بِهِمْ","translation":{"text":"তাদের কাছ দিয়ে","language_name":"bengali","language_id":20},"transliteration":{"text":"bihim","language_name":"english","language_id":38}},{"id":32749,"position":4,"audio_url":"wbw/083_030_004.mp3","char_type_name":"word","page_number":588,"line_number":13,"text":"يَتَغَامَزُونَ","translation":{"text":"তারা কটাক্ষ করতো","language_name":"bengali","language_id":20},"transliteration":{"text":"yataghāmazūna","language_name":"english","language_id":38}},{"id":32750,"position":5,"audio_url":null,"char_type_name":"end","page_number":588,"line_number":13,"text":"٣٠","translation":{"text":"(৩০)","language_name":"bengali","language_id":20},"transliteration":{"text":null,"language_name":"english","language_id":38}}]}],"pagination":{"per_page":10,"current_page":3,"next_page":4,"total_pages":4,"total_records":36}}
