{"verses":[{"id":5386,"verse_number":11,"verse_key":"70:11","hizb_number":57,"rub_el_hizb_number":227,"ruku_number":504,"manzil_number":7,"sajdah_number":null,"page_number":569,"juz_number":29,"words":[{"id":12843,"position":1,"audio_url":"wbw/070_011_001.mp3","char_type_name":"word","page_number":569,"line_number":1,"text":"يُبَصَّرُونَهُمْ ۚ","translation":{"text":"তাদেরকে দেখানো হবে","language_name":"bengali","language_id":20},"transliteration":{"text":"yubaṣṣarūnahum","language_name":"english","language_id":38}},{"id":12845,"position":2,"audio_url":"wbw/070_011_003.mp3","char_type_name":"word","page_number":569,"line_number":1,"text":"يَوَدُّ","translation":{"text":"ইচ্ছা করবে","language_name":"bengali","language_id":20},"transliteration":{"text":"yawaddu","language_name":"english","language_id":38}},{"id":12846,"position":3,"audio_url":"wbw/070_011_004.mp3","char_type_name":"word","page_number":569,"line_number":1,"text":"ٱلْمُجْرِمُ","translation":{"text":"অপরাধী","language_name":"bengali","language_id":20},"transliteration":{"text":"l-muj'rimu","language_name":"english","language_id":38}},{"id":12847,"position":4,"audio_url":"wbw/070_011_005.mp3","char_type_name":"word","page_number":569,"line_number":1,"text":"لَوْ","translation":{"text":"যদি","language_name":"bengali","language_id":20},"transliteration":{"text":"law","language_name":"english","language_id":38}},{"id":12848,"position":5,"audio_url":"wbw/070_011_006.mp3","char_type_name":"word","page_number":569,"line_number":1,"text":"يَفْتَدِى","translation":{"text":"মুক্তিপন দিতে পারত","language_name":"bengali","language_id":20},"transliteration":{"text":"yaftadī","language_name":"english","language_id":38}},{"id":12849,"position":6,"audio_url":"wbw/070_011_007.mp3","char_type_name":"word","page_number":569,"line_number":1,"text":"مِنْ","translation":{"text":"থেকে","language_name":"bengali","language_id":20},"transliteration":{"text":"min","language_name":"english","language_id":38}},{"id":12850,"position":7,"audio_url":"wbw/070_011_008.mp3","char_type_name":"word","page_number":569,"line_number":1,"text":"عَذَابِ","translation":{"text":"আযাব","language_name":"bengali","language_id":20},"transliteration":{"text":"ʿadhābi","language_name":"english","language_id":38}},{"id":12851,"position":8,"audio_url":"wbw/070_011_009.mp3","char_type_name":"word","page_number":569,"line_number":1,"text":"يَوْمِئِذٍۭ","translation":{"text":"সেদিন","language_name":"bengali","language_id":20},"transliteration":{"text":"yawmi-idhin","language_name":"english","language_id":38}},{"id":12852,"position":9,"audio_url":"wbw/070_011_010.mp3","char_type_name":"word","page_number":569,"line_number":1,"text":"بِبَنِيهِ","translation":{"text":"তার সন্তানদের দ্বারা","language_name":"bengali","language_id":20},"transliteration":{"text":"bibanīhi","language_name":"english","language_id":38}},{"id":12853,"position":10,"audio_url":null,"char_type_name":"end","page_number":569,"line_number":1,"text":"١١","translation":{"text":"(১১)","language_name":"bengali","language_id":20},"transliteration":{"text":null,"language_name":"english","language_id":38}}]},{"id":5387,"verse_number":12,"verse_key":"70:12","hizb_number":57,"rub_el_hizb_number":227,"ruku_number":504,"manzil_number":7,"sajdah_number":null,"page_number":569,"juz_number":29,"words":[{"id":14101,"position":1,"audio_url":"wbw/070_012_001.mp3","char_type_name":"word","page_number":569,"line_number":2,"text":"وَصَـٰحِبَتِهِۦ","translation":{"text":"এবং তার স্ত্রী","language_name":"bengali","language_id":20},"transliteration":{"text":"waṣāḥibatihi","language_name":"english","language_id":38}},{"id":14102,"position":2,"audio_url":"wbw/070_012_002.mp3","char_type_name":"word","page_number":569,"line_number":2,"text":"وَأَخِيهِ","translation":{"text":"এবং তার ভাই,","language_name":"bengali","language_id":20},"transliteration":{"text":"wa-akhīhi","language_name":"english","language_id":38}},{"id":14103,"position":3,"audio_url":null,"char_type_name":"end","page_number":569,"line_number":2,"text":"١٢","translation":{"text":"(১২)","language_name":"bengali","language_id":20},"transliteration":{"text":null,"language_name":"english","language_id":38}}]},{"id":5388,"verse_number":13,"verse_key":"70:13","hizb_number":57,"rub_el_hizb_number":227,"ruku_number":504,"manzil_number":7,"sajdah_number":null,"page_number":569,"juz_number":29,"words":[{"id":15220,"position":1,"audio_url":"wbw/070_013_001.mp3","char_type_name":"word","page_number":569,"line_number":2,"text":"وَفَصِيلَتِهِ","translation":{"text":"আর তার জ্ঞাতি-গোষ্ঠীকে","language_name":"bengali","language_id":20},"transliteration":{"text":"wafaṣīlatihi","language_name":"english","language_id":38}},{"id":15221,"position":2,"audio_url":"wbw/070_013_002.mp3","char_type_name":"word","page_number":569,"line_number":2,"text":"ٱلَّتِى","translation":{"text":"যা","language_name":"bengali","language_id":20},"transliteration":{"text":"allatī","language_name":"english","language_id":38}},{"id":15222,"position":3,"audio_url":"wbw/070_013_003.mp3","char_type_name":"word","page_number":569,"line_number":2,"text":"تُـْٔوِيهِ","translation":{"text":"তাকে আশ্রয় দেয়","language_name":"bengali","language_id":20},"transliteration":{"text":"tu'wīhi","language_name":"english","language_id":38}},{"id":15223,"position":4,"audio_url":null,"char_type_name":"end","page_number":569,"line_number":2,"text":"١٣","translation":{"text":"(১৩)","language_name":"bengali","language_id":20},"transliteration":{"text":null,"language_name":"english","language_id":38}}]},{"id":5389,"verse_number":14,"verse_key":"70:14","hizb_number":57,"rub_el_hizb_number":227,"ruku_number":504,"manzil_number":7,"sajdah_number":null,"page_number":569,"juz_number":29,"words":[{"id":16256,"position":1,"audio_url":"wbw/070_014_001.mp3","char_type_name":"word","page_number":569,"line_number":2,"text":"وَمَن","translation":{"text":"এবং যা","language_name":"bengali","language_id":20},"transliteration":{"text":"waman","language_name":"english","language_id":38}},{"id":16257,"position":2,"audio_url":"wbw/070_014_002.mp3","char_type_name":"word","page_number":569,"line_number":2,"text":"فِى","translation":{"text":"মধ্যে্","language_name":"bengali","language_id":20},"transliteration":{"text":"fī","language_name":"english","language_id":38}},{"id":16258,"position":3,"audio_url":"wbw/070_014_003.mp3","char_type_name":"word","page_number":569,"line_number":2,"text":"ٱلْأَرْضِ","translation":{"text":"যমীনের","language_name":"bengali","language_id":20},"transliteration":{"text":"l-arḍi","language_name":"english","language_id":38}},{"id":16259,"position":4,"audio_url":"wbw/070_014_004.mp3","char_type_name":"word","page_number":569,"line_number":2,"text":"جَمِيعًۭا","translation":{"text":"সবকিছুই","language_name":"bengali","language_id":20},"transliteration":{"text":"jamīʿan","language_name":"english","language_id":38}},{"id":16260,"position":5,"audio_url":"wbw/070_014_005.mp3","char_type_name":"word","page_number":569,"line_number":3,"text":"ثُمَّ","translation":{"text":"তারপর","language_name":"bengali","language_id":20},"transliteration":{"text":"thumma","language_name":"english","language_id":38}},{"id":16261,"position":6,"audio_url":"wbw/070_014_006.mp3","char_type_name":"word","page_number":569,"line_number":3,"text":"يُنجِيهِ","translation":{"text":"তাকে মুক্তি দিত","language_name":"bengali","language_id":20},"transliteration":{"text":"yunjīhi","language_name":"english","language_id":38}},{"id":16262,"position":7,"audio_url":null,"char_type_name":"end","page_number":569,"line_number":3,"text":"١٤","translation":{"text":"(১৪)","language_name":"bengali","language_id":20},"transliteration":{"text":null,"language_name":"english","language_id":38}}]},{"id":5390,"verse_number":15,"verse_key":"70:15","hizb_number":57,"rub_el_hizb_number":227,"ruku_number":504,"manzil_number":7,"sajdah_number":null,"page_number":569,"juz_number":29,"words":[{"id":17440,"position":1,"audio_url":"wbw/070_015_001.mp3","char_type_name":"word","page_number":569,"line_number":3,"text":"كَلَّآ ۖ","translation":{"text":"অবশ্যই নহে!","language_name":"bengali","language_id":20},"transliteration":{"text":"kallā","language_name":"english","language_id":38}},{"id":17442,"position":2,"audio_url":"wbw/070_015_003.mp3","char_type_name":"word","page_number":569,"line_number":3,"text":"إِنَّهَا","translation":{"text":"নিশ্চয় তা","language_name":"bengali","language_id":20},"transliteration":{"text":"innahā","language_name":"english","language_id":38}},{"id":17443,"position":3,"audio_url":"wbw/070_015_004.mp3","char_type_name":"word","page_number":569,"line_number":3,"text":"لَظَىٰ","translation":{"text":"লেলিহান আগুন","language_name":"bengali","language_id":20},"transliteration":{"text":"laẓā","language_name":"english","language_id":38}},{"id":17444,"position":4,"audio_url":null,"char_type_name":"end","page_number":569,"line_number":3,"text":"١٥","translation":{"text":"(১৫)","language_name":"bengali","language_id":20},"transliteration":{"text":null,"language_name":"english","language_id":38}}]},{"id":5391,"verse_number":16,"verse_key":"70:16","hizb_number":57,"rub_el_hizb_number":227,"ruku_number":504,"manzil_number":7,"sajdah_number":null,"page_number":569,"juz_number":29,"words":[{"id":18505,"position":1,"audio_url":"wbw/070_016_001.mp3","char_type_name":"word","page_number":569,"line_number":3,"text":"نَزَّاعَةًۭ","translation":{"text":"লেহনকারী","language_name":"bengali","language_id":20},"transliteration":{"text":"nazzāʿatan","language_name":"english","language_id":38}},{"id":18506,"position":2,"audio_url":"wbw/070_016_002.mp3","char_type_name":"word","page_number":569,"line_number":3,"text":"لِّلشَّوَىٰ","translation":{"text":"চামড়াকে","language_name":"bengali","language_id":20},"transliteration":{"text":"lilshawā","language_name":"english","language_id":38}},{"id":18507,"position":3,"audio_url":null,"char_type_name":"end","page_number":569,"line_number":3,"text":"١٦","translation":{"text":"(১৬)","language_name":"bengali","language_id":20},"transliteration":{"text":null,"language_name":"english","language_id":38}}]},{"id":5392,"verse_number":17,"verse_key":"70:17","hizb_number":57,"rub_el_hizb_number":227,"ruku_number":504,"manzil_number":7,"sajdah_number":null,"page_number":569,"juz_number":29,"words":[{"id":19511,"position":1,"audio_url":"wbw/070_017_001.mp3","char_type_name":"word","page_number":569,"line_number":3,"text":"تَدْعُوا۟","translation":{"text":"আহবান করে","language_name":"bengali","language_id":20},"transliteration":{"text":"tadʿū","language_name":"english","language_id":38}},{"id":19512,"position":2,"audio_url":"wbw/070_017_002.mp3","char_type_name":"word","page_number":569,"line_number":3,"text":"مَنْ","translation":{"text":"যে","language_name":"bengali","language_id":20},"transliteration":{"text":"man","language_name":"english","language_id":38}},{"id":19513,"position":3,"audio_url":"wbw/070_017_003.mp3","char_type_name":"word","page_number":569,"line_number":3,"text":"أَدْبَرَ","translation":{"text":"পিঠ প্রদর্শন করে","language_name":"bengali","language_id":20},"transliteration":{"text":"adbara","language_name":"english","language_id":38}},{"id":19514,"position":4,"audio_url":"wbw/070_017_004.mp3","char_type_name":"word","page_number":569,"line_number":4,"text":"وَتَوَلَّىٰ","translation":{"text":"ও মুখ ফিরিয়ে","language_name":"bengali","language_id":20},"transliteration":{"text":"watawallā","language_name":"english","language_id":38}},{"id":19515,"position":5,"audio_url":null,"char_type_name":"end","page_number":569,"line_number":4,"text":"١٧","translation":{"text":"(১৭)","language_name":"bengali","language_id":20},"transliteration":{"text":null,"language_name":"english","language_id":38}}]},{"id":5393,"verse_number":18,"verse_key":"70:18","hizb_number":57,"rub_el_hizb_number":227,"ruku_number":504,"manzil_number":7,"sajdah_number":null,"page_number":569,"juz_number":29,"words":[{"id":20600,"position":1,"audio_url":"wbw/070_018_001.mp3","char_type_name":"word","page_number":569,"line_number":4,"text":"وَجَمَعَ","translation":{"text":"এবং জমা করেছে","language_name":"bengali","language_id":20},"transliteration":{"text":"wajamaʿa","language_name":"english","language_id":38}},{"id":20601,"position":2,"audio_url":"wbw/070_018_002.mp3","char_type_name":"word","page_number":569,"line_number":4,"text":"فَأَوْعَىٰٓ","translation":{"text":"অতঃপর তা সংরক্ষিত রেখেছে","language_name":"bengali","language_id":20},"transliteration":{"text":"fa-awʿā","language_name":"english","language_id":38}},{"id":20602,"position":3,"audio_url":null,"char_type_name":"end","page_number":569,"line_number":4,"text":"١٨","translation":{"text":"(১৮)","language_name":"bengali","language_id":20},"transliteration":{"text":null,"language_name":"english","language_id":38}}]},{"id":5394,"verse_number":19,"verse_key":"70:19","hizb_number":57,"rub_el_hizb_number":228,"ruku_number":504,"manzil_number":7,"sajdah_number":null,"page_number":569,"juz_number":29,"words":[{"id":22124,"position":1,"audio_url":"wbw/070_019_002.mp3","char_type_name":"word","page_number":569,"line_number":4,"text":"۞ إِنَّ","translation":{"text":"নিশ্চয়","language_name":"bengali","language_id":20},"transliteration":{"text":"inna","language_name":"english","language_id":38}},{"id":22125,"position":2,"audio_url":"wbw/070_019_003.mp3","char_type_name":"word","page_number":569,"line_number":4,"text":"ٱلْإِنسَـٰنَ","translation":{"text":"মানুষকে","language_name":"bengali","language_id":20},"transliteration":{"text":"l-insāna","language_name":"english","language_id":38}},{"id":22126,"position":3,"audio_url":"wbw/070_019_004.mp3","char_type_name":"word","page_number":569,"line_number":4,"text":"خُلِقَ","translation":{"text":"সৃষ্টি করা হয়েছে","language_name":"bengali","language_id":20},"transliteration":{"text":"khuliqa","language_name":"english","language_id":38}},{"id":22127,"position":4,"audio_url":"wbw/070_019_005.mp3","char_type_name":"word","page_number":569,"line_number":4,"text":"هَلُوعًا","translation":{"text":"অস্থির","language_name":"bengali","language_id":20},"transliteration":{"text":"halūʿan","language_name":"english","language_id":38}},{"id":22128,"position":5,"audio_url":null,"char_type_name":"end","page_number":569,"line_number":4,"text":"١٩","translation":{"text":"(১৯)","language_name":"bengali","language_id":20},"transliteration":{"text":null,"language_name":"english","language_id":38}}]},{"id":5395,"verse_number":20,"verse_key":"70:20","hizb_number":57,"rub_el_hizb_number":228,"ruku_number":504,"manzil_number":7,"sajdah_number":null,"page_number":569,"juz_number":29,"words":[{"id":22746,"position":1,"audio_url":"wbw/070_020_001.mp3","char_type_name":"word","page_number":569,"line_number":4,"text":"إِذَا","translation":{"text":"কখন","language_name":"bengali","language_id":20},"transliteration":{"text":"idhā","language_name":"english","language_id":38}},{"id":22747,"position":2,"audio_url":"wbw/070_020_002.mp3","char_type_name":"word","page_number":569,"line_number":4,"text":"مَسَّهُ","translation":{"text":"তাকে স্পর্শ করে","language_name":"bengali","language_id":20},"transliteration":{"text":"massahu","language_name":"english","language_id":38}},{"id":22748,"position":3,"audio_url":"wbw/070_020_003.mp3","char_type_name":"word","page_number":569,"line_number":4,"text":"ٱلشَّرُّ","translation":{"text":"মন্দ,","language_name":"bengali","language_id":20},"transliteration":{"text":"l-sharu","language_name":"english","language_id":38}},{"id":22749,"position":4,"audio_url":"wbw/070_020_004.mp3","char_type_name":"word","page_number":569,"line_number":5,"text":"جَزُوعًۭا","translation":{"text":"দুর্দশাগ্রস্ত.","language_name":"bengali","language_id":20},"transliteration":{"text":"jazūʿan","language_name":"english","language_id":38}},{"id":22750,"position":5,"audio_url":null,"char_type_name":"end","page_number":569,"line_number":5,"text":"٢٠","translation":{"text":"(২০)","language_name":"bengali","language_id":20},"transliteration":{"text":null,"language_name":"english","language_id":38}}]}],"pagination":{"per_page":10,"current_page":2,"next_page":3,"total_pages":5,"total_records":44}}
