{"verses":[{"id":5396,"verse_number":21,"verse_key":"70:21","hizb_number":57,"rub_el_hizb_number":228,"ruku_number":504,"manzil_number":7,"sajdah_number":null,"page_number":569,"juz_number":29,"words":[{"id":23903,"position":1,"audio_url":"wbw/070_021_001.mp3","char_type_name":"word","page_number":569,"line_number":5,"text":"وَإِذَا","translation":{"text":"এবং কখন","language_name":"bengali","language_id":20},"transliteration":{"text":"wa-idhā","language_name":"english","language_id":38}},{"id":23904,"position":2,"audio_url":"wbw/070_021_002.mp3","char_type_name":"word","page_number":569,"line_number":5,"text":"مَسَّهُ","translation":{"text":"তাকে স্পর্শ করে","language_name":"bengali","language_id":20},"transliteration":{"text":"massahu","language_name":"english","language_id":38}},{"id":23905,"position":3,"audio_url":"wbw/070_021_003.mp3","char_type_name":"word","page_number":569,"line_number":5,"text":"ٱلْخَيْرُ","translation":{"text":"কল্যাণ","language_name":"bengali","language_id":20},"transliteration":{"text":"l-khayru","language_name":"english","language_id":38}},{"id":23906,"position":4,"audio_url":"wbw/070_021_004.mp3","char_type_name":"word","page_number":569,"line_number":5,"text":"مَنُوعًا","translation":{"text":"কৃপণ হয়","language_name":"bengali","language_id":20},"transliteration":{"text":"manūʿan","language_name":"english","language_id":38}},{"id":23907,"position":5,"audio_url":null,"char_type_name":"end","page_number":569,"line_number":5,"text":"٢١","translation":{"text":"(২১)","language_name":"bengali","language_id":20},"transliteration":{"text":null,"language_name":"english","language_id":38}}]},{"id":5397,"verse_number":22,"verse_key":"70:22","hizb_number":57,"rub_el_hizb_number":228,"ruku_number":504,"manzil_number":7,"sajdah_number":null,"page_number":569,"juz_number":29,"words":[{"id":24909,"position":1,"audio_url":"wbw/070_022_001.mp3","char_type_name":"word","page_number":569,"line_number":5,"text":"إِلَّا","translation":{"text":"ছাড়া","language_name":"bengali","language_id":20},"transliteration":{"text":"illā","language_name":"english","language_id":38}},{"id":24910,"position":2,"audio_url":"wbw/070_022_002.mp3","char_type_name":"word","page_number":569,"line_number":5,"text":"ٱلْمُصَلِّينَ","translation":{"text":"নামাযিরা","language_name":"bengali","language_id":20},"transliteration":{"text":"l-muṣalīna","language_name":"english","language_id":38}},{"id":24911,"position":3,"audio_url":null,"char_type_name":"end","page_number":569,"line_number":5,"text":"٢٢","translation":{"text":"(২২)","language_name":"bengali","language_id":20},"transliteration":{"text":null,"language_name":"english","language_id":38}}]},{"id":5398,"verse_number":23,"verse_key":"70:23","hizb_number":57,"rub_el_hizb_number":228,"ruku_number":504,"manzil_number":7,"sajdah_number":null,"page_number":569,"juz_number":29,"words":[{"id":26118,"position":1,"audio_url":"wbw/070_023_001.mp3","char_type_name":"word","page_number":569,"line_number":5,"text":"ٱلَّذِينَ","translation":{"text":"যারা","language_name":"bengali","language_id":20},"transliteration":{"text":"alladhīna","language_name":"english","language_id":38}},{"id":26119,"position":2,"audio_url":"wbw/070_023_002.mp3","char_type_name":"word","page_number":569,"line_number":5,"text":"هُمْ","translation":{"text":"[তারা]","language_name":"bengali","language_id":20},"transliteration":{"text":"hum","language_name":"english","language_id":38}},{"id":26120,"position":3,"audio_url":"wbw/070_023_003.mp3","char_type_name":"word","page_number":569,"line_number":6,"text":"عَلَىٰ","translation":{"text":"উপর","language_name":"bengali","language_id":20},"transliteration":{"text":"ʿalā","language_name":"english","language_id":38}},{"id":26121,"position":4,"audio_url":"wbw/070_023_004.mp3","char_type_name":"word","page_number":569,"line_number":6,"text":"صَلَاتِهِمْ","translation":{"text":"তাদের নামযের","language_name":"bengali","language_id":20},"transliteration":{"text":"ṣalātihim","language_name":"english","language_id":38}},{"id":26122,"position":5,"audio_url":"wbw/070_023_005.mp3","char_type_name":"word","page_number":569,"line_number":6,"text":"دَآئِمُونَ","translation":{"text":"নিয়মিত","language_name":"bengali","language_id":20},"transliteration":{"text":"dāimūna","language_name":"english","language_id":38}},{"id":26123,"position":6,"audio_url":null,"char_type_name":"end","page_number":569,"line_number":6,"text":"٢٣","translation":{"text":"(২৩)","language_name":"bengali","language_id":20},"transliteration":{"text":null,"language_name":"english","language_id":38}}]},{"id":5399,"verse_number":24,"verse_key":"70:24","hizb_number":57,"rub_el_hizb_number":228,"ruku_number":504,"manzil_number":7,"sajdah_number":null,"page_number":569,"juz_number":29,"words":[{"id":27029,"position":1,"audio_url":"wbw/070_024_001.mp3","char_type_name":"word","page_number":569,"line_number":6,"text":"وَٱلَّذِينَ","translation":{"text":"এবং যারা","language_name":"bengali","language_id":20},"transliteration":{"text":"wa-alladhīna","language_name":"english","language_id":38}},{"id":27030,"position":2,"audio_url":"wbw/070_024_002.mp3","char_type_name":"word","page_number":569,"line_number":6,"text":"فِىٓ","translation":{"text":"মধ্যে","language_name":"bengali","language_id":20},"transliteration":{"text":"fī","language_name":"english","language_id":38}},{"id":27031,"position":3,"audio_url":"wbw/070_024_003.mp3","char_type_name":"word","page_number":569,"line_number":6,"text":"أَمْوَٰلِهِمْ","translation":{"text":"তাদের সম্পদ","language_name":"bengali","language_id":20},"transliteration":{"text":"amwālihim","language_name":"english","language_id":38}},{"id":27032,"position":4,"audio_url":"wbw/070_024_004.mp3","char_type_name":"word","page_number":569,"line_number":6,"text":"حَقٌّۭ","translation":{"text":"অধিকার","language_name":"bengali","language_id":20},"transliteration":{"text":"ḥaqqun","language_name":"english","language_id":38}},{"id":27033,"position":5,"audio_url":"wbw/070_024_005.mp3","char_type_name":"word","page_number":569,"line_number":6,"text":"مَّعْلُومٌۭ","translation":{"text":"অবগত","language_name":"bengali","language_id":20},"transliteration":{"text":"maʿlūmun","language_name":"english","language_id":38}},{"id":27034,"position":6,"audio_url":null,"char_type_name":"end","page_number":569,"line_number":6,"text":"٢٤","translation":{"text":"(২৪)","language_name":"bengali","language_id":20},"transliteration":{"text":null,"language_name":"english","language_id":38}}]},{"id":5400,"verse_number":25,"verse_key":"70:25","hizb_number":57,"rub_el_hizb_number":228,"ruku_number":504,"manzil_number":7,"sajdah_number":null,"page_number":569,"juz_number":29,"words":[{"id":28043,"position":1,"audio_url":"wbw/070_025_001.mp3","char_type_name":"word","page_number":569,"line_number":6,"text":"لِّلسَّآئِلِ","translation":{"text":"প্রার্থনাকারীর জন্যে","language_name":"bengali","language_id":20},"transliteration":{"text":"lilssāili","language_name":"english","language_id":38}},{"id":28044,"position":2,"audio_url":"wbw/070_025_002.mp3","char_type_name":"word","page_number":569,"line_number":7,"text":"وَٱلْمَحْرُومِ","translation":{"text":"এবং বঞ্চিতের","language_name":"bengali","language_id":20},"transliteration":{"text":"wal-maḥrūmi","language_name":"english","language_id":38}},{"id":28045,"position":3,"audio_url":null,"char_type_name":"end","page_number":569,"line_number":7,"text":"٢٥","translation":{"text":"(২৫)","language_name":"bengali","language_id":20},"transliteration":{"text":null,"language_name":"english","language_id":38}}]},{"id":5401,"verse_number":26,"verse_key":"70:26","hizb_number":57,"rub_el_hizb_number":228,"ruku_number":504,"manzil_number":7,"sajdah_number":null,"page_number":569,"juz_number":29,"words":[{"id":28995,"position":1,"audio_url":"wbw/070_026_001.mp3","char_type_name":"word","page_number":569,"line_number":7,"text":"وَٱلَّذِينَ","translation":{"text":"এবং যারা","language_name":"bengali","language_id":20},"transliteration":{"text":"wa-alladhīna","language_name":"english","language_id":38}},{"id":28996,"position":2,"audio_url":"wbw/070_026_002.mp3","char_type_name":"word","page_number":569,"line_number":7,"text":"يُصَدِّقُونَ","translation":{"text":"সাক্ষ্য দেয়","language_name":"bengali","language_id":20},"transliteration":{"text":"yuṣaddiqūna","language_name":"english","language_id":38}},{"id":28997,"position":3,"audio_url":"wbw/070_026_003.mp3","char_type_name":"word","page_number":569,"line_number":7,"text":"بِيَوْمِ","translation":{"text":"দিনের","language_name":"bengali","language_id":20},"transliteration":{"text":"biyawmi","language_name":"english","language_id":38}},{"id":28998,"position":4,"audio_url":"wbw/070_026_004.mp3","char_type_name":"word","page_number":569,"line_number":7,"text":"ٱلدِّينِ","translation":{"text":"বিচার","language_name":"bengali","language_id":20},"transliteration":{"text":"l-dīni","language_name":"english","language_id":38}},{"id":28999,"position":5,"audio_url":null,"char_type_name":"end","page_number":569,"line_number":7,"text":"٢٦","translation":{"text":"(২৬)","language_name":"bengali","language_id":20},"transliteration":{"text":null,"language_name":"english","language_id":38}}]},{"id":5402,"verse_number":27,"verse_key":"70:27","hizb_number":57,"rub_el_hizb_number":228,"ruku_number":504,"manzil_number":7,"sajdah_number":null,"page_number":569,"juz_number":29,"words":[{"id":30268,"position":1,"audio_url":"wbw/070_027_001.mp3","char_type_name":"word","page_number":569,"line_number":7,"text":"وَٱلَّذِينَ","translation":{"text":"এবং যারা","language_name":"bengali","language_id":20},"transliteration":{"text":"wa-alladhīna","language_name":"english","language_id":38}},{"id":30269,"position":2,"audio_url":"wbw/070_027_002.mp3","char_type_name":"word","page_number":569,"line_number":7,"text":"هُم","translation":{"text":"[তারা]","language_name":"bengali","language_id":20},"transliteration":{"text":"hum","language_name":"english","language_id":38}},{"id":30270,"position":3,"audio_url":"wbw/070_027_003.mp3","char_type_name":"word","page_number":569,"line_number":7,"text":"مِّنْ","translation":{"text":"থেকে","language_name":"bengali","language_id":20},"transliteration":{"text":"min","language_name":"english","language_id":38}},{"id":30271,"position":4,"audio_url":"wbw/070_027_004.mp3","char_type_name":"word","page_number":569,"line_number":7,"text":"عَذَابِ","translation":{"text":"আযাব","language_name":"bengali","language_id":20},"transliteration":{"text":"ʿadhābi","language_name":"english","language_id":38}},{"id":30272,"position":5,"audio_url":"wbw/070_027_005.mp3","char_type_name":"word","page_number":569,"line_number":8,"text":"رَبِّهِم","translation":{"text":"তাদের রবের","language_name":"bengali","language_id":20},"transliteration":{"text":"rabbihim","language_name":"english","language_id":38}},{"id":30273,"position":6,"audio_url":"wbw/070_027_006.mp3","char_type_name":"word","page_number":569,"line_number":8,"text":"مُّشْفِقُونَ","translation":{"text":"ভয়কারী","language_name":"bengali","language_id":20},"transliteration":{"text":"mush'fiqūna","language_name":"english","language_id":38}},{"id":30274,"position":7,"audio_url":null,"char_type_name":"end","page_number":569,"line_number":8,"text":"٢٧","translation":{"text":"(২৭)","language_name":"bengali","language_id":20},"transliteration":{"text":null,"language_name":"english","language_id":38}}]},{"id":5403,"verse_number":28,"verse_key":"70:28","hizb_number":57,"rub_el_hizb_number":228,"ruku_number":504,"manzil_number":7,"sajdah_number":null,"page_number":569,"juz_number":29,"words":[{"id":30935,"position":1,"audio_url":"wbw/070_028_001.mp3","char_type_name":"word","page_number":569,"line_number":8,"text":"إِنَّ","translation":{"text":"নিশ্চয়","language_name":"bengali","language_id":20},"transliteration":{"text":"inna","language_name":"english","language_id":38}},{"id":30936,"position":2,"audio_url":"wbw/070_028_002.mp3","char_type_name":"word","page_number":569,"line_number":8,"text":"عَذَابَ","translation":{"text":"আযাব","language_name":"bengali","language_id":20},"transliteration":{"text":"ʿadhāba","language_name":"english","language_id":38}},{"id":30937,"position":3,"audio_url":"wbw/070_028_003.mp3","char_type_name":"word","page_number":569,"line_number":8,"text":"رَبِّهِمْ","translation":{"text":"তাদের রবের","language_name":"bengali","language_id":20},"transliteration":{"text":"rabbihim","language_name":"english","language_id":38}},{"id":30938,"position":4,"audio_url":"wbw/070_028_004.mp3","char_type_name":"word","page_number":569,"line_number":8,"text":"غَيْرُ","translation":{"text":"নয়","language_name":"bengali","language_id":20},"transliteration":{"text":"ghayru","language_name":"english","language_id":38}},{"id":30939,"position":5,"audio_url":"wbw/070_028_005.mp3","char_type_name":"word","page_number":569,"line_number":8,"text":"مَأْمُونٍۢ","translation":{"text":"নিরাপদ","language_name":"bengali","language_id":20},"transliteration":{"text":"mamūnin","language_name":"english","language_id":38}},{"id":30940,"position":6,"audio_url":null,"char_type_name":"end","page_number":569,"line_number":8,"text":"٢٨","translation":{"text":"(২৮)","language_name":"bengali","language_id":20},"transliteration":{"text":null,"language_name":"english","language_id":38}}]},{"id":5404,"verse_number":29,"verse_key":"70:29","hizb_number":57,"rub_el_hizb_number":228,"ruku_number":504,"manzil_number":7,"sajdah_number":null,"page_number":569,"juz_number":29,"words":[{"id":31958,"position":1,"audio_url":"wbw/070_029_001.mp3","char_type_name":"word","page_number":569,"line_number":8,"text":"وَٱلَّذِينَ","translation":{"text":"এবং যারা","language_name":"bengali","language_id":20},"transliteration":{"text":"wa-alladhīna","language_name":"english","language_id":38}},{"id":31959,"position":2,"audio_url":"wbw/070_029_002.mp3","char_type_name":"word","page_number":569,"line_number":8,"text":"هُمْ","translation":{"text":"[তারা]","language_name":"bengali","language_id":20},"transliteration":{"text":"hum","language_name":"english","language_id":38}},{"id":31960,"position":3,"audio_url":"wbw/070_029_003.mp3","char_type_name":"word","page_number":569,"line_number":9,"text":"لِفُرُوجِهِمْ","translation":{"text":"তাদের যৌনাংগসমূহের","language_name":"bengali","language_id":20},"transliteration":{"text":"lifurūjihim","language_name":"english","language_id":38}},{"id":31961,"position":4,"audio_url":"wbw/070_029_004.mp3","char_type_name":"word","page_number":569,"line_number":9,"text":"حَـٰفِظُونَ","translation":{"text":"হিফাযতকারী","language_name":"bengali","language_id":20},"transliteration":{"text":"ḥāfiẓūna","language_name":"english","language_id":38}},{"id":31962,"position":5,"audio_url":null,"char_type_name":"end","page_number":569,"line_number":9,"text":"٢٩","translation":{"text":"(২৯)","language_name":"bengali","language_id":20},"transliteration":{"text":null,"language_name":"english","language_id":38}}]},{"id":5405,"verse_number":30,"verse_key":"70:30","hizb_number":57,"rub_el_hizb_number":228,"ruku_number":504,"manzil_number":7,"sajdah_number":null,"page_number":569,"juz_number":29,"words":[{"id":32822,"position":1,"audio_url":"wbw/070_030_001.mp3","char_type_name":"word","page_number":569,"line_number":9,"text":"إِلَّا","translation":{"text":"ছাড়া","language_name":"bengali","language_id":20},"transliteration":{"text":"illā","language_name":"english","language_id":38}},{"id":32823,"position":2,"audio_url":"wbw/070_030_002.mp3","char_type_name":"word","page_number":569,"line_number":9,"text":"عَلَىٰٓ","translation":{"text":"উপর","language_name":"bengali","language_id":20},"transliteration":{"text":"ʿalā","language_name":"english","language_id":38}},{"id":32824,"position":3,"audio_url":"wbw/070_030_003.mp3","char_type_name":"word","page_number":569,"line_number":9,"text":"أَزْوَٰجِهِمْ","translation":{"text":"তাদের স্ত্রীদের","language_name":"bengali","language_id":20},"transliteration":{"text":"azwājihim","language_name":"english","language_id":38}},{"id":32825,"position":4,"audio_url":"wbw/070_030_004.mp3","char_type_name":"word","page_number":569,"line_number":9,"text":"أَوْ","translation":{"text":"বা","language_name":"bengali","language_id":20},"transliteration":{"text":"aw","language_name":"english","language_id":38}},{"id":32826,"position":5,"audio_url":"wbw/070_030_005.mp3","char_type_name":"word","page_number":569,"line_number":9,"text":"مَا","translation":{"text":"যা","language_name":"bengali","language_id":20},"transliteration":{"text":"mā","language_name":"english","language_id":38}},{"id":32827,"position":6,"audio_url":"wbw/070_030_006.mp3","char_type_name":"word","page_number":569,"line_number":9,"text":"مَلَكَتْ","translation":{"text":"মালিক হয়েছে","language_name":"bengali","language_id":20},"transliteration":{"text":"malakat","language_name":"english","language_id":38}},{"id":32828,"position":7,"audio_url":"wbw/070_030_007.mp3","char_type_name":"word","page_number":569,"line_number":9,"text":"أَيْمَـٰنُهُمْ","translation":{"text":"তাদের ডান হাতসমূহ","language_name":"bengali","language_id":20},"transliteration":{"text":"aymānuhum","language_name":"english","language_id":38}},{"id":32829,"position":8,"audio_url":"wbw/070_030_008.mp3","char_type_name":"word","page_number":569,"line_number":10,"text":"فَإِنَّهُمْ","translation":{"text":"তারপর নিশ্চয় তারা","language_name":"bengali","language_id":20},"transliteration":{"text":"fa-innahum","language_name":"english","language_id":38}},{"id":32830,"position":9,"audio_url":"wbw/070_030_009.mp3","char_type_name":"word","page_number":569,"line_number":10,"text":"غَيْرُ","translation":{"text":"নয়","language_name":"bengali","language_id":20},"transliteration":{"text":"ghayru","language_name":"english","language_id":38}},{"id":32831,"position":10,"audio_url":"wbw/070_030_010.mp3","char_type_name":"word","page_number":569,"line_number":10,"text":"مَلُومِينَ","translation":{"text":"নিন্দনীয়","language_name":"bengali","language_id":20},"transliteration":{"text":"malūmīna","language_name":"english","language_id":38}},{"id":32832,"position":11,"audio_url":null,"char_type_name":"end","page_number":569,"line_number":10,"text":"٣٠","translation":{"text":"(৩০)","language_name":"bengali","language_id":20},"transliteration":{"text":null,"language_name":"english","language_id":38}}]}],"pagination":{"per_page":10,"current_page":3,"next_page":4,"total_pages":5,"total_records":44}}
