{"verses":[{"id":5406,"verse_number":31,"verse_key":"70:31","hizb_number":57,"rub_el_hizb_number":228,"ruku_number":504,"manzil_number":7,"sajdah_number":null,"page_number":569,"juz_number":29,"words":[{"id":33853,"position":1,"audio_url":"wbw/070_031_001.mp3","char_type_name":"word","page_number":569,"line_number":10,"text":"فَمَنِ","translation":{"text":"তবে যে কেউ","language_name":"bengali","language_id":20},"transliteration":{"text":"famani","language_name":"english","language_id":38}},{"id":33854,"position":2,"audio_url":"wbw/070_031_002.mp3","char_type_name":"word","page_number":569,"line_number":10,"text":"ٱبْتَغَىٰ","translation":{"text":"চায়","language_name":"bengali","language_id":20},"transliteration":{"text":"ib'taghā","language_name":"english","language_id":38}},{"id":33855,"position":3,"audio_url":"wbw/070_031_003.mp3","char_type_name":"word","page_number":569,"line_number":10,"text":"وَرَآءَ","translation":{"text":"ছাড়া","language_name":"bengali","language_id":20},"transliteration":{"text":"warāa","language_name":"english","language_id":38}},{"id":33856,"position":4,"audio_url":"wbw/070_031_004.mp3","char_type_name":"word","page_number":569,"line_number":10,"text":"ذَٰلِكَ","translation":{"text":"এটা","language_name":"bengali","language_id":20},"transliteration":{"text":"dhālika","language_name":"english","language_id":38}},{"id":33857,"position":5,"audio_url":"wbw/070_031_005.mp3","char_type_name":"word","page_number":569,"line_number":10,"text":"فَأُو۟لَـٰٓئِكَ","translation":{"text":"অতএব ঐসব লোক","language_name":"bengali","language_id":20},"transliteration":{"text":"fa-ulāika","language_name":"english","language_id":38}},{"id":33858,"position":6,"audio_url":"wbw/070_031_006.mp3","char_type_name":"word","page_number":569,"line_number":10,"text":"هُمُ","translation":{"text":"[তারাই]","language_name":"bengali","language_id":20},"transliteration":{"text":"humu","language_name":"english","language_id":38}},{"id":33859,"position":7,"audio_url":"wbw/070_031_007.mp3","char_type_name":"word","page_number":569,"line_number":10,"text":"ٱلْعَادُونَ","translation":{"text":"সীমালংঘনকারী","language_name":"bengali","language_id":20},"transliteration":{"text":"l-ʿādūna","language_name":"english","language_id":38}},{"id":33860,"position":8,"audio_url":null,"char_type_name":"end","page_number":569,"line_number":10,"text":"٣١","translation":{"text":"(৩১)","language_name":"bengali","language_id":20},"transliteration":{"text":null,"language_name":"english","language_id":38}}]},{"id":5407,"verse_number":32,"verse_key":"70:32","hizb_number":57,"rub_el_hizb_number":228,"ruku_number":504,"manzil_number":7,"sajdah_number":null,"page_number":569,"juz_number":29,"words":[{"id":34708,"position":1,"audio_url":"wbw/070_032_001.mp3","char_type_name":"word","page_number":569,"line_number":11,"text":"وَٱلَّذِينَ","translation":{"text":"এবং যারা","language_name":"bengali","language_id":20},"transliteration":{"text":"wa-alladhīna","language_name":"english","language_id":38}},{"id":34709,"position":2,"audio_url":"wbw/070_032_002.mp3","char_type_name":"word","page_number":569,"line_number":11,"text":"هُمْ","translation":{"text":"[তারা]","language_name":"bengali","language_id":20},"transliteration":{"text":"hum","language_name":"english","language_id":38}},{"id":34710,"position":3,"audio_url":"wbw/070_032_003.mp3","char_type_name":"word","page_number":569,"line_number":11,"text":"لِأَمَـٰنَـٰتِهِمْ","translation":{"text":"তাদের  আমানতের ক্ষেত্রে","language_name":"bengali","language_id":20},"transliteration":{"text":"li-amānātihim","language_name":"english","language_id":38}},{"id":34711,"position":4,"audio_url":"wbw/070_032_004.mp3","char_type_name":"word","page_number":569,"line_number":11,"text":"وَعَهْدِهِمْ","translation":{"text":"ও তাদের ওয়াদার","language_name":"bengali","language_id":20},"transliteration":{"text":"waʿahdihim","language_name":"english","language_id":38}},{"id":34712,"position":5,"audio_url":"wbw/070_032_005.mp3","char_type_name":"word","page_number":569,"line_number":11,"text":"رَٰعُونَ","translation":{"text":"পালনকারী","language_name":"bengali","language_id":20},"transliteration":{"text":"rāʿūna","language_name":"english","language_id":38}},{"id":34713,"position":6,"audio_url":null,"char_type_name":"end","page_number":569,"line_number":11,"text":"٣٢","translation":{"text":"(৩২)","language_name":"bengali","language_id":20},"transliteration":{"text":null,"language_name":"english","language_id":38}}]},{"id":5408,"verse_number":33,"verse_key":"70:33","hizb_number":57,"rub_el_hizb_number":228,"ruku_number":504,"manzil_number":7,"sajdah_number":null,"page_number":569,"juz_number":29,"words":[{"id":35534,"position":1,"audio_url":"wbw/070_033_001.mp3","char_type_name":"word","page_number":569,"line_number":11,"text":"وَٱلَّذِينَ","translation":{"text":"এবং যারা","language_name":"bengali","language_id":20},"transliteration":{"text":"wa-alladhīna","language_name":"english","language_id":38}},{"id":35535,"position":2,"audio_url":"wbw/070_033_002.mp3","char_type_name":"word","page_number":569,"line_number":11,"text":"هُم","translation":{"text":"[তারা]","language_name":"bengali","language_id":20},"transliteration":{"text":"hum","language_name":"english","language_id":38}},{"id":35536,"position":3,"audio_url":"wbw/070_033_003.mp3","char_type_name":"word","page_number":569,"line_number":11,"text":"بِشَهَـٰدَٰتِهِمْ","translation":{"text":"তাদের সাক্ষ্যদানে","language_name":"bengali","language_id":20},"transliteration":{"text":"bishahādātihim","language_name":"english","language_id":38}},{"id":35537,"position":4,"audio_url":"wbw/070_033_004.mp3","char_type_name":"word","page_number":569,"line_number":11,"text":"قَآئِمُونَ","translation":{"text":"অটল","language_name":"bengali","language_id":20},"transliteration":{"text":"qāimūna","language_name":"english","language_id":38}},{"id":35538,"position":5,"audio_url":null,"char_type_name":"end","page_number":569,"line_number":12,"text":"٣٣","translation":{"text":"(৩৩)","language_name":"bengali","language_id":20},"transliteration":{"text":null,"language_name":"english","language_id":38}}]},{"id":5409,"verse_number":34,"verse_key":"70:34","hizb_number":57,"rub_el_hizb_number":228,"ruku_number":504,"manzil_number":7,"sajdah_number":null,"page_number":569,"juz_number":29,"words":[{"id":36462,"position":1,"audio_url":"wbw/070_034_001.mp3","char_type_name":"word","page_number":569,"line_number":12,"text":"وَٱلَّذِينَ","translation":{"text":"এবং যারা,","language_name":"bengali","language_id":20},"transliteration":{"text":"wa-alladhīna","language_name":"english","language_id":38}},{"id":36463,"position":2,"audio_url":"wbw/070_034_002.mp3","char_type_name":"word","page_number":569,"line_number":12,"text":"هُمْ","translation":{"text":"[তারা]","language_name":"bengali","language_id":20},"transliteration":{"text":"hum","language_name":"english","language_id":38}},{"id":36464,"position":3,"audio_url":"wbw/070_034_003.mp3","char_type_name":"word","page_number":569,"line_number":12,"text":"عَلَىٰ","translation":{"text":"উপর","language_name":"bengali","language_id":20},"transliteration":{"text":"ʿalā","language_name":"english","language_id":38}},{"id":36465,"position":4,"audio_url":"wbw/070_034_004.mp3","char_type_name":"word","page_number":569,"line_number":12,"text":"صَلَاتِهِمْ","translation":{"text":"তাদের নামাযের","language_name":"bengali","language_id":20},"transliteration":{"text":"ṣalātihim","language_name":"english","language_id":38}},{"id":36466,"position":5,"audio_url":"wbw/070_034_005.mp3","char_type_name":"word","page_number":569,"line_number":12,"text":"يُحَافِظُونَ","translation":{"text":"সংরক্ষণ করে","language_name":"bengali","language_id":20},"transliteration":{"text":"yuḥāfiẓūna","language_name":"english","language_id":38}},{"id":36467,"position":6,"audio_url":null,"char_type_name":"end","page_number":569,"line_number":12,"text":"٣٤","translation":{"text":"(৩৪)","language_name":"bengali","language_id":20},"transliteration":{"text":null,"language_name":"english","language_id":38}}]},{"id":5410,"verse_number":35,"verse_key":"70:35","hizb_number":57,"rub_el_hizb_number":228,"ruku_number":504,"manzil_number":7,"sajdah_number":null,"page_number":569,"juz_number":29,"words":[{"id":37394,"position":1,"audio_url":"wbw/070_035_001.mp3","char_type_name":"word","page_number":569,"line_number":12,"text":"أُو۟لَـٰٓئِكَ","translation":{"text":"ঐসব লোক","language_name":"bengali","language_id":20},"transliteration":{"text":"ulāika","language_name":"english","language_id":38}},{"id":37395,"position":2,"audio_url":"wbw/070_035_002.mp3","char_type_name":"word","page_number":569,"line_number":12,"text":"فِى","translation":{"text":"মধ্যে হবে","language_name":"bengali","language_id":20},"transliteration":{"text":"fī","language_name":"english","language_id":38}},{"id":37396,"position":3,"audio_url":"wbw/070_035_003.mp3","char_type_name":"word","page_number":569,"line_number":12,"text":"جَنَّـٰتٍۢ","translation":{"text":"জান্নাতসমূহের","language_name":"bengali","language_id":20},"transliteration":{"text":"jannātin","language_name":"english","language_id":38}},{"id":37397,"position":4,"audio_url":"wbw/070_035_004.mp3","char_type_name":"word","page_number":569,"line_number":12,"text":"مُّكْرَمُونَ","translation":{"text":"সম্মানিত.","language_name":"bengali","language_id":20},"transliteration":{"text":"muk'ramūna","language_name":"english","language_id":38}},{"id":37398,"position":5,"audio_url":null,"char_type_name":"end","page_number":569,"line_number":12,"text":"٣٥","translation":{"text":"(৩৫)","language_name":"bengali","language_id":20},"transliteration":{"text":null,"language_name":"english","language_id":38}}]},{"id":5411,"verse_number":36,"verse_key":"70:36","hizb_number":57,"rub_el_hizb_number":228,"ruku_number":505,"manzil_number":7,"sajdah_number":null,"page_number":569,"juz_number":29,"words":[{"id":38126,"position":1,"audio_url":"wbw/070_036_001.mp3","char_type_name":"word","page_number":569,"line_number":13,"text":"فَمَالِ","translation":{"text":"অতএব কি হয়েছে","language_name":"bengali","language_id":20},"transliteration":{"text":"famāli","language_name":"english","language_id":38}},{"id":38127,"position":2,"audio_url":"wbw/070_036_002.mp3","char_type_name":"word","page_number":569,"line_number":13,"text":"ٱلَّذِينَ","translation":{"text":"যারা (তাদের)","language_name":"bengali","language_id":20},"transliteration":{"text":"alladhīna","language_name":"english","language_id":38}},{"id":38128,"position":3,"audio_url":"wbw/070_036_003.mp3","char_type_name":"word","page_number":569,"line_number":13,"text":"كَفَرُوا۟","translation":{"text":"কুফরি করেছে","language_name":"bengali","language_id":20},"transliteration":{"text":"kafarū","language_name":"english","language_id":38}},{"id":38129,"position":4,"audio_url":"wbw/070_036_004.mp3","char_type_name":"word","page_number":569,"line_number":13,"text":"قِبَلَكَ","translation":{"text":"তোমার সামনে","language_name":"bengali","language_id":20},"transliteration":{"text":"qibalaka","language_name":"english","language_id":38}},{"id":38130,"position":5,"audio_url":"wbw/070_036_005.mp3","char_type_name":"word","page_number":569,"line_number":13,"text":"مُهْطِعِينَ","translation":{"text":"দৌড়ে আসছে","language_name":"bengali","language_id":20},"transliteration":{"text":"muh'ṭiʿīna","language_name":"english","language_id":38}},{"id":38131,"position":6,"audio_url":null,"char_type_name":"end","page_number":569,"line_number":13,"text":"٣٦","translation":{"text":"(৩৬)","language_name":"bengali","language_id":20},"transliteration":{"text":null,"language_name":"english","language_id":38}}]},{"id":5412,"verse_number":37,"verse_key":"70:37","hizb_number":57,"rub_el_hizb_number":228,"ruku_number":505,"manzil_number":7,"sajdah_number":null,"page_number":569,"juz_number":29,"words":[{"id":39127,"position":1,"audio_url":"wbw/070_037_001.mp3","char_type_name":"word","page_number":569,"line_number":13,"text":"عَنِ","translation":{"text":"থেকে","language_name":"bengali","language_id":20},"transliteration":{"text":"ʿani","language_name":"english","language_id":38}},{"id":39128,"position":2,"audio_url":"wbw/070_037_002.mp3","char_type_name":"word","page_number":569,"line_number":13,"text":"ٱلْيَمِينِ","translation":{"text":"ডান দিক","language_name":"bengali","language_id":20},"transliteration":{"text":"l-yamīni","language_name":"english","language_id":38}},{"id":39129,"position":3,"audio_url":"wbw/070_037_003.mp3","char_type_name":"word","page_number":569,"line_number":13,"text":"وَعَنِ","translation":{"text":"ও থেকে","language_name":"bengali","language_id":20},"transliteration":{"text":"waʿani","language_name":"english","language_id":38}},{"id":39130,"position":4,"audio_url":"wbw/070_037_004.mp3","char_type_name":"word","page_number":569,"line_number":13,"text":"ٱلشِّمَالِ","translation":{"text":"বামদিক","language_name":"bengali","language_id":20},"transliteration":{"text":"l-shimāli","language_name":"english","language_id":38}},{"id":39131,"position":5,"audio_url":"wbw/070_037_005.mp3","char_type_name":"word","page_number":569,"line_number":14,"text":"عِزِينَ","translation":{"text":"দলে দলে","language_name":"bengali","language_id":20},"transliteration":{"text":"ʿizīna","language_name":"english","language_id":38}},{"id":39132,"position":6,"audio_url":null,"char_type_name":"end","page_number":569,"line_number":14,"text":"٣٧","translation":{"text":"(৩৭)","language_name":"bengali","language_id":20},"transliteration":{"text":null,"language_name":"english","language_id":38}}]},{"id":5413,"verse_number":38,"verse_key":"70:38","hizb_number":57,"rub_el_hizb_number":228,"ruku_number":505,"manzil_number":7,"sajdah_number":null,"page_number":569,"juz_number":29,"words":[{"id":39817,"position":1,"audio_url":"wbw/070_038_001.mp3","char_type_name":"word","page_number":569,"line_number":14,"text":"أَيَطْمَعُ","translation":{"text":"লোভকরে কি","language_name":"bengali","language_id":20},"transliteration":{"text":"ayaṭmaʿu","language_name":"english","language_id":38}},{"id":39818,"position":2,"audio_url":"wbw/070_038_002.mp3","char_type_name":"word","page_number":569,"line_number":14,"text":"كُلُّ","translation":{"text":"প্রত্যেক","language_name":"bengali","language_id":20},"transliteration":{"text":"kullu","language_name":"english","language_id":38}},{"id":39819,"position":3,"audio_url":"wbw/070_038_003.mp3","char_type_name":"word","page_number":569,"line_number":14,"text":"ٱمْرِئٍۢ","translation":{"text":"ব্যক্তি","language_name":"bengali","language_id":20},"transliteration":{"text":"im'ri-in","language_name":"english","language_id":38}},{"id":39820,"position":4,"audio_url":"wbw/070_038_004.mp3","char_type_name":"word","page_number":569,"line_number":14,"text":"مِّنْهُمْ","translation":{"text":"তাদের মধ্যে","language_name":"bengali","language_id":20},"transliteration":{"text":"min'hum","language_name":"english","language_id":38}},{"id":39821,"position":5,"audio_url":"wbw/070_038_005.mp3","char_type_name":"word","page_number":569,"line_number":14,"text":"أَن","translation":{"text":"যে","language_name":"bengali","language_id":20},"transliteration":{"text":"an","language_name":"english","language_id":38}},{"id":39822,"position":6,"audio_url":"wbw/070_038_006.mp3","char_type_name":"word","page_number":569,"line_number":14,"text":"يُدْخَلَ","translation":{"text":"প্রবেশ করানো হবে","language_name":"bengali","language_id":20},"transliteration":{"text":"yud'khala","language_name":"english","language_id":38}},{"id":39823,"position":7,"audio_url":"wbw/070_038_007.mp3","char_type_name":"word","page_number":569,"line_number":14,"text":"جَنَّةَ","translation":{"text":"জান্নাতে","language_name":"bengali","language_id":20},"transliteration":{"text":"jannata","language_name":"english","language_id":38}},{"id":39824,"position":8,"audio_url":"wbw/070_038_008.mp3","char_type_name":"word","page_number":569,"line_number":14,"text":"نَعِيمٍۢ","translation":{"text":"নিয়ামতের","language_name":"bengali","language_id":20},"transliteration":{"text":"naʿīmin","language_name":"english","language_id":38}},{"id":39825,"position":9,"audio_url":null,"char_type_name":"end","page_number":569,"line_number":14,"text":"٣٨","translation":{"text":"(৩৮)","language_name":"bengali","language_id":20},"transliteration":{"text":null,"language_name":"english","language_id":38}}]},{"id":5414,"verse_number":39,"verse_key":"70:39","hizb_number":57,"rub_el_hizb_number":228,"ruku_number":505,"manzil_number":7,"sajdah_number":null,"page_number":569,"juz_number":29,"words":[{"id":40725,"position":1,"audio_url":"wbw/070_039_001.mp3","char_type_name":"word","page_number":569,"line_number":14,"text":"كَلَّآ ۖ","translation":{"text":"কখনও নয়!","language_name":"bengali","language_id":20},"transliteration":{"text":"kallā","language_name":"english","language_id":38}},{"id":40727,"position":2,"audio_url":"wbw/070_039_003.mp3","char_type_name":"word","page_number":569,"line_number":14,"text":"إِنَّا","translation":{"text":"নিশ্চয় আমরা","language_name":"bengali","language_id":20},"transliteration":{"text":"innā","language_name":"english","language_id":38}},{"id":40728,"position":3,"audio_url":"wbw/070_039_004.mp3","char_type_name":"word","page_number":569,"line_number":14,"text":"خَلَقْنَـٰهُم","translation":{"text":"[আমরা] তাদেরকে সৃষ্টি করেছি","language_name":"bengali","language_id":20},"transliteration":{"text":"khalaqnāhum","language_name":"english","language_id":38}},{"id":40729,"position":4,"audio_url":"wbw/070_039_005.mp3","char_type_name":"word","page_number":569,"line_number":15,"text":"مِّمَّا","translation":{"text":"যা থেকে","language_name":"bengali","language_id":20},"transliteration":{"text":"mimmā","language_name":"english","language_id":38}},{"id":40730,"position":5,"audio_url":"wbw/070_039_006.mp3","char_type_name":"word","page_number":569,"line_number":15,"text":"يَعْلَمُونَ","translation":{"text":"তারা জানে.","language_name":"bengali","language_id":20},"transliteration":{"text":"yaʿlamūna","language_name":"english","language_id":38}},{"id":40731,"position":6,"audio_url":null,"char_type_name":"end","page_number":569,"line_number":15,"text":"٣٩","translation":{"text":"(৩৯)","language_name":"bengali","language_id":20},"transliteration":{"text":null,"language_name":"english","language_id":38}}]},{"id":5415,"verse_number":40,"verse_key":"70:40","hizb_number":57,"rub_el_hizb_number":228,"ruku_number":505,"manzil_number":7,"sajdah_number":null,"page_number":569,"juz_number":29,"words":[{"id":41393,"position":1,"audio_url":"wbw/070_040_001.mp3","char_type_name":"word","page_number":569,"line_number":15,"text":"فَلَآ","translation":{"text":"অতএব, না","language_name":"bengali","language_id":20},"transliteration":{"text":"falā","language_name":"english","language_id":38}},{"id":41394,"position":2,"audio_url":"wbw/070_040_002.mp3","char_type_name":"word","page_number":569,"line_number":15,"text":"أُقْسِمُ","translation":{"text":"আমি কসম করছি যে","language_name":"bengali","language_id":20},"transliteration":{"text":"uq'simu","language_name":"english","language_id":38}},{"id":41395,"position":3,"audio_url":"wbw/070_040_003.mp3","char_type_name":"word","page_number":569,"line_number":15,"text":"بِرَبِّ","translation":{"text":"রবের","language_name":"bengali","language_id":20},"transliteration":{"text":"birabbi","language_name":"english","language_id":38}},{"id":41396,"position":4,"audio_url":"wbw/070_040_004.mp3","char_type_name":"word","page_number":569,"line_number":15,"text":"ٱلْمَشَـٰرِقِ","translation":{"text":"উদয়স্থল","language_name":"bengali","language_id":20},"transliteration":{"text":"l-mashāriqi","language_name":"english","language_id":38}},{"id":41397,"position":5,"audio_url":"wbw/070_040_005.mp3","char_type_name":"word","page_number":569,"line_number":15,"text":"وَٱلْمَغَـٰرِبِ","translation":{"text":"ও অস্তাচলসমূহের","language_name":"bengali","language_id":20},"transliteration":{"text":"wal-maghāribi","language_name":"english","language_id":38}},{"id":41398,"position":6,"audio_url":"wbw/070_040_006.mp3","char_type_name":"word","page_number":569,"line_number":15,"text":"إِنَّا","translation":{"text":"নিশ্চয় আমরা","language_name":"bengali","language_id":20},"transliteration":{"text":"innā","language_name":"english","language_id":38}},{"id":41399,"position":7,"audio_url":"wbw/070_040_007.mp3","char_type_name":"word","page_number":569,"line_number":15,"text":"لَقَـٰدِرُونَ","translation":{"text":"সক্ষম","language_name":"bengali","language_id":20},"transliteration":{"text":"laqādirūna","language_name":"english","language_id":38}},{"id":41400,"position":8,"audio_url":null,"char_type_name":"end","page_number":569,"line_number":15,"text":"٤٠","translation":{"text":"(৪০)","language_name":"bengali","language_id":20},"transliteration":{"text":null,"language_name":"english","language_id":38}}]}],"pagination":{"per_page":10,"current_page":4,"next_page":5,"total_pages":5,"total_records":44}}
