{"verses":[{"id":5496,"verse_number":1,"verse_key":"74:1","hizb_number":58,"rub_el_hizb_number":230,"ruku_number":512,"manzil_number":7,"sajdah_number":null,"page_number":575,"juz_number":29,"words":[{"id":631,"position":1,"audio_url":"wbw/074_001_001.mp3","char_type_name":"word","page_number":575,"line_number":10,"text":"يَـٰٓأَيُّهَا","translation":{"text":"হে","language_name":"bengali","language_id":20},"transliteration":{"text":"yāayyuhā","language_name":"english","language_id":38}},{"id":632,"position":2,"audio_url":"wbw/074_001_002.mp3","char_type_name":"word","page_number":575,"line_number":10,"text":"ٱلْمُدَّثِّرُ","translation":{"text":"চাদরাবৃত","language_name":"bengali","language_id":20},"transliteration":{"text":"l-mudathiru","language_name":"english","language_id":38}},{"id":633,"position":3,"audio_url":null,"char_type_name":"end","page_number":575,"line_number":10,"text":"١","translation":{"text":"(১)","language_name":"bengali","language_id":20},"transliteration":{"text":null,"language_name":"english","language_id":38}}]},{"id":5497,"verse_number":2,"verse_key":"74:2","hizb_number":58,"rub_el_hizb_number":230,"ruku_number":512,"manzil_number":7,"sajdah_number":null,"page_number":575,"juz_number":29,"words":[{"id":1613,"position":1,"audio_url":"wbw/074_002_001.mp3","char_type_name":"word","page_number":575,"line_number":10,"text":"قُمْ","translation":{"text":"উঠ","language_name":"bengali","language_id":20},"transliteration":{"text":"qum","language_name":"english","language_id":38}},{"id":1614,"position":2,"audio_url":"wbw/074_002_002.mp3","char_type_name":"word","page_number":575,"line_number":10,"text":"فَأَنذِرْ","translation":{"text":"সতর্ক কর অতঃপর","language_name":"bengali","language_id":20},"transliteration":{"text":"fa-andhir","language_name":"english","language_id":38}},{"id":1615,"position":3,"audio_url":null,"char_type_name":"end","page_number":575,"line_number":10,"text":"٢","translation":{"text":"(২)","language_name":"bengali","language_id":20},"transliteration":{"text":null,"language_name":"english","language_id":38}}]},{"id":5498,"verse_number":3,"verse_key":"74:3","hizb_number":58,"rub_el_hizb_number":230,"ruku_number":512,"manzil_number":7,"sajdah_number":null,"page_number":575,"juz_number":29,"words":[{"id":2622,"position":1,"audio_url":"wbw/074_003_001.mp3","char_type_name":"word","page_number":575,"line_number":10,"text":"وَرَبَّكَ","translation":{"text":"ও তোমার রবের","language_name":"bengali","language_id":20},"transliteration":{"text":"warabbaka","language_name":"english","language_id":38}},{"id":2623,"position":2,"audio_url":"wbw/074_003_002.mp3","char_type_name":"word","page_number":575,"line_number":10,"text":"فَكَبِّرْ","translation":{"text":"অতঃপর শ্রেষ্ঠত্ব ঘোষণা কর","language_name":"bengali","language_id":20},"transliteration":{"text":"fakabbir","language_name":"english","language_id":38}},{"id":2624,"position":3,"audio_url":null,"char_type_name":"end","page_number":575,"line_number":10,"text":"٣","translation":{"text":"(৩)","language_name":"bengali","language_id":20},"transliteration":{"text":null,"language_name":"english","language_id":38}}]},{"id":5499,"verse_number":4,"verse_key":"74:4","hizb_number":58,"rub_el_hizb_number":230,"ruku_number":512,"manzil_number":7,"sajdah_number":null,"page_number":575,"juz_number":29,"words":[{"id":4045,"position":1,"audio_url":"wbw/074_004_001.mp3","char_type_name":"word","page_number":575,"line_number":10,"text":"وَثِيَابَكَ","translation":{"text":"এবং তোমার কাপড়","language_name":"bengali","language_id":20},"transliteration":{"text":"wathiyābaka","language_name":"english","language_id":38}},{"id":4046,"position":2,"audio_url":"wbw/074_004_002.mp3","char_type_name":"word","page_number":575,"line_number":10,"text":"فَطَهِّرْ","translation":{"text":"অতঃপর পবিত্র কর","language_name":"bengali","language_id":20},"transliteration":{"text":"faṭahhir","language_name":"english","language_id":38}},{"id":4047,"position":3,"audio_url":null,"char_type_name":"end","page_number":575,"line_number":10,"text":"٤","translation":{"text":"(৪)","language_name":"bengali","language_id":20},"transliteration":{"text":null,"language_name":"english","language_id":38}}]},{"id":5500,"verse_number":5,"verse_key":"74:5","hizb_number":58,"rub_el_hizb_number":230,"ruku_number":512,"manzil_number":7,"sajdah_number":null,"page_number":575,"juz_number":29,"words":[{"id":5331,"position":1,"audio_url":"wbw/074_005_001.mp3","char_type_name":"word","page_number":575,"line_number":11,"text":"وَٱلرُّجْزَ","translation":{"text":"এবং অপবিত্রতা","language_name":"bengali","language_id":20},"transliteration":{"text":"wal-ruj'za","language_name":"english","language_id":38}},{"id":5332,"position":2,"audio_url":"wbw/074_005_002.mp3","char_type_name":"word","page_number":575,"line_number":11,"text":"فَٱهْجُرْ","translation":{"text":"অতএব দূরে থাক","language_name":"bengali","language_id":20},"transliteration":{"text":"fa-uh'jur","language_name":"english","language_id":38}},{"id":5333,"position":3,"audio_url":null,"char_type_name":"end","page_number":575,"line_number":11,"text":"٥","translation":{"text":"(৫)","language_name":"bengali","language_id":20},"transliteration":{"text":null,"language_name":"english","language_id":38}}]},{"id":5501,"verse_number":6,"verse_key":"74:6","hizb_number":58,"rub_el_hizb_number":230,"ruku_number":512,"manzil_number":7,"sajdah_number":null,"page_number":575,"juz_number":29,"words":[{"id":6546,"position":1,"audio_url":"wbw/074_006_001.mp3","char_type_name":"word","page_number":575,"line_number":11,"text":"وَلَا","translation":{"text":"এবং না","language_name":"bengali","language_id":20},"transliteration":{"text":"walā","language_name":"english","language_id":38}},{"id":6547,"position":2,"audio_url":"wbw/074_006_002.mp3","char_type_name":"word","page_number":575,"line_number":11,"text":"تَمْنُن","translation":{"text":"অনুগ্রহ করো","language_name":"bengali","language_id":20},"transliteration":{"text":"tamnun","language_name":"english","language_id":38}},{"id":6548,"position":3,"audio_url":"wbw/074_006_003.mp3","char_type_name":"word","page_number":575,"line_number":11,"text":"تَسْتَكْثِرُ","translation":{"text":"বেশী পাওয়ার আশায়","language_name":"bengali","language_id":20},"transliteration":{"text":"tastakthiru","language_name":"english","language_id":38}},{"id":6549,"position":4,"audio_url":null,"char_type_name":"end","page_number":575,"line_number":11,"text":"٦","translation":{"text":"(৬)","language_name":"bengali","language_id":20},"transliteration":{"text":null,"language_name":"english","language_id":38}}]},{"id":5502,"verse_number":7,"verse_key":"74:7","hizb_number":58,"rub_el_hizb_number":230,"ruku_number":512,"manzil_number":7,"sajdah_number":null,"page_number":575,"juz_number":29,"words":[{"id":7947,"position":1,"audio_url":"wbw/074_007_001.mp3","char_type_name":"word","page_number":575,"line_number":11,"text":"وَلِرَبِّكَ","translation":{"text":"এবং তোমার রবের জন্যে","language_name":"bengali","language_id":20},"transliteration":{"text":"walirabbika","language_name":"english","language_id":38}},{"id":7948,"position":2,"audio_url":"wbw/074_007_002.mp3","char_type_name":"word","page_number":575,"line_number":11,"text":"فَٱصْبِرْ","translation":{"text":"অতএব সবর কর","language_name":"bengali","language_id":20},"transliteration":{"text":"fa-iṣ'bir","language_name":"english","language_id":38}},{"id":7949,"position":3,"audio_url":null,"char_type_name":"end","page_number":575,"line_number":11,"text":"٧","translation":{"text":"(৭)","language_name":"bengali","language_id":20},"transliteration":{"text":null,"language_name":"english","language_id":38}}]},{"id":5503,"verse_number":8,"verse_key":"74:8","hizb_number":58,"rub_el_hizb_number":230,"ruku_number":512,"manzil_number":7,"sajdah_number":null,"page_number":575,"juz_number":29,"words":[{"id":9113,"position":1,"audio_url":"wbw/074_008_001.mp3","char_type_name":"word","page_number":575,"line_number":11,"text":"فَإِذَا","translation":{"text":"অতঃপর যখন","language_name":"bengali","language_id":20},"transliteration":{"text":"fa-idhā","language_name":"english","language_id":38}},{"id":9114,"position":2,"audio_url":"wbw/074_008_002.mp3","char_type_name":"word","page_number":575,"line_number":11,"text":"نُقِرَ","translation":{"text":"ফুক দেয়া হবে","language_name":"bengali","language_id":20},"transliteration":{"text":"nuqira","language_name":"english","language_id":38}},{"id":9115,"position":3,"audio_url":"wbw/074_008_003.mp3","char_type_name":"word","page_number":575,"line_number":12,"text":"فِى","translation":{"text":"মধ্যে","language_name":"bengali","language_id":20},"transliteration":{"text":"fī","language_name":"english","language_id":38}},{"id":9116,"position":4,"audio_url":"wbw/074_008_004.mp3","char_type_name":"word","page_number":575,"line_number":12,"text":"ٱلنَّاقُورِ","translation":{"text":"সিঙ্গায়","language_name":"bengali","language_id":20},"transliteration":{"text":"l-nāqūri","language_name":"english","language_id":38}},{"id":9117,"position":5,"audio_url":null,"char_type_name":"end","page_number":575,"line_number":12,"text":"٨","translation":{"text":"(৮)","language_name":"bengali","language_id":20},"transliteration":{"text":null,"language_name":"english","language_id":38}}]},{"id":5504,"verse_number":9,"verse_key":"74:9","hizb_number":58,"rub_el_hizb_number":230,"ruku_number":512,"manzil_number":7,"sajdah_number":null,"page_number":575,"juz_number":29,"words":[{"id":10338,"position":1,"audio_url":"wbw/074_009_001.mp3","char_type_name":"word","page_number":575,"line_number":12,"text":"فَذَٰلِكَ","translation":{"text":"অতএব সেই","language_name":"bengali","language_id":20},"transliteration":{"text":"fadhālika","language_name":"english","language_id":38}},{"id":10339,"position":2,"audio_url":"wbw/074_009_002.mp3","char_type_name":"word","page_number":575,"line_number":12,"text":"يَوْمَئِذٍۢ","translation":{"text":"(হবে) দিন","language_name":"bengali","language_id":20},"transliteration":{"text":"yawma-idhin","language_name":"english","language_id":38}},{"id":10340,"position":3,"audio_url":"wbw/074_009_003.mp3","char_type_name":"word","page_number":575,"line_number":12,"text":"يَوْمٌ","translation":{"text":"দিন","language_name":"bengali","language_id":20},"transliteration":{"text":"yawmun","language_name":"english","language_id":38}},{"id":10341,"position":4,"audio_url":"wbw/074_009_004.mp3","char_type_name":"word","page_number":575,"line_number":12,"text":"عَسِيرٌ","translation":{"text":"কঠিন","language_name":"bengali","language_id":20},"transliteration":{"text":"ʿasīrun","language_name":"english","language_id":38}},{"id":10342,"position":5,"audio_url":null,"char_type_name":"end","page_number":575,"line_number":12,"text":"٩","translation":{"text":"(৯)","language_name":"bengali","language_id":20},"transliteration":{"text":null,"language_name":"english","language_id":38}}]},{"id":5505,"verse_number":10,"verse_key":"74:10","hizb_number":58,"rub_el_hizb_number":230,"ruku_number":512,"manzil_number":7,"sajdah_number":null,"page_number":575,"juz_number":29,"words":[{"id":11570,"position":1,"audio_url":"wbw/074_010_001.mp3","char_type_name":"word","page_number":575,"line_number":12,"text":"عَلَى","translation":{"text":"উপর","language_name":"bengali","language_id":20},"transliteration":{"text":"ʿalā","language_name":"english","language_id":38}},{"id":11571,"position":2,"audio_url":"wbw/074_010_002.mp3","char_type_name":"word","page_number":575,"line_number":12,"text":"ٱلْكَـٰفِرِينَ","translation":{"text":"কাফিরদের","language_name":"bengali","language_id":20},"transliteration":{"text":"l-kāfirīna","language_name":"english","language_id":38}},{"id":11572,"position":3,"audio_url":"wbw/074_010_003.mp3","char_type_name":"word","page_number":575,"line_number":12,"text":"غَيْرُ","translation":{"text":"নয়","language_name":"bengali","language_id":20},"transliteration":{"text":"ghayru","language_name":"english","language_id":38}},{"id":11573,"position":4,"audio_url":"wbw/074_010_004.mp3","char_type_name":"word","page_number":575,"line_number":12,"text":"يَسِيرٍۢ","translation":{"text":"সহজ","language_name":"bengali","language_id":20},"transliteration":{"text":"yasīrin","language_name":"english","language_id":38}},{"id":11574,"position":5,"audio_url":null,"char_type_name":"end","page_number":575,"line_number":12,"text":"١٠","translation":{"text":"(১০)","language_name":"bengali","language_id":20},"transliteration":{"text":null,"language_name":"english","language_id":38}}]}],"pagination":{"per_page":10,"current_page":1,"next_page":2,"total_pages":6,"total_records":56}}
