{"verses":[{"id":2594,"verse_number":111,"verse_key":"21:111","hizb_number":33,"rub_el_hizb_number":132,"ruku_number":284,"manzil_number":4,"sajdah_number":null,"page_number":331,"juz_number":17,"words":[{"id":74364,"position":1,"audio_url":"wbw/021_111_001.mp3","char_type_name":"word","page_number":331,"line_number":12,"text":"وَإِنْ","translation":{"text":"এবং না","language_name":"bengali","language_id":20},"transliteration":{"text":"wa-in","language_name":"english","language_id":38}},{"id":74365,"position":2,"audio_url":"wbw/021_111_002.mp3","char_type_name":"word","page_number":331,"line_number":12,"text":"أَدْرِى","translation":{"text":"আমি জানি (এছাড়া যে)","language_name":"bengali","language_id":20},"transliteration":{"text":"adrī","language_name":"english","language_id":38}},{"id":74366,"position":3,"audio_url":"wbw/021_111_003.mp3","char_type_name":"word","page_number":331,"line_number":13,"text":"لَعَلَّهُۥ","translation":{"text":"সেটা হয়তো","language_name":"bengali","language_id":20},"transliteration":{"text":"laʿallahu","language_name":"english","language_id":38}},{"id":74367,"position":4,"audio_url":"wbw/021_111_004.mp3","char_type_name":"word","page_number":331,"line_number":13,"text":"فِتْنَةٌۭ","translation":{"text":"পরীক্ষা","language_name":"bengali","language_id":20},"transliteration":{"text":"fit'natun","language_name":"english","language_id":38}},{"id":74368,"position":5,"audio_url":"wbw/021_111_005.mp3","char_type_name":"word","page_number":331,"line_number":13,"text":"لَّكُمْ","translation":{"text":"তোমাদের জন্যে","language_name":"bengali","language_id":20},"transliteration":{"text":"lakum","language_name":"english","language_id":38}},{"id":74369,"position":6,"audio_url":"wbw/021_111_006.mp3","char_type_name":"word","page_number":331,"line_number":13,"text":"وَمَتَـٰعٌ","translation":{"text":"ও জীবনোপভোগের (অবকাশ)","language_name":"bengali","language_id":20},"transliteration":{"text":"wamatāʿun","language_name":"english","language_id":38}},{"id":74370,"position":7,"audio_url":"wbw/021_111_007.mp3","char_type_name":"word","page_number":331,"line_number":13,"text":"إِلَىٰ","translation":{"text":"পর্যন্ত","language_name":"bengali","language_id":20},"transliteration":{"text":"ilā","language_name":"english","language_id":38}},{"id":74371,"position":8,"audio_url":"wbw/021_111_008.mp3","char_type_name":"word","page_number":331,"line_number":13,"text":"حِينٍۢ","translation":{"text":"কিছুকাল\"","language_name":"bengali","language_id":20},"transliteration":{"text":"ḥīnin","language_name":"english","language_id":38}},{"id":74372,"position":9,"audio_url":null,"char_type_name":"end","page_number":331,"line_number":13,"text":"١١١","translation":{"text":"(১১১)","language_name":"bengali","language_id":20},"transliteration":{"text":null,"language_name":"english","language_id":38}}]},{"id":2595,"verse_number":112,"verse_key":"21:112","hizb_number":33,"rub_el_hizb_number":132,"ruku_number":284,"manzil_number":4,"sajdah_number":null,"page_number":331,"juz_number":17,"words":[{"id":74704,"position":1,"audio_url":"wbw/021_112_001.mp3","char_type_name":"word","page_number":331,"line_number":13,"text":"قَـٰلَ","translation":{"text":"(শেষ পর্যন্ত রাসূল) বললো","language_name":"bengali","language_id":20},"transliteration":{"text":"qāla","language_name":"english","language_id":38}},{"id":74705,"position":2,"audio_url":"wbw/021_112_002.mp3","char_type_name":"word","page_number":331,"line_number":13,"text":"رَبِّ","translation":{"text":"\"হে আমার রব","language_name":"bengali","language_id":20},"transliteration":{"text":"rabbi","language_name":"english","language_id":38}},{"id":74706,"position":3,"audio_url":"wbw/021_112_003.mp3","char_type_name":"word","page_number":331,"line_number":13,"text":"ٱحْكُم","translation":{"text":"তুমি বিচার করে দাও","language_name":"bengali","language_id":20},"transliteration":{"text":"uḥ'kum","language_name":"english","language_id":38}},{"id":74707,"position":4,"audio_url":"wbw/021_112_004.mp3","char_type_name":"word","page_number":331,"line_number":14,"text":"بِٱلْحَقِّ ۗ","translation":{"text":"ভাবে ন্যায়","language_name":"bengali","language_id":20},"transliteration":{"text":"bil-ḥaqi","language_name":"english","language_id":38}},{"id":74709,"position":5,"audio_url":"wbw/021_112_006.mp3","char_type_name":"word","page_number":331,"line_number":14,"text":"وَرَبُّنَا","translation":{"text":"এবং আমাদের রব","language_name":"bengali","language_id":20},"transliteration":{"text":"warabbunā","language_name":"english","language_id":38}},{"id":74710,"position":6,"audio_url":"wbw/021_112_007.mp3","char_type_name":"word","page_number":331,"line_number":14,"text":"ٱلرَّحْمَـٰنُ","translation":{"text":"দয়াময়","language_name":"bengali","language_id":20},"transliteration":{"text":"l-raḥmānu","language_name":"english","language_id":38}},{"id":74711,"position":7,"audio_url":"wbw/021_112_008.mp3","char_type_name":"word","page_number":331,"line_number":14,"text":"ٱلْمُسْتَعَانُ","translation":{"text":"সহায়স্থল","language_name":"bengali","language_id":20},"transliteration":{"text":"l-mus'taʿānu","language_name":"english","language_id":38}},{"id":74712,"position":8,"audio_url":"wbw/021_112_009.mp3","char_type_name":"word","page_number":331,"line_number":14,"text":"عَلَىٰ","translation":{"text":"উপর","language_name":"bengali","language_id":20},"transliteration":{"text":"ʿalā","language_name":"english","language_id":38}},{"id":74713,"position":9,"audio_url":"wbw/021_112_010.mp3","char_type_name":"word","page_number":331,"line_number":14,"text":"مَا","translation":{"text":"যা","language_name":"bengali","language_id":20},"transliteration":{"text":"mā","language_name":"english","language_id":38}},{"id":74714,"position":10,"audio_url":"wbw/021_112_011.mp3","char_type_name":"word","page_number":331,"line_number":14,"text":"تَصِفُونَ","translation":{"text":"তোমরা বলছো\"","language_name":"bengali","language_id":20},"transliteration":{"text":"taṣifūna","language_name":"english","language_id":38}},{"id":74715,"position":11,"audio_url":null,"char_type_name":"end","page_number":331,"line_number":14,"text":"١١٢","translation":{"text":"(১১২)","language_name":"bengali","language_id":20},"transliteration":{"text":null,"language_name":"english","language_id":38}}]}],"pagination":{"per_page":10,"current_page":12,"next_page":null,"total_pages":12,"total_records":112}}
