{"verses":[{"id":2544,"verse_number":61,"verse_key":"21:61","hizb_number":33,"rub_el_hizb_number":131,"ruku_number":282,"manzil_number":4,"sajdah_number":null,"page_number":327,"juz_number":17,"words":[{"id":55037,"position":1,"audio_url":"wbw/021_061_001.mp3","char_type_name":"word","page_number":327,"line_number":3,"text":"قَالُوا۟","translation":{"text":"তারা বললো","language_name":"bengali","language_id":20},"transliteration":{"text":"qālū","language_name":"english","language_id":38}},{"id":55038,"position":2,"audio_url":"wbw/021_061_002.mp3","char_type_name":"word","page_number":327,"line_number":3,"text":"فَأْتُوا۟","translation":{"text":"\"তাহ'লে আসো","language_name":"bengali","language_id":20},"transliteration":{"text":"fatū","language_name":"english","language_id":38}},{"id":55039,"position":3,"audio_url":"wbw/021_061_003.mp3","char_type_name":"word","page_number":327,"line_number":4,"text":"بِهِۦ","translation":{"text":"নিয়ে তাকে","language_name":"bengali","language_id":20},"transliteration":{"text":"bihi","language_name":"english","language_id":38}},{"id":55040,"position":4,"audio_url":"wbw/021_061_004.mp3","char_type_name":"word","page_number":327,"line_number":4,"text":"عَلَىٰٓ","translation":{"text":"সামনে","language_name":"bengali","language_id":20},"transliteration":{"text":"ʿalā","language_name":"english","language_id":38}},{"id":55041,"position":5,"audio_url":"wbw/021_061_005.mp3","char_type_name":"word","page_number":327,"line_number":4,"text":"أَعْيُنِ","translation":{"text":"চোখের","language_name":"bengali","language_id":20},"transliteration":{"text":"aʿyuni","language_name":"english","language_id":38}},{"id":55042,"position":6,"audio_url":"wbw/021_061_006.mp3","char_type_name":"word","page_number":327,"line_number":4,"text":"ٱلنَّاسِ","translation":{"text":"লোকদের","language_name":"bengali","language_id":20},"transliteration":{"text":"l-nāsi","language_name":"english","language_id":38}},{"id":55043,"position":7,"audio_url":"wbw/021_061_007.mp3","char_type_name":"word","page_number":327,"line_number":4,"text":"لَعَلَّهُمْ","translation":{"text":"যাতে তারা","language_name":"bengali","language_id":20},"transliteration":{"text":"laʿallahum","language_name":"english","language_id":38}},{"id":55044,"position":8,"audio_url":"wbw/021_061_008.mp3","char_type_name":"word","page_number":327,"line_number":4,"text":"يَشْهَدُونَ","translation":{"text":"সাক্ষ্য দিতে পারে\"","language_name":"bengali","language_id":20},"transliteration":{"text":"yashhadūna","language_name":"english","language_id":38}},{"id":55045,"position":9,"audio_url":null,"char_type_name":"end","page_number":327,"line_number":4,"text":"٦١","translation":{"text":"(৬১)","language_name":"bengali","language_id":20},"transliteration":{"text":null,"language_name":"english","language_id":38}}]},{"id":2545,"verse_number":62,"verse_key":"21:62","hizb_number":33,"rub_el_hizb_number":131,"ruku_number":282,"manzil_number":4,"sajdah_number":null,"page_number":327,"juz_number":17,"words":[{"id":55648,"position":1,"audio_url":"wbw/021_062_001.mp3","char_type_name":"word","page_number":327,"line_number":4,"text":"قَالُوٓا۟","translation":{"text":"তারা বললো","language_name":"bengali","language_id":20},"transliteration":{"text":"qālū","language_name":"english","language_id":38}},{"id":55649,"position":2,"audio_url":"wbw/021_062_002.mp3","char_type_name":"word","page_number":327,"line_number":4,"text":"ءَأَنتَ","translation":{"text":"\"কি তুমি","language_name":"bengali","language_id":20},"transliteration":{"text":"a-anta","language_name":"english","language_id":38}},{"id":55650,"position":3,"audio_url":"wbw/021_062_003.mp3","char_type_name":"word","page_number":327,"line_number":5,"text":"فَعَلْتَ","translation":{"text":"করেছো","language_name":"bengali","language_id":20},"transliteration":{"text":"faʿalta","language_name":"english","language_id":38}},{"id":55651,"position":4,"audio_url":"wbw/021_062_004.mp3","char_type_name":"word","page_number":327,"line_number":5,"text":"هَـٰذَا","translation":{"text":"এটা","language_name":"bengali","language_id":20},"transliteration":{"text":"hādhā","language_name":"english","language_id":38}},{"id":55652,"position":5,"audio_url":"wbw/021_062_005.mp3","char_type_name":"word","page_number":327,"line_number":5,"text":"بِـَٔالِهَتِنَا","translation":{"text":"সাথে আমাদের ইলাহগুলোর","language_name":"bengali","language_id":20},"transliteration":{"text":"biālihatinā","language_name":"english","language_id":38}},{"id":55653,"position":6,"audio_url":"wbw/021_062_006.mp3","char_type_name":"word","page_number":327,"line_number":5,"text":"يَـٰٓإِبْرَٰهِيمُ","translation":{"text":"হে ইবরাহীম\"","language_name":"bengali","language_id":20},"transliteration":{"text":"yāib'rāhīmu","language_name":"english","language_id":38}},{"id":55654,"position":7,"audio_url":null,"char_type_name":"end","page_number":327,"line_number":5,"text":"٦٢","translation":{"text":"(৬২)","language_name":"bengali","language_id":20},"transliteration":{"text":null,"language_name":"english","language_id":38}}]},{"id":2546,"verse_number":63,"verse_key":"21:63","hizb_number":33,"rub_el_hizb_number":131,"ruku_number":282,"manzil_number":4,"sajdah_number":null,"page_number":327,"juz_number":17,"words":[{"id":56146,"position":1,"audio_url":"wbw/021_063_001.mp3","char_type_name":"word","page_number":327,"line_number":5,"text":"قَالَ","translation":{"text":"সে বললো","language_name":"bengali","language_id":20},"transliteration":{"text":"qāla","language_name":"english","language_id":38}},{"id":56147,"position":2,"audio_url":"wbw/021_063_002.mp3","char_type_name":"word","page_number":327,"line_number":5,"text":"بَلْ","translation":{"text":"\"বরং","language_name":"bengali","language_id":20},"transliteration":{"text":"bal","language_name":"english","language_id":38}},{"id":56148,"position":3,"audio_url":"wbw/021_063_003.mp3","char_type_name":"word","page_number":327,"line_number":5,"text":"فَعَلَهُۥ","translation":{"text":"তা করেছে","language_name":"bengali","language_id":20},"transliteration":{"text":"faʿalahu","language_name":"english","language_id":38}},{"id":56149,"position":4,"audio_url":"wbw/021_063_004.mp3","char_type_name":"word","page_number":327,"line_number":5,"text":"كَبِيرُهُمْ","translation":{"text":"প্রধান তাদের","language_name":"bengali","language_id":20},"transliteration":{"text":"kabīruhum","language_name":"english","language_id":38}},{"id":56150,"position":5,"audio_url":"wbw/021_063_005.mp3","char_type_name":"word","page_number":327,"line_number":6,"text":"هَـٰذَا","translation":{"text":"এটা","language_name":"bengali","language_id":20},"transliteration":{"text":"hādhā","language_name":"english","language_id":38}},{"id":56151,"position":6,"audio_url":"wbw/021_063_006.mp3","char_type_name":"word","page_number":327,"line_number":6,"text":"فَسْـَٔلُوهُمْ","translation":{"text":"তবে তাদেরকে জিজ্ঞেস করো","language_name":"bengali","language_id":20},"transliteration":{"text":"fasalūhum","language_name":"english","language_id":38}},{"id":56152,"position":7,"audio_url":"wbw/021_063_007.mp3","char_type_name":"word","page_number":327,"line_number":6,"text":"إِن","translation":{"text":"যদি","language_name":"bengali","language_id":20},"transliteration":{"text":"in","language_name":"english","language_id":38}},{"id":56153,"position":8,"audio_url":"wbw/021_063_008.mp3","char_type_name":"word","page_number":327,"line_number":6,"text":"كَانُوا۟","translation":{"text":"তারা ছিলো","language_name":"bengali","language_id":20},"transliteration":{"text":"kānū","language_name":"english","language_id":38}},{"id":56154,"position":9,"audio_url":"wbw/021_063_009.mp3","char_type_name":"word","page_number":327,"line_number":6,"text":"يَنطِقُونَ","translation":{"text":"কথা বলতে পারে\"","language_name":"bengali","language_id":20},"transliteration":{"text":"yanṭiqūna","language_name":"english","language_id":38}},{"id":56155,"position":10,"audio_url":null,"char_type_name":"end","page_number":327,"line_number":6,"text":"٦٣","translation":{"text":"(৬৩)","language_name":"bengali","language_id":20},"transliteration":{"text":null,"language_name":"english","language_id":38}}]},{"id":2547,"verse_number":64,"verse_key":"21:64","hizb_number":33,"rub_el_hizb_number":131,"ruku_number":282,"manzil_number":4,"sajdah_number":null,"page_number":327,"juz_number":17,"words":[{"id":56628,"position":1,"audio_url":"wbw/021_064_001.mp3","char_type_name":"word","page_number":327,"line_number":6,"text":"فَرَجَعُوٓا۟","translation":{"text":"তখন তারা ফিরে এলো","language_name":"bengali","language_id":20},"transliteration":{"text":"farajaʿū","language_name":"english","language_id":38}},{"id":56629,"position":2,"audio_url":"wbw/021_064_002.mp3","char_type_name":"word","page_number":327,"line_number":6,"text":"إِلَىٰٓ","translation":{"text":"প্রতি","language_name":"bengali","language_id":20},"transliteration":{"text":"ilā","language_name":"english","language_id":38}},{"id":56630,"position":3,"audio_url":"wbw/021_064_003.mp3","char_type_name":"word","page_number":327,"line_number":7,"text":"أَنفُسِهِمْ","translation":{"text":"তাদের মনের","language_name":"bengali","language_id":20},"transliteration":{"text":"anfusihim","language_name":"english","language_id":38}},{"id":56631,"position":4,"audio_url":"wbw/021_064_004.mp3","char_type_name":"word","page_number":327,"line_number":7,"text":"فَقَالُوٓا۟","translation":{"text":"অতঃপর তারা বললো","language_name":"bengali","language_id":20},"transliteration":{"text":"faqālū","language_name":"english","language_id":38}},{"id":56632,"position":5,"audio_url":"wbw/021_064_005.mp3","char_type_name":"word","page_number":327,"line_number":7,"text":"إِنَّكُمْ","translation":{"text":"\"তোমরা নিশ্চয়ই","language_name":"bengali","language_id":20},"transliteration":{"text":"innakum","language_name":"english","language_id":38}},{"id":56633,"position":6,"audio_url":"wbw/021_064_006.mp3","char_type_name":"word","page_number":327,"line_number":7,"text":"أَنتُمُ","translation":{"text":"তোমরাই","language_name":"bengali","language_id":20},"transliteration":{"text":"antumu","language_name":"english","language_id":38}},{"id":56634,"position":7,"audio_url":"wbw/021_064_007.mp3","char_type_name":"word","page_number":327,"line_number":7,"text":"ٱلظَّـٰلِمُونَ","translation":{"text":"সীমালঙ্ঘনকারী\"","language_name":"bengali","language_id":20},"transliteration":{"text":"l-ẓālimūna","language_name":"english","language_id":38}},{"id":56635,"position":8,"audio_url":null,"char_type_name":"end","page_number":327,"line_number":7,"text":"٦٤","translation":{"text":"(৬৪)","language_name":"bengali","language_id":20},"transliteration":{"text":null,"language_name":"english","language_id":38}}]},{"id":2548,"verse_number":65,"verse_key":"21:65","hizb_number":33,"rub_el_hizb_number":131,"ruku_number":282,"manzil_number":4,"sajdah_number":null,"page_number":327,"juz_number":17,"words":[{"id":57156,"position":1,"audio_url":"wbw/021_065_001.mp3","char_type_name":"word","page_number":327,"line_number":7,"text":"ثُمَّ","translation":{"text":"এরপর","language_name":"bengali","language_id":20},"transliteration":{"text":"thumma","language_name":"english","language_id":38}},{"id":57157,"position":2,"audio_url":"wbw/021_065_002.mp3","char_type_name":"word","page_number":327,"line_number":7,"text":"نُكِسُوا۟","translation":{"text":"অবনত হয়ে গেলো","language_name":"bengali","language_id":20},"transliteration":{"text":"nukisū","language_name":"english","language_id":38}},{"id":57158,"position":3,"audio_url":"wbw/021_065_003.mp3","char_type_name":"word","page_number":327,"line_number":8,"text":"عَلَىٰ","translation":{"text":"ওপর","language_name":"bengali","language_id":20},"transliteration":{"text":"ʿalā","language_name":"english","language_id":38}},{"id":57159,"position":4,"audio_url":"wbw/021_065_004.mp3","char_type_name":"word","page_number":327,"line_number":8,"text":"رُءُوسِهِمْ","translation":{"text":"তাদের মস্তকগুলোর","language_name":"bengali","language_id":20},"transliteration":{"text":"ruūsihim","language_name":"english","language_id":38}},{"id":57160,"position":5,"audio_url":"wbw/021_065_005.mp3","char_type_name":"word","page_number":327,"line_number":8,"text":"لَقَدْ","translation":{"text":"\"(এবং বলল) নিশ্চয়ই","language_name":"bengali","language_id":20},"transliteration":{"text":"laqad","language_name":"english","language_id":38}},{"id":57161,"position":6,"audio_url":"wbw/021_065_006.mp3","char_type_name":"word","page_number":327,"line_number":8,"text":"عَلِمْتَ","translation":{"text":"তুমি জেনেছো","language_name":"bengali","language_id":20},"transliteration":{"text":"ʿalim'ta","language_name":"english","language_id":38}},{"id":57162,"position":7,"audio_url":"wbw/021_065_007.mp3","char_type_name":"word","page_number":327,"line_number":8,"text":"مَا","translation":{"text":"না","language_name":"bengali","language_id":20},"transliteration":{"text":"mā","language_name":"english","language_id":38}},{"id":57163,"position":8,"audio_url":"wbw/021_065_008.mp3","char_type_name":"word","page_number":327,"line_number":8,"text":"هَـٰٓؤُلَآءِ","translation":{"text":"এরা সব","language_name":"bengali","language_id":20},"transliteration":{"text":"hāulāi","language_name":"english","language_id":38}},{"id":57164,"position":9,"audio_url":"wbw/021_065_009.mp3","char_type_name":"word","page_number":327,"line_number":8,"text":"يَنطِقُونَ","translation":{"text":"কথা বলতে পারে\"","language_name":"bengali","language_id":20},"transliteration":{"text":"yanṭiqūna","language_name":"english","language_id":38}},{"id":57165,"position":10,"audio_url":null,"char_type_name":"end","page_number":327,"line_number":8,"text":"٦٥","translation":{"text":"(৬৫)","language_name":"bengali","language_id":20},"transliteration":{"text":null,"language_name":"english","language_id":38}}]},{"id":2549,"verse_number":66,"verse_key":"21:66","hizb_number":33,"rub_el_hizb_number":131,"ruku_number":282,"manzil_number":4,"sajdah_number":null,"page_number":327,"juz_number":17,"words":[{"id":57680,"position":1,"audio_url":"wbw/021_066_001.mp3","char_type_name":"word","page_number":327,"line_number":8,"text":"قَالَ","translation":{"text":"সে বললো","language_name":"bengali","language_id":20},"transliteration":{"text":"qāla","language_name":"english","language_id":38}},{"id":57681,"position":2,"audio_url":"wbw/021_066_002.mp3","char_type_name":"word","page_number":327,"line_number":9,"text":"أَفَتَعْبُدُونَ","translation":{"text":"\"কি তবুও তোমরা ইবাদাত করবে","language_name":"bengali","language_id":20},"transliteration":{"text":"afataʿbudūna","language_name":"english","language_id":38}},{"id":57682,"position":3,"audio_url":"wbw/021_066_003.mp3","char_type_name":"word","page_number":327,"line_number":9,"text":"مِن","translation":{"text":"থেকে","language_name":"bengali","language_id":20},"transliteration":{"text":"min","language_name":"english","language_id":38}},{"id":57683,"position":4,"audio_url":"wbw/021_066_004.mp3","char_type_name":"word","page_number":327,"line_number":9,"text":"دُونِ","translation":{"text":"ছাড়া","language_name":"bengali","language_id":20},"transliteration":{"text":"dūni","language_name":"english","language_id":38}},{"id":57684,"position":5,"audio_url":"wbw/021_066_005.mp3","char_type_name":"word","page_number":327,"line_number":9,"text":"ٱللَّهِ","translation":{"text":"আল্লাহ","language_name":"bengali","language_id":20},"transliteration":{"text":"l-lahi","language_name":"english","language_id":38}},{"id":57685,"position":6,"audio_url":"wbw/021_066_006.mp3","char_type_name":"word","page_number":327,"line_number":9,"text":"مَا","translation":{"text":"যা","language_name":"bengali","language_id":20},"transliteration":{"text":"mā","language_name":"english","language_id":38}},{"id":57686,"position":7,"audio_url":"wbw/021_066_007.mp3","char_type_name":"word","page_number":327,"line_number":9,"text":"لَا","translation":{"text":"না","language_name":"bengali","language_id":20},"transliteration":{"text":"lā","language_name":"english","language_id":38}},{"id":57687,"position":8,"audio_url":"wbw/021_066_008.mp3","char_type_name":"word","page_number":327,"line_number":9,"text":"يَنفَعُكُمْ","translation":{"text":"তোমাদের উপকার করতে পারে","language_name":"bengali","language_id":20},"transliteration":{"text":"yanfaʿukum","language_name":"english","language_id":38}},{"id":57688,"position":9,"audio_url":"wbw/021_066_009.mp3","char_type_name":"word","page_number":327,"line_number":9,"text":"شَيْـًۭٔا","translation":{"text":"কিছুমাত্র","language_name":"bengali","language_id":20},"transliteration":{"text":"shayan","language_name":"english","language_id":38}},{"id":57689,"position":10,"audio_url":"wbw/021_066_010.mp3","char_type_name":"word","page_number":327,"line_number":9,"text":"وَلَا","translation":{"text":"আর না","language_name":"bengali","language_id":20},"transliteration":{"text":"walā","language_name":"english","language_id":38}},{"id":57690,"position":11,"audio_url":"wbw/021_066_011.mp3","char_type_name":"word","page_number":327,"line_number":10,"text":"يَضُرُّكُمْ","translation":{"text":"তোমাদের ক্ষতি করতে পারে","language_name":"bengali","language_id":20},"transliteration":{"text":"yaḍurrukum","language_name":"english","language_id":38}},{"id":57691,"position":12,"audio_url":null,"char_type_name":"end","page_number":327,"line_number":10,"text":"٦٦","translation":{"text":"(৬৬)","language_name":"bengali","language_id":20},"transliteration":{"text":null,"language_name":"english","language_id":38}}]},{"id":2550,"verse_number":67,"verse_key":"21:67","hizb_number":33,"rub_el_hizb_number":131,"ruku_number":282,"manzil_number":4,"sajdah_number":null,"page_number":327,"juz_number":17,"words":[{"id":58044,"position":1,"audio_url":"wbw/021_067_001.mp3","char_type_name":"word","page_number":327,"line_number":10,"text":"أُفٍّۢ","translation":{"text":"ধিক","language_name":"bengali","language_id":20},"transliteration":{"text":"uffin","language_name":"english","language_id":38}},{"id":58045,"position":2,"audio_url":"wbw/021_067_002.mp3","char_type_name":"word","page_number":327,"line_number":10,"text":"لَّكُمْ","translation":{"text":"জন্যে তোমাদের","language_name":"bengali","language_id":20},"transliteration":{"text":"lakum","language_name":"english","language_id":38}},{"id":58046,"position":3,"audio_url":"wbw/021_067_003.mp3","char_type_name":"word","page_number":327,"line_number":10,"text":"وَلِمَا","translation":{"text":"এবং (তাদের) জন্যেও যাদের","language_name":"bengali","language_id":20},"transliteration":{"text":"walimā","language_name":"english","language_id":38}},{"id":58047,"position":4,"audio_url":"wbw/021_067_004.mp3","char_type_name":"word","page_number":327,"line_number":10,"text":"تَعْبُدُونَ","translation":{"text":"তোমরা উপাসনা করো","language_name":"bengali","language_id":20},"transliteration":{"text":"taʿbudūna","language_name":"english","language_id":38}},{"id":58048,"position":5,"audio_url":"wbw/021_067_005.mp3","char_type_name":"word","page_number":327,"line_number":10,"text":"مِن","translation":{"text":"থেকে","language_name":"bengali","language_id":20},"transliteration":{"text":"min","language_name":"english","language_id":38}},{"id":58049,"position":6,"audio_url":"wbw/021_067_006.mp3","char_type_name":"word","page_number":327,"line_number":10,"text":"دُونِ","translation":{"text":"ছাড়া","language_name":"bengali","language_id":20},"transliteration":{"text":"dūni","language_name":"english","language_id":38}},{"id":58050,"position":7,"audio_url":"wbw/021_067_007.mp3","char_type_name":"word","page_number":327,"line_number":10,"text":"ٱللَّهِ ۖ","translation":{"text":"আল্লাহ","language_name":"bengali","language_id":20},"transliteration":{"text":"l-lahi","language_name":"english","language_id":38}},{"id":58052,"position":8,"audio_url":"wbw/021_067_009.mp3","char_type_name":"word","page_number":327,"line_number":11,"text":"أَفَلَا","translation":{"text":"কি তবুও না","language_name":"bengali","language_id":20},"transliteration":{"text":"afalā","language_name":"english","language_id":38}},{"id":58053,"position":9,"audio_url":"wbw/021_067_010.mp3","char_type_name":"word","page_number":327,"line_number":11,"text":"تَعْقِلُونَ","translation":{"text":"তোমরা বুঝবে\"","language_name":"bengali","language_id":20},"transliteration":{"text":"taʿqilūna","language_name":"english","language_id":38}},{"id":58054,"position":10,"audio_url":null,"char_type_name":"end","page_number":327,"line_number":11,"text":"٦٧","translation":{"text":"(৬৭)","language_name":"bengali","language_id":20},"transliteration":{"text":null,"language_name":"english","language_id":38}}]},{"id":2551,"verse_number":68,"verse_key":"21:68","hizb_number":33,"rub_el_hizb_number":131,"ruku_number":282,"manzil_number":4,"sajdah_number":null,"page_number":327,"juz_number":17,"words":[{"id":58763,"position":1,"audio_url":"wbw/021_068_001.mp3","char_type_name":"word","page_number":327,"line_number":11,"text":"قَالُوا۟","translation":{"text":"তারা বললো","language_name":"bengali","language_id":20},"transliteration":{"text":"qālū","language_name":"english","language_id":38}},{"id":58764,"position":2,"audio_url":"wbw/021_068_002.mp3","char_type_name":"word","page_number":327,"line_number":11,"text":"حَرِّقُوهُ","translation":{"text":"\"তাকে পুড়িয়ে ফেলো","language_name":"bengali","language_id":20},"transliteration":{"text":"ḥarriqūhu","language_name":"english","language_id":38}},{"id":58765,"position":3,"audio_url":"wbw/021_068_003.mp3","char_type_name":"word","page_number":327,"line_number":11,"text":"وَٱنصُرُوٓا۟","translation":{"text":"এবং তোমরা সাহায্য করো","language_name":"bengali","language_id":20},"transliteration":{"text":"wa-unṣurū","language_name":"english","language_id":38}},{"id":58766,"position":4,"audio_url":"wbw/021_068_004.mp3","char_type_name":"word","page_number":327,"line_number":11,"text":"ءَالِهَتَكُمْ","translation":{"text":"তোমাদের দেবতাগুলোকে","language_name":"bengali","language_id":20},"transliteration":{"text":"ālihatakum","language_name":"english","language_id":38}},{"id":58767,"position":5,"audio_url":"wbw/021_068_005.mp3","char_type_name":"word","page_number":327,"line_number":11,"text":"إِن","translation":{"text":"যদি","language_name":"bengali","language_id":20},"transliteration":{"text":"in","language_name":"english","language_id":38}},{"id":58768,"position":6,"audio_url":"wbw/021_068_006.mp3","char_type_name":"word","page_number":327,"line_number":11,"text":"كُنتُمْ","translation":{"text":"তোমরা ছিলে","language_name":"bengali","language_id":20},"transliteration":{"text":"kuntum","language_name":"english","language_id":38}},{"id":58769,"position":7,"audio_url":"wbw/021_068_007.mp3","char_type_name":"word","page_number":327,"line_number":12,"text":"فَـٰعِلِينَ","translation":{"text":"করতে পারো\"","language_name":"bengali","language_id":20},"transliteration":{"text":"fāʿilīna","language_name":"english","language_id":38}},{"id":58770,"position":8,"audio_url":null,"char_type_name":"end","page_number":327,"line_number":12,"text":"٦٨","translation":{"text":"(৬৮)","language_name":"bengali","language_id":20},"transliteration":{"text":null,"language_name":"english","language_id":38}}]},{"id":2552,"verse_number":69,"verse_key":"21:69","hizb_number":33,"rub_el_hizb_number":131,"ruku_number":282,"manzil_number":4,"sajdah_number":null,"page_number":327,"juz_number":17,"words":[{"id":58989,"position":1,"audio_url":"wbw/021_069_001.mp3","char_type_name":"word","page_number":327,"line_number":12,"text":"قُلْنَا","translation":{"text":"আমরা বললাম","language_name":"bengali","language_id":20},"transliteration":{"text":"qul'nā","language_name":"english","language_id":38}},{"id":58990,"position":2,"audio_url":"wbw/021_069_002.mp3","char_type_name":"word","page_number":327,"line_number":12,"text":"يَـٰنَارُ","translation":{"text":"\"হে আগুন","language_name":"bengali","language_id":20},"transliteration":{"text":"yānāru","language_name":"english","language_id":38}},{"id":58991,"position":3,"audio_url":"wbw/021_069_003.mp3","char_type_name":"word","page_number":327,"line_number":12,"text":"كُونِى","translation":{"text":"হয়ে যাও","language_name":"bengali","language_id":20},"transliteration":{"text":"kūnī","language_name":"english","language_id":38}},{"id":58992,"position":4,"audio_url":"wbw/021_069_004.mp3","char_type_name":"word","page_number":327,"line_number":12,"text":"بَرْدًۭا","translation":{"text":"শীতল","language_name":"bengali","language_id":20},"transliteration":{"text":"bardan","language_name":"english","language_id":38}},{"id":58993,"position":5,"audio_url":"wbw/021_069_005.mp3","char_type_name":"word","page_number":327,"line_number":12,"text":"وَسَلَـٰمًا","translation":{"text":"ও নিরাপদ","language_name":"bengali","language_id":20},"transliteration":{"text":"wasalāman","language_name":"english","language_id":38}},{"id":58994,"position":6,"audio_url":"wbw/021_069_006.mp3","char_type_name":"word","page_number":327,"line_number":12,"text":"عَلَىٰٓ","translation":{"text":"জন্যে","language_name":"bengali","language_id":20},"transliteration":{"text":"ʿalā","language_name":"english","language_id":38}},{"id":58995,"position":7,"audio_url":"wbw/021_069_007.mp3","char_type_name":"word","page_number":327,"line_number":12,"text":"إِبْرَٰهِيمَ","translation":{"text":"ইবরাহীমের\"","language_name":"bengali","language_id":20},"transliteration":{"text":"ib'rāhīma","language_name":"english","language_id":38}},{"id":58996,"position":8,"audio_url":null,"char_type_name":"end","page_number":327,"line_number":13,"text":"٦٩","translation":{"text":"(৬৯)","language_name":"bengali","language_id":20},"transliteration":{"text":null,"language_name":"english","language_id":38}}]},{"id":2553,"verse_number":70,"verse_key":"21:70","hizb_number":33,"rub_el_hizb_number":131,"ruku_number":282,"manzil_number":4,"sajdah_number":null,"page_number":327,"juz_number":17,"words":[{"id":59450,"position":1,"audio_url":"wbw/021_070_001.mp3","char_type_name":"word","page_number":327,"line_number":13,"text":"وَأَرَادُوا۟","translation":{"text":"এবং তারা চেয়েছিলো","language_name":"bengali","language_id":20},"transliteration":{"text":"wa-arādū","language_name":"english","language_id":38}},{"id":59451,"position":2,"audio_url":"wbw/021_070_002.mp3","char_type_name":"word","page_number":327,"line_number":13,"text":"بِهِۦ","translation":{"text":"সাথে তার","language_name":"bengali","language_id":20},"transliteration":{"text":"bihi","language_name":"english","language_id":38}},{"id":59452,"position":3,"audio_url":"wbw/021_070_003.mp3","char_type_name":"word","page_number":327,"line_number":13,"text":"كَيْدًۭا","translation":{"text":"এক ফন্দি আঁটতে","language_name":"bengali","language_id":20},"transliteration":{"text":"kaydan","language_name":"english","language_id":38}},{"id":59453,"position":4,"audio_url":"wbw/021_070_004.mp3","char_type_name":"word","page_number":327,"line_number":13,"text":"فَجَعَلْنَـٰهُمُ","translation":{"text":"কিন্তু তাদেরকে আমরা করে দিয়েছিলাম","language_name":"bengali","language_id":20},"transliteration":{"text":"fajaʿalnāhumu","language_name":"english","language_id":38}},{"id":59454,"position":5,"audio_url":"wbw/021_070_005.mp3","char_type_name":"word","page_number":327,"line_number":13,"text":"ٱلْأَخْسَرِينَ","translation":{"text":"সর্বাধিক ক্ষতিগ্রস্ত","language_name":"bengali","language_id":20},"transliteration":{"text":"l-akhsarīna","language_name":"english","language_id":38}},{"id":59455,"position":6,"audio_url":null,"char_type_name":"end","page_number":327,"line_number":13,"text":"٧٠","translation":{"text":"(৭০)","language_name":"bengali","language_id":20},"transliteration":{"text":null,"language_name":"english","language_id":38}}]}],"pagination":{"per_page":10,"current_page":7,"next_page":8,"total_pages":12,"total_records":112}}
