{"verses":[{"id":5920,"verse_number":11,"verse_key":"85:11","hizb_number":59,"rub_el_hizb_number":236,"ruku_number":529,"manzil_number":7,"sajdah_number":null,"page_number":590,"juz_number":30,"words":[{"id":13024,"position":1,"audio_url":"wbw/085_011_001.mp3","verse_key":"85:11","verse_id":5920,"location":"85:11:1","text_uthmani":"إِنَّ","qpc_uthmani_hafs":"إِنَّ","char_type_name":"word","page_number":590,"line_number":10,"text":"إِنَّ","translation":{"text":"Indeed","language_name":"english","language_id":38},"transliteration":{"text":"inna","language_name":"english","language_id":38}},{"id":13025,"position":2,"audio_url":"wbw/085_011_002.mp3","verse_key":"85:11","verse_id":5920,"location":"85:11:2","text_uthmani":"ٱلَّذِينَ","qpc_uthmani_hafs":"ٱلَّذِينَ","char_type_name":"word","page_number":590,"line_number":10,"text":"ٱلَّذِينَ","translation":{"text":"those who","language_name":"english","language_id":38},"transliteration":{"text":"alladhīna","language_name":"english","language_id":38}},{"id":13026,"position":3,"audio_url":"wbw/085_011_003.mp3","verse_key":"85:11","verse_id":5920,"location":"85:11:3","text_uthmani":"ءَامَنُوا۟","qpc_uthmani_hafs":"ءَامَنُواْ","char_type_name":"word","page_number":590,"line_number":10,"text":"ءَامَنُواْ","translation":{"text":"believe","language_name":"english","language_id":38},"transliteration":{"text":"āmanū","language_name":"english","language_id":38}},{"id":13027,"position":4,"audio_url":"wbw/085_011_004.mp3","verse_key":"85:11","verse_id":5920,"location":"85:11:4","text_uthmani":"وَعَمِلُوا۟","qpc_uthmani_hafs":"وَعَمِلُواْ","char_type_name":"word","page_number":590,"line_number":10,"text":"وَعَمِلُواْ","translation":{"text":"and do","language_name":"english","language_id":38},"transliteration":{"text":"waʿamilū","language_name":"english","language_id":38}},{"id":13028,"position":5,"audio_url":"wbw/085_011_005.mp3","verse_key":"85:11","verse_id":5920,"location":"85:11:5","text_uthmani":"ٱلصَّـٰلِحَـٰتِ","qpc_uthmani_hafs":"ٱلصَّٰلِحَٰتِ","char_type_name":"word","page_number":590,"line_number":10,"text":"ٱلصَّٰلِحَٰتِ","translation":{"text":"the righteous deeds","language_name":"english","language_id":38},"transliteration":{"text":"l-ṣāliḥāti","language_name":"english","language_id":38}},{"id":13029,"position":6,"audio_url":"wbw/085_011_006.mp3","verse_key":"85:11","verse_id":5920,"location":"85:11:6","text_uthmani":"لَهُمْ","qpc_uthmani_hafs":"لَهُمۡ","char_type_name":"word","page_number":590,"line_number":10,"text":"لَهُمۡ","translation":{"text":"for them","language_name":"english","language_id":38},"transliteration":{"text":"lahum","language_name":"english","language_id":38}},{"id":13030,"position":7,"audio_url":"wbw/085_011_007.mp3","verse_key":"85:11","verse_id":5920,"location":"85:11:7","text_uthmani":"جَنَّـٰتٌۭ","qpc_uthmani_hafs":"جَنَّٰتٞ","char_type_name":"word","page_number":590,"line_number":11,"text":"جَنَّٰتٞ","translation":{"text":"(will be) Gardens","language_name":"english","language_id":38},"transliteration":{"text":"jannātun","language_name":"english","language_id":38}},{"id":13031,"position":8,"audio_url":"wbw/085_011_008.mp3","verse_key":"85:11","verse_id":5920,"location":"85:11:8","text_uthmani":"تَجْرِى","qpc_uthmani_hafs":"تَجۡرِي","char_type_name":"word","page_number":590,"line_number":11,"text":"تَجۡرِي","translation":{"text":"flow","language_name":"english","language_id":38},"transliteration":{"text":"tajrī","language_name":"english","language_id":38}},{"id":13032,"position":9,"audio_url":"wbw/085_011_009.mp3","verse_key":"85:11","verse_id":5920,"location":"85:11:9","text_uthmani":"مِن","qpc_uthmani_hafs":"مِن","char_type_name":"word","page_number":590,"line_number":11,"text":"مِن","translation":{"text":"from","language_name":"english","language_id":38},"transliteration":{"text":"min","language_name":"english","language_id":38}},{"id":13033,"position":10,"audio_url":"wbw/085_011_010.mp3","verse_key":"85:11","verse_id":5920,"location":"85:11:10","text_uthmani":"تَحْتِهَا","qpc_uthmani_hafs":"تَحۡتِهَا","char_type_name":"word","page_number":590,"line_number":11,"text":"تَحۡتِهَا","translation":{"text":"underneath it","language_name":"english","language_id":38},"transliteration":{"text":"taḥtihā","language_name":"english","language_id":38}},{"id":13034,"position":11,"audio_url":"wbw/085_011_011.mp3","verse_key":"85:11","verse_id":5920,"location":"85:11:11","text_uthmani":"ٱلْأَنْهَـٰرُ ۚ","qpc_uthmani_hafs":"ٱلۡأَنۡهَٰرُۚ","char_type_name":"word","page_number":590,"line_number":11,"text":"ٱلۡأَنۡهَٰرُۚ","translation":{"text":"the rivers","language_name":"english","language_id":38},"transliteration":{"text":"l-anhāru","language_name":"english","language_id":38}},{"id":13036,"position":12,"audio_url":"wbw/085_011_013.mp3","verse_key":"85:11","verse_id":5920,"location":"85:11:12","text_uthmani":"ذَٰلِكَ","qpc_uthmani_hafs":"ذَٰلِكَ","char_type_name":"word","page_number":590,"line_number":11,"text":"ذَٰلِكَ","translation":{"text":"That","language_name":"english","language_id":38},"transliteration":{"text":"dhālika","language_name":"english","language_id":38}},{"id":13037,"position":13,"audio_url":"wbw/085_011_014.mp3","verse_key":"85:11","verse_id":5920,"location":"85:11:13","text_uthmani":"ٱلْفَوْزُ","qpc_uthmani_hafs":"ٱلۡفَوۡزُ","char_type_name":"word","page_number":590,"line_number":11,"text":"ٱلۡفَوۡزُ","translation":{"text":"(is) the success","language_name":"english","language_id":38},"transliteration":{"text":"l-fawzu","language_name":"english","language_id":38}},{"id":13038,"position":14,"audio_url":"wbw/085_011_015.mp3","verse_key":"85:11","verse_id":5920,"location":"85:11:14","text_uthmani":"ٱلْكَبِيرُ","qpc_uthmani_hafs":"ٱلۡكَبِيرُ","char_type_name":"word","page_number":590,"line_number":11,"text":"ٱلۡكَبِيرُ","translation":{"text":"the great","language_name":"english","language_id":38},"transliteration":{"text":"l-kabīru","language_name":"english","language_id":38}},{"id":13039,"position":15,"audio_url":null,"verse_key":"85:11","verse_id":5920,"location":"85:11:15","text_uthmani":"١١","qpc_uthmani_hafs":"١١","char_type_name":"end","page_number":590,"line_number":11,"text":"١١","translation":{"text":"(11)","language_name":"english","language_id":38},"transliteration":{"text":null,"language_name":"english","language_id":38}}]},{"id":5921,"verse_number":12,"verse_key":"85:12","hizb_number":59,"rub_el_hizb_number":236,"ruku_number":529,"manzil_number":7,"sajdah_number":null,"page_number":590,"juz_number":30,"words":[{"id":14282,"position":1,"audio_url":"wbw/085_012_001.mp3","verse_key":"85:12","verse_id":5921,"location":"85:12:1","text_uthmani":"إِنَّ","qpc_uthmani_hafs":"إِنَّ","char_type_name":"word","page_number":590,"line_number":11,"text":"إِنَّ","translation":{"text":"Indeed","language_name":"english","language_id":38},"transliteration":{"text":"inna","language_name":"english","language_id":38}},{"id":14283,"position":2,"audio_url":"wbw/085_012_002.mp3","verse_key":"85:12","verse_id":5921,"location":"85:12:2","text_uthmani":"بَطْشَ","qpc_uthmani_hafs":"بَطۡشَ","char_type_name":"word","page_number":590,"line_number":11,"text":"بَطۡشَ","translation":{"text":"(the) Grip","language_name":"english","language_id":38},"transliteration":{"text":"baṭsha","language_name":"english","language_id":38}},{"id":14284,"position":3,"audio_url":"wbw/085_012_003.mp3","verse_key":"85:12","verse_id":5921,"location":"85:12:3","text_uthmani":"رَبِّكَ","qpc_uthmani_hafs":"رَبِّكَ","char_type_name":"word","page_number":590,"line_number":12,"text":"رَبِّكَ","translation":{"text":"(of) your Lord","language_name":"english","language_id":38},"transliteration":{"text":"rabbika","language_name":"english","language_id":38}},{"id":14285,"position":4,"audio_url":"wbw/085_012_004.mp3","verse_key":"85:12","verse_id":5921,"location":"85:12:4","text_uthmani":"لَشَدِيدٌ","qpc_uthmani_hafs":"لَشَدِيدٌ","char_type_name":"word","page_number":590,"line_number":12,"text":"لَشَدِيدٌ","translation":{"text":"(is) surely strong","language_name":"english","language_id":38},"transliteration":{"text":"lashadīdun","language_name":"english","language_id":38}},{"id":14286,"position":5,"audio_url":null,"verse_key":"85:12","verse_id":5921,"location":"85:12:5","text_uthmani":"١٢","qpc_uthmani_hafs":"١٢","char_type_name":"end","page_number":590,"line_number":12,"text":"١٢","translation":{"text":"(12)","language_name":"english","language_id":38},"transliteration":{"text":null,"language_name":"english","language_id":38}}]},{"id":5922,"verse_number":13,"verse_key":"85:13","hizb_number":59,"rub_el_hizb_number":236,"ruku_number":529,"manzil_number":7,"sajdah_number":null,"page_number":590,"juz_number":30,"words":[{"id":15397,"position":1,"audio_url":"wbw/085_013_001.mp3","verse_key":"85:13","verse_id":5922,"location":"85:13:1","text_uthmani":"إِنَّهُۥ","qpc_uthmani_hafs":"إِنَّهُۥ","char_type_name":"word","page_number":590,"line_number":12,"text":"إِنَّهُۥ","translation":{"text":"Indeed He","language_name":"english","language_id":38},"transliteration":{"text":"innahu","language_name":"english","language_id":38}},{"id":15398,"position":2,"audio_url":"wbw/085_013_002.mp3","verse_key":"85:13","verse_id":5922,"location":"85:13:2","text_uthmani":"هُوَ","qpc_uthmani_hafs":"هُوَ","char_type_name":"word","page_number":590,"line_number":12,"text":"هُوَ","translation":{"text":"He","language_name":"english","language_id":38},"transliteration":{"text":"huwa","language_name":"english","language_id":38}},{"id":15399,"position":3,"audio_url":"wbw/085_013_003.mp3","verse_key":"85:13","verse_id":5922,"location":"85:13:3","text_uthmani":"يُبْدِئُ","qpc_uthmani_hafs":"يُبۡدِئُ","char_type_name":"word","page_number":590,"line_number":12,"text":"يُبۡدِئُ","translation":{"text":"originates","language_name":"english","language_id":38},"transliteration":{"text":"yub'di-u","language_name":"english","language_id":38}},{"id":15400,"position":4,"audio_url":"wbw/085_013_004.mp3","verse_key":"85:13","verse_id":5922,"location":"85:13:4","text_uthmani":"وَيُعِيدُ","qpc_uthmani_hafs":"وَيُعِيدُ","char_type_name":"word","page_number":590,"line_number":12,"text":"وَيُعِيدُ","translation":{"text":"and repeats","language_name":"english","language_id":38},"transliteration":{"text":"wayuʿīdu","language_name":"english","language_id":38}},{"id":15401,"position":5,"audio_url":null,"verse_key":"85:13","verse_id":5922,"location":"85:13:5","text_uthmani":"١٣","qpc_uthmani_hafs":"١٣","char_type_name":"end","page_number":590,"line_number":12,"text":"١٣","translation":{"text":"(13)","language_name":"english","language_id":38},"transliteration":{"text":null,"language_name":"english","language_id":38}}]},{"id":5923,"verse_number":14,"verse_key":"85:14","hizb_number":59,"rub_el_hizb_number":236,"ruku_number":529,"manzil_number":7,"sajdah_number":null,"page_number":590,"juz_number":30,"words":[{"id":16443,"position":1,"audio_url":"wbw/085_014_001.mp3","verse_key":"85:14","verse_id":5923,"location":"85:14:1","text_uthmani":"وَهُوَ","qpc_uthmani_hafs":"وَهُوَ","char_type_name":"word","page_number":590,"line_number":12,"text":"وَهُوَ","translation":{"text":"And He","language_name":"english","language_id":38},"transliteration":{"text":"wahuwa","language_name":"english","language_id":38}},{"id":16444,"position":2,"audio_url":"wbw/085_014_002.mp3","verse_key":"85:14","verse_id":5923,"location":"85:14:2","text_uthmani":"ٱلْغَفُورُ","qpc_uthmani_hafs":"ٱلۡغَفُورُ","char_type_name":"word","page_number":590,"line_number":12,"text":"ٱلۡغَفُورُ","translation":{"text":"(is) the Oft-Forgiving","language_name":"english","language_id":38},"transliteration":{"text":"l-ghafūru","language_name":"english","language_id":38}},{"id":16445,"position":3,"audio_url":"wbw/085_014_003.mp3","verse_key":"85:14","verse_id":5923,"location":"85:14:3","text_uthmani":"ٱلْوَدُودُ","qpc_uthmani_hafs":"ٱلۡوَدُودُ","char_type_name":"word","page_number":590,"line_number":12,"text":"ٱلۡوَدُودُ","translation":{"text":"the Most Loving","language_name":"english","language_id":38},"transliteration":{"text":"l-wadūdu","language_name":"english","language_id":38}},{"id":16446,"position":4,"audio_url":null,"verse_key":"85:14","verse_id":5923,"location":"85:14:4","text_uthmani":"١٤","qpc_uthmani_hafs":"١٤","char_type_name":"end","page_number":590,"line_number":12,"text":"١٤","translation":{"text":"(14)","language_name":"english","language_id":38},"transliteration":{"text":null,"language_name":"english","language_id":38}}]},{"id":5924,"verse_number":15,"verse_key":"85:15","hizb_number":59,"rub_el_hizb_number":236,"ruku_number":529,"manzil_number":7,"sajdah_number":null,"page_number":590,"juz_number":30,"words":[{"id":17596,"position":1,"audio_url":"wbw/085_015_001.mp3","verse_key":"85:15","verse_id":5924,"location":"85:15:1","text_uthmani":"ذُو","qpc_uthmani_hafs":"ذُو","char_type_name":"word","page_number":590,"line_number":13,"text":"ذُو","translation":{"text":"Owner (of)","language_name":"english","language_id":38},"transliteration":{"text":"dhū","language_name":"english","language_id":38}},{"id":17597,"position":2,"audio_url":"wbw/085_015_002.mp3","verse_key":"85:15","verse_id":5924,"location":"85:15:2","text_uthmani":"ٱلْعَرْشِ","qpc_uthmani_hafs":"ٱلۡعَرۡشِ","char_type_name":"word","page_number":590,"line_number":13,"text":"ٱلۡعَرۡشِ","translation":{"text":"the Throne","language_name":"english","language_id":38},"transliteration":{"text":"l-ʿarshi","language_name":"english","language_id":38}},{"id":17598,"position":3,"audio_url":"wbw/085_015_003.mp3","verse_key":"85:15","verse_id":5924,"location":"85:15:3","text_uthmani":"ٱلْمَجِيدُ","qpc_uthmani_hafs":"ٱلۡمَجِيدُ","char_type_name":"word","page_number":590,"line_number":13,"text":"ٱلۡمَجِيدُ","translation":{"text":"the Glorious","language_name":"english","language_id":38},"transliteration":{"text":"l-majīdu","language_name":"english","language_id":38}},{"id":17599,"position":4,"audio_url":null,"verse_key":"85:15","verse_id":5924,"location":"85:15:4","text_uthmani":"١٥","qpc_uthmani_hafs":"١٥","char_type_name":"end","page_number":590,"line_number":13,"text":"١٥","translation":{"text":"(15)","language_name":"english","language_id":38},"transliteration":{"text":null,"language_name":"english","language_id":38}}]},{"id":5925,"verse_number":16,"verse_key":"85:16","hizb_number":59,"rub_el_hizb_number":236,"ruku_number":529,"manzil_number":7,"sajdah_number":null,"page_number":590,"juz_number":30,"words":[{"id":18646,"position":1,"audio_url":"wbw/085_016_001.mp3","verse_key":"85:16","verse_id":5925,"location":"85:16:1","text_uthmani":"فَعَّالٌۭ","qpc_uthmani_hafs":"فَعَّالٞ","char_type_name":"word","page_number":590,"line_number":13,"text":"فَعَّالٞ","translation":{"text":"Doer","language_name":"english","language_id":38},"transliteration":{"text":"faʿʿālun","language_name":"english","language_id":38}},{"id":18647,"position":2,"audio_url":"wbw/085_016_002.mp3","verse_key":"85:16","verse_id":5925,"location":"85:16:2","text_uthmani":"لِّمَا","qpc_uthmani_hafs":"لِّمَا","char_type_name":"word","page_number":590,"line_number":13,"text":"لِّمَا","translation":{"text":"of what","language_name":"english","language_id":38},"transliteration":{"text":"limā","language_name":"english","language_id":38}},{"id":18648,"position":3,"audio_url":"wbw/085_016_003.mp3","verse_key":"85:16","verse_id":5925,"location":"85:16:3","text_uthmani":"يُرِيدُ","qpc_uthmani_hafs":"يُرِيدُ","char_type_name":"word","page_number":590,"line_number":13,"text":"يُرِيدُ","translation":{"text":"He intends","language_name":"english","language_id":38},"transliteration":{"text":"yurīdu","language_name":"english","language_id":38}},{"id":18649,"position":4,"audio_url":null,"verse_key":"85:16","verse_id":5925,"location":"85:16:4","text_uthmani":"١٦","qpc_uthmani_hafs":"١٦","char_type_name":"end","page_number":590,"line_number":13,"text":"١٦","translation":{"text":"(16)","language_name":"english","language_id":38},"transliteration":{"text":null,"language_name":"english","language_id":38}}]},{"id":5926,"verse_number":17,"verse_key":"85:17","hizb_number":59,"rub_el_hizb_number":236,"ruku_number":529,"manzil_number":7,"sajdah_number":null,"page_number":590,"juz_number":30,"words":[{"id":19702,"position":1,"audio_url":"wbw/085_017_001.mp3","verse_key":"85:17","verse_id":5926,"location":"85:17:1","text_uthmani":"هَلْ","qpc_uthmani_hafs":"هَلۡ","char_type_name":"word","page_number":590,"line_number":13,"text":"هَلۡ","translation":{"text":"Has","language_name":"english","language_id":38},"transliteration":{"text":"hal","language_name":"english","language_id":38}},{"id":19703,"position":2,"audio_url":"wbw/085_017_002.mp3","verse_key":"85:17","verse_id":5926,"location":"85:17:2","text_uthmani":"أَتَىٰكَ","qpc_uthmani_hafs":"أَتَىٰكَ","char_type_name":"word","page_number":590,"line_number":13,"text":"أَتَىٰكَ","translation":{"text":"come to you","language_name":"english","language_id":38},"transliteration":{"text":"atāka","language_name":"english","language_id":38}},{"id":19704,"position":3,"audio_url":"wbw/085_017_003.mp3","verse_key":"85:17","verse_id":5926,"location":"85:17:3","text_uthmani":"حَدِيثُ","qpc_uthmani_hafs":"حَدِيثُ","char_type_name":"word","page_number":590,"line_number":13,"text":"حَدِيثُ","translation":{"text":"(the) story","language_name":"english","language_id":38},"transliteration":{"text":"ḥadīthu","language_name":"english","language_id":38}},{"id":19705,"position":4,"audio_url":"wbw/085_017_004.mp3","verse_key":"85:17","verse_id":5926,"location":"85:17:4","text_uthmani":"ٱلْجُنُودِ","qpc_uthmani_hafs":"ٱلۡجُنُودِ","char_type_name":"word","page_number":590,"line_number":13,"text":"ٱلۡجُنُودِ","translation":{"text":"(of) the hosts","language_name":"english","language_id":38},"transliteration":{"text":"l-junūdi","language_name":"english","language_id":38}},{"id":19706,"position":5,"audio_url":null,"verse_key":"85:17","verse_id":5926,"location":"85:17:5","text_uthmani":"١٧","qpc_uthmani_hafs":"١٧","char_type_name":"end","page_number":590,"line_number":14,"text":"١٧","translation":{"text":"(17)","language_name":"english","language_id":38},"transliteration":{"text":null,"language_name":"english","language_id":38}}]},{"id":5927,"verse_number":18,"verse_key":"85:18","hizb_number":59,"rub_el_hizb_number":236,"ruku_number":529,"manzil_number":7,"sajdah_number":null,"page_number":590,"juz_number":30,"words":[{"id":20099,"position":1,"audio_url":"wbw/085_018_001.mp3","verse_key":"85:18","verse_id":5927,"location":"85:18:1","text_uthmani":"فِرْعَوْنَ","qpc_uthmani_hafs":"فِرۡعَوۡنَ","char_type_name":"word","page_number":590,"line_number":14,"text":"فِرۡعَوۡنَ","translation":{"text":"Firaun","language_name":"english","language_id":38},"transliteration":{"text":"fir'ʿawna","language_name":"english","language_id":38}},{"id":20100,"position":2,"audio_url":"wbw/085_018_002.mp3","verse_key":"85:18","verse_id":5927,"location":"85:18:2","text_uthmani":"وَثَمُودَ","qpc_uthmani_hafs":"وَثَمُودَ","char_type_name":"word","page_number":590,"line_number":14,"text":"وَثَمُودَ","translation":{"text":"and Thamud","language_name":"english","language_id":38},"transliteration":{"text":"wathamūda","language_name":"english","language_id":38}},{"id":20101,"position":3,"audio_url":null,"verse_key":"85:18","verse_id":5927,"location":"85:18:3","text_uthmani":"١٨","qpc_uthmani_hafs":"١٨","char_type_name":"end","page_number":590,"line_number":14,"text":"١٨","translation":{"text":"(18)","language_name":"english","language_id":38},"transliteration":{"text":null,"language_name":"english","language_id":38}}]},{"id":5928,"verse_number":19,"verse_key":"85:19","hizb_number":59,"rub_el_hizb_number":236,"ruku_number":529,"manzil_number":7,"sajdah_number":null,"page_number":590,"juz_number":30,"words":[{"id":21847,"position":1,"audio_url":"wbw/085_019_001.mp3","verse_key":"85:19","verse_id":5928,"location":"85:19:1","text_uthmani":"بَلِ","qpc_uthmani_hafs":"بَلِ","char_type_name":"word","page_number":590,"line_number":14,"text":"بَلِ","translation":{"text":"Nay","language_name":"english","language_id":38},"transliteration":{"text":"bali","language_name":"english","language_id":38}},{"id":21848,"position":2,"audio_url":"wbw/085_019_002.mp3","verse_key":"85:19","verse_id":5928,"location":"85:19:2","text_uthmani":"ٱلَّذِينَ","qpc_uthmani_hafs":"ٱلَّذِينَ","char_type_name":"word","page_number":590,"line_number":14,"text":"ٱلَّذِينَ","translation":{"text":"Those who","language_name":"english","language_id":38},"transliteration":{"text":"alladhīna","language_name":"english","language_id":38}},{"id":21849,"position":3,"audio_url":"wbw/085_019_003.mp3","verse_key":"85:19","verse_id":5928,"location":"85:19:3","text_uthmani":"كَفَرُوا۟","qpc_uthmani_hafs":"كَفَرُواْ","char_type_name":"word","page_number":590,"line_number":14,"text":"كَفَرُواْ","translation":{"text":"disbelieve","language_name":"english","language_id":38},"transliteration":{"text":"kafarū","language_name":"english","language_id":38}},{"id":21850,"position":4,"audio_url":"wbw/085_019_004.mp3","verse_key":"85:19","verse_id":5928,"location":"85:19:4","text_uthmani":"فِى","qpc_uthmani_hafs":"فِي","char_type_name":"word","page_number":590,"line_number":14,"text":"فِي","translation":{"text":"(are) in","language_name":"english","language_id":38},"transliteration":{"text":"fī","language_name":"english","language_id":38}},{"id":21851,"position":5,"audio_url":"wbw/085_019_005.mp3","verse_key":"85:19","verse_id":5928,"location":"85:19:5","text_uthmani":"تَكْذِيبٍۢ","qpc_uthmani_hafs":"تَكۡذِيبٖ","char_type_name":"word","page_number":590,"line_number":14,"text":"تَكۡذِيبٖ","translation":{"text":"denial","language_name":"english","language_id":38},"transliteration":{"text":"takdhībin","language_name":"english","language_id":38}},{"id":21852,"position":6,"audio_url":null,"verse_key":"85:19","verse_id":5928,"location":"85:19:6","text_uthmani":"١٩","qpc_uthmani_hafs":"١٩","char_type_name":"end","page_number":590,"line_number":14,"text":"١٩","translation":{"text":"(19)","language_name":"english","language_id":38},"transliteration":{"text":null,"language_name":"english","language_id":38}}]},{"id":5929,"verse_number":20,"verse_key":"85:20","hizb_number":59,"rub_el_hizb_number":236,"ruku_number":529,"manzil_number":7,"sajdah_number":null,"page_number":590,"juz_number":30,"words":[{"id":22972,"position":1,"audio_url":"wbw/085_020_001.mp3","verse_key":"85:20","verse_id":5929,"location":"85:20:1","text_uthmani":"وَٱللَّهُ","qpc_uthmani_hafs":"وَٱللَّهُ","char_type_name":"word","page_number":590,"line_number":14,"text":"وَٱللَّهُ","translation":{"text":"But Allah","language_name":"english","language_id":38},"transliteration":{"text":"wal-lahu","language_name":"english","language_id":38}},{"id":22973,"position":2,"audio_url":"wbw/085_020_002.mp3","verse_key":"85:20","verse_id":5929,"location":"85:20:2","text_uthmani":"مِن","qpc_uthmani_hafs":"مِن","char_type_name":"word","page_number":590,"line_number":14,"text":"مِن","translation":{"text":"from","language_name":"english","language_id":38},"transliteration":{"text":"min","language_name":"english","language_id":38}},{"id":22974,"position":3,"audio_url":"wbw/085_020_003.mp3","verse_key":"85:20","verse_id":5929,"location":"85:20:3","text_uthmani":"وَرَآئِهِم","qpc_uthmani_hafs":"وَرَآئِهِم","char_type_name":"word","page_number":590,"line_number":15,"text":"وَرَآئِهِم","translation":{"text":"behind them","language_name":"english","language_id":38},"transliteration":{"text":"warāihim","language_name":"english","language_id":38}},{"id":22975,"position":4,"audio_url":"wbw/085_020_004.mp3","verse_key":"85:20","verse_id":5929,"location":"85:20:4","text_uthmani":"مُّحِيطٌۢ","qpc_uthmani_hafs":"مُّحِيطُۢ","char_type_name":"word","page_number":590,"line_number":15,"text":"مُّحِيطُۢ","translation":{"text":"encompasses","language_name":"english","language_id":38},"transliteration":{"text":"muḥīṭun","language_name":"english","language_id":38}},{"id":22976,"position":5,"audio_url":null,"verse_key":"85:20","verse_id":5929,"location":"85:20:5","text_uthmani":"٢٠","qpc_uthmani_hafs":"٢٠","char_type_name":"end","page_number":590,"line_number":15,"text":"٢٠","translation":{"text":"(20)","language_name":"english","language_id":38},"transliteration":{"text":null,"language_name":"english","language_id":38}}]}],"pagination":{"per_page":10,"current_page":2,"next_page":3,"total_pages":3,"total_records":22}}
