{"verses":[{"id":5240,"verse_number":11,"verse_key":"66:11","hizb_number":56,"rub_el_hizb_number":224,"ruku_number":497,"manzil_number":7,"sajdah_number":null,"page_number":561,"juz_number":28,"words":[{"id":12770,"position":1,"audio_url":"wbw/066_011_001.mp3","verse_key":"66:11","verse_id":5240,"location":"66:11:1","text_uthmani":"وَضَرَبَ","qpc_uthmani_hafs":"وَضَرَبَ","char_type_name":"word","page_number":561,"line_number":11,"text":"وَضَرَبَ","translation":{"text":"এবং পেশ করেন","language_name":"bengali","language_id":20},"transliteration":{"text":"waḍaraba","language_name":"english","language_id":38}},{"id":12771,"position":2,"audio_url":"wbw/066_011_002.mp3","verse_key":"66:11","verse_id":5240,"location":"66:11:2","text_uthmani":"ٱللَّهُ","qpc_uthmani_hafs":"ٱللَّهُ","char_type_name":"word","page_number":561,"line_number":11,"text":"ٱللَّهُ","translation":{"text":"আল্লাহ","language_name":"bengali","language_id":20},"transliteration":{"text":"l-lahu","language_name":"english","language_id":38}},{"id":12772,"position":3,"audio_url":"wbw/066_011_003.mp3","verse_key":"66:11","verse_id":5240,"location":"66:11:3","text_uthmani":"مَثَلًۭا","qpc_uthmani_hafs":"مَثَلٗا","char_type_name":"word","page_number":561,"line_number":11,"text":"مَثَلٗا","translation":{"text":"দৃষ্টান্ত","language_name":"bengali","language_id":20},"transliteration":{"text":"mathalan","language_name":"english","language_id":38}},{"id":12773,"position":4,"audio_url":"wbw/066_011_004.mp3","verse_key":"66:11","verse_id":5240,"location":"66:11:4","text_uthmani":"لِّلَّذِينَ","qpc_uthmani_hafs":"لِّلَّذِينَ","char_type_name":"word","page_number":561,"line_number":11,"text":"لِّلَّذِينَ","translation":{"text":"যারা (তাদের) জন্যে","language_name":"bengali","language_id":20},"transliteration":{"text":"lilladhīna","language_name":"english","language_id":38}},{"id":12774,"position":5,"audio_url":"wbw/066_011_005.mp3","verse_key":"66:11","verse_id":5240,"location":"66:11:5","text_uthmani":"ءَامَنُوا۟","qpc_uthmani_hafs":"ءَامَنُواْ","char_type_name":"word","page_number":561,"line_number":11,"text":"ءَامَنُواْ","translation":{"text":"ঈমান এনেছে","language_name":"bengali","language_id":20},"transliteration":{"text":"āmanū","language_name":"english","language_id":38}},{"id":12775,"position":6,"audio_url":"wbw/066_011_006.mp3","verse_key":"66:11","verse_id":5240,"location":"66:11:6","text_uthmani":"ٱمْرَأَتَ","qpc_uthmani_hafs":"ٱمۡرَأَتَ","char_type_name":"word","page_number":561,"line_number":11,"text":"ٱمۡرَأَتَ","translation":{"text":"স্ত্রীর","language_name":"bengali","language_id":20},"transliteration":{"text":"im'ra-ata","language_name":"english","language_id":38}},{"id":12776,"position":7,"audio_url":"wbw/066_011_007.mp3","verse_key":"66:11","verse_id":5240,"location":"66:11:7","text_uthmani":"فِرْعَوْنَ","qpc_uthmani_hafs":"فِرۡعَوۡنَ","char_type_name":"word","page_number":561,"line_number":11,"text":"فِرۡعَوۡنَ","translation":{"text":"ফিরআউনের","language_name":"bengali","language_id":20},"transliteration":{"text":"fir'ʿawna","language_name":"english","language_id":38}},{"id":12777,"position":8,"audio_url":"wbw/066_011_008.mp3","verse_key":"66:11","verse_id":5240,"location":"66:11:8","text_uthmani":"إِذْ","qpc_uthmani_hafs":"إِذۡ","char_type_name":"word","page_number":561,"line_number":11,"text":"إِذۡ","translation":{"text":"যখন","language_name":"bengali","language_id":20},"transliteration":{"text":"idh","language_name":"english","language_id":38}},{"id":12778,"position":9,"audio_url":"wbw/066_011_009.mp3","verse_key":"66:11","verse_id":5240,"location":"66:11:9","text_uthmani":"قَالَتْ","qpc_uthmani_hafs":"قَالَتۡ","char_type_name":"word","page_number":561,"line_number":12,"text":"قَالَتۡ","translation":{"text":"বলেছিল","language_name":"bengali","language_id":20},"transliteration":{"text":"qālat","language_name":"english","language_id":38}},{"id":12779,"position":10,"audio_url":"wbw/066_011_010.mp3","verse_key":"66:11","verse_id":5240,"location":"66:11:10","text_uthmani":"رَبِّ","qpc_uthmani_hafs":"رَبِّ","char_type_name":"word","page_number":561,"line_number":12,"text":"رَبِّ","translation":{"text":"\"হে আমার রব","language_name":"bengali","language_id":20},"transliteration":{"text":"rabbi","language_name":"english","language_id":38}},{"id":12780,"position":11,"audio_url":"wbw/066_011_011.mp3","verse_key":"66:11","verse_id":5240,"location":"66:11:11","text_uthmani":"ٱبْنِ","qpc_uthmani_hafs":"ٱبۡنِ","char_type_name":"word","page_number":561,"line_number":12,"text":"ٱبۡنِ","translation":{"text":"বানাও","language_name":"bengali","language_id":20},"transliteration":{"text":"ib'ni","language_name":"english","language_id":38}},{"id":12781,"position":12,"audio_url":"wbw/066_011_012.mp3","verse_key":"66:11","verse_id":5240,"location":"66:11:12","text_uthmani":"لِى","qpc_uthmani_hafs":"لِي","char_type_name":"word","page_number":561,"line_number":12,"text":"لِي","translation":{"text":"আমার জন্যে","language_name":"bengali","language_id":20},"transliteration":{"text":"lī","language_name":"english","language_id":38}},{"id":12782,"position":13,"audio_url":"wbw/066_011_013.mp3","verse_key":"66:11","verse_id":5240,"location":"66:11:13","text_uthmani":"عِندَكَ","qpc_uthmani_hafs":"عِندَكَ","char_type_name":"word","page_number":561,"line_number":12,"text":"عِندَكَ","translation":{"text":"তোমার কাছে","language_name":"bengali","language_id":20},"transliteration":{"text":"ʿindaka","language_name":"english","language_id":38}},{"id":12783,"position":14,"audio_url":"wbw/066_011_014.mp3","verse_key":"66:11","verse_id":5240,"location":"66:11:14","text_uthmani":"بَيْتًۭا","qpc_uthmani_hafs":"بَيۡتٗا","char_type_name":"word","page_number":561,"line_number":12,"text":"بَيۡتٗا","translation":{"text":"ঘর","language_name":"bengali","language_id":20},"transliteration":{"text":"baytan","language_name":"english","language_id":38}},{"id":12784,"position":15,"audio_url":"wbw/066_011_015.mp3","verse_key":"66:11","verse_id":5240,"location":"66:11:15","text_uthmani":"فِى","qpc_uthmani_hafs":"فِي","char_type_name":"word","page_number":561,"line_number":12,"text":"فِي","translation":{"text":"মধ্যে","language_name":"bengali","language_id":20},"transliteration":{"text":"fī","language_name":"english","language_id":38}},{"id":12785,"position":16,"audio_url":"wbw/066_011_016.mp3","verse_key":"66:11","verse_id":5240,"location":"66:11:16","text_uthmani":"ٱلْجَنَّةِ","qpc_uthmani_hafs":"ٱلۡجَنَّةِ","char_type_name":"word","page_number":561,"line_number":12,"text":"ٱلۡجَنَّةِ","translation":{"text":"জান্নাতের","language_name":"bengali","language_id":20},"transliteration":{"text":"l-janati","language_name":"english","language_id":38}},{"id":12786,"position":17,"audio_url":"wbw/066_011_017.mp3","verse_key":"66:11","verse_id":5240,"location":"66:11:17","text_uthmani":"وَنَجِّنِى","qpc_uthmani_hafs":"وَنَجِّنِي","char_type_name":"word","page_number":561,"line_number":12,"text":"وَنَجِّنِي","translation":{"text":"এবং আমাকে উদ্ধার কর","language_name":"bengali","language_id":20},"transliteration":{"text":"wanajjinī","language_name":"english","language_id":38}},{"id":12787,"position":18,"audio_url":"wbw/066_011_018.mp3","verse_key":"66:11","verse_id":5240,"location":"66:11:18","text_uthmani":"مِن","qpc_uthmani_hafs":"مِن","char_type_name":"word","page_number":561,"line_number":12,"text":"مِن","translation":{"text":"হতে","language_name":"bengali","language_id":20},"transliteration":{"text":"min","language_name":"english","language_id":38}},{"id":12788,"position":19,"audio_url":"wbw/066_011_019.mp3","verse_key":"66:11","verse_id":5240,"location":"66:11:19","text_uthmani":"فِرْعَوْنَ","qpc_uthmani_hafs":"فِرۡعَوۡنَ","char_type_name":"word","page_number":561,"line_number":12,"text":"فِرۡعَوۡنَ","translation":{"text":"ফিরআউন","language_name":"bengali","language_id":20},"transliteration":{"text":"fir'ʿawna","language_name":"english","language_id":38}},{"id":12789,"position":20,"audio_url":"wbw/066_011_020.mp3","verse_key":"66:11","verse_id":5240,"location":"66:11:20","text_uthmani":"وَعَمَلِهِۦ","qpc_uthmani_hafs":"وَعَمَلِهِۦ","char_type_name":"word","page_number":561,"line_number":13,"text":"وَعَمَلِهِۦ","translation":{"text":"ও তার কাজ","language_name":"bengali","language_id":20},"transliteration":{"text":"waʿamalihi","language_name":"english","language_id":38}},{"id":12790,"position":21,"audio_url":"wbw/066_011_021.mp3","verse_key":"66:11","verse_id":5240,"location":"66:11:21","text_uthmani":"وَنَجِّنِى","qpc_uthmani_hafs":"وَنَجِّنِي","char_type_name":"word","page_number":561,"line_number":13,"text":"وَنَجِّنِي","translation":{"text":"এবং আমাকে উদ্ধার কর","language_name":"bengali","language_id":20},"transliteration":{"text":"wanajjinī","language_name":"english","language_id":38}},{"id":12791,"position":22,"audio_url":"wbw/066_011_022.mp3","verse_key":"66:11","verse_id":5240,"location":"66:11:22","text_uthmani":"مِنَ","qpc_uthmani_hafs":"مِنَ","char_type_name":"word","page_number":561,"line_number":13,"text":"مِنَ","translation":{"text":"হতে","language_name":"bengali","language_id":20},"transliteration":{"text":"mina","language_name":"english","language_id":38}},{"id":12792,"position":23,"audio_url":"wbw/066_011_023.mp3","verse_key":"66:11","verse_id":5240,"location":"66:11:23","text_uthmani":"ٱلْقَوْمِ","qpc_uthmani_hafs":"ٱلۡقَوۡمِ","char_type_name":"word","page_number":561,"line_number":13,"text":"ٱلۡقَوۡمِ","translation":{"text":"লোকদের","language_name":"bengali","language_id":20},"transliteration":{"text":"l-qawmi","language_name":"english","language_id":38}},{"id":12793,"position":24,"audio_url":"wbw/066_011_024.mp3","verse_key":"66:11","verse_id":5240,"location":"66:11:24","text_uthmani":"ٱلظَّـٰلِمِينَ","qpc_uthmani_hafs":"ٱلظَّٰلِمِينَ","char_type_name":"word","page_number":561,"line_number":13,"text":"ٱلظَّٰلِمِينَ","translation":{"text":"যালিম\"","language_name":"bengali","language_id":20},"transliteration":{"text":"l-ẓālimīna","language_name":"english","language_id":38}},{"id":12794,"position":25,"audio_url":null,"verse_key":"66:11","verse_id":5240,"location":"66:11:25","text_uthmani":"١١","qpc_uthmani_hafs":"١١","char_type_name":"end","page_number":561,"line_number":13,"text":"١١","translation":{"text":"(১১)","language_name":"bengali","language_id":20},"transliteration":{"text":null,"language_name":"english","language_id":38}}]},{"id":5241,"verse_number":12,"verse_key":"66:12","hizb_number":56,"rub_el_hizb_number":224,"ruku_number":497,"manzil_number":7,"sajdah_number":null,"page_number":561,"juz_number":28,"words":[{"id":14056,"position":1,"audio_url":"wbw/066_012_001.mp3","verse_key":"66:12","verse_id":5241,"location":"66:12:1","text_uthmani":"وَمَرْيَمَ","qpc_uthmani_hafs":"وَمَرۡيَمَ","char_type_name":"word","page_number":561,"line_number":13,"text":"وَمَرۡيَمَ","translation":{"text":"এবং মারয়াম","language_name":"bengali","language_id":20},"transliteration":{"text":"wamaryama","language_name":"english","language_id":38}},{"id":14057,"position":2,"audio_url":"wbw/066_012_002.mp3","verse_key":"66:12","verse_id":5241,"location":"66:12:2","text_uthmani":"ٱبْنَتَ","qpc_uthmani_hafs":"ٱبۡنَتَ","char_type_name":"word","page_number":561,"line_number":13,"text":"ٱبۡنَتَ","translation":{"text":"কন্যা","language_name":"bengali","language_id":20},"transliteration":{"text":"ib'nata","language_name":"english","language_id":38}},{"id":14058,"position":3,"audio_url":"wbw/066_012_003.mp3","verse_key":"66:12","verse_id":5241,"location":"66:12:3","text_uthmani":"عِمْرَٰنَ","qpc_uthmani_hafs":"عِمۡرَٰنَ","char_type_name":"word","page_number":561,"line_number":14,"text":"عِمۡرَٰنَ","translation":{"text":"ইমরানের","language_name":"bengali","language_id":20},"transliteration":{"text":"ʿim'rāna","language_name":"english","language_id":38}},{"id":14059,"position":4,"audio_url":"wbw/066_012_004.mp3","verse_key":"66:12","verse_id":5241,"location":"66:12:4","text_uthmani":"ٱلَّتِىٓ","qpc_uthmani_hafs":"ٱلَّتِيٓ","char_type_name":"word","page_number":561,"line_number":14,"text":"ٱلَّتِيٓ","translation":{"text":"যে","language_name":"bengali","language_id":20},"transliteration":{"text":"allatī","language_name":"english","language_id":38}},{"id":14060,"position":5,"audio_url":"wbw/066_012_005.mp3","verse_key":"66:12","verse_id":5241,"location":"66:12:5","text_uthmani":"أَحْصَنَتْ","qpc_uthmani_hafs":"أَحۡصَنَتۡ","char_type_name":"word","page_number":561,"line_number":14,"text":"أَحۡصَنَتۡ","translation":{"text":"সংরক্ষণ করেছিল","language_name":"bengali","language_id":20},"transliteration":{"text":"aḥṣanat","language_name":"english","language_id":38}},{"id":14061,"position":6,"audio_url":"wbw/066_012_006.mp3","verse_key":"66:12","verse_id":5241,"location":"66:12:6","text_uthmani":"فَرْجَهَا","qpc_uthmani_hafs":"فَرۡجَهَا","char_type_name":"word","page_number":561,"line_number":14,"text":"فَرۡجَهَا","translation":{"text":"তার লজ্জাস্থান","language_name":"bengali","language_id":20},"transliteration":{"text":"farjahā","language_name":"english","language_id":38}},{"id":14062,"position":7,"audio_url":"wbw/066_012_007.mp3","verse_key":"66:12","verse_id":5241,"location":"66:12:7","text_uthmani":"فَنَفَخْنَا","qpc_uthmani_hafs":"فَنَفَخۡنَا","char_type_name":"word","page_number":561,"line_number":14,"text":"فَنَفَخۡنَا","translation":{"text":"অতঃপর আমরা ফুঁকে দেই","language_name":"bengali","language_id":20},"transliteration":{"text":"fanafakhnā","language_name":"english","language_id":38}},{"id":14063,"position":8,"audio_url":"wbw/066_012_008.mp3","verse_key":"66:12","verse_id":5241,"location":"66:12:8","text_uthmani":"فِيهِ","qpc_uthmani_hafs":"فِيهِ","char_type_name":"word","page_number":561,"line_number":14,"text":"فِيهِ","translation":{"text":"তার মধ্যে","language_name":"bengali","language_id":20},"transliteration":{"text":"fīhi","language_name":"english","language_id":38}},{"id":14064,"position":9,"audio_url":"wbw/066_012_009.mp3","verse_key":"66:12","verse_id":5241,"location":"66:12:9","text_uthmani":"مِن","qpc_uthmani_hafs":"مِن","char_type_name":"word","page_number":561,"line_number":14,"text":"مِن","translation":{"text":"থেকে","language_name":"bengali","language_id":20},"transliteration":{"text":"min","language_name":"english","language_id":38}},{"id":14065,"position":10,"audio_url":"wbw/066_012_010.mp3","verse_key":"66:12","verse_id":5241,"location":"66:12:10","text_uthmani":"رُّوحِنَا","qpc_uthmani_hafs":"رُّوحِنَا","char_type_name":"word","page_number":561,"line_number":14,"text":"رُّوحِنَا","translation":{"text":"আমাদের রুহ","language_name":"bengali","language_id":20},"transliteration":{"text":"rūḥinā","language_name":"english","language_id":38}},{"id":14066,"position":11,"audio_url":"wbw/066_012_011.mp3","verse_key":"66:12","verse_id":5241,"location":"66:12:11","text_uthmani":"وَصَدَّقَتْ","qpc_uthmani_hafs":"وَصَدَّقَتۡ","char_type_name":"word","page_number":561,"line_number":15,"text":"وَصَدَّقَتۡ","translation":{"text":"এবং সে সত্যতা স্বীকার করেছিল","language_name":"bengali","language_id":20},"transliteration":{"text":"waṣaddaqat","language_name":"english","language_id":38}},{"id":14067,"position":12,"audio_url":"wbw/066_012_012.mp3","verse_key":"66:12","verse_id":5241,"location":"66:12:12","text_uthmani":"بِكَلِمَـٰتِ","qpc_uthmani_hafs":"بِكَلِمَٰتِ","char_type_name":"word","page_number":561,"line_number":15,"text":"بِكَلِمَٰتِ","translation":{"text":"বাক্যগুলোর","language_name":"bengali","language_id":20},"transliteration":{"text":"bikalimāti","language_name":"english","language_id":38}},{"id":14068,"position":13,"audio_url":"wbw/066_012_013.mp3","verse_key":"66:12","verse_id":5241,"location":"66:12:13","text_uthmani":"رَبِّهَا","qpc_uthmani_hafs":"رَبِّهَا","char_type_name":"word","page_number":561,"line_number":15,"text":"رَبِّهَا","translation":{"text":"তার রবের","language_name":"bengali","language_id":20},"transliteration":{"text":"rabbihā","language_name":"english","language_id":38}},{"id":14069,"position":14,"audio_url":"wbw/066_012_014.mp3","verse_key":"66:12","verse_id":5241,"location":"66:12:14","text_uthmani":"وَكُتُبِهِۦ","qpc_uthmani_hafs":"وَكُتُبِهِۦ","char_type_name":"word","page_number":561,"line_number":15,"text":"وَكُتُبِهِۦ","translation":{"text":"ও তাঁর কিতাবগুলোর","language_name":"bengali","language_id":20},"transliteration":{"text":"wakutubihi","language_name":"english","language_id":38}},{"id":14070,"position":15,"audio_url":"wbw/066_012_015.mp3","verse_key":"66:12","verse_id":5241,"location":"66:12:15","text_uthmani":"وَكَانَتْ","qpc_uthmani_hafs":"وَكَانَتۡ","char_type_name":"word","page_number":561,"line_number":15,"text":"وَكَانَتۡ","translation":{"text":"এবং সে ছিল","language_name":"bengali","language_id":20},"transliteration":{"text":"wakānat","language_name":"english","language_id":38}},{"id":14071,"position":16,"audio_url":"wbw/066_012_016.mp3","verse_key":"66:12","verse_id":5241,"location":"66:12:16","text_uthmani":"مِنَ","qpc_uthmani_hafs":"مِنَ","char_type_name":"word","page_number":561,"line_number":15,"text":"مِنَ","translation":{"text":"মধ্যে (একজন)","language_name":"bengali","language_id":20},"transliteration":{"text":"mina","language_name":"english","language_id":38}},{"id":14072,"position":17,"audio_url":"wbw/066_012_017.mp3","verse_key":"66:12","verse_id":5241,"location":"66:12:17","text_uthmani":"ٱلْقَـٰنِتِينَ","qpc_uthmani_hafs":"ٱلۡقَٰنِتِينَ","char_type_name":"word","page_number":561,"line_number":15,"text":"ٱلۡقَٰنِتِينَ","translation":{"text":"অনুগতদের","language_name":"bengali","language_id":20},"transliteration":{"text":"l-qānitīna","language_name":"english","language_id":38}},{"id":14073,"position":18,"audio_url":null,"verse_key":"66:12","verse_id":5241,"location":"66:12:18","text_uthmani":"١٢","qpc_uthmani_hafs":"١٢","char_type_name":"end","page_number":561,"line_number":15,"text":"١٢","translation":{"text":"(১২)","language_name":"bengali","language_id":20},"transliteration":{"text":null,"language_name":"english","language_id":38}}]}],"pagination":{"per_page":10,"current_page":2,"next_page":null,"total_pages":2,"total_records":12}}
