{"verses":[{"id":5476,"verse_number":1,"verse_key":"73:1","hizb_number":58,"rub_el_hizb_number":229,"ruku_number":510,"manzil_number":7,"sajdah_number":null,"page_number":574,"juz_number":29,"words":[{"id":628,"position":1,"audio_url":"wbw/073_001_001.mp3","char_type_name":"word","page_number":574,"line_number":3,"text":"يَـٰٓأَيُّهَا","translation":{"text":"হে","language_name":"bengali","language_id":20},"transliteration":{"text":"yāayyuhā","language_name":"english","language_id":38}},{"id":629,"position":2,"audio_url":"wbw/073_001_002.mp3","char_type_name":"word","page_number":574,"line_number":3,"text":"ٱلْمُزَّمِّلُ","translation":{"text":"বস্ত্রাবৃত","language_name":"bengali","language_id":20},"transliteration":{"text":"l-muzamilu","language_name":"english","language_id":38}},{"id":630,"position":3,"audio_url":null,"char_type_name":"end","page_number":574,"line_number":3,"text":"١","translation":{"text":"(১)","language_name":"bengali","language_id":20},"transliteration":{"text":null,"language_name":"english","language_id":38}}]},{"id":5477,"verse_number":2,"verse_key":"73:2","hizb_number":58,"rub_el_hizb_number":229,"ruku_number":510,"manzil_number":7,"sajdah_number":null,"page_number":574,"juz_number":29,"words":[{"id":1575,"position":1,"audio_url":"wbw/073_002_001.mp3","char_type_name":"word","page_number":574,"line_number":3,"text":"قُمِ","translation":{"text":"উঠো","language_name":"bengali","language_id":20},"transliteration":{"text":"qumi","language_name":"english","language_id":38}},{"id":1576,"position":2,"audio_url":"wbw/073_002_002.mp3","char_type_name":"word","page_number":574,"line_number":3,"text":"ٱلَّيْلَ","translation":{"text":"রাতে (ইবাদত করো)","language_name":"bengali","language_id":20},"transliteration":{"text":"al-layla","language_name":"english","language_id":38}},{"id":1577,"position":3,"audio_url":"wbw/073_002_003.mp3","char_type_name":"word","page_number":574,"line_number":3,"text":"إِلَّا","translation":{"text":"ব্যতীত","language_name":"bengali","language_id":20},"transliteration":{"text":"illā","language_name":"english","language_id":38}},{"id":1578,"position":4,"audio_url":"wbw/073_002_004.mp3","char_type_name":"word","page_number":574,"line_number":3,"text":"قَلِيلًۭا","translation":{"text":"কিছু অংশ","language_name":"bengali","language_id":20},"transliteration":{"text":"qalīlan","language_name":"english","language_id":38}},{"id":1579,"position":5,"audio_url":null,"char_type_name":"end","page_number":574,"line_number":3,"text":"٢","translation":{"text":"(২)","language_name":"bengali","language_id":20},"transliteration":{"text":null,"language_name":"english","language_id":38}}]},{"id":5478,"verse_number":3,"verse_key":"73:3","hizb_number":58,"rub_el_hizb_number":229,"ruku_number":510,"manzil_number":7,"sajdah_number":null,"page_number":574,"juz_number":29,"words":[{"id":2616,"position":1,"audio_url":"wbw/073_003_001.mp3","char_type_name":"word","page_number":574,"line_number":3,"text":"نِّصْفَهُۥٓ","translation":{"text":"তার অর্ধেক","language_name":"bengali","language_id":20},"transliteration":{"text":"niṣ'fahu","language_name":"english","language_id":38}},{"id":2617,"position":2,"audio_url":"wbw/073_003_002.mp3","char_type_name":"word","page_number":574,"line_number":3,"text":"أَوِ","translation":{"text":"বা","language_name":"bengali","language_id":20},"transliteration":{"text":"awi","language_name":"english","language_id":38}},{"id":2618,"position":3,"audio_url":"wbw/073_003_003.mp3","char_type_name":"word","page_number":574,"line_number":3,"text":"ٱنقُصْ","translation":{"text":"কম করো","language_name":"bengali","language_id":20},"transliteration":{"text":"unquṣ","language_name":"english","language_id":38}},{"id":2619,"position":4,"audio_url":"wbw/073_003_004.mp3","char_type_name":"word","page_number":574,"line_number":3,"text":"مِنْهُ","translation":{"text":"তা থেকে","language_name":"bengali","language_id":20},"transliteration":{"text":"min'hu","language_name":"english","language_id":38}},{"id":2620,"position":5,"audio_url":"wbw/073_003_005.mp3","char_type_name":"word","page_number":574,"line_number":3,"text":"قَلِيلًا","translation":{"text":"সামান্য","language_name":"bengali","language_id":20},"transliteration":{"text":"qalīlan","language_name":"english","language_id":38}},{"id":2621,"position":6,"audio_url":null,"char_type_name":"end","page_number":574,"line_number":4,"text":"٣","translation":{"text":"(৩)","language_name":"bengali","language_id":20},"transliteration":{"text":null,"language_name":"english","language_id":38}}]},{"id":5479,"verse_number":4,"verse_key":"73:4","hizb_number":58,"rub_el_hizb_number":229,"ruku_number":510,"manzil_number":7,"sajdah_number":null,"page_number":574,"juz_number":29,"words":[{"id":4034,"position":1,"audio_url":"wbw/073_004_001.mp3","char_type_name":"word","page_number":574,"line_number":4,"text":"أَوْ","translation":{"text":"অথবা","language_name":"bengali","language_id":20},"transliteration":{"text":"aw","language_name":"english","language_id":38}},{"id":4035,"position":2,"audio_url":"wbw/073_004_002.mp3","char_type_name":"word","page_number":574,"line_number":4,"text":"زِدْ","translation":{"text":"বাড়াও","language_name":"bengali","language_id":20},"transliteration":{"text":"zid","language_name":"english","language_id":38}},{"id":4036,"position":3,"audio_url":"wbw/073_004_003.mp3","char_type_name":"word","page_number":574,"line_number":4,"text":"عَلَيْهِ","translation":{"text":"তার উপর","language_name":"bengali","language_id":20},"transliteration":{"text":"ʿalayhi","language_name":"english","language_id":38}},{"id":4037,"position":4,"audio_url":"wbw/073_004_004.mp3","char_type_name":"word","page_number":574,"line_number":4,"text":"وَرَتِّلِ","translation":{"text":"এবং আবৃতি করো ধীরে ধীরে","language_name":"bengali","language_id":20},"transliteration":{"text":"warattili","language_name":"english","language_id":38}},{"id":4038,"position":5,"audio_url":"wbw/073_004_005.mp3","char_type_name":"word","page_number":574,"line_number":4,"text":"ٱلْقُرْءَانَ","translation":{"text":"কুরআন","language_name":"bengali","language_id":20},"transliteration":{"text":"l-qur'āna","language_name":"english","language_id":38}},{"id":4039,"position":6,"audio_url":"wbw/073_004_006.mp3","char_type_name":"word","page_number":574,"line_number":4,"text":"تَرْتِيلًا","translation":{"text":"তারতিলসহ","language_name":"bengali","language_id":20},"transliteration":{"text":"tartīlan","language_name":"english","language_id":38}},{"id":4040,"position":7,"audio_url":null,"char_type_name":"end","page_number":574,"line_number":4,"text":"٤","translation":{"text":"(৪)","language_name":"bengali","language_id":20},"transliteration":{"text":null,"language_name":"english","language_id":38}}]},{"id":5480,"verse_number":5,"verse_key":"73:5","hizb_number":58,"rub_el_hizb_number":229,"ruku_number":510,"manzil_number":7,"sajdah_number":null,"page_number":574,"juz_number":29,"words":[{"id":5325,"position":1,"audio_url":"wbw/073_005_001.mp3","char_type_name":"word","page_number":574,"line_number":4,"text":"إِنَّا","translation":{"text":"আমরা নিশ্চয়","language_name":"bengali","language_id":20},"transliteration":{"text":"innā","language_name":"english","language_id":38}},{"id":5326,"position":2,"audio_url":"wbw/073_005_002.mp3","char_type_name":"word","page_number":574,"line_number":4,"text":"سَنُلْقِى","translation":{"text":"অর্পণ আমরা শিঘ্রই করবো","language_name":"bengali","language_id":20},"transliteration":{"text":"sanul'qī","language_name":"english","language_id":38}},{"id":5327,"position":3,"audio_url":"wbw/073_005_003.mp3","char_type_name":"word","page_number":574,"line_number":4,"text":"عَلَيْكَ","translation":{"text":"তোমার উপর","language_name":"bengali","language_id":20},"transliteration":{"text":"ʿalayka","language_name":"english","language_id":38}},{"id":5328,"position":4,"audio_url":"wbw/073_005_004.mp3","char_type_name":"word","page_number":574,"line_number":4,"text":"قَوْلًۭا","translation":{"text":"বাণী","language_name":"bengali","language_id":20},"transliteration":{"text":"qawlan","language_name":"english","language_id":38}},{"id":5329,"position":5,"audio_url":"wbw/073_005_005.mp3","char_type_name":"word","page_number":574,"line_number":5,"text":"ثَقِيلًا","translation":{"text":"ভারী","language_name":"bengali","language_id":20},"transliteration":{"text":"thaqīlan","language_name":"english","language_id":38}},{"id":5330,"position":6,"audio_url":null,"char_type_name":"end","page_number":574,"line_number":5,"text":"٥","translation":{"text":"(৫)","language_name":"bengali","language_id":20},"transliteration":{"text":null,"language_name":"english","language_id":38}}]},{"id":5481,"verse_number":6,"verse_key":"73:6","hizb_number":58,"rub_el_hizb_number":229,"ruku_number":510,"manzil_number":7,"sajdah_number":null,"page_number":574,"juz_number":29,"words":[{"id":6527,"position":1,"audio_url":"wbw/073_006_001.mp3","char_type_name":"word","page_number":574,"line_number":5,"text":"إِنَّ","translation":{"text":"নিশ্চয়","language_name":"bengali","language_id":20},"transliteration":{"text":"inna","language_name":"english","language_id":38}},{"id":6528,"position":2,"audio_url":"wbw/073_006_002.mp3","char_type_name":"word","page_number":574,"line_number":5,"text":"نَاشِئَةَ","translation":{"text":"উথান (শয্যা ত্যাগ)","language_name":"bengali","language_id":20},"transliteration":{"text":"nāshi-ata","language_name":"english","language_id":38}},{"id":6529,"position":3,"audio_url":"wbw/073_006_003.mp3","char_type_name":"word","page_number":574,"line_number":5,"text":"ٱلَّيْلِ","translation":{"text":"রাত্রি কালের","language_name":"bengali","language_id":20},"transliteration":{"text":"al-layli","language_name":"english","language_id":38}},{"id":6530,"position":4,"audio_url":"wbw/073_006_004.mp3","char_type_name":"word","page_number":574,"line_number":5,"text":"هِىَ","translation":{"text":"তা","language_name":"bengali","language_id":20},"transliteration":{"text":"hiya","language_name":"english","language_id":38}},{"id":6531,"position":5,"audio_url":"wbw/073_006_005.mp3","char_type_name":"word","page_number":574,"line_number":5,"text":"أَشَدُّ","translation":{"text":"প্রবলতর","language_name":"bengali","language_id":20},"transliteration":{"text":"ashaddu","language_name":"english","language_id":38}},{"id":6532,"position":6,"audio_url":"wbw/073_006_006.mp3","char_type_name":"word","page_number":574,"line_number":5,"text":"وَطْـًۭٔا","translation":{"text":"দলনে (প্রবৃত্তি)","language_name":"bengali","language_id":20},"transliteration":{"text":"waṭan","language_name":"english","language_id":38}},{"id":6533,"position":7,"audio_url":"wbw/073_006_007.mp3","char_type_name":"word","page_number":574,"line_number":5,"text":"وَأَقْوَمُ","translation":{"text":"এবং সঠিকতর","language_name":"bengali","language_id":20},"transliteration":{"text":"wa-aqwamu","language_name":"english","language_id":38}},{"id":6534,"position":8,"audio_url":"wbw/073_006_008.mp3","char_type_name":"word","page_number":574,"line_number":5,"text":"قِيلًا","translation":{"text":"বাক্য স্ফুরণে","language_name":"bengali","language_id":20},"transliteration":{"text":"qīlan","language_name":"english","language_id":38}},{"id":6535,"position":9,"audio_url":null,"char_type_name":"end","page_number":574,"line_number":5,"text":"٦","translation":{"text":"(৬)","language_name":"bengali","language_id":20},"transliteration":{"text":null,"language_name":"english","language_id":38}}]},{"id":5482,"verse_number":7,"verse_key":"73:7","hizb_number":58,"rub_el_hizb_number":229,"ruku_number":510,"manzil_number":7,"sajdah_number":null,"page_number":574,"juz_number":29,"words":[{"id":7940,"position":1,"audio_url":"wbw/073_007_001.mp3","char_type_name":"word","page_number":574,"line_number":5,"text":"إِنَّ","translation":{"text":"নিশ্চয়","language_name":"bengali","language_id":20},"transliteration":{"text":"inna","language_name":"english","language_id":38}},{"id":7941,"position":2,"audio_url":"wbw/073_007_002.mp3","char_type_name":"word","page_number":574,"line_number":5,"text":"لَكَ","translation":{"text":"তোমার জন্যে","language_name":"bengali","language_id":20},"transliteration":{"text":"laka","language_name":"english","language_id":38}},{"id":7942,"position":3,"audio_url":"wbw/073_007_003.mp3","char_type_name":"word","page_number":574,"line_number":5,"text":"فِى","translation":{"text":"মধ্যে","language_name":"bengali","language_id":20},"transliteration":{"text":"fī","language_name":"english","language_id":38}},{"id":7943,"position":4,"audio_url":"wbw/073_007_004.mp3","char_type_name":"word","page_number":574,"line_number":6,"text":"ٱلنَّهَارِ","translation":{"text":"দিনে","language_name":"bengali","language_id":20},"transliteration":{"text":"l-nahāri","language_name":"english","language_id":38}},{"id":7944,"position":5,"audio_url":"wbw/073_007_005.mp3","char_type_name":"word","page_number":574,"line_number":6,"text":"سَبْحًۭا","translation":{"text":"ব্যস্ততা","language_name":"bengali","language_id":20},"transliteration":{"text":"sabḥan","language_name":"english","language_id":38}},{"id":7945,"position":6,"audio_url":"wbw/073_007_006.mp3","char_type_name":"word","page_number":574,"line_number":6,"text":"طَوِيلًۭا","translation":{"text":"দীর্ঘ","language_name":"bengali","language_id":20},"transliteration":{"text":"ṭawīlan","language_name":"english","language_id":38}},{"id":7946,"position":7,"audio_url":null,"char_type_name":"end","page_number":574,"line_number":6,"text":"٧","translation":{"text":"(৭)","language_name":"bengali","language_id":20},"transliteration":{"text":null,"language_name":"english","language_id":38}}]},{"id":5483,"verse_number":8,"verse_key":"73:8","hizb_number":58,"rub_el_hizb_number":229,"ruku_number":510,"manzil_number":7,"sajdah_number":null,"page_number":574,"juz_number":29,"words":[{"id":9106,"position":1,"audio_url":"wbw/073_008_001.mp3","char_type_name":"word","page_number":574,"line_number":6,"text":"وَٱذْكُرِ","translation":{"text":"এবং তুমি স্মরণ করো","language_name":"bengali","language_id":20},"transliteration":{"text":"wa-udh'kuri","language_name":"english","language_id":38}},{"id":9107,"position":2,"audio_url":"wbw/073_008_002.mp3","char_type_name":"word","page_number":574,"line_number":6,"text":"ٱسْمَ","translation":{"text":"নাম","language_name":"bengali","language_id":20},"transliteration":{"text":"is'ma","language_name":"english","language_id":38}},{"id":9108,"position":3,"audio_url":"wbw/073_008_003.mp3","char_type_name":"word","page_number":574,"line_number":6,"text":"رَبِّكَ","translation":{"text":"তোমার রবের","language_name":"bengali","language_id":20},"transliteration":{"text":"rabbika","language_name":"english","language_id":38}},{"id":9109,"position":4,"audio_url":"wbw/073_008_004.mp3","char_type_name":"word","page_number":574,"line_number":6,"text":"وَتَبَتَّلْ","translation":{"text":"এবং নিমগ্ন হও","language_name":"bengali","language_id":20},"transliteration":{"text":"watabattal","language_name":"english","language_id":38}},{"id":9110,"position":5,"audio_url":"wbw/073_008_005.mp3","char_type_name":"word","page_number":574,"line_number":6,"text":"إِلَيْهِ","translation":{"text":"তার দিকে","language_name":"bengali","language_id":20},"transliteration":{"text":"ilayhi","language_name":"english","language_id":38}},{"id":9111,"position":6,"audio_url":"wbw/073_008_006.mp3","char_type_name":"word","page_number":574,"line_number":6,"text":"تَبْتِيلًۭا","translation":{"text":"খুব নিমগ্ন হয়ে","language_name":"bengali","language_id":20},"transliteration":{"text":"tabtīlan","language_name":"english","language_id":38}},{"id":9112,"position":7,"audio_url":null,"char_type_name":"end","page_number":574,"line_number":6,"text":"٨","translation":{"text":"(৮)","language_name":"bengali","language_id":20},"transliteration":{"text":null,"language_name":"english","language_id":38}}]},{"id":5484,"verse_number":9,"verse_key":"73:9","hizb_number":58,"rub_el_hizb_number":229,"ruku_number":510,"manzil_number":7,"sajdah_number":null,"page_number":574,"juz_number":29,"words":[{"id":10328,"position":1,"audio_url":"wbw/073_009_001.mp3","char_type_name":"word","page_number":574,"line_number":7,"text":"رَّبُّ","translation":{"text":"রব","language_name":"bengali","language_id":20},"transliteration":{"text":"rabbu","language_name":"english","language_id":38}},{"id":10329,"position":2,"audio_url":"wbw/073_009_002.mp3","char_type_name":"word","page_number":574,"line_number":7,"text":"ٱلْمَشْرِقِ","translation":{"text":"পূর্ব","language_name":"bengali","language_id":20},"transliteration":{"text":"l-mashriqi","language_name":"english","language_id":38}},{"id":10330,"position":3,"audio_url":"wbw/073_009_003.mp3","char_type_name":"word","page_number":574,"line_number":7,"text":"وَٱلْمَغْرِبِ","translation":{"text":"ও পশ্চিমের","language_name":"bengali","language_id":20},"transliteration":{"text":"wal-maghribi","language_name":"english","language_id":38}},{"id":10331,"position":4,"audio_url":"wbw/073_009_004.mp3","char_type_name":"word","page_number":574,"line_number":7,"text":"لَآ","translation":{"text":"নেই","language_name":"bengali","language_id":20},"transliteration":{"text":"lā","language_name":"english","language_id":38}},{"id":10332,"position":5,"audio_url":"wbw/073_009_005.mp3","char_type_name":"word","page_number":574,"line_number":7,"text":"إِلَـٰهَ","translation":{"text":"(কোন) ইলাহ","language_name":"bengali","language_id":20},"transliteration":{"text":"ilāha","language_name":"english","language_id":38}},{"id":10333,"position":6,"audio_url":"wbw/073_009_006.mp3","char_type_name":"word","page_number":574,"line_number":7,"text":"إِلَّا","translation":{"text":"ছাড়া","language_name":"bengali","language_id":20},"transliteration":{"text":"illā","language_name":"english","language_id":38}},{"id":10334,"position":7,"audio_url":"wbw/073_009_007.mp3","char_type_name":"word","page_number":574,"line_number":7,"text":"هُوَ","translation":{"text":"তিনি","language_name":"bengali","language_id":20},"transliteration":{"text":"huwa","language_name":"english","language_id":38}},{"id":10335,"position":8,"audio_url":"wbw/073_009_008.mp3","char_type_name":"word","page_number":574,"line_number":7,"text":"فَٱتَّخِذْهُ","translation":{"text":"তাকেই গ্রহণ সুতরাং করো","language_name":"bengali","language_id":20},"transliteration":{"text":"fa-ittakhidh'hu","language_name":"english","language_id":38}},{"id":10336,"position":9,"audio_url":"wbw/073_009_009.mp3","char_type_name":"word","page_number":574,"line_number":7,"text":"وَكِيلًۭا","translation":{"text":"কর্ম বিধায়ক রূপে","language_name":"bengali","language_id":20},"transliteration":{"text":"wakīlan","language_name":"english","language_id":38}},{"id":10337,"position":10,"audio_url":null,"char_type_name":"end","page_number":574,"line_number":7,"text":"٩","translation":{"text":"(৯)","language_name":"bengali","language_id":20},"transliteration":{"text":null,"language_name":"english","language_id":38}}]},{"id":5485,"verse_number":10,"verse_key":"73:10","hizb_number":58,"rub_el_hizb_number":229,"ruku_number":510,"manzil_number":7,"sajdah_number":null,"page_number":574,"juz_number":29,"words":[{"id":11562,"position":1,"audio_url":"wbw/073_010_001.mp3","char_type_name":"word","page_number":574,"line_number":7,"text":"وَٱصْبِرْ","translation":{"text":"এবং সবর করো","language_name":"bengali","language_id":20},"transliteration":{"text":"wa-iṣ'bir","language_name":"english","language_id":38}},{"id":11563,"position":2,"audio_url":"wbw/073_010_002.mp3","char_type_name":"word","page_number":574,"line_number":8,"text":"عَلَىٰ","translation":{"text":"উপর","language_name":"bengali","language_id":20},"transliteration":{"text":"ʿalā","language_name":"english","language_id":38}},{"id":11564,"position":3,"audio_url":"wbw/073_010_003.mp3","char_type_name":"word","page_number":574,"line_number":8,"text":"مَا","translation":{"text":"যা","language_name":"bengali","language_id":20},"transliteration":{"text":"mā","language_name":"english","language_id":38}},{"id":11565,"position":4,"audio_url":"wbw/073_010_004.mp3","char_type_name":"word","page_number":574,"line_number":8,"text":"يَقُولُونَ","translation":{"text":"তারা বলেছে","language_name":"bengali","language_id":20},"transliteration":{"text":"yaqūlūna","language_name":"english","language_id":38}},{"id":11566,"position":5,"audio_url":"wbw/073_010_005.mp3","char_type_name":"word","page_number":574,"line_number":8,"text":"وَٱهْجُرْهُمْ","translation":{"text":"এবং তাদের পরিহার করো","language_name":"bengali","language_id":20},"transliteration":{"text":"wa-uh'jur'hum","language_name":"english","language_id":38}},{"id":11567,"position":6,"audio_url":"wbw/073_010_006.mp3","char_type_name":"word","page_number":574,"line_number":8,"text":"هَجْرًۭا","translation":{"text":"পরিহার","language_name":"bengali","language_id":20},"transliteration":{"text":"hajran","language_name":"english","language_id":38}},{"id":11568,"position":7,"audio_url":"wbw/073_010_007.mp3","char_type_name":"word","page_number":574,"line_number":8,"text":"جَمِيلًۭا","translation":{"text":"উত্তম","language_name":"bengali","language_id":20},"transliteration":{"text":"jamīlan","language_name":"english","language_id":38}},{"id":11569,"position":8,"audio_url":null,"char_type_name":"end","page_number":574,"line_number":8,"text":"١٠","translation":{"text":"(১০)","language_name":"bengali","language_id":20},"transliteration":{"text":null,"language_name":"english","language_id":38}}]}],"pagination":{"per_page":10,"current_page":1,"next_page":2,"total_pages":2,"total_records":20}}
