{"verses":[{"id":5623,"verse_number":1,"verse_key":"77:1","hizb_number":58,"rub_el_hizb_number":232,"ruku_number":518,"manzil_number":7,"sajdah_number":null,"page_number":580,"juz_number":29,"words":[{"id":673,"position":1,"audio_url":"wbw/077_001_001.mp3","verse_key":"77:1","verse_id":5623,"location":"77:1:1","text_uthmani":"وَٱلْمُرْسَلَـٰتِ","qpc_uthmani_hafs":"وَٱلۡمُرۡسَلَٰتِ","char_type_name":"word","page_number":580,"line_number":9,"text":"وَٱلۡمُرۡسَلَٰتِ","translation":{"text":"By the ones sent forth","language_name":"english","language_id":38},"transliteration":{"text":"wal-mur'salāti","language_name":"english","language_id":38}},{"id":674,"position":2,"audio_url":"wbw/077_001_002.mp3","verse_key":"77:1","verse_id":5623,"location":"77:1:2","text_uthmani":"عُرْفًۭا","qpc_uthmani_hafs":"عُرۡفٗا","char_type_name":"word","page_number":580,"line_number":9,"text":"عُرۡفٗا","translation":{"text":"one after another","language_name":"english","language_id":38},"transliteration":{"text":"ʿur'fan","language_name":"english","language_id":38}},{"id":675,"position":3,"audio_url":null,"verse_key":"77:1","verse_id":5623,"location":"77:1:3","text_uthmani":"١","qpc_uthmani_hafs":"١","char_type_name":"end","page_number":580,"line_number":9,"text":"١","translation":{"text":"(1)","language_name":"english","language_id":38},"transliteration":{"text":null,"language_name":"english","language_id":38}}]},{"id":5624,"verse_number":2,"verse_key":"77:2","hizb_number":58,"rub_el_hizb_number":232,"ruku_number":518,"manzil_number":7,"sajdah_number":null,"page_number":580,"juz_number":29,"words":[{"id":1659,"position":1,"audio_url":"wbw/077_002_001.mp3","verse_key":"77:2","verse_id":5624,"location":"77:2:1","text_uthmani":"فَٱلْعَـٰصِفَـٰتِ","qpc_uthmani_hafs":"فَٱلۡعَٰصِفَٰتِ","char_type_name":"word","page_number":580,"line_number":9,"text":"فَٱلۡعَٰصِفَٰتِ","translation":{"text":"And the winds that blow","language_name":"english","language_id":38},"transliteration":{"text":"fal-ʿāṣifāti","language_name":"english","language_id":38}},{"id":1660,"position":2,"audio_url":"wbw/077_002_002.mp3","verse_key":"77:2","verse_id":5624,"location":"77:2:2","text_uthmani":"عَصْفًۭا","qpc_uthmani_hafs":"عَصۡفٗا","char_type_name":"word","page_number":580,"line_number":9,"text":"عَصۡفٗا","translation":{"text":"violently","language_name":"english","language_id":38},"transliteration":{"text":"ʿaṣfan","language_name":"english","language_id":38}},{"id":1661,"position":3,"audio_url":null,"verse_key":"77:2","verse_id":5624,"location":"77:2:3","text_uthmani":"٢","qpc_uthmani_hafs":"٢","char_type_name":"end","page_number":580,"line_number":9,"text":"٢","translation":{"text":"(2)","language_name":"english","language_id":38},"transliteration":{"text":null,"language_name":"english","language_id":38}}]},{"id":5625,"verse_number":3,"verse_key":"77:3","hizb_number":58,"rub_el_hizb_number":232,"ruku_number":518,"manzil_number":7,"sajdah_number":null,"page_number":580,"juz_number":29,"words":[{"id":2790,"position":1,"audio_url":"wbw/077_003_001.mp3","verse_key":"77:3","verse_id":5625,"location":"77:3:1","text_uthmani":"وَٱلنَّـٰشِرَٰتِ","qpc_uthmani_hafs":"وَٱلنَّٰشِرَٰتِ","char_type_name":"word","page_number":580,"line_number":9,"text":"وَٱلنَّٰشِرَٰتِ","translation":{"text":"And the ones that scatter","language_name":"english","language_id":38},"transliteration":{"text":"wal-nāshirāti","language_name":"english","language_id":38}},{"id":2791,"position":2,"audio_url":"wbw/077_003_002.mp3","verse_key":"77:3","verse_id":5625,"location":"77:3:2","text_uthmani":"نَشْرًۭا","qpc_uthmani_hafs":"نَشۡرٗا","char_type_name":"word","page_number":580,"line_number":9,"text":"نَشۡرٗا","translation":{"text":"far and wide","language_name":"english","language_id":38},"transliteration":{"text":"nashran","language_name":"english","language_id":38}},{"id":2792,"position":3,"audio_url":null,"verse_key":"77:3","verse_id":5625,"location":"77:3:3","text_uthmani":"٣","qpc_uthmani_hafs":"٣","char_type_name":"end","page_number":580,"line_number":9,"text":"٣","translation":{"text":"(3)","language_name":"english","language_id":38},"transliteration":{"text":null,"language_name":"english","language_id":38}}]},{"id":5626,"verse_number":4,"verse_key":"77:4","hizb_number":58,"rub_el_hizb_number":232,"ruku_number":518,"manzil_number":7,"sajdah_number":null,"page_number":580,"juz_number":29,"words":[{"id":4142,"position":1,"audio_url":"wbw/077_004_001.mp3","verse_key":"77:4","verse_id":5626,"location":"77:4:1","text_uthmani":"فَٱلْفَـٰرِقَـٰتِ","qpc_uthmani_hafs":"فَٱلۡفَٰرِقَٰتِ","char_type_name":"word","page_number":580,"line_number":10,"text":"فَٱلۡفَٰرِقَٰتِ","translation":{"text":"And those who separate","language_name":"english","language_id":38},"transliteration":{"text":"fal-fāriqāti","language_name":"english","language_id":38}},{"id":4143,"position":2,"audio_url":"wbw/077_004_002.mp3","verse_key":"77:4","verse_id":5626,"location":"77:4:2","text_uthmani":"فَرْقًۭا","qpc_uthmani_hafs":"فَرۡقٗا","char_type_name":"word","page_number":580,"line_number":10,"text":"فَرۡقٗا","translation":{"text":"(by the) Criterion","language_name":"english","language_id":38},"transliteration":{"text":"farqan","language_name":"english","language_id":38}},{"id":4144,"position":3,"audio_url":null,"verse_key":"77:4","verse_id":5626,"location":"77:4:3","text_uthmani":"٤","qpc_uthmani_hafs":"٤","char_type_name":"end","page_number":580,"line_number":10,"text":"٤","translation":{"text":"(4)","language_name":"english","language_id":38},"transliteration":{"text":null,"language_name":"english","language_id":38}}]},{"id":5627,"verse_number":5,"verse_key":"77:5","hizb_number":58,"rub_el_hizb_number":232,"ruku_number":518,"manzil_number":7,"sajdah_number":null,"page_number":580,"juz_number":29,"words":[{"id":5433,"position":1,"audio_url":"wbw/077_005_001.mp3","verse_key":"77:5","verse_id":5627,"location":"77:5:1","text_uthmani":"فَٱلْمُلْقِيَـٰتِ","qpc_uthmani_hafs":"فَٱلۡمُلۡقِيَٰتِ","char_type_name":"word","page_number":580,"line_number":10,"text":"فَٱلۡمُلۡقِيَٰتِ","translation":{"text":"And those who bring down","language_name":"english","language_id":38},"transliteration":{"text":"fal-mul'qiyāti","language_name":"english","language_id":38}},{"id":5434,"position":2,"audio_url":"wbw/077_005_002.mp3","verse_key":"77:5","verse_id":5627,"location":"77:5:2","text_uthmani":"ذِكْرًا","qpc_uthmani_hafs":"ذِكۡرًا","char_type_name":"word","page_number":580,"line_number":10,"text":"ذِكۡرًا","translation":{"text":"(the) Reminder","language_name":"english","language_id":38},"transliteration":{"text":"dhik'ran","language_name":"english","language_id":38}},{"id":5435,"position":3,"audio_url":null,"verse_key":"77:5","verse_id":5627,"location":"77:5:3","text_uthmani":"٥","qpc_uthmani_hafs":"٥","char_type_name":"end","page_number":580,"line_number":10,"text":"٥","translation":{"text":"(5)","language_name":"english","language_id":38},"transliteration":{"text":null,"language_name":"english","language_id":38}}]},{"id":5628,"verse_number":6,"verse_key":"77:6","hizb_number":58,"rub_el_hizb_number":232,"ruku_number":518,"manzil_number":7,"sajdah_number":null,"page_number":580,"juz_number":29,"words":[{"id":6648,"position":1,"audio_url":"wbw/077_006_001.mp3","verse_key":"77:6","verse_id":5628,"location":"77:6:1","text_uthmani":"عُذْرًا","qpc_uthmani_hafs":"عُذۡرًا","char_type_name":"word","page_number":580,"line_number":10,"text":"عُذۡرًا","translation":{"text":"(As) justification","language_name":"english","language_id":38},"transliteration":{"text":"ʿudh'ran","language_name":"english","language_id":38}},{"id":6649,"position":2,"audio_url":"wbw/077_006_002.mp3","verse_key":"77:6","verse_id":5628,"location":"77:6:2","text_uthmani":"أَوْ","qpc_uthmani_hafs":"أَوۡ","char_type_name":"word","page_number":580,"line_number":10,"text":"أَوۡ","translation":{"text":"or","language_name":"english","language_id":38},"transliteration":{"text":"aw","language_name":"english","language_id":38}},{"id":6650,"position":3,"audio_url":"wbw/077_006_003.mp3","verse_key":"77:6","verse_id":5628,"location":"77:6:3","text_uthmani":"نُذْرًا","qpc_uthmani_hafs":"نُذۡرًا","char_type_name":"word","page_number":580,"line_number":10,"text":"نُذۡرًا","translation":{"text":"warning","language_name":"english","language_id":38},"transliteration":{"text":"nudh'ran","language_name":"english","language_id":38}},{"id":6651,"position":4,"audio_url":null,"verse_key":"77:6","verse_id":5628,"location":"77:6:4","text_uthmani":"٦","qpc_uthmani_hafs":"٦","char_type_name":"end","page_number":580,"line_number":10,"text":"٦","translation":{"text":"(6)","language_name":"english","language_id":38},"transliteration":{"text":null,"language_name":"english","language_id":38}}]},{"id":5629,"verse_number":7,"verse_key":"77:7","hizb_number":58,"rub_el_hizb_number":232,"ruku_number":518,"manzil_number":7,"sajdah_number":null,"page_number":580,"juz_number":29,"words":[{"id":8009,"position":1,"audio_url":"wbw/077_007_001.mp3","verse_key":"77:7","verse_id":5629,"location":"77:7:1","text_uthmani":"إِنَّمَا","qpc_uthmani_hafs":"إِنَّمَا","char_type_name":"word","page_number":580,"line_number":10,"text":"إِنَّمَا","translation":{"text":"Indeed, what","language_name":"english","language_id":38},"transliteration":{"text":"innamā","language_name":"english","language_id":38}},{"id":8010,"position":2,"audio_url":"wbw/077_007_002.mp3","verse_key":"77:7","verse_id":5629,"location":"77:7:2","text_uthmani":"تُوعَدُونَ","qpc_uthmani_hafs":"تُوعَدُونَ","char_type_name":"word","page_number":580,"line_number":11,"text":"تُوعَدُونَ","translation":{"text":"you are promised","language_name":"english","language_id":38},"transliteration":{"text":"tūʿadūna","language_name":"english","language_id":38}},{"id":8011,"position":3,"audio_url":"wbw/077_007_003.mp3","verse_key":"77:7","verse_id":5629,"location":"77:7:3","text_uthmani":"لَوَٰقِعٌۭ","qpc_uthmani_hafs":"لَوَٰقِعٞ","char_type_name":"word","page_number":580,"line_number":11,"text":"لَوَٰقِعٞ","translation":{"text":"will surely occur","language_name":"english","language_id":38},"transliteration":{"text":"lawāqiʿun","language_name":"english","language_id":38}},{"id":8012,"position":4,"audio_url":null,"verse_key":"77:7","verse_id":5629,"location":"77:7:4","text_uthmani":"٧","qpc_uthmani_hafs":"٧","char_type_name":"end","page_number":580,"line_number":11,"text":"٧","translation":{"text":"(7)","language_name":"english","language_id":38},"transliteration":{"text":null,"language_name":"english","language_id":38}}]},{"id":5630,"verse_number":8,"verse_key":"77:8","hizb_number":58,"rub_el_hizb_number":232,"ruku_number":518,"manzil_number":7,"sajdah_number":null,"page_number":580,"juz_number":29,"words":[{"id":9169,"position":1,"audio_url":"wbw/077_008_001.mp3","verse_key":"77:8","verse_id":5630,"location":"77:8:1","text_uthmani":"فَإِذَا","qpc_uthmani_hafs":"فَإِذَا","char_type_name":"word","page_number":580,"line_number":11,"text":"فَإِذَا","translation":{"text":"So when","language_name":"english","language_id":38},"transliteration":{"text":"fa-idhā","language_name":"english","language_id":38}},{"id":9170,"position":2,"audio_url":"wbw/077_008_002.mp3","verse_key":"77:8","verse_id":5630,"location":"77:8:2","text_uthmani":"ٱلنُّجُومُ","qpc_uthmani_hafs":"ٱلنُّجُومُ","char_type_name":"word","page_number":580,"line_number":11,"text":"ٱلنُّجُومُ","translation":{"text":"the stars","language_name":"english","language_id":38},"transliteration":{"text":"l-nujūmu","language_name":"english","language_id":38}},{"id":9171,"position":3,"audio_url":"wbw/077_008_003.mp3","verse_key":"77:8","verse_id":5630,"location":"77:8:3","text_uthmani":"طُمِسَتْ","qpc_uthmani_hafs":"طُمِسَتۡ","char_type_name":"word","page_number":580,"line_number":11,"text":"طُمِسَتۡ","translation":{"text":"are obliterated","language_name":"english","language_id":38},"transliteration":{"text":"ṭumisat","language_name":"english","language_id":38}},{"id":9172,"position":4,"audio_url":null,"verse_key":"77:8","verse_id":5630,"location":"77:8:4","text_uthmani":"٨","qpc_uthmani_hafs":"٨","char_type_name":"end","page_number":580,"line_number":11,"text":"٨","translation":{"text":"(8)","language_name":"english","language_id":38},"transliteration":{"text":null,"language_name":"english","language_id":38}}]},{"id":5631,"verse_number":9,"verse_key":"77:9","hizb_number":58,"rub_el_hizb_number":232,"ruku_number":518,"manzil_number":7,"sajdah_number":null,"page_number":580,"juz_number":29,"words":[{"id":10371,"position":1,"audio_url":"wbw/077_009_001.mp3","verse_key":"77:9","verse_id":5631,"location":"77:9:1","text_uthmani":"وَإِذَا","qpc_uthmani_hafs":"وَإِذَا","char_type_name":"word","page_number":580,"line_number":11,"text":"وَإِذَا","translation":{"text":"And when","language_name":"english","language_id":38},"transliteration":{"text":"wa-idhā","language_name":"english","language_id":38}},{"id":10372,"position":2,"audio_url":"wbw/077_009_002.mp3","verse_key":"77:9","verse_id":5631,"location":"77:9:2","text_uthmani":"ٱلسَّمَآءُ","qpc_uthmani_hafs":"ٱلسَّمَآءُ","char_type_name":"word","page_number":580,"line_number":11,"text":"ٱلسَّمَآءُ","translation":{"text":"the heaven","language_name":"english","language_id":38},"transliteration":{"text":"l-samāu","language_name":"english","language_id":38}},{"id":10373,"position":3,"audio_url":"wbw/077_009_003.mp3","verse_key":"77:9","verse_id":5631,"location":"77:9:3","text_uthmani":"فُرِجَتْ","qpc_uthmani_hafs":"فُرِجَتۡ","char_type_name":"word","page_number":580,"line_number":11,"text":"فُرِجَتۡ","translation":{"text":"is cleft asunder","language_name":"english","language_id":38},"transliteration":{"text":"furijat","language_name":"english","language_id":38}},{"id":10374,"position":4,"audio_url":null,"verse_key":"77:9","verse_id":5631,"location":"77:9:4","text_uthmani":"٩","qpc_uthmani_hafs":"٩","char_type_name":"end","page_number":580,"line_number":12,"text":"٩","translation":{"text":"(9)","language_name":"english","language_id":38},"transliteration":{"text":null,"language_name":"english","language_id":38}}]},{"id":5632,"verse_number":10,"verse_key":"77:10","hizb_number":58,"rub_el_hizb_number":232,"ruku_number":518,"manzil_number":7,"sajdah_number":null,"page_number":580,"juz_number":29,"words":[{"id":11609,"position":1,"audio_url":"wbw/077_010_001.mp3","verse_key":"77:10","verse_id":5632,"location":"77:10:1","text_uthmani":"وَإِذَا","qpc_uthmani_hafs":"وَإِذَا","char_type_name":"word","page_number":580,"line_number":12,"text":"وَإِذَا","translation":{"text":"And when","language_name":"english","language_id":38},"transliteration":{"text":"wa-idhā","language_name":"english","language_id":38}},{"id":11610,"position":2,"audio_url":"wbw/077_010_002.mp3","verse_key":"77:10","verse_id":5632,"location":"77:10:2","text_uthmani":"ٱلْجِبَالُ","qpc_uthmani_hafs":"ٱلۡجِبَالُ","char_type_name":"word","page_number":580,"line_number":12,"text":"ٱلۡجِبَالُ","translation":{"text":"the mountains","language_name":"english","language_id":38},"transliteration":{"text":"l-jibālu","language_name":"english","language_id":38}},{"id":11611,"position":3,"audio_url":"wbw/077_010_003.mp3","verse_key":"77:10","verse_id":5632,"location":"77:10:3","text_uthmani":"نُسِفَتْ","qpc_uthmani_hafs":"نُسِفَتۡ","char_type_name":"word","page_number":580,"line_number":12,"text":"نُسِفَتۡ","translation":{"text":"are blown away","language_name":"english","language_id":38},"transliteration":{"text":"nusifat","language_name":"english","language_id":38}},{"id":11612,"position":4,"audio_url":null,"verse_key":"77:10","verse_id":5632,"location":"77:10:4","text_uthmani":"١٠","qpc_uthmani_hafs":"١٠","char_type_name":"end","page_number":580,"line_number":12,"text":"١٠","translation":{"text":"(10)","language_name":"english","language_id":38},"transliteration":{"text":null,"language_name":"english","language_id":38}}]}],"pagination":{"per_page":10,"current_page":1,"next_page":2,"total_pages":5,"total_records":50}}
