{"verses":[{"id":5633,"verse_number":11,"verse_key":"77:11","hizb_number":58,"rub_el_hizb_number":232,"ruku_number":518,"manzil_number":7,"sajdah_number":null,"page_number":580,"juz_number":29,"words":[{"id":12984,"position":1,"audio_url":"wbw/077_011_001.mp3","verse_key":"77:11","verse_id":5633,"location":"77:11:1","text_uthmani":"وَإِذَا","qpc_uthmani_hafs":"وَإِذَا","char_type_name":"word","page_number":580,"line_number":12,"text":"وَإِذَا","translation":{"text":"And when","language_name":"english","language_id":38},"transliteration":{"text":"wa-idhā","language_name":"english","language_id":38}},{"id":12985,"position":2,"audio_url":"wbw/077_011_002.mp3","verse_key":"77:11","verse_id":5633,"location":"77:11:2","text_uthmani":"ٱلرُّسُلُ","qpc_uthmani_hafs":"ٱلرُّسُلُ","char_type_name":"word","page_number":580,"line_number":12,"text":"ٱلرُّسُلُ","translation":{"text":"the Messengers","language_name":"english","language_id":38},"transliteration":{"text":"l-rusulu","language_name":"english","language_id":38}},{"id":12986,"position":3,"audio_url":"wbw/077_011_003.mp3","verse_key":"77:11","verse_id":5633,"location":"77:11:3","text_uthmani":"أُقِّتَتْ","qpc_uthmani_hafs":"أُقِّتَتۡ","char_type_name":"word","page_number":580,"line_number":12,"text":"أُقِّتَتۡ","translation":{"text":"are gathered to their appointed time","language_name":"english","language_id":38},"transliteration":{"text":"uqqitat","language_name":"english","language_id":38}},{"id":12987,"position":4,"audio_url":null,"verse_key":"77:11","verse_id":5633,"location":"77:11:4","text_uthmani":"١١","qpc_uthmani_hafs":"١١","char_type_name":"end","page_number":580,"line_number":12,"text":"١١","translation":{"text":"(11)","language_name":"english","language_id":38},"transliteration":{"text":null,"language_name":"english","language_id":38}}]},{"id":5634,"verse_number":12,"verse_key":"77:12","hizb_number":58,"rub_el_hizb_number":232,"ruku_number":518,"manzil_number":7,"sajdah_number":null,"page_number":580,"juz_number":29,"words":[{"id":14196,"position":1,"audio_url":"wbw/077_012_001.mp3","verse_key":"77:12","verse_id":5634,"location":"77:12:1","text_uthmani":"لِأَىِّ","qpc_uthmani_hafs":"لِأَيِّ","char_type_name":"word","page_number":580,"line_number":12,"text":"لِأَيِّ","translation":{"text":"For what","language_name":"english","language_id":38},"transliteration":{"text":"li-ayyi","language_name":"english","language_id":38}},{"id":14197,"position":2,"audio_url":"wbw/077_012_002.mp3","verse_key":"77:12","verse_id":5634,"location":"77:12:2","text_uthmani":"يَوْمٍ","qpc_uthmani_hafs":"يَوۡمٍ","char_type_name":"word","page_number":580,"line_number":12,"text":"يَوۡمٍ","translation":{"text":"Day","language_name":"english","language_id":38},"transliteration":{"text":"yawmin","language_name":"english","language_id":38}},{"id":14198,"position":3,"audio_url":"wbw/077_012_003.mp3","verse_key":"77:12","verse_id":5634,"location":"77:12:3","text_uthmani":"أُجِّلَتْ","qpc_uthmani_hafs":"أُجِّلَتۡ","char_type_name":"word","page_number":580,"line_number":12,"text":"أُجِّلَتۡ","translation":{"text":"are (these) postponed","language_name":"english","language_id":38},"transliteration":{"text":"ujjilat","language_name":"english","language_id":38}},{"id":14199,"position":4,"audio_url":null,"verse_key":"77:12","verse_id":5634,"location":"77:12:4","text_uthmani":"١٢","qpc_uthmani_hafs":"١٢","char_type_name":"end","page_number":580,"line_number":13,"text":"١٢","translation":{"text":"(12)","language_name":"english","language_id":38},"transliteration":{"text":null,"language_name":"english","language_id":38}}]},{"id":5635,"verse_number":13,"verse_key":"77:13","hizb_number":58,"rub_el_hizb_number":232,"ruku_number":518,"manzil_number":7,"sajdah_number":null,"page_number":580,"juz_number":29,"words":[{"id":15375,"position":1,"audio_url":"wbw/077_013_001.mp3","verse_key":"77:13","verse_id":5635,"location":"77:13:1","text_uthmani":"لِيَوْمِ","qpc_uthmani_hafs":"لِيَوۡمِ","char_type_name":"word","page_number":580,"line_number":13,"text":"لِيَوۡمِ","translation":{"text":"For (the) Day","language_name":"english","language_id":38},"transliteration":{"text":"liyawmi","language_name":"english","language_id":38}},{"id":15376,"position":2,"audio_url":"wbw/077_013_002.mp3","verse_key":"77:13","verse_id":5635,"location":"77:13:2","text_uthmani":"ٱلْفَصْلِ","qpc_uthmani_hafs":"ٱلۡفَصۡلِ","char_type_name":"word","page_number":580,"line_number":13,"text":"ٱلۡفَصۡلِ","translation":{"text":"(of) Judgment","language_name":"english","language_id":38},"transliteration":{"text":"l-faṣli","language_name":"english","language_id":38}},{"id":15377,"position":3,"audio_url":null,"verse_key":"77:13","verse_id":5635,"location":"77:13:3","text_uthmani":"١٣","qpc_uthmani_hafs":"١٣","char_type_name":"end","page_number":580,"line_number":13,"text":"١٣","translation":{"text":"(13)","language_name":"english","language_id":38},"transliteration":{"text":null,"language_name":"english","language_id":38}}]},{"id":5636,"verse_number":14,"verse_key":"77:14","hizb_number":58,"rub_el_hizb_number":232,"ruku_number":518,"manzil_number":7,"sajdah_number":null,"page_number":580,"juz_number":29,"words":[{"id":16336,"position":1,"audio_url":"wbw/077_014_001.mp3","verse_key":"77:14","verse_id":5636,"location":"77:14:1","text_uthmani":"وَمَآ","qpc_uthmani_hafs":"وَمَآ","char_type_name":"word","page_number":580,"line_number":13,"text":"وَمَآ","translation":{"text":"And what","language_name":"english","language_id":38},"transliteration":{"text":"wamā","language_name":"english","language_id":38}},{"id":16337,"position":2,"audio_url":"wbw/077_014_002.mp3","verse_key":"77:14","verse_id":5636,"location":"77:14:2","text_uthmani":"أَدْرَىٰكَ","qpc_uthmani_hafs":"أَدۡرَىٰكَ","char_type_name":"word","page_number":580,"line_number":13,"text":"أَدۡرَىٰكَ","translation":{"text":"will make you know","language_name":"english","language_id":38},"transliteration":{"text":"adrāka","language_name":"english","language_id":38}},{"id":16338,"position":3,"audio_url":"wbw/077_014_003.mp3","verse_key":"77:14","verse_id":5636,"location":"77:14:3","text_uthmani":"مَا","qpc_uthmani_hafs":"مَا","char_type_name":"word","page_number":580,"line_number":13,"text":"مَا","translation":{"text":"what","language_name":"english","language_id":38},"transliteration":{"text":"mā","language_name":"english","language_id":38}},{"id":16339,"position":4,"audio_url":"wbw/077_014_004.mp3","verse_key":"77:14","verse_id":5636,"location":"77:14:4","text_uthmani":"يَوْمُ","qpc_uthmani_hafs":"يَوۡمُ","char_type_name":"word","page_number":580,"line_number":13,"text":"يَوۡمُ","translation":{"text":"(is the) Day","language_name":"english","language_id":38},"transliteration":{"text":"yawmu","language_name":"english","language_id":38}},{"id":16340,"position":5,"audio_url":"wbw/077_014_005.mp3","verse_key":"77:14","verse_id":5636,"location":"77:14:5","text_uthmani":"ٱلْفَصْلِ","qpc_uthmani_hafs":"ٱلۡفَصۡلِ","char_type_name":"word","page_number":580,"line_number":13,"text":"ٱلۡفَصۡلِ","translation":{"text":"(of) the Judgment","language_name":"english","language_id":38},"transliteration":{"text":"l-faṣli","language_name":"english","language_id":38}},{"id":16341,"position":6,"audio_url":null,"verse_key":"77:14","verse_id":5636,"location":"77:14:6","text_uthmani":"١٤","qpc_uthmani_hafs":"١٤","char_type_name":"end","page_number":580,"line_number":13,"text":"١٤","translation":{"text":"(14)","language_name":"english","language_id":38},"transliteration":{"text":null,"language_name":"english","language_id":38}}]},{"id":5637,"verse_number":15,"verse_key":"77:15","hizb_number":58,"rub_el_hizb_number":232,"ruku_number":518,"manzil_number":7,"sajdah_number":null,"page_number":580,"juz_number":29,"words":[{"id":17490,"position":1,"audio_url":"wbw/077_015_001.mp3","verse_key":"77:15","verse_id":5637,"location":"77:15:1","text_uthmani":"وَيْلٌۭ","qpc_uthmani_hafs":"وَيۡلٞ","char_type_name":"word","page_number":580,"line_number":13,"text":"وَيۡلٞ","translation":{"text":"Woe","language_name":"english","language_id":38},"transliteration":{"text":"waylun","language_name":"english","language_id":38}},{"id":17491,"position":2,"audio_url":"wbw/077_015_002.mp3","verse_key":"77:15","verse_id":5637,"location":"77:15:2","text_uthmani":"يَوْمَئِذٍۢ","qpc_uthmani_hafs":"يَوۡمَئِذٖ","char_type_name":"word","page_number":580,"line_number":13,"text":"يَوۡمَئِذٖ","translation":{"text":"that Day","language_name":"english","language_id":38},"transliteration":{"text":"yawma-idhin","language_name":"english","language_id":38}},{"id":17492,"position":3,"audio_url":"wbw/077_015_003.mp3","verse_key":"77:15","verse_id":5637,"location":"77:15:3","text_uthmani":"لِّلْمُكَذِّبِينَ","qpc_uthmani_hafs":"لِّلۡمُكَذِّبِينَ","char_type_name":"word","page_number":580,"line_number":14,"text":"لِّلۡمُكَذِّبِينَ","translation":{"text":"to the deniers","language_name":"english","language_id":38},"transliteration":{"text":"lil'mukadhibīna","language_name":"english","language_id":38}},{"id":17493,"position":4,"audio_url":null,"verse_key":"77:15","verse_id":5637,"location":"77:15:4","text_uthmani":"١٥","qpc_uthmani_hafs":"١٥","char_type_name":"end","page_number":580,"line_number":14,"text":"١٥","translation":{"text":"(15)","language_name":"english","language_id":38},"transliteration":{"text":null,"language_name":"english","language_id":38}}]},{"id":5638,"verse_number":16,"verse_key":"77:16","hizb_number":58,"rub_el_hizb_number":232,"ruku_number":518,"manzil_number":7,"sajdah_number":null,"page_number":580,"juz_number":29,"words":[{"id":18562,"position":1,"audio_url":"wbw/077_016_001.mp3","verse_key":"77:16","verse_id":5638,"location":"77:16:1","text_uthmani":"أَلَمْ","qpc_uthmani_hafs":"أَلَمۡ","char_type_name":"word","page_number":580,"line_number":14,"text":"أَلَمۡ","translation":{"text":"Did not","language_name":"english","language_id":38},"transliteration":{"text":"alam","language_name":"english","language_id":38}},{"id":18563,"position":2,"audio_url":"wbw/077_016_002.mp3","verse_key":"77:16","verse_id":5638,"location":"77:16:2","text_uthmani":"نُهْلِكِ","qpc_uthmani_hafs":"نُهۡلِكِ","char_type_name":"word","page_number":580,"line_number":14,"text":"نُهۡلِكِ","translation":{"text":"We destroy","language_name":"english","language_id":38},"transliteration":{"text":"nuh'liki","language_name":"english","language_id":38}},{"id":18564,"position":3,"audio_url":"wbw/077_016_003.mp3","verse_key":"77:16","verse_id":5638,"location":"77:16:3","text_uthmani":"ٱلْأَوَّلِينَ","qpc_uthmani_hafs":"ٱلۡأَوَّلِينَ","char_type_name":"word","page_number":580,"line_number":14,"text":"ٱلۡأَوَّلِينَ","translation":{"text":"the former (people)","language_name":"english","language_id":38},"transliteration":{"text":"l-awalīna","language_name":"english","language_id":38}},{"id":18565,"position":4,"audio_url":null,"verse_key":"77:16","verse_id":5638,"location":"77:16:4","text_uthmani":"١٦","qpc_uthmani_hafs":"١٦","char_type_name":"end","page_number":580,"line_number":14,"text":"١٦","translation":{"text":"(16)","language_name":"english","language_id":38},"transliteration":{"text":null,"language_name":"english","language_id":38}}]},{"id":5639,"verse_number":17,"verse_key":"77:17","hizb_number":58,"rub_el_hizb_number":232,"ruku_number":518,"manzil_number":7,"sajdah_number":null,"page_number":580,"juz_number":29,"words":[{"id":19650,"position":1,"audio_url":"wbw/077_017_001.mp3","verse_key":"77:17","verse_id":5639,"location":"77:17:1","text_uthmani":"ثُمَّ","qpc_uthmani_hafs":"ثُمَّ","char_type_name":"word","page_number":580,"line_number":14,"text":"ثُمَّ","translation":{"text":"Then","language_name":"english","language_id":38},"transliteration":{"text":"thumma","language_name":"english","language_id":38}},{"id":19651,"position":2,"audio_url":"wbw/077_017_002.mp3","verse_key":"77:17","verse_id":5639,"location":"77:17:2","text_uthmani":"نُتْبِعُهُمُ","qpc_uthmani_hafs":"نُتۡبِعُهُمُ","char_type_name":"word","page_number":580,"line_number":14,"text":"نُتۡبِعُهُمُ","translation":{"text":"We follow them up","language_name":"english","language_id":38},"transliteration":{"text":"nut'biʿuhumu","language_name":"english","language_id":38}},{"id":19652,"position":3,"audio_url":"wbw/077_017_003.mp3","verse_key":"77:17","verse_id":5639,"location":"77:17:3","text_uthmani":"ٱلْـَٔاخِرِينَ","qpc_uthmani_hafs":"ٱلۡأٓخِرِينَ","char_type_name":"word","page_number":580,"line_number":14,"text":"ٱلۡأٓخِرِينَ","translation":{"text":"(with) the later ones","language_name":"english","language_id":38},"transliteration":{"text":"l-ākhirīna","language_name":"english","language_id":38}},{"id":19653,"position":4,"audio_url":null,"verse_key":"77:17","verse_id":5639,"location":"77:17:4","text_uthmani":"١٧","qpc_uthmani_hafs":"١٧","char_type_name":"end","page_number":580,"line_number":15,"text":"١٧","translation":{"text":"(17)","language_name":"english","language_id":38},"transliteration":{"text":null,"language_name":"english","language_id":38}}]},{"id":5640,"verse_number":18,"verse_key":"77:18","hizb_number":58,"rub_el_hizb_number":232,"ruku_number":518,"manzil_number":7,"sajdah_number":null,"page_number":580,"juz_number":29,"words":[{"id":20660,"position":1,"audio_url":"wbw/077_018_001.mp3","verse_key":"77:18","verse_id":5640,"location":"77:18:1","text_uthmani":"كَذَٰلِكَ","qpc_uthmani_hafs":"كَذَٰلِكَ","char_type_name":"word","page_number":580,"line_number":15,"text":"كَذَٰلِكَ","translation":{"text":"Thus","language_name":"english","language_id":38},"transliteration":{"text":"kadhālika","language_name":"english","language_id":38}},{"id":20661,"position":2,"audio_url":"wbw/077_018_002.mp3","verse_key":"77:18","verse_id":5640,"location":"77:18:2","text_uthmani":"نَفْعَلُ","qpc_uthmani_hafs":"نَفۡعَلُ","char_type_name":"word","page_number":580,"line_number":15,"text":"نَفۡعَلُ","translation":{"text":"We deal","language_name":"english","language_id":38},"transliteration":{"text":"nafʿalu","language_name":"english","language_id":38}},{"id":20662,"position":3,"audio_url":"wbw/077_018_003.mp3","verse_key":"77:18","verse_id":5640,"location":"77:18:3","text_uthmani":"بِٱلْمُجْرِمِينَ","qpc_uthmani_hafs":"بِٱلۡمُجۡرِمِينَ","char_type_name":"word","page_number":580,"line_number":15,"text":"بِٱلۡمُجۡرِمِينَ","translation":{"text":"with the criminals","language_name":"english","language_id":38},"transliteration":{"text":"bil-muj'rimīna","language_name":"english","language_id":38}},{"id":20663,"position":4,"audio_url":null,"verse_key":"77:18","verse_id":5640,"location":"77:18:4","text_uthmani":"١٨","qpc_uthmani_hafs":"١٨","char_type_name":"end","page_number":580,"line_number":15,"text":"١٨","translation":{"text":"(18)","language_name":"english","language_id":38},"transliteration":{"text":null,"language_name":"english","language_id":38}}]},{"id":5641,"verse_number":19,"verse_key":"77:19","hizb_number":58,"rub_el_hizb_number":232,"ruku_number":518,"manzil_number":7,"sajdah_number":null,"page_number":580,"juz_number":29,"words":[{"id":21584,"position":1,"audio_url":"wbw/077_019_001.mp3","verse_key":"77:19","verse_id":5641,"location":"77:19:1","text_uthmani":"وَيْلٌۭ","qpc_uthmani_hafs":"وَيۡلٞ","char_type_name":"word","page_number":580,"line_number":15,"text":"وَيۡلٞ","translation":{"text":"Woe","language_name":"english","language_id":38},"transliteration":{"text":"waylun","language_name":"english","language_id":38}},{"id":21585,"position":2,"audio_url":"wbw/077_019_002.mp3","verse_key":"77:19","verse_id":5641,"location":"77:19:2","text_uthmani":"يَوْمَئِذٍۢ","qpc_uthmani_hafs":"يَوۡمَئِذٖ","char_type_name":"word","page_number":580,"line_number":15,"text":"يَوۡمَئِذٖ","translation":{"text":"that Day","language_name":"english","language_id":38},"transliteration":{"text":"yawma-idhin","language_name":"english","language_id":38}},{"id":21586,"position":3,"audio_url":"wbw/077_019_003.mp3","verse_key":"77:19","verse_id":5641,"location":"77:19:3","text_uthmani":"لِّلْمُكَذِّبِينَ","qpc_uthmani_hafs":"لِّلۡمُكَذِّبِينَ","char_type_name":"word","page_number":580,"line_number":15,"text":"لِّلۡمُكَذِّبِينَ","translation":{"text":"to the deniers","language_name":"english","language_id":38},"transliteration":{"text":"lil'mukadhibīna","language_name":"english","language_id":38}},{"id":21587,"position":4,"audio_url":null,"verse_key":"77:19","verse_id":5641,"location":"77:19:4","text_uthmani":"١٩","qpc_uthmani_hafs":"١٩","char_type_name":"end","page_number":580,"line_number":15,"text":"١٩","translation":{"text":"(19)","language_name":"english","language_id":38},"transliteration":{"text":null,"language_name":"english","language_id":38}}]},{"id":5642,"verse_number":20,"verse_key":"77:20","hizb_number":58,"rub_el_hizb_number":232,"ruku_number":518,"manzil_number":7,"sajdah_number":null,"page_number":581,"juz_number":29,"words":[{"id":22881,"position":1,"audio_url":"wbw/077_020_001.mp3","verse_key":"77:20","verse_id":5642,"location":"77:20:1","text_uthmani":"أَلَمْ","qpc_uthmani_hafs":"أَلَمۡ","char_type_name":"word","page_number":581,"line_number":1,"text":"أَلَمۡ","translation":{"text":"Did not","language_name":"english","language_id":38},"transliteration":{"text":"alam","language_name":"english","language_id":38}},{"id":22882,"position":2,"audio_url":"wbw/077_020_002.mp3","verse_key":"77:20","verse_id":5642,"location":"77:20:2","text_uthmani":"نَخْلُقكُّم","qpc_uthmani_hafs":"نَخۡلُقكُّم","char_type_name":"word","page_number":581,"line_number":1,"text":"نَخۡلُقكُّم","translation":{"text":"We create you","language_name":"english","language_id":38},"transliteration":{"text":"nakhluqkkum","language_name":"english","language_id":38}},{"id":22883,"position":3,"audio_url":"wbw/077_020_003.mp3","verse_key":"77:20","verse_id":5642,"location":"77:20:3","text_uthmani":"مِّن","qpc_uthmani_hafs":"مِّن","char_type_name":"word","page_number":581,"line_number":1,"text":"مِّن","translation":{"text":"from","language_name":"english","language_id":38},"transliteration":{"text":"min","language_name":"english","language_id":38}},{"id":22884,"position":4,"audio_url":"wbw/077_020_004.mp3","verse_key":"77:20","verse_id":5642,"location":"77:20:4","text_uthmani":"مَّآءٍۢ","qpc_uthmani_hafs":"مَّآءٖ","char_type_name":"word","page_number":581,"line_number":1,"text":"مَّآءٖ","translation":{"text":"a water","language_name":"english","language_id":38},"transliteration":{"text":"māin","language_name":"english","language_id":38}},{"id":22885,"position":5,"audio_url":"wbw/077_020_005.mp3","verse_key":"77:20","verse_id":5642,"location":"77:20:5","text_uthmani":"مَّهِينٍۢ","qpc_uthmani_hafs":"مَّهِينٖ","char_type_name":"word","page_number":581,"line_number":1,"text":"مَّهِينٖ","translation":{"text":"despicable","language_name":"english","language_id":38},"transliteration":{"text":"mahīnin","language_name":"english","language_id":38}},{"id":22886,"position":6,"audio_url":null,"verse_key":"77:20","verse_id":5642,"location":"77:20:6","text_uthmani":"٢٠","qpc_uthmani_hafs":"٢٠","char_type_name":"end","page_number":581,"line_number":1,"text":"٢٠","translation":{"text":"(20)","language_name":"english","language_id":38},"transliteration":{"text":null,"language_name":"english","language_id":38}}]}],"pagination":{"per_page":10,"current_page":2,"next_page":3,"total_pages":5,"total_records":50}}
