{"verses":[{"id":1594,"verse_number":121,"verse_key":"11:121","hizb_number":24,"rub_el_hizb_number":94,"ruku_number":192,"manzil_number":3,"sajdah_number":null,"page_number":235,"juz_number":12,"words":[{"id":76610,"position":1,"audio_url":"wbw/011_121_001.mp3","verse_key":"11:121","verse_id":1594,"location":"11:121:1","text_uthmani":"وَقُل","qpc_uthmani_hafs":"وَقُل","char_type_name":"word","page_number":235,"line_number":5,"text":"وَقُل","translation":{"text":"And say","language_name":"english","language_id":38},"transliteration":{"text":"waqul","language_name":"english","language_id":38}},{"id":76611,"position":2,"audio_url":"wbw/011_121_002.mp3","verse_key":"11:121","verse_id":1594,"location":"11:121:2","text_uthmani":"لِّلَّذِينَ","qpc_uthmani_hafs":"لِّلَّذِينَ","char_type_name":"word","page_number":235,"line_number":5,"text":"لِّلَّذِينَ","translation":{"text":"to those who","language_name":"english","language_id":38},"transliteration":{"text":"lilladhīna","language_name":"english","language_id":38}},{"id":76612,"position":3,"audio_url":"wbw/011_121_003.mp3","verse_key":"11:121","verse_id":1594,"location":"11:121:3","text_uthmani":"لَا","qpc_uthmani_hafs":"لَا","char_type_name":"word","page_number":235,"line_number":5,"text":"لَا","translation":{"text":"(do) not","language_name":"english","language_id":38},"transliteration":{"text":"lā","language_name":"english","language_id":38}},{"id":76613,"position":4,"audio_url":"wbw/011_121_004.mp3","verse_key":"11:121","verse_id":1594,"location":"11:121:4","text_uthmani":"يُؤْمِنُونَ","qpc_uthmani_hafs":"يُؤۡمِنُونَ","char_type_name":"word","page_number":235,"line_number":5,"text":"يُؤۡمِنُونَ","translation":{"text":"believe","language_name":"english","language_id":38},"transliteration":{"text":"yu'minūna","language_name":"english","language_id":38}},{"id":76614,"position":5,"audio_url":"wbw/011_121_005.mp3","verse_key":"11:121","verse_id":1594,"location":"11:121:5","text_uthmani":"ٱعْمَلُوا۟","qpc_uthmani_hafs":"ٱعۡمَلُواْ","char_type_name":"word","page_number":235,"line_number":6,"text":"ٱعۡمَلُواْ","translation":{"text":"Work","language_name":"english","language_id":38},"transliteration":{"text":"iʿ'malū","language_name":"english","language_id":38}},{"id":76615,"position":6,"audio_url":"wbw/011_121_006.mp3","verse_key":"11:121","verse_id":1594,"location":"11:121:6","text_uthmani":"عَلَىٰ","qpc_uthmani_hafs":"عَلَىٰ","char_type_name":"word","page_number":235,"line_number":6,"text":"عَلَىٰ","translation":{"text":"(according) to","language_name":"english","language_id":38},"transliteration":{"text":"ʿalā","language_name":"english","language_id":38}},{"id":76616,"position":7,"audio_url":"wbw/011_121_007.mp3","verse_key":"11:121","verse_id":1594,"location":"11:121:7","text_uthmani":"مَكَانَتِكُمْ","qpc_uthmani_hafs":"مَكَانَتِكُمۡ","char_type_name":"word","page_number":235,"line_number":6,"text":"مَكَانَتِكُمۡ","translation":{"text":"your position","language_name":"english","language_id":38},"transliteration":{"text":"makānatikum","language_name":"english","language_id":38}},{"id":76617,"position":8,"audio_url":"wbw/011_121_008.mp3","verse_key":"11:121","verse_id":1594,"location":"11:121:8","text_uthmani":"إِنَّا","qpc_uthmani_hafs":"إِنَّا","char_type_name":"word","page_number":235,"line_number":6,"text":"إِنَّا","translation":{"text":"indeed, we","language_name":"english","language_id":38},"transliteration":{"text":"innā","language_name":"english","language_id":38}},{"id":76618,"position":9,"audio_url":"wbw/011_121_009.mp3","verse_key":"11:121","verse_id":1594,"location":"11:121:9","text_uthmani":"عَـٰمِلُونَ","qpc_uthmani_hafs":"عَٰمِلُونَ","char_type_name":"word","page_number":235,"line_number":6,"text":"عَٰمِلُونَ","translation":{"text":"(are also) working","language_name":"english","language_id":38},"transliteration":{"text":"ʿāmilūna","language_name":"english","language_id":38}},{"id":76619,"position":10,"audio_url":null,"verse_key":"11:121","verse_id":1594,"location":"11:121:10","text_uthmani":"١٢١","qpc_uthmani_hafs":"١٢١","char_type_name":"end","page_number":235,"line_number":6,"text":"١٢١","translation":{"text":"(121)","language_name":"english","language_id":38},"transliteration":{"text":null,"language_name":"english","language_id":38}}]},{"id":1595,"verse_number":122,"verse_key":"11:122","hizb_number":24,"rub_el_hizb_number":94,"ruku_number":192,"manzil_number":3,"sajdah_number":null,"page_number":235,"juz_number":12,"words":[{"id":76728,"position":1,"audio_url":"wbw/011_122_001.mp3","verse_key":"11:122","verse_id":1595,"location":"11:122:1","text_uthmani":"وَٱنتَظِرُوٓا۟","qpc_uthmani_hafs":"وَٱنتَظِرُوٓاْ","char_type_name":"word","page_number":235,"line_number":6,"text":"وَٱنتَظِرُوٓاْ","translation":{"text":"And wait","language_name":"english","language_id":38},"transliteration":{"text":"wa-intaẓirū","language_name":"english","language_id":38}},{"id":76729,"position":2,"audio_url":"wbw/011_122_002.mp3","verse_key":"11:122","verse_id":1595,"location":"11:122:2","text_uthmani":"إِنَّا","qpc_uthmani_hafs":"إِنَّا","char_type_name":"word","page_number":235,"line_number":6,"text":"إِنَّا","translation":{"text":"indeed, we","language_name":"english","language_id":38},"transliteration":{"text":"innā","language_name":"english","language_id":38}},{"id":76730,"position":3,"audio_url":"wbw/011_122_003.mp3","verse_key":"11:122","verse_id":1595,"location":"11:122:3","text_uthmani":"مُنتَظِرُونَ","qpc_uthmani_hafs":"مُنتَظِرُونَ","char_type_name":"word","page_number":235,"line_number":6,"text":"مُنتَظِرُونَ","translation":{"text":"(are) ones who wait","language_name":"english","language_id":38},"transliteration":{"text":"muntaẓirūna","language_name":"english","language_id":38}},{"id":76731,"position":4,"audio_url":null,"verse_key":"11:122","verse_id":1595,"location":"11:122:4","text_uthmani":"١٢٢","qpc_uthmani_hafs":"١٢٢","char_type_name":"end","page_number":235,"line_number":7,"text":"١٢٢","translation":{"text":"(122)","language_name":"english","language_id":38},"transliteration":{"text":null,"language_name":"english","language_id":38}}]},{"id":1596,"verse_number":123,"verse_key":"11:123","hizb_number":24,"rub_el_hizb_number":94,"ruku_number":192,"manzil_number":3,"sajdah_number":null,"page_number":235,"juz_number":12,"words":[{"id":76919,"position":1,"audio_url":"wbw/011_123_001.mp3","verse_key":"11:123","verse_id":1596,"location":"11:123:1","text_uthmani":"وَلِلَّهِ","qpc_uthmani_hafs":"وَلِلَّهِ","char_type_name":"word","page_number":235,"line_number":7,"text":"وَلِلَّهِ","translation":{"text":"And for Allah","language_name":"english","language_id":38},"transliteration":{"text":"walillahi","language_name":"english","language_id":38}},{"id":76920,"position":2,"audio_url":"wbw/011_123_002.mp3","verse_key":"11:123","verse_id":1596,"location":"11:123:2","text_uthmani":"غَيْبُ","qpc_uthmani_hafs":"غَيۡبُ","char_type_name":"word","page_number":235,"line_number":7,"text":"غَيۡبُ","translation":{"text":"(is the) unseen","language_name":"english","language_id":38},"transliteration":{"text":"ghaybu","language_name":"english","language_id":38}},{"id":76921,"position":3,"audio_url":"wbw/011_123_003.mp3","verse_key":"11:123","verse_id":1596,"location":"11:123:3","text_uthmani":"ٱلسَّمَـٰوَٰتِ","qpc_uthmani_hafs":"ٱلسَّمَٰوَٰتِ","char_type_name":"word","page_number":235,"line_number":7,"text":"ٱلسَّمَٰوَٰتِ","translation":{"text":"(of) the heavens","language_name":"english","language_id":38},"transliteration":{"text":"l-samāwāti","language_name":"english","language_id":38}},{"id":76922,"position":4,"audio_url":"wbw/011_123_004.mp3","verse_key":"11:123","verse_id":1596,"location":"11:123:4","text_uthmani":"وَٱلْأَرْضِ","qpc_uthmani_hafs":"وَٱلۡأَرۡضِ","char_type_name":"word","page_number":235,"line_number":7,"text":"وَٱلۡأَرۡضِ","translation":{"text":"and the earth","language_name":"english","language_id":38},"transliteration":{"text":"wal-arḍi","language_name":"english","language_id":38}},{"id":76923,"position":5,"audio_url":"wbw/011_123_005.mp3","verse_key":"11:123","verse_id":1596,"location":"11:123:5","text_uthmani":"وَإِلَيْهِ","qpc_uthmani_hafs":"وَإِلَيۡهِ","char_type_name":"word","page_number":235,"line_number":7,"text":"وَإِلَيۡهِ","translation":{"text":"and to Him","language_name":"english","language_id":38},"transliteration":{"text":"wa-ilayhi","language_name":"english","language_id":38}},{"id":76924,"position":6,"audio_url":"wbw/011_123_006.mp3","verse_key":"11:123","verse_id":1596,"location":"11:123:6","text_uthmani":"يُرْجَعُ","qpc_uthmani_hafs":"يُرۡجَعُ","char_type_name":"word","page_number":235,"line_number":7,"text":"يُرۡجَعُ","translation":{"text":"will be returned","language_name":"english","language_id":38},"transliteration":{"text":"yur'jaʿu","language_name":"english","language_id":38}},{"id":76925,"position":7,"audio_url":"wbw/011_123_007.mp3","verse_key":"11:123","verse_id":1596,"location":"11:123:7","text_uthmani":"ٱلْأَمْرُ","qpc_uthmani_hafs":"ٱلۡأَمۡرُ","char_type_name":"word","page_number":235,"line_number":7,"text":"ٱلۡأَمۡرُ","translation":{"text":"the matter","language_name":"english","language_id":38},"transliteration":{"text":"l-amru","language_name":"english","language_id":38}},{"id":76926,"position":8,"audio_url":"wbw/011_123_008.mp3","verse_key":"11:123","verse_id":1596,"location":"11:123:8","text_uthmani":"كُلُّهُۥ","qpc_uthmani_hafs":"كُلُّهُۥ","char_type_name":"word","page_number":235,"line_number":7,"text":"كُلُّهُۥ","translation":{"text":"all (of) it","language_name":"english","language_id":38},"transliteration":{"text":"kulluhu","language_name":"english","language_id":38}},{"id":76927,"position":9,"audio_url":"wbw/011_123_009.mp3","verse_key":"11:123","verse_id":1596,"location":"11:123:9","text_uthmani":"فَٱعْبُدْهُ","qpc_uthmani_hafs":"فَٱعۡبُدۡهُ","char_type_name":"word","page_number":235,"line_number":8,"text":"فَٱعۡبُدۡهُ","translation":{"text":"so worship Him","language_name":"english","language_id":38},"transliteration":{"text":"fa-uʿ'bud'hu","language_name":"english","language_id":38}},{"id":76928,"position":10,"audio_url":"wbw/011_123_010.mp3","verse_key":"11:123","verse_id":1596,"location":"11:123:10","text_uthmani":"وَتَوَكَّلْ","qpc_uthmani_hafs":"وَتَوَكَّلۡ","char_type_name":"word","page_number":235,"line_number":8,"text":"وَتَوَكَّلۡ","translation":{"text":"and put your trust","language_name":"english","language_id":38},"transliteration":{"text":"watawakkal","language_name":"english","language_id":38}},{"id":76929,"position":11,"audio_url":"wbw/011_123_011.mp3","verse_key":"11:123","verse_id":1596,"location":"11:123:11","text_uthmani":"عَلَيْهِ ۚ","qpc_uthmani_hafs":"عَلَيۡهِۚ","char_type_name":"word","page_number":235,"line_number":8,"text":"عَلَيۡهِۚ","translation":{"text":"upon Him","language_name":"english","language_id":38},"transliteration":{"text":"ʿalayhi","language_name":"english","language_id":38}},{"id":76931,"position":12,"audio_url":"wbw/011_123_013.mp3","verse_key":"11:123","verse_id":1596,"location":"11:123:12","text_uthmani":"وَمَا","qpc_uthmani_hafs":"وَمَا","char_type_name":"word","page_number":235,"line_number":8,"text":"وَمَا","translation":{"text":"And your Lord is not","language_name":"english","language_id":38},"transliteration":{"text":"wamā","language_name":"english","language_id":38}},{"id":76932,"position":13,"audio_url":"wbw/011_123_014.mp3","verse_key":"11:123","verse_id":1596,"location":"11:123:13","text_uthmani":"رَبُّكَ","qpc_uthmani_hafs":"رَبُّكَ","char_type_name":"word","page_number":235,"line_number":8,"text":"رَبُّكَ","translation":{"text":"And your Lord is not","language_name":"english","language_id":38},"transliteration":{"text":"rabbuka","language_name":"english","language_id":38}},{"id":76933,"position":14,"audio_url":"wbw/011_123_015.mp3","verse_key":"11:123","verse_id":1596,"location":"11:123:14","text_uthmani":"بِغَـٰفِلٍ","qpc_uthmani_hafs":"بِغَٰفِلٍ","char_type_name":"word","page_number":235,"line_number":8,"text":"بِغَٰفِلٍ","translation":{"text":"unaware","language_name":"english","language_id":38},"transliteration":{"text":"bighāfilin","language_name":"english","language_id":38}},{"id":76934,"position":15,"audio_url":"wbw/011_123_016.mp3","verse_key":"11:123","verse_id":1596,"location":"11:123:15","text_uthmani":"عَمَّا","qpc_uthmani_hafs":"عَمَّا","char_type_name":"word","page_number":235,"line_number":8,"text":"عَمَّا","translation":{"text":"of what","language_name":"english","language_id":38},"transliteration":{"text":"ʿammā","language_name":"english","language_id":38}},{"id":76935,"position":16,"audio_url":"wbw/011_123_017.mp3","verse_key":"11:123","verse_id":1596,"location":"11:123:16","text_uthmani":"تَعْمَلُونَ","qpc_uthmani_hafs":"تَعۡمَلُونَ","char_type_name":"word","page_number":235,"line_number":8,"text":"تَعۡمَلُونَ","translation":{"text":"you do","language_name":"english","language_id":38},"transliteration":{"text":"taʿmalūna","language_name":"english","language_id":38}},{"id":76936,"position":17,"audio_url":null,"verse_key":"11:123","verse_id":1596,"location":"11:123:17","text_uthmani":"١٢٣","qpc_uthmani_hafs":"١٢٣","char_type_name":"end","page_number":235,"line_number":8,"text":"١٢٣","translation":{"text":"(123)","language_name":"english","language_id":38},"transliteration":{"text":null,"language_name":"english","language_id":38}}]}],"pagination":{"per_page":10,"current_page":13,"next_page":null,"total_pages":13,"total_records":123}}
