{"verses":[{"id":5849,"verse_number":1,"verse_key":"83:1","hizb_number":59,"rub_el_hizb_number":235,"ruku_number":527,"manzil_number":7,"sajdah_number":null,"page_number":587,"juz_number":30,"words":[{"id":703,"position":1,"audio_url":"wbw/083_001_001.mp3","verse_key":"83:1","verse_id":5849,"location":"83:1:1","text_uthmani":"وَيْلٌۭ","qpc_uthmani_hafs":"وَيۡلٞ","char_type_name":"word","page_number":587,"line_number":14,"text":"وَيۡلٞ","translation":{"text":"Woe","language_name":"english","language_id":38},"transliteration":{"text":"waylun","language_name":"english","language_id":38}},{"id":704,"position":2,"audio_url":"wbw/083_001_002.mp3","verse_key":"83:1","verse_id":5849,"location":"83:1:2","text_uthmani":"لِّلْمُطَفِّفِينَ","qpc_uthmani_hafs":"لِّلۡمُطَفِّفِينَ","char_type_name":"word","page_number":587,"line_number":14,"text":"لِّلۡمُطَفِّفِينَ","translation":{"text":"to those who give less","language_name":"english","language_id":38},"transliteration":{"text":"lil'muṭaffifīna","language_name":"english","language_id":38}},{"id":705,"position":3,"audio_url":null,"verse_key":"83:1","verse_id":5849,"location":"83:1:3","text_uthmani":"١","qpc_uthmani_hafs":"١","char_type_name":"end","page_number":587,"line_number":14,"text":"١","translation":{"text":"(1)","language_name":"english","language_id":38},"transliteration":{"text":null,"language_name":"english","language_id":38}}]},{"id":5850,"verse_number":2,"verse_key":"83:2","hizb_number":59,"rub_el_hizb_number":235,"ruku_number":527,"manzil_number":7,"sajdah_number":null,"page_number":587,"juz_number":30,"words":[{"id":1730,"position":1,"audio_url":"wbw/083_002_001.mp3","verse_key":"83:2","verse_id":5850,"location":"83:2:1","text_uthmani":"ٱلَّذِينَ","qpc_uthmani_hafs":"ٱلَّذِينَ","char_type_name":"word","page_number":587,"line_number":14,"text":"ٱلَّذِينَ","translation":{"text":"Those who","language_name":"english","language_id":38},"transliteration":{"text":"alladhīna","language_name":"english","language_id":38}},{"id":1731,"position":2,"audio_url":"wbw/083_002_002.mp3","verse_key":"83:2","verse_id":5850,"location":"83:2:2","text_uthmani":"إِذَا","qpc_uthmani_hafs":"إِذَا","char_type_name":"word","page_number":587,"line_number":14,"text":"إِذَا","translation":{"text":"when","language_name":"english","language_id":38},"transliteration":{"text":"idhā","language_name":"english","language_id":38}},{"id":1732,"position":3,"audio_url":"wbw/083_002_003.mp3","verse_key":"83:2","verse_id":5850,"location":"83:2:3","text_uthmani":"ٱكْتَالُوا۟","qpc_uthmani_hafs":"ٱكۡتَالُواْ","char_type_name":"word","page_number":587,"line_number":14,"text":"ٱكۡتَالُواْ","translation":{"text":"they take a measure","language_name":"english","language_id":38},"transliteration":{"text":"ik'tālū","language_name":"english","language_id":38}},{"id":1733,"position":4,"audio_url":"wbw/083_002_004.mp3","verse_key":"83:2","verse_id":5850,"location":"83:2:4","text_uthmani":"عَلَى","qpc_uthmani_hafs":"عَلَى","char_type_name":"word","page_number":587,"line_number":14,"text":"عَلَى","translation":{"text":"from","language_name":"english","language_id":38},"transliteration":{"text":"ʿalā","language_name":"english","language_id":38}},{"id":1734,"position":5,"audio_url":"wbw/083_002_005.mp3","verse_key":"83:2","verse_id":5850,"location":"83:2:5","text_uthmani":"ٱلنَّاسِ","qpc_uthmani_hafs":"ٱلنَّاسِ","char_type_name":"word","page_number":587,"line_number":14,"text":"ٱلنَّاسِ","translation":{"text":"the people","language_name":"english","language_id":38},"transliteration":{"text":"l-nāsi","language_name":"english","language_id":38}},{"id":1735,"position":6,"audio_url":"wbw/083_002_006.mp3","verse_key":"83:2","verse_id":5850,"location":"83:2:6","text_uthmani":"يَسْتَوْفُونَ","qpc_uthmani_hafs":"يَسۡتَوۡفُونَ","char_type_name":"word","page_number":587,"line_number":14,"text":"يَسۡتَوۡفُونَ","translation":{"text":"they take in full","language_name":"english","language_id":38},"transliteration":{"text":"yastawfūna","language_name":"english","language_id":38}},{"id":1736,"position":7,"audio_url":null,"verse_key":"83:2","verse_id":5850,"location":"83:2:7","text_uthmani":"٢","qpc_uthmani_hafs":"٢","char_type_name":"end","page_number":587,"line_number":14,"text":"٢","translation":{"text":"(2)","language_name":"english","language_id":38},"transliteration":{"text":null,"language_name":"english","language_id":38}}]},{"id":5851,"verse_number":3,"verse_key":"83:3","hizb_number":59,"rub_el_hizb_number":235,"ruku_number":527,"manzil_number":7,"sajdah_number":null,"page_number":587,"juz_number":30,"words":[{"id":2853,"position":1,"audio_url":"wbw/083_003_001.mp3","verse_key":"83:3","verse_id":5851,"location":"83:3:1","text_uthmani":"وَإِذَا","qpc_uthmani_hafs":"وَإِذَا","char_type_name":"word","page_number":587,"line_number":15,"text":"وَإِذَا","translation":{"text":"But when","language_name":"english","language_id":38},"transliteration":{"text":"wa-idhā","language_name":"english","language_id":38}},{"id":2854,"position":2,"audio_url":"wbw/083_003_002.mp3","verse_key":"83:3","verse_id":5851,"location":"83:3:2","text_uthmani":"كَالُوهُمْ","qpc_uthmani_hafs":"كَالُوهُمۡ","char_type_name":"word","page_number":587,"line_number":15,"text":"كَالُوهُمۡ","translation":{"text":"they give by measure (to) them","language_name":"english","language_id":38},"transliteration":{"text":"kālūhum","language_name":"english","language_id":38}},{"id":2855,"position":3,"audio_url":"wbw/083_003_003.mp3","verse_key":"83:3","verse_id":5851,"location":"83:3:3","text_uthmani":"أَو","qpc_uthmani_hafs":"أَو","char_type_name":"word","page_number":587,"line_number":15,"text":"أَو","translation":{"text":"or","language_name":"english","language_id":38},"transliteration":{"text":"aw","language_name":"english","language_id":38}},{"id":2856,"position":4,"audio_url":"wbw/083_003_004.mp3","verse_key":"83:3","verse_id":5851,"location":"83:3:4","text_uthmani":"وَّزَنُوهُمْ","qpc_uthmani_hafs":"وَّزَنُوهُمۡ","char_type_name":"word","page_number":587,"line_number":15,"text":"وَّزَنُوهُمۡ","translation":{"text":"they weigh (for) them","language_name":"english","language_id":38},"transliteration":{"text":"wazanūhum","language_name":"english","language_id":38}},{"id":2857,"position":5,"audio_url":"wbw/083_003_005.mp3","verse_key":"83:3","verse_id":5851,"location":"83:3:5","text_uthmani":"يُخْسِرُونَ","qpc_uthmani_hafs":"يُخۡسِرُونَ","char_type_name":"word","page_number":587,"line_number":15,"text":"يُخۡسِرُونَ","translation":{"text":"they give less","language_name":"english","language_id":38},"transliteration":{"text":"yukh'sirūna","language_name":"english","language_id":38}},{"id":2858,"position":6,"audio_url":null,"verse_key":"83:3","verse_id":5851,"location":"83:3:6","text_uthmani":"٣","qpc_uthmani_hafs":"٣","char_type_name":"end","page_number":587,"line_number":15,"text":"٣","translation":{"text":"(3)","language_name":"english","language_id":38},"transliteration":{"text":null,"language_name":"english","language_id":38}}]},{"id":5852,"verse_number":4,"verse_key":"83:4","hizb_number":59,"rub_el_hizb_number":235,"ruku_number":527,"manzil_number":7,"sajdah_number":null,"page_number":587,"juz_number":30,"words":[{"id":4218,"position":1,"audio_url":"wbw/083_004_001.mp3","verse_key":"83:4","verse_id":5852,"location":"83:4:1","text_uthmani":"أَلَا","qpc_uthmani_hafs":"أَلَا","char_type_name":"word","page_number":587,"line_number":15,"text":"أَلَا","translation":{"text":"Do not","language_name":"english","language_id":38},"transliteration":{"text":"alā","language_name":"english","language_id":38}},{"id":4219,"position":2,"audio_url":"wbw/083_004_002.mp3","verse_key":"83:4","verse_id":5852,"location":"83:4:2","text_uthmani":"يَظُنُّ","qpc_uthmani_hafs":"يَظُنُّ","char_type_name":"word","page_number":587,"line_number":15,"text":"يَظُنُّ","translation":{"text":"think","language_name":"english","language_id":38},"transliteration":{"text":"yaẓunnu","language_name":"english","language_id":38}},{"id":4220,"position":3,"audio_url":"wbw/083_004_003.mp3","verse_key":"83:4","verse_id":5852,"location":"83:4:3","text_uthmani":"أُو۟لَـٰٓئِكَ","qpc_uthmani_hafs":"أُوْلَٰٓئِكَ","char_type_name":"word","page_number":587,"line_number":15,"text":"أُوْلَٰٓئِكَ","translation":{"text":"those","language_name":"english","language_id":38},"transliteration":{"text":"ulāika","language_name":"english","language_id":38}},{"id":4221,"position":4,"audio_url":"wbw/083_004_004.mp3","verse_key":"83:4","verse_id":5852,"location":"83:4:4","text_uthmani":"أَنَّهُم","qpc_uthmani_hafs":"أَنَّهُم","char_type_name":"word","page_number":587,"line_number":15,"text":"أَنَّهُم","translation":{"text":"that they","language_name":"english","language_id":38},"transliteration":{"text":"annahum","language_name":"english","language_id":38}},{"id":4222,"position":5,"audio_url":"wbw/083_004_005.mp3","verse_key":"83:4","verse_id":5852,"location":"83:4:5","text_uthmani":"مَّبْعُوثُونَ","qpc_uthmani_hafs":"مَّبۡعُوثُونَ","char_type_name":"word","page_number":587,"line_number":15,"text":"مَّبۡعُوثُونَ","translation":{"text":"(will be) resurrected","language_name":"english","language_id":38},"transliteration":{"text":"mabʿūthūna","language_name":"english","language_id":38}},{"id":4223,"position":6,"audio_url":null,"verse_key":"83:4","verse_id":5852,"location":"83:4:6","text_uthmani":"٤","qpc_uthmani_hafs":"٤","char_type_name":"end","page_number":587,"line_number":15,"text":"٤","translation":{"text":"(4)","language_name":"english","language_id":38},"transliteration":{"text":null,"language_name":"english","language_id":38}}]},{"id":5853,"verse_number":5,"verse_key":"83:5","hizb_number":59,"rub_el_hizb_number":235,"ruku_number":527,"manzil_number":7,"sajdah_number":null,"page_number":588,"juz_number":30,"words":[{"id":5485,"position":1,"audio_url":"wbw/083_005_001.mp3","verse_key":"83:5","verse_id":5853,"location":"83:5:1","text_uthmani":"لِيَوْمٍ","qpc_uthmani_hafs":"لِيَوۡمٍ","char_type_name":"word","page_number":588,"line_number":1,"text":"لِيَوۡمٍ","translation":{"text":"For a Day","language_name":"english","language_id":38},"transliteration":{"text":"liyawmin","language_name":"english","language_id":38}},{"id":5486,"position":2,"audio_url":"wbw/083_005_002.mp3","verse_key":"83:5","verse_id":5853,"location":"83:5:2","text_uthmani":"عَظِيمٍۢ","qpc_uthmani_hafs":"عَظِيمٖ","char_type_name":"word","page_number":588,"line_number":1,"text":"عَظِيمٖ","translation":{"text":"Great","language_name":"english","language_id":38},"transliteration":{"text":"ʿaẓīmin","language_name":"english","language_id":38}},{"id":5487,"position":3,"audio_url":null,"verse_key":"83:5","verse_id":5853,"location":"83:5:3","text_uthmani":"٥","qpc_uthmani_hafs":"٥","char_type_name":"end","page_number":588,"line_number":1,"text":"٥","translation":{"text":"(5)","language_name":"english","language_id":38},"transliteration":{"text":null,"language_name":"english","language_id":38}}]},{"id":5854,"verse_number":6,"verse_key":"83:6","hizb_number":59,"rub_el_hizb_number":235,"ruku_number":527,"manzil_number":7,"sajdah_number":null,"page_number":588,"juz_number":30,"words":[{"id":6714,"position":1,"audio_url":"wbw/083_006_001.mp3","verse_key":"83:6","verse_id":5854,"location":"83:6:1","text_uthmani":"يَوْمَ","qpc_uthmani_hafs":"يَوۡمَ","char_type_name":"word","page_number":588,"line_number":1,"text":"يَوۡمَ","translation":{"text":"(The) Day","language_name":"english","language_id":38},"transliteration":{"text":"yawma","language_name":"english","language_id":38}},{"id":6715,"position":2,"audio_url":"wbw/083_006_002.mp3","verse_key":"83:6","verse_id":5854,"location":"83:6:2","text_uthmani":"يَقُومُ","qpc_uthmani_hafs":"يَقُومُ","char_type_name":"word","page_number":588,"line_number":1,"text":"يَقُومُ","translation":{"text":"will stand","language_name":"english","language_id":38},"transliteration":{"text":"yaqūmu","language_name":"english","language_id":38}},{"id":6716,"position":3,"audio_url":"wbw/083_006_003.mp3","verse_key":"83:6","verse_id":5854,"location":"83:6:3","text_uthmani":"ٱلنَّاسُ","qpc_uthmani_hafs":"ٱلنَّاسُ","char_type_name":"word","page_number":588,"line_number":1,"text":"ٱلنَّاسُ","translation":{"text":"mankind","language_name":"english","language_id":38},"transliteration":{"text":"l-nāsu","language_name":"english","language_id":38}},{"id":6717,"position":4,"audio_url":"wbw/083_006_004.mp3","verse_key":"83:6","verse_id":5854,"location":"83:6:4","text_uthmani":"لِرَبِّ","qpc_uthmani_hafs":"لِرَبِّ","char_type_name":"word","page_number":588,"line_number":1,"text":"لِرَبِّ","translation":{"text":"before (the) Lord","language_name":"english","language_id":38},"transliteration":{"text":"lirabbi","language_name":"english","language_id":38}},{"id":6718,"position":5,"audio_url":"wbw/083_006_005.mp3","verse_key":"83:6","verse_id":5854,"location":"83:6:5","text_uthmani":"ٱلْعَـٰلَمِينَ","qpc_uthmani_hafs":"ٱلۡعَٰلَمِينَ","char_type_name":"word","page_number":588,"line_number":1,"text":"ٱلۡعَٰلَمِينَ","translation":{"text":"(of) the worlds","language_name":"english","language_id":38},"transliteration":{"text":"l-ʿālamīna","language_name":"english","language_id":38}},{"id":6719,"position":6,"audio_url":null,"verse_key":"83:6","verse_id":5854,"location":"83:6:6","text_uthmani":"٦","qpc_uthmani_hafs":"٦","char_type_name":"end","page_number":588,"line_number":1,"text":"٦","translation":{"text":"(6)","language_name":"english","language_id":38},"transliteration":{"text":null,"language_name":"english","language_id":38}}]},{"id":5855,"verse_number":7,"verse_key":"83:7","hizb_number":59,"rub_el_hizb_number":235,"ruku_number":527,"manzil_number":7,"sajdah_number":null,"page_number":588,"juz_number":30,"words":[{"id":8061,"position":1,"audio_url":"wbw/083_007_001.mp3","verse_key":"83:7","verse_id":5855,"location":"83:7:1","text_uthmani":"كَلَّآ","qpc_uthmani_hafs":"كـَلَّآ","char_type_name":"word","page_number":588,"line_number":1,"text":"كـَلَّآ","translation":{"text":"Nay","language_name":"english","language_id":38},"transliteration":{"text":"kallā","language_name":"english","language_id":38}},{"id":8062,"position":2,"audio_url":"wbw/083_007_002.mp3","verse_key":"83:7","verse_id":5855,"location":"83:7:2","text_uthmani":"إِنَّ","qpc_uthmani_hafs":"إِنَّ","char_type_name":"word","page_number":588,"line_number":1,"text":"إِنَّ","translation":{"text":"Indeed","language_name":"english","language_id":38},"transliteration":{"text":"inna","language_name":"english","language_id":38}},{"id":8063,"position":3,"audio_url":"wbw/083_007_003.mp3","verse_key":"83:7","verse_id":5855,"location":"83:7:3","text_uthmani":"كِتَـٰبَ","qpc_uthmani_hafs":"كِتَٰبَ","char_type_name":"word","page_number":588,"line_number":1,"text":"كِتَٰبَ","translation":{"text":"(the) record","language_name":"english","language_id":38},"transliteration":{"text":"kitāba","language_name":"english","language_id":38}},{"id":8064,"position":4,"audio_url":"wbw/083_007_004.mp3","verse_key":"83:7","verse_id":5855,"location":"83:7:4","text_uthmani":"ٱلْفُجَّارِ","qpc_uthmani_hafs":"ٱلۡفُجَّارِ","char_type_name":"word","page_number":588,"line_number":2,"text":"ٱلۡفُجَّارِ","translation":{"text":"(of) the wicked","language_name":"english","language_id":38},"transliteration":{"text":"l-fujāri","language_name":"english","language_id":38}},{"id":8065,"position":5,"audio_url":"wbw/083_007_005.mp3","verse_key":"83:7","verse_id":5855,"location":"83:7:5","text_uthmani":"لَفِى","qpc_uthmani_hafs":"لَفِي","char_type_name":"word","page_number":588,"line_number":2,"text":"لَفِي","translation":{"text":"(is) surely in","language_name":"english","language_id":38},"transliteration":{"text":"lafī","language_name":"english","language_id":38}},{"id":8066,"position":6,"audio_url":"wbw/083_007_006.mp3","verse_key":"83:7","verse_id":5855,"location":"83:7:6","text_uthmani":"سِجِّينٍۢ","qpc_uthmani_hafs":"سِجِّينٖ","char_type_name":"word","page_number":588,"line_number":2,"text":"سِجِّينٖ","translation":{"text":"Sijjin","language_name":"english","language_id":38},"transliteration":{"text":"sijjīnin","language_name":"english","language_id":38}},{"id":8067,"position":7,"audio_url":null,"verse_key":"83:7","verse_id":5855,"location":"83:7:7","text_uthmani":"٧","qpc_uthmani_hafs":"٧","char_type_name":"end","page_number":588,"line_number":2,"text":"٧","translation":{"text":"(7)","language_name":"english","language_id":38},"transliteration":{"text":null,"language_name":"english","language_id":38}}]},{"id":5856,"verse_number":8,"verse_key":"83:8","hizb_number":59,"rub_el_hizb_number":235,"ruku_number":527,"manzil_number":7,"sajdah_number":null,"page_number":588,"juz_number":30,"words":[{"id":9233,"position":1,"audio_url":"wbw/083_008_001.mp3","verse_key":"83:8","verse_id":5856,"location":"83:8:1","text_uthmani":"وَمَآ","qpc_uthmani_hafs":"وَمَآ","char_type_name":"word","page_number":588,"line_number":2,"text":"وَمَآ","translation":{"text":"And what","language_name":"english","language_id":38},"transliteration":{"text":"wamā","language_name":"english","language_id":38}},{"id":9234,"position":2,"audio_url":"wbw/083_008_002.mp3","verse_key":"83:8","verse_id":5856,"location":"83:8:2","text_uthmani":"أَدْرَىٰكَ","qpc_uthmani_hafs":"أَدۡرَىٰكَ","char_type_name":"word","page_number":588,"line_number":2,"text":"أَدۡرَىٰكَ","translation":{"text":"can make you know","language_name":"english","language_id":38},"transliteration":{"text":"adrāka","language_name":"english","language_id":38}},{"id":9235,"position":3,"audio_url":"wbw/083_008_003.mp3","verse_key":"83:8","verse_id":5856,"location":"83:8:3","text_uthmani":"مَا","qpc_uthmani_hafs":"مَا","char_type_name":"word","page_number":588,"line_number":2,"text":"مَا","translation":{"text":"what","language_name":"english","language_id":38},"transliteration":{"text":"mā","language_name":"english","language_id":38}},{"id":9236,"position":4,"audio_url":"wbw/083_008_004.mp3","verse_key":"83:8","verse_id":5856,"location":"83:8:4","text_uthmani":"سِجِّينٌۭ","qpc_uthmani_hafs":"سِجِّينٞ","char_type_name":"word","page_number":588,"line_number":2,"text":"سِجِّينٞ","translation":{"text":"(is) Sijjin","language_name":"english","language_id":38},"transliteration":{"text":"sijjīnun","language_name":"english","language_id":38}},{"id":9237,"position":5,"audio_url":null,"verse_key":"83:8","verse_id":5856,"location":"83:8:5","text_uthmani":"٨","qpc_uthmani_hafs":"٨","char_type_name":"end","page_number":588,"line_number":2,"text":"٨","translation":{"text":"(8)","language_name":"english","language_id":38},"transliteration":{"text":null,"language_name":"english","language_id":38}}]},{"id":5857,"verse_number":9,"verse_key":"83:9","hizb_number":59,"rub_el_hizb_number":235,"ruku_number":527,"manzil_number":7,"sajdah_number":null,"page_number":588,"juz_number":30,"words":[{"id":10430,"position":1,"audio_url":"wbw/083_009_001.mp3","verse_key":"83:9","verse_id":5857,"location":"83:9:1","text_uthmani":"كِتَـٰبٌۭ","qpc_uthmani_hafs":"كِتَٰبٞ","char_type_name":"word","page_number":588,"line_number":2,"text":"كِتَٰبٞ","translation":{"text":"A book","language_name":"english","language_id":38},"transliteration":{"text":"kitābun","language_name":"english","language_id":38}},{"id":10431,"position":2,"audio_url":"wbw/083_009_002.mp3","verse_key":"83:9","verse_id":5857,"location":"83:9:2","text_uthmani":"مَّرْقُومٌۭ","qpc_uthmani_hafs":"مَّرۡقُومٞ","char_type_name":"word","page_number":588,"line_number":2,"text":"مَّرۡقُومٞ","translation":{"text":"written","language_name":"english","language_id":38},"transliteration":{"text":"marqūmun","language_name":"english","language_id":38}},{"id":10432,"position":3,"audio_url":null,"verse_key":"83:9","verse_id":5857,"location":"83:9:3","text_uthmani":"٩","qpc_uthmani_hafs":"٩","char_type_name":"end","page_number":588,"line_number":2,"text":"٩","translation":{"text":"(9)","language_name":"english","language_id":38},"transliteration":{"text":null,"language_name":"english","language_id":38}}]},{"id":5858,"verse_number":10,"verse_key":"83:10","hizb_number":59,"rub_el_hizb_number":235,"ruku_number":527,"manzil_number":7,"sajdah_number":null,"page_number":588,"juz_number":30,"words":[{"id":11660,"position":1,"audio_url":"wbw/083_010_001.mp3","verse_key":"83:10","verse_id":5858,"location":"83:10:1","text_uthmani":"وَيْلٌۭ","qpc_uthmani_hafs":"وَيۡلٞ","char_type_name":"word","page_number":588,"line_number":3,"text":"وَيۡلٞ","translation":{"text":"Woe","language_name":"english","language_id":38},"transliteration":{"text":"waylun","language_name":"english","language_id":38}},{"id":11661,"position":2,"audio_url":"wbw/083_010_002.mp3","verse_key":"83:10","verse_id":5858,"location":"83:10:2","text_uthmani":"يَوْمَئِذٍۢ","qpc_uthmani_hafs":"يَوۡمَئِذٖ","char_type_name":"word","page_number":588,"line_number":3,"text":"يَوۡمَئِذٖ","translation":{"text":"that Day","language_name":"english","language_id":38},"transliteration":{"text":"yawma-idhin","language_name":"english","language_id":38}},{"id":11662,"position":3,"audio_url":"wbw/083_010_003.mp3","verse_key":"83:10","verse_id":5858,"location":"83:10:3","text_uthmani":"لِّلْمُكَذِّبِينَ","qpc_uthmani_hafs":"لِّلۡمُكَذِّبِينَ","char_type_name":"word","page_number":588,"line_number":3,"text":"لِّلۡمُكَذِّبِينَ","translation":{"text":"to the deniers","language_name":"english","language_id":38},"transliteration":{"text":"lil'mukadhibīna","language_name":"english","language_id":38}},{"id":11663,"position":4,"audio_url":null,"verse_key":"83:10","verse_id":5858,"location":"83:10:4","text_uthmani":"١٠","qpc_uthmani_hafs":"١٠","char_type_name":"end","page_number":588,"line_number":3,"text":"١٠","translation":{"text":"(10)","language_name":"english","language_id":38},"transliteration":{"text":null,"language_name":"english","language_id":38}}]}],"pagination":{"per_page":10,"current_page":1,"next_page":2,"total_pages":4,"total_records":36}}
