{"verses":[{"id":5859,"verse_number":11,"verse_key":"83:11","hizb_number":59,"rub_el_hizb_number":235,"ruku_number":527,"manzil_number":7,"sajdah_number":null,"page_number":588,"juz_number":30,"words":[{"id":13009,"position":1,"audio_url":"wbw/083_011_001.mp3","verse_key":"83:11","verse_id":5859,"location":"83:11:1","text_uthmani":"ٱلَّذِينَ","qpc_uthmani_hafs":"ٱلَّذِينَ","char_type_name":"word","page_number":588,"line_number":3,"text":"ٱلَّذِينَ","translation":{"text":"Those who","language_name":"english","language_id":38},"transliteration":{"text":"alladhīna","language_name":"english","language_id":38}},{"id":13010,"position":2,"audio_url":"wbw/083_011_002.mp3","verse_key":"83:11","verse_id":5859,"location":"83:11:2","text_uthmani":"يُكَذِّبُونَ","qpc_uthmani_hafs":"يُكَذِّبُونَ","char_type_name":"word","page_number":588,"line_number":3,"text":"يُكَذِّبُونَ","translation":{"text":"deny","language_name":"english","language_id":38},"transliteration":{"text":"yukadhibūna","language_name":"english","language_id":38}},{"id":13011,"position":3,"audio_url":"wbw/083_011_003.mp3","verse_key":"83:11","verse_id":5859,"location":"83:11:3","text_uthmani":"بِيَوْمِ","qpc_uthmani_hafs":"بِيَوۡمِ","char_type_name":"word","page_number":588,"line_number":3,"text":"بِيَوۡمِ","translation":{"text":"(the) Day","language_name":"english","language_id":38},"transliteration":{"text":"biyawmi","language_name":"english","language_id":38}},{"id":13012,"position":4,"audio_url":"wbw/083_011_004.mp3","verse_key":"83:11","verse_id":5859,"location":"83:11:4","text_uthmani":"ٱلدِّينِ","qpc_uthmani_hafs":"ٱلدِّينِ","char_type_name":"word","page_number":588,"line_number":3,"text":"ٱلدِّينِ","translation":{"text":"(of) the Judgment","language_name":"english","language_id":38},"transliteration":{"text":"l-dīni","language_name":"english","language_id":38}},{"id":13013,"position":5,"audio_url":null,"verse_key":"83:11","verse_id":5859,"location":"83:11:5","text_uthmani":"١١","qpc_uthmani_hafs":"١١","char_type_name":"end","page_number":588,"line_number":3,"text":"١١","translation":{"text":"(11)","language_name":"english","language_id":38},"transliteration":{"text":null,"language_name":"english","language_id":38}}]},{"id":5860,"verse_number":12,"verse_key":"83:12","hizb_number":59,"rub_el_hizb_number":235,"ruku_number":527,"manzil_number":7,"sajdah_number":null,"page_number":588,"juz_number":30,"words":[{"id":14271,"position":1,"audio_url":"wbw/083_012_001.mp3","verse_key":"83:12","verse_id":5860,"location":"83:12:1","text_uthmani":"وَمَا","qpc_uthmani_hafs":"وَمَا","char_type_name":"word","page_number":588,"line_number":3,"text":"وَمَا","translation":{"text":"And not","language_name":"english","language_id":38},"transliteration":{"text":"wamā","language_name":"english","language_id":38}},{"id":14272,"position":2,"audio_url":"wbw/083_012_002.mp3","verse_key":"83:12","verse_id":5860,"location":"83:12:2","text_uthmani":"يُكَذِّبُ","qpc_uthmani_hafs":"يُكَذِّبُ","char_type_name":"word","page_number":588,"line_number":3,"text":"يُكَذِّبُ","translation":{"text":"can deny","language_name":"english","language_id":38},"transliteration":{"text":"yukadhibu","language_name":"english","language_id":38}},{"id":14273,"position":3,"audio_url":"wbw/083_012_003.mp3","verse_key":"83:12","verse_id":5860,"location":"83:12:3","text_uthmani":"بِهِۦٓ","qpc_uthmani_hafs":"بِهِۦٓ","char_type_name":"word","page_number":588,"line_number":4,"text":"بِهِۦٓ","translation":{"text":"[of] it","language_name":"english","language_id":38},"transliteration":{"text":"bihi","language_name":"english","language_id":38}},{"id":14274,"position":4,"audio_url":"wbw/083_012_004.mp3","verse_key":"83:12","verse_id":5860,"location":"83:12:4","text_uthmani":"إِلَّا","qpc_uthmani_hafs":"إِلَّا","char_type_name":"word","page_number":588,"line_number":4,"text":"إِلَّا","translation":{"text":"except","language_name":"english","language_id":38},"transliteration":{"text":"illā","language_name":"english","language_id":38}},{"id":14275,"position":5,"audio_url":"wbw/083_012_005.mp3","verse_key":"83:12","verse_id":5860,"location":"83:12:5","text_uthmani":"كُلُّ","qpc_uthmani_hafs":"كُلُّ","char_type_name":"word","page_number":588,"line_number":4,"text":"كُلُّ","translation":{"text":"every","language_name":"english","language_id":38},"transliteration":{"text":"kullu","language_name":"english","language_id":38}},{"id":14276,"position":6,"audio_url":"wbw/083_012_006.mp3","verse_key":"83:12","verse_id":5860,"location":"83:12:6","text_uthmani":"مُعْتَدٍ","qpc_uthmani_hafs":"مُعۡتَدٍ","char_type_name":"word","page_number":588,"line_number":4,"text":"مُعۡتَدٍ","translation":{"text":"transgressor","language_name":"english","language_id":38},"transliteration":{"text":"muʿ'tadin","language_name":"english","language_id":38}},{"id":14277,"position":7,"audio_url":"wbw/083_012_007.mp3","verse_key":"83:12","verse_id":5860,"location":"83:12:7","text_uthmani":"أَثِيمٍ","qpc_uthmani_hafs":"أَثِيمٍ","char_type_name":"word","page_number":588,"line_number":4,"text":"أَثِيمٍ","translation":{"text":"sinful","language_name":"english","language_id":38},"transliteration":{"text":"athīmin","language_name":"english","language_id":38}},{"id":14278,"position":8,"audio_url":null,"verse_key":"83:12","verse_id":5860,"location":"83:12:8","text_uthmani":"١٢","qpc_uthmani_hafs":"١٢","char_type_name":"end","page_number":588,"line_number":4,"text":"١٢","translation":{"text":"(12)","language_name":"english","language_id":38},"transliteration":{"text":null,"language_name":"english","language_id":38}}]},{"id":5861,"verse_number":13,"verse_key":"83:13","hizb_number":59,"rub_el_hizb_number":235,"ruku_number":527,"manzil_number":7,"sajdah_number":null,"page_number":588,"juz_number":30,"words":[{"id":15383,"position":1,"audio_url":"wbw/083_013_001.mp3","verse_key":"83:13","verse_id":5861,"location":"83:13:1","text_uthmani":"إِذَا","qpc_uthmani_hafs":"إِذَا","char_type_name":"word","page_number":588,"line_number":4,"text":"إِذَا","translation":{"text":"When","language_name":"english","language_id":38},"transliteration":{"text":"idhā","language_name":"english","language_id":38}},{"id":15384,"position":2,"audio_url":"wbw/083_013_002.mp3","verse_key":"83:13","verse_id":5861,"location":"83:13:2","text_uthmani":"تُتْلَىٰ","qpc_uthmani_hafs":"تُتۡلَىٰ","char_type_name":"word","page_number":588,"line_number":4,"text":"تُتۡلَىٰ","translation":{"text":"are recited","language_name":"english","language_id":38},"transliteration":{"text":"tut'lā","language_name":"english","language_id":38}},{"id":15385,"position":3,"audio_url":"wbw/083_013_003.mp3","verse_key":"83:13","verse_id":5861,"location":"83:13:3","text_uthmani":"عَلَيْهِ","qpc_uthmani_hafs":"عَلَيۡهِ","char_type_name":"word","page_number":588,"line_number":4,"text":"عَلَيۡهِ","translation":{"text":"to him","language_name":"english","language_id":38},"transliteration":{"text":"ʿalayhi","language_name":"english","language_id":38}},{"id":15386,"position":4,"audio_url":"wbw/083_013_004.mp3","verse_key":"83:13","verse_id":5861,"location":"83:13:4","text_uthmani":"ءَايَـٰتُنَا","qpc_uthmani_hafs":"ءَايَٰتُنَا","char_type_name":"word","page_number":588,"line_number":4,"text":"ءَايَٰتُنَا","translation":{"text":"Our Verses","language_name":"english","language_id":38},"transliteration":{"text":"āyātunā","language_name":"english","language_id":38}},{"id":15387,"position":5,"audio_url":"wbw/083_013_005.mp3","verse_key":"83:13","verse_id":5861,"location":"83:13:5","text_uthmani":"قَالَ","qpc_uthmani_hafs":"قَالَ","char_type_name":"word","page_number":588,"line_number":4,"text":"قَالَ","translation":{"text":"he says","language_name":"english","language_id":38},"transliteration":{"text":"qāla","language_name":"english","language_id":38}},{"id":15388,"position":6,"audio_url":"wbw/083_013_006.mp3","verse_key":"83:13","verse_id":5861,"location":"83:13:6","text_uthmani":"أَسَـٰطِيرُ","qpc_uthmani_hafs":"أَسَٰطِيرُ","char_type_name":"word","page_number":588,"line_number":4,"text":"أَسَٰطِيرُ","translation":{"text":"Stories","language_name":"english","language_id":38},"transliteration":{"text":"asāṭīru","language_name":"english","language_id":38}},{"id":15389,"position":7,"audio_url":"wbw/083_013_007.mp3","verse_key":"83:13","verse_id":5861,"location":"83:13:7","text_uthmani":"ٱلْأَوَّلِينَ","qpc_uthmani_hafs":"ٱلۡأَوَّلِينَ","char_type_name":"word","page_number":588,"line_number":4,"text":"ٱلۡأَوَّلِينَ","translation":{"text":"(of) the former (people)","language_name":"english","language_id":38},"transliteration":{"text":"l-awalīna","language_name":"english","language_id":38}},{"id":15390,"position":8,"audio_url":null,"verse_key":"83:13","verse_id":5861,"location":"83:13:8","text_uthmani":"١٣","qpc_uthmani_hafs":"١٣","char_type_name":"end","page_number":588,"line_number":5,"text":"١٣","translation":{"text":"(13)","language_name":"english","language_id":38},"transliteration":{"text":null,"language_name":"english","language_id":38}}]},{"id":5862,"verse_number":14,"verse_key":"83:14","hizb_number":59,"rub_el_hizb_number":235,"ruku_number":527,"manzil_number":7,"sajdah_number":null,"page_number":588,"juz_number":30,"words":[{"id":16386,"position":1,"audio_url":"wbw/083_014_001.mp3","verse_key":"83:14","verse_id":5862,"location":"83:14:1","text_uthmani":"كَلَّا ۖ","qpc_uthmani_hafs":"كـَلَّاۖ","char_type_name":"word","page_number":588,"line_number":5,"text":"كـَلَّاۖ","translation":{"text":"Nay","language_name":"english","language_id":38},"transliteration":{"text":"kallā","language_name":"english","language_id":38}},{"id":16388,"position":2,"audio_url":"wbw/083_014_003.mp3","verse_key":"83:14","verse_id":5862,"location":"83:14:2","text_uthmani":"بَلْ ۜ","qpc_uthmani_hafs":"بَلۡۜ","char_type_name":"word","page_number":588,"line_number":5,"text":"بَلۡۜ","translation":{"text":"But","language_name":"english","language_id":38},"transliteration":{"text":"bal","language_name":"english","language_id":38}},{"id":16390,"position":3,"audio_url":"wbw/083_014_005.mp3","verse_key":"83:14","verse_id":5862,"location":"83:14:3","text_uthmani":"رَانَ","qpc_uthmani_hafs":"رَانَ","char_type_name":"word","page_number":588,"line_number":5,"text":"رَانَ","translation":{"text":"(the) stain has covered","language_name":"english","language_id":38},"transliteration":{"text":"rāna","language_name":"english","language_id":38}},{"id":16391,"position":4,"audio_url":"wbw/083_014_006.mp3","verse_key":"83:14","verse_id":5862,"location":"83:14:4","text_uthmani":"عَلَىٰ","qpc_uthmani_hafs":"عَلَىٰ","char_type_name":"word","page_number":588,"line_number":5,"text":"عَلَىٰ","translation":{"text":"[over]","language_name":"english","language_id":38},"transliteration":{"text":"ʿalā","language_name":"english","language_id":38}},{"id":16392,"position":5,"audio_url":"wbw/083_014_007.mp3","verse_key":"83:14","verse_id":5862,"location":"83:14:5","text_uthmani":"قُلُوبِهِم","qpc_uthmani_hafs":"قُلُوبِهِم","char_type_name":"word","page_number":588,"line_number":5,"text":"قُلُوبِهِم","translation":{"text":"their hearts","language_name":"english","language_id":38},"transliteration":{"text":"qulūbihim","language_name":"english","language_id":38}},{"id":16393,"position":6,"audio_url":"wbw/083_014_008.mp3","verse_key":"83:14","verse_id":5862,"location":"83:14:6","text_uthmani":"مَّا","qpc_uthmani_hafs":"مَّا","char_type_name":"word","page_number":588,"line_number":5,"text":"مَّا","translation":{"text":"(for) what","language_name":"english","language_id":38},"transliteration":{"text":"mā","language_name":"english","language_id":38}},{"id":16394,"position":7,"audio_url":"wbw/083_014_009.mp3","verse_key":"83:14","verse_id":5862,"location":"83:14:7","text_uthmani":"كَانُوا۟","qpc_uthmani_hafs":"كَانُواْ","char_type_name":"word","page_number":588,"line_number":5,"text":"كَانُواْ","translation":{"text":"they used to","language_name":"english","language_id":38},"transliteration":{"text":"kānū","language_name":"english","language_id":38}},{"id":16395,"position":8,"audio_url":"wbw/083_014_010.mp3","verse_key":"83:14","verse_id":5862,"location":"83:14:8","text_uthmani":"يَكْسِبُونَ","qpc_uthmani_hafs":"يَكۡسِبُونَ","char_type_name":"word","page_number":588,"line_number":5,"text":"يَكۡسِبُونَ","translation":{"text":"earn","language_name":"english","language_id":38},"transliteration":{"text":"yaksibūna","language_name":"english","language_id":38}},{"id":16396,"position":9,"audio_url":null,"verse_key":"83:14","verse_id":5862,"location":"83:14:9","text_uthmani":"١٤","qpc_uthmani_hafs":"١٤","char_type_name":"end","page_number":588,"line_number":5,"text":"١٤","translation":{"text":"(14)","language_name":"english","language_id":38},"transliteration":{"text":null,"language_name":"english","language_id":38}}]},{"id":5863,"verse_number":15,"verse_key":"83:15","hizb_number":59,"rub_el_hizb_number":235,"ruku_number":527,"manzil_number":7,"sajdah_number":null,"page_number":588,"juz_number":30,"words":[{"id":17589,"position":1,"audio_url":"wbw/083_015_001.mp3","verse_key":"83:15","verse_id":5863,"location":"83:15:1","text_uthmani":"كَلَّآ","qpc_uthmani_hafs":"كـَلَّآ","char_type_name":"word","page_number":588,"line_number":5,"text":"كـَلَّآ","translation":{"text":"Nay","language_name":"english","language_id":38},"transliteration":{"text":"kallā","language_name":"english","language_id":38}},{"id":17590,"position":2,"audio_url":"wbw/083_015_002.mp3","verse_key":"83:15","verse_id":5863,"location":"83:15:2","text_uthmani":"إِنَّهُمْ","qpc_uthmani_hafs":"إِنَّهُمۡ","char_type_name":"word","page_number":588,"line_number":5,"text":"إِنَّهُمۡ","translation":{"text":"Indeed, they","language_name":"english","language_id":38},"transliteration":{"text":"innahum","language_name":"english","language_id":38}},{"id":17591,"position":3,"audio_url":"wbw/083_015_003.mp3","verse_key":"83:15","verse_id":5863,"location":"83:15:3","text_uthmani":"عَن","qpc_uthmani_hafs":"عَن","char_type_name":"word","page_number":588,"line_number":5,"text":"عَن","translation":{"text":"from","language_name":"english","language_id":38},"transliteration":{"text":"ʿan","language_name":"english","language_id":38}},{"id":17592,"position":4,"audio_url":"wbw/083_015_004.mp3","verse_key":"83:15","verse_id":5863,"location":"83:15:4","text_uthmani":"رَّبِّهِمْ","qpc_uthmani_hafs":"رَّبِّهِمۡ","char_type_name":"word","page_number":588,"line_number":5,"text":"رَّبِّهِمۡ","translation":{"text":"their Lord","language_name":"english","language_id":38},"transliteration":{"text":"rabbihim","language_name":"english","language_id":38}},{"id":17593,"position":5,"audio_url":"wbw/083_015_005.mp3","verse_key":"83:15","verse_id":5863,"location":"83:15:5","text_uthmani":"يَوْمَئِذٍۢ","qpc_uthmani_hafs":"يَوۡمَئِذٖ","char_type_name":"word","page_number":588,"line_number":6,"text":"يَوۡمَئِذٖ","translation":{"text":"that Day","language_name":"english","language_id":38},"transliteration":{"text":"yawma-idhin","language_name":"english","language_id":38}},{"id":17594,"position":6,"audio_url":"wbw/083_015_006.mp3","verse_key":"83:15","verse_id":5863,"location":"83:15:6","text_uthmani":"لَّمَحْجُوبُونَ","qpc_uthmani_hafs":"لَّمَحۡجُوبُونَ","char_type_name":"word","page_number":588,"line_number":6,"text":"لَّمَحۡجُوبُونَ","translation":{"text":"surely will be partitioned","language_name":"english","language_id":38},"transliteration":{"text":"lamaḥjūbūna","language_name":"english","language_id":38}},{"id":17595,"position":7,"audio_url":null,"verse_key":"83:15","verse_id":5863,"location":"83:15:7","text_uthmani":"١٥","qpc_uthmani_hafs":"١٥","char_type_name":"end","page_number":588,"line_number":6,"text":"١٥","translation":{"text":"(15)","language_name":"english","language_id":38},"transliteration":{"text":null,"language_name":"english","language_id":38}}]},{"id":5864,"verse_number":16,"verse_key":"83:16","hizb_number":59,"rub_el_hizb_number":235,"ruku_number":527,"manzil_number":7,"sajdah_number":null,"page_number":588,"juz_number":30,"words":[{"id":18633,"position":1,"audio_url":"wbw/083_016_001.mp3","verse_key":"83:16","verse_id":5864,"location":"83:16:1","text_uthmani":"ثُمَّ","qpc_uthmani_hafs":"ثُمَّ","char_type_name":"word","page_number":588,"line_number":6,"text":"ثُمَّ","translation":{"text":"Then","language_name":"english","language_id":38},"transliteration":{"text":"thumma","language_name":"english","language_id":38}},{"id":18634,"position":2,"audio_url":"wbw/083_016_002.mp3","verse_key":"83:16","verse_id":5864,"location":"83:16:2","text_uthmani":"إِنَّهُمْ","qpc_uthmani_hafs":"إِنَّهُمۡ","char_type_name":"word","page_number":588,"line_number":6,"text":"إِنَّهُمۡ","translation":{"text":"indeed, they","language_name":"english","language_id":38},"transliteration":{"text":"innahum","language_name":"english","language_id":38}},{"id":18635,"position":3,"audio_url":"wbw/083_016_003.mp3","verse_key":"83:16","verse_id":5864,"location":"83:16:3","text_uthmani":"لَصَالُوا۟","qpc_uthmani_hafs":"لَصَالُواْ","char_type_name":"word","page_number":588,"line_number":6,"text":"لَصَالُواْ","translation":{"text":"(surely) will burn","language_name":"english","language_id":38},"transliteration":{"text":"laṣālū","language_name":"english","language_id":38}},{"id":18636,"position":4,"audio_url":"wbw/083_016_004.mp3","verse_key":"83:16","verse_id":5864,"location":"83:16:4","text_uthmani":"ٱلْجَحِيمِ","qpc_uthmani_hafs":"ٱلۡجَحِيمِ","char_type_name":"word","page_number":588,"line_number":6,"text":"ٱلۡجَحِيمِ","translation":{"text":"(in) the Hellfire","language_name":"english","language_id":38},"transliteration":{"text":"l-jaḥīmi","language_name":"english","language_id":38}},{"id":18637,"position":5,"audio_url":null,"verse_key":"83:16","verse_id":5864,"location":"83:16:5","text_uthmani":"١٦","qpc_uthmani_hafs":"١٦","char_type_name":"end","page_number":588,"line_number":6,"text":"١٦","translation":{"text":"(16)","language_name":"english","language_id":38},"transliteration":{"text":null,"language_name":"english","language_id":38}}]},{"id":5865,"verse_number":17,"verse_key":"83:17","hizb_number":59,"rub_el_hizb_number":235,"ruku_number":527,"manzil_number":7,"sajdah_number":null,"page_number":588,"juz_number":30,"words":[{"id":19687,"position":1,"audio_url":"wbw/083_017_001.mp3","verse_key":"83:17","verse_id":5865,"location":"83:17:1","text_uthmani":"ثُمَّ","qpc_uthmani_hafs":"ثُمَّ","char_type_name":"word","page_number":588,"line_number":6,"text":"ثُمَّ","translation":{"text":"Then","language_name":"english","language_id":38},"transliteration":{"text":"thumma","language_name":"english","language_id":38}},{"id":19688,"position":2,"audio_url":"wbw/083_017_002.mp3","verse_key":"83:17","verse_id":5865,"location":"83:17:2","text_uthmani":"يُقَالُ","qpc_uthmani_hafs":"يُقَالُ","char_type_name":"word","page_number":588,"line_number":6,"text":"يُقَالُ","translation":{"text":"it will be said","language_name":"english","language_id":38},"transliteration":{"text":"yuqālu","language_name":"english","language_id":38}},{"id":19689,"position":3,"audio_url":"wbw/083_017_003.mp3","verse_key":"83:17","verse_id":5865,"location":"83:17:3","text_uthmani":"هَـٰذَا","qpc_uthmani_hafs":"هَٰذَا","char_type_name":"word","page_number":588,"line_number":6,"text":"هَٰذَا","translation":{"text":"This","language_name":"english","language_id":38},"transliteration":{"text":"hādhā","language_name":"english","language_id":38}},{"id":19690,"position":4,"audio_url":"wbw/083_017_004.mp3","verse_key":"83:17","verse_id":5865,"location":"83:17:4","text_uthmani":"ٱلَّذِى","qpc_uthmani_hafs":"ٱلَّذِي","char_type_name":"word","page_number":588,"line_number":7,"text":"ٱلَّذِي","translation":{"text":"(is) what","language_name":"english","language_id":38},"transliteration":{"text":"alladhī","language_name":"english","language_id":38}},{"id":19691,"position":5,"audio_url":"wbw/083_017_005.mp3","verse_key":"83:17","verse_id":5865,"location":"83:17:5","text_uthmani":"كُنتُم","qpc_uthmani_hafs":"كُنتُم","char_type_name":"word","page_number":588,"line_number":7,"text":"كُنتُم","translation":{"text":"you used to","language_name":"english","language_id":38},"transliteration":{"text":"kuntum","language_name":"english","language_id":38}},{"id":19692,"position":6,"audio_url":"wbw/083_017_006.mp3","verse_key":"83:17","verse_id":5865,"location":"83:17:6","text_uthmani":"بِهِۦ","qpc_uthmani_hafs":"بِهِۦ","char_type_name":"word","page_number":588,"line_number":7,"text":"بِهِۦ","translation":{"text":"[of it]","language_name":"english","language_id":38},"transliteration":{"text":"bihi","language_name":"english","language_id":38}},{"id":19693,"position":7,"audio_url":"wbw/083_017_007.mp3","verse_key":"83:17","verse_id":5865,"location":"83:17:7","text_uthmani":"تُكَذِّبُونَ","qpc_uthmani_hafs":"تُكَذِّبُونَ","char_type_name":"word","page_number":588,"line_number":7,"text":"تُكَذِّبُونَ","translation":{"text":"deny","language_name":"english","language_id":38},"transliteration":{"text":"tukadhibūna","language_name":"english","language_id":38}},{"id":19694,"position":8,"audio_url":null,"verse_key":"83:17","verse_id":5865,"location":"83:17:8","text_uthmani":"١٧","qpc_uthmani_hafs":"١٧","char_type_name":"end","page_number":588,"line_number":7,"text":"١٧","translation":{"text":"(17)","language_name":"english","language_id":38},"transliteration":{"text":null,"language_name":"english","language_id":38}}]},{"id":5866,"verse_number":18,"verse_key":"83:18","hizb_number":59,"rub_el_hizb_number":235,"ruku_number":527,"manzil_number":7,"sajdah_number":null,"page_number":588,"juz_number":30,"words":[{"id":20633,"position":1,"audio_url":"wbw/083_018_001.mp3","verse_key":"83:18","verse_id":5866,"location":"83:18:1","text_uthmani":"كَلَّآ","qpc_uthmani_hafs":"كـَلَّآ","char_type_name":"word","page_number":588,"line_number":7,"text":"كـَلَّآ","translation":{"text":"Nay","language_name":"english","language_id":38},"transliteration":{"text":"kallā","language_name":"english","language_id":38}},{"id":20634,"position":2,"audio_url":"wbw/083_018_002.mp3","verse_key":"83:18","verse_id":5866,"location":"83:18:2","text_uthmani":"إِنَّ","qpc_uthmani_hafs":"إِنَّ","char_type_name":"word","page_number":588,"line_number":7,"text":"إِنَّ","translation":{"text":"Indeed","language_name":"english","language_id":38},"transliteration":{"text":"inna","language_name":"english","language_id":38}},{"id":20635,"position":3,"audio_url":"wbw/083_018_003.mp3","verse_key":"83:18","verse_id":5866,"location":"83:18:3","text_uthmani":"كِتَـٰبَ","qpc_uthmani_hafs":"كِتَٰبَ","char_type_name":"word","page_number":588,"line_number":7,"text":"كِتَٰبَ","translation":{"text":"(the) record","language_name":"english","language_id":38},"transliteration":{"text":"kitāba","language_name":"english","language_id":38}},{"id":20636,"position":4,"audio_url":"wbw/083_018_004.mp3","verse_key":"83:18","verse_id":5866,"location":"83:18:4","text_uthmani":"ٱلْأَبْرَارِ","qpc_uthmani_hafs":"ٱلۡأَبۡرَارِ","char_type_name":"word","page_number":588,"line_number":7,"text":"ٱلۡأَبۡرَارِ","translation":{"text":"(of) the righteous","language_name":"english","language_id":38},"transliteration":{"text":"l-abrāri","language_name":"english","language_id":38}},{"id":20637,"position":5,"audio_url":"wbw/083_018_005.mp3","verse_key":"83:18","verse_id":5866,"location":"83:18:5","text_uthmani":"لَفِى","qpc_uthmani_hafs":"لَفِي","char_type_name":"word","page_number":588,"line_number":7,"text":"لَفِي","translation":{"text":"(will be) surely in","language_name":"english","language_id":38},"transliteration":{"text":"lafī","language_name":"english","language_id":38}},{"id":20638,"position":6,"audio_url":"wbw/083_018_006.mp3","verse_key":"83:18","verse_id":5866,"location":"83:18:6","text_uthmani":"عِلِّيِّينَ","qpc_uthmani_hafs":"عِلِّيِّينَ","char_type_name":"word","page_number":588,"line_number":7,"text":"عِلِّيِّينَ","translation":{"text":"Illiyin","language_name":"english","language_id":38},"transliteration":{"text":"ʿilliyyīna","language_name":"english","language_id":38}},{"id":20639,"position":7,"audio_url":null,"verse_key":"83:18","verse_id":5866,"location":"83:18:7","text_uthmani":"١٨","qpc_uthmani_hafs":"١٨","char_type_name":"end","page_number":588,"line_number":7,"text":"١٨","translation":{"text":"(18)","language_name":"english","language_id":38},"transliteration":{"text":null,"language_name":"english","language_id":38}}]},{"id":5867,"verse_number":19,"verse_key":"83:19","hizb_number":59,"rub_el_hizb_number":235,"ruku_number":527,"manzil_number":7,"sajdah_number":null,"page_number":588,"juz_number":30,"words":[{"id":21824,"position":1,"audio_url":"wbw/083_019_001.mp3","verse_key":"83:19","verse_id":5867,"location":"83:19:1","text_uthmani":"وَمَآ","qpc_uthmani_hafs":"وَمَآ","char_type_name":"word","page_number":588,"line_number":8,"text":"وَمَآ","translation":{"text":"And what","language_name":"english","language_id":38},"transliteration":{"text":"wamā","language_name":"english","language_id":38}},{"id":21825,"position":2,"audio_url":"wbw/083_019_002.mp3","verse_key":"83:19","verse_id":5867,"location":"83:19:2","text_uthmani":"أَدْرَىٰكَ","qpc_uthmani_hafs":"أَدۡرَىٰكَ","char_type_name":"word","page_number":588,"line_number":8,"text":"أَدۡرَىٰكَ","translation":{"text":"can make you know","language_name":"english","language_id":38},"transliteration":{"text":"adrāka","language_name":"english","language_id":38}},{"id":21826,"position":3,"audio_url":"wbw/083_019_003.mp3","verse_key":"83:19","verse_id":5867,"location":"83:19:3","text_uthmani":"مَا","qpc_uthmani_hafs":"مَا","char_type_name":"word","page_number":588,"line_number":8,"text":"مَا","translation":{"text":"what","language_name":"english","language_id":38},"transliteration":{"text":"mā","language_name":"english","language_id":38}},{"id":21827,"position":4,"audio_url":"wbw/083_019_004.mp3","verse_key":"83:19","verse_id":5867,"location":"83:19:4","text_uthmani":"عِلِّيُّونَ","qpc_uthmani_hafs":"عِلِّيُّونَ","char_type_name":"word","page_number":588,"line_number":8,"text":"عِلِّيُّونَ","translation":{"text":"(is) Illiyun","language_name":"english","language_id":38},"transliteration":{"text":"ʿilliyyūna","language_name":"english","language_id":38}},{"id":21828,"position":5,"audio_url":null,"verse_key":"83:19","verse_id":5867,"location":"83:19:5","text_uthmani":"١٩","qpc_uthmani_hafs":"١٩","char_type_name":"end","page_number":588,"line_number":8,"text":"١٩","translation":{"text":"(19)","language_name":"english","language_id":38},"transliteration":{"text":null,"language_name":"english","language_id":38}}]},{"id":5868,"verse_number":20,"verse_key":"83:20","hizb_number":59,"rub_el_hizb_number":235,"ruku_number":527,"manzil_number":7,"sajdah_number":null,"page_number":588,"juz_number":30,"words":[{"id":22964,"position":1,"audio_url":"wbw/083_020_001.mp3","verse_key":"83:20","verse_id":5868,"location":"83:20:1","text_uthmani":"كِتَـٰبٌۭ","qpc_uthmani_hafs":"كِتَٰبٞ","char_type_name":"word","page_number":588,"line_number":8,"text":"كِتَٰبٞ","translation":{"text":"A book","language_name":"english","language_id":38},"transliteration":{"text":"kitābun","language_name":"english","language_id":38}},{"id":22965,"position":2,"audio_url":"wbw/083_020_002.mp3","verse_key":"83:20","verse_id":5868,"location":"83:20:2","text_uthmani":"مَّرْقُومٌۭ","qpc_uthmani_hafs":"مَّرۡقُومٞ","char_type_name":"word","page_number":588,"line_number":8,"text":"مَّرۡقُومٞ","translation":{"text":"written","language_name":"english","language_id":38},"transliteration":{"text":"marqūmun","language_name":"english","language_id":38}},{"id":22966,"position":3,"audio_url":null,"verse_key":"83:20","verse_id":5868,"location":"83:20:3","text_uthmani":"٢٠","qpc_uthmani_hafs":"٢٠","char_type_name":"end","page_number":588,"line_number":8,"text":"٢٠","translation":{"text":"(20)","language_name":"english","language_id":38},"transliteration":{"text":null,"language_name":"english","language_id":38}}]}],"pagination":{"per_page":10,"current_page":2,"next_page":3,"total_pages":4,"total_records":36}}
