{"verses":[{"id":5869,"verse_number":21,"verse_key":"83:21","hizb_number":59,"rub_el_hizb_number":235,"ruku_number":527,"manzil_number":7,"sajdah_number":null,"page_number":588,"juz_number":30,"words":[{"id":23987,"position":1,"audio_url":"wbw/083_021_001.mp3","verse_key":"83:21","verse_id":5869,"location":"83:21:1","text_uthmani":"يَشْهَدُهُ","qpc_uthmani_hafs":"يَشۡهَدُهُ","char_type_name":"word","page_number":588,"line_number":8,"text":"يَشۡهَدُهُ","translation":{"text":"Witness it","language_name":"english","language_id":38},"transliteration":{"text":"yashhaduhu","language_name":"english","language_id":38}},{"id":23988,"position":2,"audio_url":"wbw/083_021_002.mp3","verse_key":"83:21","verse_id":5869,"location":"83:21:2","text_uthmani":"ٱلْمُقَرَّبُونَ","qpc_uthmani_hafs":"ٱلۡمُقَرَّبُونَ","char_type_name":"word","page_number":588,"line_number":8,"text":"ٱلۡمُقَرَّبُونَ","translation":{"text":"those brought near","language_name":"english","language_id":38},"transliteration":{"text":"l-muqarabūna","language_name":"english","language_id":38}},{"id":23989,"position":3,"audio_url":null,"verse_key":"83:21","verse_id":5869,"location":"83:21:3","text_uthmani":"٢١","qpc_uthmani_hafs":"٢١","char_type_name":"end","page_number":588,"line_number":8,"text":"٢١","translation":{"text":"(21)","language_name":"english","language_id":38},"transliteration":{"text":null,"language_name":"english","language_id":38}}]},{"id":5870,"verse_number":22,"verse_key":"83:22","hizb_number":59,"rub_el_hizb_number":235,"ruku_number":527,"manzil_number":7,"sajdah_number":null,"page_number":588,"juz_number":30,"words":[{"id":24934,"position":1,"audio_url":"wbw/083_022_001.mp3","verse_key":"83:22","verse_id":5870,"location":"83:22:1","text_uthmani":"إِنَّ","qpc_uthmani_hafs":"إِنَّ","char_type_name":"word","page_number":588,"line_number":9,"text":"إِنَّ","translation":{"text":"Indeed","language_name":"english","language_id":38},"transliteration":{"text":"inna","language_name":"english","language_id":38}},{"id":24935,"position":2,"audio_url":"wbw/083_022_002.mp3","verse_key":"83:22","verse_id":5870,"location":"83:22:2","text_uthmani":"ٱلْأَبْرَارَ","qpc_uthmani_hafs":"ٱلۡأَبۡرَارَ","char_type_name":"word","page_number":588,"line_number":9,"text":"ٱلۡأَبۡرَارَ","translation":{"text":"the righteous","language_name":"english","language_id":38},"transliteration":{"text":"l-abrāra","language_name":"english","language_id":38}},{"id":24936,"position":3,"audio_url":"wbw/083_022_003.mp3","verse_key":"83:22","verse_id":5870,"location":"83:22:3","text_uthmani":"لَفِى","qpc_uthmani_hafs":"لَفِي","char_type_name":"word","page_number":588,"line_number":9,"text":"لَفِي","translation":{"text":"(will be) surely in","language_name":"english","language_id":38},"transliteration":{"text":"lafī","language_name":"english","language_id":38}},{"id":24937,"position":4,"audio_url":"wbw/083_022_004.mp3","verse_key":"83:22","verse_id":5870,"location":"83:22:4","text_uthmani":"نَعِيمٍ","qpc_uthmani_hafs":"نَعِيمٍ","char_type_name":"word","page_number":588,"line_number":9,"text":"نَعِيمٍ","translation":{"text":"bliss","language_name":"english","language_id":38},"transliteration":{"text":"naʿīmin","language_name":"english","language_id":38}},{"id":24938,"position":5,"audio_url":null,"verse_key":"83:22","verse_id":5870,"location":"83:22:5","text_uthmani":"٢٢","qpc_uthmani_hafs":"٢٢","char_type_name":"end","page_number":588,"line_number":9,"text":"٢٢","translation":{"text":"(22)","language_name":"english","language_id":38},"transliteration":{"text":null,"language_name":"english","language_id":38}}]},{"id":5871,"verse_number":23,"verse_key":"83:23","hizb_number":59,"rub_el_hizb_number":235,"ruku_number":527,"manzil_number":7,"sajdah_number":null,"page_number":588,"juz_number":30,"words":[{"id":26084,"position":1,"audio_url":"wbw/083_023_001.mp3","verse_key":"83:23","verse_id":5871,"location":"83:23:1","text_uthmani":"عَلَى","qpc_uthmani_hafs":"عَلَى","char_type_name":"word","page_number":588,"line_number":9,"text":"عَلَى","translation":{"text":"On","language_name":"english","language_id":38},"transliteration":{"text":"ʿalā","language_name":"english","language_id":38}},{"id":26085,"position":2,"audio_url":"wbw/083_023_002.mp3","verse_key":"83:23","verse_id":5871,"location":"83:23:2","text_uthmani":"ٱلْأَرَآئِكِ","qpc_uthmani_hafs":"ٱلۡأَرَآئِكِ","char_type_name":"word","page_number":588,"line_number":9,"text":"ٱلۡأَرَآئِكِ","translation":{"text":"thrones","language_name":"english","language_id":38},"transliteration":{"text":"l-arāiki","language_name":"english","language_id":38}},{"id":26086,"position":3,"audio_url":"wbw/083_023_003.mp3","verse_key":"83:23","verse_id":5871,"location":"83:23:3","text_uthmani":"يَنظُرُونَ","qpc_uthmani_hafs":"يَنظُرُونَ","char_type_name":"word","page_number":588,"line_number":9,"text":"يَنظُرُونَ","translation":{"text":"observing","language_name":"english","language_id":38},"transliteration":{"text":"yanẓurūna","language_name":"english","language_id":38}},{"id":26087,"position":4,"audio_url":null,"verse_key":"83:23","verse_id":5871,"location":"83:23:4","text_uthmani":"٢٣","qpc_uthmani_hafs":"٢٣","char_type_name":"end","page_number":588,"line_number":9,"text":"٢٣","translation":{"text":"(23)","language_name":"english","language_id":38},"transliteration":{"text":null,"language_name":"english","language_id":38}}]},{"id":5872,"verse_number":24,"verse_key":"83:24","hizb_number":59,"rub_el_hizb_number":235,"ruku_number":527,"manzil_number":7,"sajdah_number":null,"page_number":588,"juz_number":30,"words":[{"id":27146,"position":1,"audio_url":"wbw/083_024_001.mp3","verse_key":"83:24","verse_id":5872,"location":"83:24:1","text_uthmani":"تَعْرِفُ","qpc_uthmani_hafs":"تَعۡرِفُ","char_type_name":"word","page_number":588,"line_number":9,"text":"تَعۡرِفُ","translation":{"text":"You will recognize","language_name":"english","language_id":38},"transliteration":{"text":"taʿrifu","language_name":"english","language_id":38}},{"id":27147,"position":2,"audio_url":"wbw/083_024_002.mp3","verse_key":"83:24","verse_id":5872,"location":"83:24:2","text_uthmani":"فِى","qpc_uthmani_hafs":"فِي","char_type_name":"word","page_number":588,"line_number":9,"text":"فِي","translation":{"text":"in","language_name":"english","language_id":38},"transliteration":{"text":"fī","language_name":"english","language_id":38}},{"id":27148,"position":3,"audio_url":"wbw/083_024_003.mp3","verse_key":"83:24","verse_id":5872,"location":"83:24:3","text_uthmani":"وُجُوهِهِمْ","qpc_uthmani_hafs":"وُجُوهِهِمۡ","char_type_name":"word","page_number":588,"line_number":10,"text":"وُجُوهِهِمۡ","translation":{"text":"their faces","language_name":"english","language_id":38},"transliteration":{"text":"wujūhihim","language_name":"english","language_id":38}},{"id":27149,"position":4,"audio_url":"wbw/083_024_004.mp3","verse_key":"83:24","verse_id":5872,"location":"83:24:4","text_uthmani":"نَضْرَةَ","qpc_uthmani_hafs":"نَضۡرَةَ","char_type_name":"word","page_number":588,"line_number":10,"text":"نَضۡرَةَ","translation":{"text":"(the) radiance","language_name":"english","language_id":38},"transliteration":{"text":"naḍrata","language_name":"english","language_id":38}},{"id":27150,"position":5,"audio_url":"wbw/083_024_005.mp3","verse_key":"83:24","verse_id":5872,"location":"83:24:5","text_uthmani":"ٱلنَّعِيمِ","qpc_uthmani_hafs":"ٱلنَّعِيمِ","char_type_name":"word","page_number":588,"line_number":10,"text":"ٱلنَّعِيمِ","translation":{"text":"(of) bliss","language_name":"english","language_id":38},"transliteration":{"text":"l-naʿīmi","language_name":"english","language_id":38}},{"id":27151,"position":6,"audio_url":null,"verse_key":"83:24","verse_id":5872,"location":"83:24:6","text_uthmani":"٢٤","qpc_uthmani_hafs":"٢٤","char_type_name":"end","page_number":588,"line_number":10,"text":"٢٤","translation":{"text":"(24)","language_name":"english","language_id":38},"transliteration":{"text":null,"language_name":"english","language_id":38}}]},{"id":5873,"verse_number":25,"verse_key":"83:25","hizb_number":59,"rub_el_hizb_number":235,"ruku_number":527,"manzil_number":7,"sajdah_number":null,"page_number":588,"juz_number":30,"words":[{"id":28159,"position":1,"audio_url":"wbw/083_025_001.mp3","verse_key":"83:25","verse_id":5873,"location":"83:25:1","text_uthmani":"يُسْقَوْنَ","qpc_uthmani_hafs":"يُسۡقَوۡنَ","char_type_name":"word","page_number":588,"line_number":10,"text":"يُسۡقَوۡنَ","translation":{"text":"They will be given to drink","language_name":"english","language_id":38},"transliteration":{"text":"yus'qawna","language_name":"english","language_id":38}},{"id":28160,"position":2,"audio_url":"wbw/083_025_002.mp3","verse_key":"83:25","verse_id":5873,"location":"83:25:2","text_uthmani":"مِن","qpc_uthmani_hafs":"مِن","char_type_name":"word","page_number":588,"line_number":10,"text":"مِن","translation":{"text":"of","language_name":"english","language_id":38},"transliteration":{"text":"min","language_name":"english","language_id":38}},{"id":28161,"position":3,"audio_url":"wbw/083_025_003.mp3","verse_key":"83:25","verse_id":5873,"location":"83:25:3","text_uthmani":"رَّحِيقٍۢ","qpc_uthmani_hafs":"رَّحِيقٖ","char_type_name":"word","page_number":588,"line_number":10,"text":"رَّحِيقٖ","translation":{"text":"a pure wine","language_name":"english","language_id":38},"transliteration":{"text":"raḥīqin","language_name":"english","language_id":38}},{"id":28162,"position":4,"audio_url":"wbw/083_025_004.mp3","verse_key":"83:25","verse_id":5873,"location":"83:25:4","text_uthmani":"مَّخْتُومٍ","qpc_uthmani_hafs":"مَّخۡتُومٍ","char_type_name":"word","page_number":588,"line_number":10,"text":"مَّخۡتُومٍ","translation":{"text":"sealed","language_name":"english","language_id":38},"transliteration":{"text":"makhtūmin","language_name":"english","language_id":38}},{"id":28163,"position":5,"audio_url":null,"verse_key":"83:25","verse_id":5873,"location":"83:25:5","text_uthmani":"٢٥","qpc_uthmani_hafs":"٢٥","char_type_name":"end","page_number":588,"line_number":10,"text":"٢٥","translation":{"text":"(25)","language_name":"english","language_id":38},"transliteration":{"text":null,"language_name":"english","language_id":38}}]},{"id":5874,"verse_number":26,"verse_key":"83:26","hizb_number":59,"rub_el_hizb_number":235,"ruku_number":527,"manzil_number":7,"sajdah_number":null,"page_number":588,"juz_number":30,"words":[{"id":29131,"position":1,"audio_url":"wbw/083_026_001.mp3","verse_key":"83:26","verse_id":5874,"location":"83:26:1","text_uthmani":"خِتَـٰمُهُۥ","qpc_uthmani_hafs":"خِتَٰمُهُۥ","char_type_name":"word","page_number":588,"line_number":10,"text":"خِتَٰمُهُۥ","translation":{"text":"Its seal","language_name":"english","language_id":38},"transliteration":{"text":"khitāmuhu","language_name":"english","language_id":38}},{"id":29132,"position":2,"audio_url":"wbw/083_026_002.mp3","verse_key":"83:26","verse_id":5874,"location":"83:26:2","text_uthmani":"مِسْكٌۭ ۚ","qpc_uthmani_hafs":"مِسۡكٞۚ","char_type_name":"word","page_number":588,"line_number":11,"text":"مِسۡكٞۚ","translation":{"text":"(will be of) musk","language_name":"english","language_id":38},"transliteration":{"text":"mis'kun","language_name":"english","language_id":38}},{"id":29134,"position":3,"audio_url":"wbw/083_026_004.mp3","verse_key":"83:26","verse_id":5874,"location":"83:26:3","text_uthmani":"وَفِى","qpc_uthmani_hafs":"وَفِي","char_type_name":"word","page_number":588,"line_number":11,"text":"وَفِي","translation":{"text":"And for","language_name":"english","language_id":38},"transliteration":{"text":"wafī","language_name":"english","language_id":38}},{"id":29135,"position":4,"audio_url":"wbw/083_026_005.mp3","verse_key":"83:26","verse_id":5874,"location":"83:26:4","text_uthmani":"ذَٰلِكَ","qpc_uthmani_hafs":"ذَٰلِكَ","char_type_name":"word","page_number":588,"line_number":11,"text":"ذَٰلِكَ","translation":{"text":"that","language_name":"english","language_id":38},"transliteration":{"text":"dhālika","language_name":"english","language_id":38}},{"id":29136,"position":5,"audio_url":"wbw/083_026_006.mp3","verse_key":"83:26","verse_id":5874,"location":"83:26:5","text_uthmani":"فَلْيَتَنَافَسِ","qpc_uthmani_hafs":"فَلۡيَتَنَافَسِ","char_type_name":"word","page_number":588,"line_number":11,"text":"فَلۡيَتَنَافَسِ","translation":{"text":"let aspire","language_name":"english","language_id":38},"transliteration":{"text":"falyatanāfasi","language_name":"english","language_id":38}},{"id":29137,"position":6,"audio_url":"wbw/083_026_007.mp3","verse_key":"83:26","verse_id":5874,"location":"83:26:6","text_uthmani":"ٱلْمُتَنَـٰفِسُونَ","qpc_uthmani_hafs":"ٱلۡمُتَنَٰفِسُونَ","char_type_name":"word","page_number":588,"line_number":11,"text":"ٱلۡمُتَنَٰفِسُونَ","translation":{"text":"the aspirers","language_name":"english","language_id":38},"transliteration":{"text":"l-mutanāfisūna","language_name":"english","language_id":38}},{"id":29138,"position":7,"audio_url":null,"verse_key":"83:26","verse_id":5874,"location":"83:26:7","text_uthmani":"٢٦","qpc_uthmani_hafs":"٢٦","char_type_name":"end","page_number":588,"line_number":11,"text":"٢٦","translation":{"text":"(26)","language_name":"english","language_id":38},"transliteration":{"text":null,"language_name":"english","language_id":38}}]},{"id":5875,"verse_number":27,"verse_key":"83:27","hizb_number":59,"rub_el_hizb_number":235,"ruku_number":527,"manzil_number":7,"sajdah_number":null,"page_number":588,"juz_number":30,"words":[{"id":30018,"position":1,"audio_url":"wbw/083_027_001.mp3","verse_key":"83:27","verse_id":5875,"location":"83:27:1","text_uthmani":"وَمِزَاجُهُۥ","qpc_uthmani_hafs":"وَمِزَاجُهُۥ","char_type_name":"word","page_number":588,"line_number":11,"text":"وَمِزَاجُهُۥ","translation":{"text":"And its mixture","language_name":"english","language_id":38},"transliteration":{"text":"wamizājuhu","language_name":"english","language_id":38}},{"id":30019,"position":2,"audio_url":"wbw/083_027_002.mp3","verse_key":"83:27","verse_id":5875,"location":"83:27:2","text_uthmani":"مِن","qpc_uthmani_hafs":"مِن","char_type_name":"word","page_number":588,"line_number":11,"text":"مِن","translation":{"text":"(is) of","language_name":"english","language_id":38},"transliteration":{"text":"min","language_name":"english","language_id":38}},{"id":30020,"position":3,"audio_url":"wbw/083_027_003.mp3","verse_key":"83:27","verse_id":5875,"location":"83:27:3","text_uthmani":"تَسْنِيمٍ","qpc_uthmani_hafs":"تَسۡنِيمٍ","char_type_name":"word","page_number":588,"line_number":12,"text":"تَسۡنِيمٍ","translation":{"text":"Tasneem","language_name":"english","language_id":38},"transliteration":{"text":"tasnīmin","language_name":"english","language_id":38}},{"id":30021,"position":4,"audio_url":null,"verse_key":"83:27","verse_id":5875,"location":"83:27:4","text_uthmani":"٢٧","qpc_uthmani_hafs":"٢٧","char_type_name":"end","page_number":588,"line_number":12,"text":"٢٧","translation":{"text":"(27)","language_name":"english","language_id":38},"transliteration":{"text":null,"language_name":"english","language_id":38}}]},{"id":5876,"verse_number":28,"verse_key":"83:28","hizb_number":59,"rub_el_hizb_number":235,"ruku_number":527,"manzil_number":7,"sajdah_number":null,"page_number":588,"juz_number":30,"words":[{"id":31087,"position":1,"audio_url":"wbw/083_028_001.mp3","verse_key":"83:28","verse_id":5876,"location":"83:28:1","text_uthmani":"عَيْنًۭا","qpc_uthmani_hafs":"عَيۡنٗا","char_type_name":"word","page_number":588,"line_number":12,"text":"عَيۡنٗا","translation":{"text":"A spring","language_name":"english","language_id":38},"transliteration":{"text":"ʿaynan","language_name":"english","language_id":38}},{"id":31088,"position":2,"audio_url":"wbw/083_028_002.mp3","verse_key":"83:28","verse_id":5876,"location":"83:28:2","text_uthmani":"يَشْرَبُ","qpc_uthmani_hafs":"يَشۡرَبُ","char_type_name":"word","page_number":588,"line_number":12,"text":"يَشۡرَبُ","translation":{"text":"will drink","language_name":"english","language_id":38},"transliteration":{"text":"yashrabu","language_name":"english","language_id":38}},{"id":31089,"position":3,"audio_url":"wbw/083_028_003.mp3","verse_key":"83:28","verse_id":5876,"location":"83:28:3","text_uthmani":"بِهَا","qpc_uthmani_hafs":"بِهَا","char_type_name":"word","page_number":588,"line_number":12,"text":"بِهَا","translation":{"text":"from it","language_name":"english","language_id":38},"transliteration":{"text":"bihā","language_name":"english","language_id":38}},{"id":31090,"position":4,"audio_url":"wbw/083_028_004.mp3","verse_key":"83:28","verse_id":5876,"location":"83:28:4","text_uthmani":"ٱلْمُقَرَّبُونَ","qpc_uthmani_hafs":"ٱلۡمُقَرَّبُونَ","char_type_name":"word","page_number":588,"line_number":12,"text":"ٱلۡمُقَرَّبُونَ","translation":{"text":"those brought near","language_name":"english","language_id":38},"transliteration":{"text":"l-muqarabūna","language_name":"english","language_id":38}},{"id":31091,"position":5,"audio_url":null,"verse_key":"83:28","verse_id":5876,"location":"83:28:5","text_uthmani":"٢٨","qpc_uthmani_hafs":"٢٨","char_type_name":"end","page_number":588,"line_number":12,"text":"٢٨","translation":{"text":"(28)","language_name":"english","language_id":38},"transliteration":{"text":null,"language_name":"english","language_id":38}}]},{"id":5877,"verse_number":29,"verse_key":"83:29","hizb_number":59,"rub_el_hizb_number":235,"ruku_number":527,"manzil_number":7,"sajdah_number":null,"page_number":588,"juz_number":30,"words":[{"id":32071,"position":1,"audio_url":"wbw/083_029_001.mp3","verse_key":"83:29","verse_id":5877,"location":"83:29:1","text_uthmani":"إِنَّ","qpc_uthmani_hafs":"إِنَّ","char_type_name":"word","page_number":588,"line_number":12,"text":"إِنَّ","translation":{"text":"Indeed","language_name":"english","language_id":38},"transliteration":{"text":"inna","language_name":"english","language_id":38}},{"id":32072,"position":2,"audio_url":"wbw/083_029_002.mp3","verse_key":"83:29","verse_id":5877,"location":"83:29:2","text_uthmani":"ٱلَّذِينَ","qpc_uthmani_hafs":"ٱلَّذِينَ","char_type_name":"word","page_number":588,"line_number":12,"text":"ٱلَّذِينَ","translation":{"text":"those who","language_name":"english","language_id":38},"transliteration":{"text":"alladhīna","language_name":"english","language_id":38}},{"id":32073,"position":3,"audio_url":"wbw/083_029_003.mp3","verse_key":"83:29","verse_id":5877,"location":"83:29:3","text_uthmani":"أَجْرَمُوا۟","qpc_uthmani_hafs":"أَجۡرَمُواْ","char_type_name":"word","page_number":588,"line_number":12,"text":"أَجۡرَمُواْ","translation":{"text":"committed crimes","language_name":"english","language_id":38},"transliteration":{"text":"ajramū","language_name":"english","language_id":38}},{"id":32074,"position":4,"audio_url":"wbw/083_029_004.mp3","verse_key":"83:29","verse_id":5877,"location":"83:29:4","text_uthmani":"كَانُوا۟","qpc_uthmani_hafs":"كَانُواْ","char_type_name":"word","page_number":588,"line_number":12,"text":"كَانُواْ","translation":{"text":"used to","language_name":"english","language_id":38},"transliteration":{"text":"kānū","language_name":"english","language_id":38}},{"id":32075,"position":5,"audio_url":"wbw/083_029_005.mp3","verse_key":"83:29","verse_id":5877,"location":"83:29:5","text_uthmani":"مِنَ","qpc_uthmani_hafs":"مِنَ","char_type_name":"word","page_number":588,"line_number":13,"text":"مِنَ","translation":{"text":"at","language_name":"english","language_id":38},"transliteration":{"text":"mina","language_name":"english","language_id":38}},{"id":32076,"position":6,"audio_url":"wbw/083_029_006.mp3","verse_key":"83:29","verse_id":5877,"location":"83:29:6","text_uthmani":"ٱلَّذِينَ","qpc_uthmani_hafs":"ٱلَّذِينَ","char_type_name":"word","page_number":588,"line_number":13,"text":"ٱلَّذِينَ","translation":{"text":"those who","language_name":"english","language_id":38},"transliteration":{"text":"alladhīna","language_name":"english","language_id":38}},{"id":32077,"position":7,"audio_url":"wbw/083_029_007.mp3","verse_key":"83:29","verse_id":5877,"location":"83:29:7","text_uthmani":"ءَامَنُوا۟","qpc_uthmani_hafs":"ءَامَنُواْ","char_type_name":"word","page_number":588,"line_number":13,"text":"ءَامَنُواْ","translation":{"text":"believed","language_name":"english","language_id":38},"transliteration":{"text":"āmanū","language_name":"english","language_id":38}},{"id":32078,"position":8,"audio_url":"wbw/083_029_008.mp3","verse_key":"83:29","verse_id":5877,"location":"83:29:8","text_uthmani":"يَضْحَكُونَ","qpc_uthmani_hafs":"يَضۡحَكُونَ","char_type_name":"word","page_number":588,"line_number":13,"text":"يَضۡحَكُونَ","translation":{"text":"laugh","language_name":"english","language_id":38},"transliteration":{"text":"yaḍḥakūna","language_name":"english","language_id":38}},{"id":32079,"position":9,"audio_url":null,"verse_key":"83:29","verse_id":5877,"location":"83:29:9","text_uthmani":"٢٩","qpc_uthmani_hafs":"٢٩","char_type_name":"end","page_number":588,"line_number":13,"text":"٢٩","translation":{"text":"(29)","language_name":"english","language_id":38},"transliteration":{"text":null,"language_name":"english","language_id":38}}]},{"id":5878,"verse_number":30,"verse_key":"83:30","hizb_number":59,"rub_el_hizb_number":235,"ruku_number":527,"manzil_number":7,"sajdah_number":null,"page_number":588,"juz_number":30,"words":[{"id":32746,"position":1,"audio_url":"wbw/083_030_001.mp3","verse_key":"83:30","verse_id":5878,"location":"83:30:1","text_uthmani":"وَإِذَا","qpc_uthmani_hafs":"وَإِذَا","char_type_name":"word","page_number":588,"line_number":13,"text":"وَإِذَا","translation":{"text":"And when","language_name":"english","language_id":38},"transliteration":{"text":"wa-idhā","language_name":"english","language_id":38}},{"id":32747,"position":2,"audio_url":"wbw/083_030_002.mp3","verse_key":"83:30","verse_id":5878,"location":"83:30:2","text_uthmani":"مَرُّوا۟","qpc_uthmani_hafs":"مَرُّواْ","char_type_name":"word","page_number":588,"line_number":13,"text":"مَرُّواْ","translation":{"text":"they passed","language_name":"english","language_id":38},"transliteration":{"text":"marrū","language_name":"english","language_id":38}},{"id":32748,"position":3,"audio_url":"wbw/083_030_003.mp3","verse_key":"83:30","verse_id":5878,"location":"83:30:3","text_uthmani":"بِهِمْ","qpc_uthmani_hafs":"بِهِمۡ","char_type_name":"word","page_number":588,"line_number":13,"text":"بِهِمۡ","translation":{"text":"by them","language_name":"english","language_id":38},"transliteration":{"text":"bihim","language_name":"english","language_id":38}},{"id":32749,"position":4,"audio_url":"wbw/083_030_004.mp3","verse_key":"83:30","verse_id":5878,"location":"83:30:4","text_uthmani":"يَتَغَامَزُونَ","qpc_uthmani_hafs":"يَتَغَامَزُونَ","char_type_name":"word","page_number":588,"line_number":13,"text":"يَتَغَامَزُونَ","translation":{"text":"they winked at one another","language_name":"english","language_id":38},"transliteration":{"text":"yataghāmazūna","language_name":"english","language_id":38}},{"id":32750,"position":5,"audio_url":null,"verse_key":"83:30","verse_id":5878,"location":"83:30:5","text_uthmani":"٣٠","qpc_uthmani_hafs":"٣٠","char_type_name":"end","page_number":588,"line_number":13,"text":"٣٠","translation":{"text":"(30)","language_name":"english","language_id":38},"transliteration":{"text":null,"language_name":"english","language_id":38}}]}],"pagination":{"per_page":10,"current_page":3,"next_page":4,"total_pages":4,"total_records":36}}
