{"verses":[{"id":5879,"verse_number":31,"verse_key":"83:31","hizb_number":59,"rub_el_hizb_number":235,"ruku_number":527,"manzil_number":7,"sajdah_number":null,"page_number":588,"juz_number":30,"words":[{"id":33800,"position":1,"audio_url":"wbw/083_031_001.mp3","verse_key":"83:31","verse_id":5879,"location":"83:31:1","text_uthmani":"وَإِذَا","qpc_uthmani_hafs":"وَإِذَا","char_type_name":"word","page_number":588,"line_number":14,"text":"وَإِذَا","translation":{"text":"And when","language_name":"english","language_id":38},"transliteration":{"text":"wa-idhā","language_name":"english","language_id":38}},{"id":33801,"position":2,"audio_url":"wbw/083_031_002.mp3","verse_key":"83:31","verse_id":5879,"location":"83:31:2","text_uthmani":"ٱنقَلَبُوٓا۟","qpc_uthmani_hafs":"ٱنقَلَبُوٓاْ","char_type_name":"word","page_number":588,"line_number":14,"text":"ٱنقَلَبُوٓاْ","translation":{"text":"they returned","language_name":"english","language_id":38},"transliteration":{"text":"inqalabū","language_name":"english","language_id":38}},{"id":33802,"position":3,"audio_url":"wbw/083_031_003.mp3","verse_key":"83:31","verse_id":5879,"location":"83:31:3","text_uthmani":"إِلَىٰٓ","qpc_uthmani_hafs":"إِلَىٰٓ","char_type_name":"word","page_number":588,"line_number":14,"text":"إِلَىٰٓ","translation":{"text":"to","language_name":"english","language_id":38},"transliteration":{"text":"ilā","language_name":"english","language_id":38}},{"id":33803,"position":4,"audio_url":"wbw/083_031_004.mp3","verse_key":"83:31","verse_id":5879,"location":"83:31:4","text_uthmani":"أَهْلِهِمُ","qpc_uthmani_hafs":"أَهۡلِهِمُ","char_type_name":"word","page_number":588,"line_number":14,"text":"أَهۡلِهِمُ","translation":{"text":"their people","language_name":"english","language_id":38},"transliteration":{"text":"ahlihimu","language_name":"english","language_id":38}},{"id":33804,"position":5,"audio_url":"wbw/083_031_005.mp3","verse_key":"83:31","verse_id":5879,"location":"83:31:5","text_uthmani":"ٱنقَلَبُوا۟","qpc_uthmani_hafs":"ٱنقَلَبُواْ","char_type_name":"word","page_number":588,"line_number":14,"text":"ٱنقَلَبُواْ","translation":{"text":"they would return","language_name":"english","language_id":38},"transliteration":{"text":"inqalabū","language_name":"english","language_id":38}},{"id":33805,"position":6,"audio_url":"wbw/083_031_006.mp3","verse_key":"83:31","verse_id":5879,"location":"83:31:6","text_uthmani":"فَكِهِينَ","qpc_uthmani_hafs":"فَكِهِينَ","char_type_name":"word","page_number":588,"line_number":14,"text":"فَكِهِينَ","translation":{"text":"jesting","language_name":"english","language_id":38},"transliteration":{"text":"fakihīna","language_name":"english","language_id":38}},{"id":33806,"position":7,"audio_url":null,"verse_key":"83:31","verse_id":5879,"location":"83:31:7","text_uthmani":"٣١","qpc_uthmani_hafs":"٣١","char_type_name":"end","page_number":588,"line_number":14,"text":"٣١","translation":{"text":"(31)","language_name":"english","language_id":38},"transliteration":{"text":null,"language_name":"english","language_id":38}}]},{"id":5880,"verse_number":32,"verse_key":"83:32","hizb_number":59,"rub_el_hizb_number":235,"ruku_number":527,"manzil_number":7,"sajdah_number":null,"page_number":588,"juz_number":30,"words":[{"id":34781,"position":1,"audio_url":"wbw/083_032_001.mp3","verse_key":"83:32","verse_id":5880,"location":"83:32:1","text_uthmani":"وَإِذَا","qpc_uthmani_hafs":"وَإِذَا","char_type_name":"word","page_number":588,"line_number":14,"text":"وَإِذَا","translation":{"text":"And when","language_name":"english","language_id":38},"transliteration":{"text":"wa-idhā","language_name":"english","language_id":38}},{"id":34782,"position":2,"audio_url":"wbw/083_032_002.mp3","verse_key":"83:32","verse_id":5880,"location":"83:32:2","text_uthmani":"رَأَوْهُمْ","qpc_uthmani_hafs":"رَأَوۡهُمۡ","char_type_name":"word","page_number":588,"line_number":14,"text":"رَأَوۡهُمۡ","translation":{"text":"they saw them","language_name":"english","language_id":38},"transliteration":{"text":"ra-awhum","language_name":"english","language_id":38}},{"id":34783,"position":3,"audio_url":"wbw/083_032_003.mp3","verse_key":"83:32","verse_id":5880,"location":"83:32:3","text_uthmani":"قَالُوٓا۟","qpc_uthmani_hafs":"قَالُوٓاْ","char_type_name":"word","page_number":588,"line_number":14,"text":"قَالُوٓاْ","translation":{"text":"they said","language_name":"english","language_id":38},"transliteration":{"text":"qālū","language_name":"english","language_id":38}},{"id":34784,"position":4,"audio_url":"wbw/083_032_004.mp3","verse_key":"83:32","verse_id":5880,"location":"83:32:4","text_uthmani":"إِنَّ","qpc_uthmani_hafs":"إِنَّ","char_type_name":"word","page_number":588,"line_number":15,"text":"إِنَّ","translation":{"text":"Indeed","language_name":"english","language_id":38},"transliteration":{"text":"inna","language_name":"english","language_id":38}},{"id":34785,"position":5,"audio_url":"wbw/083_032_005.mp3","verse_key":"83:32","verse_id":5880,"location":"83:32:5","text_uthmani":"هَـٰٓؤُلَآءِ","qpc_uthmani_hafs":"هَٰٓؤُلَآءِ","char_type_name":"word","page_number":588,"line_number":15,"text":"هَٰٓؤُلَآءِ","translation":{"text":"these","language_name":"english","language_id":38},"transliteration":{"text":"hāulāi","language_name":"english","language_id":38}},{"id":34786,"position":6,"audio_url":"wbw/083_032_006.mp3","verse_key":"83:32","verse_id":5880,"location":"83:32:6","text_uthmani":"لَضَآلُّونَ","qpc_uthmani_hafs":"لَضَآلُّونَ","char_type_name":"word","page_number":588,"line_number":15,"text":"لَضَآلُّونَ","translation":{"text":"surely have gone astray","language_name":"english","language_id":38},"transliteration":{"text":"laḍāllūna","language_name":"english","language_id":38}},{"id":34787,"position":7,"audio_url":null,"verse_key":"83:32","verse_id":5880,"location":"83:32:7","text_uthmani":"٣٢","qpc_uthmani_hafs":"٣٢","char_type_name":"end","page_number":588,"line_number":15,"text":"٣٢","translation":{"text":"(32)","language_name":"english","language_id":38},"transliteration":{"text":null,"language_name":"english","language_id":38}}]},{"id":5881,"verse_number":33,"verse_key":"83:33","hizb_number":59,"rub_el_hizb_number":235,"ruku_number":527,"manzil_number":7,"sajdah_number":null,"page_number":588,"juz_number":30,"words":[{"id":35603,"position":1,"audio_url":"wbw/083_033_001.mp3","verse_key":"83:33","verse_id":5881,"location":"83:33:1","text_uthmani":"وَمَآ","qpc_uthmani_hafs":"وَمَآ","char_type_name":"word","page_number":588,"line_number":15,"text":"وَمَآ","translation":{"text":"But not","language_name":"english","language_id":38},"transliteration":{"text":"wamā","language_name":"english","language_id":38}},{"id":35604,"position":2,"audio_url":"wbw/083_033_002.mp3","verse_key":"83:33","verse_id":5881,"location":"83:33:2","text_uthmani":"أُرْسِلُوا۟","qpc_uthmani_hafs":"أُرۡسِلُواْ","char_type_name":"word","page_number":588,"line_number":15,"text":"أُرۡسِلُواْ","translation":{"text":"they had been sent","language_name":"english","language_id":38},"transliteration":{"text":"ur'silū","language_name":"english","language_id":38}},{"id":35605,"position":3,"audio_url":"wbw/083_033_003.mp3","verse_key":"83:33","verse_id":5881,"location":"83:33:3","text_uthmani":"عَلَيْهِمْ","qpc_uthmani_hafs":"عَلَيۡهِمۡ","char_type_name":"word","page_number":588,"line_number":15,"text":"عَلَيۡهِمۡ","translation":{"text":"over them","language_name":"english","language_id":38},"transliteration":{"text":"ʿalayhim","language_name":"english","language_id":38}},{"id":35606,"position":4,"audio_url":"wbw/083_033_004.mp3","verse_key":"83:33","verse_id":5881,"location":"83:33:4","text_uthmani":"حَـٰفِظِينَ","qpc_uthmani_hafs":"حَٰفِظِينَ","char_type_name":"word","page_number":588,"line_number":15,"text":"حَٰفِظِينَ","translation":{"text":"(as) guardians","language_name":"english","language_id":38},"transliteration":{"text":"ḥāfiẓīna","language_name":"english","language_id":38}},{"id":35607,"position":5,"audio_url":null,"verse_key":"83:33","verse_id":5881,"location":"83:33:5","text_uthmani":"٣٣","qpc_uthmani_hafs":"٣٣","char_type_name":"end","page_number":588,"line_number":15,"text":"٣٣","translation":{"text":"(33)","language_name":"english","language_id":38},"transliteration":{"text":null,"language_name":"english","language_id":38}}]},{"id":5882,"verse_number":34,"verse_key":"83:34","hizb_number":59,"rub_el_hizb_number":235,"ruku_number":527,"manzil_number":7,"sajdah_number":null,"page_number":589,"juz_number":30,"words":[{"id":36431,"position":1,"audio_url":"wbw/083_034_001.mp3","verse_key":"83:34","verse_id":5882,"location":"83:34:1","text_uthmani":"فَٱلْيَوْمَ","qpc_uthmani_hafs":"فَٱلۡيَوۡمَ","char_type_name":"word","page_number":589,"line_number":1,"text":"فَٱلۡيَوۡمَ","translation":{"text":"So today","language_name":"english","language_id":38},"transliteration":{"text":"fal-yawma","language_name":"english","language_id":38}},{"id":36432,"position":2,"audio_url":"wbw/083_034_002.mp3","verse_key":"83:34","verse_id":5882,"location":"83:34:2","text_uthmani":"ٱلَّذِينَ","qpc_uthmani_hafs":"ٱلَّذِينَ","char_type_name":"word","page_number":589,"line_number":1,"text":"ٱلَّذِينَ","translation":{"text":"those who","language_name":"english","language_id":38},"transliteration":{"text":"alladhīna","language_name":"english","language_id":38}},{"id":36433,"position":3,"audio_url":"wbw/083_034_003.mp3","verse_key":"83:34","verse_id":5882,"location":"83:34:3","text_uthmani":"ءَامَنُوا۟","qpc_uthmani_hafs":"ءَامَنُواْ","char_type_name":"word","page_number":589,"line_number":1,"text":"ءَامَنُواْ","translation":{"text":"believed ","language_name":"english","language_id":38},"transliteration":{"text":"āmanū","language_name":"english","language_id":38}},{"id":36434,"position":4,"audio_url":"wbw/083_034_004.mp3","verse_key":"83:34","verse_id":5882,"location":"83:34:4","text_uthmani":"مِنَ","qpc_uthmani_hafs":"مِنَ","char_type_name":"word","page_number":589,"line_number":1,"text":"مِنَ","translation":{"text":"at","language_name":"english","language_id":38},"transliteration":{"text":"mina","language_name":"english","language_id":38}},{"id":36435,"position":5,"audio_url":"wbw/083_034_005.mp3","verse_key":"83:34","verse_id":5882,"location":"83:34:5","text_uthmani":"ٱلْكُفَّارِ","qpc_uthmani_hafs":"ٱلۡكُفَّارِ","char_type_name":"word","page_number":589,"line_number":1,"text":"ٱلۡكُفَّارِ","translation":{"text":"the disbelievers","language_name":"english","language_id":38},"transliteration":{"text":"l-kufāri","language_name":"english","language_id":38}},{"id":36436,"position":6,"audio_url":"wbw/083_034_006.mp3","verse_key":"83:34","verse_id":5882,"location":"83:34:6","text_uthmani":"يَضْحَكُونَ","qpc_uthmani_hafs":"يَضۡحَكُونَ","char_type_name":"word","page_number":589,"line_number":1,"text":"يَضۡحَكُونَ","translation":{"text":"they will laugh","language_name":"english","language_id":38},"transliteration":{"text":"yaḍḥakūna","language_name":"english","language_id":38}},{"id":36437,"position":7,"audio_url":null,"verse_key":"83:34","verse_id":5882,"location":"83:34:7","text_uthmani":"٣٤","qpc_uthmani_hafs":"٣٤","char_type_name":"end","page_number":589,"line_number":1,"text":"٣٤","translation":{"text":"(34)","language_name":"english","language_id":38},"transliteration":{"text":null,"language_name":"english","language_id":38}}]},{"id":5883,"verse_number":35,"verse_key":"83:35","hizb_number":59,"rub_el_hizb_number":235,"ruku_number":527,"manzil_number":7,"sajdah_number":null,"page_number":589,"juz_number":30,"words":[{"id":37297,"position":1,"audio_url":"wbw/083_035_001.mp3","verse_key":"83:35","verse_id":5883,"location":"83:35:1","text_uthmani":"عَلَى","qpc_uthmani_hafs":"عَلَى","char_type_name":"word","page_number":589,"line_number":1,"text":"عَلَى","translation":{"text":"On","language_name":"english","language_id":38},"transliteration":{"text":"ʿalā","language_name":"english","language_id":38}},{"id":37298,"position":2,"audio_url":"wbw/083_035_002.mp3","verse_key":"83:35","verse_id":5883,"location":"83:35:2","text_uthmani":"ٱلْأَرَآئِكِ","qpc_uthmani_hafs":"ٱلۡأَرَآئِكِ","char_type_name":"word","page_number":589,"line_number":2,"text":"ٱلۡأَرَآئِكِ","translation":{"text":"the thrones","language_name":"english","language_id":38},"transliteration":{"text":"l-arāiki","language_name":"english","language_id":38}},{"id":37299,"position":3,"audio_url":"wbw/083_035_003.mp3","verse_key":"83:35","verse_id":5883,"location":"83:35:3","text_uthmani":"يَنظُرُونَ","qpc_uthmani_hafs":"يَنظُرُونَ","char_type_name":"word","page_number":589,"line_number":2,"text":"يَنظُرُونَ","translation":{"text":"observing","language_name":"english","language_id":38},"transliteration":{"text":"yanẓurūna","language_name":"english","language_id":38}},{"id":37300,"position":4,"audio_url":null,"verse_key":"83:35","verse_id":5883,"location":"83:35:4","text_uthmani":"٣٥","qpc_uthmani_hafs":"٣٥","char_type_name":"end","page_number":589,"line_number":2,"text":"٣٥","translation":{"text":"(35)","language_name":"english","language_id":38},"transliteration":{"text":null,"language_name":"english","language_id":38}}]},{"id":5884,"verse_number":36,"verse_key":"83:36","hizb_number":59,"rub_el_hizb_number":235,"ruku_number":527,"manzil_number":7,"sajdah_number":null,"page_number":589,"juz_number":30,"words":[{"id":38227,"position":1,"audio_url":"wbw/083_036_001.mp3","verse_key":"83:36","verse_id":5884,"location":"83:36:1","text_uthmani":"هَلْ","qpc_uthmani_hafs":"هَلۡ","char_type_name":"word","page_number":589,"line_number":2,"text":"هَلۡ","translation":{"text":"Have (not)","language_name":"english","language_id":38},"transliteration":{"text":"hal","language_name":"english","language_id":38}},{"id":38228,"position":2,"audio_url":"wbw/083_036_002.mp3","verse_key":"83:36","verse_id":5884,"location":"83:36:2","text_uthmani":"ثُوِّبَ","qpc_uthmani_hafs":"ثُوِّبَ","char_type_name":"word","page_number":589,"line_number":2,"text":"ثُوِّبَ","translation":{"text":"been rewarded","language_name":"english","language_id":38},"transliteration":{"text":"thuwwiba","language_name":"english","language_id":38}},{"id":38229,"position":3,"audio_url":"wbw/083_036_003.mp3","verse_key":"83:36","verse_id":5884,"location":"83:36:3","text_uthmani":"ٱلْكُفَّارُ","qpc_uthmani_hafs":"ٱلۡكُفَّارُ","char_type_name":"word","page_number":589,"line_number":2,"text":"ٱلۡكُفَّارُ","translation":{"text":"the disbelievers","language_name":"english","language_id":38},"transliteration":{"text":"l-kufāru","language_name":"english","language_id":38}},{"id":38230,"position":4,"audio_url":"wbw/083_036_004.mp3","verse_key":"83:36","verse_id":5884,"location":"83:36:4","text_uthmani":"مَا","qpc_uthmani_hafs":"مَا","char_type_name":"word","page_number":589,"line_number":2,"text":"مَا","translation":{"text":"(for) what","language_name":"english","language_id":38},"transliteration":{"text":"mā","language_name":"english","language_id":38}},{"id":38231,"position":5,"audio_url":"wbw/083_036_005.mp3","verse_key":"83:36","verse_id":5884,"location":"83:36:5","text_uthmani":"كَانُوا۟","qpc_uthmani_hafs":"كَانُواْ","char_type_name":"word","page_number":589,"line_number":2,"text":"كَانُواْ","translation":{"text":"they used to","language_name":"english","language_id":38},"transliteration":{"text":"kānū","language_name":"english","language_id":38}},{"id":38232,"position":6,"audio_url":"wbw/083_036_006.mp3","verse_key":"83:36","verse_id":5884,"location":"83:36:6","text_uthmani":"يَفْعَلُونَ","qpc_uthmani_hafs":"يَفۡعَلُونَ","char_type_name":"word","page_number":589,"line_number":2,"text":"يَفۡعَلُونَ","translation":{"text":"do","language_name":"english","language_id":38},"transliteration":{"text":"yafʿalūna","language_name":"english","language_id":38}},{"id":38233,"position":7,"audio_url":null,"verse_key":"83:36","verse_id":5884,"location":"83:36:7","text_uthmani":"٣٦","qpc_uthmani_hafs":"٣٦","char_type_name":"end","page_number":589,"line_number":2,"text":"٣٦","translation":{"text":"(36)","language_name":"english","language_id":38},"transliteration":{"text":null,"language_name":"english","language_id":38}}]}],"pagination":{"per_page":10,"current_page":4,"next_page":null,"total_pages":4,"total_records":36}}
