{"verses":[{"id":5622,"verse_number":31,"verse_key":"76:31","hizb_number":58,"rub_el_hizb_number":232,"ruku_number":517,"manzil_number":7,"sajdah_number":null,"page_number":580,"juz_number":29,"words":[{"id":33277,"position":1,"audio_url":"wbw/076_031_001.mp3","verse_key":"76:31","verse_id":5622,"location":"76:31:1","text_uthmani":"يُدْخِلُ","qpc_uthmani_hafs":"يُدۡخِلُ","char_type_name":"word","page_number":580,"line_number":5,"text":"يُدۡخِلُ","translation":{"text":"He admits","language_name":"english","language_id":38},"transliteration":{"text":"yud'khilu","language_name":"english","language_id":38}},{"id":33278,"position":2,"audio_url":"wbw/076_031_002.mp3","verse_key":"76:31","verse_id":5622,"location":"76:31:2","text_uthmani":"مَن","qpc_uthmani_hafs":"مَن","char_type_name":"word","page_number":580,"line_number":6,"text":"مَن","translation":{"text":"whom","language_name":"english","language_id":38},"transliteration":{"text":"man","language_name":"english","language_id":38}},{"id":33279,"position":3,"audio_url":"wbw/076_031_003.mp3","verse_key":"76:31","verse_id":5622,"location":"76:31:3","text_uthmani":"يَشَآءُ","qpc_uthmani_hafs":"يَشَآءُ","char_type_name":"word","page_number":580,"line_number":6,"text":"يَشَآءُ","translation":{"text":"He wills","language_name":"english","language_id":38},"transliteration":{"text":"yashāu","language_name":"english","language_id":38}},{"id":33280,"position":4,"audio_url":"wbw/076_031_004.mp3","verse_key":"76:31","verse_id":5622,"location":"76:31:4","text_uthmani":"فِى","qpc_uthmani_hafs":"فِي","char_type_name":"word","page_number":580,"line_number":6,"text":"فِي","translation":{"text":"into","language_name":"english","language_id":38},"transliteration":{"text":"fī","language_name":"english","language_id":38}},{"id":33281,"position":5,"audio_url":"wbw/076_031_005.mp3","verse_key":"76:31","verse_id":5622,"location":"76:31:5","text_uthmani":"رَحْمَتِهِۦ ۚ","qpc_uthmani_hafs":"رَحۡمَتِهِۦۚ","char_type_name":"word","page_number":580,"line_number":6,"text":"رَحۡمَتِهِۦۚ","translation":{"text":"His mercy","language_name":"english","language_id":38},"transliteration":{"text":"raḥmatihi","language_name":"english","language_id":38}},{"id":33283,"position":6,"audio_url":"wbw/076_031_007.mp3","verse_key":"76:31","verse_id":5622,"location":"76:31:6","text_uthmani":"وَٱلظَّـٰلِمِينَ","qpc_uthmani_hafs":"وَٱلظَّٰلِمِينَ","char_type_name":"word","page_number":580,"line_number":6,"text":"وَٱلظَّٰلِمِينَ","translation":{"text":"but (for) the wrongdoers","language_name":"english","language_id":38},"transliteration":{"text":"wal-ẓālimīna","language_name":"english","language_id":38}},{"id":33284,"position":7,"audio_url":"wbw/076_031_008.mp3","verse_key":"76:31","verse_id":5622,"location":"76:31:7","text_uthmani":"أَعَدَّ","qpc_uthmani_hafs":"أَعَدَّ","char_type_name":"word","page_number":580,"line_number":6,"text":"أَعَدَّ","translation":{"text":"He has prepared","language_name":"english","language_id":38},"transliteration":{"text":"aʿadda","language_name":"english","language_id":38}},{"id":33285,"position":8,"audio_url":"wbw/076_031_009.mp3","verse_key":"76:31","verse_id":5622,"location":"76:31:8","text_uthmani":"لَهُمْ","qpc_uthmani_hafs":"لَهُمۡ","char_type_name":"word","page_number":580,"line_number":6,"text":"لَهُمۡ","translation":{"text":"for them","language_name":"english","language_id":38},"transliteration":{"text":"lahum","language_name":"english","language_id":38}},{"id":33286,"position":9,"audio_url":"wbw/076_031_010.mp3","verse_key":"76:31","verse_id":5622,"location":"76:31:9","text_uthmani":"عَذَابًا","qpc_uthmani_hafs":"عَذَابًا","char_type_name":"word","page_number":580,"line_number":6,"text":"عَذَابًا","translation":{"text":"a punishment","language_name":"english","language_id":38},"transliteration":{"text":"ʿadhāban","language_name":"english","language_id":38}},{"id":33287,"position":10,"audio_url":"wbw/076_031_011.mp3","verse_key":"76:31","verse_id":5622,"location":"76:31:10","text_uthmani":"أَلِيمًۢا","qpc_uthmani_hafs":"أَلِيمَۢا","char_type_name":"word","page_number":580,"line_number":6,"text":"أَلِيمَۢا","translation":{"text":"painful","language_name":"english","language_id":38},"transliteration":{"text":"alīman","language_name":"english","language_id":38}},{"id":33288,"position":11,"audio_url":null,"verse_key":"76:31","verse_id":5622,"location":"76:31:11","text_uthmani":"٣١","qpc_uthmani_hafs":"٣١","char_type_name":"end","page_number":580,"line_number":6,"text":"٣١","translation":{"text":"(31)","language_name":"english","language_id":38},"transliteration":{"text":null,"language_name":"english","language_id":38}}]}],"pagination":{"per_page":10,"current_page":4,"next_page":null,"total_pages":4,"total_records":31}}
