{"verses":[{"id":5161,"verse_number":11,"verse_key":"60:11","hizb_number":55,"rub_el_hizb_number":220,"ruku_number":485,"manzil_number":7,"sajdah_number":null,"page_number":550,"juz_number":28,"words":[{"id":12633,"position":1,"audio_url":"wbw/060_011_001.mp3","char_type_name":"word","page_number":550,"line_number":13,"text":"وَإِن","translation":{"text":"এবং যদি","language_name":"bengali","language_id":20},"transliteration":{"text":"wa-in","language_name":"english","language_id":38}},{"id":12634,"position":2,"audio_url":"wbw/060_011_002.mp3","char_type_name":"word","page_number":550,"line_number":13,"text":"فَاتَكُمْ","translation":{"text":"তোমাদের হাত ছাড়া হয়","language_name":"bengali","language_id":20},"transliteration":{"text":"fātakum","language_name":"english","language_id":38}},{"id":12635,"position":3,"audio_url":"wbw/060_011_003.mp3","char_type_name":"word","page_number":550,"line_number":14,"text":"شَىْءٌۭ","translation":{"text":"কিছুু","language_name":"bengali","language_id":20},"transliteration":{"text":"shayon","language_name":"english","language_id":38}},{"id":12636,"position":4,"audio_url":"wbw/060_011_004.mp3","char_type_name":"word","page_number":550,"line_number":14,"text":"مِّنْ","translation":{"text":"থেকে","language_name":"bengali","language_id":20},"transliteration":{"text":"min","language_name":"english","language_id":38}},{"id":12637,"position":5,"audio_url":"wbw/060_011_005.mp3","char_type_name":"word","page_number":550,"line_number":14,"text":"أَزْوَٰجِكُمْ","translation":{"text":"তোমাদের স্ত্রীদের","language_name":"bengali","language_id":20},"transliteration":{"text":"azwājikum","language_name":"english","language_id":38}},{"id":12638,"position":6,"audio_url":"wbw/060_011_006.mp3","char_type_name":"word","page_number":550,"line_number":14,"text":"إِلَى","translation":{"text":"নিকট","language_name":"bengali","language_id":20},"transliteration":{"text":"ilā","language_name":"english","language_id":38}},{"id":12639,"position":7,"audio_url":"wbw/060_011_007.mp3","char_type_name":"word","page_number":550,"line_number":14,"text":"ٱلْكُفَّارِ","translation":{"text":"কাফিরদের","language_name":"bengali","language_id":20},"transliteration":{"text":"l-kufāri","language_name":"english","language_id":38}},{"id":12640,"position":8,"audio_url":"wbw/060_011_008.mp3","char_type_name":"word","page_number":550,"line_number":14,"text":"فَعَاقَبْتُمْ","translation":{"text":"তোমরা অতঃপর সুযোগ পাও","language_name":"bengali","language_id":20},"transliteration":{"text":"faʿāqabtum","language_name":"english","language_id":38}},{"id":12641,"position":9,"audio_url":"wbw/060_011_009.mp3","char_type_name":"word","page_number":550,"line_number":14,"text":"فَـَٔاتُوا۟","translation":{"text":"তবে তোমরা দাও","language_name":"bengali","language_id":20},"transliteration":{"text":"faātū","language_name":"english","language_id":38}},{"id":12642,"position":10,"audio_url":"wbw/060_011_010.mp3","char_type_name":"word","page_number":550,"line_number":14,"text":"ٱلَّذِينَ","translation":{"text":"তাদের","language_name":"bengali","language_id":20},"transliteration":{"text":"alladhīna","language_name":"english","language_id":38}},{"id":12643,"position":11,"audio_url":"wbw/060_011_011.mp3","char_type_name":"word","page_number":550,"line_number":14,"text":"ذَهَبَتْ","translation":{"text":"চলে গেছে","language_name":"bengali","language_id":20},"transliteration":{"text":"dhahabat","language_name":"english","language_id":38}},{"id":12644,"position":12,"audio_url":"wbw/060_011_012.mp3","char_type_name":"word","page_number":550,"line_number":15,"text":"أَزْوَٰجُهُم","translation":{"text":"যাদেের স্ত্রী","language_name":"bengali","language_id":20},"transliteration":{"text":"azwājuhum","language_name":"english","language_id":38}},{"id":12645,"position":13,"audio_url":"wbw/060_011_013.mp3","char_type_name":"word","page_number":550,"line_number":15,"text":"مِّثْلَ","translation":{"text":"সমান","language_name":"bengali","language_id":20},"transliteration":{"text":"mith'la","language_name":"english","language_id":38}},{"id":12646,"position":14,"audio_url":"wbw/060_011_014.mp3","char_type_name":"word","page_number":550,"line_number":15,"text":"مَآ","translation":{"text":"যা","language_name":"bengali","language_id":20},"transliteration":{"text":"mā","language_name":"english","language_id":38}},{"id":12647,"position":15,"audio_url":"wbw/060_011_015.mp3","char_type_name":"word","page_number":550,"line_number":15,"text":"أَنفَقُوا۟ ۚ","translation":{"text":"তারা খরচ করেছে","language_name":"bengali","language_id":20},"transliteration":{"text":"anfaqū","language_name":"english","language_id":38}},{"id":12649,"position":16,"audio_url":"wbw/060_011_017.mp3","char_type_name":"word","page_number":550,"line_number":15,"text":"وَٱتَّقُوا۟","translation":{"text":"এবং তোমরা ভয় কর","language_name":"bengali","language_id":20},"transliteration":{"text":"wa-ittaqū","language_name":"english","language_id":38}},{"id":12650,"position":17,"audio_url":"wbw/060_011_018.mp3","char_type_name":"word","page_number":550,"line_number":15,"text":"ٱللَّهَ","translation":{"text":"আল্লাহকে","language_name":"bengali","language_id":20},"transliteration":{"text":"l-laha","language_name":"english","language_id":38}},{"id":12651,"position":18,"audio_url":"wbw/060_011_019.mp3","char_type_name":"word","page_number":550,"line_number":15,"text":"ٱلَّذِىٓ","translation":{"text":"যার","language_name":"bengali","language_id":20},"transliteration":{"text":"alladhī","language_name":"english","language_id":38}},{"id":12652,"position":19,"audio_url":"wbw/060_011_020.mp3","char_type_name":"word","page_number":550,"line_number":15,"text":"أَنتُم","translation":{"text":"তোমরা","language_name":"bengali","language_id":20},"transliteration":{"text":"antum","language_name":"english","language_id":38}},{"id":12653,"position":20,"audio_url":"wbw/060_011_021.mp3","char_type_name":"word","page_number":550,"line_number":15,"text":"بِهِۦ","translation":{"text":"তার উপর","language_name":"bengali","language_id":20},"transliteration":{"text":"bihi","language_name":"english","language_id":38}},{"id":12654,"position":21,"audio_url":"wbw/060_011_022.mp3","char_type_name":"word","page_number":550,"line_number":15,"text":"مُؤْمِنُونَ","translation":{"text":"ঈমানদার","language_name":"bengali","language_id":20},"transliteration":{"text":"mu'minūna","language_name":"english","language_id":38}},{"id":12655,"position":22,"audio_url":null,"char_type_name":"end","page_number":550,"line_number":15,"text":"١١","translation":{"text":"(১১)","language_name":"bengali","language_id":20},"transliteration":{"text":null,"language_name":"english","language_id":38}}]},{"id":5162,"verse_number":12,"verse_key":"60:12","hizb_number":55,"rub_el_hizb_number":220,"ruku_number":485,"manzil_number":7,"sajdah_number":null,"page_number":551,"juz_number":28,"words":[{"id":13949,"position":1,"audio_url":"wbw/060_012_001.mp3","char_type_name":"word","page_number":551,"line_number":1,"text":"يَـٰٓأَيُّهَا","translation":{"text":"হে","language_name":"bengali","language_id":20},"transliteration":{"text":"yāayyuhā","language_name":"english","language_id":38}},{"id":13950,"position":2,"audio_url":"wbw/060_012_002.mp3","char_type_name":"word","page_number":551,"line_number":1,"text":"ٱلنَّبِىُّ","translation":{"text":"নবী","language_name":"bengali","language_id":20},"transliteration":{"text":"l-nabiyu","language_name":"english","language_id":38}},{"id":13951,"position":3,"audio_url":"wbw/060_012_003.mp3","char_type_name":"word","page_number":551,"line_number":1,"text":"إِذَا","translation":{"text":"যখন","language_name":"bengali","language_id":20},"transliteration":{"text":"idhā","language_name":"english","language_id":38}},{"id":13952,"position":4,"audio_url":"wbw/060_012_004.mp3","char_type_name":"word","page_number":551,"line_number":1,"text":"جَآءَكَ","translation":{"text":"তোমার কাছে আসবে","language_name":"bengali","language_id":20},"transliteration":{"text":"jāaka","language_name":"english","language_id":38}},{"id":13953,"position":5,"audio_url":"wbw/060_012_005.mp3","char_type_name":"word","page_number":551,"line_number":1,"text":"ٱلْمُؤْمِنَـٰتُ","translation":{"text":"মুমিন নারীরা","language_name":"bengali","language_id":20},"transliteration":{"text":"l-mu'minātu","language_name":"english","language_id":38}},{"id":13954,"position":6,"audio_url":"wbw/060_012_006.mp3","char_type_name":"word","page_number":551,"line_number":1,"text":"يُبَايِعْنَكَ","translation":{"text":"তোমার কাছে বয়াত করবে","language_name":"bengali","language_id":20},"transliteration":{"text":"yubāyiʿ'naka","language_name":"english","language_id":38}},{"id":13955,"position":7,"audio_url":"wbw/060_012_007.mp3","char_type_name":"word","page_number":551,"line_number":1,"text":"عَلَىٰٓ","translation":{"text":"(এ কথার) উপর","language_name":"bengali","language_id":20},"transliteration":{"text":"ʿalā","language_name":"english","language_id":38}},{"id":13956,"position":8,"audio_url":"wbw/060_012_008.mp3","char_type_name":"word","page_number":551,"line_number":1,"text":"أَن","translation":{"text":"যে","language_name":"bengali","language_id":20},"transliteration":{"text":"an","language_name":"english","language_id":38}},{"id":13957,"position":9,"audio_url":"wbw/060_012_009.mp3","char_type_name":"word","page_number":551,"line_number":1,"text":"لَّا","translation":{"text":"না","language_name":"bengali","language_id":20},"transliteration":{"text":"lā","language_name":"english","language_id":38}},{"id":13958,"position":10,"audio_url":"wbw/060_012_010.mp3","char_type_name":"word","page_number":551,"line_number":1,"text":"يُشْرِكْنَ","translation":{"text":"তারা শিরক করবে","language_name":"bengali","language_id":20},"transliteration":{"text":"yush'rik'na","language_name":"english","language_id":38}},{"id":13959,"position":11,"audio_url":"wbw/060_012_011.mp3","char_type_name":"word","page_number":551,"line_number":1,"text":"بِٱللَّهِ","translation":{"text":"আল্লাহর সাথে","language_name":"bengali","language_id":20},"transliteration":{"text":"bil-lahi","language_name":"english","language_id":38}},{"id":13960,"position":12,"audio_url":"wbw/060_012_012.mp3","char_type_name":"word","page_number":551,"line_number":2,"text":"شَيْـًۭٔا","translation":{"text":"কোনকিছু","language_name":"bengali","language_id":20},"transliteration":{"text":"shayan","language_name":"english","language_id":38}},{"id":13961,"position":13,"audio_url":"wbw/060_012_013.mp3","char_type_name":"word","page_number":551,"line_number":2,"text":"وَلَا","translation":{"text":"এবং না","language_name":"bengali","language_id":20},"transliteration":{"text":"walā","language_name":"english","language_id":38}},{"id":13962,"position":14,"audio_url":"wbw/060_012_014.mp3","char_type_name":"word","page_number":551,"line_number":2,"text":"يَسْرِقْنَ","translation":{"text":"তারা চুরি করবে","language_name":"bengali","language_id":20},"transliteration":{"text":"yasriq'na","language_name":"english","language_id":38}},{"id":13963,"position":15,"audio_url":"wbw/060_012_015.mp3","char_type_name":"word","page_number":551,"line_number":2,"text":"وَلَا","translation":{"text":"আর না","language_name":"bengali","language_id":20},"transliteration":{"text":"walā","language_name":"english","language_id":38}},{"id":13964,"position":16,"audio_url":"wbw/060_012_016.mp3","char_type_name":"word","page_number":551,"line_number":2,"text":"يَزْنِينَ","translation":{"text":"তারা জিনা করবে না","language_name":"bengali","language_id":20},"transliteration":{"text":"yaznīna","language_name":"english","language_id":38}},{"id":13965,"position":17,"audio_url":"wbw/060_012_017.mp3","char_type_name":"word","page_number":551,"line_number":2,"text":"وَلَا","translation":{"text":"এবং না","language_name":"bengali","language_id":20},"transliteration":{"text":"walā","language_name":"english","language_id":38}},{"id":13966,"position":18,"audio_url":"wbw/060_012_018.mp3","char_type_name":"word","page_number":551,"line_number":2,"text":"يَقْتُلْنَ","translation":{"text":"তারা হত্যা করবে","language_name":"bengali","language_id":20},"transliteration":{"text":"yaqtul'na","language_name":"english","language_id":38}},{"id":13967,"position":19,"audio_url":"wbw/060_012_019.mp3","char_type_name":"word","page_number":551,"line_number":2,"text":"أَوْلَـٰدَهُنَّ","translation":{"text":"তাআদের সন্তানদের","language_name":"bengali","language_id":20},"transliteration":{"text":"awlādahunna","language_name":"english","language_id":38}},{"id":13968,"position":20,"audio_url":"wbw/060_012_020.mp3","char_type_name":"word","page_number":551,"line_number":2,"text":"وَلَا","translation":{"text":"ও না","language_name":"bengali","language_id":20},"transliteration":{"text":"walā","language_name":"english","language_id":38}},{"id":13969,"position":21,"audio_url":"wbw/060_012_021.mp3","char_type_name":"word","page_number":551,"line_number":2,"text":"يَأْتِينَ","translation":{"text":"তারা আনবে","language_name":"bengali","language_id":20},"transliteration":{"text":"yatīna","language_name":"english","language_id":38}},{"id":13970,"position":22,"audio_url":"wbw/060_012_022.mp3","char_type_name":"word","page_number":551,"line_number":3,"text":"بِبُهْتَـٰنٍۢ","translation":{"text":"অপমান","language_name":"bengali","language_id":20},"transliteration":{"text":"bibuh'tānin","language_name":"english","language_id":38}},{"id":13971,"position":23,"audio_url":"wbw/060_012_023.mp3","char_type_name":"word","page_number":551,"line_number":3,"text":"يَفْتَرِينَهُۥ","translation":{"text":"তা তারা রচনা করে","language_name":"bengali","language_id":20},"transliteration":{"text":"yaftarīnahu","language_name":"english","language_id":38}},{"id":13972,"position":24,"audio_url":"wbw/060_012_024.mp3","char_type_name":"word","page_number":551,"line_number":3,"text":"بَيْنَ","translation":{"text":"মাঝে","language_name":"bengali","language_id":20},"transliteration":{"text":"bayna","language_name":"english","language_id":38}},{"id":13973,"position":25,"audio_url":"wbw/060_012_025.mp3","char_type_name":"word","page_number":551,"line_number":3,"text":"أَيْدِيهِنَّ","translation":{"text":"তাদের হাতগুলো","language_name":"bengali","language_id":20},"transliteration":{"text":"aydīhinna","language_name":"english","language_id":38}},{"id":13974,"position":26,"audio_url":"wbw/060_012_026.mp3","char_type_name":"word","page_number":551,"line_number":3,"text":"وَأَرْجُلِهِنَّ","translation":{"text":"ও তাদের পাগুলো","language_name":"bengali","language_id":20},"transliteration":{"text":"wa-arjulihinna","language_name":"english","language_id":38}},{"id":13975,"position":27,"audio_url":"wbw/060_012_027.mp3","char_type_name":"word","page_number":551,"line_number":3,"text":"وَلَا","translation":{"text":"এবং না","language_name":"bengali","language_id":20},"transliteration":{"text":"walā","language_name":"english","language_id":38}},{"id":13976,"position":28,"audio_url":"wbw/060_012_028.mp3","char_type_name":"word","page_number":551,"line_number":3,"text":"يَعْصِينَكَ","translation":{"text":"তোমরা তারা অবাধ্য হবে","language_name":"bengali","language_id":20},"transliteration":{"text":"yaʿṣīnaka","language_name":"english","language_id":38}},{"id":13977,"position":29,"audio_url":"wbw/060_012_029.mp3","char_type_name":"word","page_number":551,"line_number":3,"text":"فِى","translation":{"text":"ক্ষেত্রে","language_name":"bengali","language_id":20},"transliteration":{"text":"fī","language_name":"english","language_id":38}},{"id":13978,"position":30,"audio_url":"wbw/060_012_030.mp3","char_type_name":"word","page_number":551,"line_number":4,"text":"مَعْرُوفٍۢ ۙ","translation":{"text":"সৎকাজের","language_name":"bengali","language_id":20},"transliteration":{"text":"maʿrūfin","language_name":"english","language_id":38}},{"id":13980,"position":31,"audio_url":"wbw/060_012_032.mp3","char_type_name":"word","page_number":551,"line_number":4,"text":"فَبَايِعْهُنَّ","translation":{"text":"তাদের বয়াত নাও তবে","language_name":"bengali","language_id":20},"transliteration":{"text":"fabāyiʿ'hunna","language_name":"english","language_id":38}},{"id":13981,"position":32,"audio_url":"wbw/060_012_033.mp3","char_type_name":"word","page_number":551,"line_number":4,"text":"وَٱسْتَغْفِرْ","translation":{"text":"ও ক্ষমা চাও","language_name":"bengali","language_id":20},"transliteration":{"text":"wa-is'taghfir","language_name":"english","language_id":38}},{"id":13982,"position":33,"audio_url":"wbw/060_012_034.mp3","char_type_name":"word","page_number":551,"line_number":4,"text":"لَهُنَّ","translation":{"text":"তাদের জন্য (কাফিরদের)","language_name":"bengali","language_id":20},"transliteration":{"text":"lahunna","language_name":"english","language_id":38}},{"id":13983,"position":34,"audio_url":"wbw/060_012_035.mp3","char_type_name":"word","page_number":551,"line_number":4,"text":"ٱللَّهَ ۖ","translation":{"text":"আল্লাহর (কাছে)","language_name":"bengali","language_id":20},"transliteration":{"text":"l-laha","language_name":"english","language_id":38}},{"id":13985,"position":35,"audio_url":"wbw/060_012_037.mp3","char_type_name":"word","page_number":551,"line_number":4,"text":"إِنَّ","translation":{"text":"নিশ্চই","language_name":"bengali","language_id":20},"transliteration":{"text":"inna","language_name":"english","language_id":38}},{"id":13986,"position":36,"audio_url":"wbw/060_012_038.mp3","char_type_name":"word","page_number":551,"line_number":4,"text":"ٱللَّهَ","translation":{"text":"আল্লাহ","language_name":"bengali","language_id":20},"transliteration":{"text":"l-laha","language_name":"english","language_id":38}},{"id":13987,"position":37,"audio_url":"wbw/060_012_039.mp3","char_type_name":"word","page_number":551,"line_number":4,"text":"غَفُورٌۭ","translation":{"text":"ক্ষমাশীল","language_name":"bengali","language_id":20},"transliteration":{"text":"ghafūrun","language_name":"english","language_id":38}},{"id":13988,"position":38,"audio_url":"wbw/060_012_040.mp3","char_type_name":"word","page_number":551,"line_number":4,"text":"رَّحِيمٌۭ","translation":{"text":"মেহেরবান","language_name":"bengali","language_id":20},"transliteration":{"text":"raḥīmun","language_name":"english","language_id":38}},{"id":13989,"position":39,"audio_url":null,"char_type_name":"end","page_number":551,"line_number":5,"text":"١٢","translation":{"text":"(১২)","language_name":"bengali","language_id":20},"transliteration":{"text":null,"language_name":"english","language_id":38}}]},{"id":5163,"verse_number":13,"verse_key":"60:13","hizb_number":55,"rub_el_hizb_number":220,"ruku_number":485,"manzil_number":7,"sajdah_number":null,"page_number":551,"juz_number":28,"words":[{"id":15093,"position":1,"audio_url":"wbw/060_013_001.mp3","char_type_name":"word","page_number":551,"line_number":5,"text":"يَـٰٓأَيُّهَا","translation":{"text":"ওহে","language_name":"bengali","language_id":20},"transliteration":{"text":"yāayyuhā","language_name":"english","language_id":38}},{"id":15094,"position":2,"audio_url":"wbw/060_013_002.mp3","char_type_name":"word","page_number":551,"line_number":5,"text":"ٱلَّذِينَ","translation":{"text":"যারা","language_name":"bengali","language_id":20},"transliteration":{"text":"alladhīna","language_name":"english","language_id":38}},{"id":15095,"position":3,"audio_url":"wbw/060_013_003.mp3","char_type_name":"word","page_number":551,"line_number":5,"text":"ءَامَنُوا۟","translation":{"text":"ঈমান এনেছ","language_name":"bengali","language_id":20},"transliteration":{"text":"āmanū","language_name":"english","language_id":38}},{"id":15096,"position":4,"audio_url":"wbw/060_013_004.mp3","char_type_name":"word","page_number":551,"line_number":5,"text":"لَا","translation":{"text":"না","language_name":"bengali","language_id":20},"transliteration":{"text":"lā","language_name":"english","language_id":38}},{"id":15097,"position":5,"audio_url":"wbw/060_013_005.mp3","char_type_name":"word","page_number":551,"line_number":5,"text":"تَتَوَلَّوْا۟","translation":{"text":"তোমতা বন্ধুত্ব করো","language_name":"bengali","language_id":20},"transliteration":{"text":"tatawallaw","language_name":"english","language_id":38}},{"id":15098,"position":6,"audio_url":"wbw/060_013_006.mp3","char_type_name":"word","page_number":551,"line_number":5,"text":"قَوْمًا","translation":{"text":"লোকদের (সংগে)","language_name":"bengali","language_id":20},"transliteration":{"text":"qawman","language_name":"english","language_id":38}},{"id":15099,"position":7,"audio_url":"wbw/060_013_007.mp3","char_type_name":"word","page_number":551,"line_number":5,"text":"غَضِبَ","translation":{"text":"গযব দিয়েছেন","language_name":"bengali","language_id":20},"transliteration":{"text":"ghaḍiba","language_name":"english","language_id":38}},{"id":15100,"position":8,"audio_url":"wbw/060_013_008.mp3","char_type_name":"word","page_number":551,"line_number":5,"text":"ٱللَّهُ","translation":{"text":"আল্লাহ","language_name":"bengali","language_id":20},"transliteration":{"text":"l-lahu","language_name":"english","language_id":38}},{"id":15101,"position":9,"audio_url":"wbw/060_013_009.mp3","char_type_name":"word","page_number":551,"line_number":5,"text":"عَلَيْهِمْ","translation":{"text":"যাদের উপর","language_name":"bengali","language_id":20},"transliteration":{"text":"ʿalayhim","language_name":"english","language_id":38}},{"id":15102,"position":10,"audio_url":"wbw/060_013_010.mp3","char_type_name":"word","page_number":551,"line_number":5,"text":"قَدْ","translation":{"text":"নিশ্চই","language_name":"bengali","language_id":20},"transliteration":{"text":"qad","language_name":"english","language_id":38}},{"id":15103,"position":11,"audio_url":"wbw/060_013_011.mp3","char_type_name":"word","page_number":551,"line_number":6,"text":"يَئِسُوا۟","translation":{"text":"তারা নিরাশ হয়েছে","language_name":"bengali","language_id":20},"transliteration":{"text":"ya-isū","language_name":"english","language_id":38}},{"id":15104,"position":12,"audio_url":"wbw/060_013_012.mp3","char_type_name":"word","page_number":551,"line_number":6,"text":"مِنَ","translation":{"text":"থেকে","language_name":"bengali","language_id":20},"transliteration":{"text":"mina","language_name":"english","language_id":38}},{"id":15105,"position":13,"audio_url":"wbw/060_013_013.mp3","char_type_name":"word","page_number":551,"line_number":6,"text":"ٱلْـَٔاخِرَةِ","translation":{"text":"পরকাল","language_name":"bengali","language_id":20},"transliteration":{"text":"l-ākhirati","language_name":"english","language_id":38}},{"id":15106,"position":14,"audio_url":"wbw/060_013_014.mp3","char_type_name":"word","page_number":551,"line_number":6,"text":"كَمَا","translation":{"text":"যেমন","language_name":"bengali","language_id":20},"transliteration":{"text":"kamā","language_name":"english","language_id":38}},{"id":15107,"position":15,"audio_url":"wbw/060_013_015.mp3","char_type_name":"word","page_number":551,"line_number":6,"text":"يَئِسَ","translation":{"text":"নিরাশ হয়েছে","language_name":"bengali","language_id":20},"transliteration":{"text":"ya-isa","language_name":"english","language_id":38}},{"id":15108,"position":16,"audio_url":"wbw/060_013_016.mp3","char_type_name":"word","page_number":551,"line_number":6,"text":"ٱلْكُفَّارُ","translation":{"text":"কাফিররা","language_name":"bengali","language_id":20},"transliteration":{"text":"l-kufāru","language_name":"english","language_id":38}},{"id":15109,"position":17,"audio_url":"wbw/060_013_017.mp3","char_type_name":"word","page_number":551,"line_number":6,"text":"مِنْ","translation":{"text":"থেকে","language_name":"bengali","language_id":20},"transliteration":{"text":"min","language_name":"english","language_id":38}},{"id":15110,"position":18,"audio_url":"wbw/060_013_018.mp3","char_type_name":"word","page_number":551,"line_number":6,"text":"أَصْحَـٰبِ","translation":{"text":"অধিবাসীদের","language_name":"bengali","language_id":20},"transliteration":{"text":"aṣḥābi","language_name":"english","language_id":38}},{"id":15111,"position":19,"audio_url":"wbw/060_013_019.mp3","char_type_name":"word","page_number":551,"line_number":6,"text":"ٱلْقُبُورِ","translation":{"text":"কবরগু্লো","language_name":"bengali","language_id":20},"transliteration":{"text":"l-qubūri","language_name":"english","language_id":38}},{"id":15112,"position":20,"audio_url":null,"char_type_name":"end","page_number":551,"line_number":6,"text":"١٣","translation":{"text":"(১৩)","language_name":"bengali","language_id":20},"transliteration":{"text":null,"language_name":"english","language_id":38}}]}],"pagination":{"per_page":10,"current_page":2,"next_page":null,"total_pages":2,"total_records":13}}
