{"verses":[{"id":5070,"verse_number":91,"verse_key":"56:91","hizb_number":54,"rub_el_hizb_number":215,"ruku_number":473,"manzil_number":7,"sajdah_number":null,"page_number":537,"juz_number":27,"words":[{"id":68238,"position":1,"audio_url":"wbw/056_091_001.mp3","char_type_name":"word","page_number":537,"line_number":8,"text":"فَسَلَـٰمٌۭ","translation":{"text":"তবে (বলা হবে) সালাম","language_name":"bengali","language_id":20},"transliteration":{"text":"fasalāmun","language_name":"english","language_id":38}},{"id":68239,"position":2,"audio_url":"wbw/056_091_002.mp3","char_type_name":"word","page_number":537,"line_number":8,"text":"لَّكَ","translation":{"text":"তোমার জন্য","language_name":"bengali","language_id":20},"transliteration":{"text":"laka","language_name":"english","language_id":38}},{"id":68240,"position":3,"audio_url":"wbw/056_091_003.mp3","char_type_name":"word","page_number":537,"line_number":8,"text":"مِنْ","translation":{"text":"অন্তর্ভুক্ত","language_name":"bengali","language_id":20},"transliteration":{"text":"min","language_name":"english","language_id":38}},{"id":68241,"position":4,"audio_url":"wbw/056_091_004.mp3","char_type_name":"word","page_number":537,"line_number":8,"text":"أَصْحَـٰبِ","translation":{"text":"লোকদের","language_name":"bengali","language_id":20},"transliteration":{"text":"aṣḥābi","language_name":"english","language_id":38}},{"id":68242,"position":5,"audio_url":"wbw/056_091_005.mp3","char_type_name":"word","page_number":537,"line_number":8,"text":"ٱلْيَمِينِ","translation":{"text":"ডান হাতের","language_name":"bengali","language_id":20},"transliteration":{"text":"l-yamīni","language_name":"english","language_id":38}},{"id":68243,"position":6,"audio_url":null,"char_type_name":"end","page_number":537,"line_number":8,"text":"٩١","translation":{"text":"(৯১)","language_name":"bengali","language_id":20},"transliteration":{"text":null,"language_name":"english","language_id":38}}]},{"id":5071,"verse_number":92,"verse_key":"56:92","hizb_number":54,"rub_el_hizb_number":215,"ruku_number":473,"manzil_number":7,"sajdah_number":null,"page_number":537,"juz_number":27,"words":[{"id":68708,"position":1,"audio_url":"wbw/056_092_001.mp3","char_type_name":"word","page_number":537,"line_number":8,"text":"وَأَمَّآ","translation":{"text":"আর","language_name":"bengali","language_id":20},"transliteration":{"text":"wa-ammā","language_name":"english","language_id":38}},{"id":68709,"position":2,"audio_url":"wbw/056_092_002.mp3","char_type_name":"word","page_number":537,"line_number":8,"text":"إِن","translation":{"text":"যদি","language_name":"bengali","language_id":20},"transliteration":{"text":"in","language_name":"english","language_id":38}},{"id":68710,"position":3,"audio_url":"wbw/056_092_003.mp3","char_type_name":"word","page_number":537,"line_number":8,"text":"كَانَ","translation":{"text":"সে হয়","language_name":"bengali","language_id":20},"transliteration":{"text":"kāna","language_name":"english","language_id":38}},{"id":68711,"position":4,"audio_url":"wbw/056_092_004.mp3","char_type_name":"word","page_number":537,"line_number":8,"text":"مِنَ","translation":{"text":"অন্তর্ভুক্ত","language_name":"bengali","language_id":20},"transliteration":{"text":"mina","language_name":"english","language_id":38}},{"id":68712,"position":5,"audio_url":"wbw/056_092_005.mp3","char_type_name":"word","page_number":537,"line_number":9,"text":"ٱلْمُكَذِّبِينَ","translation":{"text":"মিথ্যারোপকারীদের","language_name":"bengali","language_id":20},"transliteration":{"text":"l-mukadhibīna","language_name":"english","language_id":38}},{"id":68713,"position":6,"audio_url":"wbw/056_092_006.mp3","char_type_name":"word","page_number":537,"line_number":9,"text":"ٱلضَّآلِّينَ","translation":{"text":"পথভ্রষ্টদের","language_name":"bengali","language_id":20},"transliteration":{"text":"l-ḍālīna","language_name":"english","language_id":38}},{"id":68714,"position":7,"audio_url":null,"char_type_name":"end","page_number":537,"line_number":9,"text":"٩٢","translation":{"text":"(৯২)","language_name":"bengali","language_id":20},"transliteration":{"text":null,"language_name":"english","language_id":38}}]},{"id":5072,"verse_number":93,"verse_key":"56:93","hizb_number":54,"rub_el_hizb_number":215,"ruku_number":473,"manzil_number":7,"sajdah_number":null,"page_number":537,"juz_number":27,"words":[{"id":69111,"position":1,"audio_url":"wbw/056_093_001.mp3","char_type_name":"word","page_number":537,"line_number":9,"text":"فَنُزُلٌۭ","translation":{"text":"আপ্যায়ন তবে (হবে)","language_name":"bengali","language_id":20},"transliteration":{"text":"fanuzulun","language_name":"english","language_id":38}},{"id":69112,"position":2,"audio_url":"wbw/056_093_002.mp3","char_type_name":"word","page_number":537,"line_number":9,"text":"مِّنْ","translation":{"text":"দিয়ে","language_name":"bengali","language_id":20},"transliteration":{"text":"min","language_name":"english","language_id":38}},{"id":69113,"position":3,"audio_url":"wbw/056_093_003.mp3","char_type_name":"word","page_number":537,"line_number":9,"text":"حَمِيمٍۢ","translation":{"text":"ফুটন্ত পানির","language_name":"bengali","language_id":20},"transliteration":{"text":"ḥamīmin","language_name":"english","language_id":38}},{"id":69114,"position":4,"audio_url":null,"char_type_name":"end","page_number":537,"line_number":9,"text":"٩٣","translation":{"text":"(৯৩)","language_name":"bengali","language_id":20},"transliteration":{"text":null,"language_name":"english","language_id":38}}]},{"id":5073,"verse_number":94,"verse_key":"56:94","hizb_number":54,"rub_el_hizb_number":215,"ruku_number":473,"manzil_number":7,"sajdah_number":null,"page_number":537,"juz_number":27,"words":[{"id":69391,"position":1,"audio_url":"wbw/056_094_001.mp3","char_type_name":"word","page_number":537,"line_number":9,"text":"وَتَصْلِيَةُ","translation":{"text":"ও দগ্ধকরণ","language_name":"bengali","language_id":20},"transliteration":{"text":"wataṣliyatu","language_name":"english","language_id":38}},{"id":69392,"position":2,"audio_url":"wbw/056_094_002.mp3","char_type_name":"word","page_number":537,"line_number":9,"text":"جَحِيمٍ","translation":{"text":"জাহান্নামের","language_name":"bengali","language_id":20},"transliteration":{"text":"jaḥīmin","language_name":"english","language_id":38}},{"id":69393,"position":3,"audio_url":null,"char_type_name":"end","page_number":537,"line_number":10,"text":"٩٤","translation":{"text":"(৯৪)","language_name":"bengali","language_id":20},"transliteration":{"text":null,"language_name":"english","language_id":38}}]},{"id":5074,"verse_number":95,"verse_key":"56:95","hizb_number":54,"rub_el_hizb_number":215,"ruku_number":473,"manzil_number":7,"sajdah_number":null,"page_number":537,"juz_number":27,"words":[{"id":69740,"position":1,"audio_url":"wbw/056_095_001.mp3","char_type_name":"word","page_number":537,"line_number":10,"text":"إِنَّ","translation":{"text":"নিশ্চয়ই","language_name":"bengali","language_id":20},"transliteration":{"text":"inna","language_name":"english","language_id":38}},{"id":69741,"position":2,"audio_url":"wbw/056_095_002.mp3","char_type_name":"word","page_number":537,"line_number":10,"text":"هَـٰذَا","translation":{"text":"এটা","language_name":"bengali","language_id":20},"transliteration":{"text":"hādhā","language_name":"english","language_id":38}},{"id":69742,"position":3,"audio_url":"wbw/056_095_003.mp3","char_type_name":"word","page_number":537,"line_number":10,"text":"لَهُوَ","translation":{"text":"তা অবশ্যই","language_name":"bengali","language_id":20},"transliteration":{"text":"lahuwa","language_name":"english","language_id":38}},{"id":69743,"position":4,"audio_url":"wbw/056_095_004.mp3","char_type_name":"word","page_number":537,"line_number":10,"text":"حَقُّ","translation":{"text":"সত্য","language_name":"bengali","language_id":20},"transliteration":{"text":"ḥaqqu","language_name":"english","language_id":38}},{"id":69744,"position":5,"audio_url":"wbw/056_095_005.mp3","char_type_name":"word","page_number":537,"line_number":10,"text":"ٱلْيَقِينِ","translation":{"text":"ধ্রুব","language_name":"bengali","language_id":20},"transliteration":{"text":"l-yaqīni","language_name":"english","language_id":38}},{"id":69745,"position":6,"audio_url":null,"char_type_name":"end","page_number":537,"line_number":10,"text":"٩٥","translation":{"text":"(৯৫)","language_name":"bengali","language_id":20},"transliteration":{"text":null,"language_name":"english","language_id":38}}]},{"id":5075,"verse_number":96,"verse_key":"56:96","hizb_number":54,"rub_el_hizb_number":215,"ruku_number":473,"manzil_number":7,"sajdah_number":null,"page_number":537,"juz_number":27,"words":[{"id":70238,"position":1,"audio_url":"wbw/056_096_001.mp3","char_type_name":"word","page_number":537,"line_number":10,"text":"فَسَبِّحْ","translation":{"text":"সুতরাং পবিত্রতা ঘোষণা করো","language_name":"bengali","language_id":20},"transliteration":{"text":"fasabbiḥ","language_name":"english","language_id":38}},{"id":70239,"position":2,"audio_url":"wbw/056_096_002.mp3","char_type_name":"word","page_number":537,"line_number":10,"text":"بِٱسْمِ","translation":{"text":"নামের","language_name":"bengali","language_id":20},"transliteration":{"text":"bi-is'mi","language_name":"english","language_id":38}},{"id":70240,"position":3,"audio_url":"wbw/056_096_003.mp3","char_type_name":"word","page_number":537,"line_number":10,"text":"رَبِّكَ","translation":{"text":"তোমার রবের","language_name":"bengali","language_id":20},"transliteration":{"text":"rabbika","language_name":"english","language_id":38}},{"id":70241,"position":4,"audio_url":"wbw/056_096_004.mp3","char_type_name":"word","page_number":537,"line_number":10,"text":"ٱلْعَظِيمِ","translation":{"text":"(যিনি) মহান","language_name":"bengali","language_id":20},"transliteration":{"text":"l-ʿaẓīmi","language_name":"english","language_id":38}},{"id":70242,"position":5,"audio_url":null,"char_type_name":"end","page_number":537,"line_number":10,"text":"٩٦","translation":{"text":"(৯৬)","language_name":"bengali","language_id":20},"transliteration":{"text":null,"language_name":"english","language_id":38}}]}],"pagination":{"per_page":10,"current_page":10,"next_page":null,"total_pages":10,"total_records":96}}
