{"verses":[{"id":5020,"verse_number":41,"verse_key":"56:41","hizb_number":54,"rub_el_hizb_number":214,"ruku_number":472,"manzil_number":7,"sajdah_number":null,"page_number":535,"juz_number":27,"words":[{"id":42573,"position":1,"audio_url":"wbw/056_041_001.mp3","verse_key":"56:41","verse_id":5020,"location":"56:41:1","text_uthmani":"وَأَصْحَـٰبُ","qpc_uthmani_hafs":"وَأَصۡحَٰبُ","char_type_name":"word","page_number":535,"line_number":10,"text":"وَأَصۡحَٰبُ","translation":{"text":"এবং লোকদের","language_name":"bengali","language_id":20},"transliteration":{"text":"wa-aṣḥābu","language_name":"english","language_id":38}},{"id":42574,"position":2,"audio_url":"wbw/056_041_002.mp3","verse_key":"56:41","verse_id":5020,"location":"56:41:2","text_uthmani":"ٱلشِّمَالِ","qpc_uthmani_hafs":"ٱلشِّمَالِ","char_type_name":"word","page_number":535,"line_number":10,"text":"ٱلشِّمَالِ","translation":{"text":"বামহাতের","language_name":"bengali","language_id":20},"transliteration":{"text":"l-shimāli","language_name":"english","language_id":38}},{"id":42575,"position":3,"audio_url":"wbw/056_041_003.mp3","verse_key":"56:41","verse_id":5020,"location":"56:41:3","text_uthmani":"مَآ","qpc_uthmani_hafs":"مَآ","char_type_name":"word","page_number":535,"line_number":10,"text":"مَآ","translation":{"text":"কি (দুর্ভাগ্য)","language_name":"bengali","language_id":20},"transliteration":{"text":"mā","language_name":"english","language_id":38}},{"id":42576,"position":4,"audio_url":"wbw/056_041_004.mp3","verse_key":"56:41","verse_id":5020,"location":"56:41:4","text_uthmani":"أَصْحَـٰبُ","qpc_uthmani_hafs":"أَصۡحَٰبُ","char_type_name":"word","page_number":535,"line_number":10,"text":"أَصۡحَٰبُ","translation":{"text":"লোকদের","language_name":"bengali","language_id":20},"transliteration":{"text":"aṣḥābu","language_name":"english","language_id":38}},{"id":42577,"position":5,"audio_url":"wbw/056_041_005.mp3","verse_key":"56:41","verse_id":5020,"location":"56:41:5","text_uthmani":"ٱلشِّمَالِ","qpc_uthmani_hafs":"ٱلشِّمَالِ","char_type_name":"word","page_number":535,"line_number":10,"text":"ٱلشِّمَالِ","translation":{"text":"বামহাতের","language_name":"bengali","language_id":20},"transliteration":{"text":"l-shimāli","language_name":"english","language_id":38}},{"id":42578,"position":6,"audio_url":null,"verse_key":"56:41","verse_id":5020,"location":"56:41:6","text_uthmani":"٤١","qpc_uthmani_hafs":"٤١","char_type_name":"end","page_number":535,"line_number":11,"text":"٤١","translation":{"text":"(৪১)","language_name":"bengali","language_id":20},"transliteration":{"text":null,"language_name":"english","language_id":38}}]},{"id":5021,"verse_number":42,"verse_key":"56:42","hizb_number":54,"rub_el_hizb_number":214,"ruku_number":472,"manzil_number":7,"sajdah_number":null,"page_number":535,"juz_number":27,"words":[{"id":42782,"position":1,"audio_url":"wbw/056_042_001.mp3","verse_key":"56:42","verse_id":5021,"location":"56:42:1","text_uthmani":"فِى","qpc_uthmani_hafs":"فِي","char_type_name":"word","page_number":535,"line_number":11,"text":"فِي","translation":{"text":"মধ্য (থাকবে)","language_name":"bengali","language_id":20},"transliteration":{"text":"fī","language_name":"english","language_id":38}},{"id":42783,"position":2,"audio_url":"wbw/056_042_002.mp3","verse_key":"56:42","verse_id":5021,"location":"56:42:2","text_uthmani":"سَمُومٍۢ","qpc_uthmani_hafs":"سَمُومٖ","char_type_name":"word","page_number":535,"line_number":11,"text":"سَمُومٖ","translation":{"text":"উষ্ণবাতাস","language_name":"bengali","language_id":20},"transliteration":{"text":"samūmin","language_name":"english","language_id":38}},{"id":42784,"position":3,"audio_url":"wbw/056_042_003.mp3","verse_key":"56:42","verse_id":5021,"location":"56:42:3","text_uthmani":"وَحَمِيمٍۢ","qpc_uthmani_hafs":"وَحَمِيمٖ","char_type_name":"word","page_number":535,"line_number":11,"text":"وَحَمِيمٖ","translation":{"text":"ও ফুটন্ত পানির","language_name":"bengali","language_id":20},"transliteration":{"text":"waḥamīmin","language_name":"english","language_id":38}},{"id":42785,"position":4,"audio_url":null,"verse_key":"56:42","verse_id":5021,"location":"56:42:4","text_uthmani":"٤٢","qpc_uthmani_hafs":"٤٢","char_type_name":"end","page_number":535,"line_number":11,"text":"٤٢","translation":{"text":"(৪২)","language_name":"bengali","language_id":20},"transliteration":{"text":null,"language_name":"english","language_id":38}}]},{"id":5022,"verse_number":43,"verse_key":"56:43","hizb_number":54,"rub_el_hizb_number":214,"ruku_number":472,"manzil_number":7,"sajdah_number":null,"page_number":535,"juz_number":27,"words":[{"id":43688,"position":1,"audio_url":"wbw/056_043_001.mp3","verse_key":"56:43","verse_id":5022,"location":"56:43:1","text_uthmani":"وَظِلٍّۢ","qpc_uthmani_hafs":"وَظِلّٖ","char_type_name":"word","page_number":535,"line_number":11,"text":"وَظِلّٖ","translation":{"text":"এবং ছায়ায়","language_name":"bengali","language_id":20},"transliteration":{"text":"waẓillin","language_name":"english","language_id":38}},{"id":43689,"position":2,"audio_url":"wbw/056_043_002.mp3","verse_key":"56:43","verse_id":5022,"location":"56:43:2","text_uthmani":"مِّن","qpc_uthmani_hafs":"مِّن","char_type_name":"word","page_number":535,"line_number":11,"text":"مِّن","translation":{"text":"থেকে (সৃষ্টি)","language_name":"bengali","language_id":20},"transliteration":{"text":"min","language_name":"english","language_id":38}},{"id":43690,"position":3,"audio_url":"wbw/056_043_003.mp3","verse_key":"56:43","verse_id":5022,"location":"56:43:3","text_uthmani":"يَحْمُومٍۢ","qpc_uthmani_hafs":"يَحۡمُومٖ","char_type_name":"word","page_number":535,"line_number":11,"text":"يَحۡمُومٖ","translation":{"text":"কালো ধোঁয়ার","language_name":"bengali","language_id":20},"transliteration":{"text":"yaḥmūmin","language_name":"english","language_id":38}},{"id":43691,"position":4,"audio_url":null,"verse_key":"56:43","verse_id":5022,"location":"56:43:4","text_uthmani":"٤٣","qpc_uthmani_hafs":"٤٣","char_type_name":"end","page_number":535,"line_number":11,"text":"٤٣","translation":{"text":"(৪৩)","language_name":"bengali","language_id":20},"transliteration":{"text":null,"language_name":"english","language_id":38}}]},{"id":5023,"verse_number":44,"verse_key":"56:44","hizb_number":54,"rub_el_hizb_number":214,"ruku_number":472,"manzil_number":7,"sajdah_number":null,"page_number":535,"juz_number":27,"words":[{"id":44575,"position":1,"audio_url":"wbw/056_044_001.mp3","verse_key":"56:44","verse_id":5023,"location":"56:44:1","text_uthmani":"لَّا","qpc_uthmani_hafs":"لَّا","char_type_name":"word","page_number":535,"line_number":11,"text":"لَّا","translation":{"text":"না","language_name":"bengali","language_id":20},"transliteration":{"text":"lā","language_name":"english","language_id":38}},{"id":44576,"position":2,"audio_url":"wbw/056_044_002.mp3","verse_key":"56:44","verse_id":5023,"location":"56:44:2","text_uthmani":"بَارِدٍۢ","qpc_uthmani_hafs":"بَارِدٖ","char_type_name":"word","page_number":535,"line_number":11,"text":"بَارِدٖ","translation":{"text":"ঠাণ্ডা (হবে)","language_name":"bengali","language_id":20},"transliteration":{"text":"bāridin","language_name":"english","language_id":38}},{"id":44577,"position":3,"audio_url":"wbw/056_044_003.mp3","verse_key":"56:44","verse_id":5023,"location":"56:44:3","text_uthmani":"وَلَا","qpc_uthmani_hafs":"وَلَا","char_type_name":"word","page_number":535,"line_number":12,"text":"وَلَا","translation":{"text":"আর না","language_name":"bengali","language_id":20},"transliteration":{"text":"walā","language_name":"english","language_id":38}},{"id":44578,"position":4,"audio_url":"wbw/056_044_004.mp3","verse_key":"56:44","verse_id":5023,"location":"56:44:4","text_uthmani":"كَرِيمٍ","qpc_uthmani_hafs":"كَرِيمٍ","char_type_name":"word","page_number":535,"line_number":12,"text":"كَرِيمٍ","translation":{"text":"আনন্দদায়ক","language_name":"bengali","language_id":20},"transliteration":{"text":"karīmin","language_name":"english","language_id":38}},{"id":44579,"position":5,"audio_url":null,"verse_key":"56:44","verse_id":5023,"location":"56:44:5","text_uthmani":"٤٤","qpc_uthmani_hafs":"٤٤","char_type_name":"end","page_number":535,"line_number":12,"text":"٤٤","translation":{"text":"(৪৪)","language_name":"bengali","language_id":20},"transliteration":{"text":null,"language_name":"english","language_id":38}}]},{"id":5024,"verse_number":45,"verse_key":"56:45","hizb_number":54,"rub_el_hizb_number":214,"ruku_number":472,"manzil_number":7,"sajdah_number":null,"page_number":535,"juz_number":27,"words":[{"id":45155,"position":1,"audio_url":"wbw/056_045_001.mp3","verse_key":"56:45","verse_id":5024,"location":"56:45:1","text_uthmani":"إِنَّهُمْ","qpc_uthmani_hafs":"إِنَّهُمۡ","char_type_name":"word","page_number":535,"line_number":12,"text":"إِنَّهُمۡ","translation":{"text":"তারা নিশ্চয়ই","language_name":"bengali","language_id":20},"transliteration":{"text":"innahum","language_name":"english","language_id":38}},{"id":45156,"position":2,"audio_url":"wbw/056_045_002.mp3","verse_key":"56:45","verse_id":5024,"location":"56:45:2","text_uthmani":"كَانُوا۟","qpc_uthmani_hafs":"كَانُواْ","char_type_name":"word","page_number":535,"line_number":12,"text":"كَانُواْ","translation":{"text":"ছিল","language_name":"bengali","language_id":20},"transliteration":{"text":"kānū","language_name":"english","language_id":38}},{"id":45157,"position":3,"audio_url":"wbw/056_045_003.mp3","verse_key":"56:45","verse_id":5024,"location":"56:45:3","text_uthmani":"قَبْلَ","qpc_uthmani_hafs":"قَبۡلَ","char_type_name":"word","page_number":535,"line_number":12,"text":"قَبۡلَ","translation":{"text":"পূর্বে","language_name":"bengali","language_id":20},"transliteration":{"text":"qabla","language_name":"english","language_id":38}},{"id":45158,"position":4,"audio_url":"wbw/056_045_004.mp3","verse_key":"56:45","verse_id":5024,"location":"56:45:4","text_uthmani":"ذَٰلِكَ","qpc_uthmani_hafs":"ذَٰلِكَ","char_type_name":"word","page_number":535,"line_number":12,"text":"ذَٰلِكَ","translation":{"text":"এর","language_name":"bengali","language_id":20},"transliteration":{"text":"dhālika","language_name":"english","language_id":38}},{"id":45159,"position":5,"audio_url":"wbw/056_045_005.mp3","verse_key":"56:45","verse_id":5024,"location":"56:45:5","text_uthmani":"مُتْرَفِينَ","qpc_uthmani_hafs":"مُتۡرَفِينَ","char_type_name":"word","page_number":535,"line_number":12,"text":"مُتۡرَفِينَ","translation":{"text":"বিলাসী জীবনের অধিকারী","language_name":"bengali","language_id":20},"transliteration":{"text":"mut'rafīna","language_name":"english","language_id":38}},{"id":45160,"position":6,"audio_url":null,"verse_key":"56:45","verse_id":5024,"location":"56:45:6","text_uthmani":"٤٥","qpc_uthmani_hafs":"٤٥","char_type_name":"end","page_number":535,"line_number":12,"text":"٤٥","translation":{"text":"(৪৫)","language_name":"bengali","language_id":20},"transliteration":{"text":null,"language_name":"english","language_id":38}}]},{"id":5025,"verse_number":46,"verse_key":"56:46","hizb_number":54,"rub_el_hizb_number":214,"ruku_number":472,"manzil_number":7,"sajdah_number":null,"page_number":535,"juz_number":27,"words":[{"id":45877,"position":1,"audio_url":"wbw/056_046_001.mp3","verse_key":"56:46","verse_id":5025,"location":"56:46:1","text_uthmani":"وَكَانُوا۟","qpc_uthmani_hafs":"وَكَانُواْ","char_type_name":"word","page_number":535,"line_number":12,"text":"وَكَانُواْ","translation":{"text":"এবং তারা ছিল","language_name":"bengali","language_id":20},"transliteration":{"text":"wakānū","language_name":"english","language_id":38}},{"id":45878,"position":2,"audio_url":"wbw/056_046_002.mp3","verse_key":"56:46","verse_id":5025,"location":"56:46:2","text_uthmani":"يُصِرُّونَ","qpc_uthmani_hafs":"يُصِرُّونَ","char_type_name":"word","page_number":535,"line_number":13,"text":"يُصِرُّونَ","translation":{"text":"তারা অবিরত লিপ্ত থাকে","language_name":"bengali","language_id":20},"transliteration":{"text":"yuṣirrūna","language_name":"english","language_id":38}},{"id":45879,"position":3,"audio_url":"wbw/056_046_003.mp3","verse_key":"56:46","verse_id":5025,"location":"56:46:3","text_uthmani":"عَلَى","qpc_uthmani_hafs":"عَلَى","char_type_name":"word","page_number":535,"line_number":13,"text":"عَلَى","translation":{"text":"উপর","language_name":"bengali","language_id":20},"transliteration":{"text":"ʿalā","language_name":"english","language_id":38}},{"id":45880,"position":4,"audio_url":"wbw/056_046_004.mp3","verse_key":"56:46","verse_id":5025,"location":"56:46:4","text_uthmani":"ٱلْحِنثِ","qpc_uthmani_hafs":"ٱلۡحِنثِ","char_type_name":"word","page_number":535,"line_number":13,"text":"ٱلۡحِنثِ","translation":{"text":"পাপের","language_name":"bengali","language_id":20},"transliteration":{"text":"l-ḥinthi","language_name":"english","language_id":38}},{"id":45881,"position":5,"audio_url":"wbw/056_046_005.mp3","verse_key":"56:46","verse_id":5025,"location":"56:46:5","text_uthmani":"ٱلْعَظِيمِ","qpc_uthmani_hafs":"ٱلۡعَظِيمِ","char_type_name":"word","page_number":535,"line_number":13,"text":"ٱلۡعَظِيمِ","translation":{"text":"ঘোরতর","language_name":"bengali","language_id":20},"transliteration":{"text":"l-ʿaẓīmi","language_name":"english","language_id":38}},{"id":45882,"position":6,"audio_url":null,"verse_key":"56:46","verse_id":5025,"location":"56:46:6","text_uthmani":"٤٦","qpc_uthmani_hafs":"٤٦","char_type_name":"end","page_number":535,"line_number":13,"text":"٤٦","translation":{"text":"(৪৬)","language_name":"bengali","language_id":20},"transliteration":{"text":null,"language_name":"english","language_id":38}}]},{"id":5026,"verse_number":47,"verse_key":"56:47","hizb_number":54,"rub_el_hizb_number":214,"ruku_number":472,"manzil_number":7,"sajdah_number":null,"page_number":535,"juz_number":27,"words":[{"id":46519,"position":1,"audio_url":"wbw/056_047_001.mp3","verse_key":"56:47","verse_id":5026,"location":"56:47:1","text_uthmani":"وَكَانُوا۟","qpc_uthmani_hafs":"وَكَانُواْ","char_type_name":"word","page_number":535,"line_number":13,"text":"وَكَانُواْ","translation":{"text":"এবং তারা ছিল","language_name":"bengali","language_id":20},"transliteration":{"text":"wakānū","language_name":"english","language_id":38}},{"id":46520,"position":2,"audio_url":"wbw/056_047_002.mp3","verse_key":"56:47","verse_id":5026,"location":"56:47:2","text_uthmani":"يَقُولُونَ","qpc_uthmani_hafs":"يَقُولُونَ","char_type_name":"word","page_number":535,"line_number":13,"text":"يَقُولُونَ","translation":{"text":"তারা বলে","language_name":"bengali","language_id":20},"transliteration":{"text":"yaqūlūna","language_name":"english","language_id":38}},{"id":46521,"position":3,"audio_url":"wbw/056_047_003.mp3","verse_key":"56:47","verse_id":5026,"location":"56:47:3","text_uthmani":"أَئِذَا","qpc_uthmani_hafs":"أَئِذَا","char_type_name":"word","page_number":535,"line_number":13,"text":"أَئِذَا","translation":{"text":"\"যখন কি","language_name":"bengali","language_id":20},"transliteration":{"text":"a-idhā","language_name":"english","language_id":38}},{"id":46522,"position":4,"audio_url":"wbw/056_047_004.mp3","verse_key":"56:47","verse_id":5026,"location":"56:47:4","text_uthmani":"مِتْنَا","qpc_uthmani_hafs":"مِتۡنَا","char_type_name":"word","page_number":535,"line_number":13,"text":"مِتۡنَا","translation":{"text":"আমরা মরে যাব","language_name":"bengali","language_id":20},"transliteration":{"text":"mit'nā","language_name":"english","language_id":38}},{"id":46523,"position":5,"audio_url":"wbw/056_047_005.mp3","verse_key":"56:47","verse_id":5026,"location":"56:47:5","text_uthmani":"وَكُنَّا","qpc_uthmani_hafs":"وَكُنَّا","char_type_name":"word","page_number":535,"line_number":13,"text":"وَكُنَّا","translation":{"text":"ও আমরা হব","language_name":"bengali","language_id":20},"transliteration":{"text":"wakunnā","language_name":"english","language_id":38}},{"id":46524,"position":6,"audio_url":"wbw/056_047_006.mp3","verse_key":"56:47","verse_id":5026,"location":"56:47:6","text_uthmani":"تُرَابًۭا","qpc_uthmani_hafs":"تُرَابٗا","char_type_name":"word","page_number":535,"line_number":14,"text":"تُرَابٗا","translation":{"text":"মাটি","language_name":"bengali","language_id":20},"transliteration":{"text":"turāban","language_name":"english","language_id":38}},{"id":46525,"position":7,"audio_url":"wbw/056_047_007.mp3","verse_key":"56:47","verse_id":5026,"location":"56:47:7","text_uthmani":"وَعِظَـٰمًا","qpc_uthmani_hafs":"وَعِظَٰمًا","char_type_name":"word","page_number":535,"line_number":14,"text":"وَعِظَٰمًا","translation":{"text":"ও হাড়","language_name":"bengali","language_id":20},"transliteration":{"text":"waʿiẓāman","language_name":"english","language_id":38}},{"id":46526,"position":8,"audio_url":"wbw/056_047_008.mp3","verse_key":"56:47","verse_id":5026,"location":"56:47:8","text_uthmani":"أَءِنَّا","qpc_uthmani_hafs":"أَءِنَّا","char_type_name":"word","page_number":535,"line_number":14,"text":"أَءِنَّا","translation":{"text":"নিশ্চয়ই কি আমরা","language_name":"bengali","language_id":20},"transliteration":{"text":"a-innā","language_name":"english","language_id":38}},{"id":46527,"position":9,"audio_url":"wbw/056_047_009.mp3","verse_key":"56:47","verse_id":5026,"location":"56:47:9","text_uthmani":"لَمَبْعُوثُونَ","qpc_uthmani_hafs":"لَمَبۡعُوثُونَ","char_type_name":"word","page_number":535,"line_number":14,"text":"لَمَبۡعُوثُونَ","translation":{"text":"উত্থিত হব অবশ্যই","language_name":"bengali","language_id":20},"transliteration":{"text":"lamabʿūthūna","language_name":"english","language_id":38}},{"id":46528,"position":10,"audio_url":null,"verse_key":"56:47","verse_id":5026,"location":"56:47:10","text_uthmani":"٤٧","qpc_uthmani_hafs":"٤٧","char_type_name":"end","page_number":535,"line_number":14,"text":"٤٧","translation":{"text":"(৪৭)","language_name":"bengali","language_id":20},"transliteration":{"text":null,"language_name":"english","language_id":38}}]},{"id":5027,"verse_number":48,"verse_key":"56:48","hizb_number":54,"rub_el_hizb_number":214,"ruku_number":472,"manzil_number":7,"sajdah_number":null,"page_number":535,"juz_number":27,"words":[{"id":47597,"position":1,"audio_url":"wbw/056_048_001.mp3","verse_key":"56:48","verse_id":5027,"location":"56:48:1","text_uthmani":"أَوَءَابَآؤُنَا","qpc_uthmani_hafs":"أَوَءَابَآؤُنَا","char_type_name":"word","page_number":535,"line_number":14,"text":"أَوَءَابَآؤُنَا","translation":{"text":"অথবা আমাদের বাপদাদারও","language_name":"bengali","language_id":20},"transliteration":{"text":"awaābāunā","language_name":"english","language_id":38}},{"id":47598,"position":2,"audio_url":"wbw/056_048_002.mp3","verse_key":"56:48","verse_id":5027,"location":"56:48:2","text_uthmani":"ٱلْأَوَّلُونَ","qpc_uthmani_hafs":"ٱلۡأَوَّلُونَ","char_type_name":"word","page_number":535,"line_number":14,"text":"ٱلۡأَوَّلُونَ","translation":{"text":"পূর্বসূরী","language_name":"bengali","language_id":20},"transliteration":{"text":"l-awalūna","language_name":"english","language_id":38}},{"id":47599,"position":3,"audio_url":null,"verse_key":"56:48","verse_id":5027,"location":"56:48:3","text_uthmani":"٤٨","qpc_uthmani_hafs":"٤٨","char_type_name":"end","page_number":535,"line_number":14,"text":"٤٨","translation":{"text":"(৪৮)","language_name":"bengali","language_id":20},"transliteration":{"text":null,"language_name":"english","language_id":38}}]},{"id":5028,"verse_number":49,"verse_key":"56:49","hizb_number":54,"rub_el_hizb_number":214,"ruku_number":472,"manzil_number":7,"sajdah_number":null,"page_number":535,"juz_number":27,"words":[{"id":47885,"position":1,"audio_url":"wbw/056_049_001.mp3","verse_key":"56:49","verse_id":5028,"location":"56:49:1","text_uthmani":"قُلْ","qpc_uthmani_hafs":"قُلۡ","char_type_name":"word","page_number":535,"line_number":14,"text":"قُلۡ","translation":{"text":"বলো","language_name":"bengali","language_id":20},"transliteration":{"text":"qul","language_name":"english","language_id":38}},{"id":47886,"position":2,"audio_url":"wbw/056_049_002.mp3","verse_key":"56:49","verse_id":5028,"location":"56:49:2","text_uthmani":"إِنَّ","qpc_uthmani_hafs":"إِنَّ","char_type_name":"word","page_number":535,"line_number":14,"text":"إِنَّ","translation":{"text":"\"নিশ্চয়ই","language_name":"bengali","language_id":20},"transliteration":{"text":"inna","language_name":"english","language_id":38}},{"id":47887,"position":3,"audio_url":"wbw/056_049_003.mp3","verse_key":"56:49","verse_id":5028,"location":"56:49:3","text_uthmani":"ٱلْأَوَّلِينَ","qpc_uthmani_hafs":"ٱلۡأَوَّلِينَ","char_type_name":"word","page_number":535,"line_number":15,"text":"ٱلۡأَوَّلِينَ","translation":{"text":"পূর্বসূরীকে","language_name":"bengali","language_id":20},"transliteration":{"text":"l-awalīna","language_name":"english","language_id":38}},{"id":47888,"position":4,"audio_url":"wbw/056_049_004.mp3","verse_key":"56:49","verse_id":5028,"location":"56:49:4","text_uthmani":"وَٱلْـَٔاخِرِينَ","qpc_uthmani_hafs":"وَٱلۡأٓخِرِينَ","char_type_name":"word","page_number":535,"line_number":15,"text":"وَٱلۡأٓخِرِينَ","translation":{"text":"এবং উত্তরসূরীকে","language_name":"bengali","language_id":20},"transliteration":{"text":"wal-ākhirīna","language_name":"english","language_id":38}},{"id":47889,"position":5,"audio_url":null,"verse_key":"56:49","verse_id":5028,"location":"56:49:5","text_uthmani":"٤٩","qpc_uthmani_hafs":"٤٩","char_type_name":"end","page_number":535,"line_number":15,"text":"٤٩","translation":{"text":"(৪৯)","language_name":"bengali","language_id":20},"transliteration":{"text":null,"language_name":"english","language_id":38}}]},{"id":5029,"verse_number":50,"verse_key":"56:50","hizb_number":54,"rub_el_hizb_number":214,"ruku_number":472,"manzil_number":7,"sajdah_number":null,"page_number":535,"juz_number":27,"words":[{"id":48669,"position":1,"audio_url":"wbw/056_050_001.mp3","verse_key":"56:50","verse_id":5029,"location":"56:50:1","text_uthmani":"لَمَجْمُوعُونَ","qpc_uthmani_hafs":"لَمَجۡمُوعُونَ","char_type_name":"word","page_number":535,"line_number":15,"text":"لَمَجۡمُوعُونَ","translation":{"text":"অবশ্যই একত্র করা হবে","language_name":"bengali","language_id":20},"transliteration":{"text":"lamajmūʿūna","language_name":"english","language_id":38}},{"id":48670,"position":2,"audio_url":"wbw/056_050_002.mp3","verse_key":"56:50","verse_id":5029,"location":"56:50:2","text_uthmani":"إِلَىٰ","qpc_uthmani_hafs":"إِلَىٰ","char_type_name":"word","page_number":535,"line_number":15,"text":"إِلَىٰ","translation":{"text":"দিকে","language_name":"bengali","language_id":20},"transliteration":{"text":"ilā","language_name":"english","language_id":38}},{"id":48671,"position":3,"audio_url":"wbw/056_050_003.mp3","verse_key":"56:50","verse_id":5029,"location":"56:50:3","text_uthmani":"مِيقَـٰتِ","qpc_uthmani_hafs":"مِيقَٰتِ","char_type_name":"word","page_number":535,"line_number":15,"text":"مِيقَٰتِ","translation":{"text":"(নির্দিষ্ট) সময়ে","language_name":"bengali","language_id":20},"transliteration":{"text":"mīqāti","language_name":"english","language_id":38}},{"id":48672,"position":4,"audio_url":"wbw/056_050_004.mp3","verse_key":"56:50","verse_id":5029,"location":"56:50:4","text_uthmani":"يَوْمٍۢ","qpc_uthmani_hafs":"يَوۡمٖ","char_type_name":"word","page_number":535,"line_number":15,"text":"يَوۡمٖ","translation":{"text":"দিনে","language_name":"bengali","language_id":20},"transliteration":{"text":"yawmin","language_name":"english","language_id":38}},{"id":48673,"position":5,"audio_url":"wbw/056_050_005.mp3","verse_key":"56:50","verse_id":5029,"location":"56:50:5","text_uthmani":"مَّعْلُومٍۢ","qpc_uthmani_hafs":"مَّعۡلُومٖ","char_type_name":"word","page_number":535,"line_number":15,"text":"مَّعۡلُومٖ","translation":{"text":"নির্ধারিত\"","language_name":"bengali","language_id":20},"transliteration":{"text":"maʿlūmin","language_name":"english","language_id":38}},{"id":48674,"position":6,"audio_url":null,"verse_key":"56:50","verse_id":5029,"location":"56:50:6","text_uthmani":"٥٠","qpc_uthmani_hafs":"٥٠","char_type_name":"end","page_number":535,"line_number":15,"text":"٥٠","translation":{"text":"(৫০)","language_name":"bengali","language_id":20},"transliteration":{"text":null,"language_name":"english","language_id":38}}]}],"pagination":{"per_page":10,"current_page":5,"next_page":6,"total_pages":10,"total_records":96}}
