{"verses":[{"id":5030,"verse_number":51,"verse_key":"56:51","hizb_number":54,"rub_el_hizb_number":214,"ruku_number":472,"manzil_number":7,"sajdah_number":null,"page_number":536,"juz_number":27,"words":[{"id":49200,"position":1,"audio_url":"wbw/056_051_001.mp3","char_type_name":"word","page_number":536,"line_number":1,"text":"ثُمَّ","translation":{"text":"\"এরপর","language_name":"bengali","language_id":20},"transliteration":{"text":"thumma","language_name":"english","language_id":38}},{"id":49201,"position":2,"audio_url":"wbw/056_051_002.mp3","char_type_name":"word","page_number":536,"line_number":1,"text":"إِنَّكُمْ","translation":{"text":"নিশ্চয়ই তোমরা","language_name":"bengali","language_id":20},"transliteration":{"text":"innakum","language_name":"english","language_id":38}},{"id":49202,"position":3,"audio_url":"wbw/056_051_003.mp3","char_type_name":"word","page_number":536,"line_number":1,"text":"أَيُّهَا","translation":{"text":"হে","language_name":"bengali","language_id":20},"transliteration":{"text":"ayyuhā","language_name":"english","language_id":38}},{"id":49203,"position":4,"audio_url":"wbw/056_051_004.mp3","char_type_name":"word","page_number":536,"line_number":1,"text":"ٱلضَّآلُّونَ","translation":{"text":"পথভ্রষ্টরা","language_name":"bengali","language_id":20},"transliteration":{"text":"l-ḍālūna","language_name":"english","language_id":38}},{"id":49204,"position":5,"audio_url":"wbw/056_051_005.mp3","char_type_name":"word","page_number":536,"line_number":1,"text":"ٱلْمُكَذِّبُونَ","translation":{"text":"মিথ্যারোপকারীরা","language_name":"bengali","language_id":20},"transliteration":{"text":"l-mukadhibūna","language_name":"english","language_id":38}},{"id":49205,"position":6,"audio_url":null,"char_type_name":"end","page_number":536,"line_number":1,"text":"٥١","translation":{"text":"(৫১)","language_name":"bengali","language_id":20},"transliteration":{"text":null,"language_name":"english","language_id":38}}]},{"id":5031,"verse_number":52,"verse_key":"56:52","hizb_number":54,"rub_el_hizb_number":214,"ruku_number":472,"manzil_number":7,"sajdah_number":null,"page_number":536,"juz_number":27,"words":[{"id":50165,"position":1,"audio_url":"wbw/056_052_001.mp3","char_type_name":"word","page_number":536,"line_number":1,"text":"لَـَٔاكِلُونَ","translation":{"text":"অবশ্যই আহার করবে","language_name":"bengali","language_id":20},"transliteration":{"text":"laākilūna","language_name":"english","language_id":38}},{"id":50166,"position":2,"audio_url":"wbw/056_052_002.mp3","char_type_name":"word","page_number":536,"line_number":1,"text":"مِن","translation":{"text":"থেকে","language_name":"bengali","language_id":20},"transliteration":{"text":"min","language_name":"english","language_id":38}},{"id":50167,"position":3,"audio_url":"wbw/056_052_003.mp3","char_type_name":"word","page_number":536,"line_number":1,"text":"شَجَرٍۢ","translation":{"text":"গাছ","language_name":"bengali","language_id":20},"transliteration":{"text":"shajarin","language_name":"english","language_id":38}},{"id":50168,"position":4,"audio_url":"wbw/056_052_004.mp3","char_type_name":"word","page_number":536,"line_number":1,"text":"مِّن","translation":{"text":"থেকে","language_name":"bengali","language_id":20},"transliteration":{"text":"min","language_name":"english","language_id":38}},{"id":50169,"position":5,"audio_url":"wbw/056_052_005.mp3","char_type_name":"word","page_number":536,"line_number":1,"text":"زَقُّومٍۢ","translation":{"text":"যাক্কুমের","language_name":"bengali","language_id":20},"transliteration":{"text":"zaqqūmin","language_name":"english","language_id":38}},{"id":50170,"position":6,"audio_url":null,"char_type_name":"end","page_number":536,"line_number":1,"text":"٥٢","translation":{"text":"(৫২)","language_name":"bengali","language_id":20},"transliteration":{"text":null,"language_name":"english","language_id":38}}]},{"id":5032,"verse_number":53,"verse_key":"56:53","hizb_number":54,"rub_el_hizb_number":214,"ruku_number":472,"manzil_number":7,"sajdah_number":null,"page_number":536,"juz_number":27,"words":[{"id":50554,"position":1,"audio_url":"wbw/056_053_001.mp3","char_type_name":"word","page_number":536,"line_number":2,"text":"فَمَالِـُٔونَ","translation":{"text":"অতঃপর পূর্ণ করবে","language_name":"bengali","language_id":20},"transliteration":{"text":"famāliūna","language_name":"english","language_id":38}},{"id":50555,"position":2,"audio_url":"wbw/056_053_002.mp3","char_type_name":"word","page_number":536,"line_number":2,"text":"مِنْهَا","translation":{"text":"তা দিয়ে","language_name":"bengali","language_id":20},"transliteration":{"text":"min'hā","language_name":"english","language_id":38}},{"id":50556,"position":3,"audio_url":"wbw/056_053_003.mp3","char_type_name":"word","page_number":536,"line_number":2,"text":"ٱلْبُطُونَ","translation":{"text":"পেট সমূহকে","language_name":"bengali","language_id":20},"transliteration":{"text":"l-buṭūna","language_name":"english","language_id":38}},{"id":50557,"position":4,"audio_url":null,"char_type_name":"end","page_number":536,"line_number":2,"text":"٥٣","translation":{"text":"(৫৩)","language_name":"bengali","language_id":20},"transliteration":{"text":null,"language_name":"english","language_id":38}}]},{"id":5033,"verse_number":54,"verse_key":"56:54","hizb_number":54,"rub_el_hizb_number":214,"ruku_number":472,"manzil_number":7,"sajdah_number":null,"page_number":536,"juz_number":27,"words":[{"id":51340,"position":1,"audio_url":"wbw/056_054_001.mp3","char_type_name":"word","page_number":536,"line_number":2,"text":"فَشَـٰرِبُونَ","translation":{"text":"অতঃপর পান করবে","language_name":"bengali","language_id":20},"transliteration":{"text":"fashāribūna","language_name":"english","language_id":38}},{"id":51341,"position":2,"audio_url":"wbw/056_054_002.mp3","char_type_name":"word","page_number":536,"line_number":2,"text":"عَلَيْهِ","translation":{"text":"তার উপর","language_name":"bengali","language_id":20},"transliteration":{"text":"ʿalayhi","language_name":"english","language_id":38}},{"id":51342,"position":3,"audio_url":"wbw/056_054_003.mp3","char_type_name":"word","page_number":536,"line_number":2,"text":"مِنَ","translation":{"text":"থেকে","language_name":"bengali","language_id":20},"transliteration":{"text":"mina","language_name":"english","language_id":38}},{"id":51343,"position":4,"audio_url":"wbw/056_054_004.mp3","char_type_name":"word","page_number":536,"line_number":2,"text":"ٱلْحَمِيمِ","translation":{"text":"ফুটন্ত পানি","language_name":"bengali","language_id":20},"transliteration":{"text":"l-ḥamīmi","language_name":"english","language_id":38}},{"id":51344,"position":5,"audio_url":null,"char_type_name":"end","page_number":536,"line_number":2,"text":"٥٤","translation":{"text":"(৫৪)","language_name":"bengali","language_id":20},"transliteration":{"text":null,"language_name":"english","language_id":38}}]},{"id":5034,"verse_number":55,"verse_key":"56:55","hizb_number":54,"rub_el_hizb_number":214,"ruku_number":472,"manzil_number":7,"sajdah_number":null,"page_number":536,"juz_number":27,"words":[{"id":51704,"position":1,"audio_url":"wbw/056_055_001.mp3","char_type_name":"word","page_number":536,"line_number":2,"text":"فَشَـٰرِبُونَ","translation":{"text":"অতঃপর পান করবে","language_name":"bengali","language_id":20},"transliteration":{"text":"fashāribūna","language_name":"english","language_id":38}},{"id":51705,"position":2,"audio_url":"wbw/056_055_002.mp3","char_type_name":"word","page_number":536,"line_number":3,"text":"شُرْبَ","translation":{"text":"পান করার (মত)","language_name":"bengali","language_id":20},"transliteration":{"text":"shur'ba","language_name":"english","language_id":38}},{"id":51706,"position":3,"audio_url":"wbw/056_055_003.mp3","char_type_name":"word","page_number":536,"line_number":3,"text":"ٱلْهِيمِ","translation":{"text":"পিপাসার্ত উট সমূহের\"","language_name":"bengali","language_id":20},"transliteration":{"text":"l-hīmi","language_name":"english","language_id":38}},{"id":51707,"position":4,"audio_url":null,"char_type_name":"end","page_number":536,"line_number":3,"text":"٥٥","translation":{"text":"(৫৫)","language_name":"bengali","language_id":20},"transliteration":{"text":null,"language_name":"english","language_id":38}}]},{"id":5035,"verse_number":56,"verse_key":"56:56","hizb_number":54,"rub_el_hizb_number":214,"ruku_number":472,"manzil_number":7,"sajdah_number":null,"page_number":536,"juz_number":27,"words":[{"id":52122,"position":1,"audio_url":"wbw/056_056_001.mp3","char_type_name":"word","page_number":536,"line_number":3,"text":"هَـٰذَا","translation":{"text":"এটা","language_name":"bengali","language_id":20},"transliteration":{"text":"hādhā","language_name":"english","language_id":38}},{"id":52123,"position":2,"audio_url":"wbw/056_056_002.mp3","char_type_name":"word","page_number":536,"line_number":3,"text":"نُزُلُهُمْ","translation":{"text":"তাদের আপ্যায়ন (হবে)","language_name":"bengali","language_id":20},"transliteration":{"text":"nuzuluhum","language_name":"english","language_id":38}},{"id":52124,"position":3,"audio_url":"wbw/056_056_003.mp3","char_type_name":"word","page_number":536,"line_number":3,"text":"يَوْمَ","translation":{"text":"দিনে","language_name":"bengali","language_id":20},"transliteration":{"text":"yawma","language_name":"english","language_id":38}},{"id":52125,"position":4,"audio_url":"wbw/056_056_004.mp3","char_type_name":"word","page_number":536,"line_number":3,"text":"ٱلدِّينِ","translation":{"text":"কিয়ামতের","language_name":"bengali","language_id":20},"transliteration":{"text":"l-dīni","language_name":"english","language_id":38}},{"id":52126,"position":5,"audio_url":null,"char_type_name":"end","page_number":536,"line_number":3,"text":"٥٦","translation":{"text":"(৫৬)","language_name":"bengali","language_id":20},"transliteration":{"text":null,"language_name":"english","language_id":38}}]},{"id":5036,"verse_number":57,"verse_key":"56:57","hizb_number":54,"rub_el_hizb_number":214,"ruku_number":472,"manzil_number":7,"sajdah_number":null,"page_number":536,"juz_number":27,"words":[{"id":52801,"position":1,"audio_url":"wbw/056_057_001.mp3","char_type_name":"word","page_number":536,"line_number":3,"text":"نَحْنُ","translation":{"text":"আমরা","language_name":"bengali","language_id":20},"transliteration":{"text":"naḥnu","language_name":"english","language_id":38}},{"id":52802,"position":2,"audio_url":"wbw/056_057_002.mp3","char_type_name":"word","page_number":536,"line_number":3,"text":"خَلَقْنَـٰكُمْ","translation":{"text":"তোমাদেরকে সৃষ্টি করেছি","language_name":"bengali","language_id":20},"transliteration":{"text":"khalaqnākum","language_name":"english","language_id":38}},{"id":52803,"position":3,"audio_url":"wbw/056_057_003.mp3","char_type_name":"word","page_number":536,"line_number":3,"text":"فَلَوْلَا","translation":{"text":"কেন তবুও না","language_name":"bengali","language_id":20},"transliteration":{"text":"falawlā","language_name":"english","language_id":38}},{"id":52804,"position":4,"audio_url":"wbw/056_057_004.mp3","char_type_name":"word","page_number":536,"line_number":4,"text":"تُصَدِّقُونَ","translation":{"text":"তোমার বিশ্বাস কর","language_name":"bengali","language_id":20},"transliteration":{"text":"tuṣaddiqūna","language_name":"english","language_id":38}},{"id":52805,"position":5,"audio_url":null,"char_type_name":"end","page_number":536,"line_number":4,"text":"٥٧","translation":{"text":"(৫৭)","language_name":"bengali","language_id":20},"transliteration":{"text":null,"language_name":"english","language_id":38}}]},{"id":5037,"verse_number":58,"verse_key":"56:58","hizb_number":54,"rub_el_hizb_number":214,"ruku_number":472,"manzil_number":7,"sajdah_number":null,"page_number":536,"juz_number":27,"words":[{"id":53393,"position":1,"audio_url":"wbw/056_058_001.mp3","char_type_name":"word","page_number":536,"line_number":4,"text":"أَفَرَءَيْتُم","translation":{"text":"তোমরা (ভেবে) দেখেছ কি তাহলে","language_name":"bengali","language_id":20},"transliteration":{"text":"afara-aytum","language_name":"english","language_id":38}},{"id":53394,"position":2,"audio_url":"wbw/056_058_002.mp3","char_type_name":"word","page_number":536,"line_number":4,"text":"مَّا","translation":{"text":"যা","language_name":"bengali","language_id":20},"transliteration":{"text":"mā","language_name":"english","language_id":38}},{"id":53395,"position":3,"audio_url":"wbw/056_058_003.mp3","char_type_name":"word","page_number":536,"line_number":4,"text":"تُمْنُونَ","translation":{"text":"তোমরা বীর্যপাত কর","language_name":"bengali","language_id":20},"transliteration":{"text":"tum'nūna","language_name":"english","language_id":38}},{"id":53396,"position":4,"audio_url":null,"char_type_name":"end","page_number":536,"line_number":4,"text":"٥٨","translation":{"text":"(৫৮)","language_name":"bengali","language_id":20},"transliteration":{"text":null,"language_name":"english","language_id":38}}]},{"id":5038,"verse_number":59,"verse_key":"56:59","hizb_number":54,"rub_el_hizb_number":214,"ruku_number":472,"manzil_number":7,"sajdah_number":null,"page_number":536,"juz_number":27,"words":[{"id":53814,"position":1,"audio_url":"wbw/056_059_001.mp3","char_type_name":"word","page_number":536,"line_number":4,"text":"ءَأَنتُمْ","translation":{"text":"তোমরা কি","language_name":"bengali","language_id":20},"transliteration":{"text":"a-antum","language_name":"english","language_id":38}},{"id":53815,"position":2,"audio_url":"wbw/056_059_002.mp3","char_type_name":"word","page_number":536,"line_number":4,"text":"تَخْلُقُونَهُۥٓ","translation":{"text":"তা সৃষ্টি কর","language_name":"bengali","language_id":20},"transliteration":{"text":"takhluqūnahu","language_name":"english","language_id":38}},{"id":53816,"position":3,"audio_url":"wbw/056_059_003.mp3","char_type_name":"word","page_number":536,"line_number":4,"text":"أَمْ","translation":{"text":"না","language_name":"bengali","language_id":20},"transliteration":{"text":"am","language_name":"english","language_id":38}},{"id":53817,"position":4,"audio_url":"wbw/056_059_004.mp3","char_type_name":"word","page_number":536,"line_number":4,"text":"نَحْنُ","translation":{"text":"আমরা","language_name":"bengali","language_id":20},"transliteration":{"text":"naḥnu","language_name":"english","language_id":38}},{"id":53818,"position":5,"audio_url":"wbw/056_059_005.mp3","char_type_name":"word","page_number":536,"line_number":5,"text":"ٱلْخَـٰلِقُونَ","translation":{"text":"সৃষ্টিকারী","language_name":"bengali","language_id":20},"transliteration":{"text":"l-khāliqūna","language_name":"english","language_id":38}},{"id":53819,"position":6,"audio_url":null,"char_type_name":"end","page_number":536,"line_number":5,"text":"٥٩","translation":{"text":"(৫৯)","language_name":"bengali","language_id":20},"transliteration":{"text":null,"language_name":"english","language_id":38}}]},{"id":5039,"verse_number":60,"verse_key":"56:60","hizb_number":54,"rub_el_hizb_number":214,"ruku_number":472,"manzil_number":7,"sajdah_number":null,"page_number":536,"juz_number":27,"words":[{"id":54557,"position":1,"audio_url":"wbw/056_060_001.mp3","char_type_name":"word","page_number":536,"line_number":5,"text":"نَحْنُ","translation":{"text":"আমরা","language_name":"bengali","language_id":20},"transliteration":{"text":"naḥnu","language_name":"english","language_id":38}},{"id":54558,"position":2,"audio_url":"wbw/056_060_002.mp3","char_type_name":"word","page_number":536,"line_number":5,"text":"قَدَّرْنَا","translation":{"text":"নির্ধারণ করেছি","language_name":"bengali","language_id":20},"transliteration":{"text":"qaddarnā","language_name":"english","language_id":38}},{"id":54559,"position":3,"audio_url":"wbw/056_060_003.mp3","char_type_name":"word","page_number":536,"line_number":5,"text":"بَيْنَكُمُ","translation":{"text":"তোমাদের মাঝে","language_name":"bengali","language_id":20},"transliteration":{"text":"baynakumu","language_name":"english","language_id":38}},{"id":54560,"position":4,"audio_url":"wbw/056_060_004.mp3","char_type_name":"word","page_number":536,"line_number":5,"text":"ٱلْمَوْتَ","translation":{"text":"মৃত্যু","language_name":"bengali","language_id":20},"transliteration":{"text":"l-mawta","language_name":"english","language_id":38}},{"id":54561,"position":5,"audio_url":"wbw/056_060_005.mp3","char_type_name":"word","page_number":536,"line_number":5,"text":"وَمَا","translation":{"text":"এবং না","language_name":"bengali","language_id":20},"transliteration":{"text":"wamā","language_name":"english","language_id":38}},{"id":54562,"position":6,"audio_url":"wbw/056_060_006.mp3","char_type_name":"word","page_number":536,"line_number":5,"text":"نَحْنُ","translation":{"text":"আমরা","language_name":"bengali","language_id":20},"transliteration":{"text":"naḥnu","language_name":"english","language_id":38}},{"id":54563,"position":7,"audio_url":"wbw/056_060_007.mp3","char_type_name":"word","page_number":536,"line_number":5,"text":"بِمَسْبُوقِينَ","translation":{"text":"অক্ষম","language_name":"bengali","language_id":20},"transliteration":{"text":"bimasbūqīna","language_name":"english","language_id":38}},{"id":54564,"position":8,"audio_url":null,"char_type_name":"end","page_number":536,"line_number":5,"text":"٦٠","translation":{"text":"(৬০)","language_name":"bengali","language_id":20},"transliteration":{"text":null,"language_name":"english","language_id":38}}]}],"pagination":{"per_page":10,"current_page":6,"next_page":7,"total_pages":10,"total_records":96}}
