{"verses":[{"id":5050,"verse_number":71,"verse_key":"56:71","hizb_number":54,"rub_el_hizb_number":214,"ruku_number":472,"manzil_number":7,"sajdah_number":null,"page_number":536,"juz_number":27,"words":[{"id":60168,"position":1,"audio_url":"wbw/056_071_001.mp3","char_type_name":"word","page_number":536,"line_number":12,"text":"أَفَرَءَيْتُمُ","translation":{"text":"তোমরা তবে কি (ভেবে) দেখেছ","language_name":"bengali","language_id":20},"transliteration":{"text":"afara-aytumu","language_name":"english","language_id":38}},{"id":60169,"position":2,"audio_url":"wbw/056_071_002.mp3","char_type_name":"word","page_number":536,"line_number":12,"text":"ٱلنَّارَ","translation":{"text":"আগুন (সম্পর্কে)","language_name":"bengali","language_id":20},"transliteration":{"text":"l-nāra","language_name":"english","language_id":38}},{"id":60170,"position":3,"audio_url":"wbw/056_071_003.mp3","char_type_name":"word","page_number":536,"line_number":12,"text":"ٱلَّتِى","translation":{"text":"যা","language_name":"bengali","language_id":20},"transliteration":{"text":"allatī","language_name":"english","language_id":38}},{"id":60171,"position":4,"audio_url":"wbw/056_071_004.mp3","char_type_name":"word","page_number":536,"line_number":12,"text":"تُورُونَ","translation":{"text":"তোমরা জ্বালাও","language_name":"bengali","language_id":20},"transliteration":{"text":"tūrūna","language_name":"english","language_id":38}},{"id":60172,"position":5,"audio_url":null,"char_type_name":"end","page_number":536,"line_number":12,"text":"٧١","translation":{"text":"(৭১)","language_name":"bengali","language_id":20},"transliteration":{"text":null,"language_name":"english","language_id":38}}]},{"id":5051,"verse_number":72,"verse_key":"56:72","hizb_number":54,"rub_el_hizb_number":214,"ruku_number":472,"manzil_number":7,"sajdah_number":null,"page_number":536,"juz_number":27,"words":[{"id":60655,"position":1,"audio_url":"wbw/056_072_001.mp3","char_type_name":"word","page_number":536,"line_number":12,"text":"ءَأَنتُمْ","translation":{"text":"তোমরা কি","language_name":"bengali","language_id":20},"transliteration":{"text":"a-antum","language_name":"english","language_id":38}},{"id":60656,"position":2,"audio_url":"wbw/056_072_002.mp3","char_type_name":"word","page_number":536,"line_number":12,"text":"أَنشَأْتُمْ","translation":{"text":"তোমরাই সৃষ্টি করেছ","language_name":"bengali","language_id":20},"transliteration":{"text":"anshatum","language_name":"english","language_id":38}},{"id":60657,"position":3,"audio_url":"wbw/056_072_003.mp3","char_type_name":"word","page_number":536,"line_number":13,"text":"شَجَرَتَهَآ","translation":{"text":"তার গাছকে","language_name":"bengali","language_id":20},"transliteration":{"text":"shajaratahā","language_name":"english","language_id":38}},{"id":60658,"position":4,"audio_url":"wbw/056_072_004.mp3","char_type_name":"word","page_number":536,"line_number":13,"text":"أَمْ","translation":{"text":"না","language_name":"bengali","language_id":20},"transliteration":{"text":"am","language_name":"english","language_id":38}},{"id":60659,"position":5,"audio_url":"wbw/056_072_005.mp3","char_type_name":"word","page_number":536,"line_number":13,"text":"نَحْنُ","translation":{"text":"আমরা","language_name":"bengali","language_id":20},"transliteration":{"text":"naḥnu","language_name":"english","language_id":38}},{"id":60660,"position":6,"audio_url":"wbw/056_072_006.mp3","char_type_name":"word","page_number":536,"line_number":13,"text":"ٱلْمُنشِـُٔونَ","translation":{"text":"স্রষ্টা","language_name":"bengali","language_id":20},"transliteration":{"text":"l-munshiūna","language_name":"english","language_id":38}},{"id":60661,"position":7,"audio_url":null,"char_type_name":"end","page_number":536,"line_number":13,"text":"٧٢","translation":{"text":"(৭২)","language_name":"bengali","language_id":20},"transliteration":{"text":null,"language_name":"english","language_id":38}}]},{"id":5052,"verse_number":73,"verse_key":"56:73","hizb_number":54,"rub_el_hizb_number":214,"ruku_number":472,"manzil_number":7,"sajdah_number":null,"page_number":536,"juz_number":27,"words":[{"id":60967,"position":1,"audio_url":"wbw/056_073_001.mp3","char_type_name":"word","page_number":536,"line_number":13,"text":"نَحْنُ","translation":{"text":"আমরা","language_name":"bengali","language_id":20},"transliteration":{"text":"naḥnu","language_name":"english","language_id":38}},{"id":60968,"position":2,"audio_url":"wbw/056_073_002.mp3","char_type_name":"word","page_number":536,"line_number":13,"text":"جَعَلْنَـٰهَا","translation":{"text":"তা আমরা বানিয়েছি","language_name":"bengali","language_id":20},"transliteration":{"text":"jaʿalnāhā","language_name":"english","language_id":38}},{"id":60969,"position":3,"audio_url":"wbw/056_073_003.mp3","char_type_name":"word","page_number":536,"line_number":13,"text":"تَذْكِرَةًۭ","translation":{"text":"স্মরণীয় নিদর্শন","language_name":"bengali","language_id":20},"transliteration":{"text":"tadhkiratan","language_name":"english","language_id":38}},{"id":60970,"position":4,"audio_url":"wbw/056_073_004.mp3","char_type_name":"word","page_number":536,"line_number":13,"text":"وَمَتَـٰعًۭا","translation":{"text":"ও জীবনোপকরণ (হিসেবে)","language_name":"bengali","language_id":20},"transliteration":{"text":"wamatāʿan","language_name":"english","language_id":38}},{"id":60971,"position":5,"audio_url":"wbw/056_073_005.mp3","char_type_name":"word","page_number":536,"line_number":14,"text":"لِّلْمُقْوِينَ","translation":{"text":"(মরুচারী) মুসাফিরদের জন্যে","language_name":"bengali","language_id":20},"transliteration":{"text":"lil'muq'wīna","language_name":"english","language_id":38}},{"id":60972,"position":6,"audio_url":null,"char_type_name":"end","page_number":536,"line_number":14,"text":"٧٣","translation":{"text":"(৭৩)","language_name":"bengali","language_id":20},"transliteration":{"text":null,"language_name":"english","language_id":38}}]},{"id":5053,"verse_number":74,"verse_key":"56:74","hizb_number":54,"rub_el_hizb_number":214,"ruku_number":472,"manzil_number":7,"sajdah_number":null,"page_number":536,"juz_number":27,"words":[{"id":61457,"position":1,"audio_url":"wbw/056_074_001.mp3","char_type_name":"word","page_number":536,"line_number":14,"text":"فَسَبِّحْ","translation":{"text":"অতএব তুমি পবিত্রতা ঘোষণা করো","language_name":"bengali","language_id":20},"transliteration":{"text":"fasabbiḥ","language_name":"english","language_id":38}},{"id":61458,"position":2,"audio_url":"wbw/056_074_002.mp3","char_type_name":"word","page_number":536,"line_number":14,"text":"بِٱسْمِ","translation":{"text":"নামের","language_name":"bengali","language_id":20},"transliteration":{"text":"bi-is'mi","language_name":"english","language_id":38}},{"id":61459,"position":3,"audio_url":"wbw/056_074_003.mp3","char_type_name":"word","page_number":536,"line_number":14,"text":"رَبِّكَ","translation":{"text":"তোমার রবের","language_name":"bengali","language_id":20},"transliteration":{"text":"rabbika","language_name":"english","language_id":38}},{"id":61460,"position":4,"audio_url":"wbw/056_074_004.mp3","char_type_name":"word","page_number":536,"line_number":14,"text":"ٱلْعَظِيمِ","translation":{"text":"মহান","language_name":"bengali","language_id":20},"transliteration":{"text":"l-ʿaẓīmi","language_name":"english","language_id":38}},{"id":61461,"position":5,"audio_url":null,"char_type_name":"end","page_number":536,"line_number":14,"text":"٧٤","translation":{"text":"(৭৪)","language_name":"bengali","language_id":20},"transliteration":{"text":null,"language_name":"english","language_id":38}}]},{"id":5054,"verse_number":75,"verse_key":"56:75","hizb_number":54,"rub_el_hizb_number":215,"ruku_number":473,"manzil_number":7,"sajdah_number":null,"page_number":536,"juz_number":27,"words":[{"id":62199,"position":1,"audio_url":"wbw/056_075_002.mp3","char_type_name":"word","page_number":536,"line_number":14,"text":"۞ فَلَآ","translation":{"text":"অতঃপর না","language_name":"bengali","language_id":20},"transliteration":{"text":"falā","language_name":"english","language_id":38}},{"id":62200,"position":2,"audio_url":"wbw/056_075_003.mp3","char_type_name":"word","page_number":536,"line_number":14,"text":"أُقْسِمُ","translation":{"text":"শপথ করছি আমি","language_name":"bengali","language_id":20},"transliteration":{"text":"uq'simu","language_name":"english","language_id":38}},{"id":62201,"position":3,"audio_url":"wbw/056_075_004.mp3","char_type_name":"word","page_number":536,"line_number":15,"text":"بِمَوَٰقِعِ","translation":{"text":"অস্ত যাওয়ার স্থানের","language_name":"bengali","language_id":20},"transliteration":{"text":"bimawāqiʿi","language_name":"english","language_id":38}},{"id":62202,"position":4,"audio_url":"wbw/056_075_005.mp3","char_type_name":"word","page_number":536,"line_number":15,"text":"ٱلنُّجُومِ","translation":{"text":"তারকা গুলোর","language_name":"bengali","language_id":20},"transliteration":{"text":"l-nujūmi","language_name":"english","language_id":38}},{"id":62203,"position":5,"audio_url":null,"char_type_name":"end","page_number":536,"line_number":15,"text":"٧٥","translation":{"text":"(৭৫)","language_name":"bengali","language_id":20},"transliteration":{"text":null,"language_name":"english","language_id":38}}]},{"id":5055,"verse_number":76,"verse_key":"56:76","hizb_number":54,"rub_el_hizb_number":215,"ruku_number":473,"manzil_number":7,"sajdah_number":null,"page_number":536,"juz_number":27,"words":[{"id":62468,"position":1,"audio_url":"wbw/056_076_001.mp3","char_type_name":"word","page_number":536,"line_number":15,"text":"وَإِنَّهُۥ","translation":{"text":"এবং তা নিশ্চয়ই","language_name":"bengali","language_id":20},"transliteration":{"text":"wa-innahu","language_name":"english","language_id":38}},{"id":62469,"position":2,"audio_url":"wbw/056_076_002.mp3","char_type_name":"word","page_number":536,"line_number":15,"text":"لَقَسَمٌۭ","translation":{"text":"শপথ অবশ্যই","language_name":"bengali","language_id":20},"transliteration":{"text":"laqasamun","language_name":"english","language_id":38}},{"id":62470,"position":3,"audio_url":"wbw/056_076_003.mp3","char_type_name":"word","page_number":536,"line_number":15,"text":"لَّوْ","translation":{"text":"যদি","language_name":"bengali","language_id":20},"transliteration":{"text":"law","language_name":"english","language_id":38}},{"id":62471,"position":4,"audio_url":"wbw/056_076_004.mp3","char_type_name":"word","page_number":536,"line_number":15,"text":"تَعْلَمُونَ","translation":{"text":"তোমরা জান","language_name":"bengali","language_id":20},"transliteration":{"text":"taʿlamūna","language_name":"english","language_id":38}},{"id":62472,"position":5,"audio_url":"wbw/056_076_005.mp3","char_type_name":"word","page_number":536,"line_number":15,"text":"عَظِيمٌ","translation":{"text":"(শপথ) বিরাট","language_name":"bengali","language_id":20},"transliteration":{"text":"ʿaẓīmun","language_name":"english","language_id":38}},{"id":62473,"position":6,"audio_url":null,"char_type_name":"end","page_number":536,"line_number":15,"text":"٧٦","translation":{"text":"(৭৬)","language_name":"bengali","language_id":20},"transliteration":{"text":null,"language_name":"english","language_id":38}}]},{"id":5056,"verse_number":77,"verse_key":"56:77","hizb_number":54,"rub_el_hizb_number":215,"ruku_number":473,"manzil_number":7,"sajdah_number":null,"page_number":537,"juz_number":27,"words":[{"id":62903,"position":1,"audio_url":"wbw/056_077_001.mp3","char_type_name":"word","page_number":537,"line_number":1,"text":"إِنَّهُۥ","translation":{"text":"তা নিশ্চয়ই","language_name":"bengali","language_id":20},"transliteration":{"text":"innahu","language_name":"english","language_id":38}},{"id":62904,"position":2,"audio_url":"wbw/056_077_002.mp3","char_type_name":"word","page_number":537,"line_number":1,"text":"لَقُرْءَانٌۭ","translation":{"text":"অবশ্যই কুরআন","language_name":"bengali","language_id":20},"transliteration":{"text":"laqur'ānun","language_name":"english","language_id":38}},{"id":62905,"position":3,"audio_url":"wbw/056_077_003.mp3","char_type_name":"word","page_number":537,"line_number":1,"text":"كَرِيمٌۭ","translation":{"text":"মহা সম্মানিত","language_name":"bengali","language_id":20},"transliteration":{"text":"karīmun","language_name":"english","language_id":38}},{"id":62906,"position":4,"audio_url":null,"char_type_name":"end","page_number":537,"line_number":1,"text":"٧٧","translation":{"text":"(৭৭)","language_name":"bengali","language_id":20},"transliteration":{"text":null,"language_name":"english","language_id":38}}]},{"id":5057,"verse_number":78,"verse_key":"56:78","hizb_number":54,"rub_el_hizb_number":215,"ruku_number":473,"manzil_number":7,"sajdah_number":null,"page_number":537,"juz_number":27,"words":[{"id":63487,"position":1,"audio_url":"wbw/056_078_001.mp3","char_type_name":"word","page_number":537,"line_number":1,"text":"فِى","translation":{"text":"মধ্যে","language_name":"bengali","language_id":20},"transliteration":{"text":"fī","language_name":"english","language_id":38}},{"id":63488,"position":2,"audio_url":"wbw/056_078_002.mp3","char_type_name":"word","page_number":537,"line_number":1,"text":"كِتَـٰبٍۢ","translation":{"text":"কিতাবের","language_name":"bengali","language_id":20},"transliteration":{"text":"kitābin","language_name":"english","language_id":38}},{"id":63489,"position":3,"audio_url":"wbw/056_078_003.mp3","char_type_name":"word","page_number":537,"line_number":1,"text":"مَّكْنُونٍۢ","translation":{"text":"সুরক্ষিত","language_name":"bengali","language_id":20},"transliteration":{"text":"maknūnin","language_name":"english","language_id":38}},{"id":63490,"position":4,"audio_url":null,"char_type_name":"end","page_number":537,"line_number":1,"text":"٧٨","translation":{"text":"(৭৮)","language_name":"bengali","language_id":20},"transliteration":{"text":null,"language_name":"english","language_id":38}}]},{"id":5058,"verse_number":79,"verse_key":"56:79","hizb_number":54,"rub_el_hizb_number":215,"ruku_number":473,"manzil_number":7,"sajdah_number":null,"page_number":537,"juz_number":27,"words":[{"id":63895,"position":1,"audio_url":"wbw/056_079_001.mp3","char_type_name":"word","page_number":537,"line_number":1,"text":"لَّا","translation":{"text":"না","language_name":"bengali","language_id":20},"transliteration":{"text":"lā","language_name":"english","language_id":38}},{"id":63896,"position":2,"audio_url":"wbw/056_079_002.mp3","char_type_name":"word","page_number":537,"line_number":1,"text":"يَمَسُّهُۥٓ","translation":{"text":"তা স্পর্শ করতে পারে","language_name":"bengali","language_id":20},"transliteration":{"text":"yamassuhu","language_name":"english","language_id":38}},{"id":63897,"position":3,"audio_url":"wbw/056_079_003.mp3","char_type_name":"word","page_number":537,"line_number":1,"text":"إِلَّا","translation":{"text":"এছাড়া","language_name":"bengali","language_id":20},"transliteration":{"text":"illā","language_name":"english","language_id":38}},{"id":63898,"position":4,"audio_url":"wbw/056_079_004.mp3","char_type_name":"word","page_number":537,"line_number":2,"text":"ٱلْمُطَهَّرُونَ","translation":{"text":"(যারা) পবিত্র","language_name":"bengali","language_id":20},"transliteration":{"text":"l-muṭaharūna","language_name":"english","language_id":38}},{"id":63899,"position":5,"audio_url":null,"char_type_name":"end","page_number":537,"line_number":2,"text":"٧٩","translation":{"text":"(৭৯)","language_name":"bengali","language_id":20},"transliteration":{"text":null,"language_name":"english","language_id":38}}]},{"id":5059,"verse_number":80,"verse_key":"56:80","hizb_number":54,"rub_el_hizb_number":215,"ruku_number":473,"manzil_number":7,"sajdah_number":null,"page_number":537,"juz_number":27,"words":[{"id":64204,"position":1,"audio_url":"wbw/056_080_001.mp3","char_type_name":"word","page_number":537,"line_number":2,"text":"تَنزِيلٌۭ","translation":{"text":"অবতীর্ণ","language_name":"bengali","language_id":20},"transliteration":{"text":"tanzīlun","language_name":"english","language_id":38}},{"id":64205,"position":2,"audio_url":"wbw/056_080_002.mp3","char_type_name":"word","page_number":537,"line_number":2,"text":"مِّن","translation":{"text":"পক্ষ হতে","language_name":"bengali","language_id":20},"transliteration":{"text":"min","language_name":"english","language_id":38}},{"id":64206,"position":3,"audio_url":"wbw/056_080_003.mp3","char_type_name":"word","page_number":537,"line_number":2,"text":"رَّبِّ","translation":{"text":"রবের","language_name":"bengali","language_id":20},"transliteration":{"text":"rabbi","language_name":"english","language_id":38}},{"id":64207,"position":4,"audio_url":"wbw/056_080_004.mp3","char_type_name":"word","page_number":537,"line_number":2,"text":"ٱلْعَـٰلَمِينَ","translation":{"text":"বিশ্বজগতের","language_name":"bengali","language_id":20},"transliteration":{"text":"l-ʿālamīna","language_name":"english","language_id":38}},{"id":64208,"position":5,"audio_url":null,"char_type_name":"end","page_number":537,"line_number":2,"text":"٨٠","translation":{"text":"(৮০)","language_name":"bengali","language_id":20},"transliteration":{"text":null,"language_name":"english","language_id":38}}]}],"pagination":{"per_page":10,"current_page":8,"next_page":9,"total_pages":10,"total_records":96}}
