{"verses":[{"id":5060,"verse_number":81,"verse_key":"56:81","hizb_number":54,"rub_el_hizb_number":215,"ruku_number":473,"manzil_number":7,"sajdah_number":null,"page_number":537,"juz_number":27,"words":[{"id":64720,"position":1,"audio_url":"wbw/056_081_001.mp3","char_type_name":"word","page_number":537,"line_number":2,"text":"أَفَبِهَـٰذَا","translation":{"text":"তবুও কি এই","language_name":"bengali","language_id":20},"transliteration":{"text":"afabihādhā","language_name":"english","language_id":38}},{"id":64721,"position":2,"audio_url":"wbw/056_081_002.mp3","char_type_name":"word","page_number":537,"line_number":2,"text":"ٱلْحَدِيثِ","translation":{"text":"বাণী (সম্পর্কে)","language_name":"bengali","language_id":20},"transliteration":{"text":"l-ḥadīthi","language_name":"english","language_id":38}},{"id":64722,"position":3,"audio_url":"wbw/056_081_003.mp3","char_type_name":"word","page_number":537,"line_number":3,"text":"أَنتُم","translation":{"text":"তোমরা","language_name":"bengali","language_id":20},"transliteration":{"text":"antum","language_name":"english","language_id":38}},{"id":64723,"position":4,"audio_url":"wbw/056_081_004.mp3","char_type_name":"word","page_number":537,"line_number":3,"text":"مُّدْهِنُونَ","translation":{"text":"তুচ্ছজ্ঞান করবে","language_name":"bengali","language_id":20},"transliteration":{"text":"mud'hinūna","language_name":"english","language_id":38}},{"id":64724,"position":5,"audio_url":null,"char_type_name":"end","page_number":537,"line_number":3,"text":"٨١","translation":{"text":"(৮১)","language_name":"bengali","language_id":20},"transliteration":{"text":null,"language_name":"english","language_id":38}}]},{"id":5061,"verse_number":82,"verse_key":"56:82","hizb_number":54,"rub_el_hizb_number":215,"ruku_number":473,"manzil_number":7,"sajdah_number":null,"page_number":537,"juz_number":27,"words":[{"id":65205,"position":1,"audio_url":"wbw/056_082_001.mp3","char_type_name":"word","page_number":537,"line_number":3,"text":"وَتَجْعَلُونَ","translation":{"text":"এবং তোমরা বানিয়ে নেবে","language_name":"bengali","language_id":20},"transliteration":{"text":"watajʿalūna","language_name":"english","language_id":38}},{"id":65206,"position":2,"audio_url":"wbw/056_082_002.mp3","char_type_name":"word","page_number":537,"line_number":3,"text":"رِزْقَكُمْ","translation":{"text":"তোমাদের জীবিকা (এই নিয়ামত)","language_name":"bengali","language_id":20},"transliteration":{"text":"riz'qakum","language_name":"english","language_id":38}},{"id":65207,"position":3,"audio_url":"wbw/056_082_003.mp3","char_type_name":"word","page_number":537,"line_number":3,"text":"أَنَّكُمْ","translation":{"text":"(এভাবে) যে তোমরা","language_name":"bengali","language_id":20},"transliteration":{"text":"annakum","language_name":"english","language_id":38}},{"id":65208,"position":4,"audio_url":"wbw/056_082_004.mp3","char_type_name":"word","page_number":537,"line_number":3,"text":"تُكَذِّبُونَ","translation":{"text":"মিথ্যা মনে করছ","language_name":"bengali","language_id":20},"transliteration":{"text":"tukadhibūna","language_name":"english","language_id":38}},{"id":65209,"position":5,"audio_url":null,"char_type_name":"end","page_number":537,"line_number":3,"text":"٨٢","translation":{"text":"(৮২)","language_name":"bengali","language_id":20},"transliteration":{"text":null,"language_name":"english","language_id":38}}]},{"id":5062,"verse_number":83,"verse_key":"56:83","hizb_number":54,"rub_el_hizb_number":215,"ruku_number":473,"manzil_number":7,"sajdah_number":null,"page_number":537,"juz_number":27,"words":[{"id":65403,"position":1,"audio_url":"wbw/056_083_001.mp3","char_type_name":"word","page_number":537,"line_number":3,"text":"فَلَوْلَآ","translation":{"text":"তবে কেন নয়","language_name":"bengali","language_id":20},"transliteration":{"text":"falawlā","language_name":"english","language_id":38}},{"id":65404,"position":2,"audio_url":"wbw/056_083_002.mp3","char_type_name":"word","page_number":537,"line_number":4,"text":"إِذَا","translation":{"text":"যখন","language_name":"bengali","language_id":20},"transliteration":{"text":"idhā","language_name":"english","language_id":38}},{"id":65405,"position":3,"audio_url":"wbw/056_083_003.mp3","char_type_name":"word","page_number":537,"line_number":4,"text":"بَلَغَتِ","translation":{"text":"পৌঁছাবে (প্রাণ)","language_name":"bengali","language_id":20},"transliteration":{"text":"balaghati","language_name":"english","language_id":38}},{"id":65406,"position":4,"audio_url":"wbw/056_083_004.mp3","char_type_name":"word","page_number":537,"line_number":4,"text":"ٱلْحُلْقُومَ","translation":{"text":"কণ্ঠনালীতে","language_name":"bengali","language_id":20},"transliteration":{"text":"l-ḥul'qūma","language_name":"english","language_id":38}},{"id":65407,"position":5,"audio_url":null,"char_type_name":"end","page_number":537,"line_number":4,"text":"٨٣","translation":{"text":"(৮৩)","language_name":"bengali","language_id":20},"transliteration":{"text":null,"language_name":"english","language_id":38}}]},{"id":5063,"verse_number":84,"verse_key":"56:84","hizb_number":54,"rub_el_hizb_number":215,"ruku_number":473,"manzil_number":7,"sajdah_number":null,"page_number":537,"juz_number":27,"words":[{"id":65718,"position":1,"audio_url":"wbw/056_084_001.mp3","char_type_name":"word","page_number":537,"line_number":4,"text":"وَأَنتُمْ","translation":{"text":"এবং তোমরা","language_name":"bengali","language_id":20},"transliteration":{"text":"wa-antum","language_name":"english","language_id":38}},{"id":65719,"position":2,"audio_url":"wbw/056_084_002.mp3","char_type_name":"word","page_number":537,"line_number":4,"text":"حِينَئِذٍۢ","translation":{"text":"সে সময়","language_name":"bengali","language_id":20},"transliteration":{"text":"ḥīna-idhin","language_name":"english","language_id":38}},{"id":65720,"position":3,"audio_url":"wbw/056_084_003.mp3","char_type_name":"word","page_number":537,"line_number":4,"text":"تَنظُرُونَ","translation":{"text":"তাকিয়ে থাকবে","language_name":"bengali","language_id":20},"transliteration":{"text":"tanẓurūna","language_name":"english","language_id":38}},{"id":65721,"position":4,"audio_url":null,"char_type_name":"end","page_number":537,"line_number":4,"text":"٨٤","translation":{"text":"(৮৪)","language_name":"bengali","language_id":20},"transliteration":{"text":null,"language_name":"english","language_id":38}}]},{"id":5064,"verse_number":85,"verse_key":"56:85","hizb_number":54,"rub_el_hizb_number":215,"ruku_number":473,"manzil_number":7,"sajdah_number":null,"page_number":537,"juz_number":27,"words":[{"id":66086,"position":1,"audio_url":"wbw/056_085_001.mp3","char_type_name":"word","page_number":537,"line_number":4,"text":"وَنَحْنُ","translation":{"text":"এবং আমরা","language_name":"bengali","language_id":20},"transliteration":{"text":"wanaḥnu","language_name":"english","language_id":38}},{"id":66087,"position":2,"audio_url":"wbw/056_085_002.mp3","char_type_name":"word","page_number":537,"line_number":4,"text":"أَقْرَبُ","translation":{"text":"অধিকতর নিকটে","language_name":"bengali","language_id":20},"transliteration":{"text":"aqrabu","language_name":"english","language_id":38}},{"id":66088,"position":3,"audio_url":"wbw/056_085_003.mp3","char_type_name":"word","page_number":537,"line_number":5,"text":"إِلَيْهِ","translation":{"text":"তার কাছে","language_name":"bengali","language_id":20},"transliteration":{"text":"ilayhi","language_name":"english","language_id":38}},{"id":66089,"position":4,"audio_url":"wbw/056_085_004.mp3","char_type_name":"word","page_number":537,"line_number":5,"text":"مِنكُمْ","translation":{"text":"তোমাদের চেয়ে","language_name":"bengali","language_id":20},"transliteration":{"text":"minkum","language_name":"english","language_id":38}},{"id":66090,"position":5,"audio_url":"wbw/056_085_005.mp3","char_type_name":"word","page_number":537,"line_number":5,"text":"وَلَـٰكِن","translation":{"text":"কিন্তু","language_name":"bengali","language_id":20},"transliteration":{"text":"walākin","language_name":"english","language_id":38}},{"id":66091,"position":6,"audio_url":"wbw/056_085_006.mp3","char_type_name":"word","page_number":537,"line_number":5,"text":"لَّا","translation":{"text":"না","language_name":"bengali","language_id":20},"transliteration":{"text":"lā","language_name":"english","language_id":38}},{"id":66092,"position":7,"audio_url":"wbw/056_085_007.mp3","char_type_name":"word","page_number":537,"line_number":5,"text":"تُبْصِرُونَ","translation":{"text":"তোমরা দেখতে পাও","language_name":"bengali","language_id":20},"transliteration":{"text":"tub'ṣirūna","language_name":"english","language_id":38}},{"id":66093,"position":8,"audio_url":null,"char_type_name":"end","page_number":537,"line_number":5,"text":"٨٥","translation":{"text":"(৮৫)","language_name":"bengali","language_id":20},"transliteration":{"text":null,"language_name":"english","language_id":38}}]},{"id":5065,"verse_number":86,"verse_key":"56:86","hizb_number":54,"rub_el_hizb_number":215,"ruku_number":473,"manzil_number":7,"sajdah_number":null,"page_number":537,"juz_number":27,"words":[{"id":66516,"position":1,"audio_url":"wbw/056_086_001.mp3","char_type_name":"word","page_number":537,"line_number":5,"text":"فَلَوْلَآ","translation":{"text":"অতঃপর কেন","language_name":"bengali","language_id":20},"transliteration":{"text":"falawlā","language_name":"english","language_id":38}},{"id":66517,"position":2,"audio_url":"wbw/056_086_002.mp3","char_type_name":"word","page_number":537,"line_number":5,"text":"إِن","translation":{"text":"যদি","language_name":"bengali","language_id":20},"transliteration":{"text":"in","language_name":"english","language_id":38}},{"id":66518,"position":3,"audio_url":"wbw/056_086_003.mp3","char_type_name":"word","page_number":537,"line_number":5,"text":"كُنتُمْ","translation":{"text":"তোমরা হয়ে থাক","language_name":"bengali","language_id":20},"transliteration":{"text":"kuntum","language_name":"english","language_id":38}},{"id":66519,"position":4,"audio_url":"wbw/056_086_004.mp3","char_type_name":"word","page_number":537,"line_number":5,"text":"غَيْرَ","translation":{"text":"(এমন যে) নও","language_name":"bengali","language_id":20},"transliteration":{"text":"ghayra","language_name":"english","language_id":38}},{"id":66520,"position":5,"audio_url":"wbw/056_086_005.mp3","char_type_name":"word","page_number":537,"line_number":5,"text":"مَدِينِينَ","translation":{"text":"অধিনস্ত (কারও)","language_name":"bengali","language_id":20},"transliteration":{"text":"madīnīna","language_name":"english","language_id":38}},{"id":66521,"position":6,"audio_url":null,"char_type_name":"end","page_number":537,"line_number":6,"text":"٨٦","translation":{"text":"(৮৬)","language_name":"bengali","language_id":20},"transliteration":{"text":null,"language_name":"english","language_id":38}}]},{"id":5066,"verse_number":87,"verse_key":"56:87","hizb_number":54,"rub_el_hizb_number":215,"ruku_number":473,"manzil_number":7,"sajdah_number":null,"page_number":537,"juz_number":27,"words":[{"id":66807,"position":1,"audio_url":"wbw/056_087_001.mp3","char_type_name":"word","page_number":537,"line_number":6,"text":"تَرْجِعُونَهَآ","translation":{"text":"তা তোমরা ফিরিয়ে আন","language_name":"bengali","language_id":20},"transliteration":{"text":"tarjiʿūnahā","language_name":"english","language_id":38}},{"id":66808,"position":2,"audio_url":"wbw/056_087_002.mp3","char_type_name":"word","page_number":537,"line_number":6,"text":"إِن","translation":{"text":"যদি","language_name":"bengali","language_id":20},"transliteration":{"text":"in","language_name":"english","language_id":38}},{"id":66809,"position":3,"audio_url":"wbw/056_087_003.mp3","char_type_name":"word","page_number":537,"line_number":6,"text":"كُنتُمْ","translation":{"text":"তোমরা হও","language_name":"bengali","language_id":20},"transliteration":{"text":"kuntum","language_name":"english","language_id":38}},{"id":66810,"position":4,"audio_url":"wbw/056_087_004.mp3","char_type_name":"word","page_number":537,"line_number":6,"text":"صَـٰدِقِينَ","translation":{"text":"সত্যবাদী","language_name":"bengali","language_id":20},"transliteration":{"text":"ṣādiqīna","language_name":"english","language_id":38}},{"id":66811,"position":5,"audio_url":null,"char_type_name":"end","page_number":537,"line_number":6,"text":"٨٧","translation":{"text":"(৮৭)","language_name":"bengali","language_id":20},"transliteration":{"text":null,"language_name":"english","language_id":38}}]},{"id":5067,"verse_number":88,"verse_key":"56:88","hizb_number":54,"rub_el_hizb_number":215,"ruku_number":473,"manzil_number":7,"sajdah_number":null,"page_number":537,"juz_number":27,"words":[{"id":67400,"position":1,"audio_url":"wbw/056_088_001.mp3","char_type_name":"word","page_number":537,"line_number":6,"text":"فَأَمَّآ","translation":{"text":"আর","language_name":"bengali","language_id":20},"transliteration":{"text":"fa-ammā","language_name":"english","language_id":38}},{"id":67401,"position":2,"audio_url":"wbw/056_088_002.mp3","char_type_name":"word","page_number":537,"line_number":6,"text":"إِن","translation":{"text":"যদি","language_name":"bengali","language_id":20},"transliteration":{"text":"in","language_name":"english","language_id":38}},{"id":67402,"position":3,"audio_url":"wbw/056_088_003.mp3","char_type_name":"word","page_number":537,"line_number":6,"text":"كَانَ","translation":{"text":"সে হয়","language_name":"bengali","language_id":20},"transliteration":{"text":"kāna","language_name":"english","language_id":38}},{"id":67403,"position":4,"audio_url":"wbw/056_088_004.mp3","char_type_name":"word","page_number":537,"line_number":6,"text":"مِنَ","translation":{"text":"অন্তর্ভুক্ত","language_name":"bengali","language_id":20},"transliteration":{"text":"mina","language_name":"english","language_id":38}},{"id":67404,"position":5,"audio_url":"wbw/056_088_005.mp3","char_type_name":"word","page_number":537,"line_number":6,"text":"ٱلْمُقَرَّبِينَ","translation":{"text":"নৈকট্য প্রাপ্তদের","language_name":"bengali","language_id":20},"transliteration":{"text":"l-muqarabīna","language_name":"english","language_id":38}},{"id":67405,"position":6,"audio_url":null,"char_type_name":"end","page_number":537,"line_number":7,"text":"٨٨","translation":{"text":"(৮৮)","language_name":"bengali","language_id":20},"transliteration":{"text":null,"language_name":"english","language_id":38}}]},{"id":5068,"verse_number":89,"verse_key":"56:89","hizb_number":54,"rub_el_hizb_number":215,"ruku_number":473,"manzil_number":7,"sajdah_number":null,"page_number":537,"juz_number":27,"words":[{"id":67613,"position":1,"audio_url":"wbw/056_089_001.mp3","char_type_name":"word","page_number":537,"line_number":7,"text":"فَرَوْحٌۭ","translation":{"text":"(তার জন্যে) তবে আরাম","language_name":"bengali","language_id":20},"transliteration":{"text":"farawḥun","language_name":"english","language_id":38}},{"id":67614,"position":2,"audio_url":"wbw/056_089_002.mp3","char_type_name":"word","page_number":537,"line_number":7,"text":"وَرَيْحَانٌۭ","translation":{"text":"ও উত্তম জীবনোপকরণ","language_name":"bengali","language_id":20},"transliteration":{"text":"warayḥānun","language_name":"english","language_id":38}},{"id":67615,"position":3,"audio_url":"wbw/056_089_003.mp3","char_type_name":"word","page_number":537,"line_number":7,"text":"وَجَنَّتُ","translation":{"text":"এবং জন্নাত","language_name":"bengali","language_id":20},"transliteration":{"text":"wajannatu","language_name":"english","language_id":38}},{"id":67616,"position":4,"audio_url":"wbw/056_089_004.mp3","char_type_name":"word","page_number":537,"line_number":7,"text":"نَعِيمٍۢ","translation":{"text":"সুখকর","language_name":"bengali","language_id":20},"transliteration":{"text":"naʿīmin","language_name":"english","language_id":38}},{"id":67617,"position":5,"audio_url":null,"char_type_name":"end","page_number":537,"line_number":7,"text":"٨٩","translation":{"text":"(৮৯)","language_name":"bengali","language_id":20},"transliteration":{"text":null,"language_name":"english","language_id":38}}]},{"id":5069,"verse_number":90,"verse_key":"56:90","hizb_number":54,"rub_el_hizb_number":215,"ruku_number":473,"manzil_number":7,"sajdah_number":null,"page_number":537,"juz_number":27,"words":[{"id":67980,"position":1,"audio_url":"wbw/056_090_001.mp3","char_type_name":"word","page_number":537,"line_number":7,"text":"وَأَمَّآ","translation":{"text":"আর","language_name":"bengali","language_id":20},"transliteration":{"text":"wa-ammā","language_name":"english","language_id":38}},{"id":67981,"position":2,"audio_url":"wbw/056_090_002.mp3","char_type_name":"word","page_number":537,"line_number":7,"text":"إِن","translation":{"text":"যদি","language_name":"bengali","language_id":20},"transliteration":{"text":"in","language_name":"english","language_id":38}},{"id":67982,"position":3,"audio_url":"wbw/056_090_003.mp3","char_type_name":"word","page_number":537,"line_number":7,"text":"كَانَ","translation":{"text":"সে হয়","language_name":"bengali","language_id":20},"transliteration":{"text":"kāna","language_name":"english","language_id":38}},{"id":67983,"position":4,"audio_url":"wbw/056_090_004.mp3","char_type_name":"word","page_number":537,"line_number":7,"text":"مِنْ","translation":{"text":"অন্তর্ভুক্ত","language_name":"bengali","language_id":20},"transliteration":{"text":"min","language_name":"english","language_id":38}},{"id":67984,"position":5,"audio_url":"wbw/056_090_005.mp3","char_type_name":"word","page_number":537,"line_number":7,"text":"أَصْحَـٰبِ","translation":{"text":"লোকদের","language_name":"bengali","language_id":20},"transliteration":{"text":"aṣḥābi","language_name":"english","language_id":38}},{"id":67985,"position":6,"audio_url":"wbw/056_090_006.mp3","char_type_name":"word","page_number":537,"line_number":8,"text":"ٱلْيَمِينِ","translation":{"text":"ডান হাতের","language_name":"bengali","language_id":20},"transliteration":{"text":"l-yamīni","language_name":"english","language_id":38}},{"id":67986,"position":7,"audio_url":null,"char_type_name":"end","page_number":537,"line_number":8,"text":"٩٠","translation":{"text":"(৯০)","language_name":"bengali","language_id":20},"transliteration":{"text":null,"language_name":"english","language_id":38}}]}],"pagination":{"per_page":10,"current_page":9,"next_page":10,"total_pages":10,"total_records":96}}
