{"verses":[{"id":5420,"verse_number":1,"verse_key":"71:1","hizb_number":57,"rub_el_hizb_number":228,"ruku_number":506,"manzil_number":7,"sajdah_number":null,"page_number":570,"juz_number":29,"words":[{"id":599,"position":1,"audio_url":"wbw/071_001_001.mp3","char_type_name":"word","page_number":570,"line_number":7,"text":"إِنَّآ","translation":{"text":"আমরা নিশ্চয়","language_name":"bengali","language_id":20},"transliteration":{"text":"innā","language_name":"english","language_id":38}},{"id":600,"position":2,"audio_url":"wbw/071_001_002.mp3","char_type_name":"word","page_number":570,"line_number":7,"text":"أَرْسَلْنَا","translation":{"text":"আমরা পাঠিয়েছি","language_name":"bengali","language_id":20},"transliteration":{"text":"arsalnā","language_name":"english","language_id":38}},{"id":601,"position":3,"audio_url":"wbw/071_001_003.mp3","char_type_name":"word","page_number":570,"line_number":7,"text":"نُوحًا","translation":{"text":"নূহকে","language_name":"bengali","language_id":20},"transliteration":{"text":"nūḥan","language_name":"english","language_id":38}},{"id":602,"position":4,"audio_url":"wbw/071_001_004.mp3","char_type_name":"word","page_number":570,"line_number":7,"text":"إِلَىٰ","translation":{"text":"প্রতি","language_name":"bengali","language_id":20},"transliteration":{"text":"ilā","language_name":"english","language_id":38}},{"id":603,"position":5,"audio_url":"wbw/071_001_005.mp3","char_type_name":"word","page_number":570,"line_number":7,"text":"قَوْمِهِۦٓ","translation":{"text":"তার জাতির","language_name":"bengali","language_id":20},"transliteration":{"text":"qawmihi","language_name":"english","language_id":38}},{"id":604,"position":6,"audio_url":"wbw/071_001_006.mp3","char_type_name":"word","page_number":570,"line_number":7,"text":"أَنْ","translation":{"text":"যে","language_name":"bengali","language_id":20},"transliteration":{"text":"an","language_name":"english","language_id":38}},{"id":605,"position":7,"audio_url":"wbw/071_001_007.mp3","char_type_name":"word","page_number":570,"line_number":7,"text":"أَنذِرْ","translation":{"text":"\"তুমি সতর্ক কর","language_name":"bengali","language_id":20},"transliteration":{"text":"andhir","language_name":"english","language_id":38}},{"id":606,"position":8,"audio_url":"wbw/071_001_008.mp3","char_type_name":"word","page_number":570,"line_number":7,"text":"قَوْمَكَ","translation":{"text":"তোমার জাতিকে","language_name":"bengali","language_id":20},"transliteration":{"text":"qawmaka","language_name":"english","language_id":38}},{"id":607,"position":9,"audio_url":"wbw/071_001_009.mp3","char_type_name":"word","page_number":570,"line_number":7,"text":"مِن","translation":{"text":"মধ্য হতে","language_name":"bengali","language_id":20},"transliteration":{"text":"min","language_name":"english","language_id":38}},{"id":608,"position":10,"audio_url":"wbw/071_001_010.mp3","char_type_name":"word","page_number":570,"line_number":7,"text":"قَبْلِ","translation":{"text":"পূর্বে","language_name":"bengali","language_id":20},"transliteration":{"text":"qabli","language_name":"english","language_id":38}},{"id":609,"position":11,"audio_url":"wbw/071_001_011.mp3","char_type_name":"word","page_number":570,"line_number":7,"text":"أَن","translation":{"text":"যে","language_name":"bengali","language_id":20},"transliteration":{"text":"an","language_name":"english","language_id":38}},{"id":610,"position":12,"audio_url":"wbw/071_001_012.mp3","char_type_name":"word","page_number":570,"line_number":7,"text":"يَأْتِيَهُمْ","translation":{"text":"তাদের উপর আসবে","language_name":"bengali","language_id":20},"transliteration":{"text":"yatiyahum","language_name":"english","language_id":38}},{"id":611,"position":13,"audio_url":"wbw/071_001_013.mp3","char_type_name":"word","page_number":570,"line_number":8,"text":"عَذَابٌ","translation":{"text":"আযাব","language_name":"bengali","language_id":20},"transliteration":{"text":"ʿadhābun","language_name":"english","language_id":38}},{"id":612,"position":14,"audio_url":"wbw/071_001_014.mp3","char_type_name":"word","page_number":570,"line_number":8,"text":"أَلِيمٌۭ","translation":{"text":"কষ্টদায়ক\"","language_name":"bengali","language_id":20},"transliteration":{"text":"alīmun","language_name":"english","language_id":38}},{"id":613,"position":15,"audio_url":null,"char_type_name":"end","page_number":570,"line_number":8,"text":"١","translation":{"text":"(১)","language_name":"bengali","language_id":20},"transliteration":{"text":null,"language_name":"english","language_id":38}}]},{"id":5421,"verse_number":2,"verse_key":"71:2","hizb_number":57,"rub_el_hizb_number":228,"ruku_number":506,"manzil_number":7,"sajdah_number":null,"page_number":570,"juz_number":29,"words":[{"id":1557,"position":1,"audio_url":"wbw/071_002_001.mp3","char_type_name":"word","page_number":570,"line_number":8,"text":"قَالَ","translation":{"text":"বলেছিল","language_name":"bengali","language_id":20},"transliteration":{"text":"qāla","language_name":"english","language_id":38}},{"id":1558,"position":2,"audio_url":"wbw/071_002_002.mp3","char_type_name":"word","page_number":570,"line_number":8,"text":"يَـٰقَوْمِ","translation":{"text":"\"আমার জাতি হে","language_name":"bengali","language_id":20},"transliteration":{"text":"yāqawmi","language_name":"english","language_id":38}},{"id":1559,"position":3,"audio_url":"wbw/071_002_003.mp3","char_type_name":"word","page_number":570,"line_number":8,"text":"إِنِّى","translation":{"text":"আমি নিশ্চয়","language_name":"bengali","language_id":20},"transliteration":{"text":"innī","language_name":"english","language_id":38}},{"id":1560,"position":4,"audio_url":"wbw/071_002_004.mp3","char_type_name":"word","page_number":570,"line_number":8,"text":"لَكُمْ","translation":{"text":"জন্যে তোমাদের","language_name":"bengali","language_id":20},"transliteration":{"text":"lakum","language_name":"english","language_id":38}},{"id":1561,"position":5,"audio_url":"wbw/071_002_005.mp3","char_type_name":"word","page_number":570,"line_number":8,"text":"نَذِيرٌۭ","translation":{"text":"সতর্ককারী","language_name":"bengali","language_id":20},"transliteration":{"text":"nadhīrun","language_name":"english","language_id":38}},{"id":1562,"position":6,"audio_url":"wbw/071_002_006.mp3","char_type_name":"word","page_number":570,"line_number":8,"text":"مُّبِينٌ","translation":{"text":"সুস্পষ্ট","language_name":"bengali","language_id":20},"transliteration":{"text":"mubīnun","language_name":"english","language_id":38}},{"id":1563,"position":7,"audio_url":null,"char_type_name":"end","page_number":570,"line_number":8,"text":"٢","translation":{"text":"(২)","language_name":"bengali","language_id":20},"transliteration":{"text":null,"language_name":"english","language_id":38}}]},{"id":5422,"verse_number":3,"verse_key":"71:3","hizb_number":57,"rub_el_hizb_number":228,"ruku_number":506,"manzil_number":7,"sajdah_number":null,"page_number":570,"juz_number":29,"words":[{"id":2587,"position":1,"audio_url":"wbw/071_003_001.mp3","char_type_name":"word","page_number":570,"line_number":8,"text":"أَنِ","translation":{"text":"যেন","language_name":"bengali","language_id":20},"transliteration":{"text":"ani","language_name":"english","language_id":38}},{"id":2588,"position":2,"audio_url":"wbw/071_003_002.mp3","char_type_name":"word","page_number":570,"line_number":8,"text":"ٱعْبُدُوا۟","translation":{"text":"তোমরা এবাদত কর","language_name":"bengali","language_id":20},"transliteration":{"text":"uʿ'budū","language_name":"english","language_id":38}},{"id":2589,"position":3,"audio_url":"wbw/071_003_003.mp3","char_type_name":"word","page_number":570,"line_number":9,"text":"ٱللَّهَ","translation":{"text":"আল্লাহর","language_name":"bengali","language_id":20},"transliteration":{"text":"l-laha","language_name":"english","language_id":38}},{"id":2590,"position":4,"audio_url":"wbw/071_003_004.mp3","char_type_name":"word","page_number":570,"line_number":9,"text":"وَٱتَّقُوهُ","translation":{"text":"এবং তাঁকে ভয় কর","language_name":"bengali","language_id":20},"transliteration":{"text":"wa-ittaqūhu","language_name":"english","language_id":38}},{"id":2591,"position":5,"audio_url":"wbw/071_003_005.mp3","char_type_name":"word","page_number":570,"line_number":9,"text":"وَأَطِيعُونِ","translation":{"text":"ও আমার আনুগত্য কর","language_name":"bengali","language_id":20},"transliteration":{"text":"wa-aṭīʿūni","language_name":"english","language_id":38}},{"id":2592,"position":6,"audio_url":null,"char_type_name":"end","page_number":570,"line_number":9,"text":"٣","translation":{"text":"(৩)","language_name":"bengali","language_id":20},"transliteration":{"text":null,"language_name":"english","language_id":38}}]},{"id":5423,"verse_number":4,"verse_key":"71:4","hizb_number":57,"rub_el_hizb_number":228,"ruku_number":506,"manzil_number":7,"sajdah_number":null,"page_number":570,"juz_number":29,"words":[{"id":3998,"position":1,"audio_url":"wbw/071_004_001.mp3","char_type_name":"word","page_number":570,"line_number":9,"text":"يَغْفِرْ","translation":{"text":"মাফ তিনি করবেন","language_name":"bengali","language_id":20},"transliteration":{"text":"yaghfir","language_name":"english","language_id":38}},{"id":3999,"position":2,"audio_url":"wbw/071_004_002.mp3","char_type_name":"word","page_number":570,"line_number":9,"text":"لَكُم","translation":{"text":"তোমাদের জন্য","language_name":"bengali","language_id":20},"transliteration":{"text":"lakum","language_name":"english","language_id":38}},{"id":4000,"position":3,"audio_url":"wbw/071_004_003.mp3","char_type_name":"word","page_number":570,"line_number":9,"text":"مِّن","translation":{"text":"থেকে","language_name":"bengali","language_id":20},"transliteration":{"text":"min","language_name":"english","language_id":38}},{"id":4001,"position":4,"audio_url":"wbw/071_004_004.mp3","char_type_name":"word","page_number":570,"line_number":9,"text":"ذُنُوبِكُمْ","translation":{"text":"তোমাদের গুনাহ সমূহকে","language_name":"bengali","language_id":20},"transliteration":{"text":"dhunūbikum","language_name":"english","language_id":38}},{"id":4002,"position":5,"audio_url":"wbw/071_004_005.mp3","char_type_name":"word","page_number":570,"line_number":9,"text":"وَيُؤَخِّرْكُمْ","translation":{"text":"এবং তোমাদের অবকাশ দেবেন","language_name":"bengali","language_id":20},"transliteration":{"text":"wayu-akhir'kum","language_name":"english","language_id":38}},{"id":4003,"position":6,"audio_url":"wbw/071_004_006.mp3","char_type_name":"word","page_number":570,"line_number":10,"text":"إِلَىٰٓ","translation":{"text":"পর্যন্ত","language_name":"bengali","language_id":20},"transliteration":{"text":"ilā","language_name":"english","language_id":38}},{"id":4004,"position":7,"audio_url":"wbw/071_004_007.mp3","char_type_name":"word","page_number":570,"line_number":10,"text":"أَجَلٍۢ","translation":{"text":"সময়","language_name":"bengali","language_id":20},"transliteration":{"text":"ajalin","language_name":"english","language_id":38}},{"id":4005,"position":8,"audio_url":"wbw/071_004_008.mp3","char_type_name":"word","page_number":570,"line_number":10,"text":"مُّسَمًّى ۚ","translation":{"text":"নির্দিষ্ট","language_name":"bengali","language_id":20},"transliteration":{"text":"musamman","language_name":"english","language_id":38}},{"id":4007,"position":9,"audio_url":"wbw/071_004_010.mp3","char_type_name":"word","page_number":570,"line_number":10,"text":"إِنَّ","translation":{"text":"নিশ্চয়","language_name":"bengali","language_id":20},"transliteration":{"text":"inna","language_name":"english","language_id":38}},{"id":4008,"position":10,"audio_url":"wbw/071_004_011.mp3","char_type_name":"word","page_number":570,"line_number":10,"text":"أَجَلَ","translation":{"text":"নির্দধারিত কাল","language_name":"bengali","language_id":20},"transliteration":{"text":"ajala","language_name":"english","language_id":38}},{"id":4009,"position":11,"audio_url":"wbw/071_004_012.mp3","char_type_name":"word","page_number":570,"line_number":10,"text":"ٱللَّهِ","translation":{"text":"আল্লাহর","language_name":"bengali","language_id":20},"transliteration":{"text":"l-lahi","language_name":"english","language_id":38}},{"id":4010,"position":12,"audio_url":"wbw/071_004_013.mp3","char_type_name":"word","page_number":570,"line_number":10,"text":"إِذَا","translation":{"text":"যখন","language_name":"bengali","language_id":20},"transliteration":{"text":"idhā","language_name":"english","language_id":38}},{"id":4011,"position":13,"audio_url":"wbw/071_004_014.mp3","char_type_name":"word","page_number":570,"line_number":10,"text":"جَآءَ","translation":{"text":"আসে","language_name":"bengali","language_id":20},"transliteration":{"text":"jāa","language_name":"english","language_id":38}},{"id":4012,"position":14,"audio_url":"wbw/071_004_015.mp3","char_type_name":"word","page_number":570,"line_number":10,"text":"لَا","translation":{"text":"না","language_name":"bengali","language_id":20},"transliteration":{"text":"lā","language_name":"english","language_id":38}},{"id":4013,"position":15,"audio_url":"wbw/071_004_016.mp3","char_type_name":"word","page_number":570,"line_number":10,"text":"يُؤَخَّرُ ۖ","translation":{"text":"বিলম্বিত করা হয়","language_name":"bengali","language_id":20},"transliteration":{"text":"yu-akharu","language_name":"english","language_id":38}},{"id":4015,"position":16,"audio_url":"wbw/071_004_018.mp3","char_type_name":"word","page_number":570,"line_number":10,"text":"لَوْ","translation":{"text":"যদি","language_name":"bengali","language_id":20},"transliteration":{"text":"law","language_name":"english","language_id":38}},{"id":4016,"position":17,"audio_url":"wbw/071_004_019.mp3","char_type_name":"word","page_number":570,"line_number":10,"text":"كُنتُمْ","translation":{"text":"তোমরা হতে","language_name":"bengali","language_id":20},"transliteration":{"text":"kuntum","language_name":"english","language_id":38}},{"id":4017,"position":18,"audio_url":"wbw/071_004_020.mp3","char_type_name":"word","page_number":570,"line_number":10,"text":"تَعْلَمُونَ","translation":{"text":"অবগত\"","language_name":"bengali","language_id":20},"transliteration":{"text":"taʿlamūna","language_name":"english","language_id":38}},{"id":4018,"position":19,"audio_url":null,"char_type_name":"end","page_number":570,"line_number":10,"text":"٤","translation":{"text":"(৪)","language_name":"bengali","language_id":20},"transliteration":{"text":null,"language_name":"english","language_id":38}}]},{"id":5424,"verse_number":5,"verse_key":"71:5","hizb_number":57,"rub_el_hizb_number":228,"ruku_number":506,"manzil_number":7,"sajdah_number":null,"page_number":570,"juz_number":29,"words":[{"id":5306,"position":1,"audio_url":"wbw/071_005_001.mp3","char_type_name":"word","page_number":570,"line_number":11,"text":"قَالَ","translation":{"text":"সে বলল","language_name":"bengali","language_id":20},"transliteration":{"text":"qāla","language_name":"english","language_id":38}},{"id":5307,"position":2,"audio_url":"wbw/071_005_002.mp3","char_type_name":"word","page_number":570,"line_number":11,"text":"رَبِّ","translation":{"text":"\"আমার রব হে","language_name":"bengali","language_id":20},"transliteration":{"text":"rabbi","language_name":"english","language_id":38}},{"id":5308,"position":3,"audio_url":"wbw/071_005_003.mp3","char_type_name":"word","page_number":570,"line_number":11,"text":"إِنِّى","translation":{"text":"আমি নিশ্চয়","language_name":"bengali","language_id":20},"transliteration":{"text":"innī","language_name":"english","language_id":38}},{"id":5309,"position":4,"audio_url":"wbw/071_005_004.mp3","char_type_name":"word","page_number":570,"line_number":11,"text":"دَعَوْتُ","translation":{"text":"আমি ডেকেছি","language_name":"bengali","language_id":20},"transliteration":{"text":"daʿawtu","language_name":"english","language_id":38}},{"id":5310,"position":5,"audio_url":"wbw/071_005_005.mp3","char_type_name":"word","page_number":570,"line_number":11,"text":"قَوْمِى","translation":{"text":"আমার জাতিকে","language_name":"bengali","language_id":20},"transliteration":{"text":"qawmī","language_name":"english","language_id":38}},{"id":5311,"position":6,"audio_url":"wbw/071_005_006.mp3","char_type_name":"word","page_number":570,"line_number":11,"text":"لَيْلًۭا","translation":{"text":"রাতে","language_name":"bengali","language_id":20},"transliteration":{"text":"laylan","language_name":"english","language_id":38}},{"id":5312,"position":7,"audio_url":"wbw/071_005_007.mp3","char_type_name":"word","page_number":570,"line_number":11,"text":"وَنَهَارًۭا","translation":{"text":"ও দিনে","language_name":"bengali","language_id":20},"transliteration":{"text":"wanahāran","language_name":"english","language_id":38}},{"id":5313,"position":8,"audio_url":null,"char_type_name":"end","page_number":570,"line_number":11,"text":"٥","translation":{"text":"(৫)","language_name":"bengali","language_id":20},"transliteration":{"text":null,"language_name":"english","language_id":38}}]},{"id":5425,"verse_number":6,"verse_key":"71:6","hizb_number":57,"rub_el_hizb_number":228,"ruku_number":506,"manzil_number":7,"sajdah_number":null,"page_number":570,"juz_number":29,"words":[{"id":6509,"position":1,"audio_url":"wbw/071_006_001.mp3","char_type_name":"word","page_number":570,"line_number":11,"text":"فَلَمْ","translation":{"text":"তাই অতঃপর","language_name":"bengali","language_id":20},"transliteration":{"text":"falam","language_name":"english","language_id":38}},{"id":6510,"position":2,"audio_url":"wbw/071_006_002.mp3","char_type_name":"word","page_number":570,"line_number":11,"text":"يَزِدْهُمْ","translation":{"text":"তাদের বৃদ্ধি পায়","language_name":"bengali","language_id":20},"transliteration":{"text":"yazid'hum","language_name":"english","language_id":38}},{"id":6511,"position":3,"audio_url":"wbw/071_006_003.mp3","char_type_name":"word","page_number":570,"line_number":11,"text":"دُعَآءِىٓ","translation":{"text":"আমার দাকে","language_name":"bengali","language_id":20},"transliteration":{"text":"duʿāī","language_name":"english","language_id":38}},{"id":6512,"position":4,"audio_url":"wbw/071_006_004.mp3","char_type_name":"word","page_number":570,"line_number":11,"text":"إِلَّا","translation":{"text":"ছাড়া","language_name":"bengali","language_id":20},"transliteration":{"text":"illā","language_name":"english","language_id":38}},{"id":6513,"position":5,"audio_url":"wbw/071_006_005.mp3","char_type_name":"word","page_number":570,"line_number":12,"text":"فِرَارًۭا","translation":{"text":"পলায়ন","language_name":"bengali","language_id":20},"transliteration":{"text":"firāran","language_name":"english","language_id":38}},{"id":6514,"position":6,"audio_url":null,"char_type_name":"end","page_number":570,"line_number":12,"text":"٦","translation":{"text":"(৬)","language_name":"bengali","language_id":20},"transliteration":{"text":null,"language_name":"english","language_id":38}}]},{"id":5426,"verse_number":7,"verse_key":"71:7","hizb_number":57,"rub_el_hizb_number":228,"ruku_number":506,"manzil_number":7,"sajdah_number":null,"page_number":570,"juz_number":29,"words":[{"id":7915,"position":1,"audio_url":"wbw/071_007_001.mp3","char_type_name":"word","page_number":570,"line_number":12,"text":"وَإِنِّى","translation":{"text":"এবং আমি নিশ্চয়","language_name":"bengali","language_id":20},"transliteration":{"text":"wa-innī","language_name":"english","language_id":38}},{"id":7916,"position":2,"audio_url":"wbw/071_007_002.mp3","char_type_name":"word","page_number":570,"line_number":12,"text":"كُلَّمَا","translation":{"text":"যখনই","language_name":"bengali","language_id":20},"transliteration":{"text":"kullamā","language_name":"english","language_id":38}},{"id":7917,"position":3,"audio_url":"wbw/071_007_003.mp3","char_type_name":"word","page_number":570,"line_number":12,"text":"دَعَوْتُهُمْ","translation":{"text":"তাদের আমি দেকেছি","language_name":"bengali","language_id":20},"transliteration":{"text":"daʿawtuhum","language_name":"english","language_id":38}},{"id":7918,"position":4,"audio_url":"wbw/071_007_004.mp3","char_type_name":"word","page_number":570,"line_number":12,"text":"لِتَغْفِرَ","translation":{"text":"তুমি মাফ যাতে কর","language_name":"bengali","language_id":20},"transliteration":{"text":"litaghfira","language_name":"english","language_id":38}},{"id":7919,"position":5,"audio_url":"wbw/071_007_005.mp3","char_type_name":"word","page_number":570,"line_number":12,"text":"لَهُمْ","translation":{"text":"তাদেরকে","language_name":"bengali","language_id":20},"transliteration":{"text":"lahum","language_name":"english","language_id":38}},{"id":7920,"position":6,"audio_url":"wbw/071_007_006.mp3","char_type_name":"word","page_number":570,"line_number":12,"text":"جَعَلُوٓا۟","translation":{"text":"তারা রেখেছিল","language_name":"bengali","language_id":20},"transliteration":{"text":"jaʿalū","language_name":"english","language_id":38}},{"id":7921,"position":7,"audio_url":"wbw/071_007_007.mp3","char_type_name":"word","page_number":570,"line_number":12,"text":"أَصَـٰبِعَهُمْ","translation":{"text":"তাদের আংগুলগুলোকে","language_name":"bengali","language_id":20},"transliteration":{"text":"aṣābiʿahum","language_name":"english","language_id":38}},{"id":7922,"position":8,"audio_url":"wbw/071_007_008.mp3","char_type_name":"word","page_number":570,"line_number":12,"text":"فِىٓ","translation":{"text":"মধ্যে","language_name":"bengali","language_id":20},"transliteration":{"text":"fī","language_name":"english","language_id":38}},{"id":7923,"position":9,"audio_url":"wbw/071_007_009.mp3","char_type_name":"word","page_number":570,"line_number":13,"text":"ءَاذَانِهِمْ","translation":{"text":"তাদের কানগুলোর","language_name":"bengali","language_id":20},"transliteration":{"text":"ādhānihim","language_name":"english","language_id":38}},{"id":7924,"position":10,"audio_url":"wbw/071_007_010.mp3","char_type_name":"word","page_number":570,"line_number":13,"text":"وَٱسْتَغْشَوْا۟","translation":{"text":"ও তারা ঢেকেছে","language_name":"bengali","language_id":20},"transliteration":{"text":"wa-is'taghshaw","language_name":"english","language_id":38}},{"id":7925,"position":11,"audio_url":"wbw/071_007_011.mp3","char_type_name":"word","page_number":570,"line_number":13,"text":"ثِيَابَهُمْ","translation":{"text":"তাদের কাপড় (দ্বারা)","language_name":"bengali","language_id":20},"transliteration":{"text":"thiyābahum","language_name":"english","language_id":38}},{"id":7926,"position":12,"audio_url":"wbw/071_007_012.mp3","char_type_name":"word","page_number":570,"line_number":13,"text":"وَأَصَرُّوا۟","translation":{"text":"ও অনমনীয় হয়েছে","language_name":"bengali","language_id":20},"transliteration":{"text":"wa-aṣarrū","language_name":"english","language_id":38}},{"id":7927,"position":13,"audio_url":"wbw/071_007_013.mp3","char_type_name":"word","page_number":570,"line_number":13,"text":"وَٱسْتَكْبَرُوا۟","translation":{"text":"এবং অহংকার করেছে","language_name":"bengali","language_id":20},"transliteration":{"text":"wa-is'takbarū","language_name":"english","language_id":38}},{"id":7928,"position":14,"audio_url":"wbw/071_007_014.mp3","char_type_name":"word","page_number":570,"line_number":13,"text":"ٱسْتِكْبَارًۭا","translation":{"text":"বড়ই অহংকার","language_name":"bengali","language_id":20},"transliteration":{"text":"is'tik'bāran","language_name":"english","language_id":38}},{"id":7929,"position":15,"audio_url":null,"char_type_name":"end","page_number":570,"line_number":14,"text":"٧","translation":{"text":"(৭)","language_name":"bengali","language_id":20},"transliteration":{"text":null,"language_name":"english","language_id":38}}]},{"id":5427,"verse_number":8,"verse_key":"71:8","hizb_number":57,"rub_el_hizb_number":228,"ruku_number":506,"manzil_number":7,"sajdah_number":null,"page_number":570,"juz_number":29,"words":[{"id":9092,"position":1,"audio_url":"wbw/071_008_001.mp3","char_type_name":"word","page_number":570,"line_number":14,"text":"ثُمَّ","translation":{"text":"অতঃপর","language_name":"bengali","language_id":20},"transliteration":{"text":"thumma","language_name":"english","language_id":38}},{"id":9093,"position":2,"audio_url":"wbw/071_008_002.mp3","char_type_name":"word","page_number":570,"line_number":14,"text":"إِنِّى","translation":{"text":"আমি নিশ্চয়","language_name":"bengali","language_id":20},"transliteration":{"text":"innī","language_name":"english","language_id":38}},{"id":9094,"position":3,"audio_url":"wbw/071_008_003.mp3","char_type_name":"word","page_number":570,"line_number":14,"text":"دَعَوْتُهُمْ","translation":{"text":"তাদের ডেকেছি","language_name":"bengali","language_id":20},"transliteration":{"text":"daʿawtuhum","language_name":"english","language_id":38}},{"id":9095,"position":4,"audio_url":"wbw/071_008_004.mp3","char_type_name":"word","page_number":570,"line_number":14,"text":"جِهَارًۭا","translation":{"text":"প্রকাশ্যে","language_name":"bengali","language_id":20},"transliteration":{"text":"jihāran","language_name":"english","language_id":38}},{"id":9096,"position":5,"audio_url":null,"char_type_name":"end","page_number":570,"line_number":14,"text":"٨","translation":{"text":"(৮)","language_name":"bengali","language_id":20},"transliteration":{"text":null,"language_name":"english","language_id":38}}]},{"id":5428,"verse_number":9,"verse_key":"71:9","hizb_number":57,"rub_el_hizb_number":228,"ruku_number":506,"manzil_number":7,"sajdah_number":null,"page_number":570,"juz_number":29,"words":[{"id":10305,"position":1,"audio_url":"wbw/071_009_001.mp3","char_type_name":"word","page_number":570,"line_number":14,"text":"ثُمَّ","translation":{"text":"এরপর","language_name":"bengali","language_id":20},"transliteration":{"text":"thumma","language_name":"english","language_id":38}},{"id":10306,"position":2,"audio_url":"wbw/071_009_002.mp3","char_type_name":"word","page_number":570,"line_number":14,"text":"إِنِّىٓ","translation":{"text":"আমি নিশ্চয়","language_name":"bengali","language_id":20},"transliteration":{"text":"innī","language_name":"english","language_id":38}},{"id":10307,"position":3,"audio_url":"wbw/071_009_003.mp3","char_type_name":"word","page_number":570,"line_number":14,"text":"أَعْلَنتُ","translation":{"text":"আমি ঘোষণা দিয়াছি","language_name":"bengali","language_id":20},"transliteration":{"text":"aʿlantu","language_name":"english","language_id":38}},{"id":10308,"position":4,"audio_url":"wbw/071_009_004.mp3","char_type_name":"word","page_number":570,"line_number":14,"text":"لَهُمْ","translation":{"text":"তাদের জন্যে","language_name":"bengali","language_id":20},"transliteration":{"text":"lahum","language_name":"english","language_id":38}},{"id":10309,"position":5,"audio_url":"wbw/071_009_005.mp3","char_type_name":"word","page_number":570,"line_number":14,"text":"وَأَسْرَرْتُ","translation":{"text":"এবং আমি গোপনে বলেছি","language_name":"bengali","language_id":20},"transliteration":{"text":"wa-asrartu","language_name":"english","language_id":38}},{"id":10310,"position":6,"audio_url":"wbw/071_009_006.mp3","char_type_name":"word","page_number":570,"line_number":15,"text":"لَهُمْ","translation":{"text":"তাদেরকে","language_name":"bengali","language_id":20},"transliteration":{"text":"lahum","language_name":"english","language_id":38}},{"id":10311,"position":7,"audio_url":"wbw/071_009_007.mp3","char_type_name":"word","page_number":570,"line_number":15,"text":"إِسْرَارًۭا","translation":{"text":"গোপনে বলা","language_name":"bengali","language_id":20},"transliteration":{"text":"is'rāran","language_name":"english","language_id":38}},{"id":10312,"position":8,"audio_url":null,"char_type_name":"end","page_number":570,"line_number":15,"text":"٩","translation":{"text":"(৯)","language_name":"bengali","language_id":20},"transliteration":{"text":null,"language_name":"english","language_id":38}}]},{"id":5429,"verse_number":10,"verse_key":"71:10","hizb_number":57,"rub_el_hizb_number":228,"ruku_number":506,"manzil_number":7,"sajdah_number":null,"page_number":570,"juz_number":29,"words":[{"id":11535,"position":1,"audio_url":"wbw/071_010_001.mp3","char_type_name":"word","page_number":570,"line_number":15,"text":"فَقُلْتُ","translation":{"text":"আমি বলেছি অতঃপর","language_name":"bengali","language_id":20},"transliteration":{"text":"faqul'tu","language_name":"english","language_id":38}},{"id":11536,"position":2,"audio_url":"wbw/071_010_002.mp3","char_type_name":"word","page_number":570,"line_number":15,"text":"ٱسْتَغْفِرُوا۟","translation":{"text":"\"তোমরা মাফ চাও","language_name":"bengali","language_id":20},"transliteration":{"text":"is'taghfirū","language_name":"english","language_id":38}},{"id":11537,"position":3,"audio_url":"wbw/071_010_003.mp3","char_type_name":"word","page_number":570,"line_number":15,"text":"رَبَّكُمْ","translation":{"text":"তোমাদের রবের (কাছে)","language_name":"bengali","language_id":20},"transliteration":{"text":"rabbakum","language_name":"english","language_id":38}},{"id":11538,"position":4,"audio_url":"wbw/071_010_004.mp3","char_type_name":"word","page_number":570,"line_number":15,"text":"إِنَّهُۥ","translation":{"text":"তিনি নিশ্চয়","language_name":"bengali","language_id":20},"transliteration":{"text":"innahu","language_name":"english","language_id":38}},{"id":11539,"position":5,"audio_url":"wbw/071_010_005.mp3","char_type_name":"word","page_number":570,"line_number":15,"text":"كَانَ","translation":{"text":"হলেন","language_name":"bengali","language_id":20},"transliteration":{"text":"kāna","language_name":"english","language_id":38}},{"id":11540,"position":6,"audio_url":"wbw/071_010_006.mp3","char_type_name":"word","page_number":570,"line_number":15,"text":"غَفَّارًۭا","translation":{"text":"বড় ক্ষমাশীল","language_name":"bengali","language_id":20},"transliteration":{"text":"ghaffāran","language_name":"english","language_id":38}},{"id":11541,"position":7,"audio_url":null,"char_type_name":"end","page_number":570,"line_number":15,"text":"١٠","translation":{"text":"(১০)","language_name":"bengali","language_id":20},"transliteration":{"text":null,"language_name":"english","language_id":38}}]}],"pagination":{"per_page":10,"current_page":1,"next_page":2,"total_pages":3,"total_records":28}}
