{"verses":[{"id":5430,"verse_number":11,"verse_key":"71:11","hizb_number":57,"rub_el_hizb_number":228,"ruku_number":506,"manzil_number":7,"sajdah_number":null,"page_number":571,"juz_number":29,"words":[{"id":12854,"position":1,"audio_url":"wbw/071_011_001.mp3","char_type_name":"word","page_number":571,"line_number":1,"text":"يُرْسِلِ","translation":{"text":"পাঠাবেন তিনি","language_name":"bengali","language_id":20},"transliteration":{"text":"yur'sili","language_name":"english","language_id":38}},{"id":12855,"position":2,"audio_url":"wbw/071_011_002.mp3","char_type_name":"word","page_number":571,"line_number":1,"text":"ٱلسَّمَآءَ","translation":{"text":"আকাশ (থেকে)","language_name":"bengali","language_id":20},"transliteration":{"text":"l-samāa","language_name":"english","language_id":38}},{"id":12856,"position":3,"audio_url":"wbw/071_011_003.mp3","char_type_name":"word","page_number":571,"line_number":1,"text":"عَلَيْكُم","translation":{"text":"তোমাদের উপর","language_name":"bengali","language_id":20},"transliteration":{"text":"ʿalaykum","language_name":"english","language_id":38}},{"id":12857,"position":4,"audio_url":"wbw/071_011_004.mp3","char_type_name":"word","page_number":571,"line_number":1,"text":"مِّدْرَارًۭا","translation":{"text":"বৃষ্টি","language_name":"bengali","language_id":20},"transliteration":{"text":"mid'rāran","language_name":"english","language_id":38}},{"id":12858,"position":5,"audio_url":null,"char_type_name":"end","page_number":571,"line_number":1,"text":"١١","translation":{"text":"(১১)","language_name":"bengali","language_id":20},"transliteration":{"text":null,"language_name":"english","language_id":38}}]},{"id":5431,"verse_number":12,"verse_key":"71:12","hizb_number":57,"rub_el_hizb_number":228,"ruku_number":506,"manzil_number":7,"sajdah_number":null,"page_number":571,"juz_number":29,"words":[{"id":14104,"position":1,"audio_url":"wbw/071_012_001.mp3","char_type_name":"word","page_number":571,"line_number":1,"text":"وَيُمْدِدْكُم","translation":{"text":"এবং তোমাদের সাহায্য করবেন","language_name":"bengali","language_id":20},"transliteration":{"text":"wayum'did'kum","language_name":"english","language_id":38}},{"id":14105,"position":2,"audio_url":"wbw/071_012_002.mp3","char_type_name":"word","page_number":571,"line_number":1,"text":"بِأَمْوَٰلٍۢ","translation":{"text":"মালসমূহ দিয়ে","language_name":"bengali","language_id":20},"transliteration":{"text":"bi-amwālin","language_name":"english","language_id":38}},{"id":14106,"position":3,"audio_url":"wbw/071_012_003.mp3","char_type_name":"word","page_number":571,"line_number":1,"text":"وَبَنِينَ","translation":{"text":"ও সন্তান সন্ততি দিয়ে","language_name":"bengali","language_id":20},"transliteration":{"text":"wabanīna","language_name":"english","language_id":38}},{"id":14107,"position":4,"audio_url":"wbw/071_012_004.mp3","char_type_name":"word","page_number":571,"line_number":1,"text":"وَيَجْعَل","translation":{"text":"এবং সৃষ্টি করবেন","language_name":"bengali","language_id":20},"transliteration":{"text":"wayajʿal","language_name":"english","language_id":38}},{"id":14108,"position":5,"audio_url":"wbw/071_012_005.mp3","char_type_name":"word","page_number":571,"line_number":2,"text":"لَّكُمْ","translation":{"text":"তোমাদের জন্যে","language_name":"bengali","language_id":20},"transliteration":{"text":"lakum","language_name":"english","language_id":38}},{"id":14109,"position":6,"audio_url":"wbw/071_012_006.mp3","char_type_name":"word","page_number":571,"line_number":2,"text":"جَنَّـٰتٍۢ","translation":{"text":"বাগবাগিচাসমূহ","language_name":"bengali","language_id":20},"transliteration":{"text":"jannātin","language_name":"english","language_id":38}},{"id":14110,"position":7,"audio_url":"wbw/071_012_007.mp3","char_type_name":"word","page_number":571,"line_number":2,"text":"وَيَجْعَل","translation":{"text":"ও বানাবেন","language_name":"bengali","language_id":20},"transliteration":{"text":"wayajʿal","language_name":"english","language_id":38}},{"id":14111,"position":8,"audio_url":"wbw/071_012_008.mp3","char_type_name":"word","page_number":571,"line_number":2,"text":"لَّكُمْ","translation":{"text":"তোমাদের জন্যে","language_name":"bengali","language_id":20},"transliteration":{"text":"lakum","language_name":"english","language_id":38}},{"id":14112,"position":9,"audio_url":"wbw/071_012_009.mp3","char_type_name":"word","page_number":571,"line_number":2,"text":"أَنْهَـٰرًۭا","translation":{"text":"ঝর্ণাসমূহ","language_name":"bengali","language_id":20},"transliteration":{"text":"anhāran","language_name":"english","language_id":38}},{"id":14113,"position":10,"audio_url":null,"char_type_name":"end","page_number":571,"line_number":2,"text":"١٢","translation":{"text":"(১২)","language_name":"bengali","language_id":20},"transliteration":{"text":null,"language_name":"english","language_id":38}}]},{"id":5432,"verse_number":13,"verse_key":"71:13","hizb_number":57,"rub_el_hizb_number":228,"ruku_number":506,"manzil_number":7,"sajdah_number":null,"page_number":571,"juz_number":29,"words":[{"id":15231,"position":1,"audio_url":"wbw/071_013_001.mp3","char_type_name":"word","page_number":571,"line_number":2,"text":"مَّا","translation":{"text":"কী হয়েছে","language_name":"bengali","language_id":20},"transliteration":{"text":"mā","language_name":"english","language_id":38}},{"id":15232,"position":2,"audio_url":"wbw/071_013_002.mp3","char_type_name":"word","page_number":571,"line_number":2,"text":"لَكُمْ","translation":{"text":"তোমাদের","language_name":"bengali","language_id":20},"transliteration":{"text":"lakum","language_name":"english","language_id":38}},{"id":15233,"position":3,"audio_url":"wbw/071_013_003.mp3","char_type_name":"word","page_number":571,"line_number":2,"text":"لَا","translation":{"text":"না","language_name":"bengali","language_id":20},"transliteration":{"text":"lā","language_name":"english","language_id":38}},{"id":15234,"position":4,"audio_url":"wbw/071_013_004.mp3","char_type_name":"word","page_number":571,"line_number":2,"text":"تَرْجُونَ","translation":{"text":"তোমরা আশা কর","language_name":"bengali","language_id":20},"transliteration":{"text":"tarjūna","language_name":"english","language_id":38}},{"id":15235,"position":5,"audio_url":"wbw/071_013_005.mp3","char_type_name":"word","page_number":571,"line_number":2,"text":"لِلَّهِ","translation":{"text":"আল্লাহর জন্যে","language_name":"bengali","language_id":20},"transliteration":{"text":"lillahi","language_name":"english","language_id":38}},{"id":15236,"position":6,"audio_url":"wbw/071_013_006.mp3","char_type_name":"word","page_number":571,"line_number":2,"text":"وَقَارًۭا","translation":{"text":"মর্যাদা","language_name":"bengali","language_id":20},"transliteration":{"text":"waqāran","language_name":"english","language_id":38}},{"id":15237,"position":7,"audio_url":null,"char_type_name":"end","page_number":571,"line_number":2,"text":"١٣","translation":{"text":"(১৩)","language_name":"bengali","language_id":20},"transliteration":{"text":null,"language_name":"english","language_id":38}}]},{"id":5433,"verse_number":14,"verse_key":"71:14","hizb_number":57,"rub_el_hizb_number":228,"ruku_number":506,"manzil_number":7,"sajdah_number":null,"page_number":571,"juz_number":29,"words":[{"id":16263,"position":1,"audio_url":"wbw/071_014_001.mp3","char_type_name":"word","page_number":571,"line_number":3,"text":"وَقَدْ","translation":{"text":"এবং নিশ্চয়","language_name":"bengali","language_id":20},"transliteration":{"text":"waqad","language_name":"english","language_id":38}},{"id":16264,"position":2,"audio_url":"wbw/071_014_002.mp3","char_type_name":"word","page_number":571,"line_number":3,"text":"خَلَقَكُمْ","translation":{"text":"তোমাদের তিনি সৃষ্টি করেছেন","language_name":"bengali","language_id":20},"transliteration":{"text":"khalaqakum","language_name":"english","language_id":38}},{"id":16265,"position":3,"audio_url":"wbw/071_014_003.mp3","char_type_name":"word","page_number":571,"line_number":3,"text":"أَطْوَارًا","translation":{"text":"পর্যায়ক্রমে","language_name":"bengali","language_id":20},"transliteration":{"text":"aṭwāran","language_name":"english","language_id":38}},{"id":16266,"position":4,"audio_url":null,"char_type_name":"end","page_number":571,"line_number":3,"text":"١٤","translation":{"text":"(১৪)","language_name":"bengali","language_id":20},"transliteration":{"text":null,"language_name":"english","language_id":38}}]},{"id":5434,"verse_number":15,"verse_key":"71:15","hizb_number":57,"rub_el_hizb_number":228,"ruku_number":506,"manzil_number":7,"sajdah_number":null,"page_number":571,"juz_number":29,"words":[{"id":17457,"position":1,"audio_url":"wbw/071_015_001.mp3","char_type_name":"word","page_number":571,"line_number":3,"text":"أَلَمْ","translation":{"text":"নাই কি","language_name":"bengali","language_id":20},"transliteration":{"text":"alam","language_name":"english","language_id":38}},{"id":17458,"position":2,"audio_url":"wbw/071_015_002.mp3","char_type_name":"word","page_number":571,"line_number":3,"text":"تَرَوْا۟","translation":{"text":"তোমরা দেখ","language_name":"bengali","language_id":20},"transliteration":{"text":"taraw","language_name":"english","language_id":38}},{"id":17459,"position":3,"audio_url":"wbw/071_015_003.mp3","char_type_name":"word","page_number":571,"line_number":3,"text":"كَيْفَ","translation":{"text":"কেমনে","language_name":"bengali","language_id":20},"transliteration":{"text":"kayfa","language_name":"english","language_id":38}},{"id":17460,"position":4,"audio_url":"wbw/071_015_004.mp3","char_type_name":"word","page_number":571,"line_number":3,"text":"خَلَقَ","translation":{"text":"সৃষ্টি করেছেন","language_name":"bengali","language_id":20},"transliteration":{"text":"khalaqa","language_name":"english","language_id":38}},{"id":17461,"position":5,"audio_url":"wbw/071_015_005.mp3","char_type_name":"word","page_number":571,"line_number":3,"text":"ٱللَّهُ","translation":{"text":"আল্লাহ","language_name":"bengali","language_id":20},"transliteration":{"text":"l-lahu","language_name":"english","language_id":38}},{"id":17462,"position":6,"audio_url":"wbw/071_015_006.mp3","char_type_name":"word","page_number":571,"line_number":3,"text":"سَبْعَ","translation":{"text":"সাত","language_name":"bengali","language_id":20},"transliteration":{"text":"sabʿa","language_name":"english","language_id":38}},{"id":17463,"position":7,"audio_url":"wbw/071_015_007.mp3","char_type_name":"word","page_number":571,"line_number":3,"text":"سَمَـٰوَٰتٍۢ","translation":{"text":"আসমান","language_name":"bengali","language_id":20},"transliteration":{"text":"samāwātin","language_name":"english","language_id":38}},{"id":17464,"position":8,"audio_url":"wbw/071_015_008.mp3","char_type_name":"word","page_number":571,"line_number":4,"text":"طِبَاقًۭا","translation":{"text":"স্তরে স্তরে","language_name":"bengali","language_id":20},"transliteration":{"text":"ṭibāqan","language_name":"english","language_id":38}},{"id":17465,"position":9,"audio_url":null,"char_type_name":"end","page_number":571,"line_number":4,"text":"١٥","translation":{"text":"(১৫)","language_name":"bengali","language_id":20},"transliteration":{"text":null,"language_name":"english","language_id":38}}]},{"id":5435,"verse_number":16,"verse_key":"71:16","hizb_number":57,"rub_el_hizb_number":228,"ruku_number":506,"manzil_number":7,"sajdah_number":null,"page_number":571,"juz_number":29,"words":[{"id":18508,"position":1,"audio_url":"wbw/071_016_001.mp3","char_type_name":"word","page_number":571,"line_number":4,"text":"وَجَعَلَ","translation":{"text":"এবং বানিয়েছেন","language_name":"bengali","language_id":20},"transliteration":{"text":"wajaʿala","language_name":"english","language_id":38}},{"id":18509,"position":2,"audio_url":"wbw/071_016_002.mp3","char_type_name":"word","page_number":571,"line_number":4,"text":"ٱلْقَمَرَ","translation":{"text":"চাঁদকে","language_name":"bengali","language_id":20},"transliteration":{"text":"l-qamara","language_name":"english","language_id":38}},{"id":18510,"position":3,"audio_url":"wbw/071_016_003.mp3","char_type_name":"word","page_number":571,"line_number":4,"text":"فِيهِنَّ","translation":{"text":"তার মধ্যে","language_name":"bengali","language_id":20},"transliteration":{"text":"fīhinna","language_name":"english","language_id":38}},{"id":18511,"position":4,"audio_url":"wbw/071_016_004.mp3","char_type_name":"word","page_number":571,"line_number":4,"text":"نُورًۭا","translation":{"text":"আলো","language_name":"bengali","language_id":20},"transliteration":{"text":"nūran","language_name":"english","language_id":38}},{"id":18512,"position":5,"audio_url":"wbw/071_016_005.mp3","char_type_name":"word","page_number":571,"line_number":4,"text":"وَجَعَلَ","translation":{"text":"এবং বানিয়েছেন","language_name":"bengali","language_id":20},"transliteration":{"text":"wajaʿala","language_name":"english","language_id":38}},{"id":18513,"position":6,"audio_url":"wbw/071_016_006.mp3","char_type_name":"word","page_number":571,"line_number":4,"text":"ٱلشَّمْسَ","translation":{"text":"সূর্যকে","language_name":"bengali","language_id":20},"transliteration":{"text":"l-shamsa","language_name":"english","language_id":38}},{"id":18514,"position":7,"audio_url":"wbw/071_016_007.mp3","char_type_name":"word","page_number":571,"line_number":4,"text":"سِرَاجًۭا","translation":{"text":"প্রদীপ রূপে","language_name":"bengali","language_id":20},"transliteration":{"text":"sirājan","language_name":"english","language_id":38}},{"id":18515,"position":8,"audio_url":null,"char_type_name":"end","page_number":571,"line_number":4,"text":"١٦","translation":{"text":"(১৬)","language_name":"bengali","language_id":20},"transliteration":{"text":null,"language_name":"english","language_id":38}}]},{"id":5436,"verse_number":17,"verse_key":"71:17","hizb_number":57,"rub_el_hizb_number":228,"ruku_number":506,"manzil_number":7,"sajdah_number":null,"page_number":571,"juz_number":29,"words":[{"id":19527,"position":1,"audio_url":"wbw/071_017_001.mp3","char_type_name":"word","page_number":571,"line_number":5,"text":"وَٱللَّهُ","translation":{"text":"এবং আল্লাহ","language_name":"bengali","language_id":20},"transliteration":{"text":"wal-lahu","language_name":"english","language_id":38}},{"id":19528,"position":2,"audio_url":"wbw/071_017_002.mp3","char_type_name":"word","page_number":571,"line_number":5,"text":"أَنۢبَتَكُم","translation":{"text":"তোমাদের উদ্ভুত করেছেন","language_name":"bengali","language_id":20},"transliteration":{"text":"anbatakum","language_name":"english","language_id":38}},{"id":19529,"position":3,"audio_url":"wbw/071_017_003.mp3","char_type_name":"word","page_number":571,"line_number":5,"text":"مِّنَ","translation":{"text":"থেকে","language_name":"bengali","language_id":20},"transliteration":{"text":"mina","language_name":"english","language_id":38}},{"id":19530,"position":4,"audio_url":"wbw/071_017_004.mp3","char_type_name":"word","page_number":571,"line_number":5,"text":"ٱلْأَرْضِ","translation":{"text":"মৃত্তিকা","language_name":"bengali","language_id":20},"transliteration":{"text":"l-arḍi","language_name":"english","language_id":38}},{"id":19531,"position":5,"audio_url":"wbw/071_017_005.mp3","char_type_name":"word","page_number":571,"line_number":5,"text":"نَبَاتًۭا","translation":{"text":"(বিস্ময়করভাবে উদ্ভুত)","language_name":"bengali","language_id":20},"transliteration":{"text":"nabātan","language_name":"english","language_id":38}},{"id":19532,"position":6,"audio_url":null,"char_type_name":"end","page_number":571,"line_number":5,"text":"١٧","translation":{"text":"(১৭)","language_name":"bengali","language_id":20},"transliteration":{"text":null,"language_name":"english","language_id":38}}]},{"id":5437,"verse_number":18,"verse_key":"71:18","hizb_number":57,"rub_el_hizb_number":228,"ruku_number":506,"manzil_number":7,"sajdah_number":null,"page_number":571,"juz_number":29,"words":[{"id":20603,"position":1,"audio_url":"wbw/071_018_001.mp3","char_type_name":"word","page_number":571,"line_number":5,"text":"ثُمَّ","translation":{"text":"এরপর","language_name":"bengali","language_id":20},"transliteration":{"text":"thumma","language_name":"english","language_id":38}},{"id":20604,"position":2,"audio_url":"wbw/071_018_002.mp3","char_type_name":"word","page_number":571,"line_number":5,"text":"يُعِيدُكُمْ","translation":{"text":"তোমাদের ফিরিয়ে নেবেন","language_name":"bengali","language_id":20},"transliteration":{"text":"yuʿīdukum","language_name":"english","language_id":38}},{"id":20605,"position":3,"audio_url":"wbw/071_018_003.mp3","char_type_name":"word","page_number":571,"line_number":5,"text":"فِيهَا","translation":{"text":"তার মধ্যে","language_name":"bengali","language_id":20},"transliteration":{"text":"fīhā","language_name":"english","language_id":38}},{"id":20606,"position":4,"audio_url":"wbw/071_018_004.mp3","char_type_name":"word","page_number":571,"line_number":5,"text":"وَيُخْرِجُكُمْ","translation":{"text":"এবং তোমাদেরকে বের করবেন","language_name":"bengali","language_id":20},"transliteration":{"text":"wayukh'rijukum","language_name":"english","language_id":38}},{"id":20607,"position":5,"audio_url":"wbw/071_018_005.mp3","char_type_name":"word","page_number":571,"line_number":6,"text":"إِخْرَاجًۭا","translation":{"text":"(সম্পূর্ণরূপে) বহিষ্কার","language_name":"bengali","language_id":20},"transliteration":{"text":"ikh'rājan","language_name":"english","language_id":38}},{"id":20608,"position":6,"audio_url":null,"char_type_name":"end","page_number":571,"line_number":6,"text":"١٨","translation":{"text":"(১৮)","language_name":"bengali","language_id":20},"transliteration":{"text":null,"language_name":"english","language_id":38}}]},{"id":5438,"verse_number":19,"verse_key":"71:19","hizb_number":57,"rub_el_hizb_number":228,"ruku_number":506,"manzil_number":7,"sajdah_number":null,"page_number":571,"juz_number":29,"words":[{"id":21665,"position":1,"audio_url":"wbw/071_019_001.mp3","char_type_name":"word","page_number":571,"line_number":6,"text":"وَٱللَّهُ","translation":{"text":"এবং আল্লাহ","language_name":"bengali","language_id":20},"transliteration":{"text":"wal-lahu","language_name":"english","language_id":38}},{"id":21666,"position":2,"audio_url":"wbw/071_019_002.mp3","char_type_name":"word","page_number":571,"line_number":6,"text":"جَعَلَ","translation":{"text":"বানিয়েছেন","language_name":"bengali","language_id":20},"transliteration":{"text":"jaʿala","language_name":"english","language_id":38}},{"id":21667,"position":3,"audio_url":"wbw/071_019_003.mp3","char_type_name":"word","page_number":571,"line_number":6,"text":"لَكُمُ","translation":{"text":"তোমাদের জন্যে","language_name":"bengali","language_id":20},"transliteration":{"text":"lakumu","language_name":"english","language_id":38}},{"id":21668,"position":4,"audio_url":"wbw/071_019_004.mp3","char_type_name":"word","page_number":571,"line_number":6,"text":"ٱلْأَرْضَ","translation":{"text":"যমীনকে","language_name":"bengali","language_id":20},"transliteration":{"text":"l-arḍa","language_name":"english","language_id":38}},{"id":21669,"position":5,"audio_url":"wbw/071_019_005.mp3","char_type_name":"word","page_number":571,"line_number":6,"text":"بِسَاطًۭا","translation":{"text":"বিছানারুপে","language_name":"bengali","language_id":20},"transliteration":{"text":"bisāṭan","language_name":"english","language_id":38}},{"id":21670,"position":6,"audio_url":null,"char_type_name":"end","page_number":571,"line_number":6,"text":"١٩","translation":{"text":"(১৯)","language_name":"bengali","language_id":20},"transliteration":{"text":null,"language_name":"english","language_id":38}}]},{"id":5439,"verse_number":20,"verse_key":"71:20","hizb_number":57,"rub_el_hizb_number":228,"ruku_number":506,"manzil_number":7,"sajdah_number":null,"page_number":571,"juz_number":29,"words":[{"id":22751,"position":1,"audio_url":"wbw/071_020_001.mp3","char_type_name":"word","page_number":571,"line_number":6,"text":"لِّتَسْلُكُوا۟","translation":{"text":"তোমরা চলো যেন","language_name":"bengali","language_id":20},"transliteration":{"text":"litaslukū","language_name":"english","language_id":38}},{"id":22752,"position":2,"audio_url":"wbw/071_020_002.mp3","char_type_name":"word","page_number":571,"line_number":6,"text":"مِنْهَا","translation":{"text":"তা থেকে","language_name":"bengali","language_id":20},"transliteration":{"text":"min'hā","language_name":"english","language_id":38}},{"id":22753,"position":3,"audio_url":"wbw/071_020_003.mp3","char_type_name":"word","page_number":571,"line_number":7,"text":"سُبُلًۭا","translation":{"text":"রাস্তাসমূহে","language_name":"bengali","language_id":20},"transliteration":{"text":"subulan","language_name":"english","language_id":38}},{"id":22754,"position":4,"audio_url":"wbw/071_020_004.mp3","char_type_name":"word","page_number":571,"line_number":7,"text":"فِجَاجًۭا","translation":{"text":"প্রশস্ত\"","language_name":"bengali","language_id":20},"transliteration":{"text":"fijājan","language_name":"english","language_id":38}},{"id":22755,"position":5,"audio_url":null,"char_type_name":"end","page_number":571,"line_number":7,"text":"٢٠","translation":{"text":"(২০)","language_name":"bengali","language_id":20},"transliteration":{"text":null,"language_name":"english","language_id":38}}]}],"pagination":{"per_page":10,"current_page":2,"next_page":3,"total_pages":3,"total_records":28}}
