{"verses":[{"id":6024,"verse_number":1,"verse_key":"90:1","hizb_number":60,"rub_el_hizb_number":238,"ruku_number":534,"manzil_number":7,"sajdah_number":null,"page_number":594,"juz_number":30,"words":[{"id":731,"position":1,"audio_url":"wbw/090_001_001.mp3","char_type_name":"word","page_number":594,"line_number":8,"text":"لَآ","translation":{"text":"না","language_name":"bengali","language_id":20},"transliteration":{"text":"lā","language_name":"english","language_id":38}},{"id":732,"position":2,"audio_url":"wbw/090_001_002.mp3","char_type_name":"word","page_number":594,"line_number":8,"text":"أُقْسِمُ","translation":{"text":"আমি শপথ করছি","language_name":"bengali","language_id":20},"transliteration":{"text":"uq'simu","language_name":"english","language_id":38}},{"id":733,"position":3,"audio_url":"wbw/090_001_003.mp3","char_type_name":"word","page_number":594,"line_number":8,"text":"بِهَـٰذَا","translation":{"text":"এই","language_name":"bengali","language_id":20},"transliteration":{"text":"bihādhā","language_name":"english","language_id":38}},{"id":734,"position":4,"audio_url":"wbw/090_001_004.mp3","char_type_name":"word","page_number":594,"line_number":8,"text":"ٱلْبَلَدِ","translation":{"text":"নগরের (অর্থাৎ মক্কার)","language_name":"bengali","language_id":20},"transliteration":{"text":"l-baladi","language_name":"english","language_id":38}},{"id":735,"position":5,"audio_url":null,"char_type_name":"end","page_number":594,"line_number":8,"text":"١","translation":{"text":"(১)","language_name":"bengali","language_id":20},"transliteration":{"text":null,"language_name":"english","language_id":38}}]},{"id":6025,"verse_number":2,"verse_key":"90:2","hizb_number":60,"rub_el_hizb_number":238,"ruku_number":534,"manzil_number":7,"sajdah_number":null,"page_number":594,"juz_number":30,"words":[{"id":1741,"position":1,"audio_url":"wbw/090_002_001.mp3","char_type_name":"word","page_number":594,"line_number":8,"text":"وَأَنتَ","translation":{"text":"আর তুমি","language_name":"bengali","language_id":20},"transliteration":{"text":"wa-anta","language_name":"english","language_id":38}},{"id":1742,"position":2,"audio_url":"wbw/090_002_002.mp3","char_type_name":"word","page_number":594,"line_number":8,"text":"حِلٌّۢ","translation":{"text":"হালাল/অধিবাসী (হয়েছে)","language_name":"bengali","language_id":20},"transliteration":{"text":"ḥillun","language_name":"english","language_id":38}},{"id":1743,"position":3,"audio_url":"wbw/090_002_003.mp3","char_type_name":"word","page_number":594,"line_number":8,"text":"بِهَـٰذَا","translation":{"text":"এই","language_name":"bengali","language_id":20},"transliteration":{"text":"bihādhā","language_name":"english","language_id":38}},{"id":1744,"position":4,"audio_url":"wbw/090_002_004.mp3","char_type_name":"word","page_number":594,"line_number":8,"text":"ٱلْبَلَدِ","translation":{"text":"নগরের","language_name":"bengali","language_id":20},"transliteration":{"text":"l-baladi","language_name":"english","language_id":38}},{"id":1745,"position":5,"audio_url":null,"char_type_name":"end","page_number":594,"line_number":8,"text":"٢","translation":{"text":"(২)","language_name":"bengali","language_id":20},"transliteration":{"text":null,"language_name":"english","language_id":38}}]},{"id":6026,"verse_number":3,"verse_key":"90:3","hizb_number":60,"rub_el_hizb_number":238,"ruku_number":534,"manzil_number":7,"sajdah_number":null,"page_number":594,"juz_number":30,"words":[{"id":2893,"position":1,"audio_url":"wbw/090_003_001.mp3","char_type_name":"word","page_number":594,"line_number":8,"text":"وَوَالِدٍۢ","translation":{"text":"(আরও) শপথ পিতার (আদম আঃ)","language_name":"bengali","language_id":20},"transliteration":{"text":"wawālidin","language_name":"english","language_id":38}},{"id":2894,"position":2,"audio_url":"wbw/090_003_002.mp3","char_type_name":"word","page_number":594,"line_number":8,"text":"وَمَا","translation":{"text":"এবং যা","language_name":"bengali","language_id":20},"transliteration":{"text":"wamā","language_name":"english","language_id":38}},{"id":2895,"position":3,"audio_url":"wbw/090_003_003.mp3","char_type_name":"word","page_number":594,"line_number":8,"text":"وَلَدَ","translation":{"text":"জন্ম দিয়েছেন (সেই সন্তানের)","language_name":"bengali","language_id":20},"transliteration":{"text":"walada","language_name":"english","language_id":38}},{"id":2896,"position":4,"audio_url":null,"char_type_name":"end","page_number":594,"line_number":9,"text":"٣","translation":{"text":"(৩)","language_name":"bengali","language_id":20},"transliteration":{"text":null,"language_name":"english","language_id":38}}]},{"id":6027,"verse_number":4,"verse_key":"90:4","hizb_number":60,"rub_el_hizb_number":238,"ruku_number":534,"manzil_number":7,"sajdah_number":null,"page_number":594,"juz_number":30,"words":[{"id":4229,"position":1,"audio_url":"wbw/090_004_001.mp3","char_type_name":"word","page_number":594,"line_number":9,"text":"لَقَدْ","translation":{"text":"নিশ্চয়ই","language_name":"bengali","language_id":20},"transliteration":{"text":"laqad","language_name":"english","language_id":38}},{"id":4230,"position":2,"audio_url":"wbw/090_004_002.mp3","char_type_name":"word","page_number":594,"line_number":9,"text":"خَلَقْنَا","translation":{"text":"আমরা সৃষ্টি করেছি","language_name":"bengali","language_id":20},"transliteration":{"text":"khalaqnā","language_name":"english","language_id":38}},{"id":4231,"position":3,"audio_url":"wbw/090_004_003.mp3","char_type_name":"word","page_number":594,"line_number":9,"text":"ٱلْإِنسَـٰنَ","translation":{"text":"মানুষকে","language_name":"bengali","language_id":20},"transliteration":{"text":"l-insāna","language_name":"english","language_id":38}},{"id":4232,"position":4,"audio_url":"wbw/090_004_004.mp3","char_type_name":"word","page_number":594,"line_number":9,"text":"فِى","translation":{"text":"মধ্যে","language_name":"bengali","language_id":20},"transliteration":{"text":"fī","language_name":"english","language_id":38}},{"id":4233,"position":5,"audio_url":"wbw/090_004_005.mp3","char_type_name":"word","page_number":594,"line_number":9,"text":"كَبَدٍ","translation":{"text":"কষ্টের","language_name":"bengali","language_id":20},"transliteration":{"text":"kabadin","language_name":"english","language_id":38}},{"id":4234,"position":6,"audio_url":null,"char_type_name":"end","page_number":594,"line_number":9,"text":"٤","translation":{"text":"(৪)","language_name":"bengali","language_id":20},"transliteration":{"text":null,"language_name":"english","language_id":38}}]},{"id":6028,"verse_number":5,"verse_key":"90:5","hizb_number":60,"rub_el_hizb_number":238,"ruku_number":534,"manzil_number":7,"sajdah_number":null,"page_number":594,"juz_number":30,"words":[{"id":5746,"position":1,"audio_url":"wbw/090_005_001.mp3","char_type_name":"word","page_number":594,"line_number":9,"text":"أَيَحْسَبُ","translation":{"text":"মনে করে কি সে","language_name":"bengali","language_id":20},"transliteration":{"text":"ayaḥsabu","language_name":"english","language_id":38}},{"id":5747,"position":2,"audio_url":"wbw/090_005_002.mp3","char_type_name":"word","page_number":594,"line_number":9,"text":"أَن","translation":{"text":"যে","language_name":"bengali","language_id":20},"transliteration":{"text":"an","language_name":"english","language_id":38}},{"id":5748,"position":3,"audio_url":"wbw/090_005_003.mp3","char_type_name":"word","page_number":594,"line_number":9,"text":"لَّن","translation":{"text":"কখনও না","language_name":"bengali","language_id":20},"transliteration":{"text":"lan","language_name":"english","language_id":38}},{"id":5749,"position":4,"audio_url":"wbw/090_005_004.mp3","char_type_name":"word","page_number":594,"line_number":9,"text":"يَقْدِرَ","translation":{"text":"ক্ষমতাবান হবে","language_name":"bengali","language_id":20},"transliteration":{"text":"yaqdira","language_name":"english","language_id":38}},{"id":5750,"position":5,"audio_url":"wbw/090_005_005.mp3","char_type_name":"word","page_number":594,"line_number":9,"text":"عَلَيْهِ","translation":{"text":"তার উপর","language_name":"bengali","language_id":20},"transliteration":{"text":"ʿalayhi","language_name":"english","language_id":38}},{"id":5751,"position":6,"audio_url":"wbw/090_005_006.mp3","char_type_name":"word","page_number":594,"line_number":10,"text":"أَحَدٌۭ","translation":{"text":"কেউ","language_name":"bengali","language_id":20},"transliteration":{"text":"aḥadun","language_name":"english","language_id":38}},{"id":5752,"position":7,"audio_url":null,"char_type_name":"end","page_number":594,"line_number":10,"text":"٥","translation":{"text":"(৫)","language_name":"bengali","language_id":20},"transliteration":{"text":null,"language_name":"english","language_id":38}}]},{"id":6029,"verse_number":6,"verse_key":"90:6","hizb_number":60,"rub_el_hizb_number":238,"ruku_number":534,"manzil_number":7,"sajdah_number":null,"page_number":594,"juz_number":30,"words":[{"id":6784,"position":1,"audio_url":"wbw/090_006_001.mp3","char_type_name":"word","page_number":594,"line_number":10,"text":"يَقُولُ","translation":{"text":"সে বলে","language_name":"bengali","language_id":20},"transliteration":{"text":"yaqūlu","language_name":"english","language_id":38}},{"id":6785,"position":2,"audio_url":"wbw/090_006_002.mp3","char_type_name":"word","page_number":594,"line_number":10,"text":"أَهْلَكْتُ","translation":{"text":"\"আমি নিঃশেষ করেছি","language_name":"bengali","language_id":20},"transliteration":{"text":"ahlaktu","language_name":"english","language_id":38}},{"id":6786,"position":3,"audio_url":"wbw/090_006_003.mp3","char_type_name":"word","page_number":594,"line_number":10,"text":"مَالًۭا","translation":{"text":"ধনসম্পদ","language_name":"bengali","language_id":20},"transliteration":{"text":"mālan","language_name":"english","language_id":38}},{"id":6787,"position":4,"audio_url":"wbw/090_006_004.mp3","char_type_name":"word","page_number":594,"line_number":10,"text":"لُّبَدًا","translation":{"text":"বিপুল (পরিমাণ)\"","language_name":"bengali","language_id":20},"transliteration":{"text":"lubadan","language_name":"english","language_id":38}},{"id":6788,"position":5,"audio_url":null,"char_type_name":"end","page_number":594,"line_number":10,"text":"٦","translation":{"text":"(৬)","language_name":"bengali","language_id":20},"transliteration":{"text":null,"language_name":"english","language_id":38}}]},{"id":6030,"verse_number":7,"verse_key":"90:7","hizb_number":60,"rub_el_hizb_number":238,"ruku_number":534,"manzil_number":7,"sajdah_number":null,"page_number":594,"juz_number":30,"words":[{"id":7286,"position":1,"audio_url":"wbw/090_007_001.mp3","char_type_name":"word","page_number":594,"line_number":10,"text":"أَيَحْسَبُ","translation":{"text":"সে মনে করে কি","language_name":"bengali","language_id":20},"transliteration":{"text":"ayaḥsabu","language_name":"english","language_id":38}},{"id":7287,"position":2,"audio_url":"wbw/090_007_002.mp3","char_type_name":"word","page_number":594,"line_number":10,"text":"أَن","translation":{"text":"যে","language_name":"bengali","language_id":20},"transliteration":{"text":"an","language_name":"english","language_id":38}},{"id":7288,"position":3,"audio_url":"wbw/090_007_003.mp3","char_type_name":"word","page_number":594,"line_number":10,"text":"لَّمْ","translation":{"text":"নি","language_name":"bengali","language_id":20},"transliteration":{"text":"lam","language_name":"english","language_id":38}},{"id":7289,"position":4,"audio_url":"wbw/090_007_004.mp3","char_type_name":"word","page_number":594,"line_number":10,"text":"يَرَهُۥٓ","translation":{"text":"তাকে দেখে","language_name":"bengali","language_id":20},"transliteration":{"text":"yarahu","language_name":"english","language_id":38}},{"id":7290,"position":5,"audio_url":"wbw/090_007_005.mp3","char_type_name":"word","page_number":594,"line_number":10,"text":"أَحَدٌ","translation":{"text":"কেউ","language_name":"bengali","language_id":20},"transliteration":{"text":"aḥadun","language_name":"english","language_id":38}},{"id":7291,"position":6,"audio_url":null,"char_type_name":"end","page_number":594,"line_number":11,"text":"٧","translation":{"text":"(৭)","language_name":"bengali","language_id":20},"transliteration":{"text":null,"language_name":"english","language_id":38}}]},{"id":6031,"verse_number":8,"verse_key":"90:8","hizb_number":60,"rub_el_hizb_number":238,"ruku_number":534,"manzil_number":7,"sajdah_number":null,"page_number":594,"juz_number":30,"words":[{"id":9258,"position":1,"audio_url":"wbw/090_008_001.mp3","char_type_name":"word","page_number":594,"line_number":11,"text":"أَلَمْ","translation":{"text":"নি কি","language_name":"bengali","language_id":20},"transliteration":{"text":"alam","language_name":"english","language_id":38}},{"id":9259,"position":2,"audio_url":"wbw/090_008_002.mp3","char_type_name":"word","page_number":594,"line_number":11,"text":"نَجْعَل","translation":{"text":"আমরা দিই","language_name":"bengali","language_id":20},"transliteration":{"text":"najʿal","language_name":"english","language_id":38}},{"id":9260,"position":3,"audio_url":"wbw/090_008_003.mp3","char_type_name":"word","page_number":594,"line_number":11,"text":"لَّهُۥ","translation":{"text":"তার জন্য","language_name":"bengali","language_id":20},"transliteration":{"text":"lahu","language_name":"english","language_id":38}},{"id":9261,"position":4,"audio_url":"wbw/090_008_004.mp3","char_type_name":"word","page_number":594,"line_number":11,"text":"عَيْنَيْنِ","translation":{"text":"দু'চোখ","language_name":"bengali","language_id":20},"transliteration":{"text":"ʿaynayni","language_name":"english","language_id":38}},{"id":9262,"position":5,"audio_url":null,"char_type_name":"end","page_number":594,"line_number":11,"text":"٨","translation":{"text":"(৮)","language_name":"bengali","language_id":20},"transliteration":{"text":null,"language_name":"english","language_id":38}}]},{"id":6032,"verse_number":9,"verse_key":"90:9","hizb_number":60,"rub_el_hizb_number":238,"ruku_number":534,"manzil_number":7,"sajdah_number":null,"page_number":594,"juz_number":30,"words":[{"id":10454,"position":1,"audio_url":"wbw/090_009_001.mp3","char_type_name":"word","page_number":594,"line_number":11,"text":"وَلِسَانًۭا","translation":{"text":"এবং জিহ্বা","language_name":"bengali","language_id":20},"transliteration":{"text":"walisānan","language_name":"english","language_id":38}},{"id":10455,"position":2,"audio_url":"wbw/090_009_002.mp3","char_type_name":"word","page_number":594,"line_number":11,"text":"وَشَفَتَيْنِ","translation":{"text":"ও দু'ঠোট","language_name":"bengali","language_id":20},"transliteration":{"text":"washafatayni","language_name":"english","language_id":38}},{"id":10456,"position":3,"audio_url":null,"char_type_name":"end","page_number":594,"line_number":11,"text":"٩","translation":{"text":"(৯)","language_name":"bengali","language_id":20},"transliteration":{"text":null,"language_name":"english","language_id":38}}]},{"id":6033,"verse_number":10,"verse_key":"90:10","hizb_number":60,"rub_el_hizb_number":238,"ruku_number":534,"manzil_number":7,"sajdah_number":null,"page_number":594,"juz_number":30,"words":[{"id":11621,"position":1,"audio_url":"wbw/090_010_001.mp3","char_type_name":"word","page_number":594,"line_number":11,"text":"وَهَدَيْنَـٰهُ","translation":{"text":"এবং আমরা তাকে  দেখিয়েছি","language_name":"bengali","language_id":20},"transliteration":{"text":"wahadaynāhu","language_name":"english","language_id":38}},{"id":11622,"position":2,"audio_url":"wbw/090_010_002.mp3","char_type_name":"word","page_number":594,"line_number":12,"text":"ٱلنَّجْدَيْنِ","translation":{"text":"(ভাল মন্দ) দুই পথের","language_name":"bengali","language_id":20},"transliteration":{"text":"l-najdayni","language_name":"english","language_id":38}},{"id":11623,"position":3,"audio_url":null,"char_type_name":"end","page_number":594,"line_number":12,"text":"١٠","translation":{"text":"(১০)","language_name":"bengali","language_id":20},"transliteration":{"text":null,"language_name":"english","language_id":38}}]}],"pagination":{"per_page":10,"current_page":1,"next_page":2,"total_pages":2,"total_records":20}}
