{"verses":[{"id":6034,"verse_number":11,"verse_key":"90:11","hizb_number":60,"rub_el_hizb_number":238,"ruku_number":534,"manzil_number":7,"sajdah_number":null,"page_number":594,"juz_number":30,"words":[{"id":12673,"position":1,"audio_url":"wbw/090_011_001.mp3","char_type_name":"word","page_number":594,"line_number":12,"text":"فَلَا","translation":{"text":"কিন্তু না","language_name":"bengali","language_id":20},"transliteration":{"text":"falā","language_name":"english","language_id":38}},{"id":12674,"position":2,"audio_url":"wbw/090_011_002.mp3","char_type_name":"word","page_number":594,"line_number":12,"text":"ٱقْتَحَمَ","translation":{"text":"সে অবলম্বন করেছে","language_name":"bengali","language_id":20},"transliteration":{"text":"iq'taḥama","language_name":"english","language_id":38}},{"id":12675,"position":3,"audio_url":"wbw/090_011_003.mp3","char_type_name":"word","page_number":594,"line_number":12,"text":"ٱلْعَقَبَةَ","translation":{"text":"কষ্টসাধ্য গিরিপথ","language_name":"bengali","language_id":20},"transliteration":{"text":"l-ʿaqabata","language_name":"english","language_id":38}},{"id":12676,"position":4,"audio_url":null,"char_type_name":"end","page_number":594,"line_number":12,"text":"١١","translation":{"text":"(১১)","language_name":"bengali","language_id":20},"transliteration":{"text":null,"language_name":"english","language_id":38}}]},{"id":6035,"verse_number":12,"verse_key":"90:12","hizb_number":60,"rub_el_hizb_number":238,"ruku_number":534,"manzil_number":7,"sajdah_number":null,"page_number":594,"juz_number":30,"words":[{"id":13388,"position":1,"audio_url":"wbw/090_012_001.mp3","char_type_name":"word","page_number":594,"line_number":12,"text":"وَمَآ","translation":{"text":"এবং কিসে","language_name":"bengali","language_id":20},"transliteration":{"text":"wamā","language_name":"english","language_id":38}},{"id":13389,"position":2,"audio_url":"wbw/090_012_002.mp3","char_type_name":"word","page_number":594,"line_number":12,"text":"أَدْرَىٰكَ","translation":{"text":"তোমাকে জানাবে","language_name":"bengali","language_id":20},"transliteration":{"text":"adrāka","language_name":"english","language_id":38}},{"id":13390,"position":3,"audio_url":"wbw/090_012_003.mp3","char_type_name":"word","page_number":594,"line_number":12,"text":"مَا","translation":{"text":"কি","language_name":"bengali","language_id":20},"transliteration":{"text":"mā","language_name":"english","language_id":38}},{"id":13391,"position":4,"audio_url":"wbw/090_012_004.mp3","char_type_name":"word","page_number":594,"line_number":12,"text":"ٱلْعَقَبَةُ","translation":{"text":"সেই কষ্টসাধ্য গিরিপথ","language_name":"bengali","language_id":20},"transliteration":{"text":"l-ʿaqabatu","language_name":"english","language_id":38}},{"id":13392,"position":5,"audio_url":null,"char_type_name":"end","page_number":594,"line_number":12,"text":"١٢","translation":{"text":"(১২)","language_name":"bengali","language_id":20},"transliteration":{"text":null,"language_name":"english","language_id":38}}]},{"id":6036,"verse_number":13,"verse_key":"90:13","hizb_number":60,"rub_el_hizb_number":238,"ruku_number":534,"manzil_number":7,"sajdah_number":null,"page_number":594,"juz_number":30,"words":[{"id":15459,"position":1,"audio_url":"wbw/090_013_001.mp3","char_type_name":"word","page_number":594,"line_number":13,"text":"فَكُّ","translation":{"text":"মুক্তি","language_name":"bengali","language_id":20},"transliteration":{"text":"fakku","language_name":"english","language_id":38}},{"id":15460,"position":2,"audio_url":"wbw/090_013_002.mp3","char_type_name":"word","page_number":594,"line_number":13,"text":"رَقَبَةٍ","translation":{"text":"দাস","language_name":"bengali","language_id":20},"transliteration":{"text":"raqabatin","language_name":"english","language_id":38}},{"id":15461,"position":3,"audio_url":null,"char_type_name":"end","page_number":594,"line_number":13,"text":"١٣","translation":{"text":"(১৩)","language_name":"bengali","language_id":20},"transliteration":{"text":null,"language_name":"english","language_id":38}}]},{"id":6037,"verse_number":14,"verse_key":"90:14","hizb_number":60,"rub_el_hizb_number":238,"ruku_number":534,"manzil_number":7,"sajdah_number":null,"page_number":594,"juz_number":30,"words":[{"id":16485,"position":1,"audio_url":"wbw/090_014_001.mp3","char_type_name":"word","page_number":594,"line_number":13,"text":"أَوْ","translation":{"text":"অথবা","language_name":"bengali","language_id":20},"transliteration":{"text":"aw","language_name":"english","language_id":38}},{"id":16486,"position":2,"audio_url":"wbw/090_014_002.mp3","char_type_name":"word","page_number":594,"line_number":13,"text":"إِطْعَـٰمٌۭ","translation":{"text":"খানা খাওয়ানো","language_name":"bengali","language_id":20},"transliteration":{"text":"iṭ'ʿāmun","language_name":"english","language_id":38}},{"id":16487,"position":3,"audio_url":"wbw/090_014_003.mp3","char_type_name":"word","page_number":594,"line_number":13,"text":"فِى","translation":{"text":"মধ্যে","language_name":"bengali","language_id":20},"transliteration":{"text":"fī","language_name":"english","language_id":38}},{"id":16488,"position":4,"audio_url":"wbw/090_014_004.mp3","char_type_name":"word","page_number":594,"line_number":13,"text":"يَوْمٍۢ","translation":{"text":"দিনে","language_name":"bengali","language_id":20},"transliteration":{"text":"yawmin","language_name":"english","language_id":38}},{"id":16489,"position":5,"audio_url":"wbw/090_014_005.mp3","char_type_name":"word","page_number":594,"line_number":13,"text":"ذِى","translation":{"text":"এর","language_name":"bengali","language_id":20},"transliteration":{"text":"dhī","language_name":"english","language_id":38}},{"id":16490,"position":6,"audio_url":"wbw/090_014_006.mp3","char_type_name":"word","page_number":594,"line_number":13,"text":"مَسْغَبَةٍۢ","translation":{"text":"দুর্ভিক্ষ","language_name":"bengali","language_id":20},"transliteration":{"text":"masghabatin","language_name":"english","language_id":38}},{"id":16491,"position":7,"audio_url":null,"char_type_name":"end","page_number":594,"line_number":13,"text":"١٤","translation":{"text":"(১৪)","language_name":"bengali","language_id":20},"transliteration":{"text":null,"language_name":"english","language_id":38}}]},{"id":6038,"verse_number":15,"verse_key":"90:15","hizb_number":60,"rub_el_hizb_number":238,"ruku_number":534,"manzil_number":7,"sajdah_number":null,"page_number":594,"juz_number":30,"words":[{"id":17751,"position":1,"audio_url":"wbw/090_015_001.mp3","char_type_name":"word","page_number":594,"line_number":13,"text":"يَتِيمًۭا","translation":{"text":"ইয়াতীমকে","language_name":"bengali","language_id":20},"transliteration":{"text":"yatīman","language_name":"english","language_id":38}},{"id":17752,"position":2,"audio_url":"wbw/090_015_002.mp3","char_type_name":"word","page_number":594,"line_number":13,"text":"ذَا","translation":{"text":"এর","language_name":"bengali","language_id":20},"transliteration":{"text":"dhā","language_name":"english","language_id":38}},{"id":17753,"position":3,"audio_url":"wbw/090_015_003.mp3","char_type_name":"word","page_number":594,"line_number":13,"text":"مَقْرَبَةٍ","translation":{"text":"নিকট আত্মীয় সম্পর্ক","language_name":"bengali","language_id":20},"transliteration":{"text":"maqrabatin","language_name":"english","language_id":38}},{"id":17754,"position":4,"audio_url":null,"char_type_name":"end","page_number":594,"line_number":14,"text":"١٥","translation":{"text":"(১৫)","language_name":"bengali","language_id":20},"transliteration":{"text":null,"language_name":"english","language_id":38}}]},{"id":6039,"verse_number":16,"verse_key":"90:16","hizb_number":60,"rub_el_hizb_number":238,"ruku_number":534,"manzil_number":7,"sajdah_number":null,"page_number":594,"juz_number":30,"words":[{"id":18740,"position":1,"audio_url":"wbw/090_016_001.mp3","char_type_name":"word","page_number":594,"line_number":14,"text":"أَوْ","translation":{"text":"অথবা","language_name":"bengali","language_id":20},"transliteration":{"text":"aw","language_name":"english","language_id":38}},{"id":18741,"position":2,"audio_url":"wbw/090_016_002.mp3","char_type_name":"word","page_number":594,"line_number":14,"text":"مِسْكِينًۭا","translation":{"text":"নিঃস্বকে","language_name":"bengali","language_id":20},"transliteration":{"text":"mis'kīnan","language_name":"english","language_id":38}},{"id":18742,"position":3,"audio_url":"wbw/090_016_003.mp3","char_type_name":"word","page_number":594,"line_number":14,"text":"ذَا","translation":{"text":"মাখা/ যুক্ত","language_name":"bengali","language_id":20},"transliteration":{"text":"dhā","language_name":"english","language_id":38}},{"id":18743,"position":4,"audio_url":"wbw/090_016_004.mp3","char_type_name":"word","page_number":594,"line_number":14,"text":"مَتْرَبَةٍۢ","translation":{"text":"ধুলি/ দারিদ্র-নিষ্পেষিত","language_name":"bengali","language_id":20},"transliteration":{"text":"matrabatin","language_name":"english","language_id":38}},{"id":18744,"position":5,"audio_url":null,"char_type_name":"end","page_number":594,"line_number":14,"text":"١٦","translation":{"text":"(১৬)","language_name":"bengali","language_id":20},"transliteration":{"text":null,"language_name":"english","language_id":38}}]},{"id":6040,"verse_number":17,"verse_key":"90:17","hizb_number":60,"rub_el_hizb_number":238,"ruku_number":534,"manzil_number":7,"sajdah_number":null,"page_number":594,"juz_number":30,"words":[{"id":19961,"position":1,"audio_url":"wbw/090_017_001.mp3","char_type_name":"word","page_number":594,"line_number":14,"text":"ثُمَّ","translation":{"text":"তদুপরি (এর সাথে)","language_name":"bengali","language_id":20},"transliteration":{"text":"thumma","language_name":"english","language_id":38}},{"id":19962,"position":2,"audio_url":"wbw/090_017_002.mp3","char_type_name":"word","page_number":594,"line_number":14,"text":"كَانَ","translation":{"text":"সে হলো","language_name":"bengali","language_id":20},"transliteration":{"text":"kāna","language_name":"english","language_id":38}},{"id":19963,"position":3,"audio_url":"wbw/090_017_003.mp3","char_type_name":"word","page_number":594,"line_number":14,"text":"مِنَ","translation":{"text":"শামিলও","language_name":"bengali","language_id":20},"transliteration":{"text":"mina","language_name":"english","language_id":38}},{"id":19964,"position":4,"audio_url":"wbw/090_017_004.mp3","char_type_name":"word","page_number":594,"line_number":14,"text":"ٱلَّذِينَ","translation":{"text":"(তাদের মধ্য) যারা","language_name":"bengali","language_id":20},"transliteration":{"text":"alladhīna","language_name":"english","language_id":38}},{"id":19965,"position":5,"audio_url":"wbw/090_017_005.mp3","char_type_name":"word","page_number":594,"line_number":14,"text":"ءَامَنُوا۟","translation":{"text":"ঈমান এনেছে","language_name":"bengali","language_id":20},"transliteration":{"text":"āmanū","language_name":"english","language_id":38}},{"id":19966,"position":6,"audio_url":"wbw/090_017_006.mp3","char_type_name":"word","page_number":594,"line_number":14,"text":"وَتَوَاصَوْا۟","translation":{"text":"ও তারা পরস্পরকে উপদেশ দিয়েছে","language_name":"bengali","language_id":20},"transliteration":{"text":"watawāṣaw","language_name":"english","language_id":38}},{"id":19967,"position":7,"audio_url":"wbw/090_017_007.mp3","char_type_name":"word","page_number":594,"line_number":15,"text":"بِٱلصَّبْرِ","translation":{"text":"ধৈর্যধারণের","language_name":"bengali","language_id":20},"transliteration":{"text":"bil-ṣabri","language_name":"english","language_id":38}},{"id":19968,"position":8,"audio_url":"wbw/090_017_008.mp3","char_type_name":"word","page_number":594,"line_number":15,"text":"وَتَوَاصَوْا۟","translation":{"text":"ও তারা পরস্পরকে উপদেশ দিয়েছে","language_name":"bengali","language_id":20},"transliteration":{"text":"watawāṣaw","language_name":"english","language_id":38}},{"id":19969,"position":9,"audio_url":"wbw/090_017_009.mp3","char_type_name":"word","page_number":594,"line_number":15,"text":"بِٱلْمَرْحَمَةِ","translation":{"text":"দয়া প্রদর্শনের","language_name":"bengali","language_id":20},"transliteration":{"text":"bil-marḥamati","language_name":"english","language_id":38}},{"id":19970,"position":10,"audio_url":null,"char_type_name":"end","page_number":594,"line_number":15,"text":"١٧","translation":{"text":"(১৭)","language_name":"bengali","language_id":20},"transliteration":{"text":null,"language_name":"english","language_id":38}}]},{"id":6041,"verse_number":18,"verse_key":"90:18","hizb_number":60,"rub_el_hizb_number":238,"ruku_number":534,"manzil_number":7,"sajdah_number":null,"page_number":594,"juz_number":30,"words":[{"id":20964,"position":1,"audio_url":"wbw/090_018_001.mp3","char_type_name":"word","page_number":594,"line_number":15,"text":"أُو۟لَـٰٓئِكَ","translation":{"text":"ঐসব","language_name":"bengali","language_id":20},"transliteration":{"text":"ulāika","language_name":"english","language_id":38}},{"id":20965,"position":2,"audio_url":"wbw/090_018_002.mp3","char_type_name":"word","page_number":594,"line_number":15,"text":"أَصْحَـٰبُ","translation":{"text":"লোক","language_name":"bengali","language_id":20},"transliteration":{"text":"aṣḥābu","language_name":"english","language_id":38}},{"id":20966,"position":3,"audio_url":"wbw/090_018_003.mp3","char_type_name":"word","page_number":594,"line_number":15,"text":"ٱلْمَيْمَنَةِ","translation":{"text":"ডান দিকের (অর্থাৎ সৌভাগ্যশীল)","language_name":"bengali","language_id":20},"transliteration":{"text":"l-maymanati","language_name":"english","language_id":38}},{"id":20967,"position":4,"audio_url":null,"char_type_name":"end","page_number":594,"line_number":15,"text":"١٨","translation":{"text":"(১৮)","language_name":"bengali","language_id":20},"transliteration":{"text":null,"language_name":"english","language_id":38}}]},{"id":6042,"verse_number":19,"verse_key":"90:19","hizb_number":60,"rub_el_hizb_number":238,"ruku_number":534,"manzil_number":7,"sajdah_number":null,"page_number":595,"juz_number":30,"words":[{"id":22064,"position":1,"audio_url":"wbw/090_019_001.mp3","char_type_name":"word","page_number":595,"line_number":1,"text":"وَٱلَّذِينَ","translation":{"text":"এবং যারা","language_name":"bengali","language_id":20},"transliteration":{"text":"wa-alladhīna","language_name":"english","language_id":38}},{"id":22065,"position":2,"audio_url":"wbw/090_019_002.mp3","char_type_name":"word","page_number":595,"line_number":1,"text":"كَفَرُوا۟","translation":{"text":"অস্বীকার করেছে","language_name":"bengali","language_id":20},"transliteration":{"text":"kafarū","language_name":"english","language_id":38}},{"id":22066,"position":3,"audio_url":"wbw/090_019_003.mp3","char_type_name":"word","page_number":595,"line_number":1,"text":"بِـَٔايَـٰتِنَا","translation":{"text":"আমাদের আয়াতগুলোকে","language_name":"bengali","language_id":20},"transliteration":{"text":"biāyātinā","language_name":"english","language_id":38}},{"id":22067,"position":4,"audio_url":"wbw/090_019_004.mp3","char_type_name":"word","page_number":595,"line_number":1,"text":"هُمْ","translation":{"text":"তারাই","language_name":"bengali","language_id":20},"transliteration":{"text":"hum","language_name":"english","language_id":38}},{"id":22068,"position":5,"audio_url":"wbw/090_019_005.mp3","char_type_name":"word","page_number":595,"line_number":1,"text":"أَصْحَـٰبُ","translation":{"text":"লোক","language_name":"bengali","language_id":20},"transliteration":{"text":"aṣḥābu","language_name":"english","language_id":38}},{"id":22069,"position":6,"audio_url":"wbw/090_019_006.mp3","char_type_name":"word","page_number":595,"line_number":1,"text":"ٱلْمَشْـَٔمَةِ","translation":{"text":"বাম দিকের (অর্থাৎ হতভাগ্য)","language_name":"bengali","language_id":20},"transliteration":{"text":"l-mashamati","language_name":"english","language_id":38}},{"id":22070,"position":7,"audio_url":null,"char_type_name":"end","page_number":595,"line_number":1,"text":"١٩","translation":{"text":"(১৯)","language_name":"bengali","language_id":20},"transliteration":{"text":null,"language_name":"english","language_id":38}}]},{"id":6043,"verse_number":20,"verse_key":"90:20","hizb_number":60,"rub_el_hizb_number":238,"ruku_number":534,"manzil_number":7,"sajdah_number":null,"page_number":595,"juz_number":30,"words":[{"id":23073,"position":1,"audio_url":"wbw/090_020_001.mp3","char_type_name":"word","page_number":595,"line_number":1,"text":"عَلَيْهِمْ","translation":{"text":"তাদের উপর","language_name":"bengali","language_id":20},"transliteration":{"text":"ʿalayhim","language_name":"english","language_id":38}},{"id":23074,"position":2,"audio_url":"wbw/090_020_002.mp3","char_type_name":"word","page_number":595,"line_number":1,"text":"نَارٌۭ","translation":{"text":"আগুন","language_name":"bengali","language_id":20},"transliteration":{"text":"nārun","language_name":"english","language_id":38}},{"id":23075,"position":3,"audio_url":"wbw/090_020_003.mp3","char_type_name":"word","page_number":595,"line_number":1,"text":"مُّؤْصَدَةٌۢ","translation":{"text":"পরিবেষ্টনকারী (হয়ে থাকবে)","language_name":"bengali","language_id":20},"transliteration":{"text":"mu'ṣadatun","language_name":"english","language_id":38}},{"id":23076,"position":4,"audio_url":null,"char_type_name":"end","page_number":595,"line_number":1,"text":"٢٠","translation":{"text":"(২০)","language_name":"bengali","language_id":20},"transliteration":{"text":null,"language_name":"english","language_id":38}}]}],"pagination":{"per_page":10,"current_page":2,"next_page":null,"total_pages":2,"total_records":20}}
