{"verses":[{"id":2341,"verse_number":91,"verse_key":"19:91","hizb_number":31,"rub_el_hizb_number":124,"ruku_number":269,"manzil_number":4,"sajdah_number":null,"page_number":311,"juz_number":16,"words":[{"id":68587,"position":1,"audio_url":"wbw/019_091_001.mp3","verse_key":"19:91","verse_id":2341,"location":"19:91:1","text_uthmani":"أَن","qpc_uthmani_hafs":"أَن","char_type_name":"word","page_number":311,"line_number":12,"text":"أَن","translation":{"text":"That","language_name":"english","language_id":38},"transliteration":{"text":"an","language_name":"english","language_id":38}},{"id":68588,"position":2,"audio_url":"wbw/019_091_002.mp3","verse_key":"19:91","verse_id":2341,"location":"19:91:2","text_uthmani":"دَعَوْا۟","qpc_uthmani_hafs":"دَعَوۡاْ","char_type_name":"word","page_number":311,"line_number":12,"text":"دَعَوۡاْ","translation":{"text":"they invoke","language_name":"english","language_id":38},"transliteration":{"text":"daʿaw","language_name":"english","language_id":38}},{"id":68589,"position":3,"audio_url":"wbw/019_091_003.mp3","verse_key":"19:91","verse_id":2341,"location":"19:91:3","text_uthmani":"لِلرَّحْمَـٰنِ","qpc_uthmani_hafs":"لِلرَّحۡمَٰنِ","char_type_name":"word","page_number":311,"line_number":12,"text":"لِلرَّحۡمَٰنِ","translation":{"text":"to the Most Gracious","language_name":"english","language_id":38},"transliteration":{"text":"lilrraḥmāni","language_name":"english","language_id":38}},{"id":68590,"position":4,"audio_url":"wbw/019_091_004.mp3","verse_key":"19:91","verse_id":2341,"location":"19:91:4","text_uthmani":"وَلَدًۭا","qpc_uthmani_hafs":"وَلَدٗا","char_type_name":"word","page_number":311,"line_number":12,"text":"وَلَدٗا","translation":{"text":"a son","language_name":"english","language_id":38},"transliteration":{"text":"waladan","language_name":"english","language_id":38}},{"id":68591,"position":5,"audio_url":null,"verse_key":"19:91","verse_id":2341,"location":"19:91:5","text_uthmani":"٩١","qpc_uthmani_hafs":"٩١","char_type_name":"end","page_number":311,"line_number":13,"text":"٩١","translation":{"text":"(91)","language_name":"english","language_id":38},"transliteration":{"text":null,"language_name":"english","language_id":38}}]},{"id":2342,"verse_number":92,"verse_key":"19:92","hizb_number":31,"rub_el_hizb_number":124,"ruku_number":269,"manzil_number":4,"sajdah_number":null,"page_number":311,"juz_number":16,"words":[{"id":68647,"position":1,"audio_url":"wbw/019_092_001.mp3","verse_key":"19:92","verse_id":2342,"location":"19:92:1","text_uthmani":"وَمَا","qpc_uthmani_hafs":"وَمَا","char_type_name":"word","page_number":311,"line_number":13,"text":"وَمَا","translation":{"text":"And not","language_name":"english","language_id":38},"transliteration":{"text":"wamā","language_name":"english","language_id":38}},{"id":68648,"position":2,"audio_url":"wbw/019_092_002.mp3","verse_key":"19:92","verse_id":2342,"location":"19:92:2","text_uthmani":"يَنۢبَغِى","qpc_uthmani_hafs":"يَنۢبَغِي","char_type_name":"word","page_number":311,"line_number":13,"text":"يَنۢبَغِي","translation":{"text":"is appropriate","language_name":"english","language_id":38},"transliteration":{"text":"yanbaghī","language_name":"english","language_id":38}},{"id":68649,"position":3,"audio_url":"wbw/019_092_003.mp3","verse_key":"19:92","verse_id":2342,"location":"19:92:3","text_uthmani":"لِلرَّحْمَـٰنِ","qpc_uthmani_hafs":"لِلرَّحۡمَٰنِ","char_type_name":"word","page_number":311,"line_number":13,"text":"لِلرَّحۡمَٰنِ","translation":{"text":"for the Most Gracious","language_name":"english","language_id":38},"transliteration":{"text":"lilrraḥmāni","language_name":"english","language_id":38}},{"id":68650,"position":4,"audio_url":"wbw/019_092_004.mp3","verse_key":"19:92","verse_id":2342,"location":"19:92:4","text_uthmani":"أَن","qpc_uthmani_hafs":"أَن","char_type_name":"word","page_number":311,"line_number":13,"text":"أَن","translation":{"text":"that","language_name":"english","language_id":38},"transliteration":{"text":"an","language_name":"english","language_id":38}},{"id":68651,"position":5,"audio_url":"wbw/019_092_005.mp3","verse_key":"19:92","verse_id":2342,"location":"19:92:5","text_uthmani":"يَتَّخِذَ","qpc_uthmani_hafs":"يَتَّخِذَ","char_type_name":"word","page_number":311,"line_number":13,"text":"يَتَّخِذَ","translation":{"text":"He should take","language_name":"english","language_id":38},"transliteration":{"text":"yattakhidha","language_name":"english","language_id":38}},{"id":68652,"position":6,"audio_url":"wbw/019_092_006.mp3","verse_key":"19:92","verse_id":2342,"location":"19:92:6","text_uthmani":"وَلَدًا","qpc_uthmani_hafs":"وَلَدًا","char_type_name":"word","page_number":311,"line_number":13,"text":"وَلَدًا","translation":{"text":"a son","language_name":"english","language_id":38},"transliteration":{"text":"waladan","language_name":"english","language_id":38}},{"id":68653,"position":7,"audio_url":null,"verse_key":"19:92","verse_id":2342,"location":"19:92:7","text_uthmani":"٩٢","qpc_uthmani_hafs":"٩٢","char_type_name":"end","page_number":311,"line_number":13,"text":"٩٢","translation":{"text":"(92)","language_name":"english","language_id":38},"transliteration":{"text":null,"language_name":"english","language_id":38}}]},{"id":2343,"verse_number":93,"verse_key":"19:93","hizb_number":31,"rub_el_hizb_number":124,"ruku_number":269,"manzil_number":4,"sajdah_number":null,"page_number":311,"juz_number":16,"words":[{"id":69070,"position":1,"audio_url":"wbw/019_093_001.mp3","verse_key":"19:93","verse_id":2343,"location":"19:93:1","text_uthmani":"إِن","qpc_uthmani_hafs":"إِن","char_type_name":"word","page_number":311,"line_number":13,"text":"إِن","translation":{"text":"Not","language_name":"english","language_id":38},"transliteration":{"text":"in","language_name":"english","language_id":38}},{"id":69071,"position":2,"audio_url":"wbw/019_093_002.mp3","verse_key":"19:93","verse_id":2343,"location":"19:93:2","text_uthmani":"كُلُّ","qpc_uthmani_hafs":"كُلُّ","char_type_name":"word","page_number":311,"line_number":13,"text":"كُلُّ","translation":{"text":"all","language_name":"english","language_id":38},"transliteration":{"text":"kullu","language_name":"english","language_id":38}},{"id":69072,"position":3,"audio_url":"wbw/019_093_003.mp3","verse_key":"19:93","verse_id":2343,"location":"19:93:3","text_uthmani":"مَن","qpc_uthmani_hafs":"مَن","char_type_name":"word","page_number":311,"line_number":13,"text":"مَن","translation":{"text":"who","language_name":"english","language_id":38},"transliteration":{"text":"man","language_name":"english","language_id":38}},{"id":69073,"position":4,"audio_url":"wbw/019_093_004.mp3","verse_key":"19:93","verse_id":2343,"location":"19:93:4","text_uthmani":"فِى","qpc_uthmani_hafs":"فِي","char_type_name":"word","page_number":311,"line_number":13,"text":"فِي","translation":{"text":"(are) in","language_name":"english","language_id":38},"transliteration":{"text":"fī","language_name":"english","language_id":38}},{"id":69074,"position":5,"audio_url":"wbw/019_093_005.mp3","verse_key":"19:93","verse_id":2343,"location":"19:93:5","text_uthmani":"ٱلسَّمَـٰوَٰتِ","qpc_uthmani_hafs":"ٱلسَّمَٰوَٰتِ","char_type_name":"word","page_number":311,"line_number":14,"text":"ٱلسَّمَٰوَٰتِ","translation":{"text":"the heavens","language_name":"english","language_id":38},"transliteration":{"text":"l-samāwāti","language_name":"english","language_id":38}},{"id":69075,"position":6,"audio_url":"wbw/019_093_006.mp3","verse_key":"19:93","verse_id":2343,"location":"19:93:6","text_uthmani":"وَٱلْأَرْضِ","qpc_uthmani_hafs":"وَٱلۡأَرۡضِ","char_type_name":"word","page_number":311,"line_number":14,"text":"وَٱلۡأَرۡضِ","translation":{"text":"and the earth","language_name":"english","language_id":38},"transliteration":{"text":"wal-arḍi","language_name":"english","language_id":38}},{"id":69076,"position":7,"audio_url":"wbw/019_093_007.mp3","verse_key":"19:93","verse_id":2343,"location":"19:93:7","text_uthmani":"إِلَّآ","qpc_uthmani_hafs":"إِلَّآ","char_type_name":"word","page_number":311,"line_number":14,"text":"إِلَّآ","translation":{"text":"but","language_name":"english","language_id":38},"transliteration":{"text":"illā","language_name":"english","language_id":38}},{"id":69077,"position":8,"audio_url":"wbw/019_093_008.mp3","verse_key":"19:93","verse_id":2343,"location":"19:93:8","text_uthmani":"ءَاتِى","qpc_uthmani_hafs":"ءَاتِي","char_type_name":"word","page_number":311,"line_number":14,"text":"ءَاتِي","translation":{"text":"(will) come","language_name":"english","language_id":38},"transliteration":{"text":"ātī","language_name":"english","language_id":38}},{"id":69078,"position":9,"audio_url":"wbw/019_093_009.mp3","verse_key":"19:93","verse_id":2343,"location":"19:93:9","text_uthmani":"ٱلرَّحْمَـٰنِ","qpc_uthmani_hafs":"ٱلرَّحۡمَٰنِ","char_type_name":"word","page_number":311,"line_number":14,"text":"ٱلرَّحۡمَٰنِ","translation":{"text":"(to) the Most Gracious","language_name":"english","language_id":38},"transliteration":{"text":"l-raḥmāni","language_name":"english","language_id":38}},{"id":69079,"position":10,"audio_url":"wbw/019_093_010.mp3","verse_key":"19:93","verse_id":2343,"location":"19:93:10","text_uthmani":"عَبْدًۭا","qpc_uthmani_hafs":"عَبۡدٗا","char_type_name":"word","page_number":311,"line_number":14,"text":"عَبۡدٗا","translation":{"text":"(as) a slave","language_name":"english","language_id":38},"transliteration":{"text":"ʿabdan","language_name":"english","language_id":38}},{"id":69080,"position":11,"audio_url":null,"verse_key":"19:93","verse_id":2343,"location":"19:93:11","text_uthmani":"٩٣","qpc_uthmani_hafs":"٩٣","char_type_name":"end","page_number":311,"line_number":14,"text":"٩٣","translation":{"text":"(93)","language_name":"english","language_id":38},"transliteration":{"text":null,"language_name":"english","language_id":38}}]},{"id":2344,"verse_number":94,"verse_key":"19:94","hizb_number":31,"rub_el_hizb_number":124,"ruku_number":269,"manzil_number":4,"sajdah_number":null,"page_number":311,"juz_number":16,"words":[{"id":69648,"position":1,"audio_url":"wbw/019_094_001.mp3","verse_key":"19:94","verse_id":2344,"location":"19:94:1","text_uthmani":"لَّقَدْ","qpc_uthmani_hafs":"لَّقَدۡ","char_type_name":"word","page_number":311,"line_number":14,"text":"لَّقَدۡ","translation":{"text":"Verily","language_name":"english","language_id":38},"transliteration":{"text":"laqad","language_name":"english","language_id":38}},{"id":69649,"position":2,"audio_url":"wbw/019_094_002.mp3","verse_key":"19:94","verse_id":2344,"location":"19:94:2","text_uthmani":"أَحْصَىٰهُمْ","qpc_uthmani_hafs":"أَحۡصَىٰهُمۡ","char_type_name":"word","page_number":311,"line_number":14,"text":"أَحۡصَىٰهُمۡ","translation":{"text":"He has enumerated them","language_name":"english","language_id":38},"transliteration":{"text":"aḥṣāhum","language_name":"english","language_id":38}},{"id":69650,"position":3,"audio_url":"wbw/019_094_003.mp3","verse_key":"19:94","verse_id":2344,"location":"19:94:3","text_uthmani":"وَعَدَّهُمْ","qpc_uthmani_hafs":"وَعَدَّهُمۡ","char_type_name":"word","page_number":311,"line_number":15,"text":"وَعَدَّهُمۡ","translation":{"text":"and counted them","language_name":"english","language_id":38},"transliteration":{"text":"waʿaddahum","language_name":"english","language_id":38}},{"id":69651,"position":4,"audio_url":"wbw/019_094_004.mp3","verse_key":"19:94","verse_id":2344,"location":"19:94:4","text_uthmani":"عَدًّۭا","qpc_uthmani_hafs":"عَدّٗا","char_type_name":"word","page_number":311,"line_number":15,"text":"عَدّٗا","translation":{"text":"a counting","language_name":"english","language_id":38},"transliteration":{"text":"ʿaddan","language_name":"english","language_id":38}},{"id":69652,"position":5,"audio_url":null,"verse_key":"19:94","verse_id":2344,"location":"19:94:5","text_uthmani":"٩٤","qpc_uthmani_hafs":"٩٤","char_type_name":"end","page_number":311,"line_number":15,"text":"٩٤","translation":{"text":"(94)","language_name":"english","language_id":38},"transliteration":{"text":null,"language_name":"english","language_id":38}}]},{"id":2345,"verse_number":95,"verse_key":"19:95","hizb_number":31,"rub_el_hizb_number":124,"ruku_number":269,"manzil_number":4,"sajdah_number":null,"page_number":311,"juz_number":16,"words":[{"id":69734,"position":1,"audio_url":"wbw/019_095_001.mp3","verse_key":"19:95","verse_id":2345,"location":"19:95:1","text_uthmani":"وَكُلُّهُمْ","qpc_uthmani_hafs":"وَكُلُّهُمۡ","char_type_name":"word","page_number":311,"line_number":15,"text":"وَكُلُّهُمۡ","translation":{"text":"And all of them","language_name":"english","language_id":38},"transliteration":{"text":"wakulluhum","language_name":"english","language_id":38}},{"id":69735,"position":2,"audio_url":"wbw/019_095_002.mp3","verse_key":"19:95","verse_id":2345,"location":"19:95:2","text_uthmani":"ءَاتِيهِ","qpc_uthmani_hafs":"ءَاتِيهِ","char_type_name":"word","page_number":311,"line_number":15,"text":"ءَاتِيهِ","translation":{"text":"(will) come (to) Him","language_name":"english","language_id":38},"transliteration":{"text":"ātīhi","language_name":"english","language_id":38}},{"id":69736,"position":3,"audio_url":"wbw/019_095_003.mp3","verse_key":"19:95","verse_id":2345,"location":"19:95:3","text_uthmani":"يَوْمَ","qpc_uthmani_hafs":"يَوۡمَ","char_type_name":"word","page_number":311,"line_number":15,"text":"يَوۡمَ","translation":{"text":"(on the) Day","language_name":"english","language_id":38},"transliteration":{"text":"yawma","language_name":"english","language_id":38}},{"id":69737,"position":4,"audio_url":"wbw/019_095_004.mp3","verse_key":"19:95","verse_id":2345,"location":"19:95:4","text_uthmani":"ٱلْقِيَـٰمَةِ","qpc_uthmani_hafs":"ٱلۡقِيَٰمَةِ","char_type_name":"word","page_number":311,"line_number":15,"text":"ٱلۡقِيَٰمَةِ","translation":{"text":"(of) the Resurrection","language_name":"english","language_id":38},"transliteration":{"text":"l-qiyāmati","language_name":"english","language_id":38}},{"id":69738,"position":5,"audio_url":"wbw/019_095_005.mp3","verse_key":"19:95","verse_id":2345,"location":"19:95:5","text_uthmani":"فَرْدًا","qpc_uthmani_hafs":"فَرۡدًا","char_type_name":"word","page_number":311,"line_number":15,"text":"فَرۡدًا","translation":{"text":"alone","language_name":"english","language_id":38},"transliteration":{"text":"fardan","language_name":"english","language_id":38}},{"id":69739,"position":6,"audio_url":null,"verse_key":"19:95","verse_id":2345,"location":"19:95:6","text_uthmani":"٩٥","qpc_uthmani_hafs":"٩٥","char_type_name":"end","page_number":311,"line_number":15,"text":"٩٥","translation":{"text":"(95)","language_name":"english","language_id":38},"transliteration":{"text":null,"language_name":"english","language_id":38}}]},{"id":2346,"verse_number":96,"verse_key":"19:96","hizb_number":31,"rub_el_hizb_number":124,"ruku_number":269,"manzil_number":4,"sajdah_number":null,"page_number":312,"juz_number":16,"words":[{"id":70147,"position":1,"audio_url":"wbw/019_096_001.mp3","verse_key":"19:96","verse_id":2346,"location":"19:96:1","text_uthmani":"إِنَّ","qpc_uthmani_hafs":"إِنَّ","char_type_name":"word","page_number":312,"line_number":1,"text":"إِنَّ","translation":{"text":"Indeed","language_name":"english","language_id":38},"transliteration":{"text":"inna","language_name":"english","language_id":38}},{"id":70148,"position":2,"audio_url":"wbw/019_096_002.mp3","verse_key":"19:96","verse_id":2346,"location":"19:96:2","text_uthmani":"ٱلَّذِينَ","qpc_uthmani_hafs":"ٱلَّذِينَ","char_type_name":"word","page_number":312,"line_number":1,"text":"ٱلَّذِينَ","translation":{"text":"those who","language_name":"english","language_id":38},"transliteration":{"text":"alladhīna","language_name":"english","language_id":38}},{"id":70149,"position":3,"audio_url":"wbw/019_096_003.mp3","verse_key":"19:96","verse_id":2346,"location":"19:96:3","text_uthmani":"ءَامَنُوا۟","qpc_uthmani_hafs":"ءَامَنُواْ","char_type_name":"word","page_number":312,"line_number":1,"text":"ءَامَنُواْ","translation":{"text":"believed","language_name":"english","language_id":38},"transliteration":{"text":"āmanū","language_name":"english","language_id":38}},{"id":70150,"position":4,"audio_url":"wbw/019_096_004.mp3","verse_key":"19:96","verse_id":2346,"location":"19:96:4","text_uthmani":"وَعَمِلُوا۟","qpc_uthmani_hafs":"وَعَمِلُواْ","char_type_name":"word","page_number":312,"line_number":1,"text":"وَعَمِلُواْ","translation":{"text":"and did","language_name":"english","language_id":38},"transliteration":{"text":"waʿamilū","language_name":"english","language_id":38}},{"id":70151,"position":5,"audio_url":"wbw/019_096_005.mp3","verse_key":"19:96","verse_id":2346,"location":"19:96:5","text_uthmani":"ٱلصَّـٰلِحَـٰتِ","qpc_uthmani_hafs":"ٱلصَّٰلِحَٰتِ","char_type_name":"word","page_number":312,"line_number":1,"text":"ٱلصَّٰلِحَٰتِ","translation":{"text":"good deeds","language_name":"english","language_id":38},"transliteration":{"text":"l-ṣāliḥāti","language_name":"english","language_id":38}},{"id":70152,"position":6,"audio_url":"wbw/019_096_006.mp3","verse_key":"19:96","verse_id":2346,"location":"19:96:6","text_uthmani":"سَيَجْعَلُ","qpc_uthmani_hafs":"سَيَجۡعَلُ","char_type_name":"word","page_number":312,"line_number":1,"text":"سَيَجۡعَلُ","translation":{"text":"will bestow","language_name":"english","language_id":38},"transliteration":{"text":"sayajʿalu","language_name":"english","language_id":38}},{"id":70153,"position":7,"audio_url":"wbw/019_096_007.mp3","verse_key":"19:96","verse_id":2346,"location":"19:96:7","text_uthmani":"لَهُمُ","qpc_uthmani_hafs":"لَهُمُ","char_type_name":"word","page_number":312,"line_number":1,"text":"لَهُمُ","translation":{"text":"for them","language_name":"english","language_id":38},"transliteration":{"text":"lahumu","language_name":"english","language_id":38}},{"id":70154,"position":8,"audio_url":"wbw/019_096_008.mp3","verse_key":"19:96","verse_id":2346,"location":"19:96:8","text_uthmani":"ٱلرَّحْمَـٰنُ","qpc_uthmani_hafs":"ٱلرَّحۡمَٰنُ","char_type_name":"word","page_number":312,"line_number":2,"text":"ٱلرَّحۡمَٰنُ","translation":{"text":"the Most Gracious","language_name":"english","language_id":38},"transliteration":{"text":"l-raḥmānu","language_name":"english","language_id":38}},{"id":70155,"position":9,"audio_url":"wbw/019_096_009.mp3","verse_key":"19:96","verse_id":2346,"location":"19:96:9","text_uthmani":"وُدًّۭا","qpc_uthmani_hafs":"وُدّٗا","char_type_name":"word","page_number":312,"line_number":2,"text":"وُدّٗا","translation":{"text":"affection","language_name":"english","language_id":38},"transliteration":{"text":"wuddan","language_name":"english","language_id":38}},{"id":70156,"position":10,"audio_url":null,"verse_key":"19:96","verse_id":2346,"location":"19:96:10","text_uthmani":"٩٦","qpc_uthmani_hafs":"٩٦","char_type_name":"end","page_number":312,"line_number":2,"text":"٩٦","translation":{"text":"(96)","language_name":"english","language_id":38},"transliteration":{"text":null,"language_name":"english","language_id":38}}]},{"id":2347,"verse_number":97,"verse_key":"19:97","hizb_number":31,"rub_el_hizb_number":124,"ruku_number":269,"manzil_number":4,"sajdah_number":null,"page_number":312,"juz_number":16,"words":[{"id":70440,"position":1,"audio_url":"wbw/019_097_001.mp3","verse_key":"19:97","verse_id":2347,"location":"19:97:1","text_uthmani":"فَإِنَّمَا","qpc_uthmani_hafs":"فَإِنَّمَا","char_type_name":"word","page_number":312,"line_number":2,"text":"فَإِنَّمَا","translation":{"text":"So, only","language_name":"english","language_id":38},"transliteration":{"text":"fa-innamā","language_name":"english","language_id":38}},{"id":70441,"position":2,"audio_url":"wbw/019_097_002.mp3","verse_key":"19:97","verse_id":2347,"location":"19:97:2","text_uthmani":"يَسَّرْنَـٰهُ","qpc_uthmani_hafs":"يَسَّرۡنَٰهُ","char_type_name":"word","page_number":312,"line_number":2,"text":"يَسَّرۡنَٰهُ","translation":{"text":"We (have) made it easy","language_name":"english","language_id":38},"transliteration":{"text":"yassarnāhu","language_name":"english","language_id":38}},{"id":70442,"position":3,"audio_url":"wbw/019_097_003.mp3","verse_key":"19:97","verse_id":2347,"location":"19:97:3","text_uthmani":"بِلِسَانِكَ","qpc_uthmani_hafs":"بِلِسَانِكَ","char_type_name":"word","page_number":312,"line_number":2,"text":"بِلِسَانِكَ","translation":{"text":"in your tongue","language_name":"english","language_id":38},"transliteration":{"text":"bilisānika","language_name":"english","language_id":38}},{"id":70443,"position":4,"audio_url":"wbw/019_097_004.mp3","verse_key":"19:97","verse_id":2347,"location":"19:97:4","text_uthmani":"لِتُبَشِّرَ","qpc_uthmani_hafs":"لِتُبَشِّرَ","char_type_name":"word","page_number":312,"line_number":2,"text":"لِتُبَشِّرَ","translation":{"text":"that you may give glad tidings","language_name":"english","language_id":38},"transliteration":{"text":"litubashira","language_name":"english","language_id":38}},{"id":70444,"position":5,"audio_url":"wbw/019_097_005.mp3","verse_key":"19:97","verse_id":2347,"location":"19:97:5","text_uthmani":"بِهِ","qpc_uthmani_hafs":"بِهِ","char_type_name":"word","page_number":312,"line_number":2,"text":"بِهِ","translation":{"text":"with it","language_name":"english","language_id":38},"transliteration":{"text":"bihi","language_name":"english","language_id":38}},{"id":70445,"position":6,"audio_url":"wbw/019_097_006.mp3","verse_key":"19:97","verse_id":2347,"location":"19:97:6","text_uthmani":"ٱلْمُتَّقِينَ","qpc_uthmani_hafs":"ٱلۡمُتَّقِينَ","char_type_name":"word","page_number":312,"line_number":3,"text":"ٱلۡمُتَّقِينَ","translation":{"text":"(to) the righteous","language_name":"english","language_id":38},"transliteration":{"text":"l-mutaqīna","language_name":"english","language_id":38}},{"id":70446,"position":7,"audio_url":"wbw/019_097_007.mp3","verse_key":"19:97","verse_id":2347,"location":"19:97:7","text_uthmani":"وَتُنذِرَ","qpc_uthmani_hafs":"وَتُنذِرَ","char_type_name":"word","page_number":312,"line_number":3,"text":"وَتُنذِرَ","translation":{"text":"and warn","language_name":"english","language_id":38},"transliteration":{"text":"watundhira","language_name":"english","language_id":38}},{"id":70447,"position":8,"audio_url":"wbw/019_097_008.mp3","verse_key":"19:97","verse_id":2347,"location":"19:97:8","text_uthmani":"بِهِۦ","qpc_uthmani_hafs":"بِهِۦ","char_type_name":"word","page_number":312,"line_number":3,"text":"بِهِۦ","translation":{"text":"with it","language_name":"english","language_id":38},"transliteration":{"text":"bihi","language_name":"english","language_id":38}},{"id":70448,"position":9,"audio_url":"wbw/019_097_009.mp3","verse_key":"19:97","verse_id":2347,"location":"19:97:9","text_uthmani":"قَوْمًۭا","qpc_uthmani_hafs":"قَوۡمٗا","char_type_name":"word","page_number":312,"line_number":3,"text":"قَوۡمٗا","translation":{"text":"a people","language_name":"english","language_id":38},"transliteration":{"text":"qawman","language_name":"english","language_id":38}},{"id":70449,"position":10,"audio_url":"wbw/019_097_010.mp3","verse_key":"19:97","verse_id":2347,"location":"19:97:10","text_uthmani":"لُّدًّۭا","qpc_uthmani_hafs":"لُّدّٗا","char_type_name":"word","page_number":312,"line_number":3,"text":"لُّدّٗا","translation":{"text":"hostile","language_name":"english","language_id":38},"transliteration":{"text":"luddan","language_name":"english","language_id":38}},{"id":70450,"position":11,"audio_url":null,"verse_key":"19:97","verse_id":2347,"location":"19:97:11","text_uthmani":"٩٧","qpc_uthmani_hafs":"٩٧","char_type_name":"end","page_number":312,"line_number":3,"text":"٩٧","translation":{"text":"(97)","language_name":"english","language_id":38},"transliteration":{"text":null,"language_name":"english","language_id":38}}]},{"id":2348,"verse_number":98,"verse_key":"19:98","hizb_number":31,"rub_el_hizb_number":124,"ruku_number":269,"manzil_number":4,"sajdah_number":null,"page_number":312,"juz_number":16,"words":[{"id":70827,"position":1,"audio_url":"wbw/019_098_001.mp3","verse_key":"19:98","verse_id":2348,"location":"19:98:1","text_uthmani":"وَكَمْ","qpc_uthmani_hafs":"وَكَمۡ","char_type_name":"word","page_number":312,"line_number":3,"text":"وَكَمۡ","translation":{"text":"And how many","language_name":"english","language_id":38},"transliteration":{"text":"wakam","language_name":"english","language_id":38}},{"id":70828,"position":2,"audio_url":"wbw/019_098_002.mp3","verse_key":"19:98","verse_id":2348,"location":"19:98:2","text_uthmani":"أَهْلَكْنَا","qpc_uthmani_hafs":"أَهۡلَكۡنَا","char_type_name":"word","page_number":312,"line_number":3,"text":"أَهۡلَكۡنَا","translation":{"text":"We (have) destroyed","language_name":"english","language_id":38},"transliteration":{"text":"ahlaknā","language_name":"english","language_id":38}},{"id":70829,"position":3,"audio_url":"wbw/019_098_003.mp3","verse_key":"19:98","verse_id":2348,"location":"19:98:3","text_uthmani":"قَبْلَهُم","qpc_uthmani_hafs":"قَبۡلَهُم","char_type_name":"word","page_number":312,"line_number":3,"text":"قَبۡلَهُم","translation":{"text":"before them","language_name":"english","language_id":38},"transliteration":{"text":"qablahum","language_name":"english","language_id":38}},{"id":70830,"position":4,"audio_url":"wbw/019_098_004.mp3","verse_key":"19:98","verse_id":2348,"location":"19:98:4","text_uthmani":"مِّن","qpc_uthmani_hafs":"مِّن","char_type_name":"word","page_number":312,"line_number":4,"text":"مِّن","translation":{"text":"of","language_name":"english","language_id":38},"transliteration":{"text":"min","language_name":"english","language_id":38}},{"id":70831,"position":5,"audio_url":"wbw/019_098_005.mp3","verse_key":"19:98","verse_id":2348,"location":"19:98:5","text_uthmani":"قَرْنٍ","qpc_uthmani_hafs":"قَرۡنٍ","char_type_name":"word","page_number":312,"line_number":4,"text":"قَرۡنٍ","translation":{"text":"a generation","language_name":"english","language_id":38},"transliteration":{"text":"qarnin","language_name":"english","language_id":38}},{"id":70832,"position":6,"audio_url":"wbw/019_098_006.mp3","verse_key":"19:98","verse_id":2348,"location":"19:98:6","text_uthmani":"هَلْ","qpc_uthmani_hafs":"هَلۡ","char_type_name":"word","page_number":312,"line_number":4,"text":"هَلۡ","translation":{"text":"Can","language_name":"english","language_id":38},"transliteration":{"text":"hal","language_name":"english","language_id":38}},{"id":70833,"position":7,"audio_url":"wbw/019_098_007.mp3","verse_key":"19:98","verse_id":2348,"location":"19:98:7","text_uthmani":"تُحِسُّ","qpc_uthmani_hafs":"تُحِسُّ","char_type_name":"word","page_number":312,"line_number":4,"text":"تُحِسُّ","translation":{"text":"you perceive","language_name":"english","language_id":38},"transliteration":{"text":"tuḥissu","language_name":"english","language_id":38}},{"id":70834,"position":8,"audio_url":"wbw/019_098_008.mp3","verse_key":"19:98","verse_id":2348,"location":"19:98:8","text_uthmani":"مِنْهُم","qpc_uthmani_hafs":"مِنۡهُم","char_type_name":"word","page_number":312,"line_number":4,"text":"مِنۡهُم","translation":{"text":"of them","language_name":"english","language_id":38},"transliteration":{"text":"min'hum","language_name":"english","language_id":38}},{"id":70835,"position":9,"audio_url":"wbw/019_098_009.mp3","verse_key":"19:98","verse_id":2348,"location":"19:98:9","text_uthmani":"مِّنْ","qpc_uthmani_hafs":"مِّنۡ","char_type_name":"word","page_number":312,"line_number":4,"text":"مِّنۡ","translation":{"text":"any","language_name":"english","language_id":38},"transliteration":{"text":"min","language_name":"english","language_id":38}},{"id":70836,"position":10,"audio_url":"wbw/019_098_010.mp3","verse_key":"19:98","verse_id":2348,"location":"19:98:10","text_uthmani":"أَحَدٍ","qpc_uthmani_hafs":"أَحَدٍ","char_type_name":"word","page_number":312,"line_number":4,"text":"أَحَدٍ","translation":{"text":"one","language_name":"english","language_id":38},"transliteration":{"text":"aḥadin","language_name":"english","language_id":38}},{"id":70837,"position":11,"audio_url":"wbw/019_098_011.mp3","verse_key":"19:98","verse_id":2348,"location":"19:98:11","text_uthmani":"أَوْ","qpc_uthmani_hafs":"أَوۡ","char_type_name":"word","page_number":312,"line_number":4,"text":"أَوۡ","translation":{"text":"or","language_name":"english","language_id":38},"transliteration":{"text":"aw","language_name":"english","language_id":38}},{"id":70838,"position":12,"audio_url":"wbw/019_098_012.mp3","verse_key":"19:98","verse_id":2348,"location":"19:98:12","text_uthmani":"تَسْمَعُ","qpc_uthmani_hafs":"تَسۡمَعُ","char_type_name":"word","page_number":312,"line_number":4,"text":"تَسۡمَعُ","translation":{"text":"hear","language_name":"english","language_id":38},"transliteration":{"text":"tasmaʿu","language_name":"english","language_id":38}},{"id":70839,"position":13,"audio_url":"wbw/019_098_013.mp3","verse_key":"19:98","verse_id":2348,"location":"19:98:13","text_uthmani":"لَهُمْ","qpc_uthmani_hafs":"لَهُمۡ","char_type_name":"word","page_number":312,"line_number":4,"text":"لَهُمۡ","translation":{"text":"from them","language_name":"english","language_id":38},"transliteration":{"text":"lahum","language_name":"english","language_id":38}},{"id":70840,"position":14,"audio_url":"wbw/019_098_014.mp3","verse_key":"19:98","verse_id":2348,"location":"19:98:14","text_uthmani":"رِكْزًۢا","qpc_uthmani_hafs":"رِكۡزَۢا","char_type_name":"word","page_number":312,"line_number":4,"text":"رِكۡزَۢا","translation":{"text":"a sound","language_name":"english","language_id":38},"transliteration":{"text":"rik'zan","language_name":"english","language_id":38}},{"id":70841,"position":15,"audio_url":null,"verse_key":"19:98","verse_id":2348,"location":"19:98:15","text_uthmani":"٩٨","qpc_uthmani_hafs":"٩٨","char_type_name":"end","page_number":312,"line_number":4,"text":"٩٨","translation":{"text":"(98)","language_name":"english","language_id":38},"transliteration":{"text":null,"language_name":"english","language_id":38}}]}],"pagination":{"per_page":10,"current_page":10,"next_page":null,"total_pages":10,"total_records":98}}
