{"verses":[{"id":2594,"verse_number":111,"verse_key":"21:111","hizb_number":33,"rub_el_hizb_number":132,"ruku_number":284,"manzil_number":4,"sajdah_number":null,"page_number":331,"juz_number":17,"words":[{"id":74364,"position":1,"audio_url":"wbw/021_111_001.mp3","verse_key":"21:111","verse_id":2594,"location":"21:111:1","text_uthmani":"وَإِنْ","qpc_uthmani_hafs":"وَإِنۡ","char_type_name":"word","page_number":331,"line_number":12,"text":"وَإِنۡ","translation":{"text":"And not","language_name":"english","language_id":38},"transliteration":{"text":"wa-in","language_name":"english","language_id":38}},{"id":74365,"position":2,"audio_url":"wbw/021_111_002.mp3","verse_key":"21:111","verse_id":2594,"location":"21:111:2","text_uthmani":"أَدْرِى","qpc_uthmani_hafs":"أَدۡرِي","char_type_name":"word","page_number":331,"line_number":12,"text":"أَدۡرِي","translation":{"text":"I know","language_name":"english","language_id":38},"transliteration":{"text":"adrī","language_name":"english","language_id":38}},{"id":74366,"position":3,"audio_url":"wbw/021_111_003.mp3","verse_key":"21:111","verse_id":2594,"location":"21:111:3","text_uthmani":"لَعَلَّهُۥ","qpc_uthmani_hafs":"لَعَلَّهُۥ","char_type_name":"word","page_number":331,"line_number":13,"text":"لَعَلَّهُۥ","translation":{"text":"perhaps it may be","language_name":"english","language_id":38},"transliteration":{"text":"laʿallahu","language_name":"english","language_id":38}},{"id":74367,"position":4,"audio_url":"wbw/021_111_004.mp3","verse_key":"21:111","verse_id":2594,"location":"21:111:4","text_uthmani":"فِتْنَةٌۭ","qpc_uthmani_hafs":"فِتۡنَةٞ","char_type_name":"word","page_number":331,"line_number":13,"text":"فِتۡنَةٞ","translation":{"text":"a trial","language_name":"english","language_id":38},"transliteration":{"text":"fit'natun","language_name":"english","language_id":38}},{"id":74368,"position":5,"audio_url":"wbw/021_111_005.mp3","verse_key":"21:111","verse_id":2594,"location":"21:111:5","text_uthmani":"لَّكُمْ","qpc_uthmani_hafs":"لَّكُمۡ","char_type_name":"word","page_number":331,"line_number":13,"text":"لَّكُمۡ","translation":{"text":"for you","language_name":"english","language_id":38},"transliteration":{"text":"lakum","language_name":"english","language_id":38}},{"id":74369,"position":6,"audio_url":"wbw/021_111_006.mp3","verse_key":"21:111","verse_id":2594,"location":"21:111:6","text_uthmani":"وَمَتَـٰعٌ","qpc_uthmani_hafs":"وَمَتَٰعٌ","char_type_name":"word","page_number":331,"line_number":13,"text":"وَمَتَٰعٌ","translation":{"text":"and an enjoyment","language_name":"english","language_id":38},"transliteration":{"text":"wamatāʿun","language_name":"english","language_id":38}},{"id":74370,"position":7,"audio_url":"wbw/021_111_007.mp3","verse_key":"21:111","verse_id":2594,"location":"21:111:7","text_uthmani":"إِلَىٰ","qpc_uthmani_hafs":"إِلَىٰ","char_type_name":"word","page_number":331,"line_number":13,"text":"إِلَىٰ","translation":{"text":"for","language_name":"english","language_id":38},"transliteration":{"text":"ilā","language_name":"english","language_id":38}},{"id":74371,"position":8,"audio_url":"wbw/021_111_008.mp3","verse_key":"21:111","verse_id":2594,"location":"21:111:8","text_uthmani":"حِينٍۢ","qpc_uthmani_hafs":"حِينٖ","char_type_name":"word","page_number":331,"line_number":13,"text":"حِينٖ","translation":{"text":"a time","language_name":"english","language_id":38},"transliteration":{"text":"ḥīnin","language_name":"english","language_id":38}},{"id":74372,"position":9,"audio_url":null,"verse_key":"21:111","verse_id":2594,"location":"21:111:9","text_uthmani":"١١١","qpc_uthmani_hafs":"١١١","char_type_name":"end","page_number":331,"line_number":13,"text":"١١١","translation":{"text":"(111)","language_name":"english","language_id":38},"transliteration":{"text":null,"language_name":"english","language_id":38}}]},{"id":2595,"verse_number":112,"verse_key":"21:112","hizb_number":33,"rub_el_hizb_number":132,"ruku_number":284,"manzil_number":4,"sajdah_number":null,"page_number":331,"juz_number":17,"words":[{"id":74704,"position":1,"audio_url":"wbw/021_112_001.mp3","verse_key":"21:112","verse_id":2595,"location":"21:112:1","text_uthmani":"قَـٰلَ","qpc_uthmani_hafs":"قَٰلَ","char_type_name":"word","page_number":331,"line_number":13,"text":"قَٰلَ","translation":{"text":"He said","language_name":"english","language_id":38},"transliteration":{"text":"qāla","language_name":"english","language_id":38}},{"id":74705,"position":2,"audio_url":"wbw/021_112_002.mp3","verse_key":"21:112","verse_id":2595,"location":"21:112:2","text_uthmani":"رَبِّ","qpc_uthmani_hafs":"رَبِّ","char_type_name":"word","page_number":331,"line_number":13,"text":"رَبِّ","translation":{"text":"My Lord","language_name":"english","language_id":38},"transliteration":{"text":"rabbi","language_name":"english","language_id":38}},{"id":74706,"position":3,"audio_url":"wbw/021_112_003.mp3","verse_key":"21:112","verse_id":2595,"location":"21:112:3","text_uthmani":"ٱحْكُم","qpc_uthmani_hafs":"ٱحۡكُم","char_type_name":"word","page_number":331,"line_number":13,"text":"ٱحۡكُم","translation":{"text":"judge","language_name":"english","language_id":38},"transliteration":{"text":"uḥ'kum","language_name":"english","language_id":38}},{"id":74707,"position":4,"audio_url":"wbw/021_112_004.mp3","verse_key":"21:112","verse_id":2595,"location":"21:112:4","text_uthmani":"بِٱلْحَقِّ ۗ","qpc_uthmani_hafs":"بِٱلۡحَقِّۗ","char_type_name":"word","page_number":331,"line_number":14,"text":"بِٱلۡحَقِّۗ","translation":{"text":"in truth","language_name":"english","language_id":38},"transliteration":{"text":"bil-ḥaqi","language_name":"english","language_id":38}},{"id":74709,"position":5,"audio_url":"wbw/021_112_006.mp3","verse_key":"21:112","verse_id":2595,"location":"21:112:5","text_uthmani":"وَرَبُّنَا","qpc_uthmani_hafs":"وَرَبُّنَا","char_type_name":"word","page_number":331,"line_number":14,"text":"وَرَبُّنَا","translation":{"text":"And our Lord","language_name":"english","language_id":38},"transliteration":{"text":"warabbunā","language_name":"english","language_id":38}},{"id":74710,"position":6,"audio_url":"wbw/021_112_007.mp3","verse_key":"21:112","verse_id":2595,"location":"21:112:6","text_uthmani":"ٱلرَّحْمَـٰنُ","qpc_uthmani_hafs":"ٱلرَّحۡمَٰنُ","char_type_name":"word","page_number":331,"line_number":14,"text":"ٱلرَّحۡمَٰنُ","translation":{"text":"(is) the Most Gracious","language_name":"english","language_id":38},"transliteration":{"text":"l-raḥmānu","language_name":"english","language_id":38}},{"id":74711,"position":7,"audio_url":"wbw/021_112_008.mp3","verse_key":"21:112","verse_id":2595,"location":"21:112:7","text_uthmani":"ٱلْمُسْتَعَانُ","qpc_uthmani_hafs":"ٱلۡمُسۡتَعَانُ","char_type_name":"word","page_number":331,"line_number":14,"text":"ٱلۡمُسۡتَعَانُ","translation":{"text":"the One Whose help is sought","language_name":"english","language_id":38},"transliteration":{"text":"l-mus'taʿānu","language_name":"english","language_id":38}},{"id":74712,"position":8,"audio_url":"wbw/021_112_009.mp3","verse_key":"21:112","verse_id":2595,"location":"21:112:8","text_uthmani":"عَلَىٰ","qpc_uthmani_hafs":"عَلَىٰ","char_type_name":"word","page_number":331,"line_number":14,"text":"عَلَىٰ","translation":{"text":"against","language_name":"english","language_id":38},"transliteration":{"text":"ʿalā","language_name":"english","language_id":38}},{"id":74713,"position":9,"audio_url":"wbw/021_112_010.mp3","verse_key":"21:112","verse_id":2595,"location":"21:112:9","text_uthmani":"مَا","qpc_uthmani_hafs":"مَا","char_type_name":"word","page_number":331,"line_number":14,"text":"مَا","translation":{"text":"what","language_name":"english","language_id":38},"transliteration":{"text":"mā","language_name":"english","language_id":38}},{"id":74714,"position":10,"audio_url":"wbw/021_112_011.mp3","verse_key":"21:112","verse_id":2595,"location":"21:112:10","text_uthmani":"تَصِفُونَ","qpc_uthmani_hafs":"تَصِفُونَ","char_type_name":"word","page_number":331,"line_number":14,"text":"تَصِفُونَ","translation":{"text":"you attribute","language_name":"english","language_id":38},"transliteration":{"text":"taṣifūna","language_name":"english","language_id":38}},{"id":74715,"position":11,"audio_url":null,"verse_key":"21:112","verse_id":2595,"location":"21:112:11","text_uthmani":"١١٢","qpc_uthmani_hafs":"١١٢","char_type_name":"end","page_number":331,"line_number":14,"text":"١١٢","translation":{"text":"(112)","language_name":"english","language_id":38},"transliteration":{"text":null,"language_name":"english","language_id":38}}]}],"pagination":{"per_page":10,"current_page":12,"next_page":null,"total_pages":12,"total_records":112}}
