{"verses":[{"id":5376,"verse_number":1,"verse_key":"70:1","hizb_number":57,"rub_el_hizb_number":227,"ruku_number":504,"manzil_number":7,"sajdah_number":null,"page_number":568,"juz_number":29,"words":[{"id":594,"position":1,"audio_url":"wbw/070_001_001.mp3","char_type_name":"word","page_number":568,"line_number":11,"text":"سَأَلَ","translation":{"text":"জিজ্ঞাসা করল","language_name":"bengali","language_id":20},"transliteration":{"text":"sa-ala","language_name":"english","language_id":38}},{"id":595,"position":2,"audio_url":"wbw/070_001_002.mp3","char_type_name":"word","page_number":568,"line_number":11,"text":"سَآئِلٌۢ","translation":{"text":"এক প্রশ্নকারী","language_name":"bengali","language_id":20},"transliteration":{"text":"sāilun","language_name":"english","language_id":38}},{"id":596,"position":3,"audio_url":"wbw/070_001_003.mp3","char_type_name":"word","page_number":568,"line_number":11,"text":"بِعَذَابٍۢ","translation":{"text":"এমন আযাব সম্পর্কে","language_name":"bengali","language_id":20},"transliteration":{"text":"biʿadhābin","language_name":"english","language_id":38}},{"id":597,"position":4,"audio_url":"wbw/070_001_004.mp3","char_type_name":"word","page_number":568,"line_number":11,"text":"وَاقِعٍۢ","translation":{"text":"যা আপতিত হবে","language_name":"bengali","language_id":20},"transliteration":{"text":"wāqiʿin","language_name":"english","language_id":38}},{"id":598,"position":5,"audio_url":null,"char_type_name":"end","page_number":568,"line_number":11,"text":"١","translation":{"text":"(১)","language_name":"bengali","language_id":20},"transliteration":{"text":null,"language_name":"english","language_id":38}}]},{"id":5377,"verse_number":2,"verse_key":"70:2","hizb_number":57,"rub_el_hizb_number":227,"ruku_number":504,"manzil_number":7,"sajdah_number":null,"page_number":568,"juz_number":29,"words":[{"id":1552,"position":1,"audio_url":"wbw/070_002_001.mp3","char_type_name":"word","page_number":568,"line_number":11,"text":"لِّلْكَـٰفِرِينَ","translation":{"text":"কাফিরদের উপর,","language_name":"bengali","language_id":20},"transliteration":{"text":"lil'kāfirīna","language_name":"english","language_id":38}},{"id":1553,"position":2,"audio_url":"wbw/070_002_002.mp3","char_type_name":"word","page_number":568,"line_number":11,"text":"لَيْسَ","translation":{"text":"নেই","language_name":"bengali","language_id":20},"transliteration":{"text":"laysa","language_name":"english","language_id":38}},{"id":1554,"position":3,"audio_url":"wbw/070_002_003.mp3","char_type_name":"word","page_number":568,"line_number":11,"text":"لَهُۥ","translation":{"text":"তার","language_name":"bengali","language_id":20},"transliteration":{"text":"lahu","language_name":"english","language_id":38}},{"id":1555,"position":4,"audio_url":"wbw/070_002_004.mp3","char_type_name":"word","page_number":568,"line_number":11,"text":"دَافِعٌۭ","translation":{"text":"কোন প্রতিরোধকারী","language_name":"bengali","language_id":20},"transliteration":{"text":"dāfiʿun","language_name":"english","language_id":38}},{"id":1556,"position":5,"audio_url":null,"char_type_name":"end","page_number":568,"line_number":11,"text":"٢","translation":{"text":"(২)","language_name":"bengali","language_id":20},"transliteration":{"text":null,"language_name":"english","language_id":38}}]},{"id":5378,"verse_number":3,"verse_key":"70:3","hizb_number":57,"rub_el_hizb_number":227,"ruku_number":504,"manzil_number":7,"sajdah_number":null,"page_number":568,"juz_number":29,"words":[{"id":2576,"position":1,"audio_url":"wbw/070_003_001.mp3","char_type_name":"word","page_number":568,"line_number":12,"text":"مِّنَ","translation":{"text":"থেকে","language_name":"bengali","language_id":20},"transliteration":{"text":"mina","language_name":"english","language_id":38}},{"id":2577,"position":2,"audio_url":"wbw/070_003_002.mp3","char_type_name":"word","page_number":568,"line_number":12,"text":"ٱللَّهِ","translation":{"text":"আল্লাহ,","language_name":"bengali","language_id":20},"transliteration":{"text":"l-lahi","language_name":"english","language_id":38}},{"id":2578,"position":3,"audio_url":"wbw/070_003_003.mp3","char_type_name":"word","page_number":568,"line_number":12,"text":"ذِى","translation":{"text":"মালিক","language_name":"bengali","language_id":20},"transliteration":{"text":"dhī","language_name":"english","language_id":38}},{"id":2579,"position":4,"audio_url":"wbw/070_003_004.mp3","char_type_name":"word","page_number":568,"line_number":12,"text":"ٱلْمَعَارِجِ","translation":{"text":"ঊর্ধ্বারোহণের সোপানসমূহের অধিকারী","language_name":"bengali","language_id":20},"transliteration":{"text":"l-maʿāriji","language_name":"english","language_id":38}},{"id":2580,"position":5,"audio_url":null,"char_type_name":"end","page_number":568,"line_number":12,"text":"٣","translation":{"text":"(৩)","language_name":"bengali","language_id":20},"transliteration":{"text":null,"language_name":"english","language_id":38}}]},{"id":5379,"verse_number":4,"verse_key":"70:4","hizb_number":57,"rub_el_hizb_number":227,"ruku_number":504,"manzil_number":7,"sajdah_number":null,"page_number":568,"juz_number":29,"words":[{"id":3975,"position":1,"audio_url":"wbw/070_004_001.mp3","char_type_name":"word","page_number":568,"line_number":12,"text":"تَعْرُجُ","translation":{"text":"চড়ে","language_name":"bengali","language_id":20},"transliteration":{"text":"taʿruju","language_name":"english","language_id":38}},{"id":3976,"position":2,"audio_url":"wbw/070_004_002.mp3","char_type_name":"word","page_number":568,"line_number":12,"text":"ٱلْمَلَـٰٓئِكَةُ","translation":{"text":"ফেরেশতাগণ","language_name":"bengali","language_id":20},"transliteration":{"text":"l-malāikatu","language_name":"english","language_id":38}},{"id":3977,"position":3,"audio_url":"wbw/070_004_003.mp3","char_type_name":"word","page_number":568,"line_number":12,"text":"وَٱلرُّوحُ","translation":{"text":"ও রূহ(জিবরাঈল)","language_name":"bengali","language_id":20},"transliteration":{"text":"wal-rūḥu","language_name":"english","language_id":38}},{"id":3978,"position":4,"audio_url":"wbw/070_004_004.mp3","char_type_name":"word","page_number":568,"line_number":12,"text":"إِلَيْهِ","translation":{"text":"তাকে","language_name":"bengali","language_id":20},"transliteration":{"text":"ilayhi","language_name":"english","language_id":38}},{"id":3979,"position":5,"audio_url":"wbw/070_004_005.mp3","char_type_name":"word","page_number":568,"line_number":13,"text":"فِى","translation":{"text":"মধ্যে","language_name":"bengali","language_id":20},"transliteration":{"text":"fī","language_name":"english","language_id":38}},{"id":3980,"position":6,"audio_url":"wbw/070_004_006.mp3","char_type_name":"word","page_number":568,"line_number":13,"text":"يَوْمٍۢ","translation":{"text":"একদিনের","language_name":"bengali","language_id":20},"transliteration":{"text":"yawmin","language_name":"english","language_id":38}},{"id":3981,"position":7,"audio_url":"wbw/070_004_007.mp3","char_type_name":"word","page_number":568,"line_number":13,"text":"كَانَ","translation":{"text":"[হয়]","language_name":"bengali","language_id":20},"transliteration":{"text":"kāna","language_name":"english","language_id":38}},{"id":3982,"position":8,"audio_url":"wbw/070_004_008.mp3","char_type_name":"word","page_number":568,"line_number":13,"text":"مِقْدَارُهُۥ","translation":{"text":"তার পরিমাপ","language_name":"bengali","language_id":20},"transliteration":{"text":"miq'dāruhu","language_name":"english","language_id":38}},{"id":3983,"position":9,"audio_url":"wbw/070_004_009.mp3","char_type_name":"word","page_number":568,"line_number":13,"text":"خَمْسِينَ","translation":{"text":"পঞ্চাশ (হয়)","language_name":"bengali","language_id":20},"transliteration":{"text":"khamsīna","language_name":"english","language_id":38}},{"id":3984,"position":10,"audio_url":"wbw/070_004_010.mp3","char_type_name":"word","page_number":568,"line_number":13,"text":"أَلْفَ","translation":{"text":"হাজার","language_name":"bengali","language_id":20},"transliteration":{"text":"alfa","language_name":"english","language_id":38}},{"id":3985,"position":11,"audio_url":"wbw/070_004_011.mp3","char_type_name":"word","page_number":568,"line_number":13,"text":"سَنَةٍۢ","translation":{"text":"বছর","language_name":"bengali","language_id":20},"transliteration":{"text":"sanatin","language_name":"english","language_id":38}},{"id":3986,"position":12,"audio_url":null,"char_type_name":"end","page_number":568,"line_number":13,"text":"٤","translation":{"text":"(৪)","language_name":"bengali","language_id":20},"transliteration":{"text":null,"language_name":"english","language_id":38}}]},{"id":5380,"verse_number":5,"verse_key":"70:5","hizb_number":57,"rub_el_hizb_number":227,"ruku_number":504,"manzil_number":7,"sajdah_number":null,"page_number":568,"juz_number":29,"words":[{"id":5286,"position":1,"audio_url":"wbw/070_005_001.mp3","char_type_name":"word","page_number":568,"line_number":13,"text":"فَٱصْبِرْ","translation":{"text":"সুতরাং, ধৈর্য ধরুন","language_name":"bengali","language_id":20},"transliteration":{"text":"fa-iṣ'bir","language_name":"english","language_id":38}},{"id":5287,"position":2,"audio_url":"wbw/070_005_002.mp3","char_type_name":"word","page_number":568,"line_number":13,"text":"صَبْرًۭا","translation":{"text":"ধৈর্য","language_name":"bengali","language_id":20},"transliteration":{"text":"ṣabran","language_name":"english","language_id":38}},{"id":5288,"position":3,"audio_url":"wbw/070_005_003.mp3","char_type_name":"word","page_number":568,"line_number":13,"text":"جَمِيلًا","translation":{"text":"উত্তম","language_name":"bengali","language_id":20},"transliteration":{"text":"jamīlan","language_name":"english","language_id":38}},{"id":5289,"position":4,"audio_url":null,"char_type_name":"end","page_number":568,"line_number":14,"text":"٥","translation":{"text":"(৫)","language_name":"bengali","language_id":20},"transliteration":{"text":null,"language_name":"english","language_id":38}}]},{"id":5381,"verse_number":6,"verse_key":"70:6","hizb_number":57,"rub_el_hizb_number":227,"ruku_number":504,"manzil_number":7,"sajdah_number":null,"page_number":568,"juz_number":29,"words":[{"id":6494,"position":1,"audio_url":"wbw/070_006_001.mp3","char_type_name":"word","page_number":568,"line_number":14,"text":"إِنَّهُمْ","translation":{"text":"তারা নিশ্চয়","language_name":"bengali","language_id":20},"transliteration":{"text":"innahum","language_name":"english","language_id":38}},{"id":6495,"position":2,"audio_url":"wbw/070_006_002.mp3","char_type_name":"word","page_number":568,"line_number":14,"text":"يَرَوْنَهُۥ","translation":{"text":"তা দেখে","language_name":"bengali","language_id":20},"transliteration":{"text":"yarawnahu","language_name":"english","language_id":38}},{"id":6496,"position":3,"audio_url":"wbw/070_006_003.mp3","char_type_name":"word","page_number":568,"line_number":14,"text":"بَعِيدًۭا","translation":{"text":"বহুদূরে","language_name":"bengali","language_id":20},"transliteration":{"text":"baʿīdan","language_name":"english","language_id":38}},{"id":6497,"position":4,"audio_url":null,"char_type_name":"end","page_number":568,"line_number":14,"text":"٦","translation":{"text":"(৬)","language_name":"bengali","language_id":20},"transliteration":{"text":null,"language_name":"english","language_id":38}}]},{"id":5382,"verse_number":7,"verse_key":"70:7","hizb_number":57,"rub_el_hizb_number":227,"ruku_number":504,"manzil_number":7,"sajdah_number":null,"page_number":568,"juz_number":29,"words":[{"id":7904,"position":1,"audio_url":"wbw/070_007_001.mp3","char_type_name":"word","page_number":568,"line_number":14,"text":"وَنَرَىٰهُ","translation":{"text":"কিন্তু আমরা তা দেখেছি","language_name":"bengali","language_id":20},"transliteration":{"text":"wanarāhu","language_name":"english","language_id":38}},{"id":7905,"position":2,"audio_url":"wbw/070_007_002.mp3","char_type_name":"word","page_number":568,"line_number":14,"text":"قَرِيبًۭا","translation":{"text":"নিকটে","language_name":"bengali","language_id":20},"transliteration":{"text":"qarīban","language_name":"english","language_id":38}},{"id":7906,"position":3,"audio_url":null,"char_type_name":"end","page_number":568,"line_number":14,"text":"٧","translation":{"text":"(৭)","language_name":"bengali","language_id":20},"transliteration":{"text":null,"language_name":"english","language_id":38}}]},{"id":5383,"verse_number":8,"verse_key":"70:8","hizb_number":57,"rub_el_hizb_number":227,"ruku_number":504,"manzil_number":7,"sajdah_number":null,"page_number":568,"juz_number":29,"words":[{"id":9081,"position":1,"audio_url":"wbw/070_008_001.mp3","char_type_name":"word","page_number":568,"line_number":14,"text":"يَوْمَ","translation":{"text":"সেদিন","language_name":"bengali","language_id":20},"transliteration":{"text":"yawma","language_name":"english","language_id":38}},{"id":9082,"position":2,"audio_url":"wbw/070_008_002.mp3","char_type_name":"word","page_number":568,"line_number":14,"text":"تَكُونُ","translation":{"text":"হবে","language_name":"bengali","language_id":20},"transliteration":{"text":"takūnu","language_name":"english","language_id":38}},{"id":9083,"position":3,"audio_url":"wbw/070_008_003.mp3","char_type_name":"word","page_number":568,"line_number":14,"text":"ٱلسَّمَآءُ","translation":{"text":"আকাশ","language_name":"bengali","language_id":20},"transliteration":{"text":"l-samāu","language_name":"english","language_id":38}},{"id":9084,"position":4,"audio_url":"wbw/070_008_004.mp3","char_type_name":"word","page_number":568,"line_number":15,"text":"كَٱلْمُهْلِ","translation":{"text":"গলিত ধাতুর মত,","language_name":"bengali","language_id":20},"transliteration":{"text":"kal-muh'li","language_name":"english","language_id":38}},{"id":9085,"position":5,"audio_url":null,"char_type_name":"end","page_number":568,"line_number":15,"text":"٨","translation":{"text":"(৮)","language_name":"bengali","language_id":20},"transliteration":{"text":null,"language_name":"english","language_id":38}}]},{"id":5384,"verse_number":9,"verse_key":"70:9","hizb_number":57,"rub_el_hizb_number":227,"ruku_number":504,"manzil_number":7,"sajdah_number":null,"page_number":568,"juz_number":29,"words":[{"id":10295,"position":1,"audio_url":"wbw/070_009_001.mp3","char_type_name":"word","page_number":568,"line_number":15,"text":"وَتَكُونُ","translation":{"text":"এবং হবে","language_name":"bengali","language_id":20},"transliteration":{"text":"watakūnu","language_name":"english","language_id":38}},{"id":10296,"position":2,"audio_url":"wbw/070_009_002.mp3","char_type_name":"word","page_number":568,"line_number":15,"text":"ٱلْجِبَالُ","translation":{"text":"পর্বতসমূহ","language_name":"bengali","language_id":20},"transliteration":{"text":"l-jibālu","language_name":"english","language_id":38}},{"id":10297,"position":3,"audio_url":"wbw/070_009_003.mp3","char_type_name":"word","page_number":568,"line_number":15,"text":"كَٱلْعِهْنِ","translation":{"text":"রঙিন পশমের মত,","language_name":"bengali","language_id":20},"transliteration":{"text":"kal-ʿih'ni","language_name":"english","language_id":38}},{"id":10298,"position":4,"audio_url":null,"char_type_name":"end","page_number":568,"line_number":15,"text":"٩","translation":{"text":"(৯)","language_name":"bengali","language_id":20},"transliteration":{"text":null,"language_name":"english","language_id":38}}]},{"id":5385,"verse_number":10,"verse_key":"70:10","hizb_number":57,"rub_el_hizb_number":227,"ruku_number":504,"manzil_number":7,"sajdah_number":null,"page_number":568,"juz_number":29,"words":[{"id":11526,"position":1,"audio_url":"wbw/070_010_001.mp3","char_type_name":"word","page_number":568,"line_number":15,"text":"وَلَا","translation":{"text":"এবং না","language_name":"bengali","language_id":20},"transliteration":{"text":"walā","language_name":"english","language_id":38}},{"id":11527,"position":2,"audio_url":"wbw/070_010_002.mp3","char_type_name":"word","page_number":568,"line_number":15,"text":"يَسْـَٔلُ","translation":{"text":"জিজ্ঞাসা করবে","language_name":"bengali","language_id":20},"transliteration":{"text":"yasalu","language_name":"english","language_id":38}},{"id":11528,"position":3,"audio_url":"wbw/070_010_003.mp3","char_type_name":"word","page_number":568,"line_number":15,"text":"حَمِيمٌ","translation":{"text":"কোন বন্ধু","language_name":"bengali","language_id":20},"transliteration":{"text":"ḥamīmun","language_name":"english","language_id":38}},{"id":11529,"position":4,"audio_url":"wbw/070_010_004.mp3","char_type_name":"word","page_number":568,"line_number":15,"text":"حَمِيمًۭا","translation":{"text":"বন্ধুকে","language_name":"bengali","language_id":20},"transliteration":{"text":"ḥamīman","language_name":"english","language_id":38}},{"id":11530,"position":5,"audio_url":null,"char_type_name":"end","page_number":568,"line_number":15,"text":"١٠","translation":{"text":"(১০)","language_name":"bengali","language_id":20},"transliteration":{"text":null,"language_name":"english","language_id":38}}]}],"pagination":{"per_page":10,"current_page":1,"next_page":2,"total_pages":5,"total_records":44}}
