{"verses":[{"id":5416,"verse_number":41,"verse_key":"70:41","hizb_number":57,"rub_el_hizb_number":228,"ruku_number":505,"manzil_number":7,"sajdah_number":null,"page_number":570,"juz_number":29,"words":[{"id":42188,"position":1,"audio_url":"wbw/070_041_001.mp3","char_type_name":"word","page_number":570,"line_number":1,"text":"عَلَىٰٓ","translation":{"text":"উপর","language_name":"bengali","language_id":20},"transliteration":{"text":"ʿalā","language_name":"english","language_id":38}},{"id":42189,"position":2,"audio_url":"wbw/070_041_002.mp3","char_type_name":"word","page_number":570,"line_number":1,"text":"أَن","translation":{"text":"যে","language_name":"bengali","language_id":20},"transliteration":{"text":"an","language_name":"english","language_id":38}},{"id":42190,"position":3,"audio_url":"wbw/070_041_003.mp3","char_type_name":"word","page_number":570,"line_number":1,"text":"نُّبَدِّلَ","translation":{"text":"বদলাব","language_name":"bengali","language_id":20},"transliteration":{"text":"nubaddila","language_name":"english","language_id":38}},{"id":42191,"position":4,"audio_url":"wbw/070_041_004.mp3","char_type_name":"word","page_number":570,"line_number":1,"text":"خَيْرًۭا","translation":{"text":"আমরা","language_name":"bengali","language_id":20},"transliteration":{"text":"khayran","language_name":"english","language_id":38}},{"id":42192,"position":5,"audio_url":"wbw/070_041_005.mp3","char_type_name":"word","page_number":570,"line_number":1,"text":"مِّنْهُمْ","translation":{"text":"তাদের চেয়ে","language_name":"bengali","language_id":20},"transliteration":{"text":"min'hum","language_name":"english","language_id":38}},{"id":42193,"position":6,"audio_url":"wbw/070_041_006.mp3","char_type_name":"word","page_number":570,"line_number":1,"text":"وَمَا","translation":{"text":"এবং না","language_name":"bengali","language_id":20},"transliteration":{"text":"wamā","language_name":"english","language_id":38}},{"id":42194,"position":7,"audio_url":"wbw/070_041_007.mp3","char_type_name":"word","page_number":570,"line_number":1,"text":"نَحْنُ","translation":{"text":"আমাদের","language_name":"bengali","language_id":20},"transliteration":{"text":"naḥnu","language_name":"english","language_id":38}},{"id":42195,"position":8,"audio_url":"wbw/070_041_008.mp3","char_type_name":"word","page_number":570,"line_number":1,"text":"بِمَسْبُوقِينَ","translation":{"text":"অতিক্রমকারী","language_name":"bengali","language_id":20},"transliteration":{"text":"bimasbūqīna","language_name":"english","language_id":38}},{"id":42196,"position":9,"audio_url":null,"char_type_name":"end","page_number":570,"line_number":1,"text":"٤١","translation":{"text":"(৪১)","language_name":"bengali","language_id":20},"transliteration":{"text":null,"language_name":"english","language_id":38}}]},{"id":5417,"verse_number":42,"verse_key":"70:42","hizb_number":57,"rub_el_hizb_number":228,"ruku_number":505,"manzil_number":7,"sajdah_number":null,"page_number":570,"juz_number":29,"words":[{"id":43034,"position":1,"audio_url":"wbw/070_042_001.mp3","char_type_name":"word","page_number":570,"line_number":1,"text":"فَذَرْهُمْ","translation":{"text":"সুতরাং তাদের ছেড়ে দাও,","language_name":"bengali","language_id":20},"transliteration":{"text":"fadharhum","language_name":"english","language_id":38}},{"id":43035,"position":2,"audio_url":"wbw/070_042_002.mp3","char_type_name":"word","page_number":570,"line_number":2,"text":"يَخُوضُوا۟","translation":{"text":"(করতে) বেহুদা কথায়","language_name":"bengali","language_id":20},"transliteration":{"text":"yakhūḍū","language_name":"english","language_id":38}},{"id":43036,"position":3,"audio_url":"wbw/070_042_003.mp3","char_type_name":"word","page_number":570,"line_number":2,"text":"وَيَلْعَبُوا۟","translation":{"text":"আর খেল-তামাশায়","language_name":"bengali","language_id":20},"transliteration":{"text":"wayalʿabū","language_name":"english","language_id":38}},{"id":43037,"position":4,"audio_url":"wbw/070_042_004.mp3","char_type_name":"word","page_number":570,"line_number":2,"text":"حَتَّىٰ","translation":{"text":"যতক্ষণ না","language_name":"bengali","language_id":20},"transliteration":{"text":"ḥattā","language_name":"english","language_id":38}},{"id":43038,"position":5,"audio_url":"wbw/070_042_005.mp3","char_type_name":"word","page_number":570,"line_number":2,"text":"يُلَـٰقُوا۟","translation":{"text":"দেখা পায়","language_name":"bengali","language_id":20},"transliteration":{"text":"yulāqū","language_name":"english","language_id":38}},{"id":43039,"position":6,"audio_url":"wbw/070_042_006.mp3","char_type_name":"word","page_number":570,"line_number":2,"text":"يَوْمَهُمُ","translation":{"text":"সেদিনের,","language_name":"bengali","language_id":20},"transliteration":{"text":"yawmahumu","language_name":"english","language_id":38}},{"id":43040,"position":7,"audio_url":"wbw/070_042_007.mp3","char_type_name":"word","page_number":570,"line_number":2,"text":"ٱلَّذِى","translation":{"text":"যার","language_name":"bengali","language_id":20},"transliteration":{"text":"alladhī","language_name":"english","language_id":38}},{"id":43041,"position":8,"audio_url":"wbw/070_042_008.mp3","char_type_name":"word","page_number":570,"line_number":2,"text":"يُوعَدُونَ","translation":{"text":"তাদের ওয়াদা করা হয়েছে","language_name":"bengali","language_id":20},"transliteration":{"text":"yūʿadūna","language_name":"english","language_id":38}},{"id":43042,"position":9,"audio_url":null,"char_type_name":"end","page_number":570,"line_number":2,"text":"٤٢","translation":{"text":"(৪২)","language_name":"bengali","language_id":20},"transliteration":{"text":null,"language_name":"english","language_id":38}}]},{"id":5418,"verse_number":43,"verse_key":"70:43","hizb_number":57,"rub_el_hizb_number":228,"ruku_number":505,"manzil_number":7,"sajdah_number":null,"page_number":570,"juz_number":29,"words":[{"id":43734,"position":1,"audio_url":"wbw/070_043_001.mp3","char_type_name":"word","page_number":570,"line_number":2,"text":"يَوْمَ","translation":{"text":"যেদিন","language_name":"bengali","language_id":20},"transliteration":{"text":"yawma","language_name":"english","language_id":38}},{"id":43735,"position":2,"audio_url":"wbw/070_043_002.mp3","char_type_name":"word","page_number":570,"line_number":3,"text":"يَخْرُجُونَ","translation":{"text":"তারা বের হবে","language_name":"bengali","language_id":20},"transliteration":{"text":"yakhrujūna","language_name":"english","language_id":38}},{"id":43736,"position":3,"audio_url":"wbw/070_043_003.mp3","char_type_name":"word","page_number":570,"line_number":3,"text":"مِنَ","translation":{"text":"থেকে","language_name":"bengali","language_id":20},"transliteration":{"text":"mina","language_name":"english","language_id":38}},{"id":43737,"position":4,"audio_url":"wbw/070_043_004.mp3","char_type_name":"word","page_number":570,"line_number":3,"text":"ٱلْأَجْدَاثِ","translation":{"text":"কবরগুলো","language_name":"bengali","language_id":20},"transliteration":{"text":"l-ajdāthi","language_name":"english","language_id":38}},{"id":43738,"position":5,"audio_url":"wbw/070_043_005.mp3","char_type_name":"word","page_number":570,"line_number":3,"text":"سِرَاعًۭا","translation":{"text":"দ্রুতভাবে","language_name":"bengali","language_id":20},"transliteration":{"text":"sirāʿan","language_name":"english","language_id":38}},{"id":43739,"position":6,"audio_url":"wbw/070_043_006.mp3","char_type_name":"word","page_number":570,"line_number":3,"text":"كَأَنَّهُمْ","translation":{"text":"তারা যেন","language_name":"bengali","language_id":20},"transliteration":{"text":"ka-annahum","language_name":"english","language_id":38}},{"id":43740,"position":7,"audio_url":"wbw/070_043_007.mp3","char_type_name":"word","page_number":570,"line_number":3,"text":"إِلَىٰ","translation":{"text":"দিকে","language_name":"bengali","language_id":20},"transliteration":{"text":"ilā","language_name":"english","language_id":38}},{"id":43741,"position":8,"audio_url":"wbw/070_043_008.mp3","char_type_name":"word","page_number":570,"line_number":3,"text":"نُصُبٍۢ","translation":{"text":"লক্ষ্যের","language_name":"bengali","language_id":20},"transliteration":{"text":"nuṣubin","language_name":"english","language_id":38}},{"id":43742,"position":9,"audio_url":"wbw/070_043_009.mp3","char_type_name":"word","page_number":570,"line_number":3,"text":"يُوفِضُونَ","translation":{"text":"ছুটে যাচ্ছে","language_name":"bengali","language_id":20},"transliteration":{"text":"yūfiḍūna","language_name":"english","language_id":38}},{"id":43743,"position":10,"audio_url":null,"char_type_name":"end","page_number":570,"line_number":3,"text":"٤٣","translation":{"text":"(৪৩)","language_name":"bengali","language_id":20},"transliteration":{"text":null,"language_name":"english","language_id":38}}]},{"id":5419,"verse_number":44,"verse_key":"70:44","hizb_number":57,"rub_el_hizb_number":228,"ruku_number":505,"manzil_number":7,"sajdah_number":null,"page_number":570,"juz_number":29,"words":[{"id":44478,"position":1,"audio_url":"wbw/070_044_001.mp3","char_type_name":"word","page_number":570,"line_number":4,"text":"خَـٰشِعَةً","translation":{"text":"অবনত","language_name":"bengali","language_id":20},"transliteration":{"text":"khāshiʿatan","language_name":"english","language_id":38}},{"id":44479,"position":2,"audio_url":"wbw/070_044_002.mp3","char_type_name":"word","page_number":570,"line_number":4,"text":"أَبْصَـٰرُهُمْ","translation":{"text":"তাদের চোখ","language_name":"bengali","language_id":20},"transliteration":{"text":"abṣāruhum","language_name":"english","language_id":38}},{"id":44480,"position":3,"audio_url":"wbw/070_044_003.mp3","char_type_name":"word","page_number":570,"line_number":4,"text":"تَرْهَقُهُمْ","translation":{"text":"তাদেরকে আচ্ছন্ন করবে","language_name":"bengali","language_id":20},"transliteration":{"text":"tarhaquhum","language_name":"english","language_id":38}},{"id":44481,"position":4,"audio_url":"wbw/070_044_004.mp3","char_type_name":"word","page_number":570,"line_number":4,"text":"ذِلَّةٌۭ ۚ","translation":{"text":"লাঞ্ছনা","language_name":"bengali","language_id":20},"transliteration":{"text":"dhillatun","language_name":"english","language_id":38}},{"id":44483,"position":5,"audio_url":"wbw/070_044_006.mp3","char_type_name":"word","page_number":570,"line_number":4,"text":"ذَٰلِكَ","translation":{"text":"এটা","language_name":"bengali","language_id":20},"transliteration":{"text":"dhālika","language_name":"english","language_id":38}},{"id":44484,"position":6,"audio_url":"wbw/070_044_007.mp3","char_type_name":"word","page_number":570,"line_number":4,"text":"ٱلْيَوْمُ","translation":{"text":"সেদিন","language_name":"bengali","language_id":20},"transliteration":{"text":"l-yawmu","language_name":"english","language_id":38}},{"id":44485,"position":7,"audio_url":"wbw/070_044_008.mp3","char_type_name":"word","page_number":570,"line_number":4,"text":"ٱلَّذِى","translation":{"text":"যার","language_name":"bengali","language_id":20},"transliteration":{"text":"alladhī","language_name":"english","language_id":38}},{"id":44486,"position":8,"audio_url":"wbw/070_044_009.mp3","char_type_name":"word","page_number":570,"line_number":4,"text":"كَانُوا۟","translation":{"text":"তাদেরকে দেয়া হয়েছিল","language_name":"bengali","language_id":20},"transliteration":{"text":"kānū","language_name":"english","language_id":38}},{"id":44487,"position":9,"audio_url":"wbw/070_044_010.mp3","char_type_name":"word","page_number":570,"line_number":4,"text":"يُوعَدُونَ","translation":{"text":"যার ওয়াদা","language_name":"bengali","language_id":20},"transliteration":{"text":"yūʿadūna","language_name":"english","language_id":38}},{"id":44488,"position":10,"audio_url":null,"char_type_name":"end","page_number":570,"line_number":4,"text":"٤٤","translation":{"text":"(৪৪)","language_name":"bengali","language_id":20},"transliteration":{"text":null,"language_name":"english","language_id":38}}]}],"pagination":{"per_page":10,"current_page":5,"next_page":null,"total_pages":5,"total_records":44}}
