{"verses":[{"id":4980,"verse_number":1,"verse_key":"56:1","hizb_number":54,"rub_el_hizb_number":214,"ruku_number":471,"manzil_number":7,"sajdah_number":null,"page_number":534,"juz_number":27,"words":[{"id":299,"position":1,"audio_url":"wbw/056_001_001.mp3","verse_key":"56:1","verse_id":4980,"location":"56:1:1","text_uthmani":"إِذَا","qpc_uthmani_hafs":"إِذَا","char_type_name":"word","page_number":534,"line_number":9,"text":"إِذَا","translation":{"text":"When","language_name":"english","language_id":38},"transliteration":{"text":"idhā","language_name":"english","language_id":38}},{"id":300,"position":2,"audio_url":"wbw/056_001_002.mp3","verse_key":"56:1","verse_id":4980,"location":"56:1:2","text_uthmani":"وَقَعَتِ","qpc_uthmani_hafs":"وَقَعَتِ","char_type_name":"word","page_number":534,"line_number":9,"text":"وَقَعَتِ","translation":{"text":"occurs","language_name":"english","language_id":38},"transliteration":{"text":"waqaʿati","language_name":"english","language_id":38}},{"id":301,"position":3,"audio_url":"wbw/056_001_003.mp3","verse_key":"56:1","verse_id":4980,"location":"56:1:3","text_uthmani":"ٱلْوَاقِعَةُ","qpc_uthmani_hafs":"ٱلۡوَاقِعَةُ","char_type_name":"word","page_number":534,"line_number":9,"text":"ٱلۡوَاقِعَةُ","translation":{"text":"the Event","language_name":"english","language_id":38},"transliteration":{"text":"l-wāqiʿatu","language_name":"english","language_id":38}},{"id":302,"position":4,"audio_url":null,"verse_key":"56:1","verse_id":4980,"location":"56:1:4","text_uthmani":"١","qpc_uthmani_hafs":"١","char_type_name":"end","page_number":534,"line_number":9,"text":"١","translation":{"text":"(1)","language_name":"english","language_id":38},"transliteration":{"text":null,"language_name":"english","language_id":38}}]},{"id":4981,"verse_number":2,"verse_key":"56:2","hizb_number":54,"rub_el_hizb_number":214,"ruku_number":471,"manzil_number":7,"sajdah_number":null,"page_number":534,"juz_number":27,"words":[{"id":1221,"position":1,"audio_url":"wbw/056_002_001.mp3","verse_key":"56:2","verse_id":4981,"location":"56:2:1","text_uthmani":"لَيْسَ","qpc_uthmani_hafs":"لَيۡسَ","char_type_name":"word","page_number":534,"line_number":9,"text":"لَيۡسَ","translation":{"text":"Not","language_name":"english","language_id":38},"transliteration":{"text":"laysa","language_name":"english","language_id":38}},{"id":1222,"position":2,"audio_url":"wbw/056_002_002.mp3","verse_key":"56:2","verse_id":4981,"location":"56:2:2","text_uthmani":"لِوَقْعَتِهَا","qpc_uthmani_hafs":"لِوَقۡعَتِهَا","char_type_name":"word","page_number":534,"line_number":9,"text":"لِوَقۡعَتِهَا","translation":{"text":"at its occurrence","language_name":"english","language_id":38},"transliteration":{"text":"liwaqʿatihā","language_name":"english","language_id":38}},{"id":1223,"position":3,"audio_url":"wbw/056_002_003.mp3","verse_key":"56:2","verse_id":4981,"location":"56:2:3","text_uthmani":"كَاذِبَةٌ","qpc_uthmani_hafs":"كَاذِبَةٌ","char_type_name":"word","page_number":534,"line_number":9,"text":"كَاذِبَةٌ","translation":{"text":"a denial","language_name":"english","language_id":38},"transliteration":{"text":"kādhibatun","language_name":"english","language_id":38}},{"id":1224,"position":4,"audio_url":null,"verse_key":"56:2","verse_id":4981,"location":"56:2:4","text_uthmani":"٢","qpc_uthmani_hafs":"٢","char_type_name":"end","page_number":534,"line_number":9,"text":"٢","translation":{"text":"(2)","language_name":"english","language_id":38},"transliteration":{"text":null,"language_name":"english","language_id":38}}]},{"id":4982,"verse_number":3,"verse_key":"56:3","hizb_number":54,"rub_el_hizb_number":214,"ruku_number":471,"manzil_number":7,"sajdah_number":null,"page_number":534,"juz_number":27,"words":[{"id":2257,"position":1,"audio_url":"wbw/056_003_001.mp3","verse_key":"56:3","verse_id":4982,"location":"56:3:1","text_uthmani":"خَافِضَةٌۭ","qpc_uthmani_hafs":"خَافِضَةٞ","char_type_name":"word","page_number":534,"line_number":9,"text":"خَافِضَةٞ","translation":{"text":"Bringing down","language_name":"english","language_id":38},"transliteration":{"text":"khāfiḍatun","language_name":"english","language_id":38}},{"id":2258,"position":2,"audio_url":"wbw/056_003_002.mp3","verse_key":"56:3","verse_id":4982,"location":"56:3:2","text_uthmani":"رَّافِعَةٌ","qpc_uthmani_hafs":"رَّافِعَةٌ","char_type_name":"word","page_number":534,"line_number":9,"text":"رَّافِعَةٌ","translation":{"text":"raising up","language_name":"english","language_id":38},"transliteration":{"text":"rāfiʿatun","language_name":"english","language_id":38}},{"id":2259,"position":3,"audio_url":null,"verse_key":"56:3","verse_id":4982,"location":"56:3:3","text_uthmani":"٣","qpc_uthmani_hafs":"٣","char_type_name":"end","page_number":534,"line_number":10,"text":"٣","translation":{"text":"(3)","language_name":"english","language_id":38},"transliteration":{"text":null,"language_name":"english","language_id":38}}]},{"id":4983,"verse_number":4,"verse_key":"56:4","hizb_number":54,"rub_el_hizb_number":214,"ruku_number":471,"manzil_number":7,"sajdah_number":null,"page_number":534,"juz_number":27,"words":[{"id":3582,"position":1,"audio_url":"wbw/056_004_001.mp3","verse_key":"56:4","verse_id":4983,"location":"56:4:1","text_uthmani":"إِذَا","qpc_uthmani_hafs":"إِذَا","char_type_name":"word","page_number":534,"line_number":10,"text":"إِذَا","translation":{"text":"When","language_name":"english","language_id":38},"transliteration":{"text":"idhā","language_name":"english","language_id":38}},{"id":3583,"position":2,"audio_url":"wbw/056_004_002.mp3","verse_key":"56:4","verse_id":4983,"location":"56:4:2","text_uthmani":"رُجَّتِ","qpc_uthmani_hafs":"رُجَّتِ","char_type_name":"word","page_number":534,"line_number":10,"text":"رُجَّتِ","translation":{"text":"will be shaken","language_name":"english","language_id":38},"transliteration":{"text":"rujjati","language_name":"english","language_id":38}},{"id":3584,"position":3,"audio_url":"wbw/056_004_003.mp3","verse_key":"56:4","verse_id":4983,"location":"56:4:3","text_uthmani":"ٱلْأَرْضُ","qpc_uthmani_hafs":"ٱلۡأَرۡضُ","char_type_name":"word","page_number":534,"line_number":10,"text":"ٱلۡأَرۡضُ","translation":{"text":"the earth","language_name":"english","language_id":38},"transliteration":{"text":"l-arḍu","language_name":"english","language_id":38}},{"id":3585,"position":4,"audio_url":"wbw/056_004_004.mp3","verse_key":"56:4","verse_id":4983,"location":"56:4:4","text_uthmani":"رَجًّۭا","qpc_uthmani_hafs":"رَجّٗا","char_type_name":"word","page_number":534,"line_number":10,"text":"رَجّٗا","translation":{"text":"(with) a shaking","language_name":"english","language_id":38},"transliteration":{"text":"rajjan","language_name":"english","language_id":38}},{"id":3586,"position":5,"audio_url":null,"verse_key":"56:4","verse_id":4983,"location":"56:4:5","text_uthmani":"٤","qpc_uthmani_hafs":"٤","char_type_name":"end","page_number":534,"line_number":10,"text":"٤","translation":{"text":"(4)","language_name":"english","language_id":38},"transliteration":{"text":null,"language_name":"english","language_id":38}}]},{"id":4984,"verse_number":5,"verse_key":"56:5","hizb_number":54,"rub_el_hizb_number":214,"ruku_number":471,"manzil_number":7,"sajdah_number":null,"page_number":534,"juz_number":27,"words":[{"id":4909,"position":1,"audio_url":"wbw/056_005_001.mp3","verse_key":"56:5","verse_id":4984,"location":"56:5:1","text_uthmani":"وَبُسَّتِ","qpc_uthmani_hafs":"وَبُسَّتِ","char_type_name":"word","page_number":534,"line_number":10,"text":"وَبُسَّتِ","translation":{"text":"And will be crumbled","language_name":"english","language_id":38},"transliteration":{"text":"wabussati","language_name":"english","language_id":38}},{"id":4910,"position":2,"audio_url":"wbw/056_005_002.mp3","verse_key":"56:5","verse_id":4984,"location":"56:5:2","text_uthmani":"ٱلْجِبَالُ","qpc_uthmani_hafs":"ٱلۡجِبَالُ","char_type_name":"word","page_number":534,"line_number":10,"text":"ٱلۡجِبَالُ","translation":{"text":"the mountains","language_name":"english","language_id":38},"transliteration":{"text":"l-jibālu","language_name":"english","language_id":38}},{"id":4911,"position":3,"audio_url":"wbw/056_005_003.mp3","verse_key":"56:5","verse_id":4984,"location":"56:5:3","text_uthmani":"بَسًّۭا","qpc_uthmani_hafs":"بَسّٗا","char_type_name":"word","page_number":534,"line_number":10,"text":"بَسّٗا","translation":{"text":"(with awful) crumbling","language_name":"english","language_id":38},"transliteration":{"text":"bassan","language_name":"english","language_id":38}},{"id":4912,"position":4,"audio_url":null,"verse_key":"56:5","verse_id":4984,"location":"56:5:4","text_uthmani":"٥","qpc_uthmani_hafs":"٥","char_type_name":"end","page_number":534,"line_number":10,"text":"٥","translation":{"text":"(5)","language_name":"english","language_id":38},"transliteration":{"text":null,"language_name":"english","language_id":38}}]},{"id":4985,"verse_number":6,"verse_key":"56:6","hizb_number":54,"rub_el_hizb_number":214,"ruku_number":471,"manzil_number":7,"sajdah_number":null,"page_number":534,"juz_number":27,"words":[{"id":6181,"position":1,"audio_url":"wbw/056_006_001.mp3","verse_key":"56:6","verse_id":4985,"location":"56:6:1","text_uthmani":"فَكَانَتْ","qpc_uthmani_hafs":"فَكَانَتۡ","char_type_name":"word","page_number":534,"line_number":10,"text":"فَكَانَتۡ","translation":{"text":"So they become","language_name":"english","language_id":38},"transliteration":{"text":"fakānat","language_name":"english","language_id":38}},{"id":6182,"position":2,"audio_url":"wbw/056_006_002.mp3","verse_key":"56:6","verse_id":4985,"location":"56:6:2","text_uthmani":"هَبَآءًۭ","qpc_uthmani_hafs":"هَبَآءٗ","char_type_name":"word","page_number":534,"line_number":11,"text":"هَبَآءٗ","translation":{"text":"dust particles","language_name":"english","language_id":38},"transliteration":{"text":"habāan","language_name":"english","language_id":38}},{"id":6183,"position":3,"audio_url":"wbw/056_006_003.mp3","verse_key":"56:6","verse_id":4985,"location":"56:6:3","text_uthmani":"مُّنۢبَثًّۭا","qpc_uthmani_hafs":"مُّنۢبَثّٗا","char_type_name":"word","page_number":534,"line_number":11,"text":"مُّنۢبَثّٗا","translation":{"text":"dispersing","language_name":"english","language_id":38},"transliteration":{"text":"munbathan","language_name":"english","language_id":38}},{"id":6184,"position":4,"audio_url":null,"verse_key":"56:6","verse_id":4985,"location":"56:6:4","text_uthmani":"٦","qpc_uthmani_hafs":"٦","char_type_name":"end","page_number":534,"line_number":11,"text":"٦","translation":{"text":"(6)","language_name":"english","language_id":38},"transliteration":{"text":null,"language_name":"english","language_id":38}}]},{"id":4986,"verse_number":7,"verse_key":"56:7","hizb_number":54,"rub_el_hizb_number":214,"ruku_number":471,"manzil_number":7,"sajdah_number":null,"page_number":534,"juz_number":27,"words":[{"id":7500,"position":1,"audio_url":"wbw/056_007_001.mp3","verse_key":"56:7","verse_id":4986,"location":"56:7:1","text_uthmani":"وَكُنتُمْ","qpc_uthmani_hafs":"وَكُنتُمۡ","char_type_name":"word","page_number":534,"line_number":11,"text":"وَكُنتُمۡ","translation":{"text":"And you will become","language_name":"english","language_id":38},"transliteration":{"text":"wakuntum","language_name":"english","language_id":38}},{"id":7501,"position":2,"audio_url":"wbw/056_007_002.mp3","verse_key":"56:7","verse_id":4986,"location":"56:7:2","text_uthmani":"أَزْوَٰجًۭا","qpc_uthmani_hafs":"أَزۡوَٰجٗا","char_type_name":"word","page_number":534,"line_number":11,"text":"أَزۡوَٰجٗا","translation":{"text":"kinds","language_name":"english","language_id":38},"transliteration":{"text":"azwājan","language_name":"english","language_id":38}},{"id":7502,"position":3,"audio_url":"wbw/056_007_003.mp3","verse_key":"56:7","verse_id":4986,"location":"56:7:3","text_uthmani":"ثَلَـٰثَةًۭ","qpc_uthmani_hafs":"ثَلَٰثَةٗ","char_type_name":"word","page_number":534,"line_number":11,"text":"ثَلَٰثَةٗ","translation":{"text":"three","language_name":"english","language_id":38},"transliteration":{"text":"thalāthatan","language_name":"english","language_id":38}},{"id":7503,"position":4,"audio_url":null,"verse_key":"56:7","verse_id":4986,"location":"56:7:4","text_uthmani":"٧","qpc_uthmani_hafs":"٧","char_type_name":"end","page_number":534,"line_number":11,"text":"٧","translation":{"text":"(7)","language_name":"english","language_id":38},"transliteration":{"text":null,"language_name":"english","language_id":38}}]},{"id":4987,"verse_number":8,"verse_key":"56:8","hizb_number":54,"rub_el_hizb_number":214,"ruku_number":471,"manzil_number":7,"sajdah_number":null,"page_number":534,"juz_number":27,"words":[{"id":8746,"position":1,"audio_url":"wbw/056_008_001.mp3","verse_key":"56:8","verse_id":4987,"location":"56:8:1","text_uthmani":"فَأَصْحَـٰبُ","qpc_uthmani_hafs":"فَأَصۡحَٰبُ","char_type_name":"word","page_number":534,"line_number":11,"text":"فَأَصۡحَٰبُ","translation":{"text":"Then (the) companions","language_name":"english","language_id":38},"transliteration":{"text":"fa-aṣḥābu","language_name":"english","language_id":38}},{"id":8747,"position":2,"audio_url":"wbw/056_008_002.mp3","verse_key":"56:8","verse_id":4987,"location":"56:8:2","text_uthmani":"ٱلْمَيْمَنَةِ","qpc_uthmani_hafs":"ٱلۡمَيۡمَنَةِ","char_type_name":"word","page_number":534,"line_number":11,"text":"ٱلۡمَيۡمَنَةِ","translation":{"text":"(of) the right","language_name":"english","language_id":38},"transliteration":{"text":"l-maymanati","language_name":"english","language_id":38}},{"id":8748,"position":3,"audio_url":"wbw/056_008_003.mp3","verse_key":"56:8","verse_id":4987,"location":"56:8:3","text_uthmani":"مَآ","qpc_uthmani_hafs":"مَآ","char_type_name":"word","page_number":534,"line_number":12,"text":"مَآ","translation":{"text":"what","language_name":"english","language_id":38},"transliteration":{"text":"mā","language_name":"english","language_id":38}},{"id":8749,"position":4,"audio_url":"wbw/056_008_004.mp3","verse_key":"56:8","verse_id":4987,"location":"56:8:4","text_uthmani":"أَصْحَـٰبُ","qpc_uthmani_hafs":"أَصۡحَٰبُ","char_type_name":"word","page_number":534,"line_number":12,"text":"أَصۡحَٰبُ","translation":{"text":"(are the) companions","language_name":"english","language_id":38},"transliteration":{"text":"aṣḥābu","language_name":"english","language_id":38}},{"id":8750,"position":5,"audio_url":"wbw/056_008_005.mp3","verse_key":"56:8","verse_id":4987,"location":"56:8:5","text_uthmani":"ٱلْمَيْمَنَةِ","qpc_uthmani_hafs":"ٱلۡمَيۡمَنَةِ","char_type_name":"word","page_number":534,"line_number":12,"text":"ٱلۡمَيۡمَنَةِ","translation":{"text":"(of) the right","language_name":"english","language_id":38},"transliteration":{"text":"l-maymanati","language_name":"english","language_id":38}},{"id":8751,"position":6,"audio_url":null,"verse_key":"56:8","verse_id":4987,"location":"56:8:6","text_uthmani":"٨","qpc_uthmani_hafs":"٨","char_type_name":"end","page_number":534,"line_number":12,"text":"٨","translation":{"text":"(8)","language_name":"english","language_id":38},"transliteration":{"text":null,"language_name":"english","language_id":38}}]},{"id":4988,"verse_number":9,"verse_key":"56:9","hizb_number":54,"rub_el_hizb_number":214,"ruku_number":471,"manzil_number":7,"sajdah_number":null,"page_number":534,"juz_number":27,"words":[{"id":9976,"position":1,"audio_url":"wbw/056_009_001.mp3","verse_key":"56:9","verse_id":4988,"location":"56:9:1","text_uthmani":"وَأَصْحَـٰبُ","qpc_uthmani_hafs":"وَأَصۡحَٰبُ","char_type_name":"word","page_number":534,"line_number":12,"text":"وَأَصۡحَٰبُ","translation":{"text":"And (the) companions","language_name":"english","language_id":38},"transliteration":{"text":"wa-aṣḥābu","language_name":"english","language_id":38}},{"id":9977,"position":2,"audio_url":"wbw/056_009_002.mp3","verse_key":"56:9","verse_id":4988,"location":"56:9:2","text_uthmani":"ٱلْمَشْـَٔمَةِ","qpc_uthmani_hafs":"ٱلۡمَشۡـَٔمَةِ","char_type_name":"word","page_number":534,"line_number":12,"text":"ٱلۡمَشۡـَٔمَةِ","translation":{"text":"(of) the left","language_name":"english","language_id":38},"transliteration":{"text":"l-mashamati","language_name":"english","language_id":38}},{"id":9978,"position":3,"audio_url":"wbw/056_009_003.mp3","verse_key":"56:9","verse_id":4988,"location":"56:9:3","text_uthmani":"مَآ","qpc_uthmani_hafs":"مَآ","char_type_name":"word","page_number":534,"line_number":12,"text":"مَآ","translation":{"text":"what","language_name":"english","language_id":38},"transliteration":{"text":"mā","language_name":"english","language_id":38}},{"id":9979,"position":4,"audio_url":"wbw/056_009_004.mp3","verse_key":"56:9","verse_id":4988,"location":"56:9:4","text_uthmani":"أَصْحَـٰبُ","qpc_uthmani_hafs":"أَصۡحَٰبُ","char_type_name":"word","page_number":534,"line_number":12,"text":"أَصۡحَٰبُ","translation":{"text":"(are the) companions","language_name":"english","language_id":38},"transliteration":{"text":"aṣḥābu","language_name":"english","language_id":38}},{"id":9980,"position":5,"audio_url":"wbw/056_009_005.mp3","verse_key":"56:9","verse_id":4988,"location":"56:9:5","text_uthmani":"ٱلْمَشْـَٔمَةِ","qpc_uthmani_hafs":"ٱلۡمَشۡـَٔمَةِ","char_type_name":"word","page_number":534,"line_number":13,"text":"ٱلۡمَشۡـَٔمَةِ","translation":{"text":"(of) the left","language_name":"english","language_id":38},"transliteration":{"text":"l-mashamati","language_name":"english","language_id":38}},{"id":9981,"position":6,"audio_url":null,"verse_key":"56:9","verse_id":4988,"location":"56:9:6","text_uthmani":"٩","qpc_uthmani_hafs":"٩","char_type_name":"end","page_number":534,"line_number":13,"text":"٩","translation":{"text":"(9)","language_name":"english","language_id":38},"transliteration":{"text":null,"language_name":"english","language_id":38}}]},{"id":4989,"verse_number":10,"verse_key":"56:10","hizb_number":54,"rub_el_hizb_number":214,"ruku_number":471,"manzil_number":7,"sajdah_number":null,"page_number":534,"juz_number":27,"words":[{"id":11171,"position":1,"audio_url":"wbw/056_010_001.mp3","verse_key":"56:10","verse_id":4989,"location":"56:10:1","text_uthmani":"وَٱلسَّـٰبِقُونَ","qpc_uthmani_hafs":"وَٱلسَّٰبِقُونَ","char_type_name":"word","page_number":534,"line_number":13,"text":"وَٱلسَّٰبِقُونَ","translation":{"text":"And the foremost","language_name":"english","language_id":38},"transliteration":{"text":"wal-sābiqūna","language_name":"english","language_id":38}},{"id":11172,"position":2,"audio_url":"wbw/056_010_002.mp3","verse_key":"56:10","verse_id":4989,"location":"56:10:2","text_uthmani":"ٱلسَّـٰبِقُونَ","qpc_uthmani_hafs":"ٱلسَّٰبِقُونَ","char_type_name":"word","page_number":534,"line_number":13,"text":"ٱلسَّٰبِقُونَ","translation":{"text":"(are) the foremost","language_name":"english","language_id":38},"transliteration":{"text":"l-sābiqūna","language_name":"english","language_id":38}},{"id":11173,"position":3,"audio_url":null,"verse_key":"56:10","verse_id":4989,"location":"56:10:3","text_uthmani":"١٠","qpc_uthmani_hafs":"١٠","char_type_name":"end","page_number":534,"line_number":13,"text":"١٠","translation":{"text":"(10)","language_name":"english","language_id":38},"transliteration":{"text":null,"language_name":"english","language_id":38}}]}],"pagination":{"per_page":10,"current_page":1,"next_page":2,"total_pages":10,"total_records":96}}
