{"verses":[{"id":5070,"verse_number":91,"verse_key":"56:91","hizb_number":54,"rub_el_hizb_number":215,"ruku_number":473,"manzil_number":7,"sajdah_number":null,"page_number":537,"juz_number":27,"words":[{"id":68238,"position":1,"audio_url":"wbw/056_091_001.mp3","verse_key":"56:91","verse_id":5070,"location":"56:91:1","text_uthmani":"فَسَلَـٰمٌۭ","qpc_uthmani_hafs":"فَسَلَٰمٞ","char_type_name":"word","page_number":537,"line_number":8,"text":"فَسَلَٰمٞ","translation":{"text":"Then, peace","language_name":"english","language_id":38},"transliteration":{"text":"fasalāmun","language_name":"english","language_id":38}},{"id":68239,"position":2,"audio_url":"wbw/056_091_002.mp3","verse_key":"56:91","verse_id":5070,"location":"56:91:2","text_uthmani":"لَّكَ","qpc_uthmani_hafs":"لَّكَ","char_type_name":"word","page_number":537,"line_number":8,"text":"لَّكَ","translation":{"text":"for you","language_name":"english","language_id":38},"transliteration":{"text":"laka","language_name":"english","language_id":38}},{"id":68240,"position":3,"audio_url":"wbw/056_091_003.mp3","verse_key":"56:91","verse_id":5070,"location":"56:91:3","text_uthmani":"مِنْ","qpc_uthmani_hafs":"مِنۡ","char_type_name":"word","page_number":537,"line_number":8,"text":"مِنۡ","translation":{"text":"[from]","language_name":"english","language_id":38},"transliteration":{"text":"min","language_name":"english","language_id":38}},{"id":68241,"position":4,"audio_url":"wbw/056_091_004.mp3","verse_key":"56:91","verse_id":5070,"location":"56:91:4","text_uthmani":"أَصْحَـٰبِ","qpc_uthmani_hafs":"أَصۡحَٰبِ","char_type_name":"word","page_number":537,"line_number":8,"text":"أَصۡحَٰبِ","translation":{"text":"(the) companions","language_name":"english","language_id":38},"transliteration":{"text":"aṣḥābi","language_name":"english","language_id":38}},{"id":68242,"position":5,"audio_url":"wbw/056_091_005.mp3","verse_key":"56:91","verse_id":5070,"location":"56:91:5","text_uthmani":"ٱلْيَمِينِ","qpc_uthmani_hafs":"ٱلۡيَمِينِ","char_type_name":"word","page_number":537,"line_number":8,"text":"ٱلۡيَمِينِ","translation":{"text":"(of) the right","language_name":"english","language_id":38},"transliteration":{"text":"l-yamīni","language_name":"english","language_id":38}},{"id":68243,"position":6,"audio_url":null,"verse_key":"56:91","verse_id":5070,"location":"56:91:6","text_uthmani":"٩١","qpc_uthmani_hafs":"٩١","char_type_name":"end","page_number":537,"line_number":8,"text":"٩١","translation":{"text":"(91)","language_name":"english","language_id":38},"transliteration":{"text":null,"language_name":"english","language_id":38}}]},{"id":5071,"verse_number":92,"verse_key":"56:92","hizb_number":54,"rub_el_hizb_number":215,"ruku_number":473,"manzil_number":7,"sajdah_number":null,"page_number":537,"juz_number":27,"words":[{"id":68708,"position":1,"audio_url":"wbw/056_092_001.mp3","verse_key":"56:92","verse_id":5071,"location":"56:92:1","text_uthmani":"وَأَمَّآ","qpc_uthmani_hafs":"وَأَمَّآ","char_type_name":"word","page_number":537,"line_number":8,"text":"وَأَمَّآ","translation":{"text":"But","language_name":"english","language_id":38},"transliteration":{"text":"wa-ammā","language_name":"english","language_id":38}},{"id":68709,"position":2,"audio_url":"wbw/056_092_002.mp3","verse_key":"56:92","verse_id":5071,"location":"56:92:2","text_uthmani":"إِن","qpc_uthmani_hafs":"إِن","char_type_name":"word","page_number":537,"line_number":8,"text":"إِن","translation":{"text":"if","language_name":"english","language_id":38},"transliteration":{"text":"in","language_name":"english","language_id":38}},{"id":68710,"position":3,"audio_url":"wbw/056_092_003.mp3","verse_key":"56:92","verse_id":5071,"location":"56:92:3","text_uthmani":"كَانَ","qpc_uthmani_hafs":"كَانَ","char_type_name":"word","page_number":537,"line_number":8,"text":"كَانَ","translation":{"text":"he was","language_name":"english","language_id":38},"transliteration":{"text":"kāna","language_name":"english","language_id":38}},{"id":68711,"position":4,"audio_url":"wbw/056_092_004.mp3","verse_key":"56:92","verse_id":5071,"location":"56:92:4","text_uthmani":"مِنَ","qpc_uthmani_hafs":"مِنَ","char_type_name":"word","page_number":537,"line_number":8,"text":"مِنَ","translation":{"text":"of","language_name":"english","language_id":38},"transliteration":{"text":"mina","language_name":"english","language_id":38}},{"id":68712,"position":5,"audio_url":"wbw/056_092_005.mp3","verse_key":"56:92","verse_id":5071,"location":"56:92:5","text_uthmani":"ٱلْمُكَذِّبِينَ","qpc_uthmani_hafs":"ٱلۡمُكَذِّبِينَ","char_type_name":"word","page_number":537,"line_number":9,"text":"ٱلۡمُكَذِّبِينَ","translation":{"text":"the deniers","language_name":"english","language_id":38},"transliteration":{"text":"l-mukadhibīna","language_name":"english","language_id":38}},{"id":68713,"position":6,"audio_url":"wbw/056_092_006.mp3","verse_key":"56:92","verse_id":5071,"location":"56:92:6","text_uthmani":"ٱلضَّآلِّينَ","qpc_uthmani_hafs":"ٱلضَّآلِّينَ","char_type_name":"word","page_number":537,"line_number":9,"text":"ٱلضَّآلِّينَ","translation":{"text":"the astray","language_name":"english","language_id":38},"transliteration":{"text":"l-ḍālīna","language_name":"english","language_id":38}},{"id":68714,"position":7,"audio_url":null,"verse_key":"56:92","verse_id":5071,"location":"56:92:7","text_uthmani":"٩٢","qpc_uthmani_hafs":"٩٢","char_type_name":"end","page_number":537,"line_number":9,"text":"٩٢","translation":{"text":"(92)","language_name":"english","language_id":38},"transliteration":{"text":null,"language_name":"english","language_id":38}}]},{"id":5072,"verse_number":93,"verse_key":"56:93","hizb_number":54,"rub_el_hizb_number":215,"ruku_number":473,"manzil_number":7,"sajdah_number":null,"page_number":537,"juz_number":27,"words":[{"id":69111,"position":1,"audio_url":"wbw/056_093_001.mp3","verse_key":"56:93","verse_id":5072,"location":"56:93:1","text_uthmani":"فَنُزُلٌۭ","qpc_uthmani_hafs":"فَنُزُلٞ","char_type_name":"word","page_number":537,"line_number":9,"text":"فَنُزُلٞ","translation":{"text":"Then, hospitality","language_name":"english","language_id":38},"transliteration":{"text":"fanuzulun","language_name":"english","language_id":38}},{"id":69112,"position":2,"audio_url":"wbw/056_093_002.mp3","verse_key":"56:93","verse_id":5072,"location":"56:93:2","text_uthmani":"مِّنْ","qpc_uthmani_hafs":"مِّنۡ","char_type_name":"word","page_number":537,"line_number":9,"text":"مِّنۡ","translation":{"text":"of","language_name":"english","language_id":38},"transliteration":{"text":"min","language_name":"english","language_id":38}},{"id":69113,"position":3,"audio_url":"wbw/056_093_003.mp3","verse_key":"56:93","verse_id":5072,"location":"56:93:3","text_uthmani":"حَمِيمٍۢ","qpc_uthmani_hafs":"حَمِيمٖ","char_type_name":"word","page_number":537,"line_number":9,"text":"حَمِيمٖ","translation":{"text":"(the) scalding water","language_name":"english","language_id":38},"transliteration":{"text":"ḥamīmin","language_name":"english","language_id":38}},{"id":69114,"position":4,"audio_url":null,"verse_key":"56:93","verse_id":5072,"location":"56:93:4","text_uthmani":"٩٣","qpc_uthmani_hafs":"٩٣","char_type_name":"end","page_number":537,"line_number":9,"text":"٩٣","translation":{"text":"(93)","language_name":"english","language_id":38},"transliteration":{"text":null,"language_name":"english","language_id":38}}]},{"id":5073,"verse_number":94,"verse_key":"56:94","hizb_number":54,"rub_el_hizb_number":215,"ruku_number":473,"manzil_number":7,"sajdah_number":null,"page_number":537,"juz_number":27,"words":[{"id":69391,"position":1,"audio_url":"wbw/056_094_001.mp3","verse_key":"56:94","verse_id":5073,"location":"56:94:1","text_uthmani":"وَتَصْلِيَةُ","qpc_uthmani_hafs":"وَتَصۡلِيَةُ","char_type_name":"word","page_number":537,"line_number":9,"text":"وَتَصۡلِيَةُ","translation":{"text":"And burning","language_name":"english","language_id":38},"transliteration":{"text":"wataṣliyatu","language_name":"english","language_id":38}},{"id":69392,"position":2,"audio_url":"wbw/056_094_002.mp3","verse_key":"56:94","verse_id":5073,"location":"56:94:2","text_uthmani":"جَحِيمٍ","qpc_uthmani_hafs":"جَحِيمٍ","char_type_name":"word","page_number":537,"line_number":9,"text":"جَحِيمٍ","translation":{"text":"(in) Hellfire","language_name":"english","language_id":38},"transliteration":{"text":"jaḥīmin","language_name":"english","language_id":38}},{"id":69393,"position":3,"audio_url":null,"verse_key":"56:94","verse_id":5073,"location":"56:94:3","text_uthmani":"٩٤","qpc_uthmani_hafs":"٩٤","char_type_name":"end","page_number":537,"line_number":10,"text":"٩٤","translation":{"text":"(94)","language_name":"english","language_id":38},"transliteration":{"text":null,"language_name":"english","language_id":38}}]},{"id":5074,"verse_number":95,"verse_key":"56:95","hizb_number":54,"rub_el_hizb_number":215,"ruku_number":473,"manzil_number":7,"sajdah_number":null,"page_number":537,"juz_number":27,"words":[{"id":69740,"position":1,"audio_url":"wbw/056_095_001.mp3","verse_key":"56:95","verse_id":5074,"location":"56:95:1","text_uthmani":"إِنَّ","qpc_uthmani_hafs":"إِنَّ","char_type_name":"word","page_number":537,"line_number":10,"text":"إِنَّ","translation":{"text":"Indeed","language_name":"english","language_id":38},"transliteration":{"text":"inna","language_name":"english","language_id":38}},{"id":69741,"position":2,"audio_url":"wbw/056_095_002.mp3","verse_key":"56:95","verse_id":5074,"location":"56:95:2","text_uthmani":"هَـٰذَا","qpc_uthmani_hafs":"هَٰذَا","char_type_name":"word","page_number":537,"line_number":10,"text":"هَٰذَا","translation":{"text":"this","language_name":"english","language_id":38},"transliteration":{"text":"hādhā","language_name":"english","language_id":38}},{"id":69742,"position":3,"audio_url":"wbw/056_095_003.mp3","verse_key":"56:95","verse_id":5074,"location":"56:95:3","text_uthmani":"لَهُوَ","qpc_uthmani_hafs":"لَهُوَ","char_type_name":"word","page_number":537,"line_number":10,"text":"لَهُوَ","translation":{"text":"surely, it","language_name":"english","language_id":38},"transliteration":{"text":"lahuwa","language_name":"english","language_id":38}},{"id":69743,"position":4,"audio_url":"wbw/056_095_004.mp3","verse_key":"56:95","verse_id":5074,"location":"56:95:4","text_uthmani":"حَقُّ","qpc_uthmani_hafs":"حَقُّ","char_type_name":"word","page_number":537,"line_number":10,"text":"حَقُّ","translation":{"text":"(is the) truth","language_name":"english","language_id":38},"transliteration":{"text":"ḥaqqu","language_name":"english","language_id":38}},{"id":69744,"position":5,"audio_url":"wbw/056_095_005.mp3","verse_key":"56:95","verse_id":5074,"location":"56:95:5","text_uthmani":"ٱلْيَقِينِ","qpc_uthmani_hafs":"ٱلۡيَقِينِ","char_type_name":"word","page_number":537,"line_number":10,"text":"ٱلۡيَقِينِ","translation":{"text":"certain","language_name":"english","language_id":38},"transliteration":{"text":"l-yaqīni","language_name":"english","language_id":38}},{"id":69745,"position":6,"audio_url":null,"verse_key":"56:95","verse_id":5074,"location":"56:95:6","text_uthmani":"٩٥","qpc_uthmani_hafs":"٩٥","char_type_name":"end","page_number":537,"line_number":10,"text":"٩٥","translation":{"text":"(95)","language_name":"english","language_id":38},"transliteration":{"text":null,"language_name":"english","language_id":38}}]},{"id":5075,"verse_number":96,"verse_key":"56:96","hizb_number":54,"rub_el_hizb_number":215,"ruku_number":473,"manzil_number":7,"sajdah_number":null,"page_number":537,"juz_number":27,"words":[{"id":70238,"position":1,"audio_url":"wbw/056_096_001.mp3","verse_key":"56:96","verse_id":5075,"location":"56:96:1","text_uthmani":"فَسَبِّحْ","qpc_uthmani_hafs":"فَسَبِّحۡ","char_type_name":"word","page_number":537,"line_number":10,"text":"فَسَبِّحۡ","translation":{"text":"So glorify","language_name":"english","language_id":38},"transliteration":{"text":"fasabbiḥ","language_name":"english","language_id":38}},{"id":70239,"position":2,"audio_url":"wbw/056_096_002.mp3","verse_key":"56:96","verse_id":5075,"location":"56:96:2","text_uthmani":"بِٱسْمِ","qpc_uthmani_hafs":"بِٱسۡمِ","char_type_name":"word","page_number":537,"line_number":10,"text":"بِٱسۡمِ","translation":{"text":"(the) name","language_name":"english","language_id":38},"transliteration":{"text":"bi-is'mi","language_name":"english","language_id":38}},{"id":70240,"position":3,"audio_url":"wbw/056_096_003.mp3","verse_key":"56:96","verse_id":5075,"location":"56:96:3","text_uthmani":"رَبِّكَ","qpc_uthmani_hafs":"رَبِّكَ","char_type_name":"word","page_number":537,"line_number":10,"text":"رَبِّكَ","translation":{"text":"(of) your Lord","language_name":"english","language_id":38},"transliteration":{"text":"rabbika","language_name":"english","language_id":38}},{"id":70241,"position":4,"audio_url":"wbw/056_096_004.mp3","verse_key":"56:96","verse_id":5075,"location":"56:96:4","text_uthmani":"ٱلْعَظِيمِ","qpc_uthmani_hafs":"ٱلۡعَظِيمِ","char_type_name":"word","page_number":537,"line_number":10,"text":"ٱلۡعَظِيمِ","translation":{"text":"the Most Great","language_name":"english","language_id":38},"transliteration":{"text":"l-ʿaẓīmi","language_name":"english","language_id":38}},{"id":70242,"position":5,"audio_url":null,"verse_key":"56:96","verse_id":5075,"location":"56:96:5","text_uthmani":"٩٦","qpc_uthmani_hafs":"٩٦","char_type_name":"end","page_number":537,"line_number":10,"text":"٩٦","translation":{"text":"(96)","language_name":"english","language_id":38},"transliteration":{"text":null,"language_name":"english","language_id":38}}]}],"pagination":{"per_page":10,"current_page":10,"next_page":null,"total_pages":10,"total_records":96}}
