{"verses":[{"id":4990,"verse_number":11,"verse_key":"56:11","hizb_number":54,"rub_el_hizb_number":214,"ruku_number":471,"manzil_number":7,"sajdah_number":null,"page_number":534,"juz_number":27,"words":[{"id":12499,"position":1,"audio_url":"wbw/056_011_001.mp3","verse_key":"56:11","verse_id":4990,"location":"56:11:1","text_uthmani":"أُو۟لَـٰٓئِكَ","qpc_uthmani_hafs":"أُوْلَٰٓئِكَ","char_type_name":"word","page_number":534,"line_number":13,"text":"أُوْلَٰٓئِكَ","translation":{"text":"Those","language_name":"english","language_id":38},"transliteration":{"text":"ulāika","language_name":"english","language_id":38}},{"id":12500,"position":2,"audio_url":"wbw/056_011_002.mp3","verse_key":"56:11","verse_id":4990,"location":"56:11:2","text_uthmani":"ٱلْمُقَرَّبُونَ","qpc_uthmani_hafs":"ٱلۡمُقَرَّبُونَ","char_type_name":"word","page_number":534,"line_number":13,"text":"ٱلۡمُقَرَّبُونَ","translation":{"text":"(are) the nearest ones","language_name":"english","language_id":38},"transliteration":{"text":"l-muqarabūna","language_name":"english","language_id":38}},{"id":12501,"position":3,"audio_url":null,"verse_key":"56:11","verse_id":4990,"location":"56:11:3","text_uthmani":"١١","qpc_uthmani_hafs":"١١","char_type_name":"end","page_number":534,"line_number":13,"text":"١١","translation":{"text":"(11)","language_name":"english","language_id":38},"transliteration":{"text":null,"language_name":"english","language_id":38}}]},{"id":4991,"verse_number":12,"verse_key":"56:12","hizb_number":54,"rub_el_hizb_number":214,"ruku_number":471,"manzil_number":7,"sajdah_number":null,"page_number":534,"juz_number":27,"words":[{"id":13825,"position":1,"audio_url":"wbw/056_012_001.mp3","verse_key":"56:12","verse_id":4991,"location":"56:12:1","text_uthmani":"فِى","qpc_uthmani_hafs":"فِي","char_type_name":"word","page_number":534,"line_number":14,"text":"فِي","translation":{"text":"In","language_name":"english","language_id":38},"transliteration":{"text":"fī","language_name":"english","language_id":38}},{"id":13826,"position":2,"audio_url":"wbw/056_012_002.mp3","verse_key":"56:12","verse_id":4991,"location":"56:12:2","text_uthmani":"جَنَّـٰتِ","qpc_uthmani_hafs":"جَنَّٰتِ","char_type_name":"word","page_number":534,"line_number":14,"text":"جَنَّٰتِ","translation":{"text":"Gardens","language_name":"english","language_id":38},"transliteration":{"text":"jannāti","language_name":"english","language_id":38}},{"id":13827,"position":3,"audio_url":"wbw/056_012_003.mp3","verse_key":"56:12","verse_id":4991,"location":"56:12:3","text_uthmani":"ٱلنَّعِيمِ","qpc_uthmani_hafs":"ٱلنَّعِيمِ","char_type_name":"word","page_number":534,"line_number":14,"text":"ٱلنَّعِيمِ","translation":{"text":"(of) Pleasure","language_name":"english","language_id":38},"transliteration":{"text":"l-naʿīmi","language_name":"english","language_id":38}},{"id":13828,"position":4,"audio_url":null,"verse_key":"56:12","verse_id":4991,"location":"56:12:4","text_uthmani":"١٢","qpc_uthmani_hafs":"١٢","char_type_name":"end","page_number":534,"line_number":14,"text":"١٢","translation":{"text":"(12)","language_name":"english","language_id":38},"transliteration":{"text":null,"language_name":"english","language_id":38}}]},{"id":4992,"verse_number":13,"verse_key":"56:13","hizb_number":54,"rub_el_hizb_number":214,"ruku_number":471,"manzil_number":7,"sajdah_number":null,"page_number":534,"juz_number":27,"words":[{"id":14975,"position":1,"audio_url":"wbw/056_013_001.mp3","verse_key":"56:13","verse_id":4992,"location":"56:13:1","text_uthmani":"ثُلَّةٌۭ","qpc_uthmani_hafs":"ثُلَّةٞ","char_type_name":"word","page_number":534,"line_number":14,"text":"ثُلَّةٞ","translation":{"text":"A company","language_name":"english","language_id":38},"transliteration":{"text":"thullatun","language_name":"english","language_id":38}},{"id":14976,"position":2,"audio_url":"wbw/056_013_002.mp3","verse_key":"56:13","verse_id":4992,"location":"56:13:2","text_uthmani":"مِّنَ","qpc_uthmani_hafs":"مِّنَ","char_type_name":"word","page_number":534,"line_number":14,"text":"مِّنَ","translation":{"text":"of","language_name":"english","language_id":38},"transliteration":{"text":"mina","language_name":"english","language_id":38}},{"id":14977,"position":3,"audio_url":"wbw/056_013_003.mp3","verse_key":"56:13","verse_id":4992,"location":"56:13:3","text_uthmani":"ٱلْأَوَّلِينَ","qpc_uthmani_hafs":"ٱلۡأَوَّلِينَ","char_type_name":"word","page_number":534,"line_number":14,"text":"ٱلۡأَوَّلِينَ","translation":{"text":"the former (people)","language_name":"english","language_id":38},"transliteration":{"text":"l-awalīna","language_name":"english","language_id":38}},{"id":14978,"position":4,"audio_url":null,"verse_key":"56:13","verse_id":4992,"location":"56:13:4","text_uthmani":"١٣","qpc_uthmani_hafs":"١٣","char_type_name":"end","page_number":534,"line_number":14,"text":"١٣","translation":{"text":"(13)","language_name":"english","language_id":38},"transliteration":{"text":null,"language_name":"english","language_id":38}}]},{"id":4993,"verse_number":14,"verse_key":"56:14","hizb_number":54,"rub_el_hizb_number":214,"ruku_number":471,"manzil_number":7,"sajdah_number":null,"page_number":534,"juz_number":27,"words":[{"id":16044,"position":1,"audio_url":"wbw/056_014_001.mp3","verse_key":"56:14","verse_id":4993,"location":"56:14:1","text_uthmani":"وَقَلِيلٌۭ","qpc_uthmani_hafs":"وَقَلِيلٞ","char_type_name":"word","page_number":534,"line_number":14,"text":"وَقَلِيلٞ","translation":{"text":"And a few","language_name":"english","language_id":38},"transliteration":{"text":"waqalīlun","language_name":"english","language_id":38}},{"id":16045,"position":2,"audio_url":"wbw/056_014_002.mp3","verse_key":"56:14","verse_id":4993,"location":"56:14:2","text_uthmani":"مِّنَ","qpc_uthmani_hafs":"مِّنَ","char_type_name":"word","page_number":534,"line_number":14,"text":"مِّنَ","translation":{"text":"of","language_name":"english","language_id":38},"transliteration":{"text":"mina","language_name":"english","language_id":38}},{"id":16046,"position":3,"audio_url":"wbw/056_014_003.mp3","verse_key":"56:14","verse_id":4993,"location":"56:14:3","text_uthmani":"ٱلْـَٔاخِرِينَ","qpc_uthmani_hafs":"ٱلۡأٓخِرِينَ","char_type_name":"word","page_number":534,"line_number":14,"text":"ٱلۡأٓخِرِينَ","translation":{"text":"the later (people)","language_name":"english","language_id":38},"transliteration":{"text":"l-ākhirīna","language_name":"english","language_id":38}},{"id":16047,"position":4,"audio_url":null,"verse_key":"56:14","verse_id":4993,"location":"56:14:4","text_uthmani":"١٤","qpc_uthmani_hafs":"١٤","char_type_name":"end","page_number":534,"line_number":15,"text":"١٤","translation":{"text":"(14)","language_name":"english","language_id":38},"transliteration":{"text":null,"language_name":"english","language_id":38}}]},{"id":4994,"verse_number":15,"verse_key":"56:15","hizb_number":54,"rub_el_hizb_number":214,"ruku_number":471,"manzil_number":7,"sajdah_number":null,"page_number":534,"juz_number":27,"words":[{"id":17292,"position":1,"audio_url":"wbw/056_015_001.mp3","verse_key":"56:15","verse_id":4994,"location":"56:15:1","text_uthmani":"عَلَىٰ","qpc_uthmani_hafs":"عَلَىٰ","char_type_name":"word","page_number":534,"line_number":15,"text":"عَلَىٰ","translation":{"text":"On","language_name":"english","language_id":38},"transliteration":{"text":"ʿalā","language_name":"english","language_id":38}},{"id":17293,"position":2,"audio_url":"wbw/056_015_002.mp3","verse_key":"56:15","verse_id":4994,"location":"56:15:2","text_uthmani":"سُرُرٍۢ","qpc_uthmani_hafs":"سُرُرٖ","char_type_name":"word","page_number":534,"line_number":15,"text":"سُرُرٖ","translation":{"text":"thrones","language_name":"english","language_id":38},"transliteration":{"text":"sururin","language_name":"english","language_id":38}},{"id":17294,"position":3,"audio_url":"wbw/056_015_003.mp3","verse_key":"56:15","verse_id":4994,"location":"56:15:3","text_uthmani":"مَّوْضُونَةٍۢ","qpc_uthmani_hafs":"مَّوۡضُونَةٖ","char_type_name":"word","page_number":534,"line_number":15,"text":"مَّوۡضُونَةٖ","translation":{"text":"decorated","language_name":"english","language_id":38},"transliteration":{"text":"mawḍūnatin","language_name":"english","language_id":38}},{"id":17295,"position":4,"audio_url":null,"verse_key":"56:15","verse_id":4994,"location":"56:15:4","text_uthmani":"١٥","qpc_uthmani_hafs":"١٥","char_type_name":"end","page_number":534,"line_number":15,"text":"١٥","translation":{"text":"(15)","language_name":"english","language_id":38},"transliteration":{"text":null,"language_name":"english","language_id":38}}]},{"id":4995,"verse_number":16,"verse_key":"56:16","hizb_number":54,"rub_el_hizb_number":214,"ruku_number":471,"manzil_number":7,"sajdah_number":null,"page_number":534,"juz_number":27,"words":[{"id":18345,"position":1,"audio_url":"wbw/056_016_001.mp3","verse_key":"56:16","verse_id":4995,"location":"56:16:1","text_uthmani":"مُّتَّكِـِٔينَ","qpc_uthmani_hafs":"مُّتَّكِـِٔينَ","char_type_name":"word","page_number":534,"line_number":15,"text":"مُّتَّكِـِٔينَ","translation":{"text":"Reclining","language_name":"english","language_id":38},"transliteration":{"text":"muttakiīna","language_name":"english","language_id":38}},{"id":18346,"position":2,"audio_url":"wbw/056_016_002.mp3","verse_key":"56:16","verse_id":4995,"location":"56:16:2","text_uthmani":"عَلَيْهَا","qpc_uthmani_hafs":"عَلَيۡهَا","char_type_name":"word","page_number":534,"line_number":15,"text":"عَلَيۡهَا","translation":{"text":"on them","language_name":"english","language_id":38},"transliteration":{"text":"ʿalayhā","language_name":"english","language_id":38}},{"id":18347,"position":3,"audio_url":"wbw/056_016_003.mp3","verse_key":"56:16","verse_id":4995,"location":"56:16:3","text_uthmani":"مُتَقَـٰبِلِينَ","qpc_uthmani_hafs":"مُتَقَٰبِلِينَ","char_type_name":"word","page_number":534,"line_number":15,"text":"مُتَقَٰبِلِينَ","translation":{"text":"facing each other","language_name":"english","language_id":38},"transliteration":{"text":"mutaqābilīna","language_name":"english","language_id":38}},{"id":18348,"position":4,"audio_url":null,"verse_key":"56:16","verse_id":4995,"location":"56:16:4","text_uthmani":"١٦","qpc_uthmani_hafs":"١٦","char_type_name":"end","page_number":534,"line_number":15,"text":"١٦","translation":{"text":"(16)","language_name":"english","language_id":38},"transliteration":{"text":null,"language_name":"english","language_id":38}}]},{"id":4996,"verse_number":17,"verse_key":"56:17","hizb_number":54,"rub_el_hizb_number":214,"ruku_number":471,"manzil_number":7,"sajdah_number":null,"page_number":535,"juz_number":27,"words":[{"id":19364,"position":1,"audio_url":"wbw/056_017_001.mp3","verse_key":"56:17","verse_id":4996,"location":"56:17:1","text_uthmani":"يَطُوفُ","qpc_uthmani_hafs":"يَطُوفُ","char_type_name":"word","page_number":535,"line_number":1,"text":"يَطُوفُ","translation":{"text":"Will circulate","language_name":"english","language_id":38},"transliteration":{"text":"yaṭūfu","language_name":"english","language_id":38}},{"id":19365,"position":2,"audio_url":"wbw/056_017_002.mp3","verse_key":"56:17","verse_id":4996,"location":"56:17:2","text_uthmani":"عَلَيْهِمْ","qpc_uthmani_hafs":"عَلَيۡهِمۡ","char_type_name":"word","page_number":535,"line_number":1,"text":"عَلَيۡهِمۡ","translation":{"text":"among them","language_name":"english","language_id":38},"transliteration":{"text":"ʿalayhim","language_name":"english","language_id":38}},{"id":19366,"position":3,"audio_url":"wbw/056_017_003.mp3","verse_key":"56:17","verse_id":4996,"location":"56:17:3","text_uthmani":"وِلْدَٰنٌۭ","qpc_uthmani_hafs":"وِلۡدَٰنٞ","char_type_name":"word","page_number":535,"line_number":1,"text":"وِلۡدَٰنٞ","translation":{"text":"boys","language_name":"english","language_id":38},"transliteration":{"text":"wil'dānun","language_name":"english","language_id":38}},{"id":19367,"position":4,"audio_url":"wbw/056_017_004.mp3","verse_key":"56:17","verse_id":4996,"location":"56:17:4","text_uthmani":"مُّخَلَّدُونَ","qpc_uthmani_hafs":"مُّخَلَّدُونَ","char_type_name":"word","page_number":535,"line_number":1,"text":"مُّخَلَّدُونَ","translation":{"text":"immortal","language_name":"english","language_id":38},"transliteration":{"text":"mukhalladūna","language_name":"english","language_id":38}},{"id":19368,"position":5,"audio_url":null,"verse_key":"56:17","verse_id":4996,"location":"56:17:5","text_uthmani":"١٧","qpc_uthmani_hafs":"١٧","char_type_name":"end","page_number":535,"line_number":1,"text":"١٧","translation":{"text":"(17)","language_name":"english","language_id":38},"transliteration":{"text":null,"language_name":"english","language_id":38}}]},{"id":4997,"verse_number":18,"verse_key":"56:18","hizb_number":54,"rub_el_hizb_number":214,"ruku_number":471,"manzil_number":7,"sajdah_number":null,"page_number":535,"juz_number":27,"words":[{"id":20420,"position":1,"audio_url":"wbw/056_018_001.mp3","verse_key":"56:18","verse_id":4997,"location":"56:18:1","text_uthmani":"بِأَكْوَابٍۢ","qpc_uthmani_hafs":"بِأَكۡوَابٖ","char_type_name":"word","page_number":535,"line_number":1,"text":"بِأَكۡوَابٖ","translation":{"text":"With vessels","language_name":"english","language_id":38},"transliteration":{"text":"bi-akwābin","language_name":"english","language_id":38}},{"id":20421,"position":2,"audio_url":"wbw/056_018_002.mp3","verse_key":"56:18","verse_id":4997,"location":"56:18:2","text_uthmani":"وَأَبَارِيقَ","qpc_uthmani_hafs":"وَأَبَارِيقَ","char_type_name":"word","page_number":535,"line_number":1,"text":"وَأَبَارِيقَ","translation":{"text":"and jugs","language_name":"english","language_id":38},"transliteration":{"text":"wa-abārīqa","language_name":"english","language_id":38}},{"id":20422,"position":3,"audio_url":"wbw/056_018_003.mp3","verse_key":"56:18","verse_id":4997,"location":"56:18:3","text_uthmani":"وَكَأْسٍۢ","qpc_uthmani_hafs":"وَكَأۡسٖ","char_type_name":"word","page_number":535,"line_number":1,"text":"وَكَأۡسٖ","translation":{"text":"and a cup","language_name":"english","language_id":38},"transliteration":{"text":"wakasin","language_name":"english","language_id":38}},{"id":20423,"position":4,"audio_url":"wbw/056_018_004.mp3","verse_key":"56:18","verse_id":4997,"location":"56:18:4","text_uthmani":"مِّن","qpc_uthmani_hafs":"مِّن","char_type_name":"word","page_number":535,"line_number":1,"text":"مِّن","translation":{"text":"from","language_name":"english","language_id":38},"transliteration":{"text":"min","language_name":"english","language_id":38}},{"id":20424,"position":5,"audio_url":"wbw/056_018_005.mp3","verse_key":"56:18","verse_id":4997,"location":"56:18:5","text_uthmani":"مَّعِينٍۢ","qpc_uthmani_hafs":"مَّعِينٖ","char_type_name":"word","page_number":535,"line_number":1,"text":"مَّعِينٖ","translation":{"text":"a flowing stream","language_name":"english","language_id":38},"transliteration":{"text":"maʿīnin","language_name":"english","language_id":38}},{"id":20425,"position":6,"audio_url":null,"verse_key":"56:18","verse_id":4997,"location":"56:18:6","text_uthmani":"١٨","qpc_uthmani_hafs":"١٨","char_type_name":"end","page_number":535,"line_number":2,"text":"١٨","translation":{"text":"(18)","language_name":"english","language_id":38},"transliteration":{"text":null,"language_name":"english","language_id":38}}]},{"id":4998,"verse_number":19,"verse_key":"56:19","hizb_number":54,"rub_el_hizb_number":214,"ruku_number":471,"manzil_number":7,"sajdah_number":null,"page_number":535,"juz_number":27,"words":[{"id":21518,"position":1,"audio_url":"wbw/056_019_001.mp3","verse_key":"56:19","verse_id":4998,"location":"56:19:1","text_uthmani":"لَّا","qpc_uthmani_hafs":"لَّا","char_type_name":"word","page_number":535,"line_number":2,"text":"لَّا","translation":{"text":"Not","language_name":"english","language_id":38},"transliteration":{"text":"lā","language_name":"english","language_id":38}},{"id":21519,"position":2,"audio_url":"wbw/056_019_002.mp3","verse_key":"56:19","verse_id":4998,"location":"56:19:2","text_uthmani":"يُصَدَّعُونَ","qpc_uthmani_hafs":"يُصَدَّعُونَ","char_type_name":"word","page_number":535,"line_number":2,"text":"يُصَدَّعُونَ","translation":{"text":"they will get headache","language_name":"english","language_id":38},"transliteration":{"text":"yuṣaddaʿūna","language_name":"english","language_id":38}},{"id":21520,"position":3,"audio_url":"wbw/056_019_003.mp3","verse_key":"56:19","verse_id":4998,"location":"56:19:3","text_uthmani":"عَنْهَا","qpc_uthmani_hafs":"عَنۡهَا","char_type_name":"word","page_number":535,"line_number":2,"text":"عَنۡهَا","translation":{"text":"therefrom","language_name":"english","language_id":38},"transliteration":{"text":"ʿanhā","language_name":"english","language_id":38}},{"id":21521,"position":4,"audio_url":"wbw/056_019_004.mp3","verse_key":"56:19","verse_id":4998,"location":"56:19:4","text_uthmani":"وَلَا","qpc_uthmani_hafs":"وَلَا","char_type_name":"word","page_number":535,"line_number":2,"text":"وَلَا","translation":{"text":"and not","language_name":"english","language_id":38},"transliteration":{"text":"walā","language_name":"english","language_id":38}},{"id":21522,"position":5,"audio_url":"wbw/056_019_005.mp3","verse_key":"56:19","verse_id":4998,"location":"56:19:5","text_uthmani":"يُنزِفُونَ","qpc_uthmani_hafs":"يُنزِفُونَ","char_type_name":"word","page_number":535,"line_number":2,"text":"يُنزِفُونَ","translation":{"text":"they will get intoxicated","language_name":"english","language_id":38},"transliteration":{"text":"yunzifūna","language_name":"english","language_id":38}},{"id":21523,"position":6,"audio_url":null,"verse_key":"56:19","verse_id":4998,"location":"56:19:6","text_uthmani":"١٩","qpc_uthmani_hafs":"١٩","char_type_name":"end","page_number":535,"line_number":2,"text":"١٩","translation":{"text":"(19)","language_name":"english","language_id":38},"transliteration":{"text":null,"language_name":"english","language_id":38}}]},{"id":4999,"verse_number":20,"verse_key":"56:20","hizb_number":54,"rub_el_hizb_number":214,"ruku_number":471,"manzil_number":7,"sajdah_number":null,"page_number":535,"juz_number":27,"words":[{"id":22587,"position":1,"audio_url":"wbw/056_020_001.mp3","verse_key":"56:20","verse_id":4999,"location":"56:20:1","text_uthmani":"وَفَـٰكِهَةٍۢ","qpc_uthmani_hafs":"وَفَٰكِهَةٖ","char_type_name":"word","page_number":535,"line_number":2,"text":"وَفَٰكِهَةٖ","translation":{"text":"And fruits","language_name":"english","language_id":38},"transliteration":{"text":"wafākihatin","language_name":"english","language_id":38}},{"id":22588,"position":2,"audio_url":"wbw/056_020_002.mp3","verse_key":"56:20","verse_id":4999,"location":"56:20:2","text_uthmani":"مِّمَّا","qpc_uthmani_hafs":"مِّمَّا","char_type_name":"word","page_number":535,"line_number":2,"text":"مِّمَّا","translation":{"text":"of what","language_name":"english","language_id":38},"transliteration":{"text":"mimmā","language_name":"english","language_id":38}},{"id":22589,"position":3,"audio_url":"wbw/056_020_003.mp3","verse_key":"56:20","verse_id":4999,"location":"56:20:3","text_uthmani":"يَتَخَيَّرُونَ","qpc_uthmani_hafs":"يَتَخَيَّرُونَ","char_type_name":"word","page_number":535,"line_number":2,"text":"يَتَخَيَّرُونَ","translation":{"text":"they select","language_name":"english","language_id":38},"transliteration":{"text":"yatakhayyarūna","language_name":"english","language_id":38}},{"id":22590,"position":4,"audio_url":null,"verse_key":"56:20","verse_id":4999,"location":"56:20:4","text_uthmani":"٢٠","qpc_uthmani_hafs":"٢٠","char_type_name":"end","page_number":535,"line_number":3,"text":"٢٠","translation":{"text":"(20)","language_name":"english","language_id":38},"transliteration":{"text":null,"language_name":"english","language_id":38}}]}],"pagination":{"per_page":10,"current_page":2,"next_page":3,"total_pages":10,"total_records":96}}
