{"verses":[{"id":5030,"verse_number":51,"verse_key":"56:51","hizb_number":54,"rub_el_hizb_number":214,"ruku_number":472,"manzil_number":7,"sajdah_number":null,"page_number":536,"juz_number":27,"words":[{"id":49200,"position":1,"audio_url":"wbw/056_051_001.mp3","verse_key":"56:51","verse_id":5030,"location":"56:51:1","text_uthmani":"ثُمَّ","qpc_uthmani_hafs":"ثُمَّ","char_type_name":"word","page_number":536,"line_number":1,"text":"ثُمَّ","translation":{"text":"Then","language_name":"english","language_id":38},"transliteration":{"text":"thumma","language_name":"english","language_id":38}},{"id":49201,"position":2,"audio_url":"wbw/056_051_002.mp3","verse_key":"56:51","verse_id":5030,"location":"56:51:2","text_uthmani":"إِنَّكُمْ","qpc_uthmani_hafs":"إِنَّكُمۡ","char_type_name":"word","page_number":536,"line_number":1,"text":"إِنَّكُمۡ","translation":{"text":"indeed you","language_name":"english","language_id":38},"transliteration":{"text":"innakum","language_name":"english","language_id":38}},{"id":49202,"position":3,"audio_url":"wbw/056_051_003.mp3","verse_key":"56:51","verse_id":5030,"location":"56:51:3","text_uthmani":"أَيُّهَا","qpc_uthmani_hafs":"أَيُّهَا","char_type_name":"word","page_number":536,"line_number":1,"text":"أَيُّهَا","translation":{"text":"O those astray","language_name":"english","language_id":38},"transliteration":{"text":"ayyuhā","language_name":"english","language_id":38}},{"id":49203,"position":4,"audio_url":"wbw/056_051_004.mp3","verse_key":"56:51","verse_id":5030,"location":"56:51:4","text_uthmani":"ٱلضَّآلُّونَ","qpc_uthmani_hafs":"ٱلضَّآلُّونَ","char_type_name":"word","page_number":536,"line_number":1,"text":"ٱلضَّآلُّونَ","translation":{"text":"O those astray","language_name":"english","language_id":38},"transliteration":{"text":"l-ḍālūna","language_name":"english","language_id":38}},{"id":49204,"position":5,"audio_url":"wbw/056_051_005.mp3","verse_key":"56:51","verse_id":5030,"location":"56:51:5","text_uthmani":"ٱلْمُكَذِّبُونَ","qpc_uthmani_hafs":"ٱلۡمُكَذِّبُونَ","char_type_name":"word","page_number":536,"line_number":1,"text":"ٱلۡمُكَذِّبُونَ","translation":{"text":"the deniers","language_name":"english","language_id":38},"transliteration":{"text":"l-mukadhibūna","language_name":"english","language_id":38}},{"id":49205,"position":6,"audio_url":null,"verse_key":"56:51","verse_id":5030,"location":"56:51:6","text_uthmani":"٥١","qpc_uthmani_hafs":"٥١","char_type_name":"end","page_number":536,"line_number":1,"text":"٥١","translation":{"text":"(51)","language_name":"english","language_id":38},"transliteration":{"text":null,"language_name":"english","language_id":38}}]},{"id":5031,"verse_number":52,"verse_key":"56:52","hizb_number":54,"rub_el_hizb_number":214,"ruku_number":472,"manzil_number":7,"sajdah_number":null,"page_number":536,"juz_number":27,"words":[{"id":50165,"position":1,"audio_url":"wbw/056_052_001.mp3","verse_key":"56:52","verse_id":5031,"location":"56:52:1","text_uthmani":"لَـَٔاكِلُونَ","qpc_uthmani_hafs":"لَأٓكِلُونَ","char_type_name":"word","page_number":536,"line_number":1,"text":"لَأٓكِلُونَ","translation":{"text":"Will surely eat","language_name":"english","language_id":38},"transliteration":{"text":"laākilūna","language_name":"english","language_id":38}},{"id":50166,"position":2,"audio_url":"wbw/056_052_002.mp3","verse_key":"56:52","verse_id":5031,"location":"56:52:2","text_uthmani":"مِن","qpc_uthmani_hafs":"مِن","char_type_name":"word","page_number":536,"line_number":1,"text":"مِن","translation":{"text":"from","language_name":"english","language_id":38},"transliteration":{"text":"min","language_name":"english","language_id":38}},{"id":50167,"position":3,"audio_url":"wbw/056_052_003.mp3","verse_key":"56:52","verse_id":5031,"location":"56:52:3","text_uthmani":"شَجَرٍۢ","qpc_uthmani_hafs":"شَجَرٖ","char_type_name":"word","page_number":536,"line_number":1,"text":"شَجَرٖ","translation":{"text":"(the) tree","language_name":"english","language_id":38},"transliteration":{"text":"shajarin","language_name":"english","language_id":38}},{"id":50168,"position":4,"audio_url":"wbw/056_052_004.mp3","verse_key":"56:52","verse_id":5031,"location":"56:52:4","text_uthmani":"مِّن","qpc_uthmani_hafs":"مِّن","char_type_name":"word","page_number":536,"line_number":1,"text":"مِّن","translation":{"text":"of","language_name":"english","language_id":38},"transliteration":{"text":"min","language_name":"english","language_id":38}},{"id":50169,"position":5,"audio_url":"wbw/056_052_005.mp3","verse_key":"56:52","verse_id":5031,"location":"56:52:5","text_uthmani":"زَقُّومٍۢ","qpc_uthmani_hafs":"زَقُّومٖ","char_type_name":"word","page_number":536,"line_number":1,"text":"زَقُّومٖ","translation":{"text":"Zaqqum","language_name":"english","language_id":38},"transliteration":{"text":"zaqqūmin","language_name":"english","language_id":38}},{"id":50170,"position":6,"audio_url":null,"verse_key":"56:52","verse_id":5031,"location":"56:52:6","text_uthmani":"٥٢","qpc_uthmani_hafs":"٥٢","char_type_name":"end","page_number":536,"line_number":1,"text":"٥٢","translation":{"text":"(52)","language_name":"english","language_id":38},"transliteration":{"text":null,"language_name":"english","language_id":38}}]},{"id":5032,"verse_number":53,"verse_key":"56:53","hizb_number":54,"rub_el_hizb_number":214,"ruku_number":472,"manzil_number":7,"sajdah_number":null,"page_number":536,"juz_number":27,"words":[{"id":50554,"position":1,"audio_url":"wbw/056_053_001.mp3","verse_key":"56:53","verse_id":5032,"location":"56:53:1","text_uthmani":"فَمَالِـُٔونَ","qpc_uthmani_hafs":"فَمَالِـُٔونَ","char_type_name":"word","page_number":536,"line_number":2,"text":"فَمَالِـُٔونَ","translation":{"text":"Then will fill","language_name":"english","language_id":38},"transliteration":{"text":"famāliūna","language_name":"english","language_id":38}},{"id":50555,"position":2,"audio_url":"wbw/056_053_002.mp3","verse_key":"56:53","verse_id":5032,"location":"56:53:2","text_uthmani":"مِنْهَا","qpc_uthmani_hafs":"مِنۡهَا","char_type_name":"word","page_number":536,"line_number":2,"text":"مِنۡهَا","translation":{"text":"with it","language_name":"english","language_id":38},"transliteration":{"text":"min'hā","language_name":"english","language_id":38}},{"id":50556,"position":3,"audio_url":"wbw/056_053_003.mp3","verse_key":"56:53","verse_id":5032,"location":"56:53:3","text_uthmani":"ٱلْبُطُونَ","qpc_uthmani_hafs":"ٱلۡبُطُونَ","char_type_name":"word","page_number":536,"line_number":2,"text":"ٱلۡبُطُونَ","translation":{"text":"the bellies","language_name":"english","language_id":38},"transliteration":{"text":"l-buṭūna","language_name":"english","language_id":38}},{"id":50557,"position":4,"audio_url":null,"verse_key":"56:53","verse_id":5032,"location":"56:53:4","text_uthmani":"٥٣","qpc_uthmani_hafs":"٥٣","char_type_name":"end","page_number":536,"line_number":2,"text":"٥٣","translation":{"text":"(53)","language_name":"english","language_id":38},"transliteration":{"text":null,"language_name":"english","language_id":38}}]},{"id":5033,"verse_number":54,"verse_key":"56:54","hizb_number":54,"rub_el_hizb_number":214,"ruku_number":472,"manzil_number":7,"sajdah_number":null,"page_number":536,"juz_number":27,"words":[{"id":51340,"position":1,"audio_url":"wbw/056_054_001.mp3","verse_key":"56:54","verse_id":5033,"location":"56:54:1","text_uthmani":"فَشَـٰرِبُونَ","qpc_uthmani_hafs":"فَشَٰرِبُونَ","char_type_name":"word","page_number":536,"line_number":2,"text":"فَشَٰرِبُونَ","translation":{"text":"And drink","language_name":"english","language_id":38},"transliteration":{"text":"fashāribūna","language_name":"english","language_id":38}},{"id":51341,"position":2,"audio_url":"wbw/056_054_002.mp3","verse_key":"56:54","verse_id":5033,"location":"56:54:2","text_uthmani":"عَلَيْهِ","qpc_uthmani_hafs":"عَلَيۡهِ","char_type_name":"word","page_number":536,"line_number":2,"text":"عَلَيۡهِ","translation":{"text":"over it","language_name":"english","language_id":38},"transliteration":{"text":"ʿalayhi","language_name":"english","language_id":38}},{"id":51342,"position":3,"audio_url":"wbw/056_054_003.mp3","verse_key":"56:54","verse_id":5033,"location":"56:54:3","text_uthmani":"مِنَ","qpc_uthmani_hafs":"مِنَ","char_type_name":"word","page_number":536,"line_number":2,"text":"مِنَ","translation":{"text":"[from]","language_name":"english","language_id":38},"transliteration":{"text":"mina","language_name":"english","language_id":38}},{"id":51343,"position":4,"audio_url":"wbw/056_054_004.mp3","verse_key":"56:54","verse_id":5033,"location":"56:54:4","text_uthmani":"ٱلْحَمِيمِ","qpc_uthmani_hafs":"ٱلۡحَمِيمِ","char_type_name":"word","page_number":536,"line_number":2,"text":"ٱلۡحَمِيمِ","translation":{"text":"the scalding water","language_name":"english","language_id":38},"transliteration":{"text":"l-ḥamīmi","language_name":"english","language_id":38}},{"id":51344,"position":5,"audio_url":null,"verse_key":"56:54","verse_id":5033,"location":"56:54:5","text_uthmani":"٥٤","qpc_uthmani_hafs":"٥٤","char_type_name":"end","page_number":536,"line_number":2,"text":"٥٤","translation":{"text":"(54)","language_name":"english","language_id":38},"transliteration":{"text":null,"language_name":"english","language_id":38}}]},{"id":5034,"verse_number":55,"verse_key":"56:55","hizb_number":54,"rub_el_hizb_number":214,"ruku_number":472,"manzil_number":7,"sajdah_number":null,"page_number":536,"juz_number":27,"words":[{"id":51704,"position":1,"audio_url":"wbw/056_055_001.mp3","verse_key":"56:55","verse_id":5034,"location":"56:55:1","text_uthmani":"فَشَـٰرِبُونَ","qpc_uthmani_hafs":"فَشَٰرِبُونَ","char_type_name":"word","page_number":536,"line_number":2,"text":"فَشَٰرِبُونَ","translation":{"text":"And will drink","language_name":"english","language_id":38},"transliteration":{"text":"fashāribūna","language_name":"english","language_id":38}},{"id":51705,"position":2,"audio_url":"wbw/056_055_002.mp3","verse_key":"56:55","verse_id":5034,"location":"56:55:2","text_uthmani":"شُرْبَ","qpc_uthmani_hafs":"شُرۡبَ","char_type_name":"word","page_number":536,"line_number":3,"text":"شُرۡبَ","translation":{"text":"(as) drinking","language_name":"english","language_id":38},"transliteration":{"text":"shur'ba","language_name":"english","language_id":38}},{"id":51706,"position":3,"audio_url":"wbw/056_055_003.mp3","verse_key":"56:55","verse_id":5034,"location":"56:55:3","text_uthmani":"ٱلْهِيمِ","qpc_uthmani_hafs":"ٱلۡهِيمِ","char_type_name":"word","page_number":536,"line_number":3,"text":"ٱلۡهِيمِ","translation":{"text":"(of) the thirsty camels","language_name":"english","language_id":38},"transliteration":{"text":"l-hīmi","language_name":"english","language_id":38}},{"id":51707,"position":4,"audio_url":null,"verse_key":"56:55","verse_id":5034,"location":"56:55:4","text_uthmani":"٥٥","qpc_uthmani_hafs":"٥٥","char_type_name":"end","page_number":536,"line_number":3,"text":"٥٥","translation":{"text":"(55)","language_name":"english","language_id":38},"transliteration":{"text":null,"language_name":"english","language_id":38}}]},{"id":5035,"verse_number":56,"verse_key":"56:56","hizb_number":54,"rub_el_hizb_number":214,"ruku_number":472,"manzil_number":7,"sajdah_number":null,"page_number":536,"juz_number":27,"words":[{"id":52122,"position":1,"audio_url":"wbw/056_056_001.mp3","verse_key":"56:56","verse_id":5035,"location":"56:56:1","text_uthmani":"هَـٰذَا","qpc_uthmani_hafs":"هَٰذَا","char_type_name":"word","page_number":536,"line_number":3,"text":"هَٰذَا","translation":{"text":"This","language_name":"english","language_id":38},"transliteration":{"text":"hādhā","language_name":"english","language_id":38}},{"id":52123,"position":2,"audio_url":"wbw/056_056_002.mp3","verse_key":"56:56","verse_id":5035,"location":"56:56:2","text_uthmani":"نُزُلُهُمْ","qpc_uthmani_hafs":"نُزُلُهُمۡ","char_type_name":"word","page_number":536,"line_number":3,"text":"نُزُلُهُمۡ","translation":{"text":"(is) their hospitality","language_name":"english","language_id":38},"transliteration":{"text":"nuzuluhum","language_name":"english","language_id":38}},{"id":52124,"position":3,"audio_url":"wbw/056_056_003.mp3","verse_key":"56:56","verse_id":5035,"location":"56:56:3","text_uthmani":"يَوْمَ","qpc_uthmani_hafs":"يَوۡمَ","char_type_name":"word","page_number":536,"line_number":3,"text":"يَوۡمَ","translation":{"text":"(on the) Day","language_name":"english","language_id":38},"transliteration":{"text":"yawma","language_name":"english","language_id":38}},{"id":52125,"position":4,"audio_url":"wbw/056_056_004.mp3","verse_key":"56:56","verse_id":5035,"location":"56:56:4","text_uthmani":"ٱلدِّينِ","qpc_uthmani_hafs":"ٱلدِّينِ","char_type_name":"word","page_number":536,"line_number":3,"text":"ٱلدِّينِ","translation":{"text":"(of) Judgment","language_name":"english","language_id":38},"transliteration":{"text":"l-dīni","language_name":"english","language_id":38}},{"id":52126,"position":5,"audio_url":null,"verse_key":"56:56","verse_id":5035,"location":"56:56:5","text_uthmani":"٥٦","qpc_uthmani_hafs":"٥٦","char_type_name":"end","page_number":536,"line_number":3,"text":"٥٦","translation":{"text":"(56)","language_name":"english","language_id":38},"transliteration":{"text":null,"language_name":"english","language_id":38}}]},{"id":5036,"verse_number":57,"verse_key":"56:57","hizb_number":54,"rub_el_hizb_number":214,"ruku_number":472,"manzil_number":7,"sajdah_number":null,"page_number":536,"juz_number":27,"words":[{"id":52801,"position":1,"audio_url":"wbw/056_057_001.mp3","verse_key":"56:57","verse_id":5036,"location":"56:57:1","text_uthmani":"نَحْنُ","qpc_uthmani_hafs":"نَحۡنُ","char_type_name":"word","page_number":536,"line_number":3,"text":"نَحۡنُ","translation":{"text":"We","language_name":"english","language_id":38},"transliteration":{"text":"naḥnu","language_name":"english","language_id":38}},{"id":52802,"position":2,"audio_url":"wbw/056_057_002.mp3","verse_key":"56:57","verse_id":5036,"location":"56:57:2","text_uthmani":"خَلَقْنَـٰكُمْ","qpc_uthmani_hafs":"خَلَقۡنَٰكُمۡ","char_type_name":"word","page_number":536,"line_number":3,"text":"خَلَقۡنَٰكُمۡ","translation":{"text":"[We] created you","language_name":"english","language_id":38},"transliteration":{"text":"khalaqnākum","language_name":"english","language_id":38}},{"id":52803,"position":3,"audio_url":"wbw/056_057_003.mp3","verse_key":"56:57","verse_id":5036,"location":"56:57:3","text_uthmani":"فَلَوْلَا","qpc_uthmani_hafs":"فَلَوۡلَا","char_type_name":"word","page_number":536,"line_number":3,"text":"فَلَوۡلَا","translation":{"text":"so why (do) not","language_name":"english","language_id":38},"transliteration":{"text":"falawlā","language_name":"english","language_id":38}},{"id":52804,"position":4,"audio_url":"wbw/056_057_004.mp3","verse_key":"56:57","verse_id":5036,"location":"56:57:4","text_uthmani":"تُصَدِّقُونَ","qpc_uthmani_hafs":"تُصَدِّقُونَ","char_type_name":"word","page_number":536,"line_number":4,"text":"تُصَدِّقُونَ","translation":{"text":"you admit the truth","language_name":"english","language_id":38},"transliteration":{"text":"tuṣaddiqūna","language_name":"english","language_id":38}},{"id":52805,"position":5,"audio_url":null,"verse_key":"56:57","verse_id":5036,"location":"56:57:5","text_uthmani":"٥٧","qpc_uthmani_hafs":"٥٧","char_type_name":"end","page_number":536,"line_number":4,"text":"٥٧","translation":{"text":"(57)","language_name":"english","language_id":38},"transliteration":{"text":null,"language_name":"english","language_id":38}}]},{"id":5037,"verse_number":58,"verse_key":"56:58","hizb_number":54,"rub_el_hizb_number":214,"ruku_number":472,"manzil_number":7,"sajdah_number":null,"page_number":536,"juz_number":27,"words":[{"id":53393,"position":1,"audio_url":"wbw/056_058_001.mp3","verse_key":"56:58","verse_id":5037,"location":"56:58:1","text_uthmani":"أَفَرَءَيْتُم","qpc_uthmani_hafs":"أَفَرَءَيۡتُم","char_type_name":"word","page_number":536,"line_number":4,"text":"أَفَرَءَيۡتُم","translation":{"text":"Do you see","language_name":"english","language_id":38},"transliteration":{"text":"afara-aytum","language_name":"english","language_id":38}},{"id":53394,"position":2,"audio_url":"wbw/056_058_002.mp3","verse_key":"56:58","verse_id":5037,"location":"56:58:2","text_uthmani":"مَّا","qpc_uthmani_hafs":"مَّا","char_type_name":"word","page_number":536,"line_number":4,"text":"مَّا","translation":{"text":"what","language_name":"english","language_id":38},"transliteration":{"text":"mā","language_name":"english","language_id":38}},{"id":53395,"position":3,"audio_url":"wbw/056_058_003.mp3","verse_key":"56:58","verse_id":5037,"location":"56:58:3","text_uthmani":"تُمْنُونَ","qpc_uthmani_hafs":"تُمۡنُونَ","char_type_name":"word","page_number":536,"line_number":4,"text":"تُمۡنُونَ","translation":{"text":"you emit","language_name":"english","language_id":38},"transliteration":{"text":"tum'nūna","language_name":"english","language_id":38}},{"id":53396,"position":4,"audio_url":null,"verse_key":"56:58","verse_id":5037,"location":"56:58:4","text_uthmani":"٥٨","qpc_uthmani_hafs":"٥٨","char_type_name":"end","page_number":536,"line_number":4,"text":"٥٨","translation":{"text":"(58)","language_name":"english","language_id":38},"transliteration":{"text":null,"language_name":"english","language_id":38}}]},{"id":5038,"verse_number":59,"verse_key":"56:59","hizb_number":54,"rub_el_hizb_number":214,"ruku_number":472,"manzil_number":7,"sajdah_number":null,"page_number":536,"juz_number":27,"words":[{"id":53814,"position":1,"audio_url":"wbw/056_059_001.mp3","verse_key":"56:59","verse_id":5038,"location":"56:59:1","text_uthmani":"ءَأَنتُمْ","qpc_uthmani_hafs":"ءَأَنتُمۡ","char_type_name":"word","page_number":536,"line_number":4,"text":"ءَأَنتُمۡ","translation":{"text":"Is it you","language_name":"english","language_id":38},"transliteration":{"text":"a-antum","language_name":"english","language_id":38}},{"id":53815,"position":2,"audio_url":"wbw/056_059_002.mp3","verse_key":"56:59","verse_id":5038,"location":"56:59:2","text_uthmani":"تَخْلُقُونَهُۥٓ","qpc_uthmani_hafs":"تَخۡلُقُونَهُۥٓ","char_type_name":"word","page_number":536,"line_number":4,"text":"تَخۡلُقُونَهُۥٓ","translation":{"text":"who create it","language_name":"english","language_id":38},"transliteration":{"text":"takhluqūnahu","language_name":"english","language_id":38}},{"id":53816,"position":3,"audio_url":"wbw/056_059_003.mp3","verse_key":"56:59","verse_id":5038,"location":"56:59:3","text_uthmani":"أَمْ","qpc_uthmani_hafs":"أَمۡ","char_type_name":"word","page_number":536,"line_number":4,"text":"أَمۡ","translation":{"text":"or","language_name":"english","language_id":38},"transliteration":{"text":"am","language_name":"english","language_id":38}},{"id":53817,"position":4,"audio_url":"wbw/056_059_004.mp3","verse_key":"56:59","verse_id":5038,"location":"56:59:4","text_uthmani":"نَحْنُ","qpc_uthmani_hafs":"نَحۡنُ","char_type_name":"word","page_number":536,"line_number":4,"text":"نَحۡنُ","translation":{"text":"(are) We","language_name":"english","language_id":38},"transliteration":{"text":"naḥnu","language_name":"english","language_id":38}},{"id":53818,"position":5,"audio_url":"wbw/056_059_005.mp3","verse_key":"56:59","verse_id":5038,"location":"56:59:5","text_uthmani":"ٱلْخَـٰلِقُونَ","qpc_uthmani_hafs":"ٱلۡخَٰلِقُونَ","char_type_name":"word","page_number":536,"line_number":5,"text":"ٱلۡخَٰلِقُونَ","translation":{"text":"the Creators","language_name":"english","language_id":38},"transliteration":{"text":"l-khāliqūna","language_name":"english","language_id":38}},{"id":53819,"position":6,"audio_url":null,"verse_key":"56:59","verse_id":5038,"location":"56:59:6","text_uthmani":"٥٩","qpc_uthmani_hafs":"٥٩","char_type_name":"end","page_number":536,"line_number":5,"text":"٥٩","translation":{"text":"(59)","language_name":"english","language_id":38},"transliteration":{"text":null,"language_name":"english","language_id":38}}]},{"id":5039,"verse_number":60,"verse_key":"56:60","hizb_number":54,"rub_el_hizb_number":214,"ruku_number":472,"manzil_number":7,"sajdah_number":null,"page_number":536,"juz_number":27,"words":[{"id":54557,"position":1,"audio_url":"wbw/056_060_001.mp3","verse_key":"56:60","verse_id":5039,"location":"56:60:1","text_uthmani":"نَحْنُ","qpc_uthmani_hafs":"نَحۡنُ","char_type_name":"word","page_number":536,"line_number":5,"text":"نَحۡنُ","translation":{"text":"We","language_name":"english","language_id":38},"transliteration":{"text":"naḥnu","language_name":"english","language_id":38}},{"id":54558,"position":2,"audio_url":"wbw/056_060_002.mp3","verse_key":"56:60","verse_id":5039,"location":"56:60:2","text_uthmani":"قَدَّرْنَا","qpc_uthmani_hafs":"قَدَّرۡنَا","char_type_name":"word","page_number":536,"line_number":5,"text":"قَدَّرۡنَا","translation":{"text":"[We] have decreed","language_name":"english","language_id":38},"transliteration":{"text":"qaddarnā","language_name":"english","language_id":38}},{"id":54559,"position":3,"audio_url":"wbw/056_060_003.mp3","verse_key":"56:60","verse_id":5039,"location":"56:60:3","text_uthmani":"بَيْنَكُمُ","qpc_uthmani_hafs":"بَيۡنَكُمُ","char_type_name":"word","page_number":536,"line_number":5,"text":"بَيۡنَكُمُ","translation":{"text":"among you","language_name":"english","language_id":38},"transliteration":{"text":"baynakumu","language_name":"english","language_id":38}},{"id":54560,"position":4,"audio_url":"wbw/056_060_004.mp3","verse_key":"56:60","verse_id":5039,"location":"56:60:4","text_uthmani":"ٱلْمَوْتَ","qpc_uthmani_hafs":"ٱلۡمَوۡتَ","char_type_name":"word","page_number":536,"line_number":5,"text":"ٱلۡمَوۡتَ","translation":{"text":"the death","language_name":"english","language_id":38},"transliteration":{"text":"l-mawta","language_name":"english","language_id":38}},{"id":54561,"position":5,"audio_url":"wbw/056_060_005.mp3","verse_key":"56:60","verse_id":5039,"location":"56:60:5","text_uthmani":"وَمَا","qpc_uthmani_hafs":"وَمَا","char_type_name":"word","page_number":536,"line_number":5,"text":"وَمَا","translation":{"text":"and not","language_name":"english","language_id":38},"transliteration":{"text":"wamā","language_name":"english","language_id":38}},{"id":54562,"position":6,"audio_url":"wbw/056_060_006.mp3","verse_key":"56:60","verse_id":5039,"location":"56:60:6","text_uthmani":"نَحْنُ","qpc_uthmani_hafs":"نَحۡنُ","char_type_name":"word","page_number":536,"line_number":5,"text":"نَحۡنُ","translation":{"text":"We","language_name":"english","language_id":38},"transliteration":{"text":"naḥnu","language_name":"english","language_id":38}},{"id":54563,"position":7,"audio_url":"wbw/056_060_007.mp3","verse_key":"56:60","verse_id":5039,"location":"56:60:7","text_uthmani":"بِمَسْبُوقِينَ","qpc_uthmani_hafs":"بِمَسۡبُوقِينَ","char_type_name":"word","page_number":536,"line_number":5,"text":"بِمَسۡبُوقِينَ","translation":{"text":"(are) outrun","language_name":"english","language_id":38},"transliteration":{"text":"bimasbūqīna","language_name":"english","language_id":38}},{"id":54564,"position":8,"audio_url":null,"verse_key":"56:60","verse_id":5039,"location":"56:60:8","text_uthmani":"٦٠","qpc_uthmani_hafs":"٦٠","char_type_name":"end","page_number":536,"line_number":5,"text":"٦٠","translation":{"text":"(60)","language_name":"english","language_id":38},"transliteration":{"text":null,"language_name":"english","language_id":38}}]}],"pagination":{"per_page":10,"current_page":6,"next_page":7,"total_pages":10,"total_records":96}}
