{"verses":[{"id":5050,"verse_number":71,"verse_key":"56:71","hizb_number":54,"rub_el_hizb_number":214,"ruku_number":472,"manzil_number":7,"sajdah_number":null,"page_number":536,"juz_number":27,"words":[{"id":60168,"position":1,"audio_url":"wbw/056_071_001.mp3","verse_key":"56:71","verse_id":5050,"location":"56:71:1","text_uthmani":"أَفَرَءَيْتُمُ","qpc_uthmani_hafs":"أَفَرَءَيۡتُمُ","char_type_name":"word","page_number":536,"line_number":12,"text":"أَفَرَءَيۡتُمُ","translation":{"text":"Do you see","language_name":"english","language_id":38},"transliteration":{"text":"afara-aytumu","language_name":"english","language_id":38}},{"id":60169,"position":2,"audio_url":"wbw/056_071_002.mp3","verse_key":"56:71","verse_id":5050,"location":"56:71:2","text_uthmani":"ٱلنَّارَ","qpc_uthmani_hafs":"ٱلنَّارَ","char_type_name":"word","page_number":536,"line_number":12,"text":"ٱلنَّارَ","translation":{"text":"the Fire","language_name":"english","language_id":38},"transliteration":{"text":"l-nāra","language_name":"english","language_id":38}},{"id":60170,"position":3,"audio_url":"wbw/056_071_003.mp3","verse_key":"56:71","verse_id":5050,"location":"56:71:3","text_uthmani":"ٱلَّتِى","qpc_uthmani_hafs":"ٱلَّتِي","char_type_name":"word","page_number":536,"line_number":12,"text":"ٱلَّتِي","translation":{"text":"which","language_name":"english","language_id":38},"transliteration":{"text":"allatī","language_name":"english","language_id":38}},{"id":60171,"position":4,"audio_url":"wbw/056_071_004.mp3","verse_key":"56:71","verse_id":5050,"location":"56:71:4","text_uthmani":"تُورُونَ","qpc_uthmani_hafs":"تُورُونَ","char_type_name":"word","page_number":536,"line_number":12,"text":"تُورُونَ","translation":{"text":"you ignite","language_name":"english","language_id":38},"transliteration":{"text":"tūrūna","language_name":"english","language_id":38}},{"id":60172,"position":5,"audio_url":null,"verse_key":"56:71","verse_id":5050,"location":"56:71:5","text_uthmani":"٧١","qpc_uthmani_hafs":"٧١","char_type_name":"end","page_number":536,"line_number":12,"text":"٧١","translation":{"text":"(71)","language_name":"english","language_id":38},"transliteration":{"text":null,"language_name":"english","language_id":38}}]},{"id":5051,"verse_number":72,"verse_key":"56:72","hizb_number":54,"rub_el_hizb_number":214,"ruku_number":472,"manzil_number":7,"sajdah_number":null,"page_number":536,"juz_number":27,"words":[{"id":60655,"position":1,"audio_url":"wbw/056_072_001.mp3","verse_key":"56:72","verse_id":5051,"location":"56:72:1","text_uthmani":"ءَأَنتُمْ","qpc_uthmani_hafs":"ءَأَنتُمۡ","char_type_name":"word","page_number":536,"line_number":12,"text":"ءَأَنتُمۡ","translation":{"text":"Is it you","language_name":"english","language_id":38},"transliteration":{"text":"a-antum","language_name":"english","language_id":38}},{"id":60656,"position":2,"audio_url":"wbw/056_072_002.mp3","verse_key":"56:72","verse_id":5051,"location":"56:72:2","text_uthmani":"أَنشَأْتُمْ","qpc_uthmani_hafs":"أَنشَأۡتُمۡ","char_type_name":"word","page_number":536,"line_number":12,"text":"أَنشَأۡتُمۡ","translation":{"text":"who produced","language_name":"english","language_id":38},"transliteration":{"text":"anshatum","language_name":"english","language_id":38}},{"id":60657,"position":3,"audio_url":"wbw/056_072_003.mp3","verse_key":"56:72","verse_id":5051,"location":"56:72:3","text_uthmani":"شَجَرَتَهَآ","qpc_uthmani_hafs":"شَجَرَتَهَآ","char_type_name":"word","page_number":536,"line_number":13,"text":"شَجَرَتَهَآ","translation":{"text":"its tree","language_name":"english","language_id":38},"transliteration":{"text":"shajaratahā","language_name":"english","language_id":38}},{"id":60658,"position":4,"audio_url":"wbw/056_072_004.mp3","verse_key":"56:72","verse_id":5051,"location":"56:72:4","text_uthmani":"أَمْ","qpc_uthmani_hafs":"أَمۡ","char_type_name":"word","page_number":536,"line_number":13,"text":"أَمۡ","translation":{"text":"or","language_name":"english","language_id":38},"transliteration":{"text":"am","language_name":"english","language_id":38}},{"id":60659,"position":5,"audio_url":"wbw/056_072_005.mp3","verse_key":"56:72","verse_id":5051,"location":"56:72:5","text_uthmani":"نَحْنُ","qpc_uthmani_hafs":"نَحۡنُ","char_type_name":"word","page_number":536,"line_number":13,"text":"نَحۡنُ","translation":{"text":"We","language_name":"english","language_id":38},"transliteration":{"text":"naḥnu","language_name":"english","language_id":38}},{"id":60660,"position":6,"audio_url":"wbw/056_072_006.mp3","verse_key":"56:72","verse_id":5051,"location":"56:72:6","text_uthmani":"ٱلْمُنشِـُٔونَ","qpc_uthmani_hafs":"ٱلۡمُنشِـُٔونَ","char_type_name":"word","page_number":536,"line_number":13,"text":"ٱلۡمُنشِـُٔونَ","translation":{"text":"(are) the Producers","language_name":"english","language_id":38},"transliteration":{"text":"l-munshiūna","language_name":"english","language_id":38}},{"id":60661,"position":7,"audio_url":null,"verse_key":"56:72","verse_id":5051,"location":"56:72:7","text_uthmani":"٧٢","qpc_uthmani_hafs":"٧٢","char_type_name":"end","page_number":536,"line_number":13,"text":"٧٢","translation":{"text":"(72)","language_name":"english","language_id":38},"transliteration":{"text":null,"language_name":"english","language_id":38}}]},{"id":5052,"verse_number":73,"verse_key":"56:73","hizb_number":54,"rub_el_hizb_number":214,"ruku_number":472,"manzil_number":7,"sajdah_number":null,"page_number":536,"juz_number":27,"words":[{"id":60967,"position":1,"audio_url":"wbw/056_073_001.mp3","verse_key":"56:73","verse_id":5052,"location":"56:73:1","text_uthmani":"نَحْنُ","qpc_uthmani_hafs":"نَحۡنُ","char_type_name":"word","page_number":536,"line_number":13,"text":"نَحۡنُ","translation":{"text":"We","language_name":"english","language_id":38},"transliteration":{"text":"naḥnu","language_name":"english","language_id":38}},{"id":60968,"position":2,"audio_url":"wbw/056_073_002.mp3","verse_key":"56:73","verse_id":5052,"location":"56:73:2","text_uthmani":"جَعَلْنَـٰهَا","qpc_uthmani_hafs":"جَعَلۡنَٰهَا","char_type_name":"word","page_number":536,"line_number":13,"text":"جَعَلۡنَٰهَا","translation":{"text":"have made it","language_name":"english","language_id":38},"transliteration":{"text":"jaʿalnāhā","language_name":"english","language_id":38}},{"id":60969,"position":3,"audio_url":"wbw/056_073_003.mp3","verse_key":"56:73","verse_id":5052,"location":"56:73:3","text_uthmani":"تَذْكِرَةًۭ","qpc_uthmani_hafs":"تَذۡكِرَةٗ","char_type_name":"word","page_number":536,"line_number":13,"text":"تَذۡكِرَةٗ","translation":{"text":"a reminder","language_name":"english","language_id":38},"transliteration":{"text":"tadhkiratan","language_name":"english","language_id":38}},{"id":60970,"position":4,"audio_url":"wbw/056_073_004.mp3","verse_key":"56:73","verse_id":5052,"location":"56:73:4","text_uthmani":"وَمَتَـٰعًۭا","qpc_uthmani_hafs":"وَمَتَٰعٗا","char_type_name":"word","page_number":536,"line_number":13,"text":"وَمَتَٰعٗا","translation":{"text":"and a provision","language_name":"english","language_id":38},"transliteration":{"text":"wamatāʿan","language_name":"english","language_id":38}},{"id":60971,"position":5,"audio_url":"wbw/056_073_005.mp3","verse_key":"56:73","verse_id":5052,"location":"56:73:5","text_uthmani":"لِّلْمُقْوِينَ","qpc_uthmani_hafs":"لِّلۡمُقۡوِينَ","char_type_name":"word","page_number":536,"line_number":14,"text":"لِّلۡمُقۡوِينَ","translation":{"text":"for the wayfarers in the desert","language_name":"english","language_id":38},"transliteration":{"text":"lil'muq'wīna","language_name":"english","language_id":38}},{"id":60972,"position":6,"audio_url":null,"verse_key":"56:73","verse_id":5052,"location":"56:73:6","text_uthmani":"٧٣","qpc_uthmani_hafs":"٧٣","char_type_name":"end","page_number":536,"line_number":14,"text":"٧٣","translation":{"text":"(73)","language_name":"english","language_id":38},"transliteration":{"text":null,"language_name":"english","language_id":38}}]},{"id":5053,"verse_number":74,"verse_key":"56:74","hizb_number":54,"rub_el_hizb_number":214,"ruku_number":472,"manzil_number":7,"sajdah_number":null,"page_number":536,"juz_number":27,"words":[{"id":61457,"position":1,"audio_url":"wbw/056_074_001.mp3","verse_key":"56:74","verse_id":5053,"location":"56:74:1","text_uthmani":"فَسَبِّحْ","qpc_uthmani_hafs":"فَسَبِّحۡ","char_type_name":"word","page_number":536,"line_number":14,"text":"فَسَبِّحۡ","translation":{"text":"So glorify","language_name":"english","language_id":38},"transliteration":{"text":"fasabbiḥ","language_name":"english","language_id":38}},{"id":61458,"position":2,"audio_url":"wbw/056_074_002.mp3","verse_key":"56:74","verse_id":5053,"location":"56:74:2","text_uthmani":"بِٱسْمِ","qpc_uthmani_hafs":"بِٱسۡمِ","char_type_name":"word","page_number":536,"line_number":14,"text":"بِٱسۡمِ","translation":{"text":"(the) name","language_name":"english","language_id":38},"transliteration":{"text":"bi-is'mi","language_name":"english","language_id":38}},{"id":61459,"position":3,"audio_url":"wbw/056_074_003.mp3","verse_key":"56:74","verse_id":5053,"location":"56:74:3","text_uthmani":"رَبِّكَ","qpc_uthmani_hafs":"رَبِّكَ","char_type_name":"word","page_number":536,"line_number":14,"text":"رَبِّكَ","translation":{"text":"(of) your Lord","language_name":"english","language_id":38},"transliteration":{"text":"rabbika","language_name":"english","language_id":38}},{"id":61460,"position":4,"audio_url":"wbw/056_074_004.mp3","verse_key":"56:74","verse_id":5053,"location":"56:74:4","text_uthmani":"ٱلْعَظِيمِ","qpc_uthmani_hafs":"ٱلۡعَظِيمِ","char_type_name":"word","page_number":536,"line_number":14,"text":"ٱلۡعَظِيمِ","translation":{"text":"the Most Great","language_name":"english","language_id":38},"transliteration":{"text":"l-ʿaẓīmi","language_name":"english","language_id":38}},{"id":61461,"position":5,"audio_url":null,"verse_key":"56:74","verse_id":5053,"location":"56:74:5","text_uthmani":"٧٤","qpc_uthmani_hafs":"٧٤","char_type_name":"end","page_number":536,"line_number":14,"text":"٧٤","translation":{"text":"(74)","language_name":"english","language_id":38},"transliteration":{"text":null,"language_name":"english","language_id":38}}]},{"id":5054,"verse_number":75,"verse_key":"56:75","hizb_number":54,"rub_el_hizb_number":215,"ruku_number":473,"manzil_number":7,"sajdah_number":null,"page_number":536,"juz_number":27,"words":[{"id":62199,"position":1,"audio_url":"wbw/056_075_002.mp3","verse_key":"56:75","verse_id":5054,"location":"56:75:1","text_uthmani":"۞ فَلَآ","qpc_uthmani_hafs":"۞ فَلَآ","char_type_name":"word","page_number":536,"line_number":14,"text":"۞ فَلَآ","translation":{"text":"But nay","language_name":"english","language_id":38},"transliteration":{"text":"falā","language_name":"english","language_id":38}},{"id":62200,"position":2,"audio_url":"wbw/056_075_003.mp3","verse_key":"56:75","verse_id":5054,"location":"56:75:2","text_uthmani":"أُقْسِمُ","qpc_uthmani_hafs":"أُقۡسِمُ","char_type_name":"word","page_number":536,"line_number":14,"text":"أُقۡسِمُ","translation":{"text":"I swear","language_name":"english","language_id":38},"transliteration":{"text":"uq'simu","language_name":"english","language_id":38}},{"id":62201,"position":3,"audio_url":"wbw/056_075_004.mp3","verse_key":"56:75","verse_id":5054,"location":"56:75:3","text_uthmani":"بِمَوَٰقِعِ","qpc_uthmani_hafs":"بِمَوَٰقِعِ","char_type_name":"word","page_number":536,"line_number":15,"text":"بِمَوَٰقِعِ","translation":{"text":"by setting","language_name":"english","language_id":38},"transliteration":{"text":"bimawāqiʿi","language_name":"english","language_id":38}},{"id":62202,"position":4,"audio_url":"wbw/056_075_005.mp3","verse_key":"56:75","verse_id":5054,"location":"56:75:4","text_uthmani":"ٱلنُّجُومِ","qpc_uthmani_hafs":"ٱلنُّجُومِ","char_type_name":"word","page_number":536,"line_number":15,"text":"ٱلنُّجُومِ","translation":{"text":"(of) the stars","language_name":"english","language_id":38},"transliteration":{"text":"l-nujūmi","language_name":"english","language_id":38}},{"id":62203,"position":5,"audio_url":null,"verse_key":"56:75","verse_id":5054,"location":"56:75:5","text_uthmani":"٧٥","qpc_uthmani_hafs":"٧٥","char_type_name":"end","page_number":536,"line_number":15,"text":"٧٥","translation":{"text":"(75)","language_name":"english","language_id":38},"transliteration":{"text":null,"language_name":"english","language_id":38}}]},{"id":5055,"verse_number":76,"verse_key":"56:76","hizb_number":54,"rub_el_hizb_number":215,"ruku_number":473,"manzil_number":7,"sajdah_number":null,"page_number":536,"juz_number":27,"words":[{"id":62468,"position":1,"audio_url":"wbw/056_076_001.mp3","verse_key":"56:76","verse_id":5055,"location":"56:76:1","text_uthmani":"وَإِنَّهُۥ","qpc_uthmani_hafs":"وَإِنَّهُۥ","char_type_name":"word","page_number":536,"line_number":15,"text":"وَإِنَّهُۥ","translation":{"text":"And indeed, it","language_name":"english","language_id":38},"transliteration":{"text":"wa-innahu","language_name":"english","language_id":38}},{"id":62469,"position":2,"audio_url":"wbw/056_076_002.mp3","verse_key":"56:76","verse_id":5055,"location":"56:76:2","text_uthmani":"لَقَسَمٌۭ","qpc_uthmani_hafs":"لَقَسَمٞ","char_type_name":"word","page_number":536,"line_number":15,"text":"لَقَسَمٞ","translation":{"text":"(is) surely an oath","language_name":"english","language_id":38},"transliteration":{"text":"laqasamun","language_name":"english","language_id":38}},{"id":62470,"position":3,"audio_url":"wbw/056_076_003.mp3","verse_key":"56:76","verse_id":5055,"location":"56:76:3","text_uthmani":"لَّوْ","qpc_uthmani_hafs":"لَّوۡ","char_type_name":"word","page_number":536,"line_number":15,"text":"لَّوۡ","translation":{"text":"if","language_name":"english","language_id":38},"transliteration":{"text":"law","language_name":"english","language_id":38}},{"id":62471,"position":4,"audio_url":"wbw/056_076_004.mp3","verse_key":"56:76","verse_id":5055,"location":"56:76:4","text_uthmani":"تَعْلَمُونَ","qpc_uthmani_hafs":"تَعۡلَمُونَ","char_type_name":"word","page_number":536,"line_number":15,"text":"تَعۡلَمُونَ","translation":{"text":"you know ","language_name":"english","language_id":38},"transliteration":{"text":"taʿlamūna","language_name":"english","language_id":38}},{"id":62472,"position":5,"audio_url":"wbw/056_076_005.mp3","verse_key":"56:76","verse_id":5055,"location":"56:76:5","text_uthmani":"عَظِيمٌ","qpc_uthmani_hafs":"عَظِيمٌ","char_type_name":"word","page_number":536,"line_number":15,"text":"عَظِيمٌ","translation":{"text":"great","language_name":"english","language_id":38},"transliteration":{"text":"ʿaẓīmun","language_name":"english","language_id":38}},{"id":62473,"position":6,"audio_url":null,"verse_key":"56:76","verse_id":5055,"location":"56:76:6","text_uthmani":"٧٦","qpc_uthmani_hafs":"٧٦","char_type_name":"end","page_number":536,"line_number":15,"text":"٧٦","translation":{"text":"(76)","language_name":"english","language_id":38},"transliteration":{"text":null,"language_name":"english","language_id":38}}]},{"id":5056,"verse_number":77,"verse_key":"56:77","hizb_number":54,"rub_el_hizb_number":215,"ruku_number":473,"manzil_number":7,"sajdah_number":null,"page_number":537,"juz_number":27,"words":[{"id":62903,"position":1,"audio_url":"wbw/056_077_001.mp3","verse_key":"56:77","verse_id":5056,"location":"56:77:1","text_uthmani":"إِنَّهُۥ","qpc_uthmani_hafs":"إِنَّهُۥ","char_type_name":"word","page_number":537,"line_number":1,"text":"إِنَّهُۥ","translation":{"text":"Indeed, it","language_name":"english","language_id":38},"transliteration":{"text":"innahu","language_name":"english","language_id":38}},{"id":62904,"position":2,"audio_url":"wbw/056_077_002.mp3","verse_key":"56:77","verse_id":5056,"location":"56:77:2","text_uthmani":"لَقُرْءَانٌۭ","qpc_uthmani_hafs":"لَقُرۡءَانٞ","char_type_name":"word","page_number":537,"line_number":1,"text":"لَقُرۡءَانٞ","translation":{"text":"(is) surely, a Quran","language_name":"english","language_id":38},"transliteration":{"text":"laqur'ānun","language_name":"english","language_id":38}},{"id":62905,"position":3,"audio_url":"wbw/056_077_003.mp3","verse_key":"56:77","verse_id":5056,"location":"56:77:3","text_uthmani":"كَرِيمٌۭ","qpc_uthmani_hafs":"كَرِيمٞ","char_type_name":"word","page_number":537,"line_number":1,"text":"كَرِيمٞ","translation":{"text":"noble","language_name":"english","language_id":38},"transliteration":{"text":"karīmun","language_name":"english","language_id":38}},{"id":62906,"position":4,"audio_url":null,"verse_key":"56:77","verse_id":5056,"location":"56:77:4","text_uthmani":"٧٧","qpc_uthmani_hafs":"٧٧","char_type_name":"end","page_number":537,"line_number":1,"text":"٧٧","translation":{"text":"(77)","language_name":"english","language_id":38},"transliteration":{"text":null,"language_name":"english","language_id":38}}]},{"id":5057,"verse_number":78,"verse_key":"56:78","hizb_number":54,"rub_el_hizb_number":215,"ruku_number":473,"manzil_number":7,"sajdah_number":null,"page_number":537,"juz_number":27,"words":[{"id":63487,"position":1,"audio_url":"wbw/056_078_001.mp3","verse_key":"56:78","verse_id":5057,"location":"56:78:1","text_uthmani":"فِى","qpc_uthmani_hafs":"فِي","char_type_name":"word","page_number":537,"line_number":1,"text":"فِي","translation":{"text":"In","language_name":"english","language_id":38},"transliteration":{"text":"fī","language_name":"english","language_id":38}},{"id":63488,"position":2,"audio_url":"wbw/056_078_002.mp3","verse_key":"56:78","verse_id":5057,"location":"56:78:2","text_uthmani":"كِتَـٰبٍۢ","qpc_uthmani_hafs":"كِتَٰبٖ","char_type_name":"word","page_number":537,"line_number":1,"text":"كِتَٰبٖ","translation":{"text":"a Book","language_name":"english","language_id":38},"transliteration":{"text":"kitābin","language_name":"english","language_id":38}},{"id":63489,"position":3,"audio_url":"wbw/056_078_003.mp3","verse_key":"56:78","verse_id":5057,"location":"56:78:3","text_uthmani":"مَّكْنُونٍۢ","qpc_uthmani_hafs":"مَّكۡنُونٖ","char_type_name":"word","page_number":537,"line_number":1,"text":"مَّكۡنُونٖ","translation":{"text":"well-guarded","language_name":"english","language_id":38},"transliteration":{"text":"maknūnin","language_name":"english","language_id":38}},{"id":63490,"position":4,"audio_url":null,"verse_key":"56:78","verse_id":5057,"location":"56:78:4","text_uthmani":"٧٨","qpc_uthmani_hafs":"٧٨","char_type_name":"end","page_number":537,"line_number":1,"text":"٧٨","translation":{"text":"(78)","language_name":"english","language_id":38},"transliteration":{"text":null,"language_name":"english","language_id":38}}]},{"id":5058,"verse_number":79,"verse_key":"56:79","hizb_number":54,"rub_el_hizb_number":215,"ruku_number":473,"manzil_number":7,"sajdah_number":null,"page_number":537,"juz_number":27,"words":[{"id":63895,"position":1,"audio_url":"wbw/056_079_001.mp3","verse_key":"56:79","verse_id":5058,"location":"56:79:1","text_uthmani":"لَّا","qpc_uthmani_hafs":"لَّا","char_type_name":"word","page_number":537,"line_number":1,"text":"لَّا","translation":{"text":"None","language_name":"english","language_id":38},"transliteration":{"text":"lā","language_name":"english","language_id":38}},{"id":63896,"position":2,"audio_url":"wbw/056_079_002.mp3","verse_key":"56:79","verse_id":5058,"location":"56:79:2","text_uthmani":"يَمَسُّهُۥٓ","qpc_uthmani_hafs":"يَمَسُّهُۥٓ","char_type_name":"word","page_number":537,"line_number":1,"text":"يَمَسُّهُۥٓ","translation":{"text":"touch it","language_name":"english","language_id":38},"transliteration":{"text":"yamassuhu","language_name":"english","language_id":38}},{"id":63897,"position":3,"audio_url":"wbw/056_079_003.mp3","verse_key":"56:79","verse_id":5058,"location":"56:79:3","text_uthmani":"إِلَّا","qpc_uthmani_hafs":"إِلَّا","char_type_name":"word","page_number":537,"line_number":1,"text":"إِلَّا","translation":{"text":"except","language_name":"english","language_id":38},"transliteration":{"text":"illā","language_name":"english","language_id":38}},{"id":63898,"position":4,"audio_url":"wbw/056_079_004.mp3","verse_key":"56:79","verse_id":5058,"location":"56:79:4","text_uthmani":"ٱلْمُطَهَّرُونَ","qpc_uthmani_hafs":"ٱلۡمُطَهَّرُونَ","char_type_name":"word","page_number":537,"line_number":2,"text":"ٱلۡمُطَهَّرُونَ","translation":{"text":"the purified","language_name":"english","language_id":38},"transliteration":{"text":"l-muṭaharūna","language_name":"english","language_id":38}},{"id":63899,"position":5,"audio_url":null,"verse_key":"56:79","verse_id":5058,"location":"56:79:5","text_uthmani":"٧٩","qpc_uthmani_hafs":"٧٩","char_type_name":"end","page_number":537,"line_number":2,"text":"٧٩","translation":{"text":"(79)","language_name":"english","language_id":38},"transliteration":{"text":null,"language_name":"english","language_id":38}}]},{"id":5059,"verse_number":80,"verse_key":"56:80","hizb_number":54,"rub_el_hizb_number":215,"ruku_number":473,"manzil_number":7,"sajdah_number":null,"page_number":537,"juz_number":27,"words":[{"id":64204,"position":1,"audio_url":"wbw/056_080_001.mp3","verse_key":"56:80","verse_id":5059,"location":"56:80:1","text_uthmani":"تَنزِيلٌۭ","qpc_uthmani_hafs":"تَنزِيلٞ","char_type_name":"word","page_number":537,"line_number":2,"text":"تَنزِيلٞ","translation":{"text":"A Revelation","language_name":"english","language_id":38},"transliteration":{"text":"tanzīlun","language_name":"english","language_id":38}},{"id":64205,"position":2,"audio_url":"wbw/056_080_002.mp3","verse_key":"56:80","verse_id":5059,"location":"56:80:2","text_uthmani":"مِّن","qpc_uthmani_hafs":"مِّن","char_type_name":"word","page_number":537,"line_number":2,"text":"مِّن","translation":{"text":"from","language_name":"english","language_id":38},"transliteration":{"text":"min","language_name":"english","language_id":38}},{"id":64206,"position":3,"audio_url":"wbw/056_080_003.mp3","verse_key":"56:80","verse_id":5059,"location":"56:80:3","text_uthmani":"رَّبِّ","qpc_uthmani_hafs":"رَّبِّ","char_type_name":"word","page_number":537,"line_number":2,"text":"رَّبِّ","translation":{"text":"(the) Lord","language_name":"english","language_id":38},"transliteration":{"text":"rabbi","language_name":"english","language_id":38}},{"id":64207,"position":4,"audio_url":"wbw/056_080_004.mp3","verse_key":"56:80","verse_id":5059,"location":"56:80:4","text_uthmani":"ٱلْعَـٰلَمِينَ","qpc_uthmani_hafs":"ٱلۡعَٰلَمِينَ","char_type_name":"word","page_number":537,"line_number":2,"text":"ٱلۡعَٰلَمِينَ","translation":{"text":"(of) the worlds","language_name":"english","language_id":38},"transliteration":{"text":"l-ʿālamīna","language_name":"english","language_id":38}},{"id":64208,"position":5,"audio_url":null,"verse_key":"56:80","verse_id":5059,"location":"56:80:5","text_uthmani":"٨٠","qpc_uthmani_hafs":"٨٠","char_type_name":"end","page_number":537,"line_number":2,"text":"٨٠","translation":{"text":"(80)","language_name":"english","language_id":38},"transliteration":{"text":null,"language_name":"english","language_id":38}}]}],"pagination":{"per_page":10,"current_page":8,"next_page":9,"total_pages":10,"total_records":96}}
