{"verses":[{"id":5060,"verse_number":81,"verse_key":"56:81","hizb_number":54,"rub_el_hizb_number":215,"ruku_number":473,"manzil_number":7,"sajdah_number":null,"page_number":537,"juz_number":27,"words":[{"id":64720,"position":1,"audio_url":"wbw/056_081_001.mp3","verse_key":"56:81","verse_id":5060,"location":"56:81:1","text_uthmani":"أَفَبِهَـٰذَا","qpc_uthmani_hafs":"أَفَبِهَٰذَا","char_type_name":"word","page_number":537,"line_number":2,"text":"أَفَبِهَٰذَا","translation":{"text":"Then is it to this","language_name":"english","language_id":38},"transliteration":{"text":"afabihādhā","language_name":"english","language_id":38}},{"id":64721,"position":2,"audio_url":"wbw/056_081_002.mp3","verse_key":"56:81","verse_id":5060,"location":"56:81:2","text_uthmani":"ٱلْحَدِيثِ","qpc_uthmani_hafs":"ٱلۡحَدِيثِ","char_type_name":"word","page_number":537,"line_number":2,"text":"ٱلۡحَدِيثِ","translation":{"text":"statement","language_name":"english","language_id":38},"transliteration":{"text":"l-ḥadīthi","language_name":"english","language_id":38}},{"id":64722,"position":3,"audio_url":"wbw/056_081_003.mp3","verse_key":"56:81","verse_id":5060,"location":"56:81:3","text_uthmani":"أَنتُم","qpc_uthmani_hafs":"أَنتُم","char_type_name":"word","page_number":537,"line_number":3,"text":"أَنتُم","translation":{"text":"that you","language_name":"english","language_id":38},"transliteration":{"text":"antum","language_name":"english","language_id":38}},{"id":64723,"position":4,"audio_url":"wbw/056_081_004.mp3","verse_key":"56:81","verse_id":5060,"location":"56:81:4","text_uthmani":"مُّدْهِنُونَ","qpc_uthmani_hafs":"مُّدۡهِنُونَ","char_type_name":"word","page_number":537,"line_number":3,"text":"مُّدۡهِنُونَ","translation":{"text":"(are) indifferent","language_name":"english","language_id":38},"transliteration":{"text":"mud'hinūna","language_name":"english","language_id":38}},{"id":64724,"position":5,"audio_url":null,"verse_key":"56:81","verse_id":5060,"location":"56:81:5","text_uthmani":"٨١","qpc_uthmani_hafs":"٨١","char_type_name":"end","page_number":537,"line_number":3,"text":"٨١","translation":{"text":"(81)","language_name":"english","language_id":38},"transliteration":{"text":null,"language_name":"english","language_id":38}}]},{"id":5061,"verse_number":82,"verse_key":"56:82","hizb_number":54,"rub_el_hizb_number":215,"ruku_number":473,"manzil_number":7,"sajdah_number":null,"page_number":537,"juz_number":27,"words":[{"id":65205,"position":1,"audio_url":"wbw/056_082_001.mp3","verse_key":"56:82","verse_id":5061,"location":"56:82:1","text_uthmani":"وَتَجْعَلُونَ","qpc_uthmani_hafs":"وَتَجۡعَلُونَ","char_type_name":"word","page_number":537,"line_number":3,"text":"وَتَجۡعَلُونَ","translation":{"text":"And you make","language_name":"english","language_id":38},"transliteration":{"text":"watajʿalūna","language_name":"english","language_id":38}},{"id":65206,"position":2,"audio_url":"wbw/056_082_002.mp3","verse_key":"56:82","verse_id":5061,"location":"56:82:2","text_uthmani":"رِزْقَكُمْ","qpc_uthmani_hafs":"رِزۡقَكُمۡ","char_type_name":"word","page_number":537,"line_number":3,"text":"رِزۡقَكُمۡ","translation":{"text":"your provision","language_name":"english","language_id":38},"transliteration":{"text":"riz'qakum","language_name":"english","language_id":38}},{"id":65207,"position":3,"audio_url":"wbw/056_082_003.mp3","verse_key":"56:82","verse_id":5061,"location":"56:82:3","text_uthmani":"أَنَّكُمْ","qpc_uthmani_hafs":"أَنَّكُمۡ","char_type_name":"word","page_number":537,"line_number":3,"text":"أَنَّكُمۡ","translation":{"text":"that you","language_name":"english","language_id":38},"transliteration":{"text":"annakum","language_name":"english","language_id":38}},{"id":65208,"position":4,"audio_url":"wbw/056_082_004.mp3","verse_key":"56:82","verse_id":5061,"location":"56:82:4","text_uthmani":"تُكَذِّبُونَ","qpc_uthmani_hafs":"تُكَذِّبُونَ","char_type_name":"word","page_number":537,"line_number":3,"text":"تُكَذِّبُونَ","translation":{"text":"deny","language_name":"english","language_id":38},"transliteration":{"text":"tukadhibūna","language_name":"english","language_id":38}},{"id":65209,"position":5,"audio_url":null,"verse_key":"56:82","verse_id":5061,"location":"56:82:5","text_uthmani":"٨٢","qpc_uthmani_hafs":"٨٢","char_type_name":"end","page_number":537,"line_number":3,"text":"٨٢","translation":{"text":"(82)","language_name":"english","language_id":38},"transliteration":{"text":null,"language_name":"english","language_id":38}}]},{"id":5062,"verse_number":83,"verse_key":"56:83","hizb_number":54,"rub_el_hizb_number":215,"ruku_number":473,"manzil_number":7,"sajdah_number":null,"page_number":537,"juz_number":27,"words":[{"id":65403,"position":1,"audio_url":"wbw/056_083_001.mp3","verse_key":"56:83","verse_id":5062,"location":"56:83:1","text_uthmani":"فَلَوْلَآ","qpc_uthmani_hafs":"فَلَوۡلَآ","char_type_name":"word","page_number":537,"line_number":3,"text":"فَلَوۡلَآ","translation":{"text":"Then why not","language_name":"english","language_id":38},"transliteration":{"text":"falawlā","language_name":"english","language_id":38}},{"id":65404,"position":2,"audio_url":"wbw/056_083_002.mp3","verse_key":"56:83","verse_id":5062,"location":"56:83:2","text_uthmani":"إِذَا","qpc_uthmani_hafs":"إِذَا","char_type_name":"word","page_number":537,"line_number":4,"text":"إِذَا","translation":{"text":"when","language_name":"english","language_id":38},"transliteration":{"text":"idhā","language_name":"english","language_id":38}},{"id":65405,"position":3,"audio_url":"wbw/056_083_003.mp3","verse_key":"56:83","verse_id":5062,"location":"56:83:3","text_uthmani":"بَلَغَتِ","qpc_uthmani_hafs":"بَلَغَتِ","char_type_name":"word","page_number":537,"line_number":4,"text":"بَلَغَتِ","translation":{"text":"it reaches","language_name":"english","language_id":38},"transliteration":{"text":"balaghati","language_name":"english","language_id":38}},{"id":65406,"position":4,"audio_url":"wbw/056_083_004.mp3","verse_key":"56:83","verse_id":5062,"location":"56:83:4","text_uthmani":"ٱلْحُلْقُومَ","qpc_uthmani_hafs":"ٱلۡحُلۡقُومَ","char_type_name":"word","page_number":537,"line_number":4,"text":"ٱلۡحُلۡقُومَ","translation":{"text":"the throat","language_name":"english","language_id":38},"transliteration":{"text":"l-ḥul'qūma","language_name":"english","language_id":38}},{"id":65407,"position":5,"audio_url":null,"verse_key":"56:83","verse_id":5062,"location":"56:83:5","text_uthmani":"٨٣","qpc_uthmani_hafs":"٨٣","char_type_name":"end","page_number":537,"line_number":4,"text":"٨٣","translation":{"text":"(83)","language_name":"english","language_id":38},"transliteration":{"text":null,"language_name":"english","language_id":38}}]},{"id":5063,"verse_number":84,"verse_key":"56:84","hizb_number":54,"rub_el_hizb_number":215,"ruku_number":473,"manzil_number":7,"sajdah_number":null,"page_number":537,"juz_number":27,"words":[{"id":65718,"position":1,"audio_url":"wbw/056_084_001.mp3","verse_key":"56:84","verse_id":5063,"location":"56:84:1","text_uthmani":"وَأَنتُمْ","qpc_uthmani_hafs":"وَأَنتُمۡ","char_type_name":"word","page_number":537,"line_number":4,"text":"وَأَنتُمۡ","translation":{"text":"And you","language_name":"english","language_id":38},"transliteration":{"text":"wa-antum","language_name":"english","language_id":38}},{"id":65719,"position":2,"audio_url":"wbw/056_084_002.mp3","verse_key":"56:84","verse_id":5063,"location":"56:84:2","text_uthmani":"حِينَئِذٍۢ","qpc_uthmani_hafs":"حِينَئِذٖ","char_type_name":"word","page_number":537,"line_number":4,"text":"حِينَئِذٖ","translation":{"text":"(at) that time","language_name":"english","language_id":38},"transliteration":{"text":"ḥīna-idhin","language_name":"english","language_id":38}},{"id":65720,"position":3,"audio_url":"wbw/056_084_003.mp3","verse_key":"56:84","verse_id":5063,"location":"56:84:3","text_uthmani":"تَنظُرُونَ","qpc_uthmani_hafs":"تَنظُرُونَ","char_type_name":"word","page_number":537,"line_number":4,"text":"تَنظُرُونَ","translation":{"text":"look on","language_name":"english","language_id":38},"transliteration":{"text":"tanẓurūna","language_name":"english","language_id":38}},{"id":65721,"position":4,"audio_url":null,"verse_key":"56:84","verse_id":5063,"location":"56:84:4","text_uthmani":"٨٤","qpc_uthmani_hafs":"٨٤","char_type_name":"end","page_number":537,"line_number":4,"text":"٨٤","translation":{"text":"(84)","language_name":"english","language_id":38},"transliteration":{"text":null,"language_name":"english","language_id":38}}]},{"id":5064,"verse_number":85,"verse_key":"56:85","hizb_number":54,"rub_el_hizb_number":215,"ruku_number":473,"manzil_number":7,"sajdah_number":null,"page_number":537,"juz_number":27,"words":[{"id":66086,"position":1,"audio_url":"wbw/056_085_001.mp3","verse_key":"56:85","verse_id":5064,"location":"56:85:1","text_uthmani":"وَنَحْنُ","qpc_uthmani_hafs":"وَنَحۡنُ","char_type_name":"word","page_number":537,"line_number":4,"text":"وَنَحۡنُ","translation":{"text":"And We","language_name":"english","language_id":38},"transliteration":{"text":"wanaḥnu","language_name":"english","language_id":38}},{"id":66087,"position":2,"audio_url":"wbw/056_085_002.mp3","verse_key":"56:85","verse_id":5064,"location":"56:85:2","text_uthmani":"أَقْرَبُ","qpc_uthmani_hafs":"أَقۡرَبُ","char_type_name":"word","page_number":537,"line_number":4,"text":"أَقۡرَبُ","translation":{"text":"(are) nearer","language_name":"english","language_id":38},"transliteration":{"text":"aqrabu","language_name":"english","language_id":38}},{"id":66088,"position":3,"audio_url":"wbw/056_085_003.mp3","verse_key":"56:85","verse_id":5064,"location":"56:85:3","text_uthmani":"إِلَيْهِ","qpc_uthmani_hafs":"إِلَيۡهِ","char_type_name":"word","page_number":537,"line_number":5,"text":"إِلَيۡهِ","translation":{"text":"to him","language_name":"english","language_id":38},"transliteration":{"text":"ilayhi","language_name":"english","language_id":38}},{"id":66089,"position":4,"audio_url":"wbw/056_085_004.mp3","verse_key":"56:85","verse_id":5064,"location":"56:85:4","text_uthmani":"مِنكُمْ","qpc_uthmani_hafs":"مِنكُمۡ","char_type_name":"word","page_number":537,"line_number":5,"text":"مِنكُمۡ","translation":{"text":"than you","language_name":"english","language_id":38},"transliteration":{"text":"minkum","language_name":"english","language_id":38}},{"id":66090,"position":5,"audio_url":"wbw/056_085_005.mp3","verse_key":"56:85","verse_id":5064,"location":"56:85:5","text_uthmani":"وَلَـٰكِن","qpc_uthmani_hafs":"وَلَٰكِن","char_type_name":"word","page_number":537,"line_number":5,"text":"وَلَٰكِن","translation":{"text":"but","language_name":"english","language_id":38},"transliteration":{"text":"walākin","language_name":"english","language_id":38}},{"id":66091,"position":6,"audio_url":"wbw/056_085_006.mp3","verse_key":"56:85","verse_id":5064,"location":"56:85:6","text_uthmani":"لَّا","qpc_uthmani_hafs":"لَّا","char_type_name":"word","page_number":537,"line_number":5,"text":"لَّا","translation":{"text":"you (do) not see","language_name":"english","language_id":38},"transliteration":{"text":"lā","language_name":"english","language_id":38}},{"id":66092,"position":7,"audio_url":"wbw/056_085_007.mp3","verse_key":"56:85","verse_id":5064,"location":"56:85:7","text_uthmani":"تُبْصِرُونَ","qpc_uthmani_hafs":"تُبۡصِرُونَ","char_type_name":"word","page_number":537,"line_number":5,"text":"تُبۡصِرُونَ","translation":{"text":"you (do) not see","language_name":"english","language_id":38},"transliteration":{"text":"tub'ṣirūna","language_name":"english","language_id":38}},{"id":66093,"position":8,"audio_url":null,"verse_key":"56:85","verse_id":5064,"location":"56:85:8","text_uthmani":"٨٥","qpc_uthmani_hafs":"٨٥","char_type_name":"end","page_number":537,"line_number":5,"text":"٨٥","translation":{"text":"(85)","language_name":"english","language_id":38},"transliteration":{"text":null,"language_name":"english","language_id":38}}]},{"id":5065,"verse_number":86,"verse_key":"56:86","hizb_number":54,"rub_el_hizb_number":215,"ruku_number":473,"manzil_number":7,"sajdah_number":null,"page_number":537,"juz_number":27,"words":[{"id":66516,"position":1,"audio_url":"wbw/056_086_001.mp3","verse_key":"56:86","verse_id":5065,"location":"56:86:1","text_uthmani":"فَلَوْلَآ","qpc_uthmani_hafs":"فَلَوۡلَآ","char_type_name":"word","page_number":537,"line_number":5,"text":"فَلَوۡلَآ","translation":{"text":"Then why not","language_name":"english","language_id":38},"transliteration":{"text":"falawlā","language_name":"english","language_id":38}},{"id":66517,"position":2,"audio_url":"wbw/056_086_002.mp3","verse_key":"56:86","verse_id":5065,"location":"56:86:2","text_uthmani":"إِن","qpc_uthmani_hafs":"إِن","char_type_name":"word","page_number":537,"line_number":5,"text":"إِن","translation":{"text":"if","language_name":"english","language_id":38},"transliteration":{"text":"in","language_name":"english","language_id":38}},{"id":66518,"position":3,"audio_url":"wbw/056_086_003.mp3","verse_key":"56:86","verse_id":5065,"location":"56:86:3","text_uthmani":"كُنتُمْ","qpc_uthmani_hafs":"كُنتُمۡ","char_type_name":"word","page_number":537,"line_number":5,"text":"كُنتُمۡ","translation":{"text":"you are","language_name":"english","language_id":38},"transliteration":{"text":"kuntum","language_name":"english","language_id":38}},{"id":66519,"position":4,"audio_url":"wbw/056_086_004.mp3","verse_key":"56:86","verse_id":5065,"location":"56:86:4","text_uthmani":"غَيْرَ","qpc_uthmani_hafs":"غَيۡرَ","char_type_name":"word","page_number":537,"line_number":5,"text":"غَيۡرَ","translation":{"text":"not","language_name":"english","language_id":38},"transliteration":{"text":"ghayra","language_name":"english","language_id":38}},{"id":66520,"position":5,"audio_url":"wbw/056_086_005.mp3","verse_key":"56:86","verse_id":5065,"location":"56:86:5","text_uthmani":"مَدِينِينَ","qpc_uthmani_hafs":"مَدِينِينَ","char_type_name":"word","page_number":537,"line_number":5,"text":"مَدِينِينَ","translation":{"text":"to be recompensed","language_name":"english","language_id":38},"transliteration":{"text":"madīnīna","language_name":"english","language_id":38}},{"id":66521,"position":6,"audio_url":null,"verse_key":"56:86","verse_id":5065,"location":"56:86:6","text_uthmani":"٨٦","qpc_uthmani_hafs":"٨٦","char_type_name":"end","page_number":537,"line_number":6,"text":"٨٦","translation":{"text":"(86)","language_name":"english","language_id":38},"transliteration":{"text":null,"language_name":"english","language_id":38}}]},{"id":5066,"verse_number":87,"verse_key":"56:87","hizb_number":54,"rub_el_hizb_number":215,"ruku_number":473,"manzil_number":7,"sajdah_number":null,"page_number":537,"juz_number":27,"words":[{"id":66807,"position":1,"audio_url":"wbw/056_087_001.mp3","verse_key":"56:87","verse_id":5066,"location":"56:87:1","text_uthmani":"تَرْجِعُونَهَآ","qpc_uthmani_hafs":"تَرۡجِعُونَهَآ","char_type_name":"word","page_number":537,"line_number":6,"text":"تَرۡجِعُونَهَآ","translation":{"text":"Bring it back","language_name":"english","language_id":38},"transliteration":{"text":"tarjiʿūnahā","language_name":"english","language_id":38}},{"id":66808,"position":2,"audio_url":"wbw/056_087_002.mp3","verse_key":"56:87","verse_id":5066,"location":"56:87:2","text_uthmani":"إِن","qpc_uthmani_hafs":"إِن","char_type_name":"word","page_number":537,"line_number":6,"text":"إِن","translation":{"text":"if","language_name":"english","language_id":38},"transliteration":{"text":"in","language_name":"english","language_id":38}},{"id":66809,"position":3,"audio_url":"wbw/056_087_003.mp3","verse_key":"56:87","verse_id":5066,"location":"56:87:3","text_uthmani":"كُنتُمْ","qpc_uthmani_hafs":"كُنتُمۡ","char_type_name":"word","page_number":537,"line_number":6,"text":"كُنتُمۡ","translation":{"text":"you are","language_name":"english","language_id":38},"transliteration":{"text":"kuntum","language_name":"english","language_id":38}},{"id":66810,"position":4,"audio_url":"wbw/056_087_004.mp3","verse_key":"56:87","verse_id":5066,"location":"56:87:4","text_uthmani":"صَـٰدِقِينَ","qpc_uthmani_hafs":"صَٰدِقِينَ","char_type_name":"word","page_number":537,"line_number":6,"text":"صَٰدِقِينَ","translation":{"text":"truthful","language_name":"english","language_id":38},"transliteration":{"text":"ṣādiqīna","language_name":"english","language_id":38}},{"id":66811,"position":5,"audio_url":null,"verse_key":"56:87","verse_id":5066,"location":"56:87:5","text_uthmani":"٨٧","qpc_uthmani_hafs":"٨٧","char_type_name":"end","page_number":537,"line_number":6,"text":"٨٧","translation":{"text":"(87)","language_name":"english","language_id":38},"transliteration":{"text":null,"language_name":"english","language_id":38}}]},{"id":5067,"verse_number":88,"verse_key":"56:88","hizb_number":54,"rub_el_hizb_number":215,"ruku_number":473,"manzil_number":7,"sajdah_number":null,"page_number":537,"juz_number":27,"words":[{"id":67400,"position":1,"audio_url":"wbw/056_088_001.mp3","verse_key":"56:88","verse_id":5067,"location":"56:88:1","text_uthmani":"فَأَمَّآ","qpc_uthmani_hafs":"فَأَمَّآ","char_type_name":"word","page_number":537,"line_number":6,"text":"فَأَمَّآ","translation":{"text":"Then","language_name":"english","language_id":38},"transliteration":{"text":"fa-ammā","language_name":"english","language_id":38}},{"id":67401,"position":2,"audio_url":"wbw/056_088_002.mp3","verse_key":"56:88","verse_id":5067,"location":"56:88:2","text_uthmani":"إِن","qpc_uthmani_hafs":"إِن","char_type_name":"word","page_number":537,"line_number":6,"text":"إِن","translation":{"text":"if","language_name":"english","language_id":38},"transliteration":{"text":"in","language_name":"english","language_id":38}},{"id":67402,"position":3,"audio_url":"wbw/056_088_003.mp3","verse_key":"56:88","verse_id":5067,"location":"56:88:3","text_uthmani":"كَانَ","qpc_uthmani_hafs":"كَانَ","char_type_name":"word","page_number":537,"line_number":6,"text":"كَانَ","translation":{"text":"he was","language_name":"english","language_id":38},"transliteration":{"text":"kāna","language_name":"english","language_id":38}},{"id":67403,"position":4,"audio_url":"wbw/056_088_004.mp3","verse_key":"56:88","verse_id":5067,"location":"56:88:4","text_uthmani":"مِنَ","qpc_uthmani_hafs":"مِنَ","char_type_name":"word","page_number":537,"line_number":6,"text":"مِنَ","translation":{"text":"of","language_name":"english","language_id":38},"transliteration":{"text":"mina","language_name":"english","language_id":38}},{"id":67404,"position":5,"audio_url":"wbw/056_088_005.mp3","verse_key":"56:88","verse_id":5067,"location":"56:88:5","text_uthmani":"ٱلْمُقَرَّبِينَ","qpc_uthmani_hafs":"ٱلۡمُقَرَّبِينَ","char_type_name":"word","page_number":537,"line_number":6,"text":"ٱلۡمُقَرَّبِينَ","translation":{"text":"those brought near","language_name":"english","language_id":38},"transliteration":{"text":"l-muqarabīna","language_name":"english","language_id":38}},{"id":67405,"position":6,"audio_url":null,"verse_key":"56:88","verse_id":5067,"location":"56:88:6","text_uthmani":"٨٨","qpc_uthmani_hafs":"٨٨","char_type_name":"end","page_number":537,"line_number":7,"text":"٨٨","translation":{"text":"(88)","language_name":"english","language_id":38},"transliteration":{"text":null,"language_name":"english","language_id":38}}]},{"id":5068,"verse_number":89,"verse_key":"56:89","hizb_number":54,"rub_el_hizb_number":215,"ruku_number":473,"manzil_number":7,"sajdah_number":null,"page_number":537,"juz_number":27,"words":[{"id":67613,"position":1,"audio_url":"wbw/056_089_001.mp3","verse_key":"56:89","verse_id":5068,"location":"56:89:1","text_uthmani":"فَرَوْحٌۭ","qpc_uthmani_hafs":"فَرَوۡحٞ","char_type_name":"word","page_number":537,"line_number":7,"text":"فَرَوۡحٞ","translation":{"text":"Then rest","language_name":"english","language_id":38},"transliteration":{"text":"farawḥun","language_name":"english","language_id":38}},{"id":67614,"position":2,"audio_url":"wbw/056_089_002.mp3","verse_key":"56:89","verse_id":5068,"location":"56:89:2","text_uthmani":"وَرَيْحَانٌۭ","qpc_uthmani_hafs":"وَرَيۡحَانٞ","char_type_name":"word","page_number":537,"line_number":7,"text":"وَرَيۡحَانٞ","translation":{"text":"and bounty","language_name":"english","language_id":38},"transliteration":{"text":"warayḥānun","language_name":"english","language_id":38}},{"id":67615,"position":3,"audio_url":"wbw/056_089_003.mp3","verse_key":"56:89","verse_id":5068,"location":"56:89:3","text_uthmani":"وَجَنَّتُ","qpc_uthmani_hafs":"وَجَنَّتُ","char_type_name":"word","page_number":537,"line_number":7,"text":"وَجَنَّتُ","translation":{"text":"and a Garden","language_name":"english","language_id":38},"transliteration":{"text":"wajannatu","language_name":"english","language_id":38}},{"id":67616,"position":4,"audio_url":"wbw/056_089_004.mp3","verse_key":"56:89","verse_id":5068,"location":"56:89:4","text_uthmani":"نَعِيمٍۢ","qpc_uthmani_hafs":"نَعِيمٖ","char_type_name":"word","page_number":537,"line_number":7,"text":"نَعِيمٖ","translation":{"text":"(of) Pleasure","language_name":"english","language_id":38},"transliteration":{"text":"naʿīmin","language_name":"english","language_id":38}},{"id":67617,"position":5,"audio_url":null,"verse_key":"56:89","verse_id":5068,"location":"56:89:5","text_uthmani":"٨٩","qpc_uthmani_hafs":"٨٩","char_type_name":"end","page_number":537,"line_number":7,"text":"٨٩","translation":{"text":"(89)","language_name":"english","language_id":38},"transliteration":{"text":null,"language_name":"english","language_id":38}}]},{"id":5069,"verse_number":90,"verse_key":"56:90","hizb_number":54,"rub_el_hizb_number":215,"ruku_number":473,"manzil_number":7,"sajdah_number":null,"page_number":537,"juz_number":27,"words":[{"id":67980,"position":1,"audio_url":"wbw/056_090_001.mp3","verse_key":"56:90","verse_id":5069,"location":"56:90:1","text_uthmani":"وَأَمَّآ","qpc_uthmani_hafs":"وَأَمَّآ","char_type_name":"word","page_number":537,"line_number":7,"text":"وَأَمَّآ","translation":{"text":"And","language_name":"english","language_id":38},"transliteration":{"text":"wa-ammā","language_name":"english","language_id":38}},{"id":67981,"position":2,"audio_url":"wbw/056_090_002.mp3","verse_key":"56:90","verse_id":5069,"location":"56:90:2","text_uthmani":"إِن","qpc_uthmani_hafs":"إِن","char_type_name":"word","page_number":537,"line_number":7,"text":"إِن","translation":{"text":"if","language_name":"english","language_id":38},"transliteration":{"text":"in","language_name":"english","language_id":38}},{"id":67982,"position":3,"audio_url":"wbw/056_090_003.mp3","verse_key":"56:90","verse_id":5069,"location":"56:90:3","text_uthmani":"كَانَ","qpc_uthmani_hafs":"كَانَ","char_type_name":"word","page_number":537,"line_number":7,"text":"كَانَ","translation":{"text":"he was","language_name":"english","language_id":38},"transliteration":{"text":"kāna","language_name":"english","language_id":38}},{"id":67983,"position":4,"audio_url":"wbw/056_090_004.mp3","verse_key":"56:90","verse_id":5069,"location":"56:90:4","text_uthmani":"مِنْ","qpc_uthmani_hafs":"مِنۡ","char_type_name":"word","page_number":537,"line_number":7,"text":"مِنۡ","translation":{"text":"of","language_name":"english","language_id":38},"transliteration":{"text":"min","language_name":"english","language_id":38}},{"id":67984,"position":5,"audio_url":"wbw/056_090_005.mp3","verse_key":"56:90","verse_id":5069,"location":"56:90:5","text_uthmani":"أَصْحَـٰبِ","qpc_uthmani_hafs":"أَصۡحَٰبِ","char_type_name":"word","page_number":537,"line_number":7,"text":"أَصۡحَٰبِ","translation":{"text":"(the) companions","language_name":"english","language_id":38},"transliteration":{"text":"aṣḥābi","language_name":"english","language_id":38}},{"id":67985,"position":6,"audio_url":"wbw/056_090_006.mp3","verse_key":"56:90","verse_id":5069,"location":"56:90:6","text_uthmani":"ٱلْيَمِينِ","qpc_uthmani_hafs":"ٱلۡيَمِينِ","char_type_name":"word","page_number":537,"line_number":8,"text":"ٱلۡيَمِينِ","translation":{"text":"(of) the right","language_name":"english","language_id":38},"transliteration":{"text":"l-yamīni","language_name":"english","language_id":38}},{"id":67986,"position":7,"audio_url":null,"verse_key":"56:90","verse_id":5069,"location":"56:90:7","text_uthmani":"٩٠","qpc_uthmani_hafs":"٩٠","char_type_name":"end","page_number":537,"line_number":8,"text":"٩٠","translation":{"text":"(90)","language_name":"english","language_id":38},"transliteration":{"text":null,"language_name":"english","language_id":38}}]}],"pagination":{"per_page":10,"current_page":9,"next_page":10,"total_pages":10,"total_records":96}}
