{"verses":[{"id":3789,"verse_number":1,"verse_key":"37:1","hizb_number":45,"rub_el_hizb_number":178,"ruku_number":388,"manzil_number":6,"sajdah_number":null,"page_number":446,"juz_number":23,"words":[{"id":889,"position":1,"audio_url":"wbw/037_001_001.mp3","char_type_name":"word","page_number":446,"line_number":2,"text":"وَٱلصَّـٰٓفَّـٰتِ","translation":{"text":"শপথ সারি বেঁধে দাঁড়ায় যারা","language_name":"bengali","language_id":20},"transliteration":{"text":"wal-ṣāfāti","language_name":"english","language_id":38}},{"id":890,"position":2,"audio_url":"wbw/037_001_002.mp3","char_type_name":"word","page_number":446,"line_number":2,"text":"صَفًّۭا","translation":{"text":"সারি সারি","language_name":"bengali","language_id":20},"transliteration":{"text":"ṣaffan","language_name":"english","language_id":38}},{"id":891,"position":3,"audio_url":null,"char_type_name":"end","page_number":446,"line_number":2,"text":"١","translation":{"text":"(১)","language_name":"bengali","language_id":20},"transliteration":{"text":null,"language_name":"english","language_id":38}}]},{"id":3790,"verse_number":2,"verse_key":"37:2","hizb_number":45,"rub_el_hizb_number":178,"ruku_number":388,"manzil_number":6,"sajdah_number":null,"page_number":446,"juz_number":23,"words":[{"id":1977,"position":1,"audio_url":"wbw/037_002_001.mp3","char_type_name":"word","page_number":446,"line_number":2,"text":"فَٱلزَّٰجِرَٰتِ","translation":{"text":"অতঃপর (শপথ) ধমকদানকারীদের","language_name":"bengali","language_id":20},"transliteration":{"text":"fal-zājirāti","language_name":"english","language_id":38}},{"id":1978,"position":2,"audio_url":"wbw/037_002_002.mp3","char_type_name":"word","page_number":446,"line_number":2,"text":"زَجْرًۭا","translation":{"text":"সজোরে","language_name":"bengali","language_id":20},"transliteration":{"text":"zajran","language_name":"english","language_id":38}},{"id":1979,"position":3,"audio_url":null,"char_type_name":"end","page_number":446,"line_number":2,"text":"٢","translation":{"text":"(২)","language_name":"bengali","language_id":20},"transliteration":{"text":null,"language_name":"english","language_id":38}}]},{"id":3791,"verse_number":3,"verse_key":"37:3","hizb_number":45,"rub_el_hizb_number":178,"ruku_number":388,"manzil_number":6,"sajdah_number":null,"page_number":446,"juz_number":23,"words":[{"id":3173,"position":1,"audio_url":"wbw/037_003_001.mp3","char_type_name":"word","page_number":446,"line_number":2,"text":"فَٱلتَّـٰلِيَـٰتِ","translation":{"text":"অতঃপর (শপথ তাদের) পাঠকদের","language_name":"bengali","language_id":20},"transliteration":{"text":"fal-tāliyāti","language_name":"english","language_id":38}},{"id":3174,"position":2,"audio_url":"wbw/037_003_002.mp3","char_type_name":"word","page_number":446,"line_number":2,"text":"ذِكْرًا","translation":{"text":"উপদেশবাণী","language_name":"bengali","language_id":20},"transliteration":{"text":"dhik'ran","language_name":"english","language_id":38}},{"id":3175,"position":3,"audio_url":null,"char_type_name":"end","page_number":446,"line_number":2,"text":"٣","translation":{"text":"(৩)","language_name":"bengali","language_id":20},"transliteration":{"text":null,"language_name":"english","language_id":38}}]},{"id":3792,"verse_number":4,"verse_key":"37:4","hizb_number":45,"rub_el_hizb_number":178,"ruku_number":388,"manzil_number":6,"sajdah_number":null,"page_number":446,"juz_number":23,"words":[{"id":4528,"position":1,"audio_url":"wbw/037_004_001.mp3","char_type_name":"word","page_number":446,"line_number":2,"text":"إِنَّ","translation":{"text":"নিশ্চয়ই","language_name":"bengali","language_id":20},"transliteration":{"text":"inna","language_name":"english","language_id":38}},{"id":4529,"position":2,"audio_url":"wbw/037_004_002.mp3","char_type_name":"word","page_number":446,"line_number":3,"text":"إِلَـٰهَكُمْ","translation":{"text":"তোমাদের ইলাহ","language_name":"bengali","language_id":20},"transliteration":{"text":"ilāhakum","language_name":"english","language_id":38}},{"id":4530,"position":3,"audio_url":"wbw/037_004_003.mp3","char_type_name":"word","page_number":446,"line_number":3,"text":"لَوَٰحِدٌۭ","translation":{"text":"একজন অবশ্যই","language_name":"bengali","language_id":20},"transliteration":{"text":"lawāḥidun","language_name":"english","language_id":38}},{"id":4531,"position":4,"audio_url":null,"char_type_name":"end","page_number":446,"line_number":3,"text":"٤","translation":{"text":"(৪)","language_name":"bengali","language_id":20},"transliteration":{"text":null,"language_name":"english","language_id":38}}]},{"id":3793,"verse_number":5,"verse_key":"37:5","hizb_number":45,"rub_el_hizb_number":178,"ruku_number":388,"manzil_number":6,"sajdah_number":null,"page_number":446,"juz_number":23,"words":[{"id":5786,"position":1,"audio_url":"wbw/037_005_001.mp3","char_type_name":"word","page_number":446,"line_number":3,"text":"رَّبُّ","translation":{"text":"(তিনি) রব","language_name":"bengali","language_id":20},"transliteration":{"text":"rabbu","language_name":"english","language_id":38}},{"id":5787,"position":2,"audio_url":"wbw/037_005_002.mp3","char_type_name":"word","page_number":446,"line_number":3,"text":"ٱلسَّمَـٰوَٰتِ","translation":{"text":"আকাশের","language_name":"bengali","language_id":20},"transliteration":{"text":"l-samāwāti","language_name":"english","language_id":38}},{"id":5788,"position":3,"audio_url":"wbw/037_005_003.mp3","char_type_name":"word","page_number":446,"line_number":3,"text":"وَٱلْأَرْضِ","translation":{"text":"ও পৃৃথিবীর","language_name":"bengali","language_id":20},"transliteration":{"text":"wal-arḍi","language_name":"english","language_id":38}},{"id":5789,"position":4,"audio_url":"wbw/037_005_004.mp3","char_type_name":"word","page_number":446,"line_number":3,"text":"وَمَا","translation":{"text":"এবং যা কিছু (আছে)","language_name":"bengali","language_id":20},"transliteration":{"text":"wamā","language_name":"english","language_id":38}},{"id":5790,"position":5,"audio_url":"wbw/037_005_005.mp3","char_type_name":"word","page_number":446,"line_number":3,"text":"بَيْنَهُمَا","translation":{"text":"তাদের উভয়ের মাঝে","language_name":"bengali","language_id":20},"transliteration":{"text":"baynahumā","language_name":"english","language_id":38}},{"id":5791,"position":6,"audio_url":"wbw/037_005_006.mp3","char_type_name":"word","page_number":446,"line_number":3,"text":"وَرَبُّ","translation":{"text":"এবং রব","language_name":"bengali","language_id":20},"transliteration":{"text":"warabbu","language_name":"english","language_id":38}},{"id":5792,"position":7,"audio_url":"wbw/037_005_007.mp3","char_type_name":"word","page_number":446,"line_number":4,"text":"ٱلْمَشَـٰرِقِ","translation":{"text":"উদয়স্থলসমূহের","language_name":"bengali","language_id":20},"transliteration":{"text":"l-mashāriqi","language_name":"english","language_id":38}},{"id":5793,"position":8,"audio_url":null,"char_type_name":"end","page_number":446,"line_number":4,"text":"٥","translation":{"text":"(৫)","language_name":"bengali","language_id":20},"transliteration":{"text":null,"language_name":"english","language_id":38}}]},{"id":3794,"verse_number":6,"verse_key":"37:6","hizb_number":45,"rub_el_hizb_number":178,"ruku_number":388,"manzil_number":6,"sajdah_number":null,"page_number":446,"juz_number":23,"words":[{"id":7081,"position":1,"audio_url":"wbw/037_006_001.mp3","char_type_name":"word","page_number":446,"line_number":4,"text":"إِنَّا","translation":{"text":"নিশ্চয়ই আমরা","language_name":"bengali","language_id":20},"transliteration":{"text":"innā","language_name":"english","language_id":38}},{"id":7082,"position":2,"audio_url":"wbw/037_006_002.mp3","char_type_name":"word","page_number":446,"line_number":4,"text":"زَيَّنَّا","translation":{"text":"আমরা সৃুশোভিত করেছি","language_name":"bengali","language_id":20},"transliteration":{"text":"zayyannā","language_name":"english","language_id":38}},{"id":7083,"position":3,"audio_url":"wbw/037_006_003.mp3","char_type_name":"word","page_number":446,"line_number":4,"text":"ٱلسَّمَآءَ","translation":{"text":"আকাশকে","language_name":"bengali","language_id":20},"transliteration":{"text":"l-samāa","language_name":"english","language_id":38}},{"id":7084,"position":4,"audio_url":"wbw/037_006_004.mp3","char_type_name":"word","page_number":446,"line_number":4,"text":"ٱلدُّنْيَا","translation":{"text":"কাছের","language_name":"bengali","language_id":20},"transliteration":{"text":"l-dun'yā","language_name":"english","language_id":38}},{"id":7085,"position":5,"audio_url":"wbw/037_006_005.mp3","char_type_name":"word","page_number":446,"line_number":4,"text":"بِزِينَةٍ","translation":{"text":"চাকচিক্য দ্বারা","language_name":"bengali","language_id":20},"transliteration":{"text":"bizīnatin","language_name":"english","language_id":38}},{"id":7086,"position":6,"audio_url":"wbw/037_006_006.mp3","char_type_name":"word","page_number":446,"line_number":4,"text":"ٱلْكَوَاكِبِ","translation":{"text":"তারকাদের","language_name":"bengali","language_id":20},"transliteration":{"text":"l-kawākibi","language_name":"english","language_id":38}},{"id":7087,"position":7,"audio_url":null,"char_type_name":"end","page_number":446,"line_number":4,"text":"٦","translation":{"text":"(৬)","language_name":"bengali","language_id":20},"transliteration":{"text":null,"language_name":"english","language_id":38}}]},{"id":3795,"verse_number":7,"verse_key":"37:7","hizb_number":45,"rub_el_hizb_number":178,"ruku_number":388,"manzil_number":6,"sajdah_number":null,"page_number":446,"juz_number":23,"words":[{"id":8389,"position":1,"audio_url":"wbw/037_007_001.mp3","char_type_name":"word","page_number":446,"line_number":4,"text":"وَحِفْظًۭا","translation":{"text":"এবং (তাকে) (আমরা করেছি) সংরক্ষণ","language_name":"bengali","language_id":20},"transliteration":{"text":"waḥif'ẓan","language_name":"english","language_id":38}},{"id":8390,"position":2,"audio_url":"wbw/037_007_002.mp3","char_type_name":"word","page_number":446,"line_number":5,"text":"مِّن","translation":{"text":"হ'তে","language_name":"bengali","language_id":20},"transliteration":{"text":"min","language_name":"english","language_id":38}},{"id":8391,"position":3,"audio_url":"wbw/037_007_003.mp3","char_type_name":"word","page_number":446,"line_number":5,"text":"كُلِّ","translation":{"text":"প্রত্যেক","language_name":"bengali","language_id":20},"transliteration":{"text":"kulli","language_name":"english","language_id":38}},{"id":8392,"position":4,"audio_url":"wbw/037_007_004.mp3","char_type_name":"word","page_number":446,"line_number":5,"text":"شَيْطَـٰنٍۢ","translation":{"text":"শয়তানের","language_name":"bengali","language_id":20},"transliteration":{"text":"shayṭānin","language_name":"english","language_id":38}},{"id":8393,"position":5,"audio_url":"wbw/037_007_005.mp3","char_type_name":"word","page_number":446,"line_number":5,"text":"مَّارِدٍۢ","translation":{"text":"(যারা) অবাধ্য","language_name":"bengali","language_id":20},"transliteration":{"text":"māridin","language_name":"english","language_id":38}},{"id":8394,"position":6,"audio_url":null,"char_type_name":"end","page_number":446,"line_number":5,"text":"٧","translation":{"text":"(৭)","language_name":"bengali","language_id":20},"transliteration":{"text":null,"language_name":"english","language_id":38}}]},{"id":3796,"verse_number":8,"verse_key":"37:8","hizb_number":45,"rub_el_hizb_number":178,"ruku_number":388,"manzil_number":6,"sajdah_number":null,"page_number":446,"juz_number":23,"words":[{"id":9572,"position":1,"audio_url":"wbw/037_008_001.mp3","char_type_name":"word","page_number":446,"line_number":5,"text":"لَّا","translation":{"text":"না","language_name":"bengali","language_id":20},"transliteration":{"text":"lā","language_name":"english","language_id":38}},{"id":9573,"position":2,"audio_url":"wbw/037_008_002.mp3","char_type_name":"word","page_number":446,"line_number":5,"text":"يَسَّمَّعُونَ","translation":{"text":"তারা শুনতে পায়","language_name":"bengali","language_id":20},"transliteration":{"text":"yassammaʿūna","language_name":"english","language_id":38}},{"id":9574,"position":3,"audio_url":"wbw/037_008_003.mp3","char_type_name":"word","page_number":446,"line_number":5,"text":"إِلَى","translation":{"text":"(কোন কথা) হ'তে","language_name":"bengali","language_id":20},"transliteration":{"text":"ilā","language_name":"english","language_id":38}},{"id":9575,"position":4,"audio_url":"wbw/037_008_004.mp3","char_type_name":"word","page_number":446,"line_number":5,"text":"ٱلْمَلَإِ","translation":{"text":"জগৎ","language_name":"bengali","language_id":20},"transliteration":{"text":"l-mala-i","language_name":"english","language_id":38}},{"id":9576,"position":5,"audio_url":"wbw/037_008_005.mp3","char_type_name":"word","page_number":446,"line_number":5,"text":"ٱلْأَعْلَىٰ","translation":{"text":"ওপরের","language_name":"bengali","language_id":20},"transliteration":{"text":"l-aʿlā","language_name":"english","language_id":38}},{"id":9577,"position":6,"audio_url":"wbw/037_008_006.mp3","char_type_name":"word","page_number":446,"line_number":5,"text":"وَيُقْذَفُونَ","translation":{"text":"এবং নিক্ষেপ করা হয়","language_name":"bengali","language_id":20},"transliteration":{"text":"wayuq'dhafūna","language_name":"english","language_id":38}},{"id":9578,"position":7,"audio_url":"wbw/037_008_007.mp3","char_type_name":"word","page_number":446,"line_number":6,"text":"مِن","translation":{"text":"থেকে","language_name":"bengali","language_id":20},"transliteration":{"text":"min","language_name":"english","language_id":38}},{"id":9579,"position":8,"audio_url":"wbw/037_008_008.mp3","char_type_name":"word","page_number":446,"line_number":6,"text":"كُلِّ","translation":{"text":"প্রত্যেক","language_name":"bengali","language_id":20},"transliteration":{"text":"kulli","language_name":"english","language_id":38}},{"id":9580,"position":9,"audio_url":"wbw/037_008_009.mp3","char_type_name":"word","page_number":446,"line_number":6,"text":"جَانِبٍۢ","translation":{"text":"দিক","language_name":"bengali","language_id":20},"transliteration":{"text":"jānibin","language_name":"english","language_id":38}},{"id":9581,"position":10,"audio_url":null,"char_type_name":"end","page_number":446,"line_number":6,"text":"٨","translation":{"text":"(৮)","language_name":"bengali","language_id":20},"transliteration":{"text":null,"language_name":"english","language_id":38}}]},{"id":3797,"verse_number":9,"verse_key":"37:9","hizb_number":45,"rub_el_hizb_number":178,"ruku_number":388,"manzil_number":6,"sajdah_number":null,"page_number":446,"juz_number":23,"words":[{"id":10754,"position":1,"audio_url":"wbw/037_009_001.mp3","char_type_name":"word","page_number":446,"line_number":6,"text":"دُحُورًۭا ۖ","translation":{"text":"তাড়ানোর (জন্যে)","language_name":"bengali","language_id":20},"transliteration":{"text":"duḥūran","language_name":"english","language_id":38}},{"id":10756,"position":2,"audio_url":"wbw/037_009_003.mp3","char_type_name":"word","page_number":446,"line_number":6,"text":"وَلَهُمْ","translation":{"text":"এবং তাদের জন্যে রয়েছে","language_name":"bengali","language_id":20},"transliteration":{"text":"walahum","language_name":"english","language_id":38}},{"id":10757,"position":3,"audio_url":"wbw/037_009_004.mp3","char_type_name":"word","page_number":446,"line_number":6,"text":"عَذَابٌۭ","translation":{"text":"শাস্তি","language_name":"bengali","language_id":20},"transliteration":{"text":"ʿadhābun","language_name":"english","language_id":38}},{"id":10758,"position":4,"audio_url":"wbw/037_009_005.mp3","char_type_name":"word","page_number":446,"line_number":6,"text":"وَاصِبٌ","translation":{"text":"অবিরাম","language_name":"bengali","language_id":20},"transliteration":{"text":"wāṣibun","language_name":"english","language_id":38}},{"id":10759,"position":5,"audio_url":null,"char_type_name":"end","page_number":446,"line_number":6,"text":"٩","translation":{"text":"(৯)","language_name":"bengali","language_id":20},"transliteration":{"text":null,"language_name":"english","language_id":38}}]},{"id":3798,"verse_number":10,"verse_key":"37:10","hizb_number":45,"rub_el_hizb_number":178,"ruku_number":388,"manzil_number":6,"sajdah_number":null,"page_number":446,"juz_number":23,"words":[{"id":12003,"position":1,"audio_url":"wbw/037_010_001.mp3","char_type_name":"word","page_number":446,"line_number":6,"text":"إِلَّا","translation":{"text":"তবে","language_name":"bengali","language_id":20},"transliteration":{"text":"illā","language_name":"english","language_id":38}},{"id":12004,"position":2,"audio_url":"wbw/037_010_002.mp3","char_type_name":"word","page_number":446,"line_number":6,"text":"مَنْ","translation":{"text":"যে","language_name":"bengali","language_id":20},"transliteration":{"text":"man","language_name":"english","language_id":38}},{"id":12005,"position":3,"audio_url":"wbw/037_010_003.mp3","char_type_name":"word","page_number":446,"line_number":6,"text":"خَطِفَ","translation":{"text":"হঠাৎ করে (শুনে) নেয়","language_name":"bengali","language_id":20},"transliteration":{"text":"khaṭifa","language_name":"english","language_id":38}},{"id":12006,"position":4,"audio_url":"wbw/037_010_004.mp3","char_type_name":"word","page_number":446,"line_number":7,"text":"ٱلْخَطْفَةَ","translation":{"text":"হঠাৎ নেওয়া","language_name":"bengali","language_id":20},"transliteration":{"text":"l-khaṭfata","language_name":"english","language_id":38}},{"id":12007,"position":5,"audio_url":"wbw/037_010_005.mp3","char_type_name":"word","page_number":446,"line_number":7,"text":"فَأَتْبَعَهُۥ","translation":{"text":"তাকে তখন অনুসরণ করে","language_name":"bengali","language_id":20},"transliteration":{"text":"fa-atbaʿahu","language_name":"english","language_id":38}},{"id":12008,"position":6,"audio_url":"wbw/037_010_006.mp3","char_type_name":"word","page_number":446,"line_number":7,"text":"شِهَابٌۭ","translation":{"text":"উল্কা","language_name":"bengali","language_id":20},"transliteration":{"text":"shihābun","language_name":"english","language_id":38}},{"id":12009,"position":7,"audio_url":"wbw/037_010_007.mp3","char_type_name":"word","page_number":446,"line_number":7,"text":"ثَاقِبٌۭ","translation":{"text":"জ্বলন্ত","language_name":"bengali","language_id":20},"transliteration":{"text":"thāqibun","language_name":"english","language_id":38}},{"id":12010,"position":8,"audio_url":null,"char_type_name":"end","page_number":446,"line_number":7,"text":"١٠","translation":{"text":"(১০)","language_name":"bengali","language_id":20},"transliteration":{"text":null,"language_name":"english","language_id":38}}]}],"pagination":{"per_page":10,"current_page":1,"next_page":2,"total_pages":19,"total_records":182}}
