{"verses":[{"id":3899,"verse_number":111,"verse_key":"37:111","hizb_number":45,"rub_el_hizb_number":180,"ruku_number":390,"manzil_number":6,"sajdah_number":null,"page_number":450,"juz_number":23,"words":[{"id":74485,"position":1,"audio_url":"wbw/037_111_001.mp3","char_type_name":"word","page_number":450,"line_number":5,"text":"إِنَّهُۥ","translation":{"text":"সে নিশ্চয়ই (ছিলো)","language_name":"bengali","language_id":20},"transliteration":{"text":"innahu","language_name":"english","language_id":38}},{"id":74486,"position":2,"audio_url":"wbw/037_111_002.mp3","char_type_name":"word","page_number":450,"line_number":5,"text":"مِنْ","translation":{"text":"অন্তর্ভুক্ত","language_name":"bengali","language_id":20},"transliteration":{"text":"min","language_name":"english","language_id":38}},{"id":74487,"position":3,"audio_url":"wbw/037_111_003.mp3","char_type_name":"word","page_number":450,"line_number":5,"text":"عِبَادِنَا","translation":{"text":"আমাদের দাসদের","language_name":"bengali","language_id":20},"transliteration":{"text":"ʿibādinā","language_name":"english","language_id":38}},{"id":74488,"position":4,"audio_url":"wbw/037_111_004.mp3","char_type_name":"word","page_number":450,"line_number":5,"text":"ٱلْمُؤْمِنِينَ","translation":{"text":"(যারা ছিলো) মু'মিন","language_name":"bengali","language_id":20},"transliteration":{"text":"l-mu'minīna","language_name":"english","language_id":38}},{"id":74489,"position":5,"audio_url":null,"char_type_name":"end","page_number":450,"line_number":5,"text":"١١١","translation":{"text":"(১১১)","language_name":"bengali","language_id":20},"transliteration":{"text":null,"language_name":"english","language_id":38}}]},{"id":3900,"verse_number":112,"verse_key":"37:112","hizb_number":45,"rub_el_hizb_number":180,"ruku_number":390,"manzil_number":6,"sajdah_number":null,"page_number":450,"juz_number":23,"words":[{"id":74716,"position":1,"audio_url":"wbw/037_112_001.mp3","char_type_name":"word","page_number":450,"line_number":5,"text":"وَبَشَّرْنَـٰهُ","translation":{"text":"এবং তাকে আমরা সুসংবাদ দিলাম","language_name":"bengali","language_id":20},"transliteration":{"text":"wabasharnāhu","language_name":"english","language_id":38}},{"id":74717,"position":2,"audio_url":"wbw/037_112_002.mp3","char_type_name":"word","page_number":450,"line_number":6,"text":"بِإِسْحَـٰقَ","translation":{"text":"ইসহাক সম্পর্কে","language_name":"bengali","language_id":20},"transliteration":{"text":"bi-is'ḥāqa","language_name":"english","language_id":38}},{"id":74718,"position":3,"audio_url":"wbw/037_112_003.mp3","char_type_name":"word","page_number":450,"line_number":6,"text":"نَبِيًّۭا","translation":{"text":"একজন নাবী হিসেবে","language_name":"bengali","language_id":20},"transliteration":{"text":"nabiyyan","language_name":"english","language_id":38}},{"id":74719,"position":4,"audio_url":"wbw/037_112_004.mp3","char_type_name":"word","page_number":450,"line_number":6,"text":"مِّنَ","translation":{"text":"অন্যতম","language_name":"bengali","language_id":20},"transliteration":{"text":"mina","language_name":"english","language_id":38}},{"id":74720,"position":5,"audio_url":"wbw/037_112_005.mp3","char_type_name":"word","page_number":450,"line_number":6,"text":"ٱلصَّـٰلِحِينَ","translation":{"text":"সৎকর্মশীলদের","language_name":"bengali","language_id":20},"transliteration":{"text":"l-ṣāliḥīna","language_name":"english","language_id":38}},{"id":74721,"position":6,"audio_url":null,"char_type_name":"end","page_number":450,"line_number":6,"text":"١١٢","translation":{"text":"(১১২)","language_name":"bengali","language_id":20},"transliteration":{"text":null,"language_name":"english","language_id":38}}]},{"id":3901,"verse_number":113,"verse_key":"37:113","hizb_number":45,"rub_el_hizb_number":180,"ruku_number":390,"manzil_number":6,"sajdah_number":null,"page_number":450,"juz_number":23,"words":[{"id":74891,"position":1,"audio_url":"wbw/037_113_001.mp3","char_type_name":"word","page_number":450,"line_number":6,"text":"وَبَـٰرَكْنَا","translation":{"text":"এবং আমরা সমৃদ্ধি দিলাম","language_name":"bengali","language_id":20},"transliteration":{"text":"wabāraknā","language_name":"english","language_id":38}},{"id":74892,"position":2,"audio_url":"wbw/037_113_002.mp3","char_type_name":"word","page_number":450,"line_number":6,"text":"عَلَيْهِ","translation":{"text":"তাঁর উপর","language_name":"bengali","language_id":20},"transliteration":{"text":"ʿalayhi","language_name":"english","language_id":38}},{"id":74893,"position":3,"audio_url":"wbw/037_113_003.mp3","char_type_name":"word","page_number":450,"line_number":6,"text":"وَعَلَىٰٓ","translation":{"text":"ও উপর","language_name":"bengali","language_id":20},"transliteration":{"text":"waʿalā","language_name":"english","language_id":38}},{"id":74894,"position":4,"audio_url":"wbw/037_113_004.mp3","char_type_name":"word","page_number":450,"line_number":6,"text":"إِسْحَـٰقَ ۚ","translation":{"text":"ইসহাকের","language_name":"bengali","language_id":20},"transliteration":{"text":"is'ḥāqa","language_name":"english","language_id":38}},{"id":74896,"position":5,"audio_url":"wbw/037_113_006.mp3","char_type_name":"word","page_number":450,"line_number":7,"text":"وَمِن","translation":{"text":"এবং মধ্য হ'তে","language_name":"bengali","language_id":20},"transliteration":{"text":"wamin","language_name":"english","language_id":38}},{"id":74897,"position":6,"audio_url":"wbw/037_113_007.mp3","char_type_name":"word","page_number":450,"line_number":7,"text":"ذُرِّيَّتِهِمَا","translation":{"text":"তাদের দু'জনের বংশধরদের","language_name":"bengali","language_id":20},"transliteration":{"text":"dhurriyyatihimā","language_name":"english","language_id":38}},{"id":74898,"position":7,"audio_url":"wbw/037_113_008.mp3","char_type_name":"word","page_number":450,"line_number":7,"text":"مُحْسِنٌۭ","translation":{"text":"(কেউ হয়) সৎকর্মপরায়ণ","language_name":"bengali","language_id":20},"transliteration":{"text":"muḥ'sinun","language_name":"english","language_id":38}},{"id":74899,"position":8,"audio_url":"wbw/037_113_009.mp3","char_type_name":"word","page_number":450,"line_number":7,"text":"وَظَالِمٌۭ","translation":{"text":"ও (কেউ হয়) সীমালঙ্ঘনকারী","language_name":"bengali","language_id":20},"transliteration":{"text":"waẓālimun","language_name":"english","language_id":38}},{"id":74900,"position":9,"audio_url":"wbw/037_113_010.mp3","char_type_name":"word","page_number":450,"line_number":7,"text":"لِّنَفْسِهِۦ","translation":{"text":"তার নিজের উপর","language_name":"bengali","language_id":20},"transliteration":{"text":"linafsihi","language_name":"english","language_id":38}},{"id":74901,"position":10,"audio_url":"wbw/037_113_011.mp3","char_type_name":"word","page_number":450,"line_number":7,"text":"مُبِينٌۭ","translation":{"text":"সুস্পষ্ট","language_name":"bengali","language_id":20},"transliteration":{"text":"mubīnun","language_name":"english","language_id":38}},{"id":74902,"position":11,"audio_url":null,"char_type_name":"end","page_number":450,"line_number":7,"text":"١١٣","translation":{"text":"(১১৩)","language_name":"bengali","language_id":20},"transliteration":{"text":null,"language_name":"english","language_id":38}}]},{"id":3902,"verse_number":114,"verse_key":"37:114","hizb_number":45,"rub_el_hizb_number":180,"ruku_number":391,"manzil_number":6,"sajdah_number":null,"page_number":450,"juz_number":23,"words":[{"id":75281,"position":1,"audio_url":"wbw/037_114_001.mp3","char_type_name":"word","page_number":450,"line_number":7,"text":"وَلَقَدْ","translation":{"text":"এবং নিশ্চয়ই","language_name":"bengali","language_id":20},"transliteration":{"text":"walaqad","language_name":"english","language_id":38}},{"id":75282,"position":2,"audio_url":"wbw/037_114_002.mp3","char_type_name":"word","page_number":450,"line_number":7,"text":"مَنَنَّا","translation":{"text":"আমরা অনুগ্রহ করেছি","language_name":"bengali","language_id":20},"transliteration":{"text":"manannā","language_name":"english","language_id":38}},{"id":75283,"position":3,"audio_url":"wbw/037_114_003.mp3","char_type_name":"word","page_number":450,"line_number":8,"text":"عَلَىٰ","translation":{"text":"উপর","language_name":"bengali","language_id":20},"transliteration":{"text":"ʿalā","language_name":"english","language_id":38}},{"id":75284,"position":4,"audio_url":"wbw/037_114_004.mp3","char_type_name":"word","page_number":450,"line_number":8,"text":"مُوسَىٰ","translation":{"text":"মূসার","language_name":"bengali","language_id":20},"transliteration":{"text":"mūsā","language_name":"english","language_id":38}},{"id":75285,"position":5,"audio_url":"wbw/037_114_005.mp3","char_type_name":"word","page_number":450,"line_number":8,"text":"وَهَـٰرُونَ","translation":{"text":"ও হারূনের","language_name":"bengali","language_id":20},"transliteration":{"text":"wahārūna","language_name":"english","language_id":38}},{"id":75286,"position":6,"audio_url":null,"char_type_name":"end","page_number":450,"line_number":8,"text":"١١٤","translation":{"text":"(১১৪)","language_name":"bengali","language_id":20},"transliteration":{"text":null,"language_name":"english","language_id":38}}]},{"id":3903,"verse_number":115,"verse_key":"37:115","hizb_number":45,"rub_el_hizb_number":180,"ruku_number":391,"manzil_number":6,"sajdah_number":null,"page_number":450,"juz_number":23,"words":[{"id":75357,"position":1,"audio_url":"wbw/037_115_001.mp3","char_type_name":"word","page_number":450,"line_number":8,"text":"وَنَجَّيْنَـٰهُمَا","translation":{"text":"এবং উদ্ধার করেছি আমরা উভয়কে","language_name":"bengali","language_id":20},"transliteration":{"text":"wanajjaynāhumā","language_name":"english","language_id":38}},{"id":75358,"position":2,"audio_url":"wbw/037_115_002.mp3","char_type_name":"word","page_number":450,"line_number":8,"text":"وَقَوْمَهُمَا","translation":{"text":"ও উভয়ের জাতিকে","language_name":"bengali","language_id":20},"transliteration":{"text":"waqawmahumā","language_name":"english","language_id":38}},{"id":75359,"position":3,"audio_url":"wbw/037_115_003.mp3","char_type_name":"word","page_number":450,"line_number":8,"text":"مِنَ","translation":{"text":"হ'তে","language_name":"bengali","language_id":20},"transliteration":{"text":"mina","language_name":"english","language_id":38}},{"id":75360,"position":4,"audio_url":"wbw/037_115_004.mp3","char_type_name":"word","page_number":450,"line_number":8,"text":"ٱلْكَرْبِ","translation":{"text":"সংকট","language_name":"bengali","language_id":20},"transliteration":{"text":"l-karbi","language_name":"english","language_id":38}},{"id":75361,"position":5,"audio_url":"wbw/037_115_005.mp3","char_type_name":"word","page_number":450,"line_number":9,"text":"ٱلْعَظِيمِ","translation":{"text":"মহা","language_name":"bengali","language_id":20},"transliteration":{"text":"l-ʿaẓīmi","language_name":"english","language_id":38}},{"id":75362,"position":6,"audio_url":null,"char_type_name":"end","page_number":450,"line_number":9,"text":"١١٥","translation":{"text":"(১১৫)","language_name":"bengali","language_id":20},"transliteration":{"text":null,"language_name":"english","language_id":38}}]},{"id":3904,"verse_number":116,"verse_key":"37:116","hizb_number":45,"rub_el_hizb_number":180,"ruku_number":391,"manzil_number":6,"sajdah_number":null,"page_number":450,"juz_number":23,"words":[{"id":75687,"position":1,"audio_url":"wbw/037_116_001.mp3","char_type_name":"word","page_number":450,"line_number":9,"text":"وَنَصَرْنَـٰهُمْ","translation":{"text":"এবং তাদেরকে আমরা সাহায্য করেছি","language_name":"bengali","language_id":20},"transliteration":{"text":"wanaṣarnāhum","language_name":"english","language_id":38}},{"id":75688,"position":2,"audio_url":"wbw/037_116_002.mp3","char_type_name":"word","page_number":450,"line_number":9,"text":"فَكَانُوا۟","translation":{"text":"অতঃপর তারা হয়েছিলো","language_name":"bengali","language_id":20},"transliteration":{"text":"fakānū","language_name":"english","language_id":38}},{"id":75689,"position":3,"audio_url":"wbw/037_116_003.mp3","char_type_name":"word","page_number":450,"line_number":9,"text":"هُمُ","translation":{"text":"তারাই","language_name":"bengali","language_id":20},"transliteration":{"text":"humu","language_name":"english","language_id":38}},{"id":75690,"position":4,"audio_url":"wbw/037_116_004.mp3","char_type_name":"word","page_number":450,"line_number":9,"text":"ٱلْغَـٰلِبِينَ","translation":{"text":"বিজয়ী","language_name":"bengali","language_id":20},"transliteration":{"text":"l-ghālibīna","language_name":"english","language_id":38}},{"id":75691,"position":5,"audio_url":null,"char_type_name":"end","page_number":450,"line_number":9,"text":"١١٦","translation":{"text":"(১১৬)","language_name":"bengali","language_id":20},"transliteration":{"text":null,"language_name":"english","language_id":38}}]},{"id":3905,"verse_number":117,"verse_key":"37:117","hizb_number":45,"rub_el_hizb_number":180,"ruku_number":391,"manzil_number":6,"sajdah_number":null,"page_number":450,"juz_number":23,"words":[{"id":75855,"position":1,"audio_url":"wbw/037_117_001.mp3","char_type_name":"word","page_number":450,"line_number":9,"text":"وَءَاتَيْنَـٰهُمَا","translation":{"text":"এবং উভয়কে আমরা দিয়েছি","language_name":"bengali","language_id":20},"transliteration":{"text":"waātaynāhumā","language_name":"english","language_id":38}},{"id":75856,"position":2,"audio_url":"wbw/037_117_002.mp3","char_type_name":"word","page_number":450,"line_number":10,"text":"ٱلْكِتَـٰبَ","translation":{"text":"কিতাব","language_name":"bengali","language_id":20},"transliteration":{"text":"l-kitāba","language_name":"english","language_id":38}},{"id":75857,"position":3,"audio_url":"wbw/037_117_003.mp3","char_type_name":"word","page_number":450,"line_number":10,"text":"ٱلْمُسْتَبِينَ","translation":{"text":"স্পষ্ট","language_name":"bengali","language_id":20},"transliteration":{"text":"l-mus'tabīna","language_name":"english","language_id":38}},{"id":75858,"position":4,"audio_url":null,"char_type_name":"end","page_number":450,"line_number":10,"text":"١١٧","translation":{"text":"(১১৭)","language_name":"bengali","language_id":20},"transliteration":{"text":null,"language_name":"english","language_id":38}}]},{"id":3906,"verse_number":118,"verse_key":"37:118","hizb_number":45,"rub_el_hizb_number":180,"ruku_number":391,"manzil_number":6,"sajdah_number":null,"page_number":450,"juz_number":23,"words":[{"id":76103,"position":1,"audio_url":"wbw/037_118_001.mp3","char_type_name":"word","page_number":450,"line_number":10,"text":"وَهَدَيْنَـٰهُمَا","translation":{"text":"এবং উভয়কে আমরা পরিচালিত করেছি","language_name":"bengali","language_id":20},"transliteration":{"text":"wahadaynāhumā","language_name":"english","language_id":38}},{"id":76104,"position":2,"audio_url":"wbw/037_118_002.mp3","char_type_name":"word","page_number":450,"line_number":10,"text":"ٱلصِّرَٰطَ","translation":{"text":"পথে","language_name":"bengali","language_id":20},"transliteration":{"text":"l-ṣirāṭa","language_name":"english","language_id":38}},{"id":76105,"position":3,"audio_url":"wbw/037_118_003.mp3","char_type_name":"word","page_number":450,"line_number":10,"text":"ٱلْمُسْتَقِيمَ","translation":{"text":"সরল সঠিক","language_name":"bengali","language_id":20},"transliteration":{"text":"l-mus'taqīma","language_name":"english","language_id":38}},{"id":76106,"position":4,"audio_url":null,"char_type_name":"end","page_number":450,"line_number":11,"text":"١١٨","translation":{"text":"(১১৮)","language_name":"bengali","language_id":20},"transliteration":{"text":null,"language_name":"english","language_id":38}}]},{"id":3907,"verse_number":119,"verse_key":"37:119","hizb_number":45,"rub_el_hizb_number":180,"ruku_number":391,"manzil_number":6,"sajdah_number":null,"page_number":450,"juz_number":23,"words":[{"id":76142,"position":1,"audio_url":"wbw/037_119_001.mp3","char_type_name":"word","page_number":450,"line_number":11,"text":"وَتَرَكْنَا","translation":{"text":"এবং আমরা অবশিষ্ট রেখেছি","language_name":"bengali","language_id":20},"transliteration":{"text":"wataraknā","language_name":"english","language_id":38}},{"id":76143,"position":2,"audio_url":"wbw/037_119_002.mp3","char_type_name":"word","page_number":450,"line_number":11,"text":"عَلَيْهِمَا","translation":{"text":"তাদের উভয়ের সম্বন্ধে","language_name":"bengali","language_id":20},"transliteration":{"text":"ʿalayhimā","language_name":"english","language_id":38}},{"id":76144,"position":3,"audio_url":"wbw/037_119_003.mp3","char_type_name":"word","page_number":450,"line_number":11,"text":"فِى","translation":{"text":"মধ্যে","language_name":"bengali","language_id":20},"transliteration":{"text":"fī","language_name":"english","language_id":38}},{"id":76145,"position":4,"audio_url":"wbw/037_119_004.mp3","char_type_name":"word","page_number":450,"line_number":11,"text":"ٱلْـَٔاخِرِينَ","translation":{"text":"পরবর্তীদের (উত্তম স্মরণ)","language_name":"bengali","language_id":20},"transliteration":{"text":"l-ākhirīna","language_name":"english","language_id":38}},{"id":76146,"position":5,"audio_url":null,"char_type_name":"end","page_number":450,"line_number":11,"text":"١١٩","translation":{"text":"(১১৯)","language_name":"bengali","language_id":20},"transliteration":{"text":null,"language_name":"english","language_id":38}}]},{"id":3908,"verse_number":120,"verse_key":"37:120","hizb_number":45,"rub_el_hizb_number":180,"ruku_number":391,"manzil_number":6,"sajdah_number":null,"page_number":450,"juz_number":23,"words":[{"id":76399,"position":1,"audio_url":"wbw/037_120_001.mp3","char_type_name":"word","page_number":450,"line_number":11,"text":"سَلَـٰمٌ","translation":{"text":"\"সালাম (বর্ষিত হউক)","language_name":"bengali","language_id":20},"transliteration":{"text":"salāmun","language_name":"english","language_id":38}},{"id":76400,"position":2,"audio_url":"wbw/037_120_002.mp3","char_type_name":"word","page_number":450,"line_number":11,"text":"عَلَىٰ","translation":{"text":"উপর","language_name":"bengali","language_id":20},"transliteration":{"text":"ʿalā","language_name":"english","language_id":38}},{"id":76401,"position":3,"audio_url":"wbw/037_120_003.mp3","char_type_name":"word","page_number":450,"line_number":11,"text":"مُوسَىٰ","translation":{"text":"মূসার","language_name":"bengali","language_id":20},"transliteration":{"text":"mūsā","language_name":"english","language_id":38}},{"id":76402,"position":4,"audio_url":"wbw/037_120_004.mp3","char_type_name":"word","page_number":450,"line_number":12,"text":"وَهَـٰرُونَ","translation":{"text":"ও হারূনের\"","language_name":"bengali","language_id":20},"transliteration":{"text":"wahārūna","language_name":"english","language_id":38}},{"id":76403,"position":5,"audio_url":null,"char_type_name":"end","page_number":450,"line_number":12,"text":"١٢٠","translation":{"text":"(১২০)","language_name":"bengali","language_id":20},"transliteration":{"text":null,"language_name":"english","language_id":38}}]}],"pagination":{"per_page":10,"current_page":12,"next_page":13,"total_pages":19,"total_records":182}}
