{"verses":[{"id":3919,"verse_number":131,"verse_key":"37:131","hizb_number":45,"rub_el_hizb_number":180,"ruku_number":391,"manzil_number":6,"sajdah_number":null,"page_number":451,"juz_number":23,"words":[{"id":78029,"position":1,"audio_url":"wbw/037_131_001.mp3","char_type_name":"word","page_number":451,"line_number":2,"text":"إِنَّا","translation":{"text":"নিশ্চয়ই আমরা","language_name":"bengali","language_id":20},"transliteration":{"text":"innā","language_name":"english","language_id":38}},{"id":78030,"position":2,"audio_url":"wbw/037_131_002.mp3","char_type_name":"word","page_number":451,"line_number":3,"text":"كَذَٰلِكَ","translation":{"text":"এরূপে","language_name":"bengali","language_id":20},"transliteration":{"text":"kadhālika","language_name":"english","language_id":38}},{"id":78031,"position":3,"audio_url":"wbw/037_131_003.mp3","char_type_name":"word","page_number":451,"line_number":3,"text":"نَجْزِى","translation":{"text":"প্রতিফল দিই আমরা","language_name":"bengali","language_id":20},"transliteration":{"text":"najzī","language_name":"english","language_id":38}},{"id":78032,"position":4,"audio_url":"wbw/037_131_004.mp3","char_type_name":"word","page_number":451,"line_number":3,"text":"ٱلْمُحْسِنِينَ","translation":{"text":"সৎকর্মশীলদের","language_name":"bengali","language_id":20},"transliteration":{"text":"l-muḥ'sinīna","language_name":"english","language_id":38}},{"id":78033,"position":5,"audio_url":null,"char_type_name":"end","page_number":451,"line_number":3,"text":"١٣١","translation":{"text":"(১৩১)","language_name":"bengali","language_id":20},"transliteration":{"text":null,"language_name":"english","language_id":38}}]},{"id":3920,"verse_number":132,"verse_key":"37:132","hizb_number":45,"rub_el_hizb_number":180,"ruku_number":391,"manzil_number":6,"sajdah_number":null,"page_number":451,"juz_number":23,"words":[{"id":78164,"position":1,"audio_url":"wbw/037_132_001.mp3","char_type_name":"word","page_number":451,"line_number":3,"text":"إِنَّهُۥ","translation":{"text":"সে নিশ্চয়ই","language_name":"bengali","language_id":20},"transliteration":{"text":"innahu","language_name":"english","language_id":38}},{"id":78165,"position":2,"audio_url":"wbw/037_132_002.mp3","char_type_name":"word","page_number":451,"line_number":3,"text":"مِنْ","translation":{"text":"অন্তর্ভুক্ত","language_name":"bengali","language_id":20},"transliteration":{"text":"min","language_name":"english","language_id":38}},{"id":78166,"position":3,"audio_url":"wbw/037_132_003.mp3","char_type_name":"word","page_number":451,"line_number":3,"text":"عِبَادِنَا","translation":{"text":"আমাদের দাসদের","language_name":"bengali","language_id":20},"transliteration":{"text":"ʿibādinā","language_name":"english","language_id":38}},{"id":78167,"position":4,"audio_url":"wbw/037_132_004.mp3","char_type_name":"word","page_number":451,"line_number":3,"text":"ٱلْمُؤْمِنِينَ","translation":{"text":"(যারা) মু'মিন","language_name":"bengali","language_id":20},"transliteration":{"text":"l-mu'minīna","language_name":"english","language_id":38}},{"id":78168,"position":5,"audio_url":null,"char_type_name":"end","page_number":451,"line_number":4,"text":"١٣٢","translation":{"text":"(১৩২)","language_name":"bengali","language_id":20},"transliteration":{"text":null,"language_name":"english","language_id":38}}]},{"id":3921,"verse_number":133,"verse_key":"37:133","hizb_number":45,"rub_el_hizb_number":180,"ruku_number":391,"manzil_number":6,"sajdah_number":null,"page_number":451,"juz_number":23,"words":[{"id":78233,"position":1,"audio_url":"wbw/037_133_001.mp3","char_type_name":"word","page_number":451,"line_number":4,"text":"وَإِنَّ","translation":{"text":"এবং নিশ্চয়ই","language_name":"bengali","language_id":20},"transliteration":{"text":"wa-inna","language_name":"english","language_id":38}},{"id":78234,"position":2,"audio_url":"wbw/037_133_002.mp3","char_type_name":"word","page_number":451,"line_number":4,"text":"لُوطًۭا","translation":{"text":"লুতও (ছিলো)","language_name":"bengali","language_id":20},"transliteration":{"text":"lūṭan","language_name":"english","language_id":38}},{"id":78235,"position":3,"audio_url":"wbw/037_133_003.mp3","char_type_name":"word","page_number":451,"line_number":4,"text":"لَّمِنَ","translation":{"text":"অন্যতম অবশ্যই","language_name":"bengali","language_id":20},"transliteration":{"text":"lamina","language_name":"english","language_id":38}},{"id":78236,"position":4,"audio_url":"wbw/037_133_004.mp3","char_type_name":"word","page_number":451,"line_number":4,"text":"ٱلْمُرْسَلِينَ","translation":{"text":"রাসূলদের","language_name":"bengali","language_id":20},"transliteration":{"text":"l-mur'salīna","language_name":"english","language_id":38}},{"id":78237,"position":5,"audio_url":null,"char_type_name":"end","page_number":451,"line_number":4,"text":"١٣٣","translation":{"text":"(১৩৩)","language_name":"bengali","language_id":20},"transliteration":{"text":null,"language_name":"english","language_id":38}}]},{"id":3922,"verse_number":134,"verse_key":"37:134","hizb_number":45,"rub_el_hizb_number":180,"ruku_number":391,"manzil_number":6,"sajdah_number":null,"page_number":451,"juz_number":23,"words":[{"id":78355,"position":1,"audio_url":"wbw/037_134_001.mp3","char_type_name":"word","page_number":451,"line_number":4,"text":"إِذْ","translation":{"text":"(স্মরণ করো) যখন","language_name":"bengali","language_id":20},"transliteration":{"text":"idh","language_name":"english","language_id":38}},{"id":78356,"position":2,"audio_url":"wbw/037_134_002.mp3","char_type_name":"word","page_number":451,"line_number":4,"text":"نَجَّيْنَـٰهُ","translation":{"text":"তাকে আমরা উদ্ধার করেছিলাম","language_name":"bengali","language_id":20},"transliteration":{"text":"najjaynāhu","language_name":"english","language_id":38}},{"id":78357,"position":3,"audio_url":"wbw/037_134_003.mp3","char_type_name":"word","page_number":451,"line_number":4,"text":"وَأَهْلَهُۥٓ","translation":{"text":"এবং তারা পরিবারের","language_name":"bengali","language_id":20},"transliteration":{"text":"wa-ahlahu","language_name":"english","language_id":38}},{"id":78358,"position":4,"audio_url":"wbw/037_134_004.mp3","char_type_name":"word","page_number":451,"line_number":4,"text":"أَجْمَعِينَ","translation":{"text":"সকলকে","language_name":"bengali","language_id":20},"transliteration":{"text":"ajmaʿīna","language_name":"english","language_id":38}},{"id":78359,"position":5,"audio_url":null,"char_type_name":"end","page_number":451,"line_number":5,"text":"١٣٤","translation":{"text":"(১৩৪)","language_name":"bengali","language_id":20},"transliteration":{"text":null,"language_name":"english","language_id":38}}]},{"id":3923,"verse_number":135,"verse_key":"37:135","hizb_number":45,"rub_el_hizb_number":180,"ruku_number":391,"manzil_number":6,"sajdah_number":null,"page_number":451,"juz_number":23,"words":[{"id":78543,"position":1,"audio_url":"wbw/037_135_001.mp3","char_type_name":"word","page_number":451,"line_number":5,"text":"إِلَّا","translation":{"text":"ব্যতীত","language_name":"bengali","language_id":20},"transliteration":{"text":"illā","language_name":"english","language_id":38}},{"id":78544,"position":2,"audio_url":"wbw/037_135_002.mp3","char_type_name":"word","page_number":451,"line_number":5,"text":"عَجُوزًۭا","translation":{"text":"এক বৃদ্ধাকে (অর্থাৎ তার স্ত্রীকে)","language_name":"bengali","language_id":20},"transliteration":{"text":"ʿajūzan","language_name":"english","language_id":38}},{"id":78545,"position":3,"audio_url":"wbw/037_135_003.mp3","char_type_name":"word","page_number":451,"line_number":5,"text":"فِى","translation":{"text":"(সে ছিলো) অন্তর্ভুক্ত","language_name":"bengali","language_id":20},"transliteration":{"text":"fī","language_name":"english","language_id":38}},{"id":78546,"position":4,"audio_url":"wbw/037_135_004.mp3","char_type_name":"word","page_number":451,"line_number":5,"text":"ٱلْغَـٰبِرِينَ","translation":{"text":"পিছনে অবস্থানকারীদের","language_name":"bengali","language_id":20},"transliteration":{"text":"l-ghābirīna","language_name":"english","language_id":38}},{"id":78547,"position":5,"audio_url":null,"char_type_name":"end","page_number":451,"line_number":5,"text":"١٣٥","translation":{"text":"(১৩৫)","language_name":"bengali","language_id":20},"transliteration":{"text":null,"language_name":"english","language_id":38}}]},{"id":3924,"verse_number":136,"verse_key":"37:136","hizb_number":45,"rub_el_hizb_number":180,"ruku_number":391,"manzil_number":6,"sajdah_number":null,"page_number":451,"juz_number":23,"words":[{"id":78689,"position":1,"audio_url":"wbw/037_136_001.mp3","char_type_name":"word","page_number":451,"line_number":5,"text":"ثُمَّ","translation":{"text":"এরপর","language_name":"bengali","language_id":20},"transliteration":{"text":"thumma","language_name":"english","language_id":38}},{"id":78690,"position":2,"audio_url":"wbw/037_136_002.mp3","char_type_name":"word","page_number":451,"line_number":5,"text":"دَمَّرْنَا","translation":{"text":"আমরা ধ্বংস করেছিলাম","language_name":"bengali","language_id":20},"transliteration":{"text":"dammarnā","language_name":"english","language_id":38}},{"id":78691,"position":3,"audio_url":"wbw/037_136_003.mp3","char_type_name":"word","page_number":451,"line_number":5,"text":"ٱلْـَٔاخَرِينَ","translation":{"text":"বাকিদেরকে","language_name":"bengali","language_id":20},"transliteration":{"text":"l-ākharīna","language_name":"english","language_id":38}},{"id":78692,"position":4,"audio_url":null,"char_type_name":"end","page_number":451,"line_number":5,"text":"١٣٦","translation":{"text":"(১৩৬)","language_name":"bengali","language_id":20},"transliteration":{"text":null,"language_name":"english","language_id":38}}]},{"id":3925,"verse_number":137,"verse_key":"37:137","hizb_number":45,"rub_el_hizb_number":180,"ruku_number":391,"manzil_number":6,"sajdah_number":null,"page_number":451,"juz_number":23,"words":[{"id":78799,"position":1,"audio_url":"wbw/037_137_001.mp3","char_type_name":"word","page_number":451,"line_number":5,"text":"وَإِنَّكُمْ","translation":{"text":"এবং নিশ্চয়ই তোমরা","language_name":"bengali","language_id":20},"transliteration":{"text":"wa-innakum","language_name":"english","language_id":38}},{"id":78800,"position":2,"audio_url":"wbw/037_137_002.mp3","char_type_name":"word","page_number":451,"line_number":6,"text":"لَتَمُرُّونَ","translation":{"text":"অবশ্যই আসা-যাওয়া করে থাকো","language_name":"bengali","language_id":20},"transliteration":{"text":"latamurrūna","language_name":"english","language_id":38}},{"id":78801,"position":3,"audio_url":"wbw/037_137_003.mp3","char_type_name":"word","page_number":451,"line_number":6,"text":"عَلَيْهِم","translation":{"text":"তাদের (ধ্বংসপ্রাপ্ত এলাকার) উপর দিয়ে","language_name":"bengali","language_id":20},"transliteration":{"text":"ʿalayhim","language_name":"english","language_id":38}},{"id":78802,"position":4,"audio_url":"wbw/037_137_004.mp3","char_type_name":"word","page_number":451,"line_number":6,"text":"مُّصْبِحِينَ","translation":{"text":"সকালে","language_name":"bengali","language_id":20},"transliteration":{"text":"muṣ'biḥīna","language_name":"english","language_id":38}},{"id":78803,"position":5,"audio_url":null,"char_type_name":"end","page_number":451,"line_number":6,"text":"١٣٧","translation":{"text":"(১৩৭)","language_name":"bengali","language_id":20},"transliteration":{"text":null,"language_name":"english","language_id":38}}]},{"id":3926,"verse_number":138,"verse_key":"37:138","hizb_number":45,"rub_el_hizb_number":180,"ruku_number":391,"manzil_number":6,"sajdah_number":null,"page_number":451,"juz_number":23,"words":[{"id":78920,"position":1,"audio_url":"wbw/037_138_001.mp3","char_type_name":"word","page_number":451,"line_number":6,"text":"وَبِٱلَّيْلِ ۗ","translation":{"text":"ও সন্ধ্যায়","language_name":"bengali","language_id":20},"transliteration":{"text":"wabi-al-layli","language_name":"english","language_id":38}},{"id":78922,"position":2,"audio_url":"wbw/037_138_003.mp3","char_type_name":"word","page_number":451,"line_number":6,"text":"أَفَلَا","translation":{"text":"তবুও কিনা","language_name":"bengali","language_id":20},"transliteration":{"text":"afalā","language_name":"english","language_id":38}},{"id":78923,"position":3,"audio_url":"wbw/037_138_004.mp3","char_type_name":"word","page_number":451,"line_number":6,"text":"تَعْقِلُونَ","translation":{"text":"তোমরা জ্ঞান কাজে লাগাও","language_name":"bengali","language_id":20},"transliteration":{"text":"taʿqilūna","language_name":"english","language_id":38}},{"id":78924,"position":4,"audio_url":null,"char_type_name":"end","page_number":451,"line_number":6,"text":"١٣٨","translation":{"text":"(১৩৮)","language_name":"bengali","language_id":20},"transliteration":{"text":null,"language_name":"english","language_id":38}}]},{"id":3927,"verse_number":139,"verse_key":"37:139","hizb_number":45,"rub_el_hizb_number":180,"ruku_number":392,"manzil_number":6,"sajdah_number":null,"page_number":451,"juz_number":23,"words":[{"id":79018,"position":1,"audio_url":"wbw/037_139_001.mp3","char_type_name":"word","page_number":451,"line_number":6,"text":"وَإِنَّ","translation":{"text":"এবং নিশ্চয়ই","language_name":"bengali","language_id":20},"transliteration":{"text":"wa-inna","language_name":"english","language_id":38}},{"id":79019,"position":2,"audio_url":"wbw/037_139_002.mp3","char_type_name":"word","page_number":451,"line_number":7,"text":"يُونُسَ","translation":{"text":"ইউনূসও (ছিলো)","language_name":"bengali","language_id":20},"transliteration":{"text":"yūnusa","language_name":"english","language_id":38}},{"id":79020,"position":3,"audio_url":"wbw/037_139_003.mp3","char_type_name":"word","page_number":451,"line_number":7,"text":"لَمِنَ","translation":{"text":"অবশ্যই অন্যতম","language_name":"bengali","language_id":20},"transliteration":{"text":"lamina","language_name":"english","language_id":38}},{"id":79021,"position":4,"audio_url":"wbw/037_139_004.mp3","char_type_name":"word","page_number":451,"line_number":7,"text":"ٱلْمُرْسَلِينَ","translation":{"text":"রাসূলদের","language_name":"bengali","language_id":20},"transliteration":{"text":"l-mur'salīna","language_name":"english","language_id":38}},{"id":79022,"position":5,"audio_url":null,"char_type_name":"end","page_number":451,"line_number":7,"text":"١٣٩","translation":{"text":"(১৩৯)","language_name":"bengali","language_id":20},"transliteration":{"text":null,"language_name":"english","language_id":38}}]},{"id":3928,"verse_number":140,"verse_key":"37:140","hizb_number":45,"rub_el_hizb_number":180,"ruku_number":392,"manzil_number":6,"sajdah_number":null,"page_number":451,"juz_number":23,"words":[{"id":79088,"position":1,"audio_url":"wbw/037_140_001.mp3","char_type_name":"word","page_number":451,"line_number":7,"text":"إِذْ","translation":{"text":"(স্মরণ করো) যখন","language_name":"bengali","language_id":20},"transliteration":{"text":"idh","language_name":"english","language_id":38}},{"id":79089,"position":2,"audio_url":"wbw/037_140_002.mp3","char_type_name":"word","page_number":451,"line_number":7,"text":"أَبَقَ","translation":{"text":"সে পালিয়েছিলো","language_name":"bengali","language_id":20},"transliteration":{"text":"abaqa","language_name":"english","language_id":38}},{"id":79090,"position":3,"audio_url":"wbw/037_140_003.mp3","char_type_name":"word","page_number":451,"line_number":7,"text":"إِلَى","translation":{"text":"দিকে","language_name":"bengali","language_id":20},"transliteration":{"text":"ilā","language_name":"english","language_id":38}},{"id":79091,"position":4,"audio_url":"wbw/037_140_004.mp3","char_type_name":"word","page_number":451,"line_number":7,"text":"ٱلْفُلْكِ","translation":{"text":"নৌকার","language_name":"bengali","language_id":20},"transliteration":{"text":"l-ful'ki","language_name":"english","language_id":38}},{"id":79092,"position":5,"audio_url":"wbw/037_140_005.mp3","char_type_name":"word","page_number":451,"line_number":7,"text":"ٱلْمَشْحُونِ","translation":{"text":"বোঝাই","language_name":"bengali","language_id":20},"transliteration":{"text":"l-mashḥūni","language_name":"english","language_id":38}},{"id":79093,"position":6,"audio_url":null,"char_type_name":"end","page_number":451,"line_number":7,"text":"١٤٠","translation":{"text":"(১৪০)","language_name":"bengali","language_id":20},"transliteration":{"text":null,"language_name":"english","language_id":38}}]}],"pagination":{"per_page":10,"current_page":14,"next_page":15,"total_pages":19,"total_records":182}}
