{"verses":[{"id":3929,"verse_number":141,"verse_key":"37:141","hizb_number":45,"rub_el_hizb_number":180,"ruku_number":392,"manzil_number":6,"sajdah_number":null,"page_number":451,"juz_number":23,"words":[{"id":79193,"position":1,"audio_url":"wbw/037_141_001.mp3","verse_key":"37:141","verse_id":3929,"location":"37:141:1","text_uthmani":"فَسَاهَمَ","qpc_uthmani_hafs":"فَسَاهَمَ","char_type_name":"word","page_number":451,"line_number":8,"text":"فَسَاهَمَ","translation":{"text":"অতঃপর সে লটারীতে অংশ নিলো","language_name":"bengali","language_id":20},"transliteration":{"text":"fasāhama","language_name":"english","language_id":38}},{"id":79194,"position":2,"audio_url":"wbw/037_141_002.mp3","verse_key":"37:141","verse_id":3929,"location":"37:141:2","text_uthmani":"فَكَانَ","qpc_uthmani_hafs":"فَكَانَ","char_type_name":"word","page_number":451,"line_number":8,"text":"فَكَانَ","translation":{"text":"তখন সে হলো","language_name":"bengali","language_id":20},"transliteration":{"text":"fakāna","language_name":"english","language_id":38}},{"id":79195,"position":3,"audio_url":"wbw/037_141_003.mp3","verse_key":"37:141","verse_id":3929,"location":"37:141:3","text_uthmani":"مِنَ","qpc_uthmani_hafs":"مِنَ","char_type_name":"word","page_number":451,"line_number":8,"text":"مِنَ","translation":{"text":"অন্তর্ভুক্ত","language_name":"bengali","language_id":20},"transliteration":{"text":"mina","language_name":"english","language_id":38}},{"id":79196,"position":4,"audio_url":"wbw/037_141_004.mp3","verse_key":"37:141","verse_id":3929,"location":"37:141:4","text_uthmani":"ٱلْمُدْحَضِينَ","qpc_uthmani_hafs":"ٱلۡمُدۡحَضِينَ","char_type_name":"word","page_number":451,"line_number":8,"text":"ٱلۡمُدۡحَضِينَ","translation":{"text":"পরাস্তদের (আর পানিতে নিক্ষিপ্ত হলো)","language_name":"bengali","language_id":20},"transliteration":{"text":"l-mud'ḥaḍīna","language_name":"english","language_id":38}},{"id":79197,"position":5,"audio_url":null,"verse_key":"37:141","verse_id":3929,"location":"37:141:5","text_uthmani":"١٤١","qpc_uthmani_hafs":"١٤١","char_type_name":"end","page_number":451,"line_number":8,"text":"١٤١","translation":{"text":"(১৪১)","language_name":"bengali","language_id":20},"transliteration":{"text":null,"language_name":"english","language_id":38}}]},{"id":3930,"verse_number":142,"verse_key":"37:142","hizb_number":45,"rub_el_hizb_number":180,"ruku_number":392,"manzil_number":6,"sajdah_number":null,"page_number":451,"juz_number":23,"words":[{"id":79431,"position":1,"audio_url":"wbw/037_142_001.mp3","verse_key":"37:142","verse_id":3930,"location":"37:142:1","text_uthmani":"فَٱلْتَقَمَهُ","qpc_uthmani_hafs":"فَٱلۡتَقَمَهُ","char_type_name":"word","page_number":451,"line_number":8,"text":"فَٱلۡتَقَمَهُ","translation":{"text":"তাকে অতঃপর গিলে ফেললো","language_name":"bengali","language_id":20},"transliteration":{"text":"fal-taqamahu","language_name":"english","language_id":38}},{"id":79432,"position":2,"audio_url":"wbw/037_142_002.mp3","verse_key":"37:142","verse_id":3930,"location":"37:142:2","text_uthmani":"ٱلْحُوتُ","qpc_uthmani_hafs":"ٱلۡحُوتُ","char_type_name":"word","page_number":451,"line_number":8,"text":"ٱلۡحُوتُ","translation":{"text":"মাছ","language_name":"bengali","language_id":20},"transliteration":{"text":"l-ḥūtu","language_name":"english","language_id":38}},{"id":79433,"position":3,"audio_url":"wbw/037_142_003.mp3","verse_key":"37:142","verse_id":3930,"location":"37:142:3","text_uthmani":"وَهُوَ","qpc_uthmani_hafs":"وَهُوَ","char_type_name":"word","page_number":451,"line_number":8,"text":"وَهُوَ","translation":{"text":"এবং সে","language_name":"bengali","language_id":20},"transliteration":{"text":"wahuwa","language_name":"english","language_id":38}},{"id":79434,"position":4,"audio_url":"wbw/037_142_004.mp3","verse_key":"37:142","verse_id":3930,"location":"37:142:4","text_uthmani":"مُلِيمٌۭ","qpc_uthmani_hafs":"مُلِيمٞ","char_type_name":"word","page_number":451,"line_number":8,"text":"مُلِيمٞ","translation":{"text":"নিজেকে ধিক্কারকারী হলো","language_name":"bengali","language_id":20},"transliteration":{"text":"mulīmun","language_name":"english","language_id":38}},{"id":79435,"position":5,"audio_url":null,"verse_key":"37:142","verse_id":3930,"location":"37:142:5","text_uthmani":"١٤٢","qpc_uthmani_hafs":"١٤٢","char_type_name":"end","page_number":451,"line_number":9,"text":"١٤٢","translation":{"text":"(১৪২)","language_name":"bengali","language_id":20},"transliteration":{"text":null,"language_name":"english","language_id":38}}]},{"id":3931,"verse_number":143,"verse_key":"37:143","hizb_number":45,"rub_el_hizb_number":180,"ruku_number":392,"manzil_number":6,"sajdah_number":null,"page_number":451,"juz_number":23,"words":[{"id":79509,"position":1,"audio_url":"wbw/037_143_001.mp3","verse_key":"37:143","verse_id":3931,"location":"37:143:1","text_uthmani":"فَلَوْلَآ","qpc_uthmani_hafs":"فَلَوۡلَآ","char_type_name":"word","page_number":451,"line_number":9,"text":"فَلَوۡلَآ","translation":{"text":"তখন যদি না","language_name":"bengali","language_id":20},"transliteration":{"text":"falawlā","language_name":"english","language_id":38}},{"id":79510,"position":2,"audio_url":"wbw/037_143_002.mp3","verse_key":"37:143","verse_id":3931,"location":"37:143:2","text_uthmani":"أَنَّهُۥ","qpc_uthmani_hafs":"أَنَّهُۥ","char_type_name":"word","page_number":451,"line_number":9,"text":"أَنَّهُۥ","translation":{"text":"সে","language_name":"bengali","language_id":20},"transliteration":{"text":"annahu","language_name":"english","language_id":38}},{"id":79511,"position":3,"audio_url":"wbw/037_143_003.mp3","verse_key":"37:143","verse_id":3931,"location":"37:143:3","text_uthmani":"كَانَ","qpc_uthmani_hafs":"كَانَ","char_type_name":"word","page_number":451,"line_number":9,"text":"كَانَ","translation":{"text":"হতো","language_name":"bengali","language_id":20},"transliteration":{"text":"kāna","language_name":"english","language_id":38}},{"id":79512,"position":4,"audio_url":"wbw/037_143_004.mp3","verse_key":"37:143","verse_id":3931,"location":"37:143:4","text_uthmani":"مِنَ","qpc_uthmani_hafs":"مِنَ","char_type_name":"word","page_number":451,"line_number":9,"text":"مِنَ","translation":{"text":"অন্তর্ভুক্ত","language_name":"bengali","language_id":20},"transliteration":{"text":"mina","language_name":"english","language_id":38}},{"id":79513,"position":5,"audio_url":"wbw/037_143_005.mp3","verse_key":"37:143","verse_id":3931,"location":"37:143:5","text_uthmani":"ٱلْمُسَبِّحِينَ","qpc_uthmani_hafs":"ٱلۡمُسَبِّحِينَ","char_type_name":"word","page_number":451,"line_number":9,"text":"ٱلۡمُسَبِّحِينَ","translation":{"text":"মহিমা ঘোষণাকারীদের","language_name":"bengali","language_id":20},"transliteration":{"text":"l-musabiḥīna","language_name":"english","language_id":38}},{"id":79514,"position":6,"audio_url":null,"verse_key":"37:143","verse_id":3931,"location":"37:143:6","text_uthmani":"١٤٣","qpc_uthmani_hafs":"١٤٣","char_type_name":"end","page_number":451,"line_number":9,"text":"١٤٣","translation":{"text":"(১৪৩)","language_name":"bengali","language_id":20},"transliteration":{"text":null,"language_name":"english","language_id":38}}]},{"id":3932,"verse_number":144,"verse_key":"37:144","hizb_number":45,"rub_el_hizb_number":180,"ruku_number":392,"manzil_number":6,"sajdah_number":null,"page_number":451,"juz_number":23,"words":[{"id":79695,"position":1,"audio_url":"wbw/037_144_001.mp3","verse_key":"37:144","verse_id":3932,"location":"37:144:1","text_uthmani":"لَلَبِثَ","qpc_uthmani_hafs":"لَلَبِثَ","char_type_name":"word","page_number":451,"line_number":9,"text":"لَلَبِثَ","translation":{"text":"অবশ্যই সে থাকতো","language_name":"bengali","language_id":20},"transliteration":{"text":"lalabitha","language_name":"english","language_id":38}},{"id":79696,"position":2,"audio_url":"wbw/037_144_002.mp3","verse_key":"37:144","verse_id":3932,"location":"37:144:2","text_uthmani":"فِى","qpc_uthmani_hafs":"فِي","char_type_name":"word","page_number":451,"line_number":9,"text":"فِي","translation":{"text":"মধ্যে","language_name":"bengali","language_id":20},"transliteration":{"text":"fī","language_name":"english","language_id":38}},{"id":79697,"position":3,"audio_url":"wbw/037_144_003.mp3","verse_key":"37:144","verse_id":3932,"location":"37:144:3","text_uthmani":"بَطْنِهِۦٓ","qpc_uthmani_hafs":"بَطۡنِهِۦٓ","char_type_name":"word","page_number":451,"line_number":9,"text":"بَطۡنِهِۦٓ","translation":{"text":"তার পেটের","language_name":"bengali","language_id":20},"transliteration":{"text":"baṭnihi","language_name":"english","language_id":38}},{"id":79698,"position":4,"audio_url":"wbw/037_144_004.mp3","verse_key":"37:144","verse_id":3932,"location":"37:144:4","text_uthmani":"إِلَىٰ","qpc_uthmani_hafs":"إِلَىٰ","char_type_name":"word","page_number":451,"line_number":9,"text":"إِلَىٰ","translation":{"text":"পর্যন্ত","language_name":"bengali","language_id":20},"transliteration":{"text":"ilā","language_name":"english","language_id":38}},{"id":79699,"position":5,"audio_url":"wbw/037_144_005.mp3","verse_key":"37:144","verse_id":3932,"location":"37:144:5","text_uthmani":"يَوْمِ","qpc_uthmani_hafs":"يَوۡمِ","char_type_name":"word","page_number":451,"line_number":9,"text":"يَوۡمِ","translation":{"text":"দিন","language_name":"bengali","language_id":20},"transliteration":{"text":"yawmi","language_name":"english","language_id":38}},{"id":79700,"position":6,"audio_url":"wbw/037_144_006.mp3","verse_key":"37:144","verse_id":3932,"location":"37:144:6","text_uthmani":"يُبْعَثُونَ","qpc_uthmani_hafs":"يُبۡعَثُونَ","char_type_name":"word","page_number":451,"line_number":10,"text":"يُبۡعَثُونَ","translation":{"text":"উত্থানের","language_name":"bengali","language_id":20},"transliteration":{"text":"yub'ʿathūna","language_name":"english","language_id":38}},{"id":79701,"position":7,"audio_url":null,"verse_key":"37:144","verse_id":3932,"location":"37:144:7","text_uthmani":"١٤٤","qpc_uthmani_hafs":"١٤٤","char_type_name":"end","page_number":451,"line_number":10,"text":"١٤٤","translation":{"text":"(১৪৪)","language_name":"bengali","language_id":20},"transliteration":{"text":null,"language_name":"english","language_id":38}}]},{"id":3933,"verse_number":145,"verse_key":"37:145","hizb_number":46,"rub_el_hizb_number":181,"ruku_number":392,"manzil_number":6,"sajdah_number":null,"page_number":451,"juz_number":23,"words":[{"id":79762,"position":1,"audio_url":"wbw/037_145_002.mp3","verse_key":"37:145","verse_id":3933,"location":"37:145:1","text_uthmani":"۞ فَنَبَذْنَـٰهُ","qpc_uthmani_hafs":"۞ فَنَبَذۡنَٰهُ","char_type_name":"word","page_number":451,"line_number":10,"text":"۞ فَنَبَذۡنَٰهُ","translation":{"text":"তাকে আমরা এরপর নিক্ষেপ করলাম","language_name":"bengali","language_id":20},"transliteration":{"text":"fanabadhnāhu","language_name":"english","language_id":38}},{"id":79763,"position":2,"audio_url":"wbw/037_145_003.mp3","verse_key":"37:145","verse_id":3933,"location":"37:145:2","text_uthmani":"بِٱلْعَرَآءِ","qpc_uthmani_hafs":"بِٱلۡعَرَآءِ","char_type_name":"word","page_number":451,"line_number":10,"text":"بِٱلۡعَرَآءِ","translation":{"text":"তৃণহীন প্রান্তরে","language_name":"bengali","language_id":20},"transliteration":{"text":"bil-ʿarāi","language_name":"english","language_id":38}},{"id":79764,"position":3,"audio_url":"wbw/037_145_004.mp3","verse_key":"37:145","verse_id":3933,"location":"37:145:3","text_uthmani":"وَهُوَ","qpc_uthmani_hafs":"وَهُوَ","char_type_name":"word","page_number":451,"line_number":10,"text":"وَهُوَ","translation":{"text":"এমনাবস্হায় যে সে","language_name":"bengali","language_id":20},"transliteration":{"text":"wahuwa","language_name":"english","language_id":38}},{"id":79765,"position":4,"audio_url":"wbw/037_145_005.mp3","verse_key":"37:145","verse_id":3933,"location":"37:145:4","text_uthmani":"سَقِيمٌۭ","qpc_uthmani_hafs":"سَقِيمٞ","char_type_name":"word","page_number":451,"line_number":10,"text":"سَقِيمٞ","translation":{"text":"(ছিলো) অসুস্থ","language_name":"bengali","language_id":20},"transliteration":{"text":"saqīmun","language_name":"english","language_id":38}},{"id":79766,"position":5,"audio_url":null,"verse_key":"37:145","verse_id":3933,"location":"37:145:5","text_uthmani":"١٤٥","qpc_uthmani_hafs":"١٤٥","char_type_name":"end","page_number":451,"line_number":10,"text":"١٤٥","translation":{"text":"(১৪৫)","language_name":"bengali","language_id":20},"transliteration":{"text":null,"language_name":"english","language_id":38}}]},{"id":3934,"verse_number":146,"verse_key":"37:146","hizb_number":46,"rub_el_hizb_number":181,"ruku_number":392,"manzil_number":6,"sajdah_number":null,"page_number":451,"juz_number":23,"words":[{"id":79925,"position":1,"audio_url":"wbw/037_146_001.mp3","verse_key":"37:146","verse_id":3934,"location":"37:146:1","text_uthmani":"وَأَنۢبَتْنَا","qpc_uthmani_hafs":"وَأَنۢبَتۡنَا","char_type_name":"word","page_number":451,"line_number":10,"text":"وَأَنۢبَتۡنَا","translation":{"text":"এবং আমরা উৎপন্ন করলাম","language_name":"bengali","language_id":20},"transliteration":{"text":"wa-anbatnā","language_name":"english","language_id":38}},{"id":79926,"position":2,"audio_url":"wbw/037_146_002.mp3","verse_key":"37:146","verse_id":3934,"location":"37:146:2","text_uthmani":"عَلَيْهِ","qpc_uthmani_hafs":"عَلَيۡهِ","char_type_name":"word","page_number":451,"line_number":11,"text":"عَلَيۡهِ","translation":{"text":"তার জন্যে","language_name":"bengali","language_id":20},"transliteration":{"text":"ʿalayhi","language_name":"english","language_id":38}},{"id":79927,"position":3,"audio_url":"wbw/037_146_003.mp3","verse_key":"37:146","verse_id":3934,"location":"37:146:3","text_uthmani":"شَجَرَةًۭ","qpc_uthmani_hafs":"شَجَرَةٗ","char_type_name":"word","page_number":451,"line_number":11,"text":"شَجَرَةٗ","translation":{"text":"গাছ","language_name":"bengali","language_id":20},"transliteration":{"text":"shajaratan","language_name":"english","language_id":38}},{"id":79928,"position":4,"audio_url":"wbw/037_146_004.mp3","verse_key":"37:146","verse_id":3934,"location":"37:146:4","text_uthmani":"مِّن","qpc_uthmani_hafs":"مِّن","char_type_name":"word","page_number":451,"line_number":11,"text":"مِّن","translation":{"text":"থেকে","language_name":"bengali","language_id":20},"transliteration":{"text":"min","language_name":"english","language_id":38}},{"id":79929,"position":5,"audio_url":"wbw/037_146_005.mp3","verse_key":"37:146","verse_id":3934,"location":"37:146:5","text_uthmani":"يَقْطِينٍۢ","qpc_uthmani_hafs":"يَقۡطِينٖ","char_type_name":"word","page_number":451,"line_number":11,"text":"يَقۡطِينٖ","translation":{"text":"লাউগাছ","language_name":"bengali","language_id":20},"transliteration":{"text":"yaqṭīnin","language_name":"english","language_id":38}},{"id":79930,"position":6,"audio_url":null,"verse_key":"37:146","verse_id":3934,"location":"37:146:6","text_uthmani":"١٤٦","qpc_uthmani_hafs":"١٤٦","char_type_name":"end","page_number":451,"line_number":11,"text":"١٤٦","translation":{"text":"(১৪৬)","language_name":"bengali","language_id":20},"transliteration":{"text":null,"language_name":"english","language_id":38}}]},{"id":3935,"verse_number":147,"verse_key":"37:147","hizb_number":46,"rub_el_hizb_number":181,"ruku_number":392,"manzil_number":6,"sajdah_number":null,"page_number":451,"juz_number":23,"words":[{"id":80135,"position":1,"audio_url":"wbw/037_147_001.mp3","verse_key":"37:147","verse_id":3935,"location":"37:147:1","text_uthmani":"وَأَرْسَلْنَـٰهُ","qpc_uthmani_hafs":"وَأَرۡسَلۡنَٰهُ","char_type_name":"word","page_number":451,"line_number":11,"text":"وَأَرۡسَلۡنَٰهُ","translation":{"text":"এবং তাকে আমরা পাঠালাম","language_name":"bengali","language_id":20},"transliteration":{"text":"wa-arsalnāhu","language_name":"english","language_id":38}},{"id":80136,"position":2,"audio_url":"wbw/037_147_002.mp3","verse_key":"37:147","verse_id":3935,"location":"37:147:2","text_uthmani":"إِلَىٰ","qpc_uthmani_hafs":"إِلَىٰ","char_type_name":"word","page_number":451,"line_number":11,"text":"إِلَىٰ","translation":{"text":"প্রতি","language_name":"bengali","language_id":20},"transliteration":{"text":"ilā","language_name":"english","language_id":38}},{"id":80137,"position":3,"audio_url":"wbw/037_147_003.mp3","verse_key":"37:147","verse_id":3935,"location":"37:147:3","text_uthmani":"مِا۟ئَةِ","qpc_uthmani_hafs":"مِاْئَةِ","char_type_name":"word","page_number":451,"line_number":11,"text":"مِاْئَةِ","translation":{"text":"একশত","language_name":"bengali","language_id":20},"transliteration":{"text":"mi-ati","language_name":"english","language_id":38}},{"id":80138,"position":4,"audio_url":"wbw/037_147_004.mp3","verse_key":"37:147","verse_id":3935,"location":"37:147:4","text_uthmani":"أَلْفٍ","qpc_uthmani_hafs":"أَلۡفٍ","char_type_name":"word","page_number":451,"line_number":11,"text":"أَلۡفٍ","translation":{"text":"হাজার (অর্থাৎ এক লক্ষ)","language_name":"bengali","language_id":20},"transliteration":{"text":"alfin","language_name":"english","language_id":38}},{"id":80139,"position":5,"audio_url":"wbw/037_147_005.mp3","verse_key":"37:147","verse_id":3935,"location":"37:147:5","text_uthmani":"أَوْ","qpc_uthmani_hafs":"أَوۡ","char_type_name":"word","page_number":451,"line_number":11,"text":"أَوۡ","translation":{"text":"বা","language_name":"bengali","language_id":20},"transliteration":{"text":"aw","language_name":"english","language_id":38}},{"id":80140,"position":6,"audio_url":"wbw/037_147_006.mp3","verse_key":"37:147","verse_id":3935,"location":"37:147:6","text_uthmani":"يَزِيدُونَ","qpc_uthmani_hafs":"يَزِيدُونَ","char_type_name":"word","page_number":451,"line_number":12,"text":"يَزِيدُونَ","translation":{"text":"আরও বেশী (লোকদের কাছে)","language_name":"bengali","language_id":20},"transliteration":{"text":"yazīdūna","language_name":"english","language_id":38}},{"id":80141,"position":7,"audio_url":null,"verse_key":"37:147","verse_id":3935,"location":"37:147:7","text_uthmani":"١٤٧","qpc_uthmani_hafs":"١٤٧","char_type_name":"end","page_number":451,"line_number":12,"text":"١٤٧","translation":{"text":"(১৪৭)","language_name":"bengali","language_id":20},"transliteration":{"text":null,"language_name":"english","language_id":38}}]},{"id":3936,"verse_number":148,"verse_key":"37:148","hizb_number":46,"rub_el_hizb_number":181,"ruku_number":392,"manzil_number":6,"sajdah_number":null,"page_number":451,"juz_number":23,"words":[{"id":80179,"position":1,"audio_url":"wbw/037_148_001.mp3","verse_key":"37:148","verse_id":3936,"location":"37:148:1","text_uthmani":"فَـَٔامَنُوا۟","qpc_uthmani_hafs":"فَـَٔامَنُواْ","char_type_name":"word","page_number":451,"line_number":12,"text":"فَـَٔامَنُواْ","translation":{"text":"তারা অতঃপর ঈমান আনে","language_name":"bengali","language_id":20},"transliteration":{"text":"faāmanū","language_name":"english","language_id":38}},{"id":80180,"position":2,"audio_url":"wbw/037_148_002.mp3","verse_key":"37:148","verse_id":3936,"location":"37:148:2","text_uthmani":"فَمَتَّعْنَـٰهُمْ","qpc_uthmani_hafs":"فَمَتَّعۡنَٰهُمۡ","char_type_name":"word","page_number":451,"line_number":12,"text":"فَمَتَّعۡنَٰهُمۡ","translation":{"text":"তাদেরকে আমরা অতঃপর জীবন উপভোগ করতে দিলাম","language_name":"bengali","language_id":20},"transliteration":{"text":"famattaʿnāhum","language_name":"english","language_id":38}},{"id":80181,"position":3,"audio_url":"wbw/037_148_003.mp3","verse_key":"37:148","verse_id":3936,"location":"37:148:3","text_uthmani":"إِلَىٰ","qpc_uthmani_hafs":"إِلَىٰ","char_type_name":"word","page_number":451,"line_number":12,"text":"إِلَىٰ","translation":{"text":"পর্যন্ত","language_name":"bengali","language_id":20},"transliteration":{"text":"ilā","language_name":"english","language_id":38}},{"id":80182,"position":4,"audio_url":"wbw/037_148_004.mp3","verse_key":"37:148","verse_id":3936,"location":"37:148:4","text_uthmani":"حِينٍۢ","qpc_uthmani_hafs":"حِينٖ","char_type_name":"word","page_number":451,"line_number":12,"text":"حِينٖ","translation":{"text":"নির্দিষ্টকাল","language_name":"bengali","language_id":20},"transliteration":{"text":"ḥīnin","language_name":"english","language_id":38}},{"id":80183,"position":5,"audio_url":null,"verse_key":"37:148","verse_id":3936,"location":"37:148:5","text_uthmani":"١٤٨","qpc_uthmani_hafs":"١٤٨","char_type_name":"end","page_number":451,"line_number":12,"text":"١٤٨","translation":{"text":"(১৪৮)","language_name":"bengali","language_id":20},"transliteration":{"text":null,"language_name":"english","language_id":38}}]},{"id":3937,"verse_number":149,"verse_key":"37:149","hizb_number":46,"rub_el_hizb_number":181,"ruku_number":392,"manzil_number":6,"sajdah_number":null,"page_number":451,"juz_number":23,"words":[{"id":80312,"position":1,"audio_url":"wbw/037_149_001.mp3","verse_key":"37:149","verse_id":3937,"location":"37:149:1","text_uthmani":"فَٱسْتَفْتِهِمْ","qpc_uthmani_hafs":"فَٱسۡتَفۡتِهِمۡ","char_type_name":"word","page_number":451,"line_number":12,"text":"فَٱسۡتَفۡتِهِمۡ","translation":{"text":"তাদেরকে অতঃপর জিজ্ঞাসা করো","language_name":"bengali","language_id":20},"transliteration":{"text":"fa-is'taftihim","language_name":"english","language_id":38}},{"id":80313,"position":2,"audio_url":"wbw/037_149_002.mp3","verse_key":"37:149","verse_id":3937,"location":"37:149:2","text_uthmani":"أَلِرَبِّكَ","qpc_uthmani_hafs":"أَلِرَبِّكَ","char_type_name":"word","page_number":451,"line_number":13,"text":"أَلِرَبِّكَ","translation":{"text":"\"তোমার রবের জন্যে কি","language_name":"bengali","language_id":20},"transliteration":{"text":"alirabbika","language_name":"english","language_id":38}},{"id":80314,"position":3,"audio_url":"wbw/037_149_003.mp3","verse_key":"37:149","verse_id":3937,"location":"37:149:3","text_uthmani":"ٱلْبَنَاتُ","qpc_uthmani_hafs":"ٱلۡبَنَاتُ","char_type_name":"word","page_number":451,"line_number":13,"text":"ٱلۡبَنَاتُ","translation":{"text":"কন্যাসমূহ (আছে)","language_name":"bengali","language_id":20},"transliteration":{"text":"l-banātu","language_name":"english","language_id":38}},{"id":80315,"position":4,"audio_url":"wbw/037_149_004.mp3","verse_key":"37:149","verse_id":3937,"location":"37:149:4","text_uthmani":"وَلَهُمُ","qpc_uthmani_hafs":"وَلَهُمُ","char_type_name":"word","page_number":451,"line_number":13,"text":"وَلَهُمُ","translation":{"text":"এবং তাদের জন্যে (আছে)","language_name":"bengali","language_id":20},"transliteration":{"text":"walahumu","language_name":"english","language_id":38}},{"id":80316,"position":5,"audio_url":"wbw/037_149_005.mp3","verse_key":"37:149","verse_id":3937,"location":"37:149:5","text_uthmani":"ٱلْبَنُونَ","qpc_uthmani_hafs":"ٱلۡبَنُونَ","char_type_name":"word","page_number":451,"line_number":13,"text":"ٱلۡبَنُونَ","translation":{"text":"পুত্রসমূহ\"","language_name":"bengali","language_id":20},"transliteration":{"text":"l-banūna","language_name":"english","language_id":38}},{"id":80317,"position":6,"audio_url":null,"verse_key":"37:149","verse_id":3937,"location":"37:149:6","text_uthmani":"١٤٩","qpc_uthmani_hafs":"١٤٩","char_type_name":"end","page_number":451,"line_number":13,"text":"١٤٩","translation":{"text":"(১৪৯)","language_name":"bengali","language_id":20},"transliteration":{"text":null,"language_name":"english","language_id":38}}]},{"id":3938,"verse_number":150,"verse_key":"37:150","hizb_number":46,"rub_el_hizb_number":181,"ruku_number":392,"manzil_number":6,"sajdah_number":null,"page_number":451,"juz_number":23,"words":[{"id":80419,"position":1,"audio_url":"wbw/037_150_001.mp3","verse_key":"37:150","verse_id":3938,"location":"37:150:1","text_uthmani":"أَمْ","qpc_uthmani_hafs":"أَمۡ","char_type_name":"word","page_number":451,"line_number":13,"text":"أَمۡ","translation":{"text":"অথবা","language_name":"bengali","language_id":20},"transliteration":{"text":"am","language_name":"english","language_id":38}},{"id":80420,"position":2,"audio_url":"wbw/037_150_002.mp3","verse_key":"37:150","verse_id":3938,"location":"37:150:2","text_uthmani":"خَلَقْنَا","qpc_uthmani_hafs":"خَلَقۡنَا","char_type_name":"word","page_number":451,"line_number":13,"text":"خَلَقۡنَا","translation":{"text":"আমরা সৃষ্টি করেছি","language_name":"bengali","language_id":20},"transliteration":{"text":"khalaqnā","language_name":"english","language_id":38}},{"id":80421,"position":3,"audio_url":"wbw/037_150_003.mp3","verse_key":"37:150","verse_id":3938,"location":"37:150:3","text_uthmani":"ٱلْمَلَـٰٓئِكَةَ","qpc_uthmani_hafs":"ٱلۡمَلَٰٓئِكَةَ","char_type_name":"word","page_number":451,"line_number":13,"text":"ٱلۡمَلَٰٓئِكَةَ","translation":{"text":"ফেরেশতাদেরকে","language_name":"bengali","language_id":20},"transliteration":{"text":"l-malāikata","language_name":"english","language_id":38}},{"id":80422,"position":4,"audio_url":"wbw/037_150_004.mp3","verse_key":"37:150","verse_id":3938,"location":"37:150:4","text_uthmani":"إِنَـٰثًۭا","qpc_uthmani_hafs":"إِنَٰثٗا","char_type_name":"word","page_number":451,"line_number":13,"text":"إِنَٰثٗا","translation":{"text":"নারীরূপে","language_name":"bengali","language_id":20},"transliteration":{"text":"ināthan","language_name":"english","language_id":38}},{"id":80423,"position":5,"audio_url":"wbw/037_150_005.mp3","verse_key":"37:150","verse_id":3938,"location":"37:150:5","text_uthmani":"وَهُمْ","qpc_uthmani_hafs":"وَهُمۡ","char_type_name":"word","page_number":451,"line_number":14,"text":"وَهُمۡ","translation":{"text":"আর তারা","language_name":"bengali","language_id":20},"transliteration":{"text":"wahum","language_name":"english","language_id":38}},{"id":80424,"position":6,"audio_url":"wbw/037_150_006.mp3","verse_key":"37:150","verse_id":3938,"location":"37:150:6","text_uthmani":"شَـٰهِدُونَ","qpc_uthmani_hafs":"شَٰهِدُونَ","char_type_name":"word","page_number":451,"line_number":14,"text":"شَٰهِدُونَ","translation":{"text":"দেখেছে","language_name":"bengali","language_id":20},"transliteration":{"text":"shāhidūna","language_name":"english","language_id":38}},{"id":80425,"position":7,"audio_url":null,"verse_key":"37:150","verse_id":3938,"location":"37:150:7","text_uthmani":"١٥٠","qpc_uthmani_hafs":"١٥٠","char_type_name":"end","page_number":451,"line_number":14,"text":"١٥٠","translation":{"text":"(১৫০)","language_name":"bengali","language_id":20},"transliteration":{"text":null,"language_name":"english","language_id":38}}]}],"pagination":{"per_page":10,"current_page":15,"next_page":16,"total_pages":19,"total_records":182}}
