{"verses":[{"id":3939,"verse_number":151,"verse_key":"37:151","hizb_number":46,"rub_el_hizb_number":181,"ruku_number":392,"manzil_number":6,"sajdah_number":null,"page_number":451,"juz_number":23,"words":[{"id":80507,"position":1,"audio_url":"wbw/037_151_001.mp3","verse_key":"37:151","verse_id":3939,"location":"37:151:1","text_uthmani":"أَلَآ","qpc_uthmani_hafs":"أَلَآ","char_type_name":"word","page_number":451,"line_number":14,"text":"أَلَآ","translation":{"text":"সাবধান","language_name":"bengali","language_id":20},"transliteration":{"text":"alā","language_name":"english","language_id":38}},{"id":80508,"position":2,"audio_url":"wbw/037_151_002.mp3","verse_key":"37:151","verse_id":3939,"location":"37:151:2","text_uthmani":"إِنَّهُم","qpc_uthmani_hafs":"إِنَّهُم","char_type_name":"word","page_number":451,"line_number":14,"text":"إِنَّهُم","translation":{"text":"তারা নিশ্চয়ই","language_name":"bengali","language_id":20},"transliteration":{"text":"innahum","language_name":"english","language_id":38}},{"id":80509,"position":3,"audio_url":"wbw/037_151_003.mp3","verse_key":"37:151","verse_id":3939,"location":"37:151:3","text_uthmani":"مِّنْ","qpc_uthmani_hafs":"مِّنۡ","char_type_name":"word","page_number":451,"line_number":14,"text":"مِّنۡ","translation":{"text":"হ'তে","language_name":"bengali","language_id":20},"transliteration":{"text":"min","language_name":"english","language_id":38}},{"id":80510,"position":4,"audio_url":"wbw/037_151_004.mp3","verse_key":"37:151","verse_id":3939,"location":"37:151:4","text_uthmani":"إِفْكِهِمْ","qpc_uthmani_hafs":"إِفۡكِهِمۡ","char_type_name":"word","page_number":451,"line_number":14,"text":"إِفۡكِهِمۡ","translation":{"text":"তাদের মনগড়া কথা","language_name":"bengali","language_id":20},"transliteration":{"text":"if'kihim","language_name":"english","language_id":38}},{"id":80511,"position":5,"audio_url":"wbw/037_151_005.mp3","verse_key":"37:151","verse_id":3939,"location":"37:151:5","text_uthmani":"لَيَقُولُونَ","qpc_uthmani_hafs":"لَيَقُولُونَ","char_type_name":"word","page_number":451,"line_number":14,"text":"لَيَقُولُونَ","translation":{"text":"বলছে অবশ্যই (যে)","language_name":"bengali","language_id":20},"transliteration":{"text":"layaqūlūna","language_name":"english","language_id":38}},{"id":80512,"position":6,"audio_url":null,"verse_key":"37:151","verse_id":3939,"location":"37:151:6","text_uthmani":"١٥١","qpc_uthmani_hafs":"١٥١","char_type_name":"end","page_number":451,"line_number":14,"text":"١٥١","translation":{"text":"(১৫১)","language_name":"bengali","language_id":20},"transliteration":{"text":null,"language_name":"english","language_id":38}}]},{"id":3940,"verse_number":152,"verse_key":"37:152","hizb_number":46,"rub_el_hizb_number":181,"ruku_number":392,"manzil_number":6,"sajdah_number":null,"page_number":451,"juz_number":23,"words":[{"id":80658,"position":1,"audio_url":"wbw/037_152_001.mp3","verse_key":"37:152","verse_id":3940,"location":"37:152:1","text_uthmani":"وَلَدَ","qpc_uthmani_hafs":"وَلَدَ","char_type_name":"word","page_number":451,"line_number":14,"text":"وَلَدَ","translation":{"text":"\"সন্তান জন্ম দিয়েছেন\"","language_name":"bengali","language_id":20},"transliteration":{"text":"walada","language_name":"english","language_id":38}},{"id":80659,"position":2,"audio_url":"wbw/037_152_002.mp3","verse_key":"37:152","verse_id":3940,"location":"37:152:2","text_uthmani":"ٱللَّهُ","qpc_uthmani_hafs":"ٱللَّهُ","char_type_name":"word","page_number":451,"line_number":15,"text":"ٱللَّهُ","translation":{"text":"\"আল্লাহ\"","language_name":"bengali","language_id":20},"transliteration":{"text":"l-lahu","language_name":"english","language_id":38}},{"id":80660,"position":3,"audio_url":"wbw/037_152_003.mp3","verse_key":"37:152","verse_id":3940,"location":"37:152:3","text_uthmani":"وَإِنَّهُمْ","qpc_uthmani_hafs":"وَإِنَّهُمۡ","char_type_name":"word","page_number":451,"line_number":15,"text":"وَإِنَّهُمۡ","translation":{"text":"এবং তারা নিশ্চয়ই","language_name":"bengali","language_id":20},"transliteration":{"text":"wa-innahum","language_name":"english","language_id":38}},{"id":80661,"position":4,"audio_url":"wbw/037_152_004.mp3","verse_key":"37:152","verse_id":3940,"location":"37:152:4","text_uthmani":"لَكَـٰذِبُونَ","qpc_uthmani_hafs":"لَكَٰذِبُونَ","char_type_name":"word","page_number":451,"line_number":15,"text":"لَكَٰذِبُونَ","translation":{"text":"মিথ্যাবাদী অবশ্যই","language_name":"bengali","language_id":20},"transliteration":{"text":"lakādhibūna","language_name":"english","language_id":38}},{"id":80662,"position":5,"audio_url":null,"verse_key":"37:152","verse_id":3940,"location":"37:152:5","text_uthmani":"١٥٢","qpc_uthmani_hafs":"١٥٢","char_type_name":"end","page_number":451,"line_number":15,"text":"١٥٢","translation":{"text":"(১৫২)","language_name":"bengali","language_id":20},"transliteration":{"text":null,"language_name":"english","language_id":38}}]},{"id":3941,"verse_number":153,"verse_key":"37:153","hizb_number":46,"rub_el_hizb_number":181,"ruku_number":392,"manzil_number":6,"sajdah_number":null,"page_number":451,"juz_number":23,"words":[{"id":80896,"position":1,"audio_url":"wbw/037_153_001.mp3","verse_key":"37:153","verse_id":3941,"location":"37:153:1","text_uthmani":"أَصْطَفَى","qpc_uthmani_hafs":"أَصۡطَفَى","char_type_name":"word","page_number":451,"line_number":15,"text":"أَصۡطَفَى","translation":{"text":"তিনি পছন্দ করেছেন কি","language_name":"bengali","language_id":20},"transliteration":{"text":"aṣṭafā","language_name":"english","language_id":38}},{"id":80897,"position":2,"audio_url":"wbw/037_153_002.mp3","verse_key":"37:153","verse_id":3941,"location":"37:153:2","text_uthmani":"ٱلْبَنَاتِ","qpc_uthmani_hafs":"ٱلۡبَنَاتِ","char_type_name":"word","page_number":451,"line_number":15,"text":"ٱلۡبَنَاتِ","translation":{"text":"কন্যাদেরকে","language_name":"bengali","language_id":20},"transliteration":{"text":"l-banāti","language_name":"english","language_id":38}},{"id":80898,"position":3,"audio_url":"wbw/037_153_003.mp3","verse_key":"37:153","verse_id":3941,"location":"37:153:3","text_uthmani":"عَلَى","qpc_uthmani_hafs":"عَلَى","char_type_name":"word","page_number":451,"line_number":15,"text":"عَلَى","translation":{"text":"পরিবর্তে","language_name":"bengali","language_id":20},"transliteration":{"text":"ʿalā","language_name":"english","language_id":38}},{"id":80899,"position":4,"audio_url":"wbw/037_153_004.mp3","verse_key":"37:153","verse_id":3941,"location":"37:153:4","text_uthmani":"ٱلْبَنِينَ","qpc_uthmani_hafs":"ٱلۡبَنِينَ","char_type_name":"word","page_number":451,"line_number":15,"text":"ٱلۡبَنِينَ","translation":{"text":"পুত্রসন্তানদের","language_name":"bengali","language_id":20},"transliteration":{"text":"l-banīna","language_name":"english","language_id":38}},{"id":80900,"position":5,"audio_url":null,"verse_key":"37:153","verse_id":3941,"location":"37:153:5","text_uthmani":"١٥٣","qpc_uthmani_hafs":"١٥٣","char_type_name":"end","page_number":451,"line_number":15,"text":"١٥٣","translation":{"text":"(১৫৩)","language_name":"bengali","language_id":20},"transliteration":{"text":null,"language_name":"english","language_id":38}}]},{"id":3942,"verse_number":154,"verse_key":"37:154","hizb_number":46,"rub_el_hizb_number":181,"ruku_number":392,"manzil_number":6,"sajdah_number":null,"page_number":452,"juz_number":23,"words":[{"id":80946,"position":1,"audio_url":"wbw/037_154_001.mp3","verse_key":"37:154","verse_id":3942,"location":"37:154:1","text_uthmani":"مَا","qpc_uthmani_hafs":"مَا","char_type_name":"word","page_number":452,"line_number":1,"text":"مَا","translation":{"text":"কি","language_name":"bengali","language_id":20},"transliteration":{"text":"mā","language_name":"english","language_id":38}},{"id":80947,"position":2,"audio_url":"wbw/037_154_002.mp3","verse_key":"37:154","verse_id":3942,"location":"37:154:2","text_uthmani":"لَكُمْ","qpc_uthmani_hafs":"لَكُمۡ","char_type_name":"word","page_number":452,"line_number":1,"text":"لَكُمۡ","translation":{"text":"তোমাদের হয়েছে","language_name":"bengali","language_id":20},"transliteration":{"text":"lakum","language_name":"english","language_id":38}},{"id":80948,"position":3,"audio_url":"wbw/037_154_003.mp3","verse_key":"37:154","verse_id":3942,"location":"37:154:3","text_uthmani":"كَيْفَ","qpc_uthmani_hafs":"كَيۡفَ","char_type_name":"word","page_number":452,"line_number":1,"text":"كَيۡفَ","translation":{"text":"কেমন","language_name":"bengali","language_id":20},"transliteration":{"text":"kayfa","language_name":"english","language_id":38}},{"id":80949,"position":4,"audio_url":"wbw/037_154_004.mp3","verse_key":"37:154","verse_id":3942,"location":"37:154:4","text_uthmani":"تَحْكُمُونَ","qpc_uthmani_hafs":"تَحۡكُمُونَ","char_type_name":"word","page_number":452,"line_number":1,"text":"تَحۡكُمُونَ","translation":{"text":"তোমরা বিচার করো","language_name":"bengali","language_id":20},"transliteration":{"text":"taḥkumūna","language_name":"english","language_id":38}},{"id":80950,"position":5,"audio_url":null,"verse_key":"37:154","verse_id":3942,"location":"37:154:5","text_uthmani":"١٥٤","qpc_uthmani_hafs":"١٥٤","char_type_name":"end","page_number":452,"line_number":1,"text":"١٥٤","translation":{"text":"(১৫৪)","language_name":"bengali","language_id":20},"transliteration":{"text":null,"language_name":"english","language_id":38}}]},{"id":3943,"verse_number":155,"verse_key":"37:155","hizb_number":46,"rub_el_hizb_number":181,"ruku_number":392,"manzil_number":6,"sajdah_number":null,"page_number":452,"juz_number":23,"words":[{"id":81176,"position":1,"audio_url":"wbw/037_155_001.mp3","verse_key":"37:155","verse_id":3943,"location":"37:155:1","text_uthmani":"أَفَلَا","qpc_uthmani_hafs":"أَفَلَا","char_type_name":"word","page_number":452,"line_number":1,"text":"أَفَلَا","translation":{"text":"তবে কি না","language_name":"bengali","language_id":20},"transliteration":{"text":"afalā","language_name":"english","language_id":38}},{"id":81177,"position":2,"audio_url":"wbw/037_155_002.mp3","verse_key":"37:155","verse_id":3943,"location":"37:155:2","text_uthmani":"تَذَكَّرُونَ","qpc_uthmani_hafs":"تَذَكَّرُونَ","char_type_name":"word","page_number":452,"line_number":1,"text":"تَذَكَّرُونَ","translation":{"text":"তোমরা উপদেশ গ্রহণ করবে","language_name":"bengali","language_id":20},"transliteration":{"text":"tadhakkarūna","language_name":"english","language_id":38}},{"id":81178,"position":3,"audio_url":null,"verse_key":"37:155","verse_id":3943,"location":"37:155:3","text_uthmani":"١٥٥","qpc_uthmani_hafs":"١٥٥","char_type_name":"end","page_number":452,"line_number":1,"text":"١٥٥","translation":{"text":"(১৫৫)","language_name":"bengali","language_id":20},"transliteration":{"text":null,"language_name":"english","language_id":38}}]},{"id":3944,"verse_number":156,"verse_key":"37:156","hizb_number":46,"rub_el_hizb_number":181,"ruku_number":392,"manzil_number":6,"sajdah_number":null,"page_number":452,"juz_number":23,"words":[{"id":81214,"position":1,"audio_url":"wbw/037_156_001.mp3","verse_key":"37:156","verse_id":3944,"location":"37:156:1","text_uthmani":"أَمْ","qpc_uthmani_hafs":"أَمۡ","char_type_name":"word","page_number":452,"line_number":1,"text":"أَمۡ","translation":{"text":"অথবা","language_name":"bengali","language_id":20},"transliteration":{"text":"am","language_name":"english","language_id":38}},{"id":81215,"position":2,"audio_url":"wbw/037_156_002.mp3","verse_key":"37:156","verse_id":3944,"location":"37:156:2","text_uthmani":"لَكُمْ","qpc_uthmani_hafs":"لَكُمۡ","char_type_name":"word","page_number":452,"line_number":1,"text":"لَكُمۡ","translation":{"text":"তোমাদের (আছে)","language_name":"bengali","language_id":20},"transliteration":{"text":"lakum","language_name":"english","language_id":38}},{"id":81216,"position":3,"audio_url":"wbw/037_156_003.mp3","verse_key":"37:156","verse_id":3944,"location":"37:156:3","text_uthmani":"سُلْطَـٰنٌۭ","qpc_uthmani_hafs":"سُلۡطَٰنٞ","char_type_name":"word","page_number":452,"line_number":1,"text":"سُلۡطَٰنٞ","translation":{"text":"প্রমাণ","language_name":"bengali","language_id":20},"transliteration":{"text":"sul'ṭānun","language_name":"english","language_id":38}},{"id":81217,"position":4,"audio_url":"wbw/037_156_004.mp3","verse_key":"37:156","verse_id":3944,"location":"37:156:4","text_uthmani":"مُّبِينٌۭ","qpc_uthmani_hafs":"مُّبِينٞ","char_type_name":"word","page_number":452,"line_number":1,"text":"مُّبِينٞ","translation":{"text":"সুস্পষ্ট","language_name":"bengali","language_id":20},"transliteration":{"text":"mubīnun","language_name":"english","language_id":38}},{"id":81218,"position":5,"audio_url":null,"verse_key":"37:156","verse_id":3944,"location":"37:156:5","text_uthmani":"١٥٦","qpc_uthmani_hafs":"١٥٦","char_type_name":"end","page_number":452,"line_number":1,"text":"١٥٦","translation":{"text":"(১৫৬)","language_name":"bengali","language_id":20},"transliteration":{"text":null,"language_name":"english","language_id":38}}]},{"id":3945,"verse_number":157,"verse_key":"37:157","hizb_number":46,"rub_el_hizb_number":181,"ruku_number":392,"manzil_number":6,"sajdah_number":null,"page_number":452,"juz_number":23,"words":[{"id":81438,"position":1,"audio_url":"wbw/037_157_001.mp3","verse_key":"37:157","verse_id":3945,"location":"37:157:1","text_uthmani":"فَأْتُوا۟","qpc_uthmani_hafs":"فَأۡتُواْ","char_type_name":"word","page_number":452,"line_number":2,"text":"فَأۡتُواْ","translation":{"text":"তাহ'লে তোমরা আনো","language_name":"bengali","language_id":20},"transliteration":{"text":"fatū","language_name":"english","language_id":38}},{"id":81439,"position":2,"audio_url":"wbw/037_157_002.mp3","verse_key":"37:157","verse_id":3945,"location":"37:157:2","text_uthmani":"بِكِتَـٰبِكُمْ","qpc_uthmani_hafs":"بِكِتَٰبِكُمۡ","char_type_name":"word","page_number":452,"line_number":2,"text":"بِكِتَٰبِكُمۡ","translation":{"text":"তোমাদের কিতাব","language_name":"bengali","language_id":20},"transliteration":{"text":"bikitābikum","language_name":"english","language_id":38}},{"id":81440,"position":3,"audio_url":"wbw/037_157_003.mp3","verse_key":"37:157","verse_id":3945,"location":"37:157:3","text_uthmani":"إِن","qpc_uthmani_hafs":"إِن","char_type_name":"word","page_number":452,"line_number":2,"text":"إِن","translation":{"text":"যদি","language_name":"bengali","language_id":20},"transliteration":{"text":"in","language_name":"english","language_id":38}},{"id":81441,"position":4,"audio_url":"wbw/037_157_004.mp3","verse_key":"37:157","verse_id":3945,"location":"37:157:4","text_uthmani":"كُنتُمْ","qpc_uthmani_hafs":"كُنتُمۡ","char_type_name":"word","page_number":452,"line_number":2,"text":"كُنتُمۡ","translation":{"text":"তোমরা হও","language_name":"bengali","language_id":20},"transliteration":{"text":"kuntum","language_name":"english","language_id":38}},{"id":81442,"position":5,"audio_url":"wbw/037_157_005.mp3","verse_key":"37:157","verse_id":3945,"location":"37:157:5","text_uthmani":"صَـٰدِقِينَ","qpc_uthmani_hafs":"صَٰدِقِينَ","char_type_name":"word","page_number":452,"line_number":2,"text":"صَٰدِقِينَ","translation":{"text":"সত্যবাদী","language_name":"bengali","language_id":20},"transliteration":{"text":"ṣādiqīna","language_name":"english","language_id":38}},{"id":81443,"position":6,"audio_url":null,"verse_key":"37:157","verse_id":3945,"location":"37:157:6","text_uthmani":"١٥٧","qpc_uthmani_hafs":"١٥٧","char_type_name":"end","page_number":452,"line_number":2,"text":"١٥٧","translation":{"text":"(১৫৭)","language_name":"bengali","language_id":20},"transliteration":{"text":null,"language_name":"english","language_id":38}}]},{"id":3946,"verse_number":158,"verse_key":"37:158","hizb_number":46,"rub_el_hizb_number":181,"ruku_number":392,"manzil_number":6,"sajdah_number":null,"page_number":452,"juz_number":23,"words":[{"id":81615,"position":1,"audio_url":"wbw/037_158_001.mp3","verse_key":"37:158","verse_id":3946,"location":"37:158:1","text_uthmani":"وَجَعَلُوا۟","qpc_uthmani_hafs":"وَجَعَلُواْ","char_type_name":"word","page_number":452,"line_number":2,"text":"وَجَعَلُواْ","translation":{"text":"এবং তারা স্হির করেছে","language_name":"bengali","language_id":20},"transliteration":{"text":"wajaʿalū","language_name":"english","language_id":38}},{"id":81616,"position":2,"audio_url":"wbw/037_158_002.mp3","verse_key":"37:158","verse_id":3946,"location":"37:158:2","text_uthmani":"بَيْنَهُۥ","qpc_uthmani_hafs":"بَيۡنَهُۥ","char_type_name":"word","page_number":452,"line_number":2,"text":"بَيۡنَهُۥ","translation":{"text":"তাঁর মাঝে","language_name":"bengali","language_id":20},"transliteration":{"text":"baynahu","language_name":"english","language_id":38}},{"id":81617,"position":3,"audio_url":"wbw/037_158_003.mp3","verse_key":"37:158","verse_id":3946,"location":"37:158:3","text_uthmani":"وَبَيْنَ","qpc_uthmani_hafs":"وَبَيۡنَ","char_type_name":"word","page_number":452,"line_number":2,"text":"وَبَيۡنَ","translation":{"text":"ও মাঝে","language_name":"bengali","language_id":20},"transliteration":{"text":"wabayna","language_name":"english","language_id":38}},{"id":81618,"position":4,"audio_url":"wbw/037_158_004.mp3","verse_key":"37:158","verse_id":3946,"location":"37:158:4","text_uthmani":"ٱلْجِنَّةِ","qpc_uthmani_hafs":"ٱلۡجِنَّةِ","char_type_name":"word","page_number":452,"line_number":2,"text":"ٱلۡجِنَّةِ","translation":{"text":"জিনদের","language_name":"bengali","language_id":20},"transliteration":{"text":"l-jinati","language_name":"english","language_id":38}},{"id":81619,"position":5,"audio_url":"wbw/037_158_005.mp3","verse_key":"37:158","verse_id":3946,"location":"37:158:5","text_uthmani":"نَسَبًۭا ۚ","qpc_uthmani_hafs":"نَسَبٗاۚ","char_type_name":"word","page_number":452,"line_number":3,"text":"نَسَبٗاۚ","translation":{"text":"বংশীয় সম্পর্ক","language_name":"bengali","language_id":20},"transliteration":{"text":"nasaban","language_name":"english","language_id":38}},{"id":81621,"position":6,"audio_url":"wbw/037_158_007.mp3","verse_key":"37:158","verse_id":3946,"location":"37:158:6","text_uthmani":"وَلَقَدْ","qpc_uthmani_hafs":"وَلَقَدۡ","char_type_name":"word","page_number":452,"line_number":3,"text":"وَلَقَدۡ","translation":{"text":"অথচ নিশ্চয়ই","language_name":"bengali","language_id":20},"transliteration":{"text":"walaqad","language_name":"english","language_id":38}},{"id":81622,"position":7,"audio_url":"wbw/037_158_008.mp3","verse_key":"37:158","verse_id":3946,"location":"37:158:7","text_uthmani":"عَلِمَتِ","qpc_uthmani_hafs":"عَلِمَتِ","char_type_name":"word","page_number":452,"line_number":3,"text":"عَلِمَتِ","translation":{"text":"জেনেছে","language_name":"bengali","language_id":20},"transliteration":{"text":"ʿalimati","language_name":"english","language_id":38}},{"id":81623,"position":8,"audio_url":"wbw/037_158_009.mp3","verse_key":"37:158","verse_id":3946,"location":"37:158:8","text_uthmani":"ٱلْجِنَّةُ","qpc_uthmani_hafs":"ٱلۡجِنَّةُ","char_type_name":"word","page_number":452,"line_number":3,"text":"ٱلۡجِنَّةُ","translation":{"text":"জিনরা","language_name":"bengali","language_id":20},"transliteration":{"text":"l-jinatu","language_name":"english","language_id":38}},{"id":81624,"position":9,"audio_url":"wbw/037_158_010.mp3","verse_key":"37:158","verse_id":3946,"location":"37:158:9","text_uthmani":"إِنَّهُمْ","qpc_uthmani_hafs":"إِنَّهُمۡ","char_type_name":"word","page_number":452,"line_number":3,"text":"إِنَّهُمۡ","translation":{"text":"নিশ্চয়ই তাদেরকে","language_name":"bengali","language_id":20},"transliteration":{"text":"innahum","language_name":"english","language_id":38}},{"id":81625,"position":10,"audio_url":"wbw/037_158_011.mp3","verse_key":"37:158","verse_id":3946,"location":"37:158:10","text_uthmani":"لَمُحْضَرُونَ","qpc_uthmani_hafs":"لَمُحۡضَرُونَ","char_type_name":"word","page_number":452,"line_number":3,"text":"لَمُحۡضَرُونَ","translation":{"text":"অবশ্যই উপস্থিত করা হবে","language_name":"bengali","language_id":20},"transliteration":{"text":"lamuḥ'ḍarūna","language_name":"english","language_id":38}},{"id":81626,"position":11,"audio_url":null,"verse_key":"37:158","verse_id":3946,"location":"37:158:11","text_uthmani":"١٥٨","qpc_uthmani_hafs":"١٥٨","char_type_name":"end","page_number":452,"line_number":3,"text":"١٥٨","translation":{"text":"(১৫৮)","language_name":"bengali","language_id":20},"transliteration":{"text":null,"language_name":"english","language_id":38}}]},{"id":3947,"verse_number":159,"verse_key":"37:159","hizb_number":46,"rub_el_hizb_number":181,"ruku_number":392,"manzil_number":6,"sajdah_number":null,"page_number":452,"juz_number":23,"words":[{"id":81701,"position":1,"audio_url":"wbw/037_159_001.mp3","verse_key":"37:159","verse_id":3947,"location":"37:159:1","text_uthmani":"سُبْحَـٰنَ","qpc_uthmani_hafs":"سُبۡحَٰنَ","char_type_name":"word","page_number":452,"line_number":3,"text":"سُبۡحَٰنَ","translation":{"text":"পবিত্র","language_name":"bengali","language_id":20},"transliteration":{"text":"sub'ḥāna","language_name":"english","language_id":38}},{"id":81702,"position":2,"audio_url":"wbw/037_159_002.mp3","verse_key":"37:159","verse_id":3947,"location":"37:159:2","text_uthmani":"ٱللَّهِ","qpc_uthmani_hafs":"ٱللَّهِ","char_type_name":"word","page_number":452,"line_number":3,"text":"ٱللَّهِ","translation":{"text":"আল্লাহ","language_name":"bengali","language_id":20},"transliteration":{"text":"l-lahi","language_name":"english","language_id":38}},{"id":81703,"position":3,"audio_url":"wbw/037_159_003.mp3","verse_key":"37:159","verse_id":3947,"location":"37:159:3","text_uthmani":"عَمَّا","qpc_uthmani_hafs":"عَمَّا","char_type_name":"word","page_number":452,"line_number":3,"text":"عَمَّا","translation":{"text":"তা হ'তে যা","language_name":"bengali","language_id":20},"transliteration":{"text":"ʿammā","language_name":"english","language_id":38}},{"id":81704,"position":4,"audio_url":"wbw/037_159_004.mp3","verse_key":"37:159","verse_id":3947,"location":"37:159:4","text_uthmani":"يَصِفُونَ","qpc_uthmani_hafs":"يَصِفُونَ","char_type_name":"word","page_number":452,"line_number":4,"text":"يَصِفُونَ","translation":{"text":"তারা আরোপ করে","language_name":"bengali","language_id":20},"transliteration":{"text":"yaṣifūna","language_name":"english","language_id":38}},{"id":81705,"position":5,"audio_url":null,"verse_key":"37:159","verse_id":3947,"location":"37:159:5","text_uthmani":"١٥٩","qpc_uthmani_hafs":"١٥٩","char_type_name":"end","page_number":452,"line_number":4,"text":"١٥٩","translation":{"text":"(১৫৯)","language_name":"bengali","language_id":20},"transliteration":{"text":null,"language_name":"english","language_id":38}}]},{"id":3948,"verse_number":160,"verse_key":"37:160","hizb_number":46,"rub_el_hizb_number":181,"ruku_number":392,"manzil_number":6,"sajdah_number":null,"page_number":452,"juz_number":23,"words":[{"id":81741,"position":1,"audio_url":"wbw/037_160_001.mp3","verse_key":"37:160","verse_id":3948,"location":"37:160:1","text_uthmani":"إِلَّا","qpc_uthmani_hafs":"إِلَّا","char_type_name":"word","page_number":452,"line_number":4,"text":"إِلَّا","translation":{"text":"তবে ব্যতিক্রম","language_name":"bengali","language_id":20},"transliteration":{"text":"illā","language_name":"english","language_id":38}},{"id":81742,"position":2,"audio_url":"wbw/037_160_002.mp3","verse_key":"37:160","verse_id":3948,"location":"37:160:2","text_uthmani":"عِبَادَ","qpc_uthmani_hafs":"عِبَادَ","char_type_name":"word","page_number":452,"line_number":4,"text":"عِبَادَ","translation":{"text":"(ঐসব) দাস","language_name":"bengali","language_id":20},"transliteration":{"text":"ʿibāda","language_name":"english","language_id":38}},{"id":81743,"position":3,"audio_url":"wbw/037_160_003.mp3","verse_key":"37:160","verse_id":3948,"location":"37:160:3","text_uthmani":"ٱللَّهِ","qpc_uthmani_hafs":"ٱللَّهِ","char_type_name":"word","page_number":452,"line_number":4,"text":"ٱللَّهِ","translation":{"text":"আল্লাহর","language_name":"bengali","language_id":20},"transliteration":{"text":"l-lahi","language_name":"english","language_id":38}},{"id":81744,"position":4,"audio_url":"wbw/037_160_004.mp3","verse_key":"37:160","verse_id":3948,"location":"37:160:4","text_uthmani":"ٱلْمُخْلَصِينَ","qpc_uthmani_hafs":"ٱلۡمُخۡلَصِينَ","char_type_name":"word","page_number":452,"line_number":4,"text":"ٱلۡمُخۡلَصِينَ","translation":{"text":"(যারা) একনিষ্ঠ","language_name":"bengali","language_id":20},"transliteration":{"text":"l-mukh'laṣīna","language_name":"english","language_id":38}},{"id":81745,"position":5,"audio_url":null,"verse_key":"37:160","verse_id":3948,"location":"37:160:5","text_uthmani":"١٦٠","qpc_uthmani_hafs":"١٦٠","char_type_name":"end","page_number":452,"line_number":4,"text":"١٦٠","translation":{"text":"(১৬০)","language_name":"bengali","language_id":20},"transliteration":{"text":null,"language_name":"english","language_id":38}}]}],"pagination":{"per_page":10,"current_page":16,"next_page":17,"total_pages":19,"total_records":182}}
