{"verses":[{"id":3959,"verse_number":171,"verse_key":"37:171","hizb_number":46,"rub_el_hizb_number":181,"ruku_number":392,"manzil_number":6,"sajdah_number":null,"page_number":452,"juz_number":23,"words":[{"id":82986,"position":1,"audio_url":"wbw/037_171_001.mp3","verse_key":"37:171","verse_id":3959,"location":"37:171:1","text_uthmani":"وَلَقَدْ","qpc_uthmani_hafs":"وَلَقَدۡ","char_type_name":"word","page_number":452,"line_number":8,"text":"وَلَقَدۡ","translation":{"text":"এবং নিশ্চয়ই","language_name":"bengali","language_id":20},"transliteration":{"text":"walaqad","language_name":"english","language_id":38}},{"id":82987,"position":2,"audio_url":"wbw/037_171_002.mp3","verse_key":"37:171","verse_id":3959,"location":"37:171:2","text_uthmani":"سَبَقَتْ","qpc_uthmani_hafs":"سَبَقَتۡ","char_type_name":"word","page_number":452,"line_number":9,"text":"سَبَقَتۡ","translation":{"text":"পূর্বে স্থির হয়েছে","language_name":"bengali","language_id":20},"transliteration":{"text":"sabaqat","language_name":"english","language_id":38}},{"id":82988,"position":3,"audio_url":"wbw/037_171_003.mp3","verse_key":"37:171","verse_id":3959,"location":"37:171:3","text_uthmani":"كَلِمَتُنَا","qpc_uthmani_hafs":"كَلِمَتُنَا","char_type_name":"word","page_number":452,"line_number":9,"text":"كَلِمَتُنَا","translation":{"text":"আমাদের বাণী (ওয়াদা)","language_name":"bengali","language_id":20},"transliteration":{"text":"kalimatunā","language_name":"english","language_id":38}},{"id":82989,"position":4,"audio_url":"wbw/037_171_004.mp3","verse_key":"37:171","verse_id":3959,"location":"37:171:4","text_uthmani":"لِعِبَادِنَا","qpc_uthmani_hafs":"لِعِبَادِنَا","char_type_name":"word","page_number":452,"line_number":9,"text":"لِعِبَادِنَا","translation":{"text":"আমাদের দাসদের জন্যে","language_name":"bengali","language_id":20},"transliteration":{"text":"liʿibādinā","language_name":"english","language_id":38}},{"id":82990,"position":5,"audio_url":"wbw/037_171_005.mp3","verse_key":"37:171","verse_id":3959,"location":"37:171:5","text_uthmani":"ٱلْمُرْسَلِينَ","qpc_uthmani_hafs":"ٱلۡمُرۡسَلِينَ","char_type_name":"word","page_number":452,"line_number":9,"text":"ٱلۡمُرۡسَلِينَ","translation":{"text":"যারা প্রেরিত রাসূল","language_name":"bengali","language_id":20},"transliteration":{"text":"l-mur'salīna","language_name":"english","language_id":38}},{"id":82991,"position":6,"audio_url":null,"verse_key":"37:171","verse_id":3959,"location":"37:171:6","text_uthmani":"١٧١","qpc_uthmani_hafs":"١٧١","char_type_name":"end","page_number":452,"line_number":9,"text":"١٧١","translation":{"text":"(১৭১)","language_name":"bengali","language_id":20},"transliteration":{"text":null,"language_name":"english","language_id":38}}]},{"id":3960,"verse_number":172,"verse_key":"37:172","hizb_number":46,"rub_el_hizb_number":181,"ruku_number":392,"manzil_number":6,"sajdah_number":null,"page_number":452,"juz_number":23,"words":[{"id":83026,"position":1,"audio_url":"wbw/037_172_001.mp3","verse_key":"37:172","verse_id":3960,"location":"37:172:1","text_uthmani":"إِنَّهُمْ","qpc_uthmani_hafs":"إِنَّهُمۡ","char_type_name":"word","page_number":452,"line_number":9,"text":"إِنَّهُمۡ","translation":{"text":"(ঐ বিষয়ে যে) তারা নিশ্চয়ই","language_name":"bengali","language_id":20},"transliteration":{"text":"innahum","language_name":"english","language_id":38}},{"id":83027,"position":2,"audio_url":"wbw/037_172_002.mp3","verse_key":"37:172","verse_id":3960,"location":"37:172:2","text_uthmani":"لَهُمُ","qpc_uthmani_hafs":"لَهُمُ","char_type_name":"word","page_number":452,"line_number":9,"text":"لَهُمُ","translation":{"text":"তারাই","language_name":"bengali","language_id":20},"transliteration":{"text":"lahumu","language_name":"english","language_id":38}},{"id":83028,"position":3,"audio_url":"wbw/037_172_003.mp3","verse_key":"37:172","verse_id":3960,"location":"37:172:3","text_uthmani":"ٱلْمَنصُورُونَ","qpc_uthmani_hafs":"ٱلۡمَنصُورُونَ","char_type_name":"word","page_number":452,"line_number":9,"text":"ٱلۡمَنصُورُونَ","translation":{"text":"সাহায্যপ্রাপ্ত হবে","language_name":"bengali","language_id":20},"transliteration":{"text":"l-manṣūrūna","language_name":"english","language_id":38}},{"id":83029,"position":4,"audio_url":null,"verse_key":"37:172","verse_id":3960,"location":"37:172:4","text_uthmani":"١٧٢","qpc_uthmani_hafs":"١٧٢","char_type_name":"end","page_number":452,"line_number":9,"text":"١٧٢","translation":{"text":"(১৭২)","language_name":"bengali","language_id":20},"transliteration":{"text":null,"language_name":"english","language_id":38}}]},{"id":3961,"verse_number":173,"verse_key":"37:173","hizb_number":46,"rub_el_hizb_number":181,"ruku_number":392,"manzil_number":6,"sajdah_number":null,"page_number":452,"juz_number":23,"words":[{"id":83215,"position":1,"audio_url":"wbw/037_173_001.mp3","verse_key":"37:173","verse_id":3961,"location":"37:173:1","text_uthmani":"وَإِنَّ","qpc_uthmani_hafs":"وَإِنَّ","char_type_name":"word","page_number":452,"line_number":10,"text":"وَإِنَّ","translation":{"text":"এবং নিশ্চয়ই","language_name":"bengali","language_id":20},"transliteration":{"text":"wa-inna","language_name":"english","language_id":38}},{"id":83216,"position":2,"audio_url":"wbw/037_173_002.mp3","verse_key":"37:173","verse_id":3961,"location":"37:173:2","text_uthmani":"جُندَنَا","qpc_uthmani_hafs":"جُندَنَا","char_type_name":"word","page_number":452,"line_number":10,"text":"جُندَنَا","translation":{"text":"আমাদের সৈন্যরা","language_name":"bengali","language_id":20},"transliteration":{"text":"jundanā","language_name":"english","language_id":38}},{"id":83217,"position":3,"audio_url":"wbw/037_173_003.mp3","verse_key":"37:173","verse_id":3961,"location":"37:173:3","text_uthmani":"لَهُمُ","qpc_uthmani_hafs":"لَهُمُ","char_type_name":"word","page_number":452,"line_number":10,"text":"لَهُمُ","translation":{"text":"তারাই","language_name":"bengali","language_id":20},"transliteration":{"text":"lahumu","language_name":"english","language_id":38}},{"id":83218,"position":4,"audio_url":"wbw/037_173_004.mp3","verse_key":"37:173","verse_id":3961,"location":"37:173:4","text_uthmani":"ٱلْغَـٰلِبُونَ","qpc_uthmani_hafs":"ٱلۡغَٰلِبُونَ","char_type_name":"word","page_number":452,"line_number":10,"text":"ٱلۡغَٰلِبُونَ","translation":{"text":"বিজয়ী হবে","language_name":"bengali","language_id":20},"transliteration":{"text":"l-ghālibūna","language_name":"english","language_id":38}},{"id":83219,"position":5,"audio_url":null,"verse_key":"37:173","verse_id":3961,"location":"37:173:5","text_uthmani":"١٧٣","qpc_uthmani_hafs":"١٧٣","char_type_name":"end","page_number":452,"line_number":10,"text":"١٧٣","translation":{"text":"(১৭৩)","language_name":"bengali","language_id":20},"transliteration":{"text":null,"language_name":"english","language_id":38}}]},{"id":3962,"verse_number":174,"verse_key":"37:174","hizb_number":46,"rub_el_hizb_number":181,"ruku_number":392,"manzil_number":6,"sajdah_number":null,"page_number":452,"juz_number":23,"words":[{"id":83296,"position":1,"audio_url":"wbw/037_174_001.mp3","verse_key":"37:174","verse_id":3962,"location":"37:174:1","text_uthmani":"فَتَوَلَّ","qpc_uthmani_hafs":"فَتَوَلَّ","char_type_name":"word","page_number":452,"line_number":10,"text":"فَتَوَلَّ","translation":{"text":"সুতরাং উপেক্ষা করো","language_name":"bengali","language_id":20},"transliteration":{"text":"fatawalla","language_name":"english","language_id":38}},{"id":83297,"position":2,"audio_url":"wbw/037_174_002.mp3","verse_key":"37:174","verse_id":3962,"location":"37:174:2","text_uthmani":"عَنْهُمْ","qpc_uthmani_hafs":"عَنۡهُمۡ","char_type_name":"word","page_number":452,"line_number":10,"text":"عَنۡهُمۡ","translation":{"text":"তাদেরকে","language_name":"bengali","language_id":20},"transliteration":{"text":"ʿanhum","language_name":"english","language_id":38}},{"id":83298,"position":3,"audio_url":"wbw/037_174_003.mp3","verse_key":"37:174","verse_id":3962,"location":"37:174:3","text_uthmani":"حَتَّىٰ","qpc_uthmani_hafs":"حَتَّىٰ","char_type_name":"word","page_number":452,"line_number":10,"text":"حَتَّىٰ","translation":{"text":"পর্যন্ত","language_name":"bengali","language_id":20},"transliteration":{"text":"ḥattā","language_name":"english","language_id":38}},{"id":83299,"position":4,"audio_url":"wbw/037_174_004.mp3","verse_key":"37:174","verse_id":3962,"location":"37:174:4","text_uthmani":"حِينٍۢ","qpc_uthmani_hafs":"حِينٖ","char_type_name":"word","page_number":452,"line_number":10,"text":"حِينٖ","translation":{"text":"কিছুকাল","language_name":"bengali","language_id":20},"transliteration":{"text":"ḥīnin","language_name":"english","language_id":38}},{"id":83300,"position":5,"audio_url":null,"verse_key":"37:174","verse_id":3962,"location":"37:174:5","text_uthmani":"١٧٤","qpc_uthmani_hafs":"١٧٤","char_type_name":"end","page_number":452,"line_number":10,"text":"١٧٤","translation":{"text":"(১৭৪)","language_name":"bengali","language_id":20},"transliteration":{"text":null,"language_name":"english","language_id":38}}]},{"id":3963,"verse_number":175,"verse_key":"37:175","hizb_number":46,"rub_el_hizb_number":181,"ruku_number":392,"manzil_number":6,"sajdah_number":null,"page_number":452,"juz_number":23,"words":[{"id":83301,"position":1,"audio_url":"wbw/037_175_001.mp3","verse_key":"37:175","verse_id":3963,"location":"37:175:1","text_uthmani":"وَأَبْصِرْهُمْ","qpc_uthmani_hafs":"وَأَبۡصِرۡهُمۡ","char_type_name":"word","page_number":452,"line_number":10,"text":"وَأَبۡصِرۡهُمۡ","translation":{"text":"এবং দেখতে থাকো তাদেরকে","language_name":"bengali","language_id":20},"transliteration":{"text":"wa-abṣir'hum","language_name":"english","language_id":38}},{"id":83302,"position":2,"audio_url":"wbw/037_175_002.mp3","verse_key":"37:175","verse_id":3963,"location":"37:175:2","text_uthmani":"فَسَوْفَ","qpc_uthmani_hafs":"فَسَوۡفَ","char_type_name":"word","page_number":452,"line_number":11,"text":"فَسَوۡفَ","translation":{"text":"অতঃপর শীঘ্রই","language_name":"bengali","language_id":20},"transliteration":{"text":"fasawfa","language_name":"english","language_id":38}},{"id":83303,"position":3,"audio_url":"wbw/037_175_003.mp3","verse_key":"37:175","verse_id":3963,"location":"37:175:3","text_uthmani":"يُبْصِرُونَ","qpc_uthmani_hafs":"يُبۡصِرُونَ","char_type_name":"word","page_number":452,"line_number":11,"text":"يُبۡصِرُونَ","translation":{"text":"তারাই দেখবে","language_name":"bengali","language_id":20},"transliteration":{"text":"yub'ṣirūna","language_name":"english","language_id":38}},{"id":83304,"position":4,"audio_url":null,"verse_key":"37:175","verse_id":3963,"location":"37:175:4","text_uthmani":"١٧٥","qpc_uthmani_hafs":"١٧٥","char_type_name":"end","page_number":452,"line_number":11,"text":"١٧٥","translation":{"text":"(১৭৫)","language_name":"bengali","language_id":20},"transliteration":{"text":null,"language_name":"english","language_id":38}}]},{"id":3964,"verse_number":176,"verse_key":"37:176","hizb_number":46,"rub_el_hizb_number":181,"ruku_number":392,"manzil_number":6,"sajdah_number":null,"page_number":452,"juz_number":23,"words":[{"id":83382,"position":1,"audio_url":"wbw/037_176_001.mp3","verse_key":"37:176","verse_id":3964,"location":"37:176:1","text_uthmani":"أَفَبِعَذَابِنَا","qpc_uthmani_hafs":"أَفَبِعَذَابِنَا","char_type_name":"word","page_number":452,"line_number":11,"text":"أَفَبِعَذَابِنَا","translation":{"text":"আমাদের শাস্তি সম্পর্কে তবে কি","language_name":"bengali","language_id":20},"transliteration":{"text":"afabiʿadhābinā","language_name":"english","language_id":38}},{"id":83383,"position":2,"audio_url":"wbw/037_176_002.mp3","verse_key":"37:176","verse_id":3964,"location":"37:176:2","text_uthmani":"يَسْتَعْجِلُونَ","qpc_uthmani_hafs":"يَسۡتَعۡجِلُونَ","char_type_name":"word","page_number":452,"line_number":11,"text":"يَسۡتَعۡجِلُونَ","translation":{"text":"তারা তাড়াহুড়া করছে","language_name":"bengali","language_id":20},"transliteration":{"text":"yastaʿjilūna","language_name":"english","language_id":38}},{"id":83384,"position":3,"audio_url":null,"verse_key":"37:176","verse_id":3964,"location":"37:176:3","text_uthmani":"١٧٦","qpc_uthmani_hafs":"١٧٦","char_type_name":"end","page_number":452,"line_number":11,"text":"١٧٦","translation":{"text":"(১৭৬)","language_name":"bengali","language_id":20},"transliteration":{"text":null,"language_name":"english","language_id":38}}]},{"id":3965,"verse_number":177,"verse_key":"37:177","hizb_number":46,"rub_el_hizb_number":181,"ruku_number":392,"manzil_number":6,"sajdah_number":null,"page_number":452,"juz_number":23,"words":[{"id":83583,"position":1,"audio_url":"wbw/037_177_001.mp3","verse_key":"37:177","verse_id":3965,"location":"37:177:1","text_uthmani":"فَإِذَا","qpc_uthmani_hafs":"فَإِذَا","char_type_name":"word","page_number":452,"line_number":11,"text":"فَإِذَا","translation":{"text":"অতঃপর যখন","language_name":"bengali","language_id":20},"transliteration":{"text":"fa-idhā","language_name":"english","language_id":38}},{"id":83584,"position":2,"audio_url":"wbw/037_177_002.mp3","verse_key":"37:177","verse_id":3965,"location":"37:177:2","text_uthmani":"نَزَلَ","qpc_uthmani_hafs":"نَزَلَ","char_type_name":"word","page_number":452,"line_number":11,"text":"نَزَلَ","translation":{"text":"নেমে আসবে (তা)","language_name":"bengali","language_id":20},"transliteration":{"text":"nazala","language_name":"english","language_id":38}},{"id":83585,"position":3,"audio_url":"wbw/037_177_003.mp3","verse_key":"37:177","verse_id":3965,"location":"37:177:3","text_uthmani":"بِسَاحَتِهِمْ","qpc_uthmani_hafs":"بِسَاحَتِهِمۡ","char_type_name":"word","page_number":452,"line_number":11,"text":"بِسَاحَتِهِمۡ","translation":{"text":"তাদের আঙ্গিনায়","language_name":"bengali","language_id":20},"transliteration":{"text":"bisāḥatihim","language_name":"english","language_id":38}},{"id":83586,"position":4,"audio_url":"wbw/037_177_004.mp3","verse_key":"37:177","verse_id":3965,"location":"37:177:4","text_uthmani":"فَسَآءَ","qpc_uthmani_hafs":"فَسَآءَ","char_type_name":"word","page_number":452,"line_number":12,"text":"فَسَآءَ","translation":{"text":"কত মন্দ হবে তখন","language_name":"bengali","language_id":20},"transliteration":{"text":"fasāa","language_name":"english","language_id":38}},{"id":83587,"position":5,"audio_url":"wbw/037_177_005.mp3","verse_key":"37:177","verse_id":3965,"location":"37:177:5","text_uthmani":"صَبَاحُ","qpc_uthmani_hafs":"صَبَاحُ","char_type_name":"word","page_number":452,"line_number":12,"text":"صَبَاحُ","translation":{"text":"প্রভাত","language_name":"bengali","language_id":20},"transliteration":{"text":"ṣabāḥu","language_name":"english","language_id":38}},{"id":83588,"position":6,"audio_url":"wbw/037_177_006.mp3","verse_key":"37:177","verse_id":3965,"location":"37:177:6","text_uthmani":"ٱلْمُنذَرِينَ","qpc_uthmani_hafs":"ٱلۡمُنذَرِينَ","char_type_name":"word","page_number":452,"line_number":12,"text":"ٱلۡمُنذَرِينَ","translation":{"text":"সতর্কীকৃতদের","language_name":"bengali","language_id":20},"transliteration":{"text":"l-mundharīna","language_name":"english","language_id":38}},{"id":83589,"position":7,"audio_url":null,"verse_key":"37:177","verse_id":3965,"location":"37:177:7","text_uthmani":"١٧٧","qpc_uthmani_hafs":"١٧٧","char_type_name":"end","page_number":452,"line_number":12,"text":"١٧٧","translation":{"text":"(১৭৭)","language_name":"bengali","language_id":20},"transliteration":{"text":null,"language_name":"english","language_id":38}}]},{"id":3966,"verse_number":178,"verse_key":"37:178","hizb_number":46,"rub_el_hizb_number":181,"ruku_number":392,"manzil_number":6,"sajdah_number":null,"page_number":452,"juz_number":23,"words":[{"id":83605,"position":1,"audio_url":"wbw/037_178_001.mp3","verse_key":"37:178","verse_id":3966,"location":"37:178:1","text_uthmani":"وَتَوَلَّ","qpc_uthmani_hafs":"وَتَوَلَّ","char_type_name":"word","page_number":452,"line_number":12,"text":"وَتَوَلَّ","translation":{"text":"উপেক্ষা করো এবং","language_name":"bengali","language_id":20},"transliteration":{"text":"watawalla","language_name":"english","language_id":38}},{"id":83606,"position":2,"audio_url":"wbw/037_178_002.mp3","verse_key":"37:178","verse_id":3966,"location":"37:178:2","text_uthmani":"عَنْهُمْ","qpc_uthmani_hafs":"عَنۡهُمۡ","char_type_name":"word","page_number":452,"line_number":12,"text":"عَنۡهُمۡ","translation":{"text":"তাদেরকে","language_name":"bengali","language_id":20},"transliteration":{"text":"ʿanhum","language_name":"english","language_id":38}},{"id":83607,"position":3,"audio_url":"wbw/037_178_003.mp3","verse_key":"37:178","verse_id":3966,"location":"37:178:3","text_uthmani":"حَتَّىٰ","qpc_uthmani_hafs":"حَتَّىٰ","char_type_name":"word","page_number":452,"line_number":12,"text":"حَتَّىٰ","translation":{"text":"পর্যন্ত","language_name":"bengali","language_id":20},"transliteration":{"text":"ḥattā","language_name":"english","language_id":38}},{"id":83608,"position":4,"audio_url":"wbw/037_178_004.mp3","verse_key":"37:178","verse_id":3966,"location":"37:178:4","text_uthmani":"حِينٍۢ","qpc_uthmani_hafs":"حِينٖ","char_type_name":"word","page_number":452,"line_number":12,"text":"حِينٖ","translation":{"text":"কিছুুকাল","language_name":"bengali","language_id":20},"transliteration":{"text":"ḥīnin","language_name":"english","language_id":38}},{"id":83609,"position":5,"audio_url":null,"verse_key":"37:178","verse_id":3966,"location":"37:178:5","text_uthmani":"١٧٨","qpc_uthmani_hafs":"١٧٨","char_type_name":"end","page_number":452,"line_number":12,"text":"١٧٨","translation":{"text":"(১৭৮)","language_name":"bengali","language_id":20},"transliteration":{"text":null,"language_name":"english","language_id":38}}]},{"id":3967,"verse_number":179,"verse_key":"37:179","hizb_number":46,"rub_el_hizb_number":181,"ruku_number":392,"manzil_number":6,"sajdah_number":null,"page_number":452,"juz_number":23,"words":[{"id":83771,"position":1,"audio_url":"wbw/037_179_001.mp3","verse_key":"37:179","verse_id":3967,"location":"37:179:1","text_uthmani":"وَأَبْصِرْ","qpc_uthmani_hafs":"وَأَبۡصِرۡ","char_type_name":"word","page_number":452,"line_number":12,"text":"وَأَبۡصِرۡ","translation":{"text":"আর দেখতে থাকো","language_name":"bengali","language_id":20},"transliteration":{"text":"wa-abṣir","language_name":"english","language_id":38}},{"id":83772,"position":2,"audio_url":"wbw/037_179_002.mp3","verse_key":"37:179","verse_id":3967,"location":"37:179:2","text_uthmani":"فَسَوْفَ","qpc_uthmani_hafs":"فَسَوۡفَ","char_type_name":"word","page_number":452,"line_number":13,"text":"فَسَوۡفَ","translation":{"text":"শীঘ্র্রই","language_name":"bengali","language_id":20},"transliteration":{"text":"fasawfa","language_name":"english","language_id":38}},{"id":83773,"position":3,"audio_url":"wbw/037_179_003.mp3","verse_key":"37:179","verse_id":3967,"location":"37:179:3","text_uthmani":"يُبْصِرُونَ","qpc_uthmani_hafs":"يُبۡصِرُونَ","char_type_name":"word","page_number":452,"line_number":13,"text":"يُبۡصِرُونَ","translation":{"text":"তারাও দেখতে পাবে","language_name":"bengali","language_id":20},"transliteration":{"text":"yub'ṣirūna","language_name":"english","language_id":38}},{"id":83774,"position":4,"audio_url":null,"verse_key":"37:179","verse_id":3967,"location":"37:179:4","text_uthmani":"١٧٩","qpc_uthmani_hafs":"١٧٩","char_type_name":"end","page_number":452,"line_number":13,"text":"١٧٩","translation":{"text":"(১৭৯)","language_name":"bengali","language_id":20},"transliteration":{"text":null,"language_name":"english","language_id":38}}]},{"id":3968,"verse_number":180,"verse_key":"37:180","hizb_number":46,"rub_el_hizb_number":181,"ruku_number":392,"manzil_number":6,"sajdah_number":null,"page_number":452,"juz_number":23,"words":[{"id":83805,"position":1,"audio_url":"wbw/037_180_001.mp3","verse_key":"37:180","verse_id":3968,"location":"37:180:1","text_uthmani":"سُبْحَـٰنَ","qpc_uthmani_hafs":"سُبۡحَٰنَ","char_type_name":"word","page_number":452,"line_number":13,"text":"سُبۡحَٰنَ","translation":{"text":"পবিত্র","language_name":"bengali","language_id":20},"transliteration":{"text":"sub'ḥāna","language_name":"english","language_id":38}},{"id":83806,"position":2,"audio_url":"wbw/037_180_002.mp3","verse_key":"37:180","verse_id":3968,"location":"37:180:2","text_uthmani":"رَبِّكَ","qpc_uthmani_hafs":"رَبِّكَ","char_type_name":"word","page_number":452,"line_number":13,"text":"رَبِّكَ","translation":{"text":"তোমার রব","language_name":"bengali","language_id":20},"transliteration":{"text":"rabbika","language_name":"english","language_id":38}},{"id":83807,"position":3,"audio_url":"wbw/037_180_003.mp3","verse_key":"37:180","verse_id":3968,"location":"37:180:3","text_uthmani":"رَبِّ","qpc_uthmani_hafs":"رَبِّ","char_type_name":"word","page_number":452,"line_number":13,"text":"رَبِّ","translation":{"text":"রব","language_name":"bengali","language_id":20},"transliteration":{"text":"rabbi","language_name":"english","language_id":38}},{"id":83808,"position":4,"audio_url":"wbw/037_180_004.mp3","verse_key":"37:180","verse_id":3968,"location":"37:180:4","text_uthmani":"ٱلْعِزَّةِ","qpc_uthmani_hafs":"ٱلۡعِزَّةِ","char_type_name":"word","page_number":452,"line_number":13,"text":"ٱلۡعِزَّةِ","translation":{"text":"সম্মানের (মালিক)","language_name":"bengali","language_id":20},"transliteration":{"text":"l-ʿizati","language_name":"english","language_id":38}},{"id":83809,"position":5,"audio_url":"wbw/037_180_005.mp3","verse_key":"37:180","verse_id":3968,"location":"37:180:5","text_uthmani":"عَمَّا","qpc_uthmani_hafs":"عَمَّا","char_type_name":"word","page_number":452,"line_number":13,"text":"عَمَّا","translation":{"text":"তাহ'তে যা","language_name":"bengali","language_id":20},"transliteration":{"text":"ʿammā","language_name":"english","language_id":38}},{"id":83810,"position":6,"audio_url":"wbw/037_180_006.mp3","verse_key":"37:180","verse_id":3968,"location":"37:180:6","text_uthmani":"يَصِفُونَ","qpc_uthmani_hafs":"يَصِفُونَ","char_type_name":"word","page_number":452,"line_number":13,"text":"يَصِفُونَ","translation":{"text":"তারা আরোপ করে","language_name":"bengali","language_id":20},"transliteration":{"text":"yaṣifūna","language_name":"english","language_id":38}},{"id":83811,"position":7,"audio_url":null,"verse_key":"37:180","verse_id":3968,"location":"37:180:7","text_uthmani":"١٨٠","qpc_uthmani_hafs":"١٨٠","char_type_name":"end","page_number":452,"line_number":14,"text":"١٨٠","translation":{"text":"(১৮০)","language_name":"bengali","language_id":20},"transliteration":{"text":null,"language_name":"english","language_id":38}}]}],"pagination":{"per_page":10,"current_page":18,"next_page":19,"total_pages":19,"total_records":182}}
