{"verses":[{"id":3969,"verse_number":181,"verse_key":"37:181","hizb_number":46,"rub_el_hizb_number":181,"ruku_number":392,"manzil_number":6,"sajdah_number":null,"page_number":452,"juz_number":23,"words":[{"id":83921,"position":1,"audio_url":"wbw/037_181_001.mp3","verse_key":"37:181","verse_id":3969,"location":"37:181:1","text_uthmani":"وَسَلَـٰمٌ","qpc_uthmani_hafs":"وَسَلَٰمٌ","char_type_name":"word","page_number":452,"line_number":14,"text":"وَسَلَٰمٌ","translation":{"text":"এবং শান্তি (বর্ষিত হোক)","language_name":"bengali","language_id":20},"transliteration":{"text":"wasalāmun","language_name":"english","language_id":38}},{"id":83922,"position":2,"audio_url":"wbw/037_181_002.mp3","verse_key":"37:181","verse_id":3969,"location":"37:181:2","text_uthmani":"عَلَى","qpc_uthmani_hafs":"عَلَى","char_type_name":"word","page_number":452,"line_number":14,"text":"عَلَى","translation":{"text":"উপর","language_name":"bengali","language_id":20},"transliteration":{"text":"ʿalā","language_name":"english","language_id":38}},{"id":83923,"position":3,"audio_url":"wbw/037_181_003.mp3","verse_key":"37:181","verse_id":3969,"location":"37:181:3","text_uthmani":"ٱلْمُرْسَلِينَ","qpc_uthmani_hafs":"ٱلۡمُرۡسَلِينَ","char_type_name":"word","page_number":452,"line_number":14,"text":"ٱلۡمُرۡسَلِينَ","translation":{"text":"রাসূলদের","language_name":"bengali","language_id":20},"transliteration":{"text":"l-mur'salīna","language_name":"english","language_id":38}},{"id":83924,"position":4,"audio_url":null,"verse_key":"37:181","verse_id":3969,"location":"37:181:4","text_uthmani":"١٨١","qpc_uthmani_hafs":"١٨١","char_type_name":"end","page_number":452,"line_number":14,"text":"١٨١","translation":{"text":"(১৮১)","language_name":"bengali","language_id":20},"transliteration":{"text":null,"language_name":"english","language_id":38}}]},{"id":3970,"verse_number":182,"verse_key":"37:182","hizb_number":46,"rub_el_hizb_number":181,"ruku_number":392,"manzil_number":6,"sajdah_number":null,"page_number":452,"juz_number":23,"words":[{"id":83956,"position":1,"audio_url":"wbw/037_182_001.mp3","verse_key":"37:182","verse_id":3970,"location":"37:182:1","text_uthmani":"وَٱلْحَمْدُ","qpc_uthmani_hafs":"وَٱلۡحَمۡدُ","char_type_name":"word","page_number":452,"line_number":14,"text":"وَٱلۡحَمۡدُ","translation":{"text":"এবং সমস্ত প্রশংসা","language_name":"bengali","language_id":20},"transliteration":{"text":"wal-ḥamdu","language_name":"english","language_id":38}},{"id":83957,"position":2,"audio_url":"wbw/037_182_002.mp3","verse_key":"37:182","verse_id":3970,"location":"37:182:2","text_uthmani":"لِلَّهِ","qpc_uthmani_hafs":"لِلَّهِ","char_type_name":"word","page_number":452,"line_number":14,"text":"لِلَّهِ","translation":{"text":"আল্লাহরই","language_name":"bengali","language_id":20},"transliteration":{"text":"lillahi","language_name":"english","language_id":38}},{"id":83958,"position":3,"audio_url":"wbw/037_182_003.mp3","verse_key":"37:182","verse_id":3970,"location":"37:182:3","text_uthmani":"رَبِّ","qpc_uthmani_hafs":"رَبِّ","char_type_name":"word","page_number":452,"line_number":14,"text":"رَبِّ","translation":{"text":"(যিনি) রব","language_name":"bengali","language_id":20},"transliteration":{"text":"rabbi","language_name":"english","language_id":38}},{"id":83959,"position":4,"audio_url":"wbw/037_182_004.mp3","verse_key":"37:182","verse_id":3970,"location":"37:182:4","text_uthmani":"ٱلْعَـٰلَمِينَ","qpc_uthmani_hafs":"ٱلۡعَٰلَمِينَ","char_type_name":"word","page_number":452,"line_number":14,"text":"ٱلۡعَٰلَمِينَ","translation":{"text":"বিশ্বজগতের","language_name":"bengali","language_id":20},"transliteration":{"text":"l-ʿālamīna","language_name":"english","language_id":38}},{"id":83960,"position":5,"audio_url":null,"verse_key":"37:182","verse_id":3970,"location":"37:182:5","text_uthmani":"١٨٢","qpc_uthmani_hafs":"١٨٢","char_type_name":"end","page_number":452,"line_number":14,"text":"١٨٢","translation":{"text":"(১৮২)","language_name":"bengali","language_id":20},"transliteration":{"text":null,"language_name":"english","language_id":38}}]}],"pagination":{"per_page":10,"current_page":19,"next_page":null,"total_pages":19,"total_records":182}}
