{"verses":[{"id":3799,"verse_number":11,"verse_key":"37:11","hizb_number":45,"rub_el_hizb_number":178,"ruku_number":388,"manzil_number":6,"sajdah_number":null,"page_number":446,"juz_number":23,"words":[{"id":13314,"position":1,"audio_url":"wbw/037_011_001.mp3","verse_key":"37:11","verse_id":3799,"location":"37:11:1","text_uthmani":"فَٱسْتَفْتِهِمْ","qpc_uthmani_hafs":"فَٱسۡتَفۡتِهِمۡ","char_type_name":"word","page_number":446,"line_number":7,"text":"فَٱسۡتَفۡتِهِمۡ","translation":{"text":"তাদেরকে অতঃপর জিজ্ঞেস করো","language_name":"bengali","language_id":20},"transliteration":{"text":"fa-is'taftihim","language_name":"english","language_id":38}},{"id":13315,"position":2,"audio_url":"wbw/037_011_002.mp3","verse_key":"37:11","verse_id":3799,"location":"37:11:2","text_uthmani":"أَهُمْ","qpc_uthmani_hafs":"أَهُمۡ","char_type_name":"word","page_number":446,"line_number":7,"text":"أَهُمۡ","translation":{"text":"\"তারা কি","language_name":"bengali","language_id":20},"transliteration":{"text":"ahum","language_name":"english","language_id":38}},{"id":13316,"position":3,"audio_url":"wbw/037_011_003.mp3","verse_key":"37:11","verse_id":3799,"location":"37:11:3","text_uthmani":"أَشَدُّ","qpc_uthmani_hafs":"أَشَدُّ","char_type_name":"word","page_number":446,"line_number":7,"text":"أَشَدُّ","translation":{"text":"বেশী কঠিন","language_name":"bengali","language_id":20},"transliteration":{"text":"ashaddu","language_name":"english","language_id":38}},{"id":13317,"position":4,"audio_url":"wbw/037_011_004.mp3","verse_key":"37:11","verse_id":3799,"location":"37:11:4","text_uthmani":"خَلْقًا","qpc_uthmani_hafs":"خَلۡقًا","char_type_name":"word","page_number":446,"line_number":7,"text":"خَلۡقًا","translation":{"text":"সৃষ্টি হিসেবে","language_name":"bengali","language_id":20},"transliteration":{"text":"khalqan","language_name":"english","language_id":38}},{"id":13318,"position":5,"audio_url":"wbw/037_011_005.mp3","verse_key":"37:11","verse_id":3799,"location":"37:11:5","text_uthmani":"أَم","qpc_uthmani_hafs":"أَم","char_type_name":"word","page_number":446,"line_number":7,"text":"أَم","translation":{"text":"অথবা","language_name":"bengali","language_id":20},"transliteration":{"text":"am","language_name":"english","language_id":38}},{"id":13319,"position":6,"audio_url":"wbw/037_011_006.mp3","verse_key":"37:11","verse_id":3799,"location":"37:11:6","text_uthmani":"مَّنْ","qpc_uthmani_hafs":"مَّنۡ","char_type_name":"word","page_number":446,"line_number":8,"text":"مَّنۡ","translation":{"text":"(অন্য) যা কিছু","language_name":"bengali","language_id":20},"transliteration":{"text":"man","language_name":"english","language_id":38}},{"id":13320,"position":7,"audio_url":"wbw/037_011_007.mp3","verse_key":"37:11","verse_id":3799,"location":"37:11:7","text_uthmani":"خَلَقْنَآ ۚ","qpc_uthmani_hafs":"خَلَقۡنَآۚ","char_type_name":"word","page_number":446,"line_number":8,"text":"خَلَقۡنَآۚ","translation":{"text":"আমরা সৃষ্টি করেছি\"","language_name":"bengali","language_id":20},"transliteration":{"text":"khalaqnā","language_name":"english","language_id":38}},{"id":13322,"position":8,"audio_url":"wbw/037_011_009.mp3","verse_key":"37:11","verse_id":3799,"location":"37:11:8","text_uthmani":"إِنَّا","qpc_uthmani_hafs":"إِنَّا","char_type_name":"word","page_number":446,"line_number":8,"text":"إِنَّا","translation":{"text":"নিশ্চয়ই আমরা","language_name":"bengali","language_id":20},"transliteration":{"text":"innā","language_name":"english","language_id":38}},{"id":13323,"position":9,"audio_url":"wbw/037_011_010.mp3","verse_key":"37:11","verse_id":3799,"location":"37:11:9","text_uthmani":"خَلَقْنَـٰهُم","qpc_uthmani_hafs":"خَلَقۡنَٰهُم","char_type_name":"word","page_number":446,"line_number":8,"text":"خَلَقۡنَٰهُم","translation":{"text":"তাদেরকে আমরা সৃষ্টি করেছি","language_name":"bengali","language_id":20},"transliteration":{"text":"khalaqnāhum","language_name":"english","language_id":38}},{"id":13324,"position":10,"audio_url":"wbw/037_011_011.mp3","verse_key":"37:11","verse_id":3799,"location":"37:11:10","text_uthmani":"مِّن","qpc_uthmani_hafs":"مِّن","char_type_name":"word","page_number":446,"line_number":8,"text":"مِّن","translation":{"text":"থেকে","language_name":"bengali","language_id":20},"transliteration":{"text":"min","language_name":"english","language_id":38}},{"id":13325,"position":11,"audio_url":"wbw/037_011_012.mp3","verse_key":"37:11","verse_id":3799,"location":"37:11:11","text_uthmani":"طِينٍۢ","qpc_uthmani_hafs":"طِينٖ","char_type_name":"word","page_number":446,"line_number":8,"text":"طِينٖ","translation":{"text":"মাটি","language_name":"bengali","language_id":20},"transliteration":{"text":"ṭīnin","language_name":"english","language_id":38}},{"id":13326,"position":12,"audio_url":"wbw/037_011_013.mp3","verse_key":"37:11","verse_id":3799,"location":"37:11:12","text_uthmani":"لَّازِبٍۭ","qpc_uthmani_hafs":"لَّازِبِۭ","char_type_name":"word","page_number":446,"line_number":8,"text":"لَّازِبِۭ","translation":{"text":"(যা) এঁটেল","language_name":"bengali","language_id":20},"transliteration":{"text":"lāzibin","language_name":"english","language_id":38}},{"id":13327,"position":13,"audio_url":null,"verse_key":"37:11","verse_id":3799,"location":"37:11:13","text_uthmani":"١١","qpc_uthmani_hafs":"١١","char_type_name":"end","page_number":446,"line_number":8,"text":"١١","translation":{"text":"(১১)","language_name":"bengali","language_id":20},"transliteration":{"text":null,"language_name":"english","language_id":38}}]},{"id":3800,"verse_number":12,"verse_key":"37:12","hizb_number":45,"rub_el_hizb_number":178,"ruku_number":388,"manzil_number":6,"sajdah_number":null,"page_number":446,"juz_number":23,"words":[{"id":14607,"position":1,"audio_url":"wbw/037_012_001.mp3","verse_key":"37:12","verse_id":3800,"location":"37:12:1","text_uthmani":"بَلْ","qpc_uthmani_hafs":"بَلۡ","char_type_name":"word","page_number":446,"line_number":8,"text":"بَلۡ","translation":{"text":"বরং","language_name":"bengali","language_id":20},"transliteration":{"text":"bal","language_name":"english","language_id":38}},{"id":14608,"position":2,"audio_url":"wbw/037_012_002.mp3","verse_key":"37:12","verse_id":3800,"location":"37:12:2","text_uthmani":"عَجِبْتَ","qpc_uthmani_hafs":"عَجِبۡتَ","char_type_name":"word","page_number":446,"line_number":8,"text":"عَجِبۡتَ","translation":{"text":"তুমি অবাক হচ্ছো","language_name":"bengali","language_id":20},"transliteration":{"text":"ʿajib'ta","language_name":"english","language_id":38}},{"id":14609,"position":3,"audio_url":"wbw/037_012_003.mp3","verse_key":"37:12","verse_id":3800,"location":"37:12:3","text_uthmani":"وَيَسْخَرُونَ","qpc_uthmani_hafs":"وَيَسۡخَرُونَ","char_type_name":"word","page_number":446,"line_number":8,"text":"وَيَسۡخَرُونَ","translation":{"text":"আর তারা বিদ্রূপ করছে","language_name":"bengali","language_id":20},"transliteration":{"text":"wayaskharūna","language_name":"english","language_id":38}},{"id":14610,"position":4,"audio_url":null,"verse_key":"37:12","verse_id":3800,"location":"37:12:4","text_uthmani":"١٢","qpc_uthmani_hafs":"١٢","char_type_name":"end","page_number":446,"line_number":9,"text":"١٢","translation":{"text":"(১২)","language_name":"bengali","language_id":20},"transliteration":{"text":null,"language_name":"english","language_id":38}}]},{"id":3801,"verse_number":13,"verse_key":"37:13","hizb_number":45,"rub_el_hizb_number":178,"ruku_number":388,"manzil_number":6,"sajdah_number":null,"page_number":446,"juz_number":23,"words":[{"id":15699,"position":1,"audio_url":"wbw/037_013_001.mp3","verse_key":"37:13","verse_id":3801,"location":"37:13:1","text_uthmani":"وَإِذَا","qpc_uthmani_hafs":"وَإِذَا","char_type_name":"word","page_number":446,"line_number":9,"text":"وَإِذَا","translation":{"text":"এবং যখন","language_name":"bengali","language_id":20},"transliteration":{"text":"wa-idhā","language_name":"english","language_id":38}},{"id":15700,"position":2,"audio_url":"wbw/037_013_002.mp3","verse_key":"37:13","verse_id":3801,"location":"37:13:2","text_uthmani":"ذُكِّرُوا۟","qpc_uthmani_hafs":"ذُكِّرُواْ","char_type_name":"word","page_number":446,"line_number":9,"text":"ذُكِّرُواْ","translation":{"text":"তাদের উপদেশ দেয়া হয়","language_name":"bengali","language_id":20},"transliteration":{"text":"dhukkirū","language_name":"english","language_id":38}},{"id":15701,"position":3,"audio_url":"wbw/037_013_003.mp3","verse_key":"37:13","verse_id":3801,"location":"37:13:3","text_uthmani":"لَا","qpc_uthmani_hafs":"لَا","char_type_name":"word","page_number":446,"line_number":9,"text":"لَا","translation":{"text":"না","language_name":"bengali","language_id":20},"transliteration":{"text":"lā","language_name":"english","language_id":38}},{"id":15702,"position":4,"audio_url":"wbw/037_013_004.mp3","verse_key":"37:13","verse_id":3801,"location":"37:13:4","text_uthmani":"يَذْكُرُونَ","qpc_uthmani_hafs":"يَذۡكُرُونَ","char_type_name":"word","page_number":446,"line_number":9,"text":"يَذۡكُرُونَ","translation":{"text":"তারা উপদেশ গ্রহণ করে","language_name":"bengali","language_id":20},"transliteration":{"text":"yadhkurūna","language_name":"english","language_id":38}},{"id":15703,"position":5,"audio_url":null,"verse_key":"37:13","verse_id":3801,"location":"37:13:5","text_uthmani":"١٣","qpc_uthmani_hafs":"١٣","char_type_name":"end","page_number":446,"line_number":9,"text":"١٣","translation":{"text":"(১৩)","language_name":"bengali","language_id":20},"transliteration":{"text":null,"language_name":"english","language_id":38}}]},{"id":3802,"verse_number":14,"verse_key":"37:14","hizb_number":45,"rub_el_hizb_number":178,"ruku_number":388,"manzil_number":6,"sajdah_number":null,"page_number":446,"juz_number":23,"words":[{"id":16746,"position":1,"audio_url":"wbw/037_014_001.mp3","verse_key":"37:14","verse_id":3802,"location":"37:14:1","text_uthmani":"وَإِذَا","qpc_uthmani_hafs":"وَإِذَا","char_type_name":"word","page_number":446,"line_number":9,"text":"وَإِذَا","translation":{"text":"এবং যখন","language_name":"bengali","language_id":20},"transliteration":{"text":"wa-idhā","language_name":"english","language_id":38}},{"id":16747,"position":2,"audio_url":"wbw/037_014_002.mp3","verse_key":"37:14","verse_id":3802,"location":"37:14:2","text_uthmani":"رَأَوْا۟","qpc_uthmani_hafs":"رَأَوۡاْ","char_type_name":"word","page_number":446,"line_number":9,"text":"رَأَوۡاْ","translation":{"text":"তারা দেখে","language_name":"bengali","language_id":20},"transliteration":{"text":"ra-aw","language_name":"english","language_id":38}},{"id":16748,"position":3,"audio_url":"wbw/037_014_003.mp3","verse_key":"37:14","verse_id":3802,"location":"37:14:3","text_uthmani":"ءَايَةًۭ","qpc_uthmani_hafs":"ءَايَةٗ","char_type_name":"word","page_number":446,"line_number":9,"text":"ءَايَةٗ","translation":{"text":"কোনো নিদর্শন","language_name":"bengali","language_id":20},"transliteration":{"text":"āyatan","language_name":"english","language_id":38}},{"id":16749,"position":4,"audio_url":"wbw/037_014_004.mp3","verse_key":"37:14","verse_id":3802,"location":"37:14:4","text_uthmani":"يَسْتَسْخِرُونَ","qpc_uthmani_hafs":"يَسۡتَسۡخِرُونَ","char_type_name":"word","page_number":446,"line_number":9,"text":"يَسۡتَسۡخِرُونَ","translation":{"text":"তারা উপহাস করে","language_name":"bengali","language_id":20},"transliteration":{"text":"yastaskhirūna","language_name":"english","language_id":38}},{"id":16750,"position":5,"audio_url":null,"verse_key":"37:14","verse_id":3802,"location":"37:14:5","text_uthmani":"١٤","qpc_uthmani_hafs":"١٤","char_type_name":"end","page_number":446,"line_number":9,"text":"١٤","translation":{"text":"(১৪)","language_name":"bengali","language_id":20},"transliteration":{"text":null,"language_name":"english","language_id":38}}]},{"id":3803,"verse_number":15,"verse_key":"37:15","hizb_number":45,"rub_el_hizb_number":178,"ruku_number":388,"manzil_number":6,"sajdah_number":null,"page_number":446,"juz_number":23,"words":[{"id":17923,"position":1,"audio_url":"wbw/037_015_001.mp3","verse_key":"37:15","verse_id":3803,"location":"37:15:1","text_uthmani":"وَقَالُوٓا۟","qpc_uthmani_hafs":"وَقَالُوٓاْ","char_type_name":"word","page_number":446,"line_number":10,"text":"وَقَالُوٓاْ","translation":{"text":"এবং তারা বলে","language_name":"bengali","language_id":20},"transliteration":{"text":"waqālū","language_name":"english","language_id":38}},{"id":17924,"position":2,"audio_url":"wbw/037_015_002.mp3","verse_key":"37:15","verse_id":3803,"location":"37:15:2","text_uthmani":"إِنْ","qpc_uthmani_hafs":"إِنۡ","char_type_name":"word","page_number":446,"line_number":10,"text":"إِنۡ","translation":{"text":"\"নয়","language_name":"bengali","language_id":20},"transliteration":{"text":"in","language_name":"english","language_id":38}},{"id":17925,"position":3,"audio_url":"wbw/037_015_003.mp3","verse_key":"37:15","verse_id":3803,"location":"37:15:3","text_uthmani":"هَـٰذَآ","qpc_uthmani_hafs":"هَٰذَآ","char_type_name":"word","page_number":446,"line_number":10,"text":"هَٰذَآ","translation":{"text":"এটা","language_name":"bengali","language_id":20},"transliteration":{"text":"hādhā","language_name":"english","language_id":38}},{"id":17926,"position":4,"audio_url":"wbw/037_015_004.mp3","verse_key":"37:15","verse_id":3803,"location":"37:15:4","text_uthmani":"إِلَّا","qpc_uthmani_hafs":"إِلَّا","char_type_name":"word","page_number":446,"line_number":10,"text":"إِلَّا","translation":{"text":"এ ব্যতীত","language_name":"bengali","language_id":20},"transliteration":{"text":"illā","language_name":"english","language_id":38}},{"id":17927,"position":5,"audio_url":"wbw/037_015_005.mp3","verse_key":"37:15","verse_id":3803,"location":"37:15:5","text_uthmani":"سِحْرٌۭ","qpc_uthmani_hafs":"سِحۡرٞ","char_type_name":"word","page_number":446,"line_number":10,"text":"سِحۡرٞ","translation":{"text":"জাদু","language_name":"bengali","language_id":20},"transliteration":{"text":"siḥ'run","language_name":"english","language_id":38}},{"id":17928,"position":6,"audio_url":"wbw/037_015_006.mp3","verse_key":"37:15","verse_id":3803,"location":"37:15:6","text_uthmani":"مُّبِينٌ","qpc_uthmani_hafs":"مُّبِينٌ","char_type_name":"word","page_number":446,"line_number":10,"text":"مُّبِينٌ","translation":{"text":"সুস্পষ্ট","language_name":"bengali","language_id":20},"transliteration":{"text":"mubīnun","language_name":"english","language_id":38}},{"id":17929,"position":7,"audio_url":null,"verse_key":"37:15","verse_id":3803,"location":"37:15:7","text_uthmani":"١٥","qpc_uthmani_hafs":"١٥","char_type_name":"end","page_number":446,"line_number":10,"text":"١٥","translation":{"text":"(১৫)","language_name":"bengali","language_id":20},"transliteration":{"text":null,"language_name":"english","language_id":38}}]},{"id":3804,"verse_number":16,"verse_key":"37:16","hizb_number":45,"rub_el_hizb_number":178,"ruku_number":388,"manzil_number":6,"sajdah_number":null,"page_number":446,"juz_number":23,"words":[{"id":18937,"position":1,"audio_url":"wbw/037_016_001.mp3","verse_key":"37:16","verse_id":3804,"location":"37:16:1","text_uthmani":"أَءِذَا","qpc_uthmani_hafs":"أَءِذَا","char_type_name":"word","page_number":446,"line_number":10,"text":"أَءِذَا","translation":{"text":"কি যখন","language_name":"bengali","language_id":20},"transliteration":{"text":"a-idhā","language_name":"english","language_id":38}},{"id":18938,"position":2,"audio_url":"wbw/037_016_002.mp3","verse_key":"37:16","verse_id":3804,"location":"37:16:2","text_uthmani":"مِتْنَا","qpc_uthmani_hafs":"مِتۡنَا","char_type_name":"word","page_number":446,"line_number":10,"text":"مِتۡنَا","translation":{"text":"আমরা মরে যাব","language_name":"bengali","language_id":20},"transliteration":{"text":"mit'nā","language_name":"english","language_id":38}},{"id":18939,"position":3,"audio_url":"wbw/037_016_003.mp3","verse_key":"37:16","verse_id":3804,"location":"37:16:3","text_uthmani":"وَكُنَّا","qpc_uthmani_hafs":"وَكُنَّا","char_type_name":"word","page_number":446,"line_number":10,"text":"وَكُنَّا","translation":{"text":"এবং আমরা হয়ে যাব","language_name":"bengali","language_id":20},"transliteration":{"text":"wakunnā","language_name":"english","language_id":38}},{"id":18940,"position":4,"audio_url":"wbw/037_016_004.mp3","verse_key":"37:16","verse_id":3804,"location":"37:16:4","text_uthmani":"تُرَابًۭا","qpc_uthmani_hafs":"تُرَابٗا","char_type_name":"word","page_number":446,"line_number":10,"text":"تُرَابٗا","translation":{"text":"মাটি","language_name":"bengali","language_id":20},"transliteration":{"text":"turāban","language_name":"english","language_id":38}},{"id":18941,"position":5,"audio_url":"wbw/037_016_005.mp3","verse_key":"37:16","verse_id":3804,"location":"37:16:5","text_uthmani":"وَعِظَـٰمًا","qpc_uthmani_hafs":"وَعِظَٰمًا","char_type_name":"word","page_number":446,"line_number":10,"text":"وَعِظَٰمًا","translation":{"text":"ও হাড়","language_name":"bengali","language_id":20},"transliteration":{"text":"waʿiẓāman","language_name":"english","language_id":38}},{"id":18942,"position":6,"audio_url":"wbw/037_016_006.mp3","verse_key":"37:16","verse_id":3804,"location":"37:16:6","text_uthmani":"أَءِنَّا","qpc_uthmani_hafs":"أَءِنَّا","char_type_name":"word","page_number":446,"line_number":11,"text":"أَءِنَّا","translation":{"text":"নিশ্চয়ই কি আমরা","language_name":"bengali","language_id":20},"transliteration":{"text":"a-innā","language_name":"english","language_id":38}},{"id":18943,"position":7,"audio_url":"wbw/037_016_007.mp3","verse_key":"37:16","verse_id":3804,"location":"37:16:7","text_uthmani":"لَمَبْعُوثُونَ","qpc_uthmani_hafs":"لَمَبۡعُوثُونَ","char_type_name":"word","page_number":446,"line_number":11,"text":"لَمَبۡعُوثُونَ","translation":{"text":"আমাদেরকে উঠানো হবে অবশ্যই","language_name":"bengali","language_id":20},"transliteration":{"text":"lamabʿūthūna","language_name":"english","language_id":38}},{"id":18944,"position":8,"audio_url":null,"verse_key":"37:16","verse_id":3804,"location":"37:16:8","text_uthmani":"١٦","qpc_uthmani_hafs":"١٦","char_type_name":"end","page_number":446,"line_number":11,"text":"١٦","translation":{"text":"(১৬)","language_name":"bengali","language_id":20},"transliteration":{"text":null,"language_name":"english","language_id":38}}]},{"id":3805,"verse_number":17,"verse_key":"37:17","hizb_number":45,"rub_el_hizb_number":178,"ruku_number":388,"manzil_number":6,"sajdah_number":null,"page_number":446,"juz_number":23,"words":[{"id":20043,"position":1,"audio_url":"wbw/037_017_001.mp3","verse_key":"37:17","verse_id":3805,"location":"37:17:1","text_uthmani":"أَوَءَابَآؤُنَا","qpc_uthmani_hafs":"أَوَءَابَآؤُنَا","char_type_name":"word","page_number":446,"line_number":11,"text":"أَوَءَابَآؤُنَا","translation":{"text":"এবং কি (উঠানো হবে) আমাদের পিতৃপুরুষদেরকেও","language_name":"bengali","language_id":20},"transliteration":{"text":"awaābāunā","language_name":"english","language_id":38}},{"id":20044,"position":2,"audio_url":"wbw/037_017_002.mp3","verse_key":"37:17","verse_id":3805,"location":"37:17:2","text_uthmani":"ٱلْأَوَّلُونَ","qpc_uthmani_hafs":"ٱلۡأَوَّلُونَ","char_type_name":"word","page_number":446,"line_number":11,"text":"ٱلۡأَوَّلُونَ","translation":{"text":"পূর্বকালের\"","language_name":"bengali","language_id":20},"transliteration":{"text":"l-awalūna","language_name":"english","language_id":38}},{"id":20045,"position":3,"audio_url":null,"verse_key":"37:17","verse_id":3805,"location":"37:17:3","text_uthmani":"١٧","qpc_uthmani_hafs":"١٧","char_type_name":"end","page_number":446,"line_number":11,"text":"١٧","translation":{"text":"(১৭)","language_name":"bengali","language_id":20},"transliteration":{"text":null,"language_name":"english","language_id":38}}]},{"id":3806,"verse_number":18,"verse_key":"37:18","hizb_number":45,"rub_el_hizb_number":178,"ruku_number":388,"manzil_number":6,"sajdah_number":null,"page_number":446,"juz_number":23,"words":[{"id":21130,"position":1,"audio_url":"wbw/037_018_001.mp3","verse_key":"37:18","verse_id":3806,"location":"37:18:1","text_uthmani":"قُلْ","qpc_uthmani_hafs":"قُلۡ","char_type_name":"word","page_number":446,"line_number":11,"text":"قُلۡ","translation":{"text":"বলো","language_name":"bengali","language_id":20},"transliteration":{"text":"qul","language_name":"english","language_id":38}},{"id":21131,"position":2,"audio_url":"wbw/037_018_002.mp3","verse_key":"37:18","verse_id":3806,"location":"37:18:2","text_uthmani":"نَعَمْ","qpc_uthmani_hafs":"نَعَمۡ","char_type_name":"word","page_number":446,"line_number":11,"text":"نَعَمۡ","translation":{"text":"\"হ্যাঁ","language_name":"bengali","language_id":20},"transliteration":{"text":"naʿam","language_name":"english","language_id":38}},{"id":21132,"position":3,"audio_url":"wbw/037_018_003.mp3","verse_key":"37:18","verse_id":3806,"location":"37:18:3","text_uthmani":"وَأَنتُمْ","qpc_uthmani_hafs":"وَأَنتُمۡ","char_type_name":"word","page_number":446,"line_number":11,"text":"وَأَنتُمۡ","translation":{"text":"এবং তোমরা","language_name":"bengali","language_id":20},"transliteration":{"text":"wa-antum","language_name":"english","language_id":38}},{"id":21133,"position":4,"audio_url":"wbw/037_018_004.mp3","verse_key":"37:18","verse_id":3806,"location":"37:18:4","text_uthmani":"دَٰخِرُونَ","qpc_uthmani_hafs":"دَٰخِرُونَ","char_type_name":"word","page_number":446,"line_number":11,"text":"دَٰخِرُونَ","translation":{"text":"অপমানিত হবে\"","language_name":"bengali","language_id":20},"transliteration":{"text":"dākhirūna","language_name":"english","language_id":38}},{"id":21134,"position":5,"audio_url":null,"verse_key":"37:18","verse_id":3806,"location":"37:18:5","text_uthmani":"١٨","qpc_uthmani_hafs":"١٨","char_type_name":"end","page_number":446,"line_number":12,"text":"١٨","translation":{"text":"(১৮)","language_name":"bengali","language_id":20},"transliteration":{"text":null,"language_name":"english","language_id":38}}]},{"id":3807,"verse_number":19,"verse_key":"37:19","hizb_number":45,"rub_el_hizb_number":178,"ruku_number":388,"manzil_number":6,"sajdah_number":null,"page_number":446,"juz_number":23,"words":[{"id":22243,"position":1,"audio_url":"wbw/037_019_001.mp3","verse_key":"37:19","verse_id":3807,"location":"37:19:1","text_uthmani":"فَإِنَّمَا","qpc_uthmani_hafs":"فَإِنَّمَا","char_type_name":"word","page_number":446,"line_number":12,"text":"فَإِنَّمَا","translation":{"text":"মূলতঃ","language_name":"bengali","language_id":20},"transliteration":{"text":"fa-innamā","language_name":"english","language_id":38}},{"id":22244,"position":2,"audio_url":"wbw/037_019_002.mp3","verse_key":"37:19","verse_id":3807,"location":"37:19:2","text_uthmani":"هِىَ","qpc_uthmani_hafs":"هِيَ","char_type_name":"word","page_number":446,"line_number":12,"text":"هِيَ","translation":{"text":"তা (হবে)","language_name":"bengali","language_id":20},"transliteration":{"text":"hiya","language_name":"english","language_id":38}},{"id":22245,"position":3,"audio_url":"wbw/037_019_003.mp3","verse_key":"37:19","verse_id":3807,"location":"37:19:3","text_uthmani":"زَجْرَةٌۭ","qpc_uthmani_hafs":"زَجۡرَةٞ","char_type_name":"word","page_number":446,"line_number":12,"text":"زَجۡرَةٞ","translation":{"text":"বিকট শব্দ কম্পন","language_name":"bengali","language_id":20},"transliteration":{"text":"zajratun","language_name":"english","language_id":38}},{"id":22246,"position":4,"audio_url":"wbw/037_019_004.mp3","verse_key":"37:19","verse_id":3807,"location":"37:19:4","text_uthmani":"وَٰحِدَةٌۭ","qpc_uthmani_hafs":"وَٰحِدَةٞ","char_type_name":"word","page_number":446,"line_number":12,"text":"وَٰحِدَةٞ","translation":{"text":"একটি (মাত্র)","language_name":"bengali","language_id":20},"transliteration":{"text":"wāḥidatun","language_name":"english","language_id":38}},{"id":22247,"position":5,"audio_url":"wbw/037_019_005.mp3","verse_key":"37:19","verse_id":3807,"location":"37:19:5","text_uthmani":"فَإِذَا","qpc_uthmani_hafs":"فَإِذَا","char_type_name":"word","page_number":446,"line_number":12,"text":"فَإِذَا","translation":{"text":"অতঃপর তখন","language_name":"bengali","language_id":20},"transliteration":{"text":"fa-idhā","language_name":"english","language_id":38}},{"id":22248,"position":6,"audio_url":"wbw/037_019_006.mp3","verse_key":"37:19","verse_id":3807,"location":"37:19:6","text_uthmani":"هُمْ","qpc_uthmani_hafs":"هُمۡ","char_type_name":"word","page_number":446,"line_number":12,"text":"هُمۡ","translation":{"text":"তারা","language_name":"bengali","language_id":20},"transliteration":{"text":"hum","language_name":"english","language_id":38}},{"id":22249,"position":7,"audio_url":"wbw/037_019_007.mp3","verse_key":"37:19","verse_id":3807,"location":"37:19:7","text_uthmani":"يَنظُرُونَ","qpc_uthmani_hafs":"يَنظُرُونَ","char_type_name":"word","page_number":446,"line_number":12,"text":"يَنظُرُونَ","translation":{"text":"দেখবে","language_name":"bengali","language_id":20},"transliteration":{"text":"yanẓurūna","language_name":"english","language_id":38}},{"id":22250,"position":8,"audio_url":null,"verse_key":"37:19","verse_id":3807,"location":"37:19:8","text_uthmani":"١٩","qpc_uthmani_hafs":"١٩","char_type_name":"end","page_number":446,"line_number":12,"text":"١٩","translation":{"text":"(১৯)","language_name":"bengali","language_id":20},"transliteration":{"text":null,"language_name":"english","language_id":38}}]},{"id":3808,"verse_number":20,"verse_key":"37:20","hizb_number":45,"rub_el_hizb_number":178,"ruku_number":388,"manzil_number":6,"sajdah_number":null,"page_number":446,"juz_number":23,"words":[{"id":23264,"position":1,"audio_url":"wbw/037_020_001.mp3","verse_key":"37:20","verse_id":3808,"location":"37:20:1","text_uthmani":"وَقَالُوا۟","qpc_uthmani_hafs":"وَقَالُواْ","char_type_name":"word","page_number":446,"line_number":12,"text":"وَقَالُواْ","translation":{"text":"এবং তারা বলবে","language_name":"bengali","language_id":20},"transliteration":{"text":"waqālū","language_name":"english","language_id":38}},{"id":23265,"position":2,"audio_url":"wbw/037_020_002.mp3","verse_key":"37:20","verse_id":3808,"location":"37:20:2","text_uthmani":"يَـٰوَيْلَنَا","qpc_uthmani_hafs":"يَٰوَيۡلَنَا","char_type_name":"word","page_number":446,"line_number":12,"text":"يَٰوَيۡلَنَا","translation":{"text":"\"আমাদের দুর্ভোগ হায়","language_name":"bengali","language_id":20},"transliteration":{"text":"yāwaylanā","language_name":"english","language_id":38}},{"id":23266,"position":3,"audio_url":"wbw/037_020_003.mp3","verse_key":"37:20","verse_id":3808,"location":"37:20:3","text_uthmani":"هَـٰذَا","qpc_uthmani_hafs":"هَٰذَا","char_type_name":"word","page_number":446,"line_number":13,"text":"هَٰذَا","translation":{"text":"এটাই","language_name":"bengali","language_id":20},"transliteration":{"text":"hādhā","language_name":"english","language_id":38}},{"id":23267,"position":4,"audio_url":"wbw/037_020_004.mp3","verse_key":"37:20","verse_id":3808,"location":"37:20:4","text_uthmani":"يَوْمُ","qpc_uthmani_hafs":"يَوۡمُ","char_type_name":"word","page_number":446,"line_number":13,"text":"يَوۡمُ","translation":{"text":"দিন","language_name":"bengali","language_id":20},"transliteration":{"text":"yawmu","language_name":"english","language_id":38}},{"id":23268,"position":5,"audio_url":"wbw/037_020_005.mp3","verse_key":"37:20","verse_id":3808,"location":"37:20:5","text_uthmani":"ٱلدِّينِ","qpc_uthmani_hafs":"ٱلدِّينِ","char_type_name":"word","page_number":446,"line_number":13,"text":"ٱلدِّينِ","translation":{"text":"বিচারের\"","language_name":"bengali","language_id":20},"transliteration":{"text":"l-dīni","language_name":"english","language_id":38}},{"id":23269,"position":6,"audio_url":null,"verse_key":"37:20","verse_id":3808,"location":"37:20:6","text_uthmani":"٢٠","qpc_uthmani_hafs":"٢٠","char_type_name":"end","page_number":446,"line_number":13,"text":"٢٠","translation":{"text":"(২০)","language_name":"bengali","language_id":20},"transliteration":{"text":null,"language_name":"english","language_id":38}}]}],"pagination":{"per_page":10,"current_page":2,"next_page":3,"total_pages":19,"total_records":182}}
