{"verses":[{"id":3819,"verse_number":31,"verse_key":"37:31","hizb_number":45,"rub_el_hizb_number":179,"ruku_number":389,"manzil_number":6,"sajdah_number":null,"page_number":447,"juz_number":23,"words":[{"id":34262,"position":1,"audio_url":"wbw/037_031_001.mp3","char_type_name":"word","page_number":447,"line_number":4,"text":"فَحَقَّ","translation":{"text":"সুতরাং সত্য হলো","language_name":"bengali","language_id":20},"transliteration":{"text":"faḥaqqa","language_name":"english","language_id":38}},{"id":34263,"position":2,"audio_url":"wbw/037_031_002.mp3","char_type_name":"word","page_number":447,"line_number":4,"text":"عَلَيْنَا","translation":{"text":"আমাদের বিরুদ্ধে","language_name":"bengali","language_id":20},"transliteration":{"text":"ʿalaynā","language_name":"english","language_id":38}},{"id":34264,"position":3,"audio_url":"wbw/037_031_003.mp3","char_type_name":"word","page_number":447,"line_number":4,"text":"قَوْلُ","translation":{"text":"কথা","language_name":"bengali","language_id":20},"transliteration":{"text":"qawlu","language_name":"english","language_id":38}},{"id":34265,"position":4,"audio_url":"wbw/037_031_004.mp3","char_type_name":"word","page_number":447,"line_number":4,"text":"رَبِّنَآ ۖ","translation":{"text":"আমাদের রবের","language_name":"bengali","language_id":20},"transliteration":{"text":"rabbinā","language_name":"english","language_id":38}},{"id":34267,"position":5,"audio_url":"wbw/037_031_006.mp3","char_type_name":"word","page_number":447,"line_number":4,"text":"إِنَّا","translation":{"text":"নিশ্চয়ই আমরা","language_name":"bengali","language_id":20},"transliteration":{"text":"innā","language_name":"english","language_id":38}},{"id":34268,"position":6,"audio_url":"wbw/037_031_007.mp3","char_type_name":"word","page_number":447,"line_number":4,"text":"لَذَآئِقُونَ","translation":{"text":"অবশ্যই (শাস্তির) স্বাদ ভোগ করতে হবে","language_name":"bengali","language_id":20},"transliteration":{"text":"ladhāiqūna","language_name":"english","language_id":38}},{"id":34269,"position":7,"audio_url":null,"char_type_name":"end","page_number":447,"line_number":4,"text":"٣١","translation":{"text":"(৩১)","language_name":"bengali","language_id":20},"transliteration":{"text":null,"language_name":"english","language_id":38}}]},{"id":3820,"verse_number":32,"verse_key":"37:32","hizb_number":45,"rub_el_hizb_number":179,"ruku_number":389,"manzil_number":6,"sajdah_number":null,"page_number":447,"juz_number":23,"words":[{"id":35120,"position":1,"audio_url":"wbw/037_032_001.mp3","char_type_name":"word","page_number":447,"line_number":5,"text":"فَأَغْوَيْنَـٰكُمْ","translation":{"text":"কারণ তোমাদেরকে আমরা বিভ্রান্ত করেছিলাম","language_name":"bengali","language_id":20},"transliteration":{"text":"fa-aghwaynākum","language_name":"english","language_id":38}},{"id":35121,"position":2,"audio_url":"wbw/037_032_002.mp3","char_type_name":"word","page_number":447,"line_number":5,"text":"إِنَّا","translation":{"text":"নিশ্চয়ই আমরা","language_name":"bengali","language_id":20},"transliteration":{"text":"innā","language_name":"english","language_id":38}},{"id":35122,"position":3,"audio_url":"wbw/037_032_003.mp3","char_type_name":"word","page_number":447,"line_number":5,"text":"كُنَّا","translation":{"text":"ছিলাম","language_name":"bengali","language_id":20},"transliteration":{"text":"kunnā","language_name":"english","language_id":38}},{"id":35123,"position":4,"audio_url":"wbw/037_032_004.mp3","char_type_name":"word","page_number":447,"line_number":5,"text":"غَـٰوِينَ","translation":{"text":"বিভ্রান্ত\"","language_name":"bengali","language_id":20},"transliteration":{"text":"ghāwīna","language_name":"english","language_id":38}},{"id":35124,"position":5,"audio_url":null,"char_type_name":"end","page_number":447,"line_number":5,"text":"٣٢","translation":{"text":"(৩২)","language_name":"bengali","language_id":20},"transliteration":{"text":null,"language_name":"english","language_id":38}}]},{"id":3821,"verse_number":33,"verse_key":"37:33","hizb_number":45,"rub_el_hizb_number":179,"ruku_number":389,"manzil_number":6,"sajdah_number":null,"page_number":447,"juz_number":23,"words":[{"id":36032,"position":1,"audio_url":"wbw/037_033_001.mp3","char_type_name":"word","page_number":447,"line_number":5,"text":"فَإِنَّهُمْ","translation":{"text":"অতঃপর তারা নিশ্চয়ই","language_name":"bengali","language_id":20},"transliteration":{"text":"fa-innahum","language_name":"english","language_id":38}},{"id":36033,"position":2,"audio_url":"wbw/037_033_002.mp3","char_type_name":"word","page_number":447,"line_number":5,"text":"يَوْمَئِذٍۢ","translation":{"text":"সেদিন","language_name":"bengali","language_id":20},"transliteration":{"text":"yawma-idhin","language_name":"english","language_id":38}},{"id":36034,"position":3,"audio_url":"wbw/037_033_003.mp3","char_type_name":"word","page_number":447,"line_number":5,"text":"فِى","translation":{"text":"মধ্যে","language_name":"bengali","language_id":20},"transliteration":{"text":"fī","language_name":"english","language_id":38}},{"id":36035,"position":4,"audio_url":"wbw/037_033_004.mp3","char_type_name":"word","page_number":447,"line_number":5,"text":"ٱلْعَذَابِ","translation":{"text":"শাস্তির","language_name":"bengali","language_id":20},"transliteration":{"text":"l-ʿadhābi","language_name":"english","language_id":38}},{"id":36036,"position":5,"audio_url":"wbw/037_033_005.mp3","char_type_name":"word","page_number":447,"line_number":5,"text":"مُشْتَرِكُونَ","translation":{"text":"সম অংশীদার হবে","language_name":"bengali","language_id":20},"transliteration":{"text":"mush'tarikūna","language_name":"english","language_id":38}},{"id":36037,"position":6,"audio_url":null,"char_type_name":"end","page_number":447,"line_number":6,"text":"٣٣","translation":{"text":"(৩৩)","language_name":"bengali","language_id":20},"transliteration":{"text":null,"language_name":"english","language_id":38}}]},{"id":3822,"verse_number":34,"verse_key":"37:34","hizb_number":45,"rub_el_hizb_number":179,"ruku_number":389,"manzil_number":6,"sajdah_number":null,"page_number":447,"juz_number":23,"words":[{"id":36842,"position":1,"audio_url":"wbw/037_034_001.mp3","char_type_name":"word","page_number":447,"line_number":6,"text":"إِنَّا","translation":{"text":"নিশ্চয়ই আমরা","language_name":"bengali","language_id":20},"transliteration":{"text":"innā","language_name":"english","language_id":38}},{"id":36843,"position":2,"audio_url":"wbw/037_034_002.mp3","char_type_name":"word","page_number":447,"line_number":6,"text":"كَذَٰلِكَ","translation":{"text":"এরূপই","language_name":"bengali","language_id":20},"transliteration":{"text":"kadhālika","language_name":"english","language_id":38}},{"id":36844,"position":3,"audio_url":"wbw/037_034_003.mp3","char_type_name":"word","page_number":447,"line_number":6,"text":"نَفْعَلُ","translation":{"text":"আমরা করি","language_name":"bengali","language_id":20},"transliteration":{"text":"nafʿalu","language_name":"english","language_id":38}},{"id":36845,"position":4,"audio_url":"wbw/037_034_004.mp3","char_type_name":"word","page_number":447,"line_number":6,"text":"بِٱلْمُجْرِمِينَ","translation":{"text":"অপরাধীদের সাথে","language_name":"bengali","language_id":20},"transliteration":{"text":"bil-muj'rimīna","language_name":"english","language_id":38}},{"id":36846,"position":5,"audio_url":null,"char_type_name":"end","page_number":447,"line_number":6,"text":"٣٤","translation":{"text":"(৩৪)","language_name":"bengali","language_id":20},"transliteration":{"text":null,"language_name":"english","language_id":38}}]},{"id":3823,"verse_number":35,"verse_key":"37:35","hizb_number":45,"rub_el_hizb_number":179,"ruku_number":389,"manzil_number":6,"sajdah_number":null,"page_number":447,"juz_number":23,"words":[{"id":37649,"position":1,"audio_url":"wbw/037_035_001.mp3","char_type_name":"word","page_number":447,"line_number":6,"text":"إِنَّهُمْ","translation":{"text":"তারা নিশ্চয়ই","language_name":"bengali","language_id":20},"transliteration":{"text":"innahum","language_name":"english","language_id":38}},{"id":37650,"position":2,"audio_url":"wbw/037_035_002.mp3","char_type_name":"word","page_number":447,"line_number":6,"text":"كَانُوٓا۟","translation":{"text":"ছিলো","language_name":"bengali","language_id":20},"transliteration":{"text":"kānū","language_name":"english","language_id":38}},{"id":37651,"position":3,"audio_url":"wbw/037_035_003.mp3","char_type_name":"word","page_number":447,"line_number":6,"text":"إِذَا","translation":{"text":"যখন","language_name":"bengali","language_id":20},"transliteration":{"text":"idhā","language_name":"english","language_id":38}},{"id":37652,"position":4,"audio_url":"wbw/037_035_004.mp3","char_type_name":"word","page_number":447,"line_number":6,"text":"قِيلَ","translation":{"text":"বলা হতো","language_name":"bengali","language_id":20},"transliteration":{"text":"qīla","language_name":"english","language_id":38}},{"id":37653,"position":5,"audio_url":"wbw/037_035_005.mp3","char_type_name":"word","page_number":447,"line_number":6,"text":"لَهُمْ","translation":{"text":"তাদেরকে","language_name":"bengali","language_id":20},"transliteration":{"text":"lahum","language_name":"english","language_id":38}},{"id":37654,"position":6,"audio_url":"wbw/037_035_006.mp3","char_type_name":"word","page_number":447,"line_number":7,"text":"لَآ","translation":{"text":"\"নাই","language_name":"bengali","language_id":20},"transliteration":{"text":"lā","language_name":"english","language_id":38}},{"id":37655,"position":7,"audio_url":"wbw/037_035_007.mp3","char_type_name":"word","page_number":447,"line_number":7,"text":"إِلَـٰهَ","translation":{"text":"কোনো ইলাহ","language_name":"bengali","language_id":20},"transliteration":{"text":"ilāha","language_name":"english","language_id":38}},{"id":37656,"position":8,"audio_url":"wbw/037_035_008.mp3","char_type_name":"word","page_number":447,"line_number":7,"text":"إِلَّا","translation":{"text":"ছাড়া","language_name":"bengali","language_id":20},"transliteration":{"text":"illā","language_name":"english","language_id":38}},{"id":37657,"position":9,"audio_url":"wbw/037_035_009.mp3","char_type_name":"word","page_number":447,"line_number":7,"text":"ٱللَّهُ","translation":{"text":"আল্লাহ\"","language_name":"bengali","language_id":20},"transliteration":{"text":"l-lahu","language_name":"english","language_id":38}},{"id":37658,"position":10,"audio_url":"wbw/037_035_010.mp3","char_type_name":"word","page_number":447,"line_number":7,"text":"يَسْتَكْبِرُونَ","translation":{"text":"তারা অহংকার করতো","language_name":"bengali","language_id":20},"transliteration":{"text":"yastakbirūna","language_name":"english","language_id":38}},{"id":37659,"position":11,"audio_url":null,"char_type_name":"end","page_number":447,"line_number":7,"text":"٣٥","translation":{"text":"(৩৫)","language_name":"bengali","language_id":20},"transliteration":{"text":null,"language_name":"english","language_id":38}}]},{"id":3824,"verse_number":36,"verse_key":"37:36","hizb_number":45,"rub_el_hizb_number":179,"ruku_number":389,"manzil_number":6,"sajdah_number":null,"page_number":447,"juz_number":23,"words":[{"id":38528,"position":1,"audio_url":"wbw/037_036_001.mp3","char_type_name":"word","page_number":447,"line_number":7,"text":"وَيَقُولُونَ","translation":{"text":"এবং তারা বলতো","language_name":"bengali","language_id":20},"transliteration":{"text":"wayaqūlūna","language_name":"english","language_id":38}},{"id":38529,"position":2,"audio_url":"wbw/037_036_002.mp3","char_type_name":"word","page_number":447,"line_number":7,"text":"أَئِنَّا","translation":{"text":"\"নিশ্চয়ই আমরা কি","language_name":"bengali","language_id":20},"transliteration":{"text":"a-innā","language_name":"english","language_id":38}},{"id":38530,"position":3,"audio_url":"wbw/037_036_003.mp3","char_type_name":"word","page_number":447,"line_number":7,"text":"لَتَارِكُوٓا۟","translation":{"text":"অবশ্যই ত্যাগকারী হবো","language_name":"bengali","language_id":20},"transliteration":{"text":"latārikū","language_name":"english","language_id":38}},{"id":38531,"position":4,"audio_url":"wbw/037_036_004.mp3","char_type_name":"word","page_number":447,"line_number":7,"text":"ءَالِهَتِنَا","translation":{"text":"আমাদের উপাস্যদেরকে","language_name":"bengali","language_id":20},"transliteration":{"text":"ālihatinā","language_name":"english","language_id":38}},{"id":38532,"position":5,"audio_url":"wbw/037_036_005.mp3","char_type_name":"word","page_number":447,"line_number":8,"text":"لِشَاعِرٍۢ","translation":{"text":"এক কবির জন্যে","language_name":"bengali","language_id":20},"transliteration":{"text":"lishāʿirin","language_name":"english","language_id":38}},{"id":38533,"position":6,"audio_url":"wbw/037_036_006.mp3","char_type_name":"word","page_number":447,"line_number":8,"text":"مَّجْنُونٍۭ","translation":{"text":"(যে) পাগল\"","language_name":"bengali","language_id":20},"transliteration":{"text":"majnūnin","language_name":"english","language_id":38}},{"id":38534,"position":7,"audio_url":null,"char_type_name":"end","page_number":447,"line_number":8,"text":"٣٦","translation":{"text":"(৩৬)","language_name":"bengali","language_id":20},"transliteration":{"text":null,"language_name":"english","language_id":38}}]},{"id":3825,"verse_number":37,"verse_key":"37:37","hizb_number":45,"rub_el_hizb_number":179,"ruku_number":389,"manzil_number":6,"sajdah_number":null,"page_number":447,"juz_number":23,"words":[{"id":39396,"position":1,"audio_url":"wbw/037_037_001.mp3","char_type_name":"word","page_number":447,"line_number":8,"text":"بَلْ","translation":{"text":"বরং","language_name":"bengali","language_id":20},"transliteration":{"text":"bal","language_name":"english","language_id":38}},{"id":39397,"position":2,"audio_url":"wbw/037_037_002.mp3","char_type_name":"word","page_number":447,"line_number":8,"text":"جَآءَ","translation":{"text":"(এই নাবী) এসেছে","language_name":"bengali","language_id":20},"transliteration":{"text":"jāa","language_name":"english","language_id":38}},{"id":39398,"position":3,"audio_url":"wbw/037_037_003.mp3","char_type_name":"word","page_number":447,"line_number":8,"text":"بِٱلْحَقِّ","translation":{"text":"সত্য নিয়ে","language_name":"bengali","language_id":20},"transliteration":{"text":"bil-ḥaqi","language_name":"english","language_id":38}},{"id":39399,"position":4,"audio_url":"wbw/037_037_004.mp3","char_type_name":"word","page_number":447,"line_number":8,"text":"وَصَدَّقَ","translation":{"text":"এবং সত্য বলে স্বীকার করেছে","language_name":"bengali","language_id":20},"transliteration":{"text":"waṣaddaqa","language_name":"english","language_id":38}},{"id":39400,"position":5,"audio_url":"wbw/037_037_005.mp3","char_type_name":"word","page_number":447,"line_number":8,"text":"ٱلْمُرْسَلِينَ","translation":{"text":"(তাঁর পূর্বের) রাসূলদের","language_name":"bengali","language_id":20},"transliteration":{"text":"l-mur'salīna","language_name":"english","language_id":38}},{"id":39401,"position":6,"audio_url":null,"char_type_name":"end","page_number":447,"line_number":8,"text":"٣٧","translation":{"text":"(৩৭)","language_name":"bengali","language_id":20},"transliteration":{"text":null,"language_name":"english","language_id":38}}]},{"id":3826,"verse_number":38,"verse_key":"37:38","hizb_number":45,"rub_el_hizb_number":179,"ruku_number":389,"manzil_number":6,"sajdah_number":null,"page_number":447,"juz_number":23,"words":[{"id":40221,"position":1,"audio_url":"wbw/037_038_001.mp3","char_type_name":"word","page_number":447,"line_number":8,"text":"إِنَّكُمْ","translation":{"text":"নিশ্চয়ই তোমার","language_name":"bengali","language_id":20},"transliteration":{"text":"innakum","language_name":"english","language_id":38}},{"id":40222,"position":2,"audio_url":"wbw/037_038_002.mp3","char_type_name":"word","page_number":447,"line_number":9,"text":"لَذَآئِقُوا۟","translation":{"text":"অবশ্যই স্বাদ ভোগকারী হবে","language_name":"bengali","language_id":20},"transliteration":{"text":"ladhāiqū","language_name":"english","language_id":38}},{"id":40223,"position":3,"audio_url":"wbw/037_038_003.mp3","char_type_name":"word","page_number":447,"line_number":9,"text":"ٱلْعَذَابِ","translation":{"text":"শাস্তির","language_name":"bengali","language_id":20},"transliteration":{"text":"l-ʿadhābi","language_name":"english","language_id":38}},{"id":40224,"position":4,"audio_url":"wbw/037_038_004.mp3","char_type_name":"word","page_number":447,"line_number":9,"text":"ٱلْأَلِيمِ","translation":{"text":"নিদারুণ","language_name":"bengali","language_id":20},"transliteration":{"text":"l-alīmi","language_name":"english","language_id":38}},{"id":40225,"position":5,"audio_url":null,"char_type_name":"end","page_number":447,"line_number":9,"text":"٣٨","translation":{"text":"(৩৮)","language_name":"bengali","language_id":20},"transliteration":{"text":null,"language_name":"english","language_id":38}}]},{"id":3827,"verse_number":39,"verse_key":"37:39","hizb_number":45,"rub_el_hizb_number":179,"ruku_number":389,"manzil_number":6,"sajdah_number":null,"page_number":447,"juz_number":23,"words":[{"id":40953,"position":1,"audio_url":"wbw/037_039_001.mp3","char_type_name":"word","page_number":447,"line_number":9,"text":"وَمَا","translation":{"text":"এবং না","language_name":"bengali","language_id":20},"transliteration":{"text":"wamā","language_name":"english","language_id":38}},{"id":40954,"position":2,"audio_url":"wbw/037_039_002.mp3","char_type_name":"word","page_number":447,"line_number":9,"text":"تُجْزَوْنَ","translation":{"text":"প্রতিফল দেয়া হবে","language_name":"bengali","language_id":20},"transliteration":{"text":"tuj'zawna","language_name":"english","language_id":38}},{"id":40955,"position":3,"audio_url":"wbw/037_039_003.mp3","char_type_name":"word","page_number":447,"line_number":9,"text":"إِلَّا","translation":{"text":"এ ছাড়া","language_name":"bengali","language_id":20},"transliteration":{"text":"illā","language_name":"english","language_id":38}},{"id":40956,"position":4,"audio_url":"wbw/037_039_004.mp3","char_type_name":"word","page_number":447,"line_number":9,"text":"مَا","translation":{"text":"যা","language_name":"bengali","language_id":20},"transliteration":{"text":"mā","language_name":"english","language_id":38}},{"id":40957,"position":5,"audio_url":"wbw/037_039_005.mp3","char_type_name":"word","page_number":447,"line_number":9,"text":"كُنتُمْ","translation":{"text":"(তোমরা)","language_name":"bengali","language_id":20},"transliteration":{"text":"kuntum","language_name":"english","language_id":38}},{"id":40958,"position":6,"audio_url":"wbw/037_039_006.mp3","char_type_name":"word","page_number":447,"line_number":9,"text":"تَعْمَلُونَ","translation":{"text":"কাজ করতেছিলে","language_name":"bengali","language_id":20},"transliteration":{"text":"taʿmalūna","language_name":"english","language_id":38}},{"id":40959,"position":7,"audio_url":null,"char_type_name":"end","page_number":447,"line_number":10,"text":"٣٩","translation":{"text":"(৩৯)","language_name":"bengali","language_id":20},"transliteration":{"text":null,"language_name":"english","language_id":38}}]},{"id":3828,"verse_number":40,"verse_key":"37:40","hizb_number":45,"rub_el_hizb_number":179,"ruku_number":389,"manzil_number":6,"sajdah_number":null,"page_number":447,"juz_number":23,"words":[{"id":41473,"position":1,"audio_url":"wbw/037_040_001.mp3","char_type_name":"word","page_number":447,"line_number":10,"text":"إِلَّا","translation":{"text":"তবে","language_name":"bengali","language_id":20},"transliteration":{"text":"illā","language_name":"english","language_id":38}},{"id":41474,"position":2,"audio_url":"wbw/037_040_002.mp3","char_type_name":"word","page_number":447,"line_number":10,"text":"عِبَادَ","translation":{"text":"দাসরা","language_name":"bengali","language_id":20},"transliteration":{"text":"ʿibāda","language_name":"english","language_id":38}},{"id":41475,"position":3,"audio_url":"wbw/037_040_003.mp3","char_type_name":"word","page_number":447,"line_number":10,"text":"ٱللَّهِ","translation":{"text":"আল্লাহর","language_name":"bengali","language_id":20},"transliteration":{"text":"l-lahi","language_name":"english","language_id":38}},{"id":41476,"position":4,"audio_url":"wbw/037_040_004.mp3","char_type_name":"word","page_number":447,"line_number":10,"text":"ٱلْمُخْلَصِينَ","translation":{"text":"(যারা ছিলো) নিষ্ঠাবান (রক্ষা পাবে)","language_name":"bengali","language_id":20},"transliteration":{"text":"l-mukh'laṣīna","language_name":"english","language_id":38}},{"id":41477,"position":5,"audio_url":null,"char_type_name":"end","page_number":447,"line_number":10,"text":"٤٠","translation":{"text":"(৪০)","language_name":"bengali","language_id":20},"transliteration":{"text":null,"language_name":"english","language_id":38}}]}],"pagination":{"per_page":10,"current_page":4,"next_page":5,"total_pages":19,"total_records":182}}
