{"verses":[{"id":3829,"verse_number":41,"verse_key":"37:41","hizb_number":45,"rub_el_hizb_number":179,"ruku_number":389,"manzil_number":6,"sajdah_number":null,"page_number":447,"juz_number":23,"words":[{"id":42552,"position":1,"audio_url":"wbw/037_041_001.mp3","char_type_name":"word","page_number":447,"line_number":10,"text":"أُو۟لَـٰٓئِكَ","translation":{"text":"ঐসব লোক","language_name":"bengali","language_id":20},"transliteration":{"text":"ulāika","language_name":"english","language_id":38}},{"id":42553,"position":2,"audio_url":"wbw/037_041_002.mp3","char_type_name":"word","page_number":447,"line_number":10,"text":"لَهُمْ","translation":{"text":"তাদের জন্যে আছে","language_name":"bengali","language_id":20},"transliteration":{"text":"lahum","language_name":"english","language_id":38}},{"id":42554,"position":3,"audio_url":"wbw/037_041_003.mp3","char_type_name":"word","page_number":447,"line_number":10,"text":"رِزْقٌۭ","translation":{"text":"জীবিকা","language_name":"bengali","language_id":20},"transliteration":{"text":"riz'qun","language_name":"english","language_id":38}},{"id":42555,"position":4,"audio_url":"wbw/037_041_004.mp3","char_type_name":"word","page_number":447,"line_number":10,"text":"مَّعْلُومٌۭ","translation":{"text":"নির্ধারিত","language_name":"bengali","language_id":20},"transliteration":{"text":"maʿlūmun","language_name":"english","language_id":38}},{"id":42556,"position":5,"audio_url":null,"char_type_name":"end","page_number":447,"line_number":10,"text":"٤١","translation":{"text":"(৪১)","language_name":"bengali","language_id":20},"transliteration":{"text":null,"language_name":"english","language_id":38}}]},{"id":3830,"verse_number":42,"verse_key":"37:42","hizb_number":45,"rub_el_hizb_number":179,"ruku_number":389,"manzil_number":6,"sajdah_number":null,"page_number":447,"juz_number":23,"words":[{"id":43276,"position":1,"audio_url":"wbw/037_042_001.mp3","char_type_name":"word","page_number":447,"line_number":11,"text":"فَوَٰكِهُ ۖ","translation":{"text":"ফলমূলসমূহ","language_name":"bengali","language_id":20},"transliteration":{"text":"fawākihu","language_name":"english","language_id":38}},{"id":43278,"position":2,"audio_url":"wbw/037_042_003.mp3","char_type_name":"word","page_number":447,"line_number":11,"text":"وَهُم","translation":{"text":"এবং তারা (হবে)","language_name":"bengali","language_id":20},"transliteration":{"text":"wahum","language_name":"english","language_id":38}},{"id":43279,"position":3,"audio_url":"wbw/037_042_004.mp3","char_type_name":"word","page_number":447,"line_number":11,"text":"مُّكْرَمُونَ","translation":{"text":"সম্মানিত","language_name":"bengali","language_id":20},"transliteration":{"text":"muk'ramūna","language_name":"english","language_id":38}},{"id":43280,"position":4,"audio_url":null,"char_type_name":"end","page_number":447,"line_number":11,"text":"٤٢","translation":{"text":"(৪২)","language_name":"bengali","language_id":20},"transliteration":{"text":null,"language_name":"english","language_id":38}}]},{"id":3831,"verse_number":43,"verse_key":"37:43","hizb_number":45,"rub_el_hizb_number":179,"ruku_number":389,"manzil_number":6,"sajdah_number":null,"page_number":447,"juz_number":23,"words":[{"id":44072,"position":1,"audio_url":"wbw/037_043_001.mp3","char_type_name":"word","page_number":447,"line_number":11,"text":"فِى","translation":{"text":"মধ্যে","language_name":"bengali","language_id":20},"transliteration":{"text":"fī","language_name":"english","language_id":38}},{"id":44073,"position":2,"audio_url":"wbw/037_043_002.mp3","char_type_name":"word","page_number":447,"line_number":11,"text":"جَنَّـٰتِ","translation":{"text":"জান্নাতের","language_name":"bengali","language_id":20},"transliteration":{"text":"jannāti","language_name":"english","language_id":38}},{"id":44074,"position":3,"audio_url":"wbw/037_043_003.mp3","char_type_name":"word","page_number":447,"line_number":11,"text":"ٱلنَّعِيمِ","translation":{"text":"সুখকর","language_name":"bengali","language_id":20},"transliteration":{"text":"l-naʿīmi","language_name":"english","language_id":38}},{"id":44075,"position":4,"audio_url":null,"char_type_name":"end","page_number":447,"line_number":11,"text":"٤٣","translation":{"text":"(৪৩)","language_name":"bengali","language_id":20},"transliteration":{"text":null,"language_name":"english","language_id":38}}]},{"id":3832,"verse_number":44,"verse_key":"37:44","hizb_number":45,"rub_el_hizb_number":179,"ruku_number":389,"manzil_number":6,"sajdah_number":null,"page_number":447,"juz_number":23,"words":[{"id":44474,"position":1,"audio_url":"wbw/037_044_001.mp3","char_type_name":"word","page_number":447,"line_number":11,"text":"عَلَىٰ","translation":{"text":"উপর","language_name":"bengali","language_id":20},"transliteration":{"text":"ʿalā","language_name":"english","language_id":38}},{"id":44475,"position":2,"audio_url":"wbw/037_044_002.mp3","char_type_name":"word","page_number":447,"line_number":11,"text":"سُرُرٍۢ","translation":{"text":"আসনসমূহের (সমাসীন হবে)","language_name":"bengali","language_id":20},"transliteration":{"text":"sururin","language_name":"english","language_id":38}},{"id":44476,"position":3,"audio_url":"wbw/037_044_003.mp3","char_type_name":"word","page_number":447,"line_number":11,"text":"مُّتَقَـٰبِلِينَ","translation":{"text":"মুখোমুখী হয়ে","language_name":"bengali","language_id":20},"transliteration":{"text":"mutaqābilīna","language_name":"english","language_id":38}},{"id":44477,"position":4,"audio_url":null,"char_type_name":"end","page_number":447,"line_number":12,"text":"٤٤","translation":{"text":"(৪৪)","language_name":"bengali","language_id":20},"transliteration":{"text":null,"language_name":"english","language_id":38}}]},{"id":3833,"verse_number":45,"verse_key":"37:45","hizb_number":45,"rub_el_hizb_number":179,"ruku_number":389,"manzil_number":6,"sajdah_number":null,"page_number":447,"juz_number":23,"words":[{"id":45314,"position":1,"audio_url":"wbw/037_045_001.mp3","char_type_name":"word","page_number":447,"line_number":12,"text":"يُطَافُ","translation":{"text":"ঘুরে ঘুরে পরিবেশন করা হবে","language_name":"bengali","language_id":20},"transliteration":{"text":"yuṭāfu","language_name":"english","language_id":38}},{"id":45315,"position":2,"audio_url":"wbw/037_045_002.mp3","char_type_name":"word","page_number":447,"line_number":12,"text":"عَلَيْهِم","translation":{"text":"তাদের কাছে","language_name":"bengali","language_id":20},"transliteration":{"text":"ʿalayhim","language_name":"english","language_id":38}},{"id":45316,"position":3,"audio_url":"wbw/037_045_003.mp3","char_type_name":"word","page_number":447,"line_number":12,"text":"بِكَأْسٍۢ","translation":{"text":"পান পাত্রকে (যা ভরা হবে)","language_name":"bengali","language_id":20},"transliteration":{"text":"bikasin","language_name":"english","language_id":38}},{"id":45317,"position":4,"audio_url":"wbw/037_045_004.mp3","char_type_name":"word","page_number":447,"line_number":12,"text":"مِّن","translation":{"text":"থেকে","language_name":"bengali","language_id":20},"transliteration":{"text":"min","language_name":"english","language_id":38}},{"id":45318,"position":5,"audio_url":"wbw/037_045_005.mp3","char_type_name":"word","page_number":447,"line_number":12,"text":"مَّعِينٍۭ","translation":{"text":"বিশুদ্ধ পানীয় পূর্ণ","language_name":"bengali","language_id":20},"transliteration":{"text":"maʿīnin","language_name":"english","language_id":38}},{"id":45319,"position":6,"audio_url":null,"char_type_name":"end","page_number":447,"line_number":12,"text":"٤٥","translation":{"text":"(৪৫)","language_name":"bengali","language_id":20},"transliteration":{"text":null,"language_name":"english","language_id":38}}]},{"id":3834,"verse_number":46,"verse_key":"37:46","hizb_number":45,"rub_el_hizb_number":179,"ruku_number":389,"manzil_number":6,"sajdah_number":null,"page_number":447,"juz_number":23,"words":[{"id":46070,"position":1,"audio_url":"wbw/037_046_001.mp3","char_type_name":"word","page_number":447,"line_number":12,"text":"بَيْضَآءَ","translation":{"text":"শুভ্র উজ্জ্বল","language_name":"bengali","language_id":20},"transliteration":{"text":"bayḍāa","language_name":"english","language_id":38}},{"id":46071,"position":2,"audio_url":"wbw/037_046_002.mp3","char_type_name":"word","page_number":447,"line_number":12,"text":"لَذَّةٍۢ","translation":{"text":"সুস্বাদু সুপেয়","language_name":"bengali","language_id":20},"transliteration":{"text":"ladhatin","language_name":"english","language_id":38}},{"id":46072,"position":3,"audio_url":"wbw/037_046_003.mp3","char_type_name":"word","page_number":447,"line_number":12,"text":"لِّلشَّـٰرِبِينَ","translation":{"text":"পানকারীদের জন্যে","language_name":"bengali","language_id":20},"transliteration":{"text":"lilshāribīna","language_name":"english","language_id":38}},{"id":46073,"position":4,"audio_url":null,"char_type_name":"end","page_number":447,"line_number":13,"text":"٤٦","translation":{"text":"(৪৬)","language_name":"bengali","language_id":20},"transliteration":{"text":null,"language_name":"english","language_id":38}}]},{"id":3835,"verse_number":47,"verse_key":"37:47","hizb_number":45,"rub_el_hizb_number":179,"ruku_number":389,"manzil_number":6,"sajdah_number":null,"page_number":447,"juz_number":23,"words":[{"id":46692,"position":1,"audio_url":"wbw/037_047_001.mp3","char_type_name":"word","page_number":447,"line_number":13,"text":"لَا","translation":{"text":"না","language_name":"bengali","language_id":20},"transliteration":{"text":"lā","language_name":"english","language_id":38}},{"id":46693,"position":2,"audio_url":"wbw/037_047_002.mp3","char_type_name":"word","page_number":447,"line_number":13,"text":"فِيهَا","translation":{"text":"তার মধ্যে (থাকবে)","language_name":"bengali","language_id":20},"transliteration":{"text":"fīhā","language_name":"english","language_id":38}},{"id":46694,"position":3,"audio_url":"wbw/037_047_003.mp3","char_type_name":"word","page_number":447,"line_number":13,"text":"غَوْلٌۭ","translation":{"text":"কোনো মানসিক বিকৃতি","language_name":"bengali","language_id":20},"transliteration":{"text":"ghawlun","language_name":"english","language_id":38}},{"id":46695,"position":4,"audio_url":"wbw/037_047_004.mp3","char_type_name":"word","page_number":447,"line_number":13,"text":"وَلَا","translation":{"text":"আর না","language_name":"bengali","language_id":20},"transliteration":{"text":"walā","language_name":"english","language_id":38}},{"id":46696,"position":5,"audio_url":"wbw/037_047_005.mp3","char_type_name":"word","page_number":447,"line_number":13,"text":"هُمْ","translation":{"text":"তারা","language_name":"bengali","language_id":20},"transliteration":{"text":"hum","language_name":"english","language_id":38}},{"id":46697,"position":6,"audio_url":"wbw/037_047_006.mp3","char_type_name":"word","page_number":447,"line_number":13,"text":"عَنْهَا","translation":{"text":"তা হ'তে","language_name":"bengali","language_id":20},"transliteration":{"text":"ʿanhā","language_name":"english","language_id":38}},{"id":46698,"position":7,"audio_url":"wbw/037_047_007.mp3","char_type_name":"word","page_number":447,"line_number":13,"text":"يُنزَفُونَ","translation":{"text":"মাতাল হবে","language_name":"bengali","language_id":20},"transliteration":{"text":"yunzafūna","language_name":"english","language_id":38}},{"id":46699,"position":8,"audio_url":null,"char_type_name":"end","page_number":447,"line_number":13,"text":"٤٧","translation":{"text":"(৪৭)","language_name":"bengali","language_id":20},"transliteration":{"text":null,"language_name":"english","language_id":38}}]},{"id":3836,"verse_number":48,"verse_key":"37:48","hizb_number":45,"rub_el_hizb_number":179,"ruku_number":389,"manzil_number":6,"sajdah_number":null,"page_number":447,"juz_number":23,"words":[{"id":47477,"position":1,"audio_url":"wbw/037_048_001.mp3","char_type_name":"word","page_number":447,"line_number":13,"text":"وَعِندَهُمْ","translation":{"text":"এবং কাছে তাদের (এমন তরুণী থাকবে)","language_name":"bengali","language_id":20},"transliteration":{"text":"waʿindahum","language_name":"english","language_id":38}},{"id":47478,"position":2,"audio_url":"wbw/037_048_002.mp3","char_type_name":"word","page_number":447,"line_number":13,"text":"قَـٰصِرَٰتُ","translation":{"text":"(যারা) নতকারিণী","language_name":"bengali","language_id":20},"transliteration":{"text":"qāṣirātu","language_name":"english","language_id":38}},{"id":47479,"position":3,"audio_url":"wbw/037_048_003.mp3","char_type_name":"word","page_number":447,"line_number":14,"text":"ٱلطَّرْفِ","translation":{"text":"দৃষ্টি","language_name":"bengali","language_id":20},"transliteration":{"text":"l-ṭarfi","language_name":"english","language_id":38}},{"id":47480,"position":4,"audio_url":"wbw/037_048_004.mp3","char_type_name":"word","page_number":447,"line_number":14,"text":"عِينٌۭ","translation":{"text":"আয়তলোচনা","language_name":"bengali","language_id":20},"transliteration":{"text":"ʿīnun","language_name":"english","language_id":38}},{"id":47481,"position":5,"audio_url":null,"char_type_name":"end","page_number":447,"line_number":14,"text":"٤٨","translation":{"text":"(৪৮)","language_name":"bengali","language_id":20},"transliteration":{"text":null,"language_name":"english","language_id":38}}]},{"id":3837,"verse_number":49,"verse_key":"37:49","hizb_number":45,"rub_el_hizb_number":179,"ruku_number":389,"manzil_number":6,"sajdah_number":null,"page_number":447,"juz_number":23,"words":[{"id":48157,"position":1,"audio_url":"wbw/037_049_001.mp3","char_type_name":"word","page_number":447,"line_number":14,"text":"كَأَنَّهُنَّ","translation":{"text":"তারা যেন","language_name":"bengali","language_id":20},"transliteration":{"text":"ka-annahunna","language_name":"english","language_id":38}},{"id":48158,"position":2,"audio_url":"wbw/037_049_002.mp3","char_type_name":"word","page_number":447,"line_number":14,"text":"بَيْضٌۭ","translation":{"text":"ডিম","language_name":"bengali","language_id":20},"transliteration":{"text":"bayḍun","language_name":"english","language_id":38}},{"id":48159,"position":3,"audio_url":"wbw/037_049_003.mp3","char_type_name":"word","page_number":447,"line_number":14,"text":"مَّكْنُونٌۭ","translation":{"text":"সুরক্ষিত","language_name":"bengali","language_id":20},"transliteration":{"text":"maknūnun","language_name":"english","language_id":38}},{"id":48160,"position":4,"audio_url":null,"char_type_name":"end","page_number":447,"line_number":14,"text":"٤٩","translation":{"text":"(৪৯)","language_name":"bengali","language_id":20},"transliteration":{"text":null,"language_name":"english","language_id":38}}]},{"id":3838,"verse_number":50,"verse_key":"37:50","hizb_number":45,"rub_el_hizb_number":179,"ruku_number":389,"manzil_number":6,"sajdah_number":null,"page_number":447,"juz_number":23,"words":[{"id":48885,"position":1,"audio_url":"wbw/037_050_001.mp3","char_type_name":"word","page_number":447,"line_number":14,"text":"فَأَقْبَلَ","translation":{"text":"অতঃপর সামনা-সামনি হবে","language_name":"bengali","language_id":20},"transliteration":{"text":"fa-aqbala","language_name":"english","language_id":38}},{"id":48886,"position":2,"audio_url":"wbw/037_050_002.mp3","char_type_name":"word","page_number":447,"line_number":14,"text":"بَعْضُهُمْ","translation":{"text":"তাদের একে","language_name":"bengali","language_id":20},"transliteration":{"text":"baʿḍuhum","language_name":"english","language_id":38}},{"id":48887,"position":3,"audio_url":"wbw/037_050_003.mp3","char_type_name":"word","page_number":447,"line_number":14,"text":"عَلَىٰ","translation":{"text":"দিকে","language_name":"bengali","language_id":20},"transliteration":{"text":"ʿalā","language_name":"english","language_id":38}},{"id":48888,"position":4,"audio_url":"wbw/037_050_004.mp3","char_type_name":"word","page_number":447,"line_number":15,"text":"بَعْضٍۢ","translation":{"text":"অপরের","language_name":"bengali","language_id":20},"transliteration":{"text":"baʿḍin","language_name":"english","language_id":38}},{"id":48889,"position":5,"audio_url":"wbw/037_050_005.mp3","char_type_name":"word","page_number":447,"line_number":15,"text":"يَتَسَآءَلُونَ","translation":{"text":"তারা জিজ্ঞাসাবাদ করবে","language_name":"bengali","language_id":20},"transliteration":{"text":"yatasāalūna","language_name":"english","language_id":38}},{"id":48890,"position":6,"audio_url":null,"char_type_name":"end","page_number":447,"line_number":15,"text":"٥٠","translation":{"text":"(৫০)","language_name":"bengali","language_id":20},"transliteration":{"text":null,"language_name":"english","language_id":38}}]}],"pagination":{"per_page":10,"current_page":5,"next_page":6,"total_pages":19,"total_records":182}}
