{"verses":[{"id":3849,"verse_number":61,"verse_key":"37:61","hizb_number":45,"rub_el_hizb_number":179,"ruku_number":389,"manzil_number":6,"sajdah_number":null,"page_number":448,"juz_number":23,"words":[{"id":55351,"position":1,"audio_url":"wbw/037_061_001.mp3","verse_key":"37:61","verse_id":3849,"location":"37:61:1","text_uthmani":"لِمِثْلِ","qpc_uthmani_hafs":"لِمِثۡلِ","char_type_name":"word","page_number":448,"line_number":6,"text":"لِمِثۡلِ","translation":{"text":"অনুরূপ (সাফল্যের) জন্যে","language_name":"bengali","language_id":20},"transliteration":{"text":"limith'li","language_name":"english","language_id":38}},{"id":55352,"position":2,"audio_url":"wbw/037_061_002.mp3","verse_key":"37:61","verse_id":3849,"location":"37:61:2","text_uthmani":"هَـٰذَا","qpc_uthmani_hafs":"هَٰذَا","char_type_name":"word","page_number":448,"line_number":6,"text":"هَٰذَا","translation":{"text":"এর","language_name":"bengali","language_id":20},"transliteration":{"text":"hādhā","language_name":"english","language_id":38}},{"id":55353,"position":3,"audio_url":"wbw/037_061_003.mp3","verse_key":"37:61","verse_id":3849,"location":"37:61:3","text_uthmani":"فَلْيَعْمَلِ","qpc_uthmani_hafs":"فَلۡيَعۡمَلِ","char_type_name":"word","page_number":448,"line_number":6,"text":"فَلۡيَعۡمَلِ","translation":{"text":"সাধনা করা উচিৎ","language_name":"bengali","language_id":20},"transliteration":{"text":"falyaʿmali","language_name":"english","language_id":38}},{"id":55354,"position":4,"audio_url":"wbw/037_061_004.mp3","verse_key":"37:61","verse_id":3849,"location":"37:61:4","text_uthmani":"ٱلْعَـٰمِلُونَ","qpc_uthmani_hafs":"ٱلۡعَٰمِلُونَ","char_type_name":"word","page_number":448,"line_number":6,"text":"ٱلۡعَٰمِلُونَ","translation":{"text":"পরিশ্রমীদের","language_name":"bengali","language_id":20},"transliteration":{"text":"l-ʿāmilūna","language_name":"english","language_id":38}},{"id":55355,"position":5,"audio_url":null,"verse_key":"37:61","verse_id":3849,"location":"37:61:5","text_uthmani":"٦١","qpc_uthmani_hafs":"٦١","char_type_name":"end","page_number":448,"line_number":6,"text":"٦١","translation":{"text":"(৬১)","language_name":"bengali","language_id":20},"transliteration":{"text":null,"language_name":"english","language_id":38}}]},{"id":3850,"verse_number":62,"verse_key":"37:62","hizb_number":45,"rub_el_hizb_number":179,"ruku_number":389,"manzil_number":6,"sajdah_number":null,"page_number":448,"juz_number":23,"words":[{"id":55882,"position":1,"audio_url":"wbw/037_062_001.mp3","verse_key":"37:62","verse_id":3850,"location":"37:62:1","text_uthmani":"أَذَٰلِكَ","qpc_uthmani_hafs":"أَذَٰلِكَ","char_type_name":"word","page_number":448,"line_number":6,"text":"أَذَٰلِكَ","translation":{"text":"এটা কি","language_name":"bengali","language_id":20},"transliteration":{"text":"adhālika","language_name":"english","language_id":38}},{"id":55883,"position":2,"audio_url":"wbw/037_062_002.mp3","verse_key":"37:62","verse_id":3850,"location":"37:62:2","text_uthmani":"خَيْرٌۭ","qpc_uthmani_hafs":"خَيۡرٞ","char_type_name":"word","page_number":448,"line_number":6,"text":"خَيۡرٞ","translation":{"text":"উত্তম","language_name":"bengali","language_id":20},"transliteration":{"text":"khayrun","language_name":"english","language_id":38}},{"id":55884,"position":3,"audio_url":"wbw/037_062_003.mp3","verse_key":"37:62","verse_id":3850,"location":"37:62:3","text_uthmani":"نُّزُلًا","qpc_uthmani_hafs":"نُّزُلًا","char_type_name":"word","page_number":448,"line_number":6,"text":"نُّزُلًا","translation":{"text":"আপ্যায়ন","language_name":"bengali","language_id":20},"transliteration":{"text":"nuzulan","language_name":"english","language_id":38}},{"id":55885,"position":4,"audio_url":"wbw/037_062_004.mp3","verse_key":"37:62","verse_id":3850,"location":"37:62:4","text_uthmani":"أَمْ","qpc_uthmani_hafs":"أَمۡ","char_type_name":"word","page_number":448,"line_number":6,"text":"أَمۡ","translation":{"text":"না","language_name":"bengali","language_id":20},"transliteration":{"text":"am","language_name":"english","language_id":38}},{"id":55886,"position":5,"audio_url":"wbw/037_062_005.mp3","verse_key":"37:62","verse_id":3850,"location":"37:62:5","text_uthmani":"شَجَرَةُ","qpc_uthmani_hafs":"شَجَرَةُ","char_type_name":"word","page_number":448,"line_number":6,"text":"شَجَرَةُ","translation":{"text":"গাছ","language_name":"bengali","language_id":20},"transliteration":{"text":"shajaratu","language_name":"english","language_id":38}},{"id":55887,"position":6,"audio_url":"wbw/037_062_006.mp3","verse_key":"37:62","verse_id":3850,"location":"37:62:6","text_uthmani":"ٱلزَّقُّومِ","qpc_uthmani_hafs":"ٱلزَّقُّومِ","char_type_name":"word","page_number":448,"line_number":7,"text":"ٱلزَّقُّومِ","translation":{"text":"যাক্কুমের","language_name":"bengali","language_id":20},"transliteration":{"text":"l-zaqūmi","language_name":"english","language_id":38}},{"id":55888,"position":7,"audio_url":null,"verse_key":"37:62","verse_id":3850,"location":"37:62:7","text_uthmani":"٦٢","qpc_uthmani_hafs":"٦٢","char_type_name":"end","page_number":448,"line_number":7,"text":"٦٢","translation":{"text":"(৬২)","language_name":"bengali","language_id":20},"transliteration":{"text":null,"language_name":"english","language_id":38}}]},{"id":3851,"verse_number":63,"verse_key":"37:63","hizb_number":45,"rub_el_hizb_number":179,"ruku_number":389,"manzil_number":6,"sajdah_number":null,"page_number":448,"juz_number":23,"words":[{"id":56431,"position":1,"audio_url":"wbw/037_063_001.mp3","verse_key":"37:63","verse_id":3851,"location":"37:63:1","text_uthmani":"إِنَّا","qpc_uthmani_hafs":"إِنَّا","char_type_name":"word","page_number":448,"line_number":7,"text":"إِنَّا","translation":{"text":"নিশ্চয়ই আমরা","language_name":"bengali","language_id":20},"transliteration":{"text":"innā","language_name":"english","language_id":38}},{"id":56432,"position":2,"audio_url":"wbw/037_063_002.mp3","verse_key":"37:63","verse_id":3851,"location":"37:63:2","text_uthmani":"جَعَلْنَـٰهَا","qpc_uthmani_hafs":"جَعَلۡنَٰهَا","char_type_name":"word","page_number":448,"line_number":7,"text":"جَعَلۡنَٰهَا","translation":{"text":"তা আমরা সৃষ্টি করেছি","language_name":"bengali","language_id":20},"transliteration":{"text":"jaʿalnāhā","language_name":"english","language_id":38}},{"id":56433,"position":3,"audio_url":"wbw/037_063_003.mp3","verse_key":"37:63","verse_id":3851,"location":"37:63:3","text_uthmani":"فِتْنَةًۭ","qpc_uthmani_hafs":"فِتۡنَةٗ","char_type_name":"word","page_number":448,"line_number":7,"text":"فِتۡنَةٗ","translation":{"text":"পরীক্ষা স্বরূপ","language_name":"bengali","language_id":20},"transliteration":{"text":"fit'natan","language_name":"english","language_id":38}},{"id":56434,"position":4,"audio_url":"wbw/037_063_004.mp3","verse_key":"37:63","verse_id":3851,"location":"37:63:4","text_uthmani":"لِّلظَّـٰلِمِينَ","qpc_uthmani_hafs":"لِّلظَّٰلِمِينَ","char_type_name":"word","page_number":448,"line_number":7,"text":"لِّلظَّٰلِمِينَ","translation":{"text":"সীমালঙ্ঘনকারীদের জন্যে","language_name":"bengali","language_id":20},"transliteration":{"text":"lilẓẓālimīna","language_name":"english","language_id":38}},{"id":56435,"position":5,"audio_url":null,"verse_key":"37:63","verse_id":3851,"location":"37:63:5","text_uthmani":"٦٣","qpc_uthmani_hafs":"٦٣","char_type_name":"end","page_number":448,"line_number":7,"text":"٦٣","translation":{"text":"(৬৩)","language_name":"bengali","language_id":20},"transliteration":{"text":null,"language_name":"english","language_id":38}}]},{"id":3852,"verse_number":64,"verse_key":"37:64","hizb_number":45,"rub_el_hizb_number":179,"ruku_number":389,"manzil_number":6,"sajdah_number":null,"page_number":448,"juz_number":23,"words":[{"id":56651,"position":1,"audio_url":"wbw/037_064_001.mp3","verse_key":"37:64","verse_id":3852,"location":"37:64:1","text_uthmani":"إِنَّهَا","qpc_uthmani_hafs":"إِنَّهَا","char_type_name":"word","page_number":448,"line_number":7,"text":"إِنَّهَا","translation":{"text":"তা নিশ্চয়ই (এমন)","language_name":"bengali","language_id":20},"transliteration":{"text":"innahā","language_name":"english","language_id":38}},{"id":56652,"position":2,"audio_url":"wbw/037_064_002.mp3","verse_key":"37:64","verse_id":3852,"location":"37:64:2","text_uthmani":"شَجَرَةٌۭ","qpc_uthmani_hafs":"شَجَرَةٞ","char_type_name":"word","page_number":448,"line_number":7,"text":"شَجَرَةٞ","translation":{"text":"একটি গাছ (যা)","language_name":"bengali","language_id":20},"transliteration":{"text":"shajaratun","language_name":"english","language_id":38}},{"id":56653,"position":3,"audio_url":"wbw/037_064_003.mp3","verse_key":"37:64","verse_id":3852,"location":"37:64:3","text_uthmani":"تَخْرُجُ","qpc_uthmani_hafs":"تَخۡرُجُ","char_type_name":"word","page_number":448,"line_number":8,"text":"تَخۡرُجُ","translation":{"text":"বের হয়","language_name":"bengali","language_id":20},"transliteration":{"text":"takhruju","language_name":"english","language_id":38}},{"id":56654,"position":4,"audio_url":"wbw/037_064_004.mp3","verse_key":"37:64","verse_id":3852,"location":"37:64:4","text_uthmani":"فِىٓ","qpc_uthmani_hafs":"فِيٓ","char_type_name":"word","page_number":448,"line_number":8,"text":"فِيٓ","translation":{"text":"হ'তে","language_name":"bengali","language_id":20},"transliteration":{"text":"fī","language_name":"english","language_id":38}},{"id":56655,"position":5,"audio_url":"wbw/037_064_005.mp3","verse_key":"37:64","verse_id":3852,"location":"37:64:5","text_uthmani":"أَصْلِ","qpc_uthmani_hafs":"أَصۡلِ","char_type_name":"word","page_number":448,"line_number":8,"text":"أَصۡلِ","translation":{"text":"তলদেশ","language_name":"bengali","language_id":20},"transliteration":{"text":"aṣli","language_name":"english","language_id":38}},{"id":56656,"position":6,"audio_url":"wbw/037_064_006.mp3","verse_key":"37:64","verse_id":3852,"location":"37:64:6","text_uthmani":"ٱلْجَحِيمِ","qpc_uthmani_hafs":"ٱلۡجَحِيمِ","char_type_name":"word","page_number":448,"line_number":8,"text":"ٱلۡجَحِيمِ","translation":{"text":"জাহান্নামের","language_name":"bengali","language_id":20},"transliteration":{"text":"l-jaḥīmi","language_name":"english","language_id":38}},{"id":56657,"position":7,"audio_url":null,"verse_key":"37:64","verse_id":3852,"location":"37:64:7","text_uthmani":"٦٤","qpc_uthmani_hafs":"٦٤","char_type_name":"end","page_number":448,"line_number":8,"text":"٦٤","translation":{"text":"(৬৪)","language_name":"bengali","language_id":20},"transliteration":{"text":null,"language_name":"english","language_id":38}}]},{"id":3853,"verse_number":65,"verse_key":"37:65","hizb_number":45,"rub_el_hizb_number":179,"ruku_number":389,"manzil_number":6,"sajdah_number":null,"page_number":448,"juz_number":23,"words":[{"id":57403,"position":1,"audio_url":"wbw/037_065_001.mp3","verse_key":"37:65","verse_id":3853,"location":"37:65:1","text_uthmani":"طَلْعُهَا","qpc_uthmani_hafs":"طَلۡعُهَا","char_type_name":"word","page_number":448,"line_number":8,"text":"طَلۡعُهَا","translation":{"text":"তার গুচ্ছগুলো (হচ্ছে এমন)","language_name":"bengali","language_id":20},"transliteration":{"text":"ṭalʿuhā","language_name":"english","language_id":38}},{"id":57404,"position":2,"audio_url":"wbw/037_065_002.mp3","verse_key":"37:65","verse_id":3853,"location":"37:65:2","text_uthmani":"كَأَنَّهُۥ","qpc_uthmani_hafs":"كَأَنَّهُۥ","char_type_name":"word","page_number":448,"line_number":8,"text":"كَأَنَّهُۥ","translation":{"text":"তা যেন","language_name":"bengali","language_id":20},"transliteration":{"text":"ka-annahu","language_name":"english","language_id":38}},{"id":57405,"position":3,"audio_url":"wbw/037_065_003.mp3","verse_key":"37:65","verse_id":3853,"location":"37:65:3","text_uthmani":"رُءُوسُ","qpc_uthmani_hafs":"رُءُوسُ","char_type_name":"word","page_number":448,"line_number":8,"text":"رُءُوسُ","translation":{"text":"মাথাসমূহ","language_name":"bengali","language_id":20},"transliteration":{"text":"ruūsu","language_name":"english","language_id":38}},{"id":57406,"position":4,"audio_url":"wbw/037_065_004.mp3","verse_key":"37:65","verse_id":3853,"location":"37:65:4","text_uthmani":"ٱلشَّيَـٰطِينِ","qpc_uthmani_hafs":"ٱلشَّيَٰطِينِ","char_type_name":"word","page_number":448,"line_number":8,"text":"ٱلشَّيَٰطِينِ","translation":{"text":"শয়তানগুলোর","language_name":"bengali","language_id":20},"transliteration":{"text":"l-shayāṭīni","language_name":"english","language_id":38}},{"id":57407,"position":5,"audio_url":null,"verse_key":"37:65","verse_id":3853,"location":"37:65:5","text_uthmani":"٦٥","qpc_uthmani_hafs":"٦٥","char_type_name":"end","page_number":448,"line_number":9,"text":"٦٥","translation":{"text":"(৬৫)","language_name":"bengali","language_id":20},"transliteration":{"text":null,"language_name":"english","language_id":38}}]},{"id":3854,"verse_number":66,"verse_key":"37:66","hizb_number":45,"rub_el_hizb_number":179,"ruku_number":389,"manzil_number":6,"sajdah_number":null,"page_number":448,"juz_number":23,"words":[{"id":57894,"position":1,"audio_url":"wbw/037_066_001.mp3","verse_key":"37:66","verse_id":3854,"location":"37:66:1","text_uthmani":"فَإِنَّهُمْ","qpc_uthmani_hafs":"فَإِنَّهُمۡ","char_type_name":"word","page_number":448,"line_number":9,"text":"فَإِنَّهُمۡ","translation":{"text":"নিশ্চয়ই অতঃপর তারা","language_name":"bengali","language_id":20},"transliteration":{"text":"fa-innahum","language_name":"english","language_id":38}},{"id":57895,"position":2,"audio_url":"wbw/037_066_002.mp3","verse_key":"37:66","verse_id":3854,"location":"37:66:2","text_uthmani":"لَـَٔاكِلُونَ","qpc_uthmani_hafs":"لَأٓكِلُونَ","char_type_name":"word","page_number":448,"line_number":9,"text":"لَأٓكِلُونَ","translation":{"text":"খেতে বাধ্য হবেই","language_name":"bengali","language_id":20},"transliteration":{"text":"laākilūna","language_name":"english","language_id":38}},{"id":57896,"position":3,"audio_url":"wbw/037_066_003.mp3","verse_key":"37:66","verse_id":3854,"location":"37:66:3","text_uthmani":"مِنْهَا","qpc_uthmani_hafs":"مِنۡهَا","char_type_name":"word","page_number":448,"line_number":9,"text":"مِنۡهَا","translation":{"text":"তা থেকে","language_name":"bengali","language_id":20},"transliteration":{"text":"min'hā","language_name":"english","language_id":38}},{"id":57897,"position":4,"audio_url":"wbw/037_066_004.mp3","verse_key":"37:66","verse_id":3854,"location":"37:66:4","text_uthmani":"فَمَالِـُٔونَ","qpc_uthmani_hafs":"فَمَالِـُٔونَ","char_type_name":"word","page_number":448,"line_number":9,"text":"فَمَالِـُٔونَ","translation":{"text":"এভাবে পূর্ণকারী হবে","language_name":"bengali","language_id":20},"transliteration":{"text":"famāliūna","language_name":"english","language_id":38}},{"id":57898,"position":5,"audio_url":"wbw/037_066_005.mp3","verse_key":"37:66","verse_id":3854,"location":"37:66:5","text_uthmani":"مِنْهَا","qpc_uthmani_hafs":"مِنۡهَا","char_type_name":"word","page_number":448,"line_number":9,"text":"مِنۡهَا","translation":{"text":"তা থেকে","language_name":"bengali","language_id":20},"transliteration":{"text":"min'hā","language_name":"english","language_id":38}},{"id":57899,"position":6,"audio_url":"wbw/037_066_006.mp3","verse_key":"37:66","verse_id":3854,"location":"37:66:6","text_uthmani":"ٱلْبُطُونَ","qpc_uthmani_hafs":"ٱلۡبُطُونَ","char_type_name":"word","page_number":448,"line_number":9,"text":"ٱلۡبُطُونَ","translation":{"text":"(তাদের) পেট","language_name":"bengali","language_id":20},"transliteration":{"text":"l-buṭūna","language_name":"english","language_id":38}},{"id":57900,"position":7,"audio_url":null,"verse_key":"37:66","verse_id":3854,"location":"37:66:7","text_uthmani":"٦٦","qpc_uthmani_hafs":"٦٦","char_type_name":"end","page_number":448,"line_number":9,"text":"٦٦","translation":{"text":"(৬৬)","language_name":"bengali","language_id":20},"transliteration":{"text":null,"language_name":"english","language_id":38}}]},{"id":3855,"verse_number":67,"verse_key":"37:67","hizb_number":45,"rub_el_hizb_number":179,"ruku_number":389,"manzil_number":6,"sajdah_number":null,"page_number":448,"juz_number":23,"words":[{"id":58350,"position":1,"audio_url":"wbw/037_067_001.mp3","verse_key":"37:67","verse_id":3855,"location":"37:67:1","text_uthmani":"ثُمَّ","qpc_uthmani_hafs":"ثُمَّ","char_type_name":"word","page_number":448,"line_number":9,"text":"ثُمَّ","translation":{"text":"এরপর","language_name":"bengali","language_id":20},"transliteration":{"text":"thumma","language_name":"english","language_id":38}},{"id":58351,"position":2,"audio_url":"wbw/037_067_002.mp3","verse_key":"37:67","verse_id":3855,"location":"37:67:2","text_uthmani":"إِنَّ","qpc_uthmani_hafs":"إِنَّ","char_type_name":"word","page_number":448,"line_number":9,"text":"إِنَّ","translation":{"text":"নিশ্চয়ই","language_name":"bengali","language_id":20},"transliteration":{"text":"inna","language_name":"english","language_id":38}},{"id":58352,"position":3,"audio_url":"wbw/037_067_003.mp3","verse_key":"37:67","verse_id":3855,"location":"37:67:3","text_uthmani":"لَهُمْ","qpc_uthmani_hafs":"لَهُمۡ","char_type_name":"word","page_number":448,"line_number":9,"text":"لَهُمۡ","translation":{"text":"তাদের জন্যে (থাকবে)","language_name":"bengali","language_id":20},"transliteration":{"text":"lahum","language_name":"english","language_id":38}},{"id":58353,"position":4,"audio_url":"wbw/037_067_004.mp3","verse_key":"37:67","verse_id":3855,"location":"37:67:4","text_uthmani":"عَلَيْهَا","qpc_uthmani_hafs":"عَلَيۡهَا","char_type_name":"word","page_number":448,"line_number":10,"text":"عَلَيۡهَا","translation":{"text":"তার উপর","language_name":"bengali","language_id":20},"transliteration":{"text":"ʿalayhā","language_name":"english","language_id":38}},{"id":58354,"position":5,"audio_url":"wbw/037_067_005.mp3","verse_key":"37:67","verse_id":3855,"location":"37:67:5","text_uthmani":"لَشَوْبًۭا","qpc_uthmani_hafs":"لَشَوۡبٗا","char_type_name":"word","page_number":448,"line_number":10,"text":"لَشَوۡبٗا","translation":{"text":"অবশ্যই মিশ্রিত পানীয়","language_name":"bengali","language_id":20},"transliteration":{"text":"lashawban","language_name":"english","language_id":38}},{"id":58355,"position":6,"audio_url":"wbw/037_067_006.mp3","verse_key":"37:67","verse_id":3855,"location":"37:67:6","text_uthmani":"مِّنْ","qpc_uthmani_hafs":"مِّنۡ","char_type_name":"word","page_number":448,"line_number":10,"text":"مِّنۡ","translation":{"text":"থেকে","language_name":"bengali","language_id":20},"transliteration":{"text":"min","language_name":"english","language_id":38}},{"id":58356,"position":7,"audio_url":"wbw/037_067_007.mp3","verse_key":"37:67","verse_id":3855,"location":"37:67:7","text_uthmani":"حَمِيمٍۢ","qpc_uthmani_hafs":"حَمِيمٖ","char_type_name":"word","page_number":448,"line_number":10,"text":"حَمِيمٖ","translation":{"text":"ফুটন্ত পানির","language_name":"bengali","language_id":20},"transliteration":{"text":"ḥamīmin","language_name":"english","language_id":38}},{"id":58357,"position":8,"audio_url":null,"verse_key":"37:67","verse_id":3855,"location":"37:67:8","text_uthmani":"٦٧","qpc_uthmani_hafs":"٦٧","char_type_name":"end","page_number":448,"line_number":10,"text":"٦٧","translation":{"text":"(৬৭)","language_name":"bengali","language_id":20},"transliteration":{"text":null,"language_name":"english","language_id":38}}]},{"id":3856,"verse_number":68,"verse_key":"37:68","hizb_number":45,"rub_el_hizb_number":179,"ruku_number":389,"manzil_number":6,"sajdah_number":null,"page_number":448,"juz_number":23,"words":[{"id":58579,"position":1,"audio_url":"wbw/037_068_001.mp3","verse_key":"37:68","verse_id":3856,"location":"37:68:1","text_uthmani":"ثُمَّ","qpc_uthmani_hafs":"ثُمَّ","char_type_name":"word","page_number":448,"line_number":10,"text":"ثُمَّ","translation":{"text":"এরপর","language_name":"bengali","language_id":20},"transliteration":{"text":"thumma","language_name":"english","language_id":38}},{"id":58580,"position":2,"audio_url":"wbw/037_068_002.mp3","verse_key":"37:68","verse_id":3856,"location":"37:68:2","text_uthmani":"إِنَّ","qpc_uthmani_hafs":"إِنَّ","char_type_name":"word","page_number":448,"line_number":10,"text":"إِنَّ","translation":{"text":"নিশ্চয়ই","language_name":"bengali","language_id":20},"transliteration":{"text":"inna","language_name":"english","language_id":38}},{"id":58581,"position":3,"audio_url":"wbw/037_068_003.mp3","verse_key":"37:68","verse_id":3856,"location":"37:68:3","text_uthmani":"مَرْجِعَهُمْ","qpc_uthmani_hafs":"مَرۡجِعَهُمۡ","char_type_name":"word","page_number":448,"line_number":10,"text":"مَرۡجِعَهُمۡ","translation":{"text":"তাদের প্রত্যাবর্তন হবে","language_name":"bengali","language_id":20},"transliteration":{"text":"marjiʿahum","language_name":"english","language_id":38}},{"id":58582,"position":4,"audio_url":"wbw/037_068_004.mp3","verse_key":"37:68","verse_id":3856,"location":"37:68:4","text_uthmani":"لَإِلَى","qpc_uthmani_hafs":"لَإِلَى","char_type_name":"word","page_number":448,"line_number":10,"text":"لَإِلَى","translation":{"text":"অবশ্যই দিকে","language_name":"bengali","language_id":20},"transliteration":{"text":"la-ilā","language_name":"english","language_id":38}},{"id":58583,"position":5,"audio_url":"wbw/037_068_005.mp3","verse_key":"37:68","verse_id":3856,"location":"37:68:5","text_uthmani":"ٱلْجَحِيمِ","qpc_uthmani_hafs":"ٱلۡجَحِيمِ","char_type_name":"word","page_number":448,"line_number":10,"text":"ٱلۡجَحِيمِ","translation":{"text":"জাহান্নামের","language_name":"bengali","language_id":20},"transliteration":{"text":"l-jaḥīmi","language_name":"english","language_id":38}},{"id":58584,"position":6,"audio_url":null,"verse_key":"37:68","verse_id":3856,"location":"37:68:6","text_uthmani":"٦٨","qpc_uthmani_hafs":"٦٨","char_type_name":"end","page_number":448,"line_number":10,"text":"٦٨","translation":{"text":"(৬৮)","language_name":"bengali","language_id":20},"transliteration":{"text":null,"language_name":"english","language_id":38}}]},{"id":3857,"verse_number":69,"verse_key":"37:69","hizb_number":45,"rub_el_hizb_number":179,"ruku_number":389,"manzil_number":6,"sajdah_number":null,"page_number":448,"juz_number":23,"words":[{"id":59334,"position":1,"audio_url":"wbw/037_069_001.mp3","verse_key":"37:69","verse_id":3857,"location":"37:69:1","text_uthmani":"إِنَّهُمْ","qpc_uthmani_hafs":"إِنَّهُمۡ","char_type_name":"word","page_number":448,"line_number":11,"text":"إِنَّهُمۡ","translation":{"text":"তারা নিশ্চয়ই","language_name":"bengali","language_id":20},"transliteration":{"text":"innahum","language_name":"english","language_id":38}},{"id":59335,"position":2,"audio_url":"wbw/037_069_002.mp3","verse_key":"37:69","verse_id":3857,"location":"37:69:2","text_uthmani":"أَلْفَوْا۟","qpc_uthmani_hafs":"أَلۡفَوۡاْ","char_type_name":"word","page_number":448,"line_number":11,"text":"أَلۡفَوۡاْ","translation":{"text":"পেয়েছিলো","language_name":"bengali","language_id":20},"transliteration":{"text":"alfaw","language_name":"english","language_id":38}},{"id":59336,"position":3,"audio_url":"wbw/037_069_003.mp3","verse_key":"37:69","verse_id":3857,"location":"37:69:3","text_uthmani":"ءَابَآءَهُمْ","qpc_uthmani_hafs":"ءَابَآءَهُمۡ","char_type_name":"word","page_number":448,"line_number":11,"text":"ءَابَآءَهُمۡ","translation":{"text":"তাদের পিতৃপুরুষদেরকে","language_name":"bengali","language_id":20},"transliteration":{"text":"ābāahum","language_name":"english","language_id":38}},{"id":59337,"position":4,"audio_url":"wbw/037_069_004.mp3","verse_key":"37:69","verse_id":3857,"location":"37:69:4","text_uthmani":"ضَآلِّينَ","qpc_uthmani_hafs":"ضَآلِّينَ","char_type_name":"word","page_number":448,"line_number":11,"text":"ضَآلِّينَ","translation":{"text":"বিপথগামী","language_name":"bengali","language_id":20},"transliteration":{"text":"ḍāllīna","language_name":"english","language_id":38}},{"id":59338,"position":5,"audio_url":null,"verse_key":"37:69","verse_id":3857,"location":"37:69:5","text_uthmani":"٦٩","qpc_uthmani_hafs":"٦٩","char_type_name":"end","page_number":448,"line_number":11,"text":"٦٩","translation":{"text":"(৬৯)","language_name":"bengali","language_id":20},"transliteration":{"text":null,"language_name":"english","language_id":38}}]},{"id":3858,"verse_number":70,"verse_key":"37:70","hizb_number":45,"rub_el_hizb_number":179,"ruku_number":389,"manzil_number":6,"sajdah_number":null,"page_number":448,"juz_number":23,"words":[{"id":59768,"position":1,"audio_url":"wbw/037_070_001.mp3","verse_key":"37:70","verse_id":3858,"location":"37:70:1","text_uthmani":"فَهُمْ","qpc_uthmani_hafs":"فَهُمۡ","char_type_name":"word","page_number":448,"line_number":11,"text":"فَهُمۡ","translation":{"text":"অতঃপর তারা","language_name":"bengali","language_id":20},"transliteration":{"text":"fahum","language_name":"english","language_id":38}},{"id":59769,"position":2,"audio_url":"wbw/037_070_002.mp3","verse_key":"37:70","verse_id":3858,"location":"37:70:2","text_uthmani":"عَلَىٰٓ","qpc_uthmani_hafs":"عَلَىٰٓ","char_type_name":"word","page_number":448,"line_number":11,"text":"عَلَىٰٓ","translation":{"text":"উপর","language_name":"bengali","language_id":20},"transliteration":{"text":"ʿalā","language_name":"english","language_id":38}},{"id":59770,"position":3,"audio_url":"wbw/037_070_003.mp3","verse_key":"37:70","verse_id":3858,"location":"37:70:3","text_uthmani":"ءَاثَـٰرِهِمْ","qpc_uthmani_hafs":"ءَاثَٰرِهِمۡ","char_type_name":"word","page_number":448,"line_number":11,"text":"ءَاثَٰرِهِمۡ","translation":{"text":"তাদের পদাঙ্কের","language_name":"bengali","language_id":20},"transliteration":{"text":"āthārihim","language_name":"english","language_id":38}},{"id":59771,"position":4,"audio_url":"wbw/037_070_004.mp3","verse_key":"37:70","verse_id":3858,"location":"37:70:4","text_uthmani":"يُهْرَعُونَ","qpc_uthmani_hafs":"يُهۡرَعُونَ","char_type_name":"word","page_number":448,"line_number":11,"text":"يُهۡرَعُونَ","translation":{"text":"ছুটে চলছে","language_name":"bengali","language_id":20},"transliteration":{"text":"yuh'raʿūna","language_name":"english","language_id":38}},{"id":59772,"position":5,"audio_url":null,"verse_key":"37:70","verse_id":3858,"location":"37:70:5","text_uthmani":"٧٠","qpc_uthmani_hafs":"٧٠","char_type_name":"end","page_number":448,"line_number":11,"text":"٧٠","translation":{"text":"(৭০)","language_name":"bengali","language_id":20},"transliteration":{"text":null,"language_name":"english","language_id":38}}]}],"pagination":{"per_page":10,"current_page":7,"next_page":8,"total_pages":19,"total_records":182}}
