{"verses":[{"id":3859,"verse_number":71,"verse_key":"37:71","hizb_number":45,"rub_el_hizb_number":179,"ruku_number":389,"manzil_number":6,"sajdah_number":null,"page_number":448,"juz_number":23,"words":[{"id":60326,"position":1,"audio_url":"wbw/037_071_001.mp3","char_type_name":"word","page_number":448,"line_number":12,"text":"وَلَقَدْ","translation":{"text":"এবং নিশ্চয়ই","language_name":"bengali","language_id":20},"transliteration":{"text":"walaqad","language_name":"english","language_id":38}},{"id":60327,"position":2,"audio_url":"wbw/037_071_002.mp3","char_type_name":"word","page_number":448,"line_number":12,"text":"ضَلَّ","translation":{"text":"পথভ্রষ্ট হয়েছিলো","language_name":"bengali","language_id":20},"transliteration":{"text":"ḍalla","language_name":"english","language_id":38}},{"id":60328,"position":3,"audio_url":"wbw/037_071_003.mp3","char_type_name":"word","page_number":448,"line_number":12,"text":"قَبْلَهُمْ","translation":{"text":"তাদের পূর্বেও","language_name":"bengali","language_id":20},"transliteration":{"text":"qablahum","language_name":"english","language_id":38}},{"id":60329,"position":4,"audio_url":"wbw/037_071_004.mp3","char_type_name":"word","page_number":448,"line_number":12,"text":"أَكْثَرُ","translation":{"text":"অধিকাংশ","language_name":"bengali","language_id":20},"transliteration":{"text":"aktharu","language_name":"english","language_id":38}},{"id":60330,"position":5,"audio_url":"wbw/037_071_005.mp3","char_type_name":"word","page_number":448,"line_number":12,"text":"ٱلْأَوَّلِينَ","translation":{"text":"পূর্ববর্তীদের","language_name":"bengali","language_id":20},"transliteration":{"text":"l-awalīna","language_name":"english","language_id":38}},{"id":60331,"position":6,"audio_url":null,"char_type_name":"end","page_number":448,"line_number":12,"text":"٧١","translation":{"text":"(৭১)","language_name":"bengali","language_id":20},"transliteration":{"text":null,"language_name":"english","language_id":38}}]},{"id":3860,"verse_number":72,"verse_key":"37:72","hizb_number":45,"rub_el_hizb_number":179,"ruku_number":389,"manzil_number":6,"sajdah_number":null,"page_number":448,"juz_number":23,"words":[{"id":60585,"position":1,"audio_url":"wbw/037_072_001.mp3","char_type_name":"word","page_number":448,"line_number":12,"text":"وَلَقَدْ","translation":{"text":"এবং নিশ্চয়ই","language_name":"bengali","language_id":20},"transliteration":{"text":"walaqad","language_name":"english","language_id":38}},{"id":60586,"position":2,"audio_url":"wbw/037_072_002.mp3","char_type_name":"word","page_number":448,"line_number":12,"text":"أَرْسَلْنَا","translation":{"text":"আমরা পাঠিয়েছিলাম","language_name":"bengali","language_id":20},"transliteration":{"text":"arsalnā","language_name":"english","language_id":38}},{"id":60587,"position":3,"audio_url":"wbw/037_072_003.mp3","char_type_name":"word","page_number":448,"line_number":12,"text":"فِيهِم","translation":{"text":"তাদের মধ্যে","language_name":"bengali","language_id":20},"transliteration":{"text":"fīhim","language_name":"english","language_id":38}},{"id":60588,"position":4,"audio_url":"wbw/037_072_004.mp3","char_type_name":"word","page_number":448,"line_number":13,"text":"مُّنذِرِينَ","translation":{"text":"সতর্ককারীদেরকে (রাসূলরূপে)","language_name":"bengali","language_id":20},"transliteration":{"text":"mundhirīna","language_name":"english","language_id":38}},{"id":60589,"position":5,"audio_url":null,"char_type_name":"end","page_number":448,"line_number":13,"text":"٧٢","translation":{"text":"(৭২)","language_name":"bengali","language_id":20},"transliteration":{"text":null,"language_name":"english","language_id":38}}]},{"id":3861,"verse_number":73,"verse_key":"37:73","hizb_number":45,"rub_el_hizb_number":179,"ruku_number":389,"manzil_number":6,"sajdah_number":null,"page_number":448,"juz_number":23,"words":[{"id":61362,"position":1,"audio_url":"wbw/037_073_001.mp3","char_type_name":"word","page_number":448,"line_number":13,"text":"فَٱنظُرْ","translation":{"text":"দেখো অতঃপর","language_name":"bengali","language_id":20},"transliteration":{"text":"fa-unẓur","language_name":"english","language_id":38}},{"id":61363,"position":2,"audio_url":"wbw/037_073_002.mp3","char_type_name":"word","page_number":448,"line_number":13,"text":"كَيْفَ","translation":{"text":"কেমন","language_name":"bengali","language_id":20},"transliteration":{"text":"kayfa","language_name":"english","language_id":38}},{"id":61364,"position":3,"audio_url":"wbw/037_073_003.mp3","char_type_name":"word","page_number":448,"line_number":13,"text":"كَانَ","translation":{"text":"হয়েছিলো","language_name":"bengali","language_id":20},"transliteration":{"text":"kāna","language_name":"english","language_id":38}},{"id":61365,"position":4,"audio_url":"wbw/037_073_004.mp3","char_type_name":"word","page_number":448,"line_number":13,"text":"عَـٰقِبَةُ","translation":{"text":"পরিণাম (সেই লোকদের)","language_name":"bengali","language_id":20},"transliteration":{"text":"ʿāqibatu","language_name":"english","language_id":38}},{"id":61366,"position":5,"audio_url":"wbw/037_073_005.mp3","char_type_name":"word","page_number":448,"line_number":13,"text":"ٱلْمُنذَرِينَ","translation":{"text":"যাদের সতর্ক করা হয়েছিলো","language_name":"bengali","language_id":20},"transliteration":{"text":"l-mundharīna","language_name":"english","language_id":38}},{"id":61367,"position":6,"audio_url":null,"char_type_name":"end","page_number":448,"line_number":13,"text":"٧٣","translation":{"text":"(৭৩)","language_name":"bengali","language_id":20},"transliteration":{"text":null,"language_name":"english","language_id":38}}]},{"id":3862,"verse_number":74,"verse_key":"37:74","hizb_number":45,"rub_el_hizb_number":179,"ruku_number":389,"manzil_number":6,"sajdah_number":null,"page_number":448,"juz_number":23,"words":[{"id":61452,"position":1,"audio_url":"wbw/037_074_001.mp3","char_type_name":"word","page_number":448,"line_number":14,"text":"إِلَّا","translation":{"text":"তবে স্বতন্ত্র (কথা)","language_name":"bengali","language_id":20},"transliteration":{"text":"illā","language_name":"english","language_id":38}},{"id":61453,"position":2,"audio_url":"wbw/037_074_002.mp3","char_type_name":"word","page_number":448,"line_number":14,"text":"عِبَادَ","translation":{"text":"দাসদের","language_name":"bengali","language_id":20},"transliteration":{"text":"ʿibāda","language_name":"english","language_id":38}},{"id":61454,"position":3,"audio_url":"wbw/037_074_003.mp3","char_type_name":"word","page_number":448,"line_number":14,"text":"ٱللَّهِ","translation":{"text":"আল্লাহর","language_name":"bengali","language_id":20},"transliteration":{"text":"l-lahi","language_name":"english","language_id":38}},{"id":61455,"position":4,"audio_url":"wbw/037_074_004.mp3","char_type_name":"word","page_number":448,"line_number":14,"text":"ٱلْمُخْلَصِينَ","translation":{"text":"খাঁটি (যাদের)","language_name":"bengali","language_id":20},"transliteration":{"text":"l-mukh'laṣīna","language_name":"english","language_id":38}},{"id":61456,"position":5,"audio_url":null,"char_type_name":"end","page_number":448,"line_number":14,"text":"٧٤","translation":{"text":"(৭৪)","language_name":"bengali","language_id":20},"transliteration":{"text":null,"language_name":"english","language_id":38}}]},{"id":3863,"verse_number":75,"verse_key":"37:75","hizb_number":45,"rub_el_hizb_number":179,"ruku_number":390,"manzil_number":6,"sajdah_number":null,"page_number":448,"juz_number":23,"words":[{"id":62050,"position":1,"audio_url":"wbw/037_075_001.mp3","char_type_name":"word","page_number":448,"line_number":14,"text":"وَلَقَدْ","translation":{"text":"এবং নিশ্চয়ই","language_name":"bengali","language_id":20},"transliteration":{"text":"walaqad","language_name":"english","language_id":38}},{"id":62051,"position":2,"audio_url":"wbw/037_075_002.mp3","char_type_name":"word","page_number":448,"line_number":14,"text":"نَادَىٰنَا","translation":{"text":"আমাদেরকে ডেকেছিলো","language_name":"bengali","language_id":20},"transliteration":{"text":"nādānā","language_name":"english","language_id":38}},{"id":62052,"position":3,"audio_url":"wbw/037_075_003.mp3","char_type_name":"word","page_number":448,"line_number":14,"text":"نُوحٌۭ","translation":{"text":"নূহ","language_name":"bengali","language_id":20},"transliteration":{"text":"nūḥun","language_name":"english","language_id":38}},{"id":62053,"position":4,"audio_url":"wbw/037_075_004.mp3","char_type_name":"word","page_number":448,"line_number":14,"text":"فَلَنِعْمَ","translation":{"text":"অতঃপর কত উত্তম","language_name":"bengali","language_id":20},"transliteration":{"text":"falaniʿ'ma","language_name":"english","language_id":38}},{"id":62054,"position":5,"audio_url":"wbw/037_075_005.mp3","char_type_name":"word","page_number":448,"line_number":15,"text":"ٱلْمُجِيبُونَ","translation":{"text":"সাড়াদানকারী (আমরা)","language_name":"bengali","language_id":20},"transliteration":{"text":"l-mujībūna","language_name":"english","language_id":38}},{"id":62055,"position":6,"audio_url":null,"char_type_name":"end","page_number":448,"line_number":15,"text":"٧٥","translation":{"text":"(৭৫)","language_name":"bengali","language_id":20},"transliteration":{"text":null,"language_name":"english","language_id":38}}]},{"id":3864,"verse_number":76,"verse_key":"37:76","hizb_number":45,"rub_el_hizb_number":179,"ruku_number":390,"manzil_number":6,"sajdah_number":null,"page_number":448,"juz_number":23,"words":[{"id":62353,"position":1,"audio_url":"wbw/037_076_001.mp3","char_type_name":"word","page_number":448,"line_number":15,"text":"وَنَجَّيْنَـٰهُ","translation":{"text":"এবং তাকে আমরা করেছিলাম উদ্ধার","language_name":"bengali","language_id":20},"transliteration":{"text":"wanajjaynāhu","language_name":"english","language_id":38}},{"id":62354,"position":2,"audio_url":"wbw/037_076_002.mp3","char_type_name":"word","page_number":448,"line_number":15,"text":"وَأَهْلَهُۥ","translation":{"text":"ও তার পরিবারকে","language_name":"bengali","language_id":20},"transliteration":{"text":"wa-ahlahu","language_name":"english","language_id":38}},{"id":62355,"position":3,"audio_url":"wbw/037_076_003.mp3","char_type_name":"word","page_number":448,"line_number":15,"text":"مِنَ","translation":{"text":"হ'তে","language_name":"bengali","language_id":20},"transliteration":{"text":"mina","language_name":"english","language_id":38}},{"id":62356,"position":4,"audio_url":"wbw/037_076_004.mp3","char_type_name":"word","page_number":448,"line_number":15,"text":"ٱلْكَرْبِ","translation":{"text":"সংকট","language_name":"bengali","language_id":20},"transliteration":{"text":"l-karbi","language_name":"english","language_id":38}},{"id":62357,"position":5,"audio_url":"wbw/037_076_005.mp3","char_type_name":"word","page_number":448,"line_number":15,"text":"ٱلْعَظِيمِ","translation":{"text":"মহা","language_name":"bengali","language_id":20},"transliteration":{"text":"l-ʿaẓīmi","language_name":"english","language_id":38}},{"id":62358,"position":6,"audio_url":null,"char_type_name":"end","page_number":448,"line_number":15,"text":"٧٦","translation":{"text":"(৭৬)","language_name":"bengali","language_id":20},"transliteration":{"text":null,"language_name":"english","language_id":38}}]},{"id":3865,"verse_number":77,"verse_key":"37:77","hizb_number":45,"rub_el_hizb_number":179,"ruku_number":390,"manzil_number":6,"sajdah_number":null,"page_number":449,"juz_number":23,"words":[{"id":63163,"position":1,"audio_url":"wbw/037_077_001.mp3","char_type_name":"word","page_number":449,"line_number":1,"text":"وَجَعَلْنَا","translation":{"text":"এবং আমরা রাখলাম","language_name":"bengali","language_id":20},"transliteration":{"text":"wajaʿalnā","language_name":"english","language_id":38}},{"id":63164,"position":2,"audio_url":"wbw/037_077_002.mp3","char_type_name":"word","page_number":449,"line_number":1,"text":"ذُرِّيَّتَهُۥ","translation":{"text":"তার বংশধরকে (এমন যে)","language_name":"bengali","language_id":20},"transliteration":{"text":"dhurriyyatahu","language_name":"english","language_id":38}},{"id":63165,"position":3,"audio_url":"wbw/037_077_003.mp3","char_type_name":"word","page_number":449,"line_number":1,"text":"هُمُ","translation":{"text":"তারাই","language_name":"bengali","language_id":20},"transliteration":{"text":"humu","language_name":"english","language_id":38}},{"id":63166,"position":4,"audio_url":"wbw/037_077_004.mp3","char_type_name":"word","page_number":449,"line_number":1,"text":"ٱلْبَاقِينَ","translation":{"text":"অবশিষ্ট","language_name":"bengali","language_id":20},"transliteration":{"text":"l-bāqīna","language_name":"english","language_id":38}},{"id":63167,"position":5,"audio_url":null,"char_type_name":"end","page_number":449,"line_number":1,"text":"٧٧","translation":{"text":"(৭৭)","language_name":"bengali","language_id":20},"transliteration":{"text":null,"language_name":"english","language_id":38}}]},{"id":3866,"verse_number":78,"verse_key":"37:78","hizb_number":45,"rub_el_hizb_number":179,"ruku_number":390,"manzil_number":6,"sajdah_number":null,"page_number":449,"juz_number":23,"words":[{"id":63683,"position":1,"audio_url":"wbw/037_078_001.mp3","char_type_name":"word","page_number":449,"line_number":1,"text":"وَتَرَكْنَا","translation":{"text":"এবং আমরা ছেড়েছি (প্রশংসা)","language_name":"bengali","language_id":20},"transliteration":{"text":"wataraknā","language_name":"english","language_id":38}},{"id":63684,"position":2,"audio_url":"wbw/037_078_002.mp3","char_type_name":"word","page_number":449,"line_number":1,"text":"عَلَيْهِ","translation":{"text":"তার সম্বন্ধে","language_name":"bengali","language_id":20},"transliteration":{"text":"ʿalayhi","language_name":"english","language_id":38}},{"id":63685,"position":3,"audio_url":"wbw/037_078_003.mp3","char_type_name":"word","page_number":449,"line_number":1,"text":"فِى","translation":{"text":"মধ্যে","language_name":"bengali","language_id":20},"transliteration":{"text":"fī","language_name":"english","language_id":38}},{"id":63686,"position":4,"audio_url":"wbw/037_078_004.mp3","char_type_name":"word","page_number":449,"line_number":1,"text":"ٱلْـَٔاخِرِينَ","translation":{"text":"পরবর্তীদের","language_name":"bengali","language_id":20},"transliteration":{"text":"l-ākhirīna","language_name":"english","language_id":38}},{"id":63687,"position":5,"audio_url":null,"char_type_name":"end","page_number":449,"line_number":1,"text":"٧٨","translation":{"text":"(৭৮)","language_name":"bengali","language_id":20},"transliteration":{"text":null,"language_name":"english","language_id":38}}]},{"id":3867,"verse_number":79,"verse_key":"37:79","hizb_number":45,"rub_el_hizb_number":179,"ruku_number":390,"manzil_number":6,"sajdah_number":null,"page_number":449,"juz_number":23,"words":[{"id":63744,"position":1,"audio_url":"wbw/037_079_001.mp3","char_type_name":"word","page_number":449,"line_number":1,"text":"سَلَـٰمٌ","translation":{"text":"\"শান্তি (বর্ষিত হোক)","language_name":"bengali","language_id":20},"transliteration":{"text":"salāmun","language_name":"english","language_id":38}},{"id":63745,"position":2,"audio_url":"wbw/037_079_002.mp3","char_type_name":"word","page_number":449,"line_number":2,"text":"عَلَىٰ","translation":{"text":"উপর","language_name":"bengali","language_id":20},"transliteration":{"text":"ʿalā","language_name":"english","language_id":38}},{"id":63746,"position":3,"audio_url":"wbw/037_079_003.mp3","char_type_name":"word","page_number":449,"line_number":2,"text":"نُوحٍۢ","translation":{"text":"নূহের","language_name":"bengali","language_id":20},"transliteration":{"text":"nūḥin","language_name":"english","language_id":38}},{"id":63747,"position":4,"audio_url":"wbw/037_079_004.mp3","char_type_name":"word","page_number":449,"line_number":2,"text":"فِى","translation":{"text":"মধ্যে","language_name":"bengali","language_id":20},"transliteration":{"text":"fī","language_name":"english","language_id":38}},{"id":63748,"position":5,"audio_url":"wbw/037_079_005.mp3","char_type_name":"word","page_number":449,"line_number":2,"text":"ٱلْعَـٰلَمِينَ","translation":{"text":"সমগ্র বিশ্বের\"","language_name":"bengali","language_id":20},"transliteration":{"text":"l-ʿālamīna","language_name":"english","language_id":38}},{"id":63749,"position":6,"audio_url":null,"char_type_name":"end","page_number":449,"line_number":2,"text":"٧٩","translation":{"text":"(৭৯)","language_name":"bengali","language_id":20},"transliteration":{"text":null,"language_name":"english","language_id":38}}]},{"id":3868,"verse_number":80,"verse_key":"37:80","hizb_number":45,"rub_el_hizb_number":179,"ruku_number":390,"manzil_number":6,"sajdah_number":null,"page_number":449,"juz_number":23,"words":[{"id":64162,"position":1,"audio_url":"wbw/037_080_001.mp3","char_type_name":"word","page_number":449,"line_number":2,"text":"إِنَّا","translation":{"text":"নিশ্চয়ই আমরা","language_name":"bengali","language_id":20},"transliteration":{"text":"innā","language_name":"english","language_id":38}},{"id":64163,"position":2,"audio_url":"wbw/037_080_002.mp3","char_type_name":"word","page_number":449,"line_number":2,"text":"كَذَٰلِكَ","translation":{"text":"এভাবে","language_name":"bengali","language_id":20},"transliteration":{"text":"kadhālika","language_name":"english","language_id":38}},{"id":64164,"position":3,"audio_url":"wbw/037_080_003.mp3","char_type_name":"word","page_number":449,"line_number":2,"text":"نَجْزِى","translation":{"text":"পুরস্কার দিই আমরা","language_name":"bengali","language_id":20},"transliteration":{"text":"najzī","language_name":"english","language_id":38}},{"id":64165,"position":4,"audio_url":"wbw/037_080_004.mp3","char_type_name":"word","page_number":449,"line_number":2,"text":"ٱلْمُحْسِنِينَ","translation":{"text":"সৎকর্মপরায়ণদেরকে","language_name":"bengali","language_id":20},"transliteration":{"text":"l-muḥ'sinīna","language_name":"english","language_id":38}},{"id":64166,"position":5,"audio_url":null,"char_type_name":"end","page_number":449,"line_number":2,"text":"٨٠","translation":{"text":"(৮০)","language_name":"bengali","language_id":20},"transliteration":{"text":null,"language_name":"english","language_id":38}}]}],"pagination":{"per_page":10,"current_page":8,"next_page":9,"total_pages":19,"total_records":182}}
