{"verses":[{"id":5759,"verse_number":1,"verse_key":"80:1","hizb_number":59,"rub_el_hizb_number":234,"ruku_number":524,"manzil_number":7,"sajdah_number":null,"page_number":585,"juz_number":30,"words":[{"id":692,"position":1,"audio_url":"wbw/080_001_001.mp3","verse_key":"80:1","verse_id":5759,"location":"80:1:1","text_uthmani":"عَبَسَ","qpc_uthmani_hafs":"عَبَسَ","char_type_name":"word","page_number":585,"line_number":2,"text":"عَبَسَ","translation":{"text":"সে ভ্রুকুঞ্চিত করল","language_name":"bengali","language_id":20},"transliteration":{"text":"ʿabasa","language_name":"english","language_id":38}},{"id":693,"position":2,"audio_url":"wbw/080_001_002.mp3","verse_key":"80:1","verse_id":5759,"location":"80:1:2","text_uthmani":"وَتَوَلَّىٰٓ","qpc_uthmani_hafs":"وَتَوَلَّىٰٓ","char_type_name":"word","page_number":585,"line_number":2,"text":"وَتَوَلَّىٰٓ","translation":{"text":"ও (মুখ ফিরালো) অনাগ্রহ দেখালো","language_name":"bengali","language_id":20},"transliteration":{"text":"watawallā","language_name":"english","language_id":38}},{"id":694,"position":3,"audio_url":null,"verse_key":"80:1","verse_id":5759,"location":"80:1:3","text_uthmani":"١","qpc_uthmani_hafs":"١","char_type_name":"end","page_number":585,"line_number":2,"text":"١","translation":{"text":"(১)","language_name":"bengali","language_id":20},"transliteration":{"text":null,"language_name":"english","language_id":38}}]},{"id":5760,"verse_number":2,"verse_key":"80:2","hizb_number":59,"rub_el_hizb_number":234,"ruku_number":524,"manzil_number":7,"sajdah_number":null,"page_number":585,"juz_number":30,"words":[{"id":1718,"position":1,"audio_url":"wbw/080_002_001.mp3","verse_key":"80:2","verse_id":5760,"location":"80:2:1","text_uthmani":"أَن","qpc_uthmani_hafs":"أَن","char_type_name":"word","page_number":585,"line_number":2,"text":"أَن","translation":{"text":"(এ জন্যে) যে","language_name":"bengali","language_id":20},"transliteration":{"text":"an","language_name":"english","language_id":38}},{"id":1719,"position":2,"audio_url":"wbw/080_002_002.mp3","verse_key":"80:2","verse_id":5760,"location":"80:2:2","text_uthmani":"جَآءَهُ","qpc_uthmani_hafs":"جَآءَهُ","char_type_name":"word","page_number":585,"line_number":2,"text":"جَآءَهُ","translation":{"text":"তার (কাছে) এসেছে","language_name":"bengali","language_id":20},"transliteration":{"text":"jāahu","language_name":"english","language_id":38}},{"id":1720,"position":3,"audio_url":"wbw/080_002_003.mp3","verse_key":"80:2","verse_id":5760,"location":"80:2:3","text_uthmani":"ٱلْأَعْمَىٰ","qpc_uthmani_hafs":"ٱلۡأَعۡمَىٰ","char_type_name":"word","page_number":585,"line_number":2,"text":"ٱلۡأَعۡمَىٰ","translation":{"text":"এক অন্ধ","language_name":"bengali","language_id":20},"transliteration":{"text":"l-aʿmā","language_name":"english","language_id":38}},{"id":1721,"position":4,"audio_url":null,"verse_key":"80:2","verse_id":5760,"location":"80:2:4","text_uthmani":"٢","qpc_uthmani_hafs":"٢","char_type_name":"end","page_number":585,"line_number":2,"text":"٢","translation":{"text":"(২)","language_name":"bengali","language_id":20},"transliteration":{"text":null,"language_name":"english","language_id":38}}]},{"id":5761,"verse_number":3,"verse_key":"80:3","hizb_number":59,"rub_el_hizb_number":234,"ruku_number":524,"manzil_number":7,"sajdah_number":null,"page_number":585,"juz_number":30,"words":[{"id":2814,"position":1,"audio_url":"wbw/080_003_001.mp3","verse_key":"80:3","verse_id":5761,"location":"80:3:1","text_uthmani":"وَمَا","qpc_uthmani_hafs":"وَمَا","char_type_name":"word","page_number":585,"line_number":2,"text":"وَمَا","translation":{"text":"এবং কিসে","language_name":"bengali","language_id":20},"transliteration":{"text":"wamā","language_name":"english","language_id":38}},{"id":2815,"position":2,"audio_url":"wbw/080_003_002.mp3","verse_key":"80:3","verse_id":5761,"location":"80:3:2","text_uthmani":"يُدْرِيكَ","qpc_uthmani_hafs":"يُدۡرِيكَ","char_type_name":"word","page_number":585,"line_number":2,"text":"يُدۡرِيكَ","translation":{"text":"তোমাকে জানাবে","language_name":"bengali","language_id":20},"transliteration":{"text":"yud'rīka","language_name":"english","language_id":38}},{"id":2816,"position":3,"audio_url":"wbw/080_003_003.mp3","verse_key":"80:3","verse_id":5761,"location":"80:3:3","text_uthmani":"لَعَلَّهُۥ","qpc_uthmani_hafs":"لَعَلَّهُۥ","char_type_name":"word","page_number":585,"line_number":2,"text":"لَعَلَّهُۥ","translation":{"text":"সে হয়তো","language_name":"bengali","language_id":20},"transliteration":{"text":"laʿallahu","language_name":"english","language_id":38}},{"id":2817,"position":4,"audio_url":"wbw/080_003_004.mp3","verse_key":"80:3","verse_id":5761,"location":"80:3:4","text_uthmani":"يَزَّكَّىٰٓ","qpc_uthmani_hafs":"يَزَّكَّىٰٓ","char_type_name":"word","page_number":585,"line_number":2,"text":"يَزَّكَّىٰٓ","translation":{"text":"পরিশুদ্ধ হতো","language_name":"bengali","language_id":20},"transliteration":{"text":"yazzakkā","language_name":"english","language_id":38}},{"id":2818,"position":5,"audio_url":null,"verse_key":"80:3","verse_id":5761,"location":"80:3:5","text_uthmani":"٣","qpc_uthmani_hafs":"٣","char_type_name":"end","page_number":585,"line_number":2,"text":"٣","translation":{"text":"(৩)","language_name":"bengali","language_id":20},"transliteration":{"text":null,"language_name":"english","language_id":38}}]},{"id":5762,"verse_number":4,"verse_key":"80:4","hizb_number":59,"rub_el_hizb_number":234,"ruku_number":524,"manzil_number":7,"sajdah_number":null,"page_number":585,"juz_number":30,"words":[{"id":4187,"position":1,"audio_url":"wbw/080_004_001.mp3","verse_key":"80:4","verse_id":5762,"location":"80:4:1","text_uthmani":"أَوْ","qpc_uthmani_hafs":"أَوۡ","char_type_name":"word","page_number":585,"line_number":3,"text":"أَوۡ","translation":{"text":"বা","language_name":"bengali","language_id":20},"transliteration":{"text":"aw","language_name":"english","language_id":38}},{"id":4188,"position":2,"audio_url":"wbw/080_004_002.mp3","verse_key":"80:4","verse_id":5762,"location":"80:4:2","text_uthmani":"يَذَّكَّرُ","qpc_uthmani_hafs":"يَذَّكَّرُ","char_type_name":"word","page_number":585,"line_number":3,"text":"يَذَّكَّرُ","translation":{"text":"উপদেশ গ্রহণ করতো","language_name":"bengali","language_id":20},"transliteration":{"text":"yadhakkaru","language_name":"english","language_id":38}},{"id":4189,"position":3,"audio_url":"wbw/080_004_003.mp3","verse_key":"80:4","verse_id":5762,"location":"80:4:3","text_uthmani":"فَتَنفَعَهُ","qpc_uthmani_hafs":"فَتَنفَعَهُ","char_type_name":"word","page_number":585,"line_number":3,"text":"فَتَنفَعَهُ","translation":{"text":"তাকে অতঃপর উপকার দিত","language_name":"bengali","language_id":20},"transliteration":{"text":"fatanfaʿahu","language_name":"english","language_id":38}},{"id":4190,"position":4,"audio_url":"wbw/080_004_004.mp3","verse_key":"80:4","verse_id":5762,"location":"80:4:4","text_uthmani":"ٱلذِّكْرَىٰٓ","qpc_uthmani_hafs":"ٱلذِّكۡرَىٰٓ","char_type_name":"word","page_number":585,"line_number":3,"text":"ٱلذِّكۡرَىٰٓ","translation":{"text":"উপদেশ","language_name":"bengali","language_id":20},"transliteration":{"text":"l-dhik'rā","language_name":"english","language_id":38}},{"id":4191,"position":5,"audio_url":null,"verse_key":"80:4","verse_id":5762,"location":"80:4:5","text_uthmani":"٤","qpc_uthmani_hafs":"٤","char_type_name":"end","page_number":585,"line_number":3,"text":"٤","translation":{"text":"(৪)","language_name":"bengali","language_id":20},"transliteration":{"text":null,"language_name":"english","language_id":38}}]},{"id":5763,"verse_number":5,"verse_key":"80:5","hizb_number":59,"rub_el_hizb_number":234,"ruku_number":524,"manzil_number":7,"sajdah_number":null,"page_number":585,"juz_number":30,"words":[{"id":5455,"position":1,"audio_url":"wbw/080_005_001.mp3","verse_key":"80:5","verse_id":5763,"location":"80:5:1","text_uthmani":"أَمَّا","qpc_uthmani_hafs":"أَمَّا","char_type_name":"word","page_number":585,"line_number":3,"text":"أَمَّا","translation":{"text":"পক্ষান্তরে","language_name":"bengali","language_id":20},"transliteration":{"text":"ammā","language_name":"english","language_id":38}},{"id":5456,"position":2,"audio_url":"wbw/080_005_002.mp3","verse_key":"80:5","verse_id":5763,"location":"80:5:2","text_uthmani":"مَنِ","qpc_uthmani_hafs":"مَنِ","char_type_name":"word","page_number":585,"line_number":3,"text":"مَنِ","translation":{"text":"যে","language_name":"bengali","language_id":20},"transliteration":{"text":"mani","language_name":"english","language_id":38}},{"id":5457,"position":3,"audio_url":"wbw/080_005_003.mp3","verse_key":"80:5","verse_id":5763,"location":"80:5:3","text_uthmani":"ٱسْتَغْنَىٰ","qpc_uthmani_hafs":"ٱسۡتَغۡنَىٰ","char_type_name":"word","page_number":585,"line_number":3,"text":"ٱسۡتَغۡنَىٰ","translation":{"text":"বেপরোয়া হলো (উন্নাসিকতা দেখালো)","language_name":"bengali","language_id":20},"transliteration":{"text":"is'taghnā","language_name":"english","language_id":38}},{"id":5458,"position":4,"audio_url":null,"verse_key":"80:5","verse_id":5763,"location":"80:5:4","text_uthmani":"٥","qpc_uthmani_hafs":"٥","char_type_name":"end","page_number":585,"line_number":3,"text":"٥","translation":{"text":"(৫)","language_name":"bengali","language_id":20},"transliteration":{"text":null,"language_name":"english","language_id":38}}]},{"id":5764,"verse_number":6,"verse_key":"80:6","hizb_number":59,"rub_el_hizb_number":234,"ruku_number":524,"manzil_number":7,"sajdah_number":null,"page_number":585,"juz_number":30,"words":[{"id":6685,"position":1,"audio_url":"wbw/080_006_001.mp3","verse_key":"80:6","verse_id":5764,"location":"80:6:1","text_uthmani":"فَأَنتَ","qpc_uthmani_hafs":"فَأَنتَ","char_type_name":"word","page_number":585,"line_number":3,"text":"فَأَنتَ","translation":{"text":"অথচ তুমি","language_name":"bengali","language_id":20},"transliteration":{"text":"fa-anta","language_name":"english","language_id":38}},{"id":6686,"position":2,"audio_url":"wbw/080_006_002.mp3","verse_key":"80:6","verse_id":5764,"location":"80:6:2","text_uthmani":"لَهُۥ","qpc_uthmani_hafs":"لَهُۥ","char_type_name":"word","page_number":585,"line_number":3,"text":"لَهُۥ","translation":{"text":"তার জন্যে","language_name":"bengali","language_id":20},"transliteration":{"text":"lahu","language_name":"english","language_id":38}},{"id":6687,"position":3,"audio_url":"wbw/080_006_003.mp3","verse_key":"80:6","verse_id":5764,"location":"80:6:3","text_uthmani":"تَصَدَّىٰ","qpc_uthmani_hafs":"تَصَدَّىٰ","char_type_name":"word","page_number":585,"line_number":3,"text":"تَصَدَّىٰ","translation":{"text":"মনযোগ দিচ্ছো","language_name":"bengali","language_id":20},"transliteration":{"text":"taṣaddā","language_name":"english","language_id":38}},{"id":6688,"position":4,"audio_url":null,"verse_key":"80:6","verse_id":5764,"location":"80:6:4","text_uthmani":"٦","qpc_uthmani_hafs":"٦","char_type_name":"end","page_number":585,"line_number":4,"text":"٦","translation":{"text":"(৬)","language_name":"bengali","language_id":20},"transliteration":{"text":null,"language_name":"english","language_id":38}}]},{"id":5765,"verse_number":7,"verse_key":"80:7","hizb_number":59,"rub_el_hizb_number":234,"ruku_number":524,"manzil_number":7,"sajdah_number":null,"page_number":585,"juz_number":30,"words":[{"id":8029,"position":1,"audio_url":"wbw/080_007_001.mp3","verse_key":"80:7","verse_id":5765,"location":"80:7:1","text_uthmani":"وَمَا","qpc_uthmani_hafs":"وَمَا","char_type_name":"word","page_number":585,"line_number":4,"text":"وَمَا","translation":{"text":"কিন্তু নাই","language_name":"bengali","language_id":20},"transliteration":{"text":"wamā","language_name":"english","language_id":38}},{"id":8030,"position":2,"audio_url":"wbw/080_007_002.mp3","verse_key":"80:7","verse_id":5765,"location":"80:7:2","text_uthmani":"عَلَيْكَ","qpc_uthmani_hafs":"عَلَيۡكَ","char_type_name":"word","page_number":585,"line_number":4,"text":"عَلَيۡكَ","translation":{"text":"তোমার উপর (দায়িত্ব)","language_name":"bengali","language_id":20},"transliteration":{"text":"ʿalayka","language_name":"english","language_id":38}},{"id":8031,"position":3,"audio_url":"wbw/080_007_003.mp3","verse_key":"80:7","verse_id":5765,"location":"80:7:3","text_uthmani":"أَلَّا","qpc_uthmani_hafs":"أَلَّا","char_type_name":"word","page_number":585,"line_number":4,"text":"أَلَّا","translation":{"text":"যদি না","language_name":"bengali","language_id":20},"transliteration":{"text":"allā","language_name":"english","language_id":38}},{"id":8032,"position":4,"audio_url":"wbw/080_007_004.mp3","verse_key":"80:7","verse_id":5765,"location":"80:7:4","text_uthmani":"يَزَّكَّىٰ","qpc_uthmani_hafs":"يَزَّكَّىٰ","char_type_name":"word","page_number":585,"line_number":4,"text":"يَزَّكَّىٰ","translation":{"text":"সে পরিশুদ্ধ হয়","language_name":"bengali","language_id":20},"transliteration":{"text":"yazzakkā","language_name":"english","language_id":38}},{"id":8033,"position":5,"audio_url":null,"verse_key":"80:7","verse_id":5765,"location":"80:7:5","text_uthmani":"٧","qpc_uthmani_hafs":"٧","char_type_name":"end","page_number":585,"line_number":4,"text":"٧","translation":{"text":"(৭)","language_name":"bengali","language_id":20},"transliteration":{"text":null,"language_name":"english","language_id":38}}]},{"id":5766,"verse_number":8,"verse_key":"80:8","hizb_number":59,"rub_el_hizb_number":234,"ruku_number":524,"manzil_number":7,"sajdah_number":null,"page_number":585,"juz_number":30,"words":[{"id":9193,"position":1,"audio_url":"wbw/080_008_001.mp3","verse_key":"80:8","verse_id":5766,"location":"80:8:1","text_uthmani":"وَأَمَّا","qpc_uthmani_hafs":"وَأَمَّا","char_type_name":"word","page_number":585,"line_number":4,"text":"وَأَمَّا","translation":{"text":"আর অন্যপক্ষে","language_name":"bengali","language_id":20},"transliteration":{"text":"wa-ammā","language_name":"english","language_id":38}},{"id":9194,"position":2,"audio_url":"wbw/080_008_002.mp3","verse_key":"80:8","verse_id":5766,"location":"80:8:2","text_uthmani":"مَن","qpc_uthmani_hafs":"مَن","char_type_name":"word","page_number":585,"line_number":4,"text":"مَن","translation":{"text":"যে","language_name":"bengali","language_id":20},"transliteration":{"text":"man","language_name":"english","language_id":38}},{"id":9195,"position":3,"audio_url":"wbw/080_008_003.mp3","verse_key":"80:8","verse_id":5766,"location":"80:8:3","text_uthmani":"جَآءَكَ","qpc_uthmani_hafs":"جَآءَكَ","char_type_name":"word","page_number":585,"line_number":4,"text":"جَآءَكَ","translation":{"text":"তোমার কাছে আসল","language_name":"bengali","language_id":20},"transliteration":{"text":"jāaka","language_name":"english","language_id":38}},{"id":9196,"position":4,"audio_url":"wbw/080_008_004.mp3","verse_key":"80:8","verse_id":5766,"location":"80:8:4","text_uthmani":"يَسْعَىٰ","qpc_uthmani_hafs":"يَسۡعَىٰ","char_type_name":"word","page_number":585,"line_number":4,"text":"يَسۡعَىٰ","translation":{"text":"দৌড়ে","language_name":"bengali","language_id":20},"transliteration":{"text":"yasʿā","language_name":"english","language_id":38}},{"id":9197,"position":5,"audio_url":null,"verse_key":"80:8","verse_id":5766,"location":"80:8:5","text_uthmani":"٨","qpc_uthmani_hafs":"٨","char_type_name":"end","page_number":585,"line_number":4,"text":"٨","translation":{"text":"(৮)","language_name":"bengali","language_id":20},"transliteration":{"text":null,"language_name":"english","language_id":38}}]},{"id":5767,"verse_number":9,"verse_key":"80:9","hizb_number":59,"rub_el_hizb_number":234,"ruku_number":524,"manzil_number":7,"sajdah_number":null,"page_number":585,"juz_number":30,"words":[{"id":10408,"position":1,"audio_url":"wbw/080_009_001.mp3","verse_key":"80:9","verse_id":5767,"location":"80:9:1","text_uthmani":"وَهُوَ","qpc_uthmani_hafs":"وَهُوَ","char_type_name":"word","page_number":585,"line_number":4,"text":"وَهُوَ","translation":{"text":"এবং সে","language_name":"bengali","language_id":20},"transliteration":{"text":"wahuwa","language_name":"english","language_id":38}},{"id":10409,"position":2,"audio_url":"wbw/080_009_002.mp3","verse_key":"80:9","verse_id":5767,"location":"80:9:2","text_uthmani":"يَخْشَىٰ","qpc_uthmani_hafs":"يَخۡشَىٰ","char_type_name":"word","page_number":585,"line_number":4,"text":"يَخۡشَىٰ","translation":{"text":"ভয় করে","language_name":"bengali","language_id":20},"transliteration":{"text":"yakhshā","language_name":"english","language_id":38}},{"id":10410,"position":3,"audio_url":null,"verse_key":"80:9","verse_id":5767,"location":"80:9:3","text_uthmani":"٩","qpc_uthmani_hafs":"٩","char_type_name":"end","page_number":585,"line_number":4,"text":"٩","translation":{"text":"(৯)","language_name":"bengali","language_id":20},"transliteration":{"text":null,"language_name":"english","language_id":38}}]},{"id":5768,"verse_number":10,"verse_key":"80:10","hizb_number":59,"rub_el_hizb_number":234,"ruku_number":524,"manzil_number":7,"sajdah_number":null,"page_number":585,"juz_number":30,"words":[{"id":11634,"position":1,"audio_url":"wbw/080_010_001.mp3","verse_key":"80:10","verse_id":5768,"location":"80:10:1","text_uthmani":"فَأَنتَ","qpc_uthmani_hafs":"فَأَنتَ","char_type_name":"word","page_number":585,"line_number":5,"text":"فَأَنتَ","translation":{"text":"অথচ তুমি","language_name":"bengali","language_id":20},"transliteration":{"text":"fa-anta","language_name":"english","language_id":38}},{"id":11635,"position":2,"audio_url":"wbw/080_010_002.mp3","verse_key":"80:10","verse_id":5768,"location":"80:10:2","text_uthmani":"عَنْهُ","qpc_uthmani_hafs":"عَنۡهُ","char_type_name":"word","page_number":585,"line_number":5,"text":"عَنۡهُ","translation":{"text":"তার থেকে","language_name":"bengali","language_id":20},"transliteration":{"text":"ʿanhu","language_name":"english","language_id":38}},{"id":11636,"position":3,"audio_url":"wbw/080_010_003.mp3","verse_key":"80:10","verse_id":5768,"location":"80:10:3","text_uthmani":"تَلَهَّىٰ","qpc_uthmani_hafs":"تَلَهَّىٰ","char_type_name":"word","page_number":585,"line_number":5,"text":"تَلَهَّىٰ","translation":{"text":"অনীহা প্রকাশ করছ","language_name":"bengali","language_id":20},"transliteration":{"text":"talahhā","language_name":"english","language_id":38}},{"id":11637,"position":4,"audio_url":null,"verse_key":"80:10","verse_id":5768,"location":"80:10:4","text_uthmani":"١٠","qpc_uthmani_hafs":"١٠","char_type_name":"end","page_number":585,"line_number":5,"text":"١٠","translation":{"text":"(১০)","language_name":"bengali","language_id":20},"transliteration":{"text":null,"language_name":"english","language_id":38}}]}],"pagination":{"per_page":10,"current_page":1,"next_page":2,"total_pages":5,"total_records":42}}
