{"verses":[{"id":5779,"verse_number":21,"verse_key":"80:21","hizb_number":59,"rub_el_hizb_number":234,"ruku_number":524,"manzil_number":7,"sajdah_number":null,"page_number":585,"juz_number":30,"words":[{"id":23983,"position":1,"audio_url":"wbw/080_021_001.mp3","verse_key":"80:21","verse_id":5779,"location":"80:21:1","text_uthmani":"ثُمَّ","qpc_uthmani_hafs":"ثُمَّ","char_type_name":"word","page_number":585,"line_number":8,"text":"ثُمَّ","translation":{"text":"এরপর","language_name":"bengali","language_id":20},"transliteration":{"text":"thumma","language_name":"english","language_id":38}},{"id":23984,"position":2,"audio_url":"wbw/080_021_002.mp3","verse_key":"80:21","verse_id":5779,"location":"80:21:2","text_uthmani":"أَمَاتَهُۥ","qpc_uthmani_hafs":"أَمَاتَهُۥ","char_type_name":"word","page_number":585,"line_number":8,"text":"أَمَاتَهُۥ","translation":{"text":"তাকে মৃত্যু দেন","language_name":"bengali","language_id":20},"transliteration":{"text":"amātahu","language_name":"english","language_id":38}},{"id":23985,"position":3,"audio_url":"wbw/080_021_003.mp3","verse_key":"80:21","verse_id":5779,"location":"80:21:3","text_uthmani":"فَأَقْبَرَهُۥ","qpc_uthmani_hafs":"فَأَقۡبَرَهُۥ","char_type_name":"word","page_number":585,"line_number":8,"text":"فَأَقۡبَرَهُۥ","translation":{"text":"অতঃপর তাকে  কবরস্থ করেন","language_name":"bengali","language_id":20},"transliteration":{"text":"fa-aqbarahu","language_name":"english","language_id":38}},{"id":23986,"position":4,"audio_url":null,"verse_key":"80:21","verse_id":5779,"location":"80:21:4","text_uthmani":"٢١","qpc_uthmani_hafs":"٢١","char_type_name":"end","page_number":585,"line_number":8,"text":"٢١","translation":{"text":"(২১)","language_name":"bengali","language_id":20},"transliteration":{"text":null,"language_name":"english","language_id":38}}]},{"id":5780,"verse_number":22,"verse_key":"80:22","hizb_number":59,"rub_el_hizb_number":234,"ruku_number":524,"manzil_number":7,"sajdah_number":null,"page_number":585,"juz_number":30,"words":[{"id":25002,"position":1,"audio_url":"wbw/080_022_001.mp3","verse_key":"80:22","verse_id":5780,"location":"80:22:1","text_uthmani":"ثُمَّ","qpc_uthmani_hafs":"ثُمَّ","char_type_name":"word","page_number":585,"line_number":8,"text":"ثُمَّ","translation":{"text":"এরপর","language_name":"bengali","language_id":20},"transliteration":{"text":"thumma","language_name":"english","language_id":38}},{"id":25003,"position":2,"audio_url":"wbw/080_022_002.mp3","verse_key":"80:22","verse_id":5780,"location":"80:22:2","text_uthmani":"إِذَا","qpc_uthmani_hafs":"إِذَا","char_type_name":"word","page_number":585,"line_number":8,"text":"إِذَا","translation":{"text":"যখন","language_name":"bengali","language_id":20},"transliteration":{"text":"idhā","language_name":"english","language_id":38}},{"id":25004,"position":3,"audio_url":"wbw/080_022_003.mp3","verse_key":"80:22","verse_id":5780,"location":"80:22:3","text_uthmani":"شَآءَ","qpc_uthmani_hafs":"شَآءَ","char_type_name":"word","page_number":585,"line_number":9,"text":"شَآءَ","translation":{"text":"চাইবেন","language_name":"bengali","language_id":20},"transliteration":{"text":"shāa","language_name":"english","language_id":38}},{"id":25005,"position":4,"audio_url":"wbw/080_022_004.mp3","verse_key":"80:22","verse_id":5780,"location":"80:22:4","text_uthmani":"أَنشَرَهُۥ","qpc_uthmani_hafs":"أَنشَرَهُۥ","char_type_name":"word","page_number":585,"line_number":9,"text":"أَنشَرَهُۥ","translation":{"text":"তাকে পুনরায়  জীবিত করবেন","language_name":"bengali","language_id":20},"transliteration":{"text":"ansharahu","language_name":"english","language_id":38}},{"id":25006,"position":5,"audio_url":null,"verse_key":"80:22","verse_id":5780,"location":"80:22:5","text_uthmani":"٢٢","qpc_uthmani_hafs":"٢٢","char_type_name":"end","page_number":585,"line_number":9,"text":"٢٢","translation":{"text":"(২২)","language_name":"bengali","language_id":20},"transliteration":{"text":null,"language_name":"english","language_id":38}}]},{"id":5781,"verse_number":23,"verse_key":"80:23","hizb_number":59,"rub_el_hizb_number":234,"ruku_number":524,"manzil_number":7,"sajdah_number":null,"page_number":585,"juz_number":30,"words":[{"id":26068,"position":1,"audio_url":"wbw/080_023_001.mp3","verse_key":"80:23","verse_id":5781,"location":"80:23:1","text_uthmani":"كَلَّا","qpc_uthmani_hafs":"كـَلَّا","char_type_name":"word","page_number":585,"line_number":9,"text":"كـَلَّا","translation":{"text":"কখনও না","language_name":"bengali","language_id":20},"transliteration":{"text":"kallā","language_name":"english","language_id":38}},{"id":26069,"position":2,"audio_url":"wbw/080_023_002.mp3","verse_key":"80:23","verse_id":5781,"location":"80:23:2","text_uthmani":"لَمَّا","qpc_uthmani_hafs":"لَمَّا","char_type_name":"word","page_number":585,"line_number":9,"text":"لَمَّا","translation":{"text":"না যা","language_name":"bengali","language_id":20},"transliteration":{"text":"lammā","language_name":"english","language_id":38}},{"id":26070,"position":3,"audio_url":"wbw/080_023_003.mp3","verse_key":"80:23","verse_id":5781,"location":"80:23:3","text_uthmani":"يَقْضِ","qpc_uthmani_hafs":"يَقۡضِ","char_type_name":"word","page_number":585,"line_number":9,"text":"يَقۡضِ","translation":{"text":"সে পালন করে","language_name":"bengali","language_id":20},"transliteration":{"text":"yaqḍi","language_name":"english","language_id":38}},{"id":26071,"position":4,"audio_url":"wbw/080_023_004.mp3","verse_key":"80:23","verse_id":5781,"location":"80:23:4","text_uthmani":"مَآ","qpc_uthmani_hafs":"مَآ","char_type_name":"word","page_number":585,"line_number":9,"text":"مَآ","translation":{"text":"যা","language_name":"bengali","language_id":20},"transliteration":{"text":"mā","language_name":"english","language_id":38}},{"id":26072,"position":5,"audio_url":"wbw/080_023_005.mp3","verse_key":"80:23","verse_id":5781,"location":"80:23:5","text_uthmani":"أَمَرَهُۥ","qpc_uthmani_hafs":"أَمَرَهُۥ","char_type_name":"word","page_number":585,"line_number":9,"text":"أَمَرَهُۥ","translation":{"text":"তাকে আদেশ করেছেন তিনি","language_name":"bengali","language_id":20},"transliteration":{"text":"amarahu","language_name":"english","language_id":38}},{"id":26073,"position":6,"audio_url":null,"verse_key":"80:23","verse_id":5781,"location":"80:23:6","text_uthmani":"٢٣","qpc_uthmani_hafs":"٢٣","char_type_name":"end","page_number":585,"line_number":9,"text":"٢٣","translation":{"text":"(২৩)","language_name":"bengali","language_id":20},"transliteration":{"text":null,"language_name":"english","language_id":38}}]},{"id":5782,"verse_number":24,"verse_key":"80:24","hizb_number":59,"rub_el_hizb_number":234,"ruku_number":524,"manzil_number":7,"sajdah_number":null,"page_number":585,"juz_number":30,"words":[{"id":26981,"position":1,"audio_url":"wbw/080_024_001.mp3","verse_key":"80:24","verse_id":5782,"location":"80:24:1","text_uthmani":"فَلْيَنظُرِ","qpc_uthmani_hafs":"فَلۡيَنظُرِ","char_type_name":"word","page_number":585,"line_number":9,"text":"فَلۡيَنظُرِ","translation":{"text":"অতঃপর লক্ষ্য করুক","language_name":"bengali","language_id":20},"transliteration":{"text":"falyanẓuri","language_name":"english","language_id":38}},{"id":26982,"position":2,"audio_url":"wbw/080_024_002.mp3","verse_key":"80:24","verse_id":5782,"location":"80:24:2","text_uthmani":"ٱلْإِنسَـٰنُ","qpc_uthmani_hafs":"ٱلۡإِنسَٰنُ","char_type_name":"word","page_number":585,"line_number":9,"text":"ٱلۡإِنسَٰنُ","translation":{"text":"মানুষ","language_name":"bengali","language_id":20},"transliteration":{"text":"l-insānu","language_name":"english","language_id":38}},{"id":26983,"position":3,"audio_url":"wbw/080_024_003.mp3","verse_key":"80:24","verse_id":5782,"location":"80:24:3","text_uthmani":"إِلَىٰ","qpc_uthmani_hafs":"إِلَىٰ","char_type_name":"word","page_number":585,"line_number":9,"text":"إِلَىٰ","translation":{"text":"প্রতি","language_name":"bengali","language_id":20},"transliteration":{"text":"ilā","language_name":"english","language_id":38}},{"id":26984,"position":4,"audio_url":"wbw/080_024_004.mp3","verse_key":"80:24","verse_id":5782,"location":"80:24:4","text_uthmani":"طَعَامِهِۦٓ","qpc_uthmani_hafs":"طَعَامِهِۦٓ","char_type_name":"word","page_number":585,"line_number":9,"text":"طَعَامِهِۦٓ","translation":{"text":"তার খাদ্যের","language_name":"bengali","language_id":20},"transliteration":{"text":"ṭaʿāmihi","language_name":"english","language_id":38}},{"id":26985,"position":5,"audio_url":null,"verse_key":"80:24","verse_id":5782,"location":"80:24:5","text_uthmani":"٢٤","qpc_uthmani_hafs":"٢٤","char_type_name":"end","page_number":585,"line_number":10,"text":"٢٤","translation":{"text":"(২৪)","language_name":"bengali","language_id":20},"transliteration":{"text":null,"language_name":"english","language_id":38}}]},{"id":5783,"verse_number":25,"verse_key":"80:25","hizb_number":59,"rub_el_hizb_number":234,"ruku_number":524,"manzil_number":7,"sajdah_number":null,"page_number":585,"juz_number":30,"words":[{"id":28148,"position":1,"audio_url":"wbw/080_025_001.mp3","verse_key":"80:25","verse_id":5783,"location":"80:25:1","text_uthmani":"اَنَّا","qpc_uthmani_hafs":"أَنَّا","char_type_name":"word","page_number":585,"line_number":10,"text":"أَنَّا","translation":{"text":"নিশ্চয়ই আমরা","language_name":"bengali","language_id":20},"transliteration":{"text":"annā","language_name":"english","language_id":38}},{"id":28149,"position":2,"audio_url":"wbw/080_025_002.mp3","verse_key":"80:25","verse_id":5783,"location":"80:25:2","text_uthmani":"صَبَبْنَا","qpc_uthmani_hafs":"صَبَبۡنَا","char_type_name":"word","page_number":585,"line_number":10,"text":"صَبَبۡنَا","translation":{"text":"আমরা বর্ষণ করেছি","language_name":"bengali","language_id":20},"transliteration":{"text":"ṣababnā","language_name":"english","language_id":38}},{"id":28150,"position":3,"audio_url":"wbw/080_025_003.mp3","verse_key":"80:25","verse_id":5783,"location":"80:25:3","text_uthmani":"ٱلْمَآءَ","qpc_uthmani_hafs":"ٱلۡمَآءَ","char_type_name":"word","page_number":585,"line_number":10,"text":"ٱلۡمَآءَ","translation":{"text":"পানি","language_name":"bengali","language_id":20},"transliteration":{"text":"l-māa","language_name":"english","language_id":38}},{"id":28151,"position":4,"audio_url":"wbw/080_025_004.mp3","verse_key":"80:25","verse_id":5783,"location":"80:25:4","text_uthmani":"صَبًّۭا","qpc_uthmani_hafs":"صَبّٗا","char_type_name":"word","page_number":585,"line_number":10,"text":"صَبّٗا","translation":{"text":"(প্রচুর) বর্ষণ","language_name":"bengali","language_id":20},"transliteration":{"text":"ṣabban","language_name":"english","language_id":38}},{"id":28152,"position":5,"audio_url":null,"verse_key":"80:25","verse_id":5783,"location":"80:25:5","text_uthmani":"٢٥","qpc_uthmani_hafs":"٢٥","char_type_name":"end","page_number":585,"line_number":10,"text":"٢٥","translation":{"text":"(২৫)","language_name":"bengali","language_id":20},"transliteration":{"text":null,"language_name":"english","language_id":38}}]},{"id":5784,"verse_number":26,"verse_key":"80:26","hizb_number":59,"rub_el_hizb_number":234,"ruku_number":524,"manzil_number":7,"sajdah_number":null,"page_number":585,"juz_number":30,"words":[{"id":29107,"position":1,"audio_url":"wbw/080_026_001.mp3","verse_key":"80:26","verse_id":5784,"location":"80:26:1","text_uthmani":"ثُمَّ","qpc_uthmani_hafs":"ثُمَّ","char_type_name":"word","page_number":585,"line_number":10,"text":"ثُمَّ","translation":{"text":"এরপর","language_name":"bengali","language_id":20},"transliteration":{"text":"thumma","language_name":"english","language_id":38}},{"id":29108,"position":2,"audio_url":"wbw/080_026_002.mp3","verse_key":"80:26","verse_id":5784,"location":"80:26:2","text_uthmani":"شَقَقْنَا","qpc_uthmani_hafs":"شَقَقۡنَا","char_type_name":"word","page_number":585,"line_number":10,"text":"شَقَقۡنَا","translation":{"text":"আমরা বিদীর্ণ করেছি","language_name":"bengali","language_id":20},"transliteration":{"text":"shaqaqnā","language_name":"english","language_id":38}},{"id":29109,"position":3,"audio_url":"wbw/080_026_003.mp3","verse_key":"80:26","verse_id":5784,"location":"80:26:3","text_uthmani":"ٱلْأَرْضَ","qpc_uthmani_hafs":"ٱلۡأَرۡضَ","char_type_name":"word","page_number":585,"line_number":10,"text":"ٱلۡأَرۡضَ","translation":{"text":"মাটিকে","language_name":"bengali","language_id":20},"transliteration":{"text":"l-arḍa","language_name":"english","language_id":38}},{"id":29110,"position":4,"audio_url":"wbw/080_026_004.mp3","verse_key":"80:26","verse_id":5784,"location":"80:26:4","text_uthmani":"شَقًّۭا","qpc_uthmani_hafs":"شَقّٗا","char_type_name":"word","page_number":585,"line_number":10,"text":"شَقّٗا","translation":{"text":"(খুব) বিদীর্ণ","language_name":"bengali","language_id":20},"transliteration":{"text":"shaqqan","language_name":"english","language_id":38}},{"id":29111,"position":5,"audio_url":null,"verse_key":"80:26","verse_id":5784,"location":"80:26:5","text_uthmani":"٢٦","qpc_uthmani_hafs":"٢٦","char_type_name":"end","page_number":585,"line_number":10,"text":"٢٦","translation":{"text":"(২৬)","language_name":"bengali","language_id":20},"transliteration":{"text":null,"language_name":"english","language_id":38}}]},{"id":5785,"verse_number":27,"verse_key":"80:27","hizb_number":59,"rub_el_hizb_number":234,"ruku_number":524,"manzil_number":7,"sajdah_number":null,"page_number":585,"juz_number":30,"words":[{"id":29994,"position":1,"audio_url":"wbw/080_027_001.mp3","verse_key":"80:27","verse_id":5785,"location":"80:27:1","text_uthmani":"فَأَنۢبَتْنَا","qpc_uthmani_hafs":"فَأَنۢبَتۡنَا","char_type_name":"word","page_number":585,"line_number":10,"text":"فَأَنۢبَتۡنَا","translation":{"text":"অতঃপর আমরা উৎপন্ন করেছি","language_name":"bengali","language_id":20},"transliteration":{"text":"fa-anbatnā","language_name":"english","language_id":38}},{"id":29995,"position":2,"audio_url":"wbw/080_027_002.mp3","verse_key":"80:27","verse_id":5785,"location":"80:27:2","text_uthmani":"فِيهَا","qpc_uthmani_hafs":"فِيهَا","char_type_name":"word","page_number":585,"line_number":10,"text":"فِيهَا","translation":{"text":"তার মধ্যে","language_name":"bengali","language_id":20},"transliteration":{"text":"fīhā","language_name":"english","language_id":38}},{"id":29996,"position":3,"audio_url":"wbw/080_027_003.mp3","verse_key":"80:27","verse_id":5785,"location":"80:27:3","text_uthmani":"حَبًّۭا","qpc_uthmani_hafs":"حَبّٗا","char_type_name":"word","page_number":585,"line_number":11,"text":"حَبّٗا","translation":{"text":"শস্য","language_name":"bengali","language_id":20},"transliteration":{"text":"ḥabban","language_name":"english","language_id":38}},{"id":29997,"position":4,"audio_url":null,"verse_key":"80:27","verse_id":5785,"location":"80:27:4","text_uthmani":"٢٧","qpc_uthmani_hafs":"٢٧","char_type_name":"end","page_number":585,"line_number":11,"text":"٢٧","translation":{"text":"(২৭)","language_name":"bengali","language_id":20},"transliteration":{"text":null,"language_name":"english","language_id":38}}]},{"id":5786,"verse_number":28,"verse_key":"80:28","hizb_number":59,"rub_el_hizb_number":234,"ruku_number":524,"manzil_number":7,"sajdah_number":null,"page_number":585,"juz_number":30,"words":[{"id":30849,"position":1,"audio_url":"wbw/080_028_001.mp3","verse_key":"80:28","verse_id":5786,"location":"80:28:1","text_uthmani":"وَعِنَبًۭا","qpc_uthmani_hafs":"وَعِنَبٗا","char_type_name":"word","page_number":585,"line_number":11,"text":"وَعِنَبٗا","translation":{"text":"ও আঙুর","language_name":"bengali","language_id":20},"transliteration":{"text":"waʿinaban","language_name":"english","language_id":38}},{"id":30850,"position":2,"audio_url":"wbw/080_028_002.mp3","verse_key":"80:28","verse_id":5786,"location":"80:28:2","text_uthmani":"وَقَضْبًۭا","qpc_uthmani_hafs":"وَقَضۡبٗا","char_type_name":"word","page_number":585,"line_number":11,"text":"وَقَضۡبٗا","translation":{"text":"ও শাকসবজি","language_name":"bengali","language_id":20},"transliteration":{"text":"waqaḍban","language_name":"english","language_id":38}},{"id":30851,"position":3,"audio_url":null,"verse_key":"80:28","verse_id":5786,"location":"80:28:3","text_uthmani":"٢٨","qpc_uthmani_hafs":"٢٨","char_type_name":"end","page_number":585,"line_number":11,"text":"٢٨","translation":{"text":"(২৮)","language_name":"bengali","language_id":20},"transliteration":{"text":null,"language_name":"english","language_id":38}}]},{"id":5787,"verse_number":29,"verse_key":"80:29","hizb_number":59,"rub_el_hizb_number":234,"ruku_number":524,"manzil_number":7,"sajdah_number":null,"page_number":585,"juz_number":30,"words":[{"id":32031,"position":1,"audio_url":"wbw/080_029_001.mp3","verse_key":"80:29","verse_id":5787,"location":"80:29:1","text_uthmani":"وَزَيْتُونًۭا","qpc_uthmani_hafs":"وَزَيۡتُونٗا","char_type_name":"word","page_number":585,"line_number":11,"text":"وَزَيۡتُونٗا","translation":{"text":"এবং যয়তুন","language_name":"bengali","language_id":20},"transliteration":{"text":"wazaytūnan","language_name":"english","language_id":38}},{"id":32032,"position":2,"audio_url":"wbw/080_029_002.mp3","verse_key":"80:29","verse_id":5787,"location":"80:29:2","text_uthmani":"وَنَخْلًۭا","qpc_uthmani_hafs":"وَنَخۡلٗا","char_type_name":"word","page_number":585,"line_number":11,"text":"وَنَخۡلٗا","translation":{"text":"ও খেজুর","language_name":"bengali","language_id":20},"transliteration":{"text":"wanakhlan","language_name":"english","language_id":38}},{"id":32033,"position":3,"audio_url":null,"verse_key":"80:29","verse_id":5787,"location":"80:29:3","text_uthmani":"٢٩","qpc_uthmani_hafs":"٢٩","char_type_name":"end","page_number":585,"line_number":11,"text":"٢٩","translation":{"text":"(২৯)","language_name":"bengali","language_id":20},"transliteration":{"text":null,"language_name":"english","language_id":38}}]},{"id":5788,"verse_number":30,"verse_key":"80:30","hizb_number":59,"rub_el_hizb_number":234,"ruku_number":524,"manzil_number":7,"sajdah_number":null,"page_number":585,"juz_number":30,"words":[{"id":32583,"position":1,"audio_url":"wbw/080_030_001.mp3","verse_key":"80:30","verse_id":5788,"location":"80:30:1","text_uthmani":"وَحَدَآئِقَ","qpc_uthmani_hafs":"وَحَدَآئِقَ","char_type_name":"word","page_number":585,"line_number":11,"text":"وَحَدَآئِقَ","translation":{"text":"এবং বাগানসমূহ","language_name":"bengali","language_id":20},"transliteration":{"text":"waḥadāiqa","language_name":"english","language_id":38}},{"id":32584,"position":2,"audio_url":"wbw/080_030_002.mp3","verse_key":"80:30","verse_id":5788,"location":"80:30:2","text_uthmani":"غُلْبًۭا","qpc_uthmani_hafs":"غُلۡبٗا","char_type_name":"word","page_number":585,"line_number":11,"text":"غُلۡبٗا","translation":{"text":"ঘন গাছপালাবিশিষ্ট","language_name":"bengali","language_id":20},"transliteration":{"text":"ghul'ban","language_name":"english","language_id":38}},{"id":32585,"position":3,"audio_url":null,"verse_key":"80:30","verse_id":5788,"location":"80:30:3","text_uthmani":"٣٠","qpc_uthmani_hafs":"٣٠","char_type_name":"end","page_number":585,"line_number":11,"text":"٣٠","translation":{"text":"(৩০)","language_name":"bengali","language_id":20},"transliteration":{"text":null,"language_name":"english","language_id":38}}]}],"pagination":{"per_page":10,"current_page":3,"next_page":4,"total_pages":5,"total_records":42}}
