{"verses":[{"id":5789,"verse_number":31,"verse_key":"80:31","hizb_number":59,"rub_el_hizb_number":234,"ruku_number":524,"manzil_number":7,"sajdah_number":null,"page_number":585,"juz_number":30,"words":[{"id":33784,"position":1,"audio_url":"wbw/080_031_001.mp3","verse_key":"80:31","verse_id":5789,"location":"80:31:1","text_uthmani":"وَفَـٰكِهَةًۭ","qpc_uthmani_hafs":"وَفَٰكِهَةٗ","char_type_name":"word","page_number":585,"line_number":11,"text":"وَفَٰكِهَةٗ","translation":{"text":"এবং ফল","language_name":"bengali","language_id":20},"transliteration":{"text":"wafākihatan","language_name":"english","language_id":38}},{"id":33785,"position":2,"audio_url":"wbw/080_031_002.mp3","verse_key":"80:31","verse_id":5789,"location":"80:31:2","text_uthmani":"وَأَبًّۭا","qpc_uthmani_hafs":"وَأَبّٗا","char_type_name":"word","page_number":585,"line_number":12,"text":"وَأَبّٗا","translation":{"text":"গবাদি খাদ্য","language_name":"bengali","language_id":20},"transliteration":{"text":"wa-abban","language_name":"english","language_id":38}},{"id":33786,"position":3,"audio_url":null,"verse_key":"80:31","verse_id":5789,"location":"80:31:3","text_uthmani":"٣١","qpc_uthmani_hafs":"٣١","char_type_name":"end","page_number":585,"line_number":12,"text":"٣١","translation":{"text":"(৩১)","language_name":"bengali","language_id":20},"transliteration":{"text":null,"language_name":"english","language_id":38}}]},{"id":5790,"verse_number":32,"verse_key":"80:32","hizb_number":59,"rub_el_hizb_number":234,"ruku_number":524,"manzil_number":7,"sajdah_number":null,"page_number":585,"juz_number":30,"words":[{"id":34643,"position":1,"audio_url":"wbw/080_032_001.mp3","verse_key":"80:32","verse_id":5790,"location":"80:32:1","text_uthmani":"مَّتَـٰعًۭا","qpc_uthmani_hafs":"مَّتَٰعٗا","char_type_name":"word","page_number":585,"line_number":12,"text":"مَّتَٰعٗا","translation":{"text":"ভোগ্য সামগ্রী (রূপে)","language_name":"bengali","language_id":20},"transliteration":{"text":"matāʿan","language_name":"english","language_id":38}},{"id":34644,"position":2,"audio_url":"wbw/080_032_002.mp3","verse_key":"80:32","verse_id":5790,"location":"80:32:2","text_uthmani":"لَّكُمْ","qpc_uthmani_hafs":"لَّكُمۡ","char_type_name":"word","page_number":585,"line_number":12,"text":"لَّكُمۡ","translation":{"text":"তোমাদের জন্যে","language_name":"bengali","language_id":20},"transliteration":{"text":"lakum","language_name":"english","language_id":38}},{"id":34645,"position":3,"audio_url":"wbw/080_032_003.mp3","verse_key":"80:32","verse_id":5790,"location":"80:32:3","text_uthmani":"وَلِأَنْعَـٰمِكُمْ","qpc_uthmani_hafs":"وَلِأَنۡعَٰمِكُمۡ","char_type_name":"word","page_number":585,"line_number":12,"text":"وَلِأَنۡعَٰمِكُمۡ","translation":{"text":"ও তোমাদের চতুষ্পদ জন্তুর জন্যে","language_name":"bengali","language_id":20},"transliteration":{"text":"wali-anʿāmikum","language_name":"english","language_id":38}},{"id":34646,"position":4,"audio_url":null,"verse_key":"80:32","verse_id":5790,"location":"80:32:4","text_uthmani":"٣٢","qpc_uthmani_hafs":"٣٢","char_type_name":"end","page_number":585,"line_number":12,"text":"٣٢","translation":{"text":"(৩২)","language_name":"bengali","language_id":20},"transliteration":{"text":null,"language_name":"english","language_id":38}}]},{"id":5791,"verse_number":33,"verse_key":"80:33","hizb_number":59,"rub_el_hizb_number":234,"ruku_number":524,"manzil_number":7,"sajdah_number":null,"page_number":585,"juz_number":30,"words":[{"id":35590,"position":1,"audio_url":"wbw/080_033_001.mp3","verse_key":"80:33","verse_id":5791,"location":"80:33:1","text_uthmani":"فَإِذَا","qpc_uthmani_hafs":"فَإِذَا","char_type_name":"word","page_number":585,"line_number":12,"text":"فَإِذَا","translation":{"text":"অতঃপর যখন","language_name":"bengali","language_id":20},"transliteration":{"text":"fa-idhā","language_name":"english","language_id":38}},{"id":35591,"position":2,"audio_url":"wbw/080_033_002.mp3","verse_key":"80:33","verse_id":5791,"location":"80:33:2","text_uthmani":"جَآءَتِ","qpc_uthmani_hafs":"جَآءَتِ","char_type_name":"word","page_number":585,"line_number":12,"text":"جَآءَتِ","translation":{"text":"আসবে","language_name":"bengali","language_id":20},"transliteration":{"text":"jāati","language_name":"english","language_id":38}},{"id":35592,"position":3,"audio_url":"wbw/080_033_003.mp3","verse_key":"80:33","verse_id":5791,"location":"80:33:3","text_uthmani":"ٱلصَّآخَّةُ","qpc_uthmani_hafs":"ٱلصَّآخَّةُ","char_type_name":"word","page_number":585,"line_number":12,"text":"ٱلصَّآخَّةُ","translation":{"text":"কর্ণবিদারক ধ্বনি","language_name":"bengali","language_id":20},"transliteration":{"text":"l-ṣākhatu","language_name":"english","language_id":38}},{"id":35593,"position":4,"audio_url":null,"verse_key":"80:33","verse_id":5791,"location":"80:33:4","text_uthmani":"٣٣","qpc_uthmani_hafs":"٣٣","char_type_name":"end","page_number":585,"line_number":12,"text":"٣٣","translation":{"text":"(৩৩)","language_name":"bengali","language_id":20},"transliteration":{"text":null,"language_name":"english","language_id":38}}]},{"id":5792,"verse_number":34,"verse_key":"80:34","hizb_number":59,"rub_el_hizb_number":234,"ruku_number":524,"manzil_number":7,"sajdah_number":null,"page_number":585,"juz_number":30,"words":[{"id":36520,"position":1,"audio_url":"wbw/080_034_001.mp3","verse_key":"80:34","verse_id":5792,"location":"80:34:1","text_uthmani":"يَوْمَ","qpc_uthmani_hafs":"يَوۡمَ","char_type_name":"word","page_number":585,"line_number":12,"text":"يَوۡمَ","translation":{"text":"সেদিন","language_name":"bengali","language_id":20},"transliteration":{"text":"yawma","language_name":"english","language_id":38}},{"id":36521,"position":2,"audio_url":"wbw/080_034_002.mp3","verse_key":"80:34","verse_id":5792,"location":"80:34:2","text_uthmani":"يَفِرُّ","qpc_uthmani_hafs":"يَفِرُّ","char_type_name":"word","page_number":585,"line_number":12,"text":"يَفِرُّ","translation":{"text":"পালাবে","language_name":"bengali","language_id":20},"transliteration":{"text":"yafirru","language_name":"english","language_id":38}},{"id":36522,"position":3,"audio_url":"wbw/080_034_003.mp3","verse_key":"80:34","verse_id":5792,"location":"80:34:3","text_uthmani":"ٱلْمَرْءُ","qpc_uthmani_hafs":"ٱلۡمَرۡءُ","char_type_name":"word","page_number":585,"line_number":13,"text":"ٱلۡمَرۡءُ","translation":{"text":"মানুষ","language_name":"bengali","language_id":20},"transliteration":{"text":"l-maru","language_name":"english","language_id":38}},{"id":36523,"position":4,"audio_url":"wbw/080_034_004.mp3","verse_key":"80:34","verse_id":5792,"location":"80:34:4","text_uthmani":"مِنْ","qpc_uthmani_hafs":"مِنۡ","char_type_name":"word","page_number":585,"line_number":13,"text":"مِنۡ","translation":{"text":"হতে","language_name":"bengali","language_id":20},"transliteration":{"text":"min","language_name":"english","language_id":38}},{"id":36524,"position":5,"audio_url":"wbw/080_034_005.mp3","verse_key":"80:34","verse_id":5792,"location":"80:34:5","text_uthmani":"أَخِيهِ","qpc_uthmani_hafs":"أَخِيهِ","char_type_name":"word","page_number":585,"line_number":13,"text":"أَخِيهِ","translation":{"text":"তার ভাই","language_name":"bengali","language_id":20},"transliteration":{"text":"akhīhi","language_name":"english","language_id":38}},{"id":36525,"position":6,"audio_url":null,"verse_key":"80:34","verse_id":5792,"location":"80:34:6","text_uthmani":"٣٤","qpc_uthmani_hafs":"٣٤","char_type_name":"end","page_number":585,"line_number":13,"text":"٣٤","translation":{"text":"(৩৪)","language_name":"bengali","language_id":20},"transliteration":{"text":null,"language_name":"english","language_id":38}}]},{"id":5793,"verse_number":35,"verse_key":"80:35","hizb_number":59,"rub_el_hizb_number":234,"ruku_number":524,"manzil_number":7,"sajdah_number":null,"page_number":585,"juz_number":30,"words":[{"id":37399,"position":1,"audio_url":"wbw/080_035_001.mp3","verse_key":"80:35","verse_id":5793,"location":"80:35:1","text_uthmani":"وَأُمِّهِۦ","qpc_uthmani_hafs":"وَأُمِّهِۦ","char_type_name":"word","page_number":585,"line_number":13,"text":"وَأُمِّهِۦ","translation":{"text":"ও তার মা","language_name":"bengali","language_id":20},"transliteration":{"text":"wa-ummihi","language_name":"english","language_id":38}},{"id":37400,"position":2,"audio_url":"wbw/080_035_002.mp3","verse_key":"80:35","verse_id":5793,"location":"80:35:2","text_uthmani":"وَأَبِيهِ","qpc_uthmani_hafs":"وَأَبِيهِ","char_type_name":"word","page_number":585,"line_number":13,"text":"وَأَبِيهِ","translation":{"text":"ও তার বাপ (হতে)","language_name":"bengali","language_id":20},"transliteration":{"text":"wa-abīhi","language_name":"english","language_id":38}},{"id":37401,"position":3,"audio_url":null,"verse_key":"80:35","verse_id":5793,"location":"80:35:3","text_uthmani":"٣٥","qpc_uthmani_hafs":"٣٥","char_type_name":"end","page_number":585,"line_number":13,"text":"٣٥","translation":{"text":"(৩৫)","language_name":"bengali","language_id":20},"transliteration":{"text":null,"language_name":"english","language_id":38}}]},{"id":5794,"verse_number":36,"verse_key":"80:36","hizb_number":59,"rub_el_hizb_number":234,"ruku_number":524,"manzil_number":7,"sajdah_number":null,"page_number":585,"juz_number":30,"words":[{"id":38026,"position":1,"audio_url":"wbw/080_036_001.mp3","verse_key":"80:36","verse_id":5794,"location":"80:36:1","text_uthmani":"وَصَـٰحِبَتِهِۦ","qpc_uthmani_hafs":"وَصَٰحِبَتِهِۦ","char_type_name":"word","page_number":585,"line_number":13,"text":"وَصَٰحِبَتِهِۦ","translation":{"text":"ও তার স্ত্রী","language_name":"bengali","language_id":20},"transliteration":{"text":"waṣāḥibatihi","language_name":"english","language_id":38}},{"id":38027,"position":2,"audio_url":"wbw/080_036_002.mp3","verse_key":"80:36","verse_id":5794,"location":"80:36:2","text_uthmani":"وَبَنِيهِ","qpc_uthmani_hafs":"وَبَنِيهِ","char_type_name":"word","page_number":585,"line_number":13,"text":"وَبَنِيهِ","translation":{"text":"এবং তার সন্তানদের (হতে)","language_name":"bengali","language_id":20},"transliteration":{"text":"wabanīhi","language_name":"english","language_id":38}},{"id":38028,"position":3,"audio_url":null,"verse_key":"80:36","verse_id":5794,"location":"80:36:3","text_uthmani":"٣٦","qpc_uthmani_hafs":"٣٦","char_type_name":"end","page_number":585,"line_number":13,"text":"٣٦","translation":{"text":"(৩৬)","language_name":"bengali","language_id":20},"transliteration":{"text":null,"language_name":"english","language_id":38}}]},{"id":5795,"verse_number":37,"verse_key":"80:37","hizb_number":59,"rub_el_hizb_number":234,"ruku_number":524,"manzil_number":7,"sajdah_number":null,"page_number":585,"juz_number":30,"words":[{"id":39058,"position":1,"audio_url":"wbw/080_037_001.mp3","verse_key":"80:37","verse_id":5795,"location":"80:37:1","text_uthmani":"لِكُلِّ","qpc_uthmani_hafs":"لِكُلِّ","char_type_name":"word","page_number":585,"line_number":13,"text":"لِكُلِّ","translation":{"text":"জন্যে প্রত্যেক","language_name":"bengali","language_id":20},"transliteration":{"text":"likulli","language_name":"english","language_id":38}},{"id":39059,"position":2,"audio_url":"wbw/080_037_002.mp3","verse_key":"80:37","verse_id":5795,"location":"80:37:2","text_uthmani":"ٱمْرِئٍۢ","qpc_uthmani_hafs":"ٱمۡرِيٕٖ","char_type_name":"word","page_number":585,"line_number":14,"text":"ٱمۡرِيٕٖ","translation":{"text":"ব্যক্তির","language_name":"bengali","language_id":20},"transliteration":{"text":"im'ri-in","language_name":"english","language_id":38}},{"id":39060,"position":3,"audio_url":"wbw/080_037_003.mp3","verse_key":"80:37","verse_id":5795,"location":"80:37:3","text_uthmani":"مِّنْهُمْ","qpc_uthmani_hafs":"مِّنۡهُمۡ","char_type_name":"word","page_number":585,"line_number":14,"text":"مِّنۡهُمۡ","translation":{"text":"তাদের মধ্যকার","language_name":"bengali","language_id":20},"transliteration":{"text":"min'hum","language_name":"english","language_id":38}},{"id":39061,"position":4,"audio_url":"wbw/080_037_004.mp3","verse_key":"80:37","verse_id":5795,"location":"80:37:4","text_uthmani":"يَوْمَئِذٍۢ","qpc_uthmani_hafs":"يَوۡمَئِذٖ","char_type_name":"word","page_number":585,"line_number":14,"text":"يَوۡمَئِذٖ","translation":{"text":"সেদিন","language_name":"bengali","language_id":20},"transliteration":{"text":"yawma-idhin","language_name":"english","language_id":38}},{"id":39062,"position":5,"audio_url":"wbw/080_037_005.mp3","verse_key":"80:37","verse_id":5795,"location":"80:37:5","text_uthmani":"شَأْنٌۭ","qpc_uthmani_hafs":"شَأۡنٞ","char_type_name":"word","page_number":585,"line_number":14,"text":"شَأۡنٞ","translation":{"text":"(বিশেষ) অবস্থা","language_name":"bengali","language_id":20},"transliteration":{"text":"shanun","language_name":"english","language_id":38}},{"id":39063,"position":6,"audio_url":"wbw/080_037_006.mp3","verse_key":"80:37","verse_id":5795,"location":"80:37:6","text_uthmani":"يُغْنِيهِ","qpc_uthmani_hafs":"يُغۡنِيهِ","char_type_name":"word","page_number":585,"line_number":14,"text":"يُغۡنِيهِ","translation":{"text":"তাকে ব্যতিব্যস্ত করবে","language_name":"bengali","language_id":20},"transliteration":{"text":"yugh'nīhi","language_name":"english","language_id":38}},{"id":39064,"position":7,"audio_url":null,"verse_key":"80:37","verse_id":5795,"location":"80:37:7","text_uthmani":"٣٧","qpc_uthmani_hafs":"٣٧","char_type_name":"end","page_number":585,"line_number":14,"text":"٣٧","translation":{"text":"(৩৭)","language_name":"bengali","language_id":20},"transliteration":{"text":null,"language_name":"english","language_id":38}}]},{"id":5796,"verse_number":38,"verse_key":"80:38","hizb_number":59,"rub_el_hizb_number":234,"ruku_number":524,"manzil_number":7,"sajdah_number":null,"page_number":585,"juz_number":30,"words":[{"id":39879,"position":1,"audio_url":"wbw/080_038_001.mp3","verse_key":"80:38","verse_id":5796,"location":"80:38:1","text_uthmani":"وُجُوهٌۭ","qpc_uthmani_hafs":"وُجُوهٞ","char_type_name":"word","page_number":585,"line_number":14,"text":"وُجُوهٞ","translation":{"text":"(অনেক) মুখ","language_name":"bengali","language_id":20},"transliteration":{"text":"wujūhun","language_name":"english","language_id":38}},{"id":39880,"position":2,"audio_url":"wbw/080_038_002.mp3","verse_key":"80:38","verse_id":5796,"location":"80:38:2","text_uthmani":"يَوْمَئِذٍۢ","qpc_uthmani_hafs":"يَوۡمَئِذٖ","char_type_name":"word","page_number":585,"line_number":14,"text":"يَوۡمَئِذٖ","translation":{"text":"সেদিন","language_name":"bengali","language_id":20},"transliteration":{"text":"yawma-idhin","language_name":"english","language_id":38}},{"id":39881,"position":3,"audio_url":"wbw/080_038_003.mp3","verse_key":"80:38","verse_id":5796,"location":"80:38:3","text_uthmani":"مُّسْفِرَةٌۭ","qpc_uthmani_hafs":"مُّسۡفِرَةٞ","char_type_name":"word","page_number":585,"line_number":14,"text":"مُّسۡفِرَةٞ","translation":{"text":"উজ্জ্বল (হবে)","language_name":"bengali","language_id":20},"transliteration":{"text":"mus'firatun","language_name":"english","language_id":38}},{"id":39882,"position":4,"audio_url":null,"verse_key":"80:38","verse_id":5796,"location":"80:38:4","text_uthmani":"٣٨","qpc_uthmani_hafs":"٣٨","char_type_name":"end","page_number":585,"line_number":15,"text":"٣٨","translation":{"text":"(৩৮)","language_name":"bengali","language_id":20},"transliteration":{"text":null,"language_name":"english","language_id":38}}]},{"id":5797,"verse_number":39,"verse_key":"80:39","hizb_number":59,"rub_el_hizb_number":234,"ruku_number":524,"manzil_number":7,"sajdah_number":null,"page_number":585,"juz_number":30,"words":[{"id":40700,"position":1,"audio_url":"wbw/080_039_001.mp3","verse_key":"80:39","verse_id":5797,"location":"80:39:1","text_uthmani":"ضَاحِكَةٌۭ","qpc_uthmani_hafs":"ضَاحِكَةٞ","char_type_name":"word","page_number":585,"line_number":15,"text":"ضَاحِكَةٞ","translation":{"text":"সহাস্য","language_name":"bengali","language_id":20},"transliteration":{"text":"ḍāḥikatun","language_name":"english","language_id":38}},{"id":40701,"position":2,"audio_url":"wbw/080_039_002.mp3","verse_key":"80:39","verse_id":5797,"location":"80:39:2","text_uthmani":"مُّسْتَبْشِرَةٌۭ","qpc_uthmani_hafs":"مُّسۡتَبۡشِرَةٞ","char_type_name":"word","page_number":585,"line_number":15,"text":"مُّسۡتَبۡشِرَةٞ","translation":{"text":"প্রফুল্ল (হবে)","language_name":"bengali","language_id":20},"transliteration":{"text":"mus'tabshiratun","language_name":"english","language_id":38}},{"id":40702,"position":3,"audio_url":null,"verse_key":"80:39","verse_id":5797,"location":"80:39:3","text_uthmani":"٣٩","qpc_uthmani_hafs":"٣٩","char_type_name":"end","page_number":585,"line_number":15,"text":"٣٩","translation":{"text":"(৩৯)","language_name":"bengali","language_id":20},"transliteration":{"text":null,"language_name":"english","language_id":38}}]},{"id":5798,"verse_number":40,"verse_key":"80:40","hizb_number":59,"rub_el_hizb_number":234,"ruku_number":524,"manzil_number":7,"sajdah_number":null,"page_number":585,"juz_number":30,"words":[{"id":41292,"position":1,"audio_url":"wbw/080_040_001.mp3","verse_key":"80:40","verse_id":5798,"location":"80:40:1","text_uthmani":"وَوُجُوهٌۭ","qpc_uthmani_hafs":"وَوُجُوهٞ","char_type_name":"word","page_number":585,"line_number":15,"text":"وَوُجُوهٞ","translation":{"text":"এবং (অনেক) মুখ","language_name":"bengali","language_id":20},"transliteration":{"text":"wawujūhun","language_name":"english","language_id":38}},{"id":41293,"position":2,"audio_url":"wbw/080_040_002.mp3","verse_key":"80:40","verse_id":5798,"location":"80:40:2","text_uthmani":"يَوْمَئِذٍ","qpc_uthmani_hafs":"يَوۡمَئِذٍ","char_type_name":"word","page_number":585,"line_number":15,"text":"يَوۡمَئِذٍ","translation":{"text":"সেদিন","language_name":"bengali","language_id":20},"transliteration":{"text":"yawma-idhin","language_name":"english","language_id":38}},{"id":41294,"position":3,"audio_url":"wbw/080_040_003.mp3","verse_key":"80:40","verse_id":5798,"location":"80:40:3","text_uthmani":"عَلَيْهَا","qpc_uthmani_hafs":"عَلَيۡهَا","char_type_name":"word","page_number":585,"line_number":15,"text":"عَلَيۡهَا","translation":{"text":"তার উপর","language_name":"bengali","language_id":20},"transliteration":{"text":"ʿalayhā","language_name":"english","language_id":38}},{"id":41295,"position":4,"audio_url":"wbw/080_040_004.mp3","verse_key":"80:40","verse_id":5798,"location":"80:40:4","text_uthmani":"غَبَرَةٌۭ","qpc_uthmani_hafs":"غَبَرَةٞ","char_type_name":"word","page_number":585,"line_number":15,"text":"غَبَرَةٞ","translation":{"text":"মলিনতা (আসবে)","language_name":"bengali","language_id":20},"transliteration":{"text":"ghabaratun","language_name":"english","language_id":38}},{"id":41296,"position":5,"audio_url":null,"verse_key":"80:40","verse_id":5798,"location":"80:40:5","text_uthmani":"٤٠","qpc_uthmani_hafs":"٤٠","char_type_name":"end","page_number":585,"line_number":15,"text":"٤٠","translation":{"text":"(৪০)","language_name":"bengali","language_id":20},"transliteration":{"text":null,"language_name":"english","language_id":38}}]}],"pagination":{"per_page":10,"current_page":4,"next_page":5,"total_pages":5,"total_records":42}}
