{"verses":[{"id":5799,"verse_number":41,"verse_key":"80:41","hizb_number":59,"rub_el_hizb_number":234,"ruku_number":524,"manzil_number":7,"sajdah_number":null,"page_number":586,"juz_number":30,"words":[{"id":42285,"position":1,"audio_url":"wbw/080_041_001.mp3","char_type_name":"word","page_number":586,"line_number":1,"text":"تَرْهَقُهَا","translation":{"text":"তাকে আচ্ছন্ন করবে","language_name":"bengali","language_id":20},"transliteration":{"text":"tarhaquhā","language_name":"english","language_id":38}},{"id":42286,"position":2,"audio_url":"wbw/080_041_002.mp3","char_type_name":"word","page_number":586,"line_number":1,"text":"قَتَرَةٌ","translation":{"text":"অন্ধকার","language_name":"bengali","language_id":20},"transliteration":{"text":"qataratun","language_name":"english","language_id":38}},{"id":42287,"position":3,"audio_url":null,"char_type_name":"end","page_number":586,"line_number":1,"text":"٤١","translation":{"text":"(৪১)","language_name":"bengali","language_id":20},"transliteration":{"text":null,"language_name":"english","language_id":38}}]},{"id":5800,"verse_number":42,"verse_key":"80:42","hizb_number":59,"rub_el_hizb_number":234,"ruku_number":524,"manzil_number":7,"sajdah_number":null,"page_number":586,"juz_number":30,"words":[{"id":42815,"position":1,"audio_url":"wbw/080_042_001.mp3","char_type_name":"word","page_number":586,"line_number":1,"text":"أُو۟لَـٰٓئِكَ","translation":{"text":"ঐসব লোক","language_name":"bengali","language_id":20},"transliteration":{"text":"ulāika","language_name":"english","language_id":38}},{"id":42816,"position":2,"audio_url":"wbw/080_042_002.mp3","char_type_name":"word","page_number":586,"line_number":1,"text":"هُمُ","translation":{"text":"তারাই (যারা)","language_name":"bengali","language_id":20},"transliteration":{"text":"humu","language_name":"english","language_id":38}},{"id":42817,"position":3,"audio_url":"wbw/080_042_003.mp3","char_type_name":"word","page_number":586,"line_number":1,"text":"ٱلْكَفَرَةُ","translation":{"text":"কাফের","language_name":"bengali","language_id":20},"transliteration":{"text":"l-kafaratu","language_name":"english","language_id":38}},{"id":42818,"position":4,"audio_url":"wbw/080_042_004.mp3","char_type_name":"word","page_number":586,"line_number":1,"text":"ٱلْفَجَرَةُ","translation":{"text":"পাপী","language_name":"bengali","language_id":20},"transliteration":{"text":"l-fajaratu","language_name":"english","language_id":38}},{"id":42819,"position":5,"audio_url":null,"char_type_name":"end","page_number":586,"line_number":1,"text":"٤٢","translation":{"text":"(৪২)","language_name":"bengali","language_id":20},"transliteration":{"text":null,"language_name":"english","language_id":38}}]}],"pagination":{"per_page":10,"current_page":5,"next_page":null,"total_pages":5,"total_records":42}}
