{"verses":[{"id":2534,"verse_number":51,"verse_key":"21:51","hizb_number":33,"rub_el_hizb_number":131,"ruku_number":282,"manzil_number":4,"sajdah_number":null,"page_number":326,"juz_number":17,"words":[{"id":49309,"position":1,"audio_url":"wbw/021_051_002.mp3","char_type_name":"word","page_number":326,"line_number":9,"text":"۞ وَلَقَدْ","translation":{"text":"এবং নিশ্চয়ই","language_name":"bengali","language_id":20},"transliteration":{"text":"walaqad","language_name":"english","language_id":38}},{"id":49310,"position":2,"audio_url":"wbw/021_051_003.mp3","char_type_name":"word","page_number":326,"line_number":9,"text":"ءَاتَيْنَآ","translation":{"text":"আমরা দিয়েছি","language_name":"bengali","language_id":20},"transliteration":{"text":"ātaynā","language_name":"english","language_id":38}},{"id":49311,"position":3,"audio_url":"wbw/021_051_004.mp3","char_type_name":"word","page_number":326,"line_number":9,"text":"إِبْرَٰهِيمَ","translation":{"text":"ইবরাহীম কে","language_name":"bengali","language_id":20},"transliteration":{"text":"ib'rāhīma","language_name":"english","language_id":38}},{"id":49312,"position":4,"audio_url":"wbw/021_051_005.mp3","char_type_name":"word","page_number":326,"line_number":9,"text":"رُشْدَهُۥ","translation":{"text":"তার সৎপথের বুদ্ধি জ্ঞান","language_name":"bengali","language_id":20},"transliteration":{"text":"rush'dahu","language_name":"english","language_id":38}},{"id":49313,"position":5,"audio_url":"wbw/021_051_006.mp3","char_type_name":"word","page_number":326,"line_number":9,"text":"مِن","translation":{"text":"থেকে","language_name":"bengali","language_id":20},"transliteration":{"text":"min","language_name":"english","language_id":38}},{"id":49314,"position":6,"audio_url":"wbw/021_051_007.mp3","char_type_name":"word","page_number":326,"line_number":9,"text":"قَبْلُ","translation":{"text":"ইতিপূর্ব","language_name":"bengali","language_id":20},"transliteration":{"text":"qablu","language_name":"english","language_id":38}},{"id":49315,"position":7,"audio_url":"wbw/021_051_008.mp3","char_type_name":"word","page_number":326,"line_number":9,"text":"وَكُنَّا","translation":{"text":"এবং আমরা ছিলাম","language_name":"bengali","language_id":20},"transliteration":{"text":"wakunnā","language_name":"english","language_id":38}},{"id":49316,"position":8,"audio_url":"wbw/021_051_009.mp3","char_type_name":"word","page_number":326,"line_number":10,"text":"بِهِۦ","translation":{"text":"সম্পর্কে তার","language_name":"bengali","language_id":20},"transliteration":{"text":"bihi","language_name":"english","language_id":38}},{"id":49317,"position":9,"audio_url":"wbw/021_051_010.mp3","char_type_name":"word","page_number":326,"line_number":10,"text":"عَـٰلِمِينَ","translation":{"text":"খুব অবহিত","language_name":"bengali","language_id":20},"transliteration":{"text":"ʿālimīna","language_name":"english","language_id":38}},{"id":49318,"position":10,"audio_url":null,"char_type_name":"end","page_number":326,"line_number":10,"text":"٥١","translation":{"text":"(৫১)","language_name":"bengali","language_id":20},"transliteration":{"text":null,"language_name":"english","language_id":38}}]},{"id":2535,"verse_number":52,"verse_key":"21:52","hizb_number":33,"rub_el_hizb_number":131,"ruku_number":282,"manzil_number":4,"sajdah_number":null,"page_number":326,"juz_number":17,"words":[{"id":50009,"position":1,"audio_url":"wbw/021_052_001.mp3","char_type_name":"word","page_number":326,"line_number":10,"text":"إِذْ","translation":{"text":"যখন","language_name":"bengali","language_id":20},"transliteration":{"text":"idh","language_name":"english","language_id":38}},{"id":50010,"position":2,"audio_url":"wbw/021_052_002.mp3","char_type_name":"word","page_number":326,"line_number":10,"text":"قَالَ","translation":{"text":"সে বলেছিলো","language_name":"bengali","language_id":20},"transliteration":{"text":"qāla","language_name":"english","language_id":38}},{"id":50011,"position":3,"audio_url":"wbw/021_052_003.mp3","char_type_name":"word","page_number":326,"line_number":10,"text":"لِأَبِيهِ","translation":{"text":"তার পিতাকে","language_name":"bengali","language_id":20},"transliteration":{"text":"li-abīhi","language_name":"english","language_id":38}},{"id":50012,"position":4,"audio_url":"wbw/021_052_004.mp3","char_type_name":"word","page_number":326,"line_number":10,"text":"وَقَوْمِهِۦ","translation":{"text":"ও তার জাতিকে","language_name":"bengali","language_id":20},"transliteration":{"text":"waqawmihi","language_name":"english","language_id":38}},{"id":50013,"position":5,"audio_url":"wbw/021_052_005.mp3","char_type_name":"word","page_number":326,"line_number":10,"text":"مَا","translation":{"text":"\"কি","language_name":"bengali","language_id":20},"transliteration":{"text":"mā","language_name":"english","language_id":38}},{"id":50014,"position":6,"audio_url":"wbw/021_052_006.mp3","char_type_name":"word","page_number":326,"line_number":10,"text":"هَـٰذِهِ","translation":{"text":"এসব","language_name":"bengali","language_id":20},"transliteration":{"text":"hādhihi","language_name":"english","language_id":38}},{"id":50015,"position":7,"audio_url":"wbw/021_052_007.mp3","char_type_name":"word","page_number":326,"line_number":10,"text":"ٱلتَّمَاثِيلُ","translation":{"text":"মূর্তিগুলো","language_name":"bengali","language_id":20},"transliteration":{"text":"l-tamāthīlu","language_name":"english","language_id":38}},{"id":50016,"position":8,"audio_url":"wbw/021_052_008.mp3","char_type_name":"word","page_number":326,"line_number":10,"text":"ٱلَّتِىٓ","translation":{"text":"যার","language_name":"bengali","language_id":20},"transliteration":{"text":"allatī","language_name":"english","language_id":38}},{"id":50017,"position":9,"audio_url":"wbw/021_052_009.mp3","char_type_name":"word","page_number":326,"line_number":11,"text":"أَنتُمْ","translation":{"text":"তোমরা","language_name":"bengali","language_id":20},"transliteration":{"text":"antum","language_name":"english","language_id":38}},{"id":50018,"position":10,"audio_url":"wbw/021_052_010.mp3","char_type_name":"word","page_number":326,"line_number":11,"text":"لَهَا","translation":{"text":"জন্য তাদের","language_name":"bengali","language_id":20},"transliteration":{"text":"lahā","language_name":"english","language_id":38}},{"id":50019,"position":11,"audio_url":"wbw/021_052_011.mp3","char_type_name":"word","page_number":326,"line_number":11,"text":"عَـٰكِفُونَ","translation":{"text":"পূজায় ব্রত আছো\"","language_name":"bengali","language_id":20},"transliteration":{"text":"ʿākifūna","language_name":"english","language_id":38}},{"id":50020,"position":12,"audio_url":null,"char_type_name":"end","page_number":326,"line_number":11,"text":"٥٢","translation":{"text":"(৫২)","language_name":"bengali","language_id":20},"transliteration":{"text":null,"language_name":"english","language_id":38}}]},{"id":2536,"verse_number":53,"verse_key":"21:53","hizb_number":33,"rub_el_hizb_number":131,"ruku_number":282,"manzil_number":4,"sajdah_number":null,"page_number":326,"juz_number":17,"words":[{"id":50587,"position":1,"audio_url":"wbw/021_053_001.mp3","char_type_name":"word","page_number":326,"line_number":11,"text":"قَالُوا۟","translation":{"text":"তারা বললো","language_name":"bengali","language_id":20},"transliteration":{"text":"qālū","language_name":"english","language_id":38}},{"id":50588,"position":2,"audio_url":"wbw/021_053_002.mp3","char_type_name":"word","page_number":326,"line_number":11,"text":"وَجَدْنَآ","translation":{"text":"\"আমরা পেয়েছি","language_name":"bengali","language_id":20},"transliteration":{"text":"wajadnā","language_name":"english","language_id":38}},{"id":50589,"position":3,"audio_url":"wbw/021_053_003.mp3","char_type_name":"word","page_number":326,"line_number":11,"text":"ءَابَآءَنَا","translation":{"text":"আমাদের পিতৃপুরুষদেরকে","language_name":"bengali","language_id":20},"transliteration":{"text":"ābāanā","language_name":"english","language_id":38}},{"id":50590,"position":4,"audio_url":"wbw/021_053_004.mp3","char_type_name":"word","page_number":326,"line_number":11,"text":"لَهَا","translation":{"text":"জন্য তাদের","language_name":"bengali","language_id":20},"transliteration":{"text":"lahā","language_name":"english","language_id":38}},{"id":50591,"position":5,"audio_url":"wbw/021_053_005.mp3","char_type_name":"word","page_number":326,"line_number":11,"text":"عَـٰبِدِينَ","translation":{"text":"উপাসনাকারীরূপে\"","language_name":"bengali","language_id":20},"transliteration":{"text":"ʿābidīna","language_name":"english","language_id":38}},{"id":50592,"position":6,"audio_url":null,"char_type_name":"end","page_number":326,"line_number":11,"text":"٥٣","translation":{"text":"(৫৩)","language_name":"bengali","language_id":20},"transliteration":{"text":null,"language_name":"english","language_id":38}}]},{"id":2537,"verse_number":54,"verse_key":"21:54","hizb_number":33,"rub_el_hizb_number":131,"ruku_number":282,"manzil_number":4,"sajdah_number":null,"page_number":326,"juz_number":17,"words":[{"id":51289,"position":1,"audio_url":"wbw/021_054_001.mp3","char_type_name":"word","page_number":326,"line_number":11,"text":"قَالَ","translation":{"text":"সে বললো","language_name":"bengali","language_id":20},"transliteration":{"text":"qāla","language_name":"english","language_id":38}},{"id":51290,"position":2,"audio_url":"wbw/021_054_002.mp3","char_type_name":"word","page_number":326,"line_number":12,"text":"لَقَدْ","translation":{"text":"\"নিশ্চয়ই","language_name":"bengali","language_id":20},"transliteration":{"text":"laqad","language_name":"english","language_id":38}},{"id":51291,"position":3,"audio_url":"wbw/021_054_003.mp3","char_type_name":"word","page_number":326,"line_number":12,"text":"كُنتُمْ","translation":{"text":"তোমরা আছো","language_name":"bengali","language_id":20},"transliteration":{"text":"kuntum","language_name":"english","language_id":38}},{"id":51292,"position":4,"audio_url":"wbw/021_054_004.mp3","char_type_name":"word","page_number":326,"line_number":12,"text":"أَنتُمْ","translation":{"text":"তোমরা","language_name":"bengali","language_id":20},"transliteration":{"text":"antum","language_name":"english","language_id":38}},{"id":51293,"position":5,"audio_url":"wbw/021_054_005.mp3","char_type_name":"word","page_number":326,"line_number":12,"text":"وَءَابَآؤُكُمْ","translation":{"text":"ও তোমাদের পিতৃপুরুষরা (ছিলো)","language_name":"bengali","language_id":20},"transliteration":{"text":"waābāukum","language_name":"english","language_id":38}},{"id":51294,"position":6,"audio_url":"wbw/021_054_006.mp3","char_type_name":"word","page_number":326,"line_number":12,"text":"فِى","translation":{"text":"মধ্যে","language_name":"bengali","language_id":20},"transliteration":{"text":"fī","language_name":"english","language_id":38}},{"id":51295,"position":7,"audio_url":"wbw/021_054_007.mp3","char_type_name":"word","page_number":326,"line_number":12,"text":"ضَلَـٰلٍۢ","translation":{"text":"পথভ্রষ্টতার","language_name":"bengali","language_id":20},"transliteration":{"text":"ḍalālin","language_name":"english","language_id":38}},{"id":51296,"position":8,"audio_url":"wbw/021_054_008.mp3","char_type_name":"word","page_number":326,"line_number":12,"text":"مُّبِينٍۢ","translation":{"text":"সুস্পষ্ট\"","language_name":"bengali","language_id":20},"transliteration":{"text":"mubīnin","language_name":"english","language_id":38}},{"id":51297,"position":9,"audio_url":null,"char_type_name":"end","page_number":326,"line_number":12,"text":"٥٤","translation":{"text":"(৫৪)","language_name":"bengali","language_id":20},"transliteration":{"text":null,"language_name":"english","language_id":38}}]},{"id":2538,"verse_number":55,"verse_key":"21:55","hizb_number":33,"rub_el_hizb_number":131,"ruku_number":282,"manzil_number":4,"sajdah_number":null,"page_number":326,"juz_number":17,"words":[{"id":51708,"position":1,"audio_url":"wbw/021_055_001.mp3","char_type_name":"word","page_number":326,"line_number":12,"text":"قَالُوٓا۟","translation":{"text":"তারা বললো","language_name":"bengali","language_id":20},"transliteration":{"text":"qālū","language_name":"english","language_id":38}},{"id":51709,"position":2,"audio_url":"wbw/021_055_002.mp3","char_type_name":"word","page_number":326,"line_number":12,"text":"أَجِئْتَنَا","translation":{"text":"\"আমাদের কাছে এসেছো কি","language_name":"bengali","language_id":20},"transliteration":{"text":"aji'tanā","language_name":"english","language_id":38}},{"id":51710,"position":3,"audio_url":"wbw/021_055_003.mp3","char_type_name":"word","page_number":326,"line_number":13,"text":"بِٱلْحَقِّ","translation":{"text":"নিয়ে প্রকৃত সত্যকে","language_name":"bengali","language_id":20},"transliteration":{"text":"bil-ḥaqi","language_name":"english","language_id":38}},{"id":51711,"position":4,"audio_url":"wbw/021_055_004.mp3","char_type_name":"word","page_number":326,"line_number":13,"text":"أَمْ","translation":{"text":"না","language_name":"bengali","language_id":20},"transliteration":{"text":"am","language_name":"english","language_id":38}},{"id":51712,"position":5,"audio_url":"wbw/021_055_005.mp3","char_type_name":"word","page_number":326,"line_number":13,"text":"أَنتَ","translation":{"text":"তুমি","language_name":"bengali","language_id":20},"transliteration":{"text":"anta","language_name":"english","language_id":38}},{"id":51713,"position":6,"audio_url":"wbw/021_055_006.mp3","char_type_name":"word","page_number":326,"line_number":13,"text":"مِنَ","translation":{"text":"অন্তর্ভুক্ত","language_name":"bengali","language_id":20},"transliteration":{"text":"mina","language_name":"english","language_id":38}},{"id":51714,"position":7,"audio_url":"wbw/021_055_007.mp3","char_type_name":"word","page_number":326,"line_number":13,"text":"ٱللَّـٰعِبِينَ","translation":{"text":"কৌতুককারীদের\"","language_name":"bengali","language_id":20},"transliteration":{"text":"l-lāʿibīna","language_name":"english","language_id":38}},{"id":51715,"position":8,"audio_url":null,"char_type_name":"end","page_number":326,"line_number":13,"text":"٥٥","translation":{"text":"(৫৫)","language_name":"bengali","language_id":20},"transliteration":{"text":null,"language_name":"english","language_id":38}}]},{"id":2539,"verse_number":56,"verse_key":"21:56","hizb_number":33,"rub_el_hizb_number":131,"ruku_number":282,"manzil_number":4,"sajdah_number":null,"page_number":326,"juz_number":17,"words":[{"id":52280,"position":1,"audio_url":"wbw/021_056_001.mp3","char_type_name":"word","page_number":326,"line_number":13,"text":"قَالَ","translation":{"text":"সে বললো","language_name":"bengali","language_id":20},"transliteration":{"text":"qāla","language_name":"english","language_id":38}},{"id":52281,"position":2,"audio_url":"wbw/021_056_002.mp3","char_type_name":"word","page_number":326,"line_number":13,"text":"بَل","translation":{"text":"\"বরং","language_name":"bengali","language_id":20},"transliteration":{"text":"bal","language_name":"english","language_id":38}},{"id":52282,"position":3,"audio_url":"wbw/021_056_003.mp3","char_type_name":"word","page_number":326,"line_number":13,"text":"رَّبُّكُمْ","translation":{"text":"তোমাদের রব (তিনিই)","language_name":"bengali","language_id":20},"transliteration":{"text":"rabbukum","language_name":"english","language_id":38}},{"id":52283,"position":4,"audio_url":"wbw/021_056_004.mp3","char_type_name":"word","page_number":326,"line_number":13,"text":"رَبُّ","translation":{"text":"(যিনি) রব","language_name":"bengali","language_id":20},"transliteration":{"text":"rabbu","language_name":"english","language_id":38}},{"id":52284,"position":5,"audio_url":"wbw/021_056_005.mp3","char_type_name":"word","page_number":326,"line_number":13,"text":"ٱلسَّمَـٰوَٰتِ","translation":{"text":"আকাশমন্ডলীর","language_name":"bengali","language_id":20},"transliteration":{"text":"l-samāwāti","language_name":"english","language_id":38}},{"id":52285,"position":6,"audio_url":"wbw/021_056_006.mp3","char_type_name":"word","page_number":326,"line_number":14,"text":"وَٱلْأَرْضِ","translation":{"text":"ও পৃথিবীর","language_name":"bengali","language_id":20},"transliteration":{"text":"wal-arḍi","language_name":"english","language_id":38}},{"id":52286,"position":7,"audio_url":"wbw/021_056_007.mp3","char_type_name":"word","page_number":326,"line_number":14,"text":"ٱلَّذِى","translation":{"text":"যিনি","language_name":"bengali","language_id":20},"transliteration":{"text":"alladhī","language_name":"english","language_id":38}},{"id":52287,"position":8,"audio_url":"wbw/021_056_008.mp3","char_type_name":"word","page_number":326,"line_number":14,"text":"فَطَرَهُنَّ","translation":{"text":"তাদেরকে সৃষ্টি করেছেন","language_name":"bengali","language_id":20},"transliteration":{"text":"faṭarahunna","language_name":"english","language_id":38}},{"id":52288,"position":9,"audio_url":"wbw/021_056_009.mp3","char_type_name":"word","page_number":326,"line_number":14,"text":"وَأَنَا۠","translation":{"text":"এবং আমি","language_name":"bengali","language_id":20},"transliteration":{"text":"wa-anā","language_name":"english","language_id":38}},{"id":52289,"position":10,"audio_url":"wbw/021_056_010.mp3","char_type_name":"word","page_number":326,"line_number":14,"text":"عَلَىٰ","translation":{"text":"উপর","language_name":"bengali","language_id":20},"transliteration":{"text":"ʿalā","language_name":"english","language_id":38}},{"id":52290,"position":11,"audio_url":"wbw/021_056_011.mp3","char_type_name":"word","page_number":326,"line_number":14,"text":"ذَٰلِكُم","translation":{"text":"এসবের উপর","language_name":"bengali","language_id":20},"transliteration":{"text":"dhālikum","language_name":"english","language_id":38}},{"id":52291,"position":12,"audio_url":"wbw/021_056_012.mp3","char_type_name":"word","page_number":326,"line_number":14,"text":"مِّنَ","translation":{"text":"অন্যতম","language_name":"bengali","language_id":20},"transliteration":{"text":"mina","language_name":"english","language_id":38}},{"id":52292,"position":13,"audio_url":"wbw/021_056_013.mp3","char_type_name":"word","page_number":326,"line_number":14,"text":"ٱلشَّـٰهِدِينَ","translation":{"text":"সাক্ষীদাতাদের","language_name":"bengali","language_id":20},"transliteration":{"text":"l-shāhidīna","language_name":"english","language_id":38}},{"id":52293,"position":14,"audio_url":null,"char_type_name":"end","page_number":326,"line_number":14,"text":"٥٦","translation":{"text":"(৫৬)","language_name":"bengali","language_id":20},"transliteration":{"text":null,"language_name":"english","language_id":38}}]},{"id":2540,"verse_number":57,"verse_key":"21:57","hizb_number":33,"rub_el_hizb_number":131,"ruku_number":282,"manzil_number":4,"sajdah_number":null,"page_number":326,"juz_number":17,"words":[{"id":52867,"position":1,"audio_url":"wbw/021_057_001.mp3","char_type_name":"word","page_number":326,"line_number":15,"text":"وَتَٱللَّهِ","translation":{"text":"এবং শপথ আল্লাহর","language_name":"bengali","language_id":20},"transliteration":{"text":"watal-lahi","language_name":"english","language_id":38}},{"id":52868,"position":2,"audio_url":"wbw/021_057_002.mp3","char_type_name":"word","page_number":326,"line_number":15,"text":"لَأَكِيدَنَّ","translation":{"text":"অবশ্যই ব্যবস্থা নিবো আমি","language_name":"bengali","language_id":20},"transliteration":{"text":"la-akīdanna","language_name":"english","language_id":38}},{"id":52869,"position":3,"audio_url":"wbw/021_057_003.mp3","char_type_name":"word","page_number":326,"line_number":15,"text":"أَصْنَـٰمَكُم","translation":{"text":"তোমাদের মূর্তিগুলোর","language_name":"bengali","language_id":20},"transliteration":{"text":"aṣnāmakum","language_name":"english","language_id":38}},{"id":52870,"position":4,"audio_url":"wbw/021_057_004.mp3","char_type_name":"word","page_number":326,"line_number":15,"text":"بَعْدَ","translation":{"text":"পরে","language_name":"bengali","language_id":20},"transliteration":{"text":"baʿda","language_name":"english","language_id":38}},{"id":52871,"position":5,"audio_url":"wbw/021_057_005.mp3","char_type_name":"word","page_number":326,"line_number":15,"text":"أَن","translation":{"text":"যে","language_name":"bengali","language_id":20},"transliteration":{"text":"an","language_name":"english","language_id":38}},{"id":52872,"position":6,"audio_url":"wbw/021_057_006.mp3","char_type_name":"word","page_number":326,"line_number":15,"text":"تُوَلُّوا۟","translation":{"text":"তোমাদের চলে যাবে","language_name":"bengali","language_id":20},"transliteration":{"text":"tuwallū","language_name":"english","language_id":38}},{"id":52873,"position":7,"audio_url":"wbw/021_057_007.mp3","char_type_name":"word","page_number":326,"line_number":15,"text":"مُدْبِرِينَ","translation":{"text":"পিঠ ফিরিয়ে\"","language_name":"bengali","language_id":20},"transliteration":{"text":"mud'birīna","language_name":"english","language_id":38}},{"id":52874,"position":8,"audio_url":null,"char_type_name":"end","page_number":326,"line_number":15,"text":"٥٧","translation":{"text":"(৫৭)","language_name":"bengali","language_id":20},"transliteration":{"text":null,"language_name":"english","language_id":38}}]},{"id":2541,"verse_number":58,"verse_key":"21:58","hizb_number":33,"rub_el_hizb_number":131,"ruku_number":282,"manzil_number":4,"sajdah_number":null,"page_number":327,"juz_number":17,"words":[{"id":53371,"position":1,"audio_url":"wbw/021_058_001.mp3","char_type_name":"word","page_number":327,"line_number":1,"text":"فَجَعَلَهُمْ","translation":{"text":"অতঃপর তাদেরকে সে করে দিলো","language_name":"bengali","language_id":20},"transliteration":{"text":"fajaʿalahum","language_name":"english","language_id":38}},{"id":53372,"position":2,"audio_url":"wbw/021_058_002.mp3","char_type_name":"word","page_number":327,"line_number":1,"text":"جُذَٰذًا","translation":{"text":"টুকরো টুকরো","language_name":"bengali","language_id":20},"transliteration":{"text":"judhādhan","language_name":"english","language_id":38}},{"id":53373,"position":3,"audio_url":"wbw/021_058_003.mp3","char_type_name":"word","page_number":327,"line_number":1,"text":"إِلَّا","translation":{"text":"ছাড়া","language_name":"bengali","language_id":20},"transliteration":{"text":"illā","language_name":"english","language_id":38}},{"id":53374,"position":4,"audio_url":"wbw/021_058_004.mp3","char_type_name":"word","page_number":327,"line_number":1,"text":"كَبِيرًۭا","translation":{"text":"বড়টা","language_name":"bengali","language_id":20},"transliteration":{"text":"kabīran","language_name":"english","language_id":38}},{"id":53375,"position":5,"audio_url":"wbw/021_058_005.mp3","char_type_name":"word","page_number":327,"line_number":1,"text":"لَّهُمْ","translation":{"text":"তাদের","language_name":"bengali","language_id":20},"transliteration":{"text":"lahum","language_name":"english","language_id":38}},{"id":53376,"position":6,"audio_url":"wbw/021_058_006.mp3","char_type_name":"word","page_number":327,"line_number":1,"text":"لَعَلَّهُمْ","translation":{"text":"যাতে তারা","language_name":"bengali","language_id":20},"transliteration":{"text":"laʿallahum","language_name":"english","language_id":38}},{"id":53377,"position":7,"audio_url":"wbw/021_058_007.mp3","char_type_name":"word","page_number":327,"line_number":1,"text":"إِلَيْهِ","translation":{"text":"তার দিকে","language_name":"bengali","language_id":20},"transliteration":{"text":"ilayhi","language_name":"english","language_id":38}},{"id":53378,"position":8,"audio_url":"wbw/021_058_008.mp3","char_type_name":"word","page_number":327,"line_number":1,"text":"يَرْجِعُونَ","translation":{"text":"ফিরে আসে","language_name":"bengali","language_id":20},"transliteration":{"text":"yarjiʿūna","language_name":"english","language_id":38}},{"id":53379,"position":9,"audio_url":null,"char_type_name":"end","page_number":327,"line_number":2,"text":"٥٨","translation":{"text":"(৫৮)","language_name":"bengali","language_id":20},"transliteration":{"text":null,"language_name":"english","language_id":38}}]},{"id":2542,"verse_number":59,"verse_key":"21:59","hizb_number":33,"rub_el_hizb_number":131,"ruku_number":282,"manzil_number":4,"sajdah_number":null,"page_number":327,"juz_number":17,"words":[{"id":53843,"position":1,"audio_url":"wbw/021_059_001.mp3","char_type_name":"word","page_number":327,"line_number":2,"text":"قَالُوا۟","translation":{"text":"তারা বললো","language_name":"bengali","language_id":20},"transliteration":{"text":"qālū","language_name":"english","language_id":38}},{"id":53844,"position":2,"audio_url":"wbw/021_059_002.mp3","char_type_name":"word","page_number":327,"line_number":2,"text":"مَن","translation":{"text":"\"কে","language_name":"bengali","language_id":20},"transliteration":{"text":"man","language_name":"english","language_id":38}},{"id":53845,"position":3,"audio_url":"wbw/021_059_003.mp3","char_type_name":"word","page_number":327,"line_number":2,"text":"فَعَلَ","translation":{"text":"করেছে","language_name":"bengali","language_id":20},"transliteration":{"text":"faʿala","language_name":"english","language_id":38}},{"id":53846,"position":4,"audio_url":"wbw/021_059_004.mp3","char_type_name":"word","page_number":327,"line_number":2,"text":"هَـٰذَا","translation":{"text":"এটা","language_name":"bengali","language_id":20},"transliteration":{"text":"hādhā","language_name":"english","language_id":38}},{"id":53847,"position":5,"audio_url":"wbw/021_059_005.mp3","char_type_name":"word","page_number":327,"line_number":2,"text":"بِـَٔالِهَتِنَآ","translation":{"text":"সাথে আমাদের ইলাহগুলোর","language_name":"bengali","language_id":20},"transliteration":{"text":"biālihatinā","language_name":"english","language_id":38}},{"id":53848,"position":6,"audio_url":"wbw/021_059_006.mp3","char_type_name":"word","page_number":327,"line_number":2,"text":"إِنَّهُۥ","translation":{"text":"সে নিশ্চয়ই","language_name":"bengali","language_id":20},"transliteration":{"text":"innahu","language_name":"english","language_id":38}},{"id":53849,"position":7,"audio_url":"wbw/021_059_007.mp3","char_type_name":"word","page_number":327,"line_number":2,"text":"لَمِنَ","translation":{"text":"অবশ্যই অন্তর্ভুক্ত","language_name":"bengali","language_id":20},"transliteration":{"text":"lamina","language_name":"english","language_id":38}},{"id":53850,"position":8,"audio_url":"wbw/021_059_008.mp3","char_type_name":"word","page_number":327,"line_number":2,"text":"ٱلظَّـٰلِمِينَ","translation":{"text":"সীমালঙ্ঘনকারীদের\"","language_name":"bengali","language_id":20},"transliteration":{"text":"l-ẓālimīna","language_name":"english","language_id":38}},{"id":53851,"position":9,"audio_url":null,"char_type_name":"end","page_number":327,"line_number":2,"text":"٥٩","translation":{"text":"(৫৯)","language_name":"bengali","language_id":20},"transliteration":{"text":null,"language_name":"english","language_id":38}}]},{"id":2543,"verse_number":60,"verse_key":"21:60","hizb_number":33,"rub_el_hizb_number":131,"ruku_number":282,"manzil_number":4,"sajdah_number":null,"page_number":327,"juz_number":17,"words":[{"id":54463,"position":1,"audio_url":"wbw/021_060_001.mp3","char_type_name":"word","page_number":327,"line_number":3,"text":"قَالُوا۟","translation":{"text":"তারা বললো","language_name":"bengali","language_id":20},"transliteration":{"text":"qālū","language_name":"english","language_id":38}},{"id":54464,"position":2,"audio_url":"wbw/021_060_002.mp3","char_type_name":"word","page_number":327,"line_number":3,"text":"سَمِعْنَا","translation":{"text":"\"আমরা শুনেছি","language_name":"bengali","language_id":20},"transliteration":{"text":"samiʿ'nā","language_name":"english","language_id":38}},{"id":54465,"position":3,"audio_url":"wbw/021_060_003.mp3","char_type_name":"word","page_number":327,"line_number":3,"text":"فَتًۭى","translation":{"text":"এক যুবককেকে","language_name":"bengali","language_id":20},"transliteration":{"text":"fatan","language_name":"english","language_id":38}},{"id":54466,"position":4,"audio_url":"wbw/021_060_004.mp3","char_type_name":"word","page_number":327,"line_number":3,"text":"يَذْكُرُهُمْ","translation":{"text":"সমালোচনা করতে তাদের ব্যাপারে","language_name":"bengali","language_id":20},"transliteration":{"text":"yadhkuruhum","language_name":"english","language_id":38}},{"id":54467,"position":5,"audio_url":"wbw/021_060_005.mp3","char_type_name":"word","page_number":327,"line_number":3,"text":"يُقَالُ","translation":{"text":"বলা হয়","language_name":"bengali","language_id":20},"transliteration":{"text":"yuqālu","language_name":"english","language_id":38}},{"id":54468,"position":6,"audio_url":"wbw/021_060_006.mp3","char_type_name":"word","page_number":327,"line_number":3,"text":"لَهُۥٓ","translation":{"text":"তার (নাম)","language_name":"bengali","language_id":20},"transliteration":{"text":"lahu","language_name":"english","language_id":38}},{"id":54469,"position":7,"audio_url":"wbw/021_060_007.mp3","char_type_name":"word","page_number":327,"line_number":3,"text":"إِبْرَٰهِيمُ","translation":{"text":"ইবরাহীম\"","language_name":"bengali","language_id":20},"transliteration":{"text":"ib'rāhīmu","language_name":"english","language_id":38}},{"id":54470,"position":8,"audio_url":null,"char_type_name":"end","page_number":327,"line_number":3,"text":"٦٠","translation":{"text":"(৬০)","language_name":"bengali","language_id":20},"transliteration":{"text":null,"language_name":"english","language_id":38}}]}],"pagination":{"per_page":10,"current_page":6,"next_page":7,"total_pages":12,"total_records":112}}
