{"verses":[{"id":5713,"verse_number":1,"verse_key":"79:1","hizb_number":59,"rub_el_hizb_number":233,"ruku_number":522,"manzil_number":7,"sajdah_number":null,"page_number":583,"juz_number":30,"words":[{"id":679,"position":1,"audio_url":"wbw/079_001_001.mp3","char_type_name":"word","page_number":583,"line_number":10,"text":"وَٱلنَّـٰزِعَـٰتِ","translation":{"text":"শপথ সজোরে (প্রাণ) নির্গতকারী (ফেরেশতাদের)","language_name":"bengali","language_id":20},"transliteration":{"text":"wal-nāziʿāti","language_name":"english","language_id":38}},{"id":680,"position":2,"audio_url":"wbw/079_001_002.mp3","char_type_name":"word","page_number":583,"line_number":10,"text":"غَرْقًۭا","translation":{"text":"(যারা নির্গত করে) ডুবে","language_name":"bengali","language_id":20},"transliteration":{"text":"gharqan","language_name":"english","language_id":38}},{"id":681,"position":3,"audio_url":null,"char_type_name":"end","page_number":583,"line_number":10,"text":"١","translation":{"text":"(১)","language_name":"bengali","language_id":20},"transliteration":{"text":null,"language_name":"english","language_id":38}}]},{"id":5714,"verse_number":2,"verse_key":"79:2","hizb_number":59,"rub_el_hizb_number":233,"ruku_number":522,"manzil_number":7,"sajdah_number":null,"page_number":583,"juz_number":30,"words":[{"id":1695,"position":1,"audio_url":"wbw/079_002_001.mp3","char_type_name":"word","page_number":583,"line_number":10,"text":"وَٱلنَّـٰشِطَـٰتِ","translation":{"text":"শপথ (আত্মার) বাঁধন উন্মুক্তকারী (ফেরেশতাদের)","language_name":"bengali","language_id":20},"transliteration":{"text":"wal-nāshiṭāti","language_name":"english","language_id":38}},{"id":1696,"position":2,"audio_url":"wbw/079_002_002.mp3","char_type_name":"word","page_number":583,"line_number":10,"text":"نَشْطًۭا","translation":{"text":"(যারা মৃদুভাবে) উন্মুক্ত (করে)","language_name":"bengali","language_id":20},"transliteration":{"text":"nashṭan","language_name":"english","language_id":38}},{"id":1697,"position":3,"audio_url":null,"char_type_name":"end","page_number":583,"line_number":10,"text":"٢","translation":{"text":"(২)","language_name":"bengali","language_id":20},"transliteration":{"text":null,"language_name":"english","language_id":38}}]},{"id":5715,"verse_number":3,"verse_key":"79:3","hizb_number":59,"rub_el_hizb_number":233,"ruku_number":522,"manzil_number":7,"sajdah_number":null,"page_number":583,"juz_number":30,"words":[{"id":2804,"position":1,"audio_url":"wbw/079_003_001.mp3","char_type_name":"word","page_number":583,"line_number":10,"text":"وَٱلسَّـٰبِحَـٰتِ","translation":{"text":"শপথ সাঁতারকারী (ফেরেশতাদের)","language_name":"bengali","language_id":20},"transliteration":{"text":"wal-sābiḥāti","language_name":"english","language_id":38}},{"id":2805,"position":2,"audio_url":"wbw/079_003_002.mp3","char_type_name":"word","page_number":583,"line_number":10,"text":"سَبْحًۭا","translation":{"text":"(যারা তীব্র গতিতে) সাঁতরায়","language_name":"bengali","language_id":20},"transliteration":{"text":"sabḥan","language_name":"english","language_id":38}},{"id":2806,"position":3,"audio_url":null,"char_type_name":"end","page_number":583,"line_number":10,"text":"٣","translation":{"text":"(৩)","language_name":"bengali","language_id":20},"transliteration":{"text":null,"language_name":"english","language_id":38}}]},{"id":5716,"verse_number":4,"verse_key":"79:4","hizb_number":59,"rub_el_hizb_number":233,"ruku_number":522,"manzil_number":7,"sajdah_number":null,"page_number":583,"juz_number":30,"words":[{"id":4178,"position":1,"audio_url":"wbw/079_004_001.mp3","char_type_name":"word","page_number":583,"line_number":11,"text":"فَٱلسَّـٰبِقَـٰتِ","translation":{"text":"অতঃপর (শপথ) অগ্রগামী (ফেরেশতাদের)","language_name":"bengali","language_id":20},"transliteration":{"text":"fal-sābiqāti","language_name":"english","language_id":38}},{"id":4179,"position":2,"audio_url":"wbw/079_004_002.mp3","char_type_name":"word","page_number":583,"line_number":11,"text":"سَبْقًۭا","translation":{"text":"দ্রুতবেগে","language_name":"bengali","language_id":20},"transliteration":{"text":"sabqan","language_name":"english","language_id":38}},{"id":4180,"position":3,"audio_url":null,"char_type_name":"end","page_number":583,"line_number":11,"text":"٤","translation":{"text":"(৪)","language_name":"bengali","language_id":20},"transliteration":{"text":null,"language_name":"english","language_id":38}}]},{"id":5717,"verse_number":5,"verse_key":"79:5","hizb_number":59,"rub_el_hizb_number":233,"ruku_number":522,"manzil_number":7,"sajdah_number":null,"page_number":583,"juz_number":30,"words":[{"id":5452,"position":1,"audio_url":"wbw/079_005_001.mp3","char_type_name":"word","page_number":583,"line_number":11,"text":"فَٱلْمُدَبِّرَٰتِ","translation":{"text":"অতঃপর (শপথ) কার্যনির্বাহী (ফেরেশতাদের)","language_name":"bengali","language_id":20},"transliteration":{"text":"fal-mudabirāti","language_name":"english","language_id":38}},{"id":5453,"position":2,"audio_url":"wbw/079_005_002.mp3","char_type_name":"word","page_number":583,"line_number":11,"text":"أَمْرًۭا","translation":{"text":"(যারা পরিচালনা করে) কর্ম","language_name":"bengali","language_id":20},"transliteration":{"text":"amran","language_name":"english","language_id":38}},{"id":5454,"position":3,"audio_url":null,"char_type_name":"end","page_number":583,"line_number":11,"text":"٥","translation":{"text":"(৫)","language_name":"bengali","language_id":20},"transliteration":{"text":null,"language_name":"english","language_id":38}}]},{"id":5718,"verse_number":6,"verse_key":"79:6","hizb_number":59,"rub_el_hizb_number":233,"ruku_number":522,"manzil_number":7,"sajdah_number":null,"page_number":583,"juz_number":30,"words":[{"id":6681,"position":1,"audio_url":"wbw/079_006_001.mp3","char_type_name":"word","page_number":583,"line_number":11,"text":"يَوْمَ","translation":{"text":"সেদিন","language_name":"bengali","language_id":20},"transliteration":{"text":"yawma","language_name":"english","language_id":38}},{"id":6682,"position":2,"audio_url":"wbw/079_006_002.mp3","char_type_name":"word","page_number":583,"line_number":11,"text":"تَرْجُفُ","translation":{"text":"প্রকম্পিত করবে","language_name":"bengali","language_id":20},"transliteration":{"text":"tarjufu","language_name":"english","language_id":38}},{"id":6683,"position":3,"audio_url":"wbw/079_006_003.mp3","char_type_name":"word","page_number":583,"line_number":11,"text":"ٱلرَّاجِفَةُ","translation":{"text":"প্রথম শিংগাধ্বনি","language_name":"bengali","language_id":20},"transliteration":{"text":"l-rājifatu","language_name":"english","language_id":38}},{"id":6684,"position":4,"audio_url":null,"char_type_name":"end","page_number":583,"line_number":11,"text":"٦","translation":{"text":"(৬)","language_name":"bengali","language_id":20},"transliteration":{"text":null,"language_name":"english","language_id":38}}]},{"id":5719,"verse_number":7,"verse_key":"79:7","hizb_number":59,"rub_el_hizb_number":233,"ruku_number":522,"manzil_number":7,"sajdah_number":null,"page_number":583,"juz_number":30,"words":[{"id":8026,"position":1,"audio_url":"wbw/079_007_001.mp3","char_type_name":"word","page_number":583,"line_number":12,"text":"تَتْبَعُهَا","translation":{"text":"তার অনুসরণ করবে","language_name":"bengali","language_id":20},"transliteration":{"text":"tatbaʿuhā","language_name":"english","language_id":38}},{"id":8027,"position":2,"audio_url":"wbw/079_007_002.mp3","char_type_name":"word","page_number":583,"line_number":12,"text":"ٱلرَّادِفَةُ","translation":{"text":"(আরো একটি) শিংগাধ্বনি","language_name":"bengali","language_id":20},"transliteration":{"text":"l-rādifatu","language_name":"english","language_id":38}},{"id":8028,"position":3,"audio_url":null,"char_type_name":"end","page_number":583,"line_number":12,"text":"٧","translation":{"text":"(৭)","language_name":"bengali","language_id":20},"transliteration":{"text":null,"language_name":"english","language_id":38}}]},{"id":5720,"verse_number":8,"verse_key":"79:8","hizb_number":59,"rub_el_hizb_number":233,"ruku_number":522,"manzil_number":7,"sajdah_number":null,"page_number":583,"juz_number":30,"words":[{"id":9189,"position":1,"audio_url":"wbw/079_008_001.mp3","char_type_name":"word","page_number":583,"line_number":12,"text":"قُلُوبٌۭ","translation":{"text":"(কতিপয়) হৃদয়","language_name":"bengali","language_id":20},"transliteration":{"text":"qulūbun","language_name":"english","language_id":38}},{"id":9190,"position":2,"audio_url":"wbw/079_008_002.mp3","char_type_name":"word","page_number":583,"line_number":12,"text":"يَوْمَئِذٍۢ","translation":{"text":"সেদিন","language_name":"bengali","language_id":20},"transliteration":{"text":"yawma-idhin","language_name":"english","language_id":38}},{"id":9191,"position":3,"audio_url":"wbw/079_008_003.mp3","char_type_name":"word","page_number":583,"line_number":12,"text":"وَاجِفَةٌ","translation":{"text":"ভীত-কম্পিত (হবে)","language_name":"bengali","language_id":20},"transliteration":{"text":"wājifatun","language_name":"english","language_id":38}},{"id":9192,"position":4,"audio_url":null,"char_type_name":"end","page_number":583,"line_number":12,"text":"٨","translation":{"text":"(৮)","language_name":"bengali","language_id":20},"transliteration":{"text":null,"language_name":"english","language_id":38}}]},{"id":5721,"verse_number":9,"verse_key":"79:9","hizb_number":59,"rub_el_hizb_number":233,"ruku_number":522,"manzil_number":7,"sajdah_number":null,"page_number":583,"juz_number":30,"words":[{"id":10401,"position":1,"audio_url":"wbw/079_009_001.mp3","char_type_name":"word","page_number":583,"line_number":12,"text":"أَبْصَـٰرُهَا","translation":{"text":"তার দৃষ্টি সমূহ","language_name":"bengali","language_id":20},"transliteration":{"text":"abṣāruhā","language_name":"english","language_id":38}},{"id":10402,"position":2,"audio_url":"wbw/079_009_002.mp3","char_type_name":"word","page_number":583,"line_number":12,"text":"خَـٰشِعَةٌۭ","translation":{"text":"ভীতসন্ত্রস্ত (হবে)","language_name":"bengali","language_id":20},"transliteration":{"text":"khāshiʿatun","language_name":"english","language_id":38}},{"id":10403,"position":3,"audio_url":null,"char_type_name":"end","page_number":583,"line_number":12,"text":"٩","translation":{"text":"(৯)","language_name":"bengali","language_id":20},"transliteration":{"text":null,"language_name":"english","language_id":38}}]},{"id":5722,"verse_number":10,"verse_key":"79:10","hizb_number":59,"rub_el_hizb_number":233,"ruku_number":522,"manzil_number":7,"sajdah_number":null,"page_number":583,"juz_number":30,"words":[{"id":11628,"position":1,"audio_url":"wbw/079_010_001.mp3","char_type_name":"word","page_number":583,"line_number":13,"text":"يَقُولُونَ","translation":{"text":"তারা বলে","language_name":"bengali","language_id":20},"transliteration":{"text":"yaqūlūna","language_name":"english","language_id":38}},{"id":11629,"position":2,"audio_url":"wbw/079_010_002.mp3","char_type_name":"word","page_number":583,"line_number":13,"text":"أَءِنَّا","translation":{"text":"\"অবশ্যই কি আমরা","language_name":"bengali","language_id":20},"transliteration":{"text":"a-innā","language_name":"english","language_id":38}},{"id":11630,"position":3,"audio_url":"wbw/079_010_003.mp3","char_type_name":"word","page_number":583,"line_number":13,"text":"لَمَرْدُودُونَ","translation":{"text":"অবশ্যই প্রত্যাবর্তিত হবো","language_name":"bengali","language_id":20},"transliteration":{"text":"lamardūdūna","language_name":"english","language_id":38}},{"id":11631,"position":4,"audio_url":"wbw/079_010_004.mp3","char_type_name":"word","page_number":583,"line_number":13,"text":"فِى","translation":{"text":"মধ্যে","language_name":"bengali","language_id":20},"transliteration":{"text":"fī","language_name":"english","language_id":38}},{"id":11632,"position":5,"audio_url":"wbw/079_010_005.mp3","char_type_name":"word","page_number":583,"line_number":13,"text":"ٱلْحَافِرَةِ","translation":{"text":"পূর্বাবস্থার","language_name":"bengali","language_id":20},"transliteration":{"text":"l-ḥāfirati","language_name":"english","language_id":38}},{"id":11633,"position":6,"audio_url":null,"char_type_name":"end","page_number":583,"line_number":13,"text":"١٠","translation":{"text":"(১০)","language_name":"bengali","language_id":20},"transliteration":{"text":null,"language_name":"english","language_id":38}}]}],"pagination":{"per_page":10,"current_page":1,"next_page":2,"total_pages":5,"total_records":46}}
