{"verses":[{"id":5743,"verse_number":31,"verse_key":"79:31","hizb_number":59,"rub_el_hizb_number":233,"ruku_number":523,"manzil_number":7,"sajdah_number":null,"page_number":584,"juz_number":30,"words":[{"id":33779,"position":1,"audio_url":"wbw/079_031_001.mp3","char_type_name":"word","page_number":584,"line_number":7,"text":"أَخْرَجَ","translation":{"text":"বের করেছেন","language_name":"bengali","language_id":20},"transliteration":{"text":"akhraja","language_name":"english","language_id":38}},{"id":33780,"position":2,"audio_url":"wbw/079_031_002.mp3","char_type_name":"word","page_number":584,"line_number":7,"text":"مِنْهَا","translation":{"text":"তা হতে","language_name":"bengali","language_id":20},"transliteration":{"text":"min'hā","language_name":"english","language_id":38}},{"id":33781,"position":3,"audio_url":"wbw/079_031_003.mp3","char_type_name":"word","page_number":584,"line_number":7,"text":"مَآءَهَا","translation":{"text":"তার পানি","language_name":"bengali","language_id":20},"transliteration":{"text":"māahā","language_name":"english","language_id":38}},{"id":33782,"position":4,"audio_url":"wbw/079_031_004.mp3","char_type_name":"word","page_number":584,"line_number":7,"text":"وَمَرْعَىٰهَا","translation":{"text":"ও তার উদ্ভিদ/ তৃণ","language_name":"bengali","language_id":20},"transliteration":{"text":"wamarʿāhā","language_name":"english","language_id":38}},{"id":33783,"position":5,"audio_url":null,"char_type_name":"end","page_number":584,"line_number":7,"text":"٣١","translation":{"text":"(৩১)","language_name":"bengali","language_id":20},"transliteration":{"text":null,"language_name":"english","language_id":38}}]},{"id":5744,"verse_number":32,"verse_key":"79:32","hizb_number":59,"rub_el_hizb_number":233,"ruku_number":523,"manzil_number":7,"sajdah_number":null,"page_number":584,"juz_number":30,"words":[{"id":34778,"position":1,"audio_url":"wbw/079_032_001.mp3","char_type_name":"word","page_number":584,"line_number":7,"text":"وَٱلْجِبَالَ","translation":{"text":"এবং পর্বতমালাকে","language_name":"bengali","language_id":20},"transliteration":{"text":"wal-jibāla","language_name":"english","language_id":38}},{"id":34779,"position":2,"audio_url":"wbw/079_032_002.mp3","char_type_name":"word","page_number":584,"line_number":7,"text":"أَرْسَىٰهَا","translation":{"text":"তা দৃঢ়ভাবে প্রোথিত করেছেন","language_name":"bengali","language_id":20},"transliteration":{"text":"arsāhā","language_name":"english","language_id":38}},{"id":34780,"position":3,"audio_url":null,"char_type_name":"end","page_number":584,"line_number":7,"text":"٣٢","translation":{"text":"(৩২)","language_name":"bengali","language_id":20},"transliteration":{"text":null,"language_name":"english","language_id":38}}]},{"id":5745,"verse_number":33,"verse_key":"79:33","hizb_number":59,"rub_el_hizb_number":233,"ruku_number":523,"manzil_number":7,"sajdah_number":null,"page_number":584,"juz_number":30,"words":[{"id":35582,"position":1,"audio_url":"wbw/079_033_001.mp3","char_type_name":"word","page_number":584,"line_number":7,"text":"مَتَـٰعًۭا","translation":{"text":"জীবিকা সামগ্রীরূপে","language_name":"bengali","language_id":20},"transliteration":{"text":"matāʿan","language_name":"english","language_id":38}},{"id":35583,"position":2,"audio_url":"wbw/079_033_002.mp3","char_type_name":"word","page_number":584,"line_number":7,"text":"لَّكُمْ","translation":{"text":"তোমাদের জন্য","language_name":"bengali","language_id":20},"transliteration":{"text":"lakum","language_name":"english","language_id":38}},{"id":35584,"position":3,"audio_url":"wbw/079_033_003.mp3","char_type_name":"word","page_number":584,"line_number":8,"text":"وَلِأَنْعَـٰمِكُمْ","translation":{"text":"এবং তোমাদের গৃহপালিত পশুর জন্য","language_name":"bengali","language_id":20},"transliteration":{"text":"wali-anʿāmikum","language_name":"english","language_id":38}},{"id":35585,"position":4,"audio_url":null,"char_type_name":"end","page_number":584,"line_number":8,"text":"٣٣","translation":{"text":"(৩৩)","language_name":"bengali","language_id":20},"transliteration":{"text":null,"language_name":"english","language_id":38}}]},{"id":5746,"verse_number":34,"verse_key":"79:34","hizb_number":59,"rub_el_hizb_number":233,"ruku_number":523,"manzil_number":7,"sajdah_number":null,"page_number":584,"juz_number":30,"words":[{"id":36515,"position":1,"audio_url":"wbw/079_034_001.mp3","char_type_name":"word","page_number":584,"line_number":8,"text":"فَإِذَا","translation":{"text":"অতঃপর যখন","language_name":"bengali","language_id":20},"transliteration":{"text":"fa-idhā","language_name":"english","language_id":38}},{"id":36516,"position":2,"audio_url":"wbw/079_034_002.mp3","char_type_name":"word","page_number":584,"line_number":8,"text":"جَآءَتِ","translation":{"text":"আসবে","language_name":"bengali","language_id":20},"transliteration":{"text":"jāati","language_name":"english","language_id":38}},{"id":36517,"position":3,"audio_url":"wbw/079_034_003.mp3","char_type_name":"word","page_number":584,"line_number":8,"text":"ٱلطَّآمَّةُ","translation":{"text":"মহাসংকট","language_name":"bengali","language_id":20},"transliteration":{"text":"l-ṭāmatu","language_name":"english","language_id":38}},{"id":36518,"position":4,"audio_url":"wbw/079_034_004.mp3","char_type_name":"word","page_number":584,"line_number":8,"text":"ٱلْكُبْرَىٰ","translation":{"text":"মহা","language_name":"bengali","language_id":20},"transliteration":{"text":"l-kub'rā","language_name":"english","language_id":38}},{"id":36519,"position":5,"audio_url":null,"char_type_name":"end","page_number":584,"line_number":8,"text":"٣٤","translation":{"text":"(৩৪)","language_name":"bengali","language_id":20},"transliteration":{"text":null,"language_name":"english","language_id":38}}]},{"id":5747,"verse_number":35,"verse_key":"79:35","hizb_number":59,"rub_el_hizb_number":233,"ruku_number":523,"manzil_number":7,"sajdah_number":null,"page_number":584,"juz_number":30,"words":[{"id":37388,"position":1,"audio_url":"wbw/079_035_001.mp3","char_type_name":"word","page_number":584,"line_number":8,"text":"يَوْمَ","translation":{"text":"সেদিন","language_name":"bengali","language_id":20},"transliteration":{"text":"yawma","language_name":"english","language_id":38}},{"id":37389,"position":2,"audio_url":"wbw/079_035_002.mp3","char_type_name":"word","page_number":584,"line_number":8,"text":"يَتَذَكَّرُ","translation":{"text":"স্মরণ করবে","language_name":"bengali","language_id":20},"transliteration":{"text":"yatadhakkaru","language_name":"english","language_id":38}},{"id":37390,"position":3,"audio_url":"wbw/079_035_003.mp3","char_type_name":"word","page_number":584,"line_number":8,"text":"ٱلْإِنسَـٰنُ","translation":{"text":"মানুষ","language_name":"bengali","language_id":20},"transliteration":{"text":"l-insānu","language_name":"english","language_id":38}},{"id":37391,"position":4,"audio_url":"wbw/079_035_004.mp3","char_type_name":"word","page_number":584,"line_number":9,"text":"مَا","translation":{"text":"যা","language_name":"bengali","language_id":20},"transliteration":{"text":"mā","language_name":"english","language_id":38}},{"id":37392,"position":5,"audio_url":"wbw/079_035_005.mp3","char_type_name":"word","page_number":584,"line_number":9,"text":"سَعَىٰ","translation":{"text":"সে চেষ্টা করেছিল","language_name":"bengali","language_id":20},"transliteration":{"text":"saʿā","language_name":"english","language_id":38}},{"id":37393,"position":6,"audio_url":null,"char_type_name":"end","page_number":584,"line_number":9,"text":"٣٥","translation":{"text":"(৩৫)","language_name":"bengali","language_id":20},"transliteration":{"text":null,"language_name":"english","language_id":38}}]},{"id":5748,"verse_number":36,"verse_key":"79:36","hizb_number":59,"rub_el_hizb_number":233,"ruku_number":523,"manzil_number":7,"sajdah_number":null,"page_number":584,"juz_number":30,"words":[{"id":38222,"position":1,"audio_url":"wbw/079_036_001.mp3","char_type_name":"word","page_number":584,"line_number":9,"text":"وَبُرِّزَتِ","translation":{"text":"এবং প্রকাশ করা হবে","language_name":"bengali","language_id":20},"transliteration":{"text":"waburrizati","language_name":"english","language_id":38}},{"id":38223,"position":2,"audio_url":"wbw/079_036_002.mp3","char_type_name":"word","page_number":584,"line_number":9,"text":"ٱلْجَحِيمُ","translation":{"text":"জাহান্নাম","language_name":"bengali","language_id":20},"transliteration":{"text":"l-jaḥīmu","language_name":"english","language_id":38}},{"id":38224,"position":3,"audio_url":"wbw/079_036_003.mp3","char_type_name":"word","page_number":584,"line_number":9,"text":"لِمَن","translation":{"text":"তার জন্যে যে","language_name":"bengali","language_id":20},"transliteration":{"text":"liman","language_name":"english","language_id":38}},{"id":38225,"position":4,"audio_url":"wbw/079_036_004.mp3","char_type_name":"word","page_number":584,"line_number":9,"text":"يَرَىٰ","translation":{"text":"দেখে","language_name":"bengali","language_id":20},"transliteration":{"text":"yarā","language_name":"english","language_id":38}},{"id":38226,"position":5,"audio_url":null,"char_type_name":"end","page_number":584,"line_number":9,"text":"٣٦","translation":{"text":"(৩৬)","language_name":"bengali","language_id":20},"transliteration":{"text":null,"language_name":"english","language_id":38}}]},{"id":5749,"verse_number":37,"verse_key":"79:37","hizb_number":59,"rub_el_hizb_number":233,"ruku_number":523,"manzil_number":7,"sajdah_number":null,"page_number":584,"juz_number":30,"words":[{"id":39040,"position":1,"audio_url":"wbw/079_037_001.mp3","char_type_name":"word","page_number":584,"line_number":9,"text":"فَأَمَّا","translation":{"text":"অনন্তর","language_name":"bengali","language_id":20},"transliteration":{"text":"fa-ammā","language_name":"english","language_id":38}},{"id":39041,"position":2,"audio_url":"wbw/079_037_002.mp3","char_type_name":"word","page_number":584,"line_number":9,"text":"مَن","translation":{"text":"যে","language_name":"bengali","language_id":20},"transliteration":{"text":"man","language_name":"english","language_id":38}},{"id":39042,"position":3,"audio_url":"wbw/079_037_003.mp3","char_type_name":"word","page_number":584,"line_number":9,"text":"طَغَىٰ","translation":{"text":"সীমালঙ্ঘন করেছে","language_name":"bengali","language_id":20},"transliteration":{"text":"ṭaghā","language_name":"english","language_id":38}},{"id":39043,"position":4,"audio_url":null,"char_type_name":"end","page_number":584,"line_number":9,"text":"٣٧","translation":{"text":"(৩৭)","language_name":"bengali","language_id":20},"transliteration":{"text":null,"language_name":"english","language_id":38}}]},{"id":5750,"verse_number":38,"verse_key":"79:38","hizb_number":59,"rub_el_hizb_number":233,"ruku_number":523,"manzil_number":7,"sajdah_number":null,"page_number":584,"juz_number":30,"words":[{"id":39875,"position":1,"audio_url":"wbw/079_038_001.mp3","char_type_name":"word","page_number":584,"line_number":9,"text":"وَءَاثَرَ","translation":{"text":"এবং অগ্রাধিকার দিয়েছে","language_name":"bengali","language_id":20},"transliteration":{"text":"waāthara","language_name":"english","language_id":38}},{"id":39876,"position":2,"audio_url":"wbw/079_038_002.mp3","char_type_name":"word","page_number":584,"line_number":10,"text":"ٱلْحَيَوٰةَ","translation":{"text":"জীবনকে","language_name":"bengali","language_id":20},"transliteration":{"text":"l-ḥayata","language_name":"english","language_id":38}},{"id":39877,"position":3,"audio_url":"wbw/079_038_003.mp3","char_type_name":"word","page_number":584,"line_number":10,"text":"ٱلدُّنْيَا","translation":{"text":"দুনিয়ার","language_name":"bengali","language_id":20},"transliteration":{"text":"l-dun'yā","language_name":"english","language_id":38}},{"id":39878,"position":4,"audio_url":null,"char_type_name":"end","page_number":584,"line_number":10,"text":"٣٨","translation":{"text":"(৩৮)","language_name":"bengali","language_id":20},"transliteration":{"text":null,"language_name":"english","language_id":38}}]},{"id":5751,"verse_number":39,"verse_key":"79:39","hizb_number":59,"rub_el_hizb_number":233,"ruku_number":523,"manzil_number":7,"sajdah_number":null,"page_number":584,"juz_number":30,"words":[{"id":40439,"position":1,"audio_url":"wbw/079_039_001.mp3","char_type_name":"word","page_number":584,"line_number":10,"text":"فَإِنَّ","translation":{"text":"অতঃপর নিশ্চয়ই","language_name":"bengali","language_id":20},"transliteration":{"text":"fa-inna","language_name":"english","language_id":38}},{"id":40440,"position":2,"audio_url":"wbw/079_039_002.mp3","char_type_name":"word","page_number":584,"line_number":10,"text":"ٱلْجَحِيمَ","translation":{"text":"দোযখই (হবে)","language_name":"bengali","language_id":20},"transliteration":{"text":"l-jaḥīma","language_name":"english","language_id":38}},{"id":40441,"position":3,"audio_url":"wbw/079_039_003.mp3","char_type_name":"word","page_number":584,"line_number":10,"text":"هِىَ","translation":{"text":"তাই","language_name":"bengali","language_id":20},"transliteration":{"text":"hiya","language_name":"english","language_id":38}},{"id":40442,"position":4,"audio_url":"wbw/079_039_004.mp3","char_type_name":"word","page_number":584,"line_number":10,"text":"ٱلْمَأْوَىٰ","translation":{"text":"(তার) বাসস্থান","language_name":"bengali","language_id":20},"transliteration":{"text":"l-mawā","language_name":"english","language_id":38}},{"id":40443,"position":5,"audio_url":null,"char_type_name":"end","page_number":584,"line_number":10,"text":"٣٩","translation":{"text":"(৩৯)","language_name":"bengali","language_id":20},"transliteration":{"text":null,"language_name":"english","language_id":38}}]},{"id":5752,"verse_number":40,"verse_key":"79:40","hizb_number":59,"rub_el_hizb_number":233,"ruku_number":523,"manzil_number":7,"sajdah_number":null,"page_number":584,"juz_number":30,"words":[{"id":41492,"position":1,"audio_url":"wbw/079_040_001.mp3","char_type_name":"word","page_number":584,"line_number":10,"text":"وَأَمَّا","translation":{"text":"অপরদিকে","language_name":"bengali","language_id":20},"transliteration":{"text":"wa-ammā","language_name":"english","language_id":38}},{"id":41493,"position":2,"audio_url":"wbw/079_040_002.mp3","char_type_name":"word","page_number":584,"line_number":10,"text":"مَنْ","translation":{"text":"যে","language_name":"bengali","language_id":20},"transliteration":{"text":"man","language_name":"english","language_id":38}},{"id":41494,"position":3,"audio_url":"wbw/079_040_003.mp3","char_type_name":"word","page_number":584,"line_number":10,"text":"خَافَ","translation":{"text":"ভয় করেছে","language_name":"bengali","language_id":20},"transliteration":{"text":"khāfa","language_name":"english","language_id":38}},{"id":41495,"position":4,"audio_url":"wbw/079_040_004.mp3","char_type_name":"word","page_number":584,"line_number":11,"text":"مَقَامَ","translation":{"text":"দাঁড়াতে","language_name":"bengali","language_id":20},"transliteration":{"text":"maqāma","language_name":"english","language_id":38}},{"id":41496,"position":5,"audio_url":"wbw/079_040_005.mp3","char_type_name":"word","page_number":584,"line_number":11,"text":"رَبِّهِۦ","translation":{"text":"তার রবের সামনে","language_name":"bengali","language_id":20},"transliteration":{"text":"rabbihi","language_name":"english","language_id":38}},{"id":41497,"position":6,"audio_url":"wbw/079_040_006.mp3","char_type_name":"word","page_number":584,"line_number":11,"text":"وَنَهَى","translation":{"text":"এবং বিরত রেখেছে","language_name":"bengali","language_id":20},"transliteration":{"text":"wanahā","language_name":"english","language_id":38}},{"id":41498,"position":7,"audio_url":"wbw/079_040_007.mp3","char_type_name":"word","page_number":584,"line_number":11,"text":"ٱلنَّفْسَ","translation":{"text":"প্রবৃত্তিকে","language_name":"bengali","language_id":20},"transliteration":{"text":"l-nafsa","language_name":"english","language_id":38}},{"id":41499,"position":8,"audio_url":"wbw/079_040_008.mp3","char_type_name":"word","page_number":584,"line_number":11,"text":"عَنِ","translation":{"text":"হতে","language_name":"bengali","language_id":20},"transliteration":{"text":"ʿani","language_name":"english","language_id":38}},{"id":41500,"position":9,"audio_url":"wbw/079_040_009.mp3","char_type_name":"word","page_number":584,"line_number":11,"text":"ٱلْهَوَىٰ","translation":{"text":"খারাপ কামনা","language_name":"bengali","language_id":20},"transliteration":{"text":"l-hawā","language_name":"english","language_id":38}},{"id":41501,"position":10,"audio_url":null,"char_type_name":"end","page_number":584,"line_number":11,"text":"٤٠","translation":{"text":"(৪০)","language_name":"bengali","language_id":20},"transliteration":{"text":null,"language_name":"english","language_id":38}}]}],"pagination":{"per_page":10,"current_page":4,"next_page":5,"total_pages":5,"total_records":46}}
