{"verses":[{"id":950,"verse_number":161,"verse_key":"6:161","hizb_number":15,"rub_el_hizb_number":60,"ruku_number":121,"manzil_number":2,"sajdah_number":null,"page_number":150,"juz_number":8,"words":[{"id":81896,"position":1,"audio_url":"wbw/006_161_001.mp3","char_type_name":"word","page_number":150,"line_number":7,"text":"قُلْ","translation":{"text":"বলো","language_name":"bengali","language_id":20},"transliteration":{"text":"qul","language_name":"english","language_id":38}},{"id":81897,"position":2,"audio_url":"wbw/006_161_002.mp3","char_type_name":"word","page_number":150,"line_number":7,"text":"إِنَّنِى","translation":{"text":"\"নিশ্চয়ই আমাকে","language_name":"bengali","language_id":20},"transliteration":{"text":"innanī","language_name":"english","language_id":38}},{"id":81898,"position":3,"audio_url":"wbw/006_161_003.mp3","char_type_name":"word","page_number":150,"line_number":7,"text":"هَدَىٰنِى","translation":{"text":"পথ দেখিয়েছেন আমাকে","language_name":"bengali","language_id":20},"transliteration":{"text":"hadānī","language_name":"english","language_id":38}},{"id":81899,"position":4,"audio_url":"wbw/006_161_004.mp3","char_type_name":"word","page_number":150,"line_number":7,"text":"رَبِّىٓ","translation":{"text":"আমার রব","language_name":"bengali","language_id":20},"transliteration":{"text":"rabbī","language_name":"english","language_id":38}},{"id":81900,"position":5,"audio_url":"wbw/006_161_005.mp3","char_type_name":"word","page_number":150,"line_number":8,"text":"إِلَىٰ","translation":{"text":"দিকে","language_name":"bengali","language_id":20},"transliteration":{"text":"ilā","language_name":"english","language_id":38}},{"id":81901,"position":6,"audio_url":"wbw/006_161_006.mp3","char_type_name":"word","page_number":150,"line_number":8,"text":"صِرَٰطٍۢ","translation":{"text":"পথের","language_name":"bengali","language_id":20},"transliteration":{"text":"ṣirāṭin","language_name":"english","language_id":38}},{"id":81902,"position":7,"audio_url":"wbw/006_161_007.mp3","char_type_name":"word","page_number":150,"line_number":8,"text":"مُّسْتَقِيمٍۢ","translation":{"text":"সরল-সঠিক","language_name":"bengali","language_id":20},"transliteration":{"text":"mus'taqīmin","language_name":"english","language_id":38}},{"id":81903,"position":8,"audio_url":"wbw/006_161_008.mp3","char_type_name":"word","page_number":150,"line_number":8,"text":"دِينًۭا","translation":{"text":"(তাই) দীন","language_name":"bengali","language_id":20},"transliteration":{"text":"dīnan","language_name":"english","language_id":38}},{"id":81904,"position":9,"audio_url":"wbw/006_161_009.mp3","char_type_name":"word","page_number":150,"line_number":8,"text":"قِيَمًۭا","translation":{"text":"সুপ্রতিষ্ঠিত","language_name":"bengali","language_id":20},"transliteration":{"text":"qiyaman","language_name":"english","language_id":38}},{"id":81905,"position":10,"audio_url":"wbw/006_161_010.mp3","char_type_name":"word","page_number":150,"line_number":8,"text":"مِّلَّةَ","translation":{"text":"পথপন্থা","language_name":"bengali","language_id":20},"transliteration":{"text":"millata","language_name":"english","language_id":38}},{"id":81906,"position":11,"audio_url":"wbw/006_161_011.mp3","char_type_name":"word","page_number":150,"line_number":8,"text":"إِبْرَٰهِيمَ","translation":{"text":"ইবরাহীমের","language_name":"bengali","language_id":20},"transliteration":{"text":"ib'rāhīma","language_name":"english","language_id":38}},{"id":81907,"position":12,"audio_url":"wbw/006_161_012.mp3","char_type_name":"word","page_number":150,"line_number":8,"text":"حَنِيفًۭا ۚ","translation":{"text":"যে ছিলো (একনিষ্ঠ)","language_name":"bengali","language_id":20},"transliteration":{"text":"ḥanīfan","language_name":"english","language_id":38}},{"id":81909,"position":13,"audio_url":"wbw/006_161_014.mp3","char_type_name":"word","page_number":150,"line_number":8,"text":"وَمَا","translation":{"text":"এবং না","language_name":"bengali","language_id":20},"transliteration":{"text":"wamā","language_name":"english","language_id":38}},{"id":81910,"position":14,"audio_url":"wbw/006_161_015.mp3","char_type_name":"word","page_number":150,"line_number":8,"text":"كَانَ","translation":{"text":"সে ছিলো","language_name":"bengali","language_id":20},"transliteration":{"text":"kāna","language_name":"english","language_id":38}},{"id":81911,"position":15,"audio_url":"wbw/006_161_016.mp3","char_type_name":"word","page_number":150,"line_number":9,"text":"مِنَ","translation":{"text":"অন্তর্ভুক্ত","language_name":"bengali","language_id":20},"transliteration":{"text":"mina","language_name":"english","language_id":38}},{"id":81912,"position":16,"audio_url":"wbw/006_161_017.mp3","char_type_name":"word","page_number":150,"line_number":9,"text":"ٱلْمُشْرِكِينَ","translation":{"text":"মুশরিকদের","language_name":"bengali","language_id":20},"transliteration":{"text":"l-mush'rikīna","language_name":"english","language_id":38}},{"id":81913,"position":17,"audio_url":null,"char_type_name":"end","page_number":150,"line_number":9,"text":"١٦١","translation":{"text":"(১৬১)","language_name":"bengali","language_id":20},"transliteration":{"text":null,"language_name":"english","language_id":38}}]},{"id":951,"verse_number":162,"verse_key":"6:162","hizb_number":15,"rub_el_hizb_number":60,"ruku_number":121,"manzil_number":2,"sajdah_number":null,"page_number":150,"juz_number":8,"words":[{"id":82052,"position":1,"audio_url":"wbw/006_162_001.mp3","char_type_name":"word","page_number":150,"line_number":9,"text":"قُلْ","translation":{"text":"বলো","language_name":"bengali","language_id":20},"transliteration":{"text":"qul","language_name":"english","language_id":38}},{"id":82053,"position":2,"audio_url":"wbw/006_162_002.mp3","char_type_name":"word","page_number":150,"line_number":9,"text":"إِنَّ","translation":{"text":"\"নিশ্চয়ই","language_name":"bengali","language_id":20},"transliteration":{"text":"inna","language_name":"english","language_id":38}},{"id":82054,"position":3,"audio_url":"wbw/006_162_003.mp3","char_type_name":"word","page_number":150,"line_number":9,"text":"صَلَاتِى","translation":{"text":"আমার সালাত","language_name":"bengali","language_id":20},"transliteration":{"text":"ṣalātī","language_name":"english","language_id":38}},{"id":82055,"position":4,"audio_url":"wbw/006_162_004.mp3","char_type_name":"word","page_number":150,"line_number":9,"text":"وَنُسُكِى","translation":{"text":"এবং আমার কুরবানি (বা উপাসনার পদ্ধতি)","language_name":"bengali","language_id":20},"transliteration":{"text":"wanusukī","language_name":"english","language_id":38}},{"id":82056,"position":5,"audio_url":"wbw/006_162_005.mp3","char_type_name":"word","page_number":150,"line_number":9,"text":"وَمَحْيَاىَ","translation":{"text":"ও আমার জীবন","language_name":"bengali","language_id":20},"transliteration":{"text":"wamaḥyāya","language_name":"english","language_id":38}},{"id":82057,"position":6,"audio_url":"wbw/006_162_006.mp3","char_type_name":"word","page_number":150,"line_number":9,"text":"وَمَمَاتِى","translation":{"text":"ও আমার মরণ","language_name":"bengali","language_id":20},"transliteration":{"text":"wamamātī","language_name":"english","language_id":38}},{"id":82058,"position":7,"audio_url":"wbw/006_162_007.mp3","char_type_name":"word","page_number":150,"line_number":9,"text":"لِلَّهِ","translation":{"text":"জন্যে আল্লাহ্‌রই","language_name":"bengali","language_id":20},"transliteration":{"text":"lillahi","language_name":"english","language_id":38}},{"id":82059,"position":8,"audio_url":"wbw/006_162_008.mp3","char_type_name":"word","page_number":150,"line_number":10,"text":"رَبِّ","translation":{"text":"(যিনি) রব","language_name":"bengali","language_id":20},"transliteration":{"text":"rabbi","language_name":"english","language_id":38}},{"id":82060,"position":9,"audio_url":"wbw/006_162_009.mp3","char_type_name":"word","page_number":150,"line_number":10,"text":"ٱلْعَـٰلَمِينَ","translation":{"text":"বিশ্বজগতের","language_name":"bengali","language_id":20},"transliteration":{"text":"l-ʿālamīna","language_name":"english","language_id":38}},{"id":82061,"position":10,"audio_url":null,"char_type_name":"end","page_number":150,"line_number":10,"text":"١٦٢","translation":{"text":"(১৬২)","language_name":"bengali","language_id":20},"transliteration":{"text":null,"language_name":"english","language_id":38}}]},{"id":952,"verse_number":163,"verse_key":"6:163","hizb_number":15,"rub_el_hizb_number":60,"ruku_number":121,"manzil_number":2,"sajdah_number":null,"page_number":150,"juz_number":8,"words":[{"id":82106,"position":1,"audio_url":"wbw/006_163_001.mp3","char_type_name":"word","page_number":150,"line_number":10,"text":"لَا","translation":{"text":"নেই","language_name":"bengali","language_id":20},"transliteration":{"text":"lā","language_name":"english","language_id":38}},{"id":82107,"position":2,"audio_url":"wbw/006_163_002.mp3","char_type_name":"word","page_number":150,"line_number":10,"text":"شَرِيكَ","translation":{"text":"কোনো শরিক","language_name":"bengali","language_id":20},"transliteration":{"text":"sharīka","language_name":"english","language_id":38}},{"id":82108,"position":3,"audio_url":"wbw/006_163_003.mp3","char_type_name":"word","page_number":150,"line_number":10,"text":"لَهُۥ ۖ","translation":{"text":"জন্যে তাঁর","language_name":"bengali","language_id":20},"transliteration":{"text":"lahu","language_name":"english","language_id":38}},{"id":82110,"position":4,"audio_url":"wbw/006_163_005.mp3","char_type_name":"word","page_number":150,"line_number":10,"text":"وَبِذَٰلِكَ","translation":{"text":"এবং বিষয়ে এ","language_name":"bengali","language_id":20},"transliteration":{"text":"wabidhālika","language_name":"english","language_id":38}},{"id":82111,"position":5,"audio_url":"wbw/006_163_006.mp3","char_type_name":"word","page_number":150,"line_number":10,"text":"أُمِرْتُ","translation":{"text":"আমাকে আদেশ করা হয়েছে","language_name":"bengali","language_id":20},"transliteration":{"text":"umir'tu","language_name":"english","language_id":38}},{"id":82112,"position":6,"audio_url":"wbw/006_163_007.mp3","char_type_name":"word","page_number":150,"line_number":10,"text":"وَأَنَا۠","translation":{"text":"এবং আমি","language_name":"bengali","language_id":20},"transliteration":{"text":"wa-anā","language_name":"english","language_id":38}},{"id":82113,"position":7,"audio_url":"wbw/006_163_008.mp3","char_type_name":"word","page_number":150,"line_number":10,"text":"أَوَّلُ","translation":{"text":"প্রথম","language_name":"bengali","language_id":20},"transliteration":{"text":"awwalu","language_name":"english","language_id":38}},{"id":82114,"position":8,"audio_url":"wbw/006_163_009.mp3","char_type_name":"word","page_number":150,"line_number":10,"text":"ٱلْمُسْلِمِينَ","translation":{"text":"আত্নসমর্পণকারীদের (মধ্যে)","language_name":"bengali","language_id":20},"transliteration":{"text":"l-mus'limīna","language_name":"english","language_id":38}},{"id":82115,"position":9,"audio_url":null,"char_type_name":"end","page_number":150,"line_number":11,"text":"١٦٣","translation":{"text":"(১৬৩)","language_name":"bengali","language_id":20},"transliteration":{"text":null,"language_name":"english","language_id":38}}]},{"id":953,"verse_number":164,"verse_key":"6:164","hizb_number":15,"rub_el_hizb_number":60,"ruku_number":121,"manzil_number":2,"sajdah_number":null,"page_number":150,"juz_number":8,"words":[{"id":82167,"position":1,"audio_url":"wbw/006_164_001.mp3","char_type_name":"word","page_number":150,"line_number":11,"text":"قُلْ","translation":{"text":"বলো","language_name":"bengali","language_id":20},"transliteration":{"text":"qul","language_name":"english","language_id":38}},{"id":82168,"position":2,"audio_url":"wbw/006_164_002.mp3","char_type_name":"word","page_number":150,"line_number":11,"text":"أَغَيْرَ","translation":{"text":"\"কি ছাড়া","language_name":"bengali","language_id":20},"transliteration":{"text":"aghayra","language_name":"english","language_id":38}},{"id":82169,"position":3,"audio_url":"wbw/006_164_003.mp3","char_type_name":"word","page_number":150,"line_number":11,"text":"ٱللَّهِ","translation":{"text":"আল্লাহ্‌","language_name":"bengali","language_id":20},"transliteration":{"text":"l-lahi","language_name":"english","language_id":38}},{"id":82170,"position":4,"audio_url":"wbw/006_164_004.mp3","char_type_name":"word","page_number":150,"line_number":11,"text":"أَبْغِى","translation":{"text":"খুঁজবো আমি","language_name":"bengali","language_id":20},"transliteration":{"text":"abghī","language_name":"english","language_id":38}},{"id":82171,"position":5,"audio_url":"wbw/006_164_005.mp3","char_type_name":"word","page_number":150,"line_number":11,"text":"رَبًّۭا","translation":{"text":"রব (অন্য কোনো)","language_name":"bengali","language_id":20},"transliteration":{"text":"rabban","language_name":"english","language_id":38}},{"id":82172,"position":6,"audio_url":"wbw/006_164_006.mp3","char_type_name":"word","page_number":150,"line_number":11,"text":"وَهُوَ","translation":{"text":"অথচ তিনিই","language_name":"bengali","language_id":20},"transliteration":{"text":"wahuwa","language_name":"english","language_id":38}},{"id":82173,"position":7,"audio_url":"wbw/006_164_007.mp3","char_type_name":"word","page_number":150,"line_number":11,"text":"رَبُّ","translation":{"text":"রব","language_name":"bengali","language_id":20},"transliteration":{"text":"rabbu","language_name":"english","language_id":38}},{"id":82174,"position":8,"audio_url":"wbw/006_164_008.mp3","char_type_name":"word","page_number":150,"line_number":11,"text":"كُلِّ","translation":{"text":"সব","language_name":"bengali","language_id":20},"transliteration":{"text":"kulli","language_name":"english","language_id":38}},{"id":82175,"position":9,"audio_url":"wbw/006_164_009.mp3","char_type_name":"word","page_number":150,"line_number":11,"text":"شَىْءٍۢ ۚ","translation":{"text":"কিছুর\"","language_name":"bengali","language_id":20},"transliteration":{"text":"shayin","language_name":"english","language_id":38}},{"id":82177,"position":10,"audio_url":"wbw/006_164_011.mp3","char_type_name":"word","page_number":150,"line_number":11,"text":"وَلَا","translation":{"text":"এবং না","language_name":"bengali","language_id":20},"transliteration":{"text":"walā","language_name":"english","language_id":38}},{"id":82178,"position":11,"audio_url":"wbw/006_164_012.mp3","char_type_name":"word","page_number":150,"line_number":11,"text":"تَكْسِبُ","translation":{"text":"অর্জন করে (কোনো পাপ বা পূণ্য)","language_name":"bengali","language_id":20},"transliteration":{"text":"taksibu","language_name":"english","language_id":38}},{"id":82179,"position":12,"audio_url":"wbw/006_164_013.mp3","char_type_name":"word","page_number":150,"line_number":11,"text":"كُلُّ","translation":{"text":"প্রত্যেক","language_name":"bengali","language_id":20},"transliteration":{"text":"kullu","language_name":"english","language_id":38}},{"id":82180,"position":13,"audio_url":"wbw/006_164_014.mp3","char_type_name":"word","page_number":150,"line_number":12,"text":"نَفْسٍ","translation":{"text":"ব্যক্তি","language_name":"bengali","language_id":20},"transliteration":{"text":"nafsin","language_name":"english","language_id":38}},{"id":82181,"position":14,"audio_url":"wbw/006_164_015.mp3","char_type_name":"word","page_number":150,"line_number":12,"text":"إِلَّا","translation":{"text":"এ ছাড়া","language_name":"bengali","language_id":20},"transliteration":{"text":"illā","language_name":"english","language_id":38}},{"id":82182,"position":15,"audio_url":"wbw/006_164_016.mp3","char_type_name":"word","page_number":150,"line_number":12,"text":"عَلَيْهَا ۚ","translation":{"text":"তারই উপর (তা বর্তাবে)","language_name":"bengali","language_id":20},"transliteration":{"text":"ʿalayhā","language_name":"english","language_id":38}},{"id":82184,"position":16,"audio_url":"wbw/006_164_018.mp3","char_type_name":"word","page_number":150,"line_number":12,"text":"وَلَا","translation":{"text":"এবং না","language_name":"bengali","language_id":20},"transliteration":{"text":"walā","language_name":"english","language_id":38}},{"id":82185,"position":17,"audio_url":"wbw/006_164_019.mp3","char_type_name":"word","page_number":150,"line_number":12,"text":"تَزِرُ","translation":{"text":"বোঝা উঠাবে","language_name":"bengali","language_id":20},"transliteration":{"text":"taziru","language_name":"english","language_id":38}},{"id":82186,"position":18,"audio_url":"wbw/006_164_020.mp3","char_type_name":"word","page_number":150,"line_number":12,"text":"وَازِرَةٌۭ","translation":{"text":"কোনো বোঝা বহনকারী","language_name":"bengali","language_id":20},"transliteration":{"text":"wāziratun","language_name":"english","language_id":38}},{"id":82187,"position":19,"audio_url":"wbw/006_164_021.mp3","char_type_name":"word","page_number":150,"line_number":12,"text":"وِزْرَ","translation":{"text":"বোঝা","language_name":"bengali","language_id":20},"transliteration":{"text":"wiz'ra","language_name":"english","language_id":38}},{"id":82188,"position":20,"audio_url":"wbw/006_164_022.mp3","char_type_name":"word","page_number":150,"line_number":12,"text":"أُخْرَىٰ ۚ","translation":{"text":"অন্যের","language_name":"bengali","language_id":20},"transliteration":{"text":"ukh'rā","language_name":"english","language_id":38}},{"id":82190,"position":21,"audio_url":"wbw/006_164_024.mp3","char_type_name":"word","page_number":150,"line_number":12,"text":"ثُمَّ","translation":{"text":"এরপর","language_name":"bengali","language_id":20},"transliteration":{"text":"thumma","language_name":"english","language_id":38}},{"id":82191,"position":22,"audio_url":"wbw/006_164_025.mp3","char_type_name":"word","page_number":150,"line_number":12,"text":"إِلَىٰ","translation":{"text":"দিকে","language_name":"bengali","language_id":20},"transliteration":{"text":"ilā","language_name":"english","language_id":38}},{"id":82192,"position":23,"audio_url":"wbw/006_164_026.mp3","char_type_name":"word","page_number":150,"line_number":12,"text":"رَبِّكُم","translation":{"text":"রবের তোমাদের","language_name":"bengali","language_id":20},"transliteration":{"text":"rabbikum","language_name":"english","language_id":38}},{"id":82193,"position":24,"audio_url":"wbw/006_164_027.mp3","char_type_name":"word","page_number":150,"line_number":13,"text":"مَّرْجِعُكُمْ","translation":{"text":"প্রত্যাবর্তন তোমাদের(হবে)","language_name":"bengali","language_id":20},"transliteration":{"text":"marjiʿukum","language_name":"english","language_id":38}},{"id":82194,"position":25,"audio_url":"wbw/006_164_028.mp3","char_type_name":"word","page_number":150,"line_number":13,"text":"فَيُنَبِّئُكُم","translation":{"text":"তখন তিনি জানিয়ে দিবেন তোমাদের","language_name":"bengali","language_id":20},"transliteration":{"text":"fayunabbi-ukum","language_name":"english","language_id":38}},{"id":82195,"position":26,"audio_url":"wbw/006_164_029.mp3","char_type_name":"word","page_number":150,"line_number":13,"text":"بِمَا","translation":{"text":"ঐ বিষয়ে","language_name":"bengali","language_id":20},"transliteration":{"text":"bimā","language_name":"english","language_id":38}},{"id":82196,"position":27,"audio_url":"wbw/006_164_030.mp3","char_type_name":"word","page_number":150,"line_number":13,"text":"كُنتُمْ","translation":{"text":"তোমরা ছিলে","language_name":"bengali","language_id":20},"transliteration":{"text":"kuntum","language_name":"english","language_id":38}},{"id":82197,"position":28,"audio_url":"wbw/006_164_031.mp3","char_type_name":"word","page_number":150,"line_number":13,"text":"فِيهِ","translation":{"text":"মধ্যে যার","language_name":"bengali","language_id":20},"transliteration":{"text":"fīhi","language_name":"english","language_id":38}},{"id":82198,"position":29,"audio_url":"wbw/006_164_032.mp3","char_type_name":"word","page_number":150,"line_number":13,"text":"تَخْتَلِفُونَ","translation":{"text":"মতবিরোধ করতে","language_name":"bengali","language_id":20},"transliteration":{"text":"takhtalifūna","language_name":"english","language_id":38}},{"id":82199,"position":30,"audio_url":null,"char_type_name":"end","page_number":150,"line_number":13,"text":"١٦٤","translation":{"text":"(১৬৪)","language_name":"bengali","language_id":20},"transliteration":{"text":null,"language_name":"english","language_id":38}}]},{"id":954,"verse_number":165,"verse_key":"6:165","hizb_number":15,"rub_el_hizb_number":60,"ruku_number":121,"manzil_number":2,"sajdah_number":null,"page_number":150,"juz_number":8,"words":[{"id":82403,"position":1,"audio_url":"wbw/006_165_001.mp3","char_type_name":"word","page_number":150,"line_number":13,"text":"وَهُوَ","translation":{"text":"এবং তিনিই","language_name":"bengali","language_id":20},"transliteration":{"text":"wahuwa","language_name":"english","language_id":38}},{"id":82404,"position":2,"audio_url":"wbw/006_165_002.mp3","char_type_name":"word","page_number":150,"line_number":13,"text":"ٱلَّذِى","translation":{"text":"যিনি","language_name":"bengali","language_id":20},"transliteration":{"text":"alladhī","language_name":"english","language_id":38}},{"id":82405,"position":3,"audio_url":"wbw/006_165_003.mp3","char_type_name":"word","page_number":150,"line_number":13,"text":"جَعَلَكُمْ","translation":{"text":"বানিয়েছেন তোমাদের","language_name":"bengali","language_id":20},"transliteration":{"text":"jaʿalakum","language_name":"english","language_id":38}},{"id":82406,"position":4,"audio_url":"wbw/006_165_004.mp3","char_type_name":"word","page_number":150,"line_number":14,"text":"خَلَـٰٓئِفَ","translation":{"text":"প্রতিনিধি","language_name":"bengali","language_id":20},"transliteration":{"text":"khalāifa","language_name":"english","language_id":38}},{"id":82407,"position":5,"audio_url":"wbw/006_165_005.mp3","char_type_name":"word","page_number":150,"line_number":14,"text":"ٱلْأَرْضِ","translation":{"text":"পৃথিবীর","language_name":"bengali","language_id":20},"transliteration":{"text":"l-arḍi","language_name":"english","language_id":38}},{"id":82408,"position":6,"audio_url":"wbw/006_165_006.mp3","char_type_name":"word","page_number":150,"line_number":14,"text":"وَرَفَعَ","translation":{"text":"ও উন্নীত করেছেন","language_name":"bengali","language_id":20},"transliteration":{"text":"warafaʿa","language_name":"english","language_id":38}},{"id":82409,"position":7,"audio_url":"wbw/006_165_007.mp3","char_type_name":"word","page_number":150,"line_number":14,"text":"بَعْضَكُمْ","translation":{"text":"কাউকে তোমাদের","language_name":"bengali","language_id":20},"transliteration":{"text":"baʿḍakum","language_name":"english","language_id":38}},{"id":82410,"position":8,"audio_url":"wbw/006_165_008.mp3","char_type_name":"word","page_number":150,"line_number":14,"text":"فَوْقَ","translation":{"text":"উপর","language_name":"bengali","language_id":20},"transliteration":{"text":"fawqa","language_name":"english","language_id":38}},{"id":82411,"position":9,"audio_url":"wbw/006_165_009.mp3","char_type_name":"word","page_number":150,"line_number":14,"text":"بَعْضٍۢ","translation":{"text":"কারও","language_name":"bengali","language_id":20},"transliteration":{"text":"baʿḍin","language_name":"english","language_id":38}},{"id":82412,"position":10,"audio_url":"wbw/006_165_010.mp3","char_type_name":"word","page_number":150,"line_number":14,"text":"دَرَجَـٰتٍۢ","translation":{"text":"মর্যাদাসমূহে","language_name":"bengali","language_id":20},"transliteration":{"text":"darajātin","language_name":"english","language_id":38}},{"id":82413,"position":11,"audio_url":"wbw/006_165_011.mp3","char_type_name":"word","page_number":150,"line_number":14,"text":"لِّيَبْلُوَكُمْ","translation":{"text":"জন্যে পরীক্ষা করার তোমাদের","language_name":"bengali","language_id":20},"transliteration":{"text":"liyabluwakum","language_name":"english","language_id":38}},{"id":82414,"position":12,"audio_url":"wbw/006_165_012.mp3","char_type_name":"word","page_number":150,"line_number":14,"text":"فِى","translation":{"text":"মধ্যে (তার)","language_name":"bengali","language_id":20},"transliteration":{"text":"fī","language_name":"english","language_id":38}},{"id":82415,"position":13,"audio_url":"wbw/006_165_013.mp3","char_type_name":"word","page_number":150,"line_number":15,"text":"مَآ","translation":{"text":"যা","language_name":"bengali","language_id":20},"transliteration":{"text":"mā","language_name":"english","language_id":38}},{"id":82416,"position":14,"audio_url":"wbw/006_165_014.mp3","char_type_name":"word","page_number":150,"line_number":15,"text":"ءَاتَىٰكُمْ ۗ","translation":{"text":"দান করেছেন তোমাদের","language_name":"bengali","language_id":20},"transliteration":{"text":"ātākum","language_name":"english","language_id":38}},{"id":82418,"position":15,"audio_url":"wbw/006_165_016.mp3","char_type_name":"word","page_number":150,"line_number":15,"text":"إِنَّ","translation":{"text":"নিশ্চয়ই","language_name":"bengali","language_id":20},"transliteration":{"text":"inna","language_name":"english","language_id":38}},{"id":82419,"position":16,"audio_url":"wbw/006_165_017.mp3","char_type_name":"word","page_number":150,"line_number":15,"text":"رَبَّكَ","translation":{"text":"তোমার রব","language_name":"bengali","language_id":20},"transliteration":{"text":"rabbaka","language_name":"english","language_id":38}},{"id":82420,"position":17,"audio_url":"wbw/006_165_018.mp3","char_type_name":"word","page_number":150,"line_number":15,"text":"سَرِيعُ","translation":{"text":"দ্রুত","language_name":"bengali","language_id":20},"transliteration":{"text":"sarīʿu","language_name":"english","language_id":38}},{"id":82421,"position":18,"audio_url":"wbw/006_165_019.mp3","char_type_name":"word","page_number":150,"line_number":15,"text":"ٱلْعِقَابِ","translation":{"text":"শাস্তিদানের (ব্যাপারে)","language_name":"bengali","language_id":20},"transliteration":{"text":"l-ʿiqābi","language_name":"english","language_id":38}},{"id":82422,"position":19,"audio_url":"wbw/006_165_020.mp3","char_type_name":"word","page_number":150,"line_number":15,"text":"وَإِنَّهُۥ","translation":{"text":"এবং  নিশ্চয়ই তিনি","language_name":"bengali","language_id":20},"transliteration":{"text":"wa-innahu","language_name":"english","language_id":38}},{"id":82423,"position":20,"audio_url":"wbw/006_165_021.mp3","char_type_name":"word","page_number":150,"line_number":15,"text":"لَغَفُورٌۭ","translation":{"text":"অবশ্যই ক্ষমাশীল","language_name":"bengali","language_id":20},"transliteration":{"text":"laghafūrun","language_name":"english","language_id":38}},{"id":82424,"position":21,"audio_url":"wbw/006_165_022.mp3","char_type_name":"word","page_number":150,"line_number":15,"text":"رَّحِيمٌۢ","translation":{"text":"পরম দয়ালুও","language_name":"bengali","language_id":20},"transliteration":{"text":"raḥīmun","language_name":"english","language_id":38}},{"id":82425,"position":22,"audio_url":null,"char_type_name":"end","page_number":150,"line_number":15,"text":"١٦٥","translation":{"text":"(১৬৫)","language_name":"bengali","language_id":20},"transliteration":{"text":null,"language_name":"english","language_id":38}}]}],"pagination":{"per_page":10,"current_page":17,"next_page":null,"total_pages":17,"total_records":165}}
