{"verses":[{"id":5147,"verse_number":21,"verse_key":"59:21","hizb_number":55,"rub_el_hizb_number":219,"ruku_number":483,"manzil_number":7,"sajdah_number":null,"page_number":548,"juz_number":28,"words":[{"id":23908,"position":1,"audio_url":"wbw/059_021_001.mp3","verse_key":"59:21","verse_id":5147,"location":"59:21:1","text_uthmani":"لَوْ","qpc_uthmani_hafs":"لَوۡ","char_type_name":"word","page_number":548,"line_number":6,"text":"لَوۡ","translation":{"text":"If","language_name":"english","language_id":38},"transliteration":{"text":"law","language_name":"english","language_id":38}},{"id":23909,"position":2,"audio_url":"wbw/059_021_002.mp3","verse_key":"59:21","verse_id":5147,"location":"59:21:2","text_uthmani":"أَنزَلْنَا","qpc_uthmani_hafs":"أَنزَلۡنَا","char_type_name":"word","page_number":548,"line_number":6,"text":"أَنزَلۡنَا","translation":{"text":"We (had) sent down","language_name":"english","language_id":38},"transliteration":{"text":"anzalnā","language_name":"english","language_id":38}},{"id":23910,"position":3,"audio_url":"wbw/059_021_003.mp3","verse_key":"59:21","verse_id":5147,"location":"59:21:3","text_uthmani":"هَـٰذَا","qpc_uthmani_hafs":"هَٰذَا","char_type_name":"word","page_number":548,"line_number":6,"text":"هَٰذَا","translation":{"text":"this","language_name":"english","language_id":38},"transliteration":{"text":"hādhā","language_name":"english","language_id":38}},{"id":23911,"position":4,"audio_url":"wbw/059_021_004.mp3","verse_key":"59:21","verse_id":5147,"location":"59:21:4","text_uthmani":"ٱلْقُرْءَانَ","qpc_uthmani_hafs":"ٱلۡقُرۡءَانَ","char_type_name":"word","page_number":548,"line_number":7,"text":"ٱلۡقُرۡءَانَ","translation":{"text":"Quran","language_name":"english","language_id":38},"transliteration":{"text":"l-qur'āna","language_name":"english","language_id":38}},{"id":23912,"position":5,"audio_url":"wbw/059_021_005.mp3","verse_key":"59:21","verse_id":5147,"location":"59:21:5","text_uthmani":"عَلَىٰ","qpc_uthmani_hafs":"عَلَىٰ","char_type_name":"word","page_number":548,"line_number":7,"text":"عَلَىٰ","translation":{"text":"on","language_name":"english","language_id":38},"transliteration":{"text":"ʿalā","language_name":"english","language_id":38}},{"id":23913,"position":6,"audio_url":"wbw/059_021_006.mp3","verse_key":"59:21","verse_id":5147,"location":"59:21:6","text_uthmani":"جَبَلٍۢ","qpc_uthmani_hafs":"جَبَلٖ","char_type_name":"word","page_number":548,"line_number":7,"text":"جَبَلٖ","translation":{"text":"a mountain","language_name":"english","language_id":38},"transliteration":{"text":"jabalin","language_name":"english","language_id":38}},{"id":23914,"position":7,"audio_url":"wbw/059_021_007.mp3","verse_key":"59:21","verse_id":5147,"location":"59:21:7","text_uthmani":"لَّرَأَيْتَهُۥ","qpc_uthmani_hafs":"لَّرَأَيۡتَهُۥ","char_type_name":"word","page_number":548,"line_number":7,"text":"لَّرَأَيۡتَهُۥ","translation":{"text":"surely you (would) have seen it","language_name":"english","language_id":38},"transliteration":{"text":"lara-aytahu","language_name":"english","language_id":38}},{"id":23915,"position":8,"audio_url":"wbw/059_021_008.mp3","verse_key":"59:21","verse_id":5147,"location":"59:21:8","text_uthmani":"خَـٰشِعًۭا","qpc_uthmani_hafs":"خَٰشِعٗا","char_type_name":"word","page_number":548,"line_number":7,"text":"خَٰشِعٗا","translation":{"text":"humbled","language_name":"english","language_id":38},"transliteration":{"text":"khāshiʿan","language_name":"english","language_id":38}},{"id":23916,"position":9,"audio_url":"wbw/059_021_009.mp3","verse_key":"59:21","verse_id":5147,"location":"59:21:9","text_uthmani":"مُّتَصَدِّعًۭا","qpc_uthmani_hafs":"مُّتَصَدِّعٗا","char_type_name":"word","page_number":548,"line_number":7,"text":"مُّتَصَدِّعٗا","translation":{"text":"breaking asunder","language_name":"english","language_id":38},"transliteration":{"text":"mutaṣaddiʿan","language_name":"english","language_id":38}},{"id":23917,"position":10,"audio_url":"wbw/059_021_010.mp3","verse_key":"59:21","verse_id":5147,"location":"59:21:10","text_uthmani":"مِّنْ","qpc_uthmani_hafs":"مِّنۡ","char_type_name":"word","page_number":548,"line_number":7,"text":"مِّنۡ","translation":{"text":"from","language_name":"english","language_id":38},"transliteration":{"text":"min","language_name":"english","language_id":38}},{"id":23918,"position":11,"audio_url":"wbw/059_021_011.mp3","verse_key":"59:21","verse_id":5147,"location":"59:21:11","text_uthmani":"خَشْيَةِ","qpc_uthmani_hafs":"خَشۡيَةِ","char_type_name":"word","page_number":548,"line_number":7,"text":"خَشۡيَةِ","translation":{"text":"(the) fear","language_name":"english","language_id":38},"transliteration":{"text":"khashyati","language_name":"english","language_id":38}},{"id":23919,"position":12,"audio_url":"wbw/059_021_012.mp3","verse_key":"59:21","verse_id":5147,"location":"59:21:12","text_uthmani":"ٱللَّهِ ۚ","qpc_uthmani_hafs":"ٱللَّهِۚ","char_type_name":"word","page_number":548,"line_number":8,"text":"ٱللَّهِۚ","translation":{"text":"(of) Allah","language_name":"english","language_id":38},"transliteration":{"text":"l-lahi","language_name":"english","language_id":38}},{"id":23921,"position":13,"audio_url":"wbw/059_021_014.mp3","verse_key":"59:21","verse_id":5147,"location":"59:21:13","text_uthmani":"وَتِلْكَ","qpc_uthmani_hafs":"وَتِلۡكَ","char_type_name":"word","page_number":548,"line_number":8,"text":"وَتِلۡكَ","translation":{"text":"And these","language_name":"english","language_id":38},"transliteration":{"text":"watil'ka","language_name":"english","language_id":38}},{"id":23922,"position":14,"audio_url":"wbw/059_021_015.mp3","verse_key":"59:21","verse_id":5147,"location":"59:21:14","text_uthmani":"ٱلْأَمْثَـٰلُ","qpc_uthmani_hafs":"ٱلۡأَمۡثَٰلُ","char_type_name":"word","page_number":548,"line_number":8,"text":"ٱلۡأَمۡثَٰلُ","translation":{"text":"examples","language_name":"english","language_id":38},"transliteration":{"text":"l-amthālu","language_name":"english","language_id":38}},{"id":23923,"position":15,"audio_url":"wbw/059_021_016.mp3","verse_key":"59:21","verse_id":5147,"location":"59:21:15","text_uthmani":"نَضْرِبُهَا","qpc_uthmani_hafs":"نَضۡرِبُهَا","char_type_name":"word","page_number":548,"line_number":8,"text":"نَضۡرِبُهَا","translation":{"text":"We present them","language_name":"english","language_id":38},"transliteration":{"text":"naḍribuhā","language_name":"english","language_id":38}},{"id":23924,"position":16,"audio_url":"wbw/059_021_017.mp3","verse_key":"59:21","verse_id":5147,"location":"59:21:16","text_uthmani":"لِلنَّاسِ","qpc_uthmani_hafs":"لِلنَّاسِ","char_type_name":"word","page_number":548,"line_number":8,"text":"لِلنَّاسِ","translation":{"text":"to the people","language_name":"english","language_id":38},"transliteration":{"text":"lilnnāsi","language_name":"english","language_id":38}},{"id":23925,"position":17,"audio_url":"wbw/059_021_018.mp3","verse_key":"59:21","verse_id":5147,"location":"59:21:17","text_uthmani":"لَعَلَّهُمْ","qpc_uthmani_hafs":"لَعَلَّهُمۡ","char_type_name":"word","page_number":548,"line_number":8,"text":"لَعَلَّهُمۡ","translation":{"text":"so that they may","language_name":"english","language_id":38},"transliteration":{"text":"laʿallahum","language_name":"english","language_id":38}},{"id":23926,"position":18,"audio_url":"wbw/059_021_019.mp3","verse_key":"59:21","verse_id":5147,"location":"59:21:18","text_uthmani":"يَتَفَكَّرُونَ","qpc_uthmani_hafs":"يَتَفَكَّرُونَ","char_type_name":"word","page_number":548,"line_number":8,"text":"يَتَفَكَّرُونَ","translation":{"text":"give thought","language_name":"english","language_id":38},"transliteration":{"text":"yatafakkarūna","language_name":"english","language_id":38}},{"id":23927,"position":19,"audio_url":null,"verse_key":"59:21","verse_id":5147,"location":"59:21:19","text_uthmani":"٢١","qpc_uthmani_hafs":"٢١","char_type_name":"end","page_number":548,"line_number":9,"text":"٢١","translation":{"text":"(21)","language_name":"english","language_id":38},"transliteration":{"text":null,"language_name":"english","language_id":38}}]},{"id":5148,"verse_number":22,"verse_key":"59:22","hizb_number":55,"rub_el_hizb_number":219,"ruku_number":483,"manzil_number":7,"sajdah_number":null,"page_number":548,"juz_number":28,"words":[{"id":24851,"position":1,"audio_url":"wbw/059_022_001.mp3","verse_key":"59:22","verse_id":5148,"location":"59:22:1","text_uthmani":"هُوَ","qpc_uthmani_hafs":"هُوَ","char_type_name":"word","page_number":548,"line_number":9,"text":"هُوَ","translation":{"text":"He","language_name":"english","language_id":38},"transliteration":{"text":"huwa","language_name":"english","language_id":38}},{"id":24852,"position":2,"audio_url":"wbw/059_022_002.mp3","verse_key":"59:22","verse_id":5148,"location":"59:22:2","text_uthmani":"ٱللَّهُ","qpc_uthmani_hafs":"ٱللَّهُ","char_type_name":"word","page_number":548,"line_number":9,"text":"ٱللَّهُ","translation":{"text":"(is) Allah","language_name":"english","language_id":38},"transliteration":{"text":"l-lahu","language_name":"english","language_id":38}},{"id":24853,"position":3,"audio_url":"wbw/059_022_003.mp3","verse_key":"59:22","verse_id":5148,"location":"59:22:3","text_uthmani":"ٱلَّذِى","qpc_uthmani_hafs":"ٱلَّذِي","char_type_name":"word","page_number":548,"line_number":9,"text":"ٱلَّذِي","translation":{"text":"the One Who","language_name":"english","language_id":38},"transliteration":{"text":"alladhī","language_name":"english","language_id":38}},{"id":24854,"position":4,"audio_url":"wbw/059_022_004.mp3","verse_key":"59:22","verse_id":5148,"location":"59:22:4","text_uthmani":"لَآ","qpc_uthmani_hafs":"لَآ","char_type_name":"word","page_number":548,"line_number":9,"text":"لَآ","translation":{"text":"(there is) no","language_name":"english","language_id":38},"transliteration":{"text":"lā","language_name":"english","language_id":38}},{"id":24855,"position":5,"audio_url":"wbw/059_022_005.mp3","verse_key":"59:22","verse_id":5148,"location":"59:22:5","text_uthmani":"إِلَـٰهَ","qpc_uthmani_hafs":"إِلَٰهَ","char_type_name":"word","page_number":548,"line_number":9,"text":"إِلَٰهَ","translation":{"text":"god","language_name":"english","language_id":38},"transliteration":{"text":"ilāha","language_name":"english","language_id":38}},{"id":24856,"position":6,"audio_url":"wbw/059_022_006.mp3","verse_key":"59:22","verse_id":5148,"location":"59:22:6","text_uthmani":"إِلَّا","qpc_uthmani_hafs":"إِلَّا","char_type_name":"word","page_number":548,"line_number":9,"text":"إِلَّا","translation":{"text":"but","language_name":"english","language_id":38},"transliteration":{"text":"illā","language_name":"english","language_id":38}},{"id":24857,"position":7,"audio_url":"wbw/059_022_007.mp3","verse_key":"59:22","verse_id":5148,"location":"59:22:7","text_uthmani":"هُوَ ۖ","qpc_uthmani_hafs":"هُوَۖ","char_type_name":"word","page_number":548,"line_number":9,"text":"هُوَۖ","translation":{"text":"He","language_name":"english","language_id":38},"transliteration":{"text":"huwa","language_name":"english","language_id":38}},{"id":24859,"position":8,"audio_url":"wbw/059_022_009.mp3","verse_key":"59:22","verse_id":5148,"location":"59:22:8","text_uthmani":"عَـٰلِمُ","qpc_uthmani_hafs":"عَٰلِمُ","char_type_name":"word","page_number":548,"line_number":9,"text":"عَٰلِمُ","translation":{"text":"(the) All-Knower","language_name":"english","language_id":38},"transliteration":{"text":"ʿālimu","language_name":"english","language_id":38}},{"id":24860,"position":9,"audio_url":"wbw/059_022_010.mp3","verse_key":"59:22","verse_id":5148,"location":"59:22:9","text_uthmani":"ٱلْغَيْبِ","qpc_uthmani_hafs":"ٱلۡغَيۡبِ","char_type_name":"word","page_number":548,"line_number":9,"text":"ٱلۡغَيۡبِ","translation":{"text":"(of) the unseen","language_name":"english","language_id":38},"transliteration":{"text":"l-ghaybi","language_name":"english","language_id":38}},{"id":24861,"position":10,"audio_url":"wbw/059_022_011.mp3","verse_key":"59:22","verse_id":5148,"location":"59:22:10","text_uthmani":"وَٱلشَّهَـٰدَةِ ۖ","qpc_uthmani_hafs":"وَٱلشَّهَٰدَةِۖ","char_type_name":"word","page_number":548,"line_number":9,"text":"وَٱلشَّهَٰدَةِۖ","translation":{"text":"and the witnessed","language_name":"english","language_id":38},"transliteration":{"text":"wal-shahādati","language_name":"english","language_id":38}},{"id":24863,"position":11,"audio_url":"wbw/059_022_013.mp3","verse_key":"59:22","verse_id":5148,"location":"59:22:11","text_uthmani":"هُوَ","qpc_uthmani_hafs":"هُوَ","char_type_name":"word","page_number":548,"line_number":10,"text":"هُوَ","translation":{"text":"He","language_name":"english","language_id":38},"transliteration":{"text":"huwa","language_name":"english","language_id":38}},{"id":24864,"position":12,"audio_url":"wbw/059_022_014.mp3","verse_key":"59:22","verse_id":5148,"location":"59:22:12","text_uthmani":"ٱلرَّحْمَـٰنُ","qpc_uthmani_hafs":"ٱلرَّحۡمَٰنُ","char_type_name":"word","page_number":548,"line_number":10,"text":"ٱلرَّحۡمَٰنُ","translation":{"text":"(is) the Most Gracious","language_name":"english","language_id":38},"transliteration":{"text":"l-raḥmānu","language_name":"english","language_id":38}},{"id":24865,"position":13,"audio_url":"wbw/059_022_015.mp3","verse_key":"59:22","verse_id":5148,"location":"59:22:13","text_uthmani":"ٱلرَّحِيمُ","qpc_uthmani_hafs":"ٱلرَّحِيمُ","char_type_name":"word","page_number":548,"line_number":10,"text":"ٱلرَّحِيمُ","translation":{"text":"the Most Merciful","language_name":"english","language_id":38},"transliteration":{"text":"l-raḥīmu","language_name":"english","language_id":38}},{"id":24866,"position":14,"audio_url":null,"verse_key":"59:22","verse_id":5148,"location":"59:22:14","text_uthmani":"٢٢","qpc_uthmani_hafs":"٢٢","char_type_name":"end","page_number":548,"line_number":10,"text":"٢٢","translation":{"text":"(22)","language_name":"english","language_id":38},"transliteration":{"text":null,"language_name":"english","language_id":38}}]},{"id":5149,"verse_number":23,"verse_key":"59:23","hizb_number":55,"rub_el_hizb_number":219,"ruku_number":483,"manzil_number":7,"sajdah_number":null,"page_number":548,"juz_number":28,"words":[{"id":25854,"position":1,"audio_url":"wbw/059_023_001.mp3","verse_key":"59:23","verse_id":5149,"location":"59:23:1","text_uthmani":"هُوَ","qpc_uthmani_hafs":"هُوَ","char_type_name":"word","page_number":548,"line_number":10,"text":"هُوَ","translation":{"text":"He","language_name":"english","language_id":38},"transliteration":{"text":"huwa","language_name":"english","language_id":38}},{"id":25855,"position":2,"audio_url":"wbw/059_023_002.mp3","verse_key":"59:23","verse_id":5149,"location":"59:23:2","text_uthmani":"ٱللَّهُ","qpc_uthmani_hafs":"ٱللَّهُ","char_type_name":"word","page_number":548,"line_number":10,"text":"ٱللَّهُ","translation":{"text":"(is) Allah","language_name":"english","language_id":38},"transliteration":{"text":"l-lahu","language_name":"english","language_id":38}},{"id":25856,"position":3,"audio_url":"wbw/059_023_003.mp3","verse_key":"59:23","verse_id":5149,"location":"59:23:3","text_uthmani":"ٱلَّذِى","qpc_uthmani_hafs":"ٱلَّذِي","char_type_name":"word","page_number":548,"line_number":10,"text":"ٱلَّذِي","translation":{"text":"the One Who","language_name":"english","language_id":38},"transliteration":{"text":"alladhī","language_name":"english","language_id":38}},{"id":25857,"position":4,"audio_url":"wbw/059_023_004.mp3","verse_key":"59:23","verse_id":5149,"location":"59:23:4","text_uthmani":"لَآ","qpc_uthmani_hafs":"لَآ","char_type_name":"word","page_number":548,"line_number":10,"text":"لَآ","translation":{"text":"(there is) no","language_name":"english","language_id":38},"transliteration":{"text":"lā","language_name":"english","language_id":38}},{"id":25858,"position":5,"audio_url":"wbw/059_023_005.mp3","verse_key":"59:23","verse_id":5149,"location":"59:23:5","text_uthmani":"إِلَـٰهَ","qpc_uthmani_hafs":"إِلَٰهَ","char_type_name":"word","page_number":548,"line_number":10,"text":"إِلَٰهَ","translation":{"text":"god","language_name":"english","language_id":38},"transliteration":{"text":"ilāha","language_name":"english","language_id":38}},{"id":25859,"position":6,"audio_url":"wbw/059_023_006.mp3","verse_key":"59:23","verse_id":5149,"location":"59:23:6","text_uthmani":"إِلَّا","qpc_uthmani_hafs":"إِلَّا","char_type_name":"word","page_number":548,"line_number":10,"text":"إِلَّا","translation":{"text":"but","language_name":"english","language_id":38},"transliteration":{"text":"illā","language_name":"english","language_id":38}},{"id":25860,"position":7,"audio_url":"wbw/059_023_007.mp3","verse_key":"59:23","verse_id":5149,"location":"59:23:7","text_uthmani":"هُوَ","qpc_uthmani_hafs":"هُوَ","char_type_name":"word","page_number":548,"line_number":10,"text":"هُوَ","translation":{"text":"He","language_name":"english","language_id":38},"transliteration":{"text":"huwa","language_name":"english","language_id":38}},{"id":25861,"position":8,"audio_url":"wbw/059_023_008.mp3","verse_key":"59:23","verse_id":5149,"location":"59:23:8","text_uthmani":"ٱلْمَلِكُ","qpc_uthmani_hafs":"ٱلۡمَلِكُ","char_type_name":"word","page_number":548,"line_number":10,"text":"ٱلۡمَلِكُ","translation":{"text":"the Sovereign","language_name":"english","language_id":38},"transliteration":{"text":"l-maliku","language_name":"english","language_id":38}},{"id":25862,"position":9,"audio_url":"wbw/059_023_009.mp3","verse_key":"59:23","verse_id":5149,"location":"59:23:9","text_uthmani":"ٱلْقُدُّوسُ","qpc_uthmani_hafs":"ٱلۡقُدُّوسُ","char_type_name":"word","page_number":548,"line_number":11,"text":"ٱلۡقُدُّوسُ","translation":{"text":"the Holy One","language_name":"english","language_id":38},"transliteration":{"text":"l-qudūsu","language_name":"english","language_id":38}},{"id":25863,"position":10,"audio_url":"wbw/059_023_010.mp3","verse_key":"59:23","verse_id":5149,"location":"59:23:10","text_uthmani":"ٱلسَّلَـٰمُ","qpc_uthmani_hafs":"ٱلسَّلَٰمُ","char_type_name":"word","page_number":548,"line_number":11,"text":"ٱلسَّلَٰمُ","translation":{"text":"the Giver of Peace","language_name":"english","language_id":38},"transliteration":{"text":"l-salāmu","language_name":"english","language_id":38}},{"id":25864,"position":11,"audio_url":"wbw/059_023_011.mp3","verse_key":"59:23","verse_id":5149,"location":"59:23:11","text_uthmani":"ٱلْمُؤْمِنُ","qpc_uthmani_hafs":"ٱلۡمُؤۡمِنُ","char_type_name":"word","page_number":548,"line_number":11,"text":"ٱلۡمُؤۡمِنُ","translation":{"text":"the Giver of Security","language_name":"english","language_id":38},"transliteration":{"text":"l-mu'minu","language_name":"english","language_id":38}},{"id":25865,"position":12,"audio_url":"wbw/059_023_012.mp3","verse_key":"59:23","verse_id":5149,"location":"59:23:12","text_uthmani":"ٱلْمُهَيْمِنُ","qpc_uthmani_hafs":"ٱلۡمُهَيۡمِنُ","char_type_name":"word","page_number":548,"line_number":11,"text":"ٱلۡمُهَيۡمِنُ","translation":{"text":"the Guardian","language_name":"english","language_id":38},"transliteration":{"text":"l-muhayminu","language_name":"english","language_id":38}},{"id":25866,"position":13,"audio_url":"wbw/059_023_013.mp3","verse_key":"59:23","verse_id":5149,"location":"59:23:13","text_uthmani":"ٱلْعَزِيزُ","qpc_uthmani_hafs":"ٱلۡعَزِيزُ","char_type_name":"word","page_number":548,"line_number":11,"text":"ٱلۡعَزِيزُ","translation":{"text":"the All-Mighty","language_name":"english","language_id":38},"transliteration":{"text":"l-ʿazīzu","language_name":"english","language_id":38}},{"id":25867,"position":14,"audio_url":"wbw/059_023_014.mp3","verse_key":"59:23","verse_id":5149,"location":"59:23:14","text_uthmani":"ٱلْجَبَّارُ","qpc_uthmani_hafs":"ٱلۡجَبَّارُ","char_type_name":"word","page_number":548,"line_number":11,"text":"ٱلۡجَبَّارُ","translation":{"text":"the Irresistible","language_name":"english","language_id":38},"transliteration":{"text":"l-jabāru","language_name":"english","language_id":38}},{"id":25868,"position":15,"audio_url":"wbw/059_023_015.mp3","verse_key":"59:23","verse_id":5149,"location":"59:23:15","text_uthmani":"ٱلْمُتَكَبِّرُ ۚ","qpc_uthmani_hafs":"ٱلۡمُتَكَبِّرُۚ","char_type_name":"word","page_number":548,"line_number":12,"text":"ٱلۡمُتَكَبِّرُۚ","translation":{"text":"the Supreme","language_name":"english","language_id":38},"transliteration":{"text":"l-mutakabiru","language_name":"english","language_id":38}},{"id":25870,"position":16,"audio_url":"wbw/059_023_017.mp3","verse_key":"59:23","verse_id":5149,"location":"59:23:16","text_uthmani":"سُبْحَـٰنَ","qpc_uthmani_hafs":"سُبۡحَٰنَ","char_type_name":"word","page_number":548,"line_number":12,"text":"سُبۡحَٰنَ","translation":{"text":"Glory (be to)","language_name":"english","language_id":38},"transliteration":{"text":"sub'ḥāna","language_name":"english","language_id":38}},{"id":25871,"position":17,"audio_url":"wbw/059_023_018.mp3","verse_key":"59:23","verse_id":5149,"location":"59:23:17","text_uthmani":"ٱللَّهِ","qpc_uthmani_hafs":"ٱللَّهِ","char_type_name":"word","page_number":548,"line_number":12,"text":"ٱللَّهِ","translation":{"text":"Allah","language_name":"english","language_id":38},"transliteration":{"text":"l-lahi","language_name":"english","language_id":38}},{"id":25872,"position":18,"audio_url":"wbw/059_023_019.mp3","verse_key":"59:23","verse_id":5149,"location":"59:23:18","text_uthmani":"عَمَّا","qpc_uthmani_hafs":"عَمَّا","char_type_name":"word","page_number":548,"line_number":12,"text":"عَمَّا","translation":{"text":"from what","language_name":"english","language_id":38},"transliteration":{"text":"ʿammā","language_name":"english","language_id":38}},{"id":25873,"position":19,"audio_url":"wbw/059_023_020.mp3","verse_key":"59:23","verse_id":5149,"location":"59:23:19","text_uthmani":"يُشْرِكُونَ","qpc_uthmani_hafs":"يُشۡرِكُونَ","char_type_name":"word","page_number":548,"line_number":12,"text":"يُشۡرِكُونَ","translation":{"text":"they associate (with Him)","language_name":"english","language_id":38},"transliteration":{"text":"yush'rikūna","language_name":"english","language_id":38}},{"id":25874,"position":20,"audio_url":null,"verse_key":"59:23","verse_id":5149,"location":"59:23:20","text_uthmani":"٢٣","qpc_uthmani_hafs":"٢٣","char_type_name":"end","page_number":548,"line_number":12,"text":"٢٣","translation":{"text":"(23)","language_name":"english","language_id":38},"transliteration":{"text":null,"language_name":"english","language_id":38}}]},{"id":5150,"verse_number":24,"verse_key":"59:24","hizb_number":55,"rub_el_hizb_number":219,"ruku_number":483,"manzil_number":7,"sajdah_number":null,"page_number":548,"juz_number":28,"words":[{"id":26951,"position":1,"audio_url":"wbw/059_024_001.mp3","verse_key":"59:24","verse_id":5150,"location":"59:24:1","text_uthmani":"هُوَ","qpc_uthmani_hafs":"هُوَ","char_type_name":"word","page_number":548,"line_number":12,"text":"هُوَ","translation":{"text":"He","language_name":"english","language_id":38},"transliteration":{"text":"huwa","language_name":"english","language_id":38}},{"id":26952,"position":2,"audio_url":"wbw/059_024_002.mp3","verse_key":"59:24","verse_id":5150,"location":"59:24:2","text_uthmani":"ٱللَّهُ","qpc_uthmani_hafs":"ٱللَّهُ","char_type_name":"word","page_number":548,"line_number":12,"text":"ٱللَّهُ","translation":{"text":"(is) Allah","language_name":"english","language_id":38},"transliteration":{"text":"l-lahu","language_name":"english","language_id":38}},{"id":26953,"position":3,"audio_url":"wbw/059_024_003.mp3","verse_key":"59:24","verse_id":5150,"location":"59:24:3","text_uthmani":"ٱلْخَـٰلِقُ","qpc_uthmani_hafs":"ٱلۡخَٰلِقُ","char_type_name":"word","page_number":548,"line_number":13,"text":"ٱلۡخَٰلِقُ","translation":{"text":"the Creator","language_name":"english","language_id":38},"transliteration":{"text":"l-khāliqu","language_name":"english","language_id":38}},{"id":26954,"position":4,"audio_url":"wbw/059_024_004.mp3","verse_key":"59:24","verse_id":5150,"location":"59:24:4","text_uthmani":"ٱلْبَارِئُ","qpc_uthmani_hafs":"ٱلۡبَارِئُ","char_type_name":"word","page_number":548,"line_number":13,"text":"ٱلۡبَارِئُ","translation":{"text":"the Inventor","language_name":"english","language_id":38},"transliteration":{"text":"l-bāri-u","language_name":"english","language_id":38}},{"id":26955,"position":5,"audio_url":"wbw/059_024_005.mp3","verse_key":"59:24","verse_id":5150,"location":"59:24:5","text_uthmani":"ٱلْمُصَوِّرُ ۖ","qpc_uthmani_hafs":"ٱلۡمُصَوِّرُۖ","char_type_name":"word","page_number":548,"line_number":13,"text":"ٱلۡمُصَوِّرُۖ","translation":{"text":"the Fashioner","language_name":"english","language_id":38},"transliteration":{"text":"l-muṣawiru","language_name":"english","language_id":38}},{"id":26957,"position":6,"audio_url":"wbw/059_024_007.mp3","verse_key":"59:24","verse_id":5150,"location":"59:24:6","text_uthmani":"لَهُ","qpc_uthmani_hafs":"لَهُ","char_type_name":"word","page_number":548,"line_number":13,"text":"لَهُ","translation":{"text":"For Him","language_name":"english","language_id":38},"transliteration":{"text":"lahu","language_name":"english","language_id":38}},{"id":26958,"position":7,"audio_url":"wbw/059_024_008.mp3","verse_key":"59:24","verse_id":5150,"location":"59:24:7","text_uthmani":"ٱلْأَسْمَآءُ","qpc_uthmani_hafs":"ٱلۡأَسۡمَآءُ","char_type_name":"word","page_number":548,"line_number":13,"text":"ٱلۡأَسۡمَآءُ","translation":{"text":"(are) the names","language_name":"english","language_id":38},"transliteration":{"text":"l-asmāu","language_name":"english","language_id":38}},{"id":26959,"position":8,"audio_url":"wbw/059_024_009.mp3","verse_key":"59:24","verse_id":5150,"location":"59:24:8","text_uthmani":"ٱلْحُسْنَىٰ ۚ","qpc_uthmani_hafs":"ٱلۡحُسۡنَىٰۚ","char_type_name":"word","page_number":548,"line_number":13,"text":"ٱلۡحُسۡنَىٰۚ","translation":{"text":"the beautiful","language_name":"english","language_id":38},"transliteration":{"text":"l-ḥus'nā","language_name":"english","language_id":38}},{"id":26961,"position":9,"audio_url":"wbw/059_024_011.mp3","verse_key":"59:24","verse_id":5150,"location":"59:24:9","text_uthmani":"يُسَبِّحُ","qpc_uthmani_hafs":"يُسَبِّحُ","char_type_name":"word","page_number":548,"line_number":13,"text":"يُسَبِّحُ","translation":{"text":"Glorifies","language_name":"english","language_id":38},"transliteration":{"text":"yusabbiḥu","language_name":"english","language_id":38}},{"id":26962,"position":10,"audio_url":"wbw/059_024_012.mp3","verse_key":"59:24","verse_id":5150,"location":"59:24:10","text_uthmani":"لَهُۥ","qpc_uthmani_hafs":"لَهُۥ","char_type_name":"word","page_number":548,"line_number":14,"text":"لَهُۥ","translation":{"text":"Him","language_name":"english","language_id":38},"transliteration":{"text":"lahu","language_name":"english","language_id":38}},{"id":26963,"position":11,"audio_url":"wbw/059_024_013.mp3","verse_key":"59:24","verse_id":5150,"location":"59:24:11","text_uthmani":"مَا","qpc_uthmani_hafs":"مَا","char_type_name":"word","page_number":548,"line_number":14,"text":"مَا","translation":{"text":"whatever","language_name":"english","language_id":38},"transliteration":{"text":"mā","language_name":"english","language_id":38}},{"id":26964,"position":12,"audio_url":"wbw/059_024_014.mp3","verse_key":"59:24","verse_id":5150,"location":"59:24:12","text_uthmani":"فِى","qpc_uthmani_hafs":"فِي","char_type_name":"word","page_number":548,"line_number":14,"text":"فِي","translation":{"text":"(is) in","language_name":"english","language_id":38},"transliteration":{"text":"fī","language_name":"english","language_id":38}},{"id":26965,"position":13,"audio_url":"wbw/059_024_015.mp3","verse_key":"59:24","verse_id":5150,"location":"59:24:13","text_uthmani":"ٱلسَّمَـٰوَٰتِ","qpc_uthmani_hafs":"ٱلسَّمَٰوَٰتِ","char_type_name":"word","page_number":548,"line_number":14,"text":"ٱلسَّمَٰوَٰتِ","translation":{"text":"the heavens","language_name":"english","language_id":38},"transliteration":{"text":"l-samāwāti","language_name":"english","language_id":38}},{"id":26966,"position":14,"audio_url":"wbw/059_024_016.mp3","verse_key":"59:24","verse_id":5150,"location":"59:24:14","text_uthmani":"وَٱلْأَرْضِ ۖ","qpc_uthmani_hafs":"وَٱلۡأَرۡضِۖ","char_type_name":"word","page_number":548,"line_number":14,"text":"وَٱلۡأَرۡضِۖ","translation":{"text":"and the earth","language_name":"english","language_id":38},"transliteration":{"text":"wal-arḍi","language_name":"english","language_id":38}},{"id":26968,"position":15,"audio_url":"wbw/059_024_018.mp3","verse_key":"59:24","verse_id":5150,"location":"59:24:15","text_uthmani":"وَهُوَ","qpc_uthmani_hafs":"وَهُوَ","char_type_name":"word","page_number":548,"line_number":14,"text":"وَهُوَ","translation":{"text":"And He","language_name":"english","language_id":38},"transliteration":{"text":"wahuwa","language_name":"english","language_id":38}},{"id":26969,"position":16,"audio_url":"wbw/059_024_019.mp3","verse_key":"59:24","verse_id":5150,"location":"59:24:16","text_uthmani":"ٱلْعَزِيزُ","qpc_uthmani_hafs":"ٱلۡعَزِيزُ","char_type_name":"word","page_number":548,"line_number":14,"text":"ٱلۡعَزِيزُ","translation":{"text":"(is) the All-Mighty","language_name":"english","language_id":38},"transliteration":{"text":"l-ʿazīzu","language_name":"english","language_id":38}},{"id":26970,"position":17,"audio_url":"wbw/059_024_020.mp3","verse_key":"59:24","verse_id":5150,"location":"59:24:17","text_uthmani":"ٱلْحَكِيمُ","qpc_uthmani_hafs":"ٱلۡحَكِيمُ","char_type_name":"word","page_number":548,"line_number":14,"text":"ٱلۡحَكِيمُ","translation":{"text":"the All-Wise","language_name":"english","language_id":38},"transliteration":{"text":"l-ḥakīmu","language_name":"english","language_id":38}},{"id":26971,"position":18,"audio_url":null,"verse_key":"59:24","verse_id":5150,"location":"59:24:18","text_uthmani":"٢٤","qpc_uthmani_hafs":"٢٤","char_type_name":"end","page_number":548,"line_number":14,"text":"٢٤","translation":{"text":"(24)","language_name":"english","language_id":38},"transliteration":{"text":null,"language_name":"english","language_id":38}}]}],"pagination":{"per_page":10,"current_page":3,"next_page":null,"total_pages":3,"total_records":24}}
