{"verses":[{"id":2331,"verse_number":81,"verse_key":"19:81","hizb_number":31,"rub_el_hizb_number":124,"ruku_number":268,"manzil_number":4,"sajdah_number":null,"page_number":311,"juz_number":16,"words":[{"id":64541,"position":1,"audio_url":"wbw/019_081_001.mp3","char_type_name":"word","page_number":311,"line_number":4,"text":"وَٱتَّخَذُوا۟","translation":{"text":"এবং তারা গ্রহণ করেছে","language_name":"bengali","language_id":20},"transliteration":{"text":"wa-ittakhadhū","language_name":"english","language_id":38}},{"id":64542,"position":2,"audio_url":"wbw/019_081_002.mp3","char_type_name":"word","page_number":311,"line_number":4,"text":"مِن","translation":{"text":"মধ্য হতে","language_name":"bengali","language_id":20},"transliteration":{"text":"min","language_name":"english","language_id":38}},{"id":64543,"position":3,"audio_url":"wbw/019_081_003.mp3","char_type_name":"word","page_number":311,"line_number":4,"text":"دُونِ","translation":{"text":"ছাড়া","language_name":"bengali","language_id":20},"transliteration":{"text":"dūni","language_name":"english","language_id":38}},{"id":64544,"position":4,"audio_url":"wbw/019_081_004.mp3","char_type_name":"word","page_number":311,"line_number":4,"text":"ٱللَّهِ","translation":{"text":"আল্লাহ্‌","language_name":"bengali","language_id":20},"transliteration":{"text":"l-lahi","language_name":"english","language_id":38}},{"id":64545,"position":5,"audio_url":"wbw/019_081_005.mp3","char_type_name":"word","page_number":311,"line_number":4,"text":"ءَالِهَةًۭ","translation":{"text":"ইলাহ (অন্য)","language_name":"bengali","language_id":20},"transliteration":{"text":"ālihatan","language_name":"english","language_id":38}},{"id":64546,"position":6,"audio_url":"wbw/019_081_006.mp3","char_type_name":"word","page_number":311,"line_number":5,"text":"لِّيَكُونُوا۟","translation":{"text":"যেন তারা হয়","language_name":"bengali","language_id":20},"transliteration":{"text":"liyakūnū","language_name":"english","language_id":38}},{"id":64547,"position":7,"audio_url":"wbw/019_081_007.mp3","char_type_name":"word","page_number":311,"line_number":5,"text":"لَهُمْ","translation":{"text":"তাদের জন্য","language_name":"bengali","language_id":20},"transliteration":{"text":"lahum","language_name":"english","language_id":38}},{"id":64548,"position":8,"audio_url":"wbw/019_081_008.mp3","char_type_name":"word","page_number":311,"line_number":5,"text":"عِزًّۭا","translation":{"text":"সহায়ক (শক্তি)","language_name":"bengali","language_id":20},"transliteration":{"text":"ʿizzan","language_name":"english","language_id":38}},{"id":64549,"position":9,"audio_url":null,"char_type_name":"end","page_number":311,"line_number":5,"text":"٨١","translation":{"text":"(৮১)","language_name":"bengali","language_id":20},"transliteration":{"text":null,"language_name":"english","language_id":38}}]},{"id":2332,"verse_number":82,"verse_key":"19:82","hizb_number":31,"rub_el_hizb_number":124,"ruku_number":268,"manzil_number":4,"sajdah_number":null,"page_number":311,"juz_number":16,"words":[{"id":65166,"position":1,"audio_url":"wbw/019_082_001.mp3","char_type_name":"word","page_number":311,"line_number":5,"text":"كَلَّا ۚ","translation":{"text":"কখনও না","language_name":"bengali","language_id":20},"transliteration":{"text":"kallā","language_name":"english","language_id":38}},{"id":65168,"position":2,"audio_url":"wbw/019_082_003.mp3","char_type_name":"word","page_number":311,"line_number":5,"text":"سَيَكْفُرُونَ","translation":{"text":"অচিরেই তারা অস্বীকার করবে","language_name":"bengali","language_id":20},"transliteration":{"text":"sayakfurūna","language_name":"english","language_id":38}},{"id":65169,"position":3,"audio_url":"wbw/019_082_004.mp3","char_type_name":"word","page_number":311,"line_number":5,"text":"بِعِبَادَتِهِمْ","translation":{"text":"তাদের উপাসনা সম্পর্কে","language_name":"bengali","language_id":20},"transliteration":{"text":"biʿibādatihim","language_name":"english","language_id":38}},{"id":65170,"position":4,"audio_url":"wbw/019_082_005.mp3","char_type_name":"word","page_number":311,"line_number":5,"text":"وَيَكُونُونَ","translation":{"text":"এবং তারা হবে","language_name":"bengali","language_id":20},"transliteration":{"text":"wayakūnūna","language_name":"english","language_id":38}},{"id":65171,"position":5,"audio_url":"wbw/019_082_006.mp3","char_type_name":"word","page_number":311,"line_number":6,"text":"عَلَيْهِمْ","translation":{"text":"তাদের ব্যাপারে","language_name":"bengali","language_id":20},"transliteration":{"text":"ʿalayhim","language_name":"english","language_id":38}},{"id":65172,"position":6,"audio_url":"wbw/019_082_007.mp3","char_type_name":"word","page_number":311,"line_number":6,"text":"ضِدًّا","translation":{"text":"(তাদের দাবীর) বিরোধী","language_name":"bengali","language_id":20},"transliteration":{"text":"ḍiddan","language_name":"english","language_id":38}},{"id":65173,"position":7,"audio_url":null,"char_type_name":"end","page_number":311,"line_number":6,"text":"٨٢","translation":{"text":"(৮২)","language_name":"bengali","language_id":20},"transliteration":{"text":null,"language_name":"english","language_id":38}}]},{"id":2333,"verse_number":83,"verse_key":"19:83","hizb_number":31,"rub_el_hizb_number":124,"ruku_number":269,"manzil_number":4,"sajdah_number":null,"page_number":311,"juz_number":16,"words":[{"id":65359,"position":1,"audio_url":"wbw/019_083_001.mp3","char_type_name":"word","page_number":311,"line_number":6,"text":"أَلَمْ","translation":{"text":"নি কি","language_name":"bengali","language_id":20},"transliteration":{"text":"alam","language_name":"english","language_id":38}},{"id":65360,"position":2,"audio_url":"wbw/019_083_002.mp3","char_type_name":"word","page_number":311,"line_number":6,"text":"تَرَ","translation":{"text":"তুমি লক্ষ্য করো","language_name":"bengali","language_id":20},"transliteration":{"text":"tara","language_name":"english","language_id":38}},{"id":65361,"position":3,"audio_url":"wbw/019_083_003.mp3","char_type_name":"word","page_number":311,"line_number":6,"text":"أَنَّآ","translation":{"text":"যে আমরা","language_name":"bengali","language_id":20},"transliteration":{"text":"annā","language_name":"english","language_id":38}},{"id":65362,"position":4,"audio_url":"wbw/019_083_004.mp3","char_type_name":"word","page_number":311,"line_number":6,"text":"أَرْسَلْنَا","translation":{"text":"আমরা পাঠিয়েছি","language_name":"bengali","language_id":20},"transliteration":{"text":"arsalnā","language_name":"english","language_id":38}},{"id":65363,"position":5,"audio_url":"wbw/019_083_005.mp3","char_type_name":"word","page_number":311,"line_number":6,"text":"ٱلشَّيَـٰطِينَ","translation":{"text":"শয়তানদেরকে","language_name":"bengali","language_id":20},"transliteration":{"text":"l-shayāṭīna","language_name":"english","language_id":38}},{"id":65364,"position":6,"audio_url":"wbw/019_083_006.mp3","char_type_name":"word","page_number":311,"line_number":6,"text":"عَلَى","translation":{"text":"কাছে","language_name":"bengali","language_id":20},"transliteration":{"text":"ʿalā","language_name":"english","language_id":38}},{"id":65365,"position":7,"audio_url":"wbw/019_083_007.mp3","char_type_name":"word","page_number":311,"line_number":6,"text":"ٱلْكَـٰفِرِينَ","translation":{"text":"কাফিরদের","language_name":"bengali","language_id":20},"transliteration":{"text":"l-kāfirīna","language_name":"english","language_id":38}},{"id":65366,"position":8,"audio_url":"wbw/019_083_008.mp3","char_type_name":"word","page_number":311,"line_number":7,"text":"تَؤُزُّهُمْ","translation":{"text":"তাদেরকে উদ্বুদ্ধ করে","language_name":"bengali","language_id":20},"transliteration":{"text":"ta-uzzuhum","language_name":"english","language_id":38}},{"id":65367,"position":9,"audio_url":"wbw/019_083_009.mp3","char_type_name":"word","page_number":311,"line_number":7,"text":"أَزًّۭا","translation":{"text":"(বেশী বেশী) উদ্বুদ্ধ","language_name":"bengali","language_id":20},"transliteration":{"text":"azzan","language_name":"english","language_id":38}},{"id":65368,"position":10,"audio_url":null,"char_type_name":"end","page_number":311,"line_number":7,"text":"٨٣","translation":{"text":"(৮৩)","language_name":"bengali","language_id":20},"transliteration":{"text":null,"language_name":"english","language_id":38}}]},{"id":2334,"verse_number":84,"verse_key":"19:84","hizb_number":31,"rub_el_hizb_number":124,"ruku_number":269,"manzil_number":4,"sajdah_number":null,"page_number":311,"juz_number":16,"words":[{"id":65679,"position":1,"audio_url":"wbw/019_084_001.mp3","char_type_name":"word","page_number":311,"line_number":7,"text":"فَلَا","translation":{"text":"অতএব না","language_name":"bengali","language_id":20},"transliteration":{"text":"falā","language_name":"english","language_id":38}},{"id":65680,"position":2,"audio_url":"wbw/019_084_002.mp3","char_type_name":"word","page_number":311,"line_number":7,"text":"تَعْجَلْ","translation":{"text":"তাড়াতাড়ি করো","language_name":"bengali","language_id":20},"transliteration":{"text":"taʿjal","language_name":"english","language_id":38}},{"id":65681,"position":3,"audio_url":"wbw/019_084_003.mp3","char_type_name":"word","page_number":311,"line_number":7,"text":"عَلَيْهِمْ ۖ","translation":{"text":"তাদের ব্যাপারে","language_name":"bengali","language_id":20},"transliteration":{"text":"ʿalayhim","language_name":"english","language_id":38}},{"id":65683,"position":4,"audio_url":"wbw/019_084_005.mp3","char_type_name":"word","page_number":311,"line_number":7,"text":"إِنَّمَا","translation":{"text":"মুলতঃ","language_name":"bengali","language_id":20},"transliteration":{"text":"innamā","language_name":"english","language_id":38}},{"id":65684,"position":5,"audio_url":"wbw/019_084_006.mp3","char_type_name":"word","page_number":311,"line_number":7,"text":"نَعُدُّ","translation":{"text":"গণনা করছি আমরা","language_name":"bengali","language_id":20},"transliteration":{"text":"naʿuddu","language_name":"english","language_id":38}},{"id":65685,"position":6,"audio_url":"wbw/019_084_007.mp3","char_type_name":"word","page_number":311,"line_number":7,"text":"لَهُمْ","translation":{"text":"তাদের জন্য","language_name":"bengali","language_id":20},"transliteration":{"text":"lahum","language_name":"english","language_id":38}},{"id":65686,"position":7,"audio_url":"wbw/019_084_008.mp3","char_type_name":"word","page_number":311,"line_number":7,"text":"عَدًّۭا","translation":{"text":"(যথাযথ) গণনা","language_name":"bengali","language_id":20},"transliteration":{"text":"ʿaddan","language_name":"english","language_id":38}},{"id":65687,"position":8,"audio_url":null,"char_type_name":"end","page_number":311,"line_number":7,"text":"٨٤","translation":{"text":"(৮৪)","language_name":"bengali","language_id":20},"transliteration":{"text":null,"language_name":"english","language_id":38}}]},{"id":2335,"verse_number":85,"verse_key":"19:85","hizb_number":31,"rub_el_hizb_number":124,"ruku_number":269,"manzil_number":4,"sajdah_number":null,"page_number":311,"juz_number":16,"words":[{"id":66094,"position":1,"audio_url":"wbw/019_085_001.mp3","char_type_name":"word","page_number":311,"line_number":8,"text":"يَوْمَ","translation":{"text":"সে দিন","language_name":"bengali","language_id":20},"transliteration":{"text":"yawma","language_name":"english","language_id":38}},{"id":66095,"position":2,"audio_url":"wbw/019_085_002.mp3","char_type_name":"word","page_number":311,"line_number":8,"text":"نَحْشُرُ","translation":{"text":"সমবেত করবো আমরা","language_name":"bengali","language_id":20},"transliteration":{"text":"naḥshuru","language_name":"english","language_id":38}},{"id":66096,"position":3,"audio_url":"wbw/019_085_003.mp3","char_type_name":"word","page_number":311,"line_number":8,"text":"ٱلْمُتَّقِينَ","translation":{"text":"মুত্তাকীদেরকে","language_name":"bengali","language_id":20},"transliteration":{"text":"l-mutaqīna","language_name":"english","language_id":38}},{"id":66097,"position":4,"audio_url":"wbw/019_085_004.mp3","char_type_name":"word","page_number":311,"line_number":8,"text":"إِلَى","translation":{"text":"কাছে","language_name":"bengali","language_id":20},"transliteration":{"text":"ilā","language_name":"english","language_id":38}},{"id":66098,"position":5,"audio_url":"wbw/019_085_005.mp3","char_type_name":"word","page_number":311,"line_number":8,"text":"ٱلرَّحْمَـٰنِ","translation":{"text":"দয়াময়ের","language_name":"bengali","language_id":20},"transliteration":{"text":"l-raḥmāni","language_name":"english","language_id":38}},{"id":66099,"position":6,"audio_url":"wbw/019_085_006.mp3","char_type_name":"word","page_number":311,"line_number":8,"text":"وَفْدًۭا","translation":{"text":"অতিথি  হিসেবে","language_name":"bengali","language_id":20},"transliteration":{"text":"wafdan","language_name":"english","language_id":38}},{"id":66100,"position":7,"audio_url":null,"char_type_name":"end","page_number":311,"line_number":8,"text":"٨٥","translation":{"text":"(৮৫)","language_name":"bengali","language_id":20},"transliteration":{"text":null,"language_name":"english","language_id":38}}]},{"id":2336,"verse_number":86,"verse_key":"19:86","hizb_number":31,"rub_el_hizb_number":124,"ruku_number":269,"manzil_number":4,"sajdah_number":null,"page_number":311,"juz_number":16,"words":[{"id":66493,"position":1,"audio_url":"wbw/019_086_001.mp3","char_type_name":"word","page_number":311,"line_number":8,"text":"وَنَسُوقُ","translation":{"text":"এবং তাড়িয়ে নিয়ে যাবো আমরা","language_name":"bengali","language_id":20},"transliteration":{"text":"wanasūqu","language_name":"english","language_id":38}},{"id":66494,"position":2,"audio_url":"wbw/019_086_002.mp3","char_type_name":"word","page_number":311,"line_number":8,"text":"ٱلْمُجْرِمِينَ","translation":{"text":"অপরাধীদেরকে","language_name":"bengali","language_id":20},"transliteration":{"text":"l-muj'rimīna","language_name":"english","language_id":38}},{"id":66495,"position":3,"audio_url":"wbw/019_086_003.mp3","char_type_name":"word","page_number":311,"line_number":9,"text":"إِلَىٰ","translation":{"text":"দিকে","language_name":"bengali","language_id":20},"transliteration":{"text":"ilā","language_name":"english","language_id":38}},{"id":66496,"position":4,"audio_url":"wbw/019_086_004.mp3","char_type_name":"word","page_number":311,"line_number":9,"text":"جَهَنَّمَ","translation":{"text":"জাহান্নামের","language_name":"bengali","language_id":20},"transliteration":{"text":"jahannama","language_name":"english","language_id":38}},{"id":66497,"position":5,"audio_url":"wbw/019_086_005.mp3","char_type_name":"word","page_number":311,"line_number":9,"text":"وِرْدًۭا","translation":{"text":"তৃষ্ণার্ত অবস্থায়","language_name":"bengali","language_id":20},"transliteration":{"text":"wir'dan","language_name":"english","language_id":38}},{"id":66498,"position":6,"audio_url":null,"char_type_name":"end","page_number":311,"line_number":9,"text":"٨٦","translation":{"text":"(৮৬)","language_name":"bengali","language_id":20},"transliteration":{"text":null,"language_name":"english","language_id":38}}]},{"id":2337,"verse_number":87,"verse_key":"19:87","hizb_number":31,"rub_el_hizb_number":124,"ruku_number":269,"manzil_number":4,"sajdah_number":null,"page_number":311,"juz_number":16,"words":[{"id":66773,"position":1,"audio_url":"wbw/019_087_001.mp3","char_type_name":"word","page_number":311,"line_number":9,"text":"لَّا","translation":{"text":"না","language_name":"bengali","language_id":20},"transliteration":{"text":"lā","language_name":"english","language_id":38}},{"id":66774,"position":2,"audio_url":"wbw/019_087_002.mp3","char_type_name":"word","page_number":311,"line_number":9,"text":"يَمْلِكُونَ","translation":{"text":"তারা সক্ষম হবে","language_name":"bengali","language_id":20},"transliteration":{"text":"yamlikūna","language_name":"english","language_id":38}},{"id":66775,"position":3,"audio_url":"wbw/019_087_003.mp3","char_type_name":"word","page_number":311,"line_number":9,"text":"ٱلشَّفَـٰعَةَ","translation":{"text":"সুপারিশ করার","language_name":"bengali","language_id":20},"transliteration":{"text":"l-shafāʿata","language_name":"english","language_id":38}},{"id":66776,"position":4,"audio_url":"wbw/019_087_004.mp3","char_type_name":"word","page_number":311,"line_number":9,"text":"إِلَّا","translation":{"text":"ছাড়া","language_name":"bengali","language_id":20},"transliteration":{"text":"illā","language_name":"english","language_id":38}},{"id":66777,"position":5,"audio_url":"wbw/019_087_005.mp3","char_type_name":"word","page_number":311,"line_number":9,"text":"مَنِ","translation":{"text":"(সে)  যে","language_name":"bengali","language_id":20},"transliteration":{"text":"mani","language_name":"english","language_id":38}},{"id":66778,"position":6,"audio_url":"wbw/019_087_006.mp3","char_type_name":"word","page_number":311,"line_number":9,"text":"ٱتَّخَذَ","translation":{"text":"গ্রহণ করেছে","language_name":"bengali","language_id":20},"transliteration":{"text":"ittakhadha","language_name":"english","language_id":38}},{"id":66779,"position":7,"audio_url":"wbw/019_087_007.mp3","char_type_name":"word","page_number":311,"line_number":9,"text":"عِندَ","translation":{"text":"নিকট হ'তে","language_name":"bengali","language_id":20},"transliteration":{"text":"ʿinda","language_name":"english","language_id":38}},{"id":66780,"position":8,"audio_url":"wbw/019_087_008.mp3","char_type_name":"word","page_number":311,"line_number":10,"text":"ٱلرَّحْمَـٰنِ","translation":{"text":"দয়াময়ের","language_name":"bengali","language_id":20},"transliteration":{"text":"l-raḥmāni","language_name":"english","language_id":38}},{"id":66781,"position":9,"audio_url":"wbw/019_087_009.mp3","char_type_name":"word","page_number":311,"line_number":10,"text":"عَهْدًۭا","translation":{"text":"প্রতিশ্রুতি","language_name":"bengali","language_id":20},"transliteration":{"text":"ʿahdan","language_name":"english","language_id":38}},{"id":66782,"position":10,"audio_url":null,"char_type_name":"end","page_number":311,"line_number":10,"text":"٨٧","translation":{"text":"(৮৭)","language_name":"bengali","language_id":20},"transliteration":{"text":null,"language_name":"english","language_id":38}}]},{"id":2338,"verse_number":88,"verse_key":"19:88","hizb_number":31,"rub_el_hizb_number":124,"ruku_number":269,"manzil_number":4,"sajdah_number":null,"page_number":311,"juz_number":16,"words":[{"id":67156,"position":1,"audio_url":"wbw/019_088_001.mp3","char_type_name":"word","page_number":311,"line_number":10,"text":"وَقَالُوا۟","translation":{"text":"এবং তারা বলে","language_name":"bengali","language_id":20},"transliteration":{"text":"waqālū","language_name":"english","language_id":38}},{"id":67157,"position":2,"audio_url":"wbw/019_088_002.mp3","char_type_name":"word","page_number":311,"line_number":10,"text":"ٱتَّخَذَ","translation":{"text":"\"গ্রহণ করেছেন","language_name":"bengali","language_id":20},"transliteration":{"text":"ittakhadha","language_name":"english","language_id":38}},{"id":67158,"position":3,"audio_url":"wbw/019_088_003.mp3","char_type_name":"word","page_number":311,"line_number":10,"text":"ٱلرَّحْمَـٰنُ","translation":{"text":"দয়াময়","language_name":"bengali","language_id":20},"transliteration":{"text":"l-raḥmānu","language_name":"english","language_id":38}},{"id":67159,"position":4,"audio_url":"wbw/019_088_004.mp3","char_type_name":"word","page_number":311,"line_number":10,"text":"وَلَدًۭا","translation":{"text":"পুত্র\"","language_name":"bengali","language_id":20},"transliteration":{"text":"waladan","language_name":"english","language_id":38}},{"id":67160,"position":5,"audio_url":null,"char_type_name":"end","page_number":311,"line_number":10,"text":"٨٨","translation":{"text":"(৮৮)","language_name":"bengali","language_id":20},"transliteration":{"text":null,"language_name":"english","language_id":38}}]},{"id":2339,"verse_number":89,"verse_key":"19:89","hizb_number":31,"rub_el_hizb_number":124,"ruku_number":269,"manzil_number":4,"sajdah_number":null,"page_number":311,"juz_number":16,"words":[{"id":67618,"position":1,"audio_url":"wbw/019_089_001.mp3","char_type_name":"word","page_number":311,"line_number":10,"text":"لَّقَدْ","translation":{"text":"নিশ্চয়ই","language_name":"bengali","language_id":20},"transliteration":{"text":"laqad","language_name":"english","language_id":38}},{"id":67619,"position":2,"audio_url":"wbw/019_089_002.mp3","char_type_name":"word","page_number":311,"line_number":11,"text":"جِئْتُمْ","translation":{"text":"তোমরা এনেছো","language_name":"bengali","language_id":20},"transliteration":{"text":"ji'tum","language_name":"english","language_id":38}},{"id":67620,"position":3,"audio_url":"wbw/019_089_003.mp3","char_type_name":"word","page_number":311,"line_number":11,"text":"شَيْـًٔا","translation":{"text":"কিছু (কথা)","language_name":"bengali","language_id":20},"transliteration":{"text":"shayan","language_name":"english","language_id":38}},{"id":67621,"position":4,"audio_url":"wbw/019_089_004.mp3","char_type_name":"word","page_number":311,"line_number":11,"text":"إِدًّۭا","translation":{"text":"জঘন্য","language_name":"bengali","language_id":20},"transliteration":{"text":"iddan","language_name":"english","language_id":38}},{"id":67622,"position":5,"audio_url":null,"char_type_name":"end","page_number":311,"line_number":11,"text":"٨٩","translation":{"text":"(৮৯)","language_name":"bengali","language_id":20},"transliteration":{"text":null,"language_name":"english","language_id":38}}]},{"id":2340,"verse_number":90,"verse_key":"19:90","hizb_number":31,"rub_el_hizb_number":124,"ruku_number":269,"manzil_number":4,"sajdah_number":null,"page_number":311,"juz_number":16,"words":[{"id":67882,"position":1,"audio_url":"wbw/019_090_001.mp3","char_type_name":"word","page_number":311,"line_number":11,"text":"تَكَادُ","translation":{"text":"উপক্রম হয়েছে","language_name":"bengali","language_id":20},"transliteration":{"text":"takādu","language_name":"english","language_id":38}},{"id":67883,"position":2,"audio_url":"wbw/019_090_002.mp3","char_type_name":"word","page_number":311,"line_number":11,"text":"ٱلسَّمَـٰوَٰتُ","translation":{"text":"আকাশমণ্ডলী","language_name":"bengali","language_id":20},"transliteration":{"text":"l-samāwātu","language_name":"english","language_id":38}},{"id":67884,"position":3,"audio_url":"wbw/019_090_003.mp3","char_type_name":"word","page_number":311,"line_number":11,"text":"يَتَفَطَّرْنَ","translation":{"text":"বিদীর্ণ হওয়ার","language_name":"bengali","language_id":20},"transliteration":{"text":"yatafaṭṭarna","language_name":"english","language_id":38}},{"id":67885,"position":4,"audio_url":"wbw/019_090_004.mp3","char_type_name":"word","page_number":311,"line_number":11,"text":"مِنْهُ","translation":{"text":"তার কারণে","language_name":"bengali","language_id":20},"transliteration":{"text":"min'hu","language_name":"english","language_id":38}},{"id":67886,"position":5,"audio_url":"wbw/019_090_005.mp3","char_type_name":"word","page_number":311,"line_number":12,"text":"وَتَنشَقُّ","translation":{"text":"ও খন্ড-বিখন্ড হবে","language_name":"bengali","language_id":20},"transliteration":{"text":"watanshaqqu","language_name":"english","language_id":38}},{"id":67887,"position":6,"audio_url":"wbw/019_090_006.mp3","char_type_name":"word","page_number":311,"line_number":12,"text":"ٱلْأَرْضُ","translation":{"text":"পৃথিবী","language_name":"bengali","language_id":20},"transliteration":{"text":"l-arḍu","language_name":"english","language_id":38}},{"id":67888,"position":7,"audio_url":"wbw/019_090_007.mp3","char_type_name":"word","page_number":311,"line_number":12,"text":"وَتَخِرُّ","translation":{"text":"এবং পতিত হবে","language_name":"bengali","language_id":20},"transliteration":{"text":"watakhirru","language_name":"english","language_id":38}},{"id":67889,"position":8,"audio_url":"wbw/019_090_008.mp3","char_type_name":"word","page_number":311,"line_number":12,"text":"ٱلْجِبَالُ","translation":{"text":"পাহাড়সমূহ","language_name":"bengali","language_id":20},"transliteration":{"text":"l-jibālu","language_name":"english","language_id":38}},{"id":67890,"position":9,"audio_url":"wbw/019_090_009.mp3","char_type_name":"word","page_number":311,"line_number":12,"text":"هَدًّا","translation":{"text":"চূর্ণ-বিচূর্ণ হয়ে","language_name":"bengali","language_id":20},"transliteration":{"text":"haddan","language_name":"english","language_id":38}},{"id":67891,"position":10,"audio_url":null,"char_type_name":"end","page_number":311,"line_number":12,"text":"٩٠","translation":{"text":"(৯০)","language_name":"bengali","language_id":20},"transliteration":{"text":null,"language_name":"english","language_id":38}}]}],"pagination":{"per_page":10,"current_page":9,"next_page":10,"total_pages":10,"total_records":98}}
