{"verses":[{"id":5840,"verse_number":11,"verse_key":"82:11","hizb_number":59,"rub_el_hizb_number":235,"ruku_number":526,"manzil_number":7,"sajdah_number":null,"page_number":587,"juz_number":30,"words":[{"id":13006,"position":1,"audio_url":"wbw/082_011_001.mp3","char_type_name":"word","page_number":587,"line_number":7,"text":"كِرَامًۭا","translation":{"text":"সম্মানিত","language_name":"bengali","language_id":20},"transliteration":{"text":"kirāman","language_name":"english","language_id":38}},{"id":13007,"position":2,"audio_url":"wbw/082_011_002.mp3","char_type_name":"word","page_number":587,"line_number":8,"text":"كَـٰتِبِينَ","translation":{"text":"লেখকবৃন্দ","language_name":"bengali","language_id":20},"transliteration":{"text":"kātibīna","language_name":"english","language_id":38}},{"id":13008,"position":3,"audio_url":null,"char_type_name":"end","page_number":587,"line_number":8,"text":"١١","translation":{"text":"(১১)","language_name":"bengali","language_id":20},"transliteration":{"text":null,"language_name":"english","language_id":38}}]},{"id":5841,"verse_number":12,"verse_key":"82:12","hizb_number":59,"rub_el_hizb_number":235,"ruku_number":526,"manzil_number":7,"sajdah_number":null,"page_number":587,"juz_number":30,"words":[{"id":14263,"position":1,"audio_url":"wbw/082_012_001.mp3","char_type_name":"word","page_number":587,"line_number":8,"text":"يَعْلَمُونَ","translation":{"text":"তারা জানে","language_name":"bengali","language_id":20},"transliteration":{"text":"yaʿlamūna","language_name":"english","language_id":38}},{"id":14264,"position":2,"audio_url":"wbw/082_012_002.mp3","char_type_name":"word","page_number":587,"line_number":8,"text":"مَا","translation":{"text":"যা","language_name":"bengali","language_id":20},"transliteration":{"text":"mā","language_name":"english","language_id":38}},{"id":14265,"position":3,"audio_url":"wbw/082_012_003.mp3","char_type_name":"word","page_number":587,"line_number":8,"text":"تَفْعَلُونَ","translation":{"text":"তোমরা কর","language_name":"bengali","language_id":20},"transliteration":{"text":"tafʿalūna","language_name":"english","language_id":38}},{"id":14266,"position":4,"audio_url":null,"char_type_name":"end","page_number":587,"line_number":8,"text":"١٢","translation":{"text":"(১২)","language_name":"bengali","language_id":20},"transliteration":{"text":null,"language_name":"english","language_id":38}}]},{"id":5842,"verse_number":13,"verse_key":"82:13","hizb_number":59,"rub_el_hizb_number":235,"ruku_number":526,"manzil_number":7,"sajdah_number":null,"page_number":587,"juz_number":30,"words":[{"id":15378,"position":1,"audio_url":"wbw/082_013_001.mp3","char_type_name":"word","page_number":587,"line_number":8,"text":"إِنَّ","translation":{"text":"নিশ্চয়ই","language_name":"bengali","language_id":20},"transliteration":{"text":"inna","language_name":"english","language_id":38}},{"id":15379,"position":2,"audio_url":"wbw/082_013_002.mp3","char_type_name":"word","page_number":587,"line_number":8,"text":"ٱلْأَبْرَارَ","translation":{"text":"সৎ ব্যক্তিরা","language_name":"bengali","language_id":20},"transliteration":{"text":"l-abrāra","language_name":"english","language_id":38}},{"id":15380,"position":3,"audio_url":"wbw/082_013_003.mp3","char_type_name":"word","page_number":587,"line_number":8,"text":"لَفِى","translation":{"text":"অবশ্যই মধ্যে(থাকবে)","language_name":"bengali","language_id":20},"transliteration":{"text":"lafī","language_name":"english","language_id":38}},{"id":15381,"position":4,"audio_url":"wbw/082_013_004.mp3","char_type_name":"word","page_number":587,"line_number":8,"text":"نَعِيمٍۢ","translation":{"text":"স্বাচ্ছন্দ্যে (সুখে-শান্তিতে)","language_name":"bengali","language_id":20},"transliteration":{"text":"naʿīmin","language_name":"english","language_id":38}},{"id":15382,"position":5,"audio_url":null,"char_type_name":"end","page_number":587,"line_number":8,"text":"١٣","translation":{"text":"(১৩)","language_name":"bengali","language_id":20},"transliteration":{"text":null,"language_name":"english","language_id":38}}]},{"id":5843,"verse_number":14,"verse_key":"82:14","hizb_number":59,"rub_el_hizb_number":235,"ruku_number":526,"manzil_number":7,"sajdah_number":null,"page_number":587,"juz_number":30,"words":[{"id":16432,"position":1,"audio_url":"wbw/082_014_001.mp3","char_type_name":"word","page_number":587,"line_number":8,"text":"وَإِنَّ","translation":{"text":"এবং নিশ্চয়ই","language_name":"bengali","language_id":20},"transliteration":{"text":"wa-inna","language_name":"english","language_id":38}},{"id":16433,"position":2,"audio_url":"wbw/082_014_002.mp3","char_type_name":"word","page_number":587,"line_number":9,"text":"ٱلْفُجَّارَ","translation":{"text":"পাপাচারীরা","language_name":"bengali","language_id":20},"transliteration":{"text":"l-fujāra","language_name":"english","language_id":38}},{"id":16434,"position":3,"audio_url":"wbw/082_014_003.mp3","char_type_name":"word","page_number":587,"line_number":9,"text":"لَفِى","translation":{"text":"অবশ্যই মধ্যে (যাবে)","language_name":"bengali","language_id":20},"transliteration":{"text":"lafī","language_name":"english","language_id":38}},{"id":16435,"position":4,"audio_url":"wbw/082_014_004.mp3","char_type_name":"word","page_number":587,"line_number":9,"text":"جَحِيمٍۢ","translation":{"text":"দোজখের","language_name":"bengali","language_id":20},"transliteration":{"text":"jaḥīmin","language_name":"english","language_id":38}},{"id":16436,"position":5,"audio_url":null,"char_type_name":"end","page_number":587,"line_number":9,"text":"١٤","translation":{"text":"(১৪)","language_name":"bengali","language_id":20},"transliteration":{"text":null,"language_name":"english","language_id":38}}]},{"id":5844,"verse_number":15,"verse_key":"82:15","hizb_number":59,"rub_el_hizb_number":235,"ruku_number":526,"manzil_number":7,"sajdah_number":null,"page_number":587,"juz_number":30,"words":[{"id":17585,"position":1,"audio_url":"wbw/082_015_001.mp3","char_type_name":"word","page_number":587,"line_number":9,"text":"يَصْلَوْنَهَا","translation":{"text":"সেখানে তারা প্রবেশ করবে","language_name":"bengali","language_id":20},"transliteration":{"text":"yaṣlawnahā","language_name":"english","language_id":38}},{"id":17586,"position":2,"audio_url":"wbw/082_015_002.mp3","char_type_name":"word","page_number":587,"line_number":9,"text":"يَوْمَ","translation":{"text":"দিনে","language_name":"bengali","language_id":20},"transliteration":{"text":"yawma","language_name":"english","language_id":38}},{"id":17587,"position":3,"audio_url":"wbw/082_015_003.mp3","char_type_name":"word","page_number":587,"line_number":9,"text":"ٱلدِّينِ","translation":{"text":"বিচার","language_name":"bengali","language_id":20},"transliteration":{"text":"l-dīni","language_name":"english","language_id":38}},{"id":17588,"position":4,"audio_url":null,"char_type_name":"end","page_number":587,"line_number":9,"text":"١٥","translation":{"text":"(১৫)","language_name":"bengali","language_id":20},"transliteration":{"text":null,"language_name":"english","language_id":38}}]},{"id":5845,"verse_number":16,"verse_key":"82:16","hizb_number":59,"rub_el_hizb_number":235,"ruku_number":526,"manzil_number":7,"sajdah_number":null,"page_number":587,"juz_number":30,"words":[{"id":18628,"position":1,"audio_url":"wbw/082_016_001.mp3","char_type_name":"word","page_number":587,"line_number":9,"text":"وَمَا","translation":{"text":"এবং না","language_name":"bengali","language_id":20},"transliteration":{"text":"wamā","language_name":"english","language_id":38}},{"id":18629,"position":2,"audio_url":"wbw/082_016_002.mp3","char_type_name":"word","page_number":587,"line_number":9,"text":"هُمْ","translation":{"text":"তারা","language_name":"bengali","language_id":20},"transliteration":{"text":"hum","language_name":"english","language_id":38}},{"id":18630,"position":3,"audio_url":"wbw/082_016_003.mp3","char_type_name":"word","page_number":587,"line_number":9,"text":"عَنْهَا","translation":{"text":"তা থেকে","language_name":"bengali","language_id":20},"transliteration":{"text":"ʿanhā","language_name":"english","language_id":38}},{"id":18631,"position":4,"audio_url":"wbw/082_016_004.mp3","char_type_name":"word","page_number":587,"line_number":9,"text":"بِغَآئِبِينَ","translation":{"text":"অনুপস্থিত (থাকতে সক্ষম হবে)","language_name":"bengali","language_id":20},"transliteration":{"text":"bighāibīna","language_name":"english","language_id":38}},{"id":18632,"position":5,"audio_url":null,"char_type_name":"end","page_number":587,"line_number":10,"text":"١٦","translation":{"text":"(১৬)","language_name":"bengali","language_id":20},"transliteration":{"text":null,"language_name":"english","language_id":38}}]},{"id":5846,"verse_number":17,"verse_key":"82:17","hizb_number":59,"rub_el_hizb_number":235,"ruku_number":526,"manzil_number":7,"sajdah_number":null,"page_number":587,"juz_number":30,"words":[{"id":19681,"position":1,"audio_url":"wbw/082_017_001.mp3","char_type_name":"word","page_number":587,"line_number":10,"text":"وَمَآ","translation":{"text":"এবং কিসে","language_name":"bengali","language_id":20},"transliteration":{"text":"wamā","language_name":"english","language_id":38}},{"id":19682,"position":2,"audio_url":"wbw/082_017_002.mp3","char_type_name":"word","page_number":587,"line_number":10,"text":"أَدْرَىٰكَ","translation":{"text":"তোমাকে জানাবে","language_name":"bengali","language_id":20},"transliteration":{"text":"adrāka","language_name":"english","language_id":38}},{"id":19683,"position":3,"audio_url":"wbw/082_017_003.mp3","char_type_name":"word","page_number":587,"line_number":10,"text":"مَا","translation":{"text":"কি (সেই)","language_name":"bengali","language_id":20},"transliteration":{"text":"mā","language_name":"english","language_id":38}},{"id":19684,"position":4,"audio_url":"wbw/082_017_004.mp3","char_type_name":"word","page_number":587,"line_number":10,"text":"يَوْمُ","translation":{"text":"দিন","language_name":"bengali","language_id":20},"transliteration":{"text":"yawmu","language_name":"english","language_id":38}},{"id":19685,"position":5,"audio_url":"wbw/082_017_005.mp3","char_type_name":"word","page_number":587,"line_number":10,"text":"ٱلدِّينِ","translation":{"text":"বিচারের","language_name":"bengali","language_id":20},"transliteration":{"text":"l-dīni","language_name":"english","language_id":38}},{"id":19686,"position":6,"audio_url":null,"char_type_name":"end","page_number":587,"line_number":10,"text":"١٧","translation":{"text":"(১৭)","language_name":"bengali","language_id":20},"transliteration":{"text":null,"language_name":"english","language_id":38}}]},{"id":5847,"verse_number":18,"verse_key":"82:18","hizb_number":59,"rub_el_hizb_number":235,"ruku_number":526,"manzil_number":7,"sajdah_number":null,"page_number":587,"juz_number":30,"words":[{"id":20783,"position":1,"audio_url":"wbw/082_018_001.mp3","char_type_name":"word","page_number":587,"line_number":10,"text":"ثُمَّ","translation":{"text":"অতঃপর","language_name":"bengali","language_id":20},"transliteration":{"text":"thumma","language_name":"english","language_id":38}},{"id":20784,"position":2,"audio_url":"wbw/082_018_002.mp3","char_type_name":"word","page_number":587,"line_number":10,"text":"مَآ","translation":{"text":"কিসে","language_name":"bengali","language_id":20},"transliteration":{"text":"mā","language_name":"english","language_id":38}},{"id":20785,"position":3,"audio_url":"wbw/082_018_003.mp3","char_type_name":"word","page_number":587,"line_number":10,"text":"أَدْرَىٰكَ","translation":{"text":"তোমাকে জানাবে","language_name":"bengali","language_id":20},"transliteration":{"text":"adrāka","language_name":"english","language_id":38}},{"id":20786,"position":4,"audio_url":"wbw/082_018_004.mp3","char_type_name":"word","page_number":587,"line_number":10,"text":"مَا","translation":{"text":"কি সেই","language_name":"bengali","language_id":20},"transliteration":{"text":"mā","language_name":"english","language_id":38}},{"id":20787,"position":5,"audio_url":"wbw/082_018_005.mp3","char_type_name":"word","page_number":587,"line_number":10,"text":"يَوْمُ","translation":{"text":"দিন","language_name":"bengali","language_id":20},"transliteration":{"text":"yawmu","language_name":"english","language_id":38}},{"id":20788,"position":6,"audio_url":"wbw/082_018_006.mp3","char_type_name":"word","page_number":587,"line_number":10,"text":"ٱلدِّينِ","translation":{"text":"বিচারের","language_name":"bengali","language_id":20},"transliteration":{"text":"l-dīni","language_name":"english","language_id":38}},{"id":20789,"position":7,"audio_url":null,"char_type_name":"end","page_number":587,"line_number":11,"text":"١٨","translation":{"text":"(১৮)","language_name":"bengali","language_id":20},"transliteration":{"text":null,"language_name":"english","language_id":38}}]},{"id":5848,"verse_number":19,"verse_key":"82:19","hizb_number":59,"rub_el_hizb_number":235,"ruku_number":526,"manzil_number":7,"sajdah_number":null,"page_number":587,"juz_number":30,"words":[{"id":21813,"position":1,"audio_url":"wbw/082_019_001.mp3","char_type_name":"word","page_number":587,"line_number":11,"text":"يَوْمَ","translation":{"text":"সেদিন","language_name":"bengali","language_id":20},"transliteration":{"text":"yawma","language_name":"english","language_id":38}},{"id":21814,"position":2,"audio_url":"wbw/082_019_002.mp3","char_type_name":"word","page_number":587,"line_number":11,"text":"لَا","translation":{"text":"না","language_name":"bengali","language_id":20},"transliteration":{"text":"lā","language_name":"english","language_id":38}},{"id":21815,"position":3,"audio_url":"wbw/082_019_003.mp3","char_type_name":"word","page_number":587,"line_number":11,"text":"تَمْلِكُ","translation":{"text":"সক্ষম হবে","language_name":"bengali","language_id":20},"transliteration":{"text":"tamliku","language_name":"english","language_id":38}},{"id":21816,"position":4,"audio_url":"wbw/082_019_004.mp3","char_type_name":"word","page_number":587,"line_number":11,"text":"نَفْسٌۭ","translation":{"text":"কেউ","language_name":"bengali","language_id":20},"transliteration":{"text":"nafsun","language_name":"english","language_id":38}},{"id":21817,"position":5,"audio_url":"wbw/082_019_005.mp3","char_type_name":"word","page_number":587,"line_number":11,"text":"لِّنَفْسٍۢ","translation":{"text":"কারও জন্যে","language_name":"bengali","language_id":20},"transliteration":{"text":"linafsin","language_name":"english","language_id":38}},{"id":21818,"position":6,"audio_url":"wbw/082_019_006.mp3","char_type_name":"word","page_number":587,"line_number":11,"text":"شَيْـًۭٔا ۖ","translation":{"text":"কিছু (করতে)","language_name":"bengali","language_id":20},"transliteration":{"text":"shayan","language_name":"english","language_id":38}},{"id":21820,"position":7,"audio_url":"wbw/082_019_008.mp3","char_type_name":"word","page_number":587,"line_number":11,"text":"وَٱلْأَمْرُ","translation":{"text":"এবং কর্তৃত্ব","language_name":"bengali","language_id":20},"transliteration":{"text":"wal-amru","language_name":"english","language_id":38}},{"id":21821,"position":8,"audio_url":"wbw/082_019_009.mp3","char_type_name":"word","page_number":587,"line_number":11,"text":"يَوْمَئِذٍۢ","translation":{"text":"সেদিন (হবে কেবল)","language_name":"bengali","language_id":20},"transliteration":{"text":"yawma-idhin","language_name":"english","language_id":38}},{"id":21822,"position":9,"audio_url":"wbw/082_019_010.mp3","char_type_name":"word","page_number":587,"line_number":11,"text":"لِّلَّهِ","translation":{"text":"আল্লাহর জন্যে","language_name":"bengali","language_id":20},"transliteration":{"text":"lillahi","language_name":"english","language_id":38}},{"id":21823,"position":10,"audio_url":null,"char_type_name":"end","page_number":587,"line_number":11,"text":"١٩","translation":{"text":"(১৯)","language_name":"bengali","language_id":20},"transliteration":{"text":null,"language_name":"english","language_id":38}}]}],"pagination":{"per_page":10,"current_page":2,"next_page":null,"total_pages":2,"total_records":19}}
