{"verses":[{"id":5612,"verse_number":21,"verse_key":"76:21","hizb_number":58,"rub_el_hizb_number":232,"ruku_number":516,"manzil_number":7,"sajdah_number":null,"page_number":579,"juz_number":29,"words":[{"id":23965,"position":1,"audio_url":"wbw/076_021_001.mp3","char_type_name":"word","page_number":579,"line_number":11,"text":"عَـٰلِيَهُمْ","translation":{"text":"তাদের উপর","language_name":"bengali","language_id":20},"transliteration":{"text":"ʿāliyahum","language_name":"english","language_id":38}},{"id":23966,"position":2,"audio_url":"wbw/076_021_002.mp3","char_type_name":"word","page_number":579,"line_number":11,"text":"ثِيَابُ","translation":{"text":"পোশাক","language_name":"bengali","language_id":20},"transliteration":{"text":"thiyābu","language_name":"english","language_id":38}},{"id":23967,"position":3,"audio_url":"wbw/076_021_003.mp3","char_type_name":"word","page_number":579,"line_number":11,"text":"سُندُسٍ","translation":{"text":"সুক্ষ রেশমের","language_name":"bengali","language_id":20},"transliteration":{"text":"sundusin","language_name":"english","language_id":38}},{"id":23968,"position":4,"audio_url":"wbw/076_021_004.mp3","char_type_name":"word","page_number":579,"line_number":12,"text":"خُضْرٌۭ","translation":{"text":"সবুজ","language_name":"bengali","language_id":20},"transliteration":{"text":"khuḍ'run","language_name":"english","language_id":38}},{"id":23969,"position":5,"audio_url":"wbw/076_021_005.mp3","char_type_name":"word","page_number":579,"line_number":12,"text":"وَإِسْتَبْرَقٌۭ ۖ","translation":{"text":"এবং বুটিদার","language_name":"bengali","language_id":20},"transliteration":{"text":"wa-is'tabraqun","language_name":"english","language_id":38}},{"id":23971,"position":6,"audio_url":"wbw/076_021_007.mp3","char_type_name":"word","page_number":579,"line_number":12,"text":"وَحُلُّوٓا۟","translation":{"text":"এবং তাদের অলংকার","language_name":"bengali","language_id":20},"transliteration":{"text":"waḥullū","language_name":"english","language_id":38}},{"id":23972,"position":7,"audio_url":"wbw/076_021_008.mp3","char_type_name":"word","page_number":579,"line_number":12,"text":"أَسَاوِرَ","translation":{"text":"কংকনের","language_name":"bengali","language_id":20},"transliteration":{"text":"asāwira","language_name":"english","language_id":38}},{"id":23973,"position":8,"audio_url":"wbw/076_021_009.mp3","char_type_name":"word","page_number":579,"line_number":12,"text":"مِن","translation":{"text":"(নির্মিত)","language_name":"bengali","language_id":20},"transliteration":{"text":"min","language_name":"english","language_id":38}},{"id":23974,"position":9,"audio_url":"wbw/076_021_010.mp3","char_type_name":"word","page_number":579,"line_number":12,"text":"فِضَّةٍۢ","translation":{"text":"রৌপ্য","language_name":"bengali","language_id":20},"transliteration":{"text":"fiḍḍatin","language_name":"english","language_id":38}},{"id":23975,"position":10,"audio_url":"wbw/076_021_011.mp3","char_type_name":"word","page_number":579,"line_number":12,"text":"وَسَقَىٰهُمْ","translation":{"text":"এবং তাদের পান করাবেন","language_name":"bengali","language_id":20},"transliteration":{"text":"wasaqāhum","language_name":"english","language_id":38}},{"id":23976,"position":11,"audio_url":"wbw/076_021_012.mp3","char_type_name":"word","page_number":579,"line_number":12,"text":"رَبُّهُمْ","translation":{"text":"তাদের রব","language_name":"bengali","language_id":20},"transliteration":{"text":"rabbuhum","language_name":"english","language_id":38}},{"id":23977,"position":12,"audio_url":"wbw/076_021_013.mp3","char_type_name":"word","page_number":579,"line_number":12,"text":"شَرَابًۭا","translation":{"text":"পানীয়","language_name":"bengali","language_id":20},"transliteration":{"text":"sharāban","language_name":"english","language_id":38}},{"id":23978,"position":13,"audio_url":"wbw/076_021_014.mp3","char_type_name":"word","page_number":579,"line_number":13,"text":"طَهُورًا","translation":{"text":"পবিত্র","language_name":"bengali","language_id":20},"transliteration":{"text":"ṭahūran","language_name":"english","language_id":38}},{"id":23979,"position":14,"audio_url":null,"char_type_name":"end","page_number":579,"line_number":13,"text":"٢١","translation":{"text":"(২১)","language_name":"bengali","language_id":20},"transliteration":{"text":null,"language_name":"english","language_id":38}}]},{"id":5613,"verse_number":22,"verse_key":"76:22","hizb_number":58,"rub_el_hizb_number":232,"ruku_number":516,"manzil_number":7,"sajdah_number":null,"page_number":579,"juz_number":29,"words":[{"id":25129,"position":1,"audio_url":"wbw/076_022_001.mp3","char_type_name":"word","page_number":579,"line_number":13,"text":"إِنَّ","translation":{"text":"\"নিশ্চয়","language_name":"bengali","language_id":20},"transliteration":{"text":"inna","language_name":"english","language_id":38}},{"id":25130,"position":2,"audio_url":"wbw/076_022_002.mp3","char_type_name":"word","page_number":579,"line_number":13,"text":"هَـٰذَا","translation":{"text":"এটা","language_name":"bengali","language_id":20},"transliteration":{"text":"hādhā","language_name":"english","language_id":38}},{"id":25131,"position":3,"audio_url":"wbw/076_022_003.mp3","char_type_name":"word","page_number":579,"line_number":13,"text":"كَانَ","translation":{"text":"হলো","language_name":"bengali","language_id":20},"transliteration":{"text":"kāna","language_name":"english","language_id":38}},{"id":25132,"position":4,"audio_url":"wbw/076_022_004.mp3","char_type_name":"word","page_number":579,"line_number":13,"text":"لَكُمْ","translation":{"text":"তোমাদের জন্যে","language_name":"bengali","language_id":20},"transliteration":{"text":"lakum","language_name":"english","language_id":38}},{"id":25133,"position":5,"audio_url":"wbw/076_022_005.mp3","char_type_name":"word","page_number":579,"line_number":13,"text":"جَزَآءًۭ","translation":{"text":"প্রতিদান","language_name":"bengali","language_id":20},"transliteration":{"text":"jazāan","language_name":"english","language_id":38}},{"id":25134,"position":6,"audio_url":"wbw/076_022_006.mp3","char_type_name":"word","page_number":579,"line_number":13,"text":"وَكَانَ","translation":{"text":"এবং হবে","language_name":"bengali","language_id":20},"transliteration":{"text":"wakāna","language_name":"english","language_id":38}},{"id":25135,"position":7,"audio_url":"wbw/076_022_007.mp3","char_type_name":"word","page_number":579,"line_number":13,"text":"سَعْيُكُم","translation":{"text":"তোমাদের প্রচেষ্টা","language_name":"bengali","language_id":20},"transliteration":{"text":"saʿyukum","language_name":"english","language_id":38}},{"id":25136,"position":8,"audio_url":"wbw/076_022_008.mp3","char_type_name":"word","page_number":579,"line_number":13,"text":"مَّشْكُورًا","translation":{"text":"প্রশংসীত\"","language_name":"bengali","language_id":20},"transliteration":{"text":"mashkūran","language_name":"english","language_id":38}},{"id":25137,"position":9,"audio_url":null,"char_type_name":"end","page_number":579,"line_number":13,"text":"٢٢","translation":{"text":"(২২)","language_name":"bengali","language_id":20},"transliteration":{"text":null,"language_name":"english","language_id":38}}]},{"id":5614,"verse_number":23,"verse_key":"76:23","hizb_number":58,"rub_el_hizb_number":232,"ruku_number":517,"manzil_number":7,"sajdah_number":null,"page_number":579,"juz_number":29,"words":[{"id":26005,"position":1,"audio_url":"wbw/076_023_001.mp3","char_type_name":"word","page_number":579,"line_number":13,"text":"إِنَّا","translation":{"text":"নিশ্চয়","language_name":"bengali","language_id":20},"transliteration":{"text":"innā","language_name":"english","language_id":38}},{"id":26006,"position":2,"audio_url":"wbw/076_023_002.mp3","char_type_name":"word","page_number":579,"line_number":14,"text":"نَحْنُ","translation":{"text":"আমরা","language_name":"bengali","language_id":20},"transliteration":{"text":"naḥnu","language_name":"english","language_id":38}},{"id":26007,"position":3,"audio_url":"wbw/076_023_003.mp3","char_type_name":"word","page_number":579,"line_number":14,"text":"نَزَّلْنَا","translation":{"text":"আমরা নাযিল করেছি","language_name":"bengali","language_id":20},"transliteration":{"text":"nazzalnā","language_name":"english","language_id":38}},{"id":26008,"position":4,"audio_url":"wbw/076_023_004.mp3","char_type_name":"word","page_number":579,"line_number":14,"text":"عَلَيْكَ","translation":{"text":"তোমার উপর","language_name":"bengali","language_id":20},"transliteration":{"text":"ʿalayka","language_name":"english","language_id":38}},{"id":26009,"position":5,"audio_url":"wbw/076_023_005.mp3","char_type_name":"word","page_number":579,"line_number":14,"text":"ٱلْقُرْءَانَ","translation":{"text":"কুরআন","language_name":"bengali","language_id":20},"transliteration":{"text":"l-qur'āna","language_name":"english","language_id":38}},{"id":26010,"position":6,"audio_url":"wbw/076_023_006.mp3","char_type_name":"word","page_number":579,"line_number":14,"text":"تَنزِيلًۭا","translation":{"text":"নাযিল (অল্প অল্প করে)","language_name":"bengali","language_id":20},"transliteration":{"text":"tanzīlan","language_name":"english","language_id":38}},{"id":26011,"position":7,"audio_url":null,"char_type_name":"end","page_number":579,"line_number":14,"text":"٢٣","translation":{"text":"(২৩)","language_name":"bengali","language_id":20},"transliteration":{"text":null,"language_name":"english","language_id":38}}]},{"id":5615,"verse_number":24,"verse_key":"76:24","hizb_number":58,"rub_el_hizb_number":232,"ruku_number":517,"manzil_number":7,"sajdah_number":null,"page_number":579,"juz_number":29,"words":[{"id":27292,"position":1,"audio_url":"wbw/076_024_001.mp3","char_type_name":"word","page_number":579,"line_number":14,"text":"فَٱصْبِرْ","translation":{"text":"অতএব তুমি সবর কর","language_name":"bengali","language_id":20},"transliteration":{"text":"fa-iṣ'bir","language_name":"english","language_id":38}},{"id":27293,"position":2,"audio_url":"wbw/076_024_002.mp3","char_type_name":"word","page_number":579,"line_number":14,"text":"لِحُكْمِ","translation":{"text":"হুকুমের জন্য","language_name":"bengali","language_id":20},"transliteration":{"text":"liḥuk'mi","language_name":"english","language_id":38}},{"id":27294,"position":3,"audio_url":"wbw/076_024_003.mp3","char_type_name":"word","page_number":579,"line_number":14,"text":"رَبِّكَ","translation":{"text":"তোমার রবের","language_name":"bengali","language_id":20},"transliteration":{"text":"rabbika","language_name":"english","language_id":38}},{"id":27295,"position":4,"audio_url":"wbw/076_024_004.mp3","char_type_name":"word","page_number":579,"line_number":14,"text":"وَلَا","translation":{"text":"এবং না","language_name":"bengali","language_id":20},"transliteration":{"text":"walā","language_name":"english","language_id":38}},{"id":27296,"position":5,"audio_url":"wbw/076_024_005.mp3","char_type_name":"word","page_number":579,"line_number":14,"text":"تُطِعْ","translation":{"text":"তুমি অনুসরন কর","language_name":"bengali","language_id":20},"transliteration":{"text":"tuṭiʿ","language_name":"english","language_id":38}},{"id":27297,"position":6,"audio_url":"wbw/076_024_006.mp3","char_type_name":"word","page_number":579,"line_number":15,"text":"مِنْهُمْ","translation":{"text":"তাদের মধ্যে","language_name":"bengali","language_id":20},"transliteration":{"text":"min'hum","language_name":"english","language_id":38}},{"id":27298,"position":7,"audio_url":"wbw/076_024_007.mp3","char_type_name":"word","page_number":579,"line_number":15,"text":"ءَاثِمًا","translation":{"text":"পাপিষ্ঠ (যারা)","language_name":"bengali","language_id":20},"transliteration":{"text":"āthiman","language_name":"english","language_id":38}},{"id":27299,"position":8,"audio_url":"wbw/076_024_008.mp3","char_type_name":"word","page_number":579,"line_number":15,"text":"أَوْ","translation":{"text":"বা","language_name":"bengali","language_id":20},"transliteration":{"text":"aw","language_name":"english","language_id":38}},{"id":27300,"position":9,"audio_url":"wbw/076_024_009.mp3","char_type_name":"word","page_number":579,"line_number":15,"text":"كَفُورًۭا","translation":{"text":"কাফির","language_name":"bengali","language_id":20},"transliteration":{"text":"kafūran","language_name":"english","language_id":38}},{"id":27301,"position":10,"audio_url":null,"char_type_name":"end","page_number":579,"line_number":15,"text":"٢٤","translation":{"text":"(২৪)","language_name":"bengali","language_id":20},"transliteration":{"text":null,"language_name":"english","language_id":38}}]},{"id":5616,"verse_number":25,"verse_key":"76:25","hizb_number":58,"rub_el_hizb_number":232,"ruku_number":517,"manzil_number":7,"sajdah_number":null,"page_number":579,"juz_number":29,"words":[{"id":28101,"position":1,"audio_url":"wbw/076_025_001.mp3","char_type_name":"word","page_number":579,"line_number":15,"text":"وَٱذْكُرِ","translation":{"text":"এবং স্মরন কর","language_name":"bengali","language_id":20},"transliteration":{"text":"wa-udh'kuri","language_name":"english","language_id":38}},{"id":28102,"position":2,"audio_url":"wbw/076_025_002.mp3","char_type_name":"word","page_number":579,"line_number":15,"text":"ٱسْمَ","translation":{"text":"নামের","language_name":"bengali","language_id":20},"transliteration":{"text":"is'ma","language_name":"english","language_id":38}},{"id":28103,"position":3,"audio_url":"wbw/076_025_003.mp3","char_type_name":"word","page_number":579,"line_number":15,"text":"رَبِّكَ","translation":{"text":"তোমার রবের","language_name":"bengali","language_id":20},"transliteration":{"text":"rabbika","language_name":"english","language_id":38}},{"id":28104,"position":4,"audio_url":"wbw/076_025_004.mp3","char_type_name":"word","page_number":579,"line_number":15,"text":"بُكْرَةًۭ","translation":{"text":"সকাল","language_name":"bengali","language_id":20},"transliteration":{"text":"buk'ratan","language_name":"english","language_id":38}},{"id":28105,"position":5,"audio_url":"wbw/076_025_005.mp3","char_type_name":"word","page_number":579,"line_number":15,"text":"وَأَصِيلًۭا","translation":{"text":"ও সন্ধ্যায়","language_name":"bengali","language_id":20},"transliteration":{"text":"wa-aṣīlan","language_name":"english","language_id":38}},{"id":28106,"position":6,"audio_url":null,"char_type_name":"end","page_number":579,"line_number":15,"text":"٢٥","translation":{"text":"(২৫)","language_name":"bengali","language_id":20},"transliteration":{"text":null,"language_name":"english","language_id":38}}]},{"id":5617,"verse_number":26,"verse_key":"76:26","hizb_number":58,"rub_el_hizb_number":232,"ruku_number":517,"manzil_number":7,"sajdah_number":null,"page_number":580,"juz_number":29,"words":[{"id":29162,"position":1,"audio_url":"wbw/076_026_001.mp3","char_type_name":"word","page_number":580,"line_number":1,"text":"وَمِنَ","translation":{"text":"মধ্য হতে","language_name":"bengali","language_id":20},"transliteration":{"text":"wamina","language_name":"english","language_id":38}},{"id":29163,"position":2,"audio_url":"wbw/076_026_002.mp3","char_type_name":"word","page_number":580,"line_number":1,"text":"ٱلَّيْلِ","translation":{"text":"রাতে","language_name":"bengali","language_id":20},"transliteration":{"text":"al-layli","language_name":"english","language_id":38}},{"id":29164,"position":3,"audio_url":"wbw/076_026_003.mp3","char_type_name":"word","page_number":580,"line_number":1,"text":"فَٱسْجُدْ","translation":{"text":"সিজদা অতঃপর করো","language_name":"bengali","language_id":20},"transliteration":{"text":"fa-us'jud","language_name":"english","language_id":38}},{"id":29165,"position":4,"audio_url":"wbw/076_026_004.mp3","char_type_name":"word","page_number":580,"line_number":1,"text":"لَهُۥ","translation":{"text":"তাকে","language_name":"bengali","language_id":20},"transliteration":{"text":"lahu","language_name":"english","language_id":38}},{"id":29166,"position":5,"audio_url":"wbw/076_026_005.mp3","char_type_name":"word","page_number":580,"line_number":1,"text":"وَسَبِّحْهُ","translation":{"text":"এবং তাঁর তসবিহ কর","language_name":"bengali","language_id":20},"transliteration":{"text":"wasabbiḥ'hu","language_name":"english","language_id":38}},{"id":29167,"position":6,"audio_url":"wbw/076_026_006.mp3","char_type_name":"word","page_number":580,"line_number":1,"text":"لَيْلًۭا","translation":{"text":"রাতে","language_name":"bengali","language_id":20},"transliteration":{"text":"laylan","language_name":"english","language_id":38}},{"id":29168,"position":7,"audio_url":"wbw/076_026_007.mp3","char_type_name":"word","page_number":580,"line_number":1,"text":"طَوِيلًا","translation":{"text":"দীর্ঘ","language_name":"bengali","language_id":20},"transliteration":{"text":"ṭawīlan","language_name":"english","language_id":38}},{"id":29169,"position":8,"audio_url":null,"char_type_name":"end","page_number":580,"line_number":1,"text":"٢٦","translation":{"text":"(২৬)","language_name":"bengali","language_id":20},"transliteration":{"text":null,"language_name":"english","language_id":38}}]},{"id":5618,"verse_number":27,"verse_key":"76:27","hizb_number":58,"rub_el_hizb_number":232,"ruku_number":517,"manzil_number":7,"sajdah_number":null,"page_number":580,"juz_number":29,"words":[{"id":29906,"position":1,"audio_url":"wbw/076_027_001.mp3","char_type_name":"word","page_number":580,"line_number":1,"text":"إِنَّ","translation":{"text":"নিশ্চয়","language_name":"bengali","language_id":20},"transliteration":{"text":"inna","language_name":"english","language_id":38}},{"id":29907,"position":2,"audio_url":"wbw/076_027_002.mp3","char_type_name":"word","page_number":580,"line_number":1,"text":"هَـٰٓؤُلَآءِ","translation":{"text":"ঐসব লোক","language_name":"bengali","language_id":20},"transliteration":{"text":"hāulāi","language_name":"english","language_id":38}},{"id":29908,"position":3,"audio_url":"wbw/076_027_003.mp3","char_type_name":"word","page_number":580,"line_number":2,"text":"يُحِبُّونَ","translation":{"text":"ভালবাসে","language_name":"bengali","language_id":20},"transliteration":{"text":"yuḥibbūna","language_name":"english","language_id":38}},{"id":29909,"position":4,"audio_url":"wbw/076_027_004.mp3","char_type_name":"word","page_number":580,"line_number":2,"text":"ٱلْعَاجِلَةَ","translation":{"text":"দ্রুত অর্জিত ( বৈষয়িক স্বার্থ)","language_name":"bengali","language_id":20},"transliteration":{"text":"l-ʿājilata","language_name":"english","language_id":38}},{"id":29910,"position":5,"audio_url":"wbw/076_027_005.mp3","char_type_name":"word","page_number":580,"line_number":2,"text":"وَيَذَرُونَ","translation":{"text":"এবং তারা উপেক্ষা করে","language_name":"bengali","language_id":20},"transliteration":{"text":"wayadharūna","language_name":"english","language_id":38}},{"id":29911,"position":6,"audio_url":"wbw/076_027_006.mp3","char_type_name":"word","page_number":580,"line_number":2,"text":"وَرَآءَهُمْ","translation":{"text":"তাদের পিছনে","language_name":"bengali","language_id":20},"transliteration":{"text":"warāahum","language_name":"english","language_id":38}},{"id":29912,"position":7,"audio_url":"wbw/076_027_007.mp3","char_type_name":"word","page_number":580,"line_number":2,"text":"يَوْمًۭا","translation":{"text":"দিনকে","language_name":"bengali","language_id":20},"transliteration":{"text":"yawman","language_name":"english","language_id":38}},{"id":29913,"position":8,"audio_url":"wbw/076_027_008.mp3","char_type_name":"word","page_number":580,"line_number":2,"text":"ثَقِيلًۭا","translation":{"text":"ভারী","language_name":"bengali","language_id":20},"transliteration":{"text":"thaqīlan","language_name":"english","language_id":38}},{"id":29914,"position":9,"audio_url":null,"char_type_name":"end","page_number":580,"line_number":2,"text":"٢٧","translation":{"text":"(২৭)","language_name":"bengali","language_id":20},"transliteration":{"text":null,"language_name":"english","language_id":38}}]},{"id":5619,"verse_number":28,"verse_key":"76:28","hizb_number":58,"rub_el_hizb_number":232,"ruku_number":517,"manzil_number":7,"sajdah_number":null,"page_number":580,"juz_number":29,"words":[{"id":31141,"position":1,"audio_url":"wbw/076_028_001.mp3","char_type_name":"word","page_number":580,"line_number":2,"text":"نَّحْنُ","translation":{"text":"আমরা","language_name":"bengali","language_id":20},"transliteration":{"text":"naḥnu","language_name":"english","language_id":38}},{"id":31142,"position":2,"audio_url":"wbw/076_028_002.mp3","char_type_name":"word","page_number":580,"line_number":2,"text":"خَلَقْنَـٰهُمْ","translation":{"text":"তাদের আমরা সৃষ্টি করেছি","language_name":"bengali","language_id":20},"transliteration":{"text":"khalaqnāhum","language_name":"english","language_id":38}},{"id":31143,"position":3,"audio_url":"wbw/076_028_003.mp3","char_type_name":"word","page_number":580,"line_number":3,"text":"وَشَدَدْنَآ","translation":{"text":"এবং আমরা সুদৃঢ় করেছি","language_name":"bengali","language_id":20},"transliteration":{"text":"washadadnā","language_name":"english","language_id":38}},{"id":31144,"position":4,"audio_url":"wbw/076_028_004.mp3","char_type_name":"word","page_number":580,"line_number":3,"text":"أَسْرَهُمْ ۖ","translation":{"text":"তাদের জোড়ন","language_name":"bengali","language_id":20},"transliteration":{"text":"asrahum","language_name":"english","language_id":38}},{"id":31146,"position":5,"audio_url":"wbw/076_028_006.mp3","char_type_name":"word","page_number":580,"line_number":3,"text":"وَإِذَا","translation":{"text":"এবং যখন","language_name":"bengali","language_id":20},"transliteration":{"text":"wa-idhā","language_name":"english","language_id":38}},{"id":31147,"position":6,"audio_url":"wbw/076_028_007.mp3","char_type_name":"word","page_number":580,"line_number":3,"text":"شِئْنَا","translation":{"text":"আমরা চাইবো","language_name":"bengali","language_id":20},"transliteration":{"text":"shi'nā","language_name":"english","language_id":38}},{"id":31148,"position":7,"audio_url":"wbw/076_028_008.mp3","char_type_name":"word","page_number":580,"line_number":3,"text":"بَدَّلْنَآ","translation":{"text":"আমরা বদলে দেবো","language_name":"bengali","language_id":20},"transliteration":{"text":"baddalnā","language_name":"english","language_id":38}},{"id":31149,"position":8,"audio_url":"wbw/076_028_009.mp3","char_type_name":"word","page_number":580,"line_number":3,"text":"أَمْثَـٰلَهُمْ","translation":{"text":"তাদের আকৃতি সমূহ","language_name":"bengali","language_id":20},"transliteration":{"text":"amthālahum","language_name":"english","language_id":38}},{"id":31150,"position":9,"audio_url":"wbw/076_028_010.mp3","char_type_name":"word","page_number":580,"line_number":3,"text":"تَبْدِيلًا","translation":{"text":"পরিবর্তন করে","language_name":"bengali","language_id":20},"transliteration":{"text":"tabdīlan","language_name":"english","language_id":38}},{"id":31151,"position":10,"audio_url":null,"char_type_name":"end","page_number":580,"line_number":3,"text":"٢٨","translation":{"text":"(২৮)","language_name":"bengali","language_id":20},"transliteration":{"text":null,"language_name":"english","language_id":38}}]},{"id":5620,"verse_number":29,"verse_key":"76:29","hizb_number":58,"rub_el_hizb_number":232,"ruku_number":517,"manzil_number":7,"sajdah_number":null,"page_number":580,"juz_number":29,"words":[{"id":31985,"position":1,"audio_url":"wbw/076_029_001.mp3","char_type_name":"word","page_number":580,"line_number":3,"text":"إِنَّ","translation":{"text":"নিশ্চয়","language_name":"bengali","language_id":20},"transliteration":{"text":"inna","language_name":"english","language_id":38}},{"id":31986,"position":2,"audio_url":"wbw/076_029_002.mp3","char_type_name":"word","page_number":580,"line_number":4,"text":"هَـٰذِهِۦ","translation":{"text":"এটা","language_name":"bengali","language_id":20},"transliteration":{"text":"hādhihi","language_name":"english","language_id":38}},{"id":31987,"position":3,"audio_url":"wbw/076_029_003.mp3","char_type_name":"word","page_number":580,"line_number":4,"text":"تَذْكِرَةٌۭ ۖ","translation":{"text":"নসীহত","language_name":"bengali","language_id":20},"transliteration":{"text":"tadhkiratun","language_name":"english","language_id":38}},{"id":31989,"position":4,"audio_url":"wbw/076_029_005.mp3","char_type_name":"word","page_number":580,"line_number":4,"text":"فَمَن","translation":{"text":"যে অতএব","language_name":"bengali","language_id":20},"transliteration":{"text":"faman","language_name":"english","language_id":38}},{"id":31990,"position":5,"audio_url":"wbw/076_029_006.mp3","char_type_name":"word","page_number":580,"line_number":4,"text":"شَآءَ","translation":{"text":"চায়","language_name":"bengali","language_id":20},"transliteration":{"text":"shāa","language_name":"english","language_id":38}},{"id":31991,"position":6,"audio_url":"wbw/076_029_007.mp3","char_type_name":"word","page_number":580,"line_number":4,"text":"ٱتَّخَذَ","translation":{"text":"গ্রহন করবে","language_name":"bengali","language_id":20},"transliteration":{"text":"ittakhadha","language_name":"english","language_id":38}},{"id":31992,"position":7,"audio_url":"wbw/076_029_008.mp3","char_type_name":"word","page_number":580,"line_number":4,"text":"إِلَىٰ","translation":{"text":"দিকে","language_name":"bengali","language_id":20},"transliteration":{"text":"ilā","language_name":"english","language_id":38}},{"id":31993,"position":8,"audio_url":"wbw/076_029_009.mp3","char_type_name":"word","page_number":580,"line_number":4,"text":"رَبِّهِۦ","translation":{"text":"তার রবের","language_name":"bengali","language_id":20},"transliteration":{"text":"rabbihi","language_name":"english","language_id":38}},{"id":31994,"position":9,"audio_url":"wbw/076_029_010.mp3","char_type_name":"word","page_number":580,"line_number":4,"text":"سَبِيلًۭا","translation":{"text":"পথ","language_name":"bengali","language_id":20},"transliteration":{"text":"sabīlan","language_name":"english","language_id":38}},{"id":31995,"position":10,"audio_url":null,"char_type_name":"end","page_number":580,"line_number":4,"text":"٢٩","translation":{"text":"(২৯)","language_name":"bengali","language_id":20},"transliteration":{"text":null,"language_name":"english","language_id":38}}]},{"id":5621,"verse_number":30,"verse_key":"76:30","hizb_number":58,"rub_el_hizb_number":232,"ruku_number":517,"manzil_number":7,"sajdah_number":null,"page_number":580,"juz_number":29,"words":[{"id":32874,"position":1,"audio_url":"wbw/076_030_001.mp3","char_type_name":"word","page_number":580,"line_number":4,"text":"وَمَا","translation":{"text":"এবং না","language_name":"bengali","language_id":20},"transliteration":{"text":"wamā","language_name":"english","language_id":38}},{"id":32875,"position":2,"audio_url":"wbw/076_030_002.mp3","char_type_name":"word","page_number":580,"line_number":4,"text":"تَشَآءُونَ","translation":{"text":"তোমরা চাও","language_name":"bengali","language_id":20},"transliteration":{"text":"tashāūna","language_name":"english","language_id":38}},{"id":32876,"position":3,"audio_url":"wbw/076_030_003.mp3","char_type_name":"word","page_number":580,"line_number":5,"text":"إِلَّآ","translation":{"text":"এছাড়া","language_name":"bengali","language_id":20},"transliteration":{"text":"illā","language_name":"english","language_id":38}},{"id":32877,"position":4,"audio_url":"wbw/076_030_004.mp3","char_type_name":"word","page_number":580,"line_number":5,"text":"أَن","translation":{"text":"যে","language_name":"bengali","language_id":20},"transliteration":{"text":"an","language_name":"english","language_id":38}},{"id":32878,"position":5,"audio_url":"wbw/076_030_005.mp3","char_type_name":"word","page_number":580,"line_number":5,"text":"يَشَآءَ","translation":{"text":"চান","language_name":"bengali","language_id":20},"transliteration":{"text":"yashāa","language_name":"english","language_id":38}},{"id":32879,"position":6,"audio_url":"wbw/076_030_006.mp3","char_type_name":"word","page_number":580,"line_number":5,"text":"ٱللَّهُ ۚ","translation":{"text":"আল্লাহ","language_name":"bengali","language_id":20},"transliteration":{"text":"l-lahu","language_name":"english","language_id":38}},{"id":32881,"position":7,"audio_url":"wbw/076_030_008.mp3","char_type_name":"word","page_number":580,"line_number":5,"text":"إِنَّ","translation":{"text":"নিশ্চয়","language_name":"bengali","language_id":20},"transliteration":{"text":"inna","language_name":"english","language_id":38}},{"id":32882,"position":8,"audio_url":"wbw/076_030_009.mp3","char_type_name":"word","page_number":580,"line_number":5,"text":"ٱللَّهَ","translation":{"text":"আল্লাহ","language_name":"bengali","language_id":20},"transliteration":{"text":"l-laha","language_name":"english","language_id":38}},{"id":32883,"position":9,"audio_url":"wbw/076_030_010.mp3","char_type_name":"word","page_number":580,"line_number":5,"text":"كَانَ","translation":{"text":"হলেন","language_name":"bengali","language_id":20},"transliteration":{"text":"kāna","language_name":"english","language_id":38}},{"id":32884,"position":10,"audio_url":"wbw/076_030_011.mp3","char_type_name":"word","page_number":580,"line_number":5,"text":"عَلِيمًا","translation":{"text":"সর্বজ্ঞ","language_name":"bengali","language_id":20},"transliteration":{"text":"ʿalīman","language_name":"english","language_id":38}},{"id":32885,"position":11,"audio_url":"wbw/076_030_012.mp3","char_type_name":"word","page_number":580,"line_number":5,"text":"حَكِيمًۭا","translation":{"text":"প্রজ্ঞাময়","language_name":"bengali","language_id":20},"transliteration":{"text":"ḥakīman","language_name":"english","language_id":38}},{"id":32886,"position":12,"audio_url":null,"char_type_name":"end","page_number":580,"line_number":5,"text":"٣٠","translation":{"text":"(৩০)","language_name":"bengali","language_id":20},"transliteration":{"text":null,"language_name":"english","language_id":38}}]}],"pagination":{"per_page":10,"current_page":3,"next_page":4,"total_pages":4,"total_records":31}}
