{"verses":[{"id":5622,"verse_number":31,"verse_key":"76:31","hizb_number":58,"rub_el_hizb_number":232,"ruku_number":517,"manzil_number":7,"sajdah_number":null,"page_number":580,"juz_number":29,"words":[{"id":33277,"position":1,"audio_url":"wbw/076_031_001.mp3","char_type_name":"word","page_number":580,"line_number":5,"text":"يُدْخِلُ","translation":{"text":"প্রবেশ করান","language_name":"bengali","language_id":20},"transliteration":{"text":"yud'khilu","language_name":"english","language_id":38}},{"id":33278,"position":2,"audio_url":"wbw/076_031_002.mp3","char_type_name":"word","page_number":580,"line_number":6,"text":"مَن","translation":{"text":"যাকে","language_name":"bengali","language_id":20},"transliteration":{"text":"man","language_name":"english","language_id":38}},{"id":33279,"position":3,"audio_url":"wbw/076_031_003.mp3","char_type_name":"word","page_number":580,"line_number":6,"text":"يَشَآءُ","translation":{"text":"তিনি চান","language_name":"bengali","language_id":20},"transliteration":{"text":"yashāu","language_name":"english","language_id":38}},{"id":33280,"position":4,"audio_url":"wbw/076_031_004.mp3","char_type_name":"word","page_number":580,"line_number":6,"text":"فِى","translation":{"text":"মধ্যে","language_name":"bengali","language_id":20},"transliteration":{"text":"fī","language_name":"english","language_id":38}},{"id":33281,"position":5,"audio_url":"wbw/076_031_005.mp3","char_type_name":"word","page_number":580,"line_number":6,"text":"رَحْمَتِهِۦ ۚ","translation":{"text":"তাঁর রহমতের","language_name":"bengali","language_id":20},"transliteration":{"text":"raḥmatihi","language_name":"english","language_id":38}},{"id":33283,"position":6,"audio_url":"wbw/076_031_007.mp3","char_type_name":"word","page_number":580,"line_number":6,"text":"وَٱلظَّـٰلِمِينَ","translation":{"text":"এবং যালেমদের","language_name":"bengali","language_id":20},"transliteration":{"text":"wal-ẓālimīna","language_name":"english","language_id":38}},{"id":33284,"position":7,"audio_url":"wbw/076_031_008.mp3","char_type_name":"word","page_number":580,"line_number":6,"text":"أَعَدَّ","translation":{"text":"প্রস্তুত রেখেছেন","language_name":"bengali","language_id":20},"transliteration":{"text":"aʿadda","language_name":"english","language_id":38}},{"id":33285,"position":8,"audio_url":"wbw/076_031_009.mp3","char_type_name":"word","page_number":580,"line_number":6,"text":"لَهُمْ","translation":{"text":"তাদের জন্যে","language_name":"bengali","language_id":20},"transliteration":{"text":"lahum","language_name":"english","language_id":38}},{"id":33286,"position":9,"audio_url":"wbw/076_031_010.mp3","char_type_name":"word","page_number":580,"line_number":6,"text":"عَذَابًا","translation":{"text":"আযাব","language_name":"bengali","language_id":20},"transliteration":{"text":"ʿadhāban","language_name":"english","language_id":38}},{"id":33287,"position":10,"audio_url":"wbw/076_031_011.mp3","char_type_name":"word","page_number":580,"line_number":6,"text":"أَلِيمًۢا","translation":{"text":"বড় পীড়াদায়ক","language_name":"bengali","language_id":20},"transliteration":{"text":"alīman","language_name":"english","language_id":38}},{"id":33288,"position":11,"audio_url":null,"char_type_name":"end","page_number":580,"line_number":6,"text":"٣١","translation":{"text":"(৩১)","language_name":"bengali","language_id":20},"transliteration":{"text":null,"language_name":"english","language_id":38}}]}],"pagination":{"per_page":10,"current_page":4,"next_page":null,"total_pages":4,"total_records":31}}
