{"verses":[{"id":1801,"verse_number":51,"verse_key":"14:51","hizb_number":26,"rub_el_hizb_number":104,"ruku_number":217,"manzil_number":3,"sajdah_number":null,"page_number":261,"juz_number":13,"words":[{"id":49564,"position":1,"audio_url":"wbw/014_051_001.mp3","verse_key":"14:51","verse_id":1801,"location":"14:51:1","text_uthmani":"لِيَجْزِىَ","qpc_uthmani_hafs":"لِيَجۡزِيَ","char_type_name":"word","page_number":261,"line_number":13,"text":"لِيَجۡزِيَ","translation":{"text":"So that Allah may recompense","language_name":"english","language_id":38},"transliteration":{"text":"liyajziya","language_name":"english","language_id":38}},{"id":49565,"position":2,"audio_url":"wbw/014_051_002.mp3","verse_key":"14:51","verse_id":1801,"location":"14:51:2","text_uthmani":"ٱللَّهُ","qpc_uthmani_hafs":"ٱللَّهُ","char_type_name":"word","page_number":261,"line_number":13,"text":"ٱللَّهُ","translation":{"text":"So that Allah may recompense","language_name":"english","language_id":38},"transliteration":{"text":"l-lahu","language_name":"english","language_id":38}},{"id":49566,"position":3,"audio_url":"wbw/014_051_003.mp3","verse_key":"14:51","verse_id":1801,"location":"14:51:3","text_uthmani":"كُلَّ","qpc_uthmani_hafs":"كُلَّ","char_type_name":"word","page_number":261,"line_number":13,"text":"كُلَّ","translation":{"text":"each","language_name":"english","language_id":38},"transliteration":{"text":"kulla","language_name":"english","language_id":38}},{"id":49567,"position":4,"audio_url":"wbw/014_051_004.mp3","verse_key":"14:51","verse_id":1801,"location":"14:51:4","text_uthmani":"نَفْسٍۢ","qpc_uthmani_hafs":"نَفۡسٖ","char_type_name":"word","page_number":261,"line_number":13,"text":"نَفۡسٖ","translation":{"text":"soul","language_name":"english","language_id":38},"transliteration":{"text":"nafsin","language_name":"english","language_id":38}},{"id":49568,"position":5,"audio_url":"wbw/014_051_005.mp3","verse_key":"14:51","verse_id":1801,"location":"14:51:5","text_uthmani":"مَّا","qpc_uthmani_hafs":"مَّا","char_type_name":"word","page_number":261,"line_number":13,"text":"مَّا","translation":{"text":"(for) what","language_name":"english","language_id":38},"transliteration":{"text":"mā","language_name":"english","language_id":38}},{"id":49569,"position":6,"audio_url":"wbw/014_051_006.mp3","verse_key":"14:51","verse_id":1801,"location":"14:51:6","text_uthmani":"كَسَبَتْ ۚ","qpc_uthmani_hafs":"كَسَبَتۡۚ","char_type_name":"word","page_number":261,"line_number":13,"text":"كَسَبَتۡۚ","translation":{"text":"it earned","language_name":"english","language_id":38},"transliteration":{"text":"kasabat","language_name":"english","language_id":38}},{"id":49571,"position":7,"audio_url":"wbw/014_051_008.mp3","verse_key":"14:51","verse_id":1801,"location":"14:51:7","text_uthmani":"إِنَّ","qpc_uthmani_hafs":"إِنَّ","char_type_name":"word","page_number":261,"line_number":14,"text":"إِنَّ","translation":{"text":"Indeed","language_name":"english","language_id":38},"transliteration":{"text":"inna","language_name":"english","language_id":38}},{"id":49572,"position":8,"audio_url":"wbw/014_051_009.mp3","verse_key":"14:51","verse_id":1801,"location":"14:51:8","text_uthmani":"ٱللَّهَ","qpc_uthmani_hafs":"ٱللَّهَ","char_type_name":"word","page_number":261,"line_number":14,"text":"ٱللَّهَ","translation":{"text":"Allah","language_name":"english","language_id":38},"transliteration":{"text":"l-laha","language_name":"english","language_id":38}},{"id":49573,"position":9,"audio_url":"wbw/014_051_010.mp3","verse_key":"14:51","verse_id":1801,"location":"14:51:9","text_uthmani":"سَرِيعُ","qpc_uthmani_hafs":"سَرِيعُ","char_type_name":"word","page_number":261,"line_number":14,"text":"سَرِيعُ","translation":{"text":"(is) Swift","language_name":"english","language_id":38},"transliteration":{"text":"sarīʿu","language_name":"english","language_id":38}},{"id":49574,"position":10,"audio_url":"wbw/014_051_011.mp3","verse_key":"14:51","verse_id":1801,"location":"14:51:10","text_uthmani":"ٱلْحِسَابِ","qpc_uthmani_hafs":"ٱلۡحِسَابِ","char_type_name":"word","page_number":261,"line_number":14,"text":"ٱلۡحِسَابِ","translation":{"text":"(in) the reckoning","language_name":"english","language_id":38},"transliteration":{"text":"l-ḥisābi","language_name":"english","language_id":38}},{"id":49575,"position":11,"audio_url":null,"verse_key":"14:51","verse_id":1801,"location":"14:51:11","text_uthmani":"٥١","qpc_uthmani_hafs":"٥١","char_type_name":"end","page_number":261,"line_number":14,"text":"٥١","translation":{"text":"(51)","language_name":"english","language_id":38},"transliteration":{"text":null,"language_name":"english","language_id":38}}]},{"id":1802,"verse_number":52,"verse_key":"14:52","hizb_number":26,"rub_el_hizb_number":104,"ruku_number":217,"manzil_number":3,"sajdah_number":null,"page_number":261,"juz_number":13,"words":[{"id":50238,"position":1,"audio_url":"wbw/014_052_001.mp3","verse_key":"14:52","verse_id":1802,"location":"14:52:1","text_uthmani":"هَـٰذَا","qpc_uthmani_hafs":"هَٰذَا","char_type_name":"word","page_number":261,"line_number":14,"text":"هَٰذَا","translation":{"text":"This","language_name":"english","language_id":38},"transliteration":{"text":"hādhā","language_name":"english","language_id":38}},{"id":50239,"position":2,"audio_url":"wbw/014_052_002.mp3","verse_key":"14:52","verse_id":1802,"location":"14:52:2","text_uthmani":"بَلَـٰغٌۭ","qpc_uthmani_hafs":"بَلَٰغٞ","char_type_name":"word","page_number":261,"line_number":14,"text":"بَلَٰغٞ","translation":{"text":"(is) a Message","language_name":"english","language_id":38},"transliteration":{"text":"balāghun","language_name":"english","language_id":38}},{"id":50240,"position":3,"audio_url":"wbw/014_052_003.mp3","verse_key":"14:52","verse_id":1802,"location":"14:52:3","text_uthmani":"لِّلنَّاسِ","qpc_uthmani_hafs":"لِّلنَّاسِ","char_type_name":"word","page_number":261,"line_number":14,"text":"لِّلنَّاسِ","translation":{"text":"for the mankind","language_name":"english","language_id":38},"transliteration":{"text":"lilnnāsi","language_name":"english","language_id":38}},{"id":50241,"position":4,"audio_url":"wbw/014_052_004.mp3","verse_key":"14:52","verse_id":1802,"location":"14:52:4","text_uthmani":"وَلِيُنذَرُوا۟","qpc_uthmani_hafs":"وَلِيُنذَرُواْ","char_type_name":"word","page_number":261,"line_number":14,"text":"وَلِيُنذَرُواْ","translation":{"text":"that they may be warned","language_name":"english","language_id":38},"transliteration":{"text":"waliyundharū","language_name":"english","language_id":38}},{"id":50242,"position":5,"audio_url":"wbw/014_052_005.mp3","verse_key":"14:52","verse_id":1802,"location":"14:52:5","text_uthmani":"بِهِۦ","qpc_uthmani_hafs":"بِهِۦ","char_type_name":"word","page_number":261,"line_number":14,"text":"بِهِۦ","translation":{"text":"with it","language_name":"english","language_id":38},"transliteration":{"text":"bihi","language_name":"english","language_id":38}},{"id":50243,"position":6,"audio_url":"wbw/014_052_006.mp3","verse_key":"14:52","verse_id":1802,"location":"14:52:6","text_uthmani":"وَلِيَعْلَمُوٓا۟","qpc_uthmani_hafs":"وَلِيَعۡلَمُوٓاْ","char_type_name":"word","page_number":261,"line_number":15,"text":"وَلِيَعۡلَمُوٓاْ","translation":{"text":"and that they may know","language_name":"english","language_id":38},"transliteration":{"text":"waliyaʿlamū","language_name":"english","language_id":38}},{"id":50244,"position":7,"audio_url":"wbw/014_052_007.mp3","verse_key":"14:52","verse_id":1802,"location":"14:52:7","text_uthmani":"أَنَّمَا","qpc_uthmani_hafs":"أَنَّمَا","char_type_name":"word","page_number":261,"line_number":15,"text":"أَنَّمَا","translation":{"text":"that only","language_name":"english","language_id":38},"transliteration":{"text":"annamā","language_name":"english","language_id":38}},{"id":50245,"position":8,"audio_url":"wbw/014_052_008.mp3","verse_key":"14:52","verse_id":1802,"location":"14:52:8","text_uthmani":"هُوَ","qpc_uthmani_hafs":"هُوَ","char_type_name":"word","page_number":261,"line_number":15,"text":"هُوَ","translation":{"text":"He","language_name":"english","language_id":38},"transliteration":{"text":"huwa","language_name":"english","language_id":38}},{"id":50246,"position":9,"audio_url":"wbw/014_052_009.mp3","verse_key":"14:52","verse_id":1802,"location":"14:52:9","text_uthmani":"إِلَـٰهٌۭ","qpc_uthmani_hafs":"إِلَٰهٞ","char_type_name":"word","page_number":261,"line_number":15,"text":"إِلَٰهٞ","translation":{"text":"(is) One God","language_name":"english","language_id":38},"transliteration":{"text":"ilāhun","language_name":"english","language_id":38}},{"id":50247,"position":10,"audio_url":"wbw/014_052_010.mp3","verse_key":"14:52","verse_id":1802,"location":"14:52:10","text_uthmani":"وَٰحِدٌۭ","qpc_uthmani_hafs":"وَٰحِدٞ","char_type_name":"word","page_number":261,"line_number":15,"text":"وَٰحِدٞ","translation":{"text":"(is) One God","language_name":"english","language_id":38},"transliteration":{"text":"wāḥidun","language_name":"english","language_id":38}},{"id":50248,"position":11,"audio_url":"wbw/014_052_011.mp3","verse_key":"14:52","verse_id":1802,"location":"14:52:11","text_uthmani":"وَلِيَذَّكَّرَ","qpc_uthmani_hafs":"وَلِيَذَّكَّرَ","char_type_name":"word","page_number":261,"line_number":15,"text":"وَلِيَذَّكَّرَ","translation":{"text":"and that may take heed","language_name":"english","language_id":38},"transliteration":{"text":"waliyadhakkara","language_name":"english","language_id":38}},{"id":50249,"position":12,"audio_url":"wbw/014_052_012.mp3","verse_key":"14:52","verse_id":1802,"location":"14:52:12","text_uthmani":"أُو۟لُوا۟","qpc_uthmani_hafs":"أُوْلُواْ","char_type_name":"word","page_number":261,"line_number":15,"text":"أُوْلُواْ","translation":{"text":"men","language_name":"english","language_id":38},"transliteration":{"text":"ulū","language_name":"english","language_id":38}},{"id":50250,"position":13,"audio_url":"wbw/014_052_013.mp3","verse_key":"14:52","verse_id":1802,"location":"14:52:13","text_uthmani":"ٱلْأَلْبَـٰبِ","qpc_uthmani_hafs":"ٱلۡأَلۡبَٰبِ","char_type_name":"word","page_number":261,"line_number":15,"text":"ٱلۡأَلۡبَٰبِ","translation":{"text":"(of) understanding","language_name":"english","language_id":38},"transliteration":{"text":"l-albābi","language_name":"english","language_id":38}},{"id":50251,"position":14,"audio_url":null,"verse_key":"14:52","verse_id":1802,"location":"14:52:14","text_uthmani":"٥٢","qpc_uthmani_hafs":"٥٢","char_type_name":"end","page_number":261,"line_number":15,"text":"٥٢","translation":{"text":"(52)","language_name":"english","language_id":38},"transliteration":{"text":null,"language_name":"english","language_id":38}}]}],"pagination":{"per_page":10,"current_page":6,"next_page":null,"total_pages":6,"total_records":52}}
