{"verses":[{"id":6080,"verse_number":1,"verse_key":"93:1","hizb_number":60,"rub_el_hizb_number":238,"ruku_number":537,"manzil_number":7,"sajdah_number":null,"page_number":596,"juz_number":30,"words":[{"id":70,"position":1,"audio_url":"wbw/093_001_001.mp3","verse_key":"93:1","verse_id":6080,"location":"93:1:1","text_uthmani":"وَٱلضُّحَىٰ","qpc_uthmani_hafs":"وَٱلضُّحَىٰ","char_type_name":"word","page_number":596,"line_number":8,"text":"وَٱلضُّحَىٰ","translation":{"text":"শপথ প্রথম প্রহরের","language_name":"bengali","language_id":20},"transliteration":{"text":"wal-ḍuḥā","language_name":"english","language_id":38}},{"id":71,"position":2,"audio_url":null,"verse_key":"93:1","verse_id":6080,"location":"93:1:2","text_uthmani":"١","qpc_uthmani_hafs":"١","char_type_name":"end","page_number":596,"line_number":8,"text":"١","translation":{"text":"(১)","language_name":"bengali","language_id":20},"transliteration":{"text":null,"language_name":"english","language_id":38}}]},{"id":6081,"verse_number":2,"verse_key":"93:2","hizb_number":60,"rub_el_hizb_number":238,"ruku_number":537,"manzil_number":7,"sajdah_number":null,"page_number":596,"juz_number":30,"words":[{"id":1191,"position":1,"audio_url":"wbw/093_002_001.mp3","verse_key":"93:2","verse_id":6081,"location":"93:2:1","text_uthmani":"وَٱلَّيْلِ","qpc_uthmani_hafs":"وَٱلَّيۡلِ","char_type_name":"word","page_number":596,"line_number":8,"text":"وَٱلَّيۡلِ","translation":{"text":"শপথ রাতের","language_name":"bengali","language_id":20},"transliteration":{"text":"wa-al-layli","language_name":"english","language_id":38}},{"id":1192,"position":2,"audio_url":"wbw/093_002_002.mp3","verse_key":"93:2","verse_id":6081,"location":"93:2:2","text_uthmani":"إِذَا","qpc_uthmani_hafs":"إِذَا","char_type_name":"word","page_number":596,"line_number":8,"text":"إِذَا","translation":{"text":"যখন","language_name":"bengali","language_id":20},"transliteration":{"text":"idhā","language_name":"english","language_id":38}},{"id":1193,"position":3,"audio_url":"wbw/093_002_003.mp3","verse_key":"93:2","verse_id":6081,"location":"93:2:3","text_uthmani":"سَجَىٰ","qpc_uthmani_hafs":"سَجَىٰ","char_type_name":"word","page_number":596,"line_number":8,"text":"سَجَىٰ","translation":{"text":"নিঝুম হয়","language_name":"bengali","language_id":20},"transliteration":{"text":"sajā","language_name":"english","language_id":38}},{"id":1194,"position":4,"audio_url":null,"verse_key":"93:2","verse_id":6081,"location":"93:2:4","text_uthmani":"٢","qpc_uthmani_hafs":"٢","char_type_name":"end","page_number":596,"line_number":8,"text":"٢","translation":{"text":"(২)","language_name":"bengali","language_id":20},"transliteration":{"text":null,"language_name":"english","language_id":38}}]},{"id":6082,"verse_number":3,"verse_key":"93:3","hizb_number":60,"rub_el_hizb_number":238,"ruku_number":537,"manzil_number":7,"sajdah_number":null,"page_number":596,"juz_number":30,"words":[{"id":2251,"position":1,"audio_url":"wbw/093_003_001.mp3","verse_key":"93:3","verse_id":6082,"location":"93:3:1","text_uthmani":"مَا","qpc_uthmani_hafs":"مَا","char_type_name":"word","page_number":596,"line_number":8,"text":"مَا","translation":{"text":"না","language_name":"bengali","language_id":20},"transliteration":{"text":"mā","language_name":"english","language_id":38}},{"id":2252,"position":2,"audio_url":"wbw/093_003_002.mp3","verse_key":"93:3","verse_id":6082,"location":"93:3:2","text_uthmani":"وَدَّعَكَ","qpc_uthmani_hafs":"وَدَّعَكَ","char_type_name":"word","page_number":596,"line_number":8,"text":"وَدَّعَكَ","translation":{"text":"তোমাকে ত্যাগ করেছেন","language_name":"bengali","language_id":20},"transliteration":{"text":"waddaʿaka","language_name":"english","language_id":38}},{"id":2253,"position":3,"audio_url":"wbw/093_003_003.mp3","verse_key":"93:3","verse_id":6082,"location":"93:3:3","text_uthmani":"رَبُّكَ","qpc_uthmani_hafs":"رَبُّكَ","char_type_name":"word","page_number":596,"line_number":8,"text":"رَبُّكَ","translation":{"text":"তোমার রব","language_name":"bengali","language_id":20},"transliteration":{"text":"rabbuka","language_name":"english","language_id":38}},{"id":2254,"position":4,"audio_url":"wbw/093_003_004.mp3","verse_key":"93:3","verse_id":6082,"location":"93:3:4","text_uthmani":"وَمَا","qpc_uthmani_hafs":"وَمَا","char_type_name":"word","page_number":596,"line_number":8,"text":"وَمَا","translation":{"text":"আর না","language_name":"bengali","language_id":20},"transliteration":{"text":"wamā","language_name":"english","language_id":38}},{"id":2255,"position":5,"audio_url":"wbw/093_003_005.mp3","verse_key":"93:3","verse_id":6082,"location":"93:3:5","text_uthmani":"قَلَىٰ","qpc_uthmani_hafs":"قَلَىٰ","char_type_name":"word","page_number":596,"line_number":8,"text":"قَلَىٰ","translation":{"text":"অসন্তুষ্ট হয়েছেন","language_name":"bengali","language_id":20},"transliteration":{"text":"qalā","language_name":"english","language_id":38}},{"id":2256,"position":6,"audio_url":null,"verse_key":"93:3","verse_id":6082,"location":"93:3:6","text_uthmani":"٣","qpc_uthmani_hafs":"٣","char_type_name":"end","page_number":596,"line_number":8,"text":"٣","translation":{"text":"(৩)","language_name":"bengali","language_id":20},"transliteration":{"text":null,"language_name":"english","language_id":38}}]},{"id":6083,"verse_number":4,"verse_key":"93:4","hizb_number":60,"rub_el_hizb_number":238,"ruku_number":537,"manzil_number":7,"sajdah_number":null,"page_number":596,"juz_number":30,"words":[{"id":3555,"position":1,"audio_url":"wbw/093_004_001.mp3","verse_key":"93:4","verse_id":6083,"location":"93:4:1","text_uthmani":"وَلَلْـَٔاخِرَةُ","qpc_uthmani_hafs":"وَلَلۡأٓخِرَةُ","char_type_name":"word","page_number":596,"line_number":9,"text":"وَلَلۡأٓخِرَةُ","translation":{"text":"এবং পরবর্তী (পরকাল) নিশ্চয়ই","language_name":"bengali","language_id":20},"transliteration":{"text":"walalākhiratu","language_name":"english","language_id":38}},{"id":3556,"position":2,"audio_url":"wbw/093_004_002.mp3","verse_key":"93:4","verse_id":6083,"location":"93:4:2","text_uthmani":"خَيْرٌۭ","qpc_uthmani_hafs":"خَيۡرٞ","char_type_name":"word","page_number":596,"line_number":9,"text":"خَيۡرٞ","translation":{"text":"উত্তম","language_name":"bengali","language_id":20},"transliteration":{"text":"khayrun","language_name":"english","language_id":38}},{"id":3557,"position":3,"audio_url":"wbw/093_004_003.mp3","verse_key":"93:4","verse_id":6083,"location":"93:4:3","text_uthmani":"لَّكَ","qpc_uthmani_hafs":"لَّكَ","char_type_name":"word","page_number":596,"line_number":9,"text":"لَّكَ","translation":{"text":"তোমার জন্য","language_name":"bengali","language_id":20},"transliteration":{"text":"laka","language_name":"english","language_id":38}},{"id":3558,"position":4,"audio_url":"wbw/093_004_004.mp3","verse_key":"93:4","verse_id":6083,"location":"93:4:4","text_uthmani":"مِنَ","qpc_uthmani_hafs":"مِنَ","char_type_name":"word","page_number":596,"line_number":9,"text":"مِنَ","translation":{"text":"অপেক্ষা (সময়)","language_name":"bengali","language_id":20},"transliteration":{"text":"mina","language_name":"english","language_id":38}},{"id":3559,"position":5,"audio_url":"wbw/093_004_005.mp3","verse_key":"93:4","verse_id":6083,"location":"93:4:5","text_uthmani":"ٱلْأُولَىٰ","qpc_uthmani_hafs":"ٱلۡأُولَىٰ","char_type_name":"word","page_number":596,"line_number":9,"text":"ٱلۡأُولَىٰ","translation":{"text":"পূর্ববর্তী (ইহকাল)","language_name":"bengali","language_id":20},"transliteration":{"text":"l-ūlā","language_name":"english","language_id":38}},{"id":3560,"position":6,"audio_url":null,"verse_key":"93:4","verse_id":6083,"location":"93:4:6","text_uthmani":"٤","qpc_uthmani_hafs":"٤","char_type_name":"end","page_number":596,"line_number":9,"text":"٤","translation":{"text":"(৪)","language_name":"bengali","language_id":20},"transliteration":{"text":null,"language_name":"english","language_id":38}}]},{"id":6084,"verse_number":5,"verse_key":"93:5","hizb_number":60,"rub_el_hizb_number":238,"ruku_number":537,"manzil_number":7,"sajdah_number":null,"page_number":596,"juz_number":30,"words":[{"id":4814,"position":1,"audio_url":"wbw/093_005_001.mp3","verse_key":"93:5","verse_id":6084,"location":"93:5:1","text_uthmani":"وَلَسَوْفَ","qpc_uthmani_hafs":"وَلَسَوۡفَ","char_type_name":"word","page_number":596,"line_number":9,"text":"وَلَسَوۡفَ","translation":{"text":"এবং শীঘ্রই অবশ্য","language_name":"bengali","language_id":20},"transliteration":{"text":"walasawfa","language_name":"english","language_id":38}},{"id":4815,"position":2,"audio_url":"wbw/093_005_002.mp3","verse_key":"93:5","verse_id":6084,"location":"93:5:2","text_uthmani":"يُعْطِيكَ","qpc_uthmani_hafs":"يُعۡطِيكَ","char_type_name":"word","page_number":596,"line_number":9,"text":"يُعۡطِيكَ","translation":{"text":"তোমাকে দান করবেন","language_name":"bengali","language_id":20},"transliteration":{"text":"yuʿ'ṭīka","language_name":"english","language_id":38}},{"id":4816,"position":3,"audio_url":"wbw/093_005_003.mp3","verse_key":"93:5","verse_id":6084,"location":"93:5:3","text_uthmani":"رَبُّكَ","qpc_uthmani_hafs":"رَبُّكَ","char_type_name":"word","page_number":596,"line_number":9,"text":"رَبُّكَ","translation":{"text":"তোমার রব","language_name":"bengali","language_id":20},"transliteration":{"text":"rabbuka","language_name":"english","language_id":38}},{"id":4817,"position":4,"audio_url":"wbw/093_005_004.mp3","verse_key":"93:5","verse_id":6084,"location":"93:5:4","text_uthmani":"فَتَرْضَىٰٓ","qpc_uthmani_hafs":"فَتَرۡضَىٰٓ","char_type_name":"word","page_number":596,"line_number":10,"text":"فَتَرۡضَىٰٓ","translation":{"text":"ফলে তুমি খুশী হবে","language_name":"bengali","language_id":20},"transliteration":{"text":"fatarḍā","language_name":"english","language_id":38}},{"id":4818,"position":5,"audio_url":null,"verse_key":"93:5","verse_id":6084,"location":"93:5:5","text_uthmani":"٥","qpc_uthmani_hafs":"٥","char_type_name":"end","page_number":596,"line_number":10,"text":"٥","translation":{"text":"(৫)","language_name":"bengali","language_id":20},"transliteration":{"text":null,"language_name":"english","language_id":38}}]},{"id":6085,"verse_number":6,"verse_key":"93:6","hizb_number":60,"rub_el_hizb_number":238,"ruku_number":537,"manzil_number":7,"sajdah_number":null,"page_number":596,"juz_number":30,"words":[{"id":5889,"position":1,"audio_url":"wbw/093_006_001.mp3","verse_key":"93:6","verse_id":6085,"location":"93:6:1","text_uthmani":"أَلَمْ","qpc_uthmani_hafs":"أَلَمۡ","char_type_name":"word","page_number":596,"line_number":10,"text":"أَلَمۡ","translation":{"text":"পান নি কি","language_name":"bengali","language_id":20},"transliteration":{"text":"alam","language_name":"english","language_id":38}},{"id":5890,"position":2,"audio_url":"wbw/093_006_002.mp3","verse_key":"93:6","verse_id":6085,"location":"93:6:2","text_uthmani":"يَجِدْكَ","qpc_uthmani_hafs":"يَجِدۡكَ","char_type_name":"word","page_number":596,"line_number":10,"text":"يَجِدۡكَ","translation":{"text":"তিনি তোমাকে","language_name":"bengali","language_id":20},"transliteration":{"text":"yajid'ka","language_name":"english","language_id":38}},{"id":5891,"position":3,"audio_url":"wbw/093_006_003.mp3","verse_key":"93:6","verse_id":6085,"location":"93:6:3","text_uthmani":"يَتِيمًۭا","qpc_uthmani_hafs":"يَتِيمٗا","char_type_name":"word","page_number":596,"line_number":10,"text":"يَتِيمٗا","translation":{"text":"ইয়াতীমরূপে","language_name":"bengali","language_id":20},"transliteration":{"text":"yatīman","language_name":"english","language_id":38}},{"id":5892,"position":4,"audio_url":"wbw/093_006_004.mp3","verse_key":"93:6","verse_id":6085,"location":"93:6:4","text_uthmani":"فَـَٔاوَىٰ","qpc_uthmani_hafs":"فَـَٔاوَىٰ","char_type_name":"word","page_number":596,"line_number":10,"text":"فَـَٔاوَىٰ","translation":{"text":"অতঃপর আশ্রয় দিয়েছেন","language_name":"bengali","language_id":20},"transliteration":{"text":"faāwā","language_name":"english","language_id":38}},{"id":5893,"position":5,"audio_url":null,"verse_key":"93:6","verse_id":6085,"location":"93:6:5","text_uthmani":"٦","qpc_uthmani_hafs":"٦","char_type_name":"end","page_number":596,"line_number":10,"text":"٦","translation":{"text":"(৬)","language_name":"bengali","language_id":20},"transliteration":{"text":null,"language_name":"english","language_id":38}}]},{"id":6086,"verse_number":7,"verse_key":"93:7","hizb_number":60,"rub_el_hizb_number":238,"ruku_number":537,"manzil_number":7,"sajdah_number":null,"page_number":596,"juz_number":30,"words":[{"id":7732,"position":1,"audio_url":"wbw/093_007_001.mp3","verse_key":"93:7","verse_id":6086,"location":"93:7:1","text_uthmani":"وَوَجَدَكَ","qpc_uthmani_hafs":"وَوَجَدَكَ","char_type_name":"word","page_number":596,"line_number":10,"text":"وَوَجَدَكَ","translation":{"text":"এবং  তিনি তোমাকে পেয়েছিলেন","language_name":"bengali","language_id":20},"transliteration":{"text":"wawajadaka","language_name":"english","language_id":38}},{"id":7733,"position":2,"audio_url":"wbw/093_007_002.mp3","verse_key":"93:7","verse_id":6086,"location":"93:7:2","text_uthmani":"ضَآلًّۭا","qpc_uthmani_hafs":"ضَآلّٗا","char_type_name":"word","page_number":596,"line_number":10,"text":"ضَآلّٗا","translation":{"text":"পথ অনবহিত (রূপে)","language_name":"bengali","language_id":20},"transliteration":{"text":"ḍāllan","language_name":"english","language_id":38}},{"id":7734,"position":3,"audio_url":"wbw/093_007_003.mp3","verse_key":"93:7","verse_id":6086,"location":"93:7:3","text_uthmani":"فَهَدَىٰ","qpc_uthmani_hafs":"فَهَدَىٰ","char_type_name":"word","page_number":596,"line_number":10,"text":"فَهَدَىٰ","translation":{"text":"অতঃপর তিনি পথের দিশা দেন","language_name":"bengali","language_id":20},"transliteration":{"text":"fahadā","language_name":"english","language_id":38}},{"id":7735,"position":4,"audio_url":null,"verse_key":"93:7","verse_id":6086,"location":"93:7:4","text_uthmani":"٧","qpc_uthmani_hafs":"٧","char_type_name":"end","page_number":596,"line_number":11,"text":"٧","translation":{"text":"(৭)","language_name":"bengali","language_id":20},"transliteration":{"text":null,"language_name":"english","language_id":38}}]},{"id":6087,"verse_number":8,"verse_key":"93:8","hizb_number":60,"rub_el_hizb_number":238,"ruku_number":537,"manzil_number":7,"sajdah_number":null,"page_number":596,"juz_number":30,"words":[{"id":8971,"position":1,"audio_url":"wbw/093_008_001.mp3","verse_key":"93:8","verse_id":6087,"location":"93:8:1","text_uthmani":"وَوَجَدَكَ","qpc_uthmani_hafs":"وَوَجَدَكَ","char_type_name":"word","page_number":596,"line_number":11,"text":"وَوَجَدَكَ","translation":{"text":"এবং তোমাকে পেয়েছিলেন","language_name":"bengali","language_id":20},"transliteration":{"text":"wawajadaka","language_name":"english","language_id":38}},{"id":8972,"position":2,"audio_url":"wbw/093_008_002.mp3","verse_key":"93:8","verse_id":6087,"location":"93:8:2","text_uthmani":"عَآئِلًۭا","qpc_uthmani_hafs":"عَآئِلٗا","char_type_name":"word","page_number":596,"line_number":11,"text":"عَآئِلٗا","translation":{"text":"অভাবী","language_name":"bengali","language_id":20},"transliteration":{"text":"ʿāilan","language_name":"english","language_id":38}},{"id":8973,"position":3,"audio_url":"wbw/093_008_003.mp3","verse_key":"93:8","verse_id":6087,"location":"93:8:3","text_uthmani":"فَأَغْنَىٰ","qpc_uthmani_hafs":"فَأَغۡنَىٰ","char_type_name":"word","page_number":596,"line_number":11,"text":"فَأَغۡنَىٰ","translation":{"text":"অতঃপর অভাবমুক্ত করলেন","language_name":"bengali","language_id":20},"transliteration":{"text":"fa-aghnā","language_name":"english","language_id":38}},{"id":8974,"position":4,"audio_url":null,"verse_key":"93:8","verse_id":6087,"location":"93:8:4","text_uthmani":"٨","qpc_uthmani_hafs":"٨","char_type_name":"end","page_number":596,"line_number":11,"text":"٨","translation":{"text":"(৮)","language_name":"bengali","language_id":20},"transliteration":{"text":null,"language_name":"english","language_id":38}}]},{"id":6088,"verse_number":9,"verse_key":"93:9","hizb_number":60,"rub_el_hizb_number":238,"ruku_number":537,"manzil_number":7,"sajdah_number":null,"page_number":596,"juz_number":30,"words":[{"id":10182,"position":1,"audio_url":"wbw/093_009_001.mp3","verse_key":"93:9","verse_id":6088,"location":"93:9:1","text_uthmani":"فَأَمَّا","qpc_uthmani_hafs":"فَأَمَّا","char_type_name":"word","page_number":596,"line_number":11,"text":"فَأَمَّا","translation":{"text":"সুতরাং ক্ষেত্রে","language_name":"bengali","language_id":20},"transliteration":{"text":"fa-ammā","language_name":"english","language_id":38}},{"id":10183,"position":2,"audio_url":"wbw/093_009_002.mp3","verse_key":"93:9","verse_id":6088,"location":"93:9:2","text_uthmani":"ٱلْيَتِيمَ","qpc_uthmani_hafs":"ٱلۡيَتِيمَ","char_type_name":"word","page_number":596,"line_number":11,"text":"ٱلۡيَتِيمَ","translation":{"text":"ইয়াতীমের","language_name":"bengali","language_id":20},"transliteration":{"text":"l-yatīma","language_name":"english","language_id":38}},{"id":10184,"position":3,"audio_url":"wbw/093_009_003.mp3","verse_key":"93:9","verse_id":6088,"location":"93:9:3","text_uthmani":"فَلَا","qpc_uthmani_hafs":"فَلَا","char_type_name":"word","page_number":596,"line_number":11,"text":"فَلَا","translation":{"text":"তাই না","language_name":"bengali","language_id":20},"transliteration":{"text":"falā","language_name":"english","language_id":38}},{"id":10185,"position":4,"audio_url":"wbw/093_009_004.mp3","verse_key":"93:9","verse_id":6088,"location":"93:9:4","text_uthmani":"تَقْهَرْ","qpc_uthmani_hafs":"تَقۡهَرۡ","char_type_name":"word","page_number":596,"line_number":11,"text":"تَقۡهَرۡ","translation":{"text":"কঠোর হয়ো","language_name":"bengali","language_id":20},"transliteration":{"text":"taqhar","language_name":"english","language_id":38}},{"id":10186,"position":5,"audio_url":null,"verse_key":"93:9","verse_id":6088,"location":"93:9:5","text_uthmani":"٩","qpc_uthmani_hafs":"٩","char_type_name":"end","page_number":596,"line_number":11,"text":"٩","translation":{"text":"(৯)","language_name":"bengali","language_id":20},"transliteration":{"text":null,"language_name":"english","language_id":38}}]},{"id":6089,"verse_number":10,"verse_key":"93:10","hizb_number":60,"rub_el_hizb_number":238,"ruku_number":537,"manzil_number":7,"sajdah_number":null,"page_number":596,"juz_number":30,"words":[{"id":11376,"position":1,"audio_url":"wbw/093_010_001.mp3","verse_key":"93:10","verse_id":6089,"location":"93:10:1","text_uthmani":"وَأَمَّا","qpc_uthmani_hafs":"وَأَمَّا","char_type_name":"word","page_number":596,"line_number":12,"text":"وَأَمَّا","translation":{"text":"আর ক্ষেত্রে","language_name":"bengali","language_id":20},"transliteration":{"text":"wa-ammā","language_name":"english","language_id":38}},{"id":11377,"position":2,"audio_url":"wbw/093_010_002.mp3","verse_key":"93:10","verse_id":6089,"location":"93:10:2","text_uthmani":"ٱلسَّآئِلَ","qpc_uthmani_hafs":"ٱلسَّآئِلَ","char_type_name":"word","page_number":596,"line_number":12,"text":"ٱلسَّآئِلَ","translation":{"text":"প্রার্থীর","language_name":"bengali","language_id":20},"transliteration":{"text":"l-sāila","language_name":"english","language_id":38}},{"id":11378,"position":3,"audio_url":"wbw/093_010_003.mp3","verse_key":"93:10","verse_id":6089,"location":"93:10:3","text_uthmani":"فَلَا","qpc_uthmani_hafs":"فَلَا","char_type_name":"word","page_number":596,"line_number":12,"text":"فَلَا","translation":{"text":"তাই না","language_name":"bengali","language_id":20},"transliteration":{"text":"falā","language_name":"english","language_id":38}},{"id":11379,"position":4,"audio_url":"wbw/093_010_004.mp3","verse_key":"93:10","verse_id":6089,"location":"93:10:4","text_uthmani":"تَنْهَرْ","qpc_uthmani_hafs":"تَنۡهَرۡ","char_type_name":"word","page_number":596,"line_number":12,"text":"تَنۡهَرۡ","translation":{"text":"তিরস্কার করো","language_name":"bengali","language_id":20},"transliteration":{"text":"tanhar","language_name":"english","language_id":38}},{"id":11380,"position":5,"audio_url":null,"verse_key":"93:10","verse_id":6089,"location":"93:10:5","text_uthmani":"١٠","qpc_uthmani_hafs":"١٠","char_type_name":"end","page_number":596,"line_number":12,"text":"١٠","translation":{"text":"(১০)","language_name":"bengali","language_id":20},"transliteration":{"text":null,"language_name":"english","language_id":38}}]}],"pagination":{"per_page":10,"current_page":1,"next_page":2,"total_pages":2,"total_records":11}}
