{"verses":[{"id":4631,"verse_number":1,"verse_key":"50:1","hizb_number":52,"rub_el_hizb_number":207,"ruku_number":454,"manzil_number":7,"sajdah_number":null,"page_number":518,"juz_number":26,"words":[{"id":261,"position":1,"audio_url":"wbw/050_001_001.mp3","char_type_name":"word","page_number":518,"line_number":3,"text":"قٓ ۚ","translation":{"text":"কা-ফ","language_name":"bengali","language_id":20},"transliteration":{"text":"qaf","language_name":"english","language_id":38}},{"id":263,"position":2,"audio_url":"wbw/050_001_003.mp3","char_type_name":"word","page_number":518,"line_number":3,"text":"وَٱلْقُرْءَانِ","translation":{"text":"শপথ কুরআনের","language_name":"bengali","language_id":20},"transliteration":{"text":"wal-qur'āni","language_name":"english","language_id":38}},{"id":264,"position":3,"audio_url":"wbw/050_001_004.mp3","char_type_name":"word","page_number":518,"line_number":3,"text":"ٱلْمَجِيدِ","translation":{"text":"সম্মানিত","language_name":"bengali","language_id":20},"transliteration":{"text":"l-majīdi","language_name":"english","language_id":38}},{"id":265,"position":4,"audio_url":null,"char_type_name":"end","page_number":518,"line_number":3,"text":"١","translation":{"text":"(১)","language_name":"bengali","language_id":20},"transliteration":{"text":null,"language_name":"english","language_id":38}}]},{"id":4632,"verse_number":2,"verse_key":"50:2","hizb_number":52,"rub_el_hizb_number":207,"ruku_number":454,"manzil_number":7,"sajdah_number":null,"page_number":518,"juz_number":26,"words":[{"id":1115,"position":1,"audio_url":"wbw/050_002_001.mp3","char_type_name":"word","page_number":518,"line_number":3,"text":"بَلْ","translation":{"text":"বরং","language_name":"bengali","language_id":20},"transliteration":{"text":"bal","language_name":"english","language_id":38}},{"id":1116,"position":2,"audio_url":"wbw/050_002_002.mp3","char_type_name":"word","page_number":518,"line_number":3,"text":"عَجِبُوٓا۟","translation":{"text":"তারা অবাক হয়েছে","language_name":"bengali","language_id":20},"transliteration":{"text":"ʿajibū","language_name":"english","language_id":38}},{"id":1117,"position":3,"audio_url":"wbw/050_002_003.mp3","char_type_name":"word","page_number":518,"line_number":3,"text":"أَن","translation":{"text":"যে","language_name":"bengali","language_id":20},"transliteration":{"text":"an","language_name":"english","language_id":38}},{"id":1118,"position":4,"audio_url":"wbw/050_002_004.mp3","char_type_name":"word","page_number":518,"line_number":3,"text":"جَآءَهُم","translation":{"text":"তাদের কাছে এসেছে","language_name":"bengali","language_id":20},"transliteration":{"text":"jāahum","language_name":"english","language_id":38}},{"id":1119,"position":5,"audio_url":"wbw/050_002_005.mp3","char_type_name":"word","page_number":518,"line_number":3,"text":"مُّنذِرٌۭ","translation":{"text":"একজন সতর্ককারী","language_name":"bengali","language_id":20},"transliteration":{"text":"mundhirun","language_name":"english","language_id":38}},{"id":1120,"position":6,"audio_url":"wbw/050_002_006.mp3","char_type_name":"word","page_number":518,"line_number":3,"text":"مِّنْهُمْ","translation":{"text":"তাদের মধ্য হতে","language_name":"bengali","language_id":20},"transliteration":{"text":"min'hum","language_name":"english","language_id":38}},{"id":1121,"position":7,"audio_url":"wbw/050_002_007.mp3","char_type_name":"word","page_number":518,"line_number":4,"text":"فَقَالَ","translation":{"text":"বলে তাই","language_name":"bengali","language_id":20},"transliteration":{"text":"faqāla","language_name":"english","language_id":38}},{"id":1122,"position":8,"audio_url":"wbw/050_002_008.mp3","char_type_name":"word","page_number":518,"line_number":4,"text":"ٱلْكَـٰفِرُونَ","translation":{"text":"অস্বীকারকারীরা","language_name":"bengali","language_id":20},"transliteration":{"text":"l-kāfirūna","language_name":"english","language_id":38}},{"id":1123,"position":9,"audio_url":"wbw/050_002_009.mp3","char_type_name":"word","page_number":518,"line_number":4,"text":"هَـٰذَا","translation":{"text":"\"এটা","language_name":"bengali","language_id":20},"transliteration":{"text":"hādhā","language_name":"english","language_id":38}},{"id":1124,"position":10,"audio_url":"wbw/050_002_010.mp3","char_type_name":"word","page_number":518,"line_number":4,"text":"شَىْءٌ","translation":{"text":"ব্যাপার","language_name":"bengali","language_id":20},"transliteration":{"text":"shayon","language_name":"english","language_id":38}},{"id":1125,"position":11,"audio_url":"wbw/050_002_011.mp3","char_type_name":"word","page_number":518,"line_number":4,"text":"عَجِيبٌ","translation":{"text":"আজব","language_name":"bengali","language_id":20},"transliteration":{"text":"ʿajībun","language_name":"english","language_id":38}},{"id":1126,"position":12,"audio_url":null,"char_type_name":"end","page_number":518,"line_number":4,"text":"٢","translation":{"text":"(২)","language_name":"bengali","language_id":20},"transliteration":{"text":null,"language_name":"english","language_id":38}}]},{"id":4633,"verse_number":3,"verse_key":"50:3","hizb_number":52,"rub_el_hizb_number":207,"ruku_number":454,"manzil_number":7,"sajdah_number":null,"page_number":518,"juz_number":26,"words":[{"id":2180,"position":1,"audio_url":"wbw/050_003_001.mp3","char_type_name":"word","page_number":518,"line_number":4,"text":"أَءِذَا","translation":{"text":"যখন কি","language_name":"bengali","language_id":20},"transliteration":{"text":"a-idhā","language_name":"english","language_id":38}},{"id":2181,"position":2,"audio_url":"wbw/050_003_002.mp3","char_type_name":"word","page_number":518,"line_number":4,"text":"مِتْنَا","translation":{"text":"আমরা মারা যাব","language_name":"bengali","language_id":20},"transliteration":{"text":"mit'nā","language_name":"english","language_id":38}},{"id":2182,"position":3,"audio_url":"wbw/050_003_003.mp3","char_type_name":"word","page_number":518,"line_number":4,"text":"وَكُنَّا","translation":{"text":"এবংআমরা হব","language_name":"bengali","language_id":20},"transliteration":{"text":"wakunnā","language_name":"english","language_id":38}},{"id":2183,"position":4,"audio_url":"wbw/050_003_004.mp3","char_type_name":"word","page_number":518,"line_number":4,"text":"تُرَابًۭا ۖ","translation":{"text":"মাটি (তখন পুনরুথিত হব)","language_name":"bengali","language_id":20},"transliteration":{"text":"turāban","language_name":"english","language_id":38}},{"id":2185,"position":5,"audio_url":"wbw/050_003_006.mp3","char_type_name":"word","page_number":518,"line_number":4,"text":"ذَٰلِكَ","translation":{"text":"সেই","language_name":"bengali","language_id":20},"transliteration":{"text":"dhālika","language_name":"english","language_id":38}},{"id":2186,"position":6,"audio_url":"wbw/050_003_007.mp3","char_type_name":"word","page_number":518,"line_number":5,"text":"رَجْعٌۢ","translation":{"text":"প্রত্যাবর্তন (হবে)","language_name":"bengali","language_id":20},"transliteration":{"text":"rajʿun","language_name":"english","language_id":38}},{"id":2187,"position":7,"audio_url":"wbw/050_003_008.mp3","char_type_name":"word","page_number":518,"line_number":5,"text":"بَعِيدٌۭ","translation":{"text":"সুদূর পরাহত\"","language_name":"bengali","language_id":20},"transliteration":{"text":"baʿīdun","language_name":"english","language_id":38}},{"id":2188,"position":8,"audio_url":null,"char_type_name":"end","page_number":518,"line_number":5,"text":"٣","translation":{"text":"(৩)","language_name":"bengali","language_id":20},"transliteration":{"text":null,"language_name":"english","language_id":38}}]},{"id":4634,"verse_number":4,"verse_key":"50:4","hizb_number":52,"rub_el_hizb_number":207,"ruku_number":454,"manzil_number":7,"sajdah_number":null,"page_number":518,"juz_number":26,"words":[{"id":3496,"position":1,"audio_url":"wbw/050_004_001.mp3","char_type_name":"word","page_number":518,"line_number":5,"text":"قَدْ","translation":{"text":"নিশ্চয়ই","language_name":"bengali","language_id":20},"transliteration":{"text":"qad","language_name":"english","language_id":38}},{"id":3497,"position":2,"audio_url":"wbw/050_004_002.mp3","char_type_name":"word","page_number":518,"line_number":5,"text":"عَلِمْنَا","translation":{"text":"আমরা জানি","language_name":"bengali","language_id":20},"transliteration":{"text":"ʿalim'nā","language_name":"english","language_id":38}},{"id":3498,"position":3,"audio_url":"wbw/050_004_003.mp3","char_type_name":"word","page_number":518,"line_number":5,"text":"مَا","translation":{"text":"যা","language_name":"bengali","language_id":20},"transliteration":{"text":"mā","language_name":"english","language_id":38}},{"id":3499,"position":4,"audio_url":"wbw/050_004_004.mp3","char_type_name":"word","page_number":518,"line_number":5,"text":"تَنقُصُ","translation":{"text":"ক্ষয় করে","language_name":"bengali","language_id":20},"transliteration":{"text":"tanquṣu","language_name":"english","language_id":38}},{"id":3500,"position":5,"audio_url":"wbw/050_004_005.mp3","char_type_name":"word","page_number":518,"line_number":5,"text":"ٱلْأَرْضُ","translation":{"text":"মাটি","language_name":"bengali","language_id":20},"transliteration":{"text":"l-arḍu","language_name":"english","language_id":38}},{"id":3501,"position":6,"audio_url":"wbw/050_004_006.mp3","char_type_name":"word","page_number":518,"line_number":5,"text":"مِنْهُمْ ۖ","translation":{"text":"তাদের যে অংশ","language_name":"bengali","language_id":20},"transliteration":{"text":"min'hum","language_name":"english","language_id":38}},{"id":3503,"position":7,"audio_url":"wbw/050_004_008.mp3","char_type_name":"word","page_number":518,"line_number":5,"text":"وَعِندَنَا","translation":{"text":"এবং আমাদের কাছে আছে","language_name":"bengali","language_id":20},"transliteration":{"text":"waʿindanā","language_name":"english","language_id":38}},{"id":3504,"position":8,"audio_url":"wbw/050_004_009.mp3","char_type_name":"word","page_number":518,"line_number":5,"text":"كِتَـٰبٌ","translation":{"text":"একটি কিতাব","language_name":"bengali","language_id":20},"transliteration":{"text":"kitābun","language_name":"english","language_id":38}},{"id":3505,"position":9,"audio_url":"wbw/050_004_010.mp3","char_type_name":"word","page_number":518,"line_number":6,"text":"حَفِيظٌۢ","translation":{"text":"সংরক্ষণকারী","language_name":"bengali","language_id":20},"transliteration":{"text":"ḥafīẓun","language_name":"english","language_id":38}},{"id":3506,"position":10,"audio_url":null,"char_type_name":"end","page_number":518,"line_number":6,"text":"٤","translation":{"text":"(৪)","language_name":"bengali","language_id":20},"transliteration":{"text":null,"language_name":"english","language_id":38}}]},{"id":4635,"verse_number":5,"verse_key":"50:5","hizb_number":52,"rub_el_hizb_number":207,"ruku_number":454,"manzil_number":7,"sajdah_number":null,"page_number":518,"juz_number":26,"words":[{"id":4854,"position":1,"audio_url":"wbw/050_005_001.mp3","char_type_name":"word","page_number":518,"line_number":6,"text":"بَلْ","translation":{"text":"বরং","language_name":"bengali","language_id":20},"transliteration":{"text":"bal","language_name":"english","language_id":38}},{"id":4855,"position":2,"audio_url":"wbw/050_005_002.mp3","char_type_name":"word","page_number":518,"line_number":6,"text":"كَذَّبُوا۟","translation":{"text":"তারা প্রত্যাখ্যান করেছে","language_name":"bengali","language_id":20},"transliteration":{"text":"kadhabū","language_name":"english","language_id":38}},{"id":4856,"position":3,"audio_url":"wbw/050_005_003.mp3","char_type_name":"word","page_number":518,"line_number":6,"text":"بِٱلْحَقِّ","translation":{"text":"মহাসত্যকে","language_name":"bengali","language_id":20},"transliteration":{"text":"bil-ḥaqi","language_name":"english","language_id":38}},{"id":4857,"position":4,"audio_url":"wbw/050_005_004.mp3","char_type_name":"word","page_number":518,"line_number":6,"text":"لَمَّا","translation":{"text":"যখন","language_name":"bengali","language_id":20},"transliteration":{"text":"lammā","language_name":"english","language_id":38}},{"id":4858,"position":5,"audio_url":"wbw/050_005_005.mp3","char_type_name":"word","page_number":518,"line_number":6,"text":"جَآءَهُمْ","translation":{"text":"তাদের কাছে এসেছে","language_name":"bengali","language_id":20},"transliteration":{"text":"jāahum","language_name":"english","language_id":38}},{"id":4859,"position":6,"audio_url":"wbw/050_005_006.mp3","char_type_name":"word","page_number":518,"line_number":6,"text":"فَهُمْ","translation":{"text":"তারা অতএব","language_name":"bengali","language_id":20},"transliteration":{"text":"fahum","language_name":"english","language_id":38}},{"id":4860,"position":7,"audio_url":"wbw/050_005_007.mp3","char_type_name":"word","page_number":518,"line_number":6,"text":"فِىٓ","translation":{"text":"মধ্যে","language_name":"bengali","language_id":20},"transliteration":{"text":"fī","language_name":"english","language_id":38}},{"id":4861,"position":8,"audio_url":"wbw/050_005_008.mp3","char_type_name":"word","page_number":518,"line_number":6,"text":"أَمْرٍۢ","translation":{"text":"এ বিষয়ের","language_name":"bengali","language_id":20},"transliteration":{"text":"amrin","language_name":"english","language_id":38}},{"id":4862,"position":9,"audio_url":"wbw/050_005_009.mp3","char_type_name":"word","page_number":518,"line_number":6,"text":"مَّرِيجٍ","translation":{"text":"সংশয়ে দোদুল্যমান","language_name":"bengali","language_id":20},"transliteration":{"text":"marījin","language_name":"english","language_id":38}},{"id":4863,"position":10,"audio_url":null,"char_type_name":"end","page_number":518,"line_number":6,"text":"٥","translation":{"text":"(৫)","language_name":"bengali","language_id":20},"transliteration":{"text":null,"language_name":"english","language_id":38}}]},{"id":4636,"verse_number":6,"verse_key":"50:6","hizb_number":52,"rub_el_hizb_number":207,"ruku_number":454,"manzil_number":7,"sajdah_number":null,"page_number":518,"juz_number":26,"words":[{"id":6095,"position":1,"audio_url":"wbw/050_006_001.mp3","char_type_name":"word","page_number":518,"line_number":7,"text":"أَفَلَمْ","translation":{"text":"নি তবে কি","language_name":"bengali","language_id":20},"transliteration":{"text":"afalam","language_name":"english","language_id":38}},{"id":6096,"position":2,"audio_url":"wbw/050_006_002.mp3","char_type_name":"word","page_number":518,"line_number":7,"text":"يَنظُرُوٓا۟","translation":{"text":"তারা লক্ষ্য করে","language_name":"bengali","language_id":20},"transliteration":{"text":"yanẓurū","language_name":"english","language_id":38}},{"id":6097,"position":3,"audio_url":"wbw/050_006_003.mp3","char_type_name":"word","page_number":518,"line_number":7,"text":"إِلَى","translation":{"text":"প্রতি","language_name":"bengali","language_id":20},"transliteration":{"text":"ilā","language_name":"english","language_id":38}},{"id":6098,"position":4,"audio_url":"wbw/050_006_004.mp3","char_type_name":"word","page_number":518,"line_number":7,"text":"ٱلسَّمَآءِ","translation":{"text":"আকাশের","language_name":"bengali","language_id":20},"transliteration":{"text":"l-samāi","language_name":"english","language_id":38}},{"id":6099,"position":5,"audio_url":"wbw/050_006_005.mp3","char_type_name":"word","page_number":518,"line_number":7,"text":"فَوْقَهُمْ","translation":{"text":"তাদের উপরে","language_name":"bengali","language_id":20},"transliteration":{"text":"fawqahum","language_name":"english","language_id":38}},{"id":6100,"position":6,"audio_url":"wbw/050_006_006.mp3","char_type_name":"word","page_number":518,"line_number":7,"text":"كَيْفَ","translation":{"text":"কিভাবে","language_name":"bengali","language_id":20},"transliteration":{"text":"kayfa","language_name":"english","language_id":38}},{"id":6101,"position":7,"audio_url":"wbw/050_006_007.mp3","char_type_name":"word","page_number":518,"line_number":7,"text":"بَنَيْنَـٰهَا","translation":{"text":"তা আমরা নির্মাণ করেছি","language_name":"bengali","language_id":20},"transliteration":{"text":"banaynāhā","language_name":"english","language_id":38}},{"id":6102,"position":8,"audio_url":"wbw/050_006_008.mp3","char_type_name":"word","page_number":518,"line_number":7,"text":"وَزَيَّنَّـٰهَا","translation":{"text":"ও তা আমরা সুশোভিত করেছি","language_name":"bengali","language_id":20},"transliteration":{"text":"wazayyannāhā","language_name":"english","language_id":38}},{"id":6103,"position":9,"audio_url":"wbw/050_006_009.mp3","char_type_name":"word","page_number":518,"line_number":8,"text":"وَمَا","translation":{"text":"এবং নেই","language_name":"bengali","language_id":20},"transliteration":{"text":"wamā","language_name":"english","language_id":38}},{"id":6104,"position":10,"audio_url":"wbw/050_006_010.mp3","char_type_name":"word","page_number":518,"line_number":8,"text":"لَهَا","translation":{"text":"তাতে","language_name":"bengali","language_id":20},"transliteration":{"text":"lahā","language_name":"english","language_id":38}},{"id":6105,"position":11,"audio_url":"wbw/050_006_011.mp3","char_type_name":"word","page_number":518,"line_number":8,"text":"مِن","translation":{"text":"কোনো","language_name":"bengali","language_id":20},"transliteration":{"text":"min","language_name":"english","language_id":38}},{"id":6106,"position":12,"audio_url":"wbw/050_006_012.mp3","char_type_name":"word","page_number":518,"line_number":8,"text":"فُرُوجٍۢ","translation":{"text":"ফাটল","language_name":"bengali","language_id":20},"transliteration":{"text":"furūjin","language_name":"english","language_id":38}},{"id":6107,"position":13,"audio_url":null,"char_type_name":"end","page_number":518,"line_number":8,"text":"٦","translation":{"text":"(৬)","language_name":"bengali","language_id":20},"transliteration":{"text":null,"language_name":"english","language_id":38}}]},{"id":4637,"verse_number":7,"verse_key":"50:7","hizb_number":52,"rub_el_hizb_number":207,"ruku_number":454,"manzil_number":7,"sajdah_number":null,"page_number":518,"juz_number":26,"words":[{"id":7424,"position":1,"audio_url":"wbw/050_007_001.mp3","char_type_name":"word","page_number":518,"line_number":8,"text":"وَٱلْأَرْضَ","translation":{"text":"এবং ভূমিকে","language_name":"bengali","language_id":20},"transliteration":{"text":"wal-arḍa","language_name":"english","language_id":38}},{"id":7425,"position":2,"audio_url":"wbw/050_007_002.mp3","char_type_name":"word","page_number":518,"line_number":8,"text":"مَدَدْنَـٰهَا","translation":{"text":"তা আমরা বিস্তৃত করেছি","language_name":"bengali","language_id":20},"transliteration":{"text":"madadnāhā","language_name":"english","language_id":38}},{"id":7426,"position":3,"audio_url":"wbw/050_007_003.mp3","char_type_name":"word","page_number":518,"line_number":8,"text":"وَأَلْقَيْنَا","translation":{"text":"এবং আমরা স্থাপন করেছি","language_name":"bengali","language_id":20},"transliteration":{"text":"wa-alqaynā","language_name":"english","language_id":38}},{"id":7427,"position":4,"audio_url":"wbw/050_007_004.mp3","char_type_name":"word","page_number":518,"line_number":8,"text":"فِيهَا","translation":{"text":"তাতে","language_name":"bengali","language_id":20},"transliteration":{"text":"fīhā","language_name":"english","language_id":38}},{"id":7428,"position":5,"audio_url":"wbw/050_007_005.mp3","char_type_name":"word","page_number":518,"line_number":8,"text":"رَوَٰسِىَ","translation":{"text":"পর্বতমালা","language_name":"bengali","language_id":20},"transliteration":{"text":"rawāsiya","language_name":"english","language_id":38}},{"id":7429,"position":6,"audio_url":"wbw/050_007_006.mp3","char_type_name":"word","page_number":518,"line_number":9,"text":"وَأَنۢبَتْنَا","translation":{"text":"এবং আমরা উৎপন্ন করেছি","language_name":"bengali","language_id":20},"transliteration":{"text":"wa-anbatnā","language_name":"english","language_id":38}},{"id":7430,"position":7,"audio_url":"wbw/050_007_007.mp3","char_type_name":"word","page_number":518,"line_number":9,"text":"فِيهَا","translation":{"text":"তাতে","language_name":"bengali","language_id":20},"transliteration":{"text":"fīhā","language_name":"english","language_id":38}},{"id":7431,"position":8,"audio_url":"wbw/050_007_008.mp3","char_type_name":"word","page_number":518,"line_number":9,"text":"مِن","translation":{"text":"ধরণের","language_name":"bengali","language_id":20},"transliteration":{"text":"min","language_name":"english","language_id":38}},{"id":7432,"position":9,"audio_url":"wbw/050_007_009.mp3","char_type_name":"word","page_number":518,"line_number":9,"text":"كُلِّ","translation":{"text":"প্রত্যেক","language_name":"bengali","language_id":20},"transliteration":{"text":"kulli","language_name":"english","language_id":38}},{"id":7433,"position":10,"audio_url":"wbw/050_007_010.mp3","char_type_name":"word","page_number":518,"line_number":9,"text":"زَوْجٍۭ","translation":{"text":"(উদ্ভিদ) জোড়া জোড়া","language_name":"bengali","language_id":20},"transliteration":{"text":"zawjin","language_name":"english","language_id":38}},{"id":7434,"position":11,"audio_url":"wbw/050_007_011.mp3","char_type_name":"word","page_number":518,"line_number":9,"text":"بَهِيجٍۢ","translation":{"text":"নয়নজুড়ানো","language_name":"bengali","language_id":20},"transliteration":{"text":"bahījin","language_name":"english","language_id":38}},{"id":7435,"position":12,"audio_url":null,"char_type_name":"end","page_number":518,"line_number":9,"text":"٧","translation":{"text":"(৭)","language_name":"bengali","language_id":20},"transliteration":{"text":null,"language_name":"english","language_id":38}}]},{"id":4638,"verse_number":8,"verse_key":"50:8","hizb_number":52,"rub_el_hizb_number":207,"ruku_number":454,"manzil_number":7,"sajdah_number":null,"page_number":518,"juz_number":26,"words":[{"id":8693,"position":1,"audio_url":"wbw/050_008_001.mp3","char_type_name":"word","page_number":518,"line_number":9,"text":"تَبْصِرَةًۭ","translation":{"text":"ও (এসব কিছু) দৃষ্টিপ্রসারণকারী","language_name":"bengali","language_id":20},"transliteration":{"text":"tabṣiratan","language_name":"english","language_id":38}},{"id":8694,"position":2,"audio_url":"wbw/050_008_002.mp3","char_type_name":"word","page_number":518,"line_number":9,"text":"وَذِكْرَىٰ","translation":{"text":"ও শিক্ষাপ্রদ","language_name":"bengali","language_id":20},"transliteration":{"text":"wadhik'rā","language_name":"english","language_id":38}},{"id":8695,"position":3,"audio_url":"wbw/050_008_003.mp3","char_type_name":"word","page_number":518,"line_number":9,"text":"لِكُلِّ","translation":{"text":"প্রত্যেকের জন্যে","language_name":"bengali","language_id":20},"transliteration":{"text":"likulli","language_name":"english","language_id":38}},{"id":8696,"position":4,"audio_url":"wbw/050_008_004.mp3","char_type_name":"word","page_number":518,"line_number":9,"text":"عَبْدٍۢ","translation":{"text":"বান্দার/ দাসের","language_name":"bengali","language_id":20},"transliteration":{"text":"ʿabdin","language_name":"english","language_id":38}},{"id":8697,"position":5,"audio_url":"wbw/050_008_005.mp3","char_type_name":"word","page_number":518,"line_number":10,"text":"مُّنِيبٍۢ","translation":{"text":"যে প্রত্যাবর্তনকারী (আল্লাহর দিকে)","language_name":"bengali","language_id":20},"transliteration":{"text":"munībin","language_name":"english","language_id":38}},{"id":8698,"position":6,"audio_url":null,"char_type_name":"end","page_number":518,"line_number":10,"text":"٨","translation":{"text":"(৮)","language_name":"bengali","language_id":20},"transliteration":{"text":null,"language_name":"english","language_id":38}}]},{"id":4639,"verse_number":9,"verse_key":"50:9","hizb_number":52,"rub_el_hizb_number":207,"ruku_number":454,"manzil_number":7,"sajdah_number":null,"page_number":518,"juz_number":26,"words":[{"id":9911,"position":1,"audio_url":"wbw/050_009_001.mp3","char_type_name":"word","page_number":518,"line_number":10,"text":"وَنَزَّلْنَا","translation":{"text":"এবং আমরা অবতীর্ণ করেছি","language_name":"bengali","language_id":20},"transliteration":{"text":"wanazzalnā","language_name":"english","language_id":38}},{"id":9912,"position":2,"audio_url":"wbw/050_009_002.mp3","char_type_name":"word","page_number":518,"line_number":10,"text":"مِنَ","translation":{"text":"থেকে","language_name":"bengali","language_id":20},"transliteration":{"text":"mina","language_name":"english","language_id":38}},{"id":9913,"position":3,"audio_url":"wbw/050_009_003.mp3","char_type_name":"word","page_number":518,"line_number":10,"text":"ٱلسَّمَآءِ","translation":{"text":"আকাশ","language_name":"bengali","language_id":20},"transliteration":{"text":"l-samāi","language_name":"english","language_id":38}},{"id":9914,"position":4,"audio_url":"wbw/050_009_004.mp3","char_type_name":"word","page_number":518,"line_number":10,"text":"مَآءًۭ","translation":{"text":"পানি","language_name":"bengali","language_id":20},"transliteration":{"text":"māan","language_name":"english","language_id":38}},{"id":9915,"position":5,"audio_url":"wbw/050_009_005.mp3","char_type_name":"word","page_number":518,"line_number":10,"text":"مُّبَـٰرَكًۭا","translation":{"text":"উপকারী","language_name":"bengali","language_id":20},"transliteration":{"text":"mubārakan","language_name":"english","language_id":38}},{"id":9916,"position":6,"audio_url":"wbw/050_009_006.mp3","char_type_name":"word","page_number":518,"line_number":10,"text":"فَأَنۢبَتْنَا","translation":{"text":"এরপর আমরা  উৎপন্ন করেছি","language_name":"bengali","language_id":20},"transliteration":{"text":"fa-anbatnā","language_name":"english","language_id":38}},{"id":9917,"position":7,"audio_url":"wbw/050_009_007.mp3","char_type_name":"word","page_number":518,"line_number":10,"text":"بِهِۦ","translation":{"text":"তা দিয়ে","language_name":"bengali","language_id":20},"transliteration":{"text":"bihi","language_name":"english","language_id":38}},{"id":9918,"position":8,"audio_url":"wbw/050_009_008.mp3","char_type_name":"word","page_number":518,"line_number":10,"text":"جَنَّـٰتٍۢ","translation":{"text":"বাগানসমূহ","language_name":"bengali","language_id":20},"transliteration":{"text":"jannātin","language_name":"english","language_id":38}},{"id":9919,"position":9,"audio_url":"wbw/050_009_009.mp3","char_type_name":"word","page_number":518,"line_number":11,"text":"وَحَبَّ","translation":{"text":"ও শস্যাদি","language_name":"bengali","language_id":20},"transliteration":{"text":"waḥabba","language_name":"english","language_id":38}},{"id":9920,"position":10,"audio_url":"wbw/050_009_010.mp3","char_type_name":"word","page_number":518,"line_number":11,"text":"ٱلْحَصِيدِ","translation":{"text":"কৃষিজাত","language_name":"bengali","language_id":20},"transliteration":{"text":"l-ḥaṣīdi","language_name":"english","language_id":38}},{"id":9921,"position":11,"audio_url":null,"char_type_name":"end","page_number":518,"line_number":11,"text":"٩","translation":{"text":"(৯)","language_name":"bengali","language_id":20},"transliteration":{"text":null,"language_name":"english","language_id":38}}]},{"id":4640,"verse_number":10,"verse_key":"50:10","hizb_number":52,"rub_el_hizb_number":207,"ruku_number":454,"manzil_number":7,"sajdah_number":null,"page_number":518,"juz_number":26,"words":[{"id":11106,"position":1,"audio_url":"wbw/050_010_001.mp3","char_type_name":"word","page_number":518,"line_number":11,"text":"وَٱلنَّخْلَ","translation":{"text":"এবং খেজুর গাছসমূহ","language_name":"bengali","language_id":20},"transliteration":{"text":"wal-nakhla","language_name":"english","language_id":38}},{"id":11107,"position":2,"audio_url":"wbw/050_010_002.mp3","char_type_name":"word","page_number":518,"line_number":11,"text":"بَاسِقَـٰتٍۢ","translation":{"text":"উঁচু","language_name":"bengali","language_id":20},"transliteration":{"text":"bāsiqātin","language_name":"english","language_id":38}},{"id":11108,"position":3,"audio_url":"wbw/050_010_003.mp3","char_type_name":"word","page_number":518,"line_number":11,"text":"لَّهَا","translation":{"text":"তার আছে","language_name":"bengali","language_id":20},"transliteration":{"text":"lahā","language_name":"english","language_id":38}},{"id":11109,"position":4,"audio_url":"wbw/050_010_004.mp3","char_type_name":"word","page_number":518,"line_number":11,"text":"طَلْعٌۭ","translation":{"text":"খেজুর গুচ্ছ","language_name":"bengali","language_id":20},"transliteration":{"text":"ṭalʿun","language_name":"english","language_id":38}},{"id":11110,"position":5,"audio_url":"wbw/050_010_005.mp3","char_type_name":"word","page_number":518,"line_number":11,"text":"نَّضِيدٌۭ","translation":{"text":"থরে থরে সাজানো","language_name":"bengali","language_id":20},"transliteration":{"text":"naḍīdun","language_name":"english","language_id":38}},{"id":11111,"position":6,"audio_url":null,"char_type_name":"end","page_number":518,"line_number":11,"text":"١٠","translation":{"text":"(১০)","language_name":"bengali","language_id":20},"transliteration":{"text":null,"language_name":"english","language_id":38}}]}],"pagination":{"per_page":10,"current_page":1,"next_page":2,"total_pages":5,"total_records":45}}
