{"verses":[{"id":4641,"verse_number":11,"verse_key":"50:11","hizb_number":52,"rub_el_hizb_number":207,"ruku_number":454,"manzil_number":7,"sajdah_number":null,"page_number":518,"juz_number":26,"words":[{"id":12426,"position":1,"audio_url":"wbw/050_011_001.mp3","char_type_name":"word","page_number":518,"line_number":11,"text":"رِّزْقًۭا","translation":{"text":"জীবিকা","language_name":"bengali","language_id":20},"transliteration":{"text":"riz'qan","language_name":"english","language_id":38}},{"id":12427,"position":2,"audio_url":"wbw/050_011_002.mp3","char_type_name":"word","page_number":518,"line_number":12,"text":"لِّلْعِبَادِ ۖ","translation":{"text":"দাসদের/ বান্দাদের জন্যে","language_name":"bengali","language_id":20},"transliteration":{"text":"lil'ʿibādi","language_name":"english","language_id":38}},{"id":12429,"position":3,"audio_url":"wbw/050_011_004.mp3","char_type_name":"word","page_number":518,"line_number":12,"text":"وَأَحْيَيْنَا","translation":{"text":"এবং আমরা জীবিত করি","language_name":"bengali","language_id":20},"transliteration":{"text":"wa-aḥyaynā","language_name":"english","language_id":38}},{"id":12430,"position":4,"audio_url":"wbw/050_011_005.mp3","char_type_name":"word","page_number":518,"line_number":12,"text":"بِهِۦ","translation":{"text":"তা দিয়ে","language_name":"bengali","language_id":20},"transliteration":{"text":"bihi","language_name":"english","language_id":38}},{"id":12431,"position":5,"audio_url":"wbw/050_011_006.mp3","char_type_name":"word","page_number":518,"line_number":12,"text":"بَلْدَةًۭ","translation":{"text":"ভূমিকে","language_name":"bengali","language_id":20},"transliteration":{"text":"baldatan","language_name":"english","language_id":38}},{"id":12432,"position":6,"audio_url":"wbw/050_011_007.mp3","char_type_name":"word","page_number":518,"line_number":12,"text":"مَّيْتًۭا ۚ","translation":{"text":"মৃত","language_name":"bengali","language_id":20},"transliteration":{"text":"maytan","language_name":"english","language_id":38}},{"id":12434,"position":7,"audio_url":"wbw/050_011_009.mp3","char_type_name":"word","page_number":518,"line_number":12,"text":"كَذَٰلِكَ","translation":{"text":"এভাবেই","language_name":"bengali","language_id":20},"transliteration":{"text":"kadhālika","language_name":"english","language_id":38}},{"id":12435,"position":8,"audio_url":"wbw/050_011_010.mp3","char_type_name":"word","page_number":518,"line_number":12,"text":"ٱلْخُرُوجُ","translation":{"text":"উত্থান (হবে)","language_name":"bengali","language_id":20},"transliteration":{"text":"l-khurūju","language_name":"english","language_id":38}},{"id":12436,"position":9,"audio_url":null,"char_type_name":"end","page_number":518,"line_number":12,"text":"١١","translation":{"text":"(১১)","language_name":"bengali","language_id":20},"transliteration":{"text":null,"language_name":"english","language_id":38}}]},{"id":4642,"verse_number":12,"verse_key":"50:12","hizb_number":52,"rub_el_hizb_number":207,"ruku_number":454,"manzil_number":7,"sajdah_number":null,"page_number":518,"juz_number":26,"words":[{"id":13708,"position":1,"audio_url":"wbw/050_012_001.mp3","char_type_name":"word","page_number":518,"line_number":12,"text":"كَذَّبَتْ","translation":{"text":"মিথ্যা বলে  অস্বীকার করেছে","language_name":"bengali","language_id":20},"transliteration":{"text":"kadhabat","language_name":"english","language_id":38}},{"id":13709,"position":2,"audio_url":"wbw/050_012_002.mp3","char_type_name":"word","page_number":518,"line_number":12,"text":"قَبْلَهُمْ","translation":{"text":"তাদের পূর্বে","language_name":"bengali","language_id":20},"transliteration":{"text":"qablahum","language_name":"english","language_id":38}},{"id":13710,"position":3,"audio_url":"wbw/050_012_003.mp3","char_type_name":"word","page_number":518,"line_number":13,"text":"قَوْمُ","translation":{"text":"জাতি","language_name":"bengali","language_id":20},"transliteration":{"text":"qawmu","language_name":"english","language_id":38}},{"id":13711,"position":4,"audio_url":"wbw/050_012_004.mp3","char_type_name":"word","page_number":518,"line_number":13,"text":"نُوحٍۢ","translation":{"text":"নূহের","language_name":"bengali","language_id":20},"transliteration":{"text":"nūḥin","language_name":"english","language_id":38}},{"id":13712,"position":5,"audio_url":"wbw/050_012_005.mp3","char_type_name":"word","page_number":518,"line_number":13,"text":"وَأَصْحَـٰبُ","translation":{"text":"ও অধিবাসীরা","language_name":"bengali","language_id":20},"transliteration":{"text":"wa-aṣḥābu","language_name":"english","language_id":38}},{"id":13713,"position":6,"audio_url":"wbw/050_012_006.mp3","char_type_name":"word","page_number":518,"line_number":13,"text":"ٱلرَّسِّ","translation":{"text":"কূপ","language_name":"bengali","language_id":20},"transliteration":{"text":"l-rasi","language_name":"english","language_id":38}},{"id":13714,"position":7,"audio_url":"wbw/050_012_007.mp3","char_type_name":"word","page_number":518,"line_number":13,"text":"وَثَمُودُ","translation":{"text":"ও সামুদ","language_name":"bengali","language_id":20},"transliteration":{"text":"wathamūdu","language_name":"english","language_id":38}},{"id":13715,"position":8,"audio_url":null,"char_type_name":"end","page_number":518,"line_number":13,"text":"١٢","translation":{"text":"(১২)","language_name":"bengali","language_id":20},"transliteration":{"text":null,"language_name":"english","language_id":38}}]},{"id":4643,"verse_number":13,"verse_key":"50:13","hizb_number":52,"rub_el_hizb_number":207,"ruku_number":454,"manzil_number":7,"sajdah_number":null,"page_number":518,"juz_number":26,"words":[{"id":14879,"position":1,"audio_url":"wbw/050_013_001.mp3","char_type_name":"word","page_number":518,"line_number":13,"text":"وَعَادٌۭ","translation":{"text":"এবং আদ","language_name":"bengali","language_id":20},"transliteration":{"text":"waʿādun","language_name":"english","language_id":38}},{"id":14880,"position":2,"audio_url":"wbw/050_013_002.mp3","char_type_name":"word","page_number":518,"line_number":13,"text":"وَفِرْعَوْنُ","translation":{"text":"ও ফিরআউন","language_name":"bengali","language_id":20},"transliteration":{"text":"wafir'ʿawnu","language_name":"english","language_id":38}},{"id":14881,"position":3,"audio_url":"wbw/050_013_003.mp3","char_type_name":"word","page_number":518,"line_number":13,"text":"وَإِخْوَٰنُ","translation":{"text":"ও ভাইয়েরা","language_name":"bengali","language_id":20},"transliteration":{"text":"wa-ikh'wānu","language_name":"english","language_id":38}},{"id":14882,"position":4,"audio_url":"wbw/050_013_004.mp3","char_type_name":"word","page_number":518,"line_number":14,"text":"لُوطٍۢ","translation":{"text":"লূতের","language_name":"bengali","language_id":20},"transliteration":{"text":"lūṭin","language_name":"english","language_id":38}},{"id":14883,"position":5,"audio_url":null,"char_type_name":"end","page_number":518,"line_number":14,"text":"١٣","translation":{"text":"(১৩)","language_name":"bengali","language_id":20},"transliteration":{"text":null,"language_name":"english","language_id":38}}]},{"id":4644,"verse_number":14,"verse_key":"50:14","hizb_number":52,"rub_el_hizb_number":207,"ruku_number":454,"manzil_number":7,"sajdah_number":null,"page_number":518,"juz_number":26,"words":[{"id":15946,"position":1,"audio_url":"wbw/050_014_001.mp3","char_type_name":"word","page_number":518,"line_number":14,"text":"وَأَصْحَـٰبُ","translation":{"text":"এবং অধিবাসীরা","language_name":"bengali","language_id":20},"transliteration":{"text":"wa-aṣḥābu","language_name":"english","language_id":38}},{"id":15947,"position":2,"audio_url":"wbw/050_014_002.mp3","char_type_name":"word","page_number":518,"line_number":14,"text":"ٱلْأَيْكَةِ","translation":{"text":"আইকার","language_name":"bengali","language_id":20},"transliteration":{"text":"l-aykati","language_name":"english","language_id":38}},{"id":15948,"position":3,"audio_url":"wbw/050_014_003.mp3","char_type_name":"word","page_number":518,"line_number":14,"text":"وَقَوْمُ","translation":{"text":"ও জাতি","language_name":"bengali","language_id":20},"transliteration":{"text":"waqawmu","language_name":"english","language_id":38}},{"id":15949,"position":4,"audio_url":"wbw/050_014_004.mp3","char_type_name":"word","page_number":518,"line_number":14,"text":"تُبَّعٍۢ ۚ","translation":{"text":"তুব্বা","language_name":"bengali","language_id":20},"transliteration":{"text":"tubbaʿin","language_name":"english","language_id":38}},{"id":15951,"position":5,"audio_url":"wbw/050_014_006.mp3","char_type_name":"word","page_number":518,"line_number":14,"text":"كُلٌّۭ","translation":{"text":"প্রত্যেকে","language_name":"bengali","language_id":20},"transliteration":{"text":"kullun","language_name":"english","language_id":38}},{"id":15952,"position":6,"audio_url":"wbw/050_014_007.mp3","char_type_name":"word","page_number":518,"line_number":14,"text":"كَذَّبَ","translation":{"text":"মিথ্যা বলে অমান্য করেছে","language_name":"bengali","language_id":20},"transliteration":{"text":"kadhaba","language_name":"english","language_id":38}},{"id":15953,"position":7,"audio_url":"wbw/050_014_008.mp3","char_type_name":"word","page_number":518,"line_number":14,"text":"ٱلرُّسُلَ","translation":{"text":"রাসূলদেরকে","language_name":"bengali","language_id":20},"transliteration":{"text":"l-rusula","language_name":"english","language_id":38}},{"id":15954,"position":8,"audio_url":"wbw/050_014_009.mp3","char_type_name":"word","page_number":518,"line_number":14,"text":"فَحَقَّ","translation":{"text":"ফলে সত্য হয়েছে","language_name":"bengali","language_id":20},"transliteration":{"text":"faḥaqqa","language_name":"english","language_id":38}},{"id":15955,"position":9,"audio_url":"wbw/050_014_010.mp3","char_type_name":"word","page_number":518,"line_number":14,"text":"وَعِيدِ","translation":{"text":"আমার ভীতিপ্রদর্শন (শাস্তি পেয়েছে)","language_name":"bengali","language_id":20},"transliteration":{"text":"waʿīdi","language_name":"english","language_id":38}},{"id":15956,"position":10,"audio_url":null,"char_type_name":"end","page_number":518,"line_number":15,"text":"١٤","translation":{"text":"(১৪)","language_name":"bengali","language_id":20},"transliteration":{"text":null,"language_name":"english","language_id":38}}]},{"id":4645,"verse_number":15,"verse_key":"50:15","hizb_number":52,"rub_el_hizb_number":207,"ruku_number":454,"manzil_number":7,"sajdah_number":null,"page_number":518,"juz_number":26,"words":[{"id":17145,"position":1,"audio_url":"wbw/050_015_001.mp3","char_type_name":"word","page_number":518,"line_number":15,"text":"أَفَعَيِينَا","translation":{"text":"আমরা তবে অক্ষম হয়ে পড়েছি কি","language_name":"bengali","language_id":20},"transliteration":{"text":"afaʿayīnā","language_name":"english","language_id":38}},{"id":17146,"position":2,"audio_url":"wbw/050_015_002.mp3","char_type_name":"word","page_number":518,"line_number":15,"text":"بِٱلْخَلْقِ","translation":{"text":"সৃষ্টিতে","language_name":"bengali","language_id":20},"transliteration":{"text":"bil-khalqi","language_name":"english","language_id":38}},{"id":17147,"position":3,"audio_url":"wbw/050_015_003.mp3","char_type_name":"word","page_number":518,"line_number":15,"text":"ٱلْأَوَّلِ ۚ","translation":{"text":"প্রথম","language_name":"bengali","language_id":20},"transliteration":{"text":"l-awali","language_name":"english","language_id":38}},{"id":17149,"position":4,"audio_url":"wbw/050_015_005.mp3","char_type_name":"word","page_number":518,"line_number":15,"text":"بَلْ","translation":{"text":"বরং","language_name":"bengali","language_id":20},"transliteration":{"text":"bal","language_name":"english","language_id":38}},{"id":17150,"position":5,"audio_url":"wbw/050_015_006.mp3","char_type_name":"word","page_number":518,"line_number":15,"text":"هُمْ","translation":{"text":"তারা","language_name":"bengali","language_id":20},"transliteration":{"text":"hum","language_name":"english","language_id":38}},{"id":17151,"position":6,"audio_url":"wbw/050_015_007.mp3","char_type_name":"word","page_number":518,"line_number":15,"text":"فِى","translation":{"text":"মধ্যে আছে","language_name":"bengali","language_id":20},"transliteration":{"text":"fī","language_name":"english","language_id":38}},{"id":17152,"position":7,"audio_url":"wbw/050_015_008.mp3","char_type_name":"word","page_number":518,"line_number":15,"text":"لَبْسٍۢ","translation":{"text":"সন্দেহের","language_name":"bengali","language_id":20},"transliteration":{"text":"labsin","language_name":"english","language_id":38}},{"id":17153,"position":8,"audio_url":"wbw/050_015_009.mp3","char_type_name":"word","page_number":518,"line_number":15,"text":"مِّنْ","translation":{"text":"সম্পর্কে","language_name":"bengali","language_id":20},"transliteration":{"text":"min","language_name":"english","language_id":38}},{"id":17154,"position":9,"audio_url":"wbw/050_015_010.mp3","char_type_name":"word","page_number":518,"line_number":15,"text":"خَلْقٍۢ","translation":{"text":"সৃষ্টি","language_name":"bengali","language_id":20},"transliteration":{"text":"khalqin","language_name":"english","language_id":38}},{"id":17155,"position":10,"audio_url":"wbw/050_015_011.mp3","char_type_name":"word","page_number":518,"line_number":15,"text":"جَدِيدٍۢ","translation":{"text":"নতুন","language_name":"bengali","language_id":20},"transliteration":{"text":"jadīdin","language_name":"english","language_id":38}},{"id":17156,"position":11,"audio_url":null,"char_type_name":"end","page_number":518,"line_number":15,"text":"١٥","translation":{"text":"(১৫)","language_name":"bengali","language_id":20},"transliteration":{"text":null,"language_name":"english","language_id":38}}]},{"id":4646,"verse_number":16,"verse_key":"50:16","hizb_number":52,"rub_el_hizb_number":207,"ruku_number":455,"manzil_number":7,"sajdah_number":null,"page_number":519,"juz_number":26,"words":[{"id":18240,"position":1,"audio_url":"wbw/050_016_001.mp3","char_type_name":"word","page_number":519,"line_number":1,"text":"وَلَقَدْ","translation":{"text":"এবং নিশ্চয়ই","language_name":"bengali","language_id":20},"transliteration":{"text":"walaqad","language_name":"english","language_id":38}},{"id":18241,"position":2,"audio_url":"wbw/050_016_002.mp3","char_type_name":"word","page_number":519,"line_number":1,"text":"خَلَقْنَا","translation":{"text":"আমরা সৃষ্টি করেছি","language_name":"bengali","language_id":20},"transliteration":{"text":"khalaqnā","language_name":"english","language_id":38}},{"id":18242,"position":3,"audio_url":"wbw/050_016_003.mp3","char_type_name":"word","page_number":519,"line_number":1,"text":"ٱلْإِنسَـٰنَ","translation":{"text":"মানুষকে","language_name":"bengali","language_id":20},"transliteration":{"text":"l-insāna","language_name":"english","language_id":38}},{"id":18243,"position":4,"audio_url":"wbw/050_016_004.mp3","char_type_name":"word","page_number":519,"line_number":1,"text":"وَنَعْلَمُ","translation":{"text":"এবং  আমরা জানি","language_name":"bengali","language_id":20},"transliteration":{"text":"wanaʿlamu","language_name":"english","language_id":38}},{"id":18244,"position":5,"audio_url":"wbw/050_016_005.mp3","char_type_name":"word","page_number":519,"line_number":1,"text":"مَا","translation":{"text":"যা","language_name":"bengali","language_id":20},"transliteration":{"text":"mā","language_name":"english","language_id":38}},{"id":18245,"position":6,"audio_url":"wbw/050_016_006.mp3","char_type_name":"word","page_number":519,"line_number":1,"text":"تُوَسْوِسُ","translation":{"text":"কুমন্ত্রণা দেয়","language_name":"bengali","language_id":20},"transliteration":{"text":"tuwaswisu","language_name":"english","language_id":38}},{"id":18246,"position":7,"audio_url":"wbw/050_016_007.mp3","char_type_name":"word","page_number":519,"line_number":1,"text":"بِهِۦ","translation":{"text":"তা সম্পর্কে","language_name":"bengali","language_id":20},"transliteration":{"text":"bihi","language_name":"english","language_id":38}},{"id":18247,"position":8,"audio_url":"wbw/050_016_008.mp3","char_type_name":"word","page_number":519,"line_number":1,"text":"نَفْسُهُۥ ۖ","translation":{"text":"(অর্থাৎ) তার প্রবৃত্তি","language_name":"bengali","language_id":20},"transliteration":{"text":"nafsuhu","language_name":"english","language_id":38}},{"id":18249,"position":9,"audio_url":"wbw/050_016_010.mp3","char_type_name":"word","page_number":519,"line_number":1,"text":"وَنَحْنُ","translation":{"text":"এবং আমরা","language_name":"bengali","language_id":20},"transliteration":{"text":"wanaḥnu","language_name":"english","language_id":38}},{"id":18250,"position":10,"audio_url":"wbw/050_016_011.mp3","char_type_name":"word","page_number":519,"line_number":1,"text":"أَقْرَبُ","translation":{"text":"অধিক নিকটে","language_name":"bengali","language_id":20},"transliteration":{"text":"aqrabu","language_name":"english","language_id":38}},{"id":18251,"position":11,"audio_url":"wbw/050_016_012.mp3","char_type_name":"word","page_number":519,"line_number":1,"text":"إِلَيْهِ","translation":{"text":"তার","language_name":"bengali","language_id":20},"transliteration":{"text":"ilayhi","language_name":"english","language_id":38}},{"id":18252,"position":12,"audio_url":"wbw/050_016_013.mp3","char_type_name":"word","page_number":519,"line_number":2,"text":"مِنْ","translation":{"text":"চেয়েও","language_name":"bengali","language_id":20},"transliteration":{"text":"min","language_name":"english","language_id":38}},{"id":18253,"position":13,"audio_url":"wbw/050_016_014.mp3","char_type_name":"word","page_number":519,"line_number":2,"text":"حَبْلِ","translation":{"text":"ধমনী/ শিরার","language_name":"bengali","language_id":20},"transliteration":{"text":"ḥabli","language_name":"english","language_id":38}},{"id":18254,"position":14,"audio_url":"wbw/050_016_015.mp3","char_type_name":"word","page_number":519,"line_number":2,"text":"ٱلْوَرِيدِ","translation":{"text":"ঘাড়ের","language_name":"bengali","language_id":20},"transliteration":{"text":"l-warīdi","language_name":"english","language_id":38}},{"id":18255,"position":15,"audio_url":null,"char_type_name":"end","page_number":519,"line_number":2,"text":"١٦","translation":{"text":"(১৬)","language_name":"bengali","language_id":20},"transliteration":{"text":null,"language_name":"english","language_id":38}}]},{"id":4647,"verse_number":17,"verse_key":"50:17","hizb_number":52,"rub_el_hizb_number":207,"ruku_number":455,"manzil_number":7,"sajdah_number":null,"page_number":519,"juz_number":26,"words":[{"id":19273,"position":1,"audio_url":"wbw/050_017_001.mp3","char_type_name":"word","page_number":519,"line_number":2,"text":"إِذْ","translation":{"text":"যখন","language_name":"bengali","language_id":20},"transliteration":{"text":"idh","language_name":"english","language_id":38}},{"id":19274,"position":2,"audio_url":"wbw/050_017_002.mp3","char_type_name":"word","page_number":519,"line_number":2,"text":"يَتَلَقَّى","translation":{"text":"গ্রহণ করে (অর্থাৎ লিখে)","language_name":"bengali","language_id":20},"transliteration":{"text":"yatalaqqā","language_name":"english","language_id":38}},{"id":19275,"position":3,"audio_url":"wbw/050_017_003.mp3","char_type_name":"word","page_number":519,"line_number":2,"text":"ٱلْمُتَلَقِّيَانِ","translation":{"text":"দুজন গ্রহণকারী (লেখক)","language_name":"bengali","language_id":20},"transliteration":{"text":"l-mutalaqiyāni","language_name":"english","language_id":38}},{"id":19276,"position":4,"audio_url":"wbw/050_017_004.mp3","char_type_name":"word","page_number":519,"line_number":2,"text":"عَنِ","translation":{"text":"থেকে","language_name":"bengali","language_id":20},"transliteration":{"text":"ʿani","language_name":"english","language_id":38}},{"id":19277,"position":5,"audio_url":"wbw/050_017_005.mp3","char_type_name":"word","page_number":519,"line_number":2,"text":"ٱلْيَمِينِ","translation":{"text":"ডান দিক","language_name":"bengali","language_id":20},"transliteration":{"text":"l-yamīni","language_name":"english","language_id":38}},{"id":19278,"position":6,"audio_url":"wbw/050_017_006.mp3","char_type_name":"word","page_number":519,"line_number":2,"text":"وَعَنِ","translation":{"text":"ও থেকে","language_name":"bengali","language_id":20},"transliteration":{"text":"waʿani","language_name":"english","language_id":38}},{"id":19279,"position":7,"audio_url":"wbw/050_017_007.mp3","char_type_name":"word","page_number":519,"line_number":2,"text":"ٱلشِّمَالِ","translation":{"text":"ও বাম দিক","language_name":"bengali","language_id":20},"transliteration":{"text":"l-shimāli","language_name":"english","language_id":38}},{"id":19280,"position":8,"audio_url":"wbw/050_017_008.mp3","char_type_name":"word","page_number":519,"line_number":3,"text":"قَعِيدٌۭ","translation":{"text":"বসে","language_name":"bengali","language_id":20},"transliteration":{"text":"qaʿīdun","language_name":"english","language_id":38}},{"id":19281,"position":9,"audio_url":null,"char_type_name":"end","page_number":519,"line_number":3,"text":"١٧","translation":{"text":"(১৭)","language_name":"bengali","language_id":20},"transliteration":{"text":null,"language_name":"english","language_id":38}}]},{"id":4648,"verse_number":18,"verse_key":"50:18","hizb_number":52,"rub_el_hizb_number":207,"ruku_number":455,"manzil_number":7,"sajdah_number":null,"page_number":519,"juz_number":26,"words":[{"id":20348,"position":1,"audio_url":"wbw/050_018_001.mp3","char_type_name":"word","page_number":519,"line_number":3,"text":"مَّا","translation":{"text":"না","language_name":"bengali","language_id":20},"transliteration":{"text":"mā","language_name":"english","language_id":38}},{"id":20349,"position":2,"audio_url":"wbw/050_018_002.mp3","char_type_name":"word","page_number":519,"line_number":3,"text":"يَلْفِظُ","translation":{"text":"সে উচ্চারণ করে","language_name":"bengali","language_id":20},"transliteration":{"text":"yalfiẓu","language_name":"english","language_id":38}},{"id":20350,"position":3,"audio_url":"wbw/050_018_003.mp3","char_type_name":"word","page_number":519,"line_number":3,"text":"مِن","translation":{"text":"কোনো","language_name":"bengali","language_id":20},"transliteration":{"text":"min","language_name":"english","language_id":38}},{"id":20351,"position":4,"audio_url":"wbw/050_018_004.mp3","char_type_name":"word","page_number":519,"line_number":3,"text":"قَوْلٍ","translation":{"text":"কথা","language_name":"bengali","language_id":20},"transliteration":{"text":"qawlin","language_name":"english","language_id":38}},{"id":20352,"position":5,"audio_url":"wbw/050_018_005.mp3","char_type_name":"word","page_number":519,"line_number":3,"text":"إِلَّا","translation":{"text":"এছাড়া যে","language_name":"bengali","language_id":20},"transliteration":{"text":"illā","language_name":"english","language_id":38}},{"id":20353,"position":6,"audio_url":"wbw/050_018_006.mp3","char_type_name":"word","page_number":519,"line_number":3,"text":"لَدَيْهِ","translation":{"text":"তার কাছে (থাকে)","language_name":"bengali","language_id":20},"transliteration":{"text":"ladayhi","language_name":"english","language_id":38}},{"id":20354,"position":7,"audio_url":"wbw/050_018_007.mp3","char_type_name":"word","page_number":519,"line_number":3,"text":"رَقِيبٌ","translation":{"text":"প্রহরী","language_name":"bengali","language_id":20},"transliteration":{"text":"raqībun","language_name":"english","language_id":38}},{"id":20355,"position":8,"audio_url":"wbw/050_018_008.mp3","char_type_name":"word","page_number":519,"line_number":3,"text":"عَتِيدٌۭ","translation":{"text":"তৎপর","language_name":"bengali","language_id":20},"transliteration":{"text":"ʿatīdun","language_name":"english","language_id":38}},{"id":20356,"position":9,"audio_url":null,"char_type_name":"end","page_number":519,"line_number":3,"text":"١٨","translation":{"text":"(১৮)","language_name":"bengali","language_id":20},"transliteration":{"text":null,"language_name":"english","language_id":38}}]},{"id":4649,"verse_number":19,"verse_key":"50:19","hizb_number":52,"rub_el_hizb_number":207,"ruku_number":455,"manzil_number":7,"sajdah_number":null,"page_number":519,"juz_number":26,"words":[{"id":21427,"position":1,"audio_url":"wbw/050_019_001.mp3","char_type_name":"word","page_number":519,"line_number":3,"text":"وَجَآءَتْ","translation":{"text":"এবং আসবে","language_name":"bengali","language_id":20},"transliteration":{"text":"wajāat","language_name":"english","language_id":38}},{"id":21428,"position":2,"audio_url":"wbw/050_019_002.mp3","char_type_name":"word","page_number":519,"line_number":3,"text":"سَكْرَةُ","translation":{"text":"যন্ত্রণা","language_name":"bengali","language_id":20},"transliteration":{"text":"sakratu","language_name":"english","language_id":38}},{"id":21429,"position":3,"audio_url":"wbw/050_019_003.mp3","char_type_name":"word","page_number":519,"line_number":4,"text":"ٱلْمَوْتِ","translation":{"text":"মৃত্যুর","language_name":"bengali","language_id":20},"transliteration":{"text":"l-mawti","language_name":"english","language_id":38}},{"id":21430,"position":4,"audio_url":"wbw/050_019_004.mp3","char_type_name":"word","page_number":519,"line_number":4,"text":"بِٱلْحَقِّ ۖ","translation":{"text":"সত্য সহকারে","language_name":"bengali","language_id":20},"transliteration":{"text":"bil-ḥaqi","language_name":"english","language_id":38}},{"id":21432,"position":5,"audio_url":"wbw/050_019_006.mp3","char_type_name":"word","page_number":519,"line_number":4,"text":"ذَٰلِكَ","translation":{"text":"\"(বলা হবে এটা) তাই","language_name":"bengali","language_id":20},"transliteration":{"text":"dhālika","language_name":"english","language_id":38}},{"id":21433,"position":6,"audio_url":"wbw/050_019_007.mp3","char_type_name":"word","page_number":519,"line_number":4,"text":"مَا","translation":{"text":"যা","language_name":"bengali","language_id":20},"transliteration":{"text":"mā","language_name":"english","language_id":38}},{"id":21434,"position":7,"audio_url":"wbw/050_019_008.mp3","char_type_name":"word","page_number":519,"line_number":4,"text":"كُنتَ","translation":{"text":"তুমি ছিলে","language_name":"bengali","language_id":20},"transliteration":{"text":"kunta","language_name":"english","language_id":38}},{"id":21435,"position":8,"audio_url":"wbw/050_019_009.mp3","char_type_name":"word","page_number":519,"line_number":4,"text":"مِنْهُ","translation":{"text":"তা হতে","language_name":"bengali","language_id":20},"transliteration":{"text":"min'hu","language_name":"english","language_id":38}},{"id":21436,"position":9,"audio_url":"wbw/050_019_010.mp3","char_type_name":"word","page_number":519,"line_number":4,"text":"تَحِيدُ","translation":{"text":"পাশ কাটাতে/ পালিয়ে থাকতে\"","language_name":"bengali","language_id":20},"transliteration":{"text":"taḥīdu","language_name":"english","language_id":38}},{"id":21437,"position":10,"audio_url":null,"char_type_name":"end","page_number":519,"line_number":4,"text":"١٩","translation":{"text":"(১৯)","language_name":"bengali","language_id":20},"transliteration":{"text":null,"language_name":"english","language_id":38}}]},{"id":4650,"verse_number":20,"verse_key":"50:20","hizb_number":52,"rub_el_hizb_number":207,"ruku_number":455,"manzil_number":7,"sajdah_number":null,"page_number":519,"juz_number":26,"words":[{"id":22526,"position":1,"audio_url":"wbw/050_020_001.mp3","char_type_name":"word","page_number":519,"line_number":4,"text":"وَنُفِخَ","translation":{"text":"এবং ফুঁ দেওয়া হবে","language_name":"bengali","language_id":20},"transliteration":{"text":"wanufikha","language_name":"english","language_id":38}},{"id":22527,"position":2,"audio_url":"wbw/050_020_002.mp3","char_type_name":"word","page_number":519,"line_number":4,"text":"فِى","translation":{"text":"মধ্যে","language_name":"bengali","language_id":20},"transliteration":{"text":"fī","language_name":"english","language_id":38}},{"id":22528,"position":3,"audio_url":"wbw/050_020_003.mp3","char_type_name":"word","page_number":519,"line_number":4,"text":"ٱلصُّورِ ۚ","translation":{"text":"শিঙার","language_name":"bengali","language_id":20},"transliteration":{"text":"l-ṣūri","language_name":"english","language_id":38}},{"id":22530,"position":4,"audio_url":"wbw/050_020_005.mp3","char_type_name":"word","page_number":519,"line_number":4,"text":"ذَٰلِكَ","translation":{"text":"(এটাই) সেই","language_name":"bengali","language_id":20},"transliteration":{"text":"dhālika","language_name":"english","language_id":38}},{"id":22531,"position":5,"audio_url":"wbw/050_020_006.mp3","char_type_name":"word","page_number":519,"line_number":5,"text":"يَوْمُ","translation":{"text":"দিন (যার)","language_name":"bengali","language_id":20},"transliteration":{"text":"yawmu","language_name":"english","language_id":38}},{"id":22532,"position":6,"audio_url":"wbw/050_020_007.mp3","char_type_name":"word","page_number":519,"line_number":5,"text":"ٱلْوَعِيدِ","translation":{"text":"ভয় দেখানো হতো","language_name":"bengali","language_id":20},"transliteration":{"text":"l-waʿīdi","language_name":"english","language_id":38}},{"id":22533,"position":7,"audio_url":null,"char_type_name":"end","page_number":519,"line_number":5,"text":"٢٠","translation":{"text":"(২০)","language_name":"bengali","language_id":20},"transliteration":{"text":null,"language_name":"english","language_id":38}}]}],"pagination":{"per_page":10,"current_page":2,"next_page":3,"total_pages":5,"total_records":45}}
