{"verses":[{"id":4651,"verse_number":21,"verse_key":"50:21","hizb_number":52,"rub_el_hizb_number":207,"ruku_number":455,"manzil_number":7,"sajdah_number":null,"page_number":519,"juz_number":26,"words":[{"id":23677,"position":1,"audio_url":"wbw/050_021_001.mp3","char_type_name":"word","page_number":519,"line_number":5,"text":"وَجَآءَتْ","translation":{"text":"এবং আসবে","language_name":"bengali","language_id":20},"transliteration":{"text":"wajāat","language_name":"english","language_id":38}},{"id":23678,"position":2,"audio_url":"wbw/050_021_002.mp3","char_type_name":"word","page_number":519,"line_number":5,"text":"كُلُّ","translation":{"text":"প্রত্যেক","language_name":"bengali","language_id":20},"transliteration":{"text":"kullu","language_name":"english","language_id":38}},{"id":23679,"position":3,"audio_url":"wbw/050_021_003.mp3","char_type_name":"word","page_number":519,"line_number":5,"text":"نَفْسٍۢ","translation":{"text":"ব্যক্তি","language_name":"bengali","language_id":20},"transliteration":{"text":"nafsin","language_name":"english","language_id":38}},{"id":23680,"position":4,"audio_url":"wbw/050_021_004.mp3","char_type_name":"word","page_number":519,"line_number":5,"text":"مَّعَهَا","translation":{"text":"তার সাথে (থাকবে)","language_name":"bengali","language_id":20},"transliteration":{"text":"maʿahā","language_name":"english","language_id":38}},{"id":23681,"position":5,"audio_url":"wbw/050_021_005.mp3","char_type_name":"word","page_number":519,"line_number":5,"text":"سَآئِقٌۭ","translation":{"text":"একজন চালক","language_name":"bengali","language_id":20},"transliteration":{"text":"sāiqun","language_name":"english","language_id":38}},{"id":23682,"position":6,"audio_url":"wbw/050_021_006.mp3","char_type_name":"word","page_number":519,"line_number":5,"text":"وَشَهِيدٌۭ","translation":{"text":"ও একজন সাক্ষী","language_name":"bengali","language_id":20},"transliteration":{"text":"washahīdun","language_name":"english","language_id":38}},{"id":23683,"position":7,"audio_url":null,"char_type_name":"end","page_number":519,"line_number":5,"text":"٢١","translation":{"text":"(২১)","language_name":"bengali","language_id":20},"transliteration":{"text":null,"language_name":"english","language_id":38}}]},{"id":4652,"verse_number":22,"verse_key":"50:22","hizb_number":52,"rub_el_hizb_number":207,"ruku_number":455,"manzil_number":7,"sajdah_number":null,"page_number":519,"juz_number":26,"words":[{"id":24645,"position":1,"audio_url":"wbw/050_022_001.mp3","char_type_name":"word","page_number":519,"line_number":5,"text":"لَّقَدْ","translation":{"text":"\"নিশ্চয়ই","language_name":"bengali","language_id":20},"transliteration":{"text":"laqad","language_name":"english","language_id":38}},{"id":24646,"position":2,"audio_url":"wbw/050_022_002.mp3","char_type_name":"word","page_number":519,"line_number":6,"text":"كُنتَ","translation":{"text":"তুমি ছিলে","language_name":"bengali","language_id":20},"transliteration":{"text":"kunta","language_name":"english","language_id":38}},{"id":24647,"position":3,"audio_url":"wbw/050_022_003.mp3","char_type_name":"word","page_number":519,"line_number":6,"text":"فِى","translation":{"text":"মধ্যে","language_name":"bengali","language_id":20},"transliteration":{"text":"fī","language_name":"english","language_id":38}},{"id":24648,"position":4,"audio_url":"wbw/050_022_004.mp3","char_type_name":"word","page_number":519,"line_number":6,"text":"غَفْلَةٍۢ","translation":{"text":"উদাসীনতার","language_name":"bengali","language_id":20},"transliteration":{"text":"ghaflatin","language_name":"english","language_id":38}},{"id":24649,"position":5,"audio_url":"wbw/050_022_005.mp3","char_type_name":"word","page_number":519,"line_number":6,"text":"مِّنْ","translation":{"text":"হতে","language_name":"bengali","language_id":20},"transliteration":{"text":"min","language_name":"english","language_id":38}},{"id":24650,"position":6,"audio_url":"wbw/050_022_006.mp3","char_type_name":"word","page_number":519,"line_number":6,"text":"هَـٰذَا","translation":{"text":"এটা","language_name":"bengali","language_id":20},"transliteration":{"text":"hādhā","language_name":"english","language_id":38}},{"id":24651,"position":7,"audio_url":"wbw/050_022_007.mp3","char_type_name":"word","page_number":519,"line_number":6,"text":"فَكَشَفْنَا","translation":{"text":"আমরা এখন সরিয়ে নিয়েছি","language_name":"bengali","language_id":20},"transliteration":{"text":"fakashafnā","language_name":"english","language_id":38}},{"id":24652,"position":8,"audio_url":"wbw/050_022_008.mp3","char_type_name":"word","page_number":519,"line_number":6,"text":"عَنكَ","translation":{"text":"তোমার হতে","language_name":"bengali","language_id":20},"transliteration":{"text":"ʿanka","language_name":"english","language_id":38}},{"id":24653,"position":9,"audio_url":"wbw/050_022_009.mp3","char_type_name":"word","page_number":519,"line_number":6,"text":"غِطَآءَكَ","translation":{"text":"তোমার পর্দা","language_name":"bengali","language_id":20},"transliteration":{"text":"ghiṭāaka","language_name":"english","language_id":38}},{"id":24654,"position":10,"audio_url":"wbw/050_022_010.mp3","char_type_name":"word","page_number":519,"line_number":6,"text":"فَبَصَرُكَ","translation":{"text":"ফলে তোমার দৃষ্টি","language_name":"bengali","language_id":20},"transliteration":{"text":"fabaṣaruka","language_name":"english","language_id":38}},{"id":24655,"position":11,"audio_url":"wbw/050_022_011.mp3","char_type_name":"word","page_number":519,"line_number":6,"text":"ٱلْيَوْمَ","translation":{"text":"আজ","language_name":"bengali","language_id":20},"transliteration":{"text":"l-yawma","language_name":"english","language_id":38}},{"id":24656,"position":12,"audio_url":"wbw/050_022_012.mp3","char_type_name":"word","page_number":519,"line_number":6,"text":"حَدِيدٌۭ","translation":{"text":"প্রখর\"","language_name":"bengali","language_id":20},"transliteration":{"text":"ḥadīdun","language_name":"english","language_id":38}},{"id":24657,"position":13,"audio_url":null,"char_type_name":"end","page_number":519,"line_number":7,"text":"٢٢","translation":{"text":"(২২)","language_name":"bengali","language_id":20},"transliteration":{"text":null,"language_name":"english","language_id":38}}]},{"id":4653,"verse_number":23,"verse_key":"50:23","hizb_number":52,"rub_el_hizb_number":207,"ruku_number":455,"manzil_number":7,"sajdah_number":null,"page_number":519,"juz_number":26,"words":[{"id":26342,"position":1,"audio_url":"wbw/050_023_001.mp3","char_type_name":"word","page_number":519,"line_number":7,"text":"وَقَالَ","translation":{"text":"এবং বলবে","language_name":"bengali","language_id":20},"transliteration":{"text":"waqāla","language_name":"english","language_id":38}},{"id":26343,"position":2,"audio_url":"wbw/050_023_002.mp3","char_type_name":"word","page_number":519,"line_number":7,"text":"قَرِينُهُۥ","translation":{"text":"তার সঙ্গী","language_name":"bengali","language_id":20},"transliteration":{"text":"qarīnuhu","language_name":"english","language_id":38}},{"id":26344,"position":3,"audio_url":"wbw/050_023_003.mp3","char_type_name":"word","page_number":519,"line_number":7,"text":"هَـٰذَا","translation":{"text":"\"এই","language_name":"bengali","language_id":20},"transliteration":{"text":"hādhā","language_name":"english","language_id":38}},{"id":26345,"position":4,"audio_url":"wbw/050_023_004.mp3","char_type_name":"word","page_number":519,"line_number":7,"text":"مَا","translation":{"text":"যে (ছিল)","language_name":"bengali","language_id":20},"transliteration":{"text":"mā","language_name":"english","language_id":38}},{"id":26346,"position":5,"audio_url":"wbw/050_023_005.mp3","char_type_name":"word","page_number":519,"line_number":7,"text":"لَدَىَّ","translation":{"text":"আমার কাছে","language_name":"bengali","language_id":20},"transliteration":{"text":"ladayya","language_name":"english","language_id":38}},{"id":26347,"position":6,"audio_url":"wbw/050_023_006.mp3","char_type_name":"word","page_number":519,"line_number":7,"text":"عَتِيدٌ","translation":{"text":"প্রস্তুত\"","language_name":"bengali","language_id":20},"transliteration":{"text":"ʿatīdun","language_name":"english","language_id":38}},{"id":26348,"position":7,"audio_url":null,"char_type_name":"end","page_number":519,"line_number":7,"text":"٢٣","translation":{"text":"(২৩)","language_name":"bengali","language_id":20},"transliteration":{"text":null,"language_name":"english","language_id":38}}]},{"id":4654,"verse_number":24,"verse_key":"50:24","hizb_number":52,"rub_el_hizb_number":207,"ruku_number":455,"manzil_number":7,"sajdah_number":null,"page_number":519,"juz_number":26,"words":[{"id":26793,"position":1,"audio_url":"wbw/050_024_001.mp3","char_type_name":"word","page_number":519,"line_number":7,"text":"أَلْقِيَا","translation":{"text":"\"(বলা হবে) নিক্ষেপ কর দু'জনে","language_name":"bengali","language_id":20},"transliteration":{"text":"alqiyā","language_name":"english","language_id":38}},{"id":26794,"position":2,"audio_url":"wbw/050_024_002.mp3","char_type_name":"word","page_number":519,"line_number":7,"text":"فِى","translation":{"text":"মধ্যে","language_name":"bengali","language_id":20},"transliteration":{"text":"fī","language_name":"english","language_id":38}},{"id":26795,"position":3,"audio_url":"wbw/050_024_003.mp3","char_type_name":"word","page_number":519,"line_number":7,"text":"جَهَنَّمَ","translation":{"text":"জাহান্নামের","language_name":"bengali","language_id":20},"transliteration":{"text":"jahannama","language_name":"english","language_id":38}},{"id":26796,"position":4,"audio_url":"wbw/050_024_004.mp3","char_type_name":"word","page_number":519,"line_number":7,"text":"كُلَّ","translation":{"text":"প্রত্যেক","language_name":"bengali","language_id":20},"transliteration":{"text":"kulla","language_name":"english","language_id":38}},{"id":26797,"position":5,"audio_url":"wbw/050_024_005.mp3","char_type_name":"word","page_number":519,"line_number":7,"text":"كَفَّارٍ","translation":{"text":"কট্টর কাফিরকে","language_name":"bengali","language_id":20},"transliteration":{"text":"kaffārin","language_name":"english","language_id":38}},{"id":26798,"position":6,"audio_url":"wbw/050_024_006.mp3","char_type_name":"word","page_number":519,"line_number":8,"text":"عَنِيدٍۢ","translation":{"text":"(যে ছিল) উদ্ধত","language_name":"bengali","language_id":20},"transliteration":{"text":"ʿanīdin","language_name":"english","language_id":38}},{"id":26799,"position":7,"audio_url":null,"char_type_name":"end","page_number":519,"line_number":8,"text":"٢٤","translation":{"text":"(২৪)","language_name":"bengali","language_id":20},"transliteration":{"text":null,"language_name":"english","language_id":38}}]},{"id":4655,"verse_number":25,"verse_key":"50:25","hizb_number":52,"rub_el_hizb_number":207,"ruku_number":455,"manzil_number":7,"sajdah_number":null,"page_number":519,"juz_number":26,"words":[{"id":27847,"position":1,"audio_url":"wbw/050_025_001.mp3","char_type_name":"word","page_number":519,"line_number":8,"text":"مَّنَّاعٍۢ","translation":{"text":"প্রবল বাধাদান কারী","language_name":"bengali","language_id":20},"transliteration":{"text":"mannāʿin","language_name":"english","language_id":38}},{"id":27848,"position":2,"audio_url":"wbw/050_025_002.mp3","char_type_name":"word","page_number":519,"line_number":8,"text":"لِّلْخَيْرِ","translation":{"text":"কল্যাণ (কাজের)","language_name":"bengali","language_id":20},"transliteration":{"text":"lil'khayri","language_name":"english","language_id":38}},{"id":27849,"position":3,"audio_url":"wbw/050_025_003.mp3","char_type_name":"word","page_number":519,"line_number":8,"text":"مُعْتَدٍۢ","translation":{"text":"সীমা লংঘনকারী","language_name":"bengali","language_id":20},"transliteration":{"text":"muʿ'tadin","language_name":"english","language_id":38}},{"id":27850,"position":4,"audio_url":"wbw/050_025_004.mp3","char_type_name":"word","page_number":519,"line_number":8,"text":"مُّرِيبٍ","translation":{"text":"সন্দেহপোষণকারী","language_name":"bengali","language_id":20},"transliteration":{"text":"murībin","language_name":"english","language_id":38}},{"id":27851,"position":5,"audio_url":null,"char_type_name":"end","page_number":519,"line_number":8,"text":"٢٥","translation":{"text":"(২৫)","language_name":"bengali","language_id":20},"transliteration":{"text":null,"language_name":"english","language_id":38}}]},{"id":4656,"verse_number":26,"verse_key":"50:26","hizb_number":52,"rub_el_hizb_number":207,"ruku_number":455,"manzil_number":7,"sajdah_number":null,"page_number":519,"juz_number":26,"words":[{"id":28792,"position":1,"audio_url":"wbw/050_026_001.mp3","char_type_name":"word","page_number":519,"line_number":8,"text":"ٱلَّذِى","translation":{"text":"যে","language_name":"bengali","language_id":20},"transliteration":{"text":"alladhī","language_name":"english","language_id":38}},{"id":28793,"position":2,"audio_url":"wbw/050_026_002.mp3","char_type_name":"word","page_number":519,"line_number":8,"text":"جَعَلَ","translation":{"text":"বানিয়েছিল","language_name":"bengali","language_id":20},"transliteration":{"text":"jaʿala","language_name":"english","language_id":38}},{"id":28794,"position":3,"audio_url":"wbw/050_026_003.mp3","char_type_name":"word","page_number":519,"line_number":8,"text":"مَعَ","translation":{"text":"সাথে","language_name":"bengali","language_id":20},"transliteration":{"text":"maʿa","language_name":"english","language_id":38}},{"id":28795,"position":4,"audio_url":"wbw/050_026_004.mp3","char_type_name":"word","page_number":519,"line_number":8,"text":"ٱللَّهِ","translation":{"text":"আল্লাহর","language_name":"bengali","language_id":20},"transliteration":{"text":"l-lahi","language_name":"english","language_id":38}},{"id":28796,"position":5,"audio_url":"wbw/050_026_005.mp3","char_type_name":"word","page_number":519,"line_number":8,"text":"إِلَـٰهًا","translation":{"text":"উপাস্য","language_name":"bengali","language_id":20},"transliteration":{"text":"ilāhan","language_name":"english","language_id":38}},{"id":28797,"position":6,"audio_url":"wbw/050_026_006.mp3","char_type_name":"word","page_number":519,"line_number":9,"text":"ءَاخَرَ","translation":{"text":"অন্যকেও","language_name":"bengali","language_id":20},"transliteration":{"text":"ākhara","language_name":"english","language_id":38}},{"id":28798,"position":7,"audio_url":"wbw/050_026_007.mp3","char_type_name":"word","page_number":519,"line_number":9,"text":"فَأَلْقِيَاهُ","translation":{"text":"তাকে তাই দু'জনে নিক্ষেপ কর","language_name":"bengali","language_id":20},"transliteration":{"text":"fa-alqiyāhu","language_name":"english","language_id":38}},{"id":28799,"position":8,"audio_url":"wbw/050_026_008.mp3","char_type_name":"word","page_number":519,"line_number":9,"text":"فِى","translation":{"text":"মধ্যে","language_name":"bengali","language_id":20},"transliteration":{"text":"fī","language_name":"english","language_id":38}},{"id":28800,"position":9,"audio_url":"wbw/050_026_009.mp3","char_type_name":"word","page_number":519,"line_number":9,"text":"ٱلْعَذَابِ","translation":{"text":"শাস্তির","language_name":"bengali","language_id":20},"transliteration":{"text":"l-ʿadhābi","language_name":"english","language_id":38}},{"id":28801,"position":10,"audio_url":"wbw/050_026_010.mp3","char_type_name":"word","page_number":519,"line_number":9,"text":"ٱلشَّدِيدِ","translation":{"text":"কঠিন\"","language_name":"bengali","language_id":20},"transliteration":{"text":"l-shadīdi","language_name":"english","language_id":38}},{"id":28802,"position":11,"audio_url":null,"char_type_name":"end","page_number":519,"line_number":9,"text":"٢٦","translation":{"text":"(২৬)","language_name":"bengali","language_id":20},"transliteration":{"text":null,"language_name":"english","language_id":38}}]},{"id":4657,"verse_number":27,"verse_key":"50:27","hizb_number":52,"rub_el_hizb_number":208,"ruku_number":455,"manzil_number":7,"sajdah_number":null,"page_number":519,"juz_number":26,"words":[{"id":30413,"position":1,"audio_url":"wbw/050_027_002.mp3","char_type_name":"word","page_number":519,"line_number":9,"text":"۞ قَالَ","translation":{"text":"বলবে","language_name":"bengali","language_id":20},"transliteration":{"text":"qāla","language_name":"english","language_id":38}},{"id":30414,"position":2,"audio_url":"wbw/050_027_003.mp3","char_type_name":"word","page_number":519,"line_number":9,"text":"قَرِينُهُۥ","translation":{"text":"তার সঙ্গী (অর্থাৎ শয়তান)","language_name":"bengali","language_id":20},"transliteration":{"text":"qarīnuhu","language_name":"english","language_id":38}},{"id":30415,"position":3,"audio_url":"wbw/050_027_004.mp3","char_type_name":"word","page_number":519,"line_number":9,"text":"رَبَّنَا","translation":{"text":"\"হে আমাদের রব","language_name":"bengali","language_id":20},"transliteration":{"text":"rabbanā","language_name":"english","language_id":38}},{"id":30416,"position":4,"audio_url":"wbw/050_027_005.mp3","char_type_name":"word","page_number":519,"line_number":9,"text":"مَآ","translation":{"text":"না","language_name":"bengali","language_id":20},"transliteration":{"text":"mā","language_name":"english","language_id":38}},{"id":30417,"position":5,"audio_url":"wbw/050_027_006.mp3","char_type_name":"word","page_number":519,"line_number":9,"text":"أَطْغَيْتُهُۥ","translation":{"text":"তাকে আমি অবাধ্য করি","language_name":"bengali","language_id":20},"transliteration":{"text":"aṭghaytuhu","language_name":"english","language_id":38}},{"id":30418,"position":6,"audio_url":"wbw/050_027_007.mp3","char_type_name":"word","page_number":519,"line_number":10,"text":"وَلَـٰكِن","translation":{"text":"কিন্তু","language_name":"bengali","language_id":20},"transliteration":{"text":"walākin","language_name":"english","language_id":38}},{"id":30419,"position":7,"audio_url":"wbw/050_027_008.mp3","char_type_name":"word","page_number":519,"line_number":10,"text":"كَانَ","translation":{"text":"(নিজেই) সে ছিল","language_name":"bengali","language_id":20},"transliteration":{"text":"kāna","language_name":"english","language_id":38}},{"id":30420,"position":8,"audio_url":"wbw/050_027_009.mp3","char_type_name":"word","page_number":519,"line_number":10,"text":"فِى","translation":{"text":"মধ্যে","language_name":"bengali","language_id":20},"transliteration":{"text":"fī","language_name":"english","language_id":38}},{"id":30421,"position":9,"audio_url":"wbw/050_027_010.mp3","char_type_name":"word","page_number":519,"line_number":10,"text":"ضَلَـٰلٍۭ","translation":{"text":"বিভ্রান্তির","language_name":"bengali","language_id":20},"transliteration":{"text":"ḍalālin","language_name":"english","language_id":38}},{"id":30422,"position":10,"audio_url":"wbw/050_027_011.mp3","char_type_name":"word","page_number":519,"line_number":10,"text":"بَعِيدٍۢ","translation":{"text":"(অনেক) ঘোর\"","language_name":"bengali","language_id":20},"transliteration":{"text":"baʿīdin","language_name":"english","language_id":38}},{"id":30423,"position":11,"audio_url":null,"char_type_name":"end","page_number":519,"line_number":10,"text":"٢٧","translation":{"text":"(২৭)","language_name":"bengali","language_id":20},"transliteration":{"text":null,"language_name":"english","language_id":38}}]},{"id":4658,"verse_number":28,"verse_key":"50:28","hizb_number":52,"rub_el_hizb_number":208,"ruku_number":455,"manzil_number":7,"sajdah_number":null,"page_number":519,"juz_number":26,"words":[{"id":30683,"position":1,"audio_url":"wbw/050_028_001.mp3","char_type_name":"word","page_number":519,"line_number":10,"text":"قَالَ","translation":{"text":"(আল্লাহ) বলবেন","language_name":"bengali","language_id":20},"transliteration":{"text":"qāla","language_name":"english","language_id":38}},{"id":30684,"position":2,"audio_url":"wbw/050_028_002.mp3","char_type_name":"word","page_number":519,"line_number":10,"text":"لَا","translation":{"text":"\"না","language_name":"bengali","language_id":20},"transliteration":{"text":"lā","language_name":"english","language_id":38}},{"id":30685,"position":3,"audio_url":"wbw/050_028_003.mp3","char_type_name":"word","page_number":519,"line_number":10,"text":"تَخْتَصِمُوا۟","translation":{"text":"তোমরা তর্কাতর্কি করো","language_name":"bengali","language_id":20},"transliteration":{"text":"takhtaṣimū","language_name":"english","language_id":38}},{"id":30686,"position":4,"audio_url":"wbw/050_028_004.mp3","char_type_name":"word","page_number":519,"line_number":10,"text":"لَدَىَّ","translation":{"text":"আমার কাছে","language_name":"bengali","language_id":20},"transliteration":{"text":"ladayya","language_name":"english","language_id":38}},{"id":30687,"position":5,"audio_url":"wbw/050_028_005.mp3","char_type_name":"word","page_number":519,"line_number":10,"text":"وَقَدْ","translation":{"text":"এবং নিশ্চয়ই","language_name":"bengali","language_id":20},"transliteration":{"text":"waqad","language_name":"english","language_id":38}},{"id":30688,"position":6,"audio_url":"wbw/050_028_006.mp3","char_type_name":"word","page_number":519,"line_number":10,"text":"قَدَّمْتُ","translation":{"text":"আমি পূর্বে পাঠিয়েছি","language_name":"bengali","language_id":20},"transliteration":{"text":"qaddamtu","language_name":"english","language_id":38}},{"id":30689,"position":7,"audio_url":"wbw/050_028_007.mp3","char_type_name":"word","page_number":519,"line_number":11,"text":"إِلَيْكُم","translation":{"text":"তোমাদের প্রতি","language_name":"bengali","language_id":20},"transliteration":{"text":"ilaykum","language_name":"english","language_id":38}},{"id":30690,"position":8,"audio_url":"wbw/050_028_008.mp3","char_type_name":"word","page_number":519,"line_number":11,"text":"بِٱلْوَعِيدِ","translation":{"text":"(খারাপ পরিণতির) সতর্কবাণী","language_name":"bengali","language_id":20},"transliteration":{"text":"bil-waʿīdi","language_name":"english","language_id":38}},{"id":30691,"position":9,"audio_url":null,"char_type_name":"end","page_number":519,"line_number":11,"text":"٢٨","translation":{"text":"(২৮)","language_name":"bengali","language_id":20},"transliteration":{"text":null,"language_name":"english","language_id":38}}]},{"id":4659,"verse_number":29,"verse_key":"50:29","hizb_number":52,"rub_el_hizb_number":208,"ruku_number":455,"manzil_number":7,"sajdah_number":null,"page_number":519,"juz_number":26,"words":[{"id":31764,"position":1,"audio_url":"wbw/050_029_001.mp3","char_type_name":"word","page_number":519,"line_number":11,"text":"مَا","translation":{"text":"না","language_name":"bengali","language_id":20},"transliteration":{"text":"mā","language_name":"english","language_id":38}},{"id":31765,"position":2,"audio_url":"wbw/050_029_002.mp3","char_type_name":"word","page_number":519,"line_number":11,"text":"يُبَدَّلُ","translation":{"text":"পরিবর্তন হয়","language_name":"bengali","language_id":20},"transliteration":{"text":"yubaddalu","language_name":"english","language_id":38}},{"id":31766,"position":3,"audio_url":"wbw/050_029_003.mp3","char_type_name":"word","page_number":519,"line_number":11,"text":"ٱلْقَوْلُ","translation":{"text":"কথার","language_name":"bengali","language_id":20},"transliteration":{"text":"l-qawlu","language_name":"english","language_id":38}},{"id":31767,"position":4,"audio_url":"wbw/050_029_004.mp3","char_type_name":"word","page_number":519,"line_number":11,"text":"لَدَىَّ","translation":{"text":"আমার কাছে","language_name":"bengali","language_id":20},"transliteration":{"text":"ladayya","language_name":"english","language_id":38}},{"id":31768,"position":5,"audio_url":"wbw/050_029_005.mp3","char_type_name":"word","page_number":519,"line_number":11,"text":"وَمَآ","translation":{"text":"এবং না","language_name":"bengali","language_id":20},"transliteration":{"text":"wamā","language_name":"english","language_id":38}},{"id":31769,"position":6,"audio_url":"wbw/050_029_006.mp3","char_type_name":"word","page_number":519,"line_number":11,"text":"أَنَا۠","translation":{"text":"আমি","language_name":"bengali","language_id":20},"transliteration":{"text":"anā","language_name":"english","language_id":38}},{"id":31770,"position":7,"audio_url":"wbw/050_029_007.mp3","char_type_name":"word","page_number":519,"line_number":11,"text":"بِظَلَّـٰمٍۢ","translation":{"text":"অবিচারক","language_name":"bengali","language_id":20},"transliteration":{"text":"biẓallāmin","language_name":"english","language_id":38}},{"id":31771,"position":8,"audio_url":"wbw/050_029_008.mp3","char_type_name":"word","page_number":519,"line_number":11,"text":"لِّلْعَبِيدِ","translation":{"text":"বান্দাদেরকে/ দাসদেরকে\"","language_name":"bengali","language_id":20},"transliteration":{"text":"lil'ʿabīdi","language_name":"english","language_id":38}},{"id":31772,"position":9,"audio_url":null,"char_type_name":"end","page_number":519,"line_number":11,"text":"٢٩","translation":{"text":"(২৯)","language_name":"bengali","language_id":20},"transliteration":{"text":null,"language_name":"english","language_id":38}}]},{"id":4660,"verse_number":30,"verse_key":"50:30","hizb_number":52,"rub_el_hizb_number":208,"ruku_number":456,"manzil_number":7,"sajdah_number":null,"page_number":519,"juz_number":26,"words":[{"id":32605,"position":1,"audio_url":"wbw/050_030_001.mp3","char_type_name":"word","page_number":519,"line_number":12,"text":"يَوْمَ","translation":{"text":"সেদিন","language_name":"bengali","language_id":20},"transliteration":{"text":"yawma","language_name":"english","language_id":38}},{"id":32606,"position":2,"audio_url":"wbw/050_030_002.mp3","char_type_name":"word","page_number":519,"line_number":12,"text":"نَقُولُ","translation":{"text":"বলব আমরা","language_name":"bengali","language_id":20},"transliteration":{"text":"naqūlu","language_name":"english","language_id":38}},{"id":32607,"position":3,"audio_url":"wbw/050_030_003.mp3","char_type_name":"word","page_number":519,"line_number":12,"text":"لِجَهَنَّمَ","translation":{"text":"জাহান্নামকে","language_name":"bengali","language_id":20},"transliteration":{"text":"lijahannama","language_name":"english","language_id":38}},{"id":32608,"position":4,"audio_url":"wbw/050_030_004.mp3","char_type_name":"word","page_number":519,"line_number":12,"text":"هَلِ","translation":{"text":"\"কি","language_name":"bengali","language_id":20},"transliteration":{"text":"hali","language_name":"english","language_id":38}},{"id":32609,"position":5,"audio_url":"wbw/050_030_005.mp3","char_type_name":"word","page_number":519,"line_number":12,"text":"ٱمْتَلَأْتِ","translation":{"text":"তুমি পূর্ণ হয়েছ\"","language_name":"bengali","language_id":20},"transliteration":{"text":"im'talati","language_name":"english","language_id":38}},{"id":32610,"position":6,"audio_url":"wbw/050_030_006.mp3","char_type_name":"word","page_number":519,"line_number":12,"text":"وَتَقُولُ","translation":{"text":"এবং সে বলবে","language_name":"bengali","language_id":20},"transliteration":{"text":"wataqūlu","language_name":"english","language_id":38}},{"id":32611,"position":7,"audio_url":"wbw/050_030_007.mp3","char_type_name":"word","page_number":519,"line_number":12,"text":"هَلْ","translation":{"text":"\"(আছে) কি","language_name":"bengali","language_id":20},"transliteration":{"text":"hal","language_name":"english","language_id":38}},{"id":32612,"position":8,"audio_url":"wbw/050_030_008.mp3","char_type_name":"word","page_number":519,"line_number":12,"text":"مِن","translation":{"text":"কিছু","language_name":"bengali","language_id":20},"transliteration":{"text":"min","language_name":"english","language_id":38}},{"id":32613,"position":9,"audio_url":"wbw/050_030_009.mp3","char_type_name":"word","page_number":519,"line_number":12,"text":"مَّزِيدٍۢ","translation":{"text":"আরও\"","language_name":"bengali","language_id":20},"transliteration":{"text":"mazīdin","language_name":"english","language_id":38}},{"id":32614,"position":10,"audio_url":null,"char_type_name":"end","page_number":519,"line_number":12,"text":"٣٠","translation":{"text":"(৩০)","language_name":"bengali","language_id":20},"transliteration":{"text":null,"language_name":"english","language_id":38}}]}],"pagination":{"per_page":10,"current_page":3,"next_page":4,"total_pages":5,"total_records":45}}
