{"verses":[{"id":5440,"verse_number":21,"verse_key":"71:21","hizb_number":57,"rub_el_hizb_number":228,"ruku_number":507,"manzil_number":7,"sajdah_number":null,"page_number":571,"juz_number":29,"words":[{"id":23858,"position":1,"audio_url":"wbw/071_021_001.mp3","char_type_name":"word","page_number":571,"line_number":7,"text":"قَالَ","translation":{"text":"বলল","language_name":"bengali","language_id":20},"transliteration":{"text":"qāla","language_name":"english","language_id":38}},{"id":23859,"position":2,"audio_url":"wbw/071_021_002.mp3","char_type_name":"word","page_number":571,"line_number":7,"text":"نُوحٌۭ","translation":{"text":"নূহ","language_name":"bengali","language_id":20},"transliteration":{"text":"nūḥun","language_name":"english","language_id":38}},{"id":23860,"position":3,"audio_url":"wbw/071_021_003.mp3","char_type_name":"word","page_number":571,"line_number":7,"text":"رَّبِّ","translation":{"text":"\"হে আমার রব","language_name":"bengali","language_id":20},"transliteration":{"text":"rabbi","language_name":"english","language_id":38}},{"id":23861,"position":4,"audio_url":"wbw/071_021_004.mp3","char_type_name":"word","page_number":571,"line_number":7,"text":"إِنَّهُمْ","translation":{"text":"তারা নিশ্চয়","language_name":"bengali","language_id":20},"transliteration":{"text":"innahum","language_name":"english","language_id":38}},{"id":23862,"position":5,"audio_url":"wbw/071_021_005.mp3","char_type_name":"word","page_number":571,"line_number":7,"text":"عَصَوْنِى","translation":{"text":"আমাকে অমান্য করেছে","language_name":"bengali","language_id":20},"transliteration":{"text":"ʿaṣawnī","language_name":"english","language_id":38}},{"id":23863,"position":6,"audio_url":"wbw/071_021_006.mp3","char_type_name":"word","page_number":571,"line_number":7,"text":"وَٱتَّبَعُوا۟","translation":{"text":"এবং তারা অনুসরণ করেছে","language_name":"bengali","language_id":20},"transliteration":{"text":"wa-ittabaʿū","language_name":"english","language_id":38}},{"id":23864,"position":7,"audio_url":"wbw/071_021_007.mp3","char_type_name":"word","page_number":571,"line_number":7,"text":"مَن","translation":{"text":"(তার) যার","language_name":"bengali","language_id":20},"transliteration":{"text":"man","language_name":"english","language_id":38}},{"id":23865,"position":8,"audio_url":"wbw/071_021_008.mp3","char_type_name":"word","page_number":571,"line_number":7,"text":"لَّمْ","translation":{"text":"নাই","language_name":"bengali","language_id":20},"transliteration":{"text":"lam","language_name":"english","language_id":38}},{"id":23866,"position":9,"audio_url":"wbw/071_021_009.mp3","char_type_name":"word","page_number":571,"line_number":7,"text":"يَزِدْهُ","translation":{"text":"তাকে বাড়ায়","language_name":"bengali","language_id":20},"transliteration":{"text":"yazid'hu","language_name":"english","language_id":38}},{"id":23867,"position":10,"audio_url":"wbw/071_021_010.mp3","char_type_name":"word","page_number":571,"line_number":8,"text":"مَالُهُۥ","translation":{"text":"তার মাল","language_name":"bengali","language_id":20},"transliteration":{"text":"māluhu","language_name":"english","language_id":38}},{"id":23868,"position":11,"audio_url":"wbw/071_021_011.mp3","char_type_name":"word","page_number":571,"line_number":8,"text":"وَوَلَدُهُۥٓ","translation":{"text":"ও তার সন্তান","language_name":"bengali","language_id":20},"transliteration":{"text":"wawaladuhu","language_name":"english","language_id":38}},{"id":23869,"position":12,"audio_url":"wbw/071_021_012.mp3","char_type_name":"word","page_number":571,"line_number":8,"text":"إِلَّا","translation":{"text":"ব্যতীত","language_name":"bengali","language_id":20},"transliteration":{"text":"illā","language_name":"english","language_id":38}},{"id":23870,"position":13,"audio_url":"wbw/071_021_013.mp3","char_type_name":"word","page_number":571,"line_number":8,"text":"خَسَارًۭا","translation":{"text":"লোকসান (আর কিছুই)","language_name":"bengali","language_id":20},"transliteration":{"text":"khasāran","language_name":"english","language_id":38}},{"id":23871,"position":14,"audio_url":null,"char_type_name":"end","page_number":571,"line_number":8,"text":"٢١","translation":{"text":"(২১)","language_name":"bengali","language_id":20},"transliteration":{"text":null,"language_name":"english","language_id":38}}]},{"id":5441,"verse_number":22,"verse_key":"71:22","hizb_number":57,"rub_el_hizb_number":228,"ruku_number":507,"manzil_number":7,"sajdah_number":null,"page_number":571,"juz_number":29,"words":[{"id":24901,"position":1,"audio_url":"wbw/071_022_001.mp3","char_type_name":"word","page_number":571,"line_number":8,"text":"وَمَكَرُوا۟","translation":{"text":"এবং তারা ষড়যন্ত্র করেছে","language_name":"bengali","language_id":20},"transliteration":{"text":"wamakarū","language_name":"english","language_id":38}},{"id":24902,"position":2,"audio_url":"wbw/071_022_002.mp3","char_type_name":"word","page_number":571,"line_number":8,"text":"مَكْرًۭا","translation":{"text":"ষড়যন্ত্র","language_name":"bengali","language_id":20},"transliteration":{"text":"makran","language_name":"english","language_id":38}},{"id":24903,"position":3,"audio_url":"wbw/071_022_003.mp3","char_type_name":"word","page_number":571,"line_number":8,"text":"كُبَّارًۭا","translation":{"text":"অতি বড়","language_name":"bengali","language_id":20},"transliteration":{"text":"kubbāran","language_name":"english","language_id":38}},{"id":24904,"position":4,"audio_url":null,"char_type_name":"end","page_number":571,"line_number":8,"text":"٢٢","translation":{"text":"(২২)","language_name":"bengali","language_id":20},"transliteration":{"text":null,"language_name":"english","language_id":38}}]},{"id":5442,"verse_number":23,"verse_key":"71:23","hizb_number":57,"rub_el_hizb_number":228,"ruku_number":507,"manzil_number":7,"sajdah_number":null,"page_number":571,"juz_number":29,"words":[{"id":25893,"position":1,"audio_url":"wbw/071_023_001.mp3","char_type_name":"word","page_number":571,"line_number":8,"text":"وَقَالُوا۟","translation":{"text":"এবং তারা বলেছে","language_name":"bengali","language_id":20},"transliteration":{"text":"waqālū","language_name":"english","language_id":38}},{"id":25894,"position":2,"audio_url":"wbw/071_023_002.mp3","char_type_name":"word","page_number":571,"line_number":9,"text":"لَا","translation":{"text":"\"না","language_name":"bengali","language_id":20},"transliteration":{"text":"lā","language_name":"english","language_id":38}},{"id":25895,"position":3,"audio_url":"wbw/071_023_003.mp3","char_type_name":"word","page_number":571,"line_number":9,"text":"تَذَرُنَّ","translation":{"text":"কখনোতোমরা ছেড়ো","language_name":"bengali","language_id":20},"transliteration":{"text":"tadharunna","language_name":"english","language_id":38}},{"id":25896,"position":4,"audio_url":"wbw/071_023_004.mp3","char_type_name":"word","page_number":571,"line_number":9,"text":"ءَالِهَتَكُمْ","translation":{"text":"তোমাদের ইলাহদেরকে","language_name":"bengali","language_id":20},"transliteration":{"text":"ālihatakum","language_name":"english","language_id":38}},{"id":25897,"position":5,"audio_url":"wbw/071_023_005.mp3","char_type_name":"word","page_number":571,"line_number":9,"text":"وَلَا","translation":{"text":"এবং না","language_name":"bengali","language_id":20},"transliteration":{"text":"walā","language_name":"english","language_id":38}},{"id":25898,"position":6,"audio_url":"wbw/071_023_006.mp3","char_type_name":"word","page_number":571,"line_number":9,"text":"تَذَرُنَّ","translation":{"text":"কখনো তোমরা ছেড়ো","language_name":"bengali","language_id":20},"transliteration":{"text":"tadharunna","language_name":"english","language_id":38}},{"id":25899,"position":7,"audio_url":"wbw/071_023_007.mp3","char_type_name":"word","page_number":571,"line_number":9,"text":"وَدًّۭا","translation":{"text":"ওয়াদ্দাকে","language_name":"bengali","language_id":20},"transliteration":{"text":"waddan","language_name":"english","language_id":38}},{"id":25900,"position":8,"audio_url":"wbw/071_023_008.mp3","char_type_name":"word","page_number":571,"line_number":9,"text":"وَلَا","translation":{"text":"ও না","language_name":"bengali","language_id":20},"transliteration":{"text":"walā","language_name":"english","language_id":38}},{"id":25901,"position":9,"audio_url":"wbw/071_023_009.mp3","char_type_name":"word","page_number":571,"line_number":9,"text":"سُوَاعًۭا","translation":{"text":"সূয়া'আকে","language_name":"bengali","language_id":20},"transliteration":{"text":"suwāʿan","language_name":"english","language_id":38}},{"id":25902,"position":10,"audio_url":"wbw/071_023_010.mp3","char_type_name":"word","page_number":571,"line_number":9,"text":"وَلَا","translation":{"text":"এবং না","language_name":"bengali","language_id":20},"transliteration":{"text":"walā","language_name":"english","language_id":38}},{"id":25903,"position":11,"audio_url":"wbw/071_023_011.mp3","char_type_name":"word","page_number":571,"line_number":9,"text":"يَغُوثَ","translation":{"text":"য়াগূছকে","language_name":"bengali","language_id":20},"transliteration":{"text":"yaghūtha","language_name":"english","language_id":38}},{"id":25904,"position":12,"audio_url":"wbw/071_023_012.mp3","char_type_name":"word","page_number":571,"line_number":9,"text":"وَيَعُوقَ","translation":{"text":"আর ইয়াউক","language_name":"bengali","language_id":20},"transliteration":{"text":"wayaʿūqa","language_name":"english","language_id":38}},{"id":25905,"position":13,"audio_url":"wbw/071_023_013.mp3","char_type_name":"word","page_number":571,"line_number":10,"text":"وَنَسْرًۭا","translation":{"text":"ও নছরকে\"","language_name":"bengali","language_id":20},"transliteration":{"text":"wanasran","language_name":"english","language_id":38}},{"id":25906,"position":14,"audio_url":null,"char_type_name":"end","page_number":571,"line_number":10,"text":"٢٣","translation":{"text":"(২৩)","language_name":"bengali","language_id":20},"transliteration":{"text":null,"language_name":"english","language_id":38}}]},{"id":5443,"verse_number":24,"verse_key":"71:24","hizb_number":57,"rub_el_hizb_number":228,"ruku_number":507,"manzil_number":7,"sajdah_number":null,"page_number":571,"juz_number":29,"words":[{"id":27035,"position":1,"audio_url":"wbw/071_024_001.mp3","char_type_name":"word","page_number":571,"line_number":10,"text":"وَقَدْ","translation":{"text":"এবং নিশ্চয়","language_name":"bengali","language_id":20},"transliteration":{"text":"waqad","language_name":"english","language_id":38}},{"id":27036,"position":2,"audio_url":"wbw/071_024_002.mp3","char_type_name":"word","page_number":571,"line_number":10,"text":"أَضَلُّوا۟","translation":{"text":"তারা পথভ্রষ্ট করেছে","language_name":"bengali","language_id":20},"transliteration":{"text":"aḍallū","language_name":"english","language_id":38}},{"id":27037,"position":3,"audio_url":"wbw/071_024_003.mp3","char_type_name":"word","page_number":571,"line_number":10,"text":"كَثِيرًۭا ۖ","translation":{"text":"অনেককে","language_name":"bengali","language_id":20},"transliteration":{"text":"kathīran","language_name":"english","language_id":38}},{"id":27039,"position":4,"audio_url":"wbw/071_024_005.mp3","char_type_name":"word","page_number":571,"line_number":10,"text":"وَلَا","translation":{"text":"এবং না","language_name":"bengali","language_id":20},"transliteration":{"text":"walā","language_name":"english","language_id":38}},{"id":27040,"position":5,"audio_url":"wbw/071_024_006.mp3","char_type_name":"word","page_number":571,"line_number":10,"text":"تَزِدِ","translation":{"text":"বারাবেন","language_name":"bengali","language_id":20},"transliteration":{"text":"tazidi","language_name":"english","language_id":38}},{"id":27041,"position":6,"audio_url":"wbw/071_024_007.mp3","char_type_name":"word","page_number":571,"line_number":10,"text":"ٱلظَّـٰلِمِينَ","translation":{"text":"জালেমদেরকে","language_name":"bengali","language_id":20},"transliteration":{"text":"l-ẓālimīna","language_name":"english","language_id":38}},{"id":27042,"position":7,"audio_url":"wbw/071_024_008.mp3","char_type_name":"word","page_number":571,"line_number":10,"text":"إِلَّا","translation":{"text":"ছাড়া","language_name":"bengali","language_id":20},"transliteration":{"text":"illā","language_name":"english","language_id":38}},{"id":27043,"position":8,"audio_url":"wbw/071_024_009.mp3","char_type_name":"word","page_number":571,"line_number":10,"text":"ضَلَـٰلًۭا","translation":{"text":"পথভ্রষ্টতা\"","language_name":"bengali","language_id":20},"transliteration":{"text":"ḍalālan","language_name":"english","language_id":38}},{"id":27044,"position":9,"audio_url":null,"char_type_name":"end","page_number":571,"line_number":10,"text":"٢٤","translation":{"text":"(২৪)","language_name":"bengali","language_id":20},"transliteration":{"text":null,"language_name":"english","language_id":38}}]},{"id":5444,"verse_number":25,"verse_key":"71:25","hizb_number":57,"rub_el_hizb_number":228,"ruku_number":507,"manzil_number":7,"sajdah_number":null,"page_number":571,"juz_number":29,"words":[{"id":27976,"position":1,"audio_url":"wbw/071_025_001.mp3","char_type_name":"word","page_number":571,"line_number":11,"text":"مِّمَّا","translation":{"text":"একারণে","language_name":"bengali","language_id":20},"transliteration":{"text":"mimmā","language_name":"english","language_id":38}},{"id":27977,"position":2,"audio_url":"wbw/071_025_002.mp3","char_type_name":"word","page_number":571,"line_number":11,"text":"خَطِيٓـَٔـٰتِهِمْ","translation":{"text":"তাদের অপরাধসমূহের","language_name":"bengali","language_id":20},"transliteration":{"text":"khaṭīātihim","language_name":"english","language_id":38}},{"id":27978,"position":3,"audio_url":"wbw/071_025_003.mp3","char_type_name":"word","page_number":571,"line_number":11,"text":"أُغْرِقُوا۟","translation":{"text":"তাদের ডুবান হয়েছে","language_name":"bengali","language_id":20},"transliteration":{"text":"ugh'riqū","language_name":"english","language_id":38}},{"id":27979,"position":4,"audio_url":"wbw/071_025_004.mp3","char_type_name":"word","page_number":571,"line_number":11,"text":"فَأُدْخِلُوا۟","translation":{"text":"দাখিল করা হয়েছে অতঃপর কর","language_name":"bengali","language_id":20},"transliteration":{"text":"fa-ud'khilū","language_name":"english","language_id":38}},{"id":27980,"position":5,"audio_url":"wbw/071_025_005.mp3","char_type_name":"word","page_number":571,"line_number":11,"text":"نَارًۭا","translation":{"text":"আগুনে","language_name":"bengali","language_id":20},"transliteration":{"text":"nāran","language_name":"english","language_id":38}},{"id":27981,"position":6,"audio_url":"wbw/071_025_006.mp3","char_type_name":"word","page_number":571,"line_number":11,"text":"فَلَمْ","translation":{"text":"নাই অতঃপর","language_name":"bengali","language_id":20},"transliteration":{"text":"falam","language_name":"english","language_id":38}},{"id":27982,"position":7,"audio_url":"wbw/071_025_007.mp3","char_type_name":"word","page_number":571,"line_number":11,"text":"يَجِدُوا۟","translation":{"text":"তারা পায়","language_name":"bengali","language_id":20},"transliteration":{"text":"yajidū","language_name":"english","language_id":38}},{"id":27983,"position":8,"audio_url":"wbw/071_025_008.mp3","char_type_name":"word","page_number":571,"line_number":11,"text":"لَهُم","translation":{"text":"তাদের জন্যে","language_name":"bengali","language_id":20},"transliteration":{"text":"lahum","language_name":"english","language_id":38}},{"id":27984,"position":9,"audio_url":"wbw/071_025_009.mp3","char_type_name":"word","page_number":571,"line_number":11,"text":"مِّن","translation":{"text":"থেকে","language_name":"bengali","language_id":20},"transliteration":{"text":"min","language_name":"english","language_id":38}},{"id":27985,"position":10,"audio_url":"wbw/071_025_010.mp3","char_type_name":"word","page_number":571,"line_number":11,"text":"دُونِ","translation":{"text":"ছাড়া","language_name":"bengali","language_id":20},"transliteration":{"text":"dūni","language_name":"english","language_id":38}},{"id":27986,"position":11,"audio_url":"wbw/071_025_011.mp3","char_type_name":"word","page_number":571,"line_number":12,"text":"ٱللَّهِ","translation":{"text":"আল্লাহ","language_name":"bengali","language_id":20},"transliteration":{"text":"l-lahi","language_name":"english","language_id":38}},{"id":27987,"position":12,"audio_url":"wbw/071_025_012.mp3","char_type_name":"word","page_number":571,"line_number":12,"text":"أَنصَارًۭا","translation":{"text":"সাহায্যকারী হিসেবে","language_name":"bengali","language_id":20},"transliteration":{"text":"anṣāran","language_name":"english","language_id":38}},{"id":27988,"position":13,"audio_url":null,"char_type_name":"end","page_number":571,"line_number":12,"text":"٢٥","translation":{"text":"(২৫)","language_name":"bengali","language_id":20},"transliteration":{"text":null,"language_name":"english","language_id":38}}]},{"id":5445,"verse_number":26,"verse_key":"71:26","hizb_number":57,"rub_el_hizb_number":228,"ruku_number":507,"manzil_number":7,"sajdah_number":null,"page_number":571,"juz_number":29,"words":[{"id":29033,"position":1,"audio_url":"wbw/071_026_001.mp3","char_type_name":"word","page_number":571,"line_number":12,"text":"وَقَالَ","translation":{"text":"এবং বলল","language_name":"bengali","language_id":20},"transliteration":{"text":"waqāla","language_name":"english","language_id":38}},{"id":29034,"position":2,"audio_url":"wbw/071_026_002.mp3","char_type_name":"word","page_number":571,"line_number":12,"text":"نُوحٌۭ","translation":{"text":"ণুহ","language_name":"bengali","language_id":20},"transliteration":{"text":"nūḥun","language_name":"english","language_id":38}},{"id":29035,"position":3,"audio_url":"wbw/071_026_003.mp3","char_type_name":"word","page_number":571,"line_number":12,"text":"رَّبِّ","translation":{"text":"\"হে আমার রব","language_name":"bengali","language_id":20},"transliteration":{"text":"rabbi","language_name":"english","language_id":38}},{"id":29036,"position":4,"audio_url":"wbw/071_026_004.mp3","char_type_name":"word","page_number":571,"line_number":12,"text":"لَا","translation":{"text":"না","language_name":"bengali","language_id":20},"transliteration":{"text":"lā","language_name":"english","language_id":38}},{"id":29037,"position":5,"audio_url":"wbw/071_026_005.mp3","char_type_name":"word","page_number":571,"line_number":12,"text":"تَذَرْ","translation":{"text":"ছাড়বেন","language_name":"bengali","language_id":20},"transliteration":{"text":"tadhar","language_name":"english","language_id":38}},{"id":29038,"position":6,"audio_url":"wbw/071_026_006.mp3","char_type_name":"word","page_number":571,"line_number":12,"text":"عَلَى","translation":{"text":"উপর","language_name":"bengali","language_id":20},"transliteration":{"text":"ʿalā","language_name":"english","language_id":38}},{"id":29039,"position":7,"audio_url":"wbw/071_026_007.mp3","char_type_name":"word","page_number":571,"line_number":12,"text":"ٱلْأَرْضِ","translation":{"text":"যমীনের","language_name":"bengali","language_id":20},"transliteration":{"text":"l-arḍi","language_name":"english","language_id":38}},{"id":29040,"position":8,"audio_url":"wbw/071_026_008.mp3","char_type_name":"word","page_number":571,"line_number":12,"text":"مِنَ","translation":{"text":"থেকে","language_name":"bengali","language_id":20},"transliteration":{"text":"mina","language_name":"english","language_id":38}},{"id":29041,"position":9,"audio_url":"wbw/071_026_009.mp3","char_type_name":"word","page_number":571,"line_number":12,"text":"ٱلْكَـٰفِرِينَ","translation":{"text":"কাফিরদের","language_name":"bengali","language_id":20},"transliteration":{"text":"l-kāfirīna","language_name":"english","language_id":38}},{"id":29042,"position":10,"audio_url":"wbw/071_026_010.mp3","char_type_name":"word","page_number":571,"line_number":13,"text":"دَيَّارًا","translation":{"text":"কোন গৃহবাসী","language_name":"bengali","language_id":20},"transliteration":{"text":"dayyāran","language_name":"english","language_id":38}},{"id":29043,"position":11,"audio_url":null,"char_type_name":"end","page_number":571,"line_number":13,"text":"٢٦","translation":{"text":"(২৬)","language_name":"bengali","language_id":20},"transliteration":{"text":null,"language_name":"english","language_id":38}}]},{"id":5446,"verse_number":27,"verse_key":"71:27","hizb_number":57,"rub_el_hizb_number":228,"ruku_number":507,"manzil_number":7,"sajdah_number":null,"page_number":571,"juz_number":29,"words":[{"id":29763,"position":1,"audio_url":"wbw/071_027_001.mp3","char_type_name":"word","page_number":571,"line_number":13,"text":"إِنَّكَ","translation":{"text":"আপনি নিশ্চয়","language_name":"bengali","language_id":20},"transliteration":{"text":"innaka","language_name":"english","language_id":38}},{"id":29764,"position":2,"audio_url":"wbw/071_027_002.mp3","char_type_name":"word","page_number":571,"line_number":13,"text":"إِن","translation":{"text":"যদি","language_name":"bengali","language_id":20},"transliteration":{"text":"in","language_name":"english","language_id":38}},{"id":29765,"position":3,"audio_url":"wbw/071_027_003.mp3","char_type_name":"word","page_number":571,"line_number":13,"text":"تَذَرْهُمْ","translation":{"text":"তাদের ছাড়েন","language_name":"bengali","language_id":20},"transliteration":{"text":"tadharhum","language_name":"english","language_id":38}},{"id":29766,"position":4,"audio_url":"wbw/071_027_004.mp3","char_type_name":"word","page_number":571,"line_number":13,"text":"يُضِلُّوا۟","translation":{"text":"তারা গোমরাহ করবে","language_name":"bengali","language_id":20},"transliteration":{"text":"yuḍillū","language_name":"english","language_id":38}},{"id":29767,"position":5,"audio_url":"wbw/071_027_005.mp3","char_type_name":"word","page_number":571,"line_number":13,"text":"عِبَادَكَ","translation":{"text":"আপনার বান্দাদেরকে","language_name":"bengali","language_id":20},"transliteration":{"text":"ʿibādaka","language_name":"english","language_id":38}},{"id":29768,"position":6,"audio_url":"wbw/071_027_006.mp3","char_type_name":"word","page_number":571,"line_number":13,"text":"وَلَا","translation":{"text":"এবং না","language_name":"bengali","language_id":20},"transliteration":{"text":"walā","language_name":"english","language_id":38}},{"id":29769,"position":7,"audio_url":"wbw/071_027_007.mp3","char_type_name":"word","page_number":571,"line_number":13,"text":"يَلِدُوٓا۟","translation":{"text":"তারা জন্ম দেবে","language_name":"bengali","language_id":20},"transliteration":{"text":"yalidū","language_name":"english","language_id":38}},{"id":29770,"position":8,"audio_url":"wbw/071_027_008.mp3","char_type_name":"word","page_number":571,"line_number":13,"text":"إِلَّا","translation":{"text":"ছাড়া","language_name":"bengali","language_id":20},"transliteration":{"text":"illā","language_name":"english","language_id":38}},{"id":29771,"position":9,"audio_url":"wbw/071_027_009.mp3","char_type_name":"word","page_number":571,"line_number":13,"text":"فَاجِرًۭا","translation":{"text":"পাপাচারী","language_name":"bengali","language_id":20},"transliteration":{"text":"fājiran","language_name":"english","language_id":38}},{"id":29772,"position":10,"audio_url":"wbw/071_027_010.mp3","char_type_name":"word","page_number":571,"line_number":14,"text":"كَفَّارًۭا","translation":{"text":"কট্টর কাফির","language_name":"bengali","language_id":20},"transliteration":{"text":"kaffāran","language_name":"english","language_id":38}},{"id":29773,"position":11,"audio_url":null,"char_type_name":"end","page_number":571,"line_number":14,"text":"٢٧","translation":{"text":"(২৭)","language_name":"bengali","language_id":20},"transliteration":{"text":null,"language_name":"english","language_id":38}}]},{"id":5447,"verse_number":28,"verse_key":"71:28","hizb_number":57,"rub_el_hizb_number":228,"ruku_number":507,"manzil_number":7,"sajdah_number":null,"page_number":571,"juz_number":29,"words":[{"id":30858,"position":1,"audio_url":"wbw/071_028_001.mp3","char_type_name":"word","page_number":571,"line_number":14,"text":"رَّبِّ","translation":{"text":"হে আমার রব","language_name":"bengali","language_id":20},"transliteration":{"text":"rabbi","language_name":"english","language_id":38}},{"id":30859,"position":2,"audio_url":"wbw/071_028_002.mp3","char_type_name":"word","page_number":571,"line_number":14,"text":"ٱغْفِرْ","translation":{"text":"মাফ করুন","language_name":"bengali","language_id":20},"transliteration":{"text":"igh'fir","language_name":"english","language_id":38}},{"id":30860,"position":3,"audio_url":"wbw/071_028_003.mp3","char_type_name":"word","page_number":571,"line_number":14,"text":"لِى","translation":{"text":"আমাকে","language_name":"bengali","language_id":20},"transliteration":{"text":"lī","language_name":"english","language_id":38}},{"id":30861,"position":4,"audio_url":"wbw/071_028_004.mp3","char_type_name":"word","page_number":571,"line_number":14,"text":"وَلِوَٰلِدَىَّ","translation":{"text":"ও আমার পিতা-মাতাকে","language_name":"bengali","language_id":20},"transliteration":{"text":"waliwālidayya","language_name":"english","language_id":38}},{"id":30862,"position":5,"audio_url":"wbw/071_028_005.mp3","char_type_name":"word","page_number":571,"line_number":14,"text":"وَلِمَن","translation":{"text":"ও যে (তার) জন্য","language_name":"bengali","language_id":20},"transliteration":{"text":"waliman","language_name":"english","language_id":38}},{"id":30863,"position":6,"audio_url":"wbw/071_028_006.mp3","char_type_name":"word","page_number":571,"line_number":14,"text":"دَخَلَ","translation":{"text":"প্রবেশ করেছে","language_name":"bengali","language_id":20},"transliteration":{"text":"dakhala","language_name":"english","language_id":38}},{"id":30864,"position":7,"audio_url":"wbw/071_028_007.mp3","char_type_name":"word","page_number":571,"line_number":14,"text":"بَيْتِىَ","translation":{"text":"আমার ঘরে","language_name":"bengali","language_id":20},"transliteration":{"text":"baytiya","language_name":"english","language_id":38}},{"id":30865,"position":8,"audio_url":"wbw/071_028_008.mp3","char_type_name":"word","page_number":571,"line_number":14,"text":"مُؤْمِنًۭا","translation":{"text":"মু'মিন রূপে","language_name":"bengali","language_id":20},"transliteration":{"text":"mu'minan","language_name":"english","language_id":38}},{"id":30866,"position":9,"audio_url":"wbw/071_028_009.mp3","char_type_name":"word","page_number":571,"line_number":15,"text":"وَلِلْمُؤْمِنِينَ","translation":{"text":"এবং মু'মিনপুরুষদের জন্যে","language_name":"bengali","language_id":20},"transliteration":{"text":"walil'mu'minīna","language_name":"english","language_id":38}},{"id":30867,"position":10,"audio_url":"wbw/071_028_010.mp3","char_type_name":"word","page_number":571,"line_number":15,"text":"وَٱلْمُؤْمِنَـٰتِ","translation":{"text":"মুমিন স্ত্রীলোকদের","language_name":"bengali","language_id":20},"transliteration":{"text":"wal-mu'mināti","language_name":"english","language_id":38}},{"id":30868,"position":11,"audio_url":"wbw/071_028_011.mp3","char_type_name":"word","page_number":571,"line_number":15,"text":"وَلَا","translation":{"text":"এবং না","language_name":"bengali","language_id":20},"transliteration":{"text":"walā","language_name":"english","language_id":38}},{"id":30869,"position":12,"audio_url":"wbw/071_028_012.mp3","char_type_name":"word","page_number":571,"line_number":15,"text":"تَزِدِ","translation":{"text":"বাড়াবেন","language_name":"bengali","language_id":20},"transliteration":{"text":"tazidi","language_name":"english","language_id":38}},{"id":30870,"position":13,"audio_url":"wbw/071_028_013.mp3","char_type_name":"word","page_number":571,"line_number":15,"text":"ٱلظَّـٰلِمِينَ","translation":{"text":"জালেমদের অন্যকিছু","language_name":"bengali","language_id":20},"transliteration":{"text":"l-ẓālimīna","language_name":"english","language_id":38}},{"id":30871,"position":14,"audio_url":"wbw/071_028_014.mp3","char_type_name":"word","page_number":571,"line_number":15,"text":"إِلَّا","translation":{"text":"ছাড়া","language_name":"bengali","language_id":20},"transliteration":{"text":"illā","language_name":"english","language_id":38}},{"id":30872,"position":15,"audio_url":"wbw/071_028_015.mp3","char_type_name":"word","page_number":571,"line_number":15,"text":"تَبَارًۢا","translation":{"text":"ধ্বংস\"","language_name":"bengali","language_id":20},"transliteration":{"text":"tabāran","language_name":"english","language_id":38}},{"id":30873,"position":16,"audio_url":null,"char_type_name":"end","page_number":571,"line_number":15,"text":"٢٨","translation":{"text":"(২৮)","language_name":"bengali","language_id":20},"transliteration":{"text":null,"language_name":"english","language_id":38}}]}],"pagination":{"per_page":10,"current_page":3,"next_page":null,"total_pages":3,"total_records":28}}
