{"verses":[{"id":5811,"verse_number":11,"verse_key":"81:11","hizb_number":59,"rub_el_hizb_number":234,"ruku_number":525,"manzil_number":7,"sajdah_number":null,"page_number":586,"juz_number":30,"words":[{"id":12988,"position":1,"audio_url":"wbw/081_011_001.mp3","char_type_name":"word","page_number":586,"line_number":8,"text":"وَإِذَا","translation":{"text":"এবং যখন","language_name":"bengali","language_id":20},"transliteration":{"text":"wa-idhā","language_name":"english","language_id":38}},{"id":12989,"position":2,"audio_url":"wbw/081_011_002.mp3","char_type_name":"word","page_number":586,"line_number":8,"text":"ٱلسَّمَآءُ","translation":{"text":"আকাশ","language_name":"bengali","language_id":20},"transliteration":{"text":"l-samāu","language_name":"english","language_id":38}},{"id":12990,"position":3,"audio_url":"wbw/081_011_003.mp3","char_type_name":"word","page_number":586,"line_number":8,"text":"كُشِطَتْ","translation":{"text":"আবরণ অপসারিত হবে","language_name":"bengali","language_id":20},"transliteration":{"text":"kushiṭat","language_name":"english","language_id":38}},{"id":12991,"position":4,"audio_url":null,"char_type_name":"end","page_number":586,"line_number":8,"text":"١١","translation":{"text":"(১১)","language_name":"bengali","language_id":20},"transliteration":{"text":null,"language_name":"english","language_id":38}}]},{"id":5812,"verse_number":12,"verse_key":"81:12","hizb_number":59,"rub_el_hizb_number":234,"ruku_number":525,"manzil_number":7,"sajdah_number":null,"page_number":586,"juz_number":30,"words":[{"id":13610,"position":1,"audio_url":"wbw/081_012_001.mp3","char_type_name":"word","page_number":586,"line_number":8,"text":"وَإِذَا","translation":{"text":"এবং যখন","language_name":"bengali","language_id":20},"transliteration":{"text":"wa-idhā","language_name":"english","language_id":38}},{"id":13611,"position":2,"audio_url":"wbw/081_012_002.mp3","char_type_name":"word","page_number":586,"line_number":8,"text":"ٱلْجَحِيمُ","translation":{"text":"জাহান্নাম","language_name":"bengali","language_id":20},"transliteration":{"text":"l-jaḥīmu","language_name":"english","language_id":38}},{"id":13612,"position":3,"audio_url":"wbw/081_012_003.mp3","char_type_name":"word","page_number":586,"line_number":8,"text":"سُعِّرَتْ","translation":{"text":"প্রজ্বলিত করা হবে","language_name":"bengali","language_id":20},"transliteration":{"text":"suʿʿirat","language_name":"english","language_id":38}},{"id":13613,"position":4,"audio_url":null,"char_type_name":"end","page_number":586,"line_number":8,"text":"١٢","translation":{"text":"(১২)","language_name":"bengali","language_id":20},"transliteration":{"text":null,"language_name":"english","language_id":38}}]},{"id":5813,"verse_number":13,"verse_key":"81:13","hizb_number":59,"rub_el_hizb_number":234,"ruku_number":525,"manzil_number":7,"sajdah_number":null,"page_number":586,"juz_number":30,"words":[{"id":15361,"position":1,"audio_url":"wbw/081_013_001.mp3","char_type_name":"word","page_number":586,"line_number":8,"text":"وَإِذَا","translation":{"text":"এবং যখন","language_name":"bengali","language_id":20},"transliteration":{"text":"wa-idhā","language_name":"english","language_id":38}},{"id":15362,"position":2,"audio_url":"wbw/081_013_002.mp3","char_type_name":"word","page_number":586,"line_number":8,"text":"ٱلْجَنَّةُ","translation":{"text":"জান্নাত","language_name":"bengali","language_id":20},"transliteration":{"text":"l-janatu","language_name":"english","language_id":38}},{"id":15363,"position":3,"audio_url":"wbw/081_013_003.mp3","char_type_name":"word","page_number":586,"line_number":9,"text":"أُزْلِفَتْ","translation":{"text":"নিকটে আনা হবে","language_name":"bengali","language_id":20},"transliteration":{"text":"uz'lifat","language_name":"english","language_id":38}},{"id":15364,"position":4,"audio_url":null,"char_type_name":"end","page_number":586,"line_number":9,"text":"١٣","translation":{"text":"(১৩)","language_name":"bengali","language_id":20},"transliteration":{"text":null,"language_name":"english","language_id":38}}]},{"id":5814,"verse_number":14,"verse_key":"81:14","hizb_number":59,"rub_el_hizb_number":234,"ruku_number":525,"manzil_number":7,"sajdah_number":null,"page_number":586,"juz_number":30,"words":[{"id":15854,"position":1,"audio_url":"wbw/081_014_001.mp3","char_type_name":"word","page_number":586,"line_number":9,"text":"عَلِمَتْ","translation":{"text":"জানবে","language_name":"bengali","language_id":20},"transliteration":{"text":"ʿalimat","language_name":"english","language_id":38}},{"id":15855,"position":2,"audio_url":"wbw/081_014_002.mp3","char_type_name":"word","page_number":586,"line_number":9,"text":"نَفْسٌۭ","translation":{"text":"(প্রত্যেক) ব্যক্তি","language_name":"bengali","language_id":20},"transliteration":{"text":"nafsun","language_name":"english","language_id":38}},{"id":15856,"position":3,"audio_url":"wbw/081_014_003.mp3","char_type_name":"word","page_number":586,"line_number":9,"text":"مَّآ","translation":{"text":"যা","language_name":"bengali","language_id":20},"transliteration":{"text":"mā","language_name":"english","language_id":38}},{"id":15857,"position":4,"audio_url":"wbw/081_014_004.mp3","char_type_name":"word","page_number":586,"line_number":9,"text":"أَحْضَرَتْ","translation":{"text":"উপস্থিত করেছে","language_name":"bengali","language_id":20},"transliteration":{"text":"aḥḍarat","language_name":"english","language_id":38}},{"id":15858,"position":5,"audio_url":null,"char_type_name":"end","page_number":586,"line_number":9,"text":"١٤","translation":{"text":"(১৪)","language_name":"bengali","language_id":20},"transliteration":{"text":null,"language_name":"english","language_id":38}}]},{"id":5815,"verse_number":15,"verse_key":"81:15","hizb_number":59,"rub_el_hizb_number":234,"ruku_number":525,"manzil_number":7,"sajdah_number":null,"page_number":586,"juz_number":30,"words":[{"id":17581,"position":1,"audio_url":"wbw/081_015_001.mp3","char_type_name":"word","page_number":586,"line_number":9,"text":"فَلَآ","translation":{"text":"অতঃপর না","language_name":"bengali","language_id":20},"transliteration":{"text":"falā","language_name":"english","language_id":38}},{"id":17582,"position":2,"audio_url":"wbw/081_015_002.mp3","char_type_name":"word","page_number":586,"line_number":9,"text":"أُقْسِمُ","translation":{"text":"আমি শপথ করছি","language_name":"bengali","language_id":20},"transliteration":{"text":"uq'simu","language_name":"english","language_id":38}},{"id":17583,"position":3,"audio_url":"wbw/081_015_003.mp3","char_type_name":"word","page_number":586,"line_number":9,"text":"بِٱلْخُنَّسِ","translation":{"text":"পশ্চাদপসরণকারী","language_name":"bengali","language_id":20},"transliteration":{"text":"bil-khunasi","language_name":"english","language_id":38}},{"id":17584,"position":4,"audio_url":null,"char_type_name":"end","page_number":586,"line_number":9,"text":"١٥","translation":{"text":"(১৫)","language_name":"bengali","language_id":20},"transliteration":{"text":null,"language_name":"english","language_id":38}}]},{"id":5816,"verse_number":16,"verse_key":"81:16","hizb_number":59,"rub_el_hizb_number":234,"ruku_number":525,"manzil_number":7,"sajdah_number":null,"page_number":586,"juz_number":30,"words":[{"id":17983,"position":1,"audio_url":"wbw/081_016_001.mp3","char_type_name":"word","page_number":586,"line_number":10,"text":"ٱلْجَوَارِ","translation":{"text":"চলমান","language_name":"bengali","language_id":20},"transliteration":{"text":"al-jawāri","language_name":"english","language_id":38}},{"id":17984,"position":2,"audio_url":"wbw/081_016_002.mp3","char_type_name":"word","page_number":586,"line_number":10,"text":"ٱلْكُنَّسِ","translation":{"text":"অদৃশ্যমান (নক্ষত্রগুলোর)","language_name":"bengali","language_id":20},"transliteration":{"text":"l-kunasi","language_name":"english","language_id":38}},{"id":17985,"position":3,"audio_url":null,"char_type_name":"end","page_number":586,"line_number":10,"text":"١٦","translation":{"text":"(১৬)","language_name":"bengali","language_id":20},"transliteration":{"text":null,"language_name":"english","language_id":38}}]},{"id":5817,"verse_number":17,"verse_key":"81:17","hizb_number":59,"rub_el_hizb_number":234,"ruku_number":525,"manzil_number":7,"sajdah_number":null,"page_number":586,"juz_number":30,"words":[{"id":19660,"position":1,"audio_url":"wbw/081_017_001.mp3","char_type_name":"word","page_number":586,"line_number":10,"text":"وَٱلَّيْلِ","translation":{"text":"শপথ রাতের","language_name":"bengali","language_id":20},"transliteration":{"text":"wa-al-layli","language_name":"english","language_id":38}},{"id":19661,"position":2,"audio_url":"wbw/081_017_002.mp3","char_type_name":"word","page_number":586,"line_number":10,"text":"إِذَا","translation":{"text":"যখন","language_name":"bengali","language_id":20},"transliteration":{"text":"idhā","language_name":"english","language_id":38}},{"id":19662,"position":3,"audio_url":"wbw/081_017_003.mp3","char_type_name":"word","page_number":586,"line_number":10,"text":"عَسْعَسَ","translation":{"text":"শেষ হয়","language_name":"bengali","language_id":20},"transliteration":{"text":"ʿasʿasa","language_name":"english","language_id":38}},{"id":19663,"position":4,"audio_url":null,"char_type_name":"end","page_number":586,"line_number":10,"text":"١٧","translation":{"text":"(১৭)","language_name":"bengali","language_id":20},"transliteration":{"text":null,"language_name":"english","language_id":38}}]},{"id":5818,"verse_number":18,"verse_key":"81:18","hizb_number":59,"rub_el_hizb_number":234,"ruku_number":525,"manzil_number":7,"sajdah_number":null,"page_number":586,"juz_number":30,"words":[{"id":20195,"position":1,"audio_url":"wbw/081_018_001.mp3","char_type_name":"word","page_number":586,"line_number":10,"text":"وَٱلصُّبْحِ","translation":{"text":"শপথ প্রভাতের","language_name":"bengali","language_id":20},"transliteration":{"text":"wal-ṣub'ḥi","language_name":"english","language_id":38}},{"id":20196,"position":2,"audio_url":"wbw/081_018_002.mp3","char_type_name":"word","page_number":586,"line_number":10,"text":"إِذَا","translation":{"text":"যখন","language_name":"bengali","language_id":20},"transliteration":{"text":"idhā","language_name":"english","language_id":38}},{"id":20197,"position":3,"audio_url":"wbw/081_018_003.mp3","char_type_name":"word","page_number":586,"line_number":10,"text":"تَنَفَّسَ","translation":{"text":"শ্বাস নেয়","language_name":"bengali","language_id":20},"transliteration":{"text":"tanaffasa","language_name":"english","language_id":38}},{"id":20198,"position":4,"audio_url":null,"char_type_name":"end","page_number":586,"line_number":10,"text":"١٨","translation":{"text":"(১৮)","language_name":"bengali","language_id":20},"transliteration":{"text":null,"language_name":"english","language_id":38}}]},{"id":5819,"verse_number":19,"verse_key":"81:19","hizb_number":59,"rub_el_hizb_number":234,"ruku_number":525,"manzil_number":7,"sajdah_number":null,"page_number":586,"juz_number":30,"words":[{"id":21808,"position":1,"audio_url":"wbw/081_019_001.mp3","char_type_name":"word","page_number":586,"line_number":11,"text":"إِنَّهُۥ","translation":{"text":"নিশ্চয়ই তা","language_name":"bengali","language_id":20},"transliteration":{"text":"innahu","language_name":"english","language_id":38}},{"id":21809,"position":2,"audio_url":"wbw/081_019_002.mp3","char_type_name":"word","page_number":586,"line_number":11,"text":"لَقَوْلُ","translation":{"text":"অবশ্যই বাণী","language_name":"bengali","language_id":20},"transliteration":{"text":"laqawlu","language_name":"english","language_id":38}},{"id":21810,"position":3,"audio_url":"wbw/081_019_003.mp3","char_type_name":"word","page_number":586,"line_number":11,"text":"رَسُولٍۢ","translation":{"text":"বার্তা-বাহকের","language_name":"bengali","language_id":20},"transliteration":{"text":"rasūlin","language_name":"english","language_id":38}},{"id":21811,"position":4,"audio_url":"wbw/081_019_004.mp3","char_type_name":"word","page_number":586,"line_number":11,"text":"كَرِيمٍۢ","translation":{"text":"সম্মানিত","language_name":"bengali","language_id":20},"transliteration":{"text":"karīmin","language_name":"english","language_id":38}},{"id":21812,"position":5,"audio_url":null,"char_type_name":"end","page_number":586,"line_number":11,"text":"١٩","translation":{"text":"(১৯)","language_name":"bengali","language_id":20},"transliteration":{"text":null,"language_name":"english","language_id":38}}]},{"id":5820,"verse_number":20,"verse_key":"81:20","hizb_number":59,"rub_el_hizb_number":234,"ruku_number":525,"manzil_number":7,"sajdah_number":null,"page_number":586,"juz_number":30,"words":[{"id":22338,"position":1,"audio_url":"wbw/081_020_001.mp3","char_type_name":"word","page_number":586,"line_number":11,"text":"ذِى","translation":{"text":"সম্পন্ন","language_name":"bengali","language_id":20},"transliteration":{"text":"dhī","language_name":"english","language_id":38}},{"id":22339,"position":2,"audio_url":"wbw/081_020_002.mp3","char_type_name":"word","page_number":586,"line_number":11,"text":"قُوَّةٍ","translation":{"text":"শক্তি","language_name":"bengali","language_id":20},"transliteration":{"text":"quwwatin","language_name":"english","language_id":38}},{"id":22340,"position":3,"audio_url":"wbw/081_020_003.mp3","char_type_name":"word","page_number":586,"line_number":11,"text":"عِندَ","translation":{"text":"কাছে","language_name":"bengali","language_id":20},"transliteration":{"text":"ʿinda","language_name":"english","language_id":38}},{"id":22341,"position":4,"audio_url":"wbw/081_020_004.mp3","char_type_name":"word","page_number":586,"line_number":11,"text":"ذِى","translation":{"text":"অধিপতির","language_name":"bengali","language_id":20},"transliteration":{"text":"dhī","language_name":"english","language_id":38}},{"id":22342,"position":5,"audio_url":"wbw/081_020_005.mp3","char_type_name":"word","page_number":586,"line_number":11,"text":"ٱلْعَرْشِ","translation":{"text":"আরশের","language_name":"bengali","language_id":20},"transliteration":{"text":"l-ʿarshi","language_name":"english","language_id":38}},{"id":22343,"position":6,"audio_url":"wbw/081_020_006.mp3","char_type_name":"word","page_number":586,"line_number":11,"text":"مَكِينٍۢ","translation":{"text":"সামর্থ্যশালী","language_name":"bengali","language_id":20},"transliteration":{"text":"makīnin","language_name":"english","language_id":38}},{"id":22344,"position":7,"audio_url":null,"char_type_name":"end","page_number":586,"line_number":11,"text":"٢٠","translation":{"text":"(২০)","language_name":"bengali","language_id":20},"transliteration":{"text":null,"language_name":"english","language_id":38}}]}],"pagination":{"per_page":10,"current_page":2,"next_page":3,"total_pages":3,"total_records":29}}
