{"verses":[{"id":4835,"verse_number":51,"verse_key":"53:51","hizb_number":53,"rub_el_hizb_number":211,"ruku_number":464,"manzil_number":7,"sajdah_number":null,"page_number":528,"juz_number":27,"words":[{"id":49648,"position":1,"audio_url":"wbw/053_051_001.mp3","verse_key":"53:51","verse_id":4835,"location":"53:51:1","text_uthmani":"وَثَمُودَا۟","qpc_uthmani_hafs":"وَثَمُودَاْ","char_type_name":"word","page_number":528,"line_number":3,"text":"وَثَمُودَاْ","translation":{"text":"And Thamud","language_name":"english","language_id":38},"transliteration":{"text":"wathamūdā","language_name":"english","language_id":38}},{"id":49649,"position":2,"audio_url":"wbw/053_051_002.mp3","verse_key":"53:51","verse_id":4835,"location":"53:51:2","text_uthmani":"فَمَآ","qpc_uthmani_hafs":"فَمَآ","char_type_name":"word","page_number":528,"line_number":3,"text":"فَمَآ","translation":{"text":"so not","language_name":"english","language_id":38},"transliteration":{"text":"famā","language_name":"english","language_id":38}},{"id":49650,"position":3,"audio_url":"wbw/053_051_003.mp3","verse_key":"53:51","verse_id":4835,"location":"53:51:3","text_uthmani":"أَبْقَىٰ","qpc_uthmani_hafs":"أَبۡقَىٰ","char_type_name":"word","page_number":528,"line_number":4,"text":"أَبۡقَىٰ","translation":{"text":"He spared","language_name":"english","language_id":38},"transliteration":{"text":"abqā","language_name":"english","language_id":38}},{"id":49651,"position":4,"audio_url":null,"verse_key":"53:51","verse_id":4835,"location":"53:51:4","text_uthmani":"٥١","qpc_uthmani_hafs":"٥١","char_type_name":"end","page_number":528,"line_number":4,"text":"٥١","translation":{"text":"(51)","language_name":"english","language_id":38},"transliteration":{"text":null,"language_name":"english","language_id":38}}]},{"id":4836,"verse_number":52,"verse_key":"53:52","hizb_number":53,"rub_el_hizb_number":211,"ruku_number":464,"manzil_number":7,"sajdah_number":null,"page_number":528,"juz_number":27,"words":[{"id":50274,"position":1,"audio_url":"wbw/053_052_001.mp3","verse_key":"53:52","verse_id":4836,"location":"53:52:1","text_uthmani":"وَقَوْمَ","qpc_uthmani_hafs":"وَقَوۡمَ","char_type_name":"word","page_number":528,"line_number":4,"text":"وَقَوۡمَ","translation":{"text":"And (the) people","language_name":"english","language_id":38},"transliteration":{"text":"waqawma","language_name":"english","language_id":38}},{"id":50275,"position":2,"audio_url":"wbw/053_052_002.mp3","verse_key":"53:52","verse_id":4836,"location":"53:52:2","text_uthmani":"نُوحٍۢ","qpc_uthmani_hafs":"نُوحٖ","char_type_name":"word","page_number":528,"line_number":4,"text":"نُوحٖ","translation":{"text":"(of) Nuh","language_name":"english","language_id":38},"transliteration":{"text":"nūḥin","language_name":"english","language_id":38}},{"id":50276,"position":3,"audio_url":"wbw/053_052_003.mp3","verse_key":"53:52","verse_id":4836,"location":"53:52:3","text_uthmani":"مِّن","qpc_uthmani_hafs":"مِّن","char_type_name":"word","page_number":528,"line_number":4,"text":"مِّن","translation":{"text":"before","language_name":"english","language_id":38},"transliteration":{"text":"min","language_name":"english","language_id":38}},{"id":50277,"position":4,"audio_url":"wbw/053_052_004.mp3","verse_key":"53:52","verse_id":4836,"location":"53:52:4","text_uthmani":"قَبْلُ ۖ","qpc_uthmani_hafs":"قَبۡلُۖ","char_type_name":"word","page_number":528,"line_number":4,"text":"قَبۡلُۖ","translation":{"text":"before","language_name":"english","language_id":38},"transliteration":{"text":"qablu","language_name":"english","language_id":38}},{"id":50279,"position":5,"audio_url":"wbw/053_052_006.mp3","verse_key":"53:52","verse_id":4836,"location":"53:52:5","text_uthmani":"إِنَّهُمْ","qpc_uthmani_hafs":"إِنَّهُمۡ","char_type_name":"word","page_number":528,"line_number":4,"text":"إِنَّهُمۡ","translation":{"text":"Indeed, they","language_name":"english","language_id":38},"transliteration":{"text":"innahum","language_name":"english","language_id":38}},{"id":50280,"position":6,"audio_url":"wbw/053_052_007.mp3","verse_key":"53:52","verse_id":4836,"location":"53:52:6","text_uthmani":"كَانُوا۟","qpc_uthmani_hafs":"كَانُواْ","char_type_name":"word","page_number":528,"line_number":4,"text":"كَانُواْ","translation":{"text":"they were","language_name":"english","language_id":38},"transliteration":{"text":"kānū","language_name":"english","language_id":38}},{"id":50281,"position":7,"audio_url":"wbw/053_052_008.mp3","verse_key":"53:52","verse_id":4836,"location":"53:52:7","text_uthmani":"هُمْ","qpc_uthmani_hafs":"هُمۡ","char_type_name":"word","page_number":528,"line_number":4,"text":"هُمۡ","translation":{"text":"they were","language_name":"english","language_id":38},"transliteration":{"text":"hum","language_name":"english","language_id":38}},{"id":50282,"position":8,"audio_url":"wbw/053_052_009.mp3","verse_key":"53:52","verse_id":4836,"location":"53:52:8","text_uthmani":"أَظْلَمَ","qpc_uthmani_hafs":"أَظۡلَمَ","char_type_name":"word","page_number":528,"line_number":4,"text":"أَظۡلَمَ","translation":{"text":"more unjust","language_name":"english","language_id":38},"transliteration":{"text":"aẓlama","language_name":"english","language_id":38}},{"id":50283,"position":9,"audio_url":"wbw/053_052_010.mp3","verse_key":"53:52","verse_id":4836,"location":"53:52:9","text_uthmani":"وَأَطْغَىٰ","qpc_uthmani_hafs":"وَأَطۡغَىٰ","char_type_name":"word","page_number":528,"line_number":4,"text":"وَأَطۡغَىٰ","translation":{"text":"and more rebellious","language_name":"english","language_id":38},"transliteration":{"text":"wa-aṭghā","language_name":"english","language_id":38}},{"id":50284,"position":10,"audio_url":null,"verse_key":"53:52","verse_id":4836,"location":"53:52:10","text_uthmani":"٥٢","qpc_uthmani_hafs":"٥٢","char_type_name":"end","page_number":528,"line_number":5,"text":"٥٢","translation":{"text":"(52)","language_name":"english","language_id":38},"transliteration":{"text":null,"language_name":"english","language_id":38}}]},{"id":4837,"verse_number":53,"verse_key":"53:53","hizb_number":53,"rub_el_hizb_number":211,"ruku_number":464,"manzil_number":7,"sajdah_number":null,"page_number":528,"juz_number":27,"words":[{"id":50919,"position":1,"audio_url":"wbw/053_053_001.mp3","verse_key":"53:53","verse_id":4837,"location":"53:53:1","text_uthmani":"وَٱلْمُؤْتَفِكَةَ","qpc_uthmani_hafs":"وَٱلۡمُؤۡتَفِكَةَ","char_type_name":"word","page_number":528,"line_number":5,"text":"وَٱلۡمُؤۡتَفِكَةَ","translation":{"text":"And the overturned cities","language_name":"english","language_id":38},"transliteration":{"text":"wal-mu'tafikata","language_name":"english","language_id":38}},{"id":50920,"position":2,"audio_url":"wbw/053_053_002.mp3","verse_key":"53:53","verse_id":4837,"location":"53:53:2","text_uthmani":"أَهْوَىٰ","qpc_uthmani_hafs":"أَهۡوَىٰ","char_type_name":"word","page_number":528,"line_number":5,"text":"أَهۡوَىٰ","translation":{"text":"He overthrew","language_name":"english","language_id":38},"transliteration":{"text":"ahwā","language_name":"english","language_id":38}},{"id":50921,"position":3,"audio_url":null,"verse_key":"53:53","verse_id":4837,"location":"53:53:3","text_uthmani":"٥٣","qpc_uthmani_hafs":"٥٣","char_type_name":"end","page_number":528,"line_number":5,"text":"٥٣","translation":{"text":"(53)","language_name":"english","language_id":38},"transliteration":{"text":null,"language_name":"english","language_id":38}}]},{"id":4838,"verse_number":54,"verse_key":"53:54","hizb_number":53,"rub_el_hizb_number":211,"ruku_number":464,"manzil_number":7,"sajdah_number":null,"page_number":528,"juz_number":27,"words":[{"id":51535,"position":1,"audio_url":"wbw/053_054_001.mp3","verse_key":"53:54","verse_id":4838,"location":"53:54:1","text_uthmani":"فَغَشَّىٰهَا","qpc_uthmani_hafs":"فَغَشَّىٰهَا","char_type_name":"word","page_number":528,"line_number":5,"text":"فَغَشَّىٰهَا","translation":{"text":"So covered them","language_name":"english","language_id":38},"transliteration":{"text":"faghashāhā","language_name":"english","language_id":38}},{"id":51536,"position":2,"audio_url":"wbw/053_054_002.mp3","verse_key":"53:54","verse_id":4838,"location":"53:54:2","text_uthmani":"مَا","qpc_uthmani_hafs":"مَا","char_type_name":"word","page_number":528,"line_number":5,"text":"مَا","translation":{"text":"what","language_name":"english","language_id":38},"transliteration":{"text":"mā","language_name":"english","language_id":38}},{"id":51537,"position":3,"audio_url":"wbw/053_054_003.mp3","verse_key":"53:54","verse_id":4838,"location":"53:54:3","text_uthmani":"غَشَّىٰ","qpc_uthmani_hafs":"غَشَّىٰ","char_type_name":"word","page_number":528,"line_number":5,"text":"غَشَّىٰ","translation":{"text":"covered","language_name":"english","language_id":38},"transliteration":{"text":"ghashā","language_name":"english","language_id":38}},{"id":51538,"position":4,"audio_url":null,"verse_key":"53:54","verse_id":4838,"location":"53:54:4","text_uthmani":"٥٤","qpc_uthmani_hafs":"٥٤","char_type_name":"end","page_number":528,"line_number":5,"text":"٥٤","translation":{"text":"(54)","language_name":"english","language_id":38},"transliteration":{"text":null,"language_name":"english","language_id":38}}]},{"id":4839,"verse_number":55,"verse_key":"53:55","hizb_number":53,"rub_el_hizb_number":211,"ruku_number":464,"manzil_number":7,"sajdah_number":null,"page_number":528,"juz_number":27,"words":[{"id":51989,"position":1,"audio_url":"wbw/053_055_001.mp3","verse_key":"53:55","verse_id":4839,"location":"53:55:1","text_uthmani":"فَبِأَىِّ","qpc_uthmani_hafs":"فَبِأَيِّ","char_type_name":"word","page_number":528,"line_number":5,"text":"فَبِأَيِّ","translation":{"text":"Then which (of)","language_name":"english","language_id":38},"transliteration":{"text":"fabi-ayyi","language_name":"english","language_id":38}},{"id":51990,"position":2,"audio_url":"wbw/053_055_002.mp3","verse_key":"53:55","verse_id":4839,"location":"53:55:2","text_uthmani":"ءَالَآءِ","qpc_uthmani_hafs":"ءَالَآءِ","char_type_name":"word","page_number":528,"line_number":5,"text":"ءَالَآءِ","translation":{"text":"the Favors","language_name":"english","language_id":38},"transliteration":{"text":"ālāi","language_name":"english","language_id":38}},{"id":51991,"position":3,"audio_url":"wbw/053_055_003.mp3","verse_key":"53:55","verse_id":4839,"location":"53:55:3","text_uthmani":"رَبِّكَ","qpc_uthmani_hafs":"رَبِّكَ","char_type_name":"word","page_number":528,"line_number":6,"text":"رَبِّكَ","translation":{"text":"(of) your Lord","language_name":"english","language_id":38},"transliteration":{"text":"rabbika","language_name":"english","language_id":38}},{"id":51992,"position":4,"audio_url":"wbw/053_055_004.mp3","verse_key":"53:55","verse_id":4839,"location":"53:55:4","text_uthmani":"تَتَمَارَىٰ","qpc_uthmani_hafs":"تَتَمَارَىٰ","char_type_name":"word","page_number":528,"line_number":6,"text":"تَتَمَارَىٰ","translation":{"text":"will you doubt","language_name":"english","language_id":38},"transliteration":{"text":"tatamārā","language_name":"english","language_id":38}},{"id":51993,"position":5,"audio_url":null,"verse_key":"53:55","verse_id":4839,"location":"53:55:5","text_uthmani":"٥٥","qpc_uthmani_hafs":"٥٥","char_type_name":"end","page_number":528,"line_number":6,"text":"٥٥","translation":{"text":"(55)","language_name":"english","language_id":38},"transliteration":{"text":null,"language_name":"english","language_id":38}}]},{"id":4840,"verse_number":56,"verse_key":"53:56","hizb_number":53,"rub_el_hizb_number":211,"ruku_number":464,"manzil_number":7,"sajdah_number":null,"page_number":528,"juz_number":27,"words":[{"id":52182,"position":1,"audio_url":"wbw/053_056_001.mp3","verse_key":"53:56","verse_id":4840,"location":"53:56:1","text_uthmani":"هَـٰذَا","qpc_uthmani_hafs":"هَٰذَا","char_type_name":"word","page_number":528,"line_number":6,"text":"هَٰذَا","translation":{"text":"This","language_name":"english","language_id":38},"transliteration":{"text":"hādhā","language_name":"english","language_id":38}},{"id":52183,"position":2,"audio_url":"wbw/053_056_002.mp3","verse_key":"53:56","verse_id":4840,"location":"53:56:2","text_uthmani":"نَذِيرٌۭ","qpc_uthmani_hafs":"نَذِيرٞ","char_type_name":"word","page_number":528,"line_number":6,"text":"نَذِيرٞ","translation":{"text":"(is) a warner","language_name":"english","language_id":38},"transliteration":{"text":"nadhīrun","language_name":"english","language_id":38}},{"id":52184,"position":3,"audio_url":"wbw/053_056_003.mp3","verse_key":"53:56","verse_id":4840,"location":"53:56:3","text_uthmani":"مِّنَ","qpc_uthmani_hafs":"مِّنَ","char_type_name":"word","page_number":528,"line_number":6,"text":"مِّنَ","translation":{"text":"from","language_name":"english","language_id":38},"transliteration":{"text":"mina","language_name":"english","language_id":38}},{"id":52185,"position":4,"audio_url":"wbw/053_056_004.mp3","verse_key":"53:56","verse_id":4840,"location":"53:56:4","text_uthmani":"ٱلنُّذُرِ","qpc_uthmani_hafs":"ٱلنُّذُرِ","char_type_name":"word","page_number":528,"line_number":6,"text":"ٱلنُّذُرِ","translation":{"text":"the warners","language_name":"english","language_id":38},"transliteration":{"text":"l-nudhuri","language_name":"english","language_id":38}},{"id":52186,"position":5,"audio_url":"wbw/053_056_005.mp3","verse_key":"53:56","verse_id":4840,"location":"53:56:5","text_uthmani":"ٱلْأُولَىٰٓ","qpc_uthmani_hafs":"ٱلۡأُولَىٰٓ","char_type_name":"word","page_number":528,"line_number":6,"text":"ٱلۡأُولَىٰٓ","translation":{"text":"the former","language_name":"english","language_id":38},"transliteration":{"text":"l-ūlā","language_name":"english","language_id":38}},{"id":52187,"position":6,"audio_url":null,"verse_key":"53:56","verse_id":4840,"location":"53:56:6","text_uthmani":"٥٦","qpc_uthmani_hafs":"٥٦","char_type_name":"end","page_number":528,"line_number":6,"text":"٥٦","translation":{"text":"(56)","language_name":"english","language_id":38},"transliteration":{"text":null,"language_name":"english","language_id":38}}]},{"id":4841,"verse_number":57,"verse_key":"53:57","hizb_number":53,"rub_el_hizb_number":211,"ruku_number":464,"manzil_number":7,"sajdah_number":null,"page_number":528,"juz_number":27,"words":[{"id":53029,"position":1,"audio_url":"wbw/053_057_001.mp3","verse_key":"53:57","verse_id":4841,"location":"53:57:1","text_uthmani":"أَزِفَتِ","qpc_uthmani_hafs":"أَزِفَتِ","char_type_name":"word","page_number":528,"line_number":6,"text":"أَزِفَتِ","translation":{"text":"Has approached","language_name":"english","language_id":38},"transliteration":{"text":"azifati","language_name":"english","language_id":38}},{"id":53030,"position":2,"audio_url":"wbw/053_057_002.mp3","verse_key":"53:57","verse_id":4841,"location":"53:57:2","text_uthmani":"ٱلْـَٔازِفَةُ","qpc_uthmani_hafs":"ٱلۡأٓزِفَةُ","char_type_name":"word","page_number":528,"line_number":6,"text":"ٱلۡأٓزِفَةُ","translation":{"text":"the Approaching Day","language_name":"english","language_id":38},"transliteration":{"text":"l-āzifatu","language_name":"english","language_id":38}},{"id":53031,"position":3,"audio_url":null,"verse_key":"53:57","verse_id":4841,"location":"53:57:3","text_uthmani":"٥٧","qpc_uthmani_hafs":"٥٧","char_type_name":"end","page_number":528,"line_number":7,"text":"٥٧","translation":{"text":"(57)","language_name":"english","language_id":38},"transliteration":{"text":null,"language_name":"english","language_id":38}}]},{"id":4842,"verse_number":58,"verse_key":"53:58","hizb_number":53,"rub_el_hizb_number":211,"ruku_number":464,"manzil_number":7,"sajdah_number":null,"page_number":528,"juz_number":27,"words":[{"id":53252,"position":1,"audio_url":"wbw/053_058_001.mp3","verse_key":"53:58","verse_id":4842,"location":"53:58:1","text_uthmani":"لَيْسَ","qpc_uthmani_hafs":"لَيۡسَ","char_type_name":"word","page_number":528,"line_number":7,"text":"لَيۡسَ","translation":{"text":"Not is","language_name":"english","language_id":38},"transliteration":{"text":"laysa","language_name":"english","language_id":38}},{"id":53253,"position":2,"audio_url":"wbw/053_058_002.mp3","verse_key":"53:58","verse_id":4842,"location":"53:58:2","text_uthmani":"لَهَا","qpc_uthmani_hafs":"لَهَا","char_type_name":"word","page_number":528,"line_number":7,"text":"لَهَا","translation":{"text":"for it","language_name":"english","language_id":38},"transliteration":{"text":"lahā","language_name":"english","language_id":38}},{"id":53254,"position":3,"audio_url":"wbw/053_058_003.mp3","verse_key":"53:58","verse_id":4842,"location":"53:58:3","text_uthmani":"مِن","qpc_uthmani_hafs":"مِن","char_type_name":"word","page_number":528,"line_number":7,"text":"مِن","translation":{"text":"besides","language_name":"english","language_id":38},"transliteration":{"text":"min","language_name":"english","language_id":38}},{"id":53255,"position":4,"audio_url":"wbw/053_058_004.mp3","verse_key":"53:58","verse_id":4842,"location":"53:58:4","text_uthmani":"دُونِ","qpc_uthmani_hafs":"دُونِ","char_type_name":"word","page_number":528,"line_number":7,"text":"دُونِ","translation":{"text":"besides","language_name":"english","language_id":38},"transliteration":{"text":"dūni","language_name":"english","language_id":38}},{"id":53256,"position":5,"audio_url":"wbw/053_058_005.mp3","verse_key":"53:58","verse_id":4842,"location":"53:58:5","text_uthmani":"ٱللَّهِ","qpc_uthmani_hafs":"ٱللَّهِ","char_type_name":"word","page_number":528,"line_number":7,"text":"ٱللَّهِ","translation":{"text":"Allah","language_name":"english","language_id":38},"transliteration":{"text":"l-lahi","language_name":"english","language_id":38}},{"id":53257,"position":6,"audio_url":"wbw/053_058_006.mp3","verse_key":"53:58","verse_id":4842,"location":"53:58:6","text_uthmani":"كَاشِفَةٌ","qpc_uthmani_hafs":"كَاشِفَةٌ","char_type_name":"word","page_number":528,"line_number":7,"text":"كَاشِفَةٌ","translation":{"text":"any remover","language_name":"english","language_id":38},"transliteration":{"text":"kāshifatun","language_name":"english","language_id":38}},{"id":53258,"position":7,"audio_url":null,"verse_key":"53:58","verse_id":4842,"location":"53:58:7","text_uthmani":"٥٨","qpc_uthmani_hafs":"٥٨","char_type_name":"end","page_number":528,"line_number":7,"text":"٥٨","translation":{"text":"(58)","language_name":"english","language_id":38},"transliteration":{"text":null,"language_name":"english","language_id":38}}]},{"id":4843,"verse_number":59,"verse_key":"53:59","hizb_number":53,"rub_el_hizb_number":211,"ruku_number":464,"manzil_number":7,"sajdah_number":null,"page_number":528,"juz_number":27,"words":[{"id":54094,"position":1,"audio_url":"wbw/053_059_001.mp3","verse_key":"53:59","verse_id":4843,"location":"53:59:1","text_uthmani":"أَفَمِنْ","qpc_uthmani_hafs":"أَفَمِنۡ","char_type_name":"word","page_number":528,"line_number":7,"text":"أَفَمِنۡ","translation":{"text":"Then of","language_name":"english","language_id":38},"transliteration":{"text":"afamin","language_name":"english","language_id":38}},{"id":54095,"position":2,"audio_url":"wbw/053_059_002.mp3","verse_key":"53:59","verse_id":4843,"location":"53:59:2","text_uthmani":"هَـٰذَا","qpc_uthmani_hafs":"هَٰذَا","char_type_name":"word","page_number":528,"line_number":7,"text":"هَٰذَا","translation":{"text":"this","language_name":"english","language_id":38},"transliteration":{"text":"hādhā","language_name":"english","language_id":38}},{"id":54096,"position":3,"audio_url":"wbw/053_059_003.mp3","verse_key":"53:59","verse_id":4843,"location":"53:59:3","text_uthmani":"ٱلْحَدِيثِ","qpc_uthmani_hafs":"ٱلۡحَدِيثِ","char_type_name":"word","page_number":528,"line_number":7,"text":"ٱلۡحَدِيثِ","translation":{"text":"statement","language_name":"english","language_id":38},"transliteration":{"text":"l-ḥadīthi","language_name":"english","language_id":38}},{"id":54097,"position":4,"audio_url":"wbw/053_059_004.mp3","verse_key":"53:59","verse_id":4843,"location":"53:59:4","text_uthmani":"تَعْجَبُونَ","qpc_uthmani_hafs":"تَعۡجَبُونَ","char_type_name":"word","page_number":528,"line_number":8,"text":"تَعۡجَبُونَ","translation":{"text":"you wonder","language_name":"english","language_id":38},"transliteration":{"text":"taʿjabūna","language_name":"english","language_id":38}},{"id":54098,"position":5,"audio_url":null,"verse_key":"53:59","verse_id":4843,"location":"53:59:5","text_uthmani":"٥٩","qpc_uthmani_hafs":"٥٩","char_type_name":"end","page_number":528,"line_number":8,"text":"٥٩","translation":{"text":"(59)","language_name":"english","language_id":38},"transliteration":{"text":null,"language_name":"english","language_id":38}}]},{"id":4844,"verse_number":60,"verse_key":"53:60","hizb_number":53,"rub_el_hizb_number":211,"ruku_number":464,"manzil_number":7,"sajdah_number":null,"page_number":528,"juz_number":27,"words":[{"id":54420,"position":1,"audio_url":"wbw/053_060_001.mp3","verse_key":"53:60","verse_id":4844,"location":"53:60:1","text_uthmani":"وَتَضْحَكُونَ","qpc_uthmani_hafs":"وَتَضۡحَكُونَ","char_type_name":"word","page_number":528,"line_number":8,"text":"وَتَضۡحَكُونَ","translation":{"text":"And you laugh","language_name":"english","language_id":38},"transliteration":{"text":"wataḍḥakūna","language_name":"english","language_id":38}},{"id":54421,"position":2,"audio_url":"wbw/053_060_002.mp3","verse_key":"53:60","verse_id":4844,"location":"53:60:2","text_uthmani":"وَلَا","qpc_uthmani_hafs":"وَلَا","char_type_name":"word","page_number":528,"line_number":8,"text":"وَلَا","translation":{"text":"and (do) not","language_name":"english","language_id":38},"transliteration":{"text":"walā","language_name":"english","language_id":38}},{"id":54422,"position":3,"audio_url":"wbw/053_060_003.mp3","verse_key":"53:60","verse_id":4844,"location":"53:60:3","text_uthmani":"تَبْكُونَ","qpc_uthmani_hafs":"تَبۡكُونَ","char_type_name":"word","page_number":528,"line_number":8,"text":"تَبۡكُونَ","translation":{"text":"weep","language_name":"english","language_id":38},"transliteration":{"text":"tabkūna","language_name":"english","language_id":38}},{"id":54423,"position":4,"audio_url":null,"verse_key":"53:60","verse_id":4844,"location":"53:60:4","text_uthmani":"٦٠","qpc_uthmani_hafs":"٦٠","char_type_name":"end","page_number":528,"line_number":8,"text":"٦٠","translation":{"text":"(60)","language_name":"english","language_id":38},"transliteration":{"text":null,"language_name":"english","language_id":38}}]}],"pagination":{"per_page":10,"current_page":6,"next_page":7,"total_pages":7,"total_records":62}}
