{"verses":[{"id":4845,"verse_number":61,"verse_key":"53:61","hizb_number":53,"rub_el_hizb_number":211,"ruku_number":464,"manzil_number":7,"sajdah_number":null,"page_number":528,"juz_number":27,"words":[{"id":55410,"position":1,"audio_url":"wbw/053_061_001.mp3","verse_key":"53:61","verse_id":4845,"location":"53:61:1","text_uthmani":"وَأَنتُمْ","qpc_uthmani_hafs":"وَأَنتُمۡ","char_type_name":"word","page_number":528,"line_number":8,"text":"وَأَنتُمۡ","translation":{"text":"While you","language_name":"english","language_id":38},"transliteration":{"text":"wa-antum","language_name":"english","language_id":38}},{"id":55411,"position":2,"audio_url":"wbw/053_061_002.mp3","verse_key":"53:61","verse_id":4845,"location":"53:61:2","text_uthmani":"سَـٰمِدُونَ","qpc_uthmani_hafs":"سَٰمِدُونَ","char_type_name":"word","page_number":528,"line_number":8,"text":"سَٰمِدُونَ","translation":{"text":"amuse (yourselves)","language_name":"english","language_id":38},"transliteration":{"text":"sāmidūna","language_name":"english","language_id":38}},{"id":55412,"position":3,"audio_url":null,"verse_key":"53:61","verse_id":4845,"location":"53:61:3","text_uthmani":"٦١","qpc_uthmani_hafs":"٦١","char_type_name":"end","page_number":528,"line_number":9,"text":"٦١","translation":{"text":"(61)","language_name":"english","language_id":38},"transliteration":{"text":null,"language_name":"english","language_id":38}}]},{"id":4846,"verse_number":62,"verse_key":"53:62","hizb_number":53,"rub_el_hizb_number":211,"ruku_number":464,"manzil_number":7,"sajdah_number":12,"page_number":528,"juz_number":27,"words":[{"id":55823,"position":1,"audio_url":"wbw/053_062_001.mp3","verse_key":"53:62","verse_id":4846,"location":"53:62:1","text_uthmani":"فَٱسْجُدُوا۟","qpc_uthmani_hafs":"فَٱسۡجُدُواْۤ","char_type_name":"word","page_number":528,"line_number":9,"text":"فَٱسۡجُدُواْۤ","translation":{"text":"So prostrate","language_name":"english","language_id":38},"transliteration":{"text":"fa-us'judū","language_name":"english","language_id":38}},{"id":55824,"position":2,"audio_url":"wbw/053_062_002.mp3","verse_key":"53:62","verse_id":4846,"location":"53:62:2","text_uthmani":"لِلَّهِ","qpc_uthmani_hafs":"لِلَّهِۤ","char_type_name":"word","page_number":528,"line_number":9,"text":"لِلَّهِۤ","translation":{"text":"to Allah","language_name":"english","language_id":38},"transliteration":{"text":"lillahi","language_name":"english","language_id":38}},{"id":55825,"position":3,"audio_url":"wbw/053_062_003.mp3","verse_key":"53:62","verse_id":4846,"location":"53:62:3","text_uthmani":"وَٱعْبُدُوا۟ ۩","qpc_uthmani_hafs":"وَٱعۡبُدُواْ۩","char_type_name":"word","page_number":528,"line_number":9,"text":"وَٱعۡبُدُواْ۩","translation":{"text":"and worship (Him)","language_name":"english","language_id":38},"transliteration":{"text":"wa-uʿ'budū","language_name":"english","language_id":38}},{"id":55827,"position":4,"audio_url":"","verse_key":"53:62","verse_id":4846,"location":"53:62:4","text_uthmani":"٦٢","qpc_uthmani_hafs":"٦٢","char_type_name":"end","page_number":528,"line_number":9,"text":"٦٢","translation":{"text":"(62)","language_name":"english","language_id":38},"transliteration":{"text":"","language_name":"english","language_id":38}}]}],"pagination":{"per_page":10,"current_page":7,"next_page":null,"total_pages":7,"total_records":62}}
