{"verses":[{"id":5240,"verse_number":11,"verse_key":"66:11","hizb_number":56,"rub_el_hizb_number":224,"ruku_number":497,"manzil_number":7,"sajdah_number":null,"page_number":561,"juz_number":28,"words":[{"id":12770,"position":1,"audio_url":"wbw/066_011_001.mp3","char_type_name":"word","page_number":561,"line_number":11,"text":"وَضَرَبَ","translation":{"text":"এবং পেশ করেন","language_name":"bengali","language_id":20},"transliteration":{"text":"waḍaraba","language_name":"english","language_id":38}},{"id":12771,"position":2,"audio_url":"wbw/066_011_002.mp3","char_type_name":"word","page_number":561,"line_number":11,"text":"ٱللَّهُ","translation":{"text":"আল্লাহ","language_name":"bengali","language_id":20},"transliteration":{"text":"l-lahu","language_name":"english","language_id":38}},{"id":12772,"position":3,"audio_url":"wbw/066_011_003.mp3","char_type_name":"word","page_number":561,"line_number":11,"text":"مَثَلًۭا","translation":{"text":"দৃষ্টান্ত","language_name":"bengali","language_id":20},"transliteration":{"text":"mathalan","language_name":"english","language_id":38}},{"id":12773,"position":4,"audio_url":"wbw/066_011_004.mp3","char_type_name":"word","page_number":561,"line_number":11,"text":"لِّلَّذِينَ","translation":{"text":"যারা (তাদের) জন্যে","language_name":"bengali","language_id":20},"transliteration":{"text":"lilladhīna","language_name":"english","language_id":38}},{"id":12774,"position":5,"audio_url":"wbw/066_011_005.mp3","char_type_name":"word","page_number":561,"line_number":11,"text":"ءَامَنُوا۟","translation":{"text":"ঈমান এনেছে","language_name":"bengali","language_id":20},"transliteration":{"text":"āmanū","language_name":"english","language_id":38}},{"id":12775,"position":6,"audio_url":"wbw/066_011_006.mp3","char_type_name":"word","page_number":561,"line_number":11,"text":"ٱمْرَأَتَ","translation":{"text":"স্ত্রীর","language_name":"bengali","language_id":20},"transliteration":{"text":"im'ra-ata","language_name":"english","language_id":38}},{"id":12776,"position":7,"audio_url":"wbw/066_011_007.mp3","char_type_name":"word","page_number":561,"line_number":11,"text":"فِرْعَوْنَ","translation":{"text":"ফিরআউনের","language_name":"bengali","language_id":20},"transliteration":{"text":"fir'ʿawna","language_name":"english","language_id":38}},{"id":12777,"position":8,"audio_url":"wbw/066_011_008.mp3","char_type_name":"word","page_number":561,"line_number":11,"text":"إِذْ","translation":{"text":"যখন","language_name":"bengali","language_id":20},"transliteration":{"text":"idh","language_name":"english","language_id":38}},{"id":12778,"position":9,"audio_url":"wbw/066_011_009.mp3","char_type_name":"word","page_number":561,"line_number":12,"text":"قَالَتْ","translation":{"text":"বলেছিল","language_name":"bengali","language_id":20},"transliteration":{"text":"qālat","language_name":"english","language_id":38}},{"id":12779,"position":10,"audio_url":"wbw/066_011_010.mp3","char_type_name":"word","page_number":561,"line_number":12,"text":"رَبِّ","translation":{"text":"\"হে আমার রব","language_name":"bengali","language_id":20},"transliteration":{"text":"rabbi","language_name":"english","language_id":38}},{"id":12780,"position":11,"audio_url":"wbw/066_011_011.mp3","char_type_name":"word","page_number":561,"line_number":12,"text":"ٱبْنِ","translation":{"text":"বানাও","language_name":"bengali","language_id":20},"transliteration":{"text":"ib'ni","language_name":"english","language_id":38}},{"id":12781,"position":12,"audio_url":"wbw/066_011_012.mp3","char_type_name":"word","page_number":561,"line_number":12,"text":"لِى","translation":{"text":"আমার জন্যে","language_name":"bengali","language_id":20},"transliteration":{"text":"lī","language_name":"english","language_id":38}},{"id":12782,"position":13,"audio_url":"wbw/066_011_013.mp3","char_type_name":"word","page_number":561,"line_number":12,"text":"عِندَكَ","translation":{"text":"তোমার কাছে","language_name":"bengali","language_id":20},"transliteration":{"text":"ʿindaka","language_name":"english","language_id":38}},{"id":12783,"position":14,"audio_url":"wbw/066_011_014.mp3","char_type_name":"word","page_number":561,"line_number":12,"text":"بَيْتًۭا","translation":{"text":"ঘর","language_name":"bengali","language_id":20},"transliteration":{"text":"baytan","language_name":"english","language_id":38}},{"id":12784,"position":15,"audio_url":"wbw/066_011_015.mp3","char_type_name":"word","page_number":561,"line_number":12,"text":"فِى","translation":{"text":"মধ্যে","language_name":"bengali","language_id":20},"transliteration":{"text":"fī","language_name":"english","language_id":38}},{"id":12785,"position":16,"audio_url":"wbw/066_011_016.mp3","char_type_name":"word","page_number":561,"line_number":12,"text":"ٱلْجَنَّةِ","translation":{"text":"জান্নাতের","language_name":"bengali","language_id":20},"transliteration":{"text":"l-janati","language_name":"english","language_id":38}},{"id":12786,"position":17,"audio_url":"wbw/066_011_017.mp3","char_type_name":"word","page_number":561,"line_number":12,"text":"وَنَجِّنِى","translation":{"text":"এবং আমাকে উদ্ধার কর","language_name":"bengali","language_id":20},"transliteration":{"text":"wanajjinī","language_name":"english","language_id":38}},{"id":12787,"position":18,"audio_url":"wbw/066_011_018.mp3","char_type_name":"word","page_number":561,"line_number":12,"text":"مِن","translation":{"text":"হতে","language_name":"bengali","language_id":20},"transliteration":{"text":"min","language_name":"english","language_id":38}},{"id":12788,"position":19,"audio_url":"wbw/066_011_019.mp3","char_type_name":"word","page_number":561,"line_number":12,"text":"فِرْعَوْنَ","translation":{"text":"ফিরআউন","language_name":"bengali","language_id":20},"transliteration":{"text":"fir'ʿawna","language_name":"english","language_id":38}},{"id":12789,"position":20,"audio_url":"wbw/066_011_020.mp3","char_type_name":"word","page_number":561,"line_number":13,"text":"وَعَمَلِهِۦ","translation":{"text":"ও তার কাজ","language_name":"bengali","language_id":20},"transliteration":{"text":"waʿamalihi","language_name":"english","language_id":38}},{"id":12790,"position":21,"audio_url":"wbw/066_011_021.mp3","char_type_name":"word","page_number":561,"line_number":13,"text":"وَنَجِّنِى","translation":{"text":"এবং আমাকে উদ্ধার কর","language_name":"bengali","language_id":20},"transliteration":{"text":"wanajjinī","language_name":"english","language_id":38}},{"id":12791,"position":22,"audio_url":"wbw/066_011_022.mp3","char_type_name":"word","page_number":561,"line_number":13,"text":"مِنَ","translation":{"text":"হতে","language_name":"bengali","language_id":20},"transliteration":{"text":"mina","language_name":"english","language_id":38}},{"id":12792,"position":23,"audio_url":"wbw/066_011_023.mp3","char_type_name":"word","page_number":561,"line_number":13,"text":"ٱلْقَوْمِ","translation":{"text":"লোকদের","language_name":"bengali","language_id":20},"transliteration":{"text":"l-qawmi","language_name":"english","language_id":38}},{"id":12793,"position":24,"audio_url":"wbw/066_011_024.mp3","char_type_name":"word","page_number":561,"line_number":13,"text":"ٱلظَّـٰلِمِينَ","translation":{"text":"যালিম\"","language_name":"bengali","language_id":20},"transliteration":{"text":"l-ẓālimīna","language_name":"english","language_id":38}},{"id":12794,"position":25,"audio_url":null,"char_type_name":"end","page_number":561,"line_number":13,"text":"١١","translation":{"text":"(১১)","language_name":"bengali","language_id":20},"transliteration":{"text":null,"language_name":"english","language_id":38}}]},{"id":5241,"verse_number":12,"verse_key":"66:12","hizb_number":56,"rub_el_hizb_number":224,"ruku_number":497,"manzil_number":7,"sajdah_number":null,"page_number":561,"juz_number":28,"words":[{"id":14056,"position":1,"audio_url":"wbw/066_012_001.mp3","char_type_name":"word","page_number":561,"line_number":13,"text":"وَمَرْيَمَ","translation":{"text":"এবং মারয়াম","language_name":"bengali","language_id":20},"transliteration":{"text":"wamaryama","language_name":"english","language_id":38}},{"id":14057,"position":2,"audio_url":"wbw/066_012_002.mp3","char_type_name":"word","page_number":561,"line_number":13,"text":"ٱبْنَتَ","translation":{"text":"কন্যা","language_name":"bengali","language_id":20},"transliteration":{"text":"ib'nata","language_name":"english","language_id":38}},{"id":14058,"position":3,"audio_url":"wbw/066_012_003.mp3","char_type_name":"word","page_number":561,"line_number":14,"text":"عِمْرَٰنَ","translation":{"text":"ইমরানের","language_name":"bengali","language_id":20},"transliteration":{"text":"ʿim'rāna","language_name":"english","language_id":38}},{"id":14059,"position":4,"audio_url":"wbw/066_012_004.mp3","char_type_name":"word","page_number":561,"line_number":14,"text":"ٱلَّتِىٓ","translation":{"text":"যে","language_name":"bengali","language_id":20},"transliteration":{"text":"allatī","language_name":"english","language_id":38}},{"id":14060,"position":5,"audio_url":"wbw/066_012_005.mp3","char_type_name":"word","page_number":561,"line_number":14,"text":"أَحْصَنَتْ","translation":{"text":"সংরক্ষণ করেছিল","language_name":"bengali","language_id":20},"transliteration":{"text":"aḥṣanat","language_name":"english","language_id":38}},{"id":14061,"position":6,"audio_url":"wbw/066_012_006.mp3","char_type_name":"word","page_number":561,"line_number":14,"text":"فَرْجَهَا","translation":{"text":"তার লজ্জাস্থান","language_name":"bengali","language_id":20},"transliteration":{"text":"farjahā","language_name":"english","language_id":38}},{"id":14062,"position":7,"audio_url":"wbw/066_012_007.mp3","char_type_name":"word","page_number":561,"line_number":14,"text":"فَنَفَخْنَا","translation":{"text":"অতঃপর আমরা ফুঁকে দেই","language_name":"bengali","language_id":20},"transliteration":{"text":"fanafakhnā","language_name":"english","language_id":38}},{"id":14063,"position":8,"audio_url":"wbw/066_012_008.mp3","char_type_name":"word","page_number":561,"line_number":14,"text":"فِيهِ","translation":{"text":"তার মধ্যে","language_name":"bengali","language_id":20},"transliteration":{"text":"fīhi","language_name":"english","language_id":38}},{"id":14064,"position":9,"audio_url":"wbw/066_012_009.mp3","char_type_name":"word","page_number":561,"line_number":14,"text":"مِن","translation":{"text":"থেকে","language_name":"bengali","language_id":20},"transliteration":{"text":"min","language_name":"english","language_id":38}},{"id":14065,"position":10,"audio_url":"wbw/066_012_010.mp3","char_type_name":"word","page_number":561,"line_number":14,"text":"رُّوحِنَا","translation":{"text":"আমাদের রুহ","language_name":"bengali","language_id":20},"transliteration":{"text":"rūḥinā","language_name":"english","language_id":38}},{"id":14066,"position":11,"audio_url":"wbw/066_012_011.mp3","char_type_name":"word","page_number":561,"line_number":15,"text":"وَصَدَّقَتْ","translation":{"text":"এবং সে সত্যতা স্বীকার করেছিল","language_name":"bengali","language_id":20},"transliteration":{"text":"waṣaddaqat","language_name":"english","language_id":38}},{"id":14067,"position":12,"audio_url":"wbw/066_012_012.mp3","char_type_name":"word","page_number":561,"line_number":15,"text":"بِكَلِمَـٰتِ","translation":{"text":"বাক্যগুলোর","language_name":"bengali","language_id":20},"transliteration":{"text":"bikalimāti","language_name":"english","language_id":38}},{"id":14068,"position":13,"audio_url":"wbw/066_012_013.mp3","char_type_name":"word","page_number":561,"line_number":15,"text":"رَبِّهَا","translation":{"text":"তার রবের","language_name":"bengali","language_id":20},"transliteration":{"text":"rabbihā","language_name":"english","language_id":38}},{"id":14069,"position":14,"audio_url":"wbw/066_012_014.mp3","char_type_name":"word","page_number":561,"line_number":15,"text":"وَكُتُبِهِۦ","translation":{"text":"ও তাঁর কিতাবগুলোর","language_name":"bengali","language_id":20},"transliteration":{"text":"wakutubihi","language_name":"english","language_id":38}},{"id":14070,"position":15,"audio_url":"wbw/066_012_015.mp3","char_type_name":"word","page_number":561,"line_number":15,"text":"وَكَانَتْ","translation":{"text":"এবং সে ছিল","language_name":"bengali","language_id":20},"transliteration":{"text":"wakānat","language_name":"english","language_id":38}},{"id":14071,"position":16,"audio_url":"wbw/066_012_016.mp3","char_type_name":"word","page_number":561,"line_number":15,"text":"مِنَ","translation":{"text":"মধ্যে (একজন)","language_name":"bengali","language_id":20},"transliteration":{"text":"mina","language_name":"english","language_id":38}},{"id":14072,"position":17,"audio_url":"wbw/066_012_017.mp3","char_type_name":"word","page_number":561,"line_number":15,"text":"ٱلْقَـٰنِتِينَ","translation":{"text":"অনুগতদের","language_name":"bengali","language_id":20},"transliteration":{"text":"l-qānitīna","language_name":"english","language_id":38}},{"id":14073,"position":18,"audio_url":null,"char_type_name":"end","page_number":561,"line_number":15,"text":"١٢","translation":{"text":"(১২)","language_name":"bengali","language_id":20},"transliteration":{"text":null,"language_name":"english","language_id":38}}]}],"pagination":{"per_page":10,"current_page":2,"next_page":null,"total_pages":2,"total_records":12}}
