{"verses":[{"id":3033,"verse_number":101,"verse_key":"26:101","hizb_number":37,"rub_el_hizb_number":148,"ruku_number":320,"manzil_number":5,"sajdah_number":null,"page_number":371,"juz_number":19,"words":[{"id":71469,"position":1,"audio_url":"wbw/026_101_001.mp3","verse_key":"26:101","verse_id":3033,"location":"26:101:1","text_uthmani":"وَلَا","qpc_uthmani_hafs":"وَلَا","char_type_name":"word","page_number":371,"line_number":9,"text":"وَلَا","translation":{"text":"And not","language_name":"english","language_id":38},"transliteration":{"text":"walā","language_name":"english","language_id":38}},{"id":71470,"position":2,"audio_url":"wbw/026_101_002.mp3","verse_key":"26:101","verse_id":3033,"location":"26:101:2","text_uthmani":"صَدِيقٍ","qpc_uthmani_hafs":"صَدِيقٍ","char_type_name":"word","page_number":371,"line_number":9,"text":"صَدِيقٍ","translation":{"text":"a friend","language_name":"english","language_id":38},"transliteration":{"text":"ṣadīqin","language_name":"english","language_id":38}},{"id":71471,"position":3,"audio_url":"wbw/026_101_003.mp3","verse_key":"26:101","verse_id":3033,"location":"26:101:3","text_uthmani":"حَمِيمٍۢ","qpc_uthmani_hafs":"حَمِيمٖ","char_type_name":"word","page_number":371,"line_number":9,"text":"حَمِيمٖ","translation":{"text":"close","language_name":"english","language_id":38},"transliteration":{"text":"ḥamīmin","language_name":"english","language_id":38}},{"id":71472,"position":4,"audio_url":null,"verse_key":"26:101","verse_id":3033,"location":"26:101:4","text_uthmani":"١٠١","qpc_uthmani_hafs":"١٠١","char_type_name":"end","page_number":371,"line_number":9,"text":"١٠١","translation":{"text":"(101)","language_name":"english","language_id":38},"transliteration":{"text":null,"language_name":"english","language_id":38}}]},{"id":3034,"verse_number":102,"verse_key":"26:102","hizb_number":37,"rub_el_hizb_number":148,"ruku_number":320,"manzil_number":5,"sajdah_number":null,"page_number":371,"juz_number":19,"words":[{"id":71853,"position":1,"audio_url":"wbw/026_102_001.mp3","verse_key":"26:102","verse_id":3034,"location":"26:102:1","text_uthmani":"فَلَوْ","qpc_uthmani_hafs":"فَلَوۡ","char_type_name":"word","page_number":371,"line_number":9,"text":"فَلَوۡ","translation":{"text":"Then if","language_name":"english","language_id":38},"transliteration":{"text":"falaw","language_name":"english","language_id":38}},{"id":71854,"position":2,"audio_url":"wbw/026_102_002.mp3","verse_key":"26:102","verse_id":3034,"location":"26:102:2","text_uthmani":"أَنَّ","qpc_uthmani_hafs":"أَنَّ","char_type_name":"word","page_number":371,"line_number":10,"text":"أَنَّ","translation":{"text":"that","language_name":"english","language_id":38},"transliteration":{"text":"anna","language_name":"english","language_id":38}},{"id":71855,"position":3,"audio_url":"wbw/026_102_003.mp3","verse_key":"26:102","verse_id":3034,"location":"26:102:3","text_uthmani":"لَنَا","qpc_uthmani_hafs":"لَنَا","char_type_name":"word","page_number":371,"line_number":10,"text":"لَنَا","translation":{"text":"we had","language_name":"english","language_id":38},"transliteration":{"text":"lanā","language_name":"english","language_id":38}},{"id":71856,"position":4,"audio_url":"wbw/026_102_004.mp3","verse_key":"26:102","verse_id":3034,"location":"26:102:4","text_uthmani":"كَرَّةًۭ","qpc_uthmani_hafs":"كَرَّةٗ","char_type_name":"word","page_number":371,"line_number":10,"text":"كَرَّةٗ","translation":{"text":"a return","language_name":"english","language_id":38},"transliteration":{"text":"karratan","language_name":"english","language_id":38}},{"id":71857,"position":5,"audio_url":"wbw/026_102_005.mp3","verse_key":"26:102","verse_id":3034,"location":"26:102:5","text_uthmani":"فَنَكُونَ","qpc_uthmani_hafs":"فَنَكُونَ","char_type_name":"word","page_number":371,"line_number":10,"text":"فَنَكُونَ","translation":{"text":"then we could be","language_name":"english","language_id":38},"transliteration":{"text":"fanakūna","language_name":"english","language_id":38}},{"id":71858,"position":6,"audio_url":"wbw/026_102_006.mp3","verse_key":"26:102","verse_id":3034,"location":"26:102:6","text_uthmani":"مِنَ","qpc_uthmani_hafs":"مِنَ","char_type_name":"word","page_number":371,"line_number":10,"text":"مِنَ","translation":{"text":"of","language_name":"english","language_id":38},"transliteration":{"text":"mina","language_name":"english","language_id":38}},{"id":71859,"position":7,"audio_url":"wbw/026_102_007.mp3","verse_key":"26:102","verse_id":3034,"location":"26:102:7","text_uthmani":"ٱلْمُؤْمِنِينَ","qpc_uthmani_hafs":"ٱلۡمُؤۡمِنِينَ","char_type_name":"word","page_number":371,"line_number":10,"text":"ٱلۡمُؤۡمِنِينَ","translation":{"text":"the believers","language_name":"english","language_id":38},"transliteration":{"text":"l-mu'minīna","language_name":"english","language_id":38}},{"id":71860,"position":8,"audio_url":null,"verse_key":"26:102","verse_id":3034,"location":"26:102:8","text_uthmani":"١٠٢","qpc_uthmani_hafs":"١٠٢","char_type_name":"end","page_number":371,"line_number":10,"text":"١٠٢","translation":{"text":"(102)","language_name":"english","language_id":38},"transliteration":{"text":null,"language_name":"english","language_id":38}}]},{"id":3035,"verse_number":103,"verse_key":"26:103","hizb_number":37,"rub_el_hizb_number":148,"ruku_number":320,"manzil_number":5,"sajdah_number":null,"page_number":371,"juz_number":19,"words":[{"id":72261,"position":1,"audio_url":"wbw/026_103_001.mp3","verse_key":"26:103","verse_id":3035,"location":"26:103:1","text_uthmani":"إِنَّ","qpc_uthmani_hafs":"إِنَّ","char_type_name":"word","page_number":371,"line_number":10,"text":"إِنَّ","translation":{"text":"Indeed","language_name":"english","language_id":38},"transliteration":{"text":"inna","language_name":"english","language_id":38}},{"id":72262,"position":2,"audio_url":"wbw/026_103_002.mp3","verse_key":"26:103","verse_id":3035,"location":"26:103:2","text_uthmani":"فِى","qpc_uthmani_hafs":"فِي","char_type_name":"word","page_number":371,"line_number":10,"text":"فِي","translation":{"text":"in","language_name":"english","language_id":38},"transliteration":{"text":"fī","language_name":"english","language_id":38}},{"id":72263,"position":3,"audio_url":"wbw/026_103_003.mp3","verse_key":"26:103","verse_id":3035,"location":"26:103:3","text_uthmani":"ذَٰلِكَ","qpc_uthmani_hafs":"ذَٰلِكَ","char_type_name":"word","page_number":371,"line_number":10,"text":"ذَٰلِكَ","translation":{"text":"that","language_name":"english","language_id":38},"transliteration":{"text":"dhālika","language_name":"english","language_id":38}},{"id":72264,"position":4,"audio_url":"wbw/026_103_004.mp3","verse_key":"26:103","verse_id":3035,"location":"26:103:4","text_uthmani":"لَـَٔايَةًۭ ۖ","qpc_uthmani_hafs":"لَأٓيَةٗۖ","char_type_name":"word","page_number":371,"line_number":10,"text":"لَأٓيَةٗۖ","translation":{"text":"surely is a Sign","language_name":"english","language_id":38},"transliteration":{"text":"laāyatan","language_name":"english","language_id":38}},{"id":72266,"position":5,"audio_url":"wbw/026_103_006.mp3","verse_key":"26:103","verse_id":3035,"location":"26:103:5","text_uthmani":"وَمَا","qpc_uthmani_hafs":"وَمَا","char_type_name":"word","page_number":371,"line_number":10,"text":"وَمَا","translation":{"text":"but not","language_name":"english","language_id":38},"transliteration":{"text":"wamā","language_name":"english","language_id":38}},{"id":72267,"position":6,"audio_url":"wbw/026_103_007.mp3","verse_key":"26:103","verse_id":3035,"location":"26:103:6","text_uthmani":"كَانَ","qpc_uthmani_hafs":"كَانَ","char_type_name":"word","page_number":371,"line_number":10,"text":"كَانَ","translation":{"text":"are","language_name":"english","language_id":38},"transliteration":{"text":"kāna","language_name":"english","language_id":38}},{"id":72268,"position":7,"audio_url":"wbw/026_103_008.mp3","verse_key":"26:103","verse_id":3035,"location":"26:103:7","text_uthmani":"أَكْثَرُهُم","qpc_uthmani_hafs":"أَكۡثَرُهُم","char_type_name":"word","page_number":371,"line_number":11,"text":"أَكۡثَرُهُم","translation":{"text":"most of them","language_name":"english","language_id":38},"transliteration":{"text":"aktharuhum","language_name":"english","language_id":38}},{"id":72269,"position":8,"audio_url":"wbw/026_103_009.mp3","verse_key":"26:103","verse_id":3035,"location":"26:103:8","text_uthmani":"مُّؤْمِنِينَ","qpc_uthmani_hafs":"مُّؤۡمِنِينَ","char_type_name":"word","page_number":371,"line_number":11,"text":"مُّؤۡمِنِينَ","translation":{"text":"believers","language_name":"english","language_id":38},"transliteration":{"text":"mu'minīna","language_name":"english","language_id":38}},{"id":72270,"position":9,"audio_url":null,"verse_key":"26:103","verse_id":3035,"location":"26:103:9","text_uthmani":"١٠٣","qpc_uthmani_hafs":"١٠٣","char_type_name":"end","page_number":371,"line_number":11,"text":"١٠٣","translation":{"text":"(103)","language_name":"english","language_id":38},"transliteration":{"text":null,"language_name":"english","language_id":38}}]},{"id":3036,"verse_number":104,"verse_key":"26:104","hizb_number":37,"rub_el_hizb_number":148,"ruku_number":320,"manzil_number":5,"sajdah_number":null,"page_number":371,"juz_number":19,"words":[{"id":72552,"position":1,"audio_url":"wbw/026_104_001.mp3","verse_key":"26:104","verse_id":3036,"location":"26:104:1","text_uthmani":"وَإِنَّ","qpc_uthmani_hafs":"وَإِنَّ","char_type_name":"word","page_number":371,"line_number":11,"text":"وَإِنَّ","translation":{"text":"And indeed","language_name":"english","language_id":38},"transliteration":{"text":"wa-inna","language_name":"english","language_id":38}},{"id":72553,"position":2,"audio_url":"wbw/026_104_002.mp3","verse_key":"26:104","verse_id":3036,"location":"26:104:2","text_uthmani":"رَبَّكَ","qpc_uthmani_hafs":"رَبَّكَ","char_type_name":"word","page_number":371,"line_number":11,"text":"رَبَّكَ","translation":{"text":"your Lord","language_name":"english","language_id":38},"transliteration":{"text":"rabbaka","language_name":"english","language_id":38}},{"id":72554,"position":3,"audio_url":"wbw/026_104_003.mp3","verse_key":"26:104","verse_id":3036,"location":"26:104:3","text_uthmani":"لَهُوَ","qpc_uthmani_hafs":"لَهُوَ","char_type_name":"word","page_number":371,"line_number":11,"text":"لَهُوَ","translation":{"text":"surely He","language_name":"english","language_id":38},"transliteration":{"text":"lahuwa","language_name":"english","language_id":38}},{"id":72555,"position":4,"audio_url":"wbw/026_104_004.mp3","verse_key":"26:104","verse_id":3036,"location":"26:104:4","text_uthmani":"ٱلْعَزِيزُ","qpc_uthmani_hafs":"ٱلۡعَزِيزُ","char_type_name":"word","page_number":371,"line_number":11,"text":"ٱلۡعَزِيزُ","translation":{"text":"(is) the All-Mighty","language_name":"english","language_id":38},"transliteration":{"text":"l-ʿazīzu","language_name":"english","language_id":38}},{"id":72556,"position":5,"audio_url":"wbw/026_104_005.mp3","verse_key":"26:104","verse_id":3036,"location":"26:104:5","text_uthmani":"ٱلرَّحِيمُ","qpc_uthmani_hafs":"ٱلرَّحِيمُ","char_type_name":"word","page_number":371,"line_number":11,"text":"ٱلرَّحِيمُ","translation":{"text":"the Most Merciful","language_name":"english","language_id":38},"transliteration":{"text":"l-raḥīmu","language_name":"english","language_id":38}},{"id":72557,"position":6,"audio_url":null,"verse_key":"26:104","verse_id":3036,"location":"26:104:6","text_uthmani":"١٠٤","qpc_uthmani_hafs":"١٠٤","char_type_name":"end","page_number":371,"line_number":11,"text":"١٠٤","translation":{"text":"(104)","language_name":"english","language_id":38},"transliteration":{"text":null,"language_name":"english","language_id":38}}]},{"id":3037,"verse_number":105,"verse_key":"26:105","hizb_number":37,"rub_el_hizb_number":148,"ruku_number":321,"manzil_number":5,"sajdah_number":null,"page_number":371,"juz_number":19,"words":[{"id":72689,"position":1,"audio_url":"wbw/026_105_001.mp3","verse_key":"26:105","verse_id":3037,"location":"26:105:1","text_uthmani":"كَذَّبَتْ","qpc_uthmani_hafs":"كَذَّبَتۡ","char_type_name":"word","page_number":371,"line_number":11,"text":"كَذَّبَتۡ","translation":{"text":"Denied","language_name":"english","language_id":38},"transliteration":{"text":"kadhabat","language_name":"english","language_id":38}},{"id":72690,"position":2,"audio_url":"wbw/026_105_002.mp3","verse_key":"26:105","verse_id":3037,"location":"26:105:2","text_uthmani":"قَوْمُ","qpc_uthmani_hafs":"قَوۡمُ","char_type_name":"word","page_number":371,"line_number":12,"text":"قَوۡمُ","translation":{"text":"(the) people","language_name":"english","language_id":38},"transliteration":{"text":"qawmu","language_name":"english","language_id":38}},{"id":72691,"position":3,"audio_url":"wbw/026_105_003.mp3","verse_key":"26:105","verse_id":3037,"location":"26:105:3","text_uthmani":"نُوحٍ","qpc_uthmani_hafs":"نُوحٍ","char_type_name":"word","page_number":371,"line_number":12,"text":"نُوحٍ","translation":{"text":"(of) Nuh","language_name":"english","language_id":38},"transliteration":{"text":"nūḥin","language_name":"english","language_id":38}},{"id":72692,"position":4,"audio_url":"wbw/026_105_004.mp3","verse_key":"26:105","verse_id":3037,"location":"26:105:4","text_uthmani":"ٱلْمُرْسَلِينَ","qpc_uthmani_hafs":"ٱلۡمُرۡسَلِينَ","char_type_name":"word","page_number":371,"line_number":12,"text":"ٱلۡمُرۡسَلِينَ","translation":{"text":"the Messengers","language_name":"english","language_id":38},"transliteration":{"text":"l-mur'salīna","language_name":"english","language_id":38}},{"id":72693,"position":5,"audio_url":null,"verse_key":"26:105","verse_id":3037,"location":"26:105:5","text_uthmani":"١٠٥","qpc_uthmani_hafs":"١٠٥","char_type_name":"end","page_number":371,"line_number":12,"text":"١٠٥","translation":{"text":"(105)","language_name":"english","language_id":38},"transliteration":{"text":null,"language_name":"english","language_id":38}}]},{"id":3038,"verse_number":106,"verse_key":"26:106","hizb_number":37,"rub_el_hizb_number":148,"ruku_number":321,"manzil_number":5,"sajdah_number":null,"page_number":371,"juz_number":19,"words":[{"id":73058,"position":1,"audio_url":"wbw/026_106_001.mp3","verse_key":"26:106","verse_id":3038,"location":"26:106:1","text_uthmani":"إِذْ","qpc_uthmani_hafs":"إِذۡ","char_type_name":"word","page_number":371,"line_number":12,"text":"إِذۡ","translation":{"text":"When","language_name":"english","language_id":38},"transliteration":{"text":"idh","language_name":"english","language_id":38}},{"id":73059,"position":2,"audio_url":"wbw/026_106_002.mp3","verse_key":"26:106","verse_id":3038,"location":"26:106:2","text_uthmani":"قَالَ","qpc_uthmani_hafs":"قَالَ","char_type_name":"word","page_number":371,"line_number":12,"text":"قَالَ","translation":{"text":"said","language_name":"english","language_id":38},"transliteration":{"text":"qāla","language_name":"english","language_id":38}},{"id":73060,"position":3,"audio_url":"wbw/026_106_003.mp3","verse_key":"26:106","verse_id":3038,"location":"26:106:3","text_uthmani":"لَهُمْ","qpc_uthmani_hafs":"لَهُمۡ","char_type_name":"word","page_number":371,"line_number":12,"text":"لَهُمۡ","translation":{"text":"to them","language_name":"english","language_id":38},"transliteration":{"text":"lahum","language_name":"english","language_id":38}},{"id":73061,"position":4,"audio_url":"wbw/026_106_004.mp3","verse_key":"26:106","verse_id":3038,"location":"26:106:4","text_uthmani":"أَخُوهُمْ","qpc_uthmani_hafs":"أَخُوهُمۡ","char_type_name":"word","page_number":371,"line_number":12,"text":"أَخُوهُمۡ","translation":{"text":"their brother","language_name":"english","language_id":38},"transliteration":{"text":"akhūhum","language_name":"english","language_id":38}},{"id":73062,"position":5,"audio_url":"wbw/026_106_005.mp3","verse_key":"26:106","verse_id":3038,"location":"26:106:5","text_uthmani":"نُوحٌ","qpc_uthmani_hafs":"نُوحٌ","char_type_name":"word","page_number":371,"line_number":12,"text":"نُوحٌ","translation":{"text":"Nuh","language_name":"english","language_id":38},"transliteration":{"text":"nūḥun","language_name":"english","language_id":38}},{"id":73063,"position":6,"audio_url":"wbw/026_106_006.mp3","verse_key":"26:106","verse_id":3038,"location":"26:106:6","text_uthmani":"أَلَا","qpc_uthmani_hafs":"أَلَا","char_type_name":"word","page_number":371,"line_number":12,"text":"أَلَا","translation":{"text":"Will not","language_name":"english","language_id":38},"transliteration":{"text":"alā","language_name":"english","language_id":38}},{"id":73064,"position":7,"audio_url":"wbw/026_106_007.mp3","verse_key":"26:106","verse_id":3038,"location":"26:106:7","text_uthmani":"تَتَّقُونَ","qpc_uthmani_hafs":"تَتَّقُونَ","char_type_name":"word","page_number":371,"line_number":12,"text":"تَتَّقُونَ","translation":{"text":"you fear (Allah)","language_name":"english","language_id":38},"transliteration":{"text":"tattaqūna","language_name":"english","language_id":38}},{"id":73065,"position":8,"audio_url":null,"verse_key":"26:106","verse_id":3038,"location":"26:106:8","text_uthmani":"١٠٦","qpc_uthmani_hafs":"١٠٦","char_type_name":"end","page_number":371,"line_number":12,"text":"١٠٦","translation":{"text":"(106)","language_name":"english","language_id":38},"transliteration":{"text":null,"language_name":"english","language_id":38}}]},{"id":3039,"verse_number":107,"verse_key":"26:107","hizb_number":37,"rub_el_hizb_number":148,"ruku_number":321,"manzil_number":5,"sajdah_number":null,"page_number":371,"juz_number":19,"words":[{"id":73283,"position":1,"audio_url":"wbw/026_107_001.mp3","verse_key":"26:107","verse_id":3039,"location":"26:107:1","text_uthmani":"إِنِّى","qpc_uthmani_hafs":"إِنِّي","char_type_name":"word","page_number":371,"line_number":13,"text":"إِنِّي","translation":{"text":"Indeed, I am","language_name":"english","language_id":38},"transliteration":{"text":"innī","language_name":"english","language_id":38}},{"id":73284,"position":2,"audio_url":"wbw/026_107_002.mp3","verse_key":"26:107","verse_id":3039,"location":"26:107:2","text_uthmani":"لَكُمْ","qpc_uthmani_hafs":"لَكُمۡ","char_type_name":"word","page_number":371,"line_number":13,"text":"لَكُمۡ","translation":{"text":"to you","language_name":"english","language_id":38},"transliteration":{"text":"lakum","language_name":"english","language_id":38}},{"id":73285,"position":3,"audio_url":"wbw/026_107_003.mp3","verse_key":"26:107","verse_id":3039,"location":"26:107:3","text_uthmani":"رَسُولٌ","qpc_uthmani_hafs":"رَسُولٌ","char_type_name":"word","page_number":371,"line_number":13,"text":"رَسُولٌ","translation":{"text":"a Messenger","language_name":"english","language_id":38},"transliteration":{"text":"rasūlun","language_name":"english","language_id":38}},{"id":73286,"position":4,"audio_url":"wbw/026_107_004.mp3","verse_key":"26:107","verse_id":3039,"location":"26:107:4","text_uthmani":"أَمِينٌۭ","qpc_uthmani_hafs":"أَمِينٞ","char_type_name":"word","page_number":371,"line_number":13,"text":"أَمِينٞ","translation":{"text":"trustworthy","language_name":"english","language_id":38},"transliteration":{"text":"amīnun","language_name":"english","language_id":38}},{"id":73287,"position":5,"audio_url":null,"verse_key":"26:107","verse_id":3039,"location":"26:107:5","text_uthmani":"١٠٧","qpc_uthmani_hafs":"١٠٧","char_type_name":"end","page_number":371,"line_number":13,"text":"١٠٧","translation":{"text":"(107)","language_name":"english","language_id":38},"transliteration":{"text":null,"language_name":"english","language_id":38}}]},{"id":3040,"verse_number":108,"verse_key":"26:108","hizb_number":37,"rub_el_hizb_number":148,"ruku_number":321,"manzil_number":5,"sajdah_number":null,"page_number":371,"juz_number":19,"words":[{"id":73652,"position":1,"audio_url":"wbw/026_108_001.mp3","verse_key":"26:108","verse_id":3040,"location":"26:108:1","text_uthmani":"فَٱتَّقُوا۟","qpc_uthmani_hafs":"فَٱتَّقُواْ","char_type_name":"word","page_number":371,"line_number":13,"text":"فَٱتَّقُواْ","translation":{"text":"So fear","language_name":"english","language_id":38},"transliteration":{"text":"fa-ittaqū","language_name":"english","language_id":38}},{"id":73653,"position":2,"audio_url":"wbw/026_108_002.mp3","verse_key":"26:108","verse_id":3040,"location":"26:108:2","text_uthmani":"ٱللَّهَ","qpc_uthmani_hafs":"ٱللَّهَ","char_type_name":"word","page_number":371,"line_number":13,"text":"ٱللَّهَ","translation":{"text":"Allah","language_name":"english","language_id":38},"transliteration":{"text":"l-laha","language_name":"english","language_id":38}},{"id":73654,"position":3,"audio_url":"wbw/026_108_003.mp3","verse_key":"26:108","verse_id":3040,"location":"26:108:3","text_uthmani":"وَأَطِيعُونِ","qpc_uthmani_hafs":"وَأَطِيعُونِ","char_type_name":"word","page_number":371,"line_number":13,"text":"وَأَطِيعُونِ","translation":{"text":"and obey me","language_name":"english","language_id":38},"transliteration":{"text":"wa-aṭīʿūni","language_name":"english","language_id":38}},{"id":73655,"position":4,"audio_url":null,"verse_key":"26:108","verse_id":3040,"location":"26:108:4","text_uthmani":"١٠٨","qpc_uthmani_hafs":"١٠٨","char_type_name":"end","page_number":371,"line_number":13,"text":"١٠٨","translation":{"text":"(108)","language_name":"english","language_id":38},"transliteration":{"text":null,"language_name":"english","language_id":38}}]},{"id":3041,"verse_number":109,"verse_key":"26:109","hizb_number":37,"rub_el_hizb_number":148,"ruku_number":321,"manzil_number":5,"sajdah_number":null,"page_number":371,"juz_number":19,"words":[{"id":73996,"position":1,"audio_url":"wbw/026_109_001.mp3","verse_key":"26:109","verse_id":3041,"location":"26:109:1","text_uthmani":"وَمَآ","qpc_uthmani_hafs":"وَمَآ","char_type_name":"word","page_number":371,"line_number":13,"text":"وَمَآ","translation":{"text":"And not","language_name":"english","language_id":38},"transliteration":{"text":"wamā","language_name":"english","language_id":38}},{"id":73997,"position":2,"audio_url":"wbw/026_109_002.mp3","verse_key":"26:109","verse_id":3041,"location":"26:109:2","text_uthmani":"أَسْـَٔلُكُمْ","qpc_uthmani_hafs":"أَسۡـَٔلُكُمۡ","char_type_name":"word","page_number":371,"line_number":13,"text":"أَسۡـَٔلُكُمۡ","translation":{"text":"I ask (of) you","language_name":"english","language_id":38},"transliteration":{"text":"asalukum","language_name":"english","language_id":38}},{"id":73998,"position":3,"audio_url":"wbw/026_109_003.mp3","verse_key":"26:109","verse_id":3041,"location":"26:109:3","text_uthmani":"عَلَيْهِ","qpc_uthmani_hafs":"عَلَيۡهِ","char_type_name":"word","page_number":371,"line_number":14,"text":"عَلَيۡهِ","translation":{"text":"for it","language_name":"english","language_id":38},"transliteration":{"text":"ʿalayhi","language_name":"english","language_id":38}},{"id":73999,"position":4,"audio_url":"wbw/026_109_004.mp3","verse_key":"26:109","verse_id":3041,"location":"26:109:4","text_uthmani":"مِنْ","qpc_uthmani_hafs":"مِنۡ","char_type_name":"word","page_number":371,"line_number":14,"text":"مِنۡ","translation":{"text":"any","language_name":"english","language_id":38},"transliteration":{"text":"min","language_name":"english","language_id":38}},{"id":74000,"position":5,"audio_url":"wbw/026_109_005.mp3","verse_key":"26:109","verse_id":3041,"location":"26:109:5","text_uthmani":"أَجْرٍ ۖ","qpc_uthmani_hafs":"أَجۡرٍۖ","char_type_name":"word","page_number":371,"line_number":14,"text":"أَجۡرٍۖ","translation":{"text":"payment","language_name":"english","language_id":38},"transliteration":{"text":"ajrin","language_name":"english","language_id":38}},{"id":74002,"position":6,"audio_url":"wbw/026_109_007.mp3","verse_key":"26:109","verse_id":3041,"location":"26:109:6","text_uthmani":"إِنْ","qpc_uthmani_hafs":"إِنۡ","char_type_name":"word","page_number":371,"line_number":14,"text":"إِنۡ","translation":{"text":"Not","language_name":"english","language_id":38},"transliteration":{"text":"in","language_name":"english","language_id":38}},{"id":74003,"position":7,"audio_url":"wbw/026_109_008.mp3","verse_key":"26:109","verse_id":3041,"location":"26:109:7","text_uthmani":"أَجْرِىَ","qpc_uthmani_hafs":"أَجۡرِيَ","char_type_name":"word","page_number":371,"line_number":14,"text":"أَجۡرِيَ","translation":{"text":"(is) my payment","language_name":"english","language_id":38},"transliteration":{"text":"ajriya","language_name":"english","language_id":38}},{"id":74004,"position":8,"audio_url":"wbw/026_109_009.mp3","verse_key":"26:109","verse_id":3041,"location":"26:109:8","text_uthmani":"إِلَّا","qpc_uthmani_hafs":"إِلَّا","char_type_name":"word","page_number":371,"line_number":14,"text":"إِلَّا","translation":{"text":"but","language_name":"english","language_id":38},"transliteration":{"text":"illā","language_name":"english","language_id":38}},{"id":74005,"position":9,"audio_url":"wbw/026_109_010.mp3","verse_key":"26:109","verse_id":3041,"location":"26:109:9","text_uthmani":"عَلَىٰ","qpc_uthmani_hafs":"عَلَىٰ","char_type_name":"word","page_number":371,"line_number":14,"text":"عَلَىٰ","translation":{"text":"from","language_name":"english","language_id":38},"transliteration":{"text":"ʿalā","language_name":"english","language_id":38}},{"id":74006,"position":10,"audio_url":"wbw/026_109_011.mp3","verse_key":"26:109","verse_id":3041,"location":"26:109:10","text_uthmani":"رَبِّ","qpc_uthmani_hafs":"رَبِّ","char_type_name":"word","page_number":371,"line_number":14,"text":"رَبِّ","translation":{"text":"(the) Lord","language_name":"english","language_id":38},"transliteration":{"text":"rabbi","language_name":"english","language_id":38}},{"id":74007,"position":11,"audio_url":"wbw/026_109_012.mp3","verse_key":"26:109","verse_id":3041,"location":"26:109:11","text_uthmani":"ٱلْعَـٰلَمِينَ","qpc_uthmani_hafs":"ٱلۡعَٰلَمِينَ","char_type_name":"word","page_number":371,"line_number":14,"text":"ٱلۡعَٰلَمِينَ","translation":{"text":"(of) the worlds","language_name":"english","language_id":38},"transliteration":{"text":"l-ʿālamīna","language_name":"english","language_id":38}},{"id":74008,"position":12,"audio_url":null,"verse_key":"26:109","verse_id":3041,"location":"26:109:12","text_uthmani":"١٠٩","qpc_uthmani_hafs":"١٠٩","char_type_name":"end","page_number":371,"line_number":14,"text":"١٠٩","translation":{"text":"(109)","language_name":"english","language_id":38},"transliteration":{"text":null,"language_name":"english","language_id":38}}]},{"id":3042,"verse_number":110,"verse_key":"26:110","hizb_number":37,"rub_el_hizb_number":148,"ruku_number":321,"manzil_number":5,"sajdah_number":null,"page_number":371,"juz_number":19,"words":[{"id":74197,"position":1,"audio_url":"wbw/026_110_001.mp3","verse_key":"26:110","verse_id":3042,"location":"26:110:1","text_uthmani":"فَٱتَّقُوا۟","qpc_uthmani_hafs":"فَٱتَّقُواْ","char_type_name":"word","page_number":371,"line_number":14,"text":"فَٱتَّقُواْ","translation":{"text":"So fear","language_name":"english","language_id":38},"transliteration":{"text":"fa-ittaqū","language_name":"english","language_id":38}},{"id":74198,"position":2,"audio_url":"wbw/026_110_002.mp3","verse_key":"26:110","verse_id":3042,"location":"26:110:2","text_uthmani":"ٱللَّهَ","qpc_uthmani_hafs":"ٱللَّهَ","char_type_name":"word","page_number":371,"line_number":14,"text":"ٱللَّهَ","translation":{"text":"Allah","language_name":"english","language_id":38},"transliteration":{"text":"l-laha","language_name":"english","language_id":38}},{"id":74199,"position":3,"audio_url":"wbw/026_110_003.mp3","verse_key":"26:110","verse_id":3042,"location":"26:110:3","text_uthmani":"وَأَطِيعُونِ","qpc_uthmani_hafs":"وَأَطِيعُونِ","char_type_name":"word","page_number":371,"line_number":15,"text":"وَأَطِيعُونِ","translation":{"text":"and obey me","language_name":"english","language_id":38},"transliteration":{"text":"wa-aṭīʿūni","language_name":"english","language_id":38}},{"id":74200,"position":4,"audio_url":null,"verse_key":"26:110","verse_id":3042,"location":"26:110:4","text_uthmani":"١١٠","qpc_uthmani_hafs":"١١٠","char_type_name":"end","page_number":371,"line_number":15,"text":"١١٠","translation":{"text":"(110)","language_name":"english","language_id":38},"transliteration":{"text":null,"language_name":"english","language_id":38}}]}],"pagination":{"per_page":10,"current_page":11,"next_page":12,"total_pages":23,"total_records":227}}
