{"verses":[{"id":3043,"verse_number":111,"verse_key":"26:111","hizb_number":38,"rub_el_hizb_number":149,"ruku_number":321,"manzil_number":5,"sajdah_number":null,"page_number":371,"juz_number":19,"words":[{"id":74386,"position":1,"audio_url":"wbw/026_111_002.mp3","verse_key":"26:111","verse_id":3043,"location":"26:111:1","text_uthmani":"۞ قَالُوٓا۟","qpc_uthmani_hafs":"۞ قَالُوٓاْ","char_type_name":"word","page_number":371,"line_number":15,"text":"۞ قَالُوٓاْ","translation":{"text":"They said","language_name":"english","language_id":38},"transliteration":{"text":"qālū","language_name":"english","language_id":38}},{"id":74387,"position":2,"audio_url":"wbw/026_111_003.mp3","verse_key":"26:111","verse_id":3043,"location":"26:111:2","text_uthmani":"أَنُؤْمِنُ","qpc_uthmani_hafs":"أَنُؤۡمِنُ","char_type_name":"word","page_number":371,"line_number":15,"text":"أَنُؤۡمِنُ","translation":{"text":"Should we believe","language_name":"english","language_id":38},"transliteration":{"text":"anu'minu","language_name":"english","language_id":38}},{"id":74388,"position":3,"audio_url":"wbw/026_111_004.mp3","verse_key":"26:111","verse_id":3043,"location":"26:111:3","text_uthmani":"لَكَ","qpc_uthmani_hafs":"لَكَ","char_type_name":"word","page_number":371,"line_number":15,"text":"لَكَ","translation":{"text":"in you","language_name":"english","language_id":38},"transliteration":{"text":"laka","language_name":"english","language_id":38}},{"id":74389,"position":4,"audio_url":"wbw/026_111_005.mp3","verse_key":"26:111","verse_id":3043,"location":"26:111:4","text_uthmani":"وَٱتَّبَعَكَ","qpc_uthmani_hafs":"وَٱتَّبَعَكَ","char_type_name":"word","page_number":371,"line_number":15,"text":"وَٱتَّبَعَكَ","translation":{"text":"while followed you","language_name":"english","language_id":38},"transliteration":{"text":"wa-ittabaʿaka","language_name":"english","language_id":38}},{"id":74390,"position":5,"audio_url":"wbw/026_111_006.mp3","verse_key":"26:111","verse_id":3043,"location":"26:111:5","text_uthmani":"ٱلْأَرْذَلُونَ","qpc_uthmani_hafs":"ٱلۡأَرۡذَلُونَ","char_type_name":"word","page_number":371,"line_number":15,"text":"ٱلۡأَرۡذَلُونَ","translation":{"text":"the lowest","language_name":"english","language_id":38},"transliteration":{"text":"l-ardhalūna","language_name":"english","language_id":38}},{"id":74391,"position":6,"audio_url":null,"verse_key":"26:111","verse_id":3043,"location":"26:111:6","text_uthmani":"١١١","qpc_uthmani_hafs":"١١١","char_type_name":"end","page_number":371,"line_number":15,"text":"١١١","translation":{"text":"(111)","language_name":"english","language_id":38},"transliteration":{"text":null,"language_name":"english","language_id":38}}]},{"id":3044,"verse_number":112,"verse_key":"26:112","hizb_number":38,"rub_el_hizb_number":149,"ruku_number":321,"manzil_number":5,"sajdah_number":null,"page_number":372,"juz_number":19,"words":[{"id":74737,"position":1,"audio_url":"wbw/026_112_001.mp3","verse_key":"26:112","verse_id":3044,"location":"26:112:1","text_uthmani":"قَالَ","qpc_uthmani_hafs":"قَالَ","char_type_name":"word","page_number":372,"line_number":1,"text":"قَالَ","translation":{"text":"He said","language_name":"english","language_id":38},"transliteration":{"text":"qāla","language_name":"english","language_id":38}},{"id":74738,"position":2,"audio_url":"wbw/026_112_002.mp3","verse_key":"26:112","verse_id":3044,"location":"26:112:2","text_uthmani":"وَمَا","qpc_uthmani_hafs":"وَمَا","char_type_name":"word","page_number":372,"line_number":1,"text":"وَمَا","translation":{"text":"And what","language_name":"english","language_id":38},"transliteration":{"text":"wamā","language_name":"english","language_id":38}},{"id":74739,"position":3,"audio_url":"wbw/026_112_003.mp3","verse_key":"26:112","verse_id":3044,"location":"26:112:3","text_uthmani":"عِلْمِى","qpc_uthmani_hafs":"عِلۡمِي","char_type_name":"word","page_number":372,"line_number":1,"text":"عِلۡمِي","translation":{"text":"(do) I know","language_name":"english","language_id":38},"transliteration":{"text":"ʿil'mī","language_name":"english","language_id":38}},{"id":74740,"position":4,"audio_url":"wbw/026_112_004.mp3","verse_key":"26:112","verse_id":3044,"location":"26:112:4","text_uthmani":"بِمَا","qpc_uthmani_hafs":"بِمَا","char_type_name":"word","page_number":372,"line_number":1,"text":"بِمَا","translation":{"text":"of what","language_name":"english","language_id":38},"transliteration":{"text":"bimā","language_name":"english","language_id":38}},{"id":74741,"position":5,"audio_url":"wbw/026_112_005.mp3","verse_key":"26:112","verse_id":3044,"location":"26:112:5","text_uthmani":"كَانُوا۟","qpc_uthmani_hafs":"كَانُواْ","char_type_name":"word","page_number":372,"line_number":1,"text":"كَانُواْ","translation":{"text":"they used","language_name":"english","language_id":38},"transliteration":{"text":"kānū","language_name":"english","language_id":38}},{"id":74742,"position":6,"audio_url":"wbw/026_112_006.mp3","verse_key":"26:112","verse_id":3044,"location":"26:112:6","text_uthmani":"يَعْمَلُونَ","qpc_uthmani_hafs":"يَعۡمَلُونَ","char_type_name":"word","page_number":372,"line_number":1,"text":"يَعۡمَلُونَ","translation":{"text":"(to) do","language_name":"english","language_id":38},"transliteration":{"text":"yaʿmalūna","language_name":"english","language_id":38}},{"id":74743,"position":7,"audio_url":null,"verse_key":"26:112","verse_id":3044,"location":"26:112:7","text_uthmani":"١١٢","qpc_uthmani_hafs":"١١٢","char_type_name":"end","page_number":372,"line_number":1,"text":"١١٢","translation":{"text":"(112)","language_name":"english","language_id":38},"transliteration":{"text":null,"language_name":"english","language_id":38}}]},{"id":3045,"verse_number":113,"verse_key":"26:113","hizb_number":38,"rub_el_hizb_number":149,"ruku_number":321,"manzil_number":5,"sajdah_number":null,"page_number":372,"juz_number":19,"words":[{"id":74833,"position":1,"audio_url":"wbw/026_113_001.mp3","verse_key":"26:113","verse_id":3045,"location":"26:113:1","text_uthmani":"إِنْ","qpc_uthmani_hafs":"إِنۡ","char_type_name":"word","page_number":372,"line_number":1,"text":"إِنۡ","translation":{"text":"Verily","language_name":"english","language_id":38},"transliteration":{"text":"in","language_name":"english","language_id":38}},{"id":74834,"position":2,"audio_url":"wbw/026_113_002.mp3","verse_key":"26:113","verse_id":3045,"location":"26:113:2","text_uthmani":"حِسَابُهُمْ","qpc_uthmani_hafs":"حِسَابُهُمۡ","char_type_name":"word","page_number":372,"line_number":1,"text":"حِسَابُهُمۡ","translation":{"text":"their account","language_name":"english","language_id":38},"transliteration":{"text":"ḥisābuhum","language_name":"english","language_id":38}},{"id":74835,"position":3,"audio_url":"wbw/026_113_003.mp3","verse_key":"26:113","verse_id":3045,"location":"26:113:3","text_uthmani":"إِلَّا","qpc_uthmani_hafs":"إِلَّا","char_type_name":"word","page_number":372,"line_number":1,"text":"إِلَّا","translation":{"text":"(is) but","language_name":"english","language_id":38},"transliteration":{"text":"illā","language_name":"english","language_id":38}},{"id":74836,"position":4,"audio_url":"wbw/026_113_004.mp3","verse_key":"26:113","verse_id":3045,"location":"26:113:4","text_uthmani":"عَلَىٰ","qpc_uthmani_hafs":"عَلَىٰ","char_type_name":"word","page_number":372,"line_number":1,"text":"عَلَىٰ","translation":{"text":"upon","language_name":"english","language_id":38},"transliteration":{"text":"ʿalā","language_name":"english","language_id":38}},{"id":74837,"position":5,"audio_url":"wbw/026_113_005.mp3","verse_key":"26:113","verse_id":3045,"location":"26:113:5","text_uthmani":"رَبِّى ۖ","qpc_uthmani_hafs":"رَبِّيۖ","char_type_name":"word","page_number":372,"line_number":1,"text":"رَبِّيۖ","translation":{"text":"my Lord","language_name":"english","language_id":38},"transliteration":{"text":"rabbī","language_name":"english","language_id":38}},{"id":74839,"position":6,"audio_url":"wbw/026_113_007.mp3","verse_key":"26:113","verse_id":3045,"location":"26:113:6","text_uthmani":"لَوْ","qpc_uthmani_hafs":"لَوۡ","char_type_name":"word","page_number":372,"line_number":2,"text":"لَوۡ","translation":{"text":"if","language_name":"english","language_id":38},"transliteration":{"text":"law","language_name":"english","language_id":38}},{"id":74840,"position":7,"audio_url":"wbw/026_113_008.mp3","verse_key":"26:113","verse_id":3045,"location":"26:113:7","text_uthmani":"تَشْعُرُونَ","qpc_uthmani_hafs":"تَشۡعُرُونَ","char_type_name":"word","page_number":372,"line_number":2,"text":"تَشۡعُرُونَ","translation":{"text":"you perceive","language_name":"english","language_id":38},"transliteration":{"text":"tashʿurūna","language_name":"english","language_id":38}},{"id":74841,"position":8,"audio_url":null,"verse_key":"26:113","verse_id":3045,"location":"26:113:8","text_uthmani":"١١٣","qpc_uthmani_hafs":"١١٣","char_type_name":"end","page_number":372,"line_number":2,"text":"١١٣","translation":{"text":"(113)","language_name":"english","language_id":38},"transliteration":{"text":null,"language_name":"english","language_id":38}}]},{"id":3046,"verse_number":114,"verse_key":"26:114","hizb_number":38,"rub_el_hizb_number":149,"ruku_number":321,"manzil_number":5,"sajdah_number":null,"page_number":372,"juz_number":19,"words":[{"id":75111,"position":1,"audio_url":"wbw/026_114_001.mp3","verse_key":"26:114","verse_id":3046,"location":"26:114:1","text_uthmani":"وَمَآ","qpc_uthmani_hafs":"وَمَآ","char_type_name":"word","page_number":372,"line_number":2,"text":"وَمَآ","translation":{"text":"And not","language_name":"english","language_id":38},"transliteration":{"text":"wamā","language_name":"english","language_id":38}},{"id":75112,"position":2,"audio_url":"wbw/026_114_002.mp3","verse_key":"26:114","verse_id":3046,"location":"26:114:2","text_uthmani":"أَنَا۠","qpc_uthmani_hafs":"أَنَا۠","char_type_name":"word","page_number":372,"line_number":2,"text":"أَنَا۠","translation":{"text":"I am","language_name":"english","language_id":38},"transliteration":{"text":"anā","language_name":"english","language_id":38}},{"id":75113,"position":3,"audio_url":"wbw/026_114_003.mp3","verse_key":"26:114","verse_id":3046,"location":"26:114:3","text_uthmani":"بِطَارِدِ","qpc_uthmani_hafs":"بِطَارِدِ","char_type_name":"word","page_number":372,"line_number":2,"text":"بِطَارِدِ","translation":{"text":"the one to drive away","language_name":"english","language_id":38},"transliteration":{"text":"biṭāridi","language_name":"english","language_id":38}},{"id":75114,"position":4,"audio_url":"wbw/026_114_004.mp3","verse_key":"26:114","verse_id":3046,"location":"26:114:4","text_uthmani":"ٱلْمُؤْمِنِينَ","qpc_uthmani_hafs":"ٱلۡمُؤۡمِنِينَ","char_type_name":"word","page_number":372,"line_number":2,"text":"ٱلۡمُؤۡمِنِينَ","translation":{"text":"the believers","language_name":"english","language_id":38},"transliteration":{"text":"l-mu'minīna","language_name":"english","language_id":38}},{"id":75115,"position":5,"audio_url":null,"verse_key":"26:114","verse_id":3046,"location":"26:114:5","text_uthmani":"١١٤","qpc_uthmani_hafs":"١١٤","char_type_name":"end","page_number":372,"line_number":2,"text":"١١٤","translation":{"text":"(114)","language_name":"english","language_id":38},"transliteration":{"text":null,"language_name":"english","language_id":38}}]},{"id":3047,"verse_number":115,"verse_key":"26:115","hizb_number":38,"rub_el_hizb_number":149,"ruku_number":321,"manzil_number":5,"sajdah_number":null,"page_number":372,"juz_number":19,"words":[{"id":75309,"position":1,"audio_url":"wbw/026_115_001.mp3","verse_key":"26:115","verse_id":3047,"location":"26:115:1","text_uthmani":"إِنْ","qpc_uthmani_hafs":"إِنۡ","char_type_name":"word","page_number":372,"line_number":2,"text":"إِنۡ","translation":{"text":"Not","language_name":"english","language_id":38},"transliteration":{"text":"in","language_name":"english","language_id":38}},{"id":75310,"position":2,"audio_url":"wbw/026_115_002.mp3","verse_key":"26:115","verse_id":3047,"location":"26:115:2","text_uthmani":"أَنَا۠","qpc_uthmani_hafs":"أَنَا۠","char_type_name":"word","page_number":372,"line_number":2,"text":"أَنَا۠","translation":{"text":"I am","language_name":"english","language_id":38},"transliteration":{"text":"anā","language_name":"english","language_id":38}},{"id":75311,"position":3,"audio_url":"wbw/026_115_003.mp3","verse_key":"26:115","verse_id":3047,"location":"26:115:3","text_uthmani":"إِلَّا","qpc_uthmani_hafs":"إِلَّا","char_type_name":"word","page_number":372,"line_number":2,"text":"إِلَّا","translation":{"text":"but","language_name":"english","language_id":38},"transliteration":{"text":"illā","language_name":"english","language_id":38}},{"id":75312,"position":4,"audio_url":"wbw/026_115_004.mp3","verse_key":"26:115","verse_id":3047,"location":"26:115:4","text_uthmani":"نَذِيرٌۭ","qpc_uthmani_hafs":"نَذِيرٞ","char_type_name":"word","page_number":372,"line_number":2,"text":"نَذِيرٞ","translation":{"text":"a warner","language_name":"english","language_id":38},"transliteration":{"text":"nadhīrun","language_name":"english","language_id":38}},{"id":75313,"position":5,"audio_url":"wbw/026_115_005.mp3","verse_key":"26:115","verse_id":3047,"location":"26:115:5","text_uthmani":"مُّبِينٌۭ","qpc_uthmani_hafs":"مُّبِينٞ","char_type_name":"word","page_number":372,"line_number":2,"text":"مُّبِينٞ","translation":{"text":"clear","language_name":"english","language_id":38},"transliteration":{"text":"mubīnun","language_name":"english","language_id":38}},{"id":75314,"position":6,"audio_url":null,"verse_key":"26:115","verse_id":3047,"location":"26:115:6","text_uthmani":"١١٥","qpc_uthmani_hafs":"١١٥","char_type_name":"end","page_number":372,"line_number":3,"text":"١١٥","translation":{"text":"(115)","language_name":"english","language_id":38},"transliteration":{"text":null,"language_name":"english","language_id":38}}]},{"id":3048,"verse_number":116,"verse_key":"26:116","hizb_number":38,"rub_el_hizb_number":149,"ruku_number":321,"manzil_number":5,"sajdah_number":null,"page_number":372,"juz_number":19,"words":[{"id":75595,"position":1,"audio_url":"wbw/026_116_001.mp3","verse_key":"26:116","verse_id":3048,"location":"26:116:1","text_uthmani":"قَالُوا۟","qpc_uthmani_hafs":"قَالُواْ","char_type_name":"word","page_number":372,"line_number":3,"text":"قَالُواْ","translation":{"text":"They said","language_name":"english","language_id":38},"transliteration":{"text":"qālū","language_name":"english","language_id":38}},{"id":75596,"position":2,"audio_url":"wbw/026_116_002.mp3","verse_key":"26:116","verse_id":3048,"location":"26:116:2","text_uthmani":"لَئِن","qpc_uthmani_hafs":"لَئِن","char_type_name":"word","page_number":372,"line_number":3,"text":"لَئِن","translation":{"text":"If","language_name":"english","language_id":38},"transliteration":{"text":"la-in","language_name":"english","language_id":38}},{"id":75597,"position":3,"audio_url":"wbw/026_116_003.mp3","verse_key":"26:116","verse_id":3048,"location":"26:116:3","text_uthmani":"لَّمْ","qpc_uthmani_hafs":"لَّمۡ","char_type_name":"word","page_number":372,"line_number":3,"text":"لَّمۡ","translation":{"text":"not","language_name":"english","language_id":38},"transliteration":{"text":"lam","language_name":"english","language_id":38}},{"id":75598,"position":4,"audio_url":"wbw/026_116_004.mp3","verse_key":"26:116","verse_id":3048,"location":"26:116:4","text_uthmani":"تَنتَهِ","qpc_uthmani_hafs":"تَنتَهِ","char_type_name":"word","page_number":372,"line_number":3,"text":"تَنتَهِ","translation":{"text":"you desist","language_name":"english","language_id":38},"transliteration":{"text":"tantahi","language_name":"english","language_id":38}},{"id":75599,"position":5,"audio_url":"wbw/026_116_005.mp3","verse_key":"26:116","verse_id":3048,"location":"26:116:5","text_uthmani":"يَـٰنُوحُ","qpc_uthmani_hafs":"يَٰنُوحُ","char_type_name":"word","page_number":372,"line_number":3,"text":"يَٰنُوحُ","translation":{"text":"O Nuh","language_name":"english","language_id":38},"transliteration":{"text":"yānūḥu","language_name":"english","language_id":38}},{"id":75600,"position":6,"audio_url":"wbw/026_116_006.mp3","verse_key":"26:116","verse_id":3048,"location":"26:116:6","text_uthmani":"لَتَكُونَنَّ","qpc_uthmani_hafs":"لَتَكُونَنَّ","char_type_name":"word","page_number":372,"line_number":3,"text":"لَتَكُونَنَّ","translation":{"text":"Surely you will be","language_name":"english","language_id":38},"transliteration":{"text":"latakūnanna","language_name":"english","language_id":38}},{"id":75601,"position":7,"audio_url":"wbw/026_116_007.mp3","verse_key":"26:116","verse_id":3048,"location":"26:116:7","text_uthmani":"مِنَ","qpc_uthmani_hafs":"مِنَ","char_type_name":"word","page_number":372,"line_number":3,"text":"مِنَ","translation":{"text":"of","language_name":"english","language_id":38},"transliteration":{"text":"mina","language_name":"english","language_id":38}},{"id":75602,"position":8,"audio_url":"wbw/026_116_008.mp3","verse_key":"26:116","verse_id":3048,"location":"26:116:8","text_uthmani":"ٱلْمَرْجُومِينَ","qpc_uthmani_hafs":"ٱلۡمَرۡجُومِينَ","char_type_name":"word","page_number":372,"line_number":3,"text":"ٱلۡمَرۡجُومِينَ","translation":{"text":"those who are stoned","language_name":"english","language_id":38},"transliteration":{"text":"l-marjūmīna","language_name":"english","language_id":38}},{"id":75603,"position":9,"audio_url":null,"verse_key":"26:116","verse_id":3048,"location":"26:116:9","text_uthmani":"١١٦","qpc_uthmani_hafs":"١١٦","char_type_name":"end","page_number":372,"line_number":3,"text":"١١٦","translation":{"text":"(116)","language_name":"english","language_id":38},"transliteration":{"text":null,"language_name":"english","language_id":38}}]},{"id":3049,"verse_number":117,"verse_key":"26:117","hizb_number":38,"rub_el_hizb_number":149,"ruku_number":321,"manzil_number":5,"sajdah_number":null,"page_number":372,"juz_number":19,"words":[{"id":75735,"position":1,"audio_url":"wbw/026_117_001.mp3","verse_key":"26:117","verse_id":3049,"location":"26:117:1","text_uthmani":"قَالَ","qpc_uthmani_hafs":"قَالَ","char_type_name":"word","page_number":372,"line_number":3,"text":"قَالَ","translation":{"text":"He said","language_name":"english","language_id":38},"transliteration":{"text":"qāla","language_name":"english","language_id":38}},{"id":75736,"position":2,"audio_url":"wbw/026_117_002.mp3","verse_key":"26:117","verse_id":3049,"location":"26:117:2","text_uthmani":"رَبِّ","qpc_uthmani_hafs":"رَبِّ","char_type_name":"word","page_number":372,"line_number":4,"text":"رَبِّ","translation":{"text":"My Lord","language_name":"english","language_id":38},"transliteration":{"text":"rabbi","language_name":"english","language_id":38}},{"id":75737,"position":3,"audio_url":"wbw/026_117_003.mp3","verse_key":"26:117","verse_id":3049,"location":"26:117:3","text_uthmani":"إِنَّ","qpc_uthmani_hafs":"إِنَّ","char_type_name":"word","page_number":372,"line_number":4,"text":"إِنَّ","translation":{"text":"Indeed","language_name":"english","language_id":38},"transliteration":{"text":"inna","language_name":"english","language_id":38}},{"id":75738,"position":4,"audio_url":"wbw/026_117_004.mp3","verse_key":"26:117","verse_id":3049,"location":"26:117:4","text_uthmani":"قَوْمِى","qpc_uthmani_hafs":"قَوۡمِي","char_type_name":"word","page_number":372,"line_number":4,"text":"قَوۡمِي","translation":{"text":"my people","language_name":"english","language_id":38},"transliteration":{"text":"qawmī","language_name":"english","language_id":38}},{"id":75739,"position":5,"audio_url":"wbw/026_117_005.mp3","verse_key":"26:117","verse_id":3049,"location":"26:117:5","text_uthmani":"كَذَّبُونِ","qpc_uthmani_hafs":"كَذَّبُونِ","char_type_name":"word","page_number":372,"line_number":4,"text":"كَذَّبُونِ","translation":{"text":"have denied me","language_name":"english","language_id":38},"transliteration":{"text":"kadhabūni","language_name":"english","language_id":38}},{"id":75740,"position":6,"audio_url":null,"verse_key":"26:117","verse_id":3049,"location":"26:117:6","text_uthmani":"١١٧","qpc_uthmani_hafs":"١١٧","char_type_name":"end","page_number":372,"line_number":4,"text":"١١٧","translation":{"text":"(117)","language_name":"english","language_id":38},"transliteration":{"text":null,"language_name":"english","language_id":38}}]},{"id":3050,"verse_number":118,"verse_key":"26:118","hizb_number":38,"rub_el_hizb_number":149,"ruku_number":321,"manzil_number":5,"sajdah_number":null,"page_number":372,"juz_number":19,"words":[{"id":75945,"position":1,"audio_url":"wbw/026_118_001.mp3","verse_key":"26:118","verse_id":3050,"location":"26:118:1","text_uthmani":"فَٱفْتَحْ","qpc_uthmani_hafs":"فَٱفۡتَحۡ","char_type_name":"word","page_number":372,"line_number":4,"text":"فَٱفۡتَحۡ","translation":{"text":"So judge","language_name":"english","language_id":38},"transliteration":{"text":"fa-if'taḥ","language_name":"english","language_id":38}},{"id":75946,"position":2,"audio_url":"wbw/026_118_002.mp3","verse_key":"26:118","verse_id":3050,"location":"26:118:2","text_uthmani":"بَيْنِى","qpc_uthmani_hafs":"بَيۡنِي","char_type_name":"word","page_number":372,"line_number":4,"text":"بَيۡنِي","translation":{"text":"between me","language_name":"english","language_id":38},"transliteration":{"text":"baynī","language_name":"english","language_id":38}},{"id":75947,"position":3,"audio_url":"wbw/026_118_003.mp3","verse_key":"26:118","verse_id":3050,"location":"26:118:3","text_uthmani":"وَبَيْنَهُمْ","qpc_uthmani_hafs":"وَبَيۡنَهُمۡ","char_type_name":"word","page_number":372,"line_number":4,"text":"وَبَيۡنَهُمۡ","translation":{"text":"and between them","language_name":"english","language_id":38},"transliteration":{"text":"wabaynahum","language_name":"english","language_id":38}},{"id":75948,"position":4,"audio_url":"wbw/026_118_004.mp3","verse_key":"26:118","verse_id":3050,"location":"26:118:4","text_uthmani":"فَتْحًۭا","qpc_uthmani_hafs":"فَتۡحٗا","char_type_name":"word","page_number":372,"line_number":4,"text":"فَتۡحٗا","translation":{"text":"(with decisive) judgment","language_name":"english","language_id":38},"transliteration":{"text":"fatḥan","language_name":"english","language_id":38}},{"id":75949,"position":5,"audio_url":"wbw/026_118_005.mp3","verse_key":"26:118","verse_id":3050,"location":"26:118:5","text_uthmani":"وَنَجِّنِى","qpc_uthmani_hafs":"وَنَجِّنِي","char_type_name":"word","page_number":372,"line_number":4,"text":"وَنَجِّنِي","translation":{"text":"and save me","language_name":"english","language_id":38},"transliteration":{"text":"wanajjinī","language_name":"english","language_id":38}},{"id":75950,"position":6,"audio_url":"wbw/026_118_006.mp3","verse_key":"26:118","verse_id":3050,"location":"26:118:6","text_uthmani":"وَمَن","qpc_uthmani_hafs":"وَمَن","char_type_name":"word","page_number":372,"line_number":4,"text":"وَمَن","translation":{"text":"and who","language_name":"english","language_id":38},"transliteration":{"text":"waman","language_name":"english","language_id":38}},{"id":75951,"position":7,"audio_url":"wbw/026_118_007.mp3","verse_key":"26:118","verse_id":3050,"location":"26:118:7","text_uthmani":"مَّعِىَ","qpc_uthmani_hafs":"مَّعِيَ","char_type_name":"word","page_number":372,"line_number":5,"text":"مَّعِيَ","translation":{"text":"(are) with me","language_name":"english","language_id":38},"transliteration":{"text":"maʿiya","language_name":"english","language_id":38}},{"id":75952,"position":8,"audio_url":"wbw/026_118_008.mp3","verse_key":"26:118","verse_id":3050,"location":"26:118:8","text_uthmani":"مِنَ","qpc_uthmani_hafs":"مِنَ","char_type_name":"word","page_number":372,"line_number":5,"text":"مِنَ","translation":{"text":"of","language_name":"english","language_id":38},"transliteration":{"text":"mina","language_name":"english","language_id":38}},{"id":75953,"position":9,"audio_url":"wbw/026_118_009.mp3","verse_key":"26:118","verse_id":3050,"location":"26:118:9","text_uthmani":"ٱلْمُؤْمِنِينَ","qpc_uthmani_hafs":"ٱلۡمُؤۡمِنِينَ","char_type_name":"word","page_number":372,"line_number":5,"text":"ٱلۡمُؤۡمِنِينَ","translation":{"text":"the believers","language_name":"english","language_id":38},"transliteration":{"text":"l-mu'minīna","language_name":"english","language_id":38}},{"id":75954,"position":10,"audio_url":null,"verse_key":"26:118","verse_id":3050,"location":"26:118:10","text_uthmani":"١١٨","qpc_uthmani_hafs":"١١٨","char_type_name":"end","page_number":372,"line_number":5,"text":"١١٨","translation":{"text":"(118)","language_name":"english","language_id":38},"transliteration":{"text":null,"language_name":"english","language_id":38}}]},{"id":3051,"verse_number":119,"verse_key":"26:119","hizb_number":38,"rub_el_hizb_number":149,"ruku_number":321,"manzil_number":5,"sajdah_number":null,"page_number":372,"juz_number":19,"words":[{"id":76220,"position":1,"audio_url":"wbw/026_119_001.mp3","verse_key":"26:119","verse_id":3051,"location":"26:119:1","text_uthmani":"فَأَنجَيْنَـٰهُ","qpc_uthmani_hafs":"فَأَنجَيۡنَٰهُ","char_type_name":"word","page_number":372,"line_number":5,"text":"فَأَنجَيۡنَٰهُ","translation":{"text":"So We saved him","language_name":"english","language_id":38},"transliteration":{"text":"fa-anjaynāhu","language_name":"english","language_id":38}},{"id":76221,"position":2,"audio_url":"wbw/026_119_002.mp3","verse_key":"26:119","verse_id":3051,"location":"26:119:2","text_uthmani":"وَمَن","qpc_uthmani_hafs":"وَمَن","char_type_name":"word","page_number":372,"line_number":5,"text":"وَمَن","translation":{"text":"and who","language_name":"english","language_id":38},"transliteration":{"text":"waman","language_name":"english","language_id":38}},{"id":76222,"position":3,"audio_url":"wbw/026_119_003.mp3","verse_key":"26:119","verse_id":3051,"location":"26:119:3","text_uthmani":"مَّعَهُۥ","qpc_uthmani_hafs":"مَّعَهُۥ","char_type_name":"word","page_number":372,"line_number":5,"text":"مَّعَهُۥ","translation":{"text":"(were) with him","language_name":"english","language_id":38},"transliteration":{"text":"maʿahu","language_name":"english","language_id":38}},{"id":76223,"position":4,"audio_url":"wbw/026_119_004.mp3","verse_key":"26:119","verse_id":3051,"location":"26:119:4","text_uthmani":"فِى","qpc_uthmani_hafs":"فِي","char_type_name":"word","page_number":372,"line_number":5,"text":"فِي","translation":{"text":"in","language_name":"english","language_id":38},"transliteration":{"text":"fī","language_name":"english","language_id":38}},{"id":76224,"position":5,"audio_url":"wbw/026_119_005.mp3","verse_key":"26:119","verse_id":3051,"location":"26:119:5","text_uthmani":"ٱلْفُلْكِ","qpc_uthmani_hafs":"ٱلۡفُلۡكِ","char_type_name":"word","page_number":372,"line_number":5,"text":"ٱلۡفُلۡكِ","translation":{"text":"the ship","language_name":"english","language_id":38},"transliteration":{"text":"l-ful'ki","language_name":"english","language_id":38}},{"id":76225,"position":6,"audio_url":"wbw/026_119_006.mp3","verse_key":"26:119","verse_id":3051,"location":"26:119:6","text_uthmani":"ٱلْمَشْحُونِ","qpc_uthmani_hafs":"ٱلۡمَشۡحُونِ","char_type_name":"word","page_number":372,"line_number":5,"text":"ٱلۡمَشۡحُونِ","translation":{"text":"laden","language_name":"english","language_id":38},"transliteration":{"text":"l-mashḥūni","language_name":"english","language_id":38}},{"id":76226,"position":7,"audio_url":null,"verse_key":"26:119","verse_id":3051,"location":"26:119:7","text_uthmani":"١١٩","qpc_uthmani_hafs":"١١٩","char_type_name":"end","page_number":372,"line_number":6,"text":"١١٩","translation":{"text":"(119)","language_name":"english","language_id":38},"transliteration":{"text":null,"language_name":"english","language_id":38}}]},{"id":3052,"verse_number":120,"verse_key":"26:120","hizb_number":38,"rub_el_hizb_number":149,"ruku_number":321,"manzil_number":5,"sajdah_number":null,"page_number":372,"juz_number":19,"words":[{"id":76351,"position":1,"audio_url":"wbw/026_120_001.mp3","verse_key":"26:120","verse_id":3052,"location":"26:120:1","text_uthmani":"ثُمَّ","qpc_uthmani_hafs":"ثُمَّ","char_type_name":"word","page_number":372,"line_number":6,"text":"ثُمَّ","translation":{"text":"Then","language_name":"english","language_id":38},"transliteration":{"text":"thumma","language_name":"english","language_id":38}},{"id":76352,"position":2,"audio_url":"wbw/026_120_002.mp3","verse_key":"26:120","verse_id":3052,"location":"26:120:2","text_uthmani":"أَغْرَقْنَا","qpc_uthmani_hafs":"أَغۡرَقۡنَا","char_type_name":"word","page_number":372,"line_number":6,"text":"أَغۡرَقۡنَا","translation":{"text":"We drowned","language_name":"english","language_id":38},"transliteration":{"text":"aghraqnā","language_name":"english","language_id":38}},{"id":76353,"position":3,"audio_url":"wbw/026_120_003.mp3","verse_key":"26:120","verse_id":3052,"location":"26:120:3","text_uthmani":"بَعْدُ","qpc_uthmani_hafs":"بَعۡدُ","char_type_name":"word","page_number":372,"line_number":6,"text":"بَعۡدُ","translation":{"text":"thereafter","language_name":"english","language_id":38},"transliteration":{"text":"baʿdu","language_name":"english","language_id":38}},{"id":76354,"position":4,"audio_url":"wbw/026_120_004.mp3","verse_key":"26:120","verse_id":3052,"location":"26:120:4","text_uthmani":"ٱلْبَاقِينَ","qpc_uthmani_hafs":"ٱلۡبَاقِينَ","char_type_name":"word","page_number":372,"line_number":6,"text":"ٱلۡبَاقِينَ","translation":{"text":"the remaining ones","language_name":"english","language_id":38},"transliteration":{"text":"l-bāqīna","language_name":"english","language_id":38}},{"id":76355,"position":5,"audio_url":null,"verse_key":"26:120","verse_id":3052,"location":"26:120:5","text_uthmani":"١٢٠","qpc_uthmani_hafs":"١٢٠","char_type_name":"end","page_number":372,"line_number":6,"text":"١٢٠","translation":{"text":"(120)","language_name":"english","language_id":38},"transliteration":{"text":null,"language_name":"english","language_id":38}}]}],"pagination":{"per_page":10,"current_page":12,"next_page":13,"total_pages":23,"total_records":227}}
