{"verses":[{"id":3053,"verse_number":121,"verse_key":"26:121","hizb_number":38,"rub_el_hizb_number":149,"ruku_number":321,"manzil_number":5,"sajdah_number":null,"page_number":372,"juz_number":19,"words":[{"id":76620,"position":1,"audio_url":"wbw/026_121_001.mp3","verse_key":"26:121","verse_id":3053,"location":"26:121:1","text_uthmani":"إِنَّ","qpc_uthmani_hafs":"إِنَّ","char_type_name":"word","page_number":372,"line_number":6,"text":"إِنَّ","translation":{"text":"Indeed","language_name":"english","language_id":38},"transliteration":{"text":"inna","language_name":"english","language_id":38}},{"id":76621,"position":2,"audio_url":"wbw/026_121_002.mp3","verse_key":"26:121","verse_id":3053,"location":"26:121:2","text_uthmani":"فِى","qpc_uthmani_hafs":"فِي","char_type_name":"word","page_number":372,"line_number":6,"text":"فِي","translation":{"text":"in","language_name":"english","language_id":38},"transliteration":{"text":"fī","language_name":"english","language_id":38}},{"id":76622,"position":3,"audio_url":"wbw/026_121_003.mp3","verse_key":"26:121","verse_id":3053,"location":"26:121:3","text_uthmani":"ذَٰلِكَ","qpc_uthmani_hafs":"ذَٰلِكَ","char_type_name":"word","page_number":372,"line_number":6,"text":"ذَٰلِكَ","translation":{"text":"that","language_name":"english","language_id":38},"transliteration":{"text":"dhālika","language_name":"english","language_id":38}},{"id":76623,"position":4,"audio_url":"wbw/026_121_004.mp3","verse_key":"26:121","verse_id":3053,"location":"26:121:4","text_uthmani":"لَـَٔايَةًۭ ۖ","qpc_uthmani_hafs":"لَأٓيَةٗۖ","char_type_name":"word","page_number":372,"line_number":6,"text":"لَأٓيَةٗۖ","translation":{"text":"surely, (is) a sign","language_name":"english","language_id":38},"transliteration":{"text":"laāyatan","language_name":"english","language_id":38}},{"id":76625,"position":5,"audio_url":"wbw/026_121_006.mp3","verse_key":"26:121","verse_id":3053,"location":"26:121:5","text_uthmani":"وَمَا","qpc_uthmani_hafs":"وَمَا","char_type_name":"word","page_number":372,"line_number":6,"text":"وَمَا","translation":{"text":"but not","language_name":"english","language_id":38},"transliteration":{"text":"wamā","language_name":"english","language_id":38}},{"id":76626,"position":6,"audio_url":"wbw/026_121_007.mp3","verse_key":"26:121","verse_id":3053,"location":"26:121:6","text_uthmani":"كَانَ","qpc_uthmani_hafs":"كَانَ","char_type_name":"word","page_number":372,"line_number":6,"text":"كَانَ","translation":{"text":"are","language_name":"english","language_id":38},"transliteration":{"text":"kāna","language_name":"english","language_id":38}},{"id":76627,"position":7,"audio_url":"wbw/026_121_008.mp3","verse_key":"26:121","verse_id":3053,"location":"26:121:7","text_uthmani":"أَكْثَرُهُم","qpc_uthmani_hafs":"أَكۡثَرُهُم","char_type_name":"word","page_number":372,"line_number":7,"text":"أَكۡثَرُهُم","translation":{"text":"most of them","language_name":"english","language_id":38},"transliteration":{"text":"aktharuhum","language_name":"english","language_id":38}},{"id":76628,"position":8,"audio_url":"wbw/026_121_009.mp3","verse_key":"26:121","verse_id":3053,"location":"26:121:8","text_uthmani":"مُّؤْمِنِينَ","qpc_uthmani_hafs":"مُّؤۡمِنِينَ","char_type_name":"word","page_number":372,"line_number":7,"text":"مُّؤۡمِنِينَ","translation":{"text":"believers","language_name":"english","language_id":38},"transliteration":{"text":"mu'minīna","language_name":"english","language_id":38}},{"id":76629,"position":9,"audio_url":null,"verse_key":"26:121","verse_id":3053,"location":"26:121:9","text_uthmani":"١٢١","qpc_uthmani_hafs":"١٢١","char_type_name":"end","page_number":372,"line_number":7,"text":"١٢١","translation":{"text":"(121)","language_name":"english","language_id":38},"transliteration":{"text":null,"language_name":"english","language_id":38}}]},{"id":3054,"verse_number":122,"verse_key":"26:122","hizb_number":38,"rub_el_hizb_number":149,"ruku_number":321,"manzil_number":5,"sajdah_number":null,"page_number":372,"juz_number":19,"words":[{"id":76649,"position":1,"audio_url":"wbw/026_122_001.mp3","verse_key":"26:122","verse_id":3054,"location":"26:122:1","text_uthmani":"وَإِنَّ","qpc_uthmani_hafs":"وَإِنَّ","char_type_name":"word","page_number":372,"line_number":7,"text":"وَإِنَّ","translation":{"text":"And indeed","language_name":"english","language_id":38},"transliteration":{"text":"wa-inna","language_name":"english","language_id":38}},{"id":76650,"position":2,"audio_url":"wbw/026_122_002.mp3","verse_key":"26:122","verse_id":3054,"location":"26:122:2","text_uthmani":"رَبَّكَ","qpc_uthmani_hafs":"رَبَّكَ","char_type_name":"word","page_number":372,"line_number":7,"text":"رَبَّكَ","translation":{"text":"your Lord","language_name":"english","language_id":38},"transliteration":{"text":"rabbaka","language_name":"english","language_id":38}},{"id":76651,"position":3,"audio_url":"wbw/026_122_003.mp3","verse_key":"26:122","verse_id":3054,"location":"26:122:3","text_uthmani":"لَهُوَ","qpc_uthmani_hafs":"لَهُوَ","char_type_name":"word","page_number":372,"line_number":7,"text":"لَهُوَ","translation":{"text":"surely, He","language_name":"english","language_id":38},"transliteration":{"text":"lahuwa","language_name":"english","language_id":38}},{"id":76652,"position":4,"audio_url":"wbw/026_122_004.mp3","verse_key":"26:122","verse_id":3054,"location":"26:122:4","text_uthmani":"ٱلْعَزِيزُ","qpc_uthmani_hafs":"ٱلۡعَزِيزُ","char_type_name":"word","page_number":372,"line_number":7,"text":"ٱلۡعَزِيزُ","translation":{"text":"(is) the All-Mighty","language_name":"english","language_id":38},"transliteration":{"text":"l-ʿazīzu","language_name":"english","language_id":38}},{"id":76653,"position":5,"audio_url":"wbw/026_122_005.mp3","verse_key":"26:122","verse_id":3054,"location":"26:122:5","text_uthmani":"ٱلرَّحِيمُ","qpc_uthmani_hafs":"ٱلرَّحِيمُ","char_type_name":"word","page_number":372,"line_number":7,"text":"ٱلرَّحِيمُ","translation":{"text":"the Most Merciful","language_name":"english","language_id":38},"transliteration":{"text":"l-raḥīmu","language_name":"english","language_id":38}},{"id":76654,"position":6,"audio_url":null,"verse_key":"26:122","verse_id":3054,"location":"26:122:6","text_uthmani":"١٢٢","qpc_uthmani_hafs":"١٢٢","char_type_name":"end","page_number":372,"line_number":7,"text":"١٢٢","translation":{"text":"(122)","language_name":"english","language_id":38},"transliteration":{"text":null,"language_name":"english","language_id":38}}]},{"id":3055,"verse_number":123,"verse_key":"26:123","hizb_number":38,"rub_el_hizb_number":149,"ruku_number":322,"manzil_number":5,"sajdah_number":null,"page_number":372,"juz_number":19,"words":[{"id":76880,"position":1,"audio_url":"wbw/026_123_001.mp3","verse_key":"26:123","verse_id":3055,"location":"26:123:1","text_uthmani":"كَذَّبَتْ","qpc_uthmani_hafs":"كَذَّبَتۡ","char_type_name":"word","page_number":372,"line_number":7,"text":"كَذَّبَتۡ","translation":{"text":"Denied","language_name":"english","language_id":38},"transliteration":{"text":"kadhabat","language_name":"english","language_id":38}},{"id":76881,"position":2,"audio_url":"wbw/026_123_002.mp3","verse_key":"26:123","verse_id":3055,"location":"26:123:2","text_uthmani":"عَادٌ","qpc_uthmani_hafs":"عَادٌ","char_type_name":"word","page_number":372,"line_number":8,"text":"عَادٌ","translation":{"text":"(the people) of Aad","language_name":"english","language_id":38},"transliteration":{"text":"ʿādun","language_name":"english","language_id":38}},{"id":76882,"position":3,"audio_url":"wbw/026_123_003.mp3","verse_key":"26:123","verse_id":3055,"location":"26:123:3","text_uthmani":"ٱلْمُرْسَلِينَ","qpc_uthmani_hafs":"ٱلۡمُرۡسَلِينَ","char_type_name":"word","page_number":372,"line_number":8,"text":"ٱلۡمُرۡسَلِينَ","translation":{"text":"the Messengers","language_name":"english","language_id":38},"transliteration":{"text":"l-mur'salīna","language_name":"english","language_id":38}},{"id":76883,"position":4,"audio_url":null,"verse_key":"26:123","verse_id":3055,"location":"26:123:4","text_uthmani":"١٢٣","qpc_uthmani_hafs":"١٢٣","char_type_name":"end","page_number":372,"line_number":8,"text":"١٢٣","translation":{"text":"(123)","language_name":"english","language_id":38},"transliteration":{"text":null,"language_name":"english","language_id":38}}]},{"id":3056,"verse_number":124,"verse_key":"26:124","hizb_number":38,"rub_el_hizb_number":149,"ruku_number":322,"manzil_number":5,"sajdah_number":null,"page_number":372,"juz_number":19,"words":[{"id":76976,"position":1,"audio_url":"wbw/026_124_001.mp3","verse_key":"26:124","verse_id":3056,"location":"26:124:1","text_uthmani":"إِذْ","qpc_uthmani_hafs":"إِذۡ","char_type_name":"word","page_number":372,"line_number":8,"text":"إِذۡ","translation":{"text":"When","language_name":"english","language_id":38},"transliteration":{"text":"idh","language_name":"english","language_id":38}},{"id":76977,"position":2,"audio_url":"wbw/026_124_002.mp3","verse_key":"26:124","verse_id":3056,"location":"26:124:2","text_uthmani":"قَالَ","qpc_uthmani_hafs":"قَالَ","char_type_name":"word","page_number":372,"line_number":8,"text":"قَالَ","translation":{"text":"said","language_name":"english","language_id":38},"transliteration":{"text":"qāla","language_name":"english","language_id":38}},{"id":76978,"position":3,"audio_url":"wbw/026_124_003.mp3","verse_key":"26:124","verse_id":3056,"location":"26:124:3","text_uthmani":"لَهُمْ","qpc_uthmani_hafs":"لَهُمۡ","char_type_name":"word","page_number":372,"line_number":8,"text":"لَهُمۡ","translation":{"text":"to them","language_name":"english","language_id":38},"transliteration":{"text":"lahum","language_name":"english","language_id":38}},{"id":76979,"position":4,"audio_url":"wbw/026_124_004.mp3","verse_key":"26:124","verse_id":3056,"location":"26:124:4","text_uthmani":"أَخُوهُمْ","qpc_uthmani_hafs":"أَخُوهُمۡ","char_type_name":"word","page_number":372,"line_number":8,"text":"أَخُوهُمۡ","translation":{"text":"their brother","language_name":"english","language_id":38},"transliteration":{"text":"akhūhum","language_name":"english","language_id":38}},{"id":76980,"position":5,"audio_url":"wbw/026_124_005.mp3","verse_key":"26:124","verse_id":3056,"location":"26:124:5","text_uthmani":"هُودٌ","qpc_uthmani_hafs":"هُودٌ","char_type_name":"word","page_number":372,"line_number":8,"text":"هُودٌ","translation":{"text":"Hud","language_name":"english","language_id":38},"transliteration":{"text":"hūdun","language_name":"english","language_id":38}},{"id":76981,"position":6,"audio_url":"wbw/026_124_006.mp3","verse_key":"26:124","verse_id":3056,"location":"26:124:6","text_uthmani":"أَلَا","qpc_uthmani_hafs":"أَلَا","char_type_name":"word","page_number":372,"line_number":8,"text":"أَلَا","translation":{"text":"Will not","language_name":"english","language_id":38},"transliteration":{"text":"alā","language_name":"english","language_id":38}},{"id":76982,"position":7,"audio_url":"wbw/026_124_007.mp3","verse_key":"26:124","verse_id":3056,"location":"26:124:7","text_uthmani":"تَتَّقُونَ","qpc_uthmani_hafs":"تَتَّقُونَ","char_type_name":"word","page_number":372,"line_number":8,"text":"تَتَّقُونَ","translation":{"text":"you fear (Allah)","language_name":"english","language_id":38},"transliteration":{"text":"tattaqūna","language_name":"english","language_id":38}},{"id":76983,"position":8,"audio_url":null,"verse_key":"26:124","verse_id":3056,"location":"26:124:8","text_uthmani":"١٢٤","qpc_uthmani_hafs":"١٢٤","char_type_name":"end","page_number":372,"line_number":8,"text":"١٢٤","translation":{"text":"(124)","language_name":"english","language_id":38},"transliteration":{"text":null,"language_name":"english","language_id":38}}]},{"id":3057,"verse_number":125,"verse_key":"26:125","hizb_number":38,"rub_el_hizb_number":149,"ruku_number":322,"manzil_number":5,"sajdah_number":null,"page_number":372,"juz_number":19,"words":[{"id":77196,"position":1,"audio_url":"wbw/026_125_001.mp3","verse_key":"26:125","verse_id":3057,"location":"26:125:1","text_uthmani":"إِنِّى","qpc_uthmani_hafs":"إِنِّي","char_type_name":"word","page_number":372,"line_number":8,"text":"إِنِّي","translation":{"text":"Indeed, I am","language_name":"english","language_id":38},"transliteration":{"text":"innī","language_name":"english","language_id":38}},{"id":77197,"position":2,"audio_url":"wbw/026_125_002.mp3","verse_key":"26:125","verse_id":3057,"location":"26:125:2","text_uthmani":"لَكُمْ","qpc_uthmani_hafs":"لَكُمۡ","char_type_name":"word","page_number":372,"line_number":8,"text":"لَكُمۡ","translation":{"text":"to you","language_name":"english","language_id":38},"transliteration":{"text":"lakum","language_name":"english","language_id":38}},{"id":77198,"position":3,"audio_url":"wbw/026_125_003.mp3","verse_key":"26:125","verse_id":3057,"location":"26:125:3","text_uthmani":"رَسُولٌ","qpc_uthmani_hafs":"رَسُولٌ","char_type_name":"word","page_number":372,"line_number":9,"text":"رَسُولٌ","translation":{"text":"a Messenger","language_name":"english","language_id":38},"transliteration":{"text":"rasūlun","language_name":"english","language_id":38}},{"id":77199,"position":4,"audio_url":"wbw/026_125_004.mp3","verse_key":"26:125","verse_id":3057,"location":"26:125:4","text_uthmani":"أَمِينٌۭ","qpc_uthmani_hafs":"أَمِينٞ","char_type_name":"word","page_number":372,"line_number":9,"text":"أَمِينٞ","translation":{"text":"trustworthy","language_name":"english","language_id":38},"transliteration":{"text":"amīnun","language_name":"english","language_id":38}},{"id":77200,"position":5,"audio_url":null,"verse_key":"26:125","verse_id":3057,"location":"26:125:5","text_uthmani":"١٢٥","qpc_uthmani_hafs":"١٢٥","char_type_name":"end","page_number":372,"line_number":9,"text":"١٢٥","translation":{"text":"(125)","language_name":"english","language_id":38},"transliteration":{"text":null,"language_name":"english","language_id":38}}]},{"id":3058,"verse_number":126,"verse_key":"26:126","hizb_number":38,"rub_el_hizb_number":149,"ruku_number":322,"manzil_number":5,"sajdah_number":null,"page_number":372,"juz_number":19,"words":[{"id":77291,"position":1,"audio_url":"wbw/026_126_001.mp3","verse_key":"26:126","verse_id":3058,"location":"26:126:1","text_uthmani":"فَٱتَّقُوا۟","qpc_uthmani_hafs":"فَٱتَّقُواْ","char_type_name":"word","page_number":372,"line_number":9,"text":"فَٱتَّقُواْ","translation":{"text":"So fear","language_name":"english","language_id":38},"transliteration":{"text":"fa-ittaqū","language_name":"english","language_id":38}},{"id":77292,"position":2,"audio_url":"wbw/026_126_002.mp3","verse_key":"26:126","verse_id":3058,"location":"26:126:2","text_uthmani":"ٱللَّهَ","qpc_uthmani_hafs":"ٱللَّهَ","char_type_name":"word","page_number":372,"line_number":9,"text":"ٱللَّهَ","translation":{"text":"Allah","language_name":"english","language_id":38},"transliteration":{"text":"l-laha","language_name":"english","language_id":38}},{"id":77293,"position":3,"audio_url":"wbw/026_126_003.mp3","verse_key":"26:126","verse_id":3058,"location":"26:126:3","text_uthmani":"وَأَطِيعُونِ","qpc_uthmani_hafs":"وَأَطِيعُونِ","char_type_name":"word","page_number":372,"line_number":9,"text":"وَأَطِيعُونِ","translation":{"text":"and obey me","language_name":"english","language_id":38},"transliteration":{"text":"wa-aṭīʿūni","language_name":"english","language_id":38}},{"id":77294,"position":4,"audio_url":null,"verse_key":"26:126","verse_id":3058,"location":"26:126:4","text_uthmani":"١٢٦","qpc_uthmani_hafs":"١٢٦","char_type_name":"end","page_number":372,"line_number":9,"text":"١٢٦","translation":{"text":"(126)","language_name":"english","language_id":38},"transliteration":{"text":null,"language_name":"english","language_id":38}}]},{"id":3059,"verse_number":127,"verse_key":"26:127","hizb_number":38,"rub_el_hizb_number":149,"ruku_number":322,"manzil_number":5,"sajdah_number":null,"page_number":372,"juz_number":19,"words":[{"id":77556,"position":1,"audio_url":"wbw/026_127_001.mp3","verse_key":"26:127","verse_id":3059,"location":"26:127:1","text_uthmani":"وَمَآ","qpc_uthmani_hafs":"وَمَآ","char_type_name":"word","page_number":372,"line_number":9,"text":"وَمَآ","translation":{"text":"And not","language_name":"english","language_id":38},"transliteration":{"text":"wamā","language_name":"english","language_id":38}},{"id":77557,"position":2,"audio_url":"wbw/026_127_002.mp3","verse_key":"26:127","verse_id":3059,"location":"26:127:2","text_uthmani":"أَسْـَٔلُكُمْ","qpc_uthmani_hafs":"أَسۡـَٔلُكُمۡ","char_type_name":"word","page_number":372,"line_number":9,"text":"أَسۡـَٔلُكُمۡ","translation":{"text":"I ask you","language_name":"english","language_id":38},"transliteration":{"text":"asalukum","language_name":"english","language_id":38}},{"id":77558,"position":3,"audio_url":"wbw/026_127_003.mp3","verse_key":"26:127","verse_id":3059,"location":"26:127:3","text_uthmani":"عَلَيْهِ","qpc_uthmani_hafs":"عَلَيۡهِ","char_type_name":"word","page_number":372,"line_number":9,"text":"عَلَيۡهِ","translation":{"text":"for it","language_name":"english","language_id":38},"transliteration":{"text":"ʿalayhi","language_name":"english","language_id":38}},{"id":77559,"position":4,"audio_url":"wbw/026_127_004.mp3","verse_key":"26:127","verse_id":3059,"location":"26:127:4","text_uthmani":"مِنْ","qpc_uthmani_hafs":"مِنۡ","char_type_name":"word","page_number":372,"line_number":10,"text":"مِنۡ","translation":{"text":"any","language_name":"english","language_id":38},"transliteration":{"text":"min","language_name":"english","language_id":38}},{"id":77560,"position":5,"audio_url":"wbw/026_127_005.mp3","verse_key":"26:127","verse_id":3059,"location":"26:127:5","text_uthmani":"أَجْرٍ ۖ","qpc_uthmani_hafs":"أَجۡرٍۖ","char_type_name":"word","page_number":372,"line_number":10,"text":"أَجۡرٍۖ","translation":{"text":"payment","language_name":"english","language_id":38},"transliteration":{"text":"ajrin","language_name":"english","language_id":38}},{"id":77562,"position":6,"audio_url":"wbw/026_127_007.mp3","verse_key":"26:127","verse_id":3059,"location":"26:127:6","text_uthmani":"إِنْ","qpc_uthmani_hafs":"إِنۡ","char_type_name":"word","page_number":372,"line_number":10,"text":"إِنۡ","translation":{"text":"Not","language_name":"english","language_id":38},"transliteration":{"text":"in","language_name":"english","language_id":38}},{"id":77563,"position":7,"audio_url":"wbw/026_127_008.mp3","verse_key":"26:127","verse_id":3059,"location":"26:127:7","text_uthmani":"أَجْرِىَ","qpc_uthmani_hafs":"أَجۡرِيَ","char_type_name":"word","page_number":372,"line_number":10,"text":"أَجۡرِيَ","translation":{"text":"(is) my payment","language_name":"english","language_id":38},"transliteration":{"text":"ajriya","language_name":"english","language_id":38}},{"id":77564,"position":8,"audio_url":"wbw/026_127_009.mp3","verse_key":"26:127","verse_id":3059,"location":"26:127:8","text_uthmani":"إِلَّا","qpc_uthmani_hafs":"إِلَّا","char_type_name":"word","page_number":372,"line_number":10,"text":"إِلَّا","translation":{"text":"except","language_name":"english","language_id":38},"transliteration":{"text":"illā","language_name":"english","language_id":38}},{"id":77565,"position":9,"audio_url":"wbw/026_127_010.mp3","verse_key":"26:127","verse_id":3059,"location":"26:127:9","text_uthmani":"عَلَىٰ","qpc_uthmani_hafs":"عَلَىٰ","char_type_name":"word","page_number":372,"line_number":10,"text":"عَلَىٰ","translation":{"text":"from","language_name":"english","language_id":38},"transliteration":{"text":"ʿalā","language_name":"english","language_id":38}},{"id":77566,"position":10,"audio_url":"wbw/026_127_011.mp3","verse_key":"26:127","verse_id":3059,"location":"26:127:10","text_uthmani":"رَبِّ","qpc_uthmani_hafs":"رَبِّ","char_type_name":"word","page_number":372,"line_number":10,"text":"رَبِّ","translation":{"text":"(the) Lord","language_name":"english","language_id":38},"transliteration":{"text":"rabbi","language_name":"english","language_id":38}},{"id":77567,"position":11,"audio_url":"wbw/026_127_012.mp3","verse_key":"26:127","verse_id":3059,"location":"26:127:11","text_uthmani":"ٱلْعَـٰلَمِينَ","qpc_uthmani_hafs":"ٱلۡعَٰلَمِينَ","char_type_name":"word","page_number":372,"line_number":10,"text":"ٱلۡعَٰلَمِينَ","translation":{"text":"(of) the worlds","language_name":"english","language_id":38},"transliteration":{"text":"l-ʿālamīna","language_name":"english","language_id":38}},{"id":77568,"position":12,"audio_url":null,"verse_key":"26:127","verse_id":3059,"location":"26:127:12","text_uthmani":"١٢٧","qpc_uthmani_hafs":"١٢٧","char_type_name":"end","page_number":372,"line_number":10,"text":"١٢٧","translation":{"text":"(127)","language_name":"english","language_id":38},"transliteration":{"text":null,"language_name":"english","language_id":38}}]},{"id":3060,"verse_number":128,"verse_key":"26:128","hizb_number":38,"rub_el_hizb_number":149,"ruku_number":322,"manzil_number":5,"sajdah_number":null,"page_number":372,"juz_number":19,"words":[{"id":77683,"position":1,"audio_url":"wbw/026_128_001.mp3","verse_key":"26:128","verse_id":3060,"location":"26:128:1","text_uthmani":"أَتَبْنُونَ","qpc_uthmani_hafs":"أَتَبۡنُونَ","char_type_name":"word","page_number":372,"line_number":10,"text":"أَتَبۡنُونَ","translation":{"text":"Do you construct","language_name":"english","language_id":38},"transliteration":{"text":"atabnūna","language_name":"english","language_id":38}},{"id":77684,"position":2,"audio_url":"wbw/026_128_002.mp3","verse_key":"26:128","verse_id":3060,"location":"26:128:2","text_uthmani":"بِكُلِّ","qpc_uthmani_hafs":"بِكُلِّ","char_type_name":"word","page_number":372,"line_number":10,"text":"بِكُلِّ","translation":{"text":"on every","language_name":"english","language_id":38},"transliteration":{"text":"bikulli","language_name":"english","language_id":38}},{"id":77685,"position":3,"audio_url":"wbw/026_128_003.mp3","verse_key":"26:128","verse_id":3060,"location":"26:128:3","text_uthmani":"رِيعٍ","qpc_uthmani_hafs":"رِيعٍ","char_type_name":"word","page_number":372,"line_number":10,"text":"رِيعٍ","translation":{"text":"elevation","language_name":"english","language_id":38},"transliteration":{"text":"rīʿin","language_name":"english","language_id":38}},{"id":77686,"position":4,"audio_url":"wbw/026_128_004.mp3","verse_key":"26:128","verse_id":3060,"location":"26:128:4","text_uthmani":"ءَايَةًۭ","qpc_uthmani_hafs":"ءَايَةٗ","char_type_name":"word","page_number":372,"line_number":11,"text":"ءَايَةٗ","translation":{"text":"a sign","language_name":"english","language_id":38},"transliteration":{"text":"āyatan","language_name":"english","language_id":38}},{"id":77687,"position":5,"audio_url":"wbw/026_128_005.mp3","verse_key":"26:128","verse_id":3060,"location":"26:128:5","text_uthmani":"تَعْبَثُونَ","qpc_uthmani_hafs":"تَعۡبَثُونَ","char_type_name":"word","page_number":372,"line_number":11,"text":"تَعۡبَثُونَ","translation":{"text":"amusing yourselves","language_name":"english","language_id":38},"transliteration":{"text":"taʿbathūna","language_name":"english","language_id":38}},{"id":77688,"position":6,"audio_url":null,"verse_key":"26:128","verse_id":3060,"location":"26:128:6","text_uthmani":"١٢٨","qpc_uthmani_hafs":"١٢٨","char_type_name":"end","page_number":372,"line_number":11,"text":"١٢٨","translation":{"text":"(128)","language_name":"english","language_id":38},"transliteration":{"text":null,"language_name":"english","language_id":38}}]},{"id":3061,"verse_number":129,"verse_key":"26:129","hizb_number":38,"rub_el_hizb_number":149,"ruku_number":322,"manzil_number":5,"sajdah_number":null,"page_number":372,"juz_number":19,"words":[{"id":77828,"position":1,"audio_url":"wbw/026_129_001.mp3","verse_key":"26:129","verse_id":3061,"location":"26:129:1","text_uthmani":"وَتَتَّخِذُونَ","qpc_uthmani_hafs":"وَتَتَّخِذُونَ","char_type_name":"word","page_number":372,"line_number":11,"text":"وَتَتَّخِذُونَ","translation":{"text":"And take for yourselves","language_name":"english","language_id":38},"transliteration":{"text":"watattakhidhūna","language_name":"english","language_id":38}},{"id":77829,"position":2,"audio_url":"wbw/026_129_002.mp3","verse_key":"26:129","verse_id":3061,"location":"26:129:2","text_uthmani":"مَصَانِعَ","qpc_uthmani_hafs":"مَصَانِعَ","char_type_name":"word","page_number":372,"line_number":11,"text":"مَصَانِعَ","translation":{"text":"strongholds","language_name":"english","language_id":38},"transliteration":{"text":"maṣāniʿa","language_name":"english","language_id":38}},{"id":77830,"position":3,"audio_url":"wbw/026_129_003.mp3","verse_key":"26:129","verse_id":3061,"location":"26:129:3","text_uthmani":"لَعَلَّكُمْ","qpc_uthmani_hafs":"لَعَلَّكُمۡ","char_type_name":"word","page_number":372,"line_number":11,"text":"لَعَلَّكُمۡ","translation":{"text":"that you may","language_name":"english","language_id":38},"transliteration":{"text":"laʿallakum","language_name":"english","language_id":38}},{"id":77831,"position":4,"audio_url":"wbw/026_129_004.mp3","verse_key":"26:129","verse_id":3061,"location":"26:129:4","text_uthmani":"تَخْلُدُونَ","qpc_uthmani_hafs":"تَخۡلُدُونَ","char_type_name":"word","page_number":372,"line_number":11,"text":"تَخۡلُدُونَ","translation":{"text":"live forever","language_name":"english","language_id":38},"transliteration":{"text":"takhludūna","language_name":"english","language_id":38}},{"id":77832,"position":5,"audio_url":null,"verse_key":"26:129","verse_id":3061,"location":"26:129:5","text_uthmani":"١٢٩","qpc_uthmani_hafs":"١٢٩","char_type_name":"end","page_number":372,"line_number":11,"text":"١٢٩","translation":{"text":"(129)","language_name":"english","language_id":38},"transliteration":{"text":null,"language_name":"english","language_id":38}}]},{"id":3062,"verse_number":130,"verse_key":"26:130","hizb_number":38,"rub_el_hizb_number":149,"ruku_number":322,"manzil_number":5,"sajdah_number":null,"page_number":372,"juz_number":19,"words":[{"id":78024,"position":1,"audio_url":"wbw/026_130_001.mp3","verse_key":"26:130","verse_id":3062,"location":"26:130:1","text_uthmani":"وَإِذَا","qpc_uthmani_hafs":"وَإِذَا","char_type_name":"word","page_number":372,"line_number":12,"text":"وَإِذَا","translation":{"text":"And when","language_name":"english","language_id":38},"transliteration":{"text":"wa-idhā","language_name":"english","language_id":38}},{"id":78025,"position":2,"audio_url":"wbw/026_130_002.mp3","verse_key":"26:130","verse_id":3062,"location":"26:130:2","text_uthmani":"بَطَشْتُم","qpc_uthmani_hafs":"بَطَشۡتُم","char_type_name":"word","page_number":372,"line_number":12,"text":"بَطَشۡتُم","translation":{"text":"you seize","language_name":"english","language_id":38},"transliteration":{"text":"baṭashtum","language_name":"english","language_id":38}},{"id":78026,"position":3,"audio_url":"wbw/026_130_003.mp3","verse_key":"26:130","verse_id":3062,"location":"26:130:3","text_uthmani":"بَطَشْتُمْ","qpc_uthmani_hafs":"بَطَشۡتُمۡ","char_type_name":"word","page_number":372,"line_number":12,"text":"بَطَشۡتُمۡ","translation":{"text":"you seize","language_name":"english","language_id":38},"transliteration":{"text":"baṭashtum","language_name":"english","language_id":38}},{"id":78027,"position":4,"audio_url":"wbw/026_130_004.mp3","verse_key":"26:130","verse_id":3062,"location":"26:130:4","text_uthmani":"جَبَّارِينَ","qpc_uthmani_hafs":"جَبَّارِينَ","char_type_name":"word","page_number":372,"line_number":12,"text":"جَبَّارِينَ","translation":{"text":"(as) tyrants","language_name":"english","language_id":38},"transliteration":{"text":"jabbārīna","language_name":"english","language_id":38}},{"id":78028,"position":5,"audio_url":null,"verse_key":"26:130","verse_id":3062,"location":"26:130:5","text_uthmani":"١٣٠","qpc_uthmani_hafs":"١٣٠","char_type_name":"end","page_number":372,"line_number":12,"text":"١٣٠","translation":{"text":"(130)","language_name":"english","language_id":38},"transliteration":{"text":null,"language_name":"english","language_id":38}}]}],"pagination":{"per_page":10,"current_page":13,"next_page":14,"total_pages":23,"total_records":227}}
