{"verses":[{"id":3063,"verse_number":131,"verse_key":"26:131","hizb_number":38,"rub_el_hizb_number":149,"ruku_number":322,"manzil_number":5,"sajdah_number":null,"page_number":372,"juz_number":19,"words":[{"id":78065,"position":1,"audio_url":"wbw/026_131_001.mp3","verse_key":"26:131","verse_id":3063,"location":"26:131:1","text_uthmani":"فَٱتَّقُوا۟","qpc_uthmani_hafs":"فَٱتَّقُواْ","char_type_name":"word","page_number":372,"line_number":12,"text":"فَٱتَّقُواْ","translation":{"text":"So fear","language_name":"english","language_id":38},"transliteration":{"text":"fa-ittaqū","language_name":"english","language_id":38}},{"id":78066,"position":2,"audio_url":"wbw/026_131_002.mp3","verse_key":"26:131","verse_id":3063,"location":"26:131:2","text_uthmani":"ٱللَّهَ","qpc_uthmani_hafs":"ٱللَّهَ","char_type_name":"word","page_number":372,"line_number":12,"text":"ٱللَّهَ","translation":{"text":"Allah","language_name":"english","language_id":38},"transliteration":{"text":"l-laha","language_name":"english","language_id":38}},{"id":78067,"position":3,"audio_url":"wbw/026_131_003.mp3","verse_key":"26:131","verse_id":3063,"location":"26:131:3","text_uthmani":"وَأَطِيعُونِ","qpc_uthmani_hafs":"وَأَطِيعُونِ","char_type_name":"word","page_number":372,"line_number":12,"text":"وَأَطِيعُونِ","translation":{"text":"and obey me","language_name":"english","language_id":38},"transliteration":{"text":"wa-aṭīʿūni","language_name":"english","language_id":38}},{"id":78068,"position":4,"audio_url":null,"verse_key":"26:131","verse_id":3063,"location":"26:131:4","text_uthmani":"١٣١","qpc_uthmani_hafs":"١٣١","char_type_name":"end","page_number":372,"line_number":12,"text":"١٣١","translation":{"text":"(131)","language_name":"english","language_id":38},"transliteration":{"text":null,"language_name":"english","language_id":38}}]},{"id":3064,"verse_number":132,"verse_key":"26:132","hizb_number":38,"rub_el_hizb_number":149,"ruku_number":322,"manzil_number":5,"sajdah_number":null,"page_number":372,"juz_number":19,"words":[{"id":78214,"position":1,"audio_url":"wbw/026_132_001.mp3","verse_key":"26:132","verse_id":3064,"location":"26:132:1","text_uthmani":"وَٱتَّقُوا۟","qpc_uthmani_hafs":"وَٱتَّقُواْ","char_type_name":"word","page_number":372,"line_number":13,"text":"وَٱتَّقُواْ","translation":{"text":"And fear","language_name":"english","language_id":38},"transliteration":{"text":"wa-ittaqū","language_name":"english","language_id":38}},{"id":78215,"position":2,"audio_url":"wbw/026_132_002.mp3","verse_key":"26:132","verse_id":3064,"location":"26:132:2","text_uthmani":"ٱلَّذِىٓ","qpc_uthmani_hafs":"ٱلَّذِيٓ","char_type_name":"word","page_number":372,"line_number":13,"text":"ٱلَّذِيٓ","translation":{"text":"the One Who","language_name":"english","language_id":38},"transliteration":{"text":"alladhī","language_name":"english","language_id":38}},{"id":78216,"position":3,"audio_url":"wbw/026_132_003.mp3","verse_key":"26:132","verse_id":3064,"location":"26:132:3","text_uthmani":"أَمَدَّكُم","qpc_uthmani_hafs":"أَمَدَّكُم","char_type_name":"word","page_number":372,"line_number":13,"text":"أَمَدَّكُم","translation":{"text":"has aided you","language_name":"english","language_id":38},"transliteration":{"text":"amaddakum","language_name":"english","language_id":38}},{"id":78217,"position":4,"audio_url":"wbw/026_132_004.mp3","verse_key":"26:132","verse_id":3064,"location":"26:132:4","text_uthmani":"بِمَا","qpc_uthmani_hafs":"بِمَا","char_type_name":"word","page_number":372,"line_number":13,"text":"بِمَا","translation":{"text":"with what","language_name":"english","language_id":38},"transliteration":{"text":"bimā","language_name":"english","language_id":38}},{"id":78218,"position":5,"audio_url":"wbw/026_132_005.mp3","verse_key":"26:132","verse_id":3064,"location":"26:132:5","text_uthmani":"تَعْلَمُونَ","qpc_uthmani_hafs":"تَعۡلَمُونَ","char_type_name":"word","page_number":372,"line_number":13,"text":"تَعۡلَمُونَ","translation":{"text":"you know","language_name":"english","language_id":38},"transliteration":{"text":"taʿlamūna","language_name":"english","language_id":38}},{"id":78219,"position":6,"audio_url":null,"verse_key":"26:132","verse_id":3064,"location":"26:132:6","text_uthmani":"١٣٢","qpc_uthmani_hafs":"١٣٢","char_type_name":"end","page_number":372,"line_number":13,"text":"١٣٢","translation":{"text":"(132)","language_name":"english","language_id":38},"transliteration":{"text":null,"language_name":"english","language_id":38}}]},{"id":3065,"verse_number":133,"verse_key":"26:133","hizb_number":38,"rub_el_hizb_number":149,"ruku_number":322,"manzil_number":5,"sajdah_number":null,"page_number":372,"juz_number":19,"words":[{"id":78280,"position":1,"audio_url":"wbw/026_133_001.mp3","verse_key":"26:133","verse_id":3065,"location":"26:133:1","text_uthmani":"أَمَدَّكُم","qpc_uthmani_hafs":"أَمَدَّكُم","char_type_name":"word","page_number":372,"line_number":13,"text":"أَمَدَّكُم","translation":{"text":"He has aided you","language_name":"english","language_id":38},"transliteration":{"text":"amaddakum","language_name":"english","language_id":38}},{"id":78281,"position":2,"audio_url":"wbw/026_133_002.mp3","verse_key":"26:133","verse_id":3065,"location":"26:133:2","text_uthmani":"بِأَنْعَـٰمٍۢ","qpc_uthmani_hafs":"بِأَنۡعَٰمٖ","char_type_name":"word","page_number":372,"line_number":13,"text":"بِأَنۡعَٰمٖ","translation":{"text":"with cattle","language_name":"english","language_id":38},"transliteration":{"text":"bi-anʿāmin","language_name":"english","language_id":38}},{"id":78282,"position":3,"audio_url":"wbw/026_133_003.mp3","verse_key":"26:133","verse_id":3065,"location":"26:133:3","text_uthmani":"وَبَنِينَ","qpc_uthmani_hafs":"وَبَنِينَ","char_type_name":"word","page_number":372,"line_number":13,"text":"وَبَنِينَ","translation":{"text":"and children","language_name":"english","language_id":38},"transliteration":{"text":"wabanīna","language_name":"english","language_id":38}},{"id":78283,"position":4,"audio_url":null,"verse_key":"26:133","verse_id":3065,"location":"26:133:4","text_uthmani":"١٣٣","qpc_uthmani_hafs":"١٣٣","char_type_name":"end","page_number":372,"line_number":14,"text":"١٣٣","translation":{"text":"(133)","language_name":"english","language_id":38},"transliteration":{"text":null,"language_name":"english","language_id":38}}]},{"id":3066,"verse_number":134,"verse_key":"26:134","hizb_number":38,"rub_el_hizb_number":149,"ruku_number":322,"manzil_number":5,"sajdah_number":null,"page_number":372,"juz_number":19,"words":[{"id":78391,"position":1,"audio_url":"wbw/026_134_001.mp3","verse_key":"26:134","verse_id":3066,"location":"26:134:1","text_uthmani":"وَجَنَّـٰتٍۢ","qpc_uthmani_hafs":"وَجَنَّٰتٖ","char_type_name":"word","page_number":372,"line_number":14,"text":"وَجَنَّٰتٖ","translation":{"text":"And gardens","language_name":"english","language_id":38},"transliteration":{"text":"wajannātin","language_name":"english","language_id":38}},{"id":78392,"position":2,"audio_url":"wbw/026_134_002.mp3","verse_key":"26:134","verse_id":3066,"location":"26:134:2","text_uthmani":"وَعُيُونٍ","qpc_uthmani_hafs":"وَعُيُونٍ","char_type_name":"word","page_number":372,"line_number":14,"text":"وَعُيُونٍ","translation":{"text":"and springs","language_name":"english","language_id":38},"transliteration":{"text":"waʿuyūnin","language_name":"english","language_id":38}},{"id":78393,"position":3,"audio_url":null,"verse_key":"26:134","verse_id":3066,"location":"26:134:3","text_uthmani":"١٣٤","qpc_uthmani_hafs":"١٣٤","char_type_name":"end","page_number":372,"line_number":14,"text":"١٣٤","translation":{"text":"(134)","language_name":"english","language_id":38},"transliteration":{"text":null,"language_name":"english","language_id":38}}]},{"id":3067,"verse_number":135,"verse_key":"26:135","hizb_number":38,"rub_el_hizb_number":149,"ruku_number":322,"manzil_number":5,"sajdah_number":null,"page_number":372,"juz_number":19,"words":[{"id":78591,"position":1,"audio_url":"wbw/026_135_001.mp3","verse_key":"26:135","verse_id":3067,"location":"26:135:1","text_uthmani":"إِنِّىٓ","qpc_uthmani_hafs":"إِنِّيٓ","char_type_name":"word","page_number":372,"line_number":14,"text":"إِنِّيٓ","translation":{"text":"Indeed, I","language_name":"english","language_id":38},"transliteration":{"text":"innī","language_name":"english","language_id":38}},{"id":78592,"position":2,"audio_url":"wbw/026_135_002.mp3","verse_key":"26:135","verse_id":3067,"location":"26:135:2","text_uthmani":"أَخَافُ","qpc_uthmani_hafs":"أَخَافُ","char_type_name":"word","page_number":372,"line_number":14,"text":"أَخَافُ","translation":{"text":"[I] fear","language_name":"english","language_id":38},"transliteration":{"text":"akhāfu","language_name":"english","language_id":38}},{"id":78593,"position":3,"audio_url":"wbw/026_135_003.mp3","verse_key":"26:135","verse_id":3067,"location":"26:135:3","text_uthmani":"عَلَيْكُمْ","qpc_uthmani_hafs":"عَلَيۡكُمۡ","char_type_name":"word","page_number":372,"line_number":14,"text":"عَلَيۡكُمۡ","translation":{"text":"for you","language_name":"english","language_id":38},"transliteration":{"text":"ʿalaykum","language_name":"english","language_id":38}},{"id":78594,"position":4,"audio_url":"wbw/026_135_004.mp3","verse_key":"26:135","verse_id":3067,"location":"26:135:4","text_uthmani":"عَذَابَ","qpc_uthmani_hafs":"عَذَابَ","char_type_name":"word","page_number":372,"line_number":14,"text":"عَذَابَ","translation":{"text":"(the) punishment","language_name":"english","language_id":38},"transliteration":{"text":"ʿadhāba","language_name":"english","language_id":38}},{"id":78595,"position":5,"audio_url":"wbw/026_135_005.mp3","verse_key":"26:135","verse_id":3067,"location":"26:135:5","text_uthmani":"يَوْمٍ","qpc_uthmani_hafs":"يَوۡمٍ","char_type_name":"word","page_number":372,"line_number":14,"text":"يَوۡمٍ","translation":{"text":"(of) a Day","language_name":"english","language_id":38},"transliteration":{"text":"yawmin","language_name":"english","language_id":38}},{"id":78596,"position":6,"audio_url":"wbw/026_135_006.mp3","verse_key":"26:135","verse_id":3067,"location":"26:135:6","text_uthmani":"عَظِيمٍۢ","qpc_uthmani_hafs":"عَظِيمٖ","char_type_name":"word","page_number":372,"line_number":14,"text":"عَظِيمٖ","translation":{"text":"Great","language_name":"english","language_id":38},"transliteration":{"text":"ʿaẓīmin","language_name":"english","language_id":38}},{"id":78597,"position":7,"audio_url":null,"verse_key":"26:135","verse_id":3067,"location":"26:135:7","text_uthmani":"١٣٥","qpc_uthmani_hafs":"١٣٥","char_type_name":"end","page_number":372,"line_number":15,"text":"١٣٥","translation":{"text":"(135)","language_name":"english","language_id":38},"transliteration":{"text":null,"language_name":"english","language_id":38}}]},{"id":3068,"verse_number":136,"verse_key":"26:136","hizb_number":38,"rub_el_hizb_number":149,"ruku_number":322,"manzil_number":5,"sajdah_number":null,"page_number":372,"juz_number":19,"words":[{"id":78693,"position":1,"audio_url":"wbw/026_136_001.mp3","verse_key":"26:136","verse_id":3068,"location":"26:136:1","text_uthmani":"قَالُوا۟","qpc_uthmani_hafs":"قَالُواْ","char_type_name":"word","page_number":372,"line_number":15,"text":"قَالُواْ","translation":{"text":"They said","language_name":"english","language_id":38},"transliteration":{"text":"qālū","language_name":"english","language_id":38}},{"id":78694,"position":2,"audio_url":"wbw/026_136_002.mp3","verse_key":"26:136","verse_id":3068,"location":"26:136:2","text_uthmani":"سَوَآءٌ","qpc_uthmani_hafs":"سَوَآءٌ","char_type_name":"word","page_number":372,"line_number":15,"text":"سَوَآءٌ","translation":{"text":"(It is) same","language_name":"english","language_id":38},"transliteration":{"text":"sawāon","language_name":"english","language_id":38}},{"id":78695,"position":3,"audio_url":"wbw/026_136_003.mp3","verse_key":"26:136","verse_id":3068,"location":"26:136:3","text_uthmani":"عَلَيْنَآ","qpc_uthmani_hafs":"عَلَيۡنَآ","char_type_name":"word","page_number":372,"line_number":15,"text":"عَلَيۡنَآ","translation":{"text":"to us","language_name":"english","language_id":38},"transliteration":{"text":"ʿalaynā","language_name":"english","language_id":38}},{"id":78696,"position":4,"audio_url":"wbw/026_136_004.mp3","verse_key":"26:136","verse_id":3068,"location":"26:136:4","text_uthmani":"أَوَعَظْتَ","qpc_uthmani_hafs":"أَوَعَظۡتَ","char_type_name":"word","page_number":372,"line_number":15,"text":"أَوَعَظۡتَ","translation":{"text":"whether you advise","language_name":"english","language_id":38},"transliteration":{"text":"awaʿaẓta","language_name":"english","language_id":38}},{"id":78697,"position":5,"audio_url":"wbw/026_136_005.mp3","verse_key":"26:136","verse_id":3068,"location":"26:136:5","text_uthmani":"أَمْ","qpc_uthmani_hafs":"أَمۡ","char_type_name":"word","page_number":372,"line_number":15,"text":"أَمۡ","translation":{"text":"or","language_name":"english","language_id":38},"transliteration":{"text":"am","language_name":"english","language_id":38}},{"id":78698,"position":6,"audio_url":"wbw/026_136_006.mp3","verse_key":"26:136","verse_id":3068,"location":"26:136:6","text_uthmani":"لَمْ","qpc_uthmani_hafs":"لَمۡ","char_type_name":"word","page_number":372,"line_number":15,"text":"لَمۡ","translation":{"text":"not","language_name":"english","language_id":38},"transliteration":{"text":"lam","language_name":"english","language_id":38}},{"id":78699,"position":7,"audio_url":"wbw/026_136_007.mp3","verse_key":"26:136","verse_id":3068,"location":"26:136:7","text_uthmani":"تَكُن","qpc_uthmani_hafs":"تَكُن","char_type_name":"word","page_number":372,"line_number":15,"text":"تَكُن","translation":{"text":"you are","language_name":"english","language_id":38},"transliteration":{"text":"takun","language_name":"english","language_id":38}},{"id":78700,"position":8,"audio_url":"wbw/026_136_008.mp3","verse_key":"26:136","verse_id":3068,"location":"26:136:8","text_uthmani":"مِّنَ","qpc_uthmani_hafs":"مِّنَ","char_type_name":"word","page_number":372,"line_number":15,"text":"مِّنَ","translation":{"text":"of","language_name":"english","language_id":38},"transliteration":{"text":"mina","language_name":"english","language_id":38}},{"id":78701,"position":9,"audio_url":"wbw/026_136_009.mp3","verse_key":"26:136","verse_id":3068,"location":"26:136:9","text_uthmani":"ٱلْوَٰعِظِينَ","qpc_uthmani_hafs":"ٱلۡوَٰعِظِينَ","char_type_name":"word","page_number":372,"line_number":15,"text":"ٱلۡوَٰعِظِينَ","translation":{"text":"the advisors","language_name":"english","language_id":38},"transliteration":{"text":"l-wāʿiẓīna","language_name":"english","language_id":38}},{"id":78702,"position":10,"audio_url":null,"verse_key":"26:136","verse_id":3068,"location":"26:136:10","text_uthmani":"١٣٦","qpc_uthmani_hafs":"١٣٦","char_type_name":"end","page_number":372,"line_number":15,"text":"١٣٦","translation":{"text":"(136)","language_name":"english","language_id":38},"transliteration":{"text":null,"language_name":"english","language_id":38}}]},{"id":3069,"verse_number":137,"verse_key":"26:137","hizb_number":38,"rub_el_hizb_number":149,"ruku_number":322,"manzil_number":5,"sajdah_number":null,"page_number":373,"juz_number":19,"words":[{"id":78793,"position":1,"audio_url":"wbw/026_137_001.mp3","verse_key":"26:137","verse_id":3069,"location":"26:137:1","text_uthmani":"إِنْ","qpc_uthmani_hafs":"إِنۡ","char_type_name":"word","page_number":373,"line_number":1,"text":"إِنۡ","translation":{"text":"Not","language_name":"english","language_id":38},"transliteration":{"text":"in","language_name":"english","language_id":38}},{"id":78794,"position":2,"audio_url":"wbw/026_137_002.mp3","verse_key":"26:137","verse_id":3069,"location":"26:137:2","text_uthmani":"هَـٰذَآ","qpc_uthmani_hafs":"هَٰذَآ","char_type_name":"word","page_number":373,"line_number":1,"text":"هَٰذَآ","translation":{"text":"(is) this","language_name":"english","language_id":38},"transliteration":{"text":"hādhā","language_name":"english","language_id":38}},{"id":78795,"position":3,"audio_url":"wbw/026_137_003.mp3","verse_key":"26:137","verse_id":3069,"location":"26:137:3","text_uthmani":"إِلَّا","qpc_uthmani_hafs":"إِلَّا","char_type_name":"word","page_number":373,"line_number":1,"text":"إِلَّا","translation":{"text":"but","language_name":"english","language_id":38},"transliteration":{"text":"illā","language_name":"english","language_id":38}},{"id":78796,"position":4,"audio_url":"wbw/026_137_004.mp3","verse_key":"26:137","verse_id":3069,"location":"26:137:4","text_uthmani":"خُلُقُ","qpc_uthmani_hafs":"خُلُقُ","char_type_name":"word","page_number":373,"line_number":1,"text":"خُلُقُ","translation":{"text":"(the) custom","language_name":"english","language_id":38},"transliteration":{"text":"khuluqu","language_name":"english","language_id":38}},{"id":78797,"position":5,"audio_url":"wbw/026_137_005.mp3","verse_key":"26:137","verse_id":3069,"location":"26:137:5","text_uthmani":"ٱلْأَوَّلِينَ","qpc_uthmani_hafs":"ٱلۡأَوَّلِينَ","char_type_name":"word","page_number":373,"line_number":1,"text":"ٱلۡأَوَّلِينَ","translation":{"text":"(of) the former (people)","language_name":"english","language_id":38},"transliteration":{"text":"l-awalīna","language_name":"english","language_id":38}},{"id":78798,"position":6,"audio_url":null,"verse_key":"26:137","verse_id":3069,"location":"26:137:6","text_uthmani":"١٣٧","qpc_uthmani_hafs":"١٣٧","char_type_name":"end","page_number":373,"line_number":1,"text":"١٣٧","translation":{"text":"(137)","language_name":"english","language_id":38},"transliteration":{"text":null,"language_name":"english","language_id":38}}]},{"id":3070,"verse_number":138,"verse_key":"26:138","hizb_number":38,"rub_el_hizb_number":149,"ruku_number":322,"manzil_number":5,"sajdah_number":null,"page_number":373,"juz_number":19,"words":[{"id":78888,"position":1,"audio_url":"wbw/026_138_001.mp3","verse_key":"26:138","verse_id":3070,"location":"26:138:1","text_uthmani":"وَمَا","qpc_uthmani_hafs":"وَمَا","char_type_name":"word","page_number":373,"line_number":1,"text":"وَمَا","translation":{"text":"And not","language_name":"english","language_id":38},"transliteration":{"text":"wamā","language_name":"english","language_id":38}},{"id":78889,"position":2,"audio_url":"wbw/026_138_002.mp3","verse_key":"26:138","verse_id":3070,"location":"26:138:2","text_uthmani":"نَحْنُ","qpc_uthmani_hafs":"نَحۡنُ","char_type_name":"word","page_number":373,"line_number":1,"text":"نَحۡنُ","translation":{"text":"we","language_name":"english","language_id":38},"transliteration":{"text":"naḥnu","language_name":"english","language_id":38}},{"id":78890,"position":3,"audio_url":"wbw/026_138_003.mp3","verse_key":"26:138","verse_id":3070,"location":"26:138:3","text_uthmani":"بِمُعَذَّبِينَ","qpc_uthmani_hafs":"بِمُعَذَّبِينَ","char_type_name":"word","page_number":373,"line_number":1,"text":"بِمُعَذَّبِينَ","translation":{"text":"(are) the ones to be punished","language_name":"english","language_id":38},"transliteration":{"text":"bimuʿadhabīna","language_name":"english","language_id":38}},{"id":78891,"position":4,"audio_url":null,"verse_key":"26:138","verse_id":3070,"location":"26:138:4","text_uthmani":"١٣٨","qpc_uthmani_hafs":"١٣٨","char_type_name":"end","page_number":373,"line_number":1,"text":"١٣٨","translation":{"text":"(138)","language_name":"english","language_id":38},"transliteration":{"text":null,"language_name":"english","language_id":38}}]},{"id":3071,"verse_number":139,"verse_key":"26:139","hizb_number":38,"rub_el_hizb_number":149,"ruku_number":322,"manzil_number":5,"sajdah_number":null,"page_number":373,"juz_number":19,"words":[{"id":78994,"position":1,"audio_url":"wbw/026_139_001.mp3","verse_key":"26:139","verse_id":3071,"location":"26:139:1","text_uthmani":"فَكَذَّبُوهُ","qpc_uthmani_hafs":"فَكَذَّبُوهُ","char_type_name":"word","page_number":373,"line_number":1,"text":"فَكَذَّبُوهُ","translation":{"text":"So they denied him","language_name":"english","language_id":38},"transliteration":{"text":"fakadhabūhu","language_name":"english","language_id":38}},{"id":78995,"position":2,"audio_url":"wbw/026_139_002.mp3","verse_key":"26:139","verse_id":3071,"location":"26:139:2","text_uthmani":"فَأَهْلَكْنَـٰهُمْ ۗ","qpc_uthmani_hafs":"فَأَهۡلَكۡنَٰهُمۡۚ","char_type_name":"word","page_number":373,"line_number":2,"text":"فَأَهۡلَكۡنَٰهُمۡۚ","translation":{"text":"then We destroyed them","language_name":"english","language_id":38},"transliteration":{"text":"fa-ahlaknāhum","language_name":"english","language_id":38}},{"id":78997,"position":3,"audio_url":"wbw/026_139_004.mp3","verse_key":"26:139","verse_id":3071,"location":"26:139:3","text_uthmani":"إِنَّ","qpc_uthmani_hafs":"إِنَّ","char_type_name":"word","page_number":373,"line_number":2,"text":"إِنَّ","translation":{"text":"Indeed","language_name":"english","language_id":38},"transliteration":{"text":"inna","language_name":"english","language_id":38}},{"id":78998,"position":4,"audio_url":"wbw/026_139_005.mp3","verse_key":"26:139","verse_id":3071,"location":"26:139:4","text_uthmani":"فِى","qpc_uthmani_hafs":"فِي","char_type_name":"word","page_number":373,"line_number":2,"text":"فِي","translation":{"text":"in","language_name":"english","language_id":38},"transliteration":{"text":"fī","language_name":"english","language_id":38}},{"id":78999,"position":5,"audio_url":"wbw/026_139_006.mp3","verse_key":"26:139","verse_id":3071,"location":"26:139:5","text_uthmani":"ذَٰلِكَ","qpc_uthmani_hafs":"ذَٰلِكَ","char_type_name":"word","page_number":373,"line_number":2,"text":"ذَٰلِكَ","translation":{"text":"that","language_name":"english","language_id":38},"transliteration":{"text":"dhālika","language_name":"english","language_id":38}},{"id":79000,"position":6,"audio_url":"wbw/026_139_007.mp3","verse_key":"26:139","verse_id":3071,"location":"26:139:6","text_uthmani":"لَـَٔايَةًۭ ۖ","qpc_uthmani_hafs":"لَأٓيَةٗۖ","char_type_name":"word","page_number":373,"line_number":2,"text":"لَأٓيَةٗۖ","translation":{"text":"surely, is a sign","language_name":"english","language_id":38},"transliteration":{"text":"laāyatan","language_name":"english","language_id":38}},{"id":79002,"position":7,"audio_url":"wbw/026_139_009.mp3","verse_key":"26:139","verse_id":3071,"location":"26:139:7","text_uthmani":"وَمَا","qpc_uthmani_hafs":"وَمَا","char_type_name":"word","page_number":373,"line_number":2,"text":"وَمَا","translation":{"text":"but not","language_name":"english","language_id":38},"transliteration":{"text":"wamā","language_name":"english","language_id":38}},{"id":79003,"position":8,"audio_url":"wbw/026_139_010.mp3","verse_key":"26:139","verse_id":3071,"location":"26:139:8","text_uthmani":"كَانَ","qpc_uthmani_hafs":"كَانَ","char_type_name":"word","page_number":373,"line_number":2,"text":"كَانَ","translation":{"text":"are","language_name":"english","language_id":38},"transliteration":{"text":"kāna","language_name":"english","language_id":38}},{"id":79004,"position":9,"audio_url":"wbw/026_139_011.mp3","verse_key":"26:139","verse_id":3071,"location":"26:139:9","text_uthmani":"أَكْثَرُهُم","qpc_uthmani_hafs":"أَكۡثَرُهُم","char_type_name":"word","page_number":373,"line_number":2,"text":"أَكۡثَرُهُم","translation":{"text":"most of them","language_name":"english","language_id":38},"transliteration":{"text":"aktharuhum","language_name":"english","language_id":38}},{"id":79005,"position":10,"audio_url":"wbw/026_139_012.mp3","verse_key":"26:139","verse_id":3071,"location":"26:139:10","text_uthmani":"مُّؤْمِنِينَ","qpc_uthmani_hafs":"مُّؤۡمِنِينَ","char_type_name":"word","page_number":373,"line_number":2,"text":"مُّؤۡمِنِينَ","translation":{"text":"believers","language_name":"english","language_id":38},"transliteration":{"text":"mu'minīna","language_name":"english","language_id":38}},{"id":79006,"position":11,"audio_url":null,"verse_key":"26:139","verse_id":3071,"location":"26:139:11","text_uthmani":"١٣٩","qpc_uthmani_hafs":"١٣٩","char_type_name":"end","page_number":373,"line_number":2,"text":"١٣٩","translation":{"text":"(139)","language_name":"english","language_id":38},"transliteration":{"text":null,"language_name":"english","language_id":38}}]},{"id":3072,"verse_number":140,"verse_key":"26:140","hizb_number":38,"rub_el_hizb_number":149,"ruku_number":322,"manzil_number":5,"sajdah_number":null,"page_number":373,"juz_number":19,"words":[{"id":79082,"position":1,"audio_url":"wbw/026_140_001.mp3","verse_key":"26:140","verse_id":3072,"location":"26:140:1","text_uthmani":"وَإِنَّ","qpc_uthmani_hafs":"وَإِنَّ","char_type_name":"word","page_number":373,"line_number":3,"text":"وَإِنَّ","translation":{"text":"And indeed","language_name":"english","language_id":38},"transliteration":{"text":"wa-inna","language_name":"english","language_id":38}},{"id":79083,"position":2,"audio_url":"wbw/026_140_002.mp3","verse_key":"26:140","verse_id":3072,"location":"26:140:2","text_uthmani":"رَبَّكَ","qpc_uthmani_hafs":"رَبَّكَ","char_type_name":"word","page_number":373,"line_number":3,"text":"رَبَّكَ","translation":{"text":"your Lord","language_name":"english","language_id":38},"transliteration":{"text":"rabbaka","language_name":"english","language_id":38}},{"id":79084,"position":3,"audio_url":"wbw/026_140_003.mp3","verse_key":"26:140","verse_id":3072,"location":"26:140:3","text_uthmani":"لَهُوَ","qpc_uthmani_hafs":"لَهُوَ","char_type_name":"word","page_number":373,"line_number":3,"text":"لَهُوَ","translation":{"text":"surely, He","language_name":"english","language_id":38},"transliteration":{"text":"lahuwa","language_name":"english","language_id":38}},{"id":79085,"position":4,"audio_url":"wbw/026_140_004.mp3","verse_key":"26:140","verse_id":3072,"location":"26:140:4","text_uthmani":"ٱلْعَزِيزُ","qpc_uthmani_hafs":"ٱلۡعَزِيزُ","char_type_name":"word","page_number":373,"line_number":3,"text":"ٱلۡعَزِيزُ","translation":{"text":"(is) the All-Mighty","language_name":"english","language_id":38},"transliteration":{"text":"l-ʿazīzu","language_name":"english","language_id":38}},{"id":79086,"position":5,"audio_url":"wbw/026_140_005.mp3","verse_key":"26:140","verse_id":3072,"location":"26:140:5","text_uthmani":"ٱلرَّحِيمُ","qpc_uthmani_hafs":"ٱلرَّحِيمُ","char_type_name":"word","page_number":373,"line_number":3,"text":"ٱلرَّحِيمُ","translation":{"text":"the Most Merciful","language_name":"english","language_id":38},"transliteration":{"text":"l-raḥīmu","language_name":"english","language_id":38}},{"id":79087,"position":6,"audio_url":null,"verse_key":"26:140","verse_id":3072,"location":"26:140:6","text_uthmani":"١٤٠","qpc_uthmani_hafs":"١٤٠","char_type_name":"end","page_number":373,"line_number":3,"text":"١٤٠","translation":{"text":"(140)","language_name":"english","language_id":38},"transliteration":{"text":null,"language_name":"english","language_id":38}}]}],"pagination":{"per_page":10,"current_page":14,"next_page":15,"total_pages":23,"total_records":227}}
