{"verses":[{"id":3073,"verse_number":141,"verse_key":"26:141","hizb_number":38,"rub_el_hizb_number":149,"ruku_number":323,"manzil_number":5,"sajdah_number":null,"page_number":373,"juz_number":19,"words":[{"id":79189,"position":1,"audio_url":"wbw/026_141_001.mp3","verse_key":"26:141","verse_id":3073,"location":"26:141:1","text_uthmani":"كَذَّبَتْ","qpc_uthmani_hafs":"كَذَّبَتۡ","char_type_name":"word","page_number":373,"line_number":3,"text":"كَذَّبَتۡ","translation":{"text":"Denied","language_name":"english","language_id":38},"transliteration":{"text":"kadhabat","language_name":"english","language_id":38}},{"id":79190,"position":2,"audio_url":"wbw/026_141_002.mp3","verse_key":"26:141","verse_id":3073,"location":"26:141:2","text_uthmani":"ثَمُودُ","qpc_uthmani_hafs":"ثَمُودُ","char_type_name":"word","page_number":373,"line_number":3,"text":"ثَمُودُ","translation":{"text":"Thamud","language_name":"english","language_id":38},"transliteration":{"text":"thamūdu","language_name":"english","language_id":38}},{"id":79191,"position":3,"audio_url":"wbw/026_141_003.mp3","verse_key":"26:141","verse_id":3073,"location":"26:141:3","text_uthmani":"ٱلْمُرْسَلِينَ","qpc_uthmani_hafs":"ٱلۡمُرۡسَلِينَ","char_type_name":"word","page_number":373,"line_number":3,"text":"ٱلۡمُرۡسَلِينَ","translation":{"text":"the Messengers","language_name":"english","language_id":38},"transliteration":{"text":"l-mur'salīna","language_name":"english","language_id":38}},{"id":79192,"position":4,"audio_url":null,"verse_key":"26:141","verse_id":3073,"location":"26:141:4","text_uthmani":"١٤١","qpc_uthmani_hafs":"١٤١","char_type_name":"end","page_number":373,"line_number":3,"text":"١٤١","translation":{"text":"(141)","language_name":"english","language_id":38},"transliteration":{"text":null,"language_name":"english","language_id":38}}]},{"id":3074,"verse_number":142,"verse_key":"26:142","hizb_number":38,"rub_el_hizb_number":149,"ruku_number":323,"manzil_number":5,"sajdah_number":null,"page_number":373,"juz_number":19,"words":[{"id":79359,"position":1,"audio_url":"wbw/026_142_001.mp3","verse_key":"26:142","verse_id":3074,"location":"26:142:1","text_uthmani":"إِذْ","qpc_uthmani_hafs":"إِذۡ","char_type_name":"word","page_number":373,"line_number":3,"text":"إِذۡ","translation":{"text":"When","language_name":"english","language_id":38},"transliteration":{"text":"idh","language_name":"english","language_id":38}},{"id":79360,"position":2,"audio_url":"wbw/026_142_002.mp3","verse_key":"26:142","verse_id":3074,"location":"26:142:2","text_uthmani":"قَالَ","qpc_uthmani_hafs":"قَالَ","char_type_name":"word","page_number":373,"line_number":4,"text":"قَالَ","translation":{"text":"said","language_name":"english","language_id":38},"transliteration":{"text":"qāla","language_name":"english","language_id":38}},{"id":79361,"position":3,"audio_url":"wbw/026_142_003.mp3","verse_key":"26:142","verse_id":3074,"location":"26:142:3","text_uthmani":"لَهُمْ","qpc_uthmani_hafs":"لَهُمۡ","char_type_name":"word","page_number":373,"line_number":4,"text":"لَهُمۡ","translation":{"text":"to them","language_name":"english","language_id":38},"transliteration":{"text":"lahum","language_name":"english","language_id":38}},{"id":79362,"position":4,"audio_url":"wbw/026_142_004.mp3","verse_key":"26:142","verse_id":3074,"location":"26:142:4","text_uthmani":"أَخُوهُمْ","qpc_uthmani_hafs":"أَخُوهُمۡ","char_type_name":"word","page_number":373,"line_number":4,"text":"أَخُوهُمۡ","translation":{"text":"their brother","language_name":"english","language_id":38},"transliteration":{"text":"akhūhum","language_name":"english","language_id":38}},{"id":79363,"position":5,"audio_url":"wbw/026_142_005.mp3","verse_key":"26:142","verse_id":3074,"location":"26:142:5","text_uthmani":"صَـٰلِحٌ","qpc_uthmani_hafs":"صَٰلِحٌ","char_type_name":"word","page_number":373,"line_number":4,"text":"صَٰلِحٌ","translation":{"text":"Salih","language_name":"english","language_id":38},"transliteration":{"text":"ṣāliḥun","language_name":"english","language_id":38}},{"id":79364,"position":6,"audio_url":"wbw/026_142_006.mp3","verse_key":"26:142","verse_id":3074,"location":"26:142:6","text_uthmani":"أَلَا","qpc_uthmani_hafs":"أَلَا","char_type_name":"word","page_number":373,"line_number":4,"text":"أَلَا","translation":{"text":"Will not","language_name":"english","language_id":38},"transliteration":{"text":"alā","language_name":"english","language_id":38}},{"id":79365,"position":7,"audio_url":"wbw/026_142_007.mp3","verse_key":"26:142","verse_id":3074,"location":"26:142:7","text_uthmani":"تَتَّقُونَ","qpc_uthmani_hafs":"تَتَّقُونَ","char_type_name":"word","page_number":373,"line_number":4,"text":"تَتَّقُونَ","translation":{"text":"you fear (Allah)","language_name":"english","language_id":38},"transliteration":{"text":"tattaqūna","language_name":"english","language_id":38}},{"id":79366,"position":8,"audio_url":null,"verse_key":"26:142","verse_id":3074,"location":"26:142:8","text_uthmani":"١٤٢","qpc_uthmani_hafs":"١٤٢","char_type_name":"end","page_number":373,"line_number":4,"text":"١٤٢","translation":{"text":"(142)","language_name":"english","language_id":38},"transliteration":{"text":null,"language_name":"english","language_id":38}}]},{"id":3075,"verse_number":143,"verse_key":"26:143","hizb_number":38,"rub_el_hizb_number":149,"ruku_number":323,"manzil_number":5,"sajdah_number":null,"page_number":373,"juz_number":19,"words":[{"id":79454,"position":1,"audio_url":"wbw/026_143_001.mp3","verse_key":"26:143","verse_id":3075,"location":"26:143:1","text_uthmani":"إِنِّى","qpc_uthmani_hafs":"إِنِّي","char_type_name":"word","page_number":373,"line_number":4,"text":"إِنِّي","translation":{"text":"Indeed, I am","language_name":"english","language_id":38},"transliteration":{"text":"innī","language_name":"english","language_id":38}},{"id":79455,"position":2,"audio_url":"wbw/026_143_002.mp3","verse_key":"26:143","verse_id":3075,"location":"26:143:2","text_uthmani":"لَكُمْ","qpc_uthmani_hafs":"لَكُمۡ","char_type_name":"word","page_number":373,"line_number":4,"text":"لَكُمۡ","translation":{"text":"to you","language_name":"english","language_id":38},"transliteration":{"text":"lakum","language_name":"english","language_id":38}},{"id":79456,"position":3,"audio_url":"wbw/026_143_003.mp3","verse_key":"26:143","verse_id":3075,"location":"26:143:3","text_uthmani":"رَسُولٌ","qpc_uthmani_hafs":"رَسُولٌ","char_type_name":"word","page_number":373,"line_number":4,"text":"رَسُولٌ","translation":{"text":"a Messenger","language_name":"english","language_id":38},"transliteration":{"text":"rasūlun","language_name":"english","language_id":38}},{"id":79457,"position":4,"audio_url":"wbw/026_143_004.mp3","verse_key":"26:143","verse_id":3075,"location":"26:143:4","text_uthmani":"أَمِينٌۭ","qpc_uthmani_hafs":"أَمِينٞ","char_type_name":"word","page_number":373,"line_number":4,"text":"أَمِينٞ","translation":{"text":"trustworthy","language_name":"english","language_id":38},"transliteration":{"text":"amīnun","language_name":"english","language_id":38}},{"id":79458,"position":5,"audio_url":null,"verse_key":"26:143","verse_id":3075,"location":"26:143:5","text_uthmani":"١٤٣","qpc_uthmani_hafs":"١٤٣","char_type_name":"end","page_number":373,"line_number":4,"text":"١٤٣","translation":{"text":"(143)","language_name":"english","language_id":38},"transliteration":{"text":null,"language_name":"english","language_id":38}}]},{"id":3076,"verse_number":144,"verse_key":"26:144","hizb_number":38,"rub_el_hizb_number":149,"ruku_number":323,"manzil_number":5,"sajdah_number":null,"page_number":373,"juz_number":19,"words":[{"id":79702,"position":1,"audio_url":"wbw/026_144_001.mp3","verse_key":"26:144","verse_id":3076,"location":"26:144:1","text_uthmani":"فَٱتَّقُوا۟","qpc_uthmani_hafs":"فَٱتَّقُواْ","char_type_name":"word","page_number":373,"line_number":5,"text":"فَٱتَّقُواْ","translation":{"text":"So fear","language_name":"english","language_id":38},"transliteration":{"text":"fa-ittaqū","language_name":"english","language_id":38}},{"id":79703,"position":2,"audio_url":"wbw/026_144_002.mp3","verse_key":"26:144","verse_id":3076,"location":"26:144:2","text_uthmani":"ٱللَّهَ","qpc_uthmani_hafs":"ٱللَّهَ","char_type_name":"word","page_number":373,"line_number":5,"text":"ٱللَّهَ","translation":{"text":"Allah","language_name":"english","language_id":38},"transliteration":{"text":"l-laha","language_name":"english","language_id":38}},{"id":79704,"position":3,"audio_url":"wbw/026_144_003.mp3","verse_key":"26:144","verse_id":3076,"location":"26:144:3","text_uthmani":"وَأَطِيعُونِ","qpc_uthmani_hafs":"وَأَطِيعُونِ","char_type_name":"word","page_number":373,"line_number":5,"text":"وَأَطِيعُونِ","translation":{"text":"and obey me","language_name":"english","language_id":38},"transliteration":{"text":"wa-aṭīʿūni","language_name":"english","language_id":38}},{"id":79705,"position":4,"audio_url":null,"verse_key":"26:144","verse_id":3076,"location":"26:144:4","text_uthmani":"١٤٤","qpc_uthmani_hafs":"١٤٤","char_type_name":"end","page_number":373,"line_number":5,"text":"١٤٤","translation":{"text":"(144)","language_name":"english","language_id":38},"transliteration":{"text":null,"language_name":"english","language_id":38}}]},{"id":3077,"verse_number":145,"verse_key":"26:145","hizb_number":38,"rub_el_hizb_number":149,"ruku_number":323,"manzil_number":5,"sajdah_number":null,"page_number":373,"juz_number":19,"words":[{"id":79767,"position":1,"audio_url":"wbw/026_145_001.mp3","verse_key":"26:145","verse_id":3077,"location":"26:145:1","text_uthmani":"وَمَآ","qpc_uthmani_hafs":"وَمَآ","char_type_name":"word","page_number":373,"line_number":5,"text":"وَمَآ","translation":{"text":"And not","language_name":"english","language_id":38},"transliteration":{"text":"wamā","language_name":"english","language_id":38}},{"id":79768,"position":2,"audio_url":"wbw/026_145_002.mp3","verse_key":"26:145","verse_id":3077,"location":"26:145:2","text_uthmani":"أَسْـَٔلُكُمْ","qpc_uthmani_hafs":"أَسۡـَٔلُكُمۡ","char_type_name":"word","page_number":373,"line_number":5,"text":"أَسۡـَٔلُكُمۡ","translation":{"text":"I ask you","language_name":"english","language_id":38},"transliteration":{"text":"asalukum","language_name":"english","language_id":38}},{"id":79769,"position":3,"audio_url":"wbw/026_145_003.mp3","verse_key":"26:145","verse_id":3077,"location":"26:145:3","text_uthmani":"عَلَيْهِ","qpc_uthmani_hafs":"عَلَيۡهِ","char_type_name":"word","page_number":373,"line_number":5,"text":"عَلَيۡهِ","translation":{"text":"for it","language_name":"english","language_id":38},"transliteration":{"text":"ʿalayhi","language_name":"english","language_id":38}},{"id":79770,"position":4,"audio_url":"wbw/026_145_004.mp3","verse_key":"26:145","verse_id":3077,"location":"26:145:4","text_uthmani":"مِنْ","qpc_uthmani_hafs":"مِنۡ","char_type_name":"word","page_number":373,"line_number":5,"text":"مِنۡ","translation":{"text":"any","language_name":"english","language_id":38},"transliteration":{"text":"min","language_name":"english","language_id":38}},{"id":79771,"position":5,"audio_url":"wbw/026_145_005.mp3","verse_key":"26:145","verse_id":3077,"location":"26:145:5","text_uthmani":"أَجْرٍ ۖ","qpc_uthmani_hafs":"أَجۡرٍۖ","char_type_name":"word","page_number":373,"line_number":5,"text":"أَجۡرٍۖ","translation":{"text":"payment","language_name":"english","language_id":38},"transliteration":{"text":"ajrin","language_name":"english","language_id":38}},{"id":79773,"position":6,"audio_url":"wbw/026_145_007.mp3","verse_key":"26:145","verse_id":3077,"location":"26:145:6","text_uthmani":"إِنْ","qpc_uthmani_hafs":"إِنۡ","char_type_name":"word","page_number":373,"line_number":5,"text":"إِنۡ","translation":{"text":"Not","language_name":"english","language_id":38},"transliteration":{"text":"in","language_name":"english","language_id":38}},{"id":79774,"position":7,"audio_url":"wbw/026_145_008.mp3","verse_key":"26:145","verse_id":3077,"location":"26:145:7","text_uthmani":"أَجْرِىَ","qpc_uthmani_hafs":"أَجۡرِيَ","char_type_name":"word","page_number":373,"line_number":5,"text":"أَجۡرِيَ","translation":{"text":"(is) my payment","language_name":"english","language_id":38},"transliteration":{"text":"ajriya","language_name":"english","language_id":38}},{"id":79775,"position":8,"audio_url":"wbw/026_145_009.mp3","verse_key":"26:145","verse_id":3077,"location":"26:145:8","text_uthmani":"إِلَّا","qpc_uthmani_hafs":"إِلَّا","char_type_name":"word","page_number":373,"line_number":6,"text":"إِلَّا","translation":{"text":"except","language_name":"english","language_id":38},"transliteration":{"text":"illā","language_name":"english","language_id":38}},{"id":79776,"position":9,"audio_url":"wbw/026_145_010.mp3","verse_key":"26:145","verse_id":3077,"location":"26:145:9","text_uthmani":"عَلَىٰ","qpc_uthmani_hafs":"عَلَىٰ","char_type_name":"word","page_number":373,"line_number":6,"text":"عَلَىٰ","translation":{"text":"from","language_name":"english","language_id":38},"transliteration":{"text":"ʿalā","language_name":"english","language_id":38}},{"id":79777,"position":10,"audio_url":"wbw/026_145_011.mp3","verse_key":"26:145","verse_id":3077,"location":"26:145:10","text_uthmani":"رَبِّ","qpc_uthmani_hafs":"رَبِّ","char_type_name":"word","page_number":373,"line_number":6,"text":"رَبِّ","translation":{"text":"(the) Lord","language_name":"english","language_id":38},"transliteration":{"text":"rabbi","language_name":"english","language_id":38}},{"id":79778,"position":11,"audio_url":"wbw/026_145_012.mp3","verse_key":"26:145","verse_id":3077,"location":"26:145:11","text_uthmani":"ٱلْعَـٰلَمِينَ","qpc_uthmani_hafs":"ٱلۡعَٰلَمِينَ","char_type_name":"word","page_number":373,"line_number":6,"text":"ٱلۡعَٰلَمِينَ","translation":{"text":"(of) the worlds","language_name":"english","language_id":38},"transliteration":{"text":"l-ʿālamīna","language_name":"english","language_id":38}},{"id":79779,"position":12,"audio_url":null,"verse_key":"26:145","verse_id":3077,"location":"26:145:12","text_uthmani":"١٤٥","qpc_uthmani_hafs":"١٤٥","char_type_name":"end","page_number":373,"line_number":6,"text":"١٤٥","translation":{"text":"(145)","language_name":"english","language_id":38},"transliteration":{"text":null,"language_name":"english","language_id":38}}]},{"id":3078,"verse_number":146,"verse_key":"26:146","hizb_number":38,"rub_el_hizb_number":149,"ruku_number":323,"manzil_number":5,"sajdah_number":null,"page_number":373,"juz_number":19,"words":[{"id":79919,"position":1,"audio_url":"wbw/026_146_001.mp3","verse_key":"26:146","verse_id":3078,"location":"26:146:1","text_uthmani":"أَتُتْرَكُونَ","qpc_uthmani_hafs":"أَتُتۡرَكُونَ","char_type_name":"word","page_number":373,"line_number":6,"text":"أَتُتۡرَكُونَ","translation":{"text":"Will you be left","language_name":"english","language_id":38},"transliteration":{"text":"atut'rakūna","language_name":"english","language_id":38}},{"id":79920,"position":2,"audio_url":"wbw/026_146_002.mp3","verse_key":"26:146","verse_id":3078,"location":"26:146:2","text_uthmani":"فِى","qpc_uthmani_hafs":"فِي","char_type_name":"word","page_number":373,"line_number":6,"text":"فِي","translation":{"text":"in","language_name":"english","language_id":38},"transliteration":{"text":"fī","language_name":"english","language_id":38}},{"id":79921,"position":3,"audio_url":"wbw/026_146_003.mp3","verse_key":"26:146","verse_id":3078,"location":"26:146:3","text_uthmani":"مَا","qpc_uthmani_hafs":"مَا","char_type_name":"word","page_number":373,"line_number":6,"text":"مَا","translation":{"text":"what","language_name":"english","language_id":38},"transliteration":{"text":"mā","language_name":"english","language_id":38}},{"id":79922,"position":4,"audio_url":"wbw/026_146_004.mp3","verse_key":"26:146","verse_id":3078,"location":"26:146:4","text_uthmani":"هَـٰهُنَآ","qpc_uthmani_hafs":"هَٰهُنَآ","char_type_name":"word","page_number":373,"line_number":6,"text":"هَٰهُنَآ","translation":{"text":"(is) here","language_name":"english","language_id":38},"transliteration":{"text":"hāhunā","language_name":"english","language_id":38}},{"id":79923,"position":5,"audio_url":"wbw/026_146_005.mp3","verse_key":"26:146","verse_id":3078,"location":"26:146:5","text_uthmani":"ءَامِنِينَ","qpc_uthmani_hafs":"ءَامِنِينَ","char_type_name":"word","page_number":373,"line_number":6,"text":"ءَامِنِينَ","translation":{"text":"secure","language_name":"english","language_id":38},"transliteration":{"text":"āminīna","language_name":"english","language_id":38}},{"id":79924,"position":6,"audio_url":null,"verse_key":"26:146","verse_id":3078,"location":"26:146:6","text_uthmani":"١٤٦","qpc_uthmani_hafs":"١٤٦","char_type_name":"end","page_number":373,"line_number":6,"text":"١٤٦","translation":{"text":"(146)","language_name":"english","language_id":38},"transliteration":{"text":null,"language_name":"english","language_id":38}}]},{"id":3079,"verse_number":147,"verse_key":"26:147","hizb_number":38,"rub_el_hizb_number":149,"ruku_number":323,"manzil_number":5,"sajdah_number":null,"page_number":373,"juz_number":19,"words":[{"id":80108,"position":1,"audio_url":"wbw/026_147_001.mp3","verse_key":"26:147","verse_id":3079,"location":"26:147:1","text_uthmani":"فِى","qpc_uthmani_hafs":"فِي","char_type_name":"word","page_number":373,"line_number":7,"text":"فِي","translation":{"text":"In","language_name":"english","language_id":38},"transliteration":{"text":"fī","language_name":"english","language_id":38}},{"id":80109,"position":2,"audio_url":"wbw/026_147_002.mp3","verse_key":"26:147","verse_id":3079,"location":"26:147:2","text_uthmani":"جَنَّـٰتٍۢ","qpc_uthmani_hafs":"جَنَّٰتٖ","char_type_name":"word","page_number":373,"line_number":7,"text":"جَنَّٰتٖ","translation":{"text":"gardens","language_name":"english","language_id":38},"transliteration":{"text":"jannātin","language_name":"english","language_id":38}},{"id":80110,"position":3,"audio_url":"wbw/026_147_003.mp3","verse_key":"26:147","verse_id":3079,"location":"26:147:3","text_uthmani":"وَعُيُونٍۢ","qpc_uthmani_hafs":"وَعُيُونٖ","char_type_name":"word","page_number":373,"line_number":7,"text":"وَعُيُونٖ","translation":{"text":"and springs","language_name":"english","language_id":38},"transliteration":{"text":"waʿuyūnin","language_name":"english","language_id":38}},{"id":80111,"position":4,"audio_url":null,"verse_key":"26:147","verse_id":3079,"location":"26:147:4","text_uthmani":"١٤٧","qpc_uthmani_hafs":"١٤٧","char_type_name":"end","page_number":373,"line_number":7,"text":"١٤٧","translation":{"text":"(147)","language_name":"english","language_id":38},"transliteration":{"text":null,"language_name":"english","language_id":38}}]},{"id":3080,"verse_number":148,"verse_key":"26:148","hizb_number":38,"rub_el_hizb_number":149,"ruku_number":323,"manzil_number":5,"sajdah_number":null,"page_number":373,"juz_number":19,"words":[{"id":80242,"position":1,"audio_url":"wbw/026_148_001.mp3","verse_key":"26:148","verse_id":3080,"location":"26:148:1","text_uthmani":"وَزُرُوعٍۢ","qpc_uthmani_hafs":"وَزُرُوعٖ","char_type_name":"word","page_number":373,"line_number":7,"text":"وَزُرُوعٖ","translation":{"text":"And cornfields","language_name":"english","language_id":38},"transliteration":{"text":"wazurūʿin","language_name":"english","language_id":38}},{"id":80243,"position":2,"audio_url":"wbw/026_148_002.mp3","verse_key":"26:148","verse_id":3080,"location":"26:148:2","text_uthmani":"وَنَخْلٍۢ","qpc_uthmani_hafs":"وَنَخۡلٖ","char_type_name":"word","page_number":373,"line_number":7,"text":"وَنَخۡلٖ","translation":{"text":"and date-palms","language_name":"english","language_id":38},"transliteration":{"text":"wanakhlin","language_name":"english","language_id":38}},{"id":80244,"position":3,"audio_url":"wbw/026_148_003.mp3","verse_key":"26:148","verse_id":3080,"location":"26:148:3","text_uthmani":"طَلْعُهَا","qpc_uthmani_hafs":"طَلۡعُهَا","char_type_name":"word","page_number":373,"line_number":7,"text":"طَلۡعُهَا","translation":{"text":"its spadix","language_name":"english","language_id":38},"transliteration":{"text":"ṭalʿuhā","language_name":"english","language_id":38}},{"id":80245,"position":4,"audio_url":"wbw/026_148_004.mp3","verse_key":"26:148","verse_id":3080,"location":"26:148:4","text_uthmani":"هَضِيمٌۭ","qpc_uthmani_hafs":"هَضِيمٞ","char_type_name":"word","page_number":373,"line_number":7,"text":"هَضِيمٞ","translation":{"text":"soft","language_name":"english","language_id":38},"transliteration":{"text":"haḍīmun","language_name":"english","language_id":38}},{"id":80246,"position":5,"audio_url":null,"verse_key":"26:148","verse_id":3080,"location":"26:148:5","text_uthmani":"١٤٨","qpc_uthmani_hafs":"١٤٨","char_type_name":"end","page_number":373,"line_number":7,"text":"١٤٨","translation":{"text":"(148)","language_name":"english","language_id":38},"transliteration":{"text":null,"language_name":"english","language_id":38}}]},{"id":3081,"verse_number":149,"verse_key":"26:149","hizb_number":38,"rub_el_hizb_number":149,"ruku_number":323,"manzil_number":5,"sajdah_number":null,"page_number":373,"juz_number":19,"words":[{"id":80353,"position":1,"audio_url":"wbw/026_149_001.mp3","verse_key":"26:149","verse_id":3081,"location":"26:149:1","text_uthmani":"وَتَنْحِتُونَ","qpc_uthmani_hafs":"وَتَنۡحِتُونَ","char_type_name":"word","page_number":373,"line_number":8,"text":"وَتَنۡحِتُونَ","translation":{"text":"And you carve","language_name":"english","language_id":38},"transliteration":{"text":"watanḥitūna","language_name":"english","language_id":38}},{"id":80354,"position":2,"audio_url":"wbw/026_149_002.mp3","verse_key":"26:149","verse_id":3081,"location":"26:149:2","text_uthmani":"مِنَ","qpc_uthmani_hafs":"مِنَ","char_type_name":"word","page_number":373,"line_number":8,"text":"مِنَ","translation":{"text":"of","language_name":"english","language_id":38},"transliteration":{"text":"mina","language_name":"english","language_id":38}},{"id":80355,"position":3,"audio_url":"wbw/026_149_003.mp3","verse_key":"26:149","verse_id":3081,"location":"26:149:3","text_uthmani":"ٱلْجِبَالِ","qpc_uthmani_hafs":"ٱلۡجِبَالِ","char_type_name":"word","page_number":373,"line_number":8,"text":"ٱلۡجِبَالِ","translation":{"text":"the mountains","language_name":"english","language_id":38},"transliteration":{"text":"l-jibāli","language_name":"english","language_id":38}},{"id":80356,"position":4,"audio_url":"wbw/026_149_004.mp3","verse_key":"26:149","verse_id":3081,"location":"26:149:4","text_uthmani":"بُيُوتًۭا","qpc_uthmani_hafs":"بُيُوتٗا","char_type_name":"word","page_number":373,"line_number":8,"text":"بُيُوتٗا","translation":{"text":"houses","language_name":"english","language_id":38},"transliteration":{"text":"buyūtan","language_name":"english","language_id":38}},{"id":80357,"position":5,"audio_url":"wbw/026_149_005.mp3","verse_key":"26:149","verse_id":3081,"location":"26:149:5","text_uthmani":"فَـٰرِهِينَ","qpc_uthmani_hafs":"فَٰرِهِينَ","char_type_name":"word","page_number":373,"line_number":8,"text":"فَٰرِهِينَ","translation":{"text":"skillfully","language_name":"english","language_id":38},"transliteration":{"text":"fārihīna","language_name":"english","language_id":38}},{"id":80358,"position":6,"audio_url":null,"verse_key":"26:149","verse_id":3081,"location":"26:149:6","text_uthmani":"١٤٩","qpc_uthmani_hafs":"١٤٩","char_type_name":"end","page_number":373,"line_number":8,"text":"١٤٩","translation":{"text":"(149)","language_name":"english","language_id":38},"transliteration":{"text":null,"language_name":"english","language_id":38}}]},{"id":3082,"verse_number":150,"verse_key":"26:150","hizb_number":38,"rub_el_hizb_number":149,"ruku_number":323,"manzil_number":5,"sajdah_number":null,"page_number":373,"juz_number":19,"words":[{"id":80359,"position":1,"audio_url":"wbw/026_150_001.mp3","verse_key":"26:150","verse_id":3082,"location":"26:150:1","text_uthmani":"فَٱتَّقُوا۟","qpc_uthmani_hafs":"فَٱتَّقُواْ","char_type_name":"word","page_number":373,"line_number":8,"text":"فَٱتَّقُواْ","translation":{"text":"So fear","language_name":"english","language_id":38},"transliteration":{"text":"fa-ittaqū","language_name":"english","language_id":38}},{"id":80360,"position":2,"audio_url":"wbw/026_150_002.mp3","verse_key":"26:150","verse_id":3082,"location":"26:150:2","text_uthmani":"ٱللَّهَ","qpc_uthmani_hafs":"ٱللَّهَ","char_type_name":"word","page_number":373,"line_number":8,"text":"ٱللَّهَ","translation":{"text":"Allah","language_name":"english","language_id":38},"transliteration":{"text":"l-laha","language_name":"english","language_id":38}},{"id":80361,"position":3,"audio_url":"wbw/026_150_003.mp3","verse_key":"26:150","verse_id":3082,"location":"26:150:3","text_uthmani":"وَأَطِيعُونِ","qpc_uthmani_hafs":"وَأَطِيعُونِ","char_type_name":"word","page_number":373,"line_number":8,"text":"وَأَطِيعُونِ","translation":{"text":"and obey me","language_name":"english","language_id":38},"transliteration":{"text":"wa-aṭīʿūni","language_name":"english","language_id":38}},{"id":80362,"position":4,"audio_url":null,"verse_key":"26:150","verse_id":3082,"location":"26:150:4","text_uthmani":"١٥٠","qpc_uthmani_hafs":"١٥٠","char_type_name":"end","page_number":373,"line_number":9,"text":"١٥٠","translation":{"text":"(150)","language_name":"english","language_id":38},"transliteration":{"text":null,"language_name":"english","language_id":38}}]}],"pagination":{"per_page":10,"current_page":15,"next_page":16,"total_pages":23,"total_records":227}}
