{"verses":[{"id":3153,"verse_number":221,"verse_key":"26:221","hizb_number":38,"rub_el_hizb_number":150,"ruku_number":326,"manzil_number":5,"sajdah_number":null,"page_number":376,"juz_number":19,"words":[{"id":86071,"position":1,"audio_url":"wbw/026_221_001.mp3","verse_key":"26:221","verse_id":3153,"location":"26:221:1","text_uthmani":"هَلْ","qpc_uthmani_hafs":"هَلۡ","char_type_name":"word","page_number":376,"line_number":9,"text":"هَلۡ","translation":{"text":"Shall","language_name":"english","language_id":38},"transliteration":{"text":"hal","language_name":"english","language_id":38}},{"id":86072,"position":2,"audio_url":"wbw/026_221_002.mp3","verse_key":"26:221","verse_id":3153,"location":"26:221:2","text_uthmani":"أُنَبِّئُكُمْ","qpc_uthmani_hafs":"أُنَبِّئُكُمۡ","char_type_name":"word","page_number":376,"line_number":9,"text":"أُنَبِّئُكُمۡ","translation":{"text":"I inform you","language_name":"english","language_id":38},"transliteration":{"text":"unabbi-ukum","language_name":"english","language_id":38}},{"id":86073,"position":3,"audio_url":"wbw/026_221_003.mp3","verse_key":"26:221","verse_id":3153,"location":"26:221:3","text_uthmani":"عَلَىٰ","qpc_uthmani_hafs":"عَلَىٰ","char_type_name":"word","page_number":376,"line_number":9,"text":"عَلَىٰ","translation":{"text":"upon","language_name":"english","language_id":38},"transliteration":{"text":"ʿalā","language_name":"english","language_id":38}},{"id":86074,"position":4,"audio_url":"wbw/026_221_004.mp3","verse_key":"26:221","verse_id":3153,"location":"26:221:4","text_uthmani":"مَن","qpc_uthmani_hafs":"مَن","char_type_name":"word","page_number":376,"line_number":9,"text":"مَن","translation":{"text":"whom","language_name":"english","language_id":38},"transliteration":{"text":"man","language_name":"english","language_id":38}},{"id":86075,"position":5,"audio_url":"wbw/026_221_005.mp3","verse_key":"26:221","verse_id":3153,"location":"26:221:5","text_uthmani":"تَنَزَّلُ","qpc_uthmani_hafs":"تَنَزَّلُ","char_type_name":"word","page_number":376,"line_number":9,"text":"تَنَزَّلُ","translation":{"text":"descend","language_name":"english","language_id":38},"transliteration":{"text":"tanazzalu","language_name":"english","language_id":38}},{"id":86076,"position":6,"audio_url":"wbw/026_221_006.mp3","verse_key":"26:221","verse_id":3153,"location":"26:221:6","text_uthmani":"ٱلشَّيَـٰطِينُ","qpc_uthmani_hafs":"ٱلشَّيَٰطِينُ","char_type_name":"word","page_number":376,"line_number":9,"text":"ٱلشَّيَٰطِينُ","translation":{"text":"the devils","language_name":"english","language_id":38},"transliteration":{"text":"l-shayāṭīnu","language_name":"english","language_id":38}},{"id":86077,"position":7,"audio_url":null,"verse_key":"26:221","verse_id":3153,"location":"26:221:7","text_uthmani":"٢٢١","qpc_uthmani_hafs":"٢٢١","char_type_name":"end","page_number":376,"line_number":9,"text":"٢٢١","translation":{"text":"(221)","language_name":"english","language_id":38},"transliteration":{"text":null,"language_name":"english","language_id":38}}]},{"id":3154,"verse_number":222,"verse_key":"26:222","hizb_number":38,"rub_el_hizb_number":150,"ruku_number":326,"manzil_number":5,"sajdah_number":null,"page_number":376,"juz_number":19,"words":[{"id":86110,"position":1,"audio_url":"wbw/026_222_001.mp3","verse_key":"26:222","verse_id":3154,"location":"26:222:1","text_uthmani":"تَنَزَّلُ","qpc_uthmani_hafs":"تَنَزَّلُ","char_type_name":"word","page_number":376,"line_number":9,"text":"تَنَزَّلُ","translation":{"text":"They descend","language_name":"english","language_id":38},"transliteration":{"text":"tanazzalu","language_name":"english","language_id":38}},{"id":86111,"position":2,"audio_url":"wbw/026_222_002.mp3","verse_key":"26:222","verse_id":3154,"location":"26:222:2","text_uthmani":"عَلَىٰ","qpc_uthmani_hafs":"عَلَىٰ","char_type_name":"word","page_number":376,"line_number":9,"text":"عَلَىٰ","translation":{"text":"upon","language_name":"english","language_id":38},"transliteration":{"text":"ʿalā","language_name":"english","language_id":38}},{"id":86112,"position":3,"audio_url":"wbw/026_222_003.mp3","verse_key":"26:222","verse_id":3154,"location":"26:222:3","text_uthmani":"كُلِّ","qpc_uthmani_hafs":"كُلِّ","char_type_name":"word","page_number":376,"line_number":10,"text":"كُلِّ","translation":{"text":"every","language_name":"english","language_id":38},"transliteration":{"text":"kulli","language_name":"english","language_id":38}},{"id":86113,"position":4,"audio_url":"wbw/026_222_004.mp3","verse_key":"26:222","verse_id":3154,"location":"26:222:4","text_uthmani":"أَفَّاكٍ","qpc_uthmani_hafs":"أَفَّاكٍ","char_type_name":"word","page_number":376,"line_number":10,"text":"أَفَّاكٍ","translation":{"text":"liar","language_name":"english","language_id":38},"transliteration":{"text":"affākin","language_name":"english","language_id":38}},{"id":86114,"position":5,"audio_url":"wbw/026_222_005.mp3","verse_key":"26:222","verse_id":3154,"location":"26:222:5","text_uthmani":"أَثِيمٍۢ","qpc_uthmani_hafs":"أَثِيمٖ","char_type_name":"word","page_number":376,"line_number":10,"text":"أَثِيمٖ","translation":{"text":"sinful","language_name":"english","language_id":38},"transliteration":{"text":"athīmin","language_name":"english","language_id":38}},{"id":86115,"position":6,"audio_url":null,"verse_key":"26:222","verse_id":3154,"location":"26:222:6","text_uthmani":"٢٢٢","qpc_uthmani_hafs":"٢٢٢","char_type_name":"end","page_number":376,"line_number":10,"text":"٢٢٢","translation":{"text":"(222)","language_name":"english","language_id":38},"transliteration":{"text":null,"language_name":"english","language_id":38}}]},{"id":3155,"verse_number":223,"verse_key":"26:223","hizb_number":38,"rub_el_hizb_number":150,"ruku_number":326,"manzil_number":5,"sajdah_number":null,"page_number":376,"juz_number":19,"words":[{"id":86116,"position":1,"audio_url":"wbw/026_223_001.mp3","verse_key":"26:223","verse_id":3155,"location":"26:223:1","text_uthmani":"يُلْقُونَ","qpc_uthmani_hafs":"يُلۡقُونَ","char_type_name":"word","page_number":376,"line_number":10,"text":"يُلۡقُونَ","translation":{"text":"They pass on","language_name":"english","language_id":38},"transliteration":{"text":"yul'qūna","language_name":"english","language_id":38}},{"id":86117,"position":2,"audio_url":"wbw/026_223_002.mp3","verse_key":"26:223","verse_id":3155,"location":"26:223:2","text_uthmani":"ٱلسَّمْعَ","qpc_uthmani_hafs":"ٱلسَّمۡعَ","char_type_name":"word","page_number":376,"line_number":10,"text":"ٱلسَّمۡعَ","translation":{"text":"(what is) heard","language_name":"english","language_id":38},"transliteration":{"text":"l-samʿa","language_name":"english","language_id":38}},{"id":86118,"position":3,"audio_url":"wbw/026_223_003.mp3","verse_key":"26:223","verse_id":3155,"location":"26:223:3","text_uthmani":"وَأَكْثَرُهُمْ","qpc_uthmani_hafs":"وَأَكۡثَرُهُمۡ","char_type_name":"word","page_number":376,"line_number":10,"text":"وَأَكۡثَرُهُمۡ","translation":{"text":"and most of them","language_name":"english","language_id":38},"transliteration":{"text":"wa-aktharuhum","language_name":"english","language_id":38}},{"id":86119,"position":4,"audio_url":"wbw/026_223_004.mp3","verse_key":"26:223","verse_id":3155,"location":"26:223:4","text_uthmani":"كَـٰذِبُونَ","qpc_uthmani_hafs":"كَٰذِبُونَ","char_type_name":"word","page_number":376,"line_number":10,"text":"كَٰذِبُونَ","translation":{"text":"(are) liars","language_name":"english","language_id":38},"transliteration":{"text":"kādhibūna","language_name":"english","language_id":38}},{"id":86120,"position":5,"audio_url":null,"verse_key":"26:223","verse_id":3155,"location":"26:223:5","text_uthmani":"٢٢٣","qpc_uthmani_hafs":"٢٢٣","char_type_name":"end","page_number":376,"line_number":10,"text":"٢٢٣","translation":{"text":"(223)","language_name":"english","language_id":38},"transliteration":{"text":null,"language_name":"english","language_id":38}}]},{"id":3156,"verse_number":224,"verse_key":"26:224","hizb_number":38,"rub_el_hizb_number":150,"ruku_number":326,"manzil_number":5,"sajdah_number":null,"page_number":376,"juz_number":19,"words":[{"id":86141,"position":1,"audio_url":"wbw/026_224_001.mp3","verse_key":"26:224","verse_id":3156,"location":"26:224:1","text_uthmani":"وَٱلشُّعَرَآءُ","qpc_uthmani_hafs":"وَٱلشُّعَرَآءُ","char_type_name":"word","page_number":376,"line_number":11,"text":"وَٱلشُّعَرَآءُ","translation":{"text":"And the poets ","language_name":"english","language_id":38},"transliteration":{"text":"wal-shuʿarāu","language_name":"english","language_id":38}},{"id":86142,"position":2,"audio_url":"wbw/026_224_002.mp3","verse_key":"26:224","verse_id":3156,"location":"26:224:2","text_uthmani":"يَتَّبِعُهُمُ","qpc_uthmani_hafs":"يَتَّبِعُهُمُ","char_type_name":"word","page_number":376,"line_number":11,"text":"يَتَّبِعُهُمُ","translation":{"text":"follow them","language_name":"english","language_id":38},"transliteration":{"text":"yattabiʿuhumu","language_name":"english","language_id":38}},{"id":86143,"position":3,"audio_url":"wbw/026_224_003.mp3","verse_key":"26:224","verse_id":3156,"location":"26:224:3","text_uthmani":"ٱلْغَاوُۥنَ","qpc_uthmani_hafs":"ٱلۡغَاوُۥنَ","char_type_name":"word","page_number":376,"line_number":11,"text":"ٱلۡغَاوُۥنَ","translation":{"text":"the deviators","language_name":"english","language_id":38},"transliteration":{"text":"l-ghāwūna","language_name":"english","language_id":38}},{"id":86144,"position":4,"audio_url":null,"verse_key":"26:224","verse_id":3156,"location":"26:224:4","text_uthmani":"٢٢٤","qpc_uthmani_hafs":"٢٢٤","char_type_name":"end","page_number":376,"line_number":11,"text":"٢٢٤","translation":{"text":"(224)","language_name":"english","language_id":38},"transliteration":{"text":null,"language_name":"english","language_id":38}}]},{"id":3157,"verse_number":225,"verse_key":"26:225","hizb_number":38,"rub_el_hizb_number":150,"ruku_number":326,"manzil_number":5,"sajdah_number":null,"page_number":376,"juz_number":19,"words":[{"id":86177,"position":1,"audio_url":"wbw/026_225_001.mp3","verse_key":"26:225","verse_id":3157,"location":"26:225:1","text_uthmani":"أَلَمْ","qpc_uthmani_hafs":"أَلَمۡ","char_type_name":"word","page_number":376,"line_number":11,"text":"أَلَمۡ","translation":{"text":"Do not","language_name":"english","language_id":38},"transliteration":{"text":"alam","language_name":"english","language_id":38}},{"id":86178,"position":2,"audio_url":"wbw/026_225_002.mp3","verse_key":"26:225","verse_id":3157,"location":"26:225:2","text_uthmani":"تَرَ","qpc_uthmani_hafs":"تَرَ","char_type_name":"word","page_number":376,"line_number":11,"text":"تَرَ","translation":{"text":"you see","language_name":"english","language_id":38},"transliteration":{"text":"tara","language_name":"english","language_id":38}},{"id":86179,"position":3,"audio_url":"wbw/026_225_003.mp3","verse_key":"26:225","verse_id":3157,"location":"26:225:3","text_uthmani":"أَنَّهُمْ","qpc_uthmani_hafs":"أَنَّهُمۡ","char_type_name":"word","page_number":376,"line_number":11,"text":"أَنَّهُمۡ","translation":{"text":"that they","language_name":"english","language_id":38},"transliteration":{"text":"annahum","language_name":"english","language_id":38}},{"id":86180,"position":4,"audio_url":"wbw/026_225_004.mp3","verse_key":"26:225","verse_id":3157,"location":"26:225:4","text_uthmani":"فِى","qpc_uthmani_hafs":"فِي","char_type_name":"word","page_number":376,"line_number":11,"text":"فِي","translation":{"text":"in","language_name":"english","language_id":38},"transliteration":{"text":"fī","language_name":"english","language_id":38}},{"id":86181,"position":5,"audio_url":"wbw/026_225_005.mp3","verse_key":"26:225","verse_id":3157,"location":"26:225:5","text_uthmani":"كُلِّ","qpc_uthmani_hafs":"كُلِّ","char_type_name":"word","page_number":376,"line_number":11,"text":"كُلِّ","translation":{"text":"every","language_name":"english","language_id":38},"transliteration":{"text":"kulli","language_name":"english","language_id":38}},{"id":86182,"position":6,"audio_url":"wbw/026_225_006.mp3","verse_key":"26:225","verse_id":3157,"location":"26:225:6","text_uthmani":"وَادٍۢ","qpc_uthmani_hafs":"وَادٖ","char_type_name":"word","page_number":376,"line_number":11,"text":"وَادٖ","translation":{"text":"valley","language_name":"english","language_id":38},"transliteration":{"text":"wādin","language_name":"english","language_id":38}},{"id":86183,"position":7,"audio_url":"wbw/026_225_007.mp3","verse_key":"26:225","verse_id":3157,"location":"26:225:7","text_uthmani":"يَهِيمُونَ","qpc_uthmani_hafs":"يَهِيمُونَ","char_type_name":"word","page_number":376,"line_number":12,"text":"يَهِيمُونَ","translation":{"text":"[they] roam","language_name":"english","language_id":38},"transliteration":{"text":"yahīmūna","language_name":"english","language_id":38}},{"id":86184,"position":8,"audio_url":null,"verse_key":"26:225","verse_id":3157,"location":"26:225:8","text_uthmani":"٢٢٥","qpc_uthmani_hafs":"٢٢٥","char_type_name":"end","page_number":376,"line_number":12,"text":"٢٢٥","translation":{"text":"(225)","language_name":"english","language_id":38},"transliteration":{"text":null,"language_name":"english","language_id":38}}]},{"id":3158,"verse_number":226,"verse_key":"26:226","hizb_number":38,"rub_el_hizb_number":150,"ruku_number":326,"manzil_number":5,"sajdah_number":null,"page_number":376,"juz_number":19,"words":[{"id":86200,"position":1,"audio_url":"wbw/026_226_001.mp3","verse_key":"26:226","verse_id":3158,"location":"26:226:1","text_uthmani":"وَأَنَّهُمْ","qpc_uthmani_hafs":"وَأَنَّهُمۡ","char_type_name":"word","page_number":376,"line_number":12,"text":"وَأَنَّهُمۡ","translation":{"text":"And that they","language_name":"english","language_id":38},"transliteration":{"text":"wa-annahum","language_name":"english","language_id":38}},{"id":86201,"position":2,"audio_url":"wbw/026_226_002.mp3","verse_key":"26:226","verse_id":3158,"location":"26:226:2","text_uthmani":"يَقُولُونَ","qpc_uthmani_hafs":"يَقُولُونَ","char_type_name":"word","page_number":376,"line_number":12,"text":"يَقُولُونَ","translation":{"text":"say","language_name":"english","language_id":38},"transliteration":{"text":"yaqūlūna","language_name":"english","language_id":38}},{"id":86202,"position":3,"audio_url":"wbw/026_226_003.mp3","verse_key":"26:226","verse_id":3158,"location":"26:226:3","text_uthmani":"مَا","qpc_uthmani_hafs":"مَا","char_type_name":"word","page_number":376,"line_number":12,"text":"مَا","translation":{"text":"what","language_name":"english","language_id":38},"transliteration":{"text":"mā","language_name":"english","language_id":38}},{"id":86203,"position":4,"audio_url":"wbw/026_226_004.mp3","verse_key":"26:226","verse_id":3158,"location":"26:226:4","text_uthmani":"لَا","qpc_uthmani_hafs":"لَا","char_type_name":"word","page_number":376,"line_number":12,"text":"لَا","translation":{"text":"not","language_name":"english","language_id":38},"transliteration":{"text":"lā","language_name":"english","language_id":38}},{"id":86204,"position":5,"audio_url":"wbw/026_226_005.mp3","verse_key":"26:226","verse_id":3158,"location":"26:226:5","text_uthmani":"يَفْعَلُونَ","qpc_uthmani_hafs":"يَفۡعَلُونَ","char_type_name":"word","page_number":376,"line_number":12,"text":"يَفۡعَلُونَ","translation":{"text":"they do","language_name":"english","language_id":38},"transliteration":{"text":"yafʿalūna","language_name":"english","language_id":38}},{"id":86205,"position":6,"audio_url":null,"verse_key":"26:226","verse_id":3158,"location":"26:226:6","text_uthmani":"٢٢٦","qpc_uthmani_hafs":"٢٢٦","char_type_name":"end","page_number":376,"line_number":12,"text":"٢٢٦","translation":{"text":"(226)","language_name":"english","language_id":38},"transliteration":{"text":null,"language_name":"english","language_id":38}}]},{"id":3159,"verse_number":227,"verse_key":"26:227","hizb_number":38,"rub_el_hizb_number":150,"ruku_number":326,"manzil_number":5,"sajdah_number":null,"page_number":376,"juz_number":19,"words":[{"id":86214,"position":1,"audio_url":"wbw/026_227_001.mp3","verse_key":"26:227","verse_id":3159,"location":"26:227:1","text_uthmani":"إِلَّا","qpc_uthmani_hafs":"إِلَّا","char_type_name":"word","page_number":376,"line_number":12,"text":"إِلَّا","translation":{"text":"Except","language_name":"english","language_id":38},"transliteration":{"text":"illā","language_name":"english","language_id":38}},{"id":86215,"position":2,"audio_url":"wbw/026_227_002.mp3","verse_key":"26:227","verse_id":3159,"location":"26:227:2","text_uthmani":"ٱلَّذِينَ","qpc_uthmani_hafs":"ٱلَّذِينَ","char_type_name":"word","page_number":376,"line_number":12,"text":"ٱلَّذِينَ","translation":{"text":"those who","language_name":"english","language_id":38},"transliteration":{"text":"alladhīna","language_name":"english","language_id":38}},{"id":86216,"position":3,"audio_url":"wbw/026_227_003.mp3","verse_key":"26:227","verse_id":3159,"location":"26:227:3","text_uthmani":"ءَامَنُوا۟","qpc_uthmani_hafs":"ءَامَنُواْ","char_type_name":"word","page_number":376,"line_number":13,"text":"ءَامَنُواْ","translation":{"text":"believe","language_name":"english","language_id":38},"transliteration":{"text":"āmanū","language_name":"english","language_id":38}},{"id":86217,"position":4,"audio_url":"wbw/026_227_004.mp3","verse_key":"26:227","verse_id":3159,"location":"26:227:4","text_uthmani":"وَعَمِلُوا۟","qpc_uthmani_hafs":"وَعَمِلُواْ","char_type_name":"word","page_number":376,"line_number":13,"text":"وَعَمِلُواْ","translation":{"text":"and do","language_name":"english","language_id":38},"transliteration":{"text":"waʿamilū","language_name":"english","language_id":38}},{"id":86218,"position":5,"audio_url":"wbw/026_227_005.mp3","verse_key":"26:227","verse_id":3159,"location":"26:227:5","text_uthmani":"ٱلصَّـٰلِحَـٰتِ","qpc_uthmani_hafs":"ٱلصَّٰلِحَٰتِ","char_type_name":"word","page_number":376,"line_number":13,"text":"ٱلصَّٰلِحَٰتِ","translation":{"text":"righteous deeds","language_name":"english","language_id":38},"transliteration":{"text":"l-ṣāliḥāti","language_name":"english","language_id":38}},{"id":86219,"position":6,"audio_url":"wbw/026_227_006.mp3","verse_key":"26:227","verse_id":3159,"location":"26:227:6","text_uthmani":"وَذَكَرُوا۟","qpc_uthmani_hafs":"وَذَكَرُواْ","char_type_name":"word","page_number":376,"line_number":13,"text":"وَذَكَرُواْ","translation":{"text":"and remember","language_name":"english","language_id":38},"transliteration":{"text":"wadhakarū","language_name":"english","language_id":38}},{"id":86220,"position":7,"audio_url":"wbw/026_227_007.mp3","verse_key":"26:227","verse_id":3159,"location":"26:227:7","text_uthmani":"ٱللَّهَ","qpc_uthmani_hafs":"ٱللَّهَ","char_type_name":"word","page_number":376,"line_number":13,"text":"ٱللَّهَ","translation":{"text":"Allah","language_name":"english","language_id":38},"transliteration":{"text":"l-laha","language_name":"english","language_id":38}},{"id":86221,"position":8,"audio_url":"wbw/026_227_008.mp3","verse_key":"26:227","verse_id":3159,"location":"26:227:8","text_uthmani":"كَثِيرًۭا","qpc_uthmani_hafs":"كَثِيرٗا","char_type_name":"word","page_number":376,"line_number":13,"text":"كَثِيرٗا","translation":{"text":"much","language_name":"english","language_id":38},"transliteration":{"text":"kathīran","language_name":"english","language_id":38}},{"id":86222,"position":9,"audio_url":"wbw/026_227_009.mp3","verse_key":"26:227","verse_id":3159,"location":"26:227:9","text_uthmani":"وَٱنتَصَرُوا۟","qpc_uthmani_hafs":"وَٱنتَصَرُواْ","char_type_name":"word","page_number":376,"line_number":13,"text":"وَٱنتَصَرُواْ","translation":{"text":"and defend themselves","language_name":"english","language_id":38},"transliteration":{"text":"wa-intaṣarū","language_name":"english","language_id":38}},{"id":86223,"position":10,"audio_url":"wbw/026_227_010.mp3","verse_key":"26:227","verse_id":3159,"location":"26:227:10","text_uthmani":"مِنۢ","qpc_uthmani_hafs":"مِنۢ","char_type_name":"word","page_number":376,"line_number":13,"text":"مِنۢ","translation":{"text":"after","language_name":"english","language_id":38},"transliteration":{"text":"min","language_name":"english","language_id":38}},{"id":86224,"position":11,"audio_url":"wbw/026_227_011.mp3","verse_key":"26:227","verse_id":3159,"location":"26:227:11","text_uthmani":"بَعْدِ","qpc_uthmani_hafs":"بَعۡدِ","char_type_name":"word","page_number":376,"line_number":14,"text":"بَعۡدِ","translation":{"text":"after","language_name":"english","language_id":38},"transliteration":{"text":"baʿdi","language_name":"english","language_id":38}},{"id":86225,"position":12,"audio_url":"wbw/026_227_012.mp3","verse_key":"26:227","verse_id":3159,"location":"26:227:12","text_uthmani":"مَا","qpc_uthmani_hafs":"مَا","char_type_name":"word","page_number":376,"line_number":14,"text":"مَا","translation":{"text":"after","language_name":"english","language_id":38},"transliteration":{"text":"mā","language_name":"english","language_id":38}},{"id":86226,"position":13,"audio_url":"wbw/026_227_013.mp3","verse_key":"26:227","verse_id":3159,"location":"26:227:13","text_uthmani":"ظُلِمُوا۟ ۗ","qpc_uthmani_hafs":"ظُلِمُواْۗ","char_type_name":"word","page_number":376,"line_number":14,"text":"ظُلِمُواْۗ","translation":{"text":"they were wronged","language_name":"english","language_id":38},"transliteration":{"text":"ẓulimū","language_name":"english","language_id":38}},{"id":86228,"position":14,"audio_url":"wbw/026_227_015.mp3","verse_key":"26:227","verse_id":3159,"location":"26:227:14","text_uthmani":"وَسَيَعْلَمُ","qpc_uthmani_hafs":"وَسَيَعۡلَمُ","char_type_name":"word","page_number":376,"line_number":14,"text":"وَسَيَعۡلَمُ","translation":{"text":"And will come to know","language_name":"english","language_id":38},"transliteration":{"text":"wasayaʿlamu","language_name":"english","language_id":38}},{"id":86229,"position":15,"audio_url":"wbw/026_227_016.mp3","verse_key":"26:227","verse_id":3159,"location":"26:227:15","text_uthmani":"ٱلَّذِينَ","qpc_uthmani_hafs":"ٱلَّذِينَ","char_type_name":"word","page_number":376,"line_number":14,"text":"ٱلَّذِينَ","translation":{"text":"those who","language_name":"english","language_id":38},"transliteration":{"text":"alladhīna","language_name":"english","language_id":38}},{"id":86230,"position":16,"audio_url":"wbw/026_227_017.mp3","verse_key":"26:227","verse_id":3159,"location":"26:227:16","text_uthmani":"ظَلَمُوٓا۟","qpc_uthmani_hafs":"ظَلَمُوٓاْ","char_type_name":"word","page_number":376,"line_number":14,"text":"ظَلَمُوٓاْ","translation":{"text":"have wronged","language_name":"english","language_id":38},"transliteration":{"text":"ẓalamū","language_name":"english","language_id":38}},{"id":86231,"position":17,"audio_url":"wbw/026_227_018.mp3","verse_key":"26:227","verse_id":3159,"location":"26:227:17","text_uthmani":"أَىَّ","qpc_uthmani_hafs":"أَيَّ","char_type_name":"word","page_number":376,"line_number":14,"text":"أَيَّ","translation":{"text":"(to) what","language_name":"english","language_id":38},"transliteration":{"text":"ayya","language_name":"english","language_id":38}},{"id":86232,"position":18,"audio_url":"wbw/026_227_019.mp3","verse_key":"26:227","verse_id":3159,"location":"26:227:18","text_uthmani":"مُنقَلَبٍۢ","qpc_uthmani_hafs":"مُنقَلَبٖ","char_type_name":"word","page_number":376,"line_number":14,"text":"مُنقَلَبٖ","translation":{"text":"return","language_name":"english","language_id":38},"transliteration":{"text":"munqalabin","language_name":"english","language_id":38}},{"id":86233,"position":19,"audio_url":"wbw/026_227_020.mp3","verse_key":"26:227","verse_id":3159,"location":"26:227:19","text_uthmani":"يَنقَلِبُونَ","qpc_uthmani_hafs":"يَنقَلِبُونَ","char_type_name":"word","page_number":376,"line_number":14,"text":"يَنقَلِبُونَ","translation":{"text":"they will return","language_name":"english","language_id":38},"transliteration":{"text":"yanqalibūna","language_name":"english","language_id":38}},{"id":86234,"position":20,"audio_url":null,"verse_key":"26:227","verse_id":3159,"location":"26:227:20","text_uthmani":"٢٢٧","qpc_uthmani_hafs":"٢٢٧","char_type_name":"end","page_number":376,"line_number":14,"text":"٢٢٧","translation":{"text":"(227)","language_name":"english","language_id":38},"transliteration":{"text":null,"language_name":"english","language_id":38}}]}],"pagination":{"per_page":10,"current_page":23,"next_page":null,"total_pages":23,"total_records":227}}
