{"verses":[{"id":2983,"verse_number":51,"verse_key":"26:51","hizb_number":37,"rub_el_hizb_number":147,"ruku_number":318,"manzil_number":5,"sajdah_number":null,"page_number":369,"juz_number":19,"words":[{"id":49351,"position":1,"audio_url":"wbw/026_051_001.mp3","verse_key":"26:51","verse_id":2983,"location":"26:51:1","text_uthmani":"إِنَّا","qpc_uthmani_hafs":"إِنَّا","char_type_name":"word","page_number":369,"line_number":10,"text":"إِنَّا","translation":{"text":"Indeed, we","language_name":"english","language_id":38},"transliteration":{"text":"innā","language_name":"english","language_id":38}},{"id":49352,"position":2,"audio_url":"wbw/026_051_002.mp3","verse_key":"26:51","verse_id":2983,"location":"26:51:2","text_uthmani":"نَطْمَعُ","qpc_uthmani_hafs":"نَطۡمَعُ","char_type_name":"word","page_number":369,"line_number":10,"text":"نَطۡمَعُ","translation":{"text":"hope","language_name":"english","language_id":38},"transliteration":{"text":"naṭmaʿu","language_name":"english","language_id":38}},{"id":49353,"position":3,"audio_url":"wbw/026_051_003.mp3","verse_key":"26:51","verse_id":2983,"location":"26:51:3","text_uthmani":"أَن","qpc_uthmani_hafs":"أَن","char_type_name":"word","page_number":369,"line_number":10,"text":"أَن","translation":{"text":"that","language_name":"english","language_id":38},"transliteration":{"text":"an","language_name":"english","language_id":38}},{"id":49354,"position":4,"audio_url":"wbw/026_051_004.mp3","verse_key":"26:51","verse_id":2983,"location":"26:51:4","text_uthmani":"يَغْفِرَ","qpc_uthmani_hafs":"يَغۡفِرَ","char_type_name":"word","page_number":369,"line_number":10,"text":"يَغۡفِرَ","translation":{"text":"will forgive","language_name":"english","language_id":38},"transliteration":{"text":"yaghfira","language_name":"english","language_id":38}},{"id":49355,"position":5,"audio_url":"wbw/026_051_005.mp3","verse_key":"26:51","verse_id":2983,"location":"26:51:5","text_uthmani":"لَنَا","qpc_uthmani_hafs":"لَنَا","char_type_name":"word","page_number":369,"line_number":10,"text":"لَنَا","translation":{"text":"us","language_name":"english","language_id":38},"transliteration":{"text":"lanā","language_name":"english","language_id":38}},{"id":49356,"position":6,"audio_url":"wbw/026_051_006.mp3","verse_key":"26:51","verse_id":2983,"location":"26:51:6","text_uthmani":"رَبُّنَا","qpc_uthmani_hafs":"رَبُّنَا","char_type_name":"word","page_number":369,"line_number":10,"text":"رَبُّنَا","translation":{"text":"our Lord","language_name":"english","language_id":38},"transliteration":{"text":"rabbunā","language_name":"english","language_id":38}},{"id":49357,"position":7,"audio_url":"wbw/026_051_007.mp3","verse_key":"26:51","verse_id":2983,"location":"26:51:7","text_uthmani":"خَطَـٰيَـٰنَآ","qpc_uthmani_hafs":"خَطَٰيَٰنَآ","char_type_name":"word","page_number":369,"line_number":10,"text":"خَطَٰيَٰنَآ","translation":{"text":"our sins","language_name":"english","language_id":38},"transliteration":{"text":"khaṭāyānā","language_name":"english","language_id":38}},{"id":49358,"position":8,"audio_url":"wbw/026_051_008.mp3","verse_key":"26:51","verse_id":2983,"location":"26:51:8","text_uthmani":"أَن","qpc_uthmani_hafs":"أَن","char_type_name":"word","page_number":369,"line_number":10,"text":"أَن","translation":{"text":"because","language_name":"english","language_id":38},"transliteration":{"text":"an","language_name":"english","language_id":38}},{"id":49359,"position":9,"audio_url":"wbw/026_051_009.mp3","verse_key":"26:51","verse_id":2983,"location":"26:51:9","text_uthmani":"كُنَّآ","qpc_uthmani_hafs":"كُنَّآ","char_type_name":"word","page_number":369,"line_number":10,"text":"كُنَّآ","translation":{"text":"we are","language_name":"english","language_id":38},"transliteration":{"text":"kunnā","language_name":"english","language_id":38}},{"id":49360,"position":10,"audio_url":"wbw/026_051_010.mp3","verse_key":"26:51","verse_id":2983,"location":"26:51:10","text_uthmani":"أَوَّلَ","qpc_uthmani_hafs":"أَوَّلَ","char_type_name":"word","page_number":369,"line_number":11,"text":"أَوَّلَ","translation":{"text":"(the) first","language_name":"english","language_id":38},"transliteration":{"text":"awwala","language_name":"english","language_id":38}},{"id":49361,"position":11,"audio_url":"wbw/026_051_011.mp3","verse_key":"26:51","verse_id":2983,"location":"26:51:11","text_uthmani":"ٱلْمُؤْمِنِينَ","qpc_uthmani_hafs":"ٱلۡمُؤۡمِنِينَ","char_type_name":"word","page_number":369,"line_number":11,"text":"ٱلۡمُؤۡمِنِينَ","translation":{"text":"(of) the believers","language_name":"english","language_id":38},"transliteration":{"text":"l-mu'minīna","language_name":"english","language_id":38}},{"id":49362,"position":12,"audio_url":null,"verse_key":"26:51","verse_id":2983,"location":"26:51:12","text_uthmani":"٥١","qpc_uthmani_hafs":"٥١","char_type_name":"end","page_number":369,"line_number":11,"text":"٥١","translation":{"text":"(51)","language_name":"english","language_id":38},"transliteration":{"text":null,"language_name":"english","language_id":38}}]},{"id":2984,"verse_number":52,"verse_key":"26:52","hizb_number":37,"rub_el_hizb_number":148,"ruku_number":319,"manzil_number":5,"sajdah_number":null,"page_number":369,"juz_number":19,"words":[{"id":50067,"position":1,"audio_url":"wbw/026_052_002.mp3","verse_key":"26:52","verse_id":2984,"location":"26:52:1","text_uthmani":"۞ وَأَوْحَيْنَآ","qpc_uthmani_hafs":"۞ وَأَوۡحَيۡنَآ","char_type_name":"word","page_number":369,"line_number":11,"text":"۞ وَأَوۡحَيۡنَآ","translation":{"text":"And We inspired","language_name":"english","language_id":38},"transliteration":{"text":"wa-awḥaynā","language_name":"english","language_id":38}},{"id":50068,"position":2,"audio_url":"wbw/026_052_003.mp3","verse_key":"26:52","verse_id":2984,"location":"26:52:2","text_uthmani":"إِلَىٰ","qpc_uthmani_hafs":"إِلَىٰ","char_type_name":"word","page_number":369,"line_number":11,"text":"إِلَىٰ","translation":{"text":"to","language_name":"english","language_id":38},"transliteration":{"text":"ilā","language_name":"english","language_id":38}},{"id":50069,"position":3,"audio_url":"wbw/026_052_004.mp3","verse_key":"26:52","verse_id":2984,"location":"26:52:3","text_uthmani":"مُوسَىٰٓ","qpc_uthmani_hafs":"مُوسَىٰٓ","char_type_name":"word","page_number":369,"line_number":11,"text":"مُوسَىٰٓ","translation":{"text":"Musa","language_name":"english","language_id":38},"transliteration":{"text":"mūsā","language_name":"english","language_id":38}},{"id":50070,"position":4,"audio_url":"wbw/026_052_005.mp3","verse_key":"26:52","verse_id":2984,"location":"26:52:4","text_uthmani":"أَنْ","qpc_uthmani_hafs":"أَنۡ","char_type_name":"word","page_number":369,"line_number":11,"text":"أَنۡ","translation":{"text":"[that]","language_name":"english","language_id":38},"transliteration":{"text":"an","language_name":"english","language_id":38}},{"id":50071,"position":5,"audio_url":"wbw/026_052_006.mp3","verse_key":"26:52","verse_id":2984,"location":"26:52:5","text_uthmani":"أَسْرِ","qpc_uthmani_hafs":"أَسۡرِ","char_type_name":"word","page_number":369,"line_number":11,"text":"أَسۡرِ","translation":{"text":"Travel by night","language_name":"english","language_id":38},"transliteration":{"text":"asri","language_name":"english","language_id":38}},{"id":50072,"position":6,"audio_url":"wbw/026_052_007.mp3","verse_key":"26:52","verse_id":2984,"location":"26:52:6","text_uthmani":"بِعِبَادِىٓ","qpc_uthmani_hafs":"بِعِبَادِيٓ","char_type_name":"word","page_number":369,"line_number":11,"text":"بِعِبَادِيٓ","translation":{"text":"with My slaves","language_name":"english","language_id":38},"transliteration":{"text":"biʿibādī","language_name":"english","language_id":38}},{"id":50073,"position":7,"audio_url":"wbw/026_052_008.mp3","verse_key":"26:52","verse_id":2984,"location":"26:52:7","text_uthmani":"إِنَّكُم","qpc_uthmani_hafs":"إِنَّكُم","char_type_name":"word","page_number":369,"line_number":11,"text":"إِنَّكُم","translation":{"text":"indeed, you","language_name":"english","language_id":38},"transliteration":{"text":"innakum","language_name":"english","language_id":38}},{"id":50074,"position":8,"audio_url":"wbw/026_052_009.mp3","verse_key":"26:52","verse_id":2984,"location":"26:52:8","text_uthmani":"مُّتَّبَعُونَ","qpc_uthmani_hafs":"مُّتَّبَعُونَ","char_type_name":"word","page_number":369,"line_number":12,"text":"مُّتَّبَعُونَ","translation":{"text":"(will be) followed","language_name":"english","language_id":38},"transliteration":{"text":"muttabaʿūna","language_name":"english","language_id":38}},{"id":50075,"position":9,"audio_url":null,"verse_key":"26:52","verse_id":2984,"location":"26:52:9","text_uthmani":"٥٢","qpc_uthmani_hafs":"٥٢","char_type_name":"end","page_number":369,"line_number":12,"text":"٥٢","translation":{"text":"(52)","language_name":"english","language_id":38},"transliteration":{"text":null,"language_name":"english","language_id":38}}]},{"id":2985,"verse_number":53,"verse_key":"26:53","hizb_number":37,"rub_el_hizb_number":148,"ruku_number":319,"manzil_number":5,"sajdah_number":null,"page_number":369,"juz_number":19,"words":[{"id":50655,"position":1,"audio_url":"wbw/026_053_001.mp3","verse_key":"26:53","verse_id":2985,"location":"26:53:1","text_uthmani":"فَأَرْسَلَ","qpc_uthmani_hafs":"فَأَرۡسَلَ","char_type_name":"word","page_number":369,"line_number":12,"text":"فَأَرۡسَلَ","translation":{"text":"Then sent","language_name":"english","language_id":38},"transliteration":{"text":"fa-arsala","language_name":"english","language_id":38}},{"id":50656,"position":2,"audio_url":"wbw/026_053_002.mp3","verse_key":"26:53","verse_id":2985,"location":"26:53:2","text_uthmani":"فِرْعَوْنُ","qpc_uthmani_hafs":"فِرۡعَوۡنُ","char_type_name":"word","page_number":369,"line_number":12,"text":"فِرۡعَوۡنُ","translation":{"text":"Firaun","language_name":"english","language_id":38},"transliteration":{"text":"fir'ʿawnu","language_name":"english","language_id":38}},{"id":50657,"position":3,"audio_url":"wbw/026_053_003.mp3","verse_key":"26:53","verse_id":2985,"location":"26:53:3","text_uthmani":"فِى","qpc_uthmani_hafs":"فِي","char_type_name":"word","page_number":369,"line_number":12,"text":"فِي","translation":{"text":"in","language_name":"english","language_id":38},"transliteration":{"text":"fī","language_name":"english","language_id":38}},{"id":50658,"position":4,"audio_url":"wbw/026_053_004.mp3","verse_key":"26:53","verse_id":2985,"location":"26:53:4","text_uthmani":"ٱلْمَدَآئِنِ","qpc_uthmani_hafs":"ٱلۡمَدَآئِنِ","char_type_name":"word","page_number":369,"line_number":12,"text":"ٱلۡمَدَآئِنِ","translation":{"text":"the cities","language_name":"english","language_id":38},"transliteration":{"text":"l-madāini","language_name":"english","language_id":38}},{"id":50659,"position":5,"audio_url":"wbw/026_053_005.mp3","verse_key":"26:53","verse_id":2985,"location":"26:53:5","text_uthmani":"حَـٰشِرِينَ","qpc_uthmani_hafs":"حَٰشِرِينَ","char_type_name":"word","page_number":369,"line_number":12,"text":"حَٰشِرِينَ","translation":{"text":"gatherers","language_name":"english","language_id":38},"transliteration":{"text":"ḥāshirīna","language_name":"english","language_id":38}},{"id":50660,"position":6,"audio_url":null,"verse_key":"26:53","verse_id":2985,"location":"26:53:6","text_uthmani":"٥٣","qpc_uthmani_hafs":"٥٣","char_type_name":"end","page_number":369,"line_number":12,"text":"٥٣","translation":{"text":"(53)","language_name":"english","language_id":38},"transliteration":{"text":null,"language_name":"english","language_id":38}}]},{"id":2986,"verse_number":54,"verse_key":"26:54","hizb_number":37,"rub_el_hizb_number":148,"ruku_number":319,"manzil_number":5,"sajdah_number":null,"page_number":369,"juz_number":19,"words":[{"id":51491,"position":1,"audio_url":"wbw/026_054_001.mp3","verse_key":"26:54","verse_id":2986,"location":"26:54:1","text_uthmani":"إِنَّ","qpc_uthmani_hafs":"إِنَّ","char_type_name":"word","page_number":369,"line_number":12,"text":"إِنَّ","translation":{"text":"Indeed","language_name":"english","language_id":38},"transliteration":{"text":"inna","language_name":"english","language_id":38}},{"id":51492,"position":2,"audio_url":"wbw/026_054_002.mp3","verse_key":"26:54","verse_id":2986,"location":"26:54:2","text_uthmani":"هَـٰٓؤُلَآءِ","qpc_uthmani_hafs":"هَٰٓؤُلَآءِ","char_type_name":"word","page_number":369,"line_number":12,"text":"هَٰٓؤُلَآءِ","translation":{"text":"these","language_name":"english","language_id":38},"transliteration":{"text":"hāulāi","language_name":"english","language_id":38}},{"id":51493,"position":3,"audio_url":"wbw/026_054_003.mp3","verse_key":"26:54","verse_id":2986,"location":"26:54:3","text_uthmani":"لَشِرْذِمَةٌۭ","qpc_uthmani_hafs":"لَشِرۡذِمَةٞ","char_type_name":"word","page_number":369,"line_number":13,"text":"لَشِرۡذِمَةٞ","translation":{"text":"(are) certainly a band","language_name":"english","language_id":38},"transliteration":{"text":"lashir'dhimatun","language_name":"english","language_id":38}},{"id":51494,"position":4,"audio_url":"wbw/026_054_004.mp3","verse_key":"26:54","verse_id":2986,"location":"26:54:4","text_uthmani":"قَلِيلُونَ","qpc_uthmani_hafs":"قَلِيلُونَ","char_type_name":"word","page_number":369,"line_number":13,"text":"قَلِيلُونَ","translation":{"text":"small","language_name":"english","language_id":38},"transliteration":{"text":"qalīlūna","language_name":"english","language_id":38}},{"id":51495,"position":5,"audio_url":null,"verse_key":"26:54","verse_id":2986,"location":"26:54:5","text_uthmani":"٥٤","qpc_uthmani_hafs":"٥٤","char_type_name":"end","page_number":369,"line_number":13,"text":"٥٤","translation":{"text":"(54)","language_name":"english","language_id":38},"transliteration":{"text":null,"language_name":"english","language_id":38}}]},{"id":2987,"verse_number":55,"verse_key":"26:55","hizb_number":37,"rub_el_hizb_number":148,"ruku_number":319,"manzil_number":5,"sajdah_number":null,"page_number":369,"juz_number":19,"words":[{"id":51819,"position":1,"audio_url":"wbw/026_055_001.mp3","verse_key":"26:55","verse_id":2987,"location":"26:55:1","text_uthmani":"وَإِنَّهُمْ","qpc_uthmani_hafs":"وَإِنَّهُمۡ","char_type_name":"word","page_number":369,"line_number":13,"text":"وَإِنَّهُمۡ","translation":{"text":"And indeed, they","language_name":"english","language_id":38},"transliteration":{"text":"wa-innahum","language_name":"english","language_id":38}},{"id":51820,"position":2,"audio_url":"wbw/026_055_002.mp3","verse_key":"26:55","verse_id":2987,"location":"26:55:2","text_uthmani":"لَنَا","qpc_uthmani_hafs":"لَنَا","char_type_name":"word","page_number":369,"line_number":13,"text":"لَنَا","translation":{"text":"[to] us","language_name":"english","language_id":38},"transliteration":{"text":"lanā","language_name":"english","language_id":38}},{"id":51821,"position":3,"audio_url":"wbw/026_055_003.mp3","verse_key":"26:55","verse_id":2987,"location":"26:55:3","text_uthmani":"لَغَآئِظُونَ","qpc_uthmani_hafs":"لَغَآئِظُونَ","char_type_name":"word","page_number":369,"line_number":13,"text":"لَغَآئِظُونَ","translation":{"text":"(are) surely enraging","language_name":"english","language_id":38},"transliteration":{"text":"laghāiẓūna","language_name":"english","language_id":38}},{"id":51822,"position":4,"audio_url":null,"verse_key":"26:55","verse_id":2987,"location":"26:55:4","text_uthmani":"٥٥","qpc_uthmani_hafs":"٥٥","char_type_name":"end","page_number":369,"line_number":13,"text":"٥٥","translation":{"text":"(55)","language_name":"english","language_id":38},"transliteration":{"text":null,"language_name":"english","language_id":38}}]},{"id":2988,"verse_number":56,"verse_key":"26:56","hizb_number":37,"rub_el_hizb_number":148,"ruku_number":319,"manzil_number":5,"sajdah_number":null,"page_number":369,"juz_number":19,"words":[{"id":52335,"position":1,"audio_url":"wbw/026_056_001.mp3","verse_key":"26:56","verse_id":2988,"location":"26:56:1","text_uthmani":"وَإِنَّا","qpc_uthmani_hafs":"وَإِنَّا","char_type_name":"word","page_number":369,"line_number":13,"text":"وَإِنَّا","translation":{"text":"And indeed, we","language_name":"english","language_id":38},"transliteration":{"text":"wa-innā","language_name":"english","language_id":38}},{"id":52336,"position":2,"audio_url":"wbw/026_056_002.mp3","verse_key":"26:56","verse_id":2988,"location":"26:56:2","text_uthmani":"لَجَمِيعٌ","qpc_uthmani_hafs":"لَجَمِيعٌ","char_type_name":"word","page_number":369,"line_number":13,"text":"لَجَمِيعٌ","translation":{"text":"(are) surely a multitude","language_name":"english","language_id":38},"transliteration":{"text":"lajamīʿun","language_name":"english","language_id":38}},{"id":52337,"position":3,"audio_url":"wbw/026_056_003.mp3","verse_key":"26:56","verse_id":2988,"location":"26:56:3","text_uthmani":"حَـٰذِرُونَ","qpc_uthmani_hafs":"حَٰذِرُونَ","char_type_name":"word","page_number":369,"line_number":13,"text":"حَٰذِرُونَ","translation":{"text":"forewarned","language_name":"english","language_id":38},"transliteration":{"text":"ḥādhirūna","language_name":"english","language_id":38}},{"id":52338,"position":4,"audio_url":null,"verse_key":"26:56","verse_id":2988,"location":"26:56:4","text_uthmani":"٥٦","qpc_uthmani_hafs":"٥٦","char_type_name":"end","page_number":369,"line_number":14,"text":"٥٦","translation":{"text":"(56)","language_name":"english","language_id":38},"transliteration":{"text":null,"language_name":"english","language_id":38}}]},{"id":2989,"verse_number":57,"verse_key":"26:57","hizb_number":37,"rub_el_hizb_number":148,"ruku_number":319,"manzil_number":5,"sajdah_number":null,"page_number":369,"juz_number":19,"words":[{"id":52881,"position":1,"audio_url":"wbw/026_057_001.mp3","verse_key":"26:57","verse_id":2989,"location":"26:57:1","text_uthmani":"فَأَخْرَجْنَـٰهُم","qpc_uthmani_hafs":"فَأَخۡرَجۡنَٰهُم","char_type_name":"word","page_number":369,"line_number":14,"text":"فَأَخۡرَجۡنَٰهُم","translation":{"text":"So We expelled them","language_name":"english","language_id":38},"transliteration":{"text":"fa-akhrajnāhum","language_name":"english","language_id":38}},{"id":52882,"position":2,"audio_url":"wbw/026_057_002.mp3","verse_key":"26:57","verse_id":2989,"location":"26:57:2","text_uthmani":"مِّن","qpc_uthmani_hafs":"مِّن","char_type_name":"word","page_number":369,"line_number":14,"text":"مِّن","translation":{"text":"from","language_name":"english","language_id":38},"transliteration":{"text":"min","language_name":"english","language_id":38}},{"id":52883,"position":3,"audio_url":"wbw/026_057_003.mp3","verse_key":"26:57","verse_id":2989,"location":"26:57:3","text_uthmani":"جَنَّـٰتٍۢ","qpc_uthmani_hafs":"جَنَّٰتٖ","char_type_name":"word","page_number":369,"line_number":14,"text":"جَنَّٰتٖ","translation":{"text":"gardens","language_name":"english","language_id":38},"transliteration":{"text":"jannātin","language_name":"english","language_id":38}},{"id":52884,"position":4,"audio_url":"wbw/026_057_004.mp3","verse_key":"26:57","verse_id":2989,"location":"26:57:4","text_uthmani":"وَعُيُونٍۢ","qpc_uthmani_hafs":"وَعُيُونٖ","char_type_name":"word","page_number":369,"line_number":14,"text":"وَعُيُونٖ","translation":{"text":"and springs","language_name":"english","language_id":38},"transliteration":{"text":"waʿuyūnin","language_name":"english","language_id":38}},{"id":52885,"position":5,"audio_url":null,"verse_key":"26:57","verse_id":2989,"location":"26:57:5","text_uthmani":"٥٧","qpc_uthmani_hafs":"٥٧","char_type_name":"end","page_number":369,"line_number":14,"text":"٥٧","translation":{"text":"(57)","language_name":"english","language_id":38},"transliteration":{"text":null,"language_name":"english","language_id":38}}]},{"id":2990,"verse_number":58,"verse_key":"26:58","hizb_number":37,"rub_el_hizb_number":148,"ruku_number":319,"manzil_number":5,"sajdah_number":null,"page_number":369,"juz_number":19,"words":[{"id":53579,"position":1,"audio_url":"wbw/026_058_001.mp3","verse_key":"26:58","verse_id":2990,"location":"26:58:1","text_uthmani":"وَكُنُوزٍۢ","qpc_uthmani_hafs":"وَكُنُوزٖ","char_type_name":"word","page_number":369,"line_number":14,"text":"وَكُنُوزٖ","translation":{"text":"And treasures","language_name":"english","language_id":38},"transliteration":{"text":"wakunūzin","language_name":"english","language_id":38}},{"id":53580,"position":2,"audio_url":"wbw/026_058_002.mp3","verse_key":"26:58","verse_id":2990,"location":"26:58:2","text_uthmani":"وَمَقَامٍۢ","qpc_uthmani_hafs":"وَمَقَامٖ","char_type_name":"word","page_number":369,"line_number":14,"text":"وَمَقَامٖ","translation":{"text":"and a place","language_name":"english","language_id":38},"transliteration":{"text":"wamaqāmin","language_name":"english","language_id":38}},{"id":53581,"position":3,"audio_url":"wbw/026_058_003.mp3","verse_key":"26:58","verse_id":2990,"location":"26:58:3","text_uthmani":"كَرِيمٍۢ","qpc_uthmani_hafs":"كَرِيمٖ","char_type_name":"word","page_number":369,"line_number":14,"text":"كَرِيمٖ","translation":{"text":"honorable","language_name":"english","language_id":38},"transliteration":{"text":"karīmin","language_name":"english","language_id":38}},{"id":53582,"position":4,"audio_url":null,"verse_key":"26:58","verse_id":2990,"location":"26:58:4","text_uthmani":"٥٨","qpc_uthmani_hafs":"٥٨","char_type_name":"end","page_number":369,"line_number":14,"text":"٥٨","translation":{"text":"(58)","language_name":"english","language_id":38},"transliteration":{"text":null,"language_name":"english","language_id":38}}]},{"id":2991,"verse_number":59,"verse_key":"26:59","hizb_number":37,"rub_el_hizb_number":148,"ruku_number":319,"manzil_number":5,"sajdah_number":null,"page_number":369,"juz_number":19,"words":[{"id":53903,"position":1,"audio_url":"wbw/026_059_001.mp3","verse_key":"26:59","verse_id":2991,"location":"26:59:1","text_uthmani":"كَذَٰلِكَ","qpc_uthmani_hafs":"كَذَٰلِكَۖ","char_type_name":"word","page_number":369,"line_number":15,"text":"كَذَٰلِكَۖ","translation":{"text":"Thus","language_name":"english","language_id":38},"transliteration":{"text":"kadhālika","language_name":"english","language_id":38}},{"id":53904,"position":2,"audio_url":"wbw/026_059_002.mp3","verse_key":"26:59","verse_id":2991,"location":"26:59:2","text_uthmani":"وَأَوْرَثْنَـٰهَا","qpc_uthmani_hafs":"وَأَوۡرَثۡنَٰهَا","char_type_name":"word","page_number":369,"line_number":15,"text":"وَأَوۡرَثۡنَٰهَا","translation":{"text":"And We caused to inherit them","language_name":"english","language_id":38},"transliteration":{"text":"wa-awrathnāhā","language_name":"english","language_id":38}},{"id":53905,"position":3,"audio_url":"wbw/026_059_003.mp3","verse_key":"26:59","verse_id":2991,"location":"26:59:3","text_uthmani":"بَنِىٓ","qpc_uthmani_hafs":"بَنِيٓ","char_type_name":"word","page_number":369,"line_number":15,"text":"بَنِيٓ","translation":{"text":"(the) Children of Israel","language_name":"english","language_id":38},"transliteration":{"text":"banī","language_name":"english","language_id":38}},{"id":53906,"position":4,"audio_url":"wbw/026_059_004.mp3","verse_key":"26:59","verse_id":2991,"location":"26:59:4","text_uthmani":"إِسْرَٰٓءِيلَ","qpc_uthmani_hafs":"إِسۡرَٰٓءِيلَ","char_type_name":"word","page_number":369,"line_number":15,"text":"إِسۡرَٰٓءِيلَ","translation":{"text":"(the) Children of Israel","language_name":"english","language_id":38},"transliteration":{"text":"is'rāīla","language_name":"english","language_id":38}},{"id":53907,"position":5,"audio_url":null,"verse_key":"26:59","verse_id":2991,"location":"26:59:5","text_uthmani":"٥٩","qpc_uthmani_hafs":"٥٩","char_type_name":"end","page_number":369,"line_number":15,"text":"٥٩","translation":{"text":"(59)","language_name":"english","language_id":38},"transliteration":{"text":null,"language_name":"english","language_id":38}}]},{"id":2992,"verse_number":60,"verse_key":"26:60","hizb_number":37,"rub_el_hizb_number":148,"ruku_number":319,"manzil_number":5,"sajdah_number":null,"page_number":369,"juz_number":19,"words":[{"id":54554,"position":1,"audio_url":"wbw/026_060_001.mp3","verse_key":"26:60","verse_id":2992,"location":"26:60:1","text_uthmani":"فَأَتْبَعُوهُم","qpc_uthmani_hafs":"فَأَتۡبَعُوهُم","char_type_name":"word","page_number":369,"line_number":15,"text":"فَأَتۡبَعُوهُم","translation":{"text":"So they followed them","language_name":"english","language_id":38},"transliteration":{"text":"fa-atbaʿūhum","language_name":"english","language_id":38}},{"id":54555,"position":2,"audio_url":"wbw/026_060_002.mp3","verse_key":"26:60","verse_id":2992,"location":"26:60:2","text_uthmani":"مُّشْرِقِينَ","qpc_uthmani_hafs":"مُّشۡرِقِينَ","char_type_name":"word","page_number":369,"line_number":15,"text":"مُّشۡرِقِينَ","translation":{"text":"(at) sunrise","language_name":"english","language_id":38},"transliteration":{"text":"mush'riqīna","language_name":"english","language_id":38}},{"id":54556,"position":3,"audio_url":null,"verse_key":"26:60","verse_id":2992,"location":"26:60:3","text_uthmani":"٦٠","qpc_uthmani_hafs":"٦٠","char_type_name":"end","page_number":369,"line_number":15,"text":"٦٠","translation":{"text":"(60)","language_name":"english","language_id":38},"transliteration":{"text":null,"language_name":"english","language_id":38}}]}],"pagination":{"per_page":10,"current_page":6,"next_page":7,"total_pages":23,"total_records":227}}
