{"verses":[{"id":5643,"verse_number":21,"verse_key":"77:21","hizb_number":58,"rub_el_hizb_number":232,"ruku_number":518,"manzil_number":7,"sajdah_number":null,"page_number":581,"juz_number":29,"words":[{"id":23954,"position":1,"audio_url":"wbw/077_021_001.mp3","verse_key":"77:21","verse_id":5643,"location":"77:21:1","text_uthmani":"فَجَعَلْنَـٰهُ","qpc_uthmani_hafs":"فَجَعَلۡنَٰهُ","char_type_name":"word","page_number":581,"line_number":1,"text":"فَجَعَلۡنَٰهُ","translation":{"text":"তা আমরা আটকিয়ে অতঃপর রেখেছি","language_name":"bengali","language_id":20},"transliteration":{"text":"fajaʿalnāhu","language_name":"english","language_id":38}},{"id":23955,"position":2,"audio_url":"wbw/077_021_002.mp3","verse_key":"77:21","verse_id":5643,"location":"77:21:2","text_uthmani":"فِى","qpc_uthmani_hafs":"فِي","char_type_name":"word","page_number":581,"line_number":1,"text":"فِي","translation":{"text":"মধ্যে","language_name":"bengali","language_id":20},"transliteration":{"text":"fī","language_name":"english","language_id":38}},{"id":23956,"position":3,"audio_url":"wbw/077_021_003.mp3","verse_key":"77:21","verse_id":5643,"location":"77:21:3","text_uthmani":"قَرَارٍۢ","qpc_uthmani_hafs":"قَرَارٖ","char_type_name":"word","page_number":581,"line_number":1,"text":"قَرَارٖ","translation":{"text":"স্থানের","language_name":"bengali","language_id":20},"transliteration":{"text":"qarārin","language_name":"english","language_id":38}},{"id":23957,"position":4,"audio_url":"wbw/077_021_004.mp3","verse_key":"77:21","verse_id":5643,"location":"77:21:4","text_uthmani":"مَّكِينٍ","qpc_uthmani_hafs":"مَّكِينٍ","char_type_name":"word","page_number":581,"line_number":1,"text":"مَّكِينٍ","translation":{"text":"সংরক্ষিত","language_name":"bengali","language_id":20},"transliteration":{"text":"makīnin","language_name":"english","language_id":38}},{"id":23958,"position":5,"audio_url":null,"verse_key":"77:21","verse_id":5643,"location":"77:21:5","text_uthmani":"٢١","qpc_uthmani_hafs":"٢١","char_type_name":"end","page_number":581,"line_number":1,"text":"٢١","translation":{"text":"(২১)","language_name":"bengali","language_id":20},"transliteration":{"text":null,"language_name":"english","language_id":38}}]},{"id":5644,"verse_number":22,"verse_key":"77:22","hizb_number":58,"rub_el_hizb_number":232,"ruku_number":518,"manzil_number":7,"sajdah_number":null,"page_number":581,"juz_number":29,"words":[{"id":24939,"position":1,"audio_url":"wbw/077_022_001.mp3","verse_key":"77:22","verse_id":5644,"location":"77:22:1","text_uthmani":"إِلَىٰ","qpc_uthmani_hafs":"إِلَىٰ","char_type_name":"word","page_number":581,"line_number":1,"text":"إِلَىٰ","translation":{"text":"পর্যন্ত","language_name":"bengali","language_id":20},"transliteration":{"text":"ilā","language_name":"english","language_id":38}},{"id":24940,"position":2,"audio_url":"wbw/077_022_002.mp3","verse_key":"77:22","verse_id":5644,"location":"77:22:2","text_uthmani":"قَدَرٍۢ","qpc_uthmani_hafs":"قَدَرٖ","char_type_name":"word","page_number":581,"line_number":1,"text":"قَدَرٖ","translation":{"text":"সময়","language_name":"bengali","language_id":20},"transliteration":{"text":"qadarin","language_name":"english","language_id":38}},{"id":24941,"position":3,"audio_url":"wbw/077_022_003.mp3","verse_key":"77:22","verse_id":5644,"location":"77:22:3","text_uthmani":"مَّعْلُومٍۢ","qpc_uthmani_hafs":"مَّعۡلُومٖ","char_type_name":"word","page_number":581,"line_number":2,"text":"مَّعۡلُومٖ","translation":{"text":"নির্দিষ্ট","language_name":"bengali","language_id":20},"transliteration":{"text":"maʿlūmin","language_name":"english","language_id":38}},{"id":24942,"position":4,"audio_url":null,"verse_key":"77:22","verse_id":5644,"location":"77:22:4","text_uthmani":"٢٢","qpc_uthmani_hafs":"٢٢","char_type_name":"end","page_number":581,"line_number":2,"text":"٢٢","translation":{"text":"(২২)","language_name":"bengali","language_id":20},"transliteration":{"text":null,"language_name":"english","language_id":38}}]},{"id":5645,"verse_number":23,"verse_key":"77:23","hizb_number":58,"rub_el_hizb_number":232,"ruku_number":518,"manzil_number":7,"sajdah_number":null,"page_number":581,"juz_number":29,"words":[{"id":26027,"position":1,"audio_url":"wbw/077_023_001.mp3","verse_key":"77:23","verse_id":5645,"location":"77:23:1","text_uthmani":"فَقَدَرْنَا","qpc_uthmani_hafs":"فَقَدَرۡنَا","char_type_name":"word","page_number":581,"line_number":2,"text":"فَقَدَرۡنَا","translation":{"text":"আমরা ক্ষমতাবান অতএব ছিলাম","language_name":"bengali","language_id":20},"transliteration":{"text":"faqadarnā","language_name":"english","language_id":38}},{"id":26028,"position":2,"audio_url":"wbw/077_023_002.mp3","verse_key":"77:23","verse_id":5645,"location":"77:23:2","text_uthmani":"فَنِعْمَ","qpc_uthmani_hafs":"فَنِعۡمَ","char_type_name":"word","page_number":581,"line_number":2,"text":"فَنِعۡمَ","translation":{"text":"কত উত্তম অতএব","language_name":"bengali","language_id":20},"transliteration":{"text":"faniʿ'ma","language_name":"english","language_id":38}},{"id":26029,"position":3,"audio_url":"wbw/077_023_003.mp3","verse_key":"77:23","verse_id":5645,"location":"77:23:3","text_uthmani":"ٱلْقَـٰدِرُونَ","qpc_uthmani_hafs":"ٱلۡقَٰدِرُونَ","char_type_name":"word","page_number":581,"line_number":2,"text":"ٱلۡقَٰدِرُونَ","translation":{"text":"ক্ষমতার অধিকারী","language_name":"bengali","language_id":20},"transliteration":{"text":"l-qādirūna","language_name":"english","language_id":38}},{"id":26030,"position":4,"audio_url":null,"verse_key":"77:23","verse_id":5645,"location":"77:23:4","text_uthmani":"٢٣","qpc_uthmani_hafs":"٢٣","char_type_name":"end","page_number":581,"line_number":2,"text":"٢٣","translation":{"text":"(২৩)","language_name":"bengali","language_id":20},"transliteration":{"text":null,"language_name":"english","language_id":38}}]},{"id":5646,"verse_number":24,"verse_key":"77:24","hizb_number":58,"rub_el_hizb_number":232,"ruku_number":518,"manzil_number":7,"sajdah_number":null,"page_number":581,"juz_number":29,"words":[{"id":27091,"position":1,"audio_url":"wbw/077_024_001.mp3","verse_key":"77:24","verse_id":5646,"location":"77:24:1","text_uthmani":"وَيْلٌۭ","qpc_uthmani_hafs":"وَيۡلٞ","char_type_name":"word","page_number":581,"line_number":2,"text":"وَيۡلٞ","translation":{"text":"ধ্বংস","language_name":"bengali","language_id":20},"transliteration":{"text":"waylun","language_name":"english","language_id":38}},{"id":27092,"position":2,"audio_url":"wbw/077_024_002.mp3","verse_key":"77:24","verse_id":5646,"location":"77:24:2","text_uthmani":"يَوْمَئِذٍۢ","qpc_uthmani_hafs":"يَوۡمَئِذٖ","char_type_name":"word","page_number":581,"line_number":2,"text":"يَوۡمَئِذٖ","translation":{"text":"সেদিন","language_name":"bengali","language_id":20},"transliteration":{"text":"yawma-idhin","language_name":"english","language_id":38}},{"id":27093,"position":3,"audio_url":"wbw/077_024_003.mp3","verse_key":"77:24","verse_id":5646,"location":"77:24:3","text_uthmani":"لِّلْمُكَذِّبِينَ","qpc_uthmani_hafs":"لِّلۡمُكَذِّبِينَ","char_type_name":"word","page_number":581,"line_number":2,"text":"لِّلۡمُكَذِّبِينَ","translation":{"text":"মিথ্যারোপকারীদের জন্য","language_name":"bengali","language_id":20},"transliteration":{"text":"lil'mukadhibīna","language_name":"english","language_id":38}},{"id":27094,"position":4,"audio_url":null,"verse_key":"77:24","verse_id":5646,"location":"77:24:4","text_uthmani":"٢٤","qpc_uthmani_hafs":"٢٤","char_type_name":"end","page_number":581,"line_number":2,"text":"٢٤","translation":{"text":"(২৪)","language_name":"bengali","language_id":20},"transliteration":{"text":null,"language_name":"english","language_id":38}}]},{"id":5647,"verse_number":25,"verse_key":"77:25","hizb_number":58,"rub_el_hizb_number":232,"ruku_number":518,"manzil_number":7,"sajdah_number":null,"page_number":581,"juz_number":29,"words":[{"id":28174,"position":1,"audio_url":"wbw/077_025_001.mp3","verse_key":"77:25","verse_id":5647,"location":"77:25:1","text_uthmani":"أَلَمْ","qpc_uthmani_hafs":"أَلَمۡ","char_type_name":"word","page_number":581,"line_number":3,"text":"أَلَمۡ","translation":{"text":"নাই কি","language_name":"bengali","language_id":20},"transliteration":{"text":"alam","language_name":"english","language_id":38}},{"id":28175,"position":2,"audio_url":"wbw/077_025_002.mp3","verse_key":"77:25","verse_id":5647,"location":"77:25:2","text_uthmani":"نَجْعَلِ","qpc_uthmani_hafs":"نَجۡعَلِ","char_type_name":"word","page_number":581,"line_number":3,"text":"نَجۡعَلِ","translation":{"text":"সৃষ্টি করি আমরা","language_name":"bengali","language_id":20},"transliteration":{"text":"najʿali","language_name":"english","language_id":38}},{"id":28176,"position":3,"audio_url":"wbw/077_025_003.mp3","verse_key":"77:25","verse_id":5647,"location":"77:25:3","text_uthmani":"ٱلْأَرْضَ","qpc_uthmani_hafs":"ٱلۡأَرۡضَ","char_type_name":"word","page_number":581,"line_number":3,"text":"ٱلۡأَرۡضَ","translation":{"text":"পৃথিবী কে","language_name":"bengali","language_id":20},"transliteration":{"text":"l-arḍa","language_name":"english","language_id":38}},{"id":28177,"position":4,"audio_url":"wbw/077_025_004.mp3","verse_key":"77:25","verse_id":5647,"location":"77:25:4","text_uthmani":"كِفَاتًا","qpc_uthmani_hafs":"كِفَاتًا","char_type_name":"word","page_number":581,"line_number":3,"text":"كِفَاتًا","translation":{"text":"ধারণকারী রূপে","language_name":"bengali","language_id":20},"transliteration":{"text":"kifātan","language_name":"english","language_id":38}},{"id":28178,"position":5,"audio_url":null,"verse_key":"77:25","verse_id":5647,"location":"77:25:5","text_uthmani":"٢٥","qpc_uthmani_hafs":"٢٥","char_type_name":"end","page_number":581,"line_number":3,"text":"٢٥","translation":{"text":"(২৫)","language_name":"bengali","language_id":20},"transliteration":{"text":null,"language_name":"english","language_id":38}}]},{"id":5648,"verse_number":26,"verse_key":"77:26","hizb_number":58,"rub_el_hizb_number":232,"ruku_number":518,"manzil_number":7,"sajdah_number":null,"page_number":581,"juz_number":29,"words":[{"id":28882,"position":1,"audio_url":"wbw/077_026_001.mp3","verse_key":"77:26","verse_id":5648,"location":"77:26:1","text_uthmani":"أَحْيَآءًۭ","qpc_uthmani_hafs":"أَحۡيَآءٗ","char_type_name":"word","page_number":581,"line_number":3,"text":"أَحۡيَآءٗ","translation":{"text":"জীবিিতদের","language_name":"bengali","language_id":20},"transliteration":{"text":"aḥyāan","language_name":"english","language_id":38}},{"id":28883,"position":2,"audio_url":"wbw/077_026_002.mp3","verse_key":"77:26","verse_id":5648,"location":"77:26:2","text_uthmani":"وَأَمْوَٰتًۭا","qpc_uthmani_hafs":"وَأَمۡوَٰتٗا","char_type_name":"word","page_number":581,"line_number":3,"text":"وَأَمۡوَٰتٗا","translation":{"text":"ও মৃতদের","language_name":"bengali","language_id":20},"transliteration":{"text":"wa-amwātan","language_name":"english","language_id":38}},{"id":28884,"position":3,"audio_url":null,"verse_key":"77:26","verse_id":5648,"location":"77:26:3","text_uthmani":"٢٦","qpc_uthmani_hafs":"٢٦","char_type_name":"end","page_number":581,"line_number":3,"text":"٢٦","translation":{"text":"(২৬)","language_name":"bengali","language_id":20},"transliteration":{"text":null,"language_name":"english","language_id":38}}]},{"id":5649,"verse_number":27,"verse_key":"77:27","hizb_number":58,"rub_el_hizb_number":232,"ruku_number":518,"manzil_number":7,"sajdah_number":null,"page_number":581,"juz_number":29,"words":[{"id":29898,"position":1,"audio_url":"wbw/077_027_001.mp3","verse_key":"77:27","verse_id":5649,"location":"77:27:1","text_uthmani":"وَجَعَلْنَا","qpc_uthmani_hafs":"وَجَعَلۡنَا","char_type_name":"word","page_number":581,"line_number":3,"text":"وَجَعَلۡنَا","translation":{"text":"এবং আমরা বাানিয়েছি","language_name":"bengali","language_id":20},"transliteration":{"text":"wajaʿalnā","language_name":"english","language_id":38}},{"id":29899,"position":2,"audio_url":"wbw/077_027_002.mp3","verse_key":"77:27","verse_id":5649,"location":"77:27:2","text_uthmani":"فِيهَا","qpc_uthmani_hafs":"فِيهَا","char_type_name":"word","page_number":581,"line_number":3,"text":"فِيهَا","translation":{"text":"তার মধ্যে","language_name":"bengali","language_id":20},"transliteration":{"text":"fīhā","language_name":"english","language_id":38}},{"id":29900,"position":3,"audio_url":"wbw/077_027_003.mp3","verse_key":"77:27","verse_id":5649,"location":"77:27:3","text_uthmani":"رَوَٰسِىَ","qpc_uthmani_hafs":"رَوَٰسِيَ","char_type_name":"word","page_number":581,"line_number":3,"text":"رَوَٰسِيَ","translation":{"text":"পর্বতমালা","language_name":"bengali","language_id":20},"transliteration":{"text":"rawāsiya","language_name":"english","language_id":38}},{"id":29901,"position":4,"audio_url":"wbw/077_027_004.mp3","verse_key":"77:27","verse_id":5649,"location":"77:27:4","text_uthmani":"شَـٰمِخَـٰتٍۢ","qpc_uthmani_hafs":"شَٰمِخَٰتٖ","char_type_name":"word","page_number":581,"line_number":4,"text":"شَٰمِخَٰتٖ","translation":{"text":"সুদৃৃঢ় উচ্চ","language_name":"bengali","language_id":20},"transliteration":{"text":"shāmikhātin","language_name":"english","language_id":38}},{"id":29902,"position":5,"audio_url":"wbw/077_027_005.mp3","verse_key":"77:27","verse_id":5649,"location":"77:27:5","text_uthmani":"وَأَسْقَيْنَـٰكُم","qpc_uthmani_hafs":"وَأَسۡقَيۡنَٰكُم","char_type_name":"word","page_number":581,"line_number":4,"text":"وَأَسۡقَيۡنَٰكُم","translation":{"text":"ও তোমাদেরকে পান করিয়েছি","language_name":"bengali","language_id":20},"transliteration":{"text":"wa-asqaynākum","language_name":"english","language_id":38}},{"id":29903,"position":6,"audio_url":"wbw/077_027_006.mp3","verse_key":"77:27","verse_id":5649,"location":"77:27:6","text_uthmani":"مَّآءًۭ","qpc_uthmani_hafs":"مَّآءٗ","char_type_name":"word","page_number":581,"line_number":4,"text":"مَّآءٗ","translation":{"text":"পানি","language_name":"bengali","language_id":20},"transliteration":{"text":"māan","language_name":"english","language_id":38}},{"id":29904,"position":7,"audio_url":"wbw/077_027_007.mp3","verse_key":"77:27","verse_id":5649,"location":"77:27:7","text_uthmani":"فُرَاتًۭا","qpc_uthmani_hafs":"فُرَاتٗا","char_type_name":"word","page_number":581,"line_number":4,"text":"فُرَاتٗا","translation":{"text":"সুমিষ্ট","language_name":"bengali","language_id":20},"transliteration":{"text":"furātan","language_name":"english","language_id":38}},{"id":29905,"position":8,"audio_url":null,"verse_key":"77:27","verse_id":5649,"location":"77:27:8","text_uthmani":"٢٧","qpc_uthmani_hafs":"٢٧","char_type_name":"end","page_number":581,"line_number":4,"text":"٢٧","translation":{"text":"(২৭)","language_name":"bengali","language_id":20},"transliteration":{"text":null,"language_name":"english","language_id":38}}]},{"id":5650,"verse_number":28,"verse_key":"77:28","hizb_number":58,"rub_el_hizb_number":232,"ruku_number":518,"manzil_number":7,"sajdah_number":null,"page_number":581,"juz_number":29,"words":[{"id":31007,"position":1,"audio_url":"wbw/077_028_001.mp3","verse_key":"77:28","verse_id":5650,"location":"77:28:1","text_uthmani":"وَيْلٌۭ","qpc_uthmani_hafs":"وَيۡلٞ","char_type_name":"word","page_number":581,"line_number":4,"text":"وَيۡلٞ","translation":{"text":"ধ্বংস","language_name":"bengali","language_id":20},"transliteration":{"text":"waylun","language_name":"english","language_id":38}},{"id":31008,"position":2,"audio_url":"wbw/077_028_002.mp3","verse_key":"77:28","verse_id":5650,"location":"77:28:2","text_uthmani":"يَوْمَئِذٍۢ","qpc_uthmani_hafs":"يَوۡمَئِذٖ","char_type_name":"word","page_number":581,"line_number":4,"text":"يَوۡمَئِذٖ","translation":{"text":"সেদিন","language_name":"bengali","language_id":20},"transliteration":{"text":"yawma-idhin","language_name":"english","language_id":38}},{"id":31009,"position":3,"audio_url":"wbw/077_028_003.mp3","verse_key":"77:28","verse_id":5650,"location":"77:28:3","text_uthmani":"لِّلْمُكَذِّبِينَ","qpc_uthmani_hafs":"لِّلۡمُكَذِّبِينَ","char_type_name":"word","page_number":581,"line_number":4,"text":"لِّلۡمُكَذِّبِينَ","translation":{"text":"মিথ্যারোপকারীদের জন্য","language_name":"bengali","language_id":20},"transliteration":{"text":"lil'mukadhibīna","language_name":"english","language_id":38}},{"id":31010,"position":4,"audio_url":null,"verse_key":"77:28","verse_id":5650,"location":"77:28:4","text_uthmani":"٢٨","qpc_uthmani_hafs":"٢٨","char_type_name":"end","page_number":581,"line_number":4,"text":"٢٨","translation":{"text":"(২৮)","language_name":"bengali","language_id":20},"transliteration":{"text":null,"language_name":"english","language_id":38}}]},{"id":5651,"verse_number":29,"verse_key":"77:29","hizb_number":58,"rub_el_hizb_number":232,"ruku_number":518,"manzil_number":7,"sajdah_number":null,"page_number":581,"juz_number":29,"words":[{"id":31975,"position":1,"audio_url":"wbw/077_029_001.mp3","verse_key":"77:29","verse_id":5651,"location":"77:29:1","text_uthmani":"ٱنطَلِقُوٓا۟","qpc_uthmani_hafs":"ٱنطَلِقُوٓاْ","char_type_name":"word","page_number":581,"line_number":5,"text":"ٱنطَلِقُوٓاْ","translation":{"text":"\"তোমরাা চলো","language_name":"bengali","language_id":20},"transliteration":{"text":"inṭaliqū","language_name":"english","language_id":38}},{"id":31976,"position":2,"audio_url":"wbw/077_029_002.mp3","verse_key":"77:29","verse_id":5651,"location":"77:29:2","text_uthmani":"إِلَىٰ","qpc_uthmani_hafs":"إِلَىٰ","char_type_name":"word","page_number":581,"line_number":5,"text":"إِلَىٰ","translation":{"text":"(তার) দিকে","language_name":"bengali","language_id":20},"transliteration":{"text":"ilā","language_name":"english","language_id":38}},{"id":31977,"position":3,"audio_url":"wbw/077_029_003.mp3","verse_key":"77:29","verse_id":5651,"location":"77:29:3","text_uthmani":"مَا","qpc_uthmani_hafs":"مَا","char_type_name":"word","page_number":581,"line_number":5,"text":"مَا","translation":{"text":"যা","language_name":"bengali","language_id":20},"transliteration":{"text":"mā","language_name":"english","language_id":38}},{"id":31978,"position":4,"audio_url":"wbw/077_029_004.mp3","verse_key":"77:29","verse_id":5651,"location":"77:29:4","text_uthmani":"كُنتُم","qpc_uthmani_hafs":"كُنتُم","char_type_name":"word","page_number":581,"line_number":5,"text":"كُنتُم","translation":{"text":"তোমরা","language_name":"bengali","language_id":20},"transliteration":{"text":"kuntum","language_name":"english","language_id":38}},{"id":31979,"position":5,"audio_url":"wbw/077_029_005.mp3","verse_key":"77:29","verse_id":5651,"location":"77:29:5","text_uthmani":"بِهِۦ","qpc_uthmani_hafs":"بِهِۦ","char_type_name":"word","page_number":581,"line_number":5,"text":"بِهِۦ","translation":{"text":"সে সম্পর্কে","language_name":"bengali","language_id":20},"transliteration":{"text":"bihi","language_name":"english","language_id":38}},{"id":31980,"position":6,"audio_url":"wbw/077_029_006.mp3","verse_key":"77:29","verse_id":5651,"location":"77:29:6","text_uthmani":"تُكَذِّبُونَ","qpc_uthmani_hafs":"تُكَذِّبُونَ","char_type_name":"word","page_number":581,"line_number":5,"text":"تُكَذِّبُونَ","translation":{"text":"মিথ্যারোপ করতে","language_name":"bengali","language_id":20},"transliteration":{"text":"tukadhibūna","language_name":"english","language_id":38}},{"id":31981,"position":7,"audio_url":null,"verse_key":"77:29","verse_id":5651,"location":"77:29:7","text_uthmani":"٢٩","qpc_uthmani_hafs":"٢٩","char_type_name":"end","page_number":581,"line_number":5,"text":"٢٩","translation":{"text":"(২৯)","language_name":"bengali","language_id":20},"transliteration":{"text":null,"language_name":"english","language_id":38}}]},{"id":5652,"verse_number":30,"verse_key":"77:30","hizb_number":58,"rub_el_hizb_number":232,"ruku_number":518,"manzil_number":7,"sajdah_number":null,"page_number":581,"juz_number":29,"words":[{"id":32815,"position":1,"audio_url":"wbw/077_030_001.mp3","verse_key":"77:30","verse_id":5652,"location":"77:30:1","text_uthmani":"ٱنطَلِقُوٓا۟","qpc_uthmani_hafs":"ٱنطَلِقُوٓاْ","char_type_name":"word","page_number":581,"line_number":5,"text":"ٱنطَلِقُوٓاْ","translation":{"text":"তোমরা চলো","language_name":"bengali","language_id":20},"transliteration":{"text":"inṭaliqū","language_name":"english","language_id":38}},{"id":32816,"position":2,"audio_url":"wbw/077_030_002.mp3","verse_key":"77:30","verse_id":5652,"location":"77:30:2","text_uthmani":"إِلَىٰ","qpc_uthmani_hafs":"إِلَىٰ","char_type_name":"word","page_number":581,"line_number":5,"text":"إِلَىٰ","translation":{"text":"দিকে","language_name":"bengali","language_id":20},"transliteration":{"text":"ilā","language_name":"english","language_id":38}},{"id":32817,"position":3,"audio_url":"wbw/077_030_003.mp3","verse_key":"77:30","verse_id":5652,"location":"77:30:3","text_uthmani":"ظِلٍّۢ","qpc_uthmani_hafs":"ظِلّٖ","char_type_name":"word","page_number":581,"line_number":5,"text":"ظِلّٖ","translation":{"text":"ছায়ার (সেই)","language_name":"bengali","language_id":20},"transliteration":{"text":"ẓillin","language_name":"english","language_id":38}},{"id":32818,"position":4,"audio_url":"wbw/077_030_004.mp3","verse_key":"77:30","verse_id":5652,"location":"77:30:4","text_uthmani":"ذِى","qpc_uthmani_hafs":"ذِي","char_type_name":"word","page_number":581,"line_number":5,"text":"ذِي","translation":{"text":"বিশিষ্ট","language_name":"bengali","language_id":20},"transliteration":{"text":"dhī","language_name":"english","language_id":38}},{"id":32819,"position":5,"audio_url":"wbw/077_030_005.mp3","verse_key":"77:30","verse_id":5652,"location":"77:30:5","text_uthmani":"ثَلَـٰثِ","qpc_uthmani_hafs":"ثَلَٰثِ","char_type_name":"word","page_number":581,"line_number":5,"text":"ثَلَٰثِ","translation":{"text":"তিন","language_name":"bengali","language_id":20},"transliteration":{"text":"thalāthi","language_name":"english","language_id":38}},{"id":32820,"position":6,"audio_url":"wbw/077_030_006.mp3","verse_key":"77:30","verse_id":5652,"location":"77:30:6","text_uthmani":"شُعَبٍۢ","qpc_uthmani_hafs":"شُعَبٖ","char_type_name":"word","page_number":581,"line_number":6,"text":"شُعَبٖ","translation":{"text":"শাখা","language_name":"bengali","language_id":20},"transliteration":{"text":"shuʿabin","language_name":"english","language_id":38}},{"id":32821,"position":7,"audio_url":null,"verse_key":"77:30","verse_id":5652,"location":"77:30:7","text_uthmani":"٣٠","qpc_uthmani_hafs":"٣٠","char_type_name":"end","page_number":581,"line_number":6,"text":"٣٠","translation":{"text":"(৩০)","language_name":"bengali","language_id":20},"transliteration":{"text":null,"language_name":"english","language_id":38}}]}],"pagination":{"per_page":10,"current_page":3,"next_page":4,"total_pages":5,"total_records":50}}
