{"verses":[{"id":5663,"verse_number":41,"verse_key":"77:41","hizb_number":58,"rub_el_hizb_number":232,"ruku_number":519,"manzil_number":7,"sajdah_number":null,"page_number":581,"juz_number":29,"words":[{"id":42161,"position":1,"audio_url":"wbw/077_041_001.mp3","verse_key":"77:41","verse_id":5663,"location":"77:41:1","text_uthmani":"إِنَّ","qpc_uthmani_hafs":"إِنَّ","char_type_name":"word","page_number":581,"line_number":10,"text":"إِنَّ","translation":{"text":"নিশ্চয়ই","language_name":"bengali","language_id":20},"transliteration":{"text":"inna","language_name":"english","language_id":38}},{"id":42162,"position":2,"audio_url":"wbw/077_041_002.mp3","verse_key":"77:41","verse_id":5663,"location":"77:41:2","text_uthmani":"ٱلْمُتَّقِينَ","qpc_uthmani_hafs":"ٱلۡمُتَّقِينَ","char_type_name":"word","page_number":581,"line_number":10,"text":"ٱلۡمُتَّقِينَ","translation":{"text":"মুত্তাকীরা","language_name":"bengali","language_id":20},"transliteration":{"text":"l-mutaqīna","language_name":"english","language_id":38}},{"id":42163,"position":3,"audio_url":"wbw/077_041_003.mp3","verse_key":"77:41","verse_id":5663,"location":"77:41:3","text_uthmani":"فِى","qpc_uthmani_hafs":"فِي","char_type_name":"word","page_number":581,"line_number":11,"text":"فِي","translation":{"text":"মধ্যে (হবে)","language_name":"bengali","language_id":20},"transliteration":{"text":"fī","language_name":"english","language_id":38}},{"id":42164,"position":4,"audio_url":"wbw/077_041_004.mp3","verse_key":"77:41","verse_id":5663,"location":"77:41:4","text_uthmani":"ظِلَـٰلٍۢ","qpc_uthmani_hafs":"ظِلَٰلٖ","char_type_name":"word","page_number":581,"line_number":11,"text":"ظِلَٰلٖ","translation":{"text":"ছায়ার","language_name":"bengali","language_id":20},"transliteration":{"text":"ẓilālin","language_name":"english","language_id":38}},{"id":42165,"position":5,"audio_url":"wbw/077_041_005.mp3","verse_key":"77:41","verse_id":5663,"location":"77:41:5","text_uthmani":"وَعُيُونٍۢ","qpc_uthmani_hafs":"وَعُيُونٖ","char_type_name":"word","page_number":581,"line_number":11,"text":"وَعُيُونٖ","translation":{"text":"ও প্রস্রবণে","language_name":"bengali","language_id":20},"transliteration":{"text":"waʿuyūnin","language_name":"english","language_id":38}},{"id":42166,"position":6,"audio_url":null,"verse_key":"77:41","verse_id":5663,"location":"77:41:6","text_uthmani":"٤١","qpc_uthmani_hafs":"٤١","char_type_name":"end","page_number":581,"line_number":11,"text":"٤١","translation":{"text":"(৪১)","language_name":"bengali","language_id":20},"transliteration":{"text":null,"language_name":"english","language_id":38}}]},{"id":5664,"verse_number":42,"verse_key":"77:42","hizb_number":58,"rub_el_hizb_number":232,"ruku_number":519,"manzil_number":7,"sajdah_number":null,"page_number":581,"juz_number":29,"words":[{"id":43004,"position":1,"audio_url":"wbw/077_042_001.mp3","verse_key":"77:42","verse_id":5664,"location":"77:42:1","text_uthmani":"وَفَوَٰكِهَ","qpc_uthmani_hafs":"وَفَوَٰكِهَ","char_type_name":"word","page_number":581,"line_number":11,"text":"وَفَوَٰكِهَ","translation":{"text":"এবং ফলমূল (পাবে)","language_name":"bengali","language_id":20},"transliteration":{"text":"wafawākiha","language_name":"english","language_id":38}},{"id":43005,"position":2,"audio_url":"wbw/077_042_002.mp3","verse_key":"77:42","verse_id":5664,"location":"77:42:2","text_uthmani":"مِمَّا","qpc_uthmani_hafs":"مِمَّا","char_type_name":"word","page_number":581,"line_number":11,"text":"مِمَّا","translation":{"text":"যা (তা) থেকে","language_name":"bengali","language_id":20},"transliteration":{"text":"mimmā","language_name":"english","language_id":38}},{"id":43006,"position":3,"audio_url":"wbw/077_042_003.mp3","verse_key":"77:42","verse_id":5664,"location":"77:42:3","text_uthmani":"يَشْتَهُونَ","qpc_uthmani_hafs":"يَشۡتَهُونَ","char_type_name":"word","page_number":581,"line_number":11,"text":"يَشۡتَهُونَ","translation":{"text":"তারা চাইবে","language_name":"bengali","language_id":20},"transliteration":{"text":"yashtahūna","language_name":"english","language_id":38}},{"id":43007,"position":4,"audio_url":null,"verse_key":"77:42","verse_id":5664,"location":"77:42:4","text_uthmani":"٤٢","qpc_uthmani_hafs":"٤٢","char_type_name":"end","page_number":581,"line_number":11,"text":"٤٢","translation":{"text":"(৪২)","language_name":"bengali","language_id":20},"transliteration":{"text":null,"language_name":"english","language_id":38}}]},{"id":5665,"verse_number":43,"verse_key":"77:43","hizb_number":58,"rub_el_hizb_number":232,"ruku_number":519,"manzil_number":7,"sajdah_number":null,"page_number":581,"juz_number":29,"words":[{"id":43967,"position":1,"audio_url":"wbw/077_043_001.mp3","verse_key":"77:43","verse_id":5665,"location":"77:43:1","text_uthmani":"كُلُوا۟","qpc_uthmani_hafs":"كُلُواْ","char_type_name":"word","page_number":581,"line_number":11,"text":"كُلُواْ","translation":{"text":"\"তোমরা খাও","language_name":"bengali","language_id":20},"transliteration":{"text":"kulū","language_name":"english","language_id":38}},{"id":43968,"position":2,"audio_url":"wbw/077_043_002.mp3","verse_key":"77:43","verse_id":5665,"location":"77:43:2","text_uthmani":"وَٱشْرَبُوا۟","qpc_uthmani_hafs":"وَٱشۡرَبُواْ","char_type_name":"word","page_number":581,"line_number":11,"text":"وَٱشۡرَبُواْ","translation":{"text":"ও পান করো","language_name":"bengali","language_id":20},"transliteration":{"text":"wa-ish'rabū","language_name":"english","language_id":38}},{"id":43969,"position":3,"audio_url":"wbw/077_043_003.mp3","verse_key":"77:43","verse_id":5665,"location":"77:43:3","text_uthmani":"هَنِيٓـًٔۢا","qpc_uthmani_hafs":"هَنِيٓـَٔۢا","char_type_name":"word","page_number":581,"line_number":11,"text":"هَنِيٓـَٔۢا","translation":{"text":"স্বাদ নিয়ে","language_name":"bengali","language_id":20},"transliteration":{"text":"hanīan","language_name":"english","language_id":38}},{"id":43970,"position":4,"audio_url":"wbw/077_043_004.mp3","verse_key":"77:43","verse_id":5665,"location":"77:43:4","text_uthmani":"بِمَا","qpc_uthmani_hafs":"بِمَا","char_type_name":"word","page_number":581,"line_number":12,"text":"بِمَا","translation":{"text":"যা বিনিময়ে","language_name":"bengali","language_id":20},"transliteration":{"text":"bimā","language_name":"english","language_id":38}},{"id":43971,"position":5,"audio_url":"wbw/077_043_005.mp3","verse_key":"77:43","verse_id":5665,"location":"77:43:5","text_uthmani":"كُنتُمْ","qpc_uthmani_hafs":"كُنتُمۡ","char_type_name":"word","page_number":581,"line_number":12,"text":"كُنتُمۡ","translation":{"text":"তোমরা","language_name":"bengali","language_id":20},"transliteration":{"text":"kuntum","language_name":"english","language_id":38}},{"id":43972,"position":6,"audio_url":"wbw/077_043_006.mp3","verse_key":"77:43","verse_id":5665,"location":"77:43:6","text_uthmani":"تَعْمَلُونَ","qpc_uthmani_hafs":"تَعۡمَلُونَ","char_type_name":"word","page_number":581,"line_number":12,"text":"تَعۡمَلُونَ","translation":{"text":"(তোমরা) করতে\"","language_name":"bengali","language_id":20},"transliteration":{"text":"taʿmalūna","language_name":"english","language_id":38}},{"id":43973,"position":7,"audio_url":null,"verse_key":"77:43","verse_id":5665,"location":"77:43:7","text_uthmani":"٤٣","qpc_uthmani_hafs":"٤٣","char_type_name":"end","page_number":581,"line_number":12,"text":"٤٣","translation":{"text":"(৪৩)","language_name":"bengali","language_id":20},"transliteration":{"text":null,"language_name":"english","language_id":38}}]},{"id":5666,"verse_number":44,"verse_key":"77:44","hizb_number":58,"rub_el_hizb_number":232,"ruku_number":519,"manzil_number":7,"sajdah_number":null,"page_number":581,"juz_number":29,"words":[{"id":44580,"position":1,"audio_url":"wbw/077_044_001.mp3","verse_key":"77:44","verse_id":5666,"location":"77:44:1","text_uthmani":"إِنَّا","qpc_uthmani_hafs":"إِنَّا","char_type_name":"word","page_number":581,"line_number":12,"text":"إِنَّا","translation":{"text":"আমরা নিশ্চয়","language_name":"bengali","language_id":20},"transliteration":{"text":"innā","language_name":"english","language_id":38}},{"id":44581,"position":2,"audio_url":"wbw/077_044_002.mp3","verse_key":"77:44","verse_id":5666,"location":"77:44:2","text_uthmani":"كَذَٰلِكَ","qpc_uthmani_hafs":"كَذَٰلِكَ","char_type_name":"word","page_number":581,"line_number":12,"text":"كَذَٰلِكَ","translation":{"text":"এরূপে","language_name":"bengali","language_id":20},"transliteration":{"text":"kadhālika","language_name":"english","language_id":38}},{"id":44582,"position":3,"audio_url":"wbw/077_044_003.mp3","verse_key":"77:44","verse_id":5666,"location":"77:44:3","text_uthmani":"نَجْزِى","qpc_uthmani_hafs":"نَجۡزِي","char_type_name":"word","page_number":581,"line_number":12,"text":"نَجۡزِي","translation":{"text":"প্রতিফল দেই আমরা","language_name":"bengali","language_id":20},"transliteration":{"text":"najzī","language_name":"english","language_id":38}},{"id":44583,"position":4,"audio_url":"wbw/077_044_004.mp3","verse_key":"77:44","verse_id":5666,"location":"77:44:4","text_uthmani":"ٱلْمُحْسِنِينَ","qpc_uthmani_hafs":"ٱلۡمُحۡسِنِينَ","char_type_name":"word","page_number":581,"line_number":12,"text":"ٱلۡمُحۡسِنِينَ","translation":{"text":"নেকলোকদের","language_name":"bengali","language_id":20},"transliteration":{"text":"l-muḥ'sinīna","language_name":"english","language_id":38}},{"id":44584,"position":5,"audio_url":null,"verse_key":"77:44","verse_id":5666,"location":"77:44:5","text_uthmani":"٤٤","qpc_uthmani_hafs":"٤٤","char_type_name":"end","page_number":581,"line_number":12,"text":"٤٤","translation":{"text":"(৪৪)","language_name":"bengali","language_id":20},"transliteration":{"text":null,"language_name":"english","language_id":38}}]},{"id":5667,"verse_number":45,"verse_key":"77:45","hizb_number":58,"rub_el_hizb_number":232,"ruku_number":519,"manzil_number":7,"sajdah_number":null,"page_number":581,"juz_number":29,"words":[{"id":45191,"position":1,"audio_url":"wbw/077_045_001.mp3","verse_key":"77:45","verse_id":5667,"location":"77:45:1","text_uthmani":"وَيْلٌۭ","qpc_uthmani_hafs":"وَيۡلٞ","char_type_name":"word","page_number":581,"line_number":12,"text":"وَيۡلٞ","translation":{"text":"ধ্বংস","language_name":"bengali","language_id":20},"transliteration":{"text":"waylun","language_name":"english","language_id":38}},{"id":45192,"position":2,"audio_url":"wbw/077_045_002.mp3","verse_key":"77:45","verse_id":5667,"location":"77:45:2","text_uthmani":"يَوْمَئِذٍۢ","qpc_uthmani_hafs":"يَوۡمَئِذٖ","char_type_name":"word","page_number":581,"line_number":13,"text":"يَوۡمَئِذٖ","translation":{"text":"সেদিন","language_name":"bengali","language_id":20},"transliteration":{"text":"yawma-idhin","language_name":"english","language_id":38}},{"id":45193,"position":3,"audio_url":"wbw/077_045_003.mp3","verse_key":"77:45","verse_id":5667,"location":"77:45:3","text_uthmani":"لِّلْمُكَذِّبِينَ","qpc_uthmani_hafs":"لِّلۡمُكَذِّبِينَ","char_type_name":"word","page_number":581,"line_number":13,"text":"لِّلۡمُكَذِّبِينَ","translation":{"text":"মিথ্যারপকারিদের জন্যে","language_name":"bengali","language_id":20},"transliteration":{"text":"lil'mukadhibīna","language_name":"english","language_id":38}},{"id":45194,"position":4,"audio_url":null,"verse_key":"77:45","verse_id":5667,"location":"77:45:4","text_uthmani":"٤٥","qpc_uthmani_hafs":"٤٥","char_type_name":"end","page_number":581,"line_number":13,"text":"٤٥","translation":{"text":"(৪৫)","language_name":"bengali","language_id":20},"transliteration":{"text":null,"language_name":"english","language_id":38}}]},{"id":5668,"verse_number":46,"verse_key":"77:46","hizb_number":58,"rub_el_hizb_number":232,"ruku_number":519,"manzil_number":7,"sajdah_number":null,"page_number":581,"juz_number":29,"words":[{"id":45883,"position":1,"audio_url":"wbw/077_046_001.mp3","verse_key":"77:46","verse_id":5668,"location":"77:46:1","text_uthmani":"كُلُوا۟","qpc_uthmani_hafs":"كُلُواْ","char_type_name":"word","page_number":581,"line_number":13,"text":"كُلُواْ","translation":{"text":"তোমরা খাও","language_name":"bengali","language_id":20},"transliteration":{"text":"kulū","language_name":"english","language_id":38}},{"id":45884,"position":2,"audio_url":"wbw/077_046_002.mp3","verse_key":"77:46","verse_id":5668,"location":"77:46:2","text_uthmani":"وَتَمَتَّعُوا۟","qpc_uthmani_hafs":"وَتَمَتَّعُواْ","char_type_name":"word","page_number":581,"line_number":13,"text":"وَتَمَتَّعُواْ","translation":{"text":"ও আস্বাদন করো","language_name":"bengali","language_id":20},"transliteration":{"text":"watamattaʿū","language_name":"english","language_id":38}},{"id":45885,"position":3,"audio_url":"wbw/077_046_003.mp3","verse_key":"77:46","verse_id":5668,"location":"77:46:3","text_uthmani":"قَلِيلًا","qpc_uthmani_hafs":"قَلِيلًا","char_type_name":"word","page_number":581,"line_number":13,"text":"قَلِيلًا","translation":{"text":"কিছুুকাল","language_name":"bengali","language_id":20},"transliteration":{"text":"qalīlan","language_name":"english","language_id":38}},{"id":45886,"position":4,"audio_url":"wbw/077_046_004.mp3","verse_key":"77:46","verse_id":5668,"location":"77:46:4","text_uthmani":"إِنَّكُم","qpc_uthmani_hafs":"إِنَّكُم","char_type_name":"word","page_number":581,"line_number":13,"text":"إِنَّكُم","translation":{"text":"তোমরা প্রকৃত পক্ষে","language_name":"bengali","language_id":20},"transliteration":{"text":"innakum","language_name":"english","language_id":38}},{"id":45887,"position":5,"audio_url":"wbw/077_046_005.mp3","verse_key":"77:46","verse_id":5668,"location":"77:46:5","text_uthmani":"مُّجْرِمُونَ","qpc_uthmani_hafs":"مُّجۡرِمُونَ","char_type_name":"word","page_number":581,"line_number":13,"text":"مُّجۡرِمُونَ","translation":{"text":"অপরাধী\"","language_name":"bengali","language_id":20},"transliteration":{"text":"muj'rimūna","language_name":"english","language_id":38}},{"id":45888,"position":6,"audio_url":null,"verse_key":"77:46","verse_id":5668,"location":"77:46:6","text_uthmani":"٤٦","qpc_uthmani_hafs":"٤٦","char_type_name":"end","page_number":581,"line_number":13,"text":"٤٦","translation":{"text":"(৪৬)","language_name":"bengali","language_id":20},"transliteration":{"text":null,"language_name":"english","language_id":38}}]},{"id":5669,"verse_number":47,"verse_key":"77:47","hizb_number":58,"rub_el_hizb_number":232,"ruku_number":519,"manzil_number":7,"sajdah_number":null,"page_number":581,"juz_number":29,"words":[{"id":46761,"position":1,"audio_url":"wbw/077_047_001.mp3","verse_key":"77:47","verse_id":5669,"location":"77:47:1","text_uthmani":"وَيْلٌۭ","qpc_uthmani_hafs":"وَيۡلٞ","char_type_name":"word","page_number":581,"line_number":13,"text":"وَيۡلٞ","translation":{"text":"ধ্বংস","language_name":"bengali","language_id":20},"transliteration":{"text":"waylun","language_name":"english","language_id":38}},{"id":46762,"position":2,"audio_url":"wbw/077_047_002.mp3","verse_key":"77:47","verse_id":5669,"location":"77:47:2","text_uthmani":"يَوْمَئِذٍۢ","qpc_uthmani_hafs":"يَوۡمَئِذٖ","char_type_name":"word","page_number":581,"line_number":14,"text":"يَوۡمَئِذٖ","translation":{"text":"সেদিন","language_name":"bengali","language_id":20},"transliteration":{"text":"yawma-idhin","language_name":"english","language_id":38}},{"id":46763,"position":3,"audio_url":"wbw/077_047_003.mp3","verse_key":"77:47","verse_id":5669,"location":"77:47:3","text_uthmani":"لِّلْمُكَذِّبِينَ","qpc_uthmani_hafs":"لِّلۡمُكَذِّبِينَ","char_type_name":"word","page_number":581,"line_number":14,"text":"لِّلۡمُكَذِّبِينَ","translation":{"text":"মিথ্যারপকারিদের জন্যে","language_name":"bengali","language_id":20},"transliteration":{"text":"lil'mukadhibīna","language_name":"english","language_id":38}},{"id":46764,"position":4,"audio_url":null,"verse_key":"77:47","verse_id":5669,"location":"77:47:4","text_uthmani":"٤٧","qpc_uthmani_hafs":"٤٧","char_type_name":"end","page_number":581,"line_number":14,"text":"٤٧","translation":{"text":"(৪৭)","language_name":"bengali","language_id":20},"transliteration":{"text":null,"language_name":"english","language_id":38}}]},{"id":5670,"verse_number":48,"verse_key":"77:48","hizb_number":58,"rub_el_hizb_number":232,"ruku_number":519,"manzil_number":7,"sajdah_number":null,"page_number":581,"juz_number":29,"words":[{"id":47388,"position":1,"audio_url":"wbw/077_048_001.mp3","verse_key":"77:48","verse_id":5670,"location":"77:48:1","text_uthmani":"وَإِذَا","qpc_uthmani_hafs":"وَإِذَا","char_type_name":"word","page_number":581,"line_number":14,"text":"وَإِذَا","translation":{"text":"এবং যখন","language_name":"bengali","language_id":20},"transliteration":{"text":"wa-idhā","language_name":"english","language_id":38}},{"id":47389,"position":2,"audio_url":"wbw/077_048_002.mp3","verse_key":"77:48","verse_id":5670,"location":"77:48:2","text_uthmani":"قِيلَ","qpc_uthmani_hafs":"قِيلَ","char_type_name":"word","page_number":581,"line_number":14,"text":"قِيلَ","translation":{"text":"বলা হয়","language_name":"bengali","language_id":20},"transliteration":{"text":"qīla","language_name":"english","language_id":38}},{"id":47390,"position":3,"audio_url":"wbw/077_048_003.mp3","verse_key":"77:48","verse_id":5670,"location":"77:48:3","text_uthmani":"لَهُمُ","qpc_uthmani_hafs":"لَهُمُ","char_type_name":"word","page_number":581,"line_number":14,"text":"لَهُمُ","translation":{"text":"তাদেরকে","language_name":"bengali","language_id":20},"transliteration":{"text":"lahumu","language_name":"english","language_id":38}},{"id":47391,"position":4,"audio_url":"wbw/077_048_004.mp3","verse_key":"77:48","verse_id":5670,"location":"77:48:4","text_uthmani":"ٱرْكَعُوا۟","qpc_uthmani_hafs":"ٱرۡكَعُواْ","char_type_name":"word","page_number":581,"line_number":14,"text":"ٱرۡكَعُواْ","translation":{"text":"\"তোমরা অবনত হও\"","language_name":"bengali","language_id":20},"transliteration":{"text":"ir'kaʿū","language_name":"english","language_id":38}},{"id":47392,"position":5,"audio_url":"wbw/077_048_005.mp3","verse_key":"77:48","verse_id":5670,"location":"77:48:5","text_uthmani":"لَا","qpc_uthmani_hafs":"لَا","char_type_name":"word","page_number":581,"line_number":14,"text":"لَا","translation":{"text":"না","language_name":"bengali","language_id":20},"transliteration":{"text":"lā","language_name":"english","language_id":38}},{"id":47393,"position":6,"audio_url":"wbw/077_048_006.mp3","verse_key":"77:48","verse_id":5670,"location":"77:48:6","text_uthmani":"يَرْكَعُونَ","qpc_uthmani_hafs":"يَرۡكَعُونَ","char_type_name":"word","page_number":581,"line_number":14,"text":"يَرۡكَعُونَ","translation":{"text":"তারা অবনত হয়","language_name":"bengali","language_id":20},"transliteration":{"text":"yarkaʿūna","language_name":"english","language_id":38}},{"id":47394,"position":7,"audio_url":null,"verse_key":"77:48","verse_id":5670,"location":"77:48:7","text_uthmani":"٤٨","qpc_uthmani_hafs":"٤٨","char_type_name":"end","page_number":581,"line_number":14,"text":"٤٨","translation":{"text":"(৪৮)","language_name":"bengali","language_id":20},"transliteration":{"text":null,"language_name":"english","language_id":38}}]},{"id":5671,"verse_number":49,"verse_key":"77:49","hizb_number":58,"rub_el_hizb_number":232,"ruku_number":519,"manzil_number":7,"sajdah_number":null,"page_number":581,"juz_number":29,"words":[{"id":47817,"position":1,"audio_url":"wbw/077_049_001.mp3","verse_key":"77:49","verse_id":5671,"location":"77:49:1","text_uthmani":"وَيْلٌۭ","qpc_uthmani_hafs":"وَيۡلٞ","char_type_name":"word","page_number":581,"line_number":15,"text":"وَيۡلٞ","translation":{"text":"ধ্বংস","language_name":"bengali","language_id":20},"transliteration":{"text":"waylun","language_name":"english","language_id":38}},{"id":47818,"position":2,"audio_url":"wbw/077_049_002.mp3","verse_key":"77:49","verse_id":5671,"location":"77:49:2","text_uthmani":"يَوْمَئِذٍۢ","qpc_uthmani_hafs":"يَوۡمَئِذٖ","char_type_name":"word","page_number":581,"line_number":15,"text":"يَوۡمَئِذٖ","translation":{"text":"সেদিন","language_name":"bengali","language_id":20},"transliteration":{"text":"yawma-idhin","language_name":"english","language_id":38}},{"id":47819,"position":3,"audio_url":"wbw/077_049_003.mp3","verse_key":"77:49","verse_id":5671,"location":"77:49:3","text_uthmani":"لِّلْمُكَذِّبِينَ","qpc_uthmani_hafs":"لِّلۡمُكَذِّبِينَ","char_type_name":"word","page_number":581,"line_number":15,"text":"لِّلۡمُكَذِّبِينَ","translation":{"text":"মিথ্যারপকারিদের জন্যে","language_name":"bengali","language_id":20},"transliteration":{"text":"lil'mukadhibīna","language_name":"english","language_id":38}},{"id":47820,"position":4,"audio_url":null,"verse_key":"77:49","verse_id":5671,"location":"77:49:4","text_uthmani":"٤٩","qpc_uthmani_hafs":"٤٩","char_type_name":"end","page_number":581,"line_number":15,"text":"٤٩","translation":{"text":"(৪৯)","language_name":"bengali","language_id":20},"transliteration":{"text":null,"language_name":"english","language_id":38}}]},{"id":5672,"verse_number":50,"verse_key":"77:50","hizb_number":58,"rub_el_hizb_number":232,"ruku_number":519,"manzil_number":7,"sajdah_number":null,"page_number":581,"juz_number":29,"words":[{"id":48620,"position":1,"audio_url":"wbw/077_050_001.mp3","verse_key":"77:50","verse_id":5672,"location":"77:50:1","text_uthmani":"فَبِأَىِّ","qpc_uthmani_hafs":"فَبِأَيِّ","char_type_name":"word","page_number":581,"line_number":15,"text":"فَبِأَيِّ","translation":{"text":"আর কোন তাহলে","language_name":"bengali","language_id":20},"transliteration":{"text":"fabi-ayyi","language_name":"english","language_id":38}},{"id":48621,"position":2,"audio_url":"wbw/077_050_002.mp3","verse_key":"77:50","verse_id":5672,"location":"77:50:2","text_uthmani":"حَدِيثٍۭ","qpc_uthmani_hafs":"حَدِيثِۭ","char_type_name":"word","page_number":581,"line_number":15,"text":"حَدِيثِۭ","translation":{"text":"কালাম (থাকতে পারে)","language_name":"bengali","language_id":20},"transliteration":{"text":"ḥadīthin","language_name":"english","language_id":38}},{"id":48622,"position":3,"audio_url":"wbw/077_050_003.mp3","verse_key":"77:50","verse_id":5672,"location":"77:50:3","text_uthmani":"بَعْدَهُۥ","qpc_uthmani_hafs":"بَعۡدَهُۥ","char_type_name":"word","page_number":581,"line_number":15,"text":"بَعۡدَهُۥ","translation":{"text":"তার পর (কুরআনের)","language_name":"bengali","language_id":20},"transliteration":{"text":"baʿdahu","language_name":"english","language_id":38}},{"id":48623,"position":4,"audio_url":"wbw/077_050_004.mp3","verse_key":"77:50","verse_id":5672,"location":"77:50:4","text_uthmani":"يُؤْمِنُونَ","qpc_uthmani_hafs":"يُؤۡمِنُونَ","char_type_name":"word","page_number":581,"line_number":15,"text":"يُؤۡمِنُونَ","translation":{"text":"তারা ইমান (যার উপর) আনবে","language_name":"bengali","language_id":20},"transliteration":{"text":"yu'minūna","language_name":"english","language_id":38}},{"id":48624,"position":5,"audio_url":null,"verse_key":"77:50","verse_id":5672,"location":"77:50:5","text_uthmani":"٥٠","qpc_uthmani_hafs":"٥٠","char_type_name":"end","page_number":581,"line_number":15,"text":"٥٠","translation":{"text":"(৫০)","language_name":"bengali","language_id":20},"transliteration":{"text":null,"language_name":"english","language_id":38}}]}],"pagination":{"per_page":10,"current_page":5,"next_page":null,"total_pages":5,"total_records":50}}
