{"verses":[{"id":5292,"verse_number":21,"verse_key":"68:21","hizb_number":57,"rub_el_hizb_number":226,"ruku_number":500,"manzil_number":7,"sajdah_number":null,"page_number":565,"juz_number":29,"words":[{"id":24346,"position":1,"audio_url":"wbw/068_021_001.mp3","char_type_name":"word","page_number":565,"line_number":3,"text":"فَتَنَادَوْا۟","translation":{"text":"অতঃপর পরস্পরে ডাকলো","language_name":"bengali","language_id":20},"transliteration":{"text":"fatanādaw","language_name":"english","language_id":38}},{"id":24347,"position":2,"audio_url":"wbw/068_021_002.mp3","char_type_name":"word","page_number":565,"line_number":3,"text":"مُصْبِحِينَ","translation":{"text":"সকাল(হতে)","language_name":"bengali","language_id":20},"transliteration":{"text":"muṣ'biḥīna","language_name":"english","language_id":38}},{"id":24348,"position":3,"audio_url":null,"char_type_name":"end","page_number":565,"line_number":3,"text":"٢١","translation":{"text":"(২১)","language_name":"bengali","language_id":20},"transliteration":{"text":null,"language_name":"english","language_id":38}}]},{"id":5293,"verse_number":22,"verse_key":"68:22","hizb_number":57,"rub_el_hizb_number":226,"ruku_number":500,"manzil_number":7,"sajdah_number":null,"page_number":565,"juz_number":29,"words":[{"id":24880,"position":1,"audio_url":"wbw/068_022_001.mp3","char_type_name":"word","page_number":565,"line_number":3,"text":"أَنِ","translation":{"text":"যে","language_name":"bengali","language_id":20},"transliteration":{"text":"ani","language_name":"english","language_id":38}},{"id":24881,"position":2,"audio_url":"wbw/068_022_002.mp3","char_type_name":"word","page_number":565,"line_number":3,"text":"ٱغْدُوا۟","translation":{"text":"\"সকালে চলো","language_name":"bengali","language_id":20},"transliteration":{"text":"igh'dū","language_name":"english","language_id":38}},{"id":24882,"position":3,"audio_url":"wbw/068_022_003.mp3","char_type_name":"word","page_number":565,"line_number":3,"text":"عَلَىٰ","translation":{"text":"দিকে","language_name":"bengali","language_id":20},"transliteration":{"text":"ʿalā","language_name":"english","language_id":38}},{"id":24883,"position":4,"audio_url":"wbw/068_022_004.mp3","char_type_name":"word","page_number":565,"line_number":3,"text":"حَرْثِكُمْ","translation":{"text":"তোমাদের ক্ষেতের","language_name":"bengali","language_id":20},"transliteration":{"text":"ḥarthikum","language_name":"english","language_id":38}},{"id":24884,"position":5,"audio_url":"wbw/068_022_005.mp3","char_type_name":"word","page_number":565,"line_number":3,"text":"إِن","translation":{"text":"যদি","language_name":"bengali","language_id":20},"transliteration":{"text":"in","language_name":"english","language_id":38}},{"id":24885,"position":6,"audio_url":"wbw/068_022_006.mp3","char_type_name":"word","page_number":565,"line_number":3,"text":"كُنتُمْ","translation":{"text":"তোমরা হও","language_name":"bengali","language_id":20},"transliteration":{"text":"kuntum","language_name":"english","language_id":38}},{"id":24886,"position":7,"audio_url":"wbw/068_022_007.mp3","char_type_name":"word","page_number":565,"line_number":4,"text":"صَـٰرِمِينَ","translation":{"text":"ফসল কর্তনকারী\"","language_name":"bengali","language_id":20},"transliteration":{"text":"ṣārimīna","language_name":"english","language_id":38}},{"id":24887,"position":8,"audio_url":null,"char_type_name":"end","page_number":565,"line_number":4,"text":"٢٢","translation":{"text":"(২২)","language_name":"bengali","language_id":20},"transliteration":{"text":null,"language_name":"english","language_id":38}}]},{"id":5294,"verse_number":23,"verse_key":"68:23","hizb_number":57,"rub_el_hizb_number":226,"ruku_number":500,"manzil_number":7,"sajdah_number":null,"page_number":565,"juz_number":29,"words":[{"id":25942,"position":1,"audio_url":"wbw/068_023_001.mp3","char_type_name":"word","page_number":565,"line_number":4,"text":"فَٱنطَلَقُوا۟","translation":{"text":"অতঃপর তারা চললো","language_name":"bengali","language_id":20},"transliteration":{"text":"fa-inṭalaqū","language_name":"english","language_id":38}},{"id":25943,"position":2,"audio_url":"wbw/068_023_002.mp3","char_type_name":"word","page_number":565,"line_number":4,"text":"وَهُمْ","translation":{"text":"এবং তারা","language_name":"bengali","language_id":20},"transliteration":{"text":"wahum","language_name":"english","language_id":38}},{"id":25944,"position":3,"audio_url":"wbw/068_023_003.mp3","char_type_name":"word","page_number":565,"line_number":4,"text":"يَتَخَـٰفَتُونَ","translation":{"text":"নিচু স্বরে বলছিল","language_name":"bengali","language_id":20},"transliteration":{"text":"yatakhāfatūna","language_name":"english","language_id":38}},{"id":25945,"position":4,"audio_url":null,"char_type_name":"end","page_number":565,"line_number":4,"text":"٢٣","translation":{"text":"(২৩)","language_name":"bengali","language_id":20},"transliteration":{"text":null,"language_name":"english","language_id":38}}]},{"id":5295,"verse_number":24,"verse_key":"68:24","hizb_number":57,"rub_el_hizb_number":226,"ruku_number":500,"manzil_number":7,"sajdah_number":null,"page_number":565,"juz_number":29,"words":[{"id":26995,"position":1,"audio_url":"wbw/068_024_001.mp3","char_type_name":"word","page_number":565,"line_number":4,"text":"أَن","translation":{"text":"যে","language_name":"bengali","language_id":20},"transliteration":{"text":"an","language_name":"english","language_id":38}},{"id":26996,"position":2,"audio_url":"wbw/068_024_002.mp3","char_type_name":"word","page_number":565,"line_number":4,"text":"لَّا","translation":{"text":"\"না","language_name":"bengali","language_id":20},"transliteration":{"text":"lā","language_name":"english","language_id":38}},{"id":26997,"position":3,"audio_url":"wbw/068_024_003.mp3","char_type_name":"word","page_number":565,"line_number":4,"text":"يَدْخُلَنَّهَا","translation":{"text":"এতে নিশ্চয়ই প্রবেশ করবে","language_name":"bengali","language_id":20},"transliteration":{"text":"yadkhulannahā","language_name":"english","language_id":38}},{"id":26998,"position":4,"audio_url":"wbw/068_024_004.mp3","char_type_name":"word","page_number":565,"line_number":4,"text":"ٱلْيَوْمَ","translation":{"text":"আজ","language_name":"bengali","language_id":20},"transliteration":{"text":"l-yawma","language_name":"english","language_id":38}},{"id":26999,"position":5,"audio_url":"wbw/068_024_005.mp3","char_type_name":"word","page_number":565,"line_number":4,"text":"عَلَيْكُم","translation":{"text":"তোমাদের কাছে","language_name":"bengali","language_id":20},"transliteration":{"text":"ʿalaykum","language_name":"english","language_id":38}},{"id":27000,"position":6,"audio_url":"wbw/068_024_006.mp3","char_type_name":"word","page_number":565,"line_number":5,"text":"مِّسْكِينٌۭ","translation":{"text":"ভিখারী\"","language_name":"bengali","language_id":20},"transliteration":{"text":"mis'kīnun","language_name":"english","language_id":38}},{"id":27001,"position":7,"audio_url":null,"char_type_name":"end","page_number":565,"line_number":5,"text":"٢٤","translation":{"text":"(২৪)","language_name":"bengali","language_id":20},"transliteration":{"text":null,"language_name":"english","language_id":38}}]},{"id":5296,"verse_number":25,"verse_key":"68:25","hizb_number":57,"rub_el_hizb_number":226,"ruku_number":500,"manzil_number":7,"sajdah_number":null,"page_number":565,"juz_number":29,"words":[{"id":28445,"position":1,"audio_url":"wbw/068_025_001.mp3","char_type_name":"word","page_number":565,"line_number":5,"text":"وَغَدَوْا۟","translation":{"text":"এবং তারা চললো","language_name":"bengali","language_id":20},"transliteration":{"text":"waghadaw","language_name":"english","language_id":38}},{"id":28446,"position":2,"audio_url":"wbw/068_025_002.mp3","char_type_name":"word","page_number":565,"line_number":5,"text":"عَلَىٰ","translation":{"text":"ব্যাপারে(যেন)","language_name":"bengali","language_id":20},"transliteration":{"text":"ʿalā","language_name":"english","language_id":38}},{"id":28447,"position":3,"audio_url":"wbw/068_025_003.mp3","char_type_name":"word","page_number":565,"line_number":5,"text":"حَرْدٍۢ","translation":{"text":"নিবৃত্ত করার","language_name":"bengali","language_id":20},"transliteration":{"text":"ḥardin","language_name":"english","language_id":38}},{"id":28448,"position":4,"audio_url":"wbw/068_025_004.mp3","char_type_name":"word","page_number":565,"line_number":5,"text":"قَـٰدِرِينَ","translation":{"text":"সক্ষম","language_name":"bengali","language_id":20},"transliteration":{"text":"qādirīna","language_name":"english","language_id":38}},{"id":28449,"position":5,"audio_url":null,"char_type_name":"end","page_number":565,"line_number":5,"text":"٢٥","translation":{"text":"(২৫)","language_name":"bengali","language_id":20},"transliteration":{"text":null,"language_name":"english","language_id":38}}]},{"id":5297,"verse_number":26,"verse_key":"68:26","hizb_number":57,"rub_el_hizb_number":226,"ruku_number":500,"manzil_number":7,"sajdah_number":null,"page_number":565,"juz_number":29,"words":[{"id":28914,"position":1,"audio_url":"wbw/068_026_001.mp3","char_type_name":"word","page_number":565,"line_number":5,"text":"فَلَمَّا","translation":{"text":"কিন্তু যখন","language_name":"bengali","language_id":20},"transliteration":{"text":"falammā","language_name":"english","language_id":38}},{"id":28915,"position":2,"audio_url":"wbw/068_026_002.mp3","char_type_name":"word","page_number":565,"line_number":5,"text":"رَأَوْهَا","translation":{"text":"তারা তা দেখলো","language_name":"bengali","language_id":20},"transliteration":{"text":"ra-awhā","language_name":"english","language_id":38}},{"id":28916,"position":3,"audio_url":"wbw/068_026_003.mp3","char_type_name":"word","page_number":565,"line_number":5,"text":"قَالُوٓا۟","translation":{"text":"তারা বলল,","language_name":"bengali","language_id":20},"transliteration":{"text":"qālū","language_name":"english","language_id":38}},{"id":28917,"position":4,"audio_url":"wbw/068_026_004.mp3","char_type_name":"word","page_number":565,"line_number":5,"text":"إِنَّا","translation":{"text":"\"নিশ্চয় আমরা","language_name":"bengali","language_id":20},"transliteration":{"text":"innā","language_name":"english","language_id":38}},{"id":28918,"position":5,"audio_url":"wbw/068_026_005.mp3","char_type_name":"word","page_number":565,"line_number":5,"text":"لَضَآلُّونَ","translation":{"text":"অবশ্যই পথভ্রষ্ট","language_name":"bengali","language_id":20},"transliteration":{"text":"laḍāllūna","language_name":"english","language_id":38}},{"id":28919,"position":6,"audio_url":null,"char_type_name":"end","page_number":565,"line_number":6,"text":"٢٦","translation":{"text":"(২৬)","language_name":"bengali","language_id":20},"transliteration":{"text":null,"language_name":"english","language_id":38}}]},{"id":5298,"verse_number":27,"verse_key":"68:27","hizb_number":57,"rub_el_hizb_number":226,"ruku_number":500,"manzil_number":7,"sajdah_number":null,"page_number":565,"juz_number":29,"words":[{"id":30379,"position":1,"audio_url":"wbw/068_027_001.mp3","char_type_name":"word","page_number":565,"line_number":6,"text":"بَلْ","translation":{"text":"বরং","language_name":"bengali","language_id":20},"transliteration":{"text":"bal","language_name":"english","language_id":38}},{"id":30380,"position":2,"audio_url":"wbw/068_027_002.mp3","char_type_name":"word","page_number":565,"line_number":6,"text":"نَحْنُ","translation":{"text":"আমরা","language_name":"bengali","language_id":20},"transliteration":{"text":"naḥnu","language_name":"english","language_id":38}},{"id":30381,"position":3,"audio_url":"wbw/068_027_003.mp3","char_type_name":"word","page_number":565,"line_number":6,"text":"مَحْرُومُونَ","translation":{"text":"বঞ্চিত\"","language_name":"bengali","language_id":20},"transliteration":{"text":"maḥrūmūna","language_name":"english","language_id":38}},{"id":30382,"position":4,"audio_url":null,"char_type_name":"end","page_number":565,"line_number":6,"text":"٢٧","translation":{"text":"(২৭)","language_name":"bengali","language_id":20},"transliteration":{"text":null,"language_name":"english","language_id":38}}]},{"id":5299,"verse_number":28,"verse_key":"68:28","hizb_number":57,"rub_el_hizb_number":226,"ruku_number":500,"manzil_number":7,"sajdah_number":null,"page_number":565,"juz_number":29,"words":[{"id":30905,"position":1,"audio_url":"wbw/068_028_001.mp3","char_type_name":"word","page_number":565,"line_number":6,"text":"قَالَ","translation":{"text":"বললো","language_name":"bengali","language_id":20},"transliteration":{"text":"qāla","language_name":"english","language_id":38}},{"id":30906,"position":2,"audio_url":"wbw/068_028_002.mp3","char_type_name":"word","page_number":565,"line_number":6,"text":"أَوْسَطُهُمْ","translation":{"text":"তাদের শ্রেষ্ঠ ব্যাক্তি","language_name":"bengali","language_id":20},"transliteration":{"text":"awsaṭuhum","language_name":"english","language_id":38}},{"id":30907,"position":3,"audio_url":"wbw/068_028_003.mp3","char_type_name":"word","page_number":565,"line_number":6,"text":"أَلَمْ","translation":{"text":"\"নাই কি","language_name":"bengali","language_id":20},"transliteration":{"text":"alam","language_name":"english","language_id":38}},{"id":30908,"position":4,"audio_url":"wbw/068_028_004.mp3","char_type_name":"word","page_number":565,"line_number":6,"text":"أَقُل","translation":{"text":"আমি বলি","language_name":"bengali","language_id":20},"transliteration":{"text":"aqul","language_name":"english","language_id":38}},{"id":30909,"position":5,"audio_url":"wbw/068_028_005.mp3","char_type_name":"word","page_number":565,"line_number":6,"text":"لَّكُمْ","translation":{"text":"তোমাদেরকে","language_name":"bengali","language_id":20},"transliteration":{"text":"lakum","language_name":"english","language_id":38}},{"id":30910,"position":6,"audio_url":"wbw/068_028_006.mp3","char_type_name":"word","page_number":565,"line_number":6,"text":"لَوْلَا","translation":{"text":"না কেন","language_name":"bengali","language_id":20},"transliteration":{"text":"lawlā","language_name":"english","language_id":38}},{"id":30911,"position":7,"audio_url":"wbw/068_028_007.mp3","char_type_name":"word","page_number":565,"line_number":6,"text":"تُسَبِّحُونَ","translation":{"text":"তোমরা তসবিহ করো","language_name":"bengali","language_id":20},"transliteration":{"text":"tusabbiḥūna","language_name":"english","language_id":38}},{"id":30912,"position":8,"audio_url":null,"char_type_name":"end","page_number":565,"line_number":7,"text":"٢٨","translation":{"text":"(২৮)","language_name":"bengali","language_id":20},"transliteration":{"text":null,"language_name":"english","language_id":38}}]},{"id":5300,"verse_number":29,"verse_key":"68:29","hizb_number":57,"rub_el_hizb_number":226,"ruku_number":500,"manzil_number":7,"sajdah_number":null,"page_number":565,"juz_number":29,"words":[{"id":32292,"position":1,"audio_url":"wbw/068_029_001.mp3","char_type_name":"word","page_number":565,"line_number":7,"text":"قَالُوا۟","translation":{"text":"তারা বললো","language_name":"bengali","language_id":20},"transliteration":{"text":"qālū","language_name":"english","language_id":38}},{"id":32293,"position":2,"audio_url":"wbw/068_029_002.mp3","char_type_name":"word","page_number":565,"line_number":7,"text":"سُبْحَـٰنَ","translation":{"text":"\"পবিত্র","language_name":"bengali","language_id":20},"transliteration":{"text":"sub'ḥāna","language_name":"english","language_id":38}},{"id":32294,"position":3,"audio_url":"wbw/068_029_003.mp3","char_type_name":"word","page_number":565,"line_number":7,"text":"رَبِّنَآ","translation":{"text":"আমাদের রব","language_name":"bengali","language_id":20},"transliteration":{"text":"rabbinā","language_name":"english","language_id":38}},{"id":32295,"position":4,"audio_url":"wbw/068_029_004.mp3","char_type_name":"word","page_number":565,"line_number":7,"text":"إِنَّا","translation":{"text":"নিশ্চিত","language_name":"bengali","language_id":20},"transliteration":{"text":"innā","language_name":"english","language_id":38}},{"id":32296,"position":5,"audio_url":"wbw/068_029_005.mp3","char_type_name":"word","page_number":565,"line_number":7,"text":"كُنَّا","translation":{"text":"(আমরা)ছিলাম","language_name":"bengali","language_id":20},"transliteration":{"text":"kunnā","language_name":"english","language_id":38}},{"id":32297,"position":6,"audio_url":"wbw/068_029_006.mp3","char_type_name":"word","page_number":565,"line_number":7,"text":"ظَـٰلِمِينَ","translation":{"text":"যালেম\"","language_name":"bengali","language_id":20},"transliteration":{"text":"ẓālimīna","language_name":"english","language_id":38}},{"id":32298,"position":7,"audio_url":null,"char_type_name":"end","page_number":565,"line_number":7,"text":"٢٩","translation":{"text":"(২৯)","language_name":"bengali","language_id":20},"transliteration":{"text":null,"language_name":"english","language_id":38}}]},{"id":5301,"verse_number":30,"verse_key":"68:30","hizb_number":57,"rub_el_hizb_number":226,"ruku_number":500,"manzil_number":7,"sajdah_number":null,"page_number":565,"juz_number":29,"words":[{"id":32779,"position":1,"audio_url":"wbw/068_030_001.mp3","char_type_name":"word","page_number":565,"line_number":7,"text":"فَأَقْبَلَ","translation":{"text":"অতএব তারা মুখোমুখি হলো","language_name":"bengali","language_id":20},"transliteration":{"text":"fa-aqbala","language_name":"english","language_id":38}},{"id":32780,"position":2,"audio_url":"wbw/068_030_002.mp3","char_type_name":"word","page_number":565,"line_number":7,"text":"بَعْضُهُمْ","translation":{"text":"তাদের একে","language_name":"bengali","language_id":20},"transliteration":{"text":"baʿḍuhum","language_name":"english","language_id":38}},{"id":32781,"position":3,"audio_url":"wbw/068_030_003.mp3","char_type_name":"word","page_number":565,"line_number":7,"text":"عَلَىٰ","translation":{"text":"প্রতি","language_name":"bengali","language_id":20},"transliteration":{"text":"ʿalā","language_name":"english","language_id":38}},{"id":32782,"position":4,"audio_url":"wbw/068_030_004.mp3","char_type_name":"word","page_number":565,"line_number":7,"text":"بَعْضٍۢ","translation":{"text":"অপরের","language_name":"bengali","language_id":20},"transliteration":{"text":"baʿḍin","language_name":"english","language_id":38}},{"id":32783,"position":5,"audio_url":"wbw/068_030_005.mp3","char_type_name":"word","page_number":565,"line_number":8,"text":"يَتَلَـٰوَمُونَ","translation":{"text":"তিরস্কার করতে লাগলো","language_name":"bengali","language_id":20},"transliteration":{"text":"yatalāwamūna","language_name":"english","language_id":38}},{"id":32784,"position":6,"audio_url":null,"char_type_name":"end","page_number":565,"line_number":8,"text":"٣٠","translation":{"text":"(৩০)","language_name":"bengali","language_id":20},"transliteration":{"text":null,"language_name":"english","language_id":38}}]}],"pagination":{"per_page":10,"current_page":3,"next_page":4,"total_pages":6,"total_records":52}}
