{"verses":[{"id":5302,"verse_number":31,"verse_key":"68:31","hizb_number":57,"rub_el_hizb_number":226,"ruku_number":500,"manzil_number":7,"sajdah_number":null,"page_number":565,"juz_number":29,"words":[{"id":33975,"position":1,"audio_url":"wbw/068_031_001.mp3","char_type_name":"word","page_number":565,"line_number":8,"text":"قَالُوا۟","translation":{"text":"তারা বললো","language_name":"bengali","language_id":20},"transliteration":{"text":"qālū","language_name":"english","language_id":38}},{"id":33976,"position":2,"audio_url":"wbw/068_031_002.mp3","char_type_name":"word","page_number":565,"line_number":8,"text":"يَـٰوَيْلَنَآ","translation":{"text":"\"আমাদের আফসোস","language_name":"bengali","language_id":20},"transliteration":{"text":"yāwaylanā","language_name":"english","language_id":38}},{"id":33977,"position":3,"audio_url":"wbw/068_031_003.mp3","char_type_name":"word","page_number":565,"line_number":8,"text":"إِنَّا","translation":{"text":"আমরা নিশ্চয়","language_name":"bengali","language_id":20},"transliteration":{"text":"innā","language_name":"english","language_id":38}},{"id":33978,"position":4,"audio_url":"wbw/068_031_004.mp3","char_type_name":"word","page_number":565,"line_number":8,"text":"كُنَّا","translation":{"text":"ছিলাম","language_name":"bengali","language_id":20},"transliteration":{"text":"kunnā","language_name":"english","language_id":38}},{"id":33979,"position":5,"audio_url":"wbw/068_031_005.mp3","char_type_name":"word","page_number":565,"line_number":8,"text":"طَـٰغِينَ","translation":{"text":"সিমালংঘনকারী","language_name":"bengali","language_id":20},"transliteration":{"text":"ṭāghīna","language_name":"english","language_id":38}},{"id":33980,"position":6,"audio_url":null,"char_type_name":"end","page_number":565,"line_number":8,"text":"٣١","translation":{"text":"(৩১)","language_name":"bengali","language_id":20},"transliteration":{"text":null,"language_name":"english","language_id":38}}]},{"id":5303,"verse_number":32,"verse_key":"68:32","hizb_number":57,"rub_el_hizb_number":226,"ruku_number":500,"manzil_number":7,"sajdah_number":null,"page_number":565,"juz_number":29,"words":[{"id":34687,"position":1,"audio_url":"wbw/068_032_001.mp3","char_type_name":"word","page_number":565,"line_number":8,"text":"عَسَىٰ","translation":{"text":"সম্ভবত","language_name":"bengali","language_id":20},"transliteration":{"text":"ʿasā","language_name":"english","language_id":38}},{"id":34688,"position":2,"audio_url":"wbw/068_032_002.mp3","char_type_name":"word","page_number":565,"line_number":8,"text":"رَبُّنَآ","translation":{"text":"আমাদের রব","language_name":"bengali","language_id":20},"transliteration":{"text":"rabbunā","language_name":"english","language_id":38}},{"id":34689,"position":3,"audio_url":"wbw/068_032_003.mp3","char_type_name":"word","page_number":565,"line_number":8,"text":"أَن","translation":{"text":"দেবেন","language_name":"bengali","language_id":20},"transliteration":{"text":"an","language_name":"english","language_id":38}},{"id":34690,"position":4,"audio_url":"wbw/068_032_004.mp3","char_type_name":"word","page_number":565,"line_number":8,"text":"يُبْدِلَنَا","translation":{"text":"আমাদের বদলে","language_name":"bengali","language_id":20},"transliteration":{"text":"yub'dilanā","language_name":"english","language_id":38}},{"id":34691,"position":5,"audio_url":"wbw/068_032_005.mp3","char_type_name":"word","page_number":565,"line_number":9,"text":"خَيْرًۭا","translation":{"text":"উত্তম","language_name":"bengali","language_id":20},"transliteration":{"text":"khayran","language_name":"english","language_id":38}},{"id":34692,"position":6,"audio_url":"wbw/068_032_006.mp3","char_type_name":"word","page_number":565,"line_number":9,"text":"مِّنْهَآ","translation":{"text":"তা হতেও","language_name":"bengali","language_id":20},"transliteration":{"text":"min'hā","language_name":"english","language_id":38}},{"id":34693,"position":7,"audio_url":"wbw/068_032_007.mp3","char_type_name":"word","page_number":565,"line_number":9,"text":"إِنَّآ","translation":{"text":"আমরা নিশ্চত","language_name":"bengali","language_id":20},"transliteration":{"text":"innā","language_name":"english","language_id":38}},{"id":34694,"position":8,"audio_url":"wbw/068_032_008.mp3","char_type_name":"word","page_number":565,"line_number":9,"text":"إِلَىٰ","translation":{"text":"দিকে","language_name":"bengali","language_id":20},"transliteration":{"text":"ilā","language_name":"english","language_id":38}},{"id":34695,"position":9,"audio_url":"wbw/068_032_009.mp3","char_type_name":"word","page_number":565,"line_number":9,"text":"رَبِّنَا","translation":{"text":"আমাদের রবের","language_name":"bengali","language_id":20},"transliteration":{"text":"rabbinā","language_name":"english","language_id":38}},{"id":34696,"position":10,"audio_url":"wbw/068_032_010.mp3","char_type_name":"word","page_number":565,"line_number":9,"text":"رَٰغِبُونَ","translation":{"text":"অভিমুখী হলাম\"","language_name":"bengali","language_id":20},"transliteration":{"text":"rāghibūna","language_name":"english","language_id":38}},{"id":34697,"position":11,"audio_url":null,"char_type_name":"end","page_number":565,"line_number":9,"text":"٣٢","translation":{"text":"(৩২)","language_name":"bengali","language_id":20},"transliteration":{"text":null,"language_name":"english","language_id":38}}]},{"id":5304,"verse_number":33,"verse_key":"68:33","hizb_number":57,"rub_el_hizb_number":226,"ruku_number":500,"manzil_number":7,"sajdah_number":null,"page_number":565,"juz_number":29,"words":[{"id":35814,"position":1,"audio_url":"wbw/068_033_001.mp3","char_type_name":"word","page_number":565,"line_number":9,"text":"كَذَٰلِكَ","translation":{"text":"এমনই","language_name":"bengali","language_id":20},"transliteration":{"text":"kadhālika","language_name":"english","language_id":38}},{"id":35815,"position":2,"audio_url":"wbw/068_033_002.mp3","char_type_name":"word","page_number":565,"line_number":9,"text":"ٱلْعَذَابُ ۖ","translation":{"text":"আযাব","language_name":"bengali","language_id":20},"transliteration":{"text":"l-ʿadhābu","language_name":"english","language_id":38}},{"id":35817,"position":3,"audio_url":"wbw/068_033_004.mp3","char_type_name":"word","page_number":565,"line_number":9,"text":"وَلَعَذَابُ","translation":{"text":"এবং আযাব অবশ্যই","language_name":"bengali","language_id":20},"transliteration":{"text":"walaʿadhābu","language_name":"english","language_id":38}},{"id":35818,"position":4,"audio_url":"wbw/068_033_005.mp3","char_type_name":"word","page_number":565,"line_number":9,"text":"ٱلْـَٔاخِرَةِ","translation":{"text":"আখিরাতের","language_name":"bengali","language_id":20},"transliteration":{"text":"l-ākhirati","language_name":"english","language_id":38}},{"id":35819,"position":5,"audio_url":"wbw/068_033_006.mp3","char_type_name":"word","page_number":565,"line_number":10,"text":"أَكْبَرُ ۚ","translation":{"text":"অনেক বড়","language_name":"bengali","language_id":20},"transliteration":{"text":"akbaru","language_name":"english","language_id":38}},{"id":35821,"position":6,"audio_url":"wbw/068_033_008.mp3","char_type_name":"word","page_number":565,"line_number":10,"text":"لَوْ","translation":{"text":"যদি","language_name":"bengali","language_id":20},"transliteration":{"text":"law","language_name":"english","language_id":38}},{"id":35822,"position":7,"audio_url":"wbw/068_033_009.mp3","char_type_name":"word","page_number":565,"line_number":10,"text":"كَانُوا۟","translation":{"text":"তারা","language_name":"bengali","language_id":20},"transliteration":{"text":"kānū","language_name":"english","language_id":38}},{"id":35823,"position":8,"audio_url":"wbw/068_033_010.mp3","char_type_name":"word","page_number":565,"line_number":10,"text":"يَعْلَمُونَ","translation":{"text":"জানত","language_name":"bengali","language_id":20},"transliteration":{"text":"yaʿlamūna","language_name":"english","language_id":38}},{"id":35824,"position":9,"audio_url":null,"char_type_name":"end","page_number":565,"line_number":10,"text":"٣٣","translation":{"text":"(৩৩)","language_name":"bengali","language_id":20},"transliteration":{"text":null,"language_name":"english","language_id":38}}]},{"id":5305,"verse_number":34,"verse_key":"68:34","hizb_number":57,"rub_el_hizb_number":226,"ruku_number":501,"manzil_number":7,"sajdah_number":null,"page_number":565,"juz_number":29,"words":[{"id":36438,"position":1,"audio_url":"wbw/068_034_001.mp3","char_type_name":"word","page_number":565,"line_number":10,"text":"إِنَّ","translation":{"text":"নিশ্চয়","language_name":"bengali","language_id":20},"transliteration":{"text":"inna","language_name":"english","language_id":38}},{"id":36439,"position":2,"audio_url":"wbw/068_034_002.mp3","char_type_name":"word","page_number":565,"line_number":10,"text":"لِلْمُتَّقِينَ","translation":{"text":"পরহেজগারদের জন্য","language_name":"bengali","language_id":20},"transliteration":{"text":"lil'muttaqīna","language_name":"english","language_id":38}},{"id":36440,"position":3,"audio_url":"wbw/068_034_003.mp3","char_type_name":"word","page_number":565,"line_number":10,"text":"عِندَ","translation":{"text":"কাছে রয়েছে","language_name":"bengali","language_id":20},"transliteration":{"text":"ʿinda","language_name":"english","language_id":38}},{"id":36441,"position":4,"audio_url":"wbw/068_034_004.mp3","char_type_name":"word","page_number":565,"line_number":10,"text":"رَبِّهِمْ","translation":{"text":"তাদের রবের","language_name":"bengali","language_id":20},"transliteration":{"text":"rabbihim","language_name":"english","language_id":38}},{"id":36442,"position":5,"audio_url":"wbw/068_034_005.mp3","char_type_name":"word","page_number":565,"line_number":10,"text":"جَنَّـٰتِ","translation":{"text":"জান্নাতসমূহ","language_name":"bengali","language_id":20},"transliteration":{"text":"jannāti","language_name":"english","language_id":38}},{"id":36443,"position":6,"audio_url":"wbw/068_034_006.mp3","char_type_name":"word","page_number":565,"line_number":10,"text":"ٱلنَّعِيمِ","translation":{"text":"নিয়ামতে ভরা","language_name":"bengali","language_id":20},"transliteration":{"text":"l-naʿīmi","language_name":"english","language_id":38}},{"id":36444,"position":7,"audio_url":null,"char_type_name":"end","page_number":565,"line_number":10,"text":"٣٤","translation":{"text":"(৩৪)","language_name":"bengali","language_id":20},"transliteration":{"text":null,"language_name":"english","language_id":38}}]},{"id":5306,"verse_number":35,"verse_key":"68:35","hizb_number":57,"rub_el_hizb_number":226,"ruku_number":501,"manzil_number":7,"sajdah_number":null,"page_number":565,"juz_number":29,"words":[{"id":37534,"position":1,"audio_url":"wbw/068_035_001.mp3","char_type_name":"word","page_number":565,"line_number":11,"text":"أَفَنَجْعَلُ","translation":{"text":"অতএব আমরা কি বানাব","language_name":"bengali","language_id":20},"transliteration":{"text":"afanajʿalu","language_name":"english","language_id":38}},{"id":37535,"position":2,"audio_url":"wbw/068_035_002.mp3","char_type_name":"word","page_number":565,"line_number":11,"text":"ٱلْمُسْلِمِينَ","translation":{"text":"আত্মসমর্পণ কারীদের","language_name":"bengali","language_id":20},"transliteration":{"text":"l-mus'limīna","language_name":"english","language_id":38}},{"id":37536,"position":3,"audio_url":"wbw/068_035_003.mp3","char_type_name":"word","page_number":565,"line_number":11,"text":"كَٱلْمُجْرِمِينَ","translation":{"text":"যেমন অপরাধকারীদের","language_name":"bengali","language_id":20},"transliteration":{"text":"kal-muj'rimīna","language_name":"english","language_id":38}},{"id":37537,"position":4,"audio_url":null,"char_type_name":"end","page_number":565,"line_number":11,"text":"٣٥","translation":{"text":"(৩৫)","language_name":"bengali","language_id":20},"transliteration":{"text":null,"language_name":"english","language_id":38}}]},{"id":5307,"verse_number":36,"verse_key":"68:36","hizb_number":57,"rub_el_hizb_number":226,"ruku_number":501,"manzil_number":7,"sajdah_number":null,"page_number":565,"juz_number":29,"words":[{"id":38415,"position":1,"audio_url":"wbw/068_036_001.mp3","char_type_name":"word","page_number":565,"line_number":11,"text":"مَا","translation":{"text":"কি","language_name":"bengali","language_id":20},"transliteration":{"text":"mā","language_name":"english","language_id":38}},{"id":38416,"position":2,"audio_url":"wbw/068_036_002.mp3","char_type_name":"word","page_number":565,"line_number":11,"text":"لَكُمْ","translation":{"text":"তোমাদের হয়েছে","language_name":"bengali","language_id":20},"transliteration":{"text":"lakum","language_name":"english","language_id":38}},{"id":38417,"position":3,"audio_url":"wbw/068_036_003.mp3","char_type_name":"word","page_number":565,"line_number":11,"text":"كَيْفَ","translation":{"text":"কেমন","language_name":"bengali","language_id":20},"transliteration":{"text":"kayfa","language_name":"english","language_id":38}},{"id":38418,"position":4,"audio_url":"wbw/068_036_004.mp3","char_type_name":"word","page_number":565,"line_number":11,"text":"تَحْكُمُونَ","translation":{"text":"তোমরা বিচার কর","language_name":"bengali","language_id":20},"transliteration":{"text":"taḥkumūna","language_name":"english","language_id":38}},{"id":38419,"position":5,"audio_url":null,"char_type_name":"end","page_number":565,"line_number":11,"text":"٣٦","translation":{"text":"(৩৬)","language_name":"bengali","language_id":20},"transliteration":{"text":null,"language_name":"english","language_id":38}}]},{"id":5308,"verse_number":37,"verse_key":"68:37","hizb_number":57,"rub_el_hizb_number":226,"ruku_number":501,"manzil_number":7,"sajdah_number":null,"page_number":565,"juz_number":29,"words":[{"id":39219,"position":1,"audio_url":"wbw/068_037_001.mp3","char_type_name":"word","page_number":565,"line_number":11,"text":"أَمْ","translation":{"text":"অথবা","language_name":"bengali","language_id":20},"transliteration":{"text":"am","language_name":"english","language_id":38}},{"id":39220,"position":2,"audio_url":"wbw/068_037_002.mp3","char_type_name":"word","page_number":565,"line_number":11,"text":"لَكُمْ","translation":{"text":"তোমাদের জন্যে","language_name":"bengali","language_id":20},"transliteration":{"text":"lakum","language_name":"english","language_id":38}},{"id":39221,"position":3,"audio_url":"wbw/068_037_003.mp3","char_type_name":"word","page_number":565,"line_number":12,"text":"كِتَـٰبٌۭ","translation":{"text":"কিতাব(আছে)","language_name":"bengali","language_id":20},"transliteration":{"text":"kitābun","language_name":"english","language_id":38}},{"id":39222,"position":4,"audio_url":"wbw/068_037_004.mp3","char_type_name":"word","page_number":565,"line_number":12,"text":"فِيهِ","translation":{"text":"তার মধ্যে","language_name":"bengali","language_id":20},"transliteration":{"text":"fīhi","language_name":"english","language_id":38}},{"id":39223,"position":5,"audio_url":"wbw/068_037_005.mp3","char_type_name":"word","page_number":565,"line_number":12,"text":"تَدْرُسُونَ","translation":{"text":"তোমরা পড়","language_name":"bengali","language_id":20},"transliteration":{"text":"tadrusūna","language_name":"english","language_id":38}},{"id":39224,"position":6,"audio_url":null,"char_type_name":"end","page_number":565,"line_number":12,"text":"٣٧","translation":{"text":"(৩৭)","language_name":"bengali","language_id":20},"transliteration":{"text":null,"language_name":"english","language_id":38}}]},{"id":5309,"verse_number":38,"verse_key":"68:38","hizb_number":57,"rub_el_hizb_number":226,"ruku_number":501,"manzil_number":7,"sajdah_number":null,"page_number":565,"juz_number":29,"words":[{"id":39781,"position":1,"audio_url":"wbw/068_038_001.mp3","char_type_name":"word","page_number":565,"line_number":12,"text":"إِنَّ","translation":{"text":"নিশ্চয়","language_name":"bengali","language_id":20},"transliteration":{"text":"inna","language_name":"english","language_id":38}},{"id":39782,"position":2,"audio_url":"wbw/068_038_002.mp3","char_type_name":"word","page_number":565,"line_number":12,"text":"لَكُمْ","translation":{"text":"তোমাদের জন্য","language_name":"bengali","language_id":20},"transliteration":{"text":"lakum","language_name":"english","language_id":38}},{"id":39783,"position":3,"audio_url":"wbw/068_038_003.mp3","char_type_name":"word","page_number":565,"line_number":12,"text":"فِيهِ","translation":{"text":"তার মধ্যে","language_name":"bengali","language_id":20},"transliteration":{"text":"fīhi","language_name":"english","language_id":38}},{"id":39784,"position":4,"audio_url":"wbw/068_038_004.mp3","char_type_name":"word","page_number":565,"line_number":12,"text":"لَمَا","translation":{"text":"যা","language_name":"bengali","language_id":20},"transliteration":{"text":"lamā","language_name":"english","language_id":38}},{"id":39785,"position":5,"audio_url":"wbw/068_038_005.mp3","char_type_name":"word","page_number":565,"line_number":12,"text":"تَخَيَّرُونَ","translation":{"text":"তোমরা পছন্দ কর","language_name":"bengali","language_id":20},"transliteration":{"text":"takhayyarūna","language_name":"english","language_id":38}},{"id":39786,"position":6,"audio_url":null,"char_type_name":"end","page_number":565,"line_number":12,"text":"٣٨","translation":{"text":"(৩৮)","language_name":"bengali","language_id":20},"transliteration":{"text":null,"language_name":"english","language_id":38}}]},{"id":5310,"verse_number":39,"verse_key":"68:39","hizb_number":57,"rub_el_hizb_number":226,"ruku_number":501,"manzil_number":7,"sajdah_number":null,"page_number":565,"juz_number":29,"words":[{"id":40768,"position":1,"audio_url":"wbw/068_039_001.mp3","char_type_name":"word","page_number":565,"line_number":12,"text":"أَمْ","translation":{"text":"অথবা","language_name":"bengali","language_id":20},"transliteration":{"text":"am","language_name":"english","language_id":38}},{"id":40769,"position":2,"audio_url":"wbw/068_039_002.mp3","char_type_name":"word","page_number":565,"line_number":12,"text":"لَكُمْ","translation":{"text":"তোমাদের জন্যে রয়েছে","language_name":"bengali","language_id":20},"transliteration":{"text":"lakum","language_name":"english","language_id":38}},{"id":40770,"position":3,"audio_url":"wbw/068_039_003.mp3","char_type_name":"word","page_number":565,"line_number":12,"text":"أَيْمَـٰنٌ","translation":{"text":"প্রতিশ্রুতি","language_name":"bengali","language_id":20},"transliteration":{"text":"aymānun","language_name":"english","language_id":38}},{"id":40771,"position":4,"audio_url":"wbw/068_039_004.mp3","char_type_name":"word","page_number":565,"line_number":12,"text":"عَلَيْنَا","translation":{"text":"আমাদের উপর","language_name":"bengali","language_id":20},"transliteration":{"text":"ʿalaynā","language_name":"english","language_id":38}},{"id":40772,"position":5,"audio_url":"wbw/068_039_005.mp3","char_type_name":"word","page_number":565,"line_number":13,"text":"بَـٰلِغَةٌ","translation":{"text":"বলবৎ","language_name":"bengali","language_id":20},"transliteration":{"text":"bālighatun","language_name":"english","language_id":38}},{"id":40773,"position":6,"audio_url":"wbw/068_039_006.mp3","char_type_name":"word","page_number":565,"line_number":13,"text":"إِلَىٰ","translation":{"text":"পর্যন্ত","language_name":"bengali","language_id":20},"transliteration":{"text":"ilā","language_name":"english","language_id":38}},{"id":40774,"position":7,"audio_url":"wbw/068_039_007.mp3","char_type_name":"word","page_number":565,"line_number":13,"text":"يَوْمِ","translation":{"text":"দিন","language_name":"bengali","language_id":20},"transliteration":{"text":"yawmi","language_name":"english","language_id":38}},{"id":40775,"position":8,"audio_url":"wbw/068_039_008.mp3","char_type_name":"word","page_number":565,"line_number":13,"text":"ٱلْقِيَـٰمَةِ ۙ","translation":{"text":"কিয়ামতের","language_name":"bengali","language_id":20},"transliteration":{"text":"l-qiyāmati","language_name":"english","language_id":38}},{"id":40777,"position":9,"audio_url":"wbw/068_039_010.mp3","char_type_name":"word","page_number":565,"line_number":13,"text":"إِنَّ","translation":{"text":"নিশ্চয়","language_name":"bengali","language_id":20},"transliteration":{"text":"inna","language_name":"english","language_id":38}},{"id":40778,"position":10,"audio_url":"wbw/068_039_011.mp3","char_type_name":"word","page_number":565,"line_number":13,"text":"لَكُمْ","translation":{"text":"তোমাদের জন্যে আছে","language_name":"bengali","language_id":20},"transliteration":{"text":"lakum","language_name":"english","language_id":38}},{"id":40779,"position":11,"audio_url":"wbw/068_039_012.mp3","char_type_name":"word","page_number":565,"line_number":13,"text":"لَمَا","translation":{"text":"যা","language_name":"bengali","language_id":20},"transliteration":{"text":"lamā","language_name":"english","language_id":38}},{"id":40780,"position":12,"audio_url":"wbw/068_039_013.mp3","char_type_name":"word","page_number":565,"line_number":13,"text":"تَحْكُمُونَ","translation":{"text":"তোমরা সিদ্ধান্ত নিচ্ছ","language_name":"bengali","language_id":20},"transliteration":{"text":"taḥkumūna","language_name":"english","language_id":38}},{"id":40781,"position":13,"audio_url":null,"char_type_name":"end","page_number":565,"line_number":13,"text":"٣٩","translation":{"text":"(৩৯)","language_name":"bengali","language_id":20},"transliteration":{"text":null,"language_name":"english","language_id":38}}]},{"id":5311,"verse_number":40,"verse_key":"68:40","hizb_number":57,"rub_el_hizb_number":226,"ruku_number":501,"manzil_number":7,"sajdah_number":null,"page_number":565,"juz_number":29,"words":[{"id":41363,"position":1,"audio_url":"wbw/068_040_001.mp3","char_type_name":"word","page_number":565,"line_number":13,"text":"سَلْهُمْ","translation":{"text":"তাদের জিজ্ঞেস কর","language_name":"bengali","language_id":20},"transliteration":{"text":"salhum","language_name":"english","language_id":38}},{"id":41364,"position":2,"audio_url":"wbw/068_040_002.mp3","char_type_name":"word","page_number":565,"line_number":13,"text":"أَيُّهُم","translation":{"text":"তাদের মধ্যে কে","language_name":"bengali","language_id":20},"transliteration":{"text":"ayyuhum","language_name":"english","language_id":38}},{"id":41365,"position":3,"audio_url":"wbw/068_040_003.mp3","char_type_name":"word","page_number":565,"line_number":13,"text":"بِذَٰلِكَ","translation":{"text":"এই ক্ষেত্রে","language_name":"bengali","language_id":20},"transliteration":{"text":"bidhālika","language_name":"english","language_id":38}},{"id":41366,"position":4,"audio_url":"wbw/068_040_004.mp3","char_type_name":"word","page_number":565,"line_number":14,"text":"زَعِيمٌ","translation":{"text":"যিম্নাদার","language_name":"bengali","language_id":20},"transliteration":{"text":"zaʿīmun","language_name":"english","language_id":38}},{"id":41367,"position":5,"audio_url":null,"char_type_name":"end","page_number":565,"line_number":14,"text":"٤٠","translation":{"text":"(৪০)","language_name":"bengali","language_id":20},"transliteration":{"text":null,"language_name":"english","language_id":38}}]}],"pagination":{"per_page":10,"current_page":4,"next_page":5,"total_pages":6,"total_records":52}}
