{"verses":[{"id":6004,"verse_number":11,"verse_key":"89:11","hizb_number":60,"rub_el_hizb_number":237,"ruku_number":533,"manzil_number":7,"sajdah_number":null,"page_number":593,"juz_number":30,"words":[{"id":12830,"position":1,"audio_url":"wbw/089_011_001.mp3","verse_key":"89:11","verse_id":6004,"location":"89:11:1","text_uthmani":"ٱلَّذِينَ","qpc_uthmani_hafs":"ٱلَّذِينَ","char_type_name":"word","page_number":593,"line_number":8,"text":"ٱلَّذِينَ","translation":{"text":"যারা","language_name":"bengali","language_id":20},"transliteration":{"text":"alladhīna","language_name":"english","language_id":38}},{"id":12831,"position":2,"audio_url":"wbw/089_011_002.mp3","verse_key":"89:11","verse_id":6004,"location":"89:11:2","text_uthmani":"طَغَوْا۟","qpc_uthmani_hafs":"طَغَوۡاْ","char_type_name":"word","page_number":593,"line_number":8,"text":"طَغَوۡاْ","translation":{"text":"সীমালঙ্ঘন করেছিলো","language_name":"bengali","language_id":20},"transliteration":{"text":"ṭaghaw","language_name":"english","language_id":38}},{"id":12832,"position":3,"audio_url":"wbw/089_011_003.mp3","verse_key":"89:11","verse_id":6004,"location":"89:11:3","text_uthmani":"فِى","qpc_uthmani_hafs":"فِي","char_type_name":"word","page_number":593,"line_number":8,"text":"فِي","translation":{"text":"মধ্যে","language_name":"bengali","language_id":20},"transliteration":{"text":"fī","language_name":"english","language_id":38}},{"id":12833,"position":4,"audio_url":"wbw/089_011_004.mp3","verse_key":"89:11","verse_id":6004,"location":"89:11:4","text_uthmani":"ٱلْبِلَـٰدِ","qpc_uthmani_hafs":"ٱلۡبِلَٰدِ","char_type_name":"word","page_number":593,"line_number":9,"text":"ٱلۡبِلَٰدِ","translation":{"text":"(বিভিন্ন) দেশে","language_name":"bengali","language_id":20},"transliteration":{"text":"l-bilādi","language_name":"english","language_id":38}},{"id":12834,"position":5,"audio_url":null,"verse_key":"89:11","verse_id":6004,"location":"89:11:5","text_uthmani":"١١","qpc_uthmani_hafs":"١١","char_type_name":"end","page_number":593,"line_number":9,"text":"١١","translation":{"text":"(১১)","language_name":"bengali","language_id":20},"transliteration":{"text":null,"language_name":"english","language_id":38}}]},{"id":6005,"verse_number":12,"verse_key":"89:12","hizb_number":60,"rub_el_hizb_number":237,"ruku_number":533,"manzil_number":7,"sajdah_number":null,"page_number":593,"juz_number":30,"words":[{"id":14074,"position":1,"audio_url":"wbw/089_012_001.mp3","verse_key":"89:12","verse_id":6005,"location":"89:12:1","text_uthmani":"فَأَكْثَرُوا۟","qpc_uthmani_hafs":"فَأَكۡثَرُواْ","char_type_name":"word","page_number":593,"line_number":9,"text":"فَأَكۡثَرُواْ","translation":{"text":"আর বৃদ্ধি করেছিল","language_name":"bengali","language_id":20},"transliteration":{"text":"fa-aktharū","language_name":"english","language_id":38}},{"id":14075,"position":2,"audio_url":"wbw/089_012_002.mp3","verse_key":"89:12","verse_id":6005,"location":"89:12:2","text_uthmani":"فِيهَا","qpc_uthmani_hafs":"فِيهَا","char_type_name":"word","page_number":593,"line_number":9,"text":"فِيهَا","translation":{"text":"তার মধ্যে","language_name":"bengali","language_id":20},"transliteration":{"text":"fīhā","language_name":"english","language_id":38}},{"id":14076,"position":3,"audio_url":"wbw/089_012_003.mp3","verse_key":"89:12","verse_id":6005,"location":"89:12:3","text_uthmani":"ٱلْفَسَادَ","qpc_uthmani_hafs":"ٱلۡفَسَادَ","char_type_name":"word","page_number":593,"line_number":9,"text":"ٱلۡفَسَادَ","translation":{"text":"বিপর্যয়/ অশান্তি","language_name":"bengali","language_id":20},"transliteration":{"text":"l-fasāda","language_name":"english","language_id":38}},{"id":14077,"position":4,"audio_url":null,"verse_key":"89:12","verse_id":6005,"location":"89:12:4","text_uthmani":"١٢","qpc_uthmani_hafs":"١٢","char_type_name":"end","page_number":593,"line_number":9,"text":"١٢","translation":{"text":"(১২)","language_name":"bengali","language_id":20},"transliteration":{"text":null,"language_name":"english","language_id":38}}]},{"id":6006,"verse_number":13,"verse_key":"89:13","hizb_number":60,"rub_el_hizb_number":237,"ruku_number":533,"manzil_number":7,"sajdah_number":null,"page_number":593,"juz_number":30,"words":[{"id":15087,"position":1,"audio_url":"wbw/089_013_001.mp3","verse_key":"89:13","verse_id":6006,"location":"89:13:1","text_uthmani":"فَصَبَّ","qpc_uthmani_hafs":"فَصَبَّ","char_type_name":"word","page_number":593,"line_number":9,"text":"فَصَبَّ","translation":{"text":"তারপর আঘাত করলেন","language_name":"bengali","language_id":20},"transliteration":{"text":"faṣabba","language_name":"english","language_id":38}},{"id":15088,"position":2,"audio_url":"wbw/089_013_002.mp3","verse_key":"89:13","verse_id":6006,"location":"89:13:2","text_uthmani":"عَلَيْهِمْ","qpc_uthmani_hafs":"عَلَيۡهِمۡ","char_type_name":"word","page_number":593,"line_number":9,"text":"عَلَيۡهِمۡ","translation":{"text":"তাদের উপর","language_name":"bengali","language_id":20},"transliteration":{"text":"ʿalayhim","language_name":"english","language_id":38}},{"id":15089,"position":3,"audio_url":"wbw/089_013_003.mp3","verse_key":"89:13","verse_id":6006,"location":"89:13:3","text_uthmani":"رَبُّكَ","qpc_uthmani_hafs":"رَبُّكَ","char_type_name":"word","page_number":593,"line_number":9,"text":"رَبُّكَ","translation":{"text":"তোমার রব","language_name":"bengali","language_id":20},"transliteration":{"text":"rabbuka","language_name":"english","language_id":38}},{"id":15090,"position":4,"audio_url":"wbw/089_013_004.mp3","verse_key":"89:13","verse_id":6006,"location":"89:13:4","text_uthmani":"سَوْطَ","qpc_uthmani_hafs":"سَوۡطَ","char_type_name":"word","page_number":593,"line_number":9,"text":"سَوۡطَ","translation":{"text":"চাবুকের","language_name":"bengali","language_id":20},"transliteration":{"text":"sawṭa","language_name":"english","language_id":38}},{"id":15091,"position":5,"audio_url":"wbw/089_013_005.mp3","verse_key":"89:13","verse_id":6006,"location":"89:13:5","text_uthmani":"عَذَابٍ","qpc_uthmani_hafs":"عَذَابٍ","char_type_name":"word","page_number":593,"line_number":10,"text":"عَذَابٍ","translation":{"text":"শাস্তির","language_name":"bengali","language_id":20},"transliteration":{"text":"ʿadhābin","language_name":"english","language_id":38}},{"id":15092,"position":6,"audio_url":null,"verse_key":"89:13","verse_id":6006,"location":"89:13:6","text_uthmani":"١٣","qpc_uthmani_hafs":"١٣","char_type_name":"end","page_number":593,"line_number":10,"text":"١٣","translation":{"text":"(১৩)","language_name":"bengali","language_id":20},"transliteration":{"text":null,"language_name":"english","language_id":38}}]},{"id":6007,"verse_number":14,"verse_key":"89:14","hizb_number":60,"rub_el_hizb_number":237,"ruku_number":533,"manzil_number":7,"sajdah_number":null,"page_number":593,"juz_number":30,"words":[{"id":16267,"position":1,"audio_url":"wbw/089_014_001.mp3","verse_key":"89:14","verse_id":6007,"location":"89:14:1","text_uthmani":"إِنَّ","qpc_uthmani_hafs":"إِنَّ","char_type_name":"word","page_number":593,"line_number":10,"text":"إِنَّ","translation":{"text":"নিশ্চয়ই","language_name":"bengali","language_id":20},"transliteration":{"text":"inna","language_name":"english","language_id":38}},{"id":16268,"position":2,"audio_url":"wbw/089_014_002.mp3","verse_key":"89:14","verse_id":6007,"location":"89:14:2","text_uthmani":"رَبَّكَ","qpc_uthmani_hafs":"رَبَّكَ","char_type_name":"word","page_number":593,"line_number":10,"text":"رَبَّكَ","translation":{"text":"তোমার রব","language_name":"bengali","language_id":20},"transliteration":{"text":"rabbaka","language_name":"english","language_id":38}},{"id":16269,"position":3,"audio_url":"wbw/089_014_003.mp3","verse_key":"89:14","verse_id":6007,"location":"89:14:3","text_uthmani":"لَبِٱلْمِرْصَادِ","qpc_uthmani_hafs":"لَبِٱلۡمِرۡصَادِ","char_type_name":"word","page_number":593,"line_number":10,"text":"لَبِٱلۡمِرۡصَادِ","translation":{"text":"অবশ্যই (ধরবেন) ঘাঁটিতে","language_name":"bengali","language_id":20},"transliteration":{"text":"labil-mir'ṣādi","language_name":"english","language_id":38}},{"id":16270,"position":4,"audio_url":null,"verse_key":"89:14","verse_id":6007,"location":"89:14:4","text_uthmani":"١٤","qpc_uthmani_hafs":"١٤","char_type_name":"end","page_number":593,"line_number":10,"text":"١٤","translation":{"text":"(১৪)","language_name":"bengali","language_id":20},"transliteration":{"text":null,"language_name":"english","language_id":38}}]},{"id":6008,"verse_number":15,"verse_key":"89:15","hizb_number":60,"rub_el_hizb_number":237,"ruku_number":533,"manzil_number":7,"sajdah_number":null,"page_number":593,"juz_number":30,"words":[{"id":17445,"position":1,"audio_url":"wbw/089_015_001.mp3","verse_key":"89:15","verse_id":6008,"location":"89:15:1","text_uthmani":"فَأَمَّا","qpc_uthmani_hafs":"فَأَمَّا","char_type_name":"word","page_number":593,"line_number":10,"text":"فَأَمَّا","translation":{"text":"অতঃপর ব্যাপার হলো","language_name":"bengali","language_id":20},"transliteration":{"text":"fa-ammā","language_name":"english","language_id":38}},{"id":17446,"position":2,"audio_url":"wbw/089_015_002.mp3","verse_key":"89:15","verse_id":6008,"location":"89:15:2","text_uthmani":"ٱلْإِنسَـٰنُ","qpc_uthmani_hafs":"ٱلۡإِنسَٰنُ","char_type_name":"word","page_number":593,"line_number":10,"text":"ٱلۡإِنسَٰنُ","translation":{"text":"মানুষের","language_name":"bengali","language_id":20},"transliteration":{"text":"l-insānu","language_name":"english","language_id":38}},{"id":17447,"position":3,"audio_url":"wbw/089_015_003.mp3","verse_key":"89:15","verse_id":6008,"location":"89:15:3","text_uthmani":"إِذَا","qpc_uthmani_hafs":"إِذَا","char_type_name":"word","page_number":593,"line_number":10,"text":"إِذَا","translation":{"text":"যখন","language_name":"bengali","language_id":20},"transliteration":{"text":"idhā","language_name":"english","language_id":38}},{"id":17448,"position":4,"audio_url":"wbw/089_015_004.mp3","verse_key":"89:15","verse_id":6008,"location":"89:15:4","text_uthmani":"مَا","qpc_uthmani_hafs":"مَا","char_type_name":"word","page_number":593,"line_number":10,"text":"مَا","translation":{"text":"তাকে","language_name":"bengali","language_id":20},"transliteration":{"text":"mā","language_name":"english","language_id":38}},{"id":17449,"position":5,"audio_url":"wbw/089_015_005.mp3","verse_key":"89:15","verse_id":6008,"location":"89:15:5","text_uthmani":"ٱبْتَلَىٰهُ","qpc_uthmani_hafs":"ٱبۡتَلَىٰهُ","char_type_name":"word","page_number":593,"line_number":10,"text":"ٱبۡتَلَىٰهُ","translation":{"text":"পরীক্ষা করেন","language_name":"bengali","language_id":20},"transliteration":{"text":"ib'talāhu","language_name":"english","language_id":38}},{"id":17450,"position":6,"audio_url":"wbw/089_015_006.mp3","verse_key":"89:15","verse_id":6008,"location":"89:15:6","text_uthmani":"رَبُّهُۥ","qpc_uthmani_hafs":"رَبُّهُۥ","char_type_name":"word","page_number":593,"line_number":11,"text":"رَبُّهُۥ","translation":{"text":"তার রব","language_name":"bengali","language_id":20},"transliteration":{"text":"rabbuhu","language_name":"english","language_id":38}},{"id":17451,"position":7,"audio_url":"wbw/089_015_007.mp3","verse_key":"89:15","verse_id":6008,"location":"89:15:7","text_uthmani":"فَأَكْرَمَهُۥ","qpc_uthmani_hafs":"فَأَكۡرَمَهُۥ","char_type_name":"word","page_number":593,"line_number":11,"text":"فَأَكۡرَمَهُۥ","translation":{"text":"তাকে সম্মান দেন","language_name":"bengali","language_id":20},"transliteration":{"text":"fa-akramahu","language_name":"english","language_id":38}},{"id":17452,"position":8,"audio_url":"wbw/089_015_008.mp3","verse_key":"89:15","verse_id":6008,"location":"89:15:8","text_uthmani":"وَنَعَّمَهُۥ","qpc_uthmani_hafs":"وَنَعَّمَهُۥ","char_type_name":"word","page_number":593,"line_number":11,"text":"وَنَعَّمَهُۥ","translation":{"text":"ও তাকে অনুগ্রহ করেন","language_name":"bengali","language_id":20},"transliteration":{"text":"wanaʿʿamahu","language_name":"english","language_id":38}},{"id":17453,"position":9,"audio_url":"wbw/089_015_009.mp3","verse_key":"89:15","verse_id":6008,"location":"89:15:9","text_uthmani":"فَيَقُولُ","qpc_uthmani_hafs":"فَيَقُولُ","char_type_name":"word","page_number":593,"line_number":11,"text":"فَيَقُولُ","translation":{"text":"তখন সে বলে","language_name":"bengali","language_id":20},"transliteration":{"text":"fayaqūlu","language_name":"english","language_id":38}},{"id":17454,"position":10,"audio_url":"wbw/089_015_010.mp3","verse_key":"89:15","verse_id":6008,"location":"89:15:10","text_uthmani":"رَبِّىٓ","qpc_uthmani_hafs":"رَبِّيٓ","char_type_name":"word","page_number":593,"line_number":11,"text":"رَبِّيٓ","translation":{"text":"\"আমার রব","language_name":"bengali","language_id":20},"transliteration":{"text":"rabbī","language_name":"english","language_id":38}},{"id":17455,"position":11,"audio_url":"wbw/089_015_011.mp3","verse_key":"89:15","verse_id":6008,"location":"89:15:11","text_uthmani":"أَكْرَمَنِ","qpc_uthmani_hafs":"أَكۡرَمَنِ","char_type_name":"word","page_number":593,"line_number":11,"text":"أَكۡرَمَنِ","translation":{"text":"আমাকে সম্মানিত করেছেন\"","language_name":"bengali","language_id":20},"transliteration":{"text":"akramani","language_name":"english","language_id":38}},{"id":17456,"position":12,"audio_url":null,"verse_key":"89:15","verse_id":6008,"location":"89:15:12","text_uthmani":"١٥","qpc_uthmani_hafs":"١٥","char_type_name":"end","page_number":593,"line_number":11,"text":"١٥","translation":{"text":"(১৫)","language_name":"bengali","language_id":20},"transliteration":{"text":null,"language_name":"english","language_id":38}}]},{"id":6009,"verse_number":16,"verse_key":"89:16","hizb_number":60,"rub_el_hizb_number":237,"ruku_number":533,"manzil_number":7,"sajdah_number":null,"page_number":593,"juz_number":30,"words":[{"id":18516,"position":1,"audio_url":"wbw/089_016_001.mp3","verse_key":"89:16","verse_id":6009,"location":"89:16:1","text_uthmani":"وَأَمَّآ","qpc_uthmani_hafs":"وَأَمَّآ","char_type_name":"word","page_number":593,"line_number":11,"text":"وَأَمَّآ","translation":{"text":"আর","language_name":"bengali","language_id":20},"transliteration":{"text":"wa-ammā","language_name":"english","language_id":38}},{"id":18517,"position":2,"audio_url":"wbw/089_016_002.mp3","verse_key":"89:16","verse_id":6009,"location":"89:16:2","text_uthmani":"إِذَا","qpc_uthmani_hafs":"إِذَا","char_type_name":"word","page_number":593,"line_number":11,"text":"إِذَا","translation":{"text":"যখন","language_name":"bengali","language_id":20},"transliteration":{"text":"idhā","language_name":"english","language_id":38}},{"id":18518,"position":3,"audio_url":"wbw/089_016_003.mp3","verse_key":"89:16","verse_id":6009,"location":"89:16:3","text_uthmani":"مَا","qpc_uthmani_hafs":"مَا","char_type_name":"word","page_number":593,"line_number":11,"text":"مَا","translation":{"text":"তাকে","language_name":"bengali","language_id":20},"transliteration":{"text":"mā","language_name":"english","language_id":38}},{"id":18519,"position":4,"audio_url":"wbw/089_016_004.mp3","verse_key":"89:16","verse_id":6009,"location":"89:16:4","text_uthmani":"ٱبْتَلَىٰهُ","qpc_uthmani_hafs":"ٱبۡتَلَىٰهُ","char_type_name":"word","page_number":593,"line_number":11,"text":"ٱبۡتَلَىٰهُ","translation":{"text":"পরীক্ষা করেন","language_name":"bengali","language_id":20},"transliteration":{"text":"ib'talāhu","language_name":"english","language_id":38}},{"id":18520,"position":5,"audio_url":"wbw/089_016_005.mp3","verse_key":"89:16","verse_id":6009,"location":"89:16:5","text_uthmani":"فَقَدَرَ","qpc_uthmani_hafs":"فَقَدَرَ","char_type_name":"word","page_number":593,"line_number":12,"text":"فَقَدَرَ","translation":{"text":"সংকীর্ণ করেন","language_name":"bengali","language_id":20},"transliteration":{"text":"faqadara","language_name":"english","language_id":38}},{"id":18521,"position":6,"audio_url":"wbw/089_016_006.mp3","verse_key":"89:16","verse_id":6009,"location":"89:16:6","text_uthmani":"عَلَيْهِ","qpc_uthmani_hafs":"عَلَيۡهِ","char_type_name":"word","page_number":593,"line_number":12,"text":"عَلَيۡهِ","translation":{"text":"তার  উপর","language_name":"bengali","language_id":20},"transliteration":{"text":"ʿalayhi","language_name":"english","language_id":38}},{"id":18522,"position":7,"audio_url":"wbw/089_016_007.mp3","verse_key":"89:16","verse_id":6009,"location":"89:16:7","text_uthmani":"رِزْقَهُۥ","qpc_uthmani_hafs":"رِزۡقَهُۥ","char_type_name":"word","page_number":593,"line_number":12,"text":"رِزۡقَهُۥ","translation":{"text":"তার রিযক","language_name":"bengali","language_id":20},"transliteration":{"text":"riz'qahu","language_name":"english","language_id":38}},{"id":18523,"position":8,"audio_url":"wbw/089_016_008.mp3","verse_key":"89:16","verse_id":6009,"location":"89:16:8","text_uthmani":"فَيَقُولُ","qpc_uthmani_hafs":"فَيَقُولُ","char_type_name":"word","page_number":593,"line_number":12,"text":"فَيَقُولُ","translation":{"text":"তখন সে বলে","language_name":"bengali","language_id":20},"transliteration":{"text":"fayaqūlu","language_name":"english","language_id":38}},{"id":18524,"position":9,"audio_url":"wbw/089_016_009.mp3","verse_key":"89:16","verse_id":6009,"location":"89:16:9","text_uthmani":"رَبِّىٓ","qpc_uthmani_hafs":"رَبِّيٓ","char_type_name":"word","page_number":593,"line_number":12,"text":"رَبِّيٓ","translation":{"text":"\"আমার রব","language_name":"bengali","language_id":20},"transliteration":{"text":"rabbī","language_name":"english","language_id":38}},{"id":18525,"position":10,"audio_url":"wbw/089_016_010.mp3","verse_key":"89:16","verse_id":6009,"location":"89:16:10","text_uthmani":"أَهَـٰنَنِ","qpc_uthmani_hafs":"أَهَٰنَنِ","char_type_name":"word","page_number":593,"line_number":12,"text":"أَهَٰنَنِ","translation":{"text":"আমাকে হেয় করেছেন\"","language_name":"bengali","language_id":20},"transliteration":{"text":"ahānani","language_name":"english","language_id":38}},{"id":18526,"position":11,"audio_url":null,"verse_key":"89:16","verse_id":6009,"location":"89:16:11","text_uthmani":"١٦","qpc_uthmani_hafs":"١٦","char_type_name":"end","page_number":593,"line_number":12,"text":"١٦","translation":{"text":"(১৬)","language_name":"bengali","language_id":20},"transliteration":{"text":null,"language_name":"english","language_id":38}}]},{"id":6010,"verse_number":17,"verse_key":"89:17","hizb_number":60,"rub_el_hizb_number":237,"ruku_number":533,"manzil_number":7,"sajdah_number":null,"page_number":593,"juz_number":30,"words":[{"id":19504,"position":1,"audio_url":"wbw/089_017_001.mp3","verse_key":"89:17","verse_id":6010,"location":"89:17:1","text_uthmani":"كَلَّا ۖ","qpc_uthmani_hafs":"كـَلَّاۖ","char_type_name":"word","page_number":593,"line_number":12,"text":"كـَلَّاۖ","translation":{"text":"কখনও না","language_name":"bengali","language_id":20},"transliteration":{"text":"kallā","language_name":"english","language_id":38}},{"id":19506,"position":2,"audio_url":"wbw/089_017_003.mp3","verse_key":"89:17","verse_id":6010,"location":"89:17:2","text_uthmani":"بَل","qpc_uthmani_hafs":"بَل","char_type_name":"word","page_number":593,"line_number":12,"text":"بَل","translation":{"text":"বরং","language_name":"bengali","language_id":20},"transliteration":{"text":"bal","language_name":"english","language_id":38}},{"id":19507,"position":3,"audio_url":"wbw/089_017_004.mp3","verse_key":"89:17","verse_id":6010,"location":"89:17:3","text_uthmani":"لَّا","qpc_uthmani_hafs":"لَّا","char_type_name":"word","page_number":593,"line_number":12,"text":"لَّا","translation":{"text":"না","language_name":"bengali","language_id":20},"transliteration":{"text":"lā","language_name":"english","language_id":38}},{"id":19508,"position":4,"audio_url":"wbw/089_017_005.mp3","verse_key":"89:17","verse_id":6010,"location":"89:17:4","text_uthmani":"تُكْرِمُونَ","qpc_uthmani_hafs":"تُكۡرِمُونَ","char_type_name":"word","page_number":593,"line_number":12,"text":"تُكۡرِمُونَ","translation":{"text":"তোমরা সম্মান করো","language_name":"bengali","language_id":20},"transliteration":{"text":"tuk'rimūna","language_name":"english","language_id":38}},{"id":19509,"position":5,"audio_url":"wbw/089_017_006.mp3","verse_key":"89:17","verse_id":6010,"location":"89:17:5","text_uthmani":"ٱلْيَتِيمَ","qpc_uthmani_hafs":"ٱلۡيَتِيمَ","char_type_name":"word","page_number":593,"line_number":13,"text":"ٱلۡيَتِيمَ","translation":{"text":"ইয়াতীমের","language_name":"bengali","language_id":20},"transliteration":{"text":"l-yatīma","language_name":"english","language_id":38}},{"id":19510,"position":6,"audio_url":null,"verse_key":"89:17","verse_id":6010,"location":"89:17:6","text_uthmani":"١٧","qpc_uthmani_hafs":"١٧","char_type_name":"end","page_number":593,"line_number":13,"text":"١٧","translation":{"text":"(১৭)","language_name":"bengali","language_id":20},"transliteration":{"text":null,"language_name":"english","language_id":38}}]},{"id":6011,"verse_number":18,"verse_key":"89:18","hizb_number":60,"rub_el_hizb_number":237,"ruku_number":533,"manzil_number":7,"sajdah_number":null,"page_number":593,"juz_number":30,"words":[{"id":20649,"position":1,"audio_url":"wbw/089_018_001.mp3","verse_key":"89:18","verse_id":6011,"location":"89:18:1","text_uthmani":"وَلَا","qpc_uthmani_hafs":"وَلَا","char_type_name":"word","page_number":593,"line_number":13,"text":"وَلَا","translation":{"text":"এবং না","language_name":"bengali","language_id":20},"transliteration":{"text":"walā","language_name":"english","language_id":38}},{"id":20650,"position":2,"audio_url":"wbw/089_018_002.mp3","verse_key":"89:18","verse_id":6011,"location":"89:18:2","text_uthmani":"تَحَـٰٓضُّونَ","qpc_uthmani_hafs":"تَحَٰٓضُّونَ","char_type_name":"word","page_number":593,"line_number":13,"text":"تَحَٰٓضُّونَ","translation":{"text":"তোমরা পরস্পরকে উৎসাহিত করো","language_name":"bengali","language_id":20},"transliteration":{"text":"taḥāḍḍūna","language_name":"english","language_id":38}},{"id":20651,"position":3,"audio_url":"wbw/089_018_003.mp3","verse_key":"89:18","verse_id":6011,"location":"89:18:3","text_uthmani":"عَلَىٰ","qpc_uthmani_hafs":"عَلَىٰ","char_type_name":"word","page_number":593,"line_number":13,"text":"عَلَىٰ","translation":{"text":"জন্য","language_name":"bengali","language_id":20},"transliteration":{"text":"ʿalā","language_name":"english","language_id":38}},{"id":20652,"position":4,"audio_url":"wbw/089_018_004.mp3","verse_key":"89:18","verse_id":6011,"location":"89:18:4","text_uthmani":"طَعَامِ","qpc_uthmani_hafs":"طَعَامِ","char_type_name":"word","page_number":593,"line_number":13,"text":"طَعَامِ","translation":{"text":"খাদ্য দানের","language_name":"bengali","language_id":20},"transliteration":{"text":"ṭaʿāmi","language_name":"english","language_id":38}},{"id":20653,"position":5,"audio_url":"wbw/089_018_005.mp3","verse_key":"89:18","verse_id":6011,"location":"89:18:5","text_uthmani":"ٱلْمِسْكِينِ","qpc_uthmani_hafs":"ٱلۡمِسۡكِينِ","char_type_name":"word","page_number":593,"line_number":13,"text":"ٱلۡمِسۡكِينِ","translation":{"text":"অভাবগ্রস্তদের","language_name":"bengali","language_id":20},"transliteration":{"text":"l-mis'kīni","language_name":"english","language_id":38}},{"id":20654,"position":6,"audio_url":null,"verse_key":"89:18","verse_id":6011,"location":"89:18:6","text_uthmani":"١٨","qpc_uthmani_hafs":"١٨","char_type_name":"end","page_number":593,"line_number":13,"text":"١٨","translation":{"text":"(১৮)","language_name":"bengali","language_id":20},"transliteration":{"text":null,"language_name":"english","language_id":38}}]},{"id":6012,"verse_number":19,"verse_key":"89:19","hizb_number":60,"rub_el_hizb_number":237,"ruku_number":533,"manzil_number":7,"sajdah_number":null,"page_number":593,"juz_number":30,"words":[{"id":21705,"position":1,"audio_url":"wbw/089_019_001.mp3","verse_key":"89:19","verse_id":6012,"location":"89:19:1","text_uthmani":"وَتَأْكُلُونَ","qpc_uthmani_hafs":"وَتَأۡكُلُونَ","char_type_name":"word","page_number":593,"line_number":13,"text":"وَتَأۡكُلُونَ","translation":{"text":"এবং তোমরা খাও","language_name":"bengali","language_id":20},"transliteration":{"text":"watakulūna","language_name":"english","language_id":38}},{"id":21706,"position":2,"audio_url":"wbw/089_019_002.mp3","verse_key":"89:19","verse_id":6012,"location":"89:19:2","text_uthmani":"ٱلتُّرَاثَ","qpc_uthmani_hafs":"ٱلتُّرَاثَ","char_type_name":"word","page_number":593,"line_number":14,"text":"ٱلتُّرَاثَ","translation":{"text":"উত্তরাধিকারীদের প্রাপ্য সম্পদ","language_name":"bengali","language_id":20},"transliteration":{"text":"l-turātha","language_name":"english","language_id":38}},{"id":21707,"position":3,"audio_url":"wbw/089_019_003.mp3","verse_key":"89:19","verse_id":6012,"location":"89:19:3","text_uthmani":"أَكْلًۭا","qpc_uthmani_hafs":"أَكۡلٗا","char_type_name":"word","page_number":593,"line_number":14,"text":"أَكۡلٗا","translation":{"text":"খাওয়া","language_name":"bengali","language_id":20},"transliteration":{"text":"aklan","language_name":"english","language_id":38}},{"id":21708,"position":4,"audio_url":"wbw/089_019_004.mp3","verse_key":"89:19","verse_id":6012,"location":"89:19:4","text_uthmani":"لَّمًّۭا","qpc_uthmani_hafs":"لَّمّٗا","char_type_name":"word","page_number":593,"line_number":14,"text":"لَّمّٗا","translation":{"text":"সম্পূর্ণরূপে","language_name":"bengali","language_id":20},"transliteration":{"text":"lamman","language_name":"english","language_id":38}},{"id":21709,"position":5,"audio_url":null,"verse_key":"89:19","verse_id":6012,"location":"89:19:5","text_uthmani":"١٩","qpc_uthmani_hafs":"١٩","char_type_name":"end","page_number":593,"line_number":14,"text":"١٩","translation":{"text":"(১৯)","language_name":"bengali","language_id":20},"transliteration":{"text":null,"language_name":"english","language_id":38}}]},{"id":6013,"verse_number":20,"verse_key":"89:20","hizb_number":60,"rub_el_hizb_number":237,"ruku_number":533,"manzil_number":7,"sajdah_number":null,"page_number":593,"juz_number":30,"words":[{"id":22866,"position":1,"audio_url":"wbw/089_020_001.mp3","verse_key":"89:20","verse_id":6013,"location":"89:20:1","text_uthmani":"وَتُحِبُّونَ","qpc_uthmani_hafs":"وَتُحِبُّونَ","char_type_name":"word","page_number":593,"line_number":14,"text":"وَتُحِبُّونَ","translation":{"text":"এবং তোমরা ভালোবাস","language_name":"bengali","language_id":20},"transliteration":{"text":"watuḥibbūna","language_name":"english","language_id":38}},{"id":22867,"position":2,"audio_url":"wbw/089_020_002.mp3","verse_key":"89:20","verse_id":6013,"location":"89:20:2","text_uthmani":"ٱلْمَالَ","qpc_uthmani_hafs":"ٱلۡمَالَ","char_type_name":"word","page_number":593,"line_number":14,"text":"ٱلۡمَالَ","translation":{"text":"ধনসম্পদ","language_name":"bengali","language_id":20},"transliteration":{"text":"l-māla","language_name":"english","language_id":38}},{"id":22868,"position":3,"audio_url":"wbw/089_020_003.mp3","verse_key":"89:20","verse_id":6013,"location":"89:20:3","text_uthmani":"حُبًّۭا","qpc_uthmani_hafs":"حُبّٗا","char_type_name":"word","page_number":593,"line_number":14,"text":"حُبّٗا","translation":{"text":"ভালোবাসা","language_name":"bengali","language_id":20},"transliteration":{"text":"ḥubban","language_name":"english","language_id":38}},{"id":22869,"position":4,"audio_url":"wbw/089_020_004.mp3","verse_key":"89:20","verse_id":6013,"location":"89:20:4","text_uthmani":"جَمًّۭا","qpc_uthmani_hafs":"جَمّٗا","char_type_name":"word","page_number":593,"line_number":14,"text":"جَمّٗا","translation":{"text":"খুব বেশি","language_name":"bengali","language_id":20},"transliteration":{"text":"jamman","language_name":"english","language_id":38}},{"id":22870,"position":5,"audio_url":null,"verse_key":"89:20","verse_id":6013,"location":"89:20:5","text_uthmani":"٢٠","qpc_uthmani_hafs":"٢٠","char_type_name":"end","page_number":593,"line_number":14,"text":"٢٠","translation":{"text":"(২০)","language_name":"bengali","language_id":20},"transliteration":{"text":null,"language_name":"english","language_id":38}}]}],"pagination":{"per_page":10,"current_page":2,"next_page":3,"total_pages":3,"total_records":30}}
