{"verses":[{"id":5932,"verse_number":1,"verse_key":"86:1","hizb_number":59,"rub_el_hizb_number":236,"ruku_number":530,"manzil_number":7,"sajdah_number":null,"page_number":591,"juz_number":30,"words":[{"id":716,"position":1,"audio_url":"wbw/086_001_001.mp3","verse_key":"86:1","verse_id":5932,"location":"86:1:1","text_uthmani":"وَٱلسَّمَآءِ","qpc_uthmani_hafs":"وَٱلسَّمَآءِ","char_type_name":"word","page_number":591,"line_number":3,"text":"وَٱلسَّمَآءِ","translation":{"text":"শপথ আকাশের","language_name":"bengali","language_id":20},"transliteration":{"text":"wal-samāi","language_name":"english","language_id":38}},{"id":717,"position":2,"audio_url":"wbw/086_001_002.mp3","verse_key":"86:1","verse_id":5932,"location":"86:1:2","text_uthmani":"وَٱلطَّارِقِ","qpc_uthmani_hafs":"وَٱلطَّارِقِ","char_type_name":"word","page_number":591,"line_number":3,"text":"وَٱلطَّارِقِ","translation":{"text":"এবং রাত্রে আত্মপ্রকাশকারী (নক্ষত্রের)","language_name":"bengali","language_id":20},"transliteration":{"text":"wal-ṭāriqi","language_name":"english","language_id":38}},{"id":718,"position":3,"audio_url":null,"verse_key":"86:1","verse_id":5932,"location":"86:1:3","text_uthmani":"١","qpc_uthmani_hafs":"١","char_type_name":"end","page_number":591,"line_number":3,"text":"١","translation":{"text":"(১)","language_name":"bengali","language_id":20},"transliteration":{"text":null,"language_name":"english","language_id":38}}]},{"id":5933,"verse_number":2,"verse_key":"86:2","hizb_number":59,"rub_el_hizb_number":236,"ruku_number":530,"manzil_number":7,"sajdah_number":null,"page_number":591,"juz_number":30,"words":[{"id":1764,"position":1,"audio_url":"wbw/086_002_001.mp3","verse_key":"86:2","verse_id":5933,"location":"86:2:1","text_uthmani":"وَمَآ","qpc_uthmani_hafs":"وَمَآ","char_type_name":"word","page_number":591,"line_number":3,"text":"وَمَآ","translation":{"text":"এবং কিসে","language_name":"bengali","language_id":20},"transliteration":{"text":"wamā","language_name":"english","language_id":38}},{"id":1765,"position":2,"audio_url":"wbw/086_002_002.mp3","verse_key":"86:2","verse_id":5933,"location":"86:2:2","text_uthmani":"أَدْرَىٰكَ","qpc_uthmani_hafs":"أَدۡرَىٰكَ","char_type_name":"word","page_number":591,"line_number":3,"text":"أَدۡرَىٰكَ","translation":{"text":"তোমাকে জানাবে","language_name":"bengali","language_id":20},"transliteration":{"text":"adrāka","language_name":"english","language_id":38}},{"id":1766,"position":3,"audio_url":"wbw/086_002_003.mp3","verse_key":"86:2","verse_id":5933,"location":"86:2:3","text_uthmani":"مَا","qpc_uthmani_hafs":"مَا","char_type_name":"word","page_number":591,"line_number":3,"text":"مَا","translation":{"text":"কি সেই","language_name":"bengali","language_id":20},"transliteration":{"text":"mā","language_name":"english","language_id":38}},{"id":1767,"position":4,"audio_url":"wbw/086_002_004.mp3","verse_key":"86:2","verse_id":5933,"location":"86:2:4","text_uthmani":"ٱلطَّارِقُ","qpc_uthmani_hafs":"ٱلطَّارِقُ","char_type_name":"word","page_number":591,"line_number":3,"text":"ٱلطَّارِقُ","translation":{"text":"রাতে আত্মপ্রকাশকারী","language_name":"bengali","language_id":20},"transliteration":{"text":"l-ṭāriqu","language_name":"english","language_id":38}},{"id":1768,"position":5,"audio_url":null,"verse_key":"86:2","verse_id":5933,"location":"86:2:5","text_uthmani":"٢","qpc_uthmani_hafs":"٢","char_type_name":"end","page_number":591,"line_number":3,"text":"٢","translation":{"text":"(২)","language_name":"bengali","language_id":20},"transliteration":{"text":null,"language_name":"english","language_id":38}}]},{"id":5934,"verse_number":3,"verse_key":"86:3","hizb_number":59,"rub_el_hizb_number":236,"ruku_number":530,"manzil_number":7,"sajdah_number":null,"page_number":591,"juz_number":30,"words":[{"id":2882,"position":1,"audio_url":"wbw/086_003_001.mp3","verse_key":"86:3","verse_id":5934,"location":"86:3:1","text_uthmani":"ٱلنَّجْمُ","qpc_uthmani_hafs":"ٱلنَّجۡمُ","char_type_name":"word","page_number":591,"line_number":3,"text":"ٱلنَّجۡمُ","translation":{"text":"নক্ষত্র","language_name":"bengali","language_id":20},"transliteration":{"text":"al-najmu","language_name":"english","language_id":38}},{"id":2883,"position":2,"audio_url":"wbw/086_003_002.mp3","verse_key":"86:3","verse_id":5934,"location":"86:3:2","text_uthmani":"ٱلثَّاقِبُ","qpc_uthmani_hafs":"ٱلثَّاقِبُ","char_type_name":"word","page_number":591,"line_number":3,"text":"ٱلثَّاقِبُ","translation":{"text":"উজ্জ্বল","language_name":"bengali","language_id":20},"transliteration":{"text":"l-thāqibu","language_name":"english","language_id":38}},{"id":2884,"position":3,"audio_url":null,"verse_key":"86:3","verse_id":5934,"location":"86:3:3","text_uthmani":"٣","qpc_uthmani_hafs":"٣","char_type_name":"end","page_number":591,"line_number":4,"text":"٣","translation":{"text":"(৩)","language_name":"bengali","language_id":20},"transliteration":{"text":null,"language_name":"english","language_id":38}}]},{"id":5935,"verse_number":4,"verse_key":"86:4","hizb_number":59,"rub_el_hizb_number":236,"ruku_number":530,"manzil_number":7,"sajdah_number":null,"page_number":591,"juz_number":30,"words":[{"id":4239,"position":1,"audio_url":"wbw/086_004_001.mp3","verse_key":"86:4","verse_id":5935,"location":"86:4:1","text_uthmani":"إِن","qpc_uthmani_hafs":"إِن","char_type_name":"word","page_number":591,"line_number":4,"text":"إِن","translation":{"text":"নেই","language_name":"bengali","language_id":20},"transliteration":{"text":"in","language_name":"english","language_id":38}},{"id":4240,"position":2,"audio_url":"wbw/086_004_002.mp3","verse_key":"86:4","verse_id":5935,"location":"86:4:2","text_uthmani":"كُلُّ","qpc_uthmani_hafs":"كُلُّ","char_type_name":"word","page_number":591,"line_number":4,"text":"كُلُّ","translation":{"text":"কোন","language_name":"bengali","language_id":20},"transliteration":{"text":"kullu","language_name":"english","language_id":38}},{"id":4241,"position":3,"audio_url":"wbw/086_004_003.mp3","verse_key":"86:4","verse_id":5935,"location":"86:4:3","text_uthmani":"نَفْسٍۢ","qpc_uthmani_hafs":"نَفۡسٖ","char_type_name":"word","page_number":591,"line_number":4,"text":"نَفۡسٖ","translation":{"text":"ব্যক্তি","language_name":"bengali","language_id":20},"transliteration":{"text":"nafsin","language_name":"english","language_id":38}},{"id":4242,"position":4,"audio_url":"wbw/086_004_004.mp3","verse_key":"86:4","verse_id":5935,"location":"86:4:4","text_uthmani":"لَّمَّا","qpc_uthmani_hafs":"لَّمَّا","char_type_name":"word","page_number":591,"line_number":4,"text":"لَّمَّا","translation":{"text":"এ ছাড়া যে","language_name":"bengali","language_id":20},"transliteration":{"text":"lammā","language_name":"english","language_id":38}},{"id":4243,"position":5,"audio_url":"wbw/086_004_005.mp3","verse_key":"86:4","verse_id":5935,"location":"86:4:5","text_uthmani":"عَلَيْهَا","qpc_uthmani_hafs":"عَلَيۡهَا","char_type_name":"word","page_number":591,"line_number":4,"text":"عَلَيۡهَا","translation":{"text":"তার উপর","language_name":"bengali","language_id":20},"transliteration":{"text":"ʿalayhā","language_name":"english","language_id":38}},{"id":4244,"position":6,"audio_url":"wbw/086_004_006.mp3","verse_key":"86:4","verse_id":5935,"location":"86:4:6","text_uthmani":"حَافِظٌۭ","qpc_uthmani_hafs":"حَافِظٞ","char_type_name":"word","page_number":591,"line_number":4,"text":"حَافِظٞ","translation":{"text":"তত্ত্বাবধায়ক","language_name":"bengali","language_id":20},"transliteration":{"text":"ḥāfiẓun","language_name":"english","language_id":38}},{"id":4245,"position":7,"audio_url":null,"verse_key":"86:4","verse_id":5935,"location":"86:4:7","text_uthmani":"٤","qpc_uthmani_hafs":"٤","char_type_name":"end","page_number":591,"line_number":4,"text":"٤","translation":{"text":"(৪)","language_name":"bengali","language_id":20},"transliteration":{"text":null,"language_name":"english","language_id":38}}]},{"id":5936,"verse_number":5,"verse_key":"86:5","hizb_number":59,"rub_el_hizb_number":236,"ruku_number":530,"manzil_number":7,"sajdah_number":null,"page_number":591,"juz_number":30,"words":[{"id":5502,"position":1,"audio_url":"wbw/086_005_001.mp3","verse_key":"86:5","verse_id":5936,"location":"86:5:1","text_uthmani":"فَلْيَنظُرِ","qpc_uthmani_hafs":"فَلۡيَنظُرِ","char_type_name":"word","page_number":591,"line_number":4,"text":"فَلۡيَنظُرِ","translation":{"text":"অতএব লক্ষ করা উচিৎ","language_name":"bengali","language_id":20},"transliteration":{"text":"falyanẓuri","language_name":"english","language_id":38}},{"id":5503,"position":2,"audio_url":"wbw/086_005_002.mp3","verse_key":"86:5","verse_id":5936,"location":"86:5:2","text_uthmani":"ٱلْإِنسَـٰنُ","qpc_uthmani_hafs":"ٱلۡإِنسَٰنُ","char_type_name":"word","page_number":591,"line_number":4,"text":"ٱلۡإِنسَٰنُ","translation":{"text":"মানুষের","language_name":"bengali","language_id":20},"transliteration":{"text":"l-insānu","language_name":"english","language_id":38}},{"id":5504,"position":3,"audio_url":"wbw/086_005_003.mp3","verse_key":"86:5","verse_id":5936,"location":"86:5:3","text_uthmani":"مِمَّ","qpc_uthmani_hafs":"مِمَّ","char_type_name":"word","page_number":591,"line_number":4,"text":"مِمَّ","translation":{"text":"কি থেকে","language_name":"bengali","language_id":20},"transliteration":{"text":"mimma","language_name":"english","language_id":38}},{"id":5505,"position":4,"audio_url":"wbw/086_005_004.mp3","verse_key":"86:5","verse_id":5936,"location":"86:5:4","text_uthmani":"خُلِقَ","qpc_uthmani_hafs":"خُلِقَ","char_type_name":"word","page_number":591,"line_number":4,"text":"خُلِقَ","translation":{"text":"সৃষ্টি করা হয়েছে (তাকে)","language_name":"bengali","language_id":20},"transliteration":{"text":"khuliqa","language_name":"english","language_id":38}},{"id":5506,"position":5,"audio_url":null,"verse_key":"86:5","verse_id":5936,"location":"86:5:5","text_uthmani":"٥","qpc_uthmani_hafs":"٥","char_type_name":"end","page_number":591,"line_number":4,"text":"٥","translation":{"text":"(৫)","language_name":"bengali","language_id":20},"transliteration":{"text":null,"language_name":"english","language_id":38}}]},{"id":5937,"verse_number":6,"verse_key":"86:6","hizb_number":59,"rub_el_hizb_number":236,"ruku_number":530,"manzil_number":7,"sajdah_number":null,"page_number":591,"juz_number":30,"words":[{"id":6738,"position":1,"audio_url":"wbw/086_006_001.mp3","verse_key":"86:6","verse_id":5937,"location":"86:6:1","text_uthmani":"خُلِقَ","qpc_uthmani_hafs":"خُلِقَ","char_type_name":"word","page_number":591,"line_number":5,"text":"خُلِقَ","translation":{"text":"সৃষ্টি করা হয়েছে","language_name":"bengali","language_id":20},"transliteration":{"text":"khuliqa","language_name":"english","language_id":38}},{"id":6739,"position":2,"audio_url":"wbw/086_006_002.mp3","verse_key":"86:6","verse_id":5937,"location":"86:6:2","text_uthmani":"مِن","qpc_uthmani_hafs":"مِن","char_type_name":"word","page_number":591,"line_number":5,"text":"مِن","translation":{"text":"থেকে","language_name":"bengali","language_id":20},"transliteration":{"text":"min","language_name":"english","language_id":38}},{"id":6740,"position":3,"audio_url":"wbw/086_006_003.mp3","verse_key":"86:6","verse_id":5937,"location":"86:6:3","text_uthmani":"مَّآءٍۢ","qpc_uthmani_hafs":"مَّآءٖ","char_type_name":"word","page_number":591,"line_number":5,"text":"مَّآءٖ","translation":{"text":"পানি","language_name":"bengali","language_id":20},"transliteration":{"text":"māin","language_name":"english","language_id":38}},{"id":6741,"position":4,"audio_url":"wbw/086_006_004.mp3","verse_key":"86:6","verse_id":5937,"location":"86:6:4","text_uthmani":"دَافِقٍۢ","qpc_uthmani_hafs":"دَافِقٖ","char_type_name":"word","page_number":591,"line_number":5,"text":"دَافِقٖ","translation":{"text":"সবেগে স্খলিত","language_name":"bengali","language_id":20},"transliteration":{"text":"dāfiqin","language_name":"english","language_id":38}},{"id":6742,"position":5,"audio_url":null,"verse_key":"86:6","verse_id":5937,"location":"86:6:5","text_uthmani":"٦","qpc_uthmani_hafs":"٦","char_type_name":"end","page_number":591,"line_number":5,"text":"٦","translation":{"text":"(৬)","language_name":"bengali","language_id":20},"transliteration":{"text":null,"language_name":"english","language_id":38}}]},{"id":5938,"verse_number":7,"verse_key":"86:7","hizb_number":59,"rub_el_hizb_number":236,"ruku_number":530,"manzil_number":7,"sajdah_number":null,"page_number":591,"juz_number":30,"words":[{"id":8081,"position":1,"audio_url":"wbw/086_007_001.mp3","verse_key":"86:7","verse_id":5938,"location":"86:7:1","text_uthmani":"يَخْرُجُ","qpc_uthmani_hafs":"يَخۡرُجُ","char_type_name":"word","page_number":591,"line_number":5,"text":"يَخۡرُجُ","translation":{"text":"যা বের হয়","language_name":"bengali","language_id":20},"transliteration":{"text":"yakhruju","language_name":"english","language_id":38}},{"id":8082,"position":2,"audio_url":"wbw/086_007_002.mp3","verse_key":"86:7","verse_id":5938,"location":"86:7:2","text_uthmani":"مِنۢ","qpc_uthmani_hafs":"مِنۢ","char_type_name":"word","page_number":591,"line_number":5,"text":"مِنۢ","translation":{"text":"থেকে","language_name":"bengali","language_id":20},"transliteration":{"text":"min","language_name":"english","language_id":38}},{"id":8083,"position":3,"audio_url":"wbw/086_007_003.mp3","verse_key":"86:7","verse_id":5938,"location":"86:7:3","text_uthmani":"بَيْنِ","qpc_uthmani_hafs":"بَيۡنِ","char_type_name":"word","page_number":591,"line_number":5,"text":"بَيۡنِ","translation":{"text":"মাঝ","language_name":"bengali","language_id":20},"transliteration":{"text":"bayni","language_name":"english","language_id":38}},{"id":8084,"position":4,"audio_url":"wbw/086_007_004.mp3","verse_key":"86:7","verse_id":5938,"location":"86:7:4","text_uthmani":"ٱلصُّلْبِ","qpc_uthmani_hafs":"ٱلصُّلۡبِ","char_type_name":"word","page_number":591,"line_number":5,"text":"ٱلصُّلۡبِ","translation":{"text":"মেরুদণ্ড","language_name":"bengali","language_id":20},"transliteration":{"text":"l-ṣul'bi","language_name":"english","language_id":38}},{"id":8085,"position":5,"audio_url":"wbw/086_007_005.mp3","verse_key":"86:7","verse_id":5938,"location":"86:7:5","text_uthmani":"وَٱلتَّرَآئِبِ","qpc_uthmani_hafs":"وَٱلتَّرَآئِبِ","char_type_name":"word","page_number":591,"line_number":5,"text":"وَٱلتَّرَآئِبِ","translation":{"text":"ও বক্ষপিঞ্জরের","language_name":"bengali","language_id":20},"transliteration":{"text":"wal-tarāibi","language_name":"english","language_id":38}},{"id":8086,"position":6,"audio_url":null,"verse_key":"86:7","verse_id":5938,"location":"86:7:6","text_uthmani":"٧","qpc_uthmani_hafs":"٧","char_type_name":"end","page_number":591,"line_number":5,"text":"٧","translation":{"text":"(৭)","language_name":"bengali","language_id":20},"transliteration":{"text":null,"language_name":"english","language_id":38}}]},{"id":5939,"verse_number":8,"verse_key":"86:8","hizb_number":59,"rub_el_hizb_number":236,"ruku_number":530,"manzil_number":7,"sajdah_number":null,"page_number":591,"juz_number":30,"words":[{"id":9253,"position":1,"audio_url":"wbw/086_008_001.mp3","verse_key":"86:8","verse_id":5939,"location":"86:8:1","text_uthmani":"إِنَّهُۥ","qpc_uthmani_hafs":"إِنَّهُۥ","char_type_name":"word","page_number":591,"line_number":5,"text":"إِنَّهُۥ","translation":{"text":"নিশ্চয়ই তিনি","language_name":"bengali","language_id":20},"transliteration":{"text":"innahu","language_name":"english","language_id":38}},{"id":9254,"position":2,"audio_url":"wbw/086_008_002.mp3","verse_key":"86:8","verse_id":5939,"location":"86:8:2","text_uthmani":"عَلَىٰ","qpc_uthmani_hafs":"عَلَىٰ","char_type_name":"word","page_number":591,"line_number":5,"text":"عَلَىٰ","translation":{"text":"ব্যাপারে","language_name":"bengali","language_id":20},"transliteration":{"text":"ʿalā","language_name":"english","language_id":38}},{"id":9255,"position":3,"audio_url":"wbw/086_008_003.mp3","verse_key":"86:8","verse_id":5939,"location":"86:8:3","text_uthmani":"رَجْعِهِۦ","qpc_uthmani_hafs":"رَجۡعِهِۦ","char_type_name":"word","page_number":591,"line_number":6,"text":"رَجۡعِهِۦ","translation":{"text":"তার প্রত্যাবর্তনে","language_name":"bengali","language_id":20},"transliteration":{"text":"rajʿihi","language_name":"english","language_id":38}},{"id":9256,"position":4,"audio_url":"wbw/086_008_004.mp3","verse_key":"86:8","verse_id":5939,"location":"86:8:4","text_uthmani":"لَقَادِرٌۭ","qpc_uthmani_hafs":"لَقَادِرٞ","char_type_name":"word","page_number":591,"line_number":6,"text":"لَقَادِرٞ","translation":{"text":"অবশ্যই সক্ষম","language_name":"bengali","language_id":20},"transliteration":{"text":"laqādirun","language_name":"english","language_id":38}},{"id":9257,"position":5,"audio_url":null,"verse_key":"86:8","verse_id":5939,"location":"86:8:5","text_uthmani":"٨","qpc_uthmani_hafs":"٨","char_type_name":"end","page_number":591,"line_number":6,"text":"٨","translation":{"text":"(৮)","language_name":"bengali","language_id":20},"transliteration":{"text":null,"language_name":"english","language_id":38}}]},{"id":5940,"verse_number":9,"verse_key":"86:9","hizb_number":59,"rub_el_hizb_number":236,"ruku_number":530,"manzil_number":7,"sajdah_number":null,"page_number":591,"juz_number":30,"words":[{"id":10450,"position":1,"audio_url":"wbw/086_009_001.mp3","verse_key":"86:9","verse_id":5940,"location":"86:9:1","text_uthmani":"يَوْمَ","qpc_uthmani_hafs":"يَوۡمَ","char_type_name":"word","page_number":591,"line_number":6,"text":"يَوۡمَ","translation":{"text":"সেদিন","language_name":"bengali","language_id":20},"transliteration":{"text":"yawma","language_name":"english","language_id":38}},{"id":10451,"position":2,"audio_url":"wbw/086_009_002.mp3","verse_key":"86:9","verse_id":5940,"location":"86:9:2","text_uthmani":"تُبْلَى","qpc_uthmani_hafs":"تُبۡلَى","char_type_name":"word","page_number":591,"line_number":6,"text":"تُبۡلَى","translation":{"text":"পরীক্ষা করা হবে","language_name":"bengali","language_id":20},"transliteration":{"text":"tub'lā","language_name":"english","language_id":38}},{"id":10452,"position":3,"audio_url":"wbw/086_009_003.mp3","verse_key":"86:9","verse_id":5940,"location":"86:9:3","text_uthmani":"ٱلسَّرَآئِرُ","qpc_uthmani_hafs":"ٱلسَّرَآئِرُ","char_type_name":"word","page_number":591,"line_number":6,"text":"ٱلسَّرَآئِرُ","translation":{"text":"গোপন বিষয়াবলী","language_name":"bengali","language_id":20},"transliteration":{"text":"l-sarāiru","language_name":"english","language_id":38}},{"id":10453,"position":4,"audio_url":null,"verse_key":"86:9","verse_id":5940,"location":"86:9:4","text_uthmani":"٩","qpc_uthmani_hafs":"٩","char_type_name":"end","page_number":591,"line_number":6,"text":"٩","translation":{"text":"(৯)","language_name":"bengali","language_id":20},"transliteration":{"text":null,"language_name":"english","language_id":38}}]},{"id":5941,"verse_number":10,"verse_key":"86:10","hizb_number":59,"rub_el_hizb_number":236,"ruku_number":530,"manzil_number":7,"sajdah_number":null,"page_number":591,"juz_number":30,"words":[{"id":11664,"position":1,"audio_url":"wbw/086_010_001.mp3","verse_key":"86:10","verse_id":5941,"location":"86:10:1","text_uthmani":"فَمَا","qpc_uthmani_hafs":"فَمَا","char_type_name":"word","page_number":591,"line_number":6,"text":"فَمَا","translation":{"text":"অতঃপর না","language_name":"bengali","language_id":20},"transliteration":{"text":"famā","language_name":"english","language_id":38}},{"id":11665,"position":2,"audio_url":"wbw/086_010_002.mp3","verse_key":"86:10","verse_id":5941,"location":"86:10:2","text_uthmani":"لَهُۥ","qpc_uthmani_hafs":"لَهُۥ","char_type_name":"word","page_number":591,"line_number":6,"text":"لَهُۥ","translation":{"text":"তার জন্য (থাকবে)","language_name":"bengali","language_id":20},"transliteration":{"text":"lahu","language_name":"english","language_id":38}},{"id":11666,"position":3,"audio_url":"wbw/086_010_003.mp3","verse_key":"86:10","verse_id":5941,"location":"86:10:3","text_uthmani":"مِن","qpc_uthmani_hafs":"مِن","char_type_name":"word","page_number":591,"line_number":6,"text":"مِن","translation":{"text":"কোন","language_name":"bengali","language_id":20},"transliteration":{"text":"min","language_name":"english","language_id":38}},{"id":11667,"position":4,"audio_url":"wbw/086_010_004.mp3","verse_key":"86:10","verse_id":5941,"location":"86:10:4","text_uthmani":"قُوَّةٍۢ","qpc_uthmani_hafs":"قُوَّةٖ","char_type_name":"word","page_number":591,"line_number":6,"text":"قُوَّةٖ","translation":{"text":"শক্তি","language_name":"bengali","language_id":20},"transliteration":{"text":"quwwatin","language_name":"english","language_id":38}},{"id":11668,"position":5,"audio_url":"wbw/086_010_005.mp3","verse_key":"86:10","verse_id":5941,"location":"86:10:5","text_uthmani":"وَلَا","qpc_uthmani_hafs":"وَلَا","char_type_name":"word","page_number":591,"line_number":6,"text":"وَلَا","translation":{"text":"আর না","language_name":"bengali","language_id":20},"transliteration":{"text":"walā","language_name":"english","language_id":38}},{"id":11669,"position":6,"audio_url":"wbw/086_010_006.mp3","verse_key":"86:10","verse_id":5941,"location":"86:10:6","text_uthmani":"نَاصِرٍۢ","qpc_uthmani_hafs":"نَاصِرٖ","char_type_name":"word","page_number":591,"line_number":6,"text":"نَاصِرٖ","translation":{"text":"কোনো সাহায্যকারী","language_name":"bengali","language_id":20},"transliteration":{"text":"nāṣirin","language_name":"english","language_id":38}},{"id":11670,"position":7,"audio_url":null,"verse_key":"86:10","verse_id":5941,"location":"86:10:7","text_uthmani":"١٠","qpc_uthmani_hafs":"١٠","char_type_name":"end","page_number":591,"line_number":7,"text":"١٠","translation":{"text":"(১০)","language_name":"bengali","language_id":20},"transliteration":{"text":null,"language_name":"english","language_id":38}}]}],"pagination":{"per_page":10,"current_page":1,"next_page":2,"total_pages":2,"total_records":17}}
