{"verses":[{"id":5942,"verse_number":11,"verse_key":"86:11","hizb_number":59,"rub_el_hizb_number":236,"ruku_number":530,"manzil_number":7,"sajdah_number":null,"page_number":591,"juz_number":30,"words":[{"id":13040,"position":1,"audio_url":"wbw/086_011_001.mp3","char_type_name":"word","page_number":591,"line_number":7,"text":"وَٱلسَّمَآءِ","translation":{"text":"শপথ আকাশের","language_name":"bengali","language_id":20},"transliteration":{"text":"wal-samāi","language_name":"english","language_id":38}},{"id":13041,"position":2,"audio_url":"wbw/086_011_002.mp3","char_type_name":"word","page_number":591,"line_number":7,"text":"ذَاتِ","translation":{"text":"ধারণকারী","language_name":"bengali","language_id":20},"transliteration":{"text":"dhāti","language_name":"english","language_id":38}},{"id":13042,"position":3,"audio_url":"wbw/086_011_003.mp3","char_type_name":"word","page_number":591,"line_number":7,"text":"ٱلرَّجْعِ","translation":{"text":"বৃষ্টির","language_name":"bengali","language_id":20},"transliteration":{"text":"l-rajʿi","language_name":"english","language_id":38}},{"id":13043,"position":4,"audio_url":null,"char_type_name":"end","page_number":591,"line_number":7,"text":"١١","translation":{"text":"(১১)","language_name":"bengali","language_id":20},"transliteration":{"text":null,"language_name":"english","language_id":38}}]},{"id":5943,"verse_number":12,"verse_key":"86:12","hizb_number":59,"rub_el_hizb_number":236,"ruku_number":530,"manzil_number":7,"sajdah_number":null,"page_number":591,"juz_number":30,"words":[{"id":14495,"position":1,"audio_url":"wbw/086_012_001.mp3","char_type_name":"word","page_number":591,"line_number":7,"text":"وَٱلْأَرْضِ","translation":{"text":"শপথ পৃথিবীর (যা)","language_name":"bengali","language_id":20},"transliteration":{"text":"wal-arḍi","language_name":"english","language_id":38}},{"id":14496,"position":2,"audio_url":"wbw/086_012_002.mp3","char_type_name":"word","page_number":591,"line_number":7,"text":"ذَاتِ","translation":{"text":"বিশিষ্ট","language_name":"bengali","language_id":20},"transliteration":{"text":"dhāti","language_name":"english","language_id":38}},{"id":14497,"position":3,"audio_url":"wbw/086_012_003.mp3","char_type_name":"word","page_number":591,"line_number":7,"text":"ٱلصَّدْعِ","translation":{"text":"বিদীর্ণ (বক্ষ)","language_name":"bengali","language_id":20},"transliteration":{"text":"l-ṣadʿi","language_name":"english","language_id":38}},{"id":14498,"position":4,"audio_url":null,"char_type_name":"end","page_number":591,"line_number":7,"text":"١٢","translation":{"text":"(১২)","language_name":"bengali","language_id":20},"transliteration":{"text":null,"language_name":"english","language_id":38}}]},{"id":5944,"verse_number":13,"verse_key":"86:13","hizb_number":59,"rub_el_hizb_number":236,"ruku_number":530,"manzil_number":7,"sajdah_number":null,"page_number":591,"juz_number":30,"words":[{"id":15402,"position":1,"audio_url":"wbw/086_013_001.mp3","char_type_name":"word","page_number":591,"line_number":7,"text":"إِنَّهُۥ","translation":{"text":"নিশ্চয় তা","language_name":"bengali","language_id":20},"transliteration":{"text":"innahu","language_name":"english","language_id":38}},{"id":15403,"position":2,"audio_url":"wbw/086_013_002.mp3","char_type_name":"word","page_number":591,"line_number":8,"text":"لَقَوْلٌۭ","translation":{"text":"অবশ্যই বাণী","language_name":"bengali","language_id":20},"transliteration":{"text":"laqawlun","language_name":"english","language_id":38}},{"id":15404,"position":3,"audio_url":"wbw/086_013_003.mp3","char_type_name":"word","page_number":591,"line_number":8,"text":"فَصْلٌۭ","translation":{"text":"মীমাংসাকারী","language_name":"bengali","language_id":20},"transliteration":{"text":"faṣlun","language_name":"english","language_id":38}},{"id":15405,"position":4,"audio_url":null,"char_type_name":"end","page_number":591,"line_number":8,"text":"١٣","translation":{"text":"(১৩)","language_name":"bengali","language_id":20},"transliteration":{"text":null,"language_name":"english","language_id":38}}]},{"id":5945,"verse_number":14,"verse_key":"86:14","hizb_number":59,"rub_el_hizb_number":236,"ruku_number":530,"manzil_number":7,"sajdah_number":null,"page_number":591,"juz_number":30,"words":[{"id":16447,"position":1,"audio_url":"wbw/086_014_001.mp3","char_type_name":"word","page_number":591,"line_number":8,"text":"وَمَا","translation":{"text":"এবং না","language_name":"bengali","language_id":20},"transliteration":{"text":"wamā","language_name":"english","language_id":38}},{"id":16448,"position":2,"audio_url":"wbw/086_014_002.mp3","char_type_name":"word","page_number":591,"line_number":8,"text":"هُوَ","translation":{"text":"তা","language_name":"bengali","language_id":20},"transliteration":{"text":"huwa","language_name":"english","language_id":38}},{"id":16449,"position":3,"audio_url":"wbw/086_014_003.mp3","char_type_name":"word","page_number":591,"line_number":8,"text":"بِٱلْهَزْلِ","translation":{"text":"হাসি-ঠাট্টার কথা","language_name":"bengali","language_id":20},"transliteration":{"text":"bil-hazli","language_name":"english","language_id":38}},{"id":16450,"position":4,"audio_url":null,"char_type_name":"end","page_number":591,"line_number":8,"text":"١٤","translation":{"text":"(১৪)","language_name":"bengali","language_id":20},"transliteration":{"text":null,"language_name":"english","language_id":38}}]},{"id":5946,"verse_number":15,"verse_key":"86:15","hizb_number":59,"rub_el_hizb_number":236,"ruku_number":530,"manzil_number":7,"sajdah_number":null,"page_number":591,"juz_number":30,"words":[{"id":17607,"position":1,"audio_url":"wbw/086_015_001.mp3","char_type_name":"word","page_number":591,"line_number":8,"text":"إِنَّهُمْ","translation":{"text":"নিশ্চয়ই তারা","language_name":"bengali","language_id":20},"transliteration":{"text":"innahum","language_name":"english","language_id":38}},{"id":17608,"position":2,"audio_url":"wbw/086_015_002.mp3","char_type_name":"word","page_number":591,"line_number":8,"text":"يَكِيدُونَ","translation":{"text":"ষড়যন্ত্র করছে","language_name":"bengali","language_id":20},"transliteration":{"text":"yakīdūna","language_name":"english","language_id":38}},{"id":17609,"position":3,"audio_url":"wbw/086_015_003.mp3","char_type_name":"word","page_number":591,"line_number":8,"text":"كَيْدًۭا","translation":{"text":"ভীষণ ষড়যন্ত্র","language_name":"bengali","language_id":20},"transliteration":{"text":"kaydan","language_name":"english","language_id":38}},{"id":17610,"position":4,"audio_url":null,"char_type_name":"end","page_number":591,"line_number":8,"text":"١٥","translation":{"text":"(১৫)","language_name":"bengali","language_id":20},"transliteration":{"text":null,"language_name":"english","language_id":38}}]},{"id":5947,"verse_number":16,"verse_key":"86:16","hizb_number":59,"rub_el_hizb_number":236,"ruku_number":530,"manzil_number":7,"sajdah_number":null,"page_number":591,"juz_number":30,"words":[{"id":18777,"position":1,"audio_url":"wbw/086_016_001.mp3","char_type_name":"word","page_number":591,"line_number":9,"text":"وَأَكِيدُ","translation":{"text":"এবং আমি কৌশল করছি","language_name":"bengali","language_id":20},"transliteration":{"text":"wa-akīdu","language_name":"english","language_id":38}},{"id":18778,"position":2,"audio_url":"wbw/086_016_002.mp3","char_type_name":"word","page_number":591,"line_number":9,"text":"كَيْدًۭا","translation":{"text":"ভীষণ কৌশল","language_name":"bengali","language_id":20},"transliteration":{"text":"kaydan","language_name":"english","language_id":38}},{"id":18779,"position":3,"audio_url":null,"char_type_name":"end","page_number":591,"line_number":9,"text":"١٦","translation":{"text":"(১৬)","language_name":"bengali","language_id":20},"transliteration":{"text":null,"language_name":"english","language_id":38}}]},{"id":5948,"verse_number":17,"verse_key":"86:17","hizb_number":59,"rub_el_hizb_number":236,"ruku_number":530,"manzil_number":7,"sajdah_number":null,"page_number":591,"juz_number":30,"words":[{"id":19707,"position":1,"audio_url":"wbw/086_017_001.mp3","char_type_name":"word","page_number":591,"line_number":9,"text":"فَمَهِّلِ","translation":{"text":"তাই অবকাশ দাও","language_name":"bengali","language_id":20},"transliteration":{"text":"famahhili","language_name":"english","language_id":38}},{"id":19708,"position":2,"audio_url":"wbw/086_017_002.mp3","char_type_name":"word","page_number":591,"line_number":9,"text":"ٱلْكَـٰفِرِينَ","translation":{"text":"কাফেরদেরকে","language_name":"bengali","language_id":20},"transliteration":{"text":"l-kāfirīna","language_name":"english","language_id":38}},{"id":19709,"position":3,"audio_url":"wbw/086_017_003.mp3","char_type_name":"word","page_number":591,"line_number":9,"text":"أَمْهِلْهُمْ","translation":{"text":"তাদের অবকাশ দাও","language_name":"bengali","language_id":20},"transliteration":{"text":"amhil'hum","language_name":"english","language_id":38}},{"id":19710,"position":4,"audio_url":"wbw/086_017_004.mp3","char_type_name":"word","page_number":591,"line_number":9,"text":"رُوَيْدًۢا","translation":{"text":"কিছুক্ষণের","language_name":"bengali","language_id":20},"transliteration":{"text":"ruwaydan","language_name":"english","language_id":38}},{"id":19711,"position":5,"audio_url":null,"char_type_name":"end","page_number":591,"line_number":9,"text":"١٧","translation":{"text":"(১৭)","language_name":"bengali","language_id":20},"transliteration":{"text":null,"language_name":"english","language_id":38}}]}],"pagination":{"per_page":10,"current_page":2,"next_page":null,"total_pages":2,"total_records":17}}
