{"verses":[{"id":5769,"verse_number":11,"verse_key":"80:11","hizb_number":59,"rub_el_hizb_number":234,"ruku_number":524,"manzil_number":7,"sajdah_number":null,"page_number":585,"juz_number":30,"words":[{"id":13002,"position":1,"audio_url":"wbw/080_011_001.mp3","verse_key":"80:11","verse_id":5769,"location":"80:11:1","text_uthmani":"كَلَّآ","qpc_uthmani_hafs":"كـَلَّآ","char_type_name":"word","page_number":585,"line_number":5,"text":"كـَلَّآ","translation":{"text":"Nay","language_name":"english","language_id":38},"transliteration":{"text":"kallā","language_name":"english","language_id":38}},{"id":13003,"position":2,"audio_url":"wbw/080_011_002.mp3","verse_key":"80:11","verse_id":5769,"location":"80:11:2","text_uthmani":"إِنَّهَا","qpc_uthmani_hafs":"إِنَّهَا","char_type_name":"word","page_number":585,"line_number":5,"text":"إِنَّهَا","translation":{"text":"Indeed, it","language_name":"english","language_id":38},"transliteration":{"text":"innahā","language_name":"english","language_id":38}},{"id":13004,"position":3,"audio_url":"wbw/080_011_003.mp3","verse_key":"80:11","verse_id":5769,"location":"80:11:3","text_uthmani":"تَذْكِرَةٌۭ","qpc_uthmani_hafs":"تَذۡكِرَةٞ","char_type_name":"word","page_number":585,"line_number":5,"text":"تَذۡكِرَةٞ","translation":{"text":"(is) a reminder","language_name":"english","language_id":38},"transliteration":{"text":"tadhkiratun","language_name":"english","language_id":38}},{"id":13005,"position":4,"audio_url":null,"verse_key":"80:11","verse_id":5769,"location":"80:11:4","text_uthmani":"١١","qpc_uthmani_hafs":"١١","char_type_name":"end","page_number":585,"line_number":5,"text":"١١","translation":{"text":"(11)","language_name":"english","language_id":38},"transliteration":{"text":null,"language_name":"english","language_id":38}}]},{"id":5770,"verse_number":12,"verse_key":"80:12","hizb_number":59,"rub_el_hizb_number":234,"ruku_number":524,"manzil_number":7,"sajdah_number":null,"page_number":585,"juz_number":30,"words":[{"id":14324,"position":1,"audio_url":"wbw/080_012_001.mp3","verse_key":"80:12","verse_id":5770,"location":"80:12:1","text_uthmani":"فَمَن","qpc_uthmani_hafs":"فَمَن","char_type_name":"word","page_number":585,"line_number":5,"text":"فَمَن","translation":{"text":"So whosoever","language_name":"english","language_id":38},"transliteration":{"text":"faman","language_name":"english","language_id":38}},{"id":14325,"position":2,"audio_url":"wbw/080_012_002.mp3","verse_key":"80:12","verse_id":5770,"location":"80:12:2","text_uthmani":"شَآءَ","qpc_uthmani_hafs":"شَآءَ","char_type_name":"word","page_number":585,"line_number":5,"text":"شَآءَ","translation":{"text":"wills","language_name":"english","language_id":38},"transliteration":{"text":"shāa","language_name":"english","language_id":38}},{"id":14326,"position":3,"audio_url":"wbw/080_012_003.mp3","verse_key":"80:12","verse_id":5770,"location":"80:12:3","text_uthmani":"ذَكَرَهُۥ","qpc_uthmani_hafs":"ذَكَرَهُۥ","char_type_name":"word","page_number":585,"line_number":5,"text":"ذَكَرَهُۥ","translation":{"text":"may remember it","language_name":"english","language_id":38},"transliteration":{"text":"dhakarahu","language_name":"english","language_id":38}},{"id":14327,"position":4,"audio_url":null,"verse_key":"80:12","verse_id":5770,"location":"80:12:4","text_uthmani":"١٢","qpc_uthmani_hafs":"١٢","char_type_name":"end","page_number":585,"line_number":5,"text":"١٢","translation":{"text":"(12)","language_name":"english","language_id":38},"transliteration":{"text":null,"language_name":"english","language_id":38}}]},{"id":5771,"verse_number":13,"verse_key":"80:13","hizb_number":59,"rub_el_hizb_number":234,"ruku_number":524,"manzil_number":7,"sajdah_number":null,"page_number":585,"juz_number":30,"words":[{"id":15695,"position":1,"audio_url":"wbw/080_013_001.mp3","verse_key":"80:13","verse_id":5771,"location":"80:13:1","text_uthmani":"فِى","qpc_uthmani_hafs":"فِي","char_type_name":"word","page_number":585,"line_number":5,"text":"فِي","translation":{"text":"In","language_name":"english","language_id":38},"transliteration":{"text":"fī","language_name":"english","language_id":38}},{"id":15696,"position":2,"audio_url":"wbw/080_013_002.mp3","verse_key":"80:13","verse_id":5771,"location":"80:13:2","text_uthmani":"صُحُفٍۢ","qpc_uthmani_hafs":"صُحُفٖ","char_type_name":"word","page_number":585,"line_number":5,"text":"صُحُفٖ","translation":{"text":"sheets","language_name":"english","language_id":38},"transliteration":{"text":"ṣuḥufin","language_name":"english","language_id":38}},{"id":15697,"position":3,"audio_url":"wbw/080_013_003.mp3","verse_key":"80:13","verse_id":5771,"location":"80:13:3","text_uthmani":"مُّكَرَّمَةٍۢ","qpc_uthmani_hafs":"مُّكَرَّمَةٖ","char_type_name":"word","page_number":585,"line_number":6,"text":"مُّكَرَّمَةٖ","translation":{"text":"honored","language_name":"english","language_id":38},"transliteration":{"text":"mukarramatin","language_name":"english","language_id":38}},{"id":15698,"position":4,"audio_url":null,"verse_key":"80:13","verse_id":5771,"location":"80:13:4","text_uthmani":"١٣","qpc_uthmani_hafs":"١٣","char_type_name":"end","page_number":585,"line_number":6,"text":"١٣","translation":{"text":"(13)","language_name":"english","language_id":38},"transliteration":{"text":null,"language_name":"english","language_id":38}}]},{"id":5772,"verse_number":14,"verse_key":"80:14","hizb_number":59,"rub_el_hizb_number":234,"ruku_number":524,"manzil_number":7,"sajdah_number":null,"page_number":585,"juz_number":30,"words":[{"id":16803,"position":1,"audio_url":"wbw/080_014_001.mp3","verse_key":"80:14","verse_id":5772,"location":"80:14:1","text_uthmani":"مَّرْفُوعَةٍۢ","qpc_uthmani_hafs":"مَّرۡفُوعَةٖ","char_type_name":"word","page_number":585,"line_number":6,"text":"مَّرۡفُوعَةٖ","translation":{"text":"Exalted","language_name":"english","language_id":38},"transliteration":{"text":"marfūʿatin","language_name":"english","language_id":38}},{"id":16804,"position":2,"audio_url":"wbw/080_014_002.mp3","verse_key":"80:14","verse_id":5772,"location":"80:14:2","text_uthmani":"مُّطَهَّرَةٍۭ","qpc_uthmani_hafs":"مُّطَهَّرَةِۭ","char_type_name":"word","page_number":585,"line_number":6,"text":"مُّطَهَّرَةِۭ","translation":{"text":"purified","language_name":"english","language_id":38},"transliteration":{"text":"muṭahharatin","language_name":"english","language_id":38}},{"id":16805,"position":3,"audio_url":null,"verse_key":"80:14","verse_id":5772,"location":"80:14:3","text_uthmani":"١٤","qpc_uthmani_hafs":"١٤","char_type_name":"end","page_number":585,"line_number":6,"text":"١٤","translation":{"text":"(14)","language_name":"english","language_id":38},"transliteration":{"text":null,"language_name":"english","language_id":38}}]},{"id":5773,"verse_number":15,"verse_key":"80:15","hizb_number":59,"rub_el_hizb_number":234,"ruku_number":524,"manzil_number":7,"sajdah_number":null,"page_number":585,"juz_number":30,"words":[{"id":16813,"position":1,"audio_url":"wbw/080_015_001.mp3","verse_key":"80:15","verse_id":5773,"location":"80:15:1","text_uthmani":"بِأَيْدِى","qpc_uthmani_hafs":"بِأَيۡدِي","char_type_name":"word","page_number":585,"line_number":6,"text":"بِأَيۡدِي","translation":{"text":"In (the) hands","language_name":"english","language_id":38},"transliteration":{"text":"bi-aydī","language_name":"english","language_id":38}},{"id":16814,"position":2,"audio_url":"wbw/080_015_002.mp3","verse_key":"80:15","verse_id":5773,"location":"80:15:2","text_uthmani":"سَفَرَةٍۢ","qpc_uthmani_hafs":"سَفَرَةٖ","char_type_name":"word","page_number":585,"line_number":6,"text":"سَفَرَةٖ","translation":{"text":"(of) scribes","language_name":"english","language_id":38},"transliteration":{"text":"safaratin","language_name":"english","language_id":38}},{"id":16815,"position":3,"audio_url":null,"verse_key":"80:15","verse_id":5773,"location":"80:15:3","text_uthmani":"١٥","qpc_uthmani_hafs":"١٥","char_type_name":"end","page_number":585,"line_number":6,"text":"١٥","translation":{"text":"(15)","language_name":"english","language_id":38},"transliteration":{"text":null,"language_name":"english","language_id":38}}]},{"id":5774,"verse_number":16,"verse_key":"80:16","hizb_number":59,"rub_el_hizb_number":234,"ruku_number":524,"manzil_number":7,"sajdah_number":null,"page_number":585,"juz_number":30,"words":[{"id":17980,"position":1,"audio_url":"wbw/080_016_001.mp3","verse_key":"80:16","verse_id":5774,"location":"80:16:1","text_uthmani":"كِرَامٍۭ","qpc_uthmani_hafs":"كِرَامِۭ","char_type_name":"word","page_number":585,"line_number":6,"text":"كِرَامِۭ","translation":{"text":"Noble","language_name":"english","language_id":38},"transliteration":{"text":"kirāmin","language_name":"english","language_id":38}},{"id":17981,"position":2,"audio_url":"wbw/080_016_002.mp3","verse_key":"80:16","verse_id":5774,"location":"80:16:2","text_uthmani":"بَرَرَةٍۢ","qpc_uthmani_hafs":"بَرَرَةٖ","char_type_name":"word","page_number":585,"line_number":6,"text":"بَرَرَةٖ","translation":{"text":"dutiful","language_name":"english","language_id":38},"transliteration":{"text":"bararatin","language_name":"english","language_id":38}},{"id":17982,"position":3,"audio_url":null,"verse_key":"80:16","verse_id":5774,"location":"80:16:3","text_uthmani":"١٦","qpc_uthmani_hafs":"١٦","char_type_name":"end","page_number":585,"line_number":6,"text":"١٦","translation":{"text":"(16)","language_name":"english","language_id":38},"transliteration":{"text":null,"language_name":"english","language_id":38}}]},{"id":5775,"verse_number":17,"verse_key":"80:17","hizb_number":59,"rub_el_hizb_number":234,"ruku_number":524,"manzil_number":7,"sajdah_number":null,"page_number":585,"juz_number":30,"words":[{"id":19197,"position":1,"audio_url":"wbw/080_017_001.mp3","verse_key":"80:17","verse_id":5775,"location":"80:17:1","text_uthmani":"قُتِلَ","qpc_uthmani_hafs":"قُتِلَ","char_type_name":"word","page_number":585,"line_number":7,"text":"قُتِلَ","translation":{"text":"Is destroyed","language_name":"english","language_id":38},"transliteration":{"text":"qutila","language_name":"english","language_id":38}},{"id":19198,"position":2,"audio_url":"wbw/080_017_002.mp3","verse_key":"80:17","verse_id":5775,"location":"80:17:2","text_uthmani":"ٱلْإِنسَـٰنُ","qpc_uthmani_hafs":"ٱلۡإِنسَٰنُ","char_type_name":"word","page_number":585,"line_number":7,"text":"ٱلۡإِنسَٰنُ","translation":{"text":"[the] man","language_name":"english","language_id":38},"transliteration":{"text":"l-insānu","language_name":"english","language_id":38}},{"id":19199,"position":3,"audio_url":"wbw/080_017_003.mp3","verse_key":"80:17","verse_id":5775,"location":"80:17:3","text_uthmani":"مَآ","qpc_uthmani_hafs":"مَآ","char_type_name":"word","page_number":585,"line_number":7,"text":"مَآ","translation":{"text":"how","language_name":"english","language_id":38},"transliteration":{"text":"mā","language_name":"english","language_id":38}},{"id":19200,"position":4,"audio_url":"wbw/080_017_004.mp3","verse_key":"80:17","verse_id":5775,"location":"80:17:4","text_uthmani":"أَكْفَرَهُۥ","qpc_uthmani_hafs":"أَكۡفَرَهُۥ","char_type_name":"word","page_number":585,"line_number":7,"text":"أَكۡفَرَهُۥ","translation":{"text":"ungrateful is he","language_name":"english","language_id":38},"transliteration":{"text":"akfarahu","language_name":"english","language_id":38}},{"id":19201,"position":5,"audio_url":null,"verse_key":"80:17","verse_id":5775,"location":"80:17:5","text_uthmani":"١٧","qpc_uthmani_hafs":"١٧","char_type_name":"end","page_number":585,"line_number":7,"text":"١٧","translation":{"text":"(17)","language_name":"english","language_id":38},"transliteration":{"text":null,"language_name":"english","language_id":38}}]},{"id":5776,"verse_number":18,"verse_key":"80:18","hizb_number":59,"rub_el_hizb_number":234,"ruku_number":524,"manzil_number":7,"sajdah_number":null,"page_number":585,"juz_number":30,"words":[{"id":20752,"position":1,"audio_url":"wbw/080_018_001.mp3","verse_key":"80:18","verse_id":5776,"location":"80:18:1","text_uthmani":"مِنْ","qpc_uthmani_hafs":"مِنۡ","char_type_name":"word","page_number":585,"line_number":7,"text":"مِنۡ","translation":{"text":"From","language_name":"english","language_id":38},"transliteration":{"text":"min","language_name":"english","language_id":38}},{"id":20753,"position":2,"audio_url":"wbw/080_018_002.mp3","verse_key":"80:18","verse_id":5776,"location":"80:18:2","text_uthmani":"أَىِّ","qpc_uthmani_hafs":"أَيِّ","char_type_name":"word","page_number":585,"line_number":7,"text":"أَيِّ","translation":{"text":"what","language_name":"english","language_id":38},"transliteration":{"text":"ayyi","language_name":"english","language_id":38}},{"id":20754,"position":3,"audio_url":"wbw/080_018_003.mp3","verse_key":"80:18","verse_id":5776,"location":"80:18:3","text_uthmani":"شَىْءٍ","qpc_uthmani_hafs":"شَيۡءٍ","char_type_name":"word","page_number":585,"line_number":7,"text":"شَيۡءٍ","translation":{"text":"thing","language_name":"english","language_id":38},"transliteration":{"text":"shayin","language_name":"english","language_id":38}},{"id":20755,"position":4,"audio_url":"wbw/080_018_004.mp3","verse_key":"80:18","verse_id":5776,"location":"80:18:4","text_uthmani":"خَلَقَهُۥ","qpc_uthmani_hafs":"خَلَقَهُۥ","char_type_name":"word","page_number":585,"line_number":7,"text":"خَلَقَهُۥ","translation":{"text":"He created him","language_name":"english","language_id":38},"transliteration":{"text":"khalaqahu","language_name":"english","language_id":38}},{"id":20756,"position":5,"audio_url":null,"verse_key":"80:18","verse_id":5776,"location":"80:18:5","text_uthmani":"١٨","qpc_uthmani_hafs":"١٨","char_type_name":"end","page_number":585,"line_number":7,"text":"١٨","translation":{"text":"(18)","language_name":"english","language_id":38},"transliteration":{"text":null,"language_name":"english","language_id":38}}]},{"id":5777,"verse_number":19,"verse_key":"80:19","hizb_number":59,"rub_el_hizb_number":234,"ruku_number":524,"manzil_number":7,"sajdah_number":null,"page_number":585,"juz_number":30,"words":[{"id":21803,"position":1,"audio_url":"wbw/080_019_001.mp3","verse_key":"80:19","verse_id":5777,"location":"80:19:1","text_uthmani":"مِن","qpc_uthmani_hafs":"مِن","char_type_name":"word","page_number":585,"line_number":7,"text":"مِن","translation":{"text":"From","language_name":"english","language_id":38},"transliteration":{"text":"min","language_name":"english","language_id":38}},{"id":21804,"position":2,"audio_url":"wbw/080_019_002.mp3","verse_key":"80:19","verse_id":5777,"location":"80:19:2","text_uthmani":"نُّطْفَةٍ","qpc_uthmani_hafs":"نُّطۡفَةٍ","char_type_name":"word","page_number":585,"line_number":7,"text":"نُّطۡفَةٍ","translation":{"text":"a semen-drop","language_name":"english","language_id":38},"transliteration":{"text":"nuṭ'fatin","language_name":"english","language_id":38}},{"id":21805,"position":3,"audio_url":"wbw/080_019_003.mp3","verse_key":"80:19","verse_id":5777,"location":"80:19:3","text_uthmani":"خَلَقَهُۥ","qpc_uthmani_hafs":"خَلَقَهُۥ","char_type_name":"word","page_number":585,"line_number":8,"text":"خَلَقَهُۥ","translation":{"text":"He created him","language_name":"english","language_id":38},"transliteration":{"text":"khalaqahu","language_name":"english","language_id":38}},{"id":21806,"position":4,"audio_url":"wbw/080_019_004.mp3","verse_key":"80:19","verse_id":5777,"location":"80:19:4","text_uthmani":"فَقَدَّرَهُۥ","qpc_uthmani_hafs":"فَقَدَّرَهُۥ","char_type_name":"word","page_number":585,"line_number":8,"text":"فَقَدَّرَهُۥ","translation":{"text":"then He proportioned him","language_name":"english","language_id":38},"transliteration":{"text":"faqaddarahu","language_name":"english","language_id":38}},{"id":21807,"position":5,"audio_url":null,"verse_key":"80:19","verse_id":5777,"location":"80:19:5","text_uthmani":"١٩","qpc_uthmani_hafs":"١٩","char_type_name":"end","page_number":585,"line_number":8,"text":"١٩","translation":{"text":"(19)","language_name":"english","language_id":38},"transliteration":{"text":null,"language_name":"english","language_id":38}}]},{"id":5778,"verse_number":20,"verse_key":"80:20","hizb_number":59,"rub_el_hizb_number":234,"ruku_number":524,"manzil_number":7,"sajdah_number":null,"page_number":585,"juz_number":30,"words":[{"id":22937,"position":1,"audio_url":"wbw/080_020_001.mp3","verse_key":"80:20","verse_id":5778,"location":"80:20:1","text_uthmani":"ثُمَّ","qpc_uthmani_hafs":"ثُمَّ","char_type_name":"word","page_number":585,"line_number":8,"text":"ثُمَّ","translation":{"text":"Then","language_name":"english","language_id":38},"transliteration":{"text":"thumma","language_name":"english","language_id":38}},{"id":22938,"position":2,"audio_url":"wbw/080_020_002.mp3","verse_key":"80:20","verse_id":5778,"location":"80:20:2","text_uthmani":"ٱلسَّبِيلَ","qpc_uthmani_hafs":"ٱلسَّبِيلَ","char_type_name":"word","page_number":585,"line_number":8,"text":"ٱلسَّبِيلَ","translation":{"text":"the way","language_name":"english","language_id":38},"transliteration":{"text":"l-sabīla","language_name":"english","language_id":38}},{"id":22939,"position":3,"audio_url":"wbw/080_020_003.mp3","verse_key":"80:20","verse_id":5778,"location":"80:20:3","text_uthmani":"يَسَّرَهُۥ","qpc_uthmani_hafs":"يَسَّرَهُۥ","char_type_name":"word","page_number":585,"line_number":8,"text":"يَسَّرَهُۥ","translation":{"text":"He made easy for him","language_name":"english","language_id":38},"transliteration":{"text":"yassarahu","language_name":"english","language_id":38}},{"id":22940,"position":4,"audio_url":null,"verse_key":"80:20","verse_id":5778,"location":"80:20:4","text_uthmani":"٢٠","qpc_uthmani_hafs":"٢٠","char_type_name":"end","page_number":585,"line_number":8,"text":"٢٠","translation":{"text":"(20)","language_name":"english","language_id":38},"transliteration":{"text":null,"language_name":"english","language_id":38}}]}],"pagination":{"per_page":10,"current_page":2,"next_page":3,"total_pages":5,"total_records":42}}
