{"verses":[{"id":4269,"verse_number":51,"verse_key":"41:51","hizb_number":49,"rub_el_hizb_number":193,"ruku_number":420,"manzil_number":6,"sajdah_number":null,"page_number":482,"juz_number":25,"words":[{"id":49478,"position":1,"audio_url":"wbw/041_051_001.mp3","verse_key":"41:51","verse_id":4269,"location":"41:51:1","text_uthmani":"وَإِذَآ","qpc_uthmani_hafs":"وَإِذَآ","char_type_name":"word","page_number":482,"line_number":9,"text":"وَإِذَآ","translation":{"text":"And when","language_name":"english","language_id":38},"transliteration":{"text":"wa-idhā","language_name":"english","language_id":38}},{"id":49479,"position":2,"audio_url":"wbw/041_051_002.mp3","verse_key":"41:51","verse_id":4269,"location":"41:51:2","text_uthmani":"أَنْعَمْنَا","qpc_uthmani_hafs":"أَنۡعَمۡنَا","char_type_name":"word","page_number":482,"line_number":9,"text":"أَنۡعَمۡنَا","translation":{"text":"We bestow favor","language_name":"english","language_id":38},"transliteration":{"text":"anʿamnā","language_name":"english","language_id":38}},{"id":49480,"position":3,"audio_url":"wbw/041_051_003.mp3","verse_key":"41:51","verse_id":4269,"location":"41:51:3","text_uthmani":"عَلَى","qpc_uthmani_hafs":"عَلَى","char_type_name":"word","page_number":482,"line_number":9,"text":"عَلَى","translation":{"text":"upon","language_name":"english","language_id":38},"transliteration":{"text":"ʿalā","language_name":"english","language_id":38}},{"id":49481,"position":4,"audio_url":"wbw/041_051_004.mp3","verse_key":"41:51","verse_id":4269,"location":"41:51:4","text_uthmani":"ٱلْإِنسَـٰنِ","qpc_uthmani_hafs":"ٱلۡإِنسَٰنِ","char_type_name":"word","page_number":482,"line_number":9,"text":"ٱلۡإِنسَٰنِ","translation":{"text":"man","language_name":"english","language_id":38},"transliteration":{"text":"l-insāni","language_name":"english","language_id":38}},{"id":49482,"position":5,"audio_url":"wbw/041_051_005.mp3","verse_key":"41:51","verse_id":4269,"location":"41:51:5","text_uthmani":"أَعْرَضَ","qpc_uthmani_hafs":"أَعۡرَضَ","char_type_name":"word","page_number":482,"line_number":10,"text":"أَعۡرَضَ","translation":{"text":"he turns away ","language_name":"english","language_id":38},"transliteration":{"text":"aʿraḍa","language_name":"english","language_id":38}},{"id":49483,"position":6,"audio_url":"wbw/041_051_006.mp3","verse_key":"41:51","verse_id":4269,"location":"41:51:6","text_uthmani":"وَنَـَٔا","qpc_uthmani_hafs":"وَنَـَٔا","char_type_name":"word","page_number":482,"line_number":10,"text":"وَنَـَٔا","translation":{"text":"and distances himself","language_name":"english","language_id":38},"transliteration":{"text":"wanaā","language_name":"english","language_id":38}},{"id":49484,"position":7,"audio_url":"wbw/041_051_007.mp3","verse_key":"41:51","verse_id":4269,"location":"41:51:7","text_uthmani":"بِجَانِبِهِۦ","qpc_uthmani_hafs":"بِجَانِبِهِۦ","char_type_name":"word","page_number":482,"line_number":10,"text":"بِجَانِبِهِۦ","translation":{"text":"and distances himself","language_name":"english","language_id":38},"transliteration":{"text":"bijānibihi","language_name":"english","language_id":38}},{"id":49485,"position":8,"audio_url":"wbw/041_051_008.mp3","verse_key":"41:51","verse_id":4269,"location":"41:51:8","text_uthmani":"وَإِذَا","qpc_uthmani_hafs":"وَإِذَا","char_type_name":"word","page_number":482,"line_number":10,"text":"وَإِذَا","translation":{"text":"but when","language_name":"english","language_id":38},"transliteration":{"text":"wa-idhā","language_name":"english","language_id":38}},{"id":49486,"position":9,"audio_url":"wbw/041_051_009.mp3","verse_key":"41:51","verse_id":4269,"location":"41:51:9","text_uthmani":"مَسَّهُ","qpc_uthmani_hafs":"مَسَّهُ","char_type_name":"word","page_number":482,"line_number":10,"text":"مَسَّهُ","translation":{"text":"touches him","language_name":"english","language_id":38},"transliteration":{"text":"massahu","language_name":"english","language_id":38}},{"id":49487,"position":10,"audio_url":"wbw/041_051_010.mp3","verse_key":"41:51","verse_id":4269,"location":"41:51:10","text_uthmani":"ٱلشَّرُّ","qpc_uthmani_hafs":"ٱلشَّرُّ","char_type_name":"word","page_number":482,"line_number":10,"text":"ٱلشَّرُّ","translation":{"text":"the evil","language_name":"english","language_id":38},"transliteration":{"text":"l-sharu","language_name":"english","language_id":38}},{"id":49488,"position":11,"audio_url":"wbw/041_051_011.mp3","verse_key":"41:51","verse_id":4269,"location":"41:51:11","text_uthmani":"فَذُو","qpc_uthmani_hafs":"فَذُو","char_type_name":"word","page_number":482,"line_number":10,"text":"فَذُو","translation":{"text":"then (he is) full","language_name":"english","language_id":38},"transliteration":{"text":"fadhū","language_name":"english","language_id":38}},{"id":49489,"position":12,"audio_url":"wbw/041_051_012.mp3","verse_key":"41:51","verse_id":4269,"location":"41:51:12","text_uthmani":"دُعَآءٍ","qpc_uthmani_hafs":"دُعَآءٍ","char_type_name":"word","page_number":482,"line_number":10,"text":"دُعَآءٍ","translation":{"text":"(of) supplication","language_name":"english","language_id":38},"transliteration":{"text":"duʿāin","language_name":"english","language_id":38}},{"id":49490,"position":13,"audio_url":"wbw/041_051_013.mp3","verse_key":"41:51","verse_id":4269,"location":"41:51:13","text_uthmani":"عَرِيضٍۢ","qpc_uthmani_hafs":"عَرِيضٖ","char_type_name":"word","page_number":482,"line_number":10,"text":"عَرِيضٖ","translation":{"text":"lengthy","language_name":"english","language_id":38},"transliteration":{"text":"ʿarīḍin","language_name":"english","language_id":38}},{"id":49491,"position":14,"audio_url":null,"verse_key":"41:51","verse_id":4269,"location":"41:51:14","text_uthmani":"٥١","qpc_uthmani_hafs":"٥١","char_type_name":"end","page_number":482,"line_number":11,"text":"٥١","translation":{"text":"(51)","language_name":"english","language_id":38},"transliteration":{"text":null,"language_name":"english","language_id":38}}]},{"id":4270,"verse_number":52,"verse_key":"41:52","hizb_number":49,"rub_el_hizb_number":193,"ruku_number":420,"manzil_number":6,"sajdah_number":null,"page_number":482,"juz_number":25,"words":[{"id":49750,"position":1,"audio_url":"wbw/041_052_001.mp3","verse_key":"41:52","verse_id":4270,"location":"41:52:1","text_uthmani":"قُلْ","qpc_uthmani_hafs":"قُلۡ","char_type_name":"word","page_number":482,"line_number":11,"text":"قُلۡ","translation":{"text":"Say","language_name":"english","language_id":38},"transliteration":{"text":"qul","language_name":"english","language_id":38}},{"id":49751,"position":2,"audio_url":"wbw/041_052_002.mp3","verse_key":"41:52","verse_id":4270,"location":"41:52:2","text_uthmani":"أَرَءَيْتُمْ","qpc_uthmani_hafs":"أَرَءَيۡتُمۡ","char_type_name":"word","page_number":482,"line_number":11,"text":"أَرَءَيۡتُمۡ","translation":{"text":"You see ","language_name":"english","language_id":38},"transliteration":{"text":"ara-aytum","language_name":"english","language_id":38}},{"id":49752,"position":3,"audio_url":"wbw/041_052_003.mp3","verse_key":"41:52","verse_id":4270,"location":"41:52:3","text_uthmani":"إِن","qpc_uthmani_hafs":"إِن","char_type_name":"word","page_number":482,"line_number":11,"text":"إِن","translation":{"text":"if","language_name":"english","language_id":38},"transliteration":{"text":"in","language_name":"english","language_id":38}},{"id":49753,"position":4,"audio_url":"wbw/041_052_004.mp3","verse_key":"41:52","verse_id":4270,"location":"41:52:4","text_uthmani":"كَانَ","qpc_uthmani_hafs":"كَانَ","char_type_name":"word","page_number":482,"line_number":11,"text":"كَانَ","translation":{"text":"it is","language_name":"english","language_id":38},"transliteration":{"text":"kāna","language_name":"english","language_id":38}},{"id":49754,"position":5,"audio_url":"wbw/041_052_005.mp3","verse_key":"41:52","verse_id":4270,"location":"41:52:5","text_uthmani":"مِنْ","qpc_uthmani_hafs":"مِنۡ","char_type_name":"word","page_number":482,"line_number":11,"text":"مِنۡ","translation":{"text":"from","language_name":"english","language_id":38},"transliteration":{"text":"min","language_name":"english","language_id":38}},{"id":49755,"position":6,"audio_url":"wbw/041_052_006.mp3","verse_key":"41:52","verse_id":4270,"location":"41:52:6","text_uthmani":"عِندِ","qpc_uthmani_hafs":"عِندِ","char_type_name":"word","page_number":482,"line_number":11,"text":"عِندِ","translation":{"text":"from","language_name":"english","language_id":38},"transliteration":{"text":"ʿindi","language_name":"english","language_id":38}},{"id":49756,"position":7,"audio_url":"wbw/041_052_007.mp3","verse_key":"41:52","verse_id":4270,"location":"41:52:7","text_uthmani":"ٱللَّهِ","qpc_uthmani_hafs":"ٱللَّهِ","char_type_name":"word","page_number":482,"line_number":11,"text":"ٱللَّهِ","translation":{"text":"Allah","language_name":"english","language_id":38},"transliteration":{"text":"l-lahi","language_name":"english","language_id":38}},{"id":49757,"position":8,"audio_url":"wbw/041_052_008.mp3","verse_key":"41:52","verse_id":4270,"location":"41:52:8","text_uthmani":"ثُمَّ","qpc_uthmani_hafs":"ثُمَّ","char_type_name":"word","page_number":482,"line_number":11,"text":"ثُمَّ","translation":{"text":"then","language_name":"english","language_id":38},"transliteration":{"text":"thumma","language_name":"english","language_id":38}},{"id":49758,"position":9,"audio_url":"wbw/041_052_009.mp3","verse_key":"41:52","verse_id":4270,"location":"41:52:9","text_uthmani":"كَفَرْتُم","qpc_uthmani_hafs":"كَفَرۡتُم","char_type_name":"word","page_number":482,"line_number":11,"text":"كَفَرۡتُم","translation":{"text":"you disbelieve","language_name":"english","language_id":38},"transliteration":{"text":"kafartum","language_name":"english","language_id":38}},{"id":49759,"position":10,"audio_url":"wbw/041_052_010.mp3","verse_key":"41:52","verse_id":4270,"location":"41:52:10","text_uthmani":"بِهِۦ","qpc_uthmani_hafs":"بِهِۦ","char_type_name":"word","page_number":482,"line_number":11,"text":"بِهِۦ","translation":{"text":"in it","language_name":"english","language_id":38},"transliteration":{"text":"bihi","language_name":"english","language_id":38}},{"id":49760,"position":11,"audio_url":"wbw/041_052_011.mp3","verse_key":"41:52","verse_id":4270,"location":"41:52:11","text_uthmani":"مَنْ","qpc_uthmani_hafs":"مَنۡ","char_type_name":"word","page_number":482,"line_number":12,"text":"مَنۡ","translation":{"text":"who","language_name":"english","language_id":38},"transliteration":{"text":"man","language_name":"english","language_id":38}},{"id":49761,"position":12,"audio_url":"wbw/041_052_012.mp3","verse_key":"41:52","verse_id":4270,"location":"41:52:12","text_uthmani":"أَضَلُّ","qpc_uthmani_hafs":"أَضَلُّ","char_type_name":"word","page_number":482,"line_number":12,"text":"أَضَلُّ","translation":{"text":"(is) more astray","language_name":"english","language_id":38},"transliteration":{"text":"aḍallu","language_name":"english","language_id":38}},{"id":49762,"position":13,"audio_url":"wbw/041_052_013.mp3","verse_key":"41:52","verse_id":4270,"location":"41:52:13","text_uthmani":"مِمَّنْ","qpc_uthmani_hafs":"مِمَّنۡ","char_type_name":"word","page_number":482,"line_number":12,"text":"مِمَّنۡ","translation":{"text":"than (one) who ","language_name":"english","language_id":38},"transliteration":{"text":"mimman","language_name":"english","language_id":38}},{"id":49763,"position":14,"audio_url":"wbw/041_052_014.mp3","verse_key":"41:52","verse_id":4270,"location":"41:52:14","text_uthmani":"هُوَ","qpc_uthmani_hafs":"هُوَ","char_type_name":"word","page_number":482,"line_number":12,"text":"هُوَ","translation":{"text":"he","language_name":"english","language_id":38},"transliteration":{"text":"huwa","language_name":"english","language_id":38}},{"id":49764,"position":15,"audio_url":"wbw/041_052_015.mp3","verse_key":"41:52","verse_id":4270,"location":"41:52:15","text_uthmani":"فِى","qpc_uthmani_hafs":"فِي","char_type_name":"word","page_number":482,"line_number":12,"text":"فِي","translation":{"text":"(is) in","language_name":"english","language_id":38},"transliteration":{"text":"fī","language_name":"english","language_id":38}},{"id":49765,"position":16,"audio_url":"wbw/041_052_016.mp3","verse_key":"41:52","verse_id":4270,"location":"41:52:16","text_uthmani":"شِقَاقٍۭ","qpc_uthmani_hafs":"شِقَاقِۭ","char_type_name":"word","page_number":482,"line_number":12,"text":"شِقَاقِۭ","translation":{"text":"opposition","language_name":"english","language_id":38},"transliteration":{"text":"shiqāqin","language_name":"english","language_id":38}},{"id":49766,"position":17,"audio_url":"wbw/041_052_017.mp3","verse_key":"41:52","verse_id":4270,"location":"41:52:17","text_uthmani":"بَعِيدٍۢ","qpc_uthmani_hafs":"بَعِيدٖ","char_type_name":"word","page_number":482,"line_number":12,"text":"بَعِيدٖ","translation":{"text":"far","language_name":"english","language_id":38},"transliteration":{"text":"baʿīdin","language_name":"english","language_id":38}},{"id":49767,"position":18,"audio_url":null,"verse_key":"41:52","verse_id":4270,"location":"41:52:18","text_uthmani":"٥٢","qpc_uthmani_hafs":"٥٢","char_type_name":"end","page_number":482,"line_number":12,"text":"٥٢","translation":{"text":"(52)","language_name":"english","language_id":38},"transliteration":{"text":null,"language_name":"english","language_id":38}}]},{"id":4271,"verse_number":53,"verse_key":"41:53","hizb_number":49,"rub_el_hizb_number":193,"ruku_number":420,"manzil_number":6,"sajdah_number":null,"page_number":482,"juz_number":25,"words":[{"id":50377,"position":1,"audio_url":"wbw/041_053_001.mp3","verse_key":"41:53","verse_id":4271,"location":"41:53:1","text_uthmani":"سَنُرِيهِمْ","qpc_uthmani_hafs":"سَنُرِيهِمۡ","char_type_name":"word","page_number":482,"line_number":12,"text":"سَنُرِيهِمۡ","translation":{"text":"Soon We will show them","language_name":"english","language_id":38},"transliteration":{"text":"sanurīhim","language_name":"english","language_id":38}},{"id":50378,"position":2,"audio_url":"wbw/041_053_002.mp3","verse_key":"41:53","verse_id":4271,"location":"41:53:2","text_uthmani":"ءَايَـٰتِنَا","qpc_uthmani_hafs":"ءَايَٰتِنَا","char_type_name":"word","page_number":482,"line_number":12,"text":"ءَايَٰتِنَا","translation":{"text":"Our Signs","language_name":"english","language_id":38},"transliteration":{"text":"āyātinā","language_name":"english","language_id":38}},{"id":50379,"position":3,"audio_url":"wbw/041_053_003.mp3","verse_key":"41:53","verse_id":4271,"location":"41:53:3","text_uthmani":"فِى","qpc_uthmani_hafs":"فِي","char_type_name":"word","page_number":482,"line_number":13,"text":"فِي","translation":{"text":"in","language_name":"english","language_id":38},"transliteration":{"text":"fī","language_name":"english","language_id":38}},{"id":50380,"position":4,"audio_url":"wbw/041_053_004.mp3","verse_key":"41:53","verse_id":4271,"location":"41:53:4","text_uthmani":"ٱلْـَٔافَاقِ","qpc_uthmani_hafs":"ٱلۡأٓفَاقِ","char_type_name":"word","page_number":482,"line_number":13,"text":"ٱلۡأٓفَاقِ","translation":{"text":"the horizons","language_name":"english","language_id":38},"transliteration":{"text":"l-āfāqi","language_name":"english","language_id":38}},{"id":50381,"position":5,"audio_url":"wbw/041_053_005.mp3","verse_key":"41:53","verse_id":4271,"location":"41:53:5","text_uthmani":"وَفِىٓ","qpc_uthmani_hafs":"وَفِيٓ","char_type_name":"word","page_number":482,"line_number":13,"text":"وَفِيٓ","translation":{"text":"and in","language_name":"english","language_id":38},"transliteration":{"text":"wafī","language_name":"english","language_id":38}},{"id":50382,"position":6,"audio_url":"wbw/041_053_006.mp3","verse_key":"41:53","verse_id":4271,"location":"41:53:6","text_uthmani":"أَنفُسِهِمْ","qpc_uthmani_hafs":"أَنفُسِهِمۡ","char_type_name":"word","page_number":482,"line_number":13,"text":"أَنفُسِهِمۡ","translation":{"text":"themselves","language_name":"english","language_id":38},"transliteration":{"text":"anfusihim","language_name":"english","language_id":38}},{"id":50383,"position":7,"audio_url":"wbw/041_053_007.mp3","verse_key":"41:53","verse_id":4271,"location":"41:53:7","text_uthmani":"حَتَّىٰ","qpc_uthmani_hafs":"حَتَّىٰ","char_type_name":"word","page_number":482,"line_number":13,"text":"حَتَّىٰ","translation":{"text":"until","language_name":"english","language_id":38},"transliteration":{"text":"ḥattā","language_name":"english","language_id":38}},{"id":50384,"position":8,"audio_url":"wbw/041_053_008.mp3","verse_key":"41:53","verse_id":4271,"location":"41:53:8","text_uthmani":"يَتَبَيَّنَ","qpc_uthmani_hafs":"يَتَبَيَّنَ","char_type_name":"word","page_number":482,"line_number":13,"text":"يَتَبَيَّنَ","translation":{"text":"becomes clear","language_name":"english","language_id":38},"transliteration":{"text":"yatabayyana","language_name":"english","language_id":38}},{"id":50385,"position":9,"audio_url":"wbw/041_053_009.mp3","verse_key":"41:53","verse_id":4271,"location":"41:53:9","text_uthmani":"لَهُمْ","qpc_uthmani_hafs":"لَهُمۡ","char_type_name":"word","page_number":482,"line_number":13,"text":"لَهُمۡ","translation":{"text":"to them","language_name":"english","language_id":38},"transliteration":{"text":"lahum","language_name":"english","language_id":38}},{"id":50386,"position":10,"audio_url":"wbw/041_053_010.mp3","verse_key":"41:53","verse_id":4271,"location":"41:53:10","text_uthmani":"أَنَّهُ","qpc_uthmani_hafs":"أَنَّهُ","char_type_name":"word","page_number":482,"line_number":13,"text":"أَنَّهُ","translation":{"text":"that it","language_name":"english","language_id":38},"transliteration":{"text":"annahu","language_name":"english","language_id":38}},{"id":50387,"position":11,"audio_url":"wbw/041_053_011.mp3","verse_key":"41:53","verse_id":4271,"location":"41:53:11","text_uthmani":"ٱلْحَقُّ ۗ","qpc_uthmani_hafs":"ٱلۡحَقُّۗ","char_type_name":"word","page_number":482,"line_number":13,"text":"ٱلۡحَقُّۗ","translation":{"text":"(is) the truth","language_name":"english","language_id":38},"transliteration":{"text":"l-ḥaqu","language_name":"english","language_id":38}},{"id":50389,"position":12,"audio_url":"wbw/041_053_013.mp3","verse_key":"41:53","verse_id":4271,"location":"41:53:12","text_uthmani":"أَوَلَمْ","qpc_uthmani_hafs":"أَوَلَمۡ","char_type_name":"word","page_number":482,"line_number":14,"text":"أَوَلَمۡ","translation":{"text":"Is (it) not","language_name":"english","language_id":38},"transliteration":{"text":"awalam","language_name":"english","language_id":38}},{"id":50390,"position":13,"audio_url":"wbw/041_053_014.mp3","verse_key":"41:53","verse_id":4271,"location":"41:53:13","text_uthmani":"يَكْفِ","qpc_uthmani_hafs":"يَكۡفِ","char_type_name":"word","page_number":482,"line_number":14,"text":"يَكۡفِ","translation":{"text":"sufficient","language_name":"english","language_id":38},"transliteration":{"text":"yakfi","language_name":"english","language_id":38}},{"id":50391,"position":14,"audio_url":"wbw/041_053_015.mp3","verse_key":"41:53","verse_id":4271,"location":"41:53:14","text_uthmani":"بِرَبِّكَ","qpc_uthmani_hafs":"بِرَبِّكَ","char_type_name":"word","page_number":482,"line_number":14,"text":"بِرَبِّكَ","translation":{"text":"concerning your Lord","language_name":"english","language_id":38},"transliteration":{"text":"birabbika","language_name":"english","language_id":38}},{"id":50392,"position":15,"audio_url":"wbw/041_053_016.mp3","verse_key":"41:53","verse_id":4271,"location":"41:53:15","text_uthmani":"أَنَّهُۥ","qpc_uthmani_hafs":"أَنَّهُۥ","char_type_name":"word","page_number":482,"line_number":14,"text":"أَنَّهُۥ","translation":{"text":"that He","language_name":"english","language_id":38},"transliteration":{"text":"annahu","language_name":"english","language_id":38}},{"id":50393,"position":16,"audio_url":"wbw/041_053_017.mp3","verse_key":"41:53","verse_id":4271,"location":"41:53:16","text_uthmani":"عَلَىٰ","qpc_uthmani_hafs":"عَلَىٰ","char_type_name":"word","page_number":482,"line_number":14,"text":"عَلَىٰ","translation":{"text":"(is) over","language_name":"english","language_id":38},"transliteration":{"text":"ʿalā","language_name":"english","language_id":38}},{"id":50394,"position":17,"audio_url":"wbw/041_053_018.mp3","verse_key":"41:53","verse_id":4271,"location":"41:53:17","text_uthmani":"كُلِّ","qpc_uthmani_hafs":"كُلِّ","char_type_name":"word","page_number":482,"line_number":14,"text":"كُلِّ","translation":{"text":"all","language_name":"english","language_id":38},"transliteration":{"text":"kulli","language_name":"english","language_id":38}},{"id":50395,"position":18,"audio_url":"wbw/041_053_019.mp3","verse_key":"41:53","verse_id":4271,"location":"41:53:18","text_uthmani":"شَىْءٍۢ","qpc_uthmani_hafs":"شَيۡءٖ","char_type_name":"word","page_number":482,"line_number":14,"text":"شَيۡءٖ","translation":{"text":"things","language_name":"english","language_id":38},"transliteration":{"text":"shayin","language_name":"english","language_id":38}},{"id":50396,"position":19,"audio_url":"wbw/041_053_020.mp3","verse_key":"41:53","verse_id":4271,"location":"41:53:19","text_uthmani":"شَهِيدٌ","qpc_uthmani_hafs":"شَهِيدٌ","char_type_name":"word","page_number":482,"line_number":14,"text":"شَهِيدٌ","translation":{"text":"a Witness","language_name":"english","language_id":38},"transliteration":{"text":"shahīdun","language_name":"english","language_id":38}},{"id":50397,"position":20,"audio_url":null,"verse_key":"41:53","verse_id":4271,"location":"41:53:20","text_uthmani":"٥٣","qpc_uthmani_hafs":"٥٣","char_type_name":"end","page_number":482,"line_number":14,"text":"٥٣","translation":{"text":"(53)","language_name":"english","language_id":38},"transliteration":{"text":null,"language_name":"english","language_id":38}}]},{"id":4272,"verse_number":54,"verse_key":"41:54","hizb_number":49,"rub_el_hizb_number":193,"ruku_number":420,"manzil_number":6,"sajdah_number":null,"page_number":482,"juz_number":25,"words":[{"id":51021,"position":1,"audio_url":"wbw/041_054_001.mp3","verse_key":"41:54","verse_id":4272,"location":"41:54:1","text_uthmani":"أَلَآ","qpc_uthmani_hafs":"أَلَآ","char_type_name":"word","page_number":482,"line_number":14,"text":"أَلَآ","translation":{"text":"Unquestionably","language_name":"english","language_id":38},"transliteration":{"text":"alā","language_name":"english","language_id":38}},{"id":51022,"position":2,"audio_url":"wbw/041_054_002.mp3","verse_key":"41:54","verse_id":4272,"location":"41:54:2","text_uthmani":"إِنَّهُمْ","qpc_uthmani_hafs":"إِنَّهُمۡ","char_type_name":"word","page_number":482,"line_number":14,"text":"إِنَّهُمۡ","translation":{"text":"they","language_name":"english","language_id":38},"transliteration":{"text":"innahum","language_name":"english","language_id":38}},{"id":51023,"position":3,"audio_url":"wbw/041_054_003.mp3","verse_key":"41:54","verse_id":4272,"location":"41:54:3","text_uthmani":"فِى","qpc_uthmani_hafs":"فِي","char_type_name":"word","page_number":482,"line_number":15,"text":"فِي","translation":{"text":"(are) in","language_name":"english","language_id":38},"transliteration":{"text":"fī","language_name":"english","language_id":38}},{"id":51024,"position":4,"audio_url":"wbw/041_054_004.mp3","verse_key":"41:54","verse_id":4272,"location":"41:54:4","text_uthmani":"مِرْيَةٍۢ","qpc_uthmani_hafs":"مِرۡيَةٖ","char_type_name":"word","page_number":482,"line_number":15,"text":"مِرۡيَةٖ","translation":{"text":"doubt","language_name":"english","language_id":38},"transliteration":{"text":"mir'yatin","language_name":"english","language_id":38}},{"id":51025,"position":5,"audio_url":"wbw/041_054_005.mp3","verse_key":"41:54","verse_id":4272,"location":"41:54:5","text_uthmani":"مِّن","qpc_uthmani_hafs":"مِّن","char_type_name":"word","page_number":482,"line_number":15,"text":"مِّن","translation":{"text":"about","language_name":"english","language_id":38},"transliteration":{"text":"min","language_name":"english","language_id":38}},{"id":51026,"position":6,"audio_url":"wbw/041_054_006.mp3","verse_key":"41:54","verse_id":4272,"location":"41:54:6","text_uthmani":"لِّقَآءِ","qpc_uthmani_hafs":"لِّقَآءِ","char_type_name":"word","page_number":482,"line_number":15,"text":"لِّقَآءِ","translation":{"text":"(the) meeting","language_name":"english","language_id":38},"transliteration":{"text":"liqāi","language_name":"english","language_id":38}},{"id":51027,"position":7,"audio_url":"wbw/041_054_007.mp3","verse_key":"41:54","verse_id":4272,"location":"41:54:7","text_uthmani":"رَبِّهِمْ ۗ","qpc_uthmani_hafs":"رَبِّهِمۡۗ","char_type_name":"word","page_number":482,"line_number":15,"text":"رَبِّهِمۡۗ","translation":{"text":"(with) their Lord","language_name":"english","language_id":38},"transliteration":{"text":"rabbihim","language_name":"english","language_id":38}},{"id":51029,"position":8,"audio_url":"wbw/041_054_009.mp3","verse_key":"41:54","verse_id":4272,"location":"41:54:8","text_uthmani":"أَلَآ","qpc_uthmani_hafs":"أَلَآ","char_type_name":"word","page_number":482,"line_number":15,"text":"أَلَآ","translation":{"text":"Unquestionably","language_name":"english","language_id":38},"transliteration":{"text":"alā","language_name":"english","language_id":38}},{"id":51030,"position":9,"audio_url":"wbw/041_054_010.mp3","verse_key":"41:54","verse_id":4272,"location":"41:54:9","text_uthmani":"إِنَّهُۥ","qpc_uthmani_hafs":"إِنَّهُۥ","char_type_name":"word","page_number":482,"line_number":15,"text":"إِنَّهُۥ","translation":{"text":"indeed, He","language_name":"english","language_id":38},"transliteration":{"text":"innahu","language_name":"english","language_id":38}},{"id":51031,"position":10,"audio_url":"wbw/041_054_011.mp3","verse_key":"41:54","verse_id":4272,"location":"41:54:10","text_uthmani":"بِكُلِّ","qpc_uthmani_hafs":"بِكُلِّ","char_type_name":"word","page_number":482,"line_number":15,"text":"بِكُلِّ","translation":{"text":"(is) of all","language_name":"english","language_id":38},"transliteration":{"text":"bikulli","language_name":"english","language_id":38}},{"id":51032,"position":11,"audio_url":"wbw/041_054_012.mp3","verse_key":"41:54","verse_id":4272,"location":"41:54:11","text_uthmani":"شَىْءٍۢ","qpc_uthmani_hafs":"شَيۡءٖ","char_type_name":"word","page_number":482,"line_number":15,"text":"شَيۡءٖ","translation":{"text":"things","language_name":"english","language_id":38},"transliteration":{"text":"shayin","language_name":"english","language_id":38}},{"id":51033,"position":12,"audio_url":"wbw/041_054_013.mp3","verse_key":"41:54","verse_id":4272,"location":"41:54:12","text_uthmani":"مُّحِيطٌۢ","qpc_uthmani_hafs":"مُّحِيطُۢ","char_type_name":"word","page_number":482,"line_number":15,"text":"مُّحِيطُۢ","translation":{"text":"encompassing","language_name":"english","language_id":38},"transliteration":{"text":"muḥīṭun","language_name":"english","language_id":38}},{"id":51034,"position":13,"audio_url":null,"verse_key":"41:54","verse_id":4272,"location":"41:54:13","text_uthmani":"٥٤","qpc_uthmani_hafs":"٥٤","char_type_name":"end","page_number":482,"line_number":15,"text":"٥٤","translation":{"text":"(54)","language_name":"english","language_id":38},"transliteration":{"text":null,"language_name":"english","language_id":38}}]}],"pagination":{"per_page":10,"current_page":6,"next_page":null,"total_pages":6,"total_records":54}}
