{"verses":[{"id":2774,"verse_number":101,"verse_key":"23:101","hizb_number":35,"rub_el_hizb_number":139,"ruku_number":300,"manzil_number":4,"sajdah_number":null,"page_number":348,"juz_number":18,"words":[{"id":71755,"position":1,"audio_url":"wbw/023_101_001.mp3","char_type_name":"word","page_number":348,"line_number":12,"text":"فَإِذَا","translation":{"text":"অতঃপর যখন","language_name":"bengali","language_id":20},"transliteration":{"text":"fa-idhā","language_name":"english","language_id":38}},{"id":71756,"position":2,"audio_url":"wbw/023_101_002.mp3","char_type_name":"word","page_number":348,"line_number":12,"text":"نُفِخَ","translation":{"text":"ফুঁ দেয়া হবে","language_name":"bengali","language_id":20},"transliteration":{"text":"nufikha","language_name":"english","language_id":38}},{"id":71757,"position":3,"audio_url":"wbw/023_101_003.mp3","char_type_name":"word","page_number":348,"line_number":12,"text":"فِى","translation":{"text":"মধ্যে","language_name":"bengali","language_id":20},"transliteration":{"text":"fī","language_name":"english","language_id":38}},{"id":71758,"position":4,"audio_url":"wbw/023_101_004.mp3","char_type_name":"word","page_number":348,"line_number":12,"text":"ٱلصُّورِ","translation":{"text":"শিঙ্গার","language_name":"bengali","language_id":20},"transliteration":{"text":"l-ṣūri","language_name":"english","language_id":38}},{"id":71759,"position":5,"audio_url":"wbw/023_101_005.mp3","char_type_name":"word","page_number":348,"line_number":12,"text":"فَلَآ","translation":{"text":"তখন না","language_name":"bengali","language_id":20},"transliteration":{"text":"falā","language_name":"english","language_id":38}},{"id":71760,"position":6,"audio_url":"wbw/023_101_006.mp3","char_type_name":"word","page_number":348,"line_number":12,"text":"أَنسَابَ","translation":{"text":"আত্মীয়তার বন্ধন (থাকবে)","language_name":"bengali","language_id":20},"transliteration":{"text":"ansāba","language_name":"english","language_id":38}},{"id":71761,"position":7,"audio_url":"wbw/023_101_007.mp3","char_type_name":"word","page_number":348,"line_number":12,"text":"بَيْنَهُمْ","translation":{"text":"মাঝে তাদের","language_name":"bengali","language_id":20},"transliteration":{"text":"baynahum","language_name":"english","language_id":38}},{"id":71762,"position":8,"audio_url":"wbw/023_101_008.mp3","char_type_name":"word","page_number":348,"line_number":12,"text":"يَوْمَئِذٍۢ","translation":{"text":"সেদিন","language_name":"bengali","language_id":20},"transliteration":{"text":"yawma-idhin","language_name":"english","language_id":38}},{"id":71763,"position":9,"audio_url":"wbw/023_101_009.mp3","char_type_name":"word","page_number":348,"line_number":12,"text":"وَلَا","translation":{"text":"আর না","language_name":"bengali","language_id":20},"transliteration":{"text":"walā","language_name":"english","language_id":38}},{"id":71764,"position":10,"audio_url":"wbw/023_101_010.mp3","char_type_name":"word","page_number":348,"line_number":12,"text":"يَتَسَآءَلُونَ","translation":{"text":"তারা পরস্পরে খোঁজখবর করবে","language_name":"bengali","language_id":20},"transliteration":{"text":"yatasāalūna","language_name":"english","language_id":38}},{"id":71765,"position":11,"audio_url":null,"char_type_name":"end","page_number":348,"line_number":13,"text":"١٠١","translation":{"text":"(১০১)","language_name":"bengali","language_id":20},"transliteration":{"text":null,"language_name":"english","language_id":38}}]},{"id":2775,"verse_number":102,"verse_key":"23:102","hizb_number":35,"rub_el_hizb_number":139,"ruku_number":300,"manzil_number":4,"sajdah_number":null,"page_number":348,"juz_number":18,"words":[{"id":71783,"position":1,"audio_url":"wbw/023_102_001.mp3","char_type_name":"word","page_number":348,"line_number":13,"text":"فَمَن","translation":{"text":"অতঃপর যার","language_name":"bengali","language_id":20},"transliteration":{"text":"faman","language_name":"english","language_id":38}},{"id":71784,"position":2,"audio_url":"wbw/023_102_002.mp3","char_type_name":"word","page_number":348,"line_number":13,"text":"ثَقُلَتْ","translation":{"text":"ভারী হবে","language_name":"bengali","language_id":20},"transliteration":{"text":"thaqulat","language_name":"english","language_id":38}},{"id":71785,"position":3,"audio_url":"wbw/023_102_003.mp3","char_type_name":"word","page_number":348,"line_number":13,"text":"مَوَٰزِينُهُۥ","translation":{"text":"তার পাল্লা","language_name":"bengali","language_id":20},"transliteration":{"text":"mawāzīnuhu","language_name":"english","language_id":38}},{"id":71786,"position":4,"audio_url":"wbw/023_102_004.mp3","char_type_name":"word","page_number":348,"line_number":13,"text":"فَأُو۟لَـٰٓئِكَ","translation":{"text":"তখন ঐসবলোক","language_name":"bengali","language_id":20},"transliteration":{"text":"fa-ulāika","language_name":"english","language_id":38}},{"id":71787,"position":5,"audio_url":"wbw/023_102_005.mp3","char_type_name":"word","page_number":348,"line_number":13,"text":"هُمُ","translation":{"text":"তারাই","language_name":"bengali","language_id":20},"transliteration":{"text":"humu","language_name":"english","language_id":38}},{"id":71788,"position":6,"audio_url":"wbw/023_102_006.mp3","char_type_name":"word","page_number":348,"line_number":13,"text":"ٱلْمُفْلِحُونَ","translation":{"text":"সফলকাম (হবে)","language_name":"bengali","language_id":20},"transliteration":{"text":"l-muf'liḥūna","language_name":"english","language_id":38}},{"id":71789,"position":7,"audio_url":null,"char_type_name":"end","page_number":348,"line_number":13,"text":"١٠٢","translation":{"text":"(১০২)","language_name":"bengali","language_id":20},"transliteration":{"text":null,"language_name":"english","language_id":38}}]},{"id":2776,"verse_number":103,"verse_key":"23:103","hizb_number":35,"rub_el_hizb_number":139,"ruku_number":300,"manzil_number":4,"sajdah_number":null,"page_number":348,"juz_number":18,"words":[{"id":72322,"position":1,"audio_url":"wbw/023_103_001.mp3","char_type_name":"word","page_number":348,"line_number":13,"text":"وَمَنْ","translation":{"text":"আর যার","language_name":"bengali","language_id":20},"transliteration":{"text":"waman","language_name":"english","language_id":38}},{"id":72323,"position":2,"audio_url":"wbw/023_103_002.mp3","char_type_name":"word","page_number":348,"line_number":14,"text":"خَفَّتْ","translation":{"text":"হালকা হবে","language_name":"bengali","language_id":20},"transliteration":{"text":"khaffat","language_name":"english","language_id":38}},{"id":72324,"position":3,"audio_url":"wbw/023_103_003.mp3","char_type_name":"word","page_number":348,"line_number":14,"text":"مَوَٰزِينُهُۥ","translation":{"text":"তার পাল্লা","language_name":"bengali","language_id":20},"transliteration":{"text":"mawāzīnuhu","language_name":"english","language_id":38}},{"id":72325,"position":4,"audio_url":"wbw/023_103_004.mp3","char_type_name":"word","page_number":348,"line_number":14,"text":"فَأُو۟لَـٰٓئِكَ","translation":{"text":"অতঃপর ঐসবলোক (হবে)","language_name":"bengali","language_id":20},"transliteration":{"text":"fa-ulāika","language_name":"english","language_id":38}},{"id":72326,"position":5,"audio_url":"wbw/023_103_005.mp3","char_type_name":"word","page_number":348,"line_number":14,"text":"ٱلَّذِينَ","translation":{"text":"(তারাই) যারা","language_name":"bengali","language_id":20},"transliteration":{"text":"alladhīna","language_name":"english","language_id":38}},{"id":72327,"position":6,"audio_url":"wbw/023_103_006.mp3","char_type_name":"word","page_number":348,"line_number":14,"text":"خَسِرُوٓا۟","translation":{"text":"ক্ষতিগ্রস্ত করেছে","language_name":"bengali","language_id":20},"transliteration":{"text":"khasirū","language_name":"english","language_id":38}},{"id":72328,"position":7,"audio_url":"wbw/023_103_007.mp3","char_type_name":"word","page_number":348,"line_number":14,"text":"أَنفُسَهُمْ","translation":{"text":"তাদের নিজেদেরকে","language_name":"bengali","language_id":20},"transliteration":{"text":"anfusahum","language_name":"english","language_id":38}},{"id":72329,"position":8,"audio_url":"wbw/023_103_008.mp3","char_type_name":"word","page_number":348,"line_number":14,"text":"فِى","translation":{"text":"মধ্যে","language_name":"bengali","language_id":20},"transliteration":{"text":"fī","language_name":"english","language_id":38}},{"id":72330,"position":9,"audio_url":"wbw/023_103_009.mp3","char_type_name":"word","page_number":348,"line_number":14,"text":"جَهَنَّمَ","translation":{"text":"জাহান্নামের","language_name":"bengali","language_id":20},"transliteration":{"text":"jahannama","language_name":"english","language_id":38}},{"id":72331,"position":10,"audio_url":"wbw/023_103_010.mp3","char_type_name":"word","page_number":348,"line_number":15,"text":"خَـٰلِدُونَ","translation":{"text":"তারা চিরস্থায়ী হবে (সেখানে)","language_name":"bengali","language_id":20},"transliteration":{"text":"khālidūna","language_name":"english","language_id":38}},{"id":72332,"position":11,"audio_url":null,"char_type_name":"end","page_number":348,"line_number":15,"text":"١٠٣","translation":{"text":"(১০৩)","language_name":"bengali","language_id":20},"transliteration":{"text":null,"language_name":"english","language_id":38}}]},{"id":2777,"verse_number":104,"verse_key":"23:104","hizb_number":35,"rub_el_hizb_number":139,"ruku_number":300,"manzil_number":4,"sajdah_number":null,"page_number":348,"juz_number":18,"words":[{"id":72570,"position":1,"audio_url":"wbw/023_104_001.mp3","char_type_name":"word","page_number":348,"line_number":15,"text":"تَلْفَحُ","translation":{"text":"জ্বালিয়ে দিবে","language_name":"bengali","language_id":20},"transliteration":{"text":"talfaḥu","language_name":"english","language_id":38}},{"id":72571,"position":2,"audio_url":"wbw/023_104_002.mp3","char_type_name":"word","page_number":348,"line_number":15,"text":"وُجُوهَهُمُ","translation":{"text":"তাদের মুখমন্ডলকে","language_name":"bengali","language_id":20},"transliteration":{"text":"wujūhahumu","language_name":"english","language_id":38}},{"id":72572,"position":3,"audio_url":"wbw/023_104_003.mp3","char_type_name":"word","page_number":348,"line_number":15,"text":"ٱلنَّارُ","translation":{"text":"আগুন","language_name":"bengali","language_id":20},"transliteration":{"text":"l-nāru","language_name":"english","language_id":38}},{"id":72573,"position":4,"audio_url":"wbw/023_104_004.mp3","char_type_name":"word","page_number":348,"line_number":15,"text":"وَهُمْ","translation":{"text":"আর তারা","language_name":"bengali","language_id":20},"transliteration":{"text":"wahum","language_name":"english","language_id":38}},{"id":72574,"position":5,"audio_url":"wbw/023_104_005.mp3","char_type_name":"word","page_number":348,"line_number":15,"text":"فِيهَا","translation":{"text":"তার মধ্যে","language_name":"bengali","language_id":20},"transliteration":{"text":"fīhā","language_name":"english","language_id":38}},{"id":72575,"position":6,"audio_url":"wbw/023_104_006.mp3","char_type_name":"word","page_number":348,"line_number":15,"text":"كَـٰلِحُونَ","translation":{"text":"বীভৎস হবে (চেহারায়)","language_name":"bengali","language_id":20},"transliteration":{"text":"kāliḥūna","language_name":"english","language_id":38}},{"id":72576,"position":7,"audio_url":null,"char_type_name":"end","page_number":348,"line_number":15,"text":"١٠٤","translation":{"text":"(১০৪)","language_name":"bengali","language_id":20},"transliteration":{"text":null,"language_name":"english","language_id":38}}]},{"id":2778,"verse_number":105,"verse_key":"23:105","hizb_number":35,"rub_el_hizb_number":139,"ruku_number":300,"manzil_number":4,"sajdah_number":null,"page_number":349,"juz_number":18,"words":[{"id":72847,"position":1,"audio_url":"wbw/023_105_001.mp3","char_type_name":"word","page_number":349,"line_number":1,"text":"أَلَمْ","translation":{"text":"\"(বলা হবে) কি না","language_name":"bengali","language_id":20},"transliteration":{"text":"alam","language_name":"english","language_id":38}},{"id":72848,"position":2,"audio_url":"wbw/023_105_002.mp3","char_type_name":"word","page_number":349,"line_number":1,"text":"تَكُنْ","translation":{"text":"\"হচ্ছিল","language_name":"bengali","language_id":20},"transliteration":{"text":"takun","language_name":"english","language_id":38}},{"id":72849,"position":3,"audio_url":"wbw/023_105_003.mp3","char_type_name":"word","page_number":349,"line_number":1,"text":"ءَايَـٰتِى","translation":{"text":"আমার আয়াতগুলোকে","language_name":"bengali","language_id":20},"transliteration":{"text":"āyātī","language_name":"english","language_id":38}},{"id":72850,"position":4,"audio_url":"wbw/023_105_004.mp3","char_type_name":"word","page_number":349,"line_number":1,"text":"تُتْلَىٰ","translation":{"text":"তিলাওয়াত করা হতো","language_name":"bengali","language_id":20},"transliteration":{"text":"tut'lā","language_name":"english","language_id":38}},{"id":72851,"position":5,"audio_url":"wbw/023_105_005.mp3","char_type_name":"word","page_number":349,"line_number":1,"text":"عَلَيْكُمْ","translation":{"text":"তোমাদের নিকট","language_name":"bengali","language_id":20},"transliteration":{"text":"ʿalaykum","language_name":"english","language_id":38}},{"id":72852,"position":6,"audio_url":"wbw/023_105_006.mp3","char_type_name":"word","page_number":349,"line_number":1,"text":"فَكُنتُم","translation":{"text":"তখন তোমরা ছিলে","language_name":"bengali","language_id":20},"transliteration":{"text":"fakuntum","language_name":"english","language_id":38}},{"id":72853,"position":7,"audio_url":"wbw/023_105_007.mp3","char_type_name":"word","page_number":349,"line_number":1,"text":"بِهَا","translation":{"text":"সম্পর্কে তা\"","language_name":"bengali","language_id":20},"transliteration":{"text":"bihā","language_name":"english","language_id":38}},{"id":72854,"position":8,"audio_url":"wbw/023_105_008.mp3","char_type_name":"word","page_number":349,"line_number":1,"text":"تُكَذِّبُونَ","translation":{"text":"মিথ্যারোপ করতে\"","language_name":"bengali","language_id":20},"transliteration":{"text":"tukadhibūna","language_name":"english","language_id":38}},{"id":72855,"position":9,"audio_url":null,"char_type_name":"end","page_number":349,"line_number":1,"text":"١٠٥","translation":{"text":"(১০৫)","language_name":"bengali","language_id":20},"transliteration":{"text":null,"language_name":"english","language_id":38}}]},{"id":2779,"verse_number":106,"verse_key":"23:106","hizb_number":35,"rub_el_hizb_number":139,"ruku_number":300,"manzil_number":4,"sajdah_number":null,"page_number":349,"juz_number":18,"words":[{"id":73049,"position":1,"audio_url":"wbw/023_106_001.mp3","char_type_name":"word","page_number":349,"line_number":1,"text":"قَالُوا۟","translation":{"text":"তারা বলবে","language_name":"bengali","language_id":20},"transliteration":{"text":"qālū","language_name":"english","language_id":38}},{"id":73050,"position":2,"audio_url":"wbw/023_106_002.mp3","char_type_name":"word","page_number":349,"line_number":2,"text":"رَبَّنَا","translation":{"text":"\"হে আমার রব","language_name":"bengali","language_id":20},"transliteration":{"text":"rabbanā","language_name":"english","language_id":38}},{"id":73051,"position":3,"audio_url":"wbw/023_106_003.mp3","char_type_name":"word","page_number":349,"line_number":2,"text":"غَلَبَتْ","translation":{"text":"বিজয় লাভ করেছিলো","language_name":"bengali","language_id":20},"transliteration":{"text":"ghalabat","language_name":"english","language_id":38}},{"id":73052,"position":4,"audio_url":"wbw/023_106_004.mp3","char_type_name":"word","page_number":349,"line_number":2,"text":"عَلَيْنَا","translation":{"text":"উপর আমাদের","language_name":"bengali","language_id":20},"transliteration":{"text":"ʿalaynā","language_name":"english","language_id":38}},{"id":73053,"position":5,"audio_url":"wbw/023_106_005.mp3","char_type_name":"word","page_number":349,"line_number":2,"text":"شِقْوَتُنَا","translation":{"text":"আমাদের দুর্ভাগ্য","language_name":"bengali","language_id":20},"transliteration":{"text":"shiq'watunā","language_name":"english","language_id":38}},{"id":73054,"position":6,"audio_url":"wbw/023_106_006.mp3","char_type_name":"word","page_number":349,"line_number":2,"text":"وَكُنَّا","translation":{"text":"এবং আমরা ছিলাম","language_name":"bengali","language_id":20},"transliteration":{"text":"wakunnā","language_name":"english","language_id":38}},{"id":73055,"position":7,"audio_url":"wbw/023_106_007.mp3","char_type_name":"word","page_number":349,"line_number":2,"text":"قَوْمًۭا","translation":{"text":"জাতি","language_name":"bengali","language_id":20},"transliteration":{"text":"qawman","language_name":"english","language_id":38}},{"id":73056,"position":8,"audio_url":"wbw/023_106_008.mp3","char_type_name":"word","page_number":349,"line_number":2,"text":"ضَآلِّينَ","translation":{"text":"পথভ্রষ্ট","language_name":"bengali","language_id":20},"transliteration":{"text":"ḍāllīna","language_name":"english","language_id":38}},{"id":73057,"position":9,"audio_url":null,"char_type_name":"end","page_number":349,"line_number":2,"text":"١٠٦","translation":{"text":"(১০৬)","language_name":"bengali","language_id":20},"transliteration":{"text":null,"language_name":"english","language_id":38}}]},{"id":2780,"verse_number":107,"verse_key":"23:107","hizb_number":35,"rub_el_hizb_number":139,"ruku_number":300,"manzil_number":4,"sajdah_number":null,"page_number":349,"juz_number":18,"words":[{"id":73187,"position":1,"audio_url":"wbw/023_107_001.mp3","char_type_name":"word","page_number":349,"line_number":2,"text":"رَبَّنَآ","translation":{"text":"হে আমার রব","language_name":"bengali","language_id":20},"transliteration":{"text":"rabbanā","language_name":"english","language_id":38}},{"id":73188,"position":2,"audio_url":"wbw/023_107_002.mp3","char_type_name":"word","page_number":349,"line_number":3,"text":"أَخْرِجْنَا","translation":{"text":"আমাদেরকে বের করে দাও","language_name":"bengali","language_id":20},"transliteration":{"text":"akhrij'nā","language_name":"english","language_id":38}},{"id":73189,"position":3,"audio_url":"wbw/023_107_003.mp3","char_type_name":"word","page_number":349,"line_number":3,"text":"مِنْهَا","translation":{"text":"তা হ'তে","language_name":"bengali","language_id":20},"transliteration":{"text":"min'hā","language_name":"english","language_id":38}},{"id":73190,"position":4,"audio_url":"wbw/023_107_004.mp3","char_type_name":"word","page_number":349,"line_number":3,"text":"فَإِنْ","translation":{"text":"অতঃপর যদি","language_name":"bengali","language_id":20},"transliteration":{"text":"fa-in","language_name":"english","language_id":38}},{"id":73191,"position":5,"audio_url":"wbw/023_107_005.mp3","char_type_name":"word","page_number":349,"line_number":3,"text":"عُدْنَا","translation":{"text":"আমরা পুনরায় করি","language_name":"bengali","language_id":20},"transliteration":{"text":"ʿud'nā","language_name":"english","language_id":38}},{"id":73192,"position":6,"audio_url":"wbw/023_107_006.mp3","char_type_name":"word","page_number":349,"line_number":3,"text":"فَإِنَّا","translation":{"text":"তবে আমরা নিশ্চয়ই","language_name":"bengali","language_id":20},"transliteration":{"text":"fa-innā","language_name":"english","language_id":38}},{"id":73193,"position":7,"audio_url":"wbw/023_107_007.mp3","char_type_name":"word","page_number":349,"line_number":3,"text":"ظَـٰلِمُونَ","translation":{"text":"সীমালঙ্ঘনকারী (প্রমাণিত হবো)\"","language_name":"bengali","language_id":20},"transliteration":{"text":"ẓālimūna","language_name":"english","language_id":38}},{"id":73194,"position":8,"audio_url":null,"char_type_name":"end","page_number":349,"line_number":3,"text":"١٠٧","translation":{"text":"(১০৭)","language_name":"bengali","language_id":20},"transliteration":{"text":null,"language_name":"english","language_id":38}}]},{"id":2781,"verse_number":108,"verse_key":"23:108","hizb_number":35,"rub_el_hizb_number":139,"ruku_number":300,"manzil_number":4,"sajdah_number":null,"page_number":349,"juz_number":18,"words":[{"id":73700,"position":1,"audio_url":"wbw/023_108_001.mp3","char_type_name":"word","page_number":349,"line_number":3,"text":"قَالَ","translation":{"text":"তিনি বলবেন","language_name":"bengali","language_id":20},"transliteration":{"text":"qāla","language_name":"english","language_id":38}},{"id":73701,"position":2,"audio_url":"wbw/023_108_002.mp3","char_type_name":"word","page_number":349,"line_number":3,"text":"ٱخْسَـُٔوا۟","translation":{"text":"\"পড়ে থাকো অপদস্হ হয়ে","language_name":"bengali","language_id":20},"transliteration":{"text":"ikh'saū","language_name":"english","language_id":38}},{"id":73702,"position":3,"audio_url":"wbw/023_108_003.mp3","char_type_name":"word","page_number":349,"line_number":3,"text":"فِيهَا","translation":{"text":"তার মধ্যে","language_name":"bengali","language_id":20},"transliteration":{"text":"fīhā","language_name":"english","language_id":38}},{"id":73703,"position":4,"audio_url":"wbw/023_108_004.mp3","char_type_name":"word","page_number":349,"line_number":4,"text":"وَلَا","translation":{"text":"এবং না","language_name":"bengali","language_id":20},"transliteration":{"text":"walā","language_name":"english","language_id":38}},{"id":73704,"position":5,"audio_url":"wbw/023_108_005.mp3","char_type_name":"word","page_number":349,"line_number":4,"text":"تُكَلِّمُونِ","translation":{"text":"আমার সাথে তোমরা কথা বলবে","language_name":"bengali","language_id":20},"transliteration":{"text":"tukallimūni","language_name":"english","language_id":38}},{"id":73705,"position":6,"audio_url":null,"char_type_name":"end","page_number":349,"line_number":4,"text":"١٠٨","translation":{"text":"(১০৮)","language_name":"bengali","language_id":20},"transliteration":{"text":null,"language_name":"english","language_id":38}}]},{"id":2782,"verse_number":109,"verse_key":"23:109","hizb_number":35,"rub_el_hizb_number":139,"ruku_number":300,"manzil_number":4,"sajdah_number":null,"page_number":349,"juz_number":18,"words":[{"id":73870,"position":1,"audio_url":"wbw/023_109_001.mp3","char_type_name":"word","page_number":349,"line_number":4,"text":"إِنَّهُۥ","translation":{"text":"নিশ্চয়ই","language_name":"bengali","language_id":20},"transliteration":{"text":"innahu","language_name":"english","language_id":38}},{"id":73871,"position":2,"audio_url":"wbw/023_109_002.mp3","char_type_name":"word","page_number":349,"line_number":4,"text":"كَانَ","translation":{"text":"ছিলো","language_name":"bengali","language_id":20},"transliteration":{"text":"kāna","language_name":"english","language_id":38}},{"id":73872,"position":3,"audio_url":"wbw/023_109_003.mp3","char_type_name":"word","page_number":349,"line_number":4,"text":"فَرِيقٌۭ","translation":{"text":"একদল","language_name":"bengali","language_id":20},"transliteration":{"text":"farīqun","language_name":"english","language_id":38}},{"id":73873,"position":4,"audio_url":"wbw/023_109_004.mp3","char_type_name":"word","page_number":349,"line_number":4,"text":"مِّنْ","translation":{"text":"মধ্যে","language_name":"bengali","language_id":20},"transliteration":{"text":"min","language_name":"english","language_id":38}},{"id":73874,"position":5,"audio_url":"wbw/023_109_005.mp3","char_type_name":"word","page_number":349,"line_number":4,"text":"عِبَادِى","translation":{"text":"আমার দাসদের","language_name":"bengali","language_id":20},"transliteration":{"text":"ʿibādī","language_name":"english","language_id":38}},{"id":73875,"position":6,"audio_url":"wbw/023_109_006.mp3","char_type_name":"word","page_number":349,"line_number":4,"text":"يَقُولُونَ","translation":{"text":"(যারা) বলতো","language_name":"bengali","language_id":20},"transliteration":{"text":"yaqūlūna","language_name":"english","language_id":38}},{"id":73876,"position":7,"audio_url":"wbw/023_109_007.mp3","char_type_name":"word","page_number":349,"line_number":4,"text":"رَبَّنَآ","translation":{"text":"\"হে আমাদের রব","language_name":"bengali","language_id":20},"transliteration":{"text":"rabbanā","language_name":"english","language_id":38}},{"id":73877,"position":8,"audio_url":"wbw/023_109_008.mp3","char_type_name":"word","page_number":349,"line_number":4,"text":"ءَامَنَّا","translation":{"text":"আমরা ঈমান এনেছি","language_name":"bengali","language_id":20},"transliteration":{"text":"āmannā","language_name":"english","language_id":38}},{"id":73878,"position":9,"audio_url":"wbw/023_109_009.mp3","char_type_name":"word","page_number":349,"line_number":5,"text":"فَٱغْفِرْ","translation":{"text":"তাই ক্ষমা করো","language_name":"bengali","language_id":20},"transliteration":{"text":"fa-igh'fir","language_name":"english","language_id":38}},{"id":73879,"position":10,"audio_url":"wbw/023_109_010.mp3","char_type_name":"word","page_number":349,"line_number":5,"text":"لَنَا","translation":{"text":"আমাদেরকে","language_name":"bengali","language_id":20},"transliteration":{"text":"lanā","language_name":"english","language_id":38}},{"id":73880,"position":11,"audio_url":"wbw/023_109_011.mp3","char_type_name":"word","page_number":349,"line_number":5,"text":"وَٱرْحَمْنَا","translation":{"text":"ও আমাদের উপর দয়া করো","language_name":"bengali","language_id":20},"transliteration":{"text":"wa-ir'ḥamnā","language_name":"english","language_id":38}},{"id":73881,"position":12,"audio_url":"wbw/023_109_012.mp3","char_type_name":"word","page_number":349,"line_number":5,"text":"وَأَنتَ","translation":{"text":"আর তুমিই","language_name":"bengali","language_id":20},"transliteration":{"text":"wa-anta","language_name":"english","language_id":38}},{"id":73882,"position":13,"audio_url":"wbw/023_109_013.mp3","char_type_name":"word","page_number":349,"line_number":5,"text":"خَيْرُ","translation":{"text":"অতি উত্তম","language_name":"bengali","language_id":20},"transliteration":{"text":"khayru","language_name":"english","language_id":38}},{"id":73883,"position":14,"audio_url":"wbw/023_109_014.mp3","char_type_name":"word","page_number":349,"line_number":5,"text":"ٱلرَّٰحِمِينَ","translation":{"text":"দয়াকারীদের","language_name":"bengali","language_id":20},"transliteration":{"text":"l-rāḥimīna","language_name":"english","language_id":38}},{"id":73884,"position":15,"audio_url":null,"char_type_name":"end","page_number":349,"line_number":5,"text":"١٠٩","translation":{"text":"(১০৯)","language_name":"bengali","language_id":20},"transliteration":{"text":null,"language_name":"english","language_id":38}}]},{"id":2783,"verse_number":110,"verse_key":"23:110","hizb_number":35,"rub_el_hizb_number":139,"ruku_number":300,"manzil_number":4,"sajdah_number":null,"page_number":349,"juz_number":18,"words":[{"id":74041,"position":1,"audio_url":"wbw/023_110_001.mp3","char_type_name":"word","page_number":349,"line_number":5,"text":"فَٱتَّخَذْتُمُوهُمْ","translation":{"text":"তখন তোমরা গ্রহণ করেছিলে তাদেরকে","language_name":"bengali","language_id":20},"transliteration":{"text":"fa-ittakhadhtumūhum","language_name":"english","language_id":38}},{"id":74042,"position":2,"audio_url":"wbw/023_110_002.mp3","char_type_name":"word","page_number":349,"line_number":6,"text":"سِخْرِيًّا","translation":{"text":"ঠাট্টার পাত্ররূপে","language_name":"bengali","language_id":20},"transliteration":{"text":"sikh'riyyan","language_name":"english","language_id":38}},{"id":74043,"position":3,"audio_url":"wbw/023_110_003.mp3","char_type_name":"word","page_number":349,"line_number":6,"text":"حَتَّىٰٓ","translation":{"text":"এমনকি (তা)","language_name":"bengali","language_id":20},"transliteration":{"text":"ḥattā","language_name":"english","language_id":38}},{"id":74044,"position":4,"audio_url":"wbw/023_110_004.mp3","char_type_name":"word","page_number":349,"line_number":6,"text":"أَنسَوْكُمْ","translation":{"text":"তোমাদেরকে ভুলিয়ে দিয়েছিলো","language_name":"bengali","language_id":20},"transliteration":{"text":"ansawkum","language_name":"english","language_id":38}},{"id":74045,"position":5,"audio_url":"wbw/023_110_005.mp3","char_type_name":"word","page_number":349,"line_number":6,"text":"ذِكْرِى","translation":{"text":"আমার স্মরণ","language_name":"bengali","language_id":20},"transliteration":{"text":"dhik'rī","language_name":"english","language_id":38}},{"id":74046,"position":6,"audio_url":"wbw/023_110_006.mp3","char_type_name":"word","page_number":349,"line_number":6,"text":"وَكُنتُم","translation":{"text":"আর তোমরা ছিলে","language_name":"bengali","language_id":20},"transliteration":{"text":"wakuntum","language_name":"english","language_id":38}},{"id":74047,"position":7,"audio_url":"wbw/023_110_007.mp3","char_type_name":"word","page_number":349,"line_number":6,"text":"مِّنْهُمْ","translation":{"text":"সাথে তাদের","language_name":"bengali","language_id":20},"transliteration":{"text":"min'hum","language_name":"english","language_id":38}},{"id":74048,"position":8,"audio_url":"wbw/023_110_008.mp3","char_type_name":"word","page_number":349,"line_number":6,"text":"تَضْحَكُونَ","translation":{"text":"ঠাট্টা-বিদ্রুপ করতে","language_name":"bengali","language_id":20},"transliteration":{"text":"taḍḥakūna","language_name":"english","language_id":38}},{"id":74049,"position":9,"audio_url":null,"char_type_name":"end","page_number":349,"line_number":6,"text":"١١٠","translation":{"text":"(১১০)","language_name":"bengali","language_id":20},"transliteration":{"text":null,"language_name":"english","language_id":38}}]}],"pagination":{"per_page":10,"current_page":11,"next_page":12,"total_pages":12,"total_records":118}}
