{"verses":[{"id":2724,"verse_number":51,"verse_key":"23:51","hizb_number":35,"rub_el_hizb_number":138,"ruku_number":298,"manzil_number":4,"sajdah_number":null,"page_number":345,"juz_number":18,"words":[{"id":49268,"position":1,"audio_url":"wbw/023_051_001.mp3","char_type_name":"word","page_number":345,"line_number":9,"text":"يَـٰٓأَيُّهَا","translation":{"text":"(আর বলেছিলাম) হে","language_name":"bengali","language_id":20},"transliteration":{"text":"yāayyuhā","language_name":"english","language_id":38}},{"id":49269,"position":2,"audio_url":"wbw/023_051_002.mp3","char_type_name":"word","page_number":345,"line_number":9,"text":"ٱلرُّسُلُ","translation":{"text":"রাসূলরা","language_name":"bengali","language_id":20},"transliteration":{"text":"l-rusulu","language_name":"english","language_id":38}},{"id":49270,"position":3,"audio_url":"wbw/023_051_003.mp3","char_type_name":"word","page_number":345,"line_number":9,"text":"كُلُوا۟","translation":{"text":"তোমরা খাও","language_name":"bengali","language_id":20},"transliteration":{"text":"kulū","language_name":"english","language_id":38}},{"id":49271,"position":4,"audio_url":"wbw/023_051_004.mp3","char_type_name":"word","page_number":345,"line_number":9,"text":"مِنَ","translation":{"text":"হ'তে","language_name":"bengali","language_id":20},"transliteration":{"text":"mina","language_name":"english","language_id":38}},{"id":49272,"position":5,"audio_url":"wbw/023_051_005.mp3","char_type_name":"word","page_number":345,"line_number":9,"text":"ٱلطَّيِّبَـٰتِ","translation":{"text":"পবিত্র (বস্তু)","language_name":"bengali","language_id":20},"transliteration":{"text":"l-ṭayibāti","language_name":"english","language_id":38}},{"id":49273,"position":6,"audio_url":"wbw/023_051_006.mp3","char_type_name":"word","page_number":345,"line_number":9,"text":"وَٱعْمَلُوا۟","translation":{"text":"ও তোমরা কাজ করো","language_name":"bengali","language_id":20},"transliteration":{"text":"wa-iʿ'malū","language_name":"english","language_id":38}},{"id":49274,"position":7,"audio_url":"wbw/023_051_007.mp3","char_type_name":"word","page_number":345,"line_number":9,"text":"صَـٰلِحًا ۖ","translation":{"text":"সৎ","language_name":"bengali","language_id":20},"transliteration":{"text":"ṣāliḥan","language_name":"english","language_id":38}},{"id":49276,"position":8,"audio_url":"wbw/023_051_009.mp3","char_type_name":"word","page_number":345,"line_number":9,"text":"إِنِّى","translation":{"text":"নিশ্চয়ই আমি","language_name":"bengali","language_id":20},"transliteration":{"text":"innī","language_name":"english","language_id":38}},{"id":49277,"position":9,"audio_url":"wbw/023_051_010.mp3","char_type_name":"word","page_number":345,"line_number":9,"text":"بِمَا","translation":{"text":"সে সম্পর্কে যা","language_name":"bengali","language_id":20},"transliteration":{"text":"bimā","language_name":"english","language_id":38}},{"id":49278,"position":10,"audio_url":"wbw/023_051_011.mp3","char_type_name":"word","page_number":345,"line_number":10,"text":"تَعْمَلُونَ","translation":{"text":"তোমরা কাজ করো","language_name":"bengali","language_id":20},"transliteration":{"text":"taʿmalūna","language_name":"english","language_id":38}},{"id":49279,"position":11,"audio_url":"wbw/023_051_012.mp3","char_type_name":"word","page_number":345,"line_number":10,"text":"عَلِيمٌۭ","translation":{"text":"খুব অবহিত","language_name":"bengali","language_id":20},"transliteration":{"text":"ʿalīmun","language_name":"english","language_id":38}},{"id":49280,"position":12,"audio_url":null,"char_type_name":"end","page_number":345,"line_number":10,"text":"٥١","translation":{"text":"(৫১)","language_name":"bengali","language_id":20},"transliteration":{"text":null,"language_name":"english","language_id":38}}]},{"id":2725,"verse_number":52,"verse_key":"23:52","hizb_number":35,"rub_el_hizb_number":138,"ruku_number":298,"manzil_number":4,"sajdah_number":null,"page_number":345,"juz_number":18,"words":[{"id":50121,"position":1,"audio_url":"wbw/023_052_001.mp3","char_type_name":"word","page_number":345,"line_number":10,"text":"وَإِنَّ","translation":{"text":"এবং নিশ্চয়ই","language_name":"bengali","language_id":20},"transliteration":{"text":"wa-inna","language_name":"english","language_id":38}},{"id":50122,"position":2,"audio_url":"wbw/023_052_002.mp3","char_type_name":"word","page_number":345,"line_number":10,"text":"هَـٰذِهِۦٓ","translation":{"text":"এই","language_name":"bengali","language_id":20},"transliteration":{"text":"hādhihi","language_name":"english","language_id":38}},{"id":50123,"position":3,"audio_url":"wbw/023_052_003.mp3","char_type_name":"word","page_number":345,"line_number":10,"text":"أُمَّتُكُمْ","translation":{"text":"তোমাদের জাতি","language_name":"bengali","language_id":20},"transliteration":{"text":"ummatukum","language_name":"english","language_id":38}},{"id":50124,"position":4,"audio_url":"wbw/023_052_004.mp3","char_type_name":"word","page_number":345,"line_number":10,"text":"أُمَّةًۭ","translation":{"text":"জাতি","language_name":"bengali","language_id":20},"transliteration":{"text":"ummatan","language_name":"english","language_id":38}},{"id":50125,"position":5,"audio_url":"wbw/023_052_005.mp3","char_type_name":"word","page_number":345,"line_number":10,"text":"وَٰحِدَةًۭ","translation":{"text":"একই","language_name":"bengali","language_id":20},"transliteration":{"text":"wāḥidatan","language_name":"english","language_id":38}},{"id":50126,"position":6,"audio_url":"wbw/023_052_006.mp3","char_type_name":"word","page_number":345,"line_number":10,"text":"وَأَنَا۠","translation":{"text":"আর আমি","language_name":"bengali","language_id":20},"transliteration":{"text":"wa-anā","language_name":"english","language_id":38}},{"id":50127,"position":7,"audio_url":"wbw/023_052_007.mp3","char_type_name":"word","page_number":345,"line_number":10,"text":"رَبُّكُمْ","translation":{"text":"তোমাদে্র রব","language_name":"bengali","language_id":20},"transliteration":{"text":"rabbukum","language_name":"english","language_id":38}},{"id":50128,"position":8,"audio_url":"wbw/023_052_008.mp3","char_type_name":"word","page_number":345,"line_number":11,"text":"فَٱتَّقُونِ","translation":{"text":"সুতরাং আমাকেই তোমরা ভয় করো","language_name":"bengali","language_id":20},"transliteration":{"text":"fa-ittaqūni","language_name":"english","language_id":38}},{"id":50129,"position":9,"audio_url":null,"char_type_name":"end","page_number":345,"line_number":11,"text":"٥٢","translation":{"text":"(৫২)","language_name":"bengali","language_id":20},"transliteration":{"text":null,"language_name":"english","language_id":38}}]},{"id":2726,"verse_number":53,"verse_key":"23:53","hizb_number":35,"rub_el_hizb_number":138,"ruku_number":298,"manzil_number":4,"sajdah_number":null,"page_number":345,"juz_number":18,"words":[{"id":50576,"position":1,"audio_url":"wbw/023_053_001.mp3","char_type_name":"word","page_number":345,"line_number":11,"text":"فَتَقَطَّعُوٓا۟","translation":{"text":"কিন্তু (লোকেরা) বিভক্ত করলো","language_name":"bengali","language_id":20},"transliteration":{"text":"fataqaṭṭaʿū","language_name":"english","language_id":38}},{"id":50577,"position":2,"audio_url":"wbw/023_053_002.mp3","char_type_name":"word","page_number":345,"line_number":11,"text":"أَمْرَهُم","translation":{"text":"তাদের কাজকে","language_name":"bengali","language_id":20},"transliteration":{"text":"amrahum","language_name":"english","language_id":38}},{"id":50578,"position":3,"audio_url":"wbw/023_053_003.mp3","char_type_name":"word","page_number":345,"line_number":11,"text":"بَيْنَهُمْ","translation":{"text":"তাদের মাঝে","language_name":"bengali","language_id":20},"transliteration":{"text":"baynahum","language_name":"english","language_id":38}},{"id":50579,"position":4,"audio_url":"wbw/023_053_004.mp3","char_type_name":"word","page_number":345,"line_number":11,"text":"زُبُرًۭا ۖ","translation":{"text":"টুকরো টুকরো করে","language_name":"bengali","language_id":20},"transliteration":{"text":"zuburan","language_name":"english","language_id":38}},{"id":50581,"position":5,"audio_url":"wbw/023_053_006.mp3","char_type_name":"word","page_number":345,"line_number":11,"text":"كُلُّ","translation":{"text":"প্রত্যেক","language_name":"bengali","language_id":20},"transliteration":{"text":"kullu","language_name":"english","language_id":38}},{"id":50582,"position":6,"audio_url":"wbw/023_053_007.mp3","char_type_name":"word","page_number":345,"line_number":11,"text":"حِزْبٍۭ","translation":{"text":"দলই","language_name":"bengali","language_id":20},"transliteration":{"text":"ḥiz'bin","language_name":"english","language_id":38}},{"id":50583,"position":7,"audio_url":"wbw/023_053_008.mp3","char_type_name":"word","page_number":345,"line_number":11,"text":"بِمَا","translation":{"text":"যা","language_name":"bengali","language_id":20},"transliteration":{"text":"bimā","language_name":"english","language_id":38}},{"id":50584,"position":8,"audio_url":"wbw/023_053_009.mp3","char_type_name":"word","page_number":345,"line_number":11,"text":"لَدَيْهِمْ","translation":{"text":"কাছে তাদের (আছে)","language_name":"bengali","language_id":20},"transliteration":{"text":"ladayhim","language_name":"english","language_id":38}},{"id":50585,"position":9,"audio_url":"wbw/023_053_010.mp3","char_type_name":"word","page_number":345,"line_number":12,"text":"فَرِحُونَ","translation":{"text":"(তা নিয়েই) আনন্দিত","language_name":"bengali","language_id":20},"transliteration":{"text":"fariḥūna","language_name":"english","language_id":38}},{"id":50586,"position":10,"audio_url":null,"char_type_name":"end","page_number":345,"line_number":12,"text":"٥٣","translation":{"text":"(৫৩)","language_name":"bengali","language_id":20},"transliteration":{"text":null,"language_name":"english","language_id":38}}]},{"id":2727,"verse_number":54,"verse_key":"23:54","hizb_number":35,"rub_el_hizb_number":138,"ruku_number":298,"manzil_number":4,"sajdah_number":null,"page_number":345,"juz_number":18,"words":[{"id":51298,"position":1,"audio_url":"wbw/023_054_001.mp3","char_type_name":"word","page_number":345,"line_number":12,"text":"فَذَرْهُمْ","translation":{"text":"সুতরাং ছেড়ে দাও তাদেরকে","language_name":"bengali","language_id":20},"transliteration":{"text":"fadharhum","language_name":"english","language_id":38}},{"id":51299,"position":2,"audio_url":"wbw/023_054_002.mp3","char_type_name":"word","page_number":345,"line_number":12,"text":"فِى","translation":{"text":"মধ্যে","language_name":"bengali","language_id":20},"transliteration":{"text":"fī","language_name":"english","language_id":38}},{"id":51300,"position":3,"audio_url":"wbw/023_054_003.mp3","char_type_name":"word","page_number":345,"line_number":12,"text":"غَمْرَتِهِمْ","translation":{"text":"তাদের বিভ্রান্তির","language_name":"bengali","language_id":20},"transliteration":{"text":"ghamratihim","language_name":"english","language_id":38}},{"id":51301,"position":4,"audio_url":"wbw/023_054_004.mp3","char_type_name":"word","page_number":345,"line_number":12,"text":"حَتَّىٰ","translation":{"text":"পর্যন্ত","language_name":"bengali","language_id":20},"transliteration":{"text":"ḥattā","language_name":"english","language_id":38}},{"id":51302,"position":5,"audio_url":"wbw/023_054_005.mp3","char_type_name":"word","page_number":345,"line_number":12,"text":"حِينٍ","translation":{"text":"এক নির্দিষ্ট সময়","language_name":"bengali","language_id":20},"transliteration":{"text":"ḥīnin","language_name":"english","language_id":38}},{"id":51303,"position":6,"audio_url":null,"char_type_name":"end","page_number":345,"line_number":12,"text":"٥٤","translation":{"text":"(৫৪)","language_name":"bengali","language_id":20},"transliteration":{"text":null,"language_name":"english","language_id":38}}]},{"id":2728,"verse_number":55,"verse_key":"23:55","hizb_number":35,"rub_el_hizb_number":138,"ruku_number":298,"manzil_number":4,"sajdah_number":null,"page_number":345,"juz_number":18,"words":[{"id":51774,"position":1,"audio_url":"wbw/023_055_001.mp3","char_type_name":"word","page_number":345,"line_number":12,"text":"أَيَحْسَبُونَ","translation":{"text":"কি তারা মনে করেছে","language_name":"bengali","language_id":20},"transliteration":{"text":"ayaḥsabūna","language_name":"english","language_id":38}},{"id":51775,"position":2,"audio_url":"wbw/023_055_002.mp3","char_type_name":"word","page_number":345,"line_number":12,"text":"أَنَّمَا","translation":{"text":"যেহেতু","language_name":"bengali","language_id":20},"transliteration":{"text":"annamā","language_name":"english","language_id":38}},{"id":51776,"position":3,"audio_url":"wbw/023_055_003.mp3","char_type_name":"word","page_number":345,"line_number":12,"text":"نُمِدُّهُم","translation":{"text":"সাহায্য করে যাচ্ছি আমরা তাদের","language_name":"bengali","language_id":20},"transliteration":{"text":"numidduhum","language_name":"english","language_id":38}},{"id":51777,"position":4,"audio_url":"wbw/023_055_004.mp3","char_type_name":"word","page_number":345,"line_number":13,"text":"بِهِۦ","translation":{"text":"মাধ্যমে তার","language_name":"bengali","language_id":20},"transliteration":{"text":"bihi","language_name":"english","language_id":38}},{"id":51778,"position":5,"audio_url":"wbw/023_055_005.mp3","char_type_name":"word","page_number":345,"line_number":13,"text":"مِن","translation":{"text":"দিয়ে","language_name":"bengali","language_id":20},"transliteration":{"text":"min","language_name":"english","language_id":38}},{"id":51779,"position":6,"audio_url":"wbw/023_055_006.mp3","char_type_name":"word","page_number":345,"line_number":13,"text":"مَّالٍۢ","translation":{"text":"ধন-সম্পদ","language_name":"bengali","language_id":20},"transliteration":{"text":"mālin","language_name":"english","language_id":38}},{"id":51780,"position":7,"audio_url":"wbw/023_055_007.mp3","char_type_name":"word","page_number":345,"line_number":13,"text":"وَبَنِينَ","translation":{"text":"ও সন্তান-সন্তুতি","language_name":"bengali","language_id":20},"transliteration":{"text":"wabanīna","language_name":"english","language_id":38}},{"id":51781,"position":8,"audio_url":null,"char_type_name":"end","page_number":345,"line_number":13,"text":"٥٥","translation":{"text":"(৫৫)","language_name":"bengali","language_id":20},"transliteration":{"text":null,"language_name":"english","language_id":38}}]},{"id":2729,"verse_number":56,"verse_key":"23:56","hizb_number":35,"rub_el_hizb_number":138,"ruku_number":298,"manzil_number":4,"sajdah_number":null,"page_number":345,"juz_number":18,"words":[{"id":52258,"position":1,"audio_url":"wbw/023_056_001.mp3","char_type_name":"word","page_number":345,"line_number":13,"text":"نُسَارِعُ","translation":{"text":"আমরা দ্রুত নিয়ে যাচ্ছি","language_name":"bengali","language_id":20},"transliteration":{"text":"nusāriʿu","language_name":"english","language_id":38}},{"id":52259,"position":2,"audio_url":"wbw/023_056_002.mp3","char_type_name":"word","page_number":345,"line_number":13,"text":"لَهُمْ","translation":{"text":"তাদেরকে","language_name":"bengali","language_id":20},"transliteration":{"text":"lahum","language_name":"english","language_id":38}},{"id":52260,"position":3,"audio_url":"wbw/023_056_003.mp3","char_type_name":"word","page_number":345,"line_number":13,"text":"فِى","translation":{"text":"দিকে","language_name":"bengali","language_id":20},"transliteration":{"text":"fī","language_name":"english","language_id":38}},{"id":52261,"position":4,"audio_url":"wbw/023_056_004.mp3","char_type_name":"word","page_number":345,"line_number":13,"text":"ٱلْخَيْرَٰتِ ۚ","translation":{"text":"কল্যাণের","language_name":"bengali","language_id":20},"transliteration":{"text":"l-khayrāti","language_name":"english","language_id":38}},{"id":52263,"position":5,"audio_url":"wbw/023_056_006.mp3","char_type_name":"word","page_number":345,"line_number":13,"text":"بَل","translation":{"text":"বরং","language_name":"bengali","language_id":20},"transliteration":{"text":"bal","language_name":"english","language_id":38}},{"id":52264,"position":6,"audio_url":"wbw/023_056_007.mp3","char_type_name":"word","page_number":345,"line_number":13,"text":"لَّا","translation":{"text":"না","language_name":"bengali","language_id":20},"transliteration":{"text":"lā","language_name":"english","language_id":38}},{"id":52265,"position":7,"audio_url":"wbw/023_056_008.mp3","char_type_name":"word","page_number":345,"line_number":13,"text":"يَشْعُرُونَ","translation":{"text":"তারা বুঝে","language_name":"bengali","language_id":20},"transliteration":{"text":"yashʿurūna","language_name":"english","language_id":38}},{"id":52266,"position":8,"audio_url":null,"char_type_name":"end","page_number":345,"line_number":14,"text":"٥٦","translation":{"text":"(৫৬)","language_name":"bengali","language_id":20},"transliteration":{"text":null,"language_name":"english","language_id":38}}]},{"id":2730,"verse_number":57,"verse_key":"23:57","hizb_number":35,"rub_el_hizb_number":138,"ruku_number":298,"manzil_number":4,"sajdah_number":null,"page_number":345,"juz_number":18,"words":[{"id":52846,"position":1,"audio_url":"wbw/023_057_001.mp3","char_type_name":"word","page_number":345,"line_number":14,"text":"إِنَّ","translation":{"text":"নিশ্চয়ই","language_name":"bengali","language_id":20},"transliteration":{"text":"inna","language_name":"english","language_id":38}},{"id":52847,"position":2,"audio_url":"wbw/023_057_002.mp3","char_type_name":"word","page_number":345,"line_number":14,"text":"ٱلَّذِينَ","translation":{"text":"যাদের (অবস্থা এই যে)","language_name":"bengali","language_id":20},"transliteration":{"text":"alladhīna","language_name":"english","language_id":38}},{"id":52848,"position":3,"audio_url":"wbw/023_057_003.mp3","char_type_name":"word","page_number":345,"line_number":14,"text":"هُم","translation":{"text":"তারা","language_name":"bengali","language_id":20},"transliteration":{"text":"hum","language_name":"english","language_id":38}},{"id":52849,"position":4,"audio_url":"wbw/023_057_004.mp3","char_type_name":"word","page_number":345,"line_number":14,"text":"مِّنْ","translation":{"text":"কারণে","language_name":"bengali","language_id":20},"transliteration":{"text":"min","language_name":"english","language_id":38}},{"id":52850,"position":5,"audio_url":"wbw/023_057_005.mp3","char_type_name":"word","page_number":345,"line_number":14,"text":"خَشْيَةِ","translation":{"text":"ভয়ের","language_name":"bengali","language_id":20},"transliteration":{"text":"khashyati","language_name":"english","language_id":38}},{"id":52851,"position":6,"audio_url":"wbw/023_057_006.mp3","char_type_name":"word","page_number":345,"line_number":14,"text":"رَبِّهِم","translation":{"text":"তাদের রবের","language_name":"bengali","language_id":20},"transliteration":{"text":"rabbihim","language_name":"english","language_id":38}},{"id":52852,"position":7,"audio_url":"wbw/023_057_007.mp3","char_type_name":"word","page_number":345,"line_number":14,"text":"مُّشْفِقُونَ","translation":{"text":"ভীত-সন্ত্রস্ত","language_name":"bengali","language_id":20},"transliteration":{"text":"mush'fiqūna","language_name":"english","language_id":38}},{"id":52853,"position":8,"audio_url":null,"char_type_name":"end","page_number":345,"line_number":14,"text":"٥٧","translation":{"text":"(৫৭)","language_name":"bengali","language_id":20},"transliteration":{"text":null,"language_name":"english","language_id":38}}]},{"id":2731,"verse_number":58,"verse_key":"23:58","hizb_number":35,"rub_el_hizb_number":138,"ruku_number":298,"manzil_number":4,"sajdah_number":null,"page_number":345,"juz_number":18,"words":[{"id":53416,"position":1,"audio_url":"wbw/023_058_001.mp3","char_type_name":"word","page_number":345,"line_number":14,"text":"وَٱلَّذِينَ","translation":{"text":"এবং যাদের (অবস্থা এই যে)","language_name":"bengali","language_id":20},"transliteration":{"text":"wa-alladhīna","language_name":"english","language_id":38}},{"id":53417,"position":2,"audio_url":"wbw/023_058_002.mp3","char_type_name":"word","page_number":345,"line_number":14,"text":"هُم","translation":{"text":"তারা","language_name":"bengali","language_id":20},"transliteration":{"text":"hum","language_name":"english","language_id":38}},{"id":53418,"position":3,"audio_url":"wbw/023_058_003.mp3","char_type_name":"word","page_number":345,"line_number":15,"text":"بِـَٔايَـٰتِ","translation":{"text":"উপর আয়াতসমূহের","language_name":"bengali","language_id":20},"transliteration":{"text":"biāyāti","language_name":"english","language_id":38}},{"id":53419,"position":4,"audio_url":"wbw/023_058_004.mp3","char_type_name":"word","page_number":345,"line_number":15,"text":"رَبِّهِمْ","translation":{"text":"তাদের রবের","language_name":"bengali","language_id":20},"transliteration":{"text":"rabbihim","language_name":"english","language_id":38}},{"id":53420,"position":5,"audio_url":"wbw/023_058_005.mp3","char_type_name":"word","page_number":345,"line_number":15,"text":"يُؤْمِنُونَ","translation":{"text":"ঈমান আনে","language_name":"bengali","language_id":20},"transliteration":{"text":"yu'minūna","language_name":"english","language_id":38}},{"id":53421,"position":6,"audio_url":null,"char_type_name":"end","page_number":345,"line_number":15,"text":"٥٨","translation":{"text":"(৫৮)","language_name":"bengali","language_id":20},"transliteration":{"text":null,"language_name":"english","language_id":38}}]},{"id":2732,"verse_number":59,"verse_key":"23:59","hizb_number":35,"rub_el_hizb_number":138,"ruku_number":298,"manzil_number":4,"sajdah_number":null,"page_number":345,"juz_number":18,"words":[{"id":53944,"position":1,"audio_url":"wbw/023_059_001.mp3","char_type_name":"word","page_number":345,"line_number":15,"text":"وَٱلَّذِينَ","translation":{"text":"এবং যাদের (অবস্থা এই যে)","language_name":"bengali","language_id":20},"transliteration":{"text":"wa-alladhīna","language_name":"english","language_id":38}},{"id":53945,"position":2,"audio_url":"wbw/023_059_002.mp3","char_type_name":"word","page_number":345,"line_number":15,"text":"هُم","translation":{"text":"তারা","language_name":"bengali","language_id":20},"transliteration":{"text":"hum","language_name":"english","language_id":38}},{"id":53946,"position":3,"audio_url":"wbw/023_059_003.mp3","char_type_name":"word","page_number":345,"line_number":15,"text":"بِرَبِّهِمْ","translation":{"text":"সাথে তাদের রবের","language_name":"bengali","language_id":20},"transliteration":{"text":"birabbihim","language_name":"english","language_id":38}},{"id":53947,"position":4,"audio_url":"wbw/023_059_004.mp3","char_type_name":"word","page_number":345,"line_number":15,"text":"لَا","translation":{"text":"না","language_name":"bengali","language_id":20},"transliteration":{"text":"lā","language_name":"english","language_id":38}},{"id":53948,"position":5,"audio_url":"wbw/023_059_005.mp3","char_type_name":"word","page_number":345,"line_number":15,"text":"يُشْرِكُونَ","translation":{"text":"শরীক করে (কাউকে)","language_name":"bengali","language_id":20},"transliteration":{"text":"yush'rikūna","language_name":"english","language_id":38}},{"id":53949,"position":6,"audio_url":null,"char_type_name":"end","page_number":345,"line_number":15,"text":"٥٩","translation":{"text":"(৫৯)","language_name":"bengali","language_id":20},"transliteration":{"text":null,"language_name":"english","language_id":38}}]},{"id":2733,"verse_number":60,"verse_key":"23:60","hizb_number":35,"rub_el_hizb_number":138,"ruku_number":298,"manzil_number":4,"sajdah_number":null,"page_number":346,"juz_number":18,"words":[{"id":54510,"position":1,"audio_url":"wbw/023_060_001.mp3","char_type_name":"word","page_number":346,"line_number":1,"text":"وَٱلَّذِينَ","translation":{"text":"এবং যারা (এমন যে)","language_name":"bengali","language_id":20},"transliteration":{"text":"wa-alladhīna","language_name":"english","language_id":38}},{"id":54511,"position":2,"audio_url":"wbw/023_060_002.mp3","char_type_name":"word","page_number":346,"line_number":1,"text":"يُؤْتُونَ","translation":{"text":"(যখন) দান করে","language_name":"bengali","language_id":20},"transliteration":{"text":"yu'tūna","language_name":"english","language_id":38}},{"id":54512,"position":3,"audio_url":"wbw/023_060_003.mp3","char_type_name":"word","page_number":346,"line_number":1,"text":"مَآ","translation":{"text":"যা কিছু","language_name":"bengali","language_id":20},"transliteration":{"text":"mā","language_name":"english","language_id":38}},{"id":54513,"position":4,"audio_url":"wbw/023_060_004.mp3","char_type_name":"word","page_number":346,"line_number":1,"text":"ءَاتَوا۟","translation":{"text":"দান করার","language_name":"bengali","language_id":20},"transliteration":{"text":"ātaw","language_name":"english","language_id":38}},{"id":54514,"position":5,"audio_url":"wbw/023_060_005.mp3","char_type_name":"word","page_number":346,"line_number":1,"text":"وَّقُلُوبُهُمْ","translation":{"text":"এ অবস্থায় যে তাদের অন্তর","language_name":"bengali","language_id":20},"transliteration":{"text":"waqulūbuhum","language_name":"english","language_id":38}},{"id":54515,"position":6,"audio_url":"wbw/023_060_006.mp3","char_type_name":"word","page_number":346,"line_number":1,"text":"وَجِلَةٌ","translation":{"text":"কম্পিত থাকে","language_name":"bengali","language_id":20},"transliteration":{"text":"wajilatun","language_name":"english","language_id":38}},{"id":54516,"position":7,"audio_url":"wbw/023_060_007.mp3","char_type_name":"word","page_number":346,"line_number":1,"text":"أَنَّهُمْ","translation":{"text":"(এ ভেবে) যে তারা","language_name":"bengali","language_id":20},"transliteration":{"text":"annahum","language_name":"english","language_id":38}},{"id":54517,"position":8,"audio_url":"wbw/023_060_008.mp3","char_type_name":"word","page_number":346,"line_number":1,"text":"إِلَىٰ","translation":{"text":"দিকে","language_name":"bengali","language_id":20},"transliteration":{"text":"ilā","language_name":"english","language_id":38}},{"id":54518,"position":9,"audio_url":"wbw/023_060_009.mp3","char_type_name":"word","page_number":346,"line_number":1,"text":"رَبِّهِمْ","translation":{"text":"তাদের রবের","language_name":"bengali","language_id":20},"transliteration":{"text":"rabbihim","language_name":"english","language_id":38}},{"id":54519,"position":10,"audio_url":"wbw/023_060_010.mp3","char_type_name":"word","page_number":346,"line_number":1,"text":"رَٰجِعُونَ","translation":{"text":"প্রত্যাবর্তনকারী","language_name":"bengali","language_id":20},"transliteration":{"text":"rājiʿūna","language_name":"english","language_id":38}},{"id":54520,"position":11,"audio_url":null,"char_type_name":"end","page_number":346,"line_number":1,"text":"٦٠","translation":{"text":"(৬০)","language_name":"bengali","language_id":20},"transliteration":{"text":null,"language_name":"english","language_id":38}}]}],"pagination":{"per_page":10,"current_page":6,"next_page":7,"total_pages":12,"total_records":118}}
