{"verses":[{"id":2140,"verse_number":111,"verse_key":"17:111","hizb_number":30,"rub_el_hizb_number":117,"ruku_number":251,"manzil_number":4,"sajdah_number":null,"page_number":293,"juz_number":15,"words":[{"id":74490,"position":1,"audio_url":"wbw/017_111_001.mp3","char_type_name":"word","page_number":293,"line_number":8,"text":"وَقُلِ","translation":{"text":"এবং বলো","language_name":"bengali","language_id":20},"transliteration":{"text":"waquli","language_name":"english","language_id":38}},{"id":74491,"position":2,"audio_url":"wbw/017_111_002.mp3","char_type_name":"word","page_number":293,"line_number":8,"text":"ٱلْحَمْدُ","translation":{"text":"\"সব প্রশংসাই","language_name":"bengali","language_id":20},"transliteration":{"text":"l-ḥamdu","language_name":"english","language_id":38}},{"id":74492,"position":3,"audio_url":"wbw/017_111_003.mp3","char_type_name":"word","page_number":293,"line_number":8,"text":"لِلَّهِ","translation":{"text":"জন্যে আল্লাহ তা'লার","language_name":"bengali","language_id":20},"transliteration":{"text":"lillahi","language_name":"english","language_id":38}},{"id":74493,"position":4,"audio_url":"wbw/017_111_004.mp3","char_type_name":"word","page_number":293,"line_number":8,"text":"ٱلَّذِى","translation":{"text":"যিনি","language_name":"bengali","language_id":20},"transliteration":{"text":"alladhī","language_name":"english","language_id":38}},{"id":74494,"position":5,"audio_url":"wbw/017_111_005.mp3","char_type_name":"word","page_number":293,"line_number":8,"text":"لَمْ","translation":{"text":"নি","language_name":"bengali","language_id":20},"transliteration":{"text":"lam","language_name":"english","language_id":38}},{"id":74495,"position":6,"audio_url":"wbw/017_111_006.mp3","char_type_name":"word","page_number":293,"line_number":8,"text":"يَتَّخِذْ","translation":{"text":"গ্রহণ করেন","language_name":"bengali","language_id":20},"transliteration":{"text":"yattakhidh","language_name":"english","language_id":38}},{"id":74496,"position":7,"audio_url":"wbw/017_111_007.mp3","char_type_name":"word","page_number":293,"line_number":8,"text":"وَلَدًۭا","translation":{"text":"পুত্রসন্তান","language_name":"bengali","language_id":20},"transliteration":{"text":"waladan","language_name":"english","language_id":38}},{"id":74497,"position":8,"audio_url":"wbw/017_111_008.mp3","char_type_name":"word","page_number":293,"line_number":8,"text":"وَلَمْ","translation":{"text":"আর না","language_name":"bengali","language_id":20},"transliteration":{"text":"walam","language_name":"english","language_id":38}},{"id":74498,"position":9,"audio_url":"wbw/017_111_009.mp3","char_type_name":"word","page_number":293,"line_number":8,"text":"يَكُن","translation":{"text":"আছে","language_name":"bengali","language_id":20},"transliteration":{"text":"yakun","language_name":"english","language_id":38}},{"id":74499,"position":10,"audio_url":"wbw/017_111_010.mp3","char_type_name":"word","page_number":293,"line_number":9,"text":"لَّهُۥ","translation":{"text":"জন্যে তাঁর","language_name":"bengali","language_id":20},"transliteration":{"text":"lahu","language_name":"english","language_id":38}},{"id":74500,"position":11,"audio_url":"wbw/017_111_011.mp3","char_type_name":"word","page_number":293,"line_number":9,"text":"شَرِيكٌۭ","translation":{"text":"কোনো অংশীদার","language_name":"bengali","language_id":20},"transliteration":{"text":"sharīkun","language_name":"english","language_id":38}},{"id":74501,"position":12,"audio_url":"wbw/017_111_012.mp3","char_type_name":"word","page_number":293,"line_number":9,"text":"فِى","translation":{"text":"মধ্যে","language_name":"bengali","language_id":20},"transliteration":{"text":"fī","language_name":"english","language_id":38}},{"id":74502,"position":13,"audio_url":"wbw/017_111_013.mp3","char_type_name":"word","page_number":293,"line_number":9,"text":"ٱلْمُلْكِ","translation":{"text":"সার্বভৌমত্বে","language_name":"bengali","language_id":20},"transliteration":{"text":"l-mul'ki","language_name":"english","language_id":38}},{"id":74503,"position":14,"audio_url":"wbw/017_111_014.mp3","char_type_name":"word","page_number":293,"line_number":9,"text":"وَلَمْ","translation":{"text":"এবং না (প্রয়োজন)","language_name":"bengali","language_id":20},"transliteration":{"text":"walam","language_name":"english","language_id":38}},{"id":74504,"position":15,"audio_url":"wbw/017_111_015.mp3","char_type_name":"word","page_number":293,"line_number":9,"text":"يَكُن","translation":{"text":"আছে","language_name":"bengali","language_id":20},"transliteration":{"text":"yakun","language_name":"english","language_id":38}},{"id":74505,"position":16,"audio_url":"wbw/017_111_016.mp3","char_type_name":"word","page_number":293,"line_number":9,"text":"لَّهُۥ","translation":{"text":"জন্যে তাঁর","language_name":"bengali","language_id":20},"transliteration":{"text":"lahu","language_name":"english","language_id":38}},{"id":74506,"position":17,"audio_url":"wbw/017_111_017.mp3","char_type_name":"word","page_number":293,"line_number":9,"text":"وَلِىٌّۭ","translation":{"text":"কোনো অভিভাবক","language_name":"bengali","language_id":20},"transliteration":{"text":"waliyyun","language_name":"english","language_id":38}},{"id":74507,"position":18,"audio_url":"wbw/017_111_018.mp3","char_type_name":"word","page_number":293,"line_number":9,"text":"مِّنَ","translation":{"text":"থেকে","language_name":"bengali","language_id":20},"transliteration":{"text":"mina","language_name":"english","language_id":38}},{"id":74508,"position":19,"audio_url":"wbw/017_111_019.mp3","char_type_name":"word","page_number":293,"line_number":9,"text":"ٱلذُّلِّ ۖ","translation":{"text":"(এমন কোন) দুর্বলতা","language_name":"bengali","language_id":20},"transliteration":{"text":"l-dhuli","language_name":"english","language_id":38}},{"id":74510,"position":20,"audio_url":"wbw/017_111_021.mp3","char_type_name":"word","page_number":293,"line_number":9,"text":"وَكَبِّرْهُ","translation":{"text":"এবং তাঁর মাহাত্ম্য  ঘোষণা করো","language_name":"bengali","language_id":20},"transliteration":{"text":"wakabbir'hu","language_name":"english","language_id":38}},{"id":74511,"position":21,"audio_url":"wbw/017_111_022.mp3","char_type_name":"word","page_number":293,"line_number":9,"text":"تَكْبِيرًۢا","translation":{"text":"(পূর্ণভাবে) মাহাত্ম্য\"","language_name":"bengali","language_id":20},"transliteration":{"text":"takbīran","language_name":"english","language_id":38}},{"id":74512,"position":22,"audio_url":null,"char_type_name":"end","page_number":293,"line_number":9,"text":"١١١","translation":{"text":"(১১১)","language_name":"bengali","language_id":20},"transliteration":{"text":null,"language_name":"english","language_id":38}}]}],"pagination":{"per_page":10,"current_page":12,"next_page":null,"total_pages":12,"total_records":111}}
