{"verses":[{"id":5713,"verse_number":1,"verse_key":"79:1","hizb_number":59,"rub_el_hizb_number":233,"ruku_number":522,"manzil_number":7,"sajdah_number":null,"page_number":583,"juz_number":30,"words":[{"id":679,"position":1,"audio_url":"wbw/079_001_001.mp3","verse_key":"79:1","verse_id":5713,"location":"79:1:1","text_uthmani":"وَٱلنَّـٰزِعَـٰتِ","qpc_uthmani_hafs":"وَٱلنَّٰزِعَٰتِ","char_type_name":"word","page_number":583,"line_number":10,"text":"وَٱلنَّٰزِعَٰتِ","translation":{"text":"By those who extract","language_name":"english","language_id":38},"transliteration":{"text":"wal-nāziʿāti","language_name":"english","language_id":38}},{"id":680,"position":2,"audio_url":"wbw/079_001_002.mp3","verse_key":"79:1","verse_id":5713,"location":"79:1:2","text_uthmani":"غَرْقًۭا","qpc_uthmani_hafs":"غَرۡقٗا","char_type_name":"word","page_number":583,"line_number":10,"text":"غَرۡقٗا","translation":{"text":"violently","language_name":"english","language_id":38},"transliteration":{"text":"gharqan","language_name":"english","language_id":38}},{"id":681,"position":3,"audio_url":null,"verse_key":"79:1","verse_id":5713,"location":"79:1:3","text_uthmani":"١","qpc_uthmani_hafs":"١","char_type_name":"end","page_number":583,"line_number":10,"text":"١","translation":{"text":"(1)","language_name":"english","language_id":38},"transliteration":{"text":null,"language_name":"english","language_id":38}}]},{"id":5714,"verse_number":2,"verse_key":"79:2","hizb_number":59,"rub_el_hizb_number":233,"ruku_number":522,"manzil_number":7,"sajdah_number":null,"page_number":583,"juz_number":30,"words":[{"id":1695,"position":1,"audio_url":"wbw/079_002_001.mp3","verse_key":"79:2","verse_id":5714,"location":"79:2:1","text_uthmani":"وَٱلنَّـٰشِطَـٰتِ","qpc_uthmani_hafs":"وَٱلنَّٰشِطَٰتِ","char_type_name":"word","page_number":583,"line_number":10,"text":"وَٱلنَّٰشِطَٰتِ","translation":{"text":"And those who draw out","language_name":"english","language_id":38},"transliteration":{"text":"wal-nāshiṭāti","language_name":"english","language_id":38}},{"id":1696,"position":2,"audio_url":"wbw/079_002_002.mp3","verse_key":"79:2","verse_id":5714,"location":"79:2:2","text_uthmani":"نَشْطًۭا","qpc_uthmani_hafs":"نَشۡطٗا","char_type_name":"word","page_number":583,"line_number":10,"text":"نَشۡطٗا","translation":{"text":"gently","language_name":"english","language_id":38},"transliteration":{"text":"nashṭan","language_name":"english","language_id":38}},{"id":1697,"position":3,"audio_url":null,"verse_key":"79:2","verse_id":5714,"location":"79:2:3","text_uthmani":"٢","qpc_uthmani_hafs":"٢","char_type_name":"end","page_number":583,"line_number":10,"text":"٢","translation":{"text":"(2)","language_name":"english","language_id":38},"transliteration":{"text":null,"language_name":"english","language_id":38}}]},{"id":5715,"verse_number":3,"verse_key":"79:3","hizb_number":59,"rub_el_hizb_number":233,"ruku_number":522,"manzil_number":7,"sajdah_number":null,"page_number":583,"juz_number":30,"words":[{"id":2804,"position":1,"audio_url":"wbw/079_003_001.mp3","verse_key":"79:3","verse_id":5715,"location":"79:3:1","text_uthmani":"وَٱلسَّـٰبِحَـٰتِ","qpc_uthmani_hafs":"وَٱلسَّٰبِحَٰتِ","char_type_name":"word","page_number":583,"line_number":10,"text":"وَٱلسَّٰبِحَٰتِ","translation":{"text":"And those who glide","language_name":"english","language_id":38},"transliteration":{"text":"wal-sābiḥāti","language_name":"english","language_id":38}},{"id":2805,"position":2,"audio_url":"wbw/079_003_002.mp3","verse_key":"79:3","verse_id":5715,"location":"79:3:2","text_uthmani":"سَبْحًۭا","qpc_uthmani_hafs":"سَبۡحٗا","char_type_name":"word","page_number":583,"line_number":10,"text":"سَبۡحٗا","translation":{"text":"swimming","language_name":"english","language_id":38},"transliteration":{"text":"sabḥan","language_name":"english","language_id":38}},{"id":2806,"position":3,"audio_url":null,"verse_key":"79:3","verse_id":5715,"location":"79:3:3","text_uthmani":"٣","qpc_uthmani_hafs":"٣","char_type_name":"end","page_number":583,"line_number":10,"text":"٣","translation":{"text":"(3)","language_name":"english","language_id":38},"transliteration":{"text":null,"language_name":"english","language_id":38}}]},{"id":5716,"verse_number":4,"verse_key":"79:4","hizb_number":59,"rub_el_hizb_number":233,"ruku_number":522,"manzil_number":7,"sajdah_number":null,"page_number":583,"juz_number":30,"words":[{"id":4178,"position":1,"audio_url":"wbw/079_004_001.mp3","verse_key":"79:4","verse_id":5716,"location":"79:4:1","text_uthmani":"فَٱلسَّـٰبِقَـٰتِ","qpc_uthmani_hafs":"فَٱلسَّٰبِقَٰتِ","char_type_name":"word","page_number":583,"line_number":11,"text":"فَٱلسَّٰبِقَٰتِ","translation":{"text":"And those who race each other","language_name":"english","language_id":38},"transliteration":{"text":"fal-sābiqāti","language_name":"english","language_id":38}},{"id":4179,"position":2,"audio_url":"wbw/079_004_002.mp3","verse_key":"79:4","verse_id":5716,"location":"79:4:2","text_uthmani":"سَبْقًۭا","qpc_uthmani_hafs":"سَبۡقٗا","char_type_name":"word","page_number":583,"line_number":11,"text":"سَبۡقٗا","translation":{"text":"(in) a race","language_name":"english","language_id":38},"transliteration":{"text":"sabqan","language_name":"english","language_id":38}},{"id":4180,"position":3,"audio_url":null,"verse_key":"79:4","verse_id":5716,"location":"79:4:3","text_uthmani":"٤","qpc_uthmani_hafs":"٤","char_type_name":"end","page_number":583,"line_number":11,"text":"٤","translation":{"text":"(4)","language_name":"english","language_id":38},"transliteration":{"text":null,"language_name":"english","language_id":38}}]},{"id":5717,"verse_number":5,"verse_key":"79:5","hizb_number":59,"rub_el_hizb_number":233,"ruku_number":522,"manzil_number":7,"sajdah_number":null,"page_number":583,"juz_number":30,"words":[{"id":5452,"position":1,"audio_url":"wbw/079_005_001.mp3","verse_key":"79:5","verse_id":5717,"location":"79:5:1","text_uthmani":"فَٱلْمُدَبِّرَٰتِ","qpc_uthmani_hafs":"فَٱلۡمُدَبِّرَٰتِ","char_type_name":"word","page_number":583,"line_number":11,"text":"فَٱلۡمُدَبِّرَٰتِ","translation":{"text":"And those who arrange","language_name":"english","language_id":38},"transliteration":{"text":"fal-mudabirāti","language_name":"english","language_id":38}},{"id":5453,"position":2,"audio_url":"wbw/079_005_002.mp3","verse_key":"79:5","verse_id":5717,"location":"79:5:2","text_uthmani":"أَمْرًۭا","qpc_uthmani_hafs":"أَمۡرٗا","char_type_name":"word","page_number":583,"line_number":11,"text":"أَمۡرٗا","translation":{"text":"(the) matter","language_name":"english","language_id":38},"transliteration":{"text":"amran","language_name":"english","language_id":38}},{"id":5454,"position":3,"audio_url":null,"verse_key":"79:5","verse_id":5717,"location":"79:5:3","text_uthmani":"٥","qpc_uthmani_hafs":"٥","char_type_name":"end","page_number":583,"line_number":11,"text":"٥","translation":{"text":"(5)","language_name":"english","language_id":38},"transliteration":{"text":null,"language_name":"english","language_id":38}}]},{"id":5718,"verse_number":6,"verse_key":"79:6","hizb_number":59,"rub_el_hizb_number":233,"ruku_number":522,"manzil_number":7,"sajdah_number":null,"page_number":583,"juz_number":30,"words":[{"id":6681,"position":1,"audio_url":"wbw/079_006_001.mp3","verse_key":"79:6","verse_id":5718,"location":"79:6:1","text_uthmani":"يَوْمَ","qpc_uthmani_hafs":"يَوۡمَ","char_type_name":"word","page_number":583,"line_number":11,"text":"يَوۡمَ","translation":{"text":"(The) Day","language_name":"english","language_id":38},"transliteration":{"text":"yawma","language_name":"english","language_id":38}},{"id":6682,"position":2,"audio_url":"wbw/079_006_002.mp3","verse_key":"79:6","verse_id":5718,"location":"79:6:2","text_uthmani":"تَرْجُفُ","qpc_uthmani_hafs":"تَرۡجُفُ","char_type_name":"word","page_number":583,"line_number":11,"text":"تَرۡجُفُ","translation":{"text":"will quake","language_name":"english","language_id":38},"transliteration":{"text":"tarjufu","language_name":"english","language_id":38}},{"id":6683,"position":3,"audio_url":"wbw/079_006_003.mp3","verse_key":"79:6","verse_id":5718,"location":"79:6:3","text_uthmani":"ٱلرَّاجِفَةُ","qpc_uthmani_hafs":"ٱلرَّاجِفَةُ","char_type_name":"word","page_number":583,"line_number":11,"text":"ٱلرَّاجِفَةُ","translation":{"text":"the quaking one","language_name":"english","language_id":38},"transliteration":{"text":"l-rājifatu","language_name":"english","language_id":38}},{"id":6684,"position":4,"audio_url":null,"verse_key":"79:6","verse_id":5718,"location":"79:6:4","text_uthmani":"٦","qpc_uthmani_hafs":"٦","char_type_name":"end","page_number":583,"line_number":11,"text":"٦","translation":{"text":"(6)","language_name":"english","language_id":38},"transliteration":{"text":null,"language_name":"english","language_id":38}}]},{"id":5719,"verse_number":7,"verse_key":"79:7","hizb_number":59,"rub_el_hizb_number":233,"ruku_number":522,"manzil_number":7,"sajdah_number":null,"page_number":583,"juz_number":30,"words":[{"id":8026,"position":1,"audio_url":"wbw/079_007_001.mp3","verse_key":"79:7","verse_id":5719,"location":"79:7:1","text_uthmani":"تَتْبَعُهَا","qpc_uthmani_hafs":"تَتۡبَعُهَا","char_type_name":"word","page_number":583,"line_number":12,"text":"تَتۡبَعُهَا","translation":{"text":"Follows it","language_name":"english","language_id":38},"transliteration":{"text":"tatbaʿuhā","language_name":"english","language_id":38}},{"id":8027,"position":2,"audio_url":"wbw/079_007_002.mp3","verse_key":"79:7","verse_id":5719,"location":"79:7:2","text_uthmani":"ٱلرَّادِفَةُ","qpc_uthmani_hafs":"ٱلرَّادِفَةُ","char_type_name":"word","page_number":583,"line_number":12,"text":"ٱلرَّادِفَةُ","translation":{"text":"the subsequent","language_name":"english","language_id":38},"transliteration":{"text":"l-rādifatu","language_name":"english","language_id":38}},{"id":8028,"position":3,"audio_url":null,"verse_key":"79:7","verse_id":5719,"location":"79:7:3","text_uthmani":"٧","qpc_uthmani_hafs":"٧","char_type_name":"end","page_number":583,"line_number":12,"text":"٧","translation":{"text":"(7)","language_name":"english","language_id":38},"transliteration":{"text":null,"language_name":"english","language_id":38}}]},{"id":5720,"verse_number":8,"verse_key":"79:8","hizb_number":59,"rub_el_hizb_number":233,"ruku_number":522,"manzil_number":7,"sajdah_number":null,"page_number":583,"juz_number":30,"words":[{"id":9189,"position":1,"audio_url":"wbw/079_008_001.mp3","verse_key":"79:8","verse_id":5720,"location":"79:8:1","text_uthmani":"قُلُوبٌۭ","qpc_uthmani_hafs":"قُلُوبٞ","char_type_name":"word","page_number":583,"line_number":12,"text":"قُلُوبٞ","translation":{"text":"Hearts","language_name":"english","language_id":38},"transliteration":{"text":"qulūbun","language_name":"english","language_id":38}},{"id":9190,"position":2,"audio_url":"wbw/079_008_002.mp3","verse_key":"79:8","verse_id":5720,"location":"79:8:2","text_uthmani":"يَوْمَئِذٍۢ","qpc_uthmani_hafs":"يَوۡمَئِذٖ","char_type_name":"word","page_number":583,"line_number":12,"text":"يَوۡمَئِذٖ","translation":{"text":"that Day","language_name":"english","language_id":38},"transliteration":{"text":"yawma-idhin","language_name":"english","language_id":38}},{"id":9191,"position":3,"audio_url":"wbw/079_008_003.mp3","verse_key":"79:8","verse_id":5720,"location":"79:8:3","text_uthmani":"وَاجِفَةٌ","qpc_uthmani_hafs":"وَاجِفَةٌ","char_type_name":"word","page_number":583,"line_number":12,"text":"وَاجِفَةٌ","translation":{"text":"will palpitate","language_name":"english","language_id":38},"transliteration":{"text":"wājifatun","language_name":"english","language_id":38}},{"id":9192,"position":4,"audio_url":null,"verse_key":"79:8","verse_id":5720,"location":"79:8:4","text_uthmani":"٨","qpc_uthmani_hafs":"٨","char_type_name":"end","page_number":583,"line_number":12,"text":"٨","translation":{"text":"(8)","language_name":"english","language_id":38},"transliteration":{"text":null,"language_name":"english","language_id":38}}]},{"id":5721,"verse_number":9,"verse_key":"79:9","hizb_number":59,"rub_el_hizb_number":233,"ruku_number":522,"manzil_number":7,"sajdah_number":null,"page_number":583,"juz_number":30,"words":[{"id":10401,"position":1,"audio_url":"wbw/079_009_001.mp3","verse_key":"79:9","verse_id":5721,"location":"79:9:1","text_uthmani":"أَبْصَـٰرُهَا","qpc_uthmani_hafs":"أَبۡصَٰرُهَا","char_type_name":"word","page_number":583,"line_number":12,"text":"أَبۡصَٰرُهَا","translation":{"text":"Their eyes","language_name":"english","language_id":38},"transliteration":{"text":"abṣāruhā","language_name":"english","language_id":38}},{"id":10402,"position":2,"audio_url":"wbw/079_009_002.mp3","verse_key":"79:9","verse_id":5721,"location":"79:9:2","text_uthmani":"خَـٰشِعَةٌۭ","qpc_uthmani_hafs":"خَٰشِعَةٞ","char_type_name":"word","page_number":583,"line_number":12,"text":"خَٰشِعَةٞ","translation":{"text":"humbled","language_name":"english","language_id":38},"transliteration":{"text":"khāshiʿatun","language_name":"english","language_id":38}},{"id":10403,"position":3,"audio_url":null,"verse_key":"79:9","verse_id":5721,"location":"79:9:3","text_uthmani":"٩","qpc_uthmani_hafs":"٩","char_type_name":"end","page_number":583,"line_number":12,"text":"٩","translation":{"text":"(9)","language_name":"english","language_id":38},"transliteration":{"text":null,"language_name":"english","language_id":38}}]},{"id":5722,"verse_number":10,"verse_key":"79:10","hizb_number":59,"rub_el_hizb_number":233,"ruku_number":522,"manzil_number":7,"sajdah_number":null,"page_number":583,"juz_number":30,"words":[{"id":11628,"position":1,"audio_url":"wbw/079_010_001.mp3","verse_key":"79:10","verse_id":5722,"location":"79:10:1","text_uthmani":"يَقُولُونَ","qpc_uthmani_hafs":"يَقُولُونَ","char_type_name":"word","page_number":583,"line_number":13,"text":"يَقُولُونَ","translation":{"text":"They say","language_name":"english","language_id":38},"transliteration":{"text":"yaqūlūna","language_name":"english","language_id":38}},{"id":11629,"position":2,"audio_url":"wbw/079_010_002.mp3","verse_key":"79:10","verse_id":5722,"location":"79:10:2","text_uthmani":"أَءِنَّا","qpc_uthmani_hafs":"أَءِنَّا","char_type_name":"word","page_number":583,"line_number":13,"text":"أَءِنَّا","translation":{"text":"Will we","language_name":"english","language_id":38},"transliteration":{"text":"a-innā","language_name":"english","language_id":38}},{"id":11630,"position":3,"audio_url":"wbw/079_010_003.mp3","verse_key":"79:10","verse_id":5722,"location":"79:10:3","text_uthmani":"لَمَرْدُودُونَ","qpc_uthmani_hafs":"لَمَرۡدُودُونَ","char_type_name":"word","page_number":583,"line_number":13,"text":"لَمَرۡدُودُونَ","translation":{"text":"indeed be returned","language_name":"english","language_id":38},"transliteration":{"text":"lamardūdūna","language_name":"english","language_id":38}},{"id":11631,"position":4,"audio_url":"wbw/079_010_004.mp3","verse_key":"79:10","verse_id":5722,"location":"79:10:4","text_uthmani":"فِى","qpc_uthmani_hafs":"فِي","char_type_name":"word","page_number":583,"line_number":13,"text":"فِي","translation":{"text":"to","language_name":"english","language_id":38},"transliteration":{"text":"fī","language_name":"english","language_id":38}},{"id":11632,"position":5,"audio_url":"wbw/079_010_005.mp3","verse_key":"79:10","verse_id":5722,"location":"79:10:5","text_uthmani":"ٱلْحَافِرَةِ","qpc_uthmani_hafs":"ٱلۡحَافِرَةِ","char_type_name":"word","page_number":583,"line_number":13,"text":"ٱلۡحَافِرَةِ","translation":{"text":"the former state","language_name":"english","language_id":38},"transliteration":{"text":"l-ḥāfirati","language_name":"english","language_id":38}},{"id":11633,"position":6,"audio_url":null,"verse_key":"79:10","verse_id":5722,"location":"79:10:6","text_uthmani":"١٠","qpc_uthmani_hafs":"١٠","char_type_name":"end","page_number":583,"line_number":13,"text":"١٠","translation":{"text":"(10)","language_name":"english","language_id":38},"transliteration":{"text":null,"language_name":"english","language_id":38}}]}],"pagination":{"per_page":10,"current_page":1,"next_page":2,"total_pages":5,"total_records":46}}
