{"verses":[{"id":5743,"verse_number":31,"verse_key":"79:31","hizb_number":59,"rub_el_hizb_number":233,"ruku_number":523,"manzil_number":7,"sajdah_number":null,"page_number":584,"juz_number":30,"words":[{"id":33779,"position":1,"audio_url":"wbw/079_031_001.mp3","verse_key":"79:31","verse_id":5743,"location":"79:31:1","text_uthmani":"أَخْرَجَ","qpc_uthmani_hafs":"أَخۡرَجَ","char_type_name":"word","page_number":584,"line_number":7,"text":"أَخۡرَجَ","translation":{"text":"He brought forth","language_name":"english","language_id":38},"transliteration":{"text":"akhraja","language_name":"english","language_id":38}},{"id":33780,"position":2,"audio_url":"wbw/079_031_002.mp3","verse_key":"79:31","verse_id":5743,"location":"79:31:2","text_uthmani":"مِنْهَا","qpc_uthmani_hafs":"مِنۡهَا","char_type_name":"word","page_number":584,"line_number":7,"text":"مِنۡهَا","translation":{"text":"from it","language_name":"english","language_id":38},"transliteration":{"text":"min'hā","language_name":"english","language_id":38}},{"id":33781,"position":3,"audio_url":"wbw/079_031_003.mp3","verse_key":"79:31","verse_id":5743,"location":"79:31:3","text_uthmani":"مَآءَهَا","qpc_uthmani_hafs":"مَآءَهَا","char_type_name":"word","page_number":584,"line_number":7,"text":"مَآءَهَا","translation":{"text":"its water","language_name":"english","language_id":38},"transliteration":{"text":"māahā","language_name":"english","language_id":38}},{"id":33782,"position":4,"audio_url":"wbw/079_031_004.mp3","verse_key":"79:31","verse_id":5743,"location":"79:31:4","text_uthmani":"وَمَرْعَىٰهَا","qpc_uthmani_hafs":"وَمَرۡعَىٰهَا","char_type_name":"word","page_number":584,"line_number":7,"text":"وَمَرۡعَىٰهَا","translation":{"text":"and its pasture","language_name":"english","language_id":38},"transliteration":{"text":"wamarʿāhā","language_name":"english","language_id":38}},{"id":33783,"position":5,"audio_url":null,"verse_key":"79:31","verse_id":5743,"location":"79:31:5","text_uthmani":"٣١","qpc_uthmani_hafs":"٣١","char_type_name":"end","page_number":584,"line_number":7,"text":"٣١","translation":{"text":"(31)","language_name":"english","language_id":38},"transliteration":{"text":null,"language_name":"english","language_id":38}}]},{"id":5744,"verse_number":32,"verse_key":"79:32","hizb_number":59,"rub_el_hizb_number":233,"ruku_number":523,"manzil_number":7,"sajdah_number":null,"page_number":584,"juz_number":30,"words":[{"id":34778,"position":1,"audio_url":"wbw/079_032_001.mp3","verse_key":"79:32","verse_id":5744,"location":"79:32:1","text_uthmani":"وَٱلْجِبَالَ","qpc_uthmani_hafs":"وَٱلۡجِبَالَ","char_type_name":"word","page_number":584,"line_number":7,"text":"وَٱلۡجِبَالَ","translation":{"text":"And the mountains","language_name":"english","language_id":38},"transliteration":{"text":"wal-jibāla","language_name":"english","language_id":38}},{"id":34779,"position":2,"audio_url":"wbw/079_032_002.mp3","verse_key":"79:32","verse_id":5744,"location":"79:32:2","text_uthmani":"أَرْسَىٰهَا","qpc_uthmani_hafs":"أَرۡسَىٰهَا","char_type_name":"word","page_number":584,"line_number":7,"text":"أَرۡسَىٰهَا","translation":{"text":"He made them firm","language_name":"english","language_id":38},"transliteration":{"text":"arsāhā","language_name":"english","language_id":38}},{"id":34780,"position":3,"audio_url":null,"verse_key":"79:32","verse_id":5744,"location":"79:32:3","text_uthmani":"٣٢","qpc_uthmani_hafs":"٣٢","char_type_name":"end","page_number":584,"line_number":7,"text":"٣٢","translation":{"text":"(32)","language_name":"english","language_id":38},"transliteration":{"text":null,"language_name":"english","language_id":38}}]},{"id":5745,"verse_number":33,"verse_key":"79:33","hizb_number":59,"rub_el_hizb_number":233,"ruku_number":523,"manzil_number":7,"sajdah_number":null,"page_number":584,"juz_number":30,"words":[{"id":35582,"position":1,"audio_url":"wbw/079_033_001.mp3","verse_key":"79:33","verse_id":5745,"location":"79:33:1","text_uthmani":"مَتَـٰعًۭا","qpc_uthmani_hafs":"مَتَٰعٗا","char_type_name":"word","page_number":584,"line_number":7,"text":"مَتَٰعٗا","translation":{"text":"(As) a provision","language_name":"english","language_id":38},"transliteration":{"text":"matāʿan","language_name":"english","language_id":38}},{"id":35583,"position":2,"audio_url":"wbw/079_033_002.mp3","verse_key":"79:33","verse_id":5745,"location":"79:33:2","text_uthmani":"لَّكُمْ","qpc_uthmani_hafs":"لَّكُمۡ","char_type_name":"word","page_number":584,"line_number":7,"text":"لَّكُمۡ","translation":{"text":"for you","language_name":"english","language_id":38},"transliteration":{"text":"lakum","language_name":"english","language_id":38}},{"id":35584,"position":3,"audio_url":"wbw/079_033_003.mp3","verse_key":"79:33","verse_id":5745,"location":"79:33:3","text_uthmani":"وَلِأَنْعَـٰمِكُمْ","qpc_uthmani_hafs":"وَلِأَنۡعَٰمِكُمۡ","char_type_name":"word","page_number":584,"line_number":8,"text":"وَلِأَنۡعَٰمِكُمۡ","translation":{"text":"and for your cattle","language_name":"english","language_id":38},"transliteration":{"text":"wali-anʿāmikum","language_name":"english","language_id":38}},{"id":35585,"position":4,"audio_url":null,"verse_key":"79:33","verse_id":5745,"location":"79:33:4","text_uthmani":"٣٣","qpc_uthmani_hafs":"٣٣","char_type_name":"end","page_number":584,"line_number":8,"text":"٣٣","translation":{"text":"(33)","language_name":"english","language_id":38},"transliteration":{"text":null,"language_name":"english","language_id":38}}]},{"id":5746,"verse_number":34,"verse_key":"79:34","hizb_number":59,"rub_el_hizb_number":233,"ruku_number":523,"manzil_number":7,"sajdah_number":null,"page_number":584,"juz_number":30,"words":[{"id":36515,"position":1,"audio_url":"wbw/079_034_001.mp3","verse_key":"79:34","verse_id":5746,"location":"79:34:1","text_uthmani":"فَإِذَا","qpc_uthmani_hafs":"فَإِذَا","char_type_name":"word","page_number":584,"line_number":8,"text":"فَإِذَا","translation":{"text":"But when","language_name":"english","language_id":38},"transliteration":{"text":"fa-idhā","language_name":"english","language_id":38}},{"id":36516,"position":2,"audio_url":"wbw/079_034_002.mp3","verse_key":"79:34","verse_id":5746,"location":"79:34:2","text_uthmani":"جَآءَتِ","qpc_uthmani_hafs":"جَآءَتِ","char_type_name":"word","page_number":584,"line_number":8,"text":"جَآءَتِ","translation":{"text":"comes","language_name":"english","language_id":38},"transliteration":{"text":"jāati","language_name":"english","language_id":38}},{"id":36517,"position":3,"audio_url":"wbw/079_034_003.mp3","verse_key":"79:34","verse_id":5746,"location":"79:34:3","text_uthmani":"ٱلطَّآمَّةُ","qpc_uthmani_hafs":"ٱلطَّآمَّةُ","char_type_name":"word","page_number":584,"line_number":8,"text":"ٱلطَّآمَّةُ","translation":{"text":"the Overwhelming Calamity","language_name":"english","language_id":38},"transliteration":{"text":"l-ṭāmatu","language_name":"english","language_id":38}},{"id":36518,"position":4,"audio_url":"wbw/079_034_004.mp3","verse_key":"79:34","verse_id":5746,"location":"79:34:4","text_uthmani":"ٱلْكُبْرَىٰ","qpc_uthmani_hafs":"ٱلۡكُبۡرَىٰ","char_type_name":"word","page_number":584,"line_number":8,"text":"ٱلۡكُبۡرَىٰ","translation":{"text":"the great","language_name":"english","language_id":38},"transliteration":{"text":"l-kub'rā","language_name":"english","language_id":38}},{"id":36519,"position":5,"audio_url":null,"verse_key":"79:34","verse_id":5746,"location":"79:34:5","text_uthmani":"٣٤","qpc_uthmani_hafs":"٣٤","char_type_name":"end","page_number":584,"line_number":8,"text":"٣٤","translation":{"text":"(34)","language_name":"english","language_id":38},"transliteration":{"text":null,"language_name":"english","language_id":38}}]},{"id":5747,"verse_number":35,"verse_key":"79:35","hizb_number":59,"rub_el_hizb_number":233,"ruku_number":523,"manzil_number":7,"sajdah_number":null,"page_number":584,"juz_number":30,"words":[{"id":37388,"position":1,"audio_url":"wbw/079_035_001.mp3","verse_key":"79:35","verse_id":5747,"location":"79:35:1","text_uthmani":"يَوْمَ","qpc_uthmani_hafs":"يَوۡمَ","char_type_name":"word","page_number":584,"line_number":8,"text":"يَوۡمَ","translation":{"text":"(The) Day","language_name":"english","language_id":38},"transliteration":{"text":"yawma","language_name":"english","language_id":38}},{"id":37389,"position":2,"audio_url":"wbw/079_035_002.mp3","verse_key":"79:35","verse_id":5747,"location":"79:35:2","text_uthmani":"يَتَذَكَّرُ","qpc_uthmani_hafs":"يَتَذَكَّرُ","char_type_name":"word","page_number":584,"line_number":8,"text":"يَتَذَكَّرُ","translation":{"text":"will remember","language_name":"english","language_id":38},"transliteration":{"text":"yatadhakkaru","language_name":"english","language_id":38}},{"id":37390,"position":3,"audio_url":"wbw/079_035_003.mp3","verse_key":"79:35","verse_id":5747,"location":"79:35:3","text_uthmani":"ٱلْإِنسَـٰنُ","qpc_uthmani_hafs":"ٱلۡإِنسَٰنُ","char_type_name":"word","page_number":584,"line_number":8,"text":"ٱلۡإِنسَٰنُ","translation":{"text":"man","language_name":"english","language_id":38},"transliteration":{"text":"l-insānu","language_name":"english","language_id":38}},{"id":37391,"position":4,"audio_url":"wbw/079_035_004.mp3","verse_key":"79:35","verse_id":5747,"location":"79:35:4","text_uthmani":"مَا","qpc_uthmani_hafs":"مَا","char_type_name":"word","page_number":584,"line_number":9,"text":"مَا","translation":{"text":"what","language_name":"english","language_id":38},"transliteration":{"text":"mā","language_name":"english","language_id":38}},{"id":37392,"position":5,"audio_url":"wbw/079_035_005.mp3","verse_key":"79:35","verse_id":5747,"location":"79:35:5","text_uthmani":"سَعَىٰ","qpc_uthmani_hafs":"سَعَىٰ","char_type_name":"word","page_number":584,"line_number":9,"text":"سَعَىٰ","translation":{"text":"he strove (for)","language_name":"english","language_id":38},"transliteration":{"text":"saʿā","language_name":"english","language_id":38}},{"id":37393,"position":6,"audio_url":null,"verse_key":"79:35","verse_id":5747,"location":"79:35:6","text_uthmani":"٣٥","qpc_uthmani_hafs":"٣٥","char_type_name":"end","page_number":584,"line_number":9,"text":"٣٥","translation":{"text":"(35)","language_name":"english","language_id":38},"transliteration":{"text":null,"language_name":"english","language_id":38}}]},{"id":5748,"verse_number":36,"verse_key":"79:36","hizb_number":59,"rub_el_hizb_number":233,"ruku_number":523,"manzil_number":7,"sajdah_number":null,"page_number":584,"juz_number":30,"words":[{"id":38222,"position":1,"audio_url":"wbw/079_036_001.mp3","verse_key":"79:36","verse_id":5748,"location":"79:36:1","text_uthmani":"وَبُرِّزَتِ","qpc_uthmani_hafs":"وَبُرِّزَتِ","char_type_name":"word","page_number":584,"line_number":9,"text":"وَبُرِّزَتِ","translation":{"text":"And will be made manifest","language_name":"english","language_id":38},"transliteration":{"text":"waburrizati","language_name":"english","language_id":38}},{"id":38223,"position":2,"audio_url":"wbw/079_036_002.mp3","verse_key":"79:36","verse_id":5748,"location":"79:36:2","text_uthmani":"ٱلْجَحِيمُ","qpc_uthmani_hafs":"ٱلۡجَحِيمُ","char_type_name":"word","page_number":584,"line_number":9,"text":"ٱلۡجَحِيمُ","translation":{"text":"the Hellfire","language_name":"english","language_id":38},"transliteration":{"text":"l-jaḥīmu","language_name":"english","language_id":38}},{"id":38224,"position":3,"audio_url":"wbw/079_036_003.mp3","verse_key":"79:36","verse_id":5748,"location":"79:36:3","text_uthmani":"لِمَن","qpc_uthmani_hafs":"لِمَن","char_type_name":"word","page_number":584,"line_number":9,"text":"لِمَن","translation":{"text":"to (him) who","language_name":"english","language_id":38},"transliteration":{"text":"liman","language_name":"english","language_id":38}},{"id":38225,"position":4,"audio_url":"wbw/079_036_004.mp3","verse_key":"79:36","verse_id":5748,"location":"79:36:4","text_uthmani":"يَرَىٰ","qpc_uthmani_hafs":"يَرَىٰ","char_type_name":"word","page_number":584,"line_number":9,"text":"يَرَىٰ","translation":{"text":"sees","language_name":"english","language_id":38},"transliteration":{"text":"yarā","language_name":"english","language_id":38}},{"id":38226,"position":5,"audio_url":null,"verse_key":"79:36","verse_id":5748,"location":"79:36:5","text_uthmani":"٣٦","qpc_uthmani_hafs":"٣٦","char_type_name":"end","page_number":584,"line_number":9,"text":"٣٦","translation":{"text":"(36)","language_name":"english","language_id":38},"transliteration":{"text":null,"language_name":"english","language_id":38}}]},{"id":5749,"verse_number":37,"verse_key":"79:37","hizb_number":59,"rub_el_hizb_number":233,"ruku_number":523,"manzil_number":7,"sajdah_number":null,"page_number":584,"juz_number":30,"words":[{"id":39040,"position":1,"audio_url":"wbw/079_037_001.mp3","verse_key":"79:37","verse_id":5749,"location":"79:37:1","text_uthmani":"فَأَمَّا","qpc_uthmani_hafs":"فَأَمَّا","char_type_name":"word","page_number":584,"line_number":9,"text":"فَأَمَّا","translation":{"text":"Then as for","language_name":"english","language_id":38},"transliteration":{"text":"fa-ammā","language_name":"english","language_id":38}},{"id":39041,"position":2,"audio_url":"wbw/079_037_002.mp3","verse_key":"79:37","verse_id":5749,"location":"79:37:2","text_uthmani":"مَن","qpc_uthmani_hafs":"مَن","char_type_name":"word","page_number":584,"line_number":9,"text":"مَن","translation":{"text":"(him) who","language_name":"english","language_id":38},"transliteration":{"text":"man","language_name":"english","language_id":38}},{"id":39042,"position":3,"audio_url":"wbw/079_037_003.mp3","verse_key":"79:37","verse_id":5749,"location":"79:37:3","text_uthmani":"طَغَىٰ","qpc_uthmani_hafs":"طَغَىٰ","char_type_name":"word","page_number":584,"line_number":9,"text":"طَغَىٰ","translation":{"text":"transgressed","language_name":"english","language_id":38},"transliteration":{"text":"ṭaghā","language_name":"english","language_id":38}},{"id":39043,"position":4,"audio_url":null,"verse_key":"79:37","verse_id":5749,"location":"79:37:4","text_uthmani":"٣٧","qpc_uthmani_hafs":"٣٧","char_type_name":"end","page_number":584,"line_number":9,"text":"٣٧","translation":{"text":"(37)","language_name":"english","language_id":38},"transliteration":{"text":null,"language_name":"english","language_id":38}}]},{"id":5750,"verse_number":38,"verse_key":"79:38","hizb_number":59,"rub_el_hizb_number":233,"ruku_number":523,"manzil_number":7,"sajdah_number":null,"page_number":584,"juz_number":30,"words":[{"id":39875,"position":1,"audio_url":"wbw/079_038_001.mp3","verse_key":"79:38","verse_id":5750,"location":"79:38:1","text_uthmani":"وَءَاثَرَ","qpc_uthmani_hafs":"وَءَاثَرَ","char_type_name":"word","page_number":584,"line_number":9,"text":"وَءَاثَرَ","translation":{"text":"And preferred","language_name":"english","language_id":38},"transliteration":{"text":"waāthara","language_name":"english","language_id":38}},{"id":39876,"position":2,"audio_url":"wbw/079_038_002.mp3","verse_key":"79:38","verse_id":5750,"location":"79:38:2","text_uthmani":"ٱلْحَيَوٰةَ","qpc_uthmani_hafs":"ٱلۡحَيَوٰةَ","char_type_name":"word","page_number":584,"line_number":10,"text":"ٱلۡحَيَوٰةَ","translation":{"text":"the life","language_name":"english","language_id":38},"transliteration":{"text":"l-ḥayata","language_name":"english","language_id":38}},{"id":39877,"position":3,"audio_url":"wbw/079_038_003.mp3","verse_key":"79:38","verse_id":5750,"location":"79:38:3","text_uthmani":"ٱلدُّنْيَا","qpc_uthmani_hafs":"ٱلدُّنۡيَا","char_type_name":"word","page_number":584,"line_number":10,"text":"ٱلدُّنۡيَا","translation":{"text":"(of) the world","language_name":"english","language_id":38},"transliteration":{"text":"l-dun'yā","language_name":"english","language_id":38}},{"id":39878,"position":4,"audio_url":null,"verse_key":"79:38","verse_id":5750,"location":"79:38:4","text_uthmani":"٣٨","qpc_uthmani_hafs":"٣٨","char_type_name":"end","page_number":584,"line_number":10,"text":"٣٨","translation":{"text":"(38)","language_name":"english","language_id":38},"transliteration":{"text":null,"language_name":"english","language_id":38}}]},{"id":5751,"verse_number":39,"verse_key":"79:39","hizb_number":59,"rub_el_hizb_number":233,"ruku_number":523,"manzil_number":7,"sajdah_number":null,"page_number":584,"juz_number":30,"words":[{"id":40439,"position":1,"audio_url":"wbw/079_039_001.mp3","verse_key":"79:39","verse_id":5751,"location":"79:39:1","text_uthmani":"فَإِنَّ","qpc_uthmani_hafs":"فَإِنَّ","char_type_name":"word","page_number":584,"line_number":10,"text":"فَإِنَّ","translation":{"text":"Then indeed","language_name":"english","language_id":38},"transliteration":{"text":"fa-inna","language_name":"english","language_id":38}},{"id":40440,"position":2,"audio_url":"wbw/079_039_002.mp3","verse_key":"79:39","verse_id":5751,"location":"79:39:2","text_uthmani":"ٱلْجَحِيمَ","qpc_uthmani_hafs":"ٱلۡجَحِيمَ","char_type_name":"word","page_number":584,"line_number":10,"text":"ٱلۡجَحِيمَ","translation":{"text":"the Hellfire","language_name":"english","language_id":38},"transliteration":{"text":"l-jaḥīma","language_name":"english","language_id":38}},{"id":40441,"position":3,"audio_url":"wbw/079_039_003.mp3","verse_key":"79:39","verse_id":5751,"location":"79:39:3","text_uthmani":"هِىَ","qpc_uthmani_hafs":"هِيَ","char_type_name":"word","page_number":584,"line_number":10,"text":"هِيَ","translation":{"text":"it","language_name":"english","language_id":38},"transliteration":{"text":"hiya","language_name":"english","language_id":38}},{"id":40442,"position":4,"audio_url":"wbw/079_039_004.mp3","verse_key":"79:39","verse_id":5751,"location":"79:39:4","text_uthmani":"ٱلْمَأْوَىٰ","qpc_uthmani_hafs":"ٱلۡمَأۡوَىٰ","char_type_name":"word","page_number":584,"line_number":10,"text":"ٱلۡمَأۡوَىٰ","translation":{"text":"(is) the refuge","language_name":"english","language_id":38},"transliteration":{"text":"l-mawā","language_name":"english","language_id":38}},{"id":40443,"position":5,"audio_url":null,"verse_key":"79:39","verse_id":5751,"location":"79:39:5","text_uthmani":"٣٩","qpc_uthmani_hafs":"٣٩","char_type_name":"end","page_number":584,"line_number":10,"text":"٣٩","translation":{"text":"(39)","language_name":"english","language_id":38},"transliteration":{"text":null,"language_name":"english","language_id":38}}]},{"id":5752,"verse_number":40,"verse_key":"79:40","hizb_number":59,"rub_el_hizb_number":233,"ruku_number":523,"manzil_number":7,"sajdah_number":null,"page_number":584,"juz_number":30,"words":[{"id":41492,"position":1,"audio_url":"wbw/079_040_001.mp3","verse_key":"79:40","verse_id":5752,"location":"79:40:1","text_uthmani":"وَأَمَّا","qpc_uthmani_hafs":"وَأَمَّا","char_type_name":"word","page_number":584,"line_number":10,"text":"وَأَمَّا","translation":{"text":"But as for","language_name":"english","language_id":38},"transliteration":{"text":"wa-ammā","language_name":"english","language_id":38}},{"id":41493,"position":2,"audio_url":"wbw/079_040_002.mp3","verse_key":"79:40","verse_id":5752,"location":"79:40:2","text_uthmani":"مَنْ","qpc_uthmani_hafs":"مَنۡ","char_type_name":"word","page_number":584,"line_number":10,"text":"مَنۡ","translation":{"text":"(him) who","language_name":"english","language_id":38},"transliteration":{"text":"man","language_name":"english","language_id":38}},{"id":41494,"position":3,"audio_url":"wbw/079_040_003.mp3","verse_key":"79:40","verse_id":5752,"location":"79:40:3","text_uthmani":"خَافَ","qpc_uthmani_hafs":"خَافَ","char_type_name":"word","page_number":584,"line_number":10,"text":"خَافَ","translation":{"text":"feared","language_name":"english","language_id":38},"transliteration":{"text":"khāfa","language_name":"english","language_id":38}},{"id":41495,"position":4,"audio_url":"wbw/079_040_004.mp3","verse_key":"79:40","verse_id":5752,"location":"79:40:4","text_uthmani":"مَقَامَ","qpc_uthmani_hafs":"مَقَامَ","char_type_name":"word","page_number":584,"line_number":11,"text":"مَقَامَ","translation":{"text":"standing","language_name":"english","language_id":38},"transliteration":{"text":"maqāma","language_name":"english","language_id":38}},{"id":41496,"position":5,"audio_url":"wbw/079_040_005.mp3","verse_key":"79:40","verse_id":5752,"location":"79:40:5","text_uthmani":"رَبِّهِۦ","qpc_uthmani_hafs":"رَبِّهِۦ","char_type_name":"word","page_number":584,"line_number":11,"text":"رَبِّهِۦ","translation":{"text":"(before) his Lord","language_name":"english","language_id":38},"transliteration":{"text":"rabbihi","language_name":"english","language_id":38}},{"id":41497,"position":6,"audio_url":"wbw/079_040_006.mp3","verse_key":"79:40","verse_id":5752,"location":"79:40:6","text_uthmani":"وَنَهَى","qpc_uthmani_hafs":"وَنَهَى","char_type_name":"word","page_number":584,"line_number":11,"text":"وَنَهَى","translation":{"text":"and restrained","language_name":"english","language_id":38},"transliteration":{"text":"wanahā","language_name":"english","language_id":38}},{"id":41498,"position":7,"audio_url":"wbw/079_040_007.mp3","verse_key":"79:40","verse_id":5752,"location":"79:40:7","text_uthmani":"ٱلنَّفْسَ","qpc_uthmani_hafs":"ٱلنَّفۡسَ","char_type_name":"word","page_number":584,"line_number":11,"text":"ٱلنَّفۡسَ","translation":{"text":"his soul","language_name":"english","language_id":38},"transliteration":{"text":"l-nafsa","language_name":"english","language_id":38}},{"id":41499,"position":8,"audio_url":"wbw/079_040_008.mp3","verse_key":"79:40","verse_id":5752,"location":"79:40:8","text_uthmani":"عَنِ","qpc_uthmani_hafs":"عَنِ","char_type_name":"word","page_number":584,"line_number":11,"text":"عَنِ","translation":{"text":"from","language_name":"english","language_id":38},"transliteration":{"text":"ʿani","language_name":"english","language_id":38}},{"id":41500,"position":9,"audio_url":"wbw/079_040_009.mp3","verse_key":"79:40","verse_id":5752,"location":"79:40:9","text_uthmani":"ٱلْهَوَىٰ","qpc_uthmani_hafs":"ٱلۡهَوَىٰ","char_type_name":"word","page_number":584,"line_number":11,"text":"ٱلۡهَوَىٰ","translation":{"text":"the vain desires","language_name":"english","language_id":38},"transliteration":{"text":"l-hawā","language_name":"english","language_id":38}},{"id":41501,"position":10,"audio_url":null,"verse_key":"79:40","verse_id":5752,"location":"79:40:10","text_uthmani":"٤٠","qpc_uthmani_hafs":"٤٠","char_type_name":"end","page_number":584,"line_number":11,"text":"٤٠","translation":{"text":"(40)","language_name":"english","language_id":38},"transliteration":{"text":null,"language_name":"english","language_id":38}}]}],"pagination":{"per_page":10,"current_page":4,"next_page":5,"total_pages":5,"total_records":46}}
