{"verses":[{"id":4795,"verse_number":11,"verse_key":"53:11","hizb_number":53,"rub_el_hizb_number":210,"ruku_number":462,"manzil_number":7,"sajdah_number":null,"page_number":526,"juz_number":27,"words":[{"id":12481,"position":1,"audio_url":"wbw/053_011_001.mp3","verse_key":"53:11","verse_id":4795,"location":"53:11:1","text_uthmani":"مَا","qpc_uthmani_hafs":"مَا","char_type_name":"word","page_number":526,"line_number":6,"text":"مَا","translation":{"text":"না","language_name":"bengali","language_id":20},"transliteration":{"text":"mā","language_name":"english","language_id":38}},{"id":12482,"position":2,"audio_url":"wbw/053_011_002.mp3","verse_key":"53:11","verse_id":4795,"location":"53:11:2","text_uthmani":"كَذَبَ","qpc_uthmani_hafs":"كَذَبَ","char_type_name":"word","page_number":526,"line_number":6,"text":"كَذَبَ","translation":{"text":"মিথ্যা বলেছে","language_name":"bengali","language_id":20},"transliteration":{"text":"kadhaba","language_name":"english","language_id":38}},{"id":12483,"position":3,"audio_url":"wbw/053_011_003.mp3","verse_key":"53:11","verse_id":4795,"location":"53:11:3","text_uthmani":"ٱلْفُؤَادُ","qpc_uthmani_hafs":"ٱلۡفُؤَادُ","char_type_name":"word","page_number":526,"line_number":6,"text":"ٱلۡفُؤَادُ","translation":{"text":"(তার) অন্তর","language_name":"bengali","language_id":20},"transliteration":{"text":"l-fuādu","language_name":"english","language_id":38}},{"id":12484,"position":4,"audio_url":"wbw/053_011_004.mp3","verse_key":"53:11","verse_id":4795,"location":"53:11:4","text_uthmani":"مَا","qpc_uthmani_hafs":"مَا","char_type_name":"word","page_number":526,"line_number":6,"text":"مَا","translation":{"text":"যা","language_name":"bengali","language_id":20},"transliteration":{"text":"mā","language_name":"english","language_id":38}},{"id":12485,"position":5,"audio_url":"wbw/053_011_005.mp3","verse_key":"53:11","verse_id":4795,"location":"53:11:5","text_uthmani":"رَأَىٰٓ","qpc_uthmani_hafs":"رَأَىٰٓ","char_type_name":"word","page_number":526,"line_number":6,"text":"رَأَىٰٓ","translation":{"text":"সে দেখেছে","language_name":"bengali","language_id":20},"transliteration":{"text":"raā","language_name":"english","language_id":38}},{"id":12486,"position":6,"audio_url":null,"verse_key":"53:11","verse_id":4795,"location":"53:11:6","text_uthmani":"١١","qpc_uthmani_hafs":"١١","char_type_name":"end","page_number":526,"line_number":6,"text":"١١","translation":{"text":"(১১)","language_name":"bengali","language_id":20},"transliteration":{"text":null,"language_name":"english","language_id":38}}]},{"id":4796,"verse_number":12,"verse_key":"53:12","hizb_number":53,"rub_el_hizb_number":210,"ruku_number":462,"manzil_number":7,"sajdah_number":null,"page_number":526,"juz_number":27,"words":[{"id":13797,"position":1,"audio_url":"wbw/053_012_001.mp3","verse_key":"53:12","verse_id":4796,"location":"53:12:1","text_uthmani":"أَفَتُمَـٰرُونَهُۥ","qpc_uthmani_hafs":"أَفَتُمَٰرُونَهُۥ","char_type_name":"word","page_number":526,"line_number":6,"text":"أَفَتُمَٰرُونَهُۥ","translation":{"text":"তার সাথে তোমরা এখন কি তর্ক করছ","language_name":"bengali","language_id":20},"transliteration":{"text":"afatumārūnahu","language_name":"english","language_id":38}},{"id":13798,"position":2,"audio_url":"wbw/053_012_002.mp3","verse_key":"53:12","verse_id":4796,"location":"53:12:2","text_uthmani":"عَلَىٰ","qpc_uthmani_hafs":"عَلَىٰ","char_type_name":"word","page_number":526,"line_number":6,"text":"عَلَىٰ","translation":{"text":"(তার) উপর","language_name":"bengali","language_id":20},"transliteration":{"text":"ʿalā","language_name":"english","language_id":38}},{"id":13799,"position":3,"audio_url":"wbw/053_012_003.mp3","verse_key":"53:12","verse_id":4796,"location":"53:12:3","text_uthmani":"مَا","qpc_uthmani_hafs":"مَا","char_type_name":"word","page_number":526,"line_number":6,"text":"مَا","translation":{"text":"যা","language_name":"bengali","language_id":20},"transliteration":{"text":"mā","language_name":"english","language_id":38}},{"id":13800,"position":4,"audio_url":"wbw/053_012_004.mp3","verse_key":"53:12","verse_id":4796,"location":"53:12:4","text_uthmani":"يَرَىٰ","qpc_uthmani_hafs":"يَرَىٰ","char_type_name":"word","page_number":526,"line_number":6,"text":"يَرَىٰ","translation":{"text":"সে দেখেছে","language_name":"bengali","language_id":20},"transliteration":{"text":"yarā","language_name":"english","language_id":38}},{"id":13801,"position":5,"audio_url":null,"verse_key":"53:12","verse_id":4796,"location":"53:12:5","text_uthmani":"١٢","qpc_uthmani_hafs":"١٢","char_type_name":"end","page_number":526,"line_number":6,"text":"١٢","translation":{"text":"(১২)","language_name":"bengali","language_id":20},"transliteration":{"text":null,"language_name":"english","language_id":38}}]},{"id":4797,"verse_number":13,"verse_key":"53:13","hizb_number":53,"rub_el_hizb_number":210,"ruku_number":462,"manzil_number":7,"sajdah_number":null,"page_number":526,"juz_number":27,"words":[{"id":14959,"position":1,"audio_url":"wbw/053_013_001.mp3","verse_key":"53:13","verse_id":4797,"location":"53:13:1","text_uthmani":"وَلَقَدْ","qpc_uthmani_hafs":"وَلَقَدۡ","char_type_name":"word","page_number":526,"line_number":6,"text":"وَلَقَدۡ","translation":{"text":"এবং নিশ্চয়ই","language_name":"bengali","language_id":20},"transliteration":{"text":"walaqad","language_name":"english","language_id":38}},{"id":14960,"position":2,"audio_url":"wbw/053_013_002.mp3","verse_key":"53:13","verse_id":4797,"location":"53:13:2","text_uthmani":"رَءَاهُ","qpc_uthmani_hafs":"رَءَاهُ","char_type_name":"word","page_number":526,"line_number":6,"text":"رَءَاهُ","translation":{"text":"সে তাকে দেখেছে","language_name":"bengali","language_id":20},"transliteration":{"text":"raāhu","language_name":"english","language_id":38}},{"id":14961,"position":3,"audio_url":"wbw/053_013_003.mp3","verse_key":"53:13","verse_id":4797,"location":"53:13:3","text_uthmani":"نَزْلَةً","qpc_uthmani_hafs":"نَزۡلَةً","char_type_name":"word","page_number":526,"line_number":7,"text":"نَزۡلَةً","translation":{"text":"অবতরণে","language_name":"bengali","language_id":20},"transliteration":{"text":"nazlatan","language_name":"english","language_id":38}},{"id":14962,"position":4,"audio_url":"wbw/053_013_004.mp3","verse_key":"53:13","verse_id":4797,"location":"53:13:4","text_uthmani":"أُخْرَىٰ","qpc_uthmani_hafs":"أُخۡرَىٰ","char_type_name":"word","page_number":526,"line_number":7,"text":"أُخۡرَىٰ","translation":{"text":"আরও একবার (আসল আকৃতিতে)","language_name":"bengali","language_id":20},"transliteration":{"text":"ukh'rā","language_name":"english","language_id":38}},{"id":14963,"position":5,"audio_url":null,"verse_key":"53:13","verse_id":4797,"location":"53:13:5","text_uthmani":"١٣","qpc_uthmani_hafs":"١٣","char_type_name":"end","page_number":526,"line_number":7,"text":"١٣","translation":{"text":"(১৩)","language_name":"bengali","language_id":20},"transliteration":{"text":null,"language_name":"english","language_id":38}}]},{"id":4798,"verse_number":14,"verse_key":"53:14","hizb_number":53,"rub_el_hizb_number":210,"ruku_number":462,"manzil_number":7,"sajdah_number":null,"page_number":526,"juz_number":27,"words":[{"id":16023,"position":1,"audio_url":"wbw/053_014_001.mp3","verse_key":"53:14","verse_id":4798,"location":"53:14:1","text_uthmani":"عِندَ","qpc_uthmani_hafs":"عِندَ","char_type_name":"word","page_number":526,"line_number":7,"text":"عِندَ","translation":{"text":"কাছে","language_name":"bengali","language_id":20},"transliteration":{"text":"ʿinda","language_name":"english","language_id":38}},{"id":16024,"position":2,"audio_url":"wbw/053_014_002.mp3","verse_key":"53:14","verse_id":4798,"location":"53:14:2","text_uthmani":"سِدْرَةِ","qpc_uthmani_hafs":"سِدۡرَةِ","char_type_name":"word","page_number":526,"line_number":7,"text":"سِدۡرَةِ","translation":{"text":"কুলগাছের","language_name":"bengali","language_id":20},"transliteration":{"text":"sid'rati","language_name":"english","language_id":38}},{"id":16025,"position":3,"audio_url":"wbw/053_014_003.mp3","verse_key":"53:14","verse_id":4798,"location":"53:14:3","text_uthmani":"ٱلْمُنتَهَىٰ","qpc_uthmani_hafs":"ٱلۡمُنتَهَىٰ","char_type_name":"word","page_number":526,"line_number":7,"text":"ٱلۡمُنتَهَىٰ","translation":{"text":"(জড়জগতের) শেষপ্রান্তে","language_name":"bengali","language_id":20},"transliteration":{"text":"l-muntahā","language_name":"english","language_id":38}},{"id":16026,"position":4,"audio_url":null,"verse_key":"53:14","verse_id":4798,"location":"53:14:4","text_uthmani":"١٤","qpc_uthmani_hafs":"١٤","char_type_name":"end","page_number":526,"line_number":7,"text":"١٤","translation":{"text":"(১৪)","language_name":"bengali","language_id":20},"transliteration":{"text":null,"language_name":"english","language_id":38}}]},{"id":4799,"verse_number":15,"verse_key":"53:15","hizb_number":53,"rub_el_hizb_number":210,"ruku_number":462,"manzil_number":7,"sajdah_number":null,"page_number":526,"juz_number":27,"words":[{"id":17245,"position":1,"audio_url":"wbw/053_015_001.mp3","verse_key":"53:15","verse_id":4799,"location":"53:15:1","text_uthmani":"عِندَهَا","qpc_uthmani_hafs":"عِندَهَا","char_type_name":"word","page_number":526,"line_number":7,"text":"عِندَهَا","translation":{"text":"তার কাছেই আছে","language_name":"bengali","language_id":20},"transliteration":{"text":"ʿindahā","language_name":"english","language_id":38}},{"id":17246,"position":2,"audio_url":"wbw/053_015_002.mp3","verse_key":"53:15","verse_id":4799,"location":"53:15:2","text_uthmani":"جَنَّةُ","qpc_uthmani_hafs":"جَنَّةُ","char_type_name":"word","page_number":526,"line_number":7,"text":"جَنَّةُ","translation":{"text":"জান্নাত","language_name":"bengali","language_id":20},"transliteration":{"text":"jannatu","language_name":"english","language_id":38}},{"id":17247,"position":3,"audio_url":"wbw/053_015_003.mp3","verse_key":"53:15","verse_id":4799,"location":"53:15:3","text_uthmani":"ٱلْمَأْوَىٰٓ","qpc_uthmani_hafs":"ٱلۡمَأۡوَىٰٓ","char_type_name":"word","page_number":526,"line_number":7,"text":"ٱلۡمَأۡوَىٰٓ","translation":{"text":"বসবাসের/ মাওয়া","language_name":"bengali","language_id":20},"transliteration":{"text":"l-mawā","language_name":"english","language_id":38}},{"id":17248,"position":4,"audio_url":null,"verse_key":"53:15","verse_id":4799,"location":"53:15:4","text_uthmani":"١٥","qpc_uthmani_hafs":"١٥","char_type_name":"end","page_number":526,"line_number":7,"text":"١٥","translation":{"text":"(১৫)","language_name":"bengali","language_id":20},"transliteration":{"text":null,"language_name":"english","language_id":38}}]},{"id":4800,"verse_number":16,"verse_key":"53:16","hizb_number":53,"rub_el_hizb_number":210,"ruku_number":462,"manzil_number":7,"sajdah_number":null,"page_number":526,"juz_number":27,"words":[{"id":18307,"position":1,"audio_url":"wbw/053_016_001.mp3","verse_key":"53:16","verse_id":4800,"location":"53:16:1","text_uthmani":"إِذْ","qpc_uthmani_hafs":"إِذۡ","char_type_name":"word","page_number":526,"line_number":8,"text":"إِذۡ","translation":{"text":"যখন","language_name":"bengali","language_id":20},"transliteration":{"text":"idh","language_name":"english","language_id":38}},{"id":18308,"position":2,"audio_url":"wbw/053_016_002.mp3","verse_key":"53:16","verse_id":4800,"location":"53:16:2","text_uthmani":"يَغْشَى","qpc_uthmani_hafs":"يَغۡشَى","char_type_name":"word","page_number":526,"line_number":8,"text":"يَغۡشَى","translation":{"text":"আচ্ছন্ন করেছিল","language_name":"bengali","language_id":20},"transliteration":{"text":"yaghshā","language_name":"english","language_id":38}},{"id":18309,"position":3,"audio_url":"wbw/053_016_003.mp3","verse_key":"53:16","verse_id":4800,"location":"53:16:3","text_uthmani":"ٱلسِّدْرَةَ","qpc_uthmani_hafs":"ٱلسِّدۡرَةَ","char_type_name":"word","page_number":526,"line_number":8,"text":"ٱلسِّدۡرَةَ","translation":{"text":"কুলগাছটিকে","language_name":"bengali","language_id":20},"transliteration":{"text":"l-sid'rata","language_name":"english","language_id":38}},{"id":18310,"position":4,"audio_url":"wbw/053_016_004.mp3","verse_key":"53:16","verse_id":4800,"location":"53:16:4","text_uthmani":"مَا","qpc_uthmani_hafs":"مَا","char_type_name":"word","page_number":526,"line_number":8,"text":"مَا","translation":{"text":"যা কিছু","language_name":"bengali","language_id":20},"transliteration":{"text":"mā","language_name":"english","language_id":38}},{"id":18311,"position":5,"audio_url":"wbw/053_016_005.mp3","verse_key":"53:16","verse_id":4800,"location":"53:16:5","text_uthmani":"يَغْشَىٰ","qpc_uthmani_hafs":"يَغۡشَىٰ","char_type_name":"word","page_number":526,"line_number":8,"text":"يَغۡشَىٰ","translation":{"text":"আচ্ছন্ন করেছিল","language_name":"bengali","language_id":20},"transliteration":{"text":"yaghshā","language_name":"english","language_id":38}},{"id":18312,"position":6,"audio_url":null,"verse_key":"53:16","verse_id":4800,"location":"53:16:6","text_uthmani":"١٦","qpc_uthmani_hafs":"١٦","char_type_name":"end","page_number":526,"line_number":8,"text":"١٦","translation":{"text":"(১৬)","language_name":"bengali","language_id":20},"transliteration":{"text":null,"language_name":"english","language_id":38}}]},{"id":4801,"verse_number":17,"verse_key":"53:17","hizb_number":53,"rub_el_hizb_number":210,"ruku_number":462,"manzil_number":7,"sajdah_number":null,"page_number":526,"juz_number":27,"words":[{"id":19317,"position":1,"audio_url":"wbw/053_017_001.mp3","verse_key":"53:17","verse_id":4801,"location":"53:17:1","text_uthmani":"مَا","qpc_uthmani_hafs":"مَا","char_type_name":"word","page_number":526,"line_number":8,"text":"مَا","translation":{"text":"না","language_name":"bengali","language_id":20},"transliteration":{"text":"mā","language_name":"english","language_id":38}},{"id":19318,"position":2,"audio_url":"wbw/053_017_002.mp3","verse_key":"53:17","verse_id":4801,"location":"53:17:2","text_uthmani":"زَاغَ","qpc_uthmani_hafs":"زَاغَ","char_type_name":"word","page_number":526,"line_number":8,"text":"زَاغَ","translation":{"text":"বিভ্রম হয়েছে","language_name":"bengali","language_id":20},"transliteration":{"text":"zāgha","language_name":"english","language_id":38}},{"id":19319,"position":3,"audio_url":"wbw/053_017_003.mp3","verse_key":"53:17","verse_id":4801,"location":"53:17:3","text_uthmani":"ٱلْبَصَرُ","qpc_uthmani_hafs":"ٱلۡبَصَرُ","char_type_name":"word","page_number":526,"line_number":8,"text":"ٱلۡبَصَرُ","translation":{"text":"দৃষ্টি","language_name":"bengali","language_id":20},"transliteration":{"text":"l-baṣaru","language_name":"english","language_id":38}},{"id":19320,"position":4,"audio_url":"wbw/053_017_004.mp3","verse_key":"53:17","verse_id":4801,"location":"53:17:4","text_uthmani":"وَمَا","qpc_uthmani_hafs":"وَمَا","char_type_name":"word","page_number":526,"line_number":8,"text":"وَمَا","translation":{"text":"আর না","language_name":"bengali","language_id":20},"transliteration":{"text":"wamā","language_name":"english","language_id":38}},{"id":19321,"position":5,"audio_url":"wbw/053_017_005.mp3","verse_key":"53:17","verse_id":4801,"location":"53:17:5","text_uthmani":"طَغَىٰ","qpc_uthmani_hafs":"طَغَىٰ","char_type_name":"word","page_number":526,"line_number":8,"text":"طَغَىٰ","translation":{"text":"সীমালঙ্ঘন করেছে","language_name":"bengali","language_id":20},"transliteration":{"text":"ṭaghā","language_name":"english","language_id":38}},{"id":19322,"position":6,"audio_url":null,"verse_key":"53:17","verse_id":4801,"location":"53:17:6","text_uthmani":"١٧","qpc_uthmani_hafs":"١٧","char_type_name":"end","page_number":526,"line_number":8,"text":"١٧","translation":{"text":"(১৭)","language_name":"bengali","language_id":20},"transliteration":{"text":null,"language_name":"english","language_id":38}}]},{"id":4802,"verse_number":18,"verse_key":"53:18","hizb_number":53,"rub_el_hizb_number":210,"ruku_number":462,"manzil_number":7,"sajdah_number":null,"page_number":526,"juz_number":27,"words":[{"id":20389,"position":1,"audio_url":"wbw/053_018_001.mp3","verse_key":"53:18","verse_id":4802,"location":"53:18:1","text_uthmani":"لَقَدْ","qpc_uthmani_hafs":"لَقَدۡ","char_type_name":"word","page_number":526,"line_number":8,"text":"لَقَدۡ","translation":{"text":"নিশ্চয়ই","language_name":"bengali","language_id":20},"transliteration":{"text":"laqad","language_name":"english","language_id":38}},{"id":20390,"position":2,"audio_url":"wbw/053_018_002.mp3","verse_key":"53:18","verse_id":4802,"location":"53:18:2","text_uthmani":"رَأَىٰ","qpc_uthmani_hafs":"رَأَىٰ","char_type_name":"word","page_number":526,"line_number":8,"text":"رَأَىٰ","translation":{"text":"সে দেখেছে","language_name":"bengali","language_id":20},"transliteration":{"text":"raā","language_name":"english","language_id":38}},{"id":20391,"position":3,"audio_url":"wbw/053_018_003.mp3","verse_key":"53:18","verse_id":4802,"location":"53:18:3","text_uthmani":"مِنْ","qpc_uthmani_hafs":"مِنۡ","char_type_name":"word","page_number":526,"line_number":9,"text":"مِنۡ","translation":{"text":"কিছু","language_name":"bengali","language_id":20},"transliteration":{"text":"min","language_name":"english","language_id":38}},{"id":20392,"position":4,"audio_url":"wbw/053_018_004.mp3","verse_key":"53:18","verse_id":4802,"location":"53:18:4","text_uthmani":"ءَايَـٰتِ","qpc_uthmani_hafs":"ءَايَٰتِ","char_type_name":"word","page_number":526,"line_number":9,"text":"ءَايَٰتِ","translation":{"text":"নিদর্শন","language_name":"bengali","language_id":20},"transliteration":{"text":"āyāti","language_name":"english","language_id":38}},{"id":20393,"position":5,"audio_url":"wbw/053_018_005.mp3","verse_key":"53:18","verse_id":4802,"location":"53:18:5","text_uthmani":"رَبِّهِ","qpc_uthmani_hafs":"رَبِّهِ","char_type_name":"word","page_number":526,"line_number":9,"text":"رَبِّهِ","translation":{"text":"তার রবের","language_name":"bengali","language_id":20},"transliteration":{"text":"rabbihi","language_name":"english","language_id":38}},{"id":20394,"position":6,"audio_url":"wbw/053_018_006.mp3","verse_key":"53:18","verse_id":4802,"location":"53:18:6","text_uthmani":"ٱلْكُبْرَىٰٓ","qpc_uthmani_hafs":"ٱلۡكُبۡرَىٰٓ","char_type_name":"word","page_number":526,"line_number":9,"text":"ٱلۡكُبۡرَىٰٓ","translation":{"text":"বড় বড়","language_name":"bengali","language_id":20},"transliteration":{"text":"l-kub'rā","language_name":"english","language_id":38}},{"id":20395,"position":7,"audio_url":null,"verse_key":"53:18","verse_id":4802,"location":"53:18:7","text_uthmani":"١٨","qpc_uthmani_hafs":"١٨","char_type_name":"end","page_number":526,"line_number":9,"text":"١٨","translation":{"text":"(১৮)","language_name":"bengali","language_id":20},"transliteration":{"text":null,"language_name":"english","language_id":38}}]},{"id":4803,"verse_number":19,"verse_key":"53:19","hizb_number":53,"rub_el_hizb_number":210,"ruku_number":462,"manzil_number":7,"sajdah_number":null,"page_number":526,"juz_number":27,"words":[{"id":21466,"position":1,"audio_url":"wbw/053_019_001.mp3","verse_key":"53:19","verse_id":4803,"location":"53:19:1","text_uthmani":"أَفَرَءَيْتُمُ","qpc_uthmani_hafs":"أَفَرَءَيۡتُمُ","char_type_name":"word","page_number":526,"line_number":9,"text":"أَفَرَءَيۡتُمُ","translation":{"text":"তোমরা তবে কি (ভেবে) দেখেছ","language_name":"bengali","language_id":20},"transliteration":{"text":"afara-aytumu","language_name":"english","language_id":38}},{"id":21467,"position":2,"audio_url":"wbw/053_019_002.mp3","verse_key":"53:19","verse_id":4803,"location":"53:19:2","text_uthmani":"ٱللَّـٰتَ","qpc_uthmani_hafs":"ٱللَّٰتَ","char_type_name":"word","page_number":526,"line_number":9,"text":"ٱللَّٰتَ","translation":{"text":"লাত","language_name":"bengali","language_id":20},"transliteration":{"text":"l-lāta","language_name":"english","language_id":38}},{"id":21468,"position":3,"audio_url":"wbw/053_019_003.mp3","verse_key":"53:19","verse_id":4803,"location":"53:19:3","text_uthmani":"وَٱلْعُزَّىٰ","qpc_uthmani_hafs":"وَٱلۡعُزَّىٰ","char_type_name":"word","page_number":526,"line_number":9,"text":"وَٱلۡعُزَّىٰ","translation":{"text":"ও উযযা (সম্বন্ধে)","language_name":"bengali","language_id":20},"transliteration":{"text":"wal-ʿuzā","language_name":"english","language_id":38}},{"id":21469,"position":4,"audio_url":null,"verse_key":"53:19","verse_id":4803,"location":"53:19:4","text_uthmani":"١٩","qpc_uthmani_hafs":"١٩","char_type_name":"end","page_number":526,"line_number":9,"text":"١٩","translation":{"text":"(১৯)","language_name":"bengali","language_id":20},"transliteration":{"text":null,"language_name":"english","language_id":38}}]},{"id":4804,"verse_number":20,"verse_key":"53:20","hizb_number":53,"rub_el_hizb_number":210,"ruku_number":462,"manzil_number":7,"sajdah_number":null,"page_number":526,"juz_number":27,"words":[{"id":22554,"position":1,"audio_url":"wbw/053_020_001.mp3","verse_key":"53:20","verse_id":4804,"location":"53:20:1","text_uthmani":"وَمَنَوٰةَ","qpc_uthmani_hafs":"وَمَنَوٰةَ","char_type_name":"word","page_number":526,"line_number":9,"text":"وَمَنَوٰةَ","translation":{"text":"এবং মানাত","language_name":"bengali","language_id":20},"transliteration":{"text":"wamanata","language_name":"english","language_id":38}},{"id":22555,"position":2,"audio_url":"wbw/053_020_002.mp3","verse_key":"53:20","verse_id":4804,"location":"53:20:2","text_uthmani":"ٱلثَّالِثَةَ","qpc_uthmani_hafs":"ٱلثَّالِثَةَ","char_type_name":"word","page_number":526,"line_number":10,"text":"ٱلثَّالِثَةَ","translation":{"text":"তৃতীয়","language_name":"bengali","language_id":20},"transliteration":{"text":"l-thālithata","language_name":"english","language_id":38}},{"id":22556,"position":3,"audio_url":"wbw/053_020_003.mp3","verse_key":"53:20","verse_id":4804,"location":"53:20:3","text_uthmani":"ٱلْأُخْرَىٰٓ","qpc_uthmani_hafs":"ٱلۡأُخۡرَىٰٓ","char_type_name":"word","page_number":526,"line_number":10,"text":"ٱلۡأُخۡرَىٰٓ","translation":{"text":"অপর (একটি দেবী)","language_name":"bengali","language_id":20},"transliteration":{"text":"l-ukh'rā","language_name":"english","language_id":38}},{"id":22557,"position":4,"audio_url":null,"verse_key":"53:20","verse_id":4804,"location":"53:20:4","text_uthmani":"٢٠","qpc_uthmani_hafs":"٢٠","char_type_name":"end","page_number":526,"line_number":10,"text":"٢٠","translation":{"text":"(২০)","language_name":"bengali","language_id":20},"transliteration":{"text":null,"language_name":"english","language_id":38}}]}],"pagination":{"per_page":10,"current_page":2,"next_page":3,"total_pages":7,"total_records":62}}
