{"verses":[{"id":4815,"verse_number":31,"verse_key":"53:31","hizb_number":53,"rub_el_hizb_number":211,"ruku_number":463,"manzil_number":7,"sajdah_number":null,"page_number":527,"juz_number":27,"words":[{"id":33479,"position":1,"audio_url":"wbw/053_031_001.mp3","char_type_name":"word","page_number":527,"line_number":5,"text":"وَلِلَّهِ","translation":{"text":"এবং আল্লাহরই মালিকানায়","language_name":"bengali","language_id":20},"transliteration":{"text":"walillahi","language_name":"english","language_id":38}},{"id":33480,"position":2,"audio_url":"wbw/053_031_002.mp3","char_type_name":"word","page_number":527,"line_number":5,"text":"مَا","translation":{"text":"যা কিছু","language_name":"bengali","language_id":20},"transliteration":{"text":"mā","language_name":"english","language_id":38}},{"id":33481,"position":3,"audio_url":"wbw/053_031_003.mp3","char_type_name":"word","page_number":527,"line_number":5,"text":"فِى","translation":{"text":"মধ্যে আছে","language_name":"bengali","language_id":20},"transliteration":{"text":"fī","language_name":"english","language_id":38}},{"id":33482,"position":4,"audio_url":"wbw/053_031_004.mp3","char_type_name":"word","page_number":527,"line_number":5,"text":"ٱلسَّمَـٰوَٰتِ","translation":{"text":"আকাশের","language_name":"bengali","language_id":20},"transliteration":{"text":"l-samāwāti","language_name":"english","language_id":38}},{"id":33483,"position":5,"audio_url":"wbw/053_031_005.mp3","char_type_name":"word","page_number":527,"line_number":5,"text":"وَمَا","translation":{"text":"এবং যা কিছু","language_name":"bengali","language_id":20},"transliteration":{"text":"wamā","language_name":"english","language_id":38}},{"id":33484,"position":6,"audio_url":"wbw/053_031_006.mp3","char_type_name":"word","page_number":527,"line_number":5,"text":"فِى","translation":{"text":"মধ্যে আছে","language_name":"bengali","language_id":20},"transliteration":{"text":"fī","language_name":"english","language_id":38}},{"id":33485,"position":7,"audio_url":"wbw/053_031_007.mp3","char_type_name":"word","page_number":527,"line_number":6,"text":"ٱلْأَرْضِ","translation":{"text":"পৃথিবীর","language_name":"bengali","language_id":20},"transliteration":{"text":"l-arḍi","language_name":"english","language_id":38}},{"id":33486,"position":8,"audio_url":"wbw/053_031_008.mp3","char_type_name":"word","page_number":527,"line_number":6,"text":"لِيَجْزِىَ","translation":{"text":"প্রতিফল যেন দেন","language_name":"bengali","language_id":20},"transliteration":{"text":"liyajziya","language_name":"english","language_id":38}},{"id":33487,"position":9,"audio_url":"wbw/053_031_009.mp3","char_type_name":"word","page_number":527,"line_number":6,"text":"ٱلَّذِينَ","translation":{"text":"(তাদেরকে) যারা","language_name":"bengali","language_id":20},"transliteration":{"text":"alladhīna","language_name":"english","language_id":38}},{"id":33488,"position":10,"audio_url":"wbw/053_031_010.mp3","char_type_name":"word","page_number":527,"line_number":6,"text":"أَسَـٰٓـُٔوا۟","translation":{"text":"মন্দ করেছে","language_name":"bengali","language_id":20},"transliteration":{"text":"asāū","language_name":"english","language_id":38}},{"id":33489,"position":11,"audio_url":"wbw/053_031_011.mp3","char_type_name":"word","page_number":527,"line_number":6,"text":"بِمَا","translation":{"text":"ঐ বিষয়ে যা","language_name":"bengali","language_id":20},"transliteration":{"text":"bimā","language_name":"english","language_id":38}},{"id":33490,"position":12,"audio_url":"wbw/053_031_012.mp3","char_type_name":"word","page_number":527,"line_number":6,"text":"عَمِلُوا۟","translation":{"text":"তারা কাজ করেছে","language_name":"bengali","language_id":20},"transliteration":{"text":"ʿamilū","language_name":"english","language_id":38}},{"id":33491,"position":13,"audio_url":"wbw/053_031_013.mp3","char_type_name":"word","page_number":527,"line_number":6,"text":"وَيَجْزِىَ","translation":{"text":"এবং প্রতিফল দেন (যেন)","language_name":"bengali","language_id":20},"transliteration":{"text":"wayajziya","language_name":"english","language_id":38}},{"id":33492,"position":14,"audio_url":"wbw/053_031_014.mp3","char_type_name":"word","page_number":527,"line_number":6,"text":"ٱلَّذِينَ","translation":{"text":"(তাদেরকে) যারা","language_name":"bengali","language_id":20},"transliteration":{"text":"alladhīna","language_name":"english","language_id":38}},{"id":33493,"position":15,"audio_url":"wbw/053_031_015.mp3","char_type_name":"word","page_number":527,"line_number":6,"text":"أَحْسَنُوا۟","translation":{"text":"সৎকর্ম করেছে","language_name":"bengali","language_id":20},"transliteration":{"text":"aḥsanū","language_name":"english","language_id":38}},{"id":33494,"position":16,"audio_url":"wbw/053_031_016.mp3","char_type_name":"word","page_number":527,"line_number":7,"text":"بِٱلْحُسْنَى","translation":{"text":"উত্তমভাবে (প্রতিফল)","language_name":"bengali","language_id":20},"transliteration":{"text":"bil-ḥus'nā","language_name":"english","language_id":38}},{"id":33495,"position":17,"audio_url":null,"char_type_name":"end","page_number":527,"line_number":7,"text":"٣١","translation":{"text":"(৩১)","language_name":"bengali","language_id":20},"transliteration":{"text":null,"language_name":"english","language_id":38}}]},{"id":4816,"verse_number":32,"verse_key":"53:32","hizb_number":53,"rub_el_hizb_number":211,"ruku_number":463,"manzil_number":7,"sajdah_number":null,"page_number":527,"juz_number":27,"words":[{"id":34535,"position":1,"audio_url":"wbw/053_032_001.mp3","char_type_name":"word","page_number":527,"line_number":7,"text":"ٱلَّذِينَ","translation":{"text":"যারা","language_name":"bengali","language_id":20},"transliteration":{"text":"alladhīna","language_name":"english","language_id":38}},{"id":34536,"position":2,"audio_url":"wbw/053_032_002.mp3","char_type_name":"word","page_number":527,"line_number":7,"text":"يَجْتَنِبُونَ","translation":{"text":"বিরত থাকে","language_name":"bengali","language_id":20},"transliteration":{"text":"yajtanibūna","language_name":"english","language_id":38}},{"id":34537,"position":3,"audio_url":"wbw/053_032_003.mp3","char_type_name":"word","page_number":527,"line_number":7,"text":"كَبَـٰٓئِرَ","translation":{"text":"বড় বড়","language_name":"bengali","language_id":20},"transliteration":{"text":"kabāira","language_name":"english","language_id":38}},{"id":34538,"position":4,"audio_url":"wbw/053_032_004.mp3","char_type_name":"word","page_number":527,"line_number":7,"text":"ٱلْإِثْمِ","translation":{"text":"পাপ (হতে)","language_name":"bengali","language_id":20},"transliteration":{"text":"l-ith'mi","language_name":"english","language_id":38}},{"id":34539,"position":5,"audio_url":"wbw/053_032_005.mp3","char_type_name":"word","page_number":527,"line_number":7,"text":"وَٱلْفَوَٰحِشَ","translation":{"text":"ও অশ্লীল কাজসমূহ (হতে)","language_name":"bengali","language_id":20},"transliteration":{"text":"wal-fawāḥisha","language_name":"english","language_id":38}},{"id":34540,"position":6,"audio_url":"wbw/053_032_006.mp3","char_type_name":"word","page_number":527,"line_number":7,"text":"إِلَّا","translation":{"text":"কিন্তু","language_name":"bengali","language_id":20},"transliteration":{"text":"illā","language_name":"english","language_id":38}},{"id":34541,"position":7,"audio_url":"wbw/053_032_007.mp3","char_type_name":"word","page_number":527,"line_number":7,"text":"ٱللَّمَمَ ۚ","translation":{"text":"ছোট অপরাধ(হয়ে যায়)","language_name":"bengali","language_id":20},"transliteration":{"text":"l-lamama","language_name":"english","language_id":38}},{"id":34543,"position":8,"audio_url":"wbw/053_032_009.mp3","char_type_name":"word","page_number":527,"line_number":8,"text":"إِنَّ","translation":{"text":"নিশ্চয়ই","language_name":"bengali","language_id":20},"transliteration":{"text":"inna","language_name":"english","language_id":38}},{"id":34544,"position":9,"audio_url":"wbw/053_032_010.mp3","char_type_name":"word","page_number":527,"line_number":8,"text":"رَبَّكَ","translation":{"text":"তোমার রব (সে ক্ষেত্রে)","language_name":"bengali","language_id":20},"transliteration":{"text":"rabbaka","language_name":"english","language_id":38}},{"id":34545,"position":10,"audio_url":"wbw/053_032_011.mp3","char_type_name":"word","page_number":527,"line_number":8,"text":"وَٰسِعُ","translation":{"text":"ব্যাপক বিশাল","language_name":"bengali","language_id":20},"transliteration":{"text":"wāsiʿu","language_name":"english","language_id":38}},{"id":34546,"position":11,"audio_url":"wbw/053_032_012.mp3","char_type_name":"word","page_number":527,"line_number":8,"text":"ٱلْمَغْفِرَةِ ۚ","translation":{"text":"ক্ষমায়","language_name":"bengali","language_id":20},"transliteration":{"text":"l-maghfirati","language_name":"english","language_id":38}},{"id":34548,"position":12,"audio_url":"wbw/053_032_014.mp3","char_type_name":"word","page_number":527,"line_number":8,"text":"هُوَ","translation":{"text":"তিনি","language_name":"bengali","language_id":20},"transliteration":{"text":"huwa","language_name":"english","language_id":38}},{"id":34549,"position":13,"audio_url":"wbw/053_032_015.mp3","char_type_name":"word","page_number":527,"line_number":8,"text":"أَعْلَمُ","translation":{"text":"খুব জানেন","language_name":"bengali","language_id":20},"transliteration":{"text":"aʿlamu","language_name":"english","language_id":38}},{"id":34550,"position":14,"audio_url":"wbw/053_032_016.mp3","char_type_name":"word","page_number":527,"line_number":8,"text":"بِكُمْ","translation":{"text":"তোমাদের ব্যাপারে","language_name":"bengali","language_id":20},"transliteration":{"text":"bikum","language_name":"english","language_id":38}},{"id":34551,"position":15,"audio_url":"wbw/053_032_017.mp3","char_type_name":"word","page_number":527,"line_number":8,"text":"إِذْ","translation":{"text":"যখন","language_name":"bengali","language_id":20},"transliteration":{"text":"idh","language_name":"english","language_id":38}},{"id":34552,"position":16,"audio_url":"wbw/053_032_018.mp3","char_type_name":"word","page_number":527,"line_number":8,"text":"أَنشَأَكُم","translation":{"text":"তোমাদেরকে সৃষ্টি করেছেন","language_name":"bengali","language_id":20},"transliteration":{"text":"ansha-akum","language_name":"english","language_id":38}},{"id":34553,"position":17,"audio_url":"wbw/053_032_019.mp3","char_type_name":"word","page_number":527,"line_number":8,"text":"مِّنَ","translation":{"text":"হতে","language_name":"bengali","language_id":20},"transliteration":{"text":"mina","language_name":"english","language_id":38}},{"id":34554,"position":18,"audio_url":"wbw/053_032_020.mp3","char_type_name":"word","page_number":527,"line_number":8,"text":"ٱلْأَرْضِ","translation":{"text":"মাটি","language_name":"bengali","language_id":20},"transliteration":{"text":"l-arḍi","language_name":"english","language_id":38}},{"id":34555,"position":19,"audio_url":"wbw/053_032_021.mp3","char_type_name":"word","page_number":527,"line_number":9,"text":"وَإِذْ","translation":{"text":"এবং যখন","language_name":"bengali","language_id":20},"transliteration":{"text":"wa-idh","language_name":"english","language_id":38}},{"id":34556,"position":20,"audio_url":"wbw/053_032_022.mp3","char_type_name":"word","page_number":527,"line_number":9,"text":"أَنتُمْ","translation":{"text":"তোমরা(ছিলে)","language_name":"bengali","language_id":20},"transliteration":{"text":"antum","language_name":"english","language_id":38}},{"id":34557,"position":21,"audio_url":"wbw/053_032_023.mp3","char_type_name":"word","page_number":527,"line_number":9,"text":"أَجِنَّةٌۭ","translation":{"text":"ভ্রূণ অবস্থায়","language_name":"bengali","language_id":20},"transliteration":{"text":"ajinnatun","language_name":"english","language_id":38}},{"id":34558,"position":22,"audio_url":"wbw/053_032_024.mp3","char_type_name":"word","page_number":527,"line_number":9,"text":"فِى","translation":{"text":"মধ্যে","language_name":"bengali","language_id":20},"transliteration":{"text":"fī","language_name":"english","language_id":38}},{"id":34559,"position":23,"audio_url":"wbw/053_032_025.mp3","char_type_name":"word","page_number":527,"line_number":9,"text":"بُطُونِ","translation":{"text":"গর্ভসমূহের","language_name":"bengali","language_id":20},"transliteration":{"text":"buṭūni","language_name":"english","language_id":38}},{"id":34560,"position":24,"audio_url":"wbw/053_032_026.mp3","char_type_name":"word","page_number":527,"line_number":9,"text":"أُمَّهَـٰتِكُمْ ۖ","translation":{"text":"তোমাদের মা দের","language_name":"bengali","language_id":20},"transliteration":{"text":"ummahātikum","language_name":"english","language_id":38}},{"id":34562,"position":25,"audio_url":"wbw/053_032_028.mp3","char_type_name":"word","page_number":527,"line_number":9,"text":"فَلَا","translation":{"text":"না তাই","language_name":"bengali","language_id":20},"transliteration":{"text":"falā","language_name":"english","language_id":38}},{"id":34563,"position":26,"audio_url":"wbw/053_032_029.mp3","char_type_name":"word","page_number":527,"line_number":9,"text":"تُزَكُّوٓا۟","translation":{"text":"তোমরা পবিত্র মনে করো","language_name":"bengali","language_id":20},"transliteration":{"text":"tuzakkū","language_name":"english","language_id":38}},{"id":34564,"position":27,"audio_url":"wbw/053_032_030.mp3","char_type_name":"word","page_number":527,"line_number":9,"text":"أَنفُسَكُمْ ۖ","translation":{"text":"তোমাদের নিজেদের","language_name":"bengali","language_id":20},"transliteration":{"text":"anfusakum","language_name":"english","language_id":38}},{"id":34566,"position":28,"audio_url":"wbw/053_032_032.mp3","char_type_name":"word","page_number":527,"line_number":9,"text":"هُوَ","translation":{"text":"তিনি","language_name":"bengali","language_id":20},"transliteration":{"text":"huwa","language_name":"english","language_id":38}},{"id":34567,"position":29,"audio_url":"wbw/053_032_033.mp3","char_type_name":"word","page_number":527,"line_number":9,"text":"أَعْلَمُ","translation":{"text":"খুব জানেন","language_name":"bengali","language_id":20},"transliteration":{"text":"aʿlamu","language_name":"english","language_id":38}},{"id":34568,"position":30,"audio_url":"wbw/053_032_034.mp3","char_type_name":"word","page_number":527,"line_number":10,"text":"بِمَنِ","translation":{"text":"(তার) সম্বন্ধে যে","language_name":"bengali","language_id":20},"transliteration":{"text":"bimani","language_name":"english","language_id":38}},{"id":34569,"position":31,"audio_url":"wbw/053_032_035.mp3","char_type_name":"word","page_number":527,"line_number":10,"text":"ٱتَّقَىٰٓ","translation":{"text":"সংযমী হয়েছে","language_name":"bengali","language_id":20},"transliteration":{"text":"ittaqā","language_name":"english","language_id":38}},{"id":34570,"position":32,"audio_url":null,"char_type_name":"end","page_number":527,"line_number":10,"text":"٣٢","translation":{"text":"(৩২)","language_name":"bengali","language_id":20},"transliteration":{"text":null,"language_name":"english","language_id":38}}]},{"id":4817,"verse_number":33,"verse_key":"53:33","hizb_number":53,"rub_el_hizb_number":211,"ruku_number":464,"manzil_number":7,"sajdah_number":null,"page_number":527,"juz_number":27,"words":[{"id":35586,"position":1,"audio_url":"wbw/053_033_001.mp3","char_type_name":"word","page_number":527,"line_number":10,"text":"أَفَرَءَيْتَ","translation":{"text":"তবে কি তুমি দেখেছ","language_name":"bengali","language_id":20},"transliteration":{"text":"afara-ayta","language_name":"english","language_id":38}},{"id":35587,"position":2,"audio_url":"wbw/053_033_002.mp3","char_type_name":"word","page_number":527,"line_number":10,"text":"ٱلَّذِى","translation":{"text":"(তাকে) যে","language_name":"bengali","language_id":20},"transliteration":{"text":"alladhī","language_name":"english","language_id":38}},{"id":35588,"position":3,"audio_url":"wbw/053_033_003.mp3","char_type_name":"word","page_number":527,"line_number":10,"text":"تَوَلَّىٰ","translation":{"text":"মুখ ফিরায়(সত্য দ্বীন হতে)","language_name":"bengali","language_id":20},"transliteration":{"text":"tawallā","language_name":"english","language_id":38}},{"id":35589,"position":4,"audio_url":null,"char_type_name":"end","page_number":527,"line_number":10,"text":"٣٣","translation":{"text":"(৩৩)","language_name":"bengali","language_id":20},"transliteration":{"text":null,"language_name":"english","language_id":38}}]},{"id":4818,"verse_number":34,"verse_key":"53:34","hizb_number":53,"rub_el_hizb_number":211,"ruku_number":464,"manzil_number":7,"sajdah_number":null,"page_number":527,"juz_number":27,"words":[{"id":36342,"position":1,"audio_url":"wbw/053_034_001.mp3","char_type_name":"word","page_number":527,"line_number":10,"text":"وَأَعْطَىٰ","translation":{"text":"এবং (অর্থ) দেয়","language_name":"bengali","language_id":20},"transliteration":{"text":"wa-aʿṭā","language_name":"english","language_id":38}},{"id":36343,"position":2,"audio_url":"wbw/053_034_002.mp3","char_type_name":"word","page_number":527,"line_number":10,"text":"قَلِيلًۭا","translation":{"text":"সামান্যই","language_name":"bengali","language_id":20},"transliteration":{"text":"qalīlan","language_name":"english","language_id":38}},{"id":36344,"position":3,"audio_url":"wbw/053_034_003.mp3","char_type_name":"word","page_number":527,"line_number":10,"text":"وَأَكْدَىٰٓ","translation":{"text":"ও ক্ষান্ত হয়","language_name":"bengali","language_id":20},"transliteration":{"text":"wa-akdā","language_name":"english","language_id":38}},{"id":36345,"position":4,"audio_url":null,"char_type_name":"end","page_number":527,"line_number":11,"text":"٣٤","translation":{"text":"(৩৪)","language_name":"bengali","language_id":20},"transliteration":{"text":null,"language_name":"english","language_id":38}}]},{"id":4819,"verse_number":35,"verse_key":"53:35","hizb_number":53,"rub_el_hizb_number":211,"ruku_number":464,"manzil_number":7,"sajdah_number":null,"page_number":527,"juz_number":27,"words":[{"id":36955,"position":1,"audio_url":"wbw/053_035_001.mp3","char_type_name":"word","page_number":527,"line_number":11,"text":"أَعِندَهُۥ","translation":{"text":"তার কাছে আছে কি","language_name":"bengali","language_id":20},"transliteration":{"text":"aʿindahu","language_name":"english","language_id":38}},{"id":36956,"position":2,"audio_url":"wbw/053_035_002.mp3","char_type_name":"word","page_number":527,"line_number":11,"text":"عِلْمُ","translation":{"text":"কোনো জ্ঞান","language_name":"bengali","language_id":20},"transliteration":{"text":"ʿil'mu","language_name":"english","language_id":38}},{"id":36957,"position":3,"audio_url":"wbw/053_035_003.mp3","char_type_name":"word","page_number":527,"line_number":11,"text":"ٱلْغَيْبِ","translation":{"text":"অদৃশ্যের","language_name":"bengali","language_id":20},"transliteration":{"text":"l-ghaybi","language_name":"english","language_id":38}},{"id":36958,"position":4,"audio_url":"wbw/053_035_004.mp3","char_type_name":"word","page_number":527,"line_number":11,"text":"فَهُوَ","translation":{"text":"তাই সে","language_name":"bengali","language_id":20},"transliteration":{"text":"fahuwa","language_name":"english","language_id":38}},{"id":36959,"position":5,"audio_url":"wbw/053_035_005.mp3","char_type_name":"word","page_number":527,"line_number":11,"text":"يَرَىٰٓ","translation":{"text":"দেখেছে (প্রকৃত সত্যকে)","language_name":"bengali","language_id":20},"transliteration":{"text":"yarā","language_name":"english","language_id":38}},{"id":36960,"position":6,"audio_url":null,"char_type_name":"end","page_number":527,"line_number":11,"text":"٣٥","translation":{"text":"(৩৫)","language_name":"bengali","language_id":20},"transliteration":{"text":null,"language_name":"english","language_id":38}}]},{"id":4820,"verse_number":36,"verse_key":"53:36","hizb_number":53,"rub_el_hizb_number":211,"ruku_number":464,"manzil_number":7,"sajdah_number":null,"page_number":527,"juz_number":27,"words":[{"id":37860,"position":1,"audio_url":"wbw/053_036_001.mp3","char_type_name":"word","page_number":527,"line_number":11,"text":"أَمْ","translation":{"text":"কি","language_name":"bengali","language_id":20},"transliteration":{"text":"am","language_name":"english","language_id":38}},{"id":37861,"position":2,"audio_url":"wbw/053_036_002.mp3","char_type_name":"word","page_number":527,"line_number":11,"text":"لَمْ","translation":{"text":"নি","language_name":"bengali","language_id":20},"transliteration":{"text":"lam","language_name":"english","language_id":38}},{"id":37862,"position":3,"audio_url":"wbw/053_036_003.mp3","char_type_name":"word","page_number":527,"line_number":11,"text":"يُنَبَّأْ","translation":{"text":"তাকে অবহিত করা হয়","language_name":"bengali","language_id":20},"transliteration":{"text":"yunabba","language_name":"english","language_id":38}},{"id":37863,"position":4,"audio_url":"wbw/053_036_004.mp3","char_type_name":"word","page_number":527,"line_number":11,"text":"بِمَا","translation":{"text":"(সে) সম্বন্ধে যা","language_name":"bengali","language_id":20},"transliteration":{"text":"bimā","language_name":"english","language_id":38}},{"id":37864,"position":5,"audio_url":"wbw/053_036_005.mp3","char_type_name":"word","page_number":527,"line_number":11,"text":"فِى","translation":{"text":"মধ্যে আছে","language_name":"bengali","language_id":20},"transliteration":{"text":"fī","language_name":"english","language_id":38}},{"id":37865,"position":6,"audio_url":"wbw/053_036_006.mp3","char_type_name":"word","page_number":527,"line_number":11,"text":"صُحُفِ","translation":{"text":"সহীফাসমূহের","language_name":"bengali","language_id":20},"transliteration":{"text":"ṣuḥufi","language_name":"english","language_id":38}},{"id":37866,"position":7,"audio_url":"wbw/053_036_007.mp3","char_type_name":"word","page_number":527,"line_number":12,"text":"مُوسَىٰ","translation":{"text":"মূসার","language_name":"bengali","language_id":20},"transliteration":{"text":"mūsā","language_name":"english","language_id":38}},{"id":37867,"position":8,"audio_url":null,"char_type_name":"end","page_number":527,"line_number":12,"text":"٣٦","translation":{"text":"(৩৬)","language_name":"bengali","language_id":20},"transliteration":{"text":null,"language_name":"english","language_id":38}}]},{"id":4821,"verse_number":37,"verse_key":"53:37","hizb_number":53,"rub_el_hizb_number":211,"ruku_number":464,"manzil_number":7,"sajdah_number":null,"page_number":527,"juz_number":27,"words":[{"id":38737,"position":1,"audio_url":"wbw/053_037_001.mp3","char_type_name":"word","page_number":527,"line_number":12,"text":"وَإِبْرَٰهِيمَ","translation":{"text":"ও ইবরাহীমের","language_name":"bengali","language_id":20},"transliteration":{"text":"wa-ib'rāhīma","language_name":"english","language_id":38}},{"id":38738,"position":2,"audio_url":"wbw/053_037_002.mp3","char_type_name":"word","page_number":527,"line_number":12,"text":"ٱلَّذِى","translation":{"text":"যে","language_name":"bengali","language_id":20},"transliteration":{"text":"alladhī","language_name":"english","language_id":38}},{"id":38739,"position":3,"audio_url":"wbw/053_037_003.mp3","char_type_name":"word","page_number":527,"line_number":12,"text":"وَفَّىٰٓ","translation":{"text":"পূর্ণ করেছে (তার দায়িত্ব)","language_name":"bengali","language_id":20},"transliteration":{"text":"waffā","language_name":"english","language_id":38}},{"id":38740,"position":4,"audio_url":null,"char_type_name":"end","page_number":527,"line_number":12,"text":"٣٧","translation":{"text":"(৩৭)","language_name":"bengali","language_id":20},"transliteration":{"text":null,"language_name":"english","language_id":38}}]},{"id":4822,"verse_number":38,"verse_key":"53:38","hizb_number":53,"rub_el_hizb_number":211,"ruku_number":464,"manzil_number":7,"sajdah_number":null,"page_number":527,"juz_number":27,"words":[{"id":39692,"position":1,"audio_url":"wbw/053_038_001.mp3","char_type_name":"word","page_number":527,"line_number":12,"text":"أَلَّا","translation":{"text":"(তা এই ) যে না","language_name":"bengali","language_id":20},"transliteration":{"text":"allā","language_name":"english","language_id":38}},{"id":39693,"position":2,"audio_url":"wbw/053_038_002.mp3","char_type_name":"word","page_number":527,"line_number":12,"text":"تَزِرُ","translation":{"text":"বহন করবে","language_name":"bengali","language_id":20},"transliteration":{"text":"taziru","language_name":"english","language_id":38}},{"id":39694,"position":3,"audio_url":"wbw/053_038_003.mp3","char_type_name":"word","page_number":527,"line_number":12,"text":"وَازِرَةٌۭ","translation":{"text":"কোনো বহনকারী","language_name":"bengali","language_id":20},"transliteration":{"text":"wāziratun","language_name":"english","language_id":38}},{"id":39695,"position":4,"audio_url":"wbw/053_038_004.mp3","char_type_name":"word","page_number":527,"line_number":12,"text":"وِزْرَ","translation":{"text":"বোঝা","language_name":"bengali","language_id":20},"transliteration":{"text":"wiz'ra","language_name":"english","language_id":38}},{"id":39696,"position":5,"audio_url":"wbw/053_038_005.mp3","char_type_name":"word","page_number":527,"line_number":12,"text":"أُخْرَىٰ","translation":{"text":"অন্যের","language_name":"bengali","language_id":20},"transliteration":{"text":"ukh'rā","language_name":"english","language_id":38}},{"id":39697,"position":6,"audio_url":null,"char_type_name":"end","page_number":527,"line_number":13,"text":"٣٨","translation":{"text":"(৩৮)","language_name":"bengali","language_id":20},"transliteration":{"text":null,"language_name":"english","language_id":38}}]},{"id":4823,"verse_number":39,"verse_key":"53:39","hizb_number":53,"rub_el_hizb_number":211,"ruku_number":464,"manzil_number":7,"sajdah_number":null,"page_number":527,"juz_number":27,"words":[{"id":40444,"position":1,"audio_url":"wbw/053_039_001.mp3","char_type_name":"word","page_number":527,"line_number":13,"text":"وَأَن","translation":{"text":"এবং (এও) যে","language_name":"bengali","language_id":20},"transliteration":{"text":"wa-an","language_name":"english","language_id":38}},{"id":40445,"position":2,"audio_url":"wbw/053_039_002.mp3","char_type_name":"word","page_number":527,"line_number":13,"text":"لَّيْسَ","translation":{"text":"নেই","language_name":"bengali","language_id":20},"transliteration":{"text":"laysa","language_name":"english","language_id":38}},{"id":40446,"position":3,"audio_url":"wbw/053_039_003.mp3","char_type_name":"word","page_number":527,"line_number":13,"text":"لِلْإِنسَـٰنِ","translation":{"text":"মানুষের জন্যে","language_name":"bengali","language_id":20},"transliteration":{"text":"lil'insāni","language_name":"english","language_id":38}},{"id":40447,"position":4,"audio_url":"wbw/053_039_004.mp3","char_type_name":"word","page_number":527,"line_number":13,"text":"إِلَّا","translation":{"text":"এছাড়া","language_name":"bengali","language_id":20},"transliteration":{"text":"illā","language_name":"english","language_id":38}},{"id":40448,"position":5,"audio_url":"wbw/053_039_005.mp3","char_type_name":"word","page_number":527,"line_number":13,"text":"مَا","translation":{"text":"যা","language_name":"bengali","language_id":20},"transliteration":{"text":"mā","language_name":"english","language_id":38}},{"id":40449,"position":6,"audio_url":"wbw/053_039_006.mp3","char_type_name":"word","page_number":527,"line_number":13,"text":"سَعَىٰ","translation":{"text":"সে চেষ্টা করে","language_name":"bengali","language_id":20},"transliteration":{"text":"saʿā","language_name":"english","language_id":38}},{"id":40450,"position":7,"audio_url":null,"char_type_name":"end","page_number":527,"line_number":13,"text":"٣٩","translation":{"text":"(৩৯)","language_name":"bengali","language_id":20},"transliteration":{"text":null,"language_name":"english","language_id":38}}]},{"id":4824,"verse_number":40,"verse_key":"53:40","hizb_number":53,"rub_el_hizb_number":211,"ruku_number":464,"manzil_number":7,"sajdah_number":null,"page_number":527,"juz_number":27,"words":[{"id":41115,"position":1,"audio_url":"wbw/053_040_001.mp3","char_type_name":"word","page_number":527,"line_number":13,"text":"وَأَنَّ","translation":{"text":"এবং (এও) যে","language_name":"bengali","language_id":20},"transliteration":{"text":"wa-anna","language_name":"english","language_id":38}},{"id":41116,"position":2,"audio_url":"wbw/053_040_002.mp3","char_type_name":"word","page_number":527,"line_number":13,"text":"سَعْيَهُۥ","translation":{"text":"তার চেষ্টা","language_name":"bengali","language_id":20},"transliteration":{"text":"saʿyahu","language_name":"english","language_id":38}},{"id":41117,"position":3,"audio_url":"wbw/053_040_003.mp3","char_type_name":"word","page_number":527,"line_number":13,"text":"سَوْفَ","translation":{"text":"শীঘ্রই","language_name":"bengali","language_id":20},"transliteration":{"text":"sawfa","language_name":"english","language_id":38}},{"id":41118,"position":4,"audio_url":"wbw/053_040_004.mp3","char_type_name":"word","page_number":527,"line_number":13,"text":"يُرَىٰ","translation":{"text":"তাকে দেখান হবে","language_name":"bengali","language_id":20},"transliteration":{"text":"yurā","language_name":"english","language_id":38}},{"id":41119,"position":5,"audio_url":null,"char_type_name":"end","page_number":527,"line_number":14,"text":"٤٠","translation":{"text":"(৪০)","language_name":"bengali","language_id":20},"transliteration":{"text":null,"language_name":"english","language_id":38}}]}],"pagination":{"per_page":10,"current_page":4,"next_page":5,"total_pages":7,"total_records":62}}
