{"verses":[{"id":4825,"verse_number":41,"verse_key":"53:41","hizb_number":53,"rub_el_hizb_number":211,"ruku_number":464,"manzil_number":7,"sajdah_number":null,"page_number":527,"juz_number":27,"words":[{"id":42022,"position":1,"audio_url":"wbw/053_041_001.mp3","verse_key":"53:41","verse_id":4825,"location":"53:41:1","text_uthmani":"ثُمَّ","qpc_uthmani_hafs":"ثُمَّ","char_type_name":"word","page_number":527,"line_number":14,"text":"ثُمَّ","translation":{"text":"এরপর","language_name":"bengali","language_id":20},"transliteration":{"text":"thumma","language_name":"english","language_id":38}},{"id":42023,"position":2,"audio_url":"wbw/053_041_002.mp3","verse_key":"53:41","verse_id":4825,"location":"53:41:2","text_uthmani":"يُجْزَىٰهُ","qpc_uthmani_hafs":"يُجۡزَىٰهُ","char_type_name":"word","page_number":527,"line_number":14,"text":"يُجۡزَىٰهُ","translation":{"text":"তাকে প্রতিফল দেয়া হবে","language_name":"bengali","language_id":20},"transliteration":{"text":"yuj'zāhu","language_name":"english","language_id":38}},{"id":42024,"position":3,"audio_url":"wbw/053_041_003.mp3","verse_key":"53:41","verse_id":4825,"location":"53:41:3","text_uthmani":"ٱلْجَزَآءَ","qpc_uthmani_hafs":"ٱلۡجَزَآءَ","char_type_name":"word","page_number":527,"line_number":14,"text":"ٱلۡجَزَآءَ","translation":{"text":"প্রতিফল","language_name":"bengali","language_id":20},"transliteration":{"text":"l-jazāa","language_name":"english","language_id":38}},{"id":42025,"position":4,"audio_url":"wbw/053_041_004.mp3","verse_key":"53:41","verse_id":4825,"location":"53:41:4","text_uthmani":"ٱلْأَوْفَىٰ","qpc_uthmani_hafs":"ٱلۡأَوۡفَىٰ","char_type_name":"word","page_number":527,"line_number":14,"text":"ٱلۡأَوۡفَىٰ","translation":{"text":"পূর্ণ","language_name":"bengali","language_id":20},"transliteration":{"text":"l-awfā","language_name":"english","language_id":38}},{"id":42026,"position":5,"audio_url":null,"verse_key":"53:41","verse_id":4825,"location":"53:41:5","text_uthmani":"٤١","qpc_uthmani_hafs":"٤١","char_type_name":"end","page_number":527,"line_number":14,"text":"٤١","translation":{"text":"(৪১)","language_name":"bengali","language_id":20},"transliteration":{"text":null,"language_name":"english","language_id":38}}]},{"id":4826,"verse_number":42,"verse_key":"53:42","hizb_number":53,"rub_el_hizb_number":211,"ruku_number":464,"manzil_number":7,"sajdah_number":null,"page_number":527,"juz_number":27,"words":[{"id":42860,"position":1,"audio_url":"wbw/053_042_001.mp3","verse_key":"53:42","verse_id":4826,"location":"53:42:1","text_uthmani":"وَأَنَّ","qpc_uthmani_hafs":"وَأَنَّ","char_type_name":"word","page_number":527,"line_number":14,"text":"وَأَنَّ","translation":{"text":"এবং (এও) যে","language_name":"bengali","language_id":20},"transliteration":{"text":"wa-anna","language_name":"english","language_id":38}},{"id":42861,"position":2,"audio_url":"wbw/053_042_002.mp3","verse_key":"53:42","verse_id":4826,"location":"53:42:2","text_uthmani":"إِلَىٰ","qpc_uthmani_hafs":"إِلَىٰ","char_type_name":"word","page_number":527,"line_number":14,"text":"إِلَىٰ","translation":{"text":"কাছেই","language_name":"bengali","language_id":20},"transliteration":{"text":"ilā","language_name":"english","language_id":38}},{"id":42862,"position":3,"audio_url":"wbw/053_042_003.mp3","verse_key":"53:42","verse_id":4826,"location":"53:42:3","text_uthmani":"رَبِّكَ","qpc_uthmani_hafs":"رَبِّكَ","char_type_name":"word","page_number":527,"line_number":14,"text":"رَبِّكَ","translation":{"text":"তোমার রবের","language_name":"bengali","language_id":20},"transliteration":{"text":"rabbika","language_name":"english","language_id":38}},{"id":42863,"position":4,"audio_url":"wbw/053_042_004.mp3","verse_key":"53:42","verse_id":4826,"location":"53:42:4","text_uthmani":"ٱلْمُنتَهَىٰ","qpc_uthmani_hafs":"ٱلۡمُنتَهَىٰ","char_type_name":"word","page_number":527,"line_number":14,"text":"ٱلۡمُنتَهَىٰ","translation":{"text":"সমাপ্তি(সবকিছুর)","language_name":"bengali","language_id":20},"transliteration":{"text":"l-muntahā","language_name":"english","language_id":38}},{"id":42864,"position":5,"audio_url":null,"verse_key":"53:42","verse_id":4826,"location":"53:42:5","text_uthmani":"٤٢","qpc_uthmani_hafs":"٤٢","char_type_name":"end","page_number":527,"line_number":14,"text":"٤٢","translation":{"text":"(৪২)","language_name":"bengali","language_id":20},"transliteration":{"text":null,"language_name":"english","language_id":38}}]},{"id":4827,"verse_number":43,"verse_key":"53:43","hizb_number":53,"rub_el_hizb_number":211,"ruku_number":464,"manzil_number":7,"sajdah_number":null,"page_number":527,"juz_number":27,"words":[{"id":43481,"position":1,"audio_url":"wbw/053_043_001.mp3","verse_key":"53:43","verse_id":4827,"location":"53:43:1","text_uthmani":"وَأَنَّهُۥ","qpc_uthmani_hafs":"وَأَنَّهُۥ","char_type_name":"word","page_number":527,"line_number":15,"text":"وَأَنَّهُۥ","translation":{"text":"এবং (এও) যে","language_name":"bengali","language_id":20},"transliteration":{"text":"wa-annahu","language_name":"english","language_id":38}},{"id":43482,"position":2,"audio_url":"wbw/053_043_002.mp3","verse_key":"53:43","verse_id":4827,"location":"53:43:2","text_uthmani":"هُوَ","qpc_uthmani_hafs":"هُوَ","char_type_name":"word","page_number":527,"line_number":15,"text":"هُوَ","translation":{"text":"তিনিই","language_name":"bengali","language_id":20},"transliteration":{"text":"huwa","language_name":"english","language_id":38}},{"id":43483,"position":3,"audio_url":"wbw/053_043_003.mp3","verse_key":"53:43","verse_id":4827,"location":"53:43:3","text_uthmani":"أَضْحَكَ","qpc_uthmani_hafs":"أَضۡحَكَ","char_type_name":"word","page_number":527,"line_number":15,"text":"أَضۡحَكَ","translation":{"text":"হাসান","language_name":"bengali","language_id":20},"transliteration":{"text":"aḍḥaka","language_name":"english","language_id":38}},{"id":43484,"position":4,"audio_url":"wbw/053_043_004.mp3","verse_key":"53:43","verse_id":4827,"location":"53:43:4","text_uthmani":"وَأَبْكَىٰ","qpc_uthmani_hafs":"وَأَبۡكَىٰ","char_type_name":"word","page_number":527,"line_number":15,"text":"وَأَبۡكَىٰ","translation":{"text":"এবং তিনিই কাঁদান","language_name":"bengali","language_id":20},"transliteration":{"text":"wa-abkā","language_name":"english","language_id":38}},{"id":43485,"position":5,"audio_url":null,"verse_key":"53:43","verse_id":4827,"location":"53:43:5","text_uthmani":"٤٣","qpc_uthmani_hafs":"٤٣","char_type_name":"end","page_number":527,"line_number":15,"text":"٤٣","translation":{"text":"(৪৩)","language_name":"bengali","language_id":20},"transliteration":{"text":null,"language_name":"english","language_id":38}}]},{"id":4828,"verse_number":44,"verse_key":"53:44","hizb_number":53,"rub_el_hizb_number":211,"ruku_number":464,"manzil_number":7,"sajdah_number":null,"page_number":527,"juz_number":27,"words":[{"id":44268,"position":1,"audio_url":"wbw/053_044_001.mp3","verse_key":"53:44","verse_id":4828,"location":"53:44:1","text_uthmani":"وَأَنَّهُۥ","qpc_uthmani_hafs":"وَأَنَّهُۥ","char_type_name":"word","page_number":527,"line_number":15,"text":"وَأَنَّهُۥ","translation":{"text":"এবং (এও) যে","language_name":"bengali","language_id":20},"transliteration":{"text":"wa-annahu","language_name":"english","language_id":38}},{"id":44269,"position":2,"audio_url":"wbw/053_044_002.mp3","verse_key":"53:44","verse_id":4828,"location":"53:44:2","text_uthmani":"هُوَ","qpc_uthmani_hafs":"هُوَ","char_type_name":"word","page_number":527,"line_number":15,"text":"هُوَ","translation":{"text":"তিনিই","language_name":"bengali","language_id":20},"transliteration":{"text":"huwa","language_name":"english","language_id":38}},{"id":44270,"position":3,"audio_url":"wbw/053_044_003.mp3","verse_key":"53:44","verse_id":4828,"location":"53:44:3","text_uthmani":"أَمَاتَ","qpc_uthmani_hafs":"أَمَاتَ","char_type_name":"word","page_number":527,"line_number":15,"text":"أَمَاتَ","translation":{"text":"মারেন","language_name":"bengali","language_id":20},"transliteration":{"text":"amāta","language_name":"english","language_id":38}},{"id":44271,"position":4,"audio_url":"wbw/053_044_004.mp3","verse_key":"53:44","verse_id":4828,"location":"53:44:4","text_uthmani":"وَأَحْيَا","qpc_uthmani_hafs":"وَأَحۡيَا","char_type_name":"word","page_number":527,"line_number":15,"text":"وَأَحۡيَا","translation":{"text":"এবং তিনিই বাঁচান","language_name":"bengali","language_id":20},"transliteration":{"text":"wa-aḥyā","language_name":"english","language_id":38}},{"id":44272,"position":5,"audio_url":null,"verse_key":"53:44","verse_id":4828,"location":"53:44:5","text_uthmani":"٤٤","qpc_uthmani_hafs":"٤٤","char_type_name":"end","page_number":527,"line_number":15,"text":"٤٤","translation":{"text":"(৪৪)","language_name":"bengali","language_id":20},"transliteration":{"text":null,"language_name":"english","language_id":38}}]},{"id":4829,"verse_number":45,"verse_key":"53:45","hizb_number":53,"rub_el_hizb_number":211,"ruku_number":464,"manzil_number":7,"sajdah_number":null,"page_number":528,"juz_number":27,"words":[{"id":44949,"position":1,"audio_url":"wbw/053_045_001.mp3","verse_key":"53:45","verse_id":4829,"location":"53:45:1","text_uthmani":"وَأَنَّهُۥ","qpc_uthmani_hafs":"وَأَنَّهُۥ","char_type_name":"word","page_number":528,"line_number":1,"text":"وَأَنَّهُۥ","translation":{"text":"এবং (এও) যে","language_name":"bengali","language_id":20},"transliteration":{"text":"wa-annahu","language_name":"english","language_id":38}},{"id":44950,"position":2,"audio_url":"wbw/053_045_002.mp3","verse_key":"53:45","verse_id":4829,"location":"53:45:2","text_uthmani":"خَلَقَ","qpc_uthmani_hafs":"خَلَقَ","char_type_name":"word","page_number":528,"line_number":1,"text":"خَلَقَ","translation":{"text":"তিনি সৃষ্টি করেছেন","language_name":"bengali","language_id":20},"transliteration":{"text":"khalaqa","language_name":"english","language_id":38}},{"id":44951,"position":3,"audio_url":"wbw/053_045_003.mp3","verse_key":"53:45","verse_id":4829,"location":"53:45:3","text_uthmani":"ٱلزَّوْجَيْنِ","qpc_uthmani_hafs":"ٱلزَّوۡجَيۡنِ","char_type_name":"word","page_number":528,"line_number":1,"text":"ٱلزَّوۡجَيۡنِ","translation":{"text":"দুই যুগল","language_name":"bengali","language_id":20},"transliteration":{"text":"l-zawjayni","language_name":"english","language_id":38}},{"id":44952,"position":4,"audio_url":"wbw/053_045_004.mp3","verse_key":"53:45","verse_id":4829,"location":"53:45:4","text_uthmani":"ٱلذَّكَرَ","qpc_uthmani_hafs":"ٱلذَّكَرَ","char_type_name":"word","page_number":528,"line_number":1,"text":"ٱلذَّكَرَ","translation":{"text":"পুরুষ","language_name":"bengali","language_id":20},"transliteration":{"text":"l-dhakara","language_name":"english","language_id":38}},{"id":44953,"position":5,"audio_url":"wbw/053_045_005.mp3","verse_key":"53:45","verse_id":4829,"location":"53:45:5","text_uthmani":"وَٱلْأُنثَىٰ","qpc_uthmani_hafs":"وَٱلۡأُنثَىٰ","char_type_name":"word","page_number":528,"line_number":1,"text":"وَٱلۡأُنثَىٰ","translation":{"text":"ও নারী","language_name":"bengali","language_id":20},"transliteration":{"text":"wal-unthā","language_name":"english","language_id":38}},{"id":44954,"position":6,"audio_url":null,"verse_key":"53:45","verse_id":4829,"location":"53:45:6","text_uthmani":"٤٥","qpc_uthmani_hafs":"٤٥","char_type_name":"end","page_number":528,"line_number":1,"text":"٤٥","translation":{"text":"(৪৫)","language_name":"bengali","language_id":20},"transliteration":{"text":null,"language_name":"english","language_id":38}}]},{"id":4830,"verse_number":46,"verse_key":"53:46","hizb_number":53,"rub_el_hizb_number":211,"ruku_number":464,"manzil_number":7,"sajdah_number":null,"page_number":528,"juz_number":27,"words":[{"id":45859,"position":1,"audio_url":"wbw/053_046_001.mp3","verse_key":"53:46","verse_id":4830,"location":"53:46:1","text_uthmani":"مِن","qpc_uthmani_hafs":"مِن","char_type_name":"word","page_number":528,"line_number":1,"text":"مِن","translation":{"text":"হতে","language_name":"bengali","language_id":20},"transliteration":{"text":"min","language_name":"english","language_id":38}},{"id":45860,"position":2,"audio_url":"wbw/053_046_002.mp3","verse_key":"53:46","verse_id":4830,"location":"53:46:2","text_uthmani":"نُّطْفَةٍ","qpc_uthmani_hafs":"نُّطۡفَةٍ","char_type_name":"word","page_number":528,"line_number":1,"text":"نُّطۡفَةٍ","translation":{"text":"এক ফোঁটা শুক্রবিন্দু","language_name":"bengali","language_id":20},"transliteration":{"text":"nuṭ'fatin","language_name":"english","language_id":38}},{"id":45861,"position":3,"audio_url":"wbw/053_046_003.mp3","verse_key":"53:46","verse_id":4830,"location":"53:46:3","text_uthmani":"إِذَا","qpc_uthmani_hafs":"إِذَا","char_type_name":"word","page_number":528,"line_number":1,"text":"إِذَا","translation":{"text":"যখন","language_name":"bengali","language_id":20},"transliteration":{"text":"idhā","language_name":"english","language_id":38}},{"id":45862,"position":4,"audio_url":"wbw/053_046_004.mp3","verse_key":"53:46","verse_id":4830,"location":"53:46:4","text_uthmani":"تُمْنَىٰ","qpc_uthmani_hafs":"تُمۡنَىٰ","char_type_name":"word","page_number":528,"line_number":1,"text":"تُمۡنَىٰ","translation":{"text":"স্খলিত হয়","language_name":"bengali","language_id":20},"transliteration":{"text":"tum'nā","language_name":"english","language_id":38}},{"id":45863,"position":5,"audio_url":null,"verse_key":"53:46","verse_id":4830,"location":"53:46:5","text_uthmani":"٤٦","qpc_uthmani_hafs":"٤٦","char_type_name":"end","page_number":528,"line_number":2,"text":"٤٦","translation":{"text":"(৪৬)","language_name":"bengali","language_id":20},"transliteration":{"text":null,"language_name":"english","language_id":38}}]},{"id":4831,"verse_number":47,"verse_key":"53:47","hizb_number":53,"rub_el_hizb_number":211,"ruku_number":464,"manzil_number":7,"sajdah_number":null,"page_number":528,"juz_number":27,"words":[{"id":46700,"position":1,"audio_url":"wbw/053_047_001.mp3","verse_key":"53:47","verse_id":4831,"location":"53:47:1","text_uthmani":"وَأَنَّ","qpc_uthmani_hafs":"وَأَنَّ","char_type_name":"word","page_number":528,"line_number":2,"text":"وَأَنَّ","translation":{"text":"এবং (এও) যে","language_name":"bengali","language_id":20},"transliteration":{"text":"wa-anna","language_name":"english","language_id":38}},{"id":46701,"position":2,"audio_url":"wbw/053_047_002.mp3","verse_key":"53:47","verse_id":4831,"location":"53:47:2","text_uthmani":"عَلَيْهِ","qpc_uthmani_hafs":"عَلَيۡهِ","char_type_name":"word","page_number":528,"line_number":2,"text":"عَلَيۡهِ","translation":{"text":"তাঁরই উপর দায়িত্ব","language_name":"bengali","language_id":20},"transliteration":{"text":"ʿalayhi","language_name":"english","language_id":38}},{"id":46702,"position":3,"audio_url":"wbw/053_047_003.mp3","verse_key":"53:47","verse_id":4831,"location":"53:47:3","text_uthmani":"ٱلنَّشْأَةَ","qpc_uthmani_hafs":"ٱلنَّشۡأَةَ","char_type_name":"word","page_number":528,"line_number":2,"text":"ٱلنَّشۡأَةَ","translation":{"text":"উঠানোর","language_name":"bengali","language_id":20},"transliteration":{"text":"l-nashata","language_name":"english","language_id":38}},{"id":46703,"position":4,"audio_url":"wbw/053_047_004.mp3","verse_key":"53:47","verse_id":4831,"location":"53:47:4","text_uthmani":"ٱلْأُخْرَىٰ","qpc_uthmani_hafs":"ٱلۡأُخۡرَىٰ","char_type_name":"word","page_number":528,"line_number":2,"text":"ٱلۡأُخۡرَىٰ","translation":{"text":"পুনরায়","language_name":"bengali","language_id":20},"transliteration":{"text":"l-ukh'rā","language_name":"english","language_id":38}},{"id":46704,"position":5,"audio_url":null,"verse_key":"53:47","verse_id":4831,"location":"53:47:5","text_uthmani":"٤٧","qpc_uthmani_hafs":"٤٧","char_type_name":"end","page_number":528,"line_number":2,"text":"٤٧","translation":{"text":"(৪৭)","language_name":"bengali","language_id":20},"transliteration":{"text":null,"language_name":"english","language_id":38}}]},{"id":4832,"verse_number":48,"verse_key":"53:48","hizb_number":53,"rub_el_hizb_number":211,"ruku_number":464,"manzil_number":7,"sajdah_number":null,"page_number":528,"juz_number":27,"words":[{"id":47646,"position":1,"audio_url":"wbw/053_048_001.mp3","verse_key":"53:48","verse_id":4832,"location":"53:48:1","text_uthmani":"وَأَنَّهُۥ","qpc_uthmani_hafs":"وَأَنَّهُۥ","char_type_name":"word","page_number":528,"line_number":2,"text":"وَأَنَّهُۥ","translation":{"text":"এবং (এও) যে","language_name":"bengali","language_id":20},"transliteration":{"text":"wa-annahu","language_name":"english","language_id":38}},{"id":47647,"position":2,"audio_url":"wbw/053_048_002.mp3","verse_key":"53:48","verse_id":4832,"location":"53:48:2","text_uthmani":"هُوَ","qpc_uthmani_hafs":"هُوَ","char_type_name":"word","page_number":528,"line_number":2,"text":"هُوَ","translation":{"text":"তিনিই","language_name":"bengali","language_id":20},"transliteration":{"text":"huwa","language_name":"english","language_id":38}},{"id":47648,"position":3,"audio_url":"wbw/053_048_003.mp3","verse_key":"53:48","verse_id":4832,"location":"53:48:3","text_uthmani":"أَغْنَىٰ","qpc_uthmani_hafs":"أَغۡنَىٰ","char_type_name":"word","page_number":528,"line_number":2,"text":"أَغۡنَىٰ","translation":{"text":"অভাব দূর করেন","language_name":"bengali","language_id":20},"transliteration":{"text":"aghnā","language_name":"english","language_id":38}},{"id":47649,"position":4,"audio_url":"wbw/053_048_004.mp3","verse_key":"53:48","verse_id":4832,"location":"53:48:4","text_uthmani":"وَأَقْنَىٰ","qpc_uthmani_hafs":"وَأَقۡنَىٰ","char_type_name":"word","page_number":528,"line_number":2,"text":"وَأَقۡنَىٰ","translation":{"text":"ও সম্পদ দান করেন","language_name":"bengali","language_id":20},"transliteration":{"text":"wa-aqnā","language_name":"english","language_id":38}},{"id":47650,"position":5,"audio_url":null,"verse_key":"53:48","verse_id":4832,"location":"53:48:5","text_uthmani":"٤٨","qpc_uthmani_hafs":"٤٨","char_type_name":"end","page_number":528,"line_number":2,"text":"٤٨","translation":{"text":"(৪৮)","language_name":"bengali","language_id":20},"transliteration":{"text":null,"language_name":"english","language_id":38}}]},{"id":4833,"verse_number":49,"verse_key":"53:49","hizb_number":53,"rub_el_hizb_number":211,"ruku_number":464,"manzil_number":7,"sajdah_number":null,"page_number":528,"juz_number":27,"words":[{"id":48314,"position":1,"audio_url":"wbw/053_049_001.mp3","verse_key":"53:49","verse_id":4833,"location":"53:49:1","text_uthmani":"وَأَنَّهُۥ","qpc_uthmani_hafs":"وَأَنَّهُۥ","char_type_name":"word","page_number":528,"line_number":2,"text":"وَأَنَّهُۥ","translation":{"text":"এবং (এও) যে","language_name":"bengali","language_id":20},"transliteration":{"text":"wa-annahu","language_name":"english","language_id":38}},{"id":48315,"position":2,"audio_url":"wbw/053_049_002.mp3","verse_key":"53:49","verse_id":4833,"location":"53:49:2","text_uthmani":"هُوَ","qpc_uthmani_hafs":"هُوَ","char_type_name":"word","page_number":528,"line_number":3,"text":"هُوَ","translation":{"text":"তিনিই","language_name":"bengali","language_id":20},"transliteration":{"text":"huwa","language_name":"english","language_id":38}},{"id":48316,"position":3,"audio_url":"wbw/053_049_003.mp3","verse_key":"53:49","verse_id":4833,"location":"53:49:3","text_uthmani":"رَبُّ","qpc_uthmani_hafs":"رَبُّ","char_type_name":"word","page_number":528,"line_number":3,"text":"رَبُّ","translation":{"text":"রব","language_name":"bengali","language_id":20},"transliteration":{"text":"rabbu","language_name":"english","language_id":38}},{"id":48317,"position":4,"audio_url":"wbw/053_049_004.mp3","verse_key":"53:49","verse_id":4833,"location":"53:49:4","text_uthmani":"ٱلشِّعْرَىٰ","qpc_uthmani_hafs":"ٱلشِّعۡرَىٰ","char_type_name":"word","page_number":528,"line_number":3,"text":"ٱلشِّعۡرَىٰ","translation":{"text":"শি'রা (নক্ষত্রের)","language_name":"bengali","language_id":20},"transliteration":{"text":"l-shiʿ'rā","language_name":"english","language_id":38}},{"id":48318,"position":5,"audio_url":null,"verse_key":"53:49","verse_id":4833,"location":"53:49:5","text_uthmani":"٤٩","qpc_uthmani_hafs":"٤٩","char_type_name":"end","page_number":528,"line_number":3,"text":"٤٩","translation":{"text":"(৪৯)","language_name":"bengali","language_id":20},"transliteration":{"text":null,"language_name":"english","language_id":38}}]},{"id":4834,"verse_number":50,"verse_key":"53:50","hizb_number":53,"rub_el_hizb_number":211,"ruku_number":464,"manzil_number":7,"sajdah_number":null,"page_number":528,"juz_number":27,"words":[{"id":48615,"position":1,"audio_url":"wbw/053_050_001.mp3","verse_key":"53:50","verse_id":4834,"location":"53:50:1","text_uthmani":"وَأَنَّهُۥٓ","qpc_uthmani_hafs":"وَأَنَّهُۥٓ","char_type_name":"word","page_number":528,"line_number":3,"text":"وَأَنَّهُۥٓ","translation":{"text":"এবং (এও) যে","language_name":"bengali","language_id":20},"transliteration":{"text":"wa-annahu","language_name":"english","language_id":38}},{"id":48616,"position":2,"audio_url":"wbw/053_050_002.mp3","verse_key":"53:50","verse_id":4834,"location":"53:50:2","text_uthmani":"أَهْلَكَ","qpc_uthmani_hafs":"أَهۡلَكَ","char_type_name":"word","page_number":528,"line_number":3,"text":"أَهۡلَكَ","translation":{"text":"তিনি ধ্বংস করেছেন","language_name":"bengali","language_id":20},"transliteration":{"text":"ahlaka","language_name":"english","language_id":38}},{"id":48617,"position":3,"audio_url":"wbw/053_050_003.mp3","verse_key":"53:50","verse_id":4834,"location":"53:50:3","text_uthmani":"عَادًا","qpc_uthmani_hafs":"عَادًا","char_type_name":"word","page_number":528,"line_number":3,"text":"عَادًا","translation":{"text":"আদকে","language_name":"bengali","language_id":20},"transliteration":{"text":"ʿādan","language_name":"english","language_id":38}},{"id":48618,"position":4,"audio_url":"wbw/053_050_004.mp3","verse_key":"53:50","verse_id":4834,"location":"53:50:4","text_uthmani":"ٱلْأُولَىٰ","qpc_uthmani_hafs":"ٱلۡأُولَىٰ","char_type_name":"word","page_number":528,"line_number":3,"text":"ٱلۡأُولَىٰ","translation":{"text":"প্রথম","language_name":"bengali","language_id":20},"transliteration":{"text":"l-ūlā","language_name":"english","language_id":38}},{"id":48619,"position":5,"audio_url":null,"verse_key":"53:50","verse_id":4834,"location":"53:50:5","text_uthmani":"٥٠","qpc_uthmani_hafs":"٥٠","char_type_name":"end","page_number":528,"line_number":3,"text":"٥٠","translation":{"text":"(৫০)","language_name":"bengali","language_id":20},"transliteration":{"text":null,"language_name":"english","language_id":38}}]}],"pagination":{"per_page":10,"current_page":5,"next_page":6,"total_pages":7,"total_records":62}}
