{"verses":[{"id":6107,"verse_number":1,"verse_key":"96:1","hizb_number":60,"rub_el_hizb_number":239,"ruku_number":540,"manzil_number":7,"sajdah_number":null,"page_number":597,"juz_number":30,"words":[{"id":100,"position":1,"audio_url":"wbw/096_001_001.mp3","char_type_name":"word","page_number":597,"line_number":11,"text":"ٱقْرَأْ","translation":{"text":"(হে নবী) পড়","language_name":"bengali","language_id":20},"transliteration":{"text":"iq'ra","language_name":"english","language_id":38}},{"id":101,"position":2,"audio_url":"wbw/096_001_002.mp3","char_type_name":"word","page_number":597,"line_number":11,"text":"بِٱسْمِ","translation":{"text":"নামে","language_name":"bengali","language_id":20},"transliteration":{"text":"bi-is'mi","language_name":"english","language_id":38}},{"id":102,"position":3,"audio_url":"wbw/096_001_003.mp3","char_type_name":"word","page_number":597,"line_number":11,"text":"رَبِّكَ","translation":{"text":"তোমার রবের","language_name":"bengali","language_id":20},"transliteration":{"text":"rabbika","language_name":"english","language_id":38}},{"id":103,"position":4,"audio_url":"wbw/096_001_004.mp3","char_type_name":"word","page_number":597,"line_number":11,"text":"ٱلَّذِى","translation":{"text":"যিনি","language_name":"bengali","language_id":20},"transliteration":{"text":"alladhī","language_name":"english","language_id":38}},{"id":104,"position":5,"audio_url":"wbw/096_001_005.mp3","char_type_name":"word","page_number":597,"line_number":11,"text":"خَلَقَ","translation":{"text":"সৃষ্টি করেছেন","language_name":"bengali","language_id":20},"transliteration":{"text":"khalaqa","language_name":"english","language_id":38}},{"id":105,"position":6,"audio_url":null,"char_type_name":"end","page_number":597,"line_number":11,"text":"١","translation":{"text":"(১)","language_name":"bengali","language_id":20},"transliteration":{"text":null,"language_name":"english","language_id":38}}]},{"id":6108,"verse_number":2,"verse_key":"96:2","hizb_number":60,"rub_el_hizb_number":239,"ruku_number":540,"manzil_number":7,"sajdah_number":null,"page_number":597,"juz_number":30,"words":[{"id":1580,"position":1,"audio_url":"wbw/096_002_001.mp3","char_type_name":"word","page_number":597,"line_number":11,"text":"خَلَقَ","translation":{"text":"সৃষ্টি করেছেন","language_name":"bengali","language_id":20},"transliteration":{"text":"khalaqa","language_name":"english","language_id":38}},{"id":1581,"position":2,"audio_url":"wbw/096_002_002.mp3","char_type_name":"word","page_number":597,"line_number":11,"text":"ٱلْإِنسَـٰنَ","translation":{"text":"মানুষকে","language_name":"bengali","language_id":20},"transliteration":{"text":"l-insāna","language_name":"english","language_id":38}},{"id":1582,"position":3,"audio_url":"wbw/096_002_003.mp3","char_type_name":"word","page_number":597,"line_number":11,"text":"مِنْ","translation":{"text":"থেকে","language_name":"bengali","language_id":20},"transliteration":{"text":"min","language_name":"english","language_id":38}},{"id":1583,"position":4,"audio_url":"wbw/096_002_004.mp3","char_type_name":"word","page_number":597,"line_number":11,"text":"عَلَقٍ","translation":{"text":"জমাট রক্তপিণ্ড","language_name":"bengali","language_id":20},"transliteration":{"text":"ʿalaqin","language_name":"english","language_id":38}},{"id":1584,"position":5,"audio_url":null,"char_type_name":"end","page_number":597,"line_number":11,"text":"٢","translation":{"text":"(২)","language_name":"bengali","language_id":20},"transliteration":{"text":null,"language_name":"english","language_id":38}}]},{"id":6109,"verse_number":3,"verse_key":"96:3","hizb_number":60,"rub_el_hizb_number":239,"ruku_number":540,"manzil_number":7,"sajdah_number":null,"page_number":597,"juz_number":30,"words":[{"id":2566,"position":1,"audio_url":"wbw/096_003_001.mp3","char_type_name":"word","page_number":597,"line_number":11,"text":"ٱقْرَأْ","translation":{"text":"পড়","language_name":"bengali","language_id":20},"transliteration":{"text":"iq'ra","language_name":"english","language_id":38}},{"id":2567,"position":2,"audio_url":"wbw/096_003_002.mp3","char_type_name":"word","page_number":597,"line_number":12,"text":"وَرَبُّكَ","translation":{"text":"আর তোমার রব","language_name":"bengali","language_id":20},"transliteration":{"text":"warabbuka","language_name":"english","language_id":38}},{"id":2568,"position":3,"audio_url":"wbw/096_003_003.mp3","char_type_name":"word","page_number":597,"line_number":12,"text":"ٱلْأَكْرَمُ","translation":{"text":"বড়ই অনুগ্রহশীল","language_name":"bengali","language_id":20},"transliteration":{"text":"l-akramu","language_name":"english","language_id":38}},{"id":2569,"position":4,"audio_url":null,"char_type_name":"end","page_number":597,"line_number":12,"text":"٣","translation":{"text":"(৩)","language_name":"bengali","language_id":20},"transliteration":{"text":null,"language_name":"english","language_id":38}}]},{"id":6110,"verse_number":4,"verse_key":"96:4","hizb_number":60,"rub_el_hizb_number":239,"ruku_number":540,"manzil_number":7,"sajdah_number":null,"page_number":597,"juz_number":30,"words":[{"id":3723,"position":1,"audio_url":"wbw/096_004_001.mp3","char_type_name":"word","page_number":597,"line_number":12,"text":"ٱلَّذِى","translation":{"text":"যিনি","language_name":"bengali","language_id":20},"transliteration":{"text":"alladhī","language_name":"english","language_id":38}},{"id":3724,"position":2,"audio_url":"wbw/096_004_002.mp3","char_type_name":"word","page_number":597,"line_number":12,"text":"عَلَّمَ","translation":{"text":"শিখিয়েছেন","language_name":"bengali","language_id":20},"transliteration":{"text":"ʿallama","language_name":"english","language_id":38}},{"id":3725,"position":3,"audio_url":"wbw/096_004_003.mp3","char_type_name":"word","page_number":597,"line_number":12,"text":"بِٱلْقَلَمِ","translation":{"text":"কলম দিয়ে","language_name":"bengali","language_id":20},"transliteration":{"text":"bil-qalami","language_name":"english","language_id":38}},{"id":3726,"position":4,"audio_url":null,"char_type_name":"end","page_number":597,"line_number":12,"text":"٤","translation":{"text":"(৪)","language_name":"bengali","language_id":20},"transliteration":{"text":null,"language_name":"english","language_id":38}}]},{"id":6111,"verse_number":5,"verse_key":"96:5","hizb_number":60,"rub_el_hizb_number":239,"ruku_number":540,"manzil_number":7,"sajdah_number":null,"page_number":597,"juz_number":30,"words":[{"id":5427,"position":1,"audio_url":"wbw/096_005_001.mp3","char_type_name":"word","page_number":597,"line_number":12,"text":"عَلَّمَ","translation":{"text":"শিখিয়েছেন","language_name":"bengali","language_id":20},"transliteration":{"text":"ʿallama","language_name":"english","language_id":38}},{"id":5428,"position":2,"audio_url":"wbw/096_005_002.mp3","char_type_name":"word","page_number":597,"line_number":12,"text":"ٱلْإِنسَـٰنَ","translation":{"text":"মানুষকে (এমন জ্ঞান)","language_name":"bengali","language_id":20},"transliteration":{"text":"l-insāna","language_name":"english","language_id":38}},{"id":5429,"position":3,"audio_url":"wbw/096_005_003.mp3","char_type_name":"word","page_number":597,"line_number":13,"text":"مَا","translation":{"text":"যা","language_name":"bengali","language_id":20},"transliteration":{"text":"mā","language_name":"english","language_id":38}},{"id":5430,"position":4,"audio_url":"wbw/096_005_004.mp3","char_type_name":"word","page_number":597,"line_number":13,"text":"لَمْ","translation":{"text":"না","language_name":"bengali","language_id":20},"transliteration":{"text":"lam","language_name":"english","language_id":38}},{"id":5431,"position":5,"audio_url":"wbw/096_005_005.mp3","char_type_name":"word","page_number":597,"line_number":13,"text":"يَعْلَمْ","translation":{"text":"সে জানতো","language_name":"bengali","language_id":20},"transliteration":{"text":"yaʿlam","language_name":"english","language_id":38}},{"id":5432,"position":6,"audio_url":null,"char_type_name":"end","page_number":597,"line_number":13,"text":"٥","translation":{"text":"(৫)","language_name":"bengali","language_id":20},"transliteration":{"text":null,"language_name":"english","language_id":38}}]},{"id":6112,"verse_number":6,"verse_key":"96:6","hizb_number":60,"rub_el_hizb_number":239,"ruku_number":540,"manzil_number":7,"sajdah_number":null,"page_number":597,"juz_number":30,"words":[{"id":6676,"position":1,"audio_url":"wbw/096_006_001.mp3","char_type_name":"word","page_number":597,"line_number":13,"text":"كَلَّآ","translation":{"text":"কখনও নয়","language_name":"bengali","language_id":20},"transliteration":{"text":"kallā","language_name":"english","language_id":38}},{"id":6677,"position":2,"audio_url":"wbw/096_006_002.mp3","char_type_name":"word","page_number":597,"line_number":13,"text":"إِنَّ","translation":{"text":"নিশ্চয়ই","language_name":"bengali","language_id":20},"transliteration":{"text":"inna","language_name":"english","language_id":38}},{"id":6678,"position":3,"audio_url":"wbw/096_006_003.mp3","char_type_name":"word","page_number":597,"line_number":13,"text":"ٱلْإِنسَـٰنَ","translation":{"text":"মানুষ","language_name":"bengali","language_id":20},"transliteration":{"text":"l-insāna","language_name":"english","language_id":38}},{"id":6679,"position":4,"audio_url":"wbw/096_006_004.mp3","char_type_name":"word","page_number":597,"line_number":13,"text":"لَيَطْغَىٰٓ","translation":{"text":"অবশ্যই সীমালঙ্ঘন করে","language_name":"bengali","language_id":20},"transliteration":{"text":"layaṭghā","language_name":"english","language_id":38}},{"id":6680,"position":5,"audio_url":null,"char_type_name":"end","page_number":597,"line_number":13,"text":"٦","translation":{"text":"(৬)","language_name":"bengali","language_id":20},"transliteration":{"text":null,"language_name":"english","language_id":38}}]},{"id":6113,"verse_number":7,"verse_key":"96:7","hizb_number":60,"rub_el_hizb_number":239,"ruku_number":540,"manzil_number":7,"sajdah_number":null,"page_number":597,"juz_number":30,"words":[{"id":8005,"position":1,"audio_url":"wbw/096_007_001.mp3","char_type_name":"word","page_number":597,"line_number":13,"text":"أَن","translation":{"text":"(এ কারণে) যে","language_name":"bengali","language_id":20},"transliteration":{"text":"an","language_name":"english","language_id":38}},{"id":8006,"position":2,"audio_url":"wbw/096_007_002.mp3","char_type_name":"word","page_number":597,"line_number":13,"text":"رَّءَاهُ","translation":{"text":"নিজেকে মনে করে","language_name":"bengali","language_id":20},"transliteration":{"text":"raāhu","language_name":"english","language_id":38}},{"id":8007,"position":3,"audio_url":"wbw/096_007_003.mp3","char_type_name":"word","page_number":597,"line_number":13,"text":"ٱسْتَغْنَىٰٓ","translation":{"text":"অভাবমুক্ত","language_name":"bengali","language_id":20},"transliteration":{"text":"is'taghnā","language_name":"english","language_id":38}},{"id":8008,"position":4,"audio_url":null,"char_type_name":"end","page_number":597,"line_number":14,"text":"٧","translation":{"text":"(৭)","language_name":"bengali","language_id":20},"transliteration":{"text":null,"language_name":"english","language_id":38}}]},{"id":6114,"verse_number":8,"verse_key":"96:8","hizb_number":60,"rub_el_hizb_number":239,"ruku_number":540,"manzil_number":7,"sajdah_number":null,"page_number":597,"juz_number":30,"words":[{"id":9198,"position":1,"audio_url":"wbw/096_008_001.mp3","char_type_name":"word","page_number":597,"line_number":14,"text":"إِنَّ","translation":{"text":"নিশ্চয়ই","language_name":"bengali","language_id":20},"transliteration":{"text":"inna","language_name":"english","language_id":38}},{"id":9199,"position":2,"audio_url":"wbw/096_008_002.mp3","char_type_name":"word","page_number":597,"line_number":14,"text":"إِلَىٰ","translation":{"text":"কাছে","language_name":"bengali","language_id":20},"transliteration":{"text":"ilā","language_name":"english","language_id":38}},{"id":9200,"position":3,"audio_url":"wbw/096_008_003.mp3","char_type_name":"word","page_number":597,"line_number":14,"text":"رَبِّكَ","translation":{"text":"তোমার রবের","language_name":"bengali","language_id":20},"transliteration":{"text":"rabbika","language_name":"english","language_id":38}},{"id":9201,"position":4,"audio_url":"wbw/096_008_004.mp3","char_type_name":"word","page_number":597,"line_number":14,"text":"ٱلرُّجْعَىٰٓ","translation":{"text":"প্রত্যাবর্তন হবে","language_name":"bengali","language_id":20},"transliteration":{"text":"l-ruj'ʿā","language_name":"english","language_id":38}},{"id":9202,"position":5,"audio_url":null,"char_type_name":"end","page_number":597,"line_number":14,"text":"٨","translation":{"text":"(৮)","language_name":"bengali","language_id":20},"transliteration":{"text":null,"language_name":"english","language_id":38}}]},{"id":6115,"verse_number":9,"verse_key":"96:9","hizb_number":60,"rub_el_hizb_number":239,"ruku_number":540,"manzil_number":7,"sajdah_number":null,"page_number":597,"juz_number":30,"words":[{"id":10404,"position":1,"audio_url":"wbw/096_009_001.mp3","char_type_name":"word","page_number":597,"line_number":14,"text":"أَرَءَيْتَ","translation":{"text":"তুমি দেখেছ কি","language_name":"bengali","language_id":20},"transliteration":{"text":"ara-ayta","language_name":"english","language_id":38}},{"id":10405,"position":2,"audio_url":"wbw/096_009_002.mp3","char_type_name":"word","page_number":597,"line_number":14,"text":"ٱلَّذِى","translation":{"text":"(তাকে) যে","language_name":"bengali","language_id":20},"transliteration":{"text":"alladhī","language_name":"english","language_id":38}},{"id":10406,"position":3,"audio_url":"wbw/096_009_003.mp3","char_type_name":"word","page_number":597,"line_number":14,"text":"يَنْهَىٰ","translation":{"text":"বাধা দেয়","language_name":"bengali","language_id":20},"transliteration":{"text":"yanhā","language_name":"english","language_id":38}},{"id":10407,"position":4,"audio_url":null,"char_type_name":"end","page_number":597,"line_number":14,"text":"٩","translation":{"text":"(৯)","language_name":"bengali","language_id":20},"transliteration":{"text":null,"language_name":"english","language_id":38}}]},{"id":6116,"verse_number":10,"verse_key":"96:10","hizb_number":60,"rub_el_hizb_number":239,"ruku_number":540,"manzil_number":7,"sajdah_number":null,"page_number":597,"juz_number":30,"words":[{"id":11656,"position":1,"audio_url":"wbw/096_010_001.mp3","char_type_name":"word","page_number":597,"line_number":14,"text":"عَبْدًا","translation":{"text":"এক বান্দাকে","language_name":"bengali","language_id":20},"transliteration":{"text":"ʿabdan","language_name":"english","language_id":38}},{"id":11657,"position":2,"audio_url":"wbw/096_010_002.mp3","char_type_name":"word","page_number":597,"line_number":15,"text":"إِذَا","translation":{"text":"যখন","language_name":"bengali","language_id":20},"transliteration":{"text":"idhā","language_name":"english","language_id":38}},{"id":11658,"position":3,"audio_url":"wbw/096_010_003.mp3","char_type_name":"word","page_number":597,"line_number":15,"text":"صَلَّىٰٓ","translation":{"text":"সে সালাত পড়ে","language_name":"bengali","language_id":20},"transliteration":{"text":"ṣallā","language_name":"english","language_id":38}},{"id":11659,"position":4,"audio_url":null,"char_type_name":"end","page_number":597,"line_number":15,"text":"١٠","translation":{"text":"(১০)","language_name":"bengali","language_id":20},"transliteration":{"text":null,"language_name":"english","language_id":38}}]}],"pagination":{"per_page":10,"current_page":1,"next_page":2,"total_pages":2,"total_records":19}}
