{"verses":[{"id":6117,"verse_number":11,"verse_key":"96:11","hizb_number":60,"rub_el_hizb_number":239,"ruku_number":540,"manzil_number":7,"sajdah_number":null,"page_number":597,"juz_number":30,"words":[{"id":13014,"position":1,"audio_url":"wbw/096_011_001.mp3","char_type_name":"word","page_number":597,"line_number":15,"text":"أَرَءَيْتَ","translation":{"text":"তুমি (ভেবে) দেখেছ কি","language_name":"bengali","language_id":20},"transliteration":{"text":"ara-ayta","language_name":"english","language_id":38}},{"id":13015,"position":2,"audio_url":"wbw/096_011_002.mp3","char_type_name":"word","page_number":597,"line_number":15,"text":"إِن","translation":{"text":"যদি","language_name":"bengali","language_id":20},"transliteration":{"text":"in","language_name":"english","language_id":38}},{"id":13016,"position":3,"audio_url":"wbw/096_011_003.mp3","char_type_name":"word","page_number":597,"line_number":15,"text":"كَانَ","translation":{"text":"সে হয়","language_name":"bengali","language_id":20},"transliteration":{"text":"kāna","language_name":"english","language_id":38}},{"id":13017,"position":4,"audio_url":"wbw/096_011_004.mp3","char_type_name":"word","page_number":597,"line_number":15,"text":"عَلَى","translation":{"text":"উপর","language_name":"bengali","language_id":20},"transliteration":{"text":"ʿalā","language_name":"english","language_id":38}},{"id":13018,"position":5,"audio_url":"wbw/096_011_005.mp3","char_type_name":"word","page_number":597,"line_number":15,"text":"ٱلْهُدَىٰٓ","translation":{"text":"সঠিক পথের","language_name":"bengali","language_id":20},"transliteration":{"text":"l-hudā","language_name":"english","language_id":38}},{"id":13019,"position":6,"audio_url":null,"char_type_name":"end","page_number":597,"line_number":15,"text":"١١","translation":{"text":"(১১)","language_name":"bengali","language_id":20},"transliteration":{"text":null,"language_name":"english","language_id":38}}]},{"id":6118,"verse_number":12,"verse_key":"96:12","hizb_number":60,"rub_el_hizb_number":239,"ruku_number":540,"manzil_number":7,"sajdah_number":null,"page_number":597,"juz_number":30,"words":[{"id":14267,"position":1,"audio_url":"wbw/096_012_001.mp3","char_type_name":"word","page_number":597,"line_number":15,"text":"أَوْ","translation":{"text":"অথবা","language_name":"bengali","language_id":20},"transliteration":{"text":"aw","language_name":"english","language_id":38}},{"id":14268,"position":2,"audio_url":"wbw/096_012_002.mp3","char_type_name":"word","page_number":597,"line_number":15,"text":"أَمَرَ","translation":{"text":"নির্দেশ দেয়","language_name":"bengali","language_id":20},"transliteration":{"text":"amara","language_name":"english","language_id":38}},{"id":14269,"position":3,"audio_url":"wbw/096_012_003.mp3","char_type_name":"word","page_number":597,"line_number":15,"text":"بِٱلتَّقْوَىٰٓ","translation":{"text":"তাকওয়ার","language_name":"bengali","language_id":20},"transliteration":{"text":"bil-taqwā","language_name":"english","language_id":38}},{"id":14270,"position":4,"audio_url":null,"char_type_name":"end","page_number":597,"line_number":15,"text":"١٢","translation":{"text":"(১২)","language_name":"bengali","language_id":20},"transliteration":{"text":null,"language_name":"english","language_id":38}}]},{"id":6119,"verse_number":13,"verse_key":"96:13","hizb_number":60,"rub_el_hizb_number":239,"ruku_number":540,"manzil_number":7,"sajdah_number":null,"page_number":598,"juz_number":30,"words":[{"id":15356,"position":1,"audio_url":"wbw/096_013_001.mp3","char_type_name":"word","page_number":598,"line_number":1,"text":"أَرَءَيْتَ","translation":{"text":"তুমি (ভেবে) দেখেছ কি","language_name":"bengali","language_id":20},"transliteration":{"text":"ara-ayta","language_name":"english","language_id":38}},{"id":15357,"position":2,"audio_url":"wbw/096_013_002.mp3","char_type_name":"word","page_number":598,"line_number":1,"text":"إِن","translation":{"text":"যদি","language_name":"bengali","language_id":20},"transliteration":{"text":"in","language_name":"english","language_id":38}},{"id":15358,"position":3,"audio_url":"wbw/096_013_003.mp3","char_type_name":"word","page_number":598,"line_number":1,"text":"كَذَّبَ","translation":{"text":"সে মিথ্যা আরোপ করে","language_name":"bengali","language_id":20},"transliteration":{"text":"kadhaba","language_name":"english","language_id":38}},{"id":15359,"position":4,"audio_url":"wbw/096_013_004.mp3","char_type_name":"word","page_number":598,"line_number":1,"text":"وَتَوَلَّىٰٓ","translation":{"text":"ও মুখ ফিরায় (কি পরিণাম হবে)","language_name":"bengali","language_id":20},"transliteration":{"text":"watawallā","language_name":"english","language_id":38}},{"id":15360,"position":5,"audio_url":null,"char_type_name":"end","page_number":598,"line_number":1,"text":"١٣","translation":{"text":"(১৩)","language_name":"bengali","language_id":20},"transliteration":{"text":null,"language_name":"english","language_id":38}}]},{"id":6120,"verse_number":14,"verse_key":"96:14","hizb_number":60,"rub_el_hizb_number":239,"ruku_number":540,"manzil_number":7,"sajdah_number":null,"page_number":598,"juz_number":30,"words":[{"id":16380,"position":1,"audio_url":"wbw/096_014_001.mp3","char_type_name":"word","page_number":598,"line_number":1,"text":"أَلَمْ","translation":{"text":"নাকি","language_name":"bengali","language_id":20},"transliteration":{"text":"alam","language_name":"english","language_id":38}},{"id":16381,"position":2,"audio_url":"wbw/096_014_002.mp3","char_type_name":"word","page_number":598,"line_number":1,"text":"يَعْلَم","translation":{"text":"সে জানে","language_name":"bengali","language_id":20},"transliteration":{"text":"yaʿlam","language_name":"english","language_id":38}},{"id":16382,"position":3,"audio_url":"wbw/096_014_003.mp3","char_type_name":"word","page_number":598,"line_number":1,"text":"بِأَنَّ","translation":{"text":"যে","language_name":"bengali","language_id":20},"transliteration":{"text":"bi-anna","language_name":"english","language_id":38}},{"id":16383,"position":4,"audio_url":"wbw/096_014_004.mp3","char_type_name":"word","page_number":598,"line_number":1,"text":"ٱللَّهَ","translation":{"text":"আল্লাহ","language_name":"bengali","language_id":20},"transliteration":{"text":"l-laha","language_name":"english","language_id":38}},{"id":16384,"position":5,"audio_url":"wbw/096_014_005.mp3","char_type_name":"word","page_number":598,"line_number":1,"text":"يَرَىٰ","translation":{"text":"দেখেন (সব কিছু)","language_name":"bengali","language_id":20},"transliteration":{"text":"yarā","language_name":"english","language_id":38}},{"id":16385,"position":6,"audio_url":null,"char_type_name":"end","page_number":598,"line_number":1,"text":"١٤","translation":{"text":"(১৪)","language_name":"bengali","language_id":20},"transliteration":{"text":null,"language_name":"english","language_id":38}}]},{"id":6121,"verse_number":15,"verse_key":"96:15","hizb_number":60,"rub_el_hizb_number":239,"ruku_number":540,"manzil_number":7,"sajdah_number":null,"page_number":598,"juz_number":30,"words":[{"id":17600,"position":1,"audio_url":"wbw/096_015_001.mp3","char_type_name":"word","page_number":598,"line_number":1,"text":"كَلَّا","translation":{"text":"সাবধান","language_name":"bengali","language_id":20},"transliteration":{"text":"kallā","language_name":"english","language_id":38}},{"id":17601,"position":2,"audio_url":"wbw/096_015_002.mp3","char_type_name":"word","page_number":598,"line_number":1,"text":"لَئِن","translation":{"text":"অবশ্যই যদি","language_name":"bengali","language_id":20},"transliteration":{"text":"la-in","language_name":"english","language_id":38}},{"id":17602,"position":3,"audio_url":"wbw/096_015_003.mp3","char_type_name":"word","page_number":598,"line_number":1,"text":"لَّمْ","translation":{"text":"না","language_name":"bengali","language_id":20},"transliteration":{"text":"lam","language_name":"english","language_id":38}},{"id":17603,"position":4,"audio_url":"wbw/096_015_004.mp3","char_type_name":"word","page_number":598,"line_number":1,"text":"يَنتَهِ","translation":{"text":"সে বিরত হয়","language_name":"bengali","language_id":20},"transliteration":{"text":"yantahi","language_name":"english","language_id":38}},{"id":17604,"position":5,"audio_url":"wbw/096_015_005.mp3","char_type_name":"word","page_number":598,"line_number":2,"text":"لَنَسْفَعًۢا","translation":{"text":"আমরা অবশ্যই টানবো","language_name":"bengali","language_id":20},"transliteration":{"text":"lanasfaʿan","language_name":"english","language_id":38}},{"id":17605,"position":6,"audio_url":"wbw/096_015_006.mp3","char_type_name":"word","page_number":598,"line_number":2,"text":"بِٱلنَّاصِيَةِ","translation":{"text":"মাথার সামনের চুল ধরে","language_name":"bengali","language_id":20},"transliteration":{"text":"bil-nāṣiyati","language_name":"english","language_id":38}},{"id":17606,"position":7,"audio_url":null,"char_type_name":"end","page_number":598,"line_number":2,"text":"١٥","translation":{"text":"(১৫)","language_name":"bengali","language_id":20},"transliteration":{"text":null,"language_name":"english","language_id":38}}]},{"id":6122,"verse_number":16,"verse_key":"96:16","hizb_number":60,"rub_el_hizb_number":239,"ruku_number":540,"manzil_number":7,"sajdah_number":null,"page_number":598,"juz_number":30,"words":[{"id":18642,"position":1,"audio_url":"wbw/096_016_001.mp3","char_type_name":"word","page_number":598,"line_number":2,"text":"نَاصِيَةٍۢ","translation":{"text":"সামনের চুল (টানবো)","language_name":"bengali","language_id":20},"transliteration":{"text":"nāṣiyatin","language_name":"english","language_id":38}},{"id":18643,"position":2,"audio_url":"wbw/096_016_002.mp3","char_type_name":"word","page_number":598,"line_number":2,"text":"كَـٰذِبَةٍ","translation":{"text":"মিথ্যুকের","language_name":"bengali","language_id":20},"transliteration":{"text":"kādhibatin","language_name":"english","language_id":38}},{"id":18644,"position":3,"audio_url":"wbw/096_016_003.mp3","char_type_name":"word","page_number":598,"line_number":2,"text":"خَاطِئَةٍۢ","translation":{"text":"পাপীর","language_name":"bengali","language_id":20},"transliteration":{"text":"khāṭi-atin","language_name":"english","language_id":38}},{"id":18645,"position":4,"audio_url":null,"char_type_name":"end","page_number":598,"line_number":2,"text":"١٦","translation":{"text":"(১৬)","language_name":"bengali","language_id":20},"transliteration":{"text":null,"language_name":"english","language_id":38}}]},{"id":6123,"verse_number":17,"verse_key":"96:17","hizb_number":60,"rub_el_hizb_number":239,"ruku_number":540,"manzil_number":7,"sajdah_number":null,"page_number":598,"juz_number":30,"words":[{"id":19699,"position":1,"audio_url":"wbw/096_017_001.mp3","char_type_name":"word","page_number":598,"line_number":2,"text":"فَلْيَدْعُ","translation":{"text":"অতএব সে যেন ডাকে","language_name":"bengali","language_id":20},"transliteration":{"text":"falyadʿu","language_name":"english","language_id":38}},{"id":19700,"position":2,"audio_url":"wbw/096_017_002.mp3","char_type_name":"word","page_number":598,"line_number":2,"text":"نَادِيَهُۥ","translation":{"text":"তার দোসরদেরকে","language_name":"bengali","language_id":20},"transliteration":{"text":"nādiyahu","language_name":"english","language_id":38}},{"id":19701,"position":3,"audio_url":null,"char_type_name":"end","page_number":598,"line_number":2,"text":"١٧","translation":{"text":"(১৭)","language_name":"bengali","language_id":20},"transliteration":{"text":null,"language_name":"english","language_id":38}}]},{"id":6124,"verse_number":18,"verse_key":"96:18","hizb_number":60,"rub_el_hizb_number":239,"ruku_number":540,"manzil_number":7,"sajdah_number":null,"page_number":598,"juz_number":30,"words":[{"id":20790,"position":1,"audio_url":"wbw/096_018_001.mp3","char_type_name":"word","page_number":598,"line_number":3,"text":"سَنَدْعُ","translation":{"text":"আমরা শীঘ্র ডাকবো","language_name":"bengali","language_id":20},"transliteration":{"text":"sanadʿu","language_name":"english","language_id":38}},{"id":20791,"position":2,"audio_url":"wbw/096_018_002.mp3","char_type_name":"word","page_number":598,"line_number":3,"text":"ٱلزَّبَانِيَةَ","translation":{"text":"জাহান্নামের প্রহরীদেরকে","language_name":"bengali","language_id":20},"transliteration":{"text":"l-zabāniyata","language_name":"english","language_id":38}},{"id":20792,"position":3,"audio_url":null,"char_type_name":"end","page_number":598,"line_number":3,"text":"١٨","translation":{"text":"(১৮)","language_name":"bengali","language_id":20},"transliteration":{"text":null,"language_name":"english","language_id":38}}]},{"id":6125,"verse_number":19,"verse_key":"96:19","hizb_number":60,"rub_el_hizb_number":239,"ruku_number":540,"manzil_number":7,"sajdah_number":14,"page_number":598,"juz_number":30,"words":[{"id":21853,"position":1,"audio_url":"wbw/096_019_001.mp3","char_type_name":"word","page_number":598,"line_number":3,"text":"كَلَّا","translation":{"text":"কখনও নয় (সাবধান)","language_name":"bengali","language_id":20},"transliteration":{"text":"kallā","language_name":"english","language_id":38}},{"id":21854,"position":2,"audio_url":"wbw/096_019_002.mp3","char_type_name":"word","page_number":598,"line_number":3,"text":"لَا","translation":{"text":"না","language_name":"bengali","language_id":20},"transliteration":{"text":"lā","language_name":"english","language_id":38}},{"id":21855,"position":3,"audio_url":"wbw/096_019_003.mp3","char_type_name":"word","page_number":598,"line_number":3,"text":"تُطِعْهُ","translation":{"text":"তাকে অনুসরণ করো","language_name":"bengali","language_id":20},"transliteration":{"text":"tuṭiʿ'hu","language_name":"english","language_id":38}},{"id":21856,"position":4,"audio_url":"wbw/096_019_004.mp3","char_type_name":"word","page_number":598,"line_number":3,"text":"وَٱسْجُدْ","translation":{"text":"এবং তুমি সিজদা করো","language_name":"bengali","language_id":20},"transliteration":{"text":"wa-us'jud","language_name":"english","language_id":38}},{"id":21857,"position":5,"audio_url":"wbw/096_019_005.mp3","char_type_name":"word","page_number":598,"line_number":3,"text":"وَٱقْتَرِب ۩","translation":{"text":"ও নৈকট্য লাভ করো (তোমার রবের)","language_name":"bengali","language_id":20},"transliteration":{"text":"wa-iq'tarib","language_name":"english","language_id":38}},{"id":21859,"position":6,"audio_url":"","char_type_name":"end","page_number":598,"line_number":3,"text":"١٩","translation":{"text":"(১৯)","language_name":"bengali","language_id":20},"transliteration":{"text":"","language_name":"english","language_id":38}}]}],"pagination":{"per_page":10,"current_page":2,"next_page":null,"total_pages":2,"total_records":19}}
