{"verses":[{"id":3604,"verse_number":71,"verse_key":"33:71","hizb_number":43,"rub_el_hizb_number":171,"ruku_number":371,"manzil_number":5,"sajdah_number":null,"page_number":427,"juz_number":22,"words":[{"id":60227,"position":1,"audio_url":"wbw/033_071_001.mp3","char_type_name":"word","page_number":427,"line_number":9,"text":"يُصْلِحْ","translation":{"text":"তিনি সংশোধন করবেন","language_name":"bengali","language_id":20},"transliteration":{"text":"yuṣ'liḥ","language_name":"english","language_id":38}},{"id":60228,"position":2,"audio_url":"wbw/033_071_002.mp3","char_type_name":"word","page_number":427,"line_number":10,"text":"لَكُمْ","translation":{"text":"জন্যে তোমাদের","language_name":"bengali","language_id":20},"transliteration":{"text":"lakum","language_name":"english","language_id":38}},{"id":60229,"position":3,"audio_url":"wbw/033_071_003.mp3","char_type_name":"word","page_number":427,"line_number":10,"text":"أَعْمَـٰلَكُمْ","translation":{"text":"কর্মসমূহকে তোমাদের","language_name":"bengali","language_id":20},"transliteration":{"text":"aʿmālakum","language_name":"english","language_id":38}},{"id":60230,"position":4,"audio_url":"wbw/033_071_004.mp3","char_type_name":"word","page_number":427,"line_number":10,"text":"وَيَغْفِرْ","translation":{"text":"এবং ক্ষমা করে দিবেন","language_name":"bengali","language_id":20},"transliteration":{"text":"wayaghfir","language_name":"english","language_id":38}},{"id":60231,"position":5,"audio_url":"wbw/033_071_005.mp3","char_type_name":"word","page_number":427,"line_number":10,"text":"لَكُمْ","translation":{"text":"জন্যে তোমাদের","language_name":"bengali","language_id":20},"transliteration":{"text":"lakum","language_name":"english","language_id":38}},{"id":60232,"position":6,"audio_url":"wbw/033_071_006.mp3","char_type_name":"word","page_number":427,"line_number":10,"text":"ذُنُوبَكُمْ ۗ","translation":{"text":"পাপগুলোকে তোমাদের","language_name":"bengali","language_id":20},"transliteration":{"text":"dhunūbakum","language_name":"english","language_id":38}},{"id":60234,"position":7,"audio_url":"wbw/033_071_008.mp3","char_type_name":"word","page_number":427,"line_number":10,"text":"وَمَن","translation":{"text":"এবং যে","language_name":"bengali","language_id":20},"transliteration":{"text":"waman","language_name":"english","language_id":38}},{"id":60235,"position":8,"audio_url":"wbw/033_071_009.mp3","char_type_name":"word","page_number":427,"line_number":10,"text":"يُطِعِ","translation":{"text":"আনুগত্য করে","language_name":"bengali","language_id":20},"transliteration":{"text":"yuṭiʿi","language_name":"english","language_id":38}},{"id":60236,"position":9,"audio_url":"wbw/033_071_010.mp3","char_type_name":"word","page_number":427,"line_number":10,"text":"ٱللَّهَ","translation":{"text":"আল্লাহর","language_name":"bengali","language_id":20},"transliteration":{"text":"l-laha","language_name":"english","language_id":38}},{"id":60237,"position":10,"audio_url":"wbw/033_071_011.mp3","char_type_name":"word","page_number":427,"line_number":10,"text":"وَرَسُولَهُۥ","translation":{"text":"ও রাসূলের তাঁর","language_name":"bengali","language_id":20},"transliteration":{"text":"warasūlahu","language_name":"english","language_id":38}},{"id":60238,"position":11,"audio_url":"wbw/033_071_012.mp3","char_type_name":"word","page_number":427,"line_number":11,"text":"فَقَدْ","translation":{"text":"তাহ'লে নিশ্চয়ই","language_name":"bengali","language_id":20},"transliteration":{"text":"faqad","language_name":"english","language_id":38}},{"id":60239,"position":12,"audio_url":"wbw/033_071_013.mp3","char_type_name":"word","page_number":427,"line_number":11,"text":"فَازَ","translation":{"text":"সে সফল হলো","language_name":"bengali","language_id":20},"transliteration":{"text":"fāza","language_name":"english","language_id":38}},{"id":60240,"position":13,"audio_url":"wbw/033_071_014.mp3","char_type_name":"word","page_number":427,"line_number":11,"text":"فَوْزًا","translation":{"text":"সাফল্য","language_name":"bengali","language_id":20},"transliteration":{"text":"fawzan","language_name":"english","language_id":38}},{"id":60241,"position":14,"audio_url":"wbw/033_071_015.mp3","char_type_name":"word","page_number":427,"line_number":11,"text":"عَظِيمًا","translation":{"text":"মহা","language_name":"bengali","language_id":20},"transliteration":{"text":"ʿaẓīman","language_name":"english","language_id":38}},{"id":60242,"position":15,"audio_url":null,"char_type_name":"end","page_number":427,"line_number":11,"text":"٧١","translation":{"text":"(৭১)","language_name":"bengali","language_id":20},"transliteration":{"text":null,"language_name":"english","language_id":38}}]},{"id":3605,"verse_number":72,"verse_key":"33:72","hizb_number":43,"rub_el_hizb_number":171,"ruku_number":371,"manzil_number":5,"sajdah_number":null,"page_number":427,"juz_number":22,"words":[{"id":60810,"position":1,"audio_url":"wbw/033_072_001.mp3","char_type_name":"word","page_number":427,"line_number":11,"text":"إِنَّا","translation":{"text":"নিশ্চয়ই আমরা","language_name":"bengali","language_id":20},"transliteration":{"text":"innā","language_name":"english","language_id":38}},{"id":60811,"position":2,"audio_url":"wbw/033_072_002.mp3","char_type_name":"word","page_number":427,"line_number":11,"text":"عَرَضْنَا","translation":{"text":"পেশ করেছিলাম আমরা","language_name":"bengali","language_id":20},"transliteration":{"text":"ʿaraḍnā","language_name":"english","language_id":38}},{"id":60812,"position":3,"audio_url":"wbw/033_072_003.mp3","char_type_name":"word","page_number":427,"line_number":11,"text":"ٱلْأَمَانَةَ","translation":{"text":"এ-আমানত (কুরআন)","language_name":"bengali","language_id":20},"transliteration":{"text":"l-amānata","language_name":"english","language_id":38}},{"id":60813,"position":4,"audio_url":"wbw/033_072_004.mp3","char_type_name":"word","page_number":427,"line_number":11,"text":"عَلَى","translation":{"text":"উপর","language_name":"bengali","language_id":20},"transliteration":{"text":"ʿalā","language_name":"english","language_id":38}},{"id":60814,"position":5,"audio_url":"wbw/033_072_005.mp3","char_type_name":"word","page_number":427,"line_number":11,"text":"ٱلسَّمَـٰوَٰتِ","translation":{"text":"আকাশসমূহের","language_name":"bengali","language_id":20},"transliteration":{"text":"l-samāwāti","language_name":"english","language_id":38}},{"id":60815,"position":6,"audio_url":"wbw/033_072_006.mp3","char_type_name":"word","page_number":427,"line_number":12,"text":"وَٱلْأَرْضِ","translation":{"text":"ও পৃথিবীর","language_name":"bengali","language_id":20},"transliteration":{"text":"wal-arḍi","language_name":"english","language_id":38}},{"id":60816,"position":7,"audio_url":"wbw/033_072_007.mp3","char_type_name":"word","page_number":427,"line_number":12,"text":"وَٱلْجِبَالِ","translation":{"text":"ও পর্বতমালার","language_name":"bengali","language_id":20},"transliteration":{"text":"wal-jibāli","language_name":"english","language_id":38}},{"id":60817,"position":8,"audio_url":"wbw/033_072_008.mp3","char_type_name":"word","page_number":427,"line_number":12,"text":"فَأَبَيْنَ","translation":{"text":"কিন্তু তারা অস্বীকার করলো","language_name":"bengali","language_id":20},"transliteration":{"text":"fa-abayna","language_name":"english","language_id":38}},{"id":60818,"position":9,"audio_url":"wbw/033_072_009.mp3","char_type_name":"word","page_number":427,"line_number":12,"text":"أَن","translation":{"text":"যে","language_name":"bengali","language_id":20},"transliteration":{"text":"an","language_name":"english","language_id":38}},{"id":60819,"position":10,"audio_url":"wbw/033_072_010.mp3","char_type_name":"word","page_number":427,"line_number":12,"text":"يَحْمِلْنَهَا","translation":{"text":"তারা বহন করবে তা","language_name":"bengali","language_id":20},"transliteration":{"text":"yaḥmil'nahā","language_name":"english","language_id":38}},{"id":60820,"position":11,"audio_url":"wbw/033_072_011.mp3","char_type_name":"word","page_number":427,"line_number":12,"text":"وَأَشْفَقْنَ","translation":{"text":"আর তারা ভয় পেলো","language_name":"bengali","language_id":20},"transliteration":{"text":"wa-ashfaqna","language_name":"english","language_id":38}},{"id":60821,"position":12,"audio_url":"wbw/033_072_012.mp3","char_type_name":"word","page_number":427,"line_number":12,"text":"مِنْهَا","translation":{"text":"থেকে তা","language_name":"bengali","language_id":20},"transliteration":{"text":"min'hā","language_name":"english","language_id":38}},{"id":60822,"position":13,"audio_url":"wbw/033_072_013.mp3","char_type_name":"word","page_number":427,"line_number":12,"text":"وَحَمَلَهَا","translation":{"text":"এবং বহন করলো তা","language_name":"bengali","language_id":20},"transliteration":{"text":"waḥamalahā","language_name":"english","language_id":38}},{"id":60823,"position":14,"audio_url":"wbw/033_072_014.mp3","char_type_name":"word","page_number":427,"line_number":13,"text":"ٱلْإِنسَـٰنُ ۖ","translation":{"text":"মানুষ","language_name":"bengali","language_id":20},"transliteration":{"text":"l-insānu","language_name":"english","language_id":38}},{"id":60825,"position":15,"audio_url":"wbw/033_072_016.mp3","char_type_name":"word","page_number":427,"line_number":13,"text":"إِنَّهُۥ","translation":{"text":"নিশ্চয়ই সে","language_name":"bengali","language_id":20},"transliteration":{"text":"innahu","language_name":"english","language_id":38}},{"id":60826,"position":16,"audio_url":"wbw/033_072_017.mp3","char_type_name":"word","page_number":427,"line_number":13,"text":"كَانَ","translation":{"text":"হলো","language_name":"bengali","language_id":20},"transliteration":{"text":"kāna","language_name":"english","language_id":38}},{"id":60827,"position":17,"audio_url":"wbw/033_072_018.mp3","char_type_name":"word","page_number":427,"line_number":13,"text":"ظَلُومًۭا","translation":{"text":"বড় সীমালঙ্ঘনকারী","language_name":"bengali","language_id":20},"transliteration":{"text":"ẓalūman","language_name":"english","language_id":38}},{"id":60828,"position":18,"audio_url":"wbw/033_072_019.mp3","char_type_name":"word","page_number":427,"line_number":13,"text":"جَهُولًۭا","translation":{"text":"বড় অজ্ঞ","language_name":"bengali","language_id":20},"transliteration":{"text":"jahūlan","language_name":"english","language_id":38}},{"id":60829,"position":19,"audio_url":null,"char_type_name":"end","page_number":427,"line_number":13,"text":"٧٢","translation":{"text":"(৭২)","language_name":"bengali","language_id":20},"transliteration":{"text":null,"language_name":"english","language_id":38}}]},{"id":3606,"verse_number":73,"verse_key":"33:73","hizb_number":43,"rub_el_hizb_number":171,"ruku_number":371,"manzil_number":5,"sajdah_number":null,"page_number":427,"juz_number":22,"words":[{"id":61321,"position":1,"audio_url":"wbw/033_073_001.mp3","char_type_name":"word","page_number":427,"line_number":13,"text":"لِّيُعَذِّبَ","translation":{"text":"(এর পরিণাম হলো এই যে) যেন শাস্তি দিবেন","language_name":"bengali","language_id":20},"transliteration":{"text":"liyuʿadhiba","language_name":"english","language_id":38}},{"id":61322,"position":2,"audio_url":"wbw/033_073_002.mp3","char_type_name":"word","page_number":427,"line_number":13,"text":"ٱللَّهُ","translation":{"text":"আল্লাহ","language_name":"bengali","language_id":20},"transliteration":{"text":"l-lahu","language_name":"english","language_id":38}},{"id":61323,"position":3,"audio_url":"wbw/033_073_003.mp3","char_type_name":"word","page_number":427,"line_number":13,"text":"ٱلْمُنَـٰفِقِينَ","translation":{"text":"মুনাফিক পুরুষদেরকে","language_name":"bengali","language_id":20},"transliteration":{"text":"l-munāfiqīna","language_name":"english","language_id":38}},{"id":61324,"position":4,"audio_url":"wbw/033_073_004.mp3","char_type_name":"word","page_number":427,"line_number":14,"text":"وَٱلْمُنَـٰفِقَـٰتِ","translation":{"text":"ও মুনাফিক নারীদেরকে","language_name":"bengali","language_id":20},"transliteration":{"text":"wal-munāfiqāti","language_name":"english","language_id":38}},{"id":61325,"position":5,"audio_url":"wbw/033_073_005.mp3","char_type_name":"word","page_number":427,"line_number":14,"text":"وَٱلْمُشْرِكِينَ","translation":{"text":"এবং মুশরিক পুরুষদেরকে","language_name":"bengali","language_id":20},"transliteration":{"text":"wal-mush'rikīna","language_name":"english","language_id":38}},{"id":61326,"position":6,"audio_url":"wbw/033_073_006.mp3","char_type_name":"word","page_number":427,"line_number":14,"text":"وَٱلْمُشْرِكَـٰتِ","translation":{"text":"ও মুশরিক নারীদেরকে","language_name":"bengali","language_id":20},"transliteration":{"text":"wal-mush'rikāti","language_name":"english","language_id":38}},{"id":61327,"position":7,"audio_url":"wbw/033_073_007.mp3","char_type_name":"word","page_number":427,"line_number":14,"text":"وَيَتُوبَ","translation":{"text":"এবং ক্ষমা করবেন","language_name":"bengali","language_id":20},"transliteration":{"text":"wayatūba","language_name":"english","language_id":38}},{"id":61328,"position":8,"audio_url":"wbw/033_073_008.mp3","char_type_name":"word","page_number":427,"line_number":14,"text":"ٱللَّهُ","translation":{"text":"আল্লাহ","language_name":"bengali","language_id":20},"transliteration":{"text":"l-lahu","language_name":"english","language_id":38}},{"id":61329,"position":9,"audio_url":"wbw/033_073_009.mp3","char_type_name":"word","page_number":427,"line_number":15,"text":"عَلَى","translation":{"text":"উপর","language_name":"bengali","language_id":20},"transliteration":{"text":"ʿalā","language_name":"english","language_id":38}},{"id":61330,"position":10,"audio_url":"wbw/033_073_010.mp3","char_type_name":"word","page_number":427,"line_number":15,"text":"ٱلْمُؤْمِنِينَ","translation":{"text":"মু’মিন পুরুষদের","language_name":"bengali","language_id":20},"transliteration":{"text":"l-mu'minīna","language_name":"english","language_id":38}},{"id":61331,"position":11,"audio_url":"wbw/033_073_011.mp3","char_type_name":"word","page_number":427,"line_number":15,"text":"وَٱلْمُؤْمِنَـٰتِ ۗ","translation":{"text":"ও মু’মিন নারীদেরকে","language_name":"bengali","language_id":20},"transliteration":{"text":"wal-mu'mināti","language_name":"english","language_id":38}},{"id":61333,"position":12,"audio_url":"wbw/033_073_013.mp3","char_type_name":"word","page_number":427,"line_number":15,"text":"وَكَانَ","translation":{"text":"এবং হলেন","language_name":"bengali","language_id":20},"transliteration":{"text":"wakāna","language_name":"english","language_id":38}},{"id":61334,"position":13,"audio_url":"wbw/033_073_014.mp3","char_type_name":"word","page_number":427,"line_number":15,"text":"ٱللَّهُ","translation":{"text":"আল্লাহ","language_name":"bengali","language_id":20},"transliteration":{"text":"l-lahu","language_name":"english","language_id":38}},{"id":61335,"position":14,"audio_url":"wbw/033_073_015.mp3","char_type_name":"word","page_number":427,"line_number":15,"text":"غَفُورًۭا","translation":{"text":"ক্ষমাশীল","language_name":"bengali","language_id":20},"transliteration":{"text":"ghafūran","language_name":"english","language_id":38}},{"id":61336,"position":15,"audio_url":"wbw/033_073_016.mp3","char_type_name":"word","page_number":427,"line_number":15,"text":"رَّحِيمًۢا","translation":{"text":"পরম দয়ালু","language_name":"bengali","language_id":20},"transliteration":{"text":"raḥīman","language_name":"english","language_id":38}},{"id":61337,"position":16,"audio_url":null,"char_type_name":"end","page_number":427,"line_number":15,"text":"٧٣","translation":{"text":"(৭৩)","language_name":"bengali","language_id":20},"transliteration":{"text":null,"language_name":"english","language_id":38}}]}],"pagination":{"per_page":10,"current_page":8,"next_page":null,"total_pages":8,"total_records":73}}
