{"verses":[{"id":3756,"verse_number":51,"verse_key":"36:51","hizb_number":45,"rub_el_hizb_number":177,"ruku_number":386,"manzil_number":5,"sajdah_number":null,"page_number":443,"juz_number":23,"words":[{"id":49601,"position":1,"audio_url":"wbw/036_051_001.mp3","char_type_name":"word","page_number":443,"line_number":11,"text":"وَنُفِخَ","translation":{"text":"এবং ফুঁ দেওয়া হবে","language_name":"bengali","language_id":20},"transliteration":{"text":"wanufikha","language_name":"english","language_id":38}},{"id":49602,"position":2,"audio_url":"wbw/036_051_002.mp3","char_type_name":"word","page_number":443,"line_number":11,"text":"فِى","translation":{"text":"মধ্যে","language_name":"bengali","language_id":20},"transliteration":{"text":"fī","language_name":"english","language_id":38}},{"id":49603,"position":3,"audio_url":"wbw/036_051_003.mp3","char_type_name":"word","page_number":443,"line_number":11,"text":"ٱلصُّورِ","translation":{"text":"শিঙ্গার","language_name":"bengali","language_id":20},"transliteration":{"text":"l-ṣūri","language_name":"english","language_id":38}},{"id":49604,"position":4,"audio_url":"wbw/036_051_004.mp3","char_type_name":"word","page_number":443,"line_number":11,"text":"فَإِذَا","translation":{"text":"তখন অতঃপর","language_name":"bengali","language_id":20},"transliteration":{"text":"fa-idhā","language_name":"english","language_id":38}},{"id":49605,"position":5,"audio_url":"wbw/036_051_005.mp3","char_type_name":"word","page_number":443,"line_number":11,"text":"هُم","translation":{"text":"তারা","language_name":"bengali","language_id":20},"transliteration":{"text":"hum","language_name":"english","language_id":38}},{"id":49606,"position":6,"audio_url":"wbw/036_051_006.mp3","char_type_name":"word","page_number":443,"line_number":11,"text":"مِّنَ","translation":{"text":"হ'তে","language_name":"bengali","language_id":20},"transliteration":{"text":"mina","language_name":"english","language_id":38}},{"id":49607,"position":7,"audio_url":"wbw/036_051_007.mp3","char_type_name":"word","page_number":443,"line_number":11,"text":"ٱلْأَجْدَاثِ","translation":{"text":"কবরসমূহ","language_name":"bengali","language_id":20},"transliteration":{"text":"l-ajdāthi","language_name":"english","language_id":38}},{"id":49608,"position":8,"audio_url":"wbw/036_051_008.mp3","char_type_name":"word","page_number":443,"line_number":11,"text":"إِلَىٰ","translation":{"text":"দিকে","language_name":"bengali","language_id":20},"transliteration":{"text":"ilā","language_name":"english","language_id":38}},{"id":49609,"position":9,"audio_url":"wbw/036_051_009.mp3","char_type_name":"word","page_number":443,"line_number":11,"text":"رَبِّهِمْ","translation":{"text":"তাদের রবের","language_name":"bengali","language_id":20},"transliteration":{"text":"rabbihim","language_name":"english","language_id":38}},{"id":49610,"position":10,"audio_url":"wbw/036_051_010.mp3","char_type_name":"word","page_number":443,"line_number":12,"text":"يَنسِلُونَ","translation":{"text":"ছুটে আসবে","language_name":"bengali","language_id":20},"transliteration":{"text":"yansilūna","language_name":"english","language_id":38}},{"id":49611,"position":11,"audio_url":null,"char_type_name":"end","page_number":443,"line_number":12,"text":"٥١","translation":{"text":"(৫১)","language_name":"bengali","language_id":20},"transliteration":{"text":null,"language_name":"english","language_id":38}}]},{"id":3757,"verse_number":52,"verse_key":"36:52","hizb_number":45,"rub_el_hizb_number":177,"ruku_number":386,"manzil_number":5,"sajdah_number":null,"page_number":443,"juz_number":23,"words":[{"id":50051,"position":1,"audio_url":"wbw/036_052_001.mp3","char_type_name":"word","page_number":443,"line_number":12,"text":"قَالُوا۟","translation":{"text":"(ভীত হয়ে) তারা বলবে","language_name":"bengali","language_id":20},"transliteration":{"text":"qālū","language_name":"english","language_id":38}},{"id":50052,"position":2,"audio_url":"wbw/036_052_002.mp3","char_type_name":"word","page_number":443,"line_number":12,"text":"يَـٰوَيْلَنَا","translation":{"text":"\"আমাদের দুর্ভোগ হায়","language_name":"bengali","language_id":20},"transliteration":{"text":"yāwaylanā","language_name":"english","language_id":38}},{"id":50053,"position":3,"audio_url":"wbw/036_052_003.mp3","char_type_name":"word","page_number":443,"line_number":12,"text":"مَنۢ","translation":{"text":"কে","language_name":"bengali","language_id":20},"transliteration":{"text":"man","language_name":"english","language_id":38}},{"id":50054,"position":4,"audio_url":"wbw/036_052_004.mp3","char_type_name":"word","page_number":443,"line_number":12,"text":"بَعَثَنَا","translation":{"text":"আমাদেরকে উঠালো","language_name":"bengali","language_id":20},"transliteration":{"text":"baʿathanā","language_name":"english","language_id":38}},{"id":50055,"position":5,"audio_url":"wbw/036_052_005.mp3","char_type_name":"word","page_number":443,"line_number":12,"text":"مِن","translation":{"text":"হ'তে","language_name":"bengali","language_id":20},"transliteration":{"text":"min","language_name":"english","language_id":38}},{"id":50056,"position":6,"audio_url":"wbw/036_052_006.mp3","char_type_name":"word","page_number":443,"line_number":12,"text":"مَّرْقَدِنَا ۜ ۗ","translation":{"text":"আমাদের ঘুমের স্হান\"","language_name":"bengali","language_id":20},"transliteration":{"text":"marqadinā","language_name":"english","language_id":38}},{"id":50058,"position":7,"audio_url":"","char_type_name":"word","page_number":443,"line_number":12,"text":"هَـٰذَا","translation":{"text":"\"এটাই","language_name":"bengali","language_id":20},"transliteration":{"text":"hādhā","language_name":"english","language_id":38}},{"id":50059,"position":8,"audio_url":"wbw/036_052_009.mp3","char_type_name":"word","page_number":443,"line_number":12,"text":"مَا","translation":{"text":"(তাই) যার","language_name":"bengali","language_id":20},"transliteration":{"text":"mā","language_name":"english","language_id":38}},{"id":50060,"position":9,"audio_url":"wbw/036_052_010.mp3","char_type_name":"word","page_number":443,"line_number":12,"text":"وَعَدَ","translation":{"text":"প্রতিশ্রুতি দিয়েছিলেন","language_name":"bengali","language_id":20},"transliteration":{"text":"waʿada","language_name":"english","language_id":38}},{"id":50061,"position":10,"audio_url":"wbw/036_052_011.mp3","char_type_name":"word","page_number":443,"line_number":12,"text":"ٱلرَّحْمَـٰنُ","translation":{"text":"দয়াময়","language_name":"bengali","language_id":20},"transliteration":{"text":"l-raḥmānu","language_name":"english","language_id":38}},{"id":50062,"position":11,"audio_url":"wbw/036_052_012.mp3","char_type_name":"word","page_number":443,"line_number":13,"text":"وَصَدَقَ","translation":{"text":"এবং সত্যই বলেছিলেন","language_name":"bengali","language_id":20},"transliteration":{"text":"waṣadaqa","language_name":"english","language_id":38}},{"id":50063,"position":12,"audio_url":"wbw/036_052_013.mp3","char_type_name":"word","page_number":443,"line_number":13,"text":"ٱلْمُرْسَلُونَ","translation":{"text":"রাসূলগণ\"","language_name":"bengali","language_id":20},"transliteration":{"text":"l-mur'salūna","language_name":"english","language_id":38}},{"id":50065,"position":13,"audio_url":null,"char_type_name":"end","page_number":443,"line_number":13,"text":"٥٢","translation":{"text":"(৫২)","language_name":"bengali","language_id":20},"transliteration":{"text":null,"language_name":"english","language_id":38}}]},{"id":3758,"verse_number":53,"verse_key":"36:53","hizb_number":45,"rub_el_hizb_number":177,"ruku_number":386,"manzil_number":5,"sajdah_number":null,"page_number":443,"juz_number":23,"words":[{"id":50878,"position":1,"audio_url":"wbw/036_053_001.mp3","char_type_name":"word","page_number":443,"line_number":13,"text":"إِن","translation":{"text":"না","language_name":"bengali","language_id":20},"transliteration":{"text":"in","language_name":"english","language_id":38}},{"id":50879,"position":2,"audio_url":"wbw/036_053_002.mp3","char_type_name":"word","page_number":443,"line_number":13,"text":"كَانَتْ","translation":{"text":"হবে","language_name":"bengali","language_id":20},"transliteration":{"text":"kānat","language_name":"english","language_id":38}},{"id":50880,"position":3,"audio_url":"wbw/036_053_003.mp3","char_type_name":"word","page_number":443,"line_number":13,"text":"إِلَّا","translation":{"text":"এছাড়া","language_name":"bengali","language_id":20},"transliteration":{"text":"illā","language_name":"english","language_id":38}},{"id":50881,"position":4,"audio_url":"wbw/036_053_004.mp3","char_type_name":"word","page_number":443,"line_number":13,"text":"صَيْحَةًۭ","translation":{"text":"মহাগর্জন","language_name":"bengali","language_id":20},"transliteration":{"text":"ṣayḥatan","language_name":"english","language_id":38}},{"id":50882,"position":5,"audio_url":"wbw/036_053_005.mp3","char_type_name":"word","page_number":443,"line_number":14,"text":"وَٰحِدَةًۭ","translation":{"text":"একটি মাত্র","language_name":"bengali","language_id":20},"transliteration":{"text":"wāḥidatan","language_name":"english","language_id":38}},{"id":50883,"position":6,"audio_url":"wbw/036_053_006.mp3","char_type_name":"word","page_number":443,"line_number":14,"text":"فَإِذَا","translation":{"text":"অতঃপর তখনই","language_name":"bengali","language_id":20},"transliteration":{"text":"fa-idhā","language_name":"english","language_id":38}},{"id":50884,"position":7,"audio_url":"wbw/036_053_007.mp3","char_type_name":"word","page_number":443,"line_number":14,"text":"هُمْ","translation":{"text":"তাদের","language_name":"bengali","language_id":20},"transliteration":{"text":"hum","language_name":"english","language_id":38}},{"id":50885,"position":8,"audio_url":"wbw/036_053_008.mp3","char_type_name":"word","page_number":443,"line_number":14,"text":"جَمِيعٌۭ","translation":{"text":"সকলকেই","language_name":"bengali","language_id":20},"transliteration":{"text":"jamīʿun","language_name":"english","language_id":38}},{"id":50886,"position":9,"audio_url":"wbw/036_053_009.mp3","char_type_name":"word","page_number":443,"line_number":14,"text":"لَّدَيْنَا","translation":{"text":"আমাদের কাছে","language_name":"bengali","language_id":20},"transliteration":{"text":"ladaynā","language_name":"english","language_id":38}},{"id":50887,"position":10,"audio_url":"wbw/036_053_010.mp3","char_type_name":"word","page_number":443,"line_number":14,"text":"مُحْضَرُونَ","translation":{"text":"উপস্থিত করা হবে","language_name":"bengali","language_id":20},"transliteration":{"text":"muḥ'ḍarūna","language_name":"english","language_id":38}},{"id":50888,"position":11,"audio_url":null,"char_type_name":"end","page_number":443,"line_number":14,"text":"٥٣","translation":{"text":"(৫৩)","language_name":"bengali","language_id":20},"transliteration":{"text":null,"language_name":"english","language_id":38}}]},{"id":3759,"verse_number":54,"verse_key":"36:54","hizb_number":45,"rub_el_hizb_number":177,"ruku_number":386,"manzil_number":5,"sajdah_number":null,"page_number":443,"juz_number":23,"words":[{"id":51460,"position":1,"audio_url":"wbw/036_054_001.mp3","char_type_name":"word","page_number":443,"line_number":14,"text":"فَٱلْيَوْمَ","translation":{"text":"অতঃপর (বলা হবে) আজ","language_name":"bengali","language_id":20},"transliteration":{"text":"fal-yawma","language_name":"english","language_id":38}},{"id":51461,"position":2,"audio_url":"wbw/036_054_002.mp3","char_type_name":"word","page_number":443,"line_number":14,"text":"لَا","translation":{"text":"না","language_name":"bengali","language_id":20},"transliteration":{"text":"lā","language_name":"english","language_id":38}},{"id":51462,"position":3,"audio_url":"wbw/036_054_003.mp3","char_type_name":"word","page_number":443,"line_number":14,"text":"تُظْلَمُ","translation":{"text":"অবিচার করা হবে","language_name":"bengali","language_id":20},"transliteration":{"text":"tuẓ'lamu","language_name":"english","language_id":38}},{"id":51463,"position":4,"audio_url":"wbw/036_054_004.mp3","char_type_name":"word","page_number":443,"line_number":15,"text":"نَفْسٌۭ","translation":{"text":"কাউকে","language_name":"bengali","language_id":20},"transliteration":{"text":"nafsun","language_name":"english","language_id":38}},{"id":51464,"position":5,"audio_url":"wbw/036_054_005.mp3","char_type_name":"word","page_number":443,"line_number":15,"text":"شَيْـًۭٔا","translation":{"text":"কিছুই","language_name":"bengali","language_id":20},"transliteration":{"text":"shayan","language_name":"english","language_id":38}},{"id":51465,"position":6,"audio_url":"wbw/036_054_006.mp3","char_type_name":"word","page_number":443,"line_number":15,"text":"وَلَا","translation":{"text":"আর না","language_name":"bengali","language_id":20},"transliteration":{"text":"walā","language_name":"english","language_id":38}},{"id":51466,"position":7,"audio_url":"wbw/036_054_007.mp3","char_type_name":"word","page_number":443,"line_number":15,"text":"تُجْزَوْنَ","translation":{"text":"প্রতিফল দেওয়া হবে","language_name":"bengali","language_id":20},"transliteration":{"text":"tuj'zawna","language_name":"english","language_id":38}},{"id":51467,"position":8,"audio_url":"wbw/036_054_008.mp3","char_type_name":"word","page_number":443,"line_number":15,"text":"إِلَّا","translation":{"text":"এ ব্যতীত","language_name":"bengali","language_id":20},"transliteration":{"text":"illā","language_name":"english","language_id":38}},{"id":51468,"position":9,"audio_url":"wbw/036_054_009.mp3","char_type_name":"word","page_number":443,"line_number":15,"text":"مَا","translation":{"text":"যা","language_name":"bengali","language_id":20},"transliteration":{"text":"mā","language_name":"english","language_id":38}},{"id":51469,"position":10,"audio_url":"wbw/036_054_010.mp3","char_type_name":"word","page_number":443,"line_number":15,"text":"كُنتُمْ","translation":{"text":"তোমরা","language_name":"bengali","language_id":20},"transliteration":{"text":"kuntum","language_name":"english","language_id":38}},{"id":51470,"position":11,"audio_url":"wbw/036_054_011.mp3","char_type_name":"word","page_number":443,"line_number":15,"text":"تَعْمَلُونَ","translation":{"text":"কাজ করতেছিলে","language_name":"bengali","language_id":20},"transliteration":{"text":"taʿmalūna","language_name":"english","language_id":38}},{"id":51471,"position":12,"audio_url":null,"char_type_name":"end","page_number":443,"line_number":15,"text":"٥٤","translation":{"text":"(৫৪)","language_name":"bengali","language_id":20},"transliteration":{"text":null,"language_name":"english","language_id":38}}]},{"id":3760,"verse_number":55,"verse_key":"36:55","hizb_number":45,"rub_el_hizb_number":177,"ruku_number":386,"manzil_number":5,"sajdah_number":null,"page_number":444,"juz_number":23,"words":[{"id":51981,"position":1,"audio_url":"wbw/036_055_001.mp3","char_type_name":"word","page_number":444,"line_number":1,"text":"إِنَّ","translation":{"text":"নিশ্চয়ই","language_name":"bengali","language_id":20},"transliteration":{"text":"inna","language_name":"english","language_id":38}},{"id":51982,"position":2,"audio_url":"wbw/036_055_002.mp3","char_type_name":"word","page_number":444,"line_number":1,"text":"أَصْحَـٰبَ","translation":{"text":"অধিবাসীরা","language_name":"bengali","language_id":20},"transliteration":{"text":"aṣḥāba","language_name":"english","language_id":38}},{"id":51983,"position":3,"audio_url":"wbw/036_055_003.mp3","char_type_name":"word","page_number":444,"line_number":1,"text":"ٱلْجَنَّةِ","translation":{"text":"জান্নাতের","language_name":"bengali","language_id":20},"transliteration":{"text":"l-janati","language_name":"english","language_id":38}},{"id":51984,"position":4,"audio_url":"wbw/036_055_004.mp3","char_type_name":"word","page_number":444,"line_number":1,"text":"ٱلْيَوْمَ","translation":{"text":"আজ","language_name":"bengali","language_id":20},"transliteration":{"text":"l-yawma","language_name":"english","language_id":38}},{"id":51985,"position":5,"audio_url":"wbw/036_055_005.mp3","char_type_name":"word","page_number":444,"line_number":1,"text":"فِى","translation":{"text":"থাকবে","language_name":"bengali","language_id":20},"transliteration":{"text":"fī","language_name":"english","language_id":38}},{"id":51986,"position":6,"audio_url":"wbw/036_055_006.mp3","char_type_name":"word","page_number":444,"line_number":1,"text":"شُغُلٍۢ","translation":{"text":"(মজার) মগ্ন","language_name":"bengali","language_id":20},"transliteration":{"text":"shughulin","language_name":"english","language_id":38}},{"id":51987,"position":7,"audio_url":"wbw/036_055_007.mp3","char_type_name":"word","page_number":444,"line_number":1,"text":"فَـٰكِهُونَ","translation":{"text":"আনন্দে","language_name":"bengali","language_id":20},"transliteration":{"text":"fākihūna","language_name":"english","language_id":38}},{"id":51988,"position":8,"audio_url":null,"char_type_name":"end","page_number":444,"line_number":1,"text":"٥٥","translation":{"text":"(৫৫)","language_name":"bengali","language_id":20},"transliteration":{"text":null,"language_name":"english","language_id":38}}]},{"id":3761,"verse_number":56,"verse_key":"36:56","hizb_number":45,"rub_el_hizb_number":177,"ruku_number":386,"manzil_number":5,"sajdah_number":null,"page_number":444,"juz_number":23,"words":[{"id":52528,"position":1,"audio_url":"wbw/036_056_001.mp3","char_type_name":"word","page_number":444,"line_number":1,"text":"هُمْ","translation":{"text":"তারা","language_name":"bengali","language_id":20},"transliteration":{"text":"hum","language_name":"english","language_id":38}},{"id":52529,"position":2,"audio_url":"wbw/036_056_002.mp3","char_type_name":"word","page_number":444,"line_number":1,"text":"وَأَزْوَٰجُهُمْ","translation":{"text":"ও তাদের স্ত্রীরা (হবে)","language_name":"bengali","language_id":20},"transliteration":{"text":"wa-azwājuhum","language_name":"english","language_id":38}},{"id":52530,"position":3,"audio_url":"wbw/036_056_003.mp3","char_type_name":"word","page_number":444,"line_number":2,"text":"فِى","translation":{"text":"মধ্যে","language_name":"bengali","language_id":20},"transliteration":{"text":"fī","language_name":"english","language_id":38}},{"id":52531,"position":4,"audio_url":"wbw/036_056_004.mp3","char_type_name":"word","page_number":444,"line_number":2,"text":"ظِلَـٰلٍ","translation":{"text":"ছায়ার","language_name":"bengali","language_id":20},"transliteration":{"text":"ẓilālin","language_name":"english","language_id":38}},{"id":52532,"position":5,"audio_url":"wbw/036_056_005.mp3","char_type_name":"word","page_number":444,"line_number":2,"text":"عَلَى","translation":{"text":"উপর","language_name":"bengali","language_id":20},"transliteration":{"text":"ʿalā","language_name":"english","language_id":38}},{"id":52533,"position":6,"audio_url":"wbw/036_056_006.mp3","char_type_name":"word","page_number":444,"line_number":2,"text":"ٱلْأَرَآئِكِ","translation":{"text":"সুসজ্জিত আসনে","language_name":"bengali","language_id":20},"transliteration":{"text":"l-arāiki","language_name":"english","language_id":38}},{"id":52534,"position":7,"audio_url":"wbw/036_056_007.mp3","char_type_name":"word","page_number":444,"line_number":2,"text":"مُتَّكِـُٔونَ","translation":{"text":"হেলান দিয়ে বসবে","language_name":"bengali","language_id":20},"transliteration":{"text":"muttakiūna","language_name":"english","language_id":38}},{"id":52535,"position":8,"audio_url":null,"char_type_name":"end","page_number":444,"line_number":2,"text":"٥٦","translation":{"text":"(৫৬)","language_name":"bengali","language_id":20},"transliteration":{"text":null,"language_name":"english","language_id":38}}]},{"id":3762,"verse_number":57,"verse_key":"36:57","hizb_number":45,"rub_el_hizb_number":177,"ruku_number":386,"manzil_number":5,"sajdah_number":null,"page_number":444,"juz_number":23,"words":[{"id":53032,"position":1,"audio_url":"wbw/036_057_001.mp3","char_type_name":"word","page_number":444,"line_number":2,"text":"لَهُمْ","translation":{"text":"তাদের জন্যে (থাকবে)","language_name":"bengali","language_id":20},"transliteration":{"text":"lahum","language_name":"english","language_id":38}},{"id":53033,"position":2,"audio_url":"wbw/036_057_002.mp3","char_type_name":"word","page_number":444,"line_number":2,"text":"فِيهَا","translation":{"text":"তার মধ্যে","language_name":"bengali","language_id":20},"transliteration":{"text":"fīhā","language_name":"english","language_id":38}},{"id":53034,"position":3,"audio_url":"wbw/036_057_003.mp3","char_type_name":"word","page_number":444,"line_number":2,"text":"فَـٰكِهَةٌۭ","translation":{"text":"ফলমূল","language_name":"bengali","language_id":20},"transliteration":{"text":"fākihatun","language_name":"english","language_id":38}},{"id":53035,"position":4,"audio_url":"wbw/036_057_004.mp3","char_type_name":"word","page_number":444,"line_number":3,"text":"وَلَهُم","translation":{"text":"ও তাদের জন্যে (থাকবে)","language_name":"bengali","language_id":20},"transliteration":{"text":"walahum","language_name":"english","language_id":38}},{"id":53036,"position":5,"audio_url":"wbw/036_057_005.mp3","char_type_name":"word","page_number":444,"line_number":3,"text":"مَّا","translation":{"text":"যা","language_name":"bengali","language_id":20},"transliteration":{"text":"mā","language_name":"english","language_id":38}},{"id":53037,"position":6,"audio_url":"wbw/036_057_006.mp3","char_type_name":"word","page_number":444,"line_number":3,"text":"يَدَّعُونَ","translation":{"text":"তারা চাইবে","language_name":"bengali","language_id":20},"transliteration":{"text":"yaddaʿūna","language_name":"english","language_id":38}},{"id":53038,"position":7,"audio_url":null,"char_type_name":"end","page_number":444,"line_number":3,"text":"٥٧","translation":{"text":"(৫৭)","language_name":"bengali","language_id":20},"transliteration":{"text":null,"language_name":"english","language_id":38}}]},{"id":3763,"verse_number":58,"verse_key":"36:58","hizb_number":45,"rub_el_hizb_number":177,"ruku_number":386,"manzil_number":5,"sajdah_number":null,"page_number":444,"juz_number":23,"words":[{"id":53573,"position":1,"audio_url":"wbw/036_058_001.mp3","char_type_name":"word","page_number":444,"line_number":3,"text":"سَلَـٰمٌۭ","translation":{"text":"\"সালাম\"","language_name":"bengali","language_id":20},"transliteration":{"text":"salāmun","language_name":"english","language_id":38}},{"id":53574,"position":2,"audio_url":"wbw/036_058_002.mp3","char_type_name":"word","page_number":444,"line_number":3,"text":"قَوْلًۭا","translation":{"text":"বলা (হবে)","language_name":"bengali","language_id":20},"transliteration":{"text":"qawlan","language_name":"english","language_id":38}},{"id":53575,"position":3,"audio_url":"wbw/036_058_003.mp3","char_type_name":"word","page_number":444,"line_number":3,"text":"مِّن","translation":{"text":"পক্ষ হ'তে","language_name":"bengali","language_id":20},"transliteration":{"text":"min","language_name":"english","language_id":38}},{"id":53576,"position":4,"audio_url":"wbw/036_058_004.mp3","char_type_name":"word","page_number":444,"line_number":3,"text":"رَّبٍّۢ","translation":{"text":"রবের","language_name":"bengali","language_id":20},"transliteration":{"text":"rabbin","language_name":"english","language_id":38}},{"id":53577,"position":5,"audio_url":"wbw/036_058_005.mp3","char_type_name":"word","page_number":444,"line_number":3,"text":"رَّحِيمٍۢ","translation":{"text":"(যিনি) পরম দয়ালু","language_name":"bengali","language_id":20},"transliteration":{"text":"raḥīmin","language_name":"english","language_id":38}},{"id":53578,"position":6,"audio_url":null,"char_type_name":"end","page_number":444,"line_number":3,"text":"٥٨","translation":{"text":"(৫৮)","language_name":"bengali","language_id":20},"transliteration":{"text":null,"language_name":"english","language_id":38}}]},{"id":3764,"verse_number":59,"verse_key":"36:59","hizb_number":45,"rub_el_hizb_number":177,"ruku_number":386,"manzil_number":5,"sajdah_number":null,"page_number":444,"juz_number":23,"words":[{"id":54137,"position":1,"audio_url":"wbw/036_059_001.mp3","char_type_name":"word","page_number":444,"line_number":3,"text":"وَٱمْتَـٰزُوا۟","translation":{"text":"\"এবং (বলা হবে) তোমারা আলাদা হয়ে যাও","language_name":"bengali","language_id":20},"transliteration":{"text":"wa-im'tāzū","language_name":"english","language_id":38}},{"id":54138,"position":2,"audio_url":"wbw/036_059_002.mp3","char_type_name":"word","page_number":444,"line_number":4,"text":"ٱلْيَوْمَ","translation":{"text":"আজ","language_name":"bengali","language_id":20},"transliteration":{"text":"l-yawma","language_name":"english","language_id":38}},{"id":54139,"position":3,"audio_url":"wbw/036_059_003.mp3","char_type_name":"word","page_number":444,"line_number":4,"text":"أَيُّهَا","translation":{"text":"হে","language_name":"bengali","language_id":20},"transliteration":{"text":"ayyuhā","language_name":"english","language_id":38}},{"id":54140,"position":4,"audio_url":"wbw/036_059_004.mp3","char_type_name":"word","page_number":444,"line_number":4,"text":"ٱلْمُجْرِمُونَ","translation":{"text":"অপরাধীরা","language_name":"bengali","language_id":20},"transliteration":{"text":"l-muj'rimūna","language_name":"english","language_id":38}},{"id":54141,"position":5,"audio_url":null,"char_type_name":"end","page_number":444,"line_number":4,"text":"٥٩","translation":{"text":"(৫৯)","language_name":"bengali","language_id":20},"transliteration":{"text":null,"language_name":"english","language_id":38}}]},{"id":3765,"verse_number":60,"verse_key":"36:60","hizb_number":45,"rub_el_hizb_number":178,"ruku_number":386,"manzil_number":5,"sajdah_number":null,"page_number":444,"juz_number":23,"words":[{"id":54448,"position":1,"audio_url":"wbw/036_060_002.mp3","char_type_name":"word","page_number":444,"line_number":4,"text":"۞ أَلَمْ","translation":{"text":"দিই নি কি","language_name":"bengali","language_id":20},"transliteration":{"text":"alam","language_name":"english","language_id":38}},{"id":54449,"position":2,"audio_url":"wbw/036_060_003.mp3","char_type_name":"word","page_number":444,"line_number":4,"text":"أَعْهَدْ","translation":{"text":"আমি নির্দেশ","language_name":"bengali","language_id":20},"transliteration":{"text":"aʿhad","language_name":"english","language_id":38}},{"id":54450,"position":3,"audio_url":"wbw/036_060_004.mp3","char_type_name":"word","page_number":444,"line_number":4,"text":"إِلَيْكُمْ","translation":{"text":"তোমাদের প্রতি","language_name":"bengali","language_id":20},"transliteration":{"text":"ilaykum","language_name":"english","language_id":38}},{"id":54451,"position":4,"audio_url":"wbw/036_060_005.mp3","char_type_name":"word","page_number":444,"line_number":4,"text":"يَـٰبَنِىٓ","translation":{"text":"হে সন্তান","language_name":"bengali","language_id":20},"transliteration":{"text":"yābanī","language_name":"english","language_id":38}},{"id":54452,"position":5,"audio_url":"wbw/036_060_006.mp3","char_type_name":"word","page_number":444,"line_number":4,"text":"ءَادَمَ","translation":{"text":"আদমের","language_name":"bengali","language_id":20},"transliteration":{"text":"ādama","language_name":"english","language_id":38}},{"id":54453,"position":6,"audio_url":"wbw/036_060_007.mp3","char_type_name":"word","page_number":444,"line_number":5,"text":"أَن","translation":{"text":"যে","language_name":"bengali","language_id":20},"transliteration":{"text":"an","language_name":"english","language_id":38}},{"id":54454,"position":7,"audio_url":"wbw/036_060_008.mp3","char_type_name":"word","page_number":444,"line_number":5,"text":"لَّا","translation":{"text":"না","language_name":"bengali","language_id":20},"transliteration":{"text":"lā","language_name":"english","language_id":38}},{"id":54455,"position":8,"audio_url":"wbw/036_060_009.mp3","char_type_name":"word","page_number":444,"line_number":5,"text":"تَعْبُدُوا۟","translation":{"text":"তোমরা দাসত্ব করো","language_name":"bengali","language_id":20},"transliteration":{"text":"taʿbudū","language_name":"english","language_id":38}},{"id":54456,"position":9,"audio_url":"wbw/036_060_010.mp3","char_type_name":"word","page_number":444,"line_number":5,"text":"ٱلشَّيْطَـٰنَ ۖ","translation":{"text":"শয়তানের","language_name":"bengali","language_id":20},"transliteration":{"text":"l-shayṭāna","language_name":"english","language_id":38}},{"id":54458,"position":10,"audio_url":"wbw/036_060_012.mp3","char_type_name":"word","page_number":444,"line_number":5,"text":"إِنَّهُۥ","translation":{"text":"সে নিশ্চয়ই","language_name":"bengali","language_id":20},"transliteration":{"text":"innahu","language_name":"english","language_id":38}},{"id":54459,"position":11,"audio_url":"wbw/036_060_013.mp3","char_type_name":"word","page_number":444,"line_number":5,"text":"لَكُمْ","translation":{"text":"তোমাদের জন্যে","language_name":"bengali","language_id":20},"transliteration":{"text":"lakum","language_name":"english","language_id":38}},{"id":54460,"position":12,"audio_url":"wbw/036_060_014.mp3","char_type_name":"word","page_number":444,"line_number":5,"text":"عَدُوٌّۭ","translation":{"text":"শত্রু","language_name":"bengali","language_id":20},"transliteration":{"text":"ʿaduwwun","language_name":"english","language_id":38}},{"id":54461,"position":13,"audio_url":"wbw/036_060_015.mp3","char_type_name":"word","page_number":444,"line_number":5,"text":"مُّبِينٌۭ","translation":{"text":"প্রকাশ্য","language_name":"bengali","language_id":20},"transliteration":{"text":"mubīnun","language_name":"english","language_id":38}},{"id":54462,"position":14,"audio_url":null,"char_type_name":"end","page_number":444,"line_number":5,"text":"٦٠","translation":{"text":"(৬০)","language_name":"bengali","language_id":20},"transliteration":{"text":null,"language_name":"english","language_id":38}}]}],"pagination":{"per_page":10,"current_page":6,"next_page":7,"total_pages":9,"total_records":83}}
