{"verses":[{"id":2341,"verse_number":91,"verse_key":"19:91","hizb_number":31,"rub_el_hizb_number":124,"ruku_number":269,"manzil_number":4,"sajdah_number":null,"page_number":311,"juz_number":16,"words":[{"id":68587,"position":1,"audio_url":"wbw/019_091_001.mp3","char_type_name":"word","page_number":311,"line_number":12,"text":"أَن","translation":{"text":"(এ কারণে) যে","language_name":"bengali","language_id":20},"transliteration":{"text":"an","language_name":"english","language_id":38}},{"id":68588,"position":2,"audio_url":"wbw/019_091_002.mp3","char_type_name":"word","page_number":311,"line_number":12,"text":"دَعَوْا۟","translation":{"text":"দাবী করছে","language_name":"bengali","language_id":20},"transliteration":{"text":"daʿaw","language_name":"english","language_id":38}},{"id":68589,"position":3,"audio_url":"wbw/019_091_003.mp3","char_type_name":"word","page_number":311,"line_number":12,"text":"لِلرَّحْمَـٰنِ","translation":{"text":"দয়াময়ের জন্যে","language_name":"bengali","language_id":20},"transliteration":{"text":"lilrraḥmāni","language_name":"english","language_id":38}},{"id":68590,"position":4,"audio_url":"wbw/019_091_004.mp3","char_type_name":"word","page_number":311,"line_number":12,"text":"وَلَدًۭا","translation":{"text":"পুত্র","language_name":"bengali","language_id":20},"transliteration":{"text":"waladan","language_name":"english","language_id":38}},{"id":68591,"position":5,"audio_url":null,"char_type_name":"end","page_number":311,"line_number":13,"text":"٩١","translation":{"text":"(৯১)","language_name":"bengali","language_id":20},"transliteration":{"text":null,"language_name":"english","language_id":38}}]},{"id":2342,"verse_number":92,"verse_key":"19:92","hizb_number":31,"rub_el_hizb_number":124,"ruku_number":269,"manzil_number":4,"sajdah_number":null,"page_number":311,"juz_number":16,"words":[{"id":68647,"position":1,"audio_url":"wbw/019_092_001.mp3","char_type_name":"word","page_number":311,"line_number":13,"text":"وَمَا","translation":{"text":"অথচ না","language_name":"bengali","language_id":20},"transliteration":{"text":"wamā","language_name":"english","language_id":38}},{"id":68648,"position":2,"audio_url":"wbw/019_092_002.mp3","char_type_name":"word","page_number":311,"line_number":13,"text":"يَنۢبَغِى","translation":{"text":"শোভা পায়","language_name":"bengali","language_id":20},"transliteration":{"text":"yanbaghī","language_name":"english","language_id":38}},{"id":68649,"position":3,"audio_url":"wbw/019_092_003.mp3","char_type_name":"word","page_number":311,"line_number":13,"text":"لِلرَّحْمَـٰنِ","translation":{"text":"দয়াময়ের জন্য","language_name":"bengali","language_id":20},"transliteration":{"text":"lilrraḥmāni","language_name":"english","language_id":38}},{"id":68650,"position":4,"audio_url":"wbw/019_092_004.mp3","char_type_name":"word","page_number":311,"line_number":13,"text":"أَن","translation":{"text":"যে","language_name":"bengali","language_id":20},"transliteration":{"text":"an","language_name":"english","language_id":38}},{"id":68651,"position":5,"audio_url":"wbw/019_092_005.mp3","char_type_name":"word","page_number":311,"line_number":13,"text":"يَتَّخِذَ","translation":{"text":"তিনি গ্রহণ করবেন","language_name":"bengali","language_id":20},"transliteration":{"text":"yattakhidha","language_name":"english","language_id":38}},{"id":68652,"position":6,"audio_url":"wbw/019_092_006.mp3","char_type_name":"word","page_number":311,"line_number":13,"text":"وَلَدًا","translation":{"text":"পুত্র","language_name":"bengali","language_id":20},"transliteration":{"text":"waladan","language_name":"english","language_id":38}},{"id":68653,"position":7,"audio_url":null,"char_type_name":"end","page_number":311,"line_number":13,"text":"٩٢","translation":{"text":"(৯২)","language_name":"bengali","language_id":20},"transliteration":{"text":null,"language_name":"english","language_id":38}}]},{"id":2343,"verse_number":93,"verse_key":"19:93","hizb_number":31,"rub_el_hizb_number":124,"ruku_number":269,"manzil_number":4,"sajdah_number":null,"page_number":311,"juz_number":16,"words":[{"id":69070,"position":1,"audio_url":"wbw/019_093_001.mp3","char_type_name":"word","page_number":311,"line_number":13,"text":"إِن","translation":{"text":"নেই","language_name":"bengali","language_id":20},"transliteration":{"text":"in","language_name":"english","language_id":38}},{"id":69071,"position":2,"audio_url":"wbw/019_093_002.mp3","char_type_name":"word","page_number":311,"line_number":13,"text":"كُلُّ","translation":{"text":"(এমন) কেউ","language_name":"bengali","language_id":20},"transliteration":{"text":"kullu","language_name":"english","language_id":38}},{"id":69072,"position":3,"audio_url":"wbw/019_093_003.mp3","char_type_name":"word","page_number":311,"line_number":13,"text":"مَن","translation":{"text":"যা কিছু","language_name":"bengali","language_id":20},"transliteration":{"text":"man","language_name":"english","language_id":38}},{"id":69073,"position":4,"audio_url":"wbw/019_093_004.mp3","char_type_name":"word","page_number":311,"line_number":13,"text":"فِى","translation":{"text":"মধ্যে আছে","language_name":"bengali","language_id":20},"transliteration":{"text":"fī","language_name":"english","language_id":38}},{"id":69074,"position":5,"audio_url":"wbw/019_093_005.mp3","char_type_name":"word","page_number":311,"line_number":14,"text":"ٱلسَّمَـٰوَٰتِ","translation":{"text":"আকাশমন্ডলীর","language_name":"bengali","language_id":20},"transliteration":{"text":"l-samāwāti","language_name":"english","language_id":38}},{"id":69075,"position":6,"audio_url":"wbw/019_093_006.mp3","char_type_name":"word","page_number":311,"line_number":14,"text":"وَٱلْأَرْضِ","translation":{"text":"ও পৃথিবীর","language_name":"bengali","language_id":20},"transliteration":{"text":"wal-arḍi","language_name":"english","language_id":38}},{"id":69076,"position":7,"audio_url":"wbw/019_093_007.mp3","char_type_name":"word","page_number":311,"line_number":14,"text":"إِلَّآ","translation":{"text":"এ ছাড়া যে","language_name":"bengali","language_id":20},"transliteration":{"text":"illā","language_name":"english","language_id":38}},{"id":69077,"position":8,"audio_url":"wbw/019_093_008.mp3","char_type_name":"word","page_number":311,"line_number":14,"text":"ءَاتِى","translation":{"text":"উপস্থিত হবে","language_name":"bengali","language_id":20},"transliteration":{"text":"ātī","language_name":"english","language_id":38}},{"id":69078,"position":9,"audio_url":"wbw/019_093_009.mp3","char_type_name":"word","page_number":311,"line_number":14,"text":"ٱلرَّحْمَـٰنِ","translation":{"text":"দয়াময়ের কাছে","language_name":"bengali","language_id":20},"transliteration":{"text":"l-raḥmāni","language_name":"english","language_id":38}},{"id":69079,"position":10,"audio_url":"wbw/019_093_010.mp3","char_type_name":"word","page_number":311,"line_number":14,"text":"عَبْدًۭا","translation":{"text":"দাসরূপে","language_name":"bengali","language_id":20},"transliteration":{"text":"ʿabdan","language_name":"english","language_id":38}},{"id":69080,"position":11,"audio_url":null,"char_type_name":"end","page_number":311,"line_number":14,"text":"٩٣","translation":{"text":"(৯৩)","language_name":"bengali","language_id":20},"transliteration":{"text":null,"language_name":"english","language_id":38}}]},{"id":2344,"verse_number":94,"verse_key":"19:94","hizb_number":31,"rub_el_hizb_number":124,"ruku_number":269,"manzil_number":4,"sajdah_number":null,"page_number":311,"juz_number":16,"words":[{"id":69648,"position":1,"audio_url":"wbw/019_094_001.mp3","char_type_name":"word","page_number":311,"line_number":14,"text":"لَّقَدْ","translation":{"text":"নিশ্চয়ই","language_name":"bengali","language_id":20},"transliteration":{"text":"laqad","language_name":"english","language_id":38}},{"id":69649,"position":2,"audio_url":"wbw/019_094_002.mp3","char_type_name":"word","page_number":311,"line_number":14,"text":"أَحْصَىٰهُمْ","translation":{"text":"তাদেরকে ঘিরে রেখেছেন তিনি","language_name":"bengali","language_id":20},"transliteration":{"text":"aḥṣāhum","language_name":"english","language_id":38}},{"id":69650,"position":3,"audio_url":"wbw/019_094_003.mp3","char_type_name":"word","page_number":311,"line_number":15,"text":"وَعَدَّهُمْ","translation":{"text":"ও গুনে রেখেছেন তাদেরকে","language_name":"bengali","language_id":20},"transliteration":{"text":"waʿaddahum","language_name":"english","language_id":38}},{"id":69651,"position":4,"audio_url":"wbw/019_094_004.mp3","char_type_name":"word","page_number":311,"line_number":15,"text":"عَدًّۭا","translation":{"text":"গণনা করে","language_name":"bengali","language_id":20},"transliteration":{"text":"ʿaddan","language_name":"english","language_id":38}},{"id":69652,"position":5,"audio_url":null,"char_type_name":"end","page_number":311,"line_number":15,"text":"٩٤","translation":{"text":"(৯৪)","language_name":"bengali","language_id":20},"transliteration":{"text":null,"language_name":"english","language_id":38}}]},{"id":2345,"verse_number":95,"verse_key":"19:95","hizb_number":31,"rub_el_hizb_number":124,"ruku_number":269,"manzil_number":4,"sajdah_number":null,"page_number":311,"juz_number":16,"words":[{"id":69734,"position":1,"audio_url":"wbw/019_095_001.mp3","char_type_name":"word","page_number":311,"line_number":15,"text":"وَكُلُّهُمْ","translation":{"text":"তাদের সকলে","language_name":"bengali","language_id":20},"transliteration":{"text":"wakulluhum","language_name":"english","language_id":38}},{"id":69735,"position":2,"audio_url":"wbw/019_095_002.mp3","char_type_name":"word","page_number":311,"line_number":15,"text":"ءَاتِيهِ","translation":{"text":"তাঁর কাছে আসবে","language_name":"bengali","language_id":20},"transliteration":{"text":"ātīhi","language_name":"english","language_id":38}},{"id":69736,"position":3,"audio_url":"wbw/019_095_003.mp3","char_type_name":"word","page_number":311,"line_number":15,"text":"يَوْمَ","translation":{"text":"দিনে","language_name":"bengali","language_id":20},"transliteration":{"text":"yawma","language_name":"english","language_id":38}},{"id":69737,"position":4,"audio_url":"wbw/019_095_004.mp3","char_type_name":"word","page_number":311,"line_number":15,"text":"ٱلْقِيَـٰمَةِ","translation":{"text":"ক্বিয়ামাতের","language_name":"bengali","language_id":20},"transliteration":{"text":"l-qiyāmati","language_name":"english","language_id":38}},{"id":69738,"position":5,"audio_url":"wbw/019_095_005.mp3","char_type_name":"word","page_number":311,"line_number":15,"text":"فَرْدًا","translation":{"text":"একাকী","language_name":"bengali","language_id":20},"transliteration":{"text":"fardan","language_name":"english","language_id":38}},{"id":69739,"position":6,"audio_url":null,"char_type_name":"end","page_number":311,"line_number":15,"text":"٩٥","translation":{"text":"(৯৫)","language_name":"bengali","language_id":20},"transliteration":{"text":null,"language_name":"english","language_id":38}}]},{"id":2346,"verse_number":96,"verse_key":"19:96","hizb_number":31,"rub_el_hizb_number":124,"ruku_number":269,"manzil_number":4,"sajdah_number":null,"page_number":312,"juz_number":16,"words":[{"id":70147,"position":1,"audio_url":"wbw/019_096_001.mp3","char_type_name":"word","page_number":312,"line_number":1,"text":"إِنَّ","translation":{"text":"নিশ্চয়ই","language_name":"bengali","language_id":20},"transliteration":{"text":"inna","language_name":"english","language_id":38}},{"id":70148,"position":2,"audio_url":"wbw/019_096_002.mp3","char_type_name":"word","page_number":312,"line_number":1,"text":"ٱلَّذِينَ","translation":{"text":"যারা","language_name":"bengali","language_id":20},"transliteration":{"text":"alladhīna","language_name":"english","language_id":38}},{"id":70149,"position":3,"audio_url":"wbw/019_096_003.mp3","char_type_name":"word","page_number":312,"line_number":1,"text":"ءَامَنُوا۟","translation":{"text":"ঈমান এনেছে","language_name":"bengali","language_id":20},"transliteration":{"text":"āmanū","language_name":"english","language_id":38}},{"id":70150,"position":4,"audio_url":"wbw/019_096_004.mp3","char_type_name":"word","page_number":312,"line_number":1,"text":"وَعَمِلُوا۟","translation":{"text":"ও কাজ করেছে","language_name":"bengali","language_id":20},"transliteration":{"text":"waʿamilū","language_name":"english","language_id":38}},{"id":70151,"position":5,"audio_url":"wbw/019_096_005.mp3","char_type_name":"word","page_number":312,"line_number":1,"text":"ٱلصَّـٰلِحَـٰتِ","translation":{"text":"সৎ","language_name":"bengali","language_id":20},"transliteration":{"text":"l-ṣāliḥāti","language_name":"english","language_id":38}},{"id":70152,"position":6,"audio_url":"wbw/019_096_006.mp3","char_type_name":"word","page_number":312,"line_number":1,"text":"سَيَجْعَلُ","translation":{"text":"অচিরেই সৃষ্টি করবেন (মানুষের মনে)","language_name":"bengali","language_id":20},"transliteration":{"text":"sayajʿalu","language_name":"english","language_id":38}},{"id":70153,"position":7,"audio_url":"wbw/019_096_007.mp3","char_type_name":"word","page_number":312,"line_number":1,"text":"لَهُمُ","translation":{"text":"তাদের জন্য","language_name":"bengali","language_id":20},"transliteration":{"text":"lahumu","language_name":"english","language_id":38}},{"id":70154,"position":8,"audio_url":"wbw/019_096_008.mp3","char_type_name":"word","page_number":312,"line_number":2,"text":"ٱلرَّحْمَـٰنُ","translation":{"text":"দয়াময়","language_name":"bengali","language_id":20},"transliteration":{"text":"l-raḥmānu","language_name":"english","language_id":38}},{"id":70155,"position":9,"audio_url":"wbw/019_096_009.mp3","char_type_name":"word","page_number":312,"line_number":2,"text":"وُدًّۭا","translation":{"text":"ভালবাসা","language_name":"bengali","language_id":20},"transliteration":{"text":"wuddan","language_name":"english","language_id":38}},{"id":70156,"position":10,"audio_url":null,"char_type_name":"end","page_number":312,"line_number":2,"text":"٩٦","translation":{"text":"(৯৬)","language_name":"bengali","language_id":20},"transliteration":{"text":null,"language_name":"english","language_id":38}}]},{"id":2347,"verse_number":97,"verse_key":"19:97","hizb_number":31,"rub_el_hizb_number":124,"ruku_number":269,"manzil_number":4,"sajdah_number":null,"page_number":312,"juz_number":16,"words":[{"id":70440,"position":1,"audio_url":"wbw/019_097_001.mp3","char_type_name":"word","page_number":312,"line_number":2,"text":"فَإِنَّمَا","translation":{"text":"সুতরাং প্রকৃতপক্ষে (হে নাবী)","language_name":"bengali","language_id":20},"transliteration":{"text":"fa-innamā","language_name":"english","language_id":38}},{"id":70441,"position":2,"audio_url":"wbw/019_097_002.mp3","char_type_name":"word","page_number":312,"line_number":2,"text":"يَسَّرْنَـٰهُ","translation":{"text":"তা আমরা সহজ করেছি","language_name":"bengali","language_id":20},"transliteration":{"text":"yassarnāhu","language_name":"english","language_id":38}},{"id":70442,"position":3,"audio_url":"wbw/019_097_003.mp3","char_type_name":"word","page_number":312,"line_number":2,"text":"بِلِسَانِكَ","translation":{"text":"তোমার ভাষার মাধ্যমে","language_name":"bengali","language_id":20},"transliteration":{"text":"bilisānika","language_name":"english","language_id":38}},{"id":70443,"position":4,"audio_url":"wbw/019_097_004.mp3","char_type_name":"word","page_number":312,"line_number":2,"text":"لِتُبَشِّرَ","translation":{"text":"যেন তুমি সুসংবাদ দাও","language_name":"bengali","language_id":20},"transliteration":{"text":"litubashira","language_name":"english","language_id":38}},{"id":70444,"position":5,"audio_url":"wbw/019_097_005.mp3","char_type_name":"word","page_number":312,"line_number":2,"text":"بِهِ","translation":{"text":"তা দিয়ে","language_name":"bengali","language_id":20},"transliteration":{"text":"bihi","language_name":"english","language_id":38}},{"id":70445,"position":6,"audio_url":"wbw/019_097_006.mp3","char_type_name":"word","page_number":312,"line_number":3,"text":"ٱلْمُتَّقِينَ","translation":{"text":"মুত্তাকীদেরকে","language_name":"bengali","language_id":20},"transliteration":{"text":"l-mutaqīna","language_name":"english","language_id":38}},{"id":70446,"position":7,"audio_url":"wbw/019_097_007.mp3","char_type_name":"word","page_number":312,"line_number":3,"text":"وَتُنذِرَ","translation":{"text":"আর তুমি করো সতর্ক","language_name":"bengali","language_id":20},"transliteration":{"text":"watundhira","language_name":"english","language_id":38}},{"id":70447,"position":8,"audio_url":"wbw/019_097_008.mp3","char_type_name":"word","page_number":312,"line_number":3,"text":"بِهِۦ","translation":{"text":"তা দিয়ে","language_name":"bengali","language_id":20},"transliteration":{"text":"bihi","language_name":"english","language_id":38}},{"id":70448,"position":9,"audio_url":"wbw/019_097_009.mp3","char_type_name":"word","page_number":312,"line_number":3,"text":"قَوْمًۭا","translation":{"text":"লোকদেরকে","language_name":"bengali","language_id":20},"transliteration":{"text":"qawman","language_name":"english","language_id":38}},{"id":70449,"position":10,"audio_url":"wbw/019_097_010.mp3","char_type_name":"word","page_number":312,"line_number":3,"text":"لُّدًّۭا","translation":{"text":"(যারা) তর্কপ্রিয়","language_name":"bengali","language_id":20},"transliteration":{"text":"luddan","language_name":"english","language_id":38}},{"id":70450,"position":11,"audio_url":null,"char_type_name":"end","page_number":312,"line_number":3,"text":"٩٧","translation":{"text":"(৯৭)","language_name":"bengali","language_id":20},"transliteration":{"text":null,"language_name":"english","language_id":38}}]},{"id":2348,"verse_number":98,"verse_key":"19:98","hizb_number":31,"rub_el_hizb_number":124,"ruku_number":269,"manzil_number":4,"sajdah_number":null,"page_number":312,"juz_number":16,"words":[{"id":70827,"position":1,"audio_url":"wbw/019_098_001.mp3","char_type_name":"word","page_number":312,"line_number":3,"text":"وَكَمْ","translation":{"text":"এবং কতই (না)","language_name":"bengali","language_id":20},"transliteration":{"text":"wakam","language_name":"english","language_id":38}},{"id":70828,"position":2,"audio_url":"wbw/019_098_002.mp3","char_type_name":"word","page_number":312,"line_number":3,"text":"أَهْلَكْنَا","translation":{"text":"আমরা ধ্বংস করেছি","language_name":"bengali","language_id":20},"transliteration":{"text":"ahlaknā","language_name":"english","language_id":38}},{"id":70829,"position":3,"audio_url":"wbw/019_098_003.mp3","char_type_name":"word","page_number":312,"line_number":3,"text":"قَبْلَهُم","translation":{"text":"তাদের পূর্বে","language_name":"bengali","language_id":20},"transliteration":{"text":"qablahum","language_name":"english","language_id":38}},{"id":70830,"position":4,"audio_url":"wbw/019_098_004.mp3","char_type_name":"word","page_number":312,"line_number":4,"text":"مِّن","translation":{"text":"হ'তে","language_name":"bengali","language_id":20},"transliteration":{"text":"min","language_name":"english","language_id":38}},{"id":70831,"position":5,"audio_url":"wbw/019_098_005.mp3","char_type_name":"word","page_number":312,"line_number":4,"text":"قَرْنٍ","translation":{"text":"মানবগোষ্ঠী","language_name":"bengali","language_id":20},"transliteration":{"text":"qarnin","language_name":"english","language_id":38}},{"id":70832,"position":6,"audio_url":"wbw/019_098_006.mp3","char_type_name":"word","page_number":312,"line_number":4,"text":"هَلْ","translation":{"text":"কি","language_name":"bengali","language_id":20},"transliteration":{"text":"hal","language_name":"english","language_id":38}},{"id":70833,"position":7,"audio_url":"wbw/019_098_007.mp3","char_type_name":"word","page_number":312,"line_number":4,"text":"تُحِسُّ","translation":{"text":"অনুভব করো (কোন চিহ্ন)","language_name":"bengali","language_id":20},"transliteration":{"text":"tuḥissu","language_name":"english","language_id":38}},{"id":70834,"position":8,"audio_url":"wbw/019_098_008.mp3","char_type_name":"word","page_number":312,"line_number":4,"text":"مِنْهُم","translation":{"text":"তাদের মধ্য হ'তে","language_name":"bengali","language_id":20},"transliteration":{"text":"min'hum","language_name":"english","language_id":38}},{"id":70835,"position":9,"audio_url":"wbw/019_098_009.mp3","char_type_name":"word","page_number":312,"line_number":4,"text":"مِّنْ","translation":{"text":"কোন","language_name":"bengali","language_id":20},"transliteration":{"text":"min","language_name":"english","language_id":38}},{"id":70836,"position":10,"audio_url":"wbw/019_098_010.mp3","char_type_name":"word","page_number":312,"line_number":4,"text":"أَحَدٍ","translation":{"text":"একজনের","language_name":"bengali","language_id":20},"transliteration":{"text":"aḥadin","language_name":"english","language_id":38}},{"id":70837,"position":11,"audio_url":"wbw/019_098_011.mp3","char_type_name":"word","page_number":312,"line_number":4,"text":"أَوْ","translation":{"text":"অথবা","language_name":"bengali","language_id":20},"transliteration":{"text":"aw","language_name":"english","language_id":38}},{"id":70838,"position":12,"audio_url":"wbw/019_098_012.mp3","char_type_name":"word","page_number":312,"line_number":4,"text":"تَسْمَعُ","translation":{"text":"শুনতে পাও","language_name":"bengali","language_id":20},"transliteration":{"text":"tasmaʿu","language_name":"english","language_id":38}},{"id":70839,"position":13,"audio_url":"wbw/019_098_013.mp3","char_type_name":"word","page_number":312,"line_number":4,"text":"لَهُمْ","translation":{"text":"তাদের থেকে","language_name":"bengali","language_id":20},"transliteration":{"text":"lahum","language_name":"english","language_id":38}},{"id":70840,"position":14,"audio_url":"wbw/019_098_014.mp3","char_type_name":"word","page_number":312,"line_number":4,"text":"رِكْزًۢا","translation":{"text":"কোন ক্ষীণ শব্দও","language_name":"bengali","language_id":20},"transliteration":{"text":"rik'zan","language_name":"english","language_id":38}},{"id":70841,"position":15,"audio_url":null,"char_type_name":"end","page_number":312,"line_number":4,"text":"٩٨","translation":{"text":"(৯৮)","language_name":"bengali","language_id":20},"transliteration":{"text":null,"language_name":"english","language_id":38}}]}],"pagination":{"per_page":10,"current_page":10,"next_page":null,"total_pages":10,"total_records":98}}
