{"verses":[{"id":5228,"verse_number":11,"verse_key":"65:11","hizb_number":56,"rub_el_hizb_number":223,"ruku_number":495,"manzil_number":7,"sajdah_number":null,"page_number":559,"juz_number":28,"words":[{"id":12733,"position":1,"audio_url":"wbw/065_011_001.mp3","verse_key":"65:11","verse_id":5228,"location":"65:11:1","text_uthmani":"رَّسُولًۭا","qpc_uthmani_hafs":"رَّسُولٗا","char_type_name":"word","page_number":559,"line_number":10,"text":"رَّسُولٗا","translation":{"text":"A Messenger","language_name":"english","language_id":38},"transliteration":{"text":"rasūlan","language_name":"english","language_id":38}},{"id":12734,"position":2,"audio_url":"wbw/065_011_002.mp3","verse_key":"65:11","verse_id":5228,"location":"65:11:2","text_uthmani":"يَتْلُوا۟","qpc_uthmani_hafs":"يَتۡلُواْ","char_type_name":"word","page_number":559,"line_number":10,"text":"يَتۡلُواْ","translation":{"text":"reciting","language_name":"english","language_id":38},"transliteration":{"text":"yatlū","language_name":"english","language_id":38}},{"id":12735,"position":3,"audio_url":"wbw/065_011_003.mp3","verse_key":"65:11","verse_id":5228,"location":"65:11:3","text_uthmani":"عَلَيْكُمْ","qpc_uthmani_hafs":"عَلَيۡكُمۡ","char_type_name":"word","page_number":559,"line_number":10,"text":"عَلَيۡكُمۡ","translation":{"text":"to you","language_name":"english","language_id":38},"transliteration":{"text":"ʿalaykum","language_name":"english","language_id":38}},{"id":12736,"position":4,"audio_url":"wbw/065_011_004.mp3","verse_key":"65:11","verse_id":5228,"location":"65:11:4","text_uthmani":"ءَايَـٰتِ","qpc_uthmani_hafs":"ءَايَٰتِ","char_type_name":"word","page_number":559,"line_number":10,"text":"ءَايَٰتِ","translation":{"text":"(the) Verses","language_name":"english","language_id":38},"transliteration":{"text":"āyāti","language_name":"english","language_id":38}},{"id":12737,"position":5,"audio_url":"wbw/065_011_005.mp3","verse_key":"65:11","verse_id":5228,"location":"65:11:5","text_uthmani":"ٱللَّهِ","qpc_uthmani_hafs":"ٱللَّهِ","char_type_name":"word","page_number":559,"line_number":10,"text":"ٱللَّهِ","translation":{"text":"(of) Allah","language_name":"english","language_id":38},"transliteration":{"text":"l-lahi","language_name":"english","language_id":38}},{"id":12738,"position":6,"audio_url":"wbw/065_011_006.mp3","verse_key":"65:11","verse_id":5228,"location":"65:11:6","text_uthmani":"مُبَيِّنَـٰتٍۢ","qpc_uthmani_hafs":"مُبَيِّنَٰتٖ","char_type_name":"word","page_number":559,"line_number":10,"text":"مُبَيِّنَٰتٖ","translation":{"text":"clear","language_name":"english","language_id":38},"transliteration":{"text":"mubayyinātin","language_name":"english","language_id":38}},{"id":12739,"position":7,"audio_url":"wbw/065_011_007.mp3","verse_key":"65:11","verse_id":5228,"location":"65:11:7","text_uthmani":"لِّيُخْرِجَ","qpc_uthmani_hafs":"لِّيُخۡرِجَ","char_type_name":"word","page_number":559,"line_number":10,"text":"لِّيُخۡرِجَ","translation":{"text":"that he may bring out","language_name":"english","language_id":38},"transliteration":{"text":"liyukh'rija","language_name":"english","language_id":38}},{"id":12740,"position":8,"audio_url":"wbw/065_011_008.mp3","verse_key":"65:11","verse_id":5228,"location":"65:11:8","text_uthmani":"ٱلَّذِينَ","qpc_uthmani_hafs":"ٱلَّذِينَ","char_type_name":"word","page_number":559,"line_number":11,"text":"ٱلَّذِينَ","translation":{"text":"those who","language_name":"english","language_id":38},"transliteration":{"text":"alladhīna","language_name":"english","language_id":38}},{"id":12741,"position":9,"audio_url":"wbw/065_011_009.mp3","verse_key":"65:11","verse_id":5228,"location":"65:11:9","text_uthmani":"ءَامَنُوا۟","qpc_uthmani_hafs":"ءَامَنُواْ","char_type_name":"word","page_number":559,"line_number":11,"text":"ءَامَنُواْ","translation":{"text":"believe","language_name":"english","language_id":38},"transliteration":{"text":"āmanū","language_name":"english","language_id":38}},{"id":12742,"position":10,"audio_url":"wbw/065_011_010.mp3","verse_key":"65:11","verse_id":5228,"location":"65:11:10","text_uthmani":"وَعَمِلُوا۟","qpc_uthmani_hafs":"وَعَمِلُواْ","char_type_name":"word","page_number":559,"line_number":11,"text":"وَعَمِلُواْ","translation":{"text":"and do","language_name":"english","language_id":38},"transliteration":{"text":"waʿamilū","language_name":"english","language_id":38}},{"id":12743,"position":11,"audio_url":"wbw/065_011_011.mp3","verse_key":"65:11","verse_id":5228,"location":"65:11:11","text_uthmani":"ٱلصَّـٰلِحَـٰتِ","qpc_uthmani_hafs":"ٱلصَّٰلِحَٰتِ","char_type_name":"word","page_number":559,"line_number":11,"text":"ٱلصَّٰلِحَٰتِ","translation":{"text":"righteous deeds","language_name":"english","language_id":38},"transliteration":{"text":"l-ṣāliḥāti","language_name":"english","language_id":38}},{"id":12744,"position":12,"audio_url":"wbw/065_011_012.mp3","verse_key":"65:11","verse_id":5228,"location":"65:11:12","text_uthmani":"مِنَ","qpc_uthmani_hafs":"مِنَ","char_type_name":"word","page_number":559,"line_number":11,"text":"مِنَ","translation":{"text":"from","language_name":"english","language_id":38},"transliteration":{"text":"mina","language_name":"english","language_id":38}},{"id":12745,"position":13,"audio_url":"wbw/065_011_013.mp3","verse_key":"65:11","verse_id":5228,"location":"65:11:13","text_uthmani":"ٱلظُّلُمَـٰتِ","qpc_uthmani_hafs":"ٱلظُّلُمَٰتِ","char_type_name":"word","page_number":559,"line_number":11,"text":"ٱلظُّلُمَٰتِ","translation":{"text":"the darkness[es]","language_name":"english","language_id":38},"transliteration":{"text":"l-ẓulumāti","language_name":"english","language_id":38}},{"id":12746,"position":14,"audio_url":"wbw/065_011_014.mp3","verse_key":"65:11","verse_id":5228,"location":"65:11:14","text_uthmani":"إِلَى","qpc_uthmani_hafs":"إِلَى","char_type_name":"word","page_number":559,"line_number":11,"text":"إِلَى","translation":{"text":"towards","language_name":"english","language_id":38},"transliteration":{"text":"ilā","language_name":"english","language_id":38}},{"id":12747,"position":15,"audio_url":"wbw/065_011_015.mp3","verse_key":"65:11","verse_id":5228,"location":"65:11:15","text_uthmani":"ٱلنُّورِ ۚ","qpc_uthmani_hafs":"ٱلنُّورِۚ","char_type_name":"word","page_number":559,"line_number":11,"text":"ٱلنُّورِۚ","translation":{"text":"the light","language_name":"english","language_id":38},"transliteration":{"text":"l-nūri","language_name":"english","language_id":38}},{"id":12749,"position":16,"audio_url":"wbw/065_011_017.mp3","verse_key":"65:11","verse_id":5228,"location":"65:11:16","text_uthmani":"وَمَن","qpc_uthmani_hafs":"وَمَن","char_type_name":"word","page_number":559,"line_number":11,"text":"وَمَن","translation":{"text":"And whoever","language_name":"english","language_id":38},"transliteration":{"text":"waman","language_name":"english","language_id":38}},{"id":12750,"position":17,"audio_url":"wbw/065_011_018.mp3","verse_key":"65:11","verse_id":5228,"location":"65:11:17","text_uthmani":"يُؤْمِنۢ","qpc_uthmani_hafs":"يُؤۡمِنۢ","char_type_name":"word","page_number":559,"line_number":11,"text":"يُؤۡمِنۢ","translation":{"text":"believes","language_name":"english","language_id":38},"transliteration":{"text":"yu'min","language_name":"english","language_id":38}},{"id":12751,"position":18,"audio_url":"wbw/065_011_019.mp3","verse_key":"65:11","verse_id":5228,"location":"65:11:18","text_uthmani":"بِٱللَّهِ","qpc_uthmani_hafs":"بِٱللَّهِ","char_type_name":"word","page_number":559,"line_number":12,"text":"بِٱللَّهِ","translation":{"text":"in Allah","language_name":"english","language_id":38},"transliteration":{"text":"bil-lahi","language_name":"english","language_id":38}},{"id":12752,"position":19,"audio_url":"wbw/065_011_020.mp3","verse_key":"65:11","verse_id":5228,"location":"65:11:19","text_uthmani":"وَيَعْمَلْ","qpc_uthmani_hafs":"وَيَعۡمَلۡ","char_type_name":"word","page_number":559,"line_number":12,"text":"وَيَعۡمَلۡ","translation":{"text":"and does","language_name":"english","language_id":38},"transliteration":{"text":"wayaʿmal","language_name":"english","language_id":38}},{"id":12753,"position":20,"audio_url":"wbw/065_011_021.mp3","verse_key":"65:11","verse_id":5228,"location":"65:11:20","text_uthmani":"صَـٰلِحًۭا","qpc_uthmani_hafs":"صَٰلِحٗا","char_type_name":"word","page_number":559,"line_number":12,"text":"صَٰلِحٗا","translation":{"text":"righteous deeds","language_name":"english","language_id":38},"transliteration":{"text":"ṣāliḥan","language_name":"english","language_id":38}},{"id":12754,"position":21,"audio_url":"wbw/065_011_022.mp3","verse_key":"65:11","verse_id":5228,"location":"65:11:21","text_uthmani":"يُدْخِلْهُ","qpc_uthmani_hafs":"يُدۡخِلۡهُ","char_type_name":"word","page_number":559,"line_number":12,"text":"يُدۡخِلۡهُ","translation":{"text":"He will admit him","language_name":"english","language_id":38},"transliteration":{"text":"yud'khil'hu","language_name":"english","language_id":38}},{"id":12755,"position":22,"audio_url":"wbw/065_011_023.mp3","verse_key":"65:11","verse_id":5228,"location":"65:11:22","text_uthmani":"جَنَّـٰتٍۢ","qpc_uthmani_hafs":"جَنَّٰتٖ","char_type_name":"word","page_number":559,"line_number":12,"text":"جَنَّٰتٖ","translation":{"text":"(into) Gardens","language_name":"english","language_id":38},"transliteration":{"text":"jannātin","language_name":"english","language_id":38}},{"id":12756,"position":23,"audio_url":"wbw/065_011_024.mp3","verse_key":"65:11","verse_id":5228,"location":"65:11:23","text_uthmani":"تَجْرِى","qpc_uthmani_hafs":"تَجۡرِي","char_type_name":"word","page_number":559,"line_number":12,"text":"تَجۡرِي","translation":{"text":"flow","language_name":"english","language_id":38},"transliteration":{"text":"tajrī","language_name":"english","language_id":38}},{"id":12757,"position":24,"audio_url":"wbw/065_011_025.mp3","verse_key":"65:11","verse_id":5228,"location":"65:11:24","text_uthmani":"مِن","qpc_uthmani_hafs":"مِن","char_type_name":"word","page_number":559,"line_number":12,"text":"مِن","translation":{"text":"from","language_name":"english","language_id":38},"transliteration":{"text":"min","language_name":"english","language_id":38}},{"id":12758,"position":25,"audio_url":"wbw/065_011_026.mp3","verse_key":"65:11","verse_id":5228,"location":"65:11:25","text_uthmani":"تَحْتِهَا","qpc_uthmani_hafs":"تَحۡتِهَا","char_type_name":"word","page_number":559,"line_number":12,"text":"تَحۡتِهَا","translation":{"text":"underneath it","language_name":"english","language_id":38},"transliteration":{"text":"taḥtihā","language_name":"english","language_id":38}},{"id":12759,"position":26,"audio_url":"wbw/065_011_027.mp3","verse_key":"65:11","verse_id":5228,"location":"65:11:26","text_uthmani":"ٱلْأَنْهَـٰرُ","qpc_uthmani_hafs":"ٱلۡأَنۡهَٰرُ","char_type_name":"word","page_number":559,"line_number":12,"text":"ٱلۡأَنۡهَٰرُ","translation":{"text":"the rivers","language_name":"english","language_id":38},"transliteration":{"text":"l-anhāru","language_name":"english","language_id":38}},{"id":12760,"position":27,"audio_url":"wbw/065_011_028.mp3","verse_key":"65:11","verse_id":5228,"location":"65:11:27","text_uthmani":"خَـٰلِدِينَ","qpc_uthmani_hafs":"خَٰلِدِينَ","char_type_name":"word","page_number":559,"line_number":12,"text":"خَٰلِدِينَ","translation":{"text":"abiding","language_name":"english","language_id":38},"transliteration":{"text":"khālidīna","language_name":"english","language_id":38}},{"id":12761,"position":28,"audio_url":"wbw/065_011_029.mp3","verse_key":"65:11","verse_id":5228,"location":"65:11:28","text_uthmani":"فِيهَآ","qpc_uthmani_hafs":"فِيهَآ","char_type_name":"word","page_number":559,"line_number":13,"text":"فِيهَآ","translation":{"text":"therein","language_name":"english","language_id":38},"transliteration":{"text":"fīhā","language_name":"english","language_id":38}},{"id":12762,"position":29,"audio_url":"wbw/065_011_030.mp3","verse_key":"65:11","verse_id":5228,"location":"65:11:29","text_uthmani":"أَبَدًۭا ۖ","qpc_uthmani_hafs":"أَبَدٗاۖ","char_type_name":"word","page_number":559,"line_number":13,"text":"أَبَدٗاۖ","translation":{"text":"forever","language_name":"english","language_id":38},"transliteration":{"text":"abadan","language_name":"english","language_id":38}},{"id":12764,"position":30,"audio_url":"wbw/065_011_032.mp3","verse_key":"65:11","verse_id":5228,"location":"65:11:30","text_uthmani":"قَدْ","qpc_uthmani_hafs":"قَدۡ","char_type_name":"word","page_number":559,"line_number":13,"text":"قَدۡ","translation":{"text":"Indeed","language_name":"english","language_id":38},"transliteration":{"text":"qad","language_name":"english","language_id":38}},{"id":12765,"position":31,"audio_url":"wbw/065_011_033.mp3","verse_key":"65:11","verse_id":5228,"location":"65:11:31","text_uthmani":"أَحْسَنَ","qpc_uthmani_hafs":"أَحۡسَنَ","char_type_name":"word","page_number":559,"line_number":13,"text":"أَحۡسَنَ","translation":{"text":"Has been (granted) good","language_name":"english","language_id":38},"transliteration":{"text":"aḥsana","language_name":"english","language_id":38}},{"id":12766,"position":32,"audio_url":"wbw/065_011_034.mp3","verse_key":"65:11","verse_id":5228,"location":"65:11:32","text_uthmani":"ٱللَّهُ","qpc_uthmani_hafs":"ٱللَّهُ","char_type_name":"word","page_number":559,"line_number":13,"text":"ٱللَّهُ","translation":{"text":"(by) Allah","language_name":"english","language_id":38},"transliteration":{"text":"l-lahu","language_name":"english","language_id":38}},{"id":12767,"position":33,"audio_url":"wbw/065_011_035.mp3","verse_key":"65:11","verse_id":5228,"location":"65:11:33","text_uthmani":"لَهُۥ","qpc_uthmani_hafs":"لَهُۥ","char_type_name":"word","page_number":559,"line_number":13,"text":"لَهُۥ","translation":{"text":"for him","language_name":"english","language_id":38},"transliteration":{"text":"lahu","language_name":"english","language_id":38}},{"id":12768,"position":34,"audio_url":"wbw/065_011_036.mp3","verse_key":"65:11","verse_id":5228,"location":"65:11:34","text_uthmani":"رِزْقًا","qpc_uthmani_hafs":"رِزۡقًا","char_type_name":"word","page_number":559,"line_number":13,"text":"رِزۡقًا","translation":{"text":"provision","language_name":"english","language_id":38},"transliteration":{"text":"riz'qan","language_name":"english","language_id":38}},{"id":12769,"position":35,"audio_url":null,"verse_key":"65:11","verse_id":5228,"location":"65:11:35","text_uthmani":"١١","qpc_uthmani_hafs":"١١","char_type_name":"end","page_number":559,"line_number":13,"text":"١١","translation":{"text":"(11)","language_name":"english","language_id":38},"transliteration":{"text":null,"language_name":"english","language_id":38}}]},{"id":5229,"verse_number":12,"verse_key":"65:12","hizb_number":56,"rub_el_hizb_number":223,"ruku_number":495,"manzil_number":7,"sajdah_number":null,"page_number":559,"juz_number":28,"words":[{"id":14030,"position":1,"audio_url":"wbw/065_012_001.mp3","verse_key":"65:12","verse_id":5229,"location":"65:12:1","text_uthmani":"ٱللَّهُ","qpc_uthmani_hafs":"ٱللَّهُ","char_type_name":"word","page_number":559,"line_number":13,"text":"ٱللَّهُ","translation":{"text":"Allah","language_name":"english","language_id":38},"transliteration":{"text":"al-lahu","language_name":"english","language_id":38}},{"id":14031,"position":2,"audio_url":"wbw/065_012_002.mp3","verse_key":"65:12","verse_id":5229,"location":"65:12:2","text_uthmani":"ٱلَّذِى","qpc_uthmani_hafs":"ٱلَّذِي","char_type_name":"word","page_number":559,"line_number":13,"text":"ٱلَّذِي","translation":{"text":"(is) He Who","language_name":"english","language_id":38},"transliteration":{"text":"alladhī","language_name":"english","language_id":38}},{"id":14032,"position":3,"audio_url":"wbw/065_012_003.mp3","verse_key":"65:12","verse_id":5229,"location":"65:12:3","text_uthmani":"خَلَقَ","qpc_uthmani_hafs":"خَلَقَ","char_type_name":"word","page_number":559,"line_number":13,"text":"خَلَقَ","translation":{"text":"created","language_name":"english","language_id":38},"transliteration":{"text":"khalaqa","language_name":"english","language_id":38}},{"id":14033,"position":4,"audio_url":"wbw/065_012_004.mp3","verse_key":"65:12","verse_id":5229,"location":"65:12:4","text_uthmani":"سَبْعَ","qpc_uthmani_hafs":"سَبۡعَ","char_type_name":"word","page_number":559,"line_number":13,"text":"سَبۡعَ","translation":{"text":"seven","language_name":"english","language_id":38},"transliteration":{"text":"sabʿa","language_name":"english","language_id":38}},{"id":14034,"position":5,"audio_url":"wbw/065_012_005.mp3","verse_key":"65:12","verse_id":5229,"location":"65:12:5","text_uthmani":"سَمَـٰوَٰتٍۢ","qpc_uthmani_hafs":"سَمَٰوَٰتٖ","char_type_name":"word","page_number":559,"line_number":13,"text":"سَمَٰوَٰتٖ","translation":{"text":"heavens","language_name":"english","language_id":38},"transliteration":{"text":"samāwātin","language_name":"english","language_id":38}},{"id":14035,"position":6,"audio_url":"wbw/065_012_006.mp3","verse_key":"65:12","verse_id":5229,"location":"65:12:6","text_uthmani":"وَمِنَ","qpc_uthmani_hafs":"وَمِنَ","char_type_name":"word","page_number":559,"line_number":14,"text":"وَمِنَ","translation":{"text":"and of","language_name":"english","language_id":38},"transliteration":{"text":"wamina","language_name":"english","language_id":38}},{"id":14036,"position":7,"audio_url":"wbw/065_012_007.mp3","verse_key":"65:12","verse_id":5229,"location":"65:12:7","text_uthmani":"ٱلْأَرْضِ","qpc_uthmani_hafs":"ٱلۡأَرۡضِ","char_type_name":"word","page_number":559,"line_number":14,"text":"ٱلۡأَرۡضِ","translation":{"text":"the earth","language_name":"english","language_id":38},"transliteration":{"text":"l-arḍi","language_name":"english","language_id":38}},{"id":14037,"position":8,"audio_url":"wbw/065_012_008.mp3","verse_key":"65:12","verse_id":5229,"location":"65:12:8","text_uthmani":"مِثْلَهُنَّ","qpc_uthmani_hafs":"مِثۡلَهُنَّۖ","char_type_name":"word","page_number":559,"line_number":14,"text":"مِثۡلَهُنَّۖ","translation":{"text":"(the) like of them","language_name":"english","language_id":38},"transliteration":{"text":"mith'lahunna","language_name":"english","language_id":38}},{"id":14038,"position":9,"audio_url":"wbw/065_012_009.mp3","verse_key":"65:12","verse_id":5229,"location":"65:12:9","text_uthmani":"يَتَنَزَّلُ","qpc_uthmani_hafs":"يَتَنَزَّلُ","char_type_name":"word","page_number":559,"line_number":14,"text":"يَتَنَزَّلُ","translation":{"text":"Descends","language_name":"english","language_id":38},"transliteration":{"text":"yatanazzalu","language_name":"english","language_id":38}},{"id":14039,"position":10,"audio_url":"wbw/065_012_010.mp3","verse_key":"65:12","verse_id":5229,"location":"65:12:10","text_uthmani":"ٱلْأَمْرُ","qpc_uthmani_hafs":"ٱلۡأَمۡرُ","char_type_name":"word","page_number":559,"line_number":14,"text":"ٱلۡأَمۡرُ","translation":{"text":"the command","language_name":"english","language_id":38},"transliteration":{"text":"l-amru","language_name":"english","language_id":38}},{"id":14040,"position":11,"audio_url":"wbw/065_012_011.mp3","verse_key":"65:12","verse_id":5229,"location":"65:12:11","text_uthmani":"بَيْنَهُنَّ","qpc_uthmani_hafs":"بَيۡنَهُنَّ","char_type_name":"word","page_number":559,"line_number":14,"text":"بَيۡنَهُنَّ","translation":{"text":"between them","language_name":"english","language_id":38},"transliteration":{"text":"baynahunna","language_name":"english","language_id":38}},{"id":14041,"position":12,"audio_url":"wbw/065_012_012.mp3","verse_key":"65:12","verse_id":5229,"location":"65:12:12","text_uthmani":"لِتَعْلَمُوٓا۟","qpc_uthmani_hafs":"لِتَعۡلَمُوٓاْ","char_type_name":"word","page_number":559,"line_number":14,"text":"لِتَعۡلَمُوٓاْ","translation":{"text":"that you may know","language_name":"english","language_id":38},"transliteration":{"text":"litaʿlamū","language_name":"english","language_id":38}},{"id":14042,"position":13,"audio_url":"wbw/065_012_013.mp3","verse_key":"65:12","verse_id":5229,"location":"65:12:13","text_uthmani":"أَنَّ","qpc_uthmani_hafs":"أَنَّ","char_type_name":"word","page_number":559,"line_number":14,"text":"أَنَّ","translation":{"text":"that","language_name":"english","language_id":38},"transliteration":{"text":"anna","language_name":"english","language_id":38}},{"id":14043,"position":14,"audio_url":"wbw/065_012_014.mp3","verse_key":"65:12","verse_id":5229,"location":"65:12:14","text_uthmani":"ٱللَّهَ","qpc_uthmani_hafs":"ٱللَّهَ","char_type_name":"word","page_number":559,"line_number":14,"text":"ٱللَّهَ","translation":{"text":"Allah","language_name":"english","language_id":38},"transliteration":{"text":"l-laha","language_name":"english","language_id":38}},{"id":14044,"position":15,"audio_url":"wbw/065_012_015.mp3","verse_key":"65:12","verse_id":5229,"location":"65:12:15","text_uthmani":"عَلَىٰ","qpc_uthmani_hafs":"عَلَىٰ","char_type_name":"word","page_number":559,"line_number":14,"text":"عَلَىٰ","translation":{"text":"(is) on","language_name":"english","language_id":38},"transliteration":{"text":"ʿalā","language_name":"english","language_id":38}},{"id":14045,"position":16,"audio_url":"wbw/065_012_016.mp3","verse_key":"65:12","verse_id":5229,"location":"65:12:16","text_uthmani":"كُلِّ","qpc_uthmani_hafs":"كُلِّ","char_type_name":"word","page_number":559,"line_number":15,"text":"كُلِّ","translation":{"text":"every","language_name":"english","language_id":38},"transliteration":{"text":"kulli","language_name":"english","language_id":38}},{"id":14046,"position":17,"audio_url":"wbw/065_012_017.mp3","verse_key":"65:12","verse_id":5229,"location":"65:12:17","text_uthmani":"شَىْءٍۢ","qpc_uthmani_hafs":"شَيۡءٖ","char_type_name":"word","page_number":559,"line_number":15,"text":"شَيۡءٖ","translation":{"text":"thing","language_name":"english","language_id":38},"transliteration":{"text":"shayin","language_name":"english","language_id":38}},{"id":14047,"position":18,"audio_url":"wbw/065_012_018.mp3","verse_key":"65:12","verse_id":5229,"location":"65:12:18","text_uthmani":"قَدِيرٌۭ","qpc_uthmani_hafs":"قَدِيرٞ","char_type_name":"word","page_number":559,"line_number":15,"text":"قَدِيرٞ","translation":{"text":"All-Powerful","language_name":"english","language_id":38},"transliteration":{"text":"qadīrun","language_name":"english","language_id":38}},{"id":14048,"position":19,"audio_url":"wbw/065_012_019.mp3","verse_key":"65:12","verse_id":5229,"location":"65:12:19","text_uthmani":"وَأَنَّ","qpc_uthmani_hafs":"وَأَنَّ","char_type_name":"word","page_number":559,"line_number":15,"text":"وَأَنَّ","translation":{"text":"And that","language_name":"english","language_id":38},"transliteration":{"text":"wa-anna","language_name":"english","language_id":38}},{"id":14049,"position":20,"audio_url":"wbw/065_012_020.mp3","verse_key":"65:12","verse_id":5229,"location":"65:12:20","text_uthmani":"ٱللَّهَ","qpc_uthmani_hafs":"ٱللَّهَ","char_type_name":"word","page_number":559,"line_number":15,"text":"ٱللَّهَ","translation":{"text":"Allah","language_name":"english","language_id":38},"transliteration":{"text":"l-laha","language_name":"english","language_id":38}},{"id":14050,"position":21,"audio_url":"wbw/065_012_021.mp3","verse_key":"65:12","verse_id":5229,"location":"65:12:21","text_uthmani":"قَدْ","qpc_uthmani_hafs":"قَدۡ","char_type_name":"word","page_number":559,"line_number":15,"text":"قَدۡ","translation":{"text":"indeed","language_name":"english","language_id":38},"transliteration":{"text":"qad","language_name":"english","language_id":38}},{"id":14051,"position":22,"audio_url":"wbw/065_012_022.mp3","verse_key":"65:12","verse_id":5229,"location":"65:12:22","text_uthmani":"أَحَاطَ","qpc_uthmani_hafs":"أَحَاطَ","char_type_name":"word","page_number":559,"line_number":15,"text":"أَحَاطَ","translation":{"text":"encompasses","language_name":"english","language_id":38},"transliteration":{"text":"aḥāṭa","language_name":"english","language_id":38}},{"id":14052,"position":23,"audio_url":"wbw/065_012_023.mp3","verse_key":"65:12","verse_id":5229,"location":"65:12:23","text_uthmani":"بِكُلِّ","qpc_uthmani_hafs":"بِكُلِّ","char_type_name":"word","page_number":559,"line_number":15,"text":"بِكُلِّ","translation":{"text":"all","language_name":"english","language_id":38},"transliteration":{"text":"bikulli","language_name":"english","language_id":38}},{"id":14053,"position":24,"audio_url":"wbw/065_012_024.mp3","verse_key":"65:12","verse_id":5229,"location":"65:12:24","text_uthmani":"شَىْءٍ","qpc_uthmani_hafs":"شَيۡءٍ","char_type_name":"word","page_number":559,"line_number":15,"text":"شَيۡءٍ","translation":{"text":"things","language_name":"english","language_id":38},"transliteration":{"text":"shayin","language_name":"english","language_id":38}},{"id":14054,"position":25,"audio_url":"wbw/065_012_025.mp3","verse_key":"65:12","verse_id":5229,"location":"65:12:25","text_uthmani":"عِلْمًۢا","qpc_uthmani_hafs":"عِلۡمَۢا","char_type_name":"word","page_number":559,"line_number":15,"text":"عِلۡمَۢا","translation":{"text":"(in) knowledge","language_name":"english","language_id":38},"transliteration":{"text":"ʿil'man","language_name":"english","language_id":38}},{"id":14055,"position":26,"audio_url":null,"verse_key":"65:12","verse_id":5229,"location":"65:12:26","text_uthmani":"١٢","qpc_uthmani_hafs":"١٢","char_type_name":"end","page_number":559,"line_number":15,"text":"١٢","translation":{"text":"(12)","language_name":"english","language_id":38},"transliteration":{"text":null,"language_name":"english","language_id":38}}]}],"pagination":{"per_page":10,"current_page":2,"next_page":null,"total_pages":2,"total_records":12}}
