{"verses":[{"id":5354,"verse_number":31,"verse_key":"69:31","hizb_number":57,"rub_el_hizb_number":227,"ruku_number":502,"manzil_number":7,"sajdah_number":null,"page_number":567,"juz_number":29,"words":[{"id":33634,"position":1,"audio_url":"wbw/069_031_001.mp3","char_type_name":"word","page_number":567,"line_number":13,"text":"ثُمَّ","translation":{"text":"তারপর","language_name":"bengali","language_id":20},"transliteration":{"text":"thumma","language_name":"english","language_id":38}},{"id":33635,"position":2,"audio_url":"wbw/069_031_002.mp3","char_type_name":"word","page_number":567,"line_number":13,"text":"ٱلْجَحِيمَ","translation":{"text":"জাহান্নামে","language_name":"bengali","language_id":20},"transliteration":{"text":"l-jaḥīma","language_name":"english","language_id":38}},{"id":33636,"position":3,"audio_url":"wbw/069_031_003.mp3","char_type_name":"word","page_number":567,"line_number":13,"text":"صَلُّوهُ","translation":{"text":"অগ্নিদগ্ধ কর.","language_name":"bengali","language_id":20},"transliteration":{"text":"ṣallūhu","language_name":"english","language_id":38}},{"id":33637,"position":4,"audio_url":null,"char_type_name":"end","page_number":567,"line_number":13,"text":"٣١","translation":{"text":"(৩১)","language_name":"bengali","language_id":20},"transliteration":{"text":null,"language_name":"english","language_id":38}}]},{"id":5355,"verse_number":32,"verse_key":"69:32","hizb_number":57,"rub_el_hizb_number":227,"ruku_number":502,"manzil_number":7,"sajdah_number":null,"page_number":567,"juz_number":29,"words":[{"id":34520,"position":1,"audio_url":"wbw/069_032_001.mp3","char_type_name":"word","page_number":567,"line_number":13,"text":"ثُمَّ","translation":{"text":"তারপর","language_name":"bengali","language_id":20},"transliteration":{"text":"thumma","language_name":"english","language_id":38}},{"id":34521,"position":2,"audio_url":"wbw/069_032_002.mp3","char_type_name":"word","page_number":567,"line_number":13,"text":"فِى","translation":{"text":"মধ্যে","language_name":"bengali","language_id":20},"transliteration":{"text":"fī","language_name":"english","language_id":38}},{"id":34522,"position":3,"audio_url":"wbw/069_032_003.mp3","char_type_name":"word","page_number":567,"line_number":13,"text":"سِلْسِلَةٍۢ","translation":{"text":"শিকল","language_name":"bengali","language_id":20},"transliteration":{"text":"sil'silatin","language_name":"english","language_id":38}},{"id":34523,"position":4,"audio_url":"wbw/069_032_004.mp3","char_type_name":"word","page_number":567,"line_number":13,"text":"ذَرْعُهَا","translation":{"text":"তার দীর্ঘতা","language_name":"bengali","language_id":20},"transliteration":{"text":"dharʿuhā","language_name":"english","language_id":38}},{"id":34524,"position":5,"audio_url":"wbw/069_032_005.mp3","char_type_name":"word","page_number":567,"line_number":14,"text":"سَبْعُونَ","translation":{"text":"সত্তর","language_name":"bengali","language_id":20},"transliteration":{"text":"sabʿūna","language_name":"english","language_id":38}},{"id":34525,"position":6,"audio_url":"wbw/069_032_006.mp3","char_type_name":"word","page_number":567,"line_number":14,"text":"ذِرَاعًۭا","translation":{"text":"হাত","language_name":"bengali","language_id":20},"transliteration":{"text":"dhirāʿan","language_name":"english","language_id":38}},{"id":34526,"position":7,"audio_url":"wbw/069_032_007.mp3","char_type_name":"word","page_number":567,"line_number":14,"text":"فَٱسْلُكُوهُ","translation":{"text":"অতংপর তাকে বেধে ফেল\"","language_name":"bengali","language_id":20},"transliteration":{"text":"fa-us'lukūhu","language_name":"english","language_id":38}},{"id":34527,"position":8,"audio_url":null,"char_type_name":"end","page_number":567,"line_number":14,"text":"٣٢","translation":{"text":"(৩২)","language_name":"bengali","language_id":20},"transliteration":{"text":null,"language_name":"english","language_id":38}}]},{"id":5356,"verse_number":33,"verse_key":"69:33","hizb_number":57,"rub_el_hizb_number":227,"ruku_number":502,"manzil_number":7,"sajdah_number":null,"page_number":567,"juz_number":29,"words":[{"id":35527,"position":1,"audio_url":"wbw/069_033_001.mp3","char_type_name":"word","page_number":567,"line_number":14,"text":"إِنَّهُۥ","translation":{"text":"সে নিশ্চয়","language_name":"bengali","language_id":20},"transliteration":{"text":"innahu","language_name":"english","language_id":38}},{"id":35528,"position":2,"audio_url":"wbw/069_033_002.mp3","char_type_name":"word","page_number":567,"line_number":14,"text":"كَانَ","translation":{"text":"ছিল","language_name":"bengali","language_id":20},"transliteration":{"text":"kāna","language_name":"english","language_id":38}},{"id":35529,"position":3,"audio_url":"wbw/069_033_003.mp3","char_type_name":"word","page_number":567,"line_number":14,"text":"لَا","translation":{"text":"না","language_name":"bengali","language_id":20},"transliteration":{"text":"lā","language_name":"english","language_id":38}},{"id":35530,"position":4,"audio_url":"wbw/069_033_004.mp3","char_type_name":"word","page_number":567,"line_number":14,"text":"يُؤْمِنُ","translation":{"text":"বিশ্বাসী","language_name":"bengali","language_id":20},"transliteration":{"text":"yu'minu","language_name":"english","language_id":38}},{"id":35531,"position":5,"audio_url":"wbw/069_033_005.mp3","char_type_name":"word","page_number":567,"line_number":14,"text":"بِٱللَّهِ","translation":{"text":"আল্লাহতে","language_name":"bengali","language_id":20},"transliteration":{"text":"bil-lahi","language_name":"english","language_id":38}},{"id":35532,"position":6,"audio_url":"wbw/069_033_006.mp3","char_type_name":"word","page_number":567,"line_number":14,"text":"ٱلْعَظِيمِ","translation":{"text":"মহান,","language_name":"bengali","language_id":20},"transliteration":{"text":"l-ʿaẓīmi","language_name":"english","language_id":38}},{"id":35533,"position":7,"audio_url":null,"char_type_name":"end","page_number":567,"line_number":14,"text":"٣٣","translation":{"text":"(৩৩)","language_name":"bengali","language_id":20},"transliteration":{"text":null,"language_name":"english","language_id":38}}]},{"id":5357,"verse_number":34,"verse_key":"69:34","hizb_number":57,"rub_el_hizb_number":227,"ruku_number":502,"manzil_number":7,"sajdah_number":null,"page_number":567,"juz_number":29,"words":[{"id":36445,"position":1,"audio_url":"wbw/069_034_001.mp3","char_type_name":"word","page_number":567,"line_number":15,"text":"وَلَا","translation":{"text":"আর (করেনি) না","language_name":"bengali","language_id":20},"transliteration":{"text":"walā","language_name":"english","language_id":38}},{"id":36446,"position":2,"audio_url":"wbw/069_034_002.mp3","char_type_name":"word","page_number":567,"line_number":15,"text":"يَحُضُّ","translation":{"text":"উৎসাহ দিত","language_name":"bengali","language_id":20},"transliteration":{"text":"yaḥuḍḍu","language_name":"english","language_id":38}},{"id":36447,"position":3,"audio_url":"wbw/069_034_003.mp3","char_type_name":"word","page_number":567,"line_number":15,"text":"عَلَىٰ","translation":{"text":"উপর","language_name":"bengali","language_id":20},"transliteration":{"text":"ʿalā","language_name":"english","language_id":38}},{"id":36448,"position":4,"audio_url":"wbw/069_034_004.mp3","char_type_name":"word","page_number":567,"line_number":15,"text":"طَعَامِ","translation":{"text":"খাওয়ানোর","language_name":"bengali","language_id":20},"transliteration":{"text":"ṭaʿāmi","language_name":"english","language_id":38}},{"id":36449,"position":5,"audio_url":"wbw/069_034_005.mp3","char_type_name":"word","page_number":567,"line_number":15,"text":"ٱلْمِسْكِينِ","translation":{"text":"মিসকিনকে","language_name":"bengali","language_id":20},"transliteration":{"text":"l-mis'kīni","language_name":"english","language_id":38}},{"id":36450,"position":6,"audio_url":null,"char_type_name":"end","page_number":567,"line_number":15,"text":"٣٤","translation":{"text":"(৩৪)","language_name":"bengali","language_id":20},"transliteration":{"text":null,"language_name":"english","language_id":38}}]},{"id":5358,"verse_number":35,"verse_key":"69:35","hizb_number":57,"rub_el_hizb_number":227,"ruku_number":502,"manzil_number":7,"sajdah_number":null,"page_number":567,"juz_number":29,"words":[{"id":37301,"position":1,"audio_url":"wbw/069_035_001.mp3","char_type_name":"word","page_number":567,"line_number":15,"text":"فَلَيْسَ","translation":{"text":"নাই অতএব","language_name":"bengali","language_id":20},"transliteration":{"text":"falaysa","language_name":"english","language_id":38}},{"id":37302,"position":2,"audio_url":"wbw/069_035_002.mp3","char_type_name":"word","page_number":567,"line_number":15,"text":"لَهُ","translation":{"text":"তার জন্য","language_name":"bengali","language_id":20},"transliteration":{"text":"lahu","language_name":"english","language_id":38}},{"id":37303,"position":3,"audio_url":"wbw/069_035_003.mp3","char_type_name":"word","page_number":567,"line_number":15,"text":"ٱلْيَوْمَ","translation":{"text":"আজ","language_name":"bengali","language_id":20},"transliteration":{"text":"l-yawma","language_name":"english","language_id":38}},{"id":37304,"position":4,"audio_url":"wbw/069_035_004.mp3","char_type_name":"word","page_number":567,"line_number":15,"text":"هَـٰهُنَا","translation":{"text":"এখানে","language_name":"bengali","language_id":20},"transliteration":{"text":"hāhunā","language_name":"english","language_id":38}},{"id":37305,"position":5,"audio_url":"wbw/069_035_005.mp3","char_type_name":"word","page_number":567,"line_number":15,"text":"حَمِيمٌۭ","translation":{"text":"কোন অন্তরঙ্গ বন্ধু,","language_name":"bengali","language_id":20},"transliteration":{"text":"ḥamīmun","language_name":"english","language_id":38}},{"id":37306,"position":6,"audio_url":null,"char_type_name":"end","page_number":567,"line_number":15,"text":"٣٥","translation":{"text":"(৩৫)","language_name":"bengali","language_id":20},"transliteration":{"text":null,"language_name":"english","language_id":38}}]},{"id":5359,"verse_number":36,"verse_key":"69:36","hizb_number":57,"rub_el_hizb_number":227,"ruku_number":502,"manzil_number":7,"sajdah_number":null,"page_number":568,"juz_number":29,"words":[{"id":38032,"position":1,"audio_url":"wbw/069_036_001.mp3","char_type_name":"word","page_number":568,"line_number":1,"text":"وَلَا","translation":{"text":"এবং না","language_name":"bengali","language_id":20},"transliteration":{"text":"walā","language_name":"english","language_id":38}},{"id":38033,"position":2,"audio_url":"wbw/069_036_002.mp3","char_type_name":"word","page_number":568,"line_number":1,"text":"طَعَامٌ","translation":{"text":"খাবার","language_name":"bengali","language_id":20},"transliteration":{"text":"ṭaʿāmun","language_name":"english","language_id":38}},{"id":38034,"position":3,"audio_url":"wbw/069_036_003.mp3","char_type_name":"word","page_number":568,"line_number":1,"text":"إِلَّا","translation":{"text":"ছাড়া","language_name":"bengali","language_id":20},"transliteration":{"text":"illā","language_name":"english","language_id":38}},{"id":38035,"position":4,"audio_url":"wbw/069_036_004.mp3","char_type_name":"word","page_number":568,"line_number":1,"text":"مِنْ","translation":{"text":"থেকে","language_name":"bengali","language_id":20},"transliteration":{"text":"min","language_name":"english","language_id":38}},{"id":38036,"position":5,"audio_url":"wbw/069_036_005.mp3","char_type_name":"word","page_number":568,"line_number":1,"text":"غِسْلِينٍۢ","translation":{"text":"ক্ষতনিংস্রিত রস","language_name":"bengali","language_id":20},"transliteration":{"text":"ghis'līnin","language_name":"english","language_id":38}},{"id":38037,"position":6,"audio_url":null,"char_type_name":"end","page_number":568,"line_number":1,"text":"٣٦","translation":{"text":"(৩৬)","language_name":"bengali","language_id":20},"transliteration":{"text":null,"language_name":"english","language_id":38}}]},{"id":5360,"verse_number":37,"verse_key":"69:37","hizb_number":57,"rub_el_hizb_number":227,"ruku_number":502,"manzil_number":7,"sajdah_number":null,"page_number":568,"juz_number":29,"words":[{"id":38955,"position":1,"audio_url":"wbw/069_037_001.mp3","char_type_name":"word","page_number":568,"line_number":1,"text":"لَّا","translation":{"text":"না","language_name":"bengali","language_id":20},"transliteration":{"text":"lā","language_name":"english","language_id":38}},{"id":38956,"position":2,"audio_url":"wbw/069_037_002.mp3","char_type_name":"word","page_number":568,"line_number":1,"text":"يَأْكُلُهُۥٓ","translation":{"text":"তা খায়","language_name":"bengali","language_id":20},"transliteration":{"text":"yakuluhu","language_name":"english","language_id":38}},{"id":38957,"position":3,"audio_url":"wbw/069_037_003.mp3","char_type_name":"word","page_number":568,"line_number":1,"text":"إِلَّا","translation":{"text":"ছাড়া","language_name":"bengali","language_id":20},"transliteration":{"text":"illā","language_name":"english","language_id":38}},{"id":38958,"position":4,"audio_url":"wbw/069_037_004.mp3","char_type_name":"word","page_number":568,"line_number":1,"text":"ٱلْخَـٰطِـُٔونَ","translation":{"text":"অপরাধীরা","language_name":"bengali","language_id":20},"transliteration":{"text":"l-khāṭiūna","language_name":"english","language_id":38}},{"id":38959,"position":5,"audio_url":null,"char_type_name":"end","page_number":568,"line_number":1,"text":"٣٧","translation":{"text":"(৩৭)","language_name":"bengali","language_id":20},"transliteration":{"text":null,"language_name":"english","language_id":38}}]},{"id":5361,"verse_number":38,"verse_key":"69:38","hizb_number":57,"rub_el_hizb_number":227,"ruku_number":503,"manzil_number":7,"sajdah_number":null,"page_number":568,"juz_number":29,"words":[{"id":39803,"position":1,"audio_url":"wbw/069_038_001.mp3","char_type_name":"word","page_number":568,"line_number":1,"text":"فَلَآ","translation":{"text":"না অতংপর","language_name":"bengali","language_id":20},"transliteration":{"text":"falā","language_name":"english","language_id":38}},{"id":39804,"position":2,"audio_url":"wbw/069_038_002.mp3","char_type_name":"word","page_number":568,"line_number":1,"text":"أُقْسِمُ","translation":{"text":"আমি শপথ করে বলছি","language_name":"bengali","language_id":20},"transliteration":{"text":"uq'simu","language_name":"english","language_id":38}},{"id":39805,"position":3,"audio_url":"wbw/069_038_003.mp3","char_type_name":"word","page_number":568,"line_number":2,"text":"بِمَا","translation":{"text":"যা","language_name":"bengali","language_id":20},"transliteration":{"text":"bimā","language_name":"english","language_id":38}},{"id":39806,"position":4,"audio_url":"wbw/069_038_004.mp3","char_type_name":"word","page_number":568,"line_number":2,"text":"تُبْصِرُونَ","translation":{"text":"তুমি দেখো,","language_name":"bengali","language_id":20},"transliteration":{"text":"tub'ṣirūna","language_name":"english","language_id":38}},{"id":39807,"position":5,"audio_url":null,"char_type_name":"end","page_number":568,"line_number":2,"text":"٣٨","translation":{"text":"(৩৮)","language_name":"bengali","language_id":20},"transliteration":{"text":null,"language_name":"english","language_id":38}}]},{"id":5362,"verse_number":39,"verse_key":"69:39","hizb_number":57,"rub_el_hizb_number":227,"ruku_number":503,"manzil_number":7,"sajdah_number":null,"page_number":568,"juz_number":29,"words":[{"id":40595,"position":1,"audio_url":"wbw/069_039_001.mp3","char_type_name":"word","page_number":568,"line_number":2,"text":"وَمَا","translation":{"text":"এবং যা","language_name":"bengali","language_id":20},"transliteration":{"text":"wamā","language_name":"english","language_id":38}},{"id":40596,"position":2,"audio_url":"wbw/069_039_002.mp3","char_type_name":"word","page_number":568,"line_number":2,"text":"لَا","translation":{"text":"না","language_name":"bengali","language_id":20},"transliteration":{"text":"lā","language_name":"english","language_id":38}},{"id":40597,"position":3,"audio_url":"wbw/069_039_003.mp3","char_type_name":"word","page_number":568,"line_number":2,"text":"تُبْصِرُونَ","translation":{"text":"তুমি দেখো,","language_name":"bengali","language_id":20},"transliteration":{"text":"tub'ṣirūna","language_name":"english","language_id":38}},{"id":40598,"position":4,"audio_url":null,"char_type_name":"end","page_number":568,"line_number":2,"text":"٣٩","translation":{"text":"(৩৯)","language_name":"bengali","language_id":20},"transliteration":{"text":null,"language_name":"english","language_id":38}}]},{"id":5363,"verse_number":40,"verse_key":"69:40","hizb_number":57,"rub_el_hizb_number":227,"ruku_number":503,"manzil_number":7,"sajdah_number":null,"page_number":568,"juz_number":29,"words":[{"id":41152,"position":1,"audio_url":"wbw/069_040_001.mp3","char_type_name":"word","page_number":568,"line_number":2,"text":"إِنَّهُۥ","translation":{"text":"নিশ্চয় তা","language_name":"bengali","language_id":20},"transliteration":{"text":"innahu","language_name":"english","language_id":38}},{"id":41153,"position":2,"audio_url":"wbw/069_040_002.mp3","char_type_name":"word","page_number":568,"line_number":2,"text":"لَقَوْلُ","translation":{"text":"বানী অবশ্যই","language_name":"bengali","language_id":20},"transliteration":{"text":"laqawlu","language_name":"english","language_id":38}},{"id":41154,"position":3,"audio_url":"wbw/069_040_003.mp3","char_type_name":"word","page_number":568,"line_number":2,"text":"رَسُولٍۢ","translation":{"text":"একজন রসূল (এর)","language_name":"bengali","language_id":20},"transliteration":{"text":"rasūlin","language_name":"english","language_id":38}},{"id":41155,"position":4,"audio_url":"wbw/069_040_004.mp3","char_type_name":"word","page_number":568,"line_number":2,"text":"كَرِيمٍۢ","translation":{"text":"সম্মানিত","language_name":"bengali","language_id":20},"transliteration":{"text":"karīmin","language_name":"english","language_id":38}},{"id":41156,"position":5,"audio_url":null,"char_type_name":"end","page_number":568,"line_number":2,"text":"٤٠","translation":{"text":"(৪০)","language_name":"bengali","language_id":20},"transliteration":{"text":null,"language_name":"english","language_id":38}}]}],"pagination":{"per_page":10,"current_page":4,"next_page":5,"total_pages":6,"total_records":52}}
