{"verses":[{"id":3657,"verse_number":51,"verse_key":"34:51","hizb_number":44,"rub_el_hizb_number":174,"ruku_number":377,"manzil_number":5,"sajdah_number":null,"page_number":434,"juz_number":22,"words":[{"id":49553,"position":1,"audio_url":"wbw/034_051_001.mp3","verse_key":"34:51","verse_id":3657,"location":"34:51:1","text_uthmani":"وَلَوْ","qpc_uthmani_hafs":"وَلَوۡ","char_type_name":"word","page_number":434,"line_number":3,"text":"وَلَوۡ","translation":{"text":"And if","language_name":"english","language_id":38},"transliteration":{"text":"walaw","language_name":"english","language_id":38}},{"id":49554,"position":2,"audio_url":"wbw/034_051_002.mp3","verse_key":"34:51","verse_id":3657,"location":"34:51:2","text_uthmani":"تَرَىٰٓ","qpc_uthmani_hafs":"تَرَىٰٓ","char_type_name":"word","page_number":434,"line_number":3,"text":"تَرَىٰٓ","translation":{"text":"you (could) see","language_name":"english","language_id":38},"transliteration":{"text":"tarā","language_name":"english","language_id":38}},{"id":49555,"position":3,"audio_url":"wbw/034_051_003.mp3","verse_key":"34:51","verse_id":3657,"location":"34:51:3","text_uthmani":"إِذْ","qpc_uthmani_hafs":"إِذۡ","char_type_name":"word","page_number":434,"line_number":3,"text":"إِذۡ","translation":{"text":"when","language_name":"english","language_id":38},"transliteration":{"text":"idh","language_name":"english","language_id":38}},{"id":49556,"position":4,"audio_url":"wbw/034_051_004.mp3","verse_key":"34:51","verse_id":3657,"location":"34:51:4","text_uthmani":"فَزِعُوا۟","qpc_uthmani_hafs":"فَزِعُواْ","char_type_name":"word","page_number":434,"line_number":3,"text":"فَزِعُواْ","translation":{"text":"they will be terrified","language_name":"english","language_id":38},"transliteration":{"text":"faziʿū","language_name":"english","language_id":38}},{"id":49557,"position":5,"audio_url":"wbw/034_051_005.mp3","verse_key":"34:51","verse_id":3657,"location":"34:51:5","text_uthmani":"فَلَا","qpc_uthmani_hafs":"فَلَا","char_type_name":"word","page_number":434,"line_number":3,"text":"فَلَا","translation":{"text":"but (there will be) no","language_name":"english","language_id":38},"transliteration":{"text":"falā","language_name":"english","language_id":38}},{"id":49558,"position":6,"audio_url":"wbw/034_051_006.mp3","verse_key":"34:51","verse_id":3657,"location":"34:51:6","text_uthmani":"فَوْتَ","qpc_uthmani_hafs":"فَوۡتَ","char_type_name":"word","page_number":434,"line_number":3,"text":"فَوۡتَ","translation":{"text":"escape","language_name":"english","language_id":38},"transliteration":{"text":"fawta","language_name":"english","language_id":38}},{"id":49559,"position":7,"audio_url":"wbw/034_051_007.mp3","verse_key":"34:51","verse_id":3657,"location":"34:51:7","text_uthmani":"وَأُخِذُوا۟","qpc_uthmani_hafs":"وَأُخِذُواْ","char_type_name":"word","page_number":434,"line_number":3,"text":"وَأُخِذُواْ","translation":{"text":"and they will be seized","language_name":"english","language_id":38},"transliteration":{"text":"wa-ukhidhū","language_name":"english","language_id":38}},{"id":49560,"position":8,"audio_url":"wbw/034_051_008.mp3","verse_key":"34:51","verse_id":3657,"location":"34:51:8","text_uthmani":"مِن","qpc_uthmani_hafs":"مِن","char_type_name":"word","page_number":434,"line_number":3,"text":"مِن","translation":{"text":"from","language_name":"english","language_id":38},"transliteration":{"text":"min","language_name":"english","language_id":38}},{"id":49561,"position":9,"audio_url":"wbw/034_051_009.mp3","verse_key":"34:51","verse_id":3657,"location":"34:51:9","text_uthmani":"مَّكَانٍۢ","qpc_uthmani_hafs":"مَّكَانٖ","char_type_name":"word","page_number":434,"line_number":4,"text":"مَّكَانٖ","translation":{"text":"a place","language_name":"english","language_id":38},"transliteration":{"text":"makānin","language_name":"english","language_id":38}},{"id":49562,"position":10,"audio_url":"wbw/034_051_010.mp3","verse_key":"34:51","verse_id":3657,"location":"34:51:10","text_uthmani":"قَرِيبٍۢ","qpc_uthmani_hafs":"قَرِيبٖ","char_type_name":"word","page_number":434,"line_number":4,"text":"قَرِيبٖ","translation":{"text":"near","language_name":"english","language_id":38},"transliteration":{"text":"qarībin","language_name":"english","language_id":38}},{"id":49563,"position":11,"audio_url":null,"verse_key":"34:51","verse_id":3657,"location":"34:51:11","text_uthmani":"٥١","qpc_uthmani_hafs":"٥١","char_type_name":"end","page_number":434,"line_number":4,"text":"٥١","translation":{"text":"(51)","language_name":"english","language_id":38},"transliteration":{"text":null,"language_name":"english","language_id":38}}]},{"id":3658,"verse_number":52,"verse_key":"34:52","hizb_number":44,"rub_el_hizb_number":174,"ruku_number":377,"manzil_number":5,"sajdah_number":null,"page_number":434,"juz_number":22,"words":[{"id":49798,"position":1,"audio_url":"wbw/034_052_001.mp3","verse_key":"34:52","verse_id":3658,"location":"34:52:1","text_uthmani":"وَقَالُوٓا۟","qpc_uthmani_hafs":"وَقَالُوٓاْ","char_type_name":"word","page_number":434,"line_number":4,"text":"وَقَالُوٓاْ","translation":{"text":"And they will say","language_name":"english","language_id":38},"transliteration":{"text":"waqālū","language_name":"english","language_id":38}},{"id":49799,"position":2,"audio_url":"wbw/034_052_002.mp3","verse_key":"34:52","verse_id":3658,"location":"34:52:2","text_uthmani":"ءَامَنَّا","qpc_uthmani_hafs":"ءَامَنَّا","char_type_name":"word","page_number":434,"line_number":4,"text":"ءَامَنَّا","translation":{"text":"We believe","language_name":"english","language_id":38},"transliteration":{"text":"āmannā","language_name":"english","language_id":38}},{"id":49800,"position":3,"audio_url":"wbw/034_052_003.mp3","verse_key":"34:52","verse_id":3658,"location":"34:52:3","text_uthmani":"بِهِۦ","qpc_uthmani_hafs":"بِهِۦ","char_type_name":"word","page_number":434,"line_number":4,"text":"بِهِۦ","translation":{"text":"in it","language_name":"english","language_id":38},"transliteration":{"text":"bihi","language_name":"english","language_id":38}},{"id":49801,"position":4,"audio_url":"wbw/034_052_004.mp3","verse_key":"34:52","verse_id":3658,"location":"34:52:4","text_uthmani":"وَأَنَّىٰ","qpc_uthmani_hafs":"وَأَنَّىٰ","char_type_name":"word","page_number":434,"line_number":4,"text":"وَأَنَّىٰ","translation":{"text":"But how","language_name":"english","language_id":38},"transliteration":{"text":"wa-annā","language_name":"english","language_id":38}},{"id":49802,"position":5,"audio_url":"wbw/034_052_005.mp3","verse_key":"34:52","verse_id":3658,"location":"34:52:5","text_uthmani":"لَهُمُ","qpc_uthmani_hafs":"لَهُمُ","char_type_name":"word","page_number":434,"line_number":4,"text":"لَهُمُ","translation":{"text":"for them","language_name":"english","language_id":38},"transliteration":{"text":"lahumu","language_name":"english","language_id":38}},{"id":49803,"position":6,"audio_url":"wbw/034_052_006.mp3","verse_key":"34:52","verse_id":3658,"location":"34:52:6","text_uthmani":"ٱلتَّنَاوُشُ","qpc_uthmani_hafs":"ٱلتَّنَاوُشُ","char_type_name":"word","page_number":434,"line_number":4,"text":"ٱلتَّنَاوُشُ","translation":{"text":"(will be) the receiving","language_name":"english","language_id":38},"transliteration":{"text":"l-tanāwushu","language_name":"english","language_id":38}},{"id":49804,"position":7,"audio_url":"wbw/034_052_007.mp3","verse_key":"34:52","verse_id":3658,"location":"34:52:7","text_uthmani":"مِن","qpc_uthmani_hafs":"مِن","char_type_name":"word","page_number":434,"line_number":4,"text":"مِن","translation":{"text":"from","language_name":"english","language_id":38},"transliteration":{"text":"min","language_name":"english","language_id":38}},{"id":49805,"position":8,"audio_url":"wbw/034_052_008.mp3","verse_key":"34:52","verse_id":3658,"location":"34:52:8","text_uthmani":"مَّكَانٍۭ","qpc_uthmani_hafs":"مَّكَانِۭ","char_type_name":"word","page_number":434,"line_number":5,"text":"مَّكَانِۭ","translation":{"text":"a place","language_name":"english","language_id":38},"transliteration":{"text":"makānin","language_name":"english","language_id":38}},{"id":49806,"position":9,"audio_url":"wbw/034_052_009.mp3","verse_key":"34:52","verse_id":3658,"location":"34:52:9","text_uthmani":"بَعِيدٍۢ","qpc_uthmani_hafs":"بَعِيدٖ","char_type_name":"word","page_number":434,"line_number":5,"text":"بَعِيدٖ","translation":{"text":"far off","language_name":"english","language_id":38},"transliteration":{"text":"baʿīdin","language_name":"english","language_id":38}},{"id":49807,"position":10,"audio_url":null,"verse_key":"34:52","verse_id":3658,"location":"34:52:10","text_uthmani":"٥٢","qpc_uthmani_hafs":"٥٢","char_type_name":"end","page_number":434,"line_number":5,"text":"٥٢","translation":{"text":"(52)","language_name":"english","language_id":38},"transliteration":{"text":null,"language_name":"english","language_id":38}}]},{"id":3659,"verse_number":53,"verse_key":"34:53","hizb_number":44,"rub_el_hizb_number":174,"ruku_number":377,"manzil_number":5,"sajdah_number":null,"page_number":434,"juz_number":22,"words":[{"id":50841,"position":1,"audio_url":"wbw/034_053_001.mp3","verse_key":"34:53","verse_id":3659,"location":"34:53:1","text_uthmani":"وَقَدْ","qpc_uthmani_hafs":"وَقَدۡ","char_type_name":"word","page_number":434,"line_number":5,"text":"وَقَدۡ","translation":{"text":"And certainly","language_name":"english","language_id":38},"transliteration":{"text":"waqad","language_name":"english","language_id":38}},{"id":50842,"position":2,"audio_url":"wbw/034_053_002.mp3","verse_key":"34:53","verse_id":3659,"location":"34:53:2","text_uthmani":"كَفَرُوا۟","qpc_uthmani_hafs":"كَفَرُواْ","char_type_name":"word","page_number":434,"line_number":5,"text":"كَفَرُواْ","translation":{"text":"they disbelieved","language_name":"english","language_id":38},"transliteration":{"text":"kafarū","language_name":"english","language_id":38}},{"id":50843,"position":3,"audio_url":"wbw/034_053_003.mp3","verse_key":"34:53","verse_id":3659,"location":"34:53:3","text_uthmani":"بِهِۦ","qpc_uthmani_hafs":"بِهِۦ","char_type_name":"word","page_number":434,"line_number":5,"text":"بِهِۦ","translation":{"text":"in it","language_name":"english","language_id":38},"transliteration":{"text":"bihi","language_name":"english","language_id":38}},{"id":50844,"position":4,"audio_url":"wbw/034_053_004.mp3","verse_key":"34:53","verse_id":3659,"location":"34:53:4","text_uthmani":"مِن","qpc_uthmani_hafs":"مِن","char_type_name":"word","page_number":434,"line_number":5,"text":"مِن","translation":{"text":"before","language_name":"english","language_id":38},"transliteration":{"text":"min","language_name":"english","language_id":38}},{"id":50845,"position":5,"audio_url":"wbw/034_053_005.mp3","verse_key":"34:53","verse_id":3659,"location":"34:53:5","text_uthmani":"قَبْلُ ۖ","qpc_uthmani_hafs":"قَبۡلُۖ","char_type_name":"word","page_number":434,"line_number":5,"text":"قَبۡلُۖ","translation":{"text":"before","language_name":"english","language_id":38},"transliteration":{"text":"qablu","language_name":"english","language_id":38}},{"id":50847,"position":6,"audio_url":"wbw/034_053_007.mp3","verse_key":"34:53","verse_id":3659,"location":"34:53:6","text_uthmani":"وَيَقْذِفُونَ","qpc_uthmani_hafs":"وَيَقۡذِفُونَ","char_type_name":"word","page_number":434,"line_number":5,"text":"وَيَقۡذِفُونَ","translation":{"text":"And they utter conjectures","language_name":"english","language_id":38},"transliteration":{"text":"wayaqdhifūna","language_name":"english","language_id":38}},{"id":50848,"position":7,"audio_url":"wbw/034_053_008.mp3","verse_key":"34:53","verse_id":3659,"location":"34:53:7","text_uthmani":"بِٱلْغَيْبِ","qpc_uthmani_hafs":"بِٱلۡغَيۡبِ","char_type_name":"word","page_number":434,"line_number":6,"text":"بِٱلۡغَيۡبِ","translation":{"text":"about the unseen","language_name":"english","language_id":38},"transliteration":{"text":"bil-ghaybi","language_name":"english","language_id":38}},{"id":50849,"position":8,"audio_url":"wbw/034_053_009.mp3","verse_key":"34:53","verse_id":3659,"location":"34:53:8","text_uthmani":"مِن","qpc_uthmani_hafs":"مِن","char_type_name":"word","page_number":434,"line_number":6,"text":"مِن","translation":{"text":"from","language_name":"english","language_id":38},"transliteration":{"text":"min","language_name":"english","language_id":38}},{"id":50850,"position":9,"audio_url":"wbw/034_053_010.mp3","verse_key":"34:53","verse_id":3659,"location":"34:53:9","text_uthmani":"مَّكَانٍۭ","qpc_uthmani_hafs":"مَّكَانِۭ","char_type_name":"word","page_number":434,"line_number":6,"text":"مَّكَانِۭ","translation":{"text":"a place","language_name":"english","language_id":38},"transliteration":{"text":"makānin","language_name":"english","language_id":38}},{"id":50851,"position":10,"audio_url":"wbw/034_053_011.mp3","verse_key":"34:53","verse_id":3659,"location":"34:53:10","text_uthmani":"بَعِيدٍۢ","qpc_uthmani_hafs":"بَعِيدٖ","char_type_name":"word","page_number":434,"line_number":6,"text":"بَعِيدٖ","translation":{"text":"far off","language_name":"english","language_id":38},"transliteration":{"text":"baʿīdin","language_name":"english","language_id":38}},{"id":50852,"position":11,"audio_url":null,"verse_key":"34:53","verse_id":3659,"location":"34:53:11","text_uthmani":"٥٣","qpc_uthmani_hafs":"٥٣","char_type_name":"end","page_number":434,"line_number":6,"text":"٥٣","translation":{"text":"(53)","language_name":"english","language_id":38},"transliteration":{"text":null,"language_name":"english","language_id":38}}]},{"id":3660,"verse_number":54,"verse_key":"34:54","hizb_number":44,"rub_el_hizb_number":174,"ruku_number":377,"manzil_number":5,"sajdah_number":null,"page_number":434,"juz_number":22,"words":[{"id":51035,"position":1,"audio_url":"wbw/034_054_001.mp3","verse_key":"34:54","verse_id":3660,"location":"34:54:1","text_uthmani":"وَحِيلَ","qpc_uthmani_hafs":"وَحِيلَ","char_type_name":"word","page_number":434,"line_number":6,"text":"وَحِيلَ","translation":{"text":"And a barrier will be placed","language_name":"english","language_id":38},"transliteration":{"text":"waḥīla","language_name":"english","language_id":38}},{"id":51036,"position":2,"audio_url":"wbw/034_054_002.mp3","verse_key":"34:54","verse_id":3660,"location":"34:54:2","text_uthmani":"بَيْنَهُمْ","qpc_uthmani_hafs":"بَيۡنَهُمۡ","char_type_name":"word","page_number":434,"line_number":6,"text":"بَيۡنَهُمۡ","translation":{"text":"between them","language_name":"english","language_id":38},"transliteration":{"text":"baynahum","language_name":"english","language_id":38}},{"id":51037,"position":3,"audio_url":"wbw/034_054_003.mp3","verse_key":"34:54","verse_id":3660,"location":"34:54:3","text_uthmani":"وَبَيْنَ","qpc_uthmani_hafs":"وَبَيۡنَ","char_type_name":"word","page_number":434,"line_number":6,"text":"وَبَيۡنَ","translation":{"text":"and between","language_name":"english","language_id":38},"transliteration":{"text":"wabayna","language_name":"english","language_id":38}},{"id":51038,"position":4,"audio_url":"wbw/034_054_004.mp3","verse_key":"34:54","verse_id":3660,"location":"34:54:4","text_uthmani":"مَا","qpc_uthmani_hafs":"مَا","char_type_name":"word","page_number":434,"line_number":6,"text":"مَا","translation":{"text":"what","language_name":"english","language_id":38},"transliteration":{"text":"mā","language_name":"english","language_id":38}},{"id":51039,"position":5,"audio_url":"wbw/034_054_005.mp3","verse_key":"34:54","verse_id":3660,"location":"34:54:5","text_uthmani":"يَشْتَهُونَ","qpc_uthmani_hafs":"يَشۡتَهُونَ","char_type_name":"word","page_number":434,"line_number":6,"text":"يَشۡتَهُونَ","translation":{"text":"they desire","language_name":"english","language_id":38},"transliteration":{"text":"yashtahūna","language_name":"english","language_id":38}},{"id":51040,"position":6,"audio_url":"wbw/034_054_006.mp3","verse_key":"34:54","verse_id":3660,"location":"34:54:6","text_uthmani":"كَمَا","qpc_uthmani_hafs":"كَمَا","char_type_name":"word","page_number":434,"line_number":7,"text":"كَمَا","translation":{"text":"as","language_name":"english","language_id":38},"transliteration":{"text":"kamā","language_name":"english","language_id":38}},{"id":51041,"position":7,"audio_url":"wbw/034_054_007.mp3","verse_key":"34:54","verse_id":3660,"location":"34:54:7","text_uthmani":"فُعِلَ","qpc_uthmani_hafs":"فُعِلَ","char_type_name":"word","page_number":434,"line_number":7,"text":"فُعِلَ","translation":{"text":"was done","language_name":"english","language_id":38},"transliteration":{"text":"fuʿila","language_name":"english","language_id":38}},{"id":51042,"position":8,"audio_url":"wbw/034_054_008.mp3","verse_key":"34:54","verse_id":3660,"location":"34:54:8","text_uthmani":"بِأَشْيَاعِهِم","qpc_uthmani_hafs":"بِأَشۡيَاعِهِم","char_type_name":"word","page_number":434,"line_number":7,"text":"بِأَشۡيَاعِهِم","translation":{"text":"with their kind","language_name":"english","language_id":38},"transliteration":{"text":"bi-ashyāʿihim","language_name":"english","language_id":38}},{"id":51043,"position":9,"audio_url":"wbw/034_054_009.mp3","verse_key":"34:54","verse_id":3660,"location":"34:54:9","text_uthmani":"مِّن","qpc_uthmani_hafs":"مِّن","char_type_name":"word","page_number":434,"line_number":7,"text":"مِّن","translation":{"text":"before","language_name":"english","language_id":38},"transliteration":{"text":"min","language_name":"english","language_id":38}},{"id":51044,"position":10,"audio_url":"wbw/034_054_010.mp3","verse_key":"34:54","verse_id":3660,"location":"34:54:10","text_uthmani":"قَبْلُ ۚ","qpc_uthmani_hafs":"قَبۡلُۚ","char_type_name":"word","page_number":434,"line_number":7,"text":"قَبۡلُۚ","translation":{"text":"before","language_name":"english","language_id":38},"transliteration":{"text":"qablu","language_name":"english","language_id":38}},{"id":51046,"position":11,"audio_url":"wbw/034_054_012.mp3","verse_key":"34:54","verse_id":3660,"location":"34:54:11","text_uthmani":"إِنَّهُمْ","qpc_uthmani_hafs":"إِنَّهُمۡ","char_type_name":"word","page_number":434,"line_number":7,"text":"إِنَّهُمۡ","translation":{"text":"Indeed, they","language_name":"english","language_id":38},"transliteration":{"text":"innahum","language_name":"english","language_id":38}},{"id":51047,"position":12,"audio_url":"wbw/034_054_013.mp3","verse_key":"34:54","verse_id":3660,"location":"34:54:12","text_uthmani":"كَانُوا۟","qpc_uthmani_hafs":"كَانُواْ","char_type_name":"word","page_number":434,"line_number":7,"text":"كَانُواْ","translation":{"text":"were","language_name":"english","language_id":38},"transliteration":{"text":"kānū","language_name":"english","language_id":38}},{"id":51048,"position":13,"audio_url":"wbw/034_054_014.mp3","verse_key":"34:54","verse_id":3660,"location":"34:54:13","text_uthmani":"فِى","qpc_uthmani_hafs":"فِي","char_type_name":"word","page_number":434,"line_number":7,"text":"فِي","translation":{"text":"in","language_name":"english","language_id":38},"transliteration":{"text":"fī","language_name":"english","language_id":38}},{"id":51049,"position":14,"audio_url":"wbw/034_054_015.mp3","verse_key":"34:54","verse_id":3660,"location":"34:54:14","text_uthmani":"شَكٍّۢ","qpc_uthmani_hafs":"شَكّٖ","char_type_name":"word","page_number":434,"line_number":7,"text":"شَكّٖ","translation":{"text":"doubt","language_name":"english","language_id":38},"transliteration":{"text":"shakkin","language_name":"english","language_id":38}},{"id":51050,"position":15,"audio_url":"wbw/034_054_016.mp3","verse_key":"34:54","verse_id":3660,"location":"34:54:15","text_uthmani":"مُّرِيبٍۭ","qpc_uthmani_hafs":"مُّرِيبِۭ","char_type_name":"word","page_number":434,"line_number":7,"text":"مُّرِيبِۭ","translation":{"text":"disquieting","language_name":"english","language_id":38},"transliteration":{"text":"murībin","language_name":"english","language_id":38}},{"id":51051,"position":16,"audio_url":null,"verse_key":"34:54","verse_id":3660,"location":"34:54:16","text_uthmani":"٥٤","qpc_uthmani_hafs":"٥٤","char_type_name":"end","page_number":434,"line_number":7,"text":"٥٤","translation":{"text":"(54)","language_name":"english","language_id":38},"transliteration":{"text":null,"language_name":"english","language_id":38}}]}],"pagination":{"per_page":10,"current_page":6,"next_page":null,"total_pages":6,"total_records":54}}
