{"verses":[{"id":4326,"verse_number":1,"verse_key":"43:1","hizb_number":49,"rub_el_hizb_number":196,"ruku_number":426,"manzil_number":6,"sajdah_number":null,"page_number":489,"juz_number":25,"words":[{"id":135,"position":1,"audio_url":"wbw/043_001_001.mp3","char_type_name":"word","page_number":489,"line_number":7,"text":"حمٓ","translation":{"text":"হা-মীম","language_name":"bengali","language_id":20},"transliteration":{"text":"hha-meem","language_name":"english","language_id":38}},{"id":136,"position":2,"audio_url":null,"char_type_name":"end","page_number":489,"line_number":7,"text":"١","translation":{"text":"(১)","language_name":"bengali","language_id":20},"transliteration":{"text":null,"language_name":"english","language_id":38}}]},{"id":4327,"verse_number":2,"verse_key":"43:2","hizb_number":49,"rub_el_hizb_number":196,"ruku_number":426,"manzil_number":6,"sajdah_number":null,"page_number":489,"juz_number":25,"words":[{"id":974,"position":1,"audio_url":"wbw/043_002_001.mp3","char_type_name":"word","page_number":489,"line_number":7,"text":"وَٱلْكِتَـٰبِ","translation":{"text":"শপথ (এই) কিতাবের","language_name":"bengali","language_id":20},"transliteration":{"text":"wal-kitābi","language_name":"english","language_id":38}},{"id":975,"position":2,"audio_url":"wbw/043_002_002.mp3","char_type_name":"word","page_number":489,"line_number":7,"text":"ٱلْمُبِينِ","translation":{"text":"সুস্পষ্ট","language_name":"bengali","language_id":20},"transliteration":{"text":"l-mubīni","language_name":"english","language_id":38}},{"id":976,"position":3,"audio_url":null,"char_type_name":"end","page_number":489,"line_number":7,"text":"٢","translation":{"text":"(২)","language_name":"bengali","language_id":20},"transliteration":{"text":null,"language_name":"english","language_id":38}}]},{"id":4328,"verse_number":3,"verse_key":"43:3","hizb_number":49,"rub_el_hizb_number":196,"ruku_number":426,"manzil_number":6,"sajdah_number":null,"page_number":489,"juz_number":25,"words":[{"id":2076,"position":1,"audio_url":"wbw/043_003_001.mp3","char_type_name":"word","page_number":489,"line_number":7,"text":"إِنَّا","translation":{"text":"নিশ্চয়ই আমরা","language_name":"bengali","language_id":20},"transliteration":{"text":"innā","language_name":"english","language_id":38}},{"id":2077,"position":2,"audio_url":"wbw/043_003_002.mp3","char_type_name":"word","page_number":489,"line_number":7,"text":"جَعَلْنَـٰهُ","translation":{"text":"তা আমরা বানিয়েছি","language_name":"bengali","language_id":20},"transliteration":{"text":"jaʿalnāhu","language_name":"english","language_id":38}},{"id":2078,"position":3,"audio_url":"wbw/043_003_003.mp3","char_type_name":"word","page_number":489,"line_number":7,"text":"قُرْءَٰنًا","translation":{"text":"(অর্থাৎ) কুরআন","language_name":"bengali","language_id":20},"transliteration":{"text":"qur'ānan","language_name":"english","language_id":38}},{"id":2079,"position":4,"audio_url":"wbw/043_003_004.mp3","char_type_name":"word","page_number":489,"line_number":7,"text":"عَرَبِيًّۭا","translation":{"text":"আরবী (ভাষায়)","language_name":"bengali","language_id":20},"transliteration":{"text":"ʿarabiyyan","language_name":"english","language_id":38}},{"id":2080,"position":5,"audio_url":"wbw/043_003_005.mp3","char_type_name":"word","page_number":489,"line_number":8,"text":"لَّعَلَّكُمْ","translation":{"text":"তোমরা যাতে","language_name":"bengali","language_id":20},"transliteration":{"text":"laʿallakum","language_name":"english","language_id":38}},{"id":2081,"position":6,"audio_url":"wbw/043_003_006.mp3","char_type_name":"word","page_number":489,"line_number":8,"text":"تَعْقِلُونَ","translation":{"text":"বুঝতে পারো","language_name":"bengali","language_id":20},"transliteration":{"text":"taʿqilūna","language_name":"english","language_id":38}},{"id":2082,"position":7,"audio_url":null,"char_type_name":"end","page_number":489,"line_number":8,"text":"٣","translation":{"text":"(৩)","language_name":"bengali","language_id":20},"transliteration":{"text":null,"language_name":"english","language_id":38}}]},{"id":4329,"verse_number":4,"verse_key":"43:4","hizb_number":49,"rub_el_hizb_number":196,"ruku_number":426,"manzil_number":6,"sajdah_number":null,"page_number":489,"juz_number":25,"words":[{"id":3343,"position":1,"audio_url":"wbw/043_004_001.mp3","char_type_name":"word","page_number":489,"line_number":8,"text":"وَإِنَّهُۥ","translation":{"text":"এবং তা নিশ্চয়ই","language_name":"bengali","language_id":20},"transliteration":{"text":"wa-innahu","language_name":"english","language_id":38}},{"id":3344,"position":2,"audio_url":"wbw/043_004_002.mp3","char_type_name":"word","page_number":489,"line_number":8,"text":"فِىٓ","translation":{"text":"মধ্যে আছে","language_name":"bengali","language_id":20},"transliteration":{"text":"fī","language_name":"english","language_id":38}},{"id":3345,"position":3,"audio_url":"wbw/043_004_003.mp3","char_type_name":"word","page_number":489,"line_number":8,"text":"أُمِّ","translation":{"text":"মূল","language_name":"bengali","language_id":20},"transliteration":{"text":"ummi","language_name":"english","language_id":38}},{"id":3346,"position":4,"audio_url":"wbw/043_004_004.mp3","char_type_name":"word","page_number":489,"line_number":8,"text":"ٱلْكِتَـٰبِ","translation":{"text":"কিতাবের","language_name":"bengali","language_id":20},"transliteration":{"text":"l-kitābi","language_name":"english","language_id":38}},{"id":3347,"position":5,"audio_url":"wbw/043_004_005.mp3","char_type_name":"word","page_number":489,"line_number":8,"text":"لَدَيْنَا","translation":{"text":"আমাদের কাছে","language_name":"bengali","language_id":20},"transliteration":{"text":"ladaynā","language_name":"english","language_id":38}},{"id":3348,"position":6,"audio_url":"wbw/043_004_006.mp3","char_type_name":"word","page_number":489,"line_number":9,"text":"لَعَلِىٌّ","translation":{"text":"অতীব উচ্চ মর্যাদার","language_name":"bengali","language_id":20},"transliteration":{"text":"laʿaliyyun","language_name":"english","language_id":38}},{"id":3349,"position":7,"audio_url":"wbw/043_004_007.mp3","char_type_name":"word","page_number":489,"line_number":9,"text":"حَكِيمٌ","translation":{"text":"অবশ্যই মহান","language_name":"bengali","language_id":20},"transliteration":{"text":"ḥakīmun","language_name":"english","language_id":38}},{"id":3350,"position":8,"audio_url":null,"char_type_name":"end","page_number":489,"line_number":9,"text":"٤","translation":{"text":"(৪)","language_name":"bengali","language_id":20},"transliteration":{"text":null,"language_name":"english","language_id":38}}]},{"id":4330,"verse_number":5,"verse_key":"43:5","hizb_number":49,"rub_el_hizb_number":196,"ruku_number":426,"manzil_number":6,"sajdah_number":null,"page_number":489,"juz_number":25,"words":[{"id":4710,"position":1,"audio_url":"wbw/043_005_001.mp3","char_type_name":"word","page_number":489,"line_number":9,"text":"أَفَنَضْرِبُ","translation":{"text":"তবে কি আমরা করবো","language_name":"bengali","language_id":20},"transliteration":{"text":"afanaḍribu","language_name":"english","language_id":38}},{"id":4711,"position":2,"audio_url":"wbw/043_005_002.mp3","char_type_name":"word","page_number":489,"line_number":9,"text":"عَنكُمُ","translation":{"text":"তোমাদের থেকে","language_name":"bengali","language_id":20},"transliteration":{"text":"ʿankumu","language_name":"english","language_id":38}},{"id":4712,"position":3,"audio_url":"wbw/043_005_003.mp3","char_type_name":"word","page_number":489,"line_number":9,"text":"ٱلذِّكْرَ","translation":{"text":"উপদেশ","language_name":"bengali","language_id":20},"transliteration":{"text":"l-dhik'ra","language_name":"english","language_id":38}},{"id":4713,"position":4,"audio_url":"wbw/043_005_004.mp3","char_type_name":"word","page_number":489,"line_number":9,"text":"صَفْحًا","translation":{"text":"প্রত্যাহার","language_name":"bengali","language_id":20},"transliteration":{"text":"ṣafḥan","language_name":"english","language_id":38}},{"id":4714,"position":5,"audio_url":"wbw/043_005_005.mp3","char_type_name":"word","page_number":489,"line_number":10,"text":"أَن","translation":{"text":"(এ জন্যে) যে","language_name":"bengali","language_id":20},"transliteration":{"text":"an","language_name":"english","language_id":38}},{"id":4715,"position":6,"audio_url":"wbw/043_005_006.mp3","char_type_name":"word","page_number":489,"line_number":10,"text":"كُنتُمْ","translation":{"text":"তোমরা হ'লে","language_name":"bengali","language_id":20},"transliteration":{"text":"kuntum","language_name":"english","language_id":38}},{"id":4716,"position":7,"audio_url":"wbw/043_005_007.mp3","char_type_name":"word","page_number":489,"line_number":10,"text":"قَوْمًۭا","translation":{"text":"সম্প্রদায়","language_name":"bengali","language_id":20},"transliteration":{"text":"qawman","language_name":"english","language_id":38}},{"id":4717,"position":8,"audio_url":"wbw/043_005_008.mp3","char_type_name":"word","page_number":489,"line_number":10,"text":"مُّسْرِفِينَ","translation":{"text":"অসংযমী","language_name":"bengali","language_id":20},"transliteration":{"text":"mus'rifīna","language_name":"english","language_id":38}},{"id":4718,"position":9,"audio_url":null,"char_type_name":"end","page_number":489,"line_number":10,"text":"٥","translation":{"text":"(৫)","language_name":"bengali","language_id":20},"transliteration":{"text":null,"language_name":"english","language_id":38}}]},{"id":4331,"verse_number":6,"verse_key":"43:6","hizb_number":49,"rub_el_hizb_number":196,"ruku_number":426,"manzil_number":6,"sajdah_number":null,"page_number":489,"juz_number":25,"words":[{"id":5980,"position":1,"audio_url":"wbw/043_006_001.mp3","char_type_name":"word","page_number":489,"line_number":10,"text":"وَكَمْ","translation":{"text":"এবং কত (বার)","language_name":"bengali","language_id":20},"transliteration":{"text":"wakam","language_name":"english","language_id":38}},{"id":5981,"position":2,"audio_url":"wbw/043_006_002.mp3","char_type_name":"word","page_number":489,"line_number":10,"text":"أَرْسَلْنَا","translation":{"text":"আমরা পাঠিয়েছি","language_name":"bengali","language_id":20},"transliteration":{"text":"arsalnā","language_name":"english","language_id":38}},{"id":5982,"position":3,"audio_url":"wbw/043_006_003.mp3","char_type_name":"word","page_number":489,"line_number":10,"text":"مِن","translation":{"text":"থেকে","language_name":"bengali","language_id":20},"transliteration":{"text":"min","language_name":"english","language_id":38}},{"id":5983,"position":4,"audio_url":"wbw/043_006_004.mp3","char_type_name":"word","page_number":489,"line_number":10,"text":"نَّبِىٍّۢ","translation":{"text":"নাবী","language_name":"bengali","language_id":20},"transliteration":{"text":"nabiyyin","language_name":"english","language_id":38}},{"id":5984,"position":5,"audio_url":"wbw/043_006_005.mp3","char_type_name":"word","page_number":489,"line_number":10,"text":"فِى","translation":{"text":"মধ্যে","language_name":"bengali","language_id":20},"transliteration":{"text":"fī","language_name":"english","language_id":38}},{"id":5985,"position":6,"audio_url":"wbw/043_006_006.mp3","char_type_name":"word","page_number":489,"line_number":11,"text":"ٱلْأَوَّلِينَ","translation":{"text":"পূর্ববর্তীদের","language_name":"bengali","language_id":20},"transliteration":{"text":"l-awalīna","language_name":"english","language_id":38}},{"id":5986,"position":7,"audio_url":null,"char_type_name":"end","page_number":489,"line_number":11,"text":"٦","translation":{"text":"(৬)","language_name":"bengali","language_id":20},"transliteration":{"text":null,"language_name":"english","language_id":38}}]},{"id":4332,"verse_number":7,"verse_key":"43:7","hizb_number":49,"rub_el_hizb_number":196,"ruku_number":426,"manzil_number":6,"sajdah_number":null,"page_number":489,"juz_number":25,"words":[{"id":7292,"position":1,"audio_url":"wbw/043_007_001.mp3","char_type_name":"word","page_number":489,"line_number":11,"text":"وَمَا","translation":{"text":"এবং না","language_name":"bengali","language_id":20},"transliteration":{"text":"wamā","language_name":"english","language_id":38}},{"id":7293,"position":2,"audio_url":"wbw/043_007_002.mp3","char_type_name":"word","page_number":489,"line_number":11,"text":"يَأْتِيهِم","translation":{"text":"তাদের কাছে এসেছে","language_name":"bengali","language_id":20},"transliteration":{"text":"yatīhim","language_name":"english","language_id":38}},{"id":7294,"position":3,"audio_url":"wbw/043_007_003.mp3","char_type_name":"word","page_number":489,"line_number":11,"text":"مِّن","translation":{"text":"(এমন) কোনো","language_name":"bengali","language_id":20},"transliteration":{"text":"min","language_name":"english","language_id":38}},{"id":7295,"position":4,"audio_url":"wbw/043_007_004.mp3","char_type_name":"word","page_number":489,"line_number":11,"text":"نَّبِىٍّ","translation":{"text":"নাবী","language_name":"bengali","language_id":20},"transliteration":{"text":"nabiyyin","language_name":"english","language_id":38}},{"id":7296,"position":5,"audio_url":"wbw/043_007_005.mp3","char_type_name":"word","page_number":489,"line_number":11,"text":"إِلَّا","translation":{"text":"এ ব্যতীত যে","language_name":"bengali","language_id":20},"transliteration":{"text":"illā","language_name":"english","language_id":38}},{"id":7297,"position":6,"audio_url":"wbw/043_007_006.mp3","char_type_name":"word","page_number":489,"line_number":11,"text":"كَانُوا۟","translation":{"text":"তারা ছিলো","language_name":"bengali","language_id":20},"transliteration":{"text":"kānū","language_name":"english","language_id":38}},{"id":7298,"position":7,"audio_url":"wbw/043_007_007.mp3","char_type_name":"word","page_number":489,"line_number":11,"text":"بِهِۦ","translation":{"text":"তার সাথে","language_name":"bengali","language_id":20},"transliteration":{"text":"bihi","language_name":"english","language_id":38}},{"id":7299,"position":8,"audio_url":"wbw/043_007_008.mp3","char_type_name":"word","page_number":489,"line_number":11,"text":"يَسْتَهْزِءُونَ","translation":{"text":"ঠাট্টা-বিদ্রুপ করতো","language_name":"bengali","language_id":20},"transliteration":{"text":"yastahziūna","language_name":"english","language_id":38}},{"id":7300,"position":9,"audio_url":null,"char_type_name":"end","page_number":489,"line_number":12,"text":"٧","translation":{"text":"(৭)","language_name":"bengali","language_id":20},"transliteration":{"text":null,"language_name":"english","language_id":38}}]},{"id":4333,"verse_number":8,"verse_key":"43:8","hizb_number":49,"rub_el_hizb_number":196,"ruku_number":426,"manzil_number":6,"sajdah_number":null,"page_number":489,"juz_number":25,"words":[{"id":8563,"position":1,"audio_url":"wbw/043_008_001.mp3","char_type_name":"word","page_number":489,"line_number":12,"text":"فَأَهْلَكْنَآ","translation":{"text":"আমরা তাই ধ্বংস করে দিয়েছি","language_name":"bengali","language_id":20},"transliteration":{"text":"fa-ahlaknā","language_name":"english","language_id":38}},{"id":8564,"position":2,"audio_url":"wbw/043_008_002.mp3","char_type_name":"word","page_number":489,"line_number":12,"text":"أَشَدَّ","translation":{"text":"(যারা ছিলো) প্রবল","language_name":"bengali","language_id":20},"transliteration":{"text":"ashadda","language_name":"english","language_id":38}},{"id":8565,"position":3,"audio_url":"wbw/043_008_003.mp3","char_type_name":"word","page_number":489,"line_number":12,"text":"مِنْهُم","translation":{"text":"তাদের মধ্য থেকে","language_name":"bengali","language_id":20},"transliteration":{"text":"min'hum","language_name":"english","language_id":38}},{"id":8566,"position":4,"audio_url":"wbw/043_008_004.mp3","char_type_name":"word","page_number":489,"line_number":12,"text":"بَطْشًۭا","translation":{"text":"শক্তিতে","language_name":"bengali","language_id":20},"transliteration":{"text":"baṭshan","language_name":"english","language_id":38}},{"id":8567,"position":5,"audio_url":"wbw/043_008_005.mp3","char_type_name":"word","page_number":489,"line_number":12,"text":"وَمَضَىٰ","translation":{"text":"এবং অতীত হয়েছে","language_name":"bengali","language_id":20},"transliteration":{"text":"wamaḍā","language_name":"english","language_id":38}},{"id":8568,"position":6,"audio_url":"wbw/043_008_006.mp3","char_type_name":"word","page_number":489,"line_number":12,"text":"مَثَلُ","translation":{"text":"অনুরূপ দৃষ্টান্ত","language_name":"bengali","language_id":20},"transliteration":{"text":"mathalu","language_name":"english","language_id":38}},{"id":8569,"position":7,"audio_url":"wbw/043_008_007.mp3","char_type_name":"word","page_number":489,"line_number":12,"text":"ٱلْأَوَّلِينَ","translation":{"text":"পূর্ববর্তীদের","language_name":"bengali","language_id":20},"transliteration":{"text":"l-awalīna","language_name":"english","language_id":38}},{"id":8570,"position":8,"audio_url":null,"char_type_name":"end","page_number":489,"line_number":13,"text":"٨","translation":{"text":"(৮)","language_name":"bengali","language_id":20},"transliteration":{"text":null,"language_name":"english","language_id":38}}]},{"id":4334,"verse_number":9,"verse_key":"43:9","hizb_number":49,"rub_el_hizb_number":196,"ruku_number":426,"manzil_number":6,"sajdah_number":null,"page_number":489,"juz_number":25,"words":[{"id":9771,"position":1,"audio_url":"wbw/043_009_001.mp3","char_type_name":"word","page_number":489,"line_number":13,"text":"وَلَئِن","translation":{"text":"এবং অবশ্যই যদি","language_name":"bengali","language_id":20},"transliteration":{"text":"wala-in","language_name":"english","language_id":38}},{"id":9772,"position":2,"audio_url":"wbw/043_009_002.mp3","char_type_name":"word","page_number":489,"line_number":13,"text":"سَأَلْتَهُم","translation":{"text":"তাদের তুমি প্রশ্ন করো","language_name":"bengali","language_id":20},"transliteration":{"text":"sa-altahum","language_name":"english","language_id":38}},{"id":9773,"position":3,"audio_url":"wbw/043_009_003.mp3","char_type_name":"word","page_number":489,"line_number":13,"text":"مَّنْ","translation":{"text":"\"কে","language_name":"bengali","language_id":20},"transliteration":{"text":"man","language_name":"english","language_id":38}},{"id":9774,"position":4,"audio_url":"wbw/043_009_004.mp3","char_type_name":"word","page_number":489,"line_number":13,"text":"خَلَقَ","translation":{"text":"সৃষ্টি করেছেন","language_name":"bengali","language_id":20},"transliteration":{"text":"khalaqa","language_name":"english","language_id":38}},{"id":9775,"position":5,"audio_url":"wbw/043_009_005.mp3","char_type_name":"word","page_number":489,"line_number":13,"text":"ٱلسَّمَـٰوَٰتِ","translation":{"text":"আকাশকে","language_name":"bengali","language_id":20},"transliteration":{"text":"l-samāwāti","language_name":"english","language_id":38}},{"id":9776,"position":6,"audio_url":"wbw/043_009_006.mp3","char_type_name":"word","page_number":489,"line_number":13,"text":"وَٱلْأَرْضَ","translation":{"text":"ও পৃথিবীকে\"","language_name":"bengali","language_id":20},"transliteration":{"text":"wal-arḍa","language_name":"english","language_id":38}},{"id":9777,"position":7,"audio_url":"wbw/043_009_007.mp3","char_type_name":"word","page_number":489,"line_number":13,"text":"لَيَقُولُنَّ","translation":{"text":"তারা বলবে অবশ্যই","language_name":"bengali","language_id":20},"transliteration":{"text":"layaqūlunna","language_name":"english","language_id":38}},{"id":9778,"position":8,"audio_url":"wbw/043_009_008.mp3","char_type_name":"word","page_number":489,"line_number":14,"text":"خَلَقَهُنَّ","translation":{"text":"\"তাদের সৃষ্টি করেছেন","language_name":"bengali","language_id":20},"transliteration":{"text":"khalaqahunna","language_name":"english","language_id":38}},{"id":9779,"position":9,"audio_url":"wbw/043_009_009.mp3","char_type_name":"word","page_number":489,"line_number":14,"text":"ٱلْعَزِيزُ","translation":{"text":"পরাক্রমশালী","language_name":"bengali","language_id":20},"transliteration":{"text":"l-ʿazīzu","language_name":"english","language_id":38}},{"id":9780,"position":10,"audio_url":"wbw/043_009_010.mp3","char_type_name":"word","page_number":489,"line_number":14,"text":"ٱلْعَلِيمُ","translation":{"text":"মহাজ্ঞানী (আল্লাহ)\"","language_name":"bengali","language_id":20},"transliteration":{"text":"l-ʿalīmu","language_name":"english","language_id":38}},{"id":9781,"position":11,"audio_url":null,"char_type_name":"end","page_number":489,"line_number":14,"text":"٩","translation":{"text":"(৯)","language_name":"bengali","language_id":20},"transliteration":{"text":null,"language_name":"english","language_id":38}}]},{"id":4335,"verse_number":10,"verse_key":"43:10","hizb_number":49,"rub_el_hizb_number":196,"ruku_number":426,"manzil_number":6,"sajdah_number":null,"page_number":489,"juz_number":25,"words":[{"id":10903,"position":1,"audio_url":"wbw/043_010_001.mp3","char_type_name":"word","page_number":489,"line_number":14,"text":"ٱلَّذِى","translation":{"text":"যিনি","language_name":"bengali","language_id":20},"transliteration":{"text":"alladhī","language_name":"english","language_id":38}},{"id":10904,"position":2,"audio_url":"wbw/043_010_002.mp3","char_type_name":"word","page_number":489,"line_number":14,"text":"جَعَلَ","translation":{"text":"করেছেন","language_name":"bengali","language_id":20},"transliteration":{"text":"jaʿala","language_name":"english","language_id":38}},{"id":10905,"position":3,"audio_url":"wbw/043_010_003.mp3","char_type_name":"word","page_number":489,"line_number":14,"text":"لَكُمُ","translation":{"text":"তোমাদের জন্যে","language_name":"bengali","language_id":20},"transliteration":{"text":"lakumu","language_name":"english","language_id":38}},{"id":10906,"position":4,"audio_url":"wbw/043_010_004.mp3","char_type_name":"word","page_number":489,"line_number":14,"text":"ٱلْأَرْضَ","translation":{"text":"জমিকে","language_name":"bengali","language_id":20},"transliteration":{"text":"l-arḍa","language_name":"english","language_id":38}},{"id":10907,"position":5,"audio_url":"wbw/043_010_005.mp3","char_type_name":"word","page_number":489,"line_number":15,"text":"مَهْدًۭا","translation":{"text":"শয্যা (আশ্রয়স্থল)","language_name":"bengali","language_id":20},"transliteration":{"text":"mahdan","language_name":"english","language_id":38}},{"id":10908,"position":6,"audio_url":"wbw/043_010_006.mp3","char_type_name":"word","page_number":489,"line_number":15,"text":"وَجَعَلَ","translation":{"text":"এবং করে দিয়েছেন","language_name":"bengali","language_id":20},"transliteration":{"text":"wajaʿala","language_name":"english","language_id":38}},{"id":10909,"position":7,"audio_url":"wbw/043_010_007.mp3","char_type_name":"word","page_number":489,"line_number":15,"text":"لَكُمْ","translation":{"text":"তোমাদের জন্যে","language_name":"bengali","language_id":20},"transliteration":{"text":"lakum","language_name":"english","language_id":38}},{"id":10910,"position":8,"audio_url":"wbw/043_010_008.mp3","char_type_name":"word","page_number":489,"line_number":15,"text":"فِيهَا","translation":{"text":"তার মধ্যে","language_name":"bengali","language_id":20},"transliteration":{"text":"fīhā","language_name":"english","language_id":38}},{"id":10911,"position":9,"audio_url":"wbw/043_010_009.mp3","char_type_name":"word","page_number":489,"line_number":15,"text":"سُبُلًۭا","translation":{"text":"পথসমূহ","language_name":"bengali","language_id":20},"transliteration":{"text":"subulan","language_name":"english","language_id":38}},{"id":10912,"position":10,"audio_url":"wbw/043_010_010.mp3","char_type_name":"word","page_number":489,"line_number":15,"text":"لَّعَلَّكُمْ","translation":{"text":"তোমরা যাতে","language_name":"bengali","language_id":20},"transliteration":{"text":"laʿallakum","language_name":"english","language_id":38}},{"id":10913,"position":11,"audio_url":"wbw/043_010_011.mp3","char_type_name":"word","page_number":489,"line_number":15,"text":"تَهْتَدُونَ","translation":{"text":"(গন্তব্যস্থলের) পথ পেতে পারো","language_name":"bengali","language_id":20},"transliteration":{"text":"tahtadūna","language_name":"english","language_id":38}},{"id":10914,"position":12,"audio_url":null,"char_type_name":"end","page_number":489,"line_number":15,"text":"١٠","translation":{"text":"(১০)","language_name":"bengali","language_id":20},"transliteration":{"text":null,"language_name":"english","language_id":38}}]}],"pagination":{"per_page":10,"current_page":1,"next_page":2,"total_pages":9,"total_records":89}}
