{"verses":[{"id":4406,"verse_number":81,"verse_key":"43:81","hizb_number":50,"rub_el_hizb_number":198,"ruku_number":432,"manzil_number":6,"sajdah_number":null,"page_number":495,"juz_number":25,"words":[{"id":64743,"position":1,"audio_url":"wbw/043_081_001.mp3","char_type_name":"word","page_number":495,"line_number":6,"text":"قُلْ","translation":{"text":"বলো","language_name":"bengali","language_id":20},"transliteration":{"text":"qul","language_name":"english","language_id":38}},{"id":64744,"position":2,"audio_url":"wbw/043_081_002.mp3","char_type_name":"word","page_number":495,"line_number":6,"text":"إِن","translation":{"text":"\"যদি","language_name":"bengali","language_id":20},"transliteration":{"text":"in","language_name":"english","language_id":38}},{"id":64745,"position":3,"audio_url":"wbw/043_081_003.mp3","char_type_name":"word","page_number":495,"line_number":6,"text":"كَانَ","translation":{"text":"থাকতো","language_name":"bengali","language_id":20},"transliteration":{"text":"kāna","language_name":"english","language_id":38}},{"id":64746,"position":4,"audio_url":"wbw/043_081_004.mp3","char_type_name":"word","page_number":495,"line_number":6,"text":"لِلرَّحْمَـٰنِ","translation":{"text":"দয়াময়ের জন্যে","language_name":"bengali","language_id":20},"transliteration":{"text":"lilrraḥmāni","language_name":"english","language_id":38}},{"id":64747,"position":5,"audio_url":"wbw/043_081_005.mp3","char_type_name":"word","page_number":495,"line_number":6,"text":"وَلَدٌۭ","translation":{"text":"কোনো ছেলে","language_name":"bengali","language_id":20},"transliteration":{"text":"waladun","language_name":"english","language_id":38}},{"id":64748,"position":6,"audio_url":"wbw/043_081_006.mp3","char_type_name":"word","page_number":495,"line_number":6,"text":"فَأَنَا۠","translation":{"text":"তবে আমি","language_name":"bengali","language_id":20},"transliteration":{"text":"fa-anā","language_name":"english","language_id":38}},{"id":64749,"position":7,"audio_url":"wbw/043_081_007.mp3","char_type_name":"word","page_number":495,"line_number":6,"text":"أَوَّلُ","translation":{"text":"প্রথম (হতাম)","language_name":"bengali","language_id":20},"transliteration":{"text":"awwalu","language_name":"english","language_id":38}},{"id":64750,"position":8,"audio_url":"wbw/043_081_008.mp3","char_type_name":"word","page_number":495,"line_number":7,"text":"ٱلْعَـٰبِدِينَ","translation":{"text":"উপাসকদের মধ্যে\"","language_name":"bengali","language_id":20},"transliteration":{"text":"l-ʿābidīna","language_name":"english","language_id":38}},{"id":64751,"position":9,"audio_url":null,"char_type_name":"end","page_number":495,"line_number":7,"text":"٨١","translation":{"text":"(৮১)","language_name":"bengali","language_id":20},"transliteration":{"text":null,"language_name":"english","language_id":38}}]},{"id":4407,"verse_number":82,"verse_key":"43:82","hizb_number":50,"rub_el_hizb_number":198,"ruku_number":432,"manzil_number":6,"sajdah_number":null,"page_number":495,"juz_number":25,"words":[{"id":64941,"position":1,"audio_url":"wbw/043_082_001.mp3","char_type_name":"word","page_number":495,"line_number":7,"text":"سُبْحَـٰنَ","translation":{"text":"মহান পবিত্র","language_name":"bengali","language_id":20},"transliteration":{"text":"sub'ḥāna","language_name":"english","language_id":38}},{"id":64942,"position":2,"audio_url":"wbw/043_082_002.mp3","char_type_name":"word","page_number":495,"line_number":7,"text":"رَبِّ","translation":{"text":"রব","language_name":"bengali","language_id":20},"transliteration":{"text":"rabbi","language_name":"english","language_id":38}},{"id":64943,"position":3,"audio_url":"wbw/043_082_003.mp3","char_type_name":"word","page_number":495,"line_number":7,"text":"ٱلسَّمَـٰوَٰتِ","translation":{"text":"আকাশের","language_name":"bengali","language_id":20},"transliteration":{"text":"l-samāwāti","language_name":"english","language_id":38}},{"id":64944,"position":4,"audio_url":"wbw/043_082_004.mp3","char_type_name":"word","page_number":495,"line_number":7,"text":"وَٱلْأَرْضِ","translation":{"text":"ও পৃথিবীর","language_name":"bengali","language_id":20},"transliteration":{"text":"wal-arḍi","language_name":"english","language_id":38}},{"id":64945,"position":5,"audio_url":"wbw/043_082_005.mp3","char_type_name":"word","page_number":495,"line_number":7,"text":"رَبِّ","translation":{"text":"রব","language_name":"bengali","language_id":20},"transliteration":{"text":"rabbi","language_name":"english","language_id":38}},{"id":64946,"position":6,"audio_url":"wbw/043_082_006.mp3","char_type_name":"word","page_number":495,"line_number":7,"text":"ٱلْعَرْشِ","translation":{"text":"আরশের","language_name":"bengali","language_id":20},"transliteration":{"text":"l-ʿarshi","language_name":"english","language_id":38}},{"id":64947,"position":7,"audio_url":"wbw/043_082_007.mp3","char_type_name":"word","page_number":495,"line_number":8,"text":"عَمَّا","translation":{"text":"তা হ'তে যা","language_name":"bengali","language_id":20},"transliteration":{"text":"ʿammā","language_name":"english","language_id":38}},{"id":64948,"position":8,"audio_url":"wbw/043_082_008.mp3","char_type_name":"word","page_number":495,"line_number":8,"text":"يَصِفُونَ","translation":{"text":"তারা আরোপ করে","language_name":"bengali","language_id":20},"transliteration":{"text":"yaṣifūna","language_name":"english","language_id":38}},{"id":64949,"position":9,"audio_url":null,"char_type_name":"end","page_number":495,"line_number":8,"text":"٨٢","translation":{"text":"(৮২)","language_name":"bengali","language_id":20},"transliteration":{"text":null,"language_name":"english","language_id":38}}]},{"id":4408,"verse_number":83,"verse_key":"43:83","hizb_number":50,"rub_el_hizb_number":198,"ruku_number":432,"manzil_number":6,"sajdah_number":null,"page_number":495,"juz_number":25,"words":[{"id":65594,"position":1,"audio_url":"wbw/043_083_001.mp3","char_type_name":"word","page_number":495,"line_number":8,"text":"فَذَرْهُمْ","translation":{"text":"সুতরাং ছেড়ে দাও তাদেরকে","language_name":"bengali","language_id":20},"transliteration":{"text":"fadharhum","language_name":"english","language_id":38}},{"id":65595,"position":2,"audio_url":"wbw/043_083_002.mp3","char_type_name":"word","page_number":495,"line_number":8,"text":"يَخُوضُوا۟","translation":{"text":"বাকবিতন্ডা করতে","language_name":"bengali","language_id":20},"transliteration":{"text":"yakhūḍū","language_name":"english","language_id":38}},{"id":65596,"position":3,"audio_url":"wbw/043_083_003.mp3","char_type_name":"word","page_number":495,"line_number":8,"text":"وَيَلْعَبُوا۟","translation":{"text":"ও ক্রীড়া-কৌতুক করতে","language_name":"bengali","language_id":20},"transliteration":{"text":"wayalʿabū","language_name":"english","language_id":38}},{"id":65597,"position":4,"audio_url":"wbw/043_083_004.mp3","char_type_name":"word","page_number":495,"line_number":8,"text":"حَتَّىٰ","translation":{"text":"যতক্ষণ না","language_name":"bengali","language_id":20},"transliteration":{"text":"ḥattā","language_name":"english","language_id":38}},{"id":65598,"position":5,"audio_url":"wbw/043_083_005.mp3","char_type_name":"word","page_number":495,"line_number":8,"text":"يُلَـٰقُوا۟","translation":{"text":"তারা সাক্ষাত পায়","language_name":"bengali","language_id":20},"transliteration":{"text":"yulāqū","language_name":"english","language_id":38}},{"id":65599,"position":6,"audio_url":"wbw/043_083_006.mp3","char_type_name":"word","page_number":495,"line_number":8,"text":"يَوْمَهُمُ","translation":{"text":"তাদের দিনের","language_name":"bengali","language_id":20},"transliteration":{"text":"yawmahumu","language_name":"english","language_id":38}},{"id":65600,"position":7,"audio_url":"wbw/043_083_007.mp3","char_type_name":"word","page_number":495,"line_number":9,"text":"ٱلَّذِى","translation":{"text":"যা","language_name":"bengali","language_id":20},"transliteration":{"text":"alladhī","language_name":"english","language_id":38}},{"id":65601,"position":8,"audio_url":"wbw/043_083_008.mp3","char_type_name":"word","page_number":495,"line_number":9,"text":"يُوعَدُونَ","translation":{"text":"তাদের প্রতিশ্রুতি দেয়া হচ্ছে","language_name":"bengali","language_id":20},"transliteration":{"text":"yūʿadūna","language_name":"english","language_id":38}},{"id":65602,"position":9,"audio_url":null,"char_type_name":"end","page_number":495,"line_number":9,"text":"٨٣","translation":{"text":"(৮৩)","language_name":"bengali","language_id":20},"transliteration":{"text":null,"language_name":"english","language_id":38}}]},{"id":4409,"verse_number":84,"verse_key":"43:84","hizb_number":50,"rub_el_hizb_number":198,"ruku_number":432,"manzil_number":6,"sajdah_number":null,"page_number":495,"juz_number":25,"words":[{"id":65656,"position":1,"audio_url":"wbw/043_084_001.mp3","char_type_name":"word","page_number":495,"line_number":9,"text":"وَهُوَ","translation":{"text":"এবং তিনিই (আল্লাহ)","language_name":"bengali","language_id":20},"transliteration":{"text":"wahuwa","language_name":"english","language_id":38}},{"id":65657,"position":2,"audio_url":"wbw/043_084_002.mp3","char_type_name":"word","page_number":495,"line_number":9,"text":"ٱلَّذِى","translation":{"text":"যিনি","language_name":"bengali","language_id":20},"transliteration":{"text":"alladhī","language_name":"english","language_id":38}},{"id":65658,"position":3,"audio_url":"wbw/043_084_003.mp3","char_type_name":"word","page_number":495,"line_number":9,"text":"فِى","translation":{"text":"আছেন","language_name":"bengali","language_id":20},"transliteration":{"text":"fī","language_name":"english","language_id":38}},{"id":65659,"position":4,"audio_url":"wbw/043_084_004.mp3","char_type_name":"word","page_number":495,"line_number":9,"text":"ٱلسَّمَآءِ","translation":{"text":"আকাশে","language_name":"bengali","language_id":20},"transliteration":{"text":"l-samāi","language_name":"english","language_id":38}},{"id":65660,"position":5,"audio_url":"wbw/043_084_005.mp3","char_type_name":"word","page_number":495,"line_number":9,"text":"إِلَـٰهٌۭ","translation":{"text":"ইলাহ","language_name":"bengali","language_id":20},"transliteration":{"text":"ilāhun","language_name":"english","language_id":38}},{"id":65661,"position":6,"audio_url":"wbw/043_084_006.mp3","char_type_name":"word","page_number":495,"line_number":9,"text":"وَفِى","translation":{"text":"এবং আছেন","language_name":"bengali","language_id":20},"transliteration":{"text":"wafī","language_name":"english","language_id":38}},{"id":65662,"position":7,"audio_url":"wbw/043_084_007.mp3","char_type_name":"word","page_number":495,"line_number":9,"text":"ٱلْأَرْضِ","translation":{"text":"পৃথিবীতেও","language_name":"bengali","language_id":20},"transliteration":{"text":"l-arḍi","language_name":"english","language_id":38}},{"id":65663,"position":8,"audio_url":"wbw/043_084_008.mp3","char_type_name":"word","page_number":495,"line_number":10,"text":"إِلَـٰهٌۭ ۚ","translation":{"text":"ইলাহ","language_name":"bengali","language_id":20},"transliteration":{"text":"ilāhun","language_name":"english","language_id":38}},{"id":65665,"position":9,"audio_url":"wbw/043_084_010.mp3","char_type_name":"word","page_number":495,"line_number":10,"text":"وَهُوَ","translation":{"text":"এবং তিনিই","language_name":"bengali","language_id":20},"transliteration":{"text":"wahuwa","language_name":"english","language_id":38}},{"id":65666,"position":10,"audio_url":"wbw/043_084_011.mp3","char_type_name":"word","page_number":495,"line_number":10,"text":"ٱلْحَكِيمُ","translation":{"text":"মহাজ্ঞানী","language_name":"bengali","language_id":20},"transliteration":{"text":"l-ḥakīmu","language_name":"english","language_id":38}},{"id":65667,"position":11,"audio_url":"wbw/043_084_012.mp3","char_type_name":"word","page_number":495,"line_number":10,"text":"ٱلْعَلِيمُ","translation":{"text":"মহাবিজ্ঞ","language_name":"bengali","language_id":20},"transliteration":{"text":"l-ʿalīmu","language_name":"english","language_id":38}},{"id":65668,"position":12,"audio_url":null,"char_type_name":"end","page_number":495,"line_number":10,"text":"٨٤","translation":{"text":"(৮৪)","language_name":"bengali","language_id":20},"transliteration":{"text":null,"language_name":"english","language_id":38}}]},{"id":4410,"verse_number":85,"verse_key":"43:85","hizb_number":50,"rub_el_hizb_number":198,"ruku_number":432,"manzil_number":6,"sajdah_number":null,"page_number":495,"juz_number":25,"words":[{"id":66270,"position":1,"audio_url":"wbw/043_085_001.mp3","char_type_name":"word","page_number":495,"line_number":10,"text":"وَتَبَارَكَ","translation":{"text":"এবং মহান তিনি","language_name":"bengali","language_id":20},"transliteration":{"text":"watabāraka","language_name":"english","language_id":38}},{"id":66271,"position":2,"audio_url":"wbw/043_085_002.mp3","char_type_name":"word","page_number":495,"line_number":10,"text":"ٱلَّذِى","translation":{"text":"যিনি (এমন সত্ত্বা যে)","language_name":"bengali","language_id":20},"transliteration":{"text":"alladhī","language_name":"english","language_id":38}},{"id":66272,"position":3,"audio_url":"wbw/043_085_003.mp3","char_type_name":"word","page_number":495,"line_number":10,"text":"لَهُۥ","translation":{"text":"তাঁরই","language_name":"bengali","language_id":20},"transliteration":{"text":"lahu","language_name":"english","language_id":38}},{"id":66273,"position":4,"audio_url":"wbw/043_085_004.mp3","char_type_name":"word","page_number":495,"line_number":10,"text":"مُلْكُ","translation":{"text":"সার্বভৌমত্ব","language_name":"bengali","language_id":20},"transliteration":{"text":"mul'ku","language_name":"english","language_id":38}},{"id":66274,"position":5,"audio_url":"wbw/043_085_005.mp3","char_type_name":"word","page_number":495,"line_number":10,"text":"ٱلسَّمَـٰوَٰتِ","translation":{"text":"আকাশের","language_name":"bengali","language_id":20},"transliteration":{"text":"l-samāwāti","language_name":"english","language_id":38}},{"id":66275,"position":6,"audio_url":"wbw/043_085_006.mp3","char_type_name":"word","page_number":495,"line_number":11,"text":"وَٱلْأَرْضِ","translation":{"text":"ও পৃথিবীর","language_name":"bengali","language_id":20},"transliteration":{"text":"wal-arḍi","language_name":"english","language_id":38}},{"id":66276,"position":7,"audio_url":"wbw/043_085_007.mp3","char_type_name":"word","page_number":495,"line_number":11,"text":"وَمَا","translation":{"text":"এবং যা কিছু","language_name":"bengali","language_id":20},"transliteration":{"text":"wamā","language_name":"english","language_id":38}},{"id":66277,"position":8,"audio_url":"wbw/043_085_008.mp3","char_type_name":"word","page_number":495,"line_number":11,"text":"بَيْنَهُمَا","translation":{"text":"তাদের উভয়ের মাঝে আছে","language_name":"bengali","language_id":20},"transliteration":{"text":"baynahumā","language_name":"english","language_id":38}},{"id":66278,"position":9,"audio_url":"wbw/043_085_009.mp3","char_type_name":"word","page_number":495,"line_number":11,"text":"وَعِندَهُۥ","translation":{"text":"এবং তাঁরই কাছে আছে","language_name":"bengali","language_id":20},"transliteration":{"text":"waʿindahu","language_name":"english","language_id":38}},{"id":66279,"position":10,"audio_url":"wbw/043_085_010.mp3","char_type_name":"word","page_number":495,"line_number":11,"text":"عِلْمُ","translation":{"text":"জ্ঞান","language_name":"bengali","language_id":20},"transliteration":{"text":"ʿil'mu","language_name":"english","language_id":38}},{"id":66280,"position":11,"audio_url":"wbw/043_085_011.mp3","char_type_name":"word","page_number":495,"line_number":11,"text":"ٱلسَّاعَةِ","translation":{"text":"ক্বিয়ামাতের","language_name":"bengali","language_id":20},"transliteration":{"text":"l-sāʿati","language_name":"english","language_id":38}},{"id":66281,"position":12,"audio_url":"wbw/043_085_012.mp3","char_type_name":"word","page_number":495,"line_number":11,"text":"وَإِلَيْهِ","translation":{"text":"এবং তাঁরই দিকে","language_name":"bengali","language_id":20},"transliteration":{"text":"wa-ilayhi","language_name":"english","language_id":38}},{"id":66282,"position":13,"audio_url":"wbw/043_085_013.mp3","char_type_name":"word","page_number":495,"line_number":11,"text":"تُرْجَعُونَ","translation":{"text":"তোমাদেরকে ফিরে যেতে হবে","language_name":"bengali","language_id":20},"transliteration":{"text":"tur'jaʿūna","language_name":"english","language_id":38}},{"id":66283,"position":14,"audio_url":null,"char_type_name":"end","page_number":495,"line_number":12,"text":"٨٥","translation":{"text":"(৮৫)","language_name":"bengali","language_id":20},"transliteration":{"text":null,"language_name":"english","language_id":38}}]},{"id":4411,"verse_number":86,"verse_key":"43:86","hizb_number":50,"rub_el_hizb_number":198,"ruku_number":432,"manzil_number":6,"sajdah_number":null,"page_number":495,"juz_number":25,"words":[{"id":66412,"position":1,"audio_url":"wbw/043_086_001.mp3","char_type_name":"word","page_number":495,"line_number":12,"text":"وَلَا","translation":{"text":"এবং না","language_name":"bengali","language_id":20},"transliteration":{"text":"walā","language_name":"english","language_id":38}},{"id":66413,"position":2,"audio_url":"wbw/043_086_002.mp3","char_type_name":"word","page_number":495,"line_number":12,"text":"يَمْلِكُ","translation":{"text":"ক্ষমতা রাখে","language_name":"bengali","language_id":20},"transliteration":{"text":"yamliku","language_name":"english","language_id":38}},{"id":66414,"position":3,"audio_url":"wbw/043_086_003.mp3","char_type_name":"word","page_number":495,"line_number":12,"text":"ٱلَّذِينَ","translation":{"text":"যাদেরকে","language_name":"bengali","language_id":20},"transliteration":{"text":"alladhīna","language_name":"english","language_id":38}},{"id":66415,"position":4,"audio_url":"wbw/043_086_004.mp3","char_type_name":"word","page_number":495,"line_number":12,"text":"يَدْعُونَ","translation":{"text":"তারা ডাকে","language_name":"bengali","language_id":20},"transliteration":{"text":"yadʿūna","language_name":"english","language_id":38}},{"id":66416,"position":5,"audio_url":"wbw/043_086_005.mp3","char_type_name":"word","page_number":495,"line_number":12,"text":"مِن","translation":{"text":"মধ্য হতে","language_name":"bengali","language_id":20},"transliteration":{"text":"min","language_name":"english","language_id":38}},{"id":66417,"position":6,"audio_url":"wbw/043_086_006.mp3","char_type_name":"word","page_number":495,"line_number":12,"text":"دُونِهِ","translation":{"text":"তাঁকে ছাড়া","language_name":"bengali","language_id":20},"transliteration":{"text":"dūnihi","language_name":"english","language_id":38}},{"id":66418,"position":7,"audio_url":"wbw/043_086_007.mp3","char_type_name":"word","page_number":495,"line_number":12,"text":"ٱلشَّفَـٰعَةَ","translation":{"text":"সুপারিশের","language_name":"bengali","language_id":20},"transliteration":{"text":"l-shafāʿata","language_name":"english","language_id":38}},{"id":66419,"position":8,"audio_url":"wbw/043_086_008.mp3","char_type_name":"word","page_number":495,"line_number":12,"text":"إِلَّا","translation":{"text":"কিন্তু","language_name":"bengali","language_id":20},"transliteration":{"text":"illā","language_name":"english","language_id":38}},{"id":66420,"position":9,"audio_url":"wbw/043_086_009.mp3","char_type_name":"word","page_number":495,"line_number":13,"text":"مَن","translation":{"text":"যে","language_name":"bengali","language_id":20},"transliteration":{"text":"man","language_name":"english","language_id":38}},{"id":66421,"position":10,"audio_url":"wbw/043_086_010.mp3","char_type_name":"word","page_number":495,"line_number":13,"text":"شَهِدَ","translation":{"text":"সাক্ষ্য দেয়","language_name":"bengali","language_id":20},"transliteration":{"text":"shahida","language_name":"english","language_id":38}},{"id":66422,"position":11,"audio_url":"wbw/043_086_011.mp3","char_type_name":"word","page_number":495,"line_number":13,"text":"بِٱلْحَقِّ","translation":{"text":"সত্যের","language_name":"bengali","language_id":20},"transliteration":{"text":"bil-ḥaqi","language_name":"english","language_id":38}},{"id":66423,"position":12,"audio_url":"wbw/043_086_012.mp3","char_type_name":"word","page_number":495,"line_number":13,"text":"وَهُمْ","translation":{"text":"তারা যখন","language_name":"bengali","language_id":20},"transliteration":{"text":"wahum","language_name":"english","language_id":38}},{"id":66424,"position":13,"audio_url":"wbw/043_086_013.mp3","char_type_name":"word","page_number":495,"line_number":13,"text":"يَعْلَمُونَ","translation":{"text":"জানেও","language_name":"bengali","language_id":20},"transliteration":{"text":"yaʿlamūna","language_name":"english","language_id":38}},{"id":66425,"position":14,"audio_url":null,"char_type_name":"end","page_number":495,"line_number":13,"text":"٨٦","translation":{"text":"(৮৬)","language_name":"bengali","language_id":20},"transliteration":{"text":null,"language_name":"english","language_id":38}}]},{"id":4412,"verse_number":87,"verse_key":"43:87","hizb_number":50,"rub_el_hizb_number":198,"ruku_number":432,"manzil_number":6,"sajdah_number":null,"page_number":495,"juz_number":25,"words":[{"id":66985,"position":1,"audio_url":"wbw/043_087_001.mp3","char_type_name":"word","page_number":495,"line_number":13,"text":"وَلَئِن","translation":{"text":"এবং অবশ্যই যদি","language_name":"bengali","language_id":20},"transliteration":{"text":"wala-in","language_name":"english","language_id":38}},{"id":66986,"position":2,"audio_url":"wbw/043_087_002.mp3","char_type_name":"word","page_number":495,"line_number":13,"text":"سَأَلْتَهُم","translation":{"text":"তাদেরকে তুমি জিজ্ঞেস করো","language_name":"bengali","language_id":20},"transliteration":{"text":"sa-altahum","language_name":"english","language_id":38}},{"id":66987,"position":3,"audio_url":"wbw/043_087_003.mp3","char_type_name":"word","page_number":495,"line_number":13,"text":"مَّنْ","translation":{"text":"কে","language_name":"bengali","language_id":20},"transliteration":{"text":"man","language_name":"english","language_id":38}},{"id":66988,"position":4,"audio_url":"wbw/043_087_004.mp3","char_type_name":"word","page_number":495,"line_number":13,"text":"خَلَقَهُمْ","translation":{"text":"তাদের সৃষ্টি করেছে","language_name":"bengali","language_id":20},"transliteration":{"text":"khalaqahum","language_name":"english","language_id":38}},{"id":66989,"position":5,"audio_url":"wbw/043_087_005.mp3","char_type_name":"word","page_number":495,"line_number":14,"text":"لَيَقُولُنَّ","translation":{"text":"অবশ্যই তারা বলবে","language_name":"bengali","language_id":20},"transliteration":{"text":"layaqūlunna","language_name":"english","language_id":38}},{"id":66990,"position":6,"audio_url":"wbw/043_087_006.mp3","char_type_name":"word","page_number":495,"line_number":14,"text":"ٱللَّهُ ۖ","translation":{"text":"\"আল্লাহ\"","language_name":"bengali","language_id":20},"transliteration":{"text":"l-lahu","language_name":"english","language_id":38}},{"id":66992,"position":7,"audio_url":"wbw/043_087_008.mp3","char_type_name":"word","page_number":495,"line_number":14,"text":"فَأَنَّىٰ","translation":{"text":"তাহ'লে কোথায়","language_name":"bengali","language_id":20},"transliteration":{"text":"fa-annā","language_name":"english","language_id":38}},{"id":66993,"position":8,"audio_url":"wbw/043_087_009.mp3","char_type_name":"word","page_number":495,"line_number":14,"text":"يُؤْفَكُونَ","translation":{"text":"তাদের ফিরানো হচ্ছে","language_name":"bengali","language_id":20},"transliteration":{"text":"yu'fakūna","language_name":"english","language_id":38}},{"id":66994,"position":9,"audio_url":null,"char_type_name":"end","page_number":495,"line_number":14,"text":"٨٧","translation":{"text":"(৮৭)","language_name":"bengali","language_id":20},"transliteration":{"text":null,"language_name":"english","language_id":38}}]},{"id":4413,"verse_number":88,"verse_key":"43:88","hizb_number":50,"rub_el_hizb_number":198,"ruku_number":432,"manzil_number":6,"sajdah_number":null,"page_number":495,"juz_number":25,"words":[{"id":67430,"position":1,"audio_url":"wbw/043_088_001.mp3","char_type_name":"word","page_number":495,"line_number":14,"text":"وَقِيلِهِۦ","translation":{"text":"শপথ তার (অর্থাৎ নাবীর) কথার","language_name":"bengali","language_id":20},"transliteration":{"text":"waqīlihi","language_name":"english","language_id":38}},{"id":67431,"position":2,"audio_url":"wbw/043_088_002.mp3","char_type_name":"word","page_number":495,"line_number":14,"text":"يَـٰرَبِّ","translation":{"text":"\"হে আমার রব","language_name":"bengali","language_id":20},"transliteration":{"text":"yārabbi","language_name":"english","language_id":38}},{"id":67432,"position":3,"audio_url":"wbw/043_088_003.mp3","char_type_name":"word","page_number":495,"line_number":14,"text":"إِنَّ","translation":{"text":"নিশ্চয়ই","language_name":"bengali","language_id":20},"transliteration":{"text":"inna","language_name":"english","language_id":38}},{"id":67433,"position":4,"audio_url":"wbw/043_088_004.mp3","char_type_name":"word","page_number":495,"line_number":14,"text":"هَـٰٓؤُلَآءِ","translation":{"text":"এসব","language_name":"bengali","language_id":20},"transliteration":{"text":"hāulāi","language_name":"english","language_id":38}},{"id":67434,"position":5,"audio_url":"wbw/043_088_005.mp3","char_type_name":"word","page_number":495,"line_number":14,"text":"قَوْمٌۭ","translation":{"text":"সম্প্রদায়","language_name":"bengali","language_id":20},"transliteration":{"text":"qawmun","language_name":"english","language_id":38}},{"id":67435,"position":6,"audio_url":"wbw/043_088_006.mp3","char_type_name":"word","page_number":495,"line_number":15,"text":"لَّا","translation":{"text":"না","language_name":"bengali","language_id":20},"transliteration":{"text":"lā","language_name":"english","language_id":38}},{"id":67436,"position":7,"audio_url":"wbw/043_088_007.mp3","char_type_name":"word","page_number":495,"line_number":15,"text":"يُؤْمِنُونَ","translation":{"text":"ঈমান আনবে\"","language_name":"bengali","language_id":20},"transliteration":{"text":"yu'minūna","language_name":"english","language_id":38}},{"id":67437,"position":8,"audio_url":null,"char_type_name":"end","page_number":495,"line_number":15,"text":"٨٨","translation":{"text":"(৮৮)","language_name":"bengali","language_id":20},"transliteration":{"text":null,"language_name":"english","language_id":38}}]},{"id":4414,"verse_number":89,"verse_key":"43:89","hizb_number":50,"rub_el_hizb_number":198,"ruku_number":432,"manzil_number":6,"sajdah_number":null,"page_number":495,"juz_number":25,"words":[{"id":67852,"position":1,"audio_url":"wbw/043_089_001.mp3","char_type_name":"word","page_number":495,"line_number":15,"text":"فَٱصْفَحْ","translation":{"text":"সুতরাং উপেক্ষা করো","language_name":"bengali","language_id":20},"transliteration":{"text":"fa-iṣ'faḥ","language_name":"english","language_id":38}},{"id":67853,"position":2,"audio_url":"wbw/043_089_002.mp3","char_type_name":"word","page_number":495,"line_number":15,"text":"عَنْهُمْ","translation":{"text":"থেকে তাদের","language_name":"bengali","language_id":20},"transliteration":{"text":"ʿanhum","language_name":"english","language_id":38}},{"id":67854,"position":3,"audio_url":"wbw/043_089_003.mp3","char_type_name":"word","page_number":495,"line_number":15,"text":"وَقُلْ","translation":{"text":"এবং বলো","language_name":"bengali","language_id":20},"transliteration":{"text":"waqul","language_name":"english","language_id":38}},{"id":67855,"position":4,"audio_url":"wbw/043_089_004.mp3","char_type_name":"word","page_number":495,"line_number":15,"text":"سَلَـٰمٌۭ ۚ","translation":{"text":"\"সালাম\"","language_name":"bengali","language_id":20},"transliteration":{"text":"salāmun","language_name":"english","language_id":38}},{"id":67857,"position":5,"audio_url":"wbw/043_089_006.mp3","char_type_name":"word","page_number":495,"line_number":15,"text":"فَسَوْفَ","translation":{"text":"অতঃপর শীঘ্রই","language_name":"bengali","language_id":20},"transliteration":{"text":"fasawfa","language_name":"english","language_id":38}},{"id":67858,"position":6,"audio_url":"wbw/043_089_007.mp3","char_type_name":"word","page_number":495,"line_number":15,"text":"يَعْلَمُونَ","translation":{"text":"তারা জানতে পারবে","language_name":"bengali","language_id":20},"transliteration":{"text":"yaʿlamūna","language_name":"english","language_id":38}},{"id":67859,"position":7,"audio_url":null,"char_type_name":"end","page_number":495,"line_number":15,"text":"٨٩","translation":{"text":"(৮৯)","language_name":"bengali","language_id":20},"transliteration":{"text":null,"language_name":"english","language_id":38}}]}],"pagination":{"per_page":10,"current_page":9,"next_page":null,"total_pages":9,"total_records":89}}
