{"verses":[{"id":6158,"verse_number":1,"verse_key":"101:1","hizb_number":60,"rub_el_hizb_number":240,"ruku_number":545,"manzil_number":7,"sajdah_number":null,"page_number":600,"juz_number":30,"words":[{"id":272,"position":1,"audio_url":"wbw/101_001_001.mp3","char_type_name":"word","page_number":600,"line_number":6,"text":"ٱلْقَارِعَةُ","translation":{"text":"মহাপ্রলয়","language_name":"bengali","language_id":20},"transliteration":{"text":"al-qāriʿatu","language_name":"english","language_id":38}},{"id":273,"position":2,"audio_url":null,"char_type_name":"end","page_number":600,"line_number":6,"text":"١","translation":{"text":"(১)","language_name":"bengali","language_id":20},"transliteration":{"text":null,"language_name":"english","language_id":38}}]},{"id":6159,"verse_number":2,"verse_key":"101:2","hizb_number":60,"rub_el_hizb_number":240,"ruku_number":545,"manzil_number":7,"sajdah_number":null,"page_number":600,"juz_number":30,"words":[{"id":977,"position":1,"audio_url":"wbw/101_002_001.mp3","char_type_name":"word","page_number":600,"line_number":6,"text":"مَا","translation":{"text":"কি সেই","language_name":"bengali","language_id":20},"transliteration":{"text":"mā","language_name":"english","language_id":38}},{"id":978,"position":2,"audio_url":"wbw/101_002_002.mp3","char_type_name":"word","page_number":600,"line_number":6,"text":"ٱلْقَارِعَةُ","translation":{"text":"মহাপ্রলয়","language_name":"bengali","language_id":20},"transliteration":{"text":"l-qāriʿatu","language_name":"english","language_id":38}},{"id":979,"position":3,"audio_url":null,"char_type_name":"end","page_number":600,"line_number":6,"text":"٢","translation":{"text":"(২)","language_name":"bengali","language_id":20},"transliteration":{"text":null,"language_name":"english","language_id":38}}]},{"id":6160,"verse_number":3,"verse_key":"101:3","hizb_number":60,"rub_el_hizb_number":240,"ruku_number":545,"manzil_number":7,"sajdah_number":null,"page_number":600,"juz_number":30,"words":[{"id":2067,"position":1,"audio_url":"wbw/101_003_001.mp3","char_type_name":"word","page_number":600,"line_number":6,"text":"وَمَآ","translation":{"text":"এবং কিসে","language_name":"bengali","language_id":20},"transliteration":{"text":"wamā","language_name":"english","language_id":38}},{"id":2068,"position":2,"audio_url":"wbw/101_003_002.mp3","char_type_name":"word","page_number":600,"line_number":6,"text":"أَدْرَىٰكَ","translation":{"text":"তোমাকে জানাবে","language_name":"bengali","language_id":20},"transliteration":{"text":"adrāka","language_name":"english","language_id":38}},{"id":2069,"position":3,"audio_url":"wbw/101_003_003.mp3","char_type_name":"word","page_number":600,"line_number":6,"text":"مَا","translation":{"text":"মহাপ্রলয়","language_name":"bengali","language_id":20},"transliteration":{"text":"mā","language_name":"english","language_id":38}},{"id":2070,"position":4,"audio_url":"wbw/101_003_004.mp3","char_type_name":"word","page_number":600,"line_number":6,"text":"ٱلْقَارِعَةُ","translation":{"text":"ভয়াবহ দুর্ঘটনা","language_name":"bengali","language_id":20},"transliteration":{"text":"l-qāriʿatu","language_name":"english","language_id":38}},{"id":2071,"position":5,"audio_url":null,"char_type_name":"end","page_number":600,"line_number":6,"text":"٣","translation":{"text":"(৩)","language_name":"bengali","language_id":20},"transliteration":{"text":null,"language_name":"english","language_id":38}}]},{"id":6161,"verse_number":4,"verse_key":"101:4","hizb_number":60,"rub_el_hizb_number":240,"ruku_number":545,"manzil_number":7,"sajdah_number":null,"page_number":600,"juz_number":30,"words":[{"id":3357,"position":1,"audio_url":"wbw/101_004_001.mp3","char_type_name":"word","page_number":600,"line_number":6,"text":"يَوْمَ","translation":{"text":"সেদিন","language_name":"bengali","language_id":20},"transliteration":{"text":"yawma","language_name":"english","language_id":38}},{"id":3358,"position":2,"audio_url":"wbw/101_004_002.mp3","char_type_name":"word","page_number":600,"line_number":7,"text":"يَكُونُ","translation":{"text":"হবে","language_name":"bengali","language_id":20},"transliteration":{"text":"yakūnu","language_name":"english","language_id":38}},{"id":3359,"position":3,"audio_url":"wbw/101_004_003.mp3","char_type_name":"word","page_number":600,"line_number":7,"text":"ٱلنَّاسُ","translation":{"text":"মানুষ","language_name":"bengali","language_id":20},"transliteration":{"text":"l-nāsu","language_name":"english","language_id":38}},{"id":3360,"position":4,"audio_url":"wbw/101_004_004.mp3","char_type_name":"word","page_number":600,"line_number":7,"text":"كَٱلْفَرَاشِ","translation":{"text":"পতঙ্গের মতো","language_name":"bengali","language_id":20},"transliteration":{"text":"kal-farāshi","language_name":"english","language_id":38}},{"id":3361,"position":5,"audio_url":"wbw/101_004_005.mp3","char_type_name":"word","page_number":600,"line_number":7,"text":"ٱلْمَبْثُوثِ","translation":{"text":"বিক্ষিপ্ত","language_name":"bengali","language_id":20},"transliteration":{"text":"l-mabthūthi","language_name":"english","language_id":38}},{"id":3362,"position":6,"audio_url":null,"char_type_name":"end","page_number":600,"line_number":7,"text":"٤","translation":{"text":"(৪)","language_name":"bengali","language_id":20},"transliteration":{"text":null,"language_name":"english","language_id":38}}]},{"id":6162,"verse_number":5,"verse_key":"101:5","hizb_number":60,"rub_el_hizb_number":240,"ruku_number":545,"manzil_number":7,"sajdah_number":null,"page_number":600,"juz_number":30,"words":[{"id":4791,"position":1,"audio_url":"wbw/101_005_001.mp3","char_type_name":"word","page_number":600,"line_number":7,"text":"وَتَكُونُ","translation":{"text":"এবং হবে","language_name":"bengali","language_id":20},"transliteration":{"text":"watakūnu","language_name":"english","language_id":38}},{"id":4792,"position":2,"audio_url":"wbw/101_005_002.mp3","char_type_name":"word","page_number":600,"line_number":7,"text":"ٱلْجِبَالُ","translation":{"text":"পাহাড়সমূহ","language_name":"bengali","language_id":20},"transliteration":{"text":"l-jibālu","language_name":"english","language_id":38}},{"id":4793,"position":3,"audio_url":"wbw/101_005_003.mp3","char_type_name":"word","page_number":600,"line_number":8,"text":"كَٱلْعِهْنِ","translation":{"text":"রঙিন পশমের মতো","language_name":"bengali","language_id":20},"transliteration":{"text":"kal-ʿih'ni","language_name":"english","language_id":38}},{"id":4794,"position":4,"audio_url":"wbw/101_005_004.mp3","char_type_name":"word","page_number":600,"line_number":8,"text":"ٱلْمَنفُوشِ","translation":{"text":"ধুনিত","language_name":"bengali","language_id":20},"transliteration":{"text":"l-manfūshi","language_name":"english","language_id":38}},{"id":4795,"position":5,"audio_url":null,"char_type_name":"end","page_number":600,"line_number":8,"text":"٥","translation":{"text":"(৫)","language_name":"bengali","language_id":20},"transliteration":{"text":null,"language_name":"english","language_id":38}}]},{"id":6163,"verse_number":6,"verse_key":"101:6","hizb_number":60,"rub_el_hizb_number":240,"ruku_number":545,"manzil_number":7,"sajdah_number":null,"page_number":600,"juz_number":30,"words":[{"id":6037,"position":1,"audio_url":"wbw/101_006_001.mp3","char_type_name":"word","page_number":600,"line_number":8,"text":"فَأَمَّا","translation":{"text":"অতঃপর তার (ব্যাপার)","language_name":"bengali","language_id":20},"transliteration":{"text":"fa-ammā","language_name":"english","language_id":38}},{"id":6038,"position":2,"audio_url":"wbw/101_006_002.mp3","char_type_name":"word","page_number":600,"line_number":8,"text":"مَن","translation":{"text":"যার","language_name":"bengali","language_id":20},"transliteration":{"text":"man","language_name":"english","language_id":38}},{"id":6039,"position":3,"audio_url":"wbw/101_006_003.mp3","char_type_name":"word","page_number":600,"line_number":8,"text":"ثَقُلَتْ","translation":{"text":"ভারী হবে","language_name":"bengali","language_id":20},"transliteration":{"text":"thaqulat","language_name":"english","language_id":38}},{"id":6040,"position":4,"audio_url":"wbw/101_006_004.mp3","char_type_name":"word","page_number":600,"line_number":8,"text":"مَوَٰزِينُهُۥ","translation":{"text":"তার (পূণ্যের) পাল্লাসমূহ","language_name":"bengali","language_id":20},"transliteration":{"text":"mawāzīnuhu","language_name":"english","language_id":38}},{"id":6041,"position":5,"audio_url":null,"char_type_name":"end","page_number":600,"line_number":8,"text":"٦","translation":{"text":"(৬)","language_name":"bengali","language_id":20},"transliteration":{"text":null,"language_name":"english","language_id":38}}]},{"id":6164,"verse_number":7,"verse_key":"101:7","hizb_number":60,"rub_el_hizb_number":240,"ruku_number":545,"manzil_number":7,"sajdah_number":null,"page_number":600,"juz_number":30,"words":[{"id":7350,"position":1,"audio_url":"wbw/101_007_001.mp3","char_type_name":"word","page_number":600,"line_number":8,"text":"فَهُوَ","translation":{"text":"সে অতঃপর থাকবে","language_name":"bengali","language_id":20},"transliteration":{"text":"fahuwa","language_name":"english","language_id":38}},{"id":7351,"position":2,"audio_url":"wbw/101_007_002.mp3","char_type_name":"word","page_number":600,"line_number":8,"text":"فِى","translation":{"text":"মধ্যে","language_name":"bengali","language_id":20},"transliteration":{"text":"fī","language_name":"english","language_id":38}},{"id":7352,"position":3,"audio_url":"wbw/101_007_003.mp3","char_type_name":"word","page_number":600,"line_number":9,"text":"عِيشَةٍۢ","translation":{"text":"জীবনের","language_name":"bengali","language_id":20},"transliteration":{"text":"ʿīshatin","language_name":"english","language_id":38}},{"id":7353,"position":4,"audio_url":"wbw/101_007_004.mp3","char_type_name":"word","page_number":600,"line_number":9,"text":"رَّاضِيَةٍۢ","translation":{"text":"সন্তোষজনক","language_name":"bengali","language_id":20},"transliteration":{"text":"rāḍiyatin","language_name":"english","language_id":38}},{"id":7354,"position":5,"audio_url":null,"char_type_name":"end","page_number":600,"line_number":9,"text":"٧","translation":{"text":"(৭)","language_name":"bengali","language_id":20},"transliteration":{"text":null,"language_name":"english","language_id":38}}]},{"id":6165,"verse_number":8,"verse_key":"101:8","hizb_number":60,"rub_el_hizb_number":240,"ruku_number":545,"manzil_number":7,"sajdah_number":null,"page_number":600,"juz_number":30,"words":[{"id":8590,"position":1,"audio_url":"wbw/101_008_001.mp3","char_type_name":"word","page_number":600,"line_number":9,"text":"وَأَمَّا","translation":{"text":"আর (তার) ব্যাপার","language_name":"bengali","language_id":20},"transliteration":{"text":"wa-ammā","language_name":"english","language_id":38}},{"id":8591,"position":2,"audio_url":"wbw/101_008_002.mp3","char_type_name":"word","page_number":600,"line_number":9,"text":"مَنْ","translation":{"text":"যার","language_name":"bengali","language_id":20},"transliteration":{"text":"man","language_name":"english","language_id":38}},{"id":8592,"position":3,"audio_url":"wbw/101_008_003.mp3","char_type_name":"word","page_number":600,"line_number":9,"text":"خَفَّتْ","translation":{"text":"হালকা হবে","language_name":"bengali","language_id":20},"transliteration":{"text":"khaffat","language_name":"english","language_id":38}},{"id":8593,"position":4,"audio_url":"wbw/101_008_004.mp3","char_type_name":"word","page_number":600,"line_number":9,"text":"مَوَٰزِينُهُۥ","translation":{"text":"তার পাল্লাসমূহ নেকীর","language_name":"bengali","language_id":20},"transliteration":{"text":"mawāzīnuhu","language_name":"english","language_id":38}},{"id":8594,"position":5,"audio_url":null,"char_type_name":"end","page_number":600,"line_number":9,"text":"٨","translation":{"text":"(৮)","language_name":"bengali","language_id":20},"transliteration":{"text":null,"language_name":"english","language_id":38}}]},{"id":6166,"verse_number":9,"verse_key":"101:9","hizb_number":60,"rub_el_hizb_number":240,"ruku_number":545,"manzil_number":7,"sajdah_number":null,"page_number":600,"juz_number":30,"words":[{"id":9782,"position":1,"audio_url":"wbw/101_009_001.mp3","char_type_name":"word","page_number":600,"line_number":9,"text":"فَأُمُّهُۥ","translation":{"text":"অতঃপর তার বাসস্থান","language_name":"bengali","language_id":20},"transliteration":{"text":"fa-ummuhu","language_name":"english","language_id":38}},{"id":9783,"position":2,"audio_url":"wbw/101_009_002.mp3","char_type_name":"word","page_number":600,"line_number":9,"text":"هَاوِيَةٌۭ","translation":{"text":"গভীর গর্ত হবে","language_name":"bengali","language_id":20},"transliteration":{"text":"hāwiyatun","language_name":"english","language_id":38}},{"id":9784,"position":3,"audio_url":null,"char_type_name":"end","page_number":600,"line_number":10,"text":"٩","translation":{"text":"(৯)","language_name":"bengali","language_id":20},"transliteration":{"text":null,"language_name":"english","language_id":38}}]},{"id":6167,"verse_number":10,"verse_key":"101:10","hizb_number":60,"rub_el_hizb_number":240,"ruku_number":545,"manzil_number":7,"sajdah_number":null,"page_number":600,"juz_number":30,"words":[{"id":10824,"position":1,"audio_url":"wbw/101_010_001.mp3","char_type_name":"word","page_number":600,"line_number":10,"text":"وَمَآ","translation":{"text":"এবং কিসে","language_name":"bengali","language_id":20},"transliteration":{"text":"wamā","language_name":"english","language_id":38}},{"id":10825,"position":2,"audio_url":"wbw/101_010_002.mp3","char_type_name":"word","page_number":600,"line_number":10,"text":"أَدْرَىٰكَ","translation":{"text":"তোমাকে জানাবে","language_name":"bengali","language_id":20},"transliteration":{"text":"adrāka","language_name":"english","language_id":38}},{"id":10826,"position":3,"audio_url":"wbw/101_010_003.mp3","char_type_name":"word","page_number":600,"line_number":10,"text":"مَا","translation":{"text":"কি","language_name":"bengali","language_id":20},"transliteration":{"text":"mā","language_name":"english","language_id":38}},{"id":10827,"position":4,"audio_url":"wbw/101_010_004.mp3","char_type_name":"word","page_number":600,"line_number":10,"text":"هِيَهْ","translation":{"text":"সেটা","language_name":"bengali","language_id":20},"transliteration":{"text":"hiyah","language_name":"english","language_id":38}},{"id":10828,"position":5,"audio_url":null,"char_type_name":"end","page_number":600,"line_number":10,"text":"١٠","translation":{"text":"(১০)","language_name":"bengali","language_id":20},"transliteration":{"text":null,"language_name":"english","language_id":38}}]}],"pagination":{"per_page":10,"current_page":1,"next_page":2,"total_pages":2,"total_records":11}}
