{"verses":[{"id":6168,"verse_number":11,"verse_key":"101:11","hizb_number":60,"rub_el_hizb_number":240,"ruku_number":545,"manzil_number":7,"sajdah_number":null,"page_number":600,"juz_number":30,"words":[{"id":12437,"position":1,"audio_url":"wbw/101_011_001.mp3","char_type_name":"word","page_number":600,"line_number":10,"text":"نَارٌ","translation":{"text":"(সেটা হলো) আগুন","language_name":"bengali","language_id":20},"transliteration":{"text":"nārun","language_name":"english","language_id":38}},{"id":12438,"position":2,"audio_url":"wbw/101_011_002.mp3","char_type_name":"word","page_number":600,"line_number":10,"text":"حَامِيَةٌۢ","translation":{"text":"গণগণে","language_name":"bengali","language_id":20},"transliteration":{"text":"ḥāmiyatun","language_name":"english","language_id":38}},{"id":12439,"position":3,"audio_url":null,"char_type_name":"end","page_number":600,"line_number":10,"text":"١١","translation":{"text":"(১১)","language_name":"bengali","language_id":20},"transliteration":{"text":null,"language_name":"english","language_id":38}}]}],"pagination":{"per_page":10,"current_page":2,"next_page":null,"total_pages":2,"total_records":11}}
