{"verses":[{"id":5978,"verse_number":11,"verse_key":"88:11","hizb_number":60,"rub_el_hizb_number":237,"ruku_number":532,"manzil_number":7,"sajdah_number":null,"page_number":592,"juz_number":30,"words":[{"id":12228,"position":1,"audio_url":"wbw/088_011_001.mp3","verse_key":"88:11","verse_id":5978,"location":"88:11:1","text_uthmani":"لَّا","qpc_uthmani_hafs":"لَّا","char_type_name":"word","page_number":592,"line_number":10,"text":"لَّا","translation":{"text":"না","language_name":"bengali","language_id":20},"transliteration":{"text":"lā","language_name":"english","language_id":38}},{"id":12229,"position":2,"audio_url":"wbw/088_011_002.mp3","verse_key":"88:11","verse_id":5978,"location":"88:11:2","text_uthmani":"تَسْمَعُ","qpc_uthmani_hafs":"تَسۡمَعُ","char_type_name":"word","page_number":592,"line_number":10,"text":"تَسۡمَعُ","translation":{"text":"শুনবে","language_name":"bengali","language_id":20},"transliteration":{"text":"tasmaʿu","language_name":"english","language_id":38}},{"id":12230,"position":3,"audio_url":"wbw/088_011_003.mp3","verse_key":"88:11","verse_id":5978,"location":"88:11:3","text_uthmani":"فِيهَا","qpc_uthmani_hafs":"فِيهَا","char_type_name":"word","page_number":592,"line_number":11,"text":"فِيهَا","translation":{"text":"তার মধ্যে","language_name":"bengali","language_id":20},"transliteration":{"text":"fīhā","language_name":"english","language_id":38}},{"id":12231,"position":4,"audio_url":"wbw/088_011_004.mp3","verse_key":"88:11","verse_id":5978,"location":"88:11:4","text_uthmani":"لَـٰغِيَةًۭ","qpc_uthmani_hafs":"لَٰغِيَةٗ","char_type_name":"word","page_number":592,"line_number":11,"text":"لَٰغِيَةٗ","translation":{"text":"কোনো অর্থহীন কথা","language_name":"bengali","language_id":20},"transliteration":{"text":"lāghiyatan","language_name":"english","language_id":38}},{"id":12232,"position":5,"audio_url":null,"verse_key":"88:11","verse_id":5978,"location":"88:11:5","text_uthmani":"١١","qpc_uthmani_hafs":"١١","char_type_name":"end","page_number":592,"line_number":11,"text":"١١","translation":{"text":"(১১)","language_name":"bengali","language_id":20},"transliteration":{"text":null,"language_name":"english","language_id":38}}]},{"id":5979,"verse_number":12,"verse_key":"88:12","hizb_number":60,"rub_el_hizb_number":237,"ruku_number":532,"manzil_number":7,"sajdah_number":null,"page_number":592,"juz_number":30,"words":[{"id":13384,"position":1,"audio_url":"wbw/088_012_001.mp3","verse_key":"88:12","verse_id":5979,"location":"88:12:1","text_uthmani":"فِيهَا","qpc_uthmani_hafs":"فِيهَا","char_type_name":"word","page_number":592,"line_number":11,"text":"فِيهَا","translation":{"text":"তার মধ্যে (থাকবে)","language_name":"bengali","language_id":20},"transliteration":{"text":"fīhā","language_name":"english","language_id":38}},{"id":13385,"position":2,"audio_url":"wbw/088_012_002.mp3","verse_key":"88:12","verse_id":5979,"location":"88:12:2","text_uthmani":"عَيْنٌۭ","qpc_uthmani_hafs":"عَيۡنٞ","char_type_name":"word","page_number":592,"line_number":11,"text":"عَيۡنٞ","translation":{"text":"ঝর্ণা","language_name":"bengali","language_id":20},"transliteration":{"text":"ʿaynun","language_name":"english","language_id":38}},{"id":13386,"position":3,"audio_url":"wbw/088_012_003.mp3","verse_key":"88:12","verse_id":5979,"location":"88:12:3","text_uthmani":"جَارِيَةٌۭ","qpc_uthmani_hafs":"جَارِيَةٞ","char_type_name":"word","page_number":592,"line_number":11,"text":"جَارِيَةٞ","translation":{"text":"প্রবহমান","language_name":"bengali","language_id":20},"transliteration":{"text":"jāriyatun","language_name":"english","language_id":38}},{"id":13387,"position":4,"audio_url":null,"verse_key":"88:12","verse_id":5979,"location":"88:12:4","text_uthmani":"١٢","qpc_uthmani_hafs":"١٢","char_type_name":"end","page_number":592,"line_number":11,"text":"١٢","translation":{"text":"(১২)","language_name":"bengali","language_id":20},"transliteration":{"text":null,"language_name":"english","language_id":38}}]},{"id":5980,"verse_number":13,"verse_key":"88:13","hizb_number":60,"rub_el_hizb_number":237,"ruku_number":532,"manzil_number":7,"sajdah_number":null,"page_number":592,"juz_number":30,"words":[{"id":14875,"position":1,"audio_url":"wbw/088_013_001.mp3","verse_key":"88:13","verse_id":5980,"location":"88:13:1","text_uthmani":"فِيهَا","qpc_uthmani_hafs":"فِيهَا","char_type_name":"word","page_number":592,"line_number":11,"text":"فِيهَا","translation":{"text":"তার মধ্যে (থাকবে)","language_name":"bengali","language_id":20},"transliteration":{"text":"fīhā","language_name":"english","language_id":38}},{"id":14876,"position":2,"audio_url":"wbw/088_013_002.mp3","verse_key":"88:13","verse_id":5980,"location":"88:13:2","text_uthmani":"سُرُرٌۭ","qpc_uthmani_hafs":"سُرُرٞ","char_type_name":"word","page_number":592,"line_number":11,"text":"سُرُرٞ","translation":{"text":"আসন সমূহ","language_name":"bengali","language_id":20},"transliteration":{"text":"sururun","language_name":"english","language_id":38}},{"id":14877,"position":3,"audio_url":"wbw/088_013_003.mp3","verse_key":"88:13","verse_id":5980,"location":"88:13:3","text_uthmani":"مَّرْفُوعَةٌۭ","qpc_uthmani_hafs":"مَّرۡفُوعَةٞ","char_type_name":"word","page_number":592,"line_number":11,"text":"مَّرۡفُوعَةٞ","translation":{"text":"সুউচ্চ","language_name":"bengali","language_id":20},"transliteration":{"text":"marfūʿatun","language_name":"english","language_id":38}},{"id":14878,"position":4,"audio_url":null,"verse_key":"88:13","verse_id":5980,"location":"88:13:4","text_uthmani":"١٣","qpc_uthmani_hafs":"١٣","char_type_name":"end","page_number":592,"line_number":11,"text":"١٣","translation":{"text":"(১৩)","language_name":"bengali","language_id":20},"transliteration":{"text":null,"language_name":"english","language_id":38}}]},{"id":5981,"verse_number":14,"verse_key":"88:14","hizb_number":60,"rub_el_hizb_number":237,"ruku_number":532,"manzil_number":7,"sajdah_number":null,"page_number":592,"juz_number":30,"words":[{"id":15926,"position":1,"audio_url":"wbw/088_014_001.mp3","verse_key":"88:14","verse_id":5981,"location":"88:14:1","text_uthmani":"وَأَكْوَابٌۭ","qpc_uthmani_hafs":"وَأَكۡوَابٞ","char_type_name":"word","page_number":592,"line_number":11,"text":"وَأَكۡوَابٞ","translation":{"text":"এবং পানপাত্রগুলো (হবে)","language_name":"bengali","language_id":20},"transliteration":{"text":"wa-akwābun","language_name":"english","language_id":38}},{"id":15927,"position":2,"audio_url":"wbw/088_014_002.mp3","verse_key":"88:14","verse_id":5981,"location":"88:14:2","text_uthmani":"مَّوْضُوعَةٌۭ","qpc_uthmani_hafs":"مَّوۡضُوعَةٞ","char_type_name":"word","page_number":592,"line_number":12,"text":"مَّوۡضُوعَةٞ","translation":{"text":"সুসজ্জিত/ প্রস্তুত","language_name":"bengali","language_id":20},"transliteration":{"text":"mawḍūʿatun","language_name":"english","language_id":38}},{"id":15928,"position":3,"audio_url":null,"verse_key":"88:14","verse_id":5981,"location":"88:14:3","text_uthmani":"١٤","qpc_uthmani_hafs":"١٤","char_type_name":"end","page_number":592,"line_number":12,"text":"١٤","translation":{"text":"(১৪)","language_name":"bengali","language_id":20},"transliteration":{"text":null,"language_name":"english","language_id":38}}]},{"id":5982,"verse_number":15,"verse_key":"88:15","hizb_number":60,"rub_el_hizb_number":237,"ruku_number":532,"manzil_number":7,"sajdah_number":null,"page_number":592,"juz_number":30,"words":[{"id":17213,"position":1,"audio_url":"wbw/088_015_001.mp3","verse_key":"88:15","verse_id":5982,"location":"88:15:1","text_uthmani":"وَنَمَارِقُ","qpc_uthmani_hafs":"وَنَمَارِقُ","char_type_name":"word","page_number":592,"line_number":12,"text":"وَنَمَارِقُ","translation":{"text":"এবং তাকিয়াসমূহ (থাকবে)","language_name":"bengali","language_id":20},"transliteration":{"text":"wanamāriqu","language_name":"english","language_id":38}},{"id":17214,"position":2,"audio_url":"wbw/088_015_002.mp3","verse_key":"88:15","verse_id":5982,"location":"88:15:2","text_uthmani":"مَصْفُوفَةٌۭ","qpc_uthmani_hafs":"مَصۡفُوفَةٞ","char_type_name":"word","page_number":592,"line_number":12,"text":"مَصۡفُوفَةٞ","translation":{"text":"সারি সারি","language_name":"bengali","language_id":20},"transliteration":{"text":"maṣfūfatun","language_name":"english","language_id":38}},{"id":17215,"position":3,"audio_url":null,"verse_key":"88:15","verse_id":5982,"location":"88:15:3","text_uthmani":"١٥","qpc_uthmani_hafs":"١٥","char_type_name":"end","page_number":592,"line_number":12,"text":"١٥","translation":{"text":"(১৫)","language_name":"bengali","language_id":20},"transliteration":{"text":null,"language_name":"english","language_id":38}}]},{"id":5983,"verse_number":16,"verse_key":"88:16","hizb_number":60,"rub_el_hizb_number":237,"ruku_number":532,"manzil_number":7,"sajdah_number":null,"page_number":592,"juz_number":30,"words":[{"id":18237,"position":1,"audio_url":"wbw/088_016_001.mp3","verse_key":"88:16","verse_id":5983,"location":"88:16:1","text_uthmani":"وَزَرَابِىُّ","qpc_uthmani_hafs":"وَزَرَابِيُّ","char_type_name":"word","page_number":592,"line_number":12,"text":"وَزَرَابِيُّ","translation":{"text":"এবং গালিচা","language_name":"bengali","language_id":20},"transliteration":{"text":"wazarābiyyu","language_name":"english","language_id":38}},{"id":18238,"position":2,"audio_url":"wbw/088_016_002.mp3","verse_key":"88:16","verse_id":5983,"location":"88:16:2","text_uthmani":"مَبْثُوثَةٌ","qpc_uthmani_hafs":"مَبۡثُوثَةٌ","char_type_name":"word","page_number":592,"line_number":12,"text":"مَبۡثُوثَةٌ","translation":{"text":"বিছানো (থাকবে)","language_name":"bengali","language_id":20},"transliteration":{"text":"mabthūthatun","language_name":"english","language_id":38}},{"id":18239,"position":3,"audio_url":null,"verse_key":"88:16","verse_id":5983,"location":"88:16:3","text_uthmani":"١٦","qpc_uthmani_hafs":"١٦","char_type_name":"end","page_number":592,"line_number":12,"text":"١٦","translation":{"text":"(১৬)","language_name":"bengali","language_id":20},"transliteration":{"text":null,"language_name":"english","language_id":38}}]},{"id":5984,"verse_number":17,"verse_key":"88:17","hizb_number":60,"rub_el_hizb_number":237,"ruku_number":532,"manzil_number":7,"sajdah_number":null,"page_number":592,"juz_number":30,"words":[{"id":19310,"position":1,"audio_url":"wbw/088_017_001.mp3","verse_key":"88:17","verse_id":5984,"location":"88:17:1","text_uthmani":"أَفَلَا","qpc_uthmani_hafs":"أَفَلَا","char_type_name":"word","page_number":592,"line_number":12,"text":"أَفَلَا","translation":{"text":"তবে কি না","language_name":"bengali","language_id":20},"transliteration":{"text":"afalā","language_name":"english","language_id":38}},{"id":19311,"position":2,"audio_url":"wbw/088_017_002.mp3","verse_key":"88:17","verse_id":5984,"location":"88:17:2","text_uthmani":"يَنظُرُونَ","qpc_uthmani_hafs":"يَنظُرُونَ","char_type_name":"word","page_number":592,"line_number":12,"text":"يَنظُرُونَ","translation":{"text":"তারা লক্ষ করে","language_name":"bengali","language_id":20},"transliteration":{"text":"yanẓurūna","language_name":"english","language_id":38}},{"id":19312,"position":3,"audio_url":"wbw/088_017_003.mp3","verse_key":"88:17","verse_id":5984,"location":"88:17:3","text_uthmani":"إِلَى","qpc_uthmani_hafs":"إِلَى","char_type_name":"word","page_number":592,"line_number":13,"text":"إِلَى","translation":{"text":"প্রতি","language_name":"bengali","language_id":20},"transliteration":{"text":"ilā","language_name":"english","language_id":38}},{"id":19313,"position":4,"audio_url":"wbw/088_017_004.mp3","verse_key":"88:17","verse_id":5984,"location":"88:17:4","text_uthmani":"ٱلْإِبِلِ","qpc_uthmani_hafs":"ٱلۡإِبِلِ","char_type_name":"word","page_number":592,"line_number":13,"text":"ٱلۡإِبِلِ","translation":{"text":"উটের","language_name":"bengali","language_id":20},"transliteration":{"text":"l-ibili","language_name":"english","language_id":38}},{"id":19314,"position":5,"audio_url":"wbw/088_017_005.mp3","verse_key":"88:17","verse_id":5984,"location":"88:17:5","text_uthmani":"كَيْفَ","qpc_uthmani_hafs":"كَيۡفَ","char_type_name":"word","page_number":592,"line_number":13,"text":"كَيۡفَ","translation":{"text":"কীভাবে","language_name":"bengali","language_id":20},"transliteration":{"text":"kayfa","language_name":"english","language_id":38}},{"id":19315,"position":6,"audio_url":"wbw/088_017_006.mp3","verse_key":"88:17","verse_id":5984,"location":"88:17:6","text_uthmani":"خُلِقَتْ","qpc_uthmani_hafs":"خُلِقَتۡ","char_type_name":"word","page_number":592,"line_number":13,"text":"خُلِقَتۡ","translation":{"text":"সৃষ্টি করা হয়েছে","language_name":"bengali","language_id":20},"transliteration":{"text":"khuliqat","language_name":"english","language_id":38}},{"id":19316,"position":7,"audio_url":null,"verse_key":"88:17","verse_id":5984,"location":"88:17:7","text_uthmani":"١٧","qpc_uthmani_hafs":"١٧","char_type_name":"end","page_number":592,"line_number":13,"text":"١٧","translation":{"text":"(১৭)","language_name":"bengali","language_id":20},"transliteration":{"text":null,"language_name":"english","language_id":38}}]},{"id":5985,"verse_number":18,"verse_key":"88:18","hizb_number":60,"rub_el_hizb_number":237,"ruku_number":532,"manzil_number":7,"sajdah_number":null,"page_number":592,"juz_number":30,"words":[{"id":20361,"position":1,"audio_url":"wbw/088_018_001.mp3","verse_key":"88:18","verse_id":5985,"location":"88:18:1","text_uthmani":"وَإِلَى","qpc_uthmani_hafs":"وَإِلَى","char_type_name":"word","page_number":592,"line_number":13,"text":"وَإِلَى","translation":{"text":"এবং দিকে","language_name":"bengali","language_id":20},"transliteration":{"text":"wa-ilā","language_name":"english","language_id":38}},{"id":20362,"position":2,"audio_url":"wbw/088_018_002.mp3","verse_key":"88:18","verse_id":5985,"location":"88:18:2","text_uthmani":"ٱلسَّمَآءِ","qpc_uthmani_hafs":"ٱلسَّمَآءِ","char_type_name":"word","page_number":592,"line_number":13,"text":"ٱلسَّمَآءِ","translation":{"text":"আকাশের","language_name":"bengali","language_id":20},"transliteration":{"text":"l-samāi","language_name":"english","language_id":38}},{"id":20363,"position":3,"audio_url":"wbw/088_018_003.mp3","verse_key":"88:18","verse_id":5985,"location":"88:18:3","text_uthmani":"كَيْفَ","qpc_uthmani_hafs":"كَيۡفَ","char_type_name":"word","page_number":592,"line_number":13,"text":"كَيۡفَ","translation":{"text":"কীভাবে","language_name":"bengali","language_id":20},"transliteration":{"text":"kayfa","language_name":"english","language_id":38}},{"id":20364,"position":4,"audio_url":"wbw/088_018_004.mp3","verse_key":"88:18","verse_id":5985,"location":"88:18:4","text_uthmani":"رُفِعَتْ","qpc_uthmani_hafs":"رُفِعَتۡ","char_type_name":"word","page_number":592,"line_number":13,"text":"رُفِعَتۡ","translation":{"text":"উঁচু করা হয়েছে","language_name":"bengali","language_id":20},"transliteration":{"text":"rufiʿat","language_name":"english","language_id":38}},{"id":20365,"position":5,"audio_url":null,"verse_key":"88:18","verse_id":5985,"location":"88:18:5","text_uthmani":"١٨","qpc_uthmani_hafs":"١٨","char_type_name":"end","page_number":592,"line_number":13,"text":"١٨","translation":{"text":"(১৮)","language_name":"bengali","language_id":20},"transliteration":{"text":null,"language_name":"english","language_id":38}}]},{"id":5986,"verse_number":19,"verse_key":"88:19","hizb_number":60,"rub_el_hizb_number":237,"ruku_number":532,"manzil_number":7,"sajdah_number":null,"page_number":592,"juz_number":30,"words":[{"id":21422,"position":1,"audio_url":"wbw/088_019_001.mp3","verse_key":"88:19","verse_id":5986,"location":"88:19:1","text_uthmani":"وَإِلَى","qpc_uthmani_hafs":"وَإِلَى","char_type_name":"word","page_number":592,"line_number":13,"text":"وَإِلَى","translation":{"text":"এবং দিকে","language_name":"bengali","language_id":20},"transliteration":{"text":"wa-ilā","language_name":"english","language_id":38}},{"id":21423,"position":2,"audio_url":"wbw/088_019_002.mp3","verse_key":"88:19","verse_id":5986,"location":"88:19:2","text_uthmani":"ٱلْجِبَالِ","qpc_uthmani_hafs":"ٱلۡجِبَالِ","char_type_name":"word","page_number":592,"line_number":14,"text":"ٱلۡجِبَالِ","translation":{"text":"পর্বতমালার","language_name":"bengali","language_id":20},"transliteration":{"text":"l-jibāli","language_name":"english","language_id":38}},{"id":21424,"position":3,"audio_url":"wbw/088_019_003.mp3","verse_key":"88:19","verse_id":5986,"location":"88:19:3","text_uthmani":"كَيْفَ","qpc_uthmani_hafs":"كَيۡفَ","char_type_name":"word","page_number":592,"line_number":14,"text":"كَيۡفَ","translation":{"text":"কীভাবে","language_name":"bengali","language_id":20},"transliteration":{"text":"kayfa","language_name":"english","language_id":38}},{"id":21425,"position":4,"audio_url":"wbw/088_019_004.mp3","verse_key":"88:19","verse_id":5986,"location":"88:19:4","text_uthmani":"نُصِبَتْ","qpc_uthmani_hafs":"نُصِبَتۡ","char_type_name":"word","page_number":592,"line_number":14,"text":"نُصِبَتۡ","translation":{"text":"স্থাপন করা হয়েছে","language_name":"bengali","language_id":20},"transliteration":{"text":"nuṣibat","language_name":"english","language_id":38}},{"id":21426,"position":5,"audio_url":null,"verse_key":"88:19","verse_id":5986,"location":"88:19:5","text_uthmani":"١٩","qpc_uthmani_hafs":"١٩","char_type_name":"end","page_number":592,"line_number":14,"text":"١٩","translation":{"text":"(১৯)","language_name":"bengali","language_id":20},"transliteration":{"text":null,"language_name":"english","language_id":38}}]},{"id":5987,"verse_number":20,"verse_key":"88:20","hizb_number":60,"rub_el_hizb_number":237,"ruku_number":532,"manzil_number":7,"sajdah_number":null,"page_number":592,"juz_number":30,"words":[{"id":22570,"position":1,"audio_url":"wbw/088_020_001.mp3","verse_key":"88:20","verse_id":5987,"location":"88:20:1","text_uthmani":"وَإِلَى","qpc_uthmani_hafs":"وَإِلَى","char_type_name":"word","page_number":592,"line_number":14,"text":"وَإِلَى","translation":{"text":"এবং দিকে","language_name":"bengali","language_id":20},"transliteration":{"text":"wa-ilā","language_name":"english","language_id":38}},{"id":22571,"position":2,"audio_url":"wbw/088_020_002.mp3","verse_key":"88:20","verse_id":5987,"location":"88:20:2","text_uthmani":"ٱلْأَرْضِ","qpc_uthmani_hafs":"ٱلۡأَرۡضِ","char_type_name":"word","page_number":592,"line_number":14,"text":"ٱلۡأَرۡضِ","translation":{"text":"পৃথিবীর","language_name":"bengali","language_id":20},"transliteration":{"text":"l-arḍi","language_name":"english","language_id":38}},{"id":22572,"position":3,"audio_url":"wbw/088_020_003.mp3","verse_key":"88:20","verse_id":5987,"location":"88:20:3","text_uthmani":"كَيْفَ","qpc_uthmani_hafs":"كَيۡفَ","char_type_name":"word","page_number":592,"line_number":14,"text":"كَيۡفَ","translation":{"text":"কীভাবে","language_name":"bengali","language_id":20},"transliteration":{"text":"kayfa","language_name":"english","language_id":38}},{"id":22573,"position":4,"audio_url":"wbw/088_020_004.mp3","verse_key":"88:20","verse_id":5987,"location":"88:20:4","text_uthmani":"سُطِحَتْ","qpc_uthmani_hafs":"سُطِحَتۡ","char_type_name":"word","page_number":592,"line_number":14,"text":"سُطِحَتۡ","translation":{"text":"বিস্তৃত করা হয়েছে","language_name":"bengali","language_id":20},"transliteration":{"text":"suṭiḥat","language_name":"english","language_id":38}},{"id":22574,"position":5,"audio_url":null,"verse_key":"88:20","verse_id":5987,"location":"88:20:5","text_uthmani":"٢٠","qpc_uthmani_hafs":"٢٠","char_type_name":"end","page_number":592,"line_number":14,"text":"٢٠","translation":{"text":"(২০)","language_name":"bengali","language_id":20},"transliteration":{"text":null,"language_name":"english","language_id":38}}]}],"pagination":{"per_page":10,"current_page":2,"next_page":3,"total_pages":3,"total_records":26}}
