{"verses":[{"id":5988,"verse_number":21,"verse_key":"88:21","hizb_number":60,"rub_el_hizb_number":237,"ruku_number":532,"manzil_number":7,"sajdah_number":null,"page_number":592,"juz_number":30,"words":[{"id":23739,"position":1,"audio_url":"wbw/088_021_001.mp3","char_type_name":"word","page_number":592,"line_number":15,"text":"فَذَكِّرْ","translation":{"text":"অতএব উপদেশ দাও","language_name":"bengali","language_id":20},"transliteration":{"text":"fadhakkir","language_name":"english","language_id":38}},{"id":23740,"position":2,"audio_url":"wbw/088_021_002.mp3","char_type_name":"word","page_number":592,"line_number":15,"text":"إِنَّمَآ","translation":{"text":"মূলতঃ","language_name":"bengali","language_id":20},"transliteration":{"text":"innamā","language_name":"english","language_id":38}},{"id":23741,"position":3,"audio_url":"wbw/088_021_003.mp3","char_type_name":"word","page_number":592,"line_number":15,"text":"أَنتَ","translation":{"text":"তুমি","language_name":"bengali","language_id":20},"transliteration":{"text":"anta","language_name":"english","language_id":38}},{"id":23742,"position":4,"audio_url":"wbw/088_021_004.mp3","char_type_name":"word","page_number":592,"line_number":15,"text":"مُذَكِّرٌۭ","translation":{"text":"উপদেশদাতা (মাত্র)","language_name":"bengali","language_id":20},"transliteration":{"text":"mudhakkirun","language_name":"english","language_id":38}},{"id":23743,"position":5,"audio_url":null,"char_type_name":"end","page_number":592,"line_number":15,"text":"٢١","translation":{"text":"(২১)","language_name":"bengali","language_id":20},"transliteration":{"text":null,"language_name":"english","language_id":38}}]},{"id":5989,"verse_number":22,"verse_key":"88:22","hizb_number":60,"rub_el_hizb_number":237,"ruku_number":532,"manzil_number":7,"sajdah_number":null,"page_number":592,"juz_number":30,"words":[{"id":24774,"position":1,"audio_url":"wbw/088_022_001.mp3","char_type_name":"word","page_number":592,"line_number":15,"text":"لَّسْتَ","translation":{"text":"তুমি নও","language_name":"bengali","language_id":20},"transliteration":{"text":"lasta","language_name":"english","language_id":38}},{"id":24775,"position":2,"audio_url":"wbw/088_022_002.mp3","char_type_name":"word","page_number":592,"line_number":15,"text":"عَلَيْهِم","translation":{"text":"তাদের উপর","language_name":"bengali","language_id":20},"transliteration":{"text":"ʿalayhim","language_name":"english","language_id":38}},{"id":24776,"position":3,"audio_url":"wbw/088_022_003.mp3","char_type_name":"word","page_number":592,"line_number":15,"text":"بِمُصَيْطِرٍ","translation":{"text":"কর্মের নিয়ন্তা","language_name":"bengali","language_id":20},"transliteration":{"text":"bimuṣayṭirin","language_name":"english","language_id":38}},{"id":24777,"position":4,"audio_url":null,"char_type_name":"end","page_number":592,"line_number":15,"text":"٢٢","translation":{"text":"(২২)","language_name":"bengali","language_id":20},"transliteration":{"text":null,"language_name":"english","language_id":38}}]},{"id":5990,"verse_number":23,"verse_key":"88:23","hizb_number":60,"rub_el_hizb_number":237,"ruku_number":532,"manzil_number":7,"sajdah_number":null,"page_number":593,"juz_number":30,"words":[{"id":25796,"position":1,"audio_url":"wbw/088_023_001.mp3","char_type_name":"word","page_number":593,"line_number":1,"text":"إِلَّا","translation":{"text":"তবে","language_name":"bengali","language_id":20},"transliteration":{"text":"illā","language_name":"english","language_id":38}},{"id":25797,"position":2,"audio_url":"wbw/088_023_002.mp3","char_type_name":"word","page_number":593,"line_number":1,"text":"مَن","translation":{"text":"যে","language_name":"bengali","language_id":20},"transliteration":{"text":"man","language_name":"english","language_id":38}},{"id":25798,"position":3,"audio_url":"wbw/088_023_003.mp3","char_type_name":"word","page_number":593,"line_number":1,"text":"تَوَلَّىٰ","translation":{"text":"মুখ ফিরায়","language_name":"bengali","language_id":20},"transliteration":{"text":"tawallā","language_name":"english","language_id":38}},{"id":25799,"position":4,"audio_url":"wbw/088_023_004.mp3","char_type_name":"word","page_number":593,"line_number":1,"text":"وَكَفَرَ","translation":{"text":"ও অবিশ্বাস করে","language_name":"bengali","language_id":20},"transliteration":{"text":"wakafara","language_name":"english","language_id":38}},{"id":25800,"position":5,"audio_url":null,"char_type_name":"end","page_number":593,"line_number":1,"text":"٢٣","translation":{"text":"(২৩)","language_name":"bengali","language_id":20},"transliteration":{"text":null,"language_name":"english","language_id":38}}]},{"id":5991,"verse_number":24,"verse_key":"88:24","hizb_number":60,"rub_el_hizb_number":237,"ruku_number":532,"manzil_number":7,"sajdah_number":null,"page_number":593,"juz_number":30,"words":[{"id":26853,"position":1,"audio_url":"wbw/088_024_001.mp3","char_type_name":"word","page_number":593,"line_number":1,"text":"فَيُعَذِّبُهُ","translation":{"text":"অতঃপর তাকে শাস্তি দেবেন","language_name":"bengali","language_id":20},"transliteration":{"text":"fayuʿadhibuhu","language_name":"english","language_id":38}},{"id":26854,"position":2,"audio_url":"wbw/088_024_002.mp3","char_type_name":"word","page_number":593,"line_number":1,"text":"ٱللَّهُ","translation":{"text":"আল্লাহ্‌","language_name":"bengali","language_id":20},"transliteration":{"text":"l-lahu","language_name":"english","language_id":38}},{"id":26855,"position":3,"audio_url":"wbw/088_024_003.mp3","char_type_name":"word","page_number":593,"line_number":1,"text":"ٱلْعَذَابَ","translation":{"text":"শাস্তি","language_name":"bengali","language_id":20},"transliteration":{"text":"l-ʿadhāba","language_name":"english","language_id":38}},{"id":26856,"position":4,"audio_url":"wbw/088_024_004.mp3","char_type_name":"word","page_number":593,"line_number":1,"text":"ٱلْأَكْبَرَ","translation":{"text":"মহা","language_name":"bengali","language_id":20},"transliteration":{"text":"l-akbara","language_name":"english","language_id":38}},{"id":26857,"position":5,"audio_url":null,"char_type_name":"end","page_number":593,"line_number":1,"text":"٢٤","translation":{"text":"(২৪)","language_name":"bengali","language_id":20},"transliteration":{"text":null,"language_name":"english","language_id":38}}]},{"id":5992,"verse_number":25,"verse_key":"88:25","hizb_number":60,"rub_el_hizb_number":237,"ruku_number":532,"manzil_number":7,"sajdah_number":null,"page_number":593,"juz_number":30,"words":[{"id":27843,"position":1,"audio_url":"wbw/088_025_001.mp3","char_type_name":"word","page_number":593,"line_number":2,"text":"إِنَّ","translation":{"text":"নিশ্চয়ই","language_name":"bengali","language_id":20},"transliteration":{"text":"inna","language_name":"english","language_id":38}},{"id":27844,"position":2,"audio_url":"wbw/088_025_002.mp3","char_type_name":"word","page_number":593,"line_number":2,"text":"إِلَيْنَآ","translation":{"text":"আমাদের দিকে","language_name":"bengali","language_id":20},"transliteration":{"text":"ilaynā","language_name":"english","language_id":38}},{"id":27845,"position":3,"audio_url":"wbw/088_025_003.mp3","char_type_name":"word","page_number":593,"line_number":2,"text":"إِيَابَهُمْ","translation":{"text":"তাদের প্রত্যাবর্তন হবে","language_name":"bengali","language_id":20},"transliteration":{"text":"iyābahum","language_name":"english","language_id":38}},{"id":27846,"position":4,"audio_url":null,"char_type_name":"end","page_number":593,"line_number":2,"text":"٢٥","translation":{"text":"(২৫)","language_name":"bengali","language_id":20},"transliteration":{"text":null,"language_name":"english","language_id":38}}]},{"id":5993,"verse_number":26,"verse_key":"88:26","hizb_number":60,"rub_el_hizb_number":237,"ruku_number":532,"manzil_number":7,"sajdah_number":null,"page_number":593,"juz_number":30,"words":[{"id":28569,"position":1,"audio_url":"wbw/088_026_001.mp3","char_type_name":"word","page_number":593,"line_number":2,"text":"ثُمَّ","translation":{"text":"অতঃপর","language_name":"bengali","language_id":20},"transliteration":{"text":"thumma","language_name":"english","language_id":38}},{"id":28570,"position":2,"audio_url":"wbw/088_026_002.mp3","char_type_name":"word","page_number":593,"line_number":2,"text":"إِنَّ","translation":{"text":"নিশ্চয়ই","language_name":"bengali","language_id":20},"transliteration":{"text":"inna","language_name":"english","language_id":38}},{"id":28571,"position":3,"audio_url":"wbw/088_026_003.mp3","char_type_name":"word","page_number":593,"line_number":2,"text":"عَلَيْنَا","translation":{"text":"আমাদের উপর (দায়িত্ব)","language_name":"bengali","language_id":20},"transliteration":{"text":"ʿalaynā","language_name":"english","language_id":38}},{"id":28572,"position":4,"audio_url":"wbw/088_026_004.mp3","char_type_name":"word","page_number":593,"line_number":2,"text":"حِسَابَهُم","translation":{"text":"তাদের হিসাবের","language_name":"bengali","language_id":20},"transliteration":{"text":"ḥisābahum","language_name":"english","language_id":38}},{"id":28573,"position":5,"audio_url":null,"char_type_name":"end","page_number":593,"line_number":2,"text":"٢٦","translation":{"text":"(২৬)","language_name":"bengali","language_id":20},"transliteration":{"text":null,"language_name":"english","language_id":38}}]}],"pagination":{"per_page":10,"current_page":3,"next_page":null,"total_pages":3,"total_records":26}}
