{"verses":[{"id":6059,"verse_number":1,"verse_key":"92:1","hizb_number":60,"rub_el_hizb_number":238,"ruku_number":536,"manzil_number":7,"sajdah_number":null,"page_number":595,"juz_number":30,"words":[{"id":222,"position":1,"audio_url":"wbw/092_001_001.mp3","char_type_name":"word","page_number":595,"line_number":13,"text":"وَٱلَّيْلِ","translation":{"text":"শপথ রাতের","language_name":"bengali","language_id":20},"transliteration":{"text":"wa-al-layli","language_name":"english","language_id":38}},{"id":223,"position":2,"audio_url":"wbw/092_001_002.mp3","char_type_name":"word","page_number":595,"line_number":13,"text":"إِذَا","translation":{"text":"যখন","language_name":"bengali","language_id":20},"transliteration":{"text":"idhā","language_name":"english","language_id":38}},{"id":224,"position":3,"audio_url":"wbw/092_001_003.mp3","char_type_name":"word","page_number":595,"line_number":13,"text":"يَغْشَىٰ","translation":{"text":"আচ্ছন্ন করে","language_name":"bengali","language_id":20},"transliteration":{"text":"yaghshā","language_name":"english","language_id":38}},{"id":225,"position":4,"audio_url":null,"char_type_name":"end","page_number":595,"line_number":13,"text":"١","translation":{"text":"(১)","language_name":"bengali","language_id":20},"transliteration":{"text":null,"language_name":"english","language_id":38}}]},{"id":6060,"verse_number":2,"verse_key":"92:2","hizb_number":60,"rub_el_hizb_number":238,"ruku_number":536,"manzil_number":7,"sajdah_number":null,"page_number":595,"juz_number":30,"words":[{"id":1785,"position":1,"audio_url":"wbw/092_002_001.mp3","char_type_name":"word","page_number":595,"line_number":13,"text":"وَٱلنَّهَارِ","translation":{"text":"শপথ দিনের","language_name":"bengali","language_id":20},"transliteration":{"text":"wal-nahāri","language_name":"english","language_id":38}},{"id":1786,"position":2,"audio_url":"wbw/092_002_002.mp3","char_type_name":"word","page_number":595,"line_number":13,"text":"إِذَا","translation":{"text":"যখন","language_name":"bengali","language_id":20},"transliteration":{"text":"idhā","language_name":"english","language_id":38}},{"id":1787,"position":3,"audio_url":"wbw/092_002_003.mp3","char_type_name":"word","page_number":595,"line_number":13,"text":"تَجَلَّىٰ","translation":{"text":"আলোকিত হয়","language_name":"bengali","language_id":20},"transliteration":{"text":"tajallā","language_name":"english","language_id":38}},{"id":1788,"position":4,"audio_url":null,"char_type_name":"end","page_number":595,"line_number":13,"text":"٢","translation":{"text":"(২)","language_name":"bengali","language_id":20},"transliteration":{"text":null,"language_name":"english","language_id":38}}]},{"id":6061,"verse_number":3,"verse_key":"92:3","hizb_number":60,"rub_el_hizb_number":238,"ruku_number":536,"manzil_number":7,"sajdah_number":null,"page_number":595,"juz_number":30,"words":[{"id":2121,"position":1,"audio_url":"wbw/092_003_001.mp3","char_type_name":"word","page_number":595,"line_number":13,"text":"وَمَا","translation":{"text":"শপথ তাঁর (যিনি)","language_name":"bengali","language_id":20},"transliteration":{"text":"wamā","language_name":"english","language_id":38}},{"id":2122,"position":2,"audio_url":"wbw/092_003_002.mp3","char_type_name":"word","page_number":595,"line_number":13,"text":"خَلَقَ","translation":{"text":"সৃষ্টি করেছেন","language_name":"bengali","language_id":20},"transliteration":{"text":"khalaqa","language_name":"english","language_id":38}},{"id":2123,"position":3,"audio_url":"wbw/092_003_003.mp3","char_type_name":"word","page_number":595,"line_number":13,"text":"ٱلذَّكَرَ","translation":{"text":"পুরুষ","language_name":"bengali","language_id":20},"transliteration":{"text":"l-dhakara","language_name":"english","language_id":38}},{"id":2124,"position":4,"audio_url":"wbw/092_003_004.mp3","char_type_name":"word","page_number":595,"line_number":13,"text":"وَٱلْأُنثَىٰٓ","translation":{"text":"ও নারী","language_name":"bengali","language_id":20},"transliteration":{"text":"wal-unthā","language_name":"english","language_id":38}},{"id":2125,"position":5,"audio_url":null,"char_type_name":"end","page_number":595,"line_number":13,"text":"٣","translation":{"text":"(৩)","language_name":"bengali","language_id":20},"transliteration":{"text":null,"language_name":"english","language_id":38}}]},{"id":6062,"verse_number":4,"verse_key":"92:4","hizb_number":60,"rub_el_hizb_number":238,"ruku_number":536,"manzil_number":7,"sajdah_number":null,"page_number":595,"juz_number":30,"words":[{"id":3404,"position":1,"audio_url":"wbw/092_004_001.mp3","char_type_name":"word","page_number":595,"line_number":14,"text":"إِنَّ","translation":{"text":"নিশ্চয়ই","language_name":"bengali","language_id":20},"transliteration":{"text":"inna","language_name":"english","language_id":38}},{"id":3405,"position":2,"audio_url":"wbw/092_004_002.mp3","char_type_name":"word","page_number":595,"line_number":14,"text":"سَعْيَكُمْ","translation":{"text":"তোমাদের কর্মপ্রচেষ্টা","language_name":"bengali","language_id":20},"transliteration":{"text":"saʿyakum","language_name":"english","language_id":38}},{"id":3406,"position":3,"audio_url":"wbw/092_004_003.mp3","char_type_name":"word","page_number":595,"line_number":14,"text":"لَشَتَّىٰ","translation":{"text":"অবশ্যই বিভিন্ন প্রকৃতির","language_name":"bengali","language_id":20},"transliteration":{"text":"lashattā","language_name":"english","language_id":38}},{"id":3407,"position":4,"audio_url":null,"char_type_name":"end","page_number":595,"line_number":14,"text":"٤","translation":{"text":"(৪)","language_name":"bengali","language_id":20},"transliteration":{"text":null,"language_name":"english","language_id":38}}]},{"id":6063,"verse_number":5,"verse_key":"92:5","hizb_number":60,"rub_el_hizb_number":238,"ruku_number":536,"manzil_number":7,"sajdah_number":null,"page_number":595,"juz_number":30,"words":[{"id":4746,"position":1,"audio_url":"wbw/092_005_001.mp3","char_type_name":"word","page_number":595,"line_number":14,"text":"فَأَمَّا","translation":{"text":"অতঃপর (তার) ক্ষেত্রে","language_name":"bengali","language_id":20},"transliteration":{"text":"fa-ammā","language_name":"english","language_id":38}},{"id":4747,"position":2,"audio_url":"wbw/092_005_002.mp3","char_type_name":"word","page_number":595,"line_number":14,"text":"مَنْ","translation":{"text":"যে","language_name":"bengali","language_id":20},"transliteration":{"text":"man","language_name":"english","language_id":38}},{"id":4748,"position":3,"audio_url":"wbw/092_005_003.mp3","char_type_name":"word","page_number":595,"line_number":14,"text":"أَعْطَىٰ","translation":{"text":"দান করলো","language_name":"bengali","language_id":20},"transliteration":{"text":"aʿṭā","language_name":"english","language_id":38}},{"id":4749,"position":4,"audio_url":"wbw/092_005_004.mp3","char_type_name":"word","page_number":595,"line_number":14,"text":"وَٱتَّقَىٰ","translation":{"text":"ও খোদাভীরু হলো","language_name":"bengali","language_id":20},"transliteration":{"text":"wa-ittaqā","language_name":"english","language_id":38}},{"id":4750,"position":5,"audio_url":null,"char_type_name":"end","page_number":595,"line_number":14,"text":"٥","translation":{"text":"(৫)","language_name":"bengali","language_id":20},"transliteration":{"text":null,"language_name":"english","language_id":38}}]},{"id":6064,"verse_number":6,"verse_key":"92:6","hizb_number":60,"rub_el_hizb_number":238,"ruku_number":536,"manzil_number":7,"sajdah_number":null,"page_number":595,"juz_number":30,"words":[{"id":5977,"position":1,"audio_url":"wbw/092_006_001.mp3","char_type_name":"word","page_number":595,"line_number":14,"text":"وَصَدَّقَ","translation":{"text":"এবং সত্য মানলো","language_name":"bengali","language_id":20},"transliteration":{"text":"waṣaddaqa","language_name":"english","language_id":38}},{"id":5978,"position":2,"audio_url":"wbw/092_006_002.mp3","char_type_name":"word","page_number":595,"line_number":14,"text":"بِٱلْحُسْنَىٰ","translation":{"text":"উত্তমকে (ইসলামকে)","language_name":"bengali","language_id":20},"transliteration":{"text":"bil-ḥus'nā","language_name":"english","language_id":38}},{"id":5979,"position":3,"audio_url":null,"char_type_name":"end","page_number":595,"line_number":14,"text":"٦","translation":{"text":"(৬)","language_name":"bengali","language_id":20},"transliteration":{"text":null,"language_name":"english","language_id":38}}]},{"id":6065,"verse_number":7,"verse_key":"92:7","hizb_number":60,"rub_el_hizb_number":238,"ruku_number":536,"manzil_number":7,"sajdah_number":null,"page_number":595,"juz_number":30,"words":[{"id":7163,"position":1,"audio_url":"wbw/092_007_001.mp3","char_type_name":"word","page_number":595,"line_number":15,"text":"فَسَنُيَسِّرُهُۥ","translation":{"text":"আমরা তাকে সহজতা দিব","language_name":"bengali","language_id":20},"transliteration":{"text":"fasanuyassiruhu","language_name":"english","language_id":38}},{"id":7164,"position":2,"audio_url":"wbw/092_007_002.mp3","char_type_name":"word","page_number":595,"line_number":15,"text":"لِلْيُسْرَىٰ","translation":{"text":"সহজ (পথের) জন্য","language_name":"bengali","language_id":20},"transliteration":{"text":"lil'yus'rā","language_name":"english","language_id":38}},{"id":7165,"position":3,"audio_url":null,"char_type_name":"end","page_number":595,"line_number":15,"text":"٧","translation":{"text":"(৭)","language_name":"bengali","language_id":20},"transliteration":{"text":null,"language_name":"english","language_id":38}}]},{"id":6066,"verse_number":8,"verse_key":"92:8","hizb_number":60,"rub_el_hizb_number":238,"ruku_number":536,"manzil_number":7,"sajdah_number":null,"page_number":595,"juz_number":30,"words":[{"id":8667,"position":1,"audio_url":"wbw/092_008_001.mp3","char_type_name":"word","page_number":595,"line_number":15,"text":"وَأَمَّا","translation":{"text":"আর (তার)ক্ষেত্রে","language_name":"bengali","language_id":20},"transliteration":{"text":"wa-ammā","language_name":"english","language_id":38}},{"id":8668,"position":2,"audio_url":"wbw/092_008_002.mp3","char_type_name":"word","page_number":595,"line_number":15,"text":"مَنۢ","translation":{"text":"যে","language_name":"bengali","language_id":20},"transliteration":{"text":"man","language_name":"english","language_id":38}},{"id":8669,"position":3,"audio_url":"wbw/092_008_003.mp3","char_type_name":"word","page_number":595,"line_number":15,"text":"بَخِلَ","translation":{"text":"কৃপণতা করলো","language_name":"bengali","language_id":20},"transliteration":{"text":"bakhila","language_name":"english","language_id":38}},{"id":8670,"position":4,"audio_url":"wbw/092_008_004.mp3","char_type_name":"word","page_number":595,"line_number":15,"text":"وَٱسْتَغْنَىٰ","translation":{"text":"ও নিজেকে স্বয়ংসম্পূর্ণ মনে করলো","language_name":"bengali","language_id":20},"transliteration":{"text":"wa-is'taghnā","language_name":"english","language_id":38}},{"id":8671,"position":5,"audio_url":null,"char_type_name":"end","page_number":595,"line_number":15,"text":"٨","translation":{"text":"(৮)","language_name":"bengali","language_id":20},"transliteration":{"text":null,"language_name":"english","language_id":38}}]},{"id":6067,"verse_number":9,"verse_key":"92:9","hizb_number":60,"rub_el_hizb_number":238,"ruku_number":536,"manzil_number":7,"sajdah_number":null,"page_number":595,"juz_number":30,"words":[{"id":9922,"position":1,"audio_url":"wbw/092_009_001.mp3","char_type_name":"word","page_number":595,"line_number":15,"text":"وَكَذَّبَ","translation":{"text":"এবং অমান্য করলো","language_name":"bengali","language_id":20},"transliteration":{"text":"wakadhaba","language_name":"english","language_id":38}},{"id":9923,"position":2,"audio_url":"wbw/092_009_002.mp3","char_type_name":"word","page_number":595,"line_number":15,"text":"بِٱلْحُسْنَىٰ","translation":{"text":"উত্তমকে (ইসলামকে)","language_name":"bengali","language_id":20},"transliteration":{"text":"bil-ḥus'nā","language_name":"english","language_id":38}},{"id":9924,"position":3,"audio_url":null,"char_type_name":"end","page_number":595,"line_number":15,"text":"٩","translation":{"text":"(৯)","language_name":"bengali","language_id":20},"transliteration":{"text":null,"language_name":"english","language_id":38}}]},{"id":6068,"verse_number":10,"verse_key":"92:10","hizb_number":60,"rub_el_hizb_number":238,"ruku_number":536,"manzil_number":7,"sajdah_number":null,"page_number":596,"juz_number":30,"words":[{"id":11103,"position":1,"audio_url":"wbw/092_010_001.mp3","char_type_name":"word","page_number":596,"line_number":1,"text":"فَسَنُيَسِّرُهُۥ","translation":{"text":"ফলে আমরা তাকে সহজতা দিব","language_name":"bengali","language_id":20},"transliteration":{"text":"fasanuyassiruhu","language_name":"english","language_id":38}},{"id":11104,"position":2,"audio_url":"wbw/092_010_002.mp3","char_type_name":"word","page_number":596,"line_number":1,"text":"لِلْعُسْرَىٰ","translation":{"text":"কঠোর পথের জন্য","language_name":"bengali","language_id":20},"transliteration":{"text":"lil'ʿus'rā","language_name":"english","language_id":38}},{"id":11105,"position":3,"audio_url":null,"char_type_name":"end","page_number":596,"line_number":1,"text":"١٠","translation":{"text":"(১০)","language_name":"bengali","language_id":20},"transliteration":{"text":null,"language_name":"english","language_id":38}}]}],"pagination":{"per_page":10,"current_page":1,"next_page":2,"total_pages":3,"total_records":21}}
