{"verses":[{"id":6069,"verse_number":11,"verse_key":"92:11","hizb_number":60,"rub_el_hizb_number":238,"ruku_number":536,"manzil_number":7,"sajdah_number":null,"page_number":596,"juz_number":30,"words":[{"id":12446,"position":1,"audio_url":"wbw/092_011_001.mp3","char_type_name":"word","page_number":596,"line_number":1,"text":"وَمَا","translation":{"text":"এবং না","language_name":"bengali","language_id":20},"transliteration":{"text":"wamā","language_name":"english","language_id":38}},{"id":12447,"position":2,"audio_url":"wbw/092_011_002.mp3","char_type_name":"word","page_number":596,"line_number":1,"text":"يُغْنِى","translation":{"text":"কাজে আসবে","language_name":"bengali","language_id":20},"transliteration":{"text":"yugh'nī","language_name":"english","language_id":38}},{"id":12448,"position":3,"audio_url":"wbw/092_011_003.mp3","char_type_name":"word","page_number":596,"line_number":1,"text":"عَنْهُ","translation":{"text":"তার জন্যে","language_name":"bengali","language_id":20},"transliteration":{"text":"ʿanhu","language_name":"english","language_id":38}},{"id":12449,"position":4,"audio_url":"wbw/092_011_004.mp3","char_type_name":"word","page_number":596,"line_number":1,"text":"مَالُهُۥٓ","translation":{"text":"তার ধনসম্পদ","language_name":"bengali","language_id":20},"transliteration":{"text":"māluhu","language_name":"english","language_id":38}},{"id":12450,"position":5,"audio_url":"wbw/092_011_005.mp3","char_type_name":"word","page_number":596,"line_number":1,"text":"إِذَا","translation":{"text":"যখন","language_name":"bengali","language_id":20},"transliteration":{"text":"idhā","language_name":"english","language_id":38}},{"id":12451,"position":6,"audio_url":"wbw/092_011_006.mp3","char_type_name":"word","page_number":596,"line_number":1,"text":"تَرَدَّىٰٓ","translation":{"text":"সে ধ্বংস হবে","language_name":"bengali","language_id":20},"transliteration":{"text":"taraddā","language_name":"english","language_id":38}},{"id":12452,"position":7,"audio_url":null,"char_type_name":"end","page_number":596,"line_number":1,"text":"١١","translation":{"text":"(১১)","language_name":"bengali","language_id":20},"transliteration":{"text":null,"language_name":"english","language_id":38}}]},{"id":6070,"verse_number":12,"verse_key":"92:12","hizb_number":60,"rub_el_hizb_number":238,"ruku_number":536,"manzil_number":7,"sajdah_number":null,"page_number":596,"juz_number":30,"words":[{"id":13757,"position":1,"audio_url":"wbw/092_012_001.mp3","char_type_name":"word","page_number":596,"line_number":1,"text":"إِنَّ","translation":{"text":"নিশ্চয়ই","language_name":"bengali","language_id":20},"transliteration":{"text":"inna","language_name":"english","language_id":38}},{"id":13758,"position":2,"audio_url":"wbw/092_012_002.mp3","char_type_name":"word","page_number":596,"line_number":1,"text":"عَلَيْنَا","translation":{"text":"আমাদের দায়িত্বে","language_name":"bengali","language_id":20},"transliteration":{"text":"ʿalaynā","language_name":"english","language_id":38}},{"id":13759,"position":3,"audio_url":"wbw/092_012_003.mp3","char_type_name":"word","page_number":596,"line_number":2,"text":"لَلْهُدَىٰ","translation":{"text":"পথ প্রদর্শন","language_name":"bengali","language_id":20},"transliteration":{"text":"lalhudā","language_name":"english","language_id":38}},{"id":13760,"position":4,"audio_url":null,"char_type_name":"end","page_number":596,"line_number":2,"text":"١٢","translation":{"text":"(১২)","language_name":"bengali","language_id":20},"transliteration":{"text":null,"language_name":"english","language_id":38}}]},{"id":6071,"verse_number":13,"verse_key":"92:13","hizb_number":60,"rub_el_hizb_number":238,"ruku_number":536,"manzil_number":7,"sajdah_number":null,"page_number":596,"juz_number":30,"words":[{"id":14913,"position":1,"audio_url":"wbw/092_013_001.mp3","char_type_name":"word","page_number":596,"line_number":2,"text":"وَإِنَّ","translation":{"text":"এবং নিশ্চয়ই","language_name":"bengali","language_id":20},"transliteration":{"text":"wa-inna","language_name":"english","language_id":38}},{"id":14914,"position":2,"audio_url":"wbw/092_013_002.mp3","char_type_name":"word","page_number":596,"line_number":2,"text":"لَنَا","translation":{"text":"আমরা মালিক","language_name":"bengali","language_id":20},"transliteration":{"text":"lanā","language_name":"english","language_id":38}},{"id":14915,"position":3,"audio_url":"wbw/092_013_003.mp3","char_type_name":"word","page_number":596,"line_number":2,"text":"لَلْـَٔاخِرَةَ","translation":{"text":"পরকালের","language_name":"bengali","language_id":20},"transliteration":{"text":"lalākhirata","language_name":"english","language_id":38}},{"id":14916,"position":4,"audio_url":"wbw/092_013_004.mp3","char_type_name":"word","page_number":596,"line_number":2,"text":"وَٱلْأُولَىٰ","translation":{"text":"ও ইহকালের","language_name":"bengali","language_id":20},"transliteration":{"text":"wal-ūlā","language_name":"english","language_id":38}},{"id":14917,"position":5,"audio_url":null,"char_type_name":"end","page_number":596,"line_number":2,"text":"١٣","translation":{"text":"(১৩)","language_name":"bengali","language_id":20},"transliteration":{"text":null,"language_name":"english","language_id":38}}]},{"id":6072,"verse_number":14,"verse_key":"92:14","hizb_number":60,"rub_el_hizb_number":238,"ruku_number":536,"manzil_number":7,"sajdah_number":null,"page_number":596,"juz_number":30,"words":[{"id":16027,"position":1,"audio_url":"wbw/092_014_001.mp3","char_type_name":"word","page_number":596,"line_number":2,"text":"فَأَنذَرْتُكُمْ","translation":{"text":"অতএব তোমাদেরকে আমি সতর্ক করছি","language_name":"bengali","language_id":20},"transliteration":{"text":"fa-andhartukum","language_name":"english","language_id":38}},{"id":16028,"position":2,"audio_url":"wbw/092_014_002.mp3","char_type_name":"word","page_number":596,"line_number":2,"text":"نَارًۭا","translation":{"text":"অগ্নির","language_name":"bengali","language_id":20},"transliteration":{"text":"nāran","language_name":"english","language_id":38}},{"id":16029,"position":3,"audio_url":"wbw/092_014_003.mp3","char_type_name":"word","page_number":596,"line_number":2,"text":"تَلَظَّىٰ","translation":{"text":"জ্বলন্ত","language_name":"bengali","language_id":20},"transliteration":{"text":"talaẓẓā","language_name":"english","language_id":38}},{"id":16030,"position":4,"audio_url":null,"char_type_name":"end","page_number":596,"line_number":2,"text":"١٤","translation":{"text":"(১৪)","language_name":"bengali","language_id":20},"transliteration":{"text":null,"language_name":"english","language_id":38}}]},{"id":6073,"verse_number":15,"verse_key":"92:15","hizb_number":60,"rub_el_hizb_number":238,"ruku_number":536,"manzil_number":7,"sajdah_number":null,"page_number":596,"juz_number":30,"words":[{"id":17229,"position":1,"audio_url":"wbw/092_015_001.mp3","char_type_name":"word","page_number":596,"line_number":3,"text":"لَا","translation":{"text":"না","language_name":"bengali","language_id":20},"transliteration":{"text":"lā","language_name":"english","language_id":38}},{"id":17230,"position":2,"audio_url":"wbw/092_015_002.mp3","char_type_name":"word","page_number":596,"line_number":3,"text":"يَصْلَىٰهَآ","translation":{"text":"এতে প্রবেশ করবে","language_name":"bengali","language_id":20},"transliteration":{"text":"yaṣlāhā","language_name":"english","language_id":38}},{"id":17231,"position":3,"audio_url":"wbw/092_015_003.mp3","char_type_name":"word","page_number":596,"line_number":3,"text":"إِلَّا","translation":{"text":"এ ছাড়া","language_name":"bengali","language_id":20},"transliteration":{"text":"illā","language_name":"english","language_id":38}},{"id":17232,"position":4,"audio_url":"wbw/092_015_004.mp3","char_type_name":"word","page_number":596,"line_number":3,"text":"ٱلْأَشْقَى","translation":{"text":"নিতান্ত হতভাগ্য","language_name":"bengali","language_id":20},"transliteration":{"text":"l-ashqā","language_name":"english","language_id":38}},{"id":17233,"position":5,"audio_url":null,"char_type_name":"end","page_number":596,"line_number":3,"text":"١٥","translation":{"text":"(১৫)","language_name":"bengali","language_id":20},"transliteration":{"text":null,"language_name":"english","language_id":38}}]},{"id":6074,"verse_number":16,"verse_key":"92:16","hizb_number":60,"rub_el_hizb_number":238,"ruku_number":536,"manzil_number":7,"sajdah_number":null,"page_number":596,"juz_number":30,"words":[{"id":18215,"position":1,"audio_url":"wbw/092_016_001.mp3","char_type_name":"word","page_number":596,"line_number":3,"text":"ٱلَّذِى","translation":{"text":"যে","language_name":"bengali","language_id":20},"transliteration":{"text":"alladhī","language_name":"english","language_id":38}},{"id":18216,"position":2,"audio_url":"wbw/092_016_002.mp3","char_type_name":"word","page_number":596,"line_number":3,"text":"كَذَّبَ","translation":{"text":"মিথ্যারোপ করলো","language_name":"bengali","language_id":20},"transliteration":{"text":"kadhaba","language_name":"english","language_id":38}},{"id":18217,"position":3,"audio_url":"wbw/092_016_003.mp3","char_type_name":"word","page_number":596,"line_number":3,"text":"وَتَوَلَّىٰ","translation":{"text":"এবং মুখ ফিরালো","language_name":"bengali","language_id":20},"transliteration":{"text":"watawallā","language_name":"english","language_id":38}},{"id":18218,"position":4,"audio_url":null,"char_type_name":"end","page_number":596,"line_number":3,"text":"١٦","translation":{"text":"(১৬)","language_name":"bengali","language_id":20},"transliteration":{"text":null,"language_name":"english","language_id":38}}]},{"id":6075,"verse_number":17,"verse_key":"92:17","hizb_number":60,"rub_el_hizb_number":238,"ruku_number":536,"manzil_number":7,"sajdah_number":null,"page_number":596,"juz_number":30,"words":[{"id":19361,"position":1,"audio_url":"wbw/092_017_001.mp3","char_type_name":"word","page_number":596,"line_number":3,"text":"وَسَيُجَنَّبُهَا","translation":{"text":"এবং এ থেকে দূরে রাখা হবে","language_name":"bengali","language_id":20},"transliteration":{"text":"wasayujannabuhā","language_name":"english","language_id":38}},{"id":19362,"position":2,"audio_url":"wbw/092_017_002.mp3","char_type_name":"word","page_number":596,"line_number":4,"text":"ٱلْأَتْقَى","translation":{"text":"পরম মুত্তাকীকে","language_name":"bengali","language_id":20},"transliteration":{"text":"l-atqā","language_name":"english","language_id":38}},{"id":19363,"position":3,"audio_url":null,"char_type_name":"end","page_number":596,"line_number":4,"text":"١٧","translation":{"text":"(১৭)","language_name":"bengali","language_id":20},"transliteration":{"text":null,"language_name":"english","language_id":38}}]},{"id":6076,"verse_number":18,"verse_key":"92:18","hizb_number":60,"rub_el_hizb_number":238,"ruku_number":536,"manzil_number":7,"sajdah_number":null,"page_number":596,"juz_number":30,"words":[{"id":20410,"position":1,"audio_url":"wbw/092_018_001.mp3","char_type_name":"word","page_number":596,"line_number":4,"text":"ٱلَّذِى","translation":{"text":"যে","language_name":"bengali","language_id":20},"transliteration":{"text":"alladhī","language_name":"english","language_id":38}},{"id":20411,"position":2,"audio_url":"wbw/092_018_002.mp3","char_type_name":"word","page_number":596,"line_number":4,"text":"يُؤْتِى","translation":{"text":"দান করে","language_name":"bengali","language_id":20},"transliteration":{"text":"yu'tī","language_name":"english","language_id":38}},{"id":20412,"position":3,"audio_url":"wbw/092_018_003.mp3","char_type_name":"word","page_number":596,"line_number":4,"text":"مَالَهُۥ","translation":{"text":"তার ধনসম্পদ","language_name":"bengali","language_id":20},"transliteration":{"text":"mālahu","language_name":"english","language_id":38}},{"id":20413,"position":4,"audio_url":"wbw/092_018_004.mp3","char_type_name":"word","page_number":596,"line_number":4,"text":"يَتَزَكَّىٰ","translation":{"text":"আত্মশুদ্ধির জন্য","language_name":"bengali","language_id":20},"transliteration":{"text":"yatazakkā","language_name":"english","language_id":38}},{"id":20414,"position":5,"audio_url":null,"char_type_name":"end","page_number":596,"line_number":4,"text":"١٨","translation":{"text":"(১৮)","language_name":"bengali","language_id":20},"transliteration":{"text":null,"language_name":"english","language_id":38}}]},{"id":6077,"verse_number":19,"verse_key":"92:19","hizb_number":60,"rub_el_hizb_number":238,"ruku_number":536,"manzil_number":7,"sajdah_number":null,"page_number":596,"juz_number":30,"words":[{"id":21511,"position":1,"audio_url":"wbw/092_019_001.mp3","char_type_name":"word","page_number":596,"line_number":4,"text":"وَمَا","translation":{"text":"এবং নাই","language_name":"bengali","language_id":20},"transliteration":{"text":"wamā","language_name":"english","language_id":38}},{"id":21512,"position":2,"audio_url":"wbw/092_019_002.mp3","char_type_name":"word","page_number":596,"line_number":4,"text":"لِأَحَدٍ","translation":{"text":"কারও","language_name":"bengali","language_id":20},"transliteration":{"text":"li-aḥadin","language_name":"english","language_id":38}},{"id":21513,"position":3,"audio_url":"wbw/092_019_003.mp3","char_type_name":"word","page_number":596,"line_number":4,"text":"عِندَهُۥ","translation":{"text":"তার উপর","language_name":"bengali","language_id":20},"transliteration":{"text":"ʿindahu","language_name":"english","language_id":38}},{"id":21514,"position":4,"audio_url":"wbw/092_019_004.mp3","char_type_name":"word","page_number":596,"line_number":4,"text":"مِن","translation":{"text":"কোন","language_name":"bengali","language_id":20},"transliteration":{"text":"min","language_name":"english","language_id":38}},{"id":21515,"position":5,"audio_url":"wbw/092_019_005.mp3","char_type_name":"word","page_number":596,"line_number":4,"text":"نِّعْمَةٍۢ","translation":{"text":"অনুগ্রহ (যার)","language_name":"bengali","language_id":20},"transliteration":{"text":"niʿ'matin","language_name":"english","language_id":38}},{"id":21516,"position":6,"audio_url":"wbw/092_019_006.mp3","char_type_name":"word","page_number":596,"line_number":5,"text":"تُجْزَىٰٓ","translation":{"text":"প্রতিদান দিতে হবে","language_name":"bengali","language_id":20},"transliteration":{"text":"tuj'zā","language_name":"english","language_id":38}},{"id":21517,"position":7,"audio_url":null,"char_type_name":"end","page_number":596,"line_number":5,"text":"١٩","translation":{"text":"(১৯)","language_name":"bengali","language_id":20},"transliteration":{"text":null,"language_name":"english","language_id":38}}]},{"id":6078,"verse_number":20,"verse_key":"92:20","hizb_number":60,"rub_el_hizb_number":238,"ruku_number":536,"manzil_number":7,"sajdah_number":null,"page_number":596,"juz_number":30,"words":[{"id":22591,"position":1,"audio_url":"wbw/092_020_001.mp3","char_type_name":"word","page_number":596,"line_number":5,"text":"إِلَّا","translation":{"text":"কেবল","language_name":"bengali","language_id":20},"transliteration":{"text":"illā","language_name":"english","language_id":38}},{"id":22592,"position":2,"audio_url":"wbw/092_020_002.mp3","char_type_name":"word","page_number":596,"line_number":5,"text":"ٱبْتِغَآءَ","translation":{"text":"সে অন্বেষণ করে","language_name":"bengali","language_id":20},"transliteration":{"text":"ib'tighāa","language_name":"english","language_id":38}},{"id":22593,"position":3,"audio_url":"wbw/092_020_003.mp3","char_type_name":"word","page_number":596,"line_number":5,"text":"وَجْهِ","translation":{"text":"সন্তুষ্টি","language_name":"bengali","language_id":20},"transliteration":{"text":"wajhi","language_name":"english","language_id":38}},{"id":22594,"position":4,"audio_url":"wbw/092_020_004.mp3","char_type_name":"word","page_number":596,"line_number":5,"text":"رَبِّهِ","translation":{"text":"তার রবের","language_name":"bengali","language_id":20},"transliteration":{"text":"rabbihi","language_name":"english","language_id":38}},{"id":22595,"position":5,"audio_url":"wbw/092_020_005.mp3","char_type_name":"word","page_number":596,"line_number":5,"text":"ٱلْأَعْلَىٰ","translation":{"text":"সর্বশ্রেষ্ঠ","language_name":"bengali","language_id":20},"transliteration":{"text":"l-aʿlā","language_name":"english","language_id":38}},{"id":22596,"position":6,"audio_url":null,"char_type_name":"end","page_number":596,"line_number":5,"text":"٢٠","translation":{"text":"(২০)","language_name":"bengali","language_id":20},"transliteration":{"text":null,"language_name":"english","language_id":38}}]}],"pagination":{"per_page":10,"current_page":2,"next_page":3,"total_pages":3,"total_records":21}}
