{"verses":[{"id":6079,"verse_number":21,"verse_key":"92:21","hizb_number":60,"rub_el_hizb_number":238,"ruku_number":536,"manzil_number":7,"sajdah_number":null,"page_number":596,"juz_number":30,"words":[{"id":23749,"position":1,"audio_url":"wbw/092_021_001.mp3","char_type_name":"word","page_number":596,"line_number":5,"text":"وَلَسَوْفَ","translation":{"text":"এবং অচিরেই অবশ্যই","language_name":"bengali","language_id":20},"transliteration":{"text":"walasawfa","language_name":"english","language_id":38}},{"id":23750,"position":2,"audio_url":"wbw/092_021_002.mp3","char_type_name":"word","page_number":596,"line_number":5,"text":"يَرْضَىٰ","translation":{"text":"তিনি সন্তুষ্ট হবেন (তার প্রতি)","language_name":"bengali","language_id":20},"transliteration":{"text":"yarḍā","language_name":"english","language_id":38}},{"id":23751,"position":3,"audio_url":null,"char_type_name":"end","page_number":596,"line_number":5,"text":"٢١","translation":{"text":"(২১)","language_name":"bengali","language_id":20},"transliteration":{"text":null,"language_name":"english","language_id":38}}]}],"pagination":{"per_page":10,"current_page":3,"next_page":null,"total_pages":3,"total_records":21}}
