{"verses":[{"id":3789,"verse_number":1,"verse_key":"37:1","hizb_number":45,"rub_el_hizb_number":178,"ruku_number":388,"manzil_number":6,"sajdah_number":null,"page_number":446,"juz_number":23,"words":[{"id":889,"position":1,"audio_url":"wbw/037_001_001.mp3","verse_key":"37:1","verse_id":3789,"location":"37:1:1","text_uthmani":"وَٱلصَّـٰٓفَّـٰتِ","qpc_uthmani_hafs":"وَٱلصَّٰٓفَّٰتِ","char_type_name":"word","page_number":446,"line_number":2,"text":"وَٱلصَّٰٓفَّٰتِ","translation":{"text":"By those lined","language_name":"english","language_id":38},"transliteration":{"text":"wal-ṣāfāti","language_name":"english","language_id":38}},{"id":890,"position":2,"audio_url":"wbw/037_001_002.mp3","verse_key":"37:1","verse_id":3789,"location":"37:1:2","text_uthmani":"صَفًّۭا","qpc_uthmani_hafs":"صَفّٗا","char_type_name":"word","page_number":446,"line_number":2,"text":"صَفّٗا","translation":{"text":"(in) rows","language_name":"english","language_id":38},"transliteration":{"text":"ṣaffan","language_name":"english","language_id":38}},{"id":891,"position":3,"audio_url":null,"verse_key":"37:1","verse_id":3789,"location":"37:1:3","text_uthmani":"١","qpc_uthmani_hafs":"١","char_type_name":"end","page_number":446,"line_number":2,"text":"١","translation":{"text":"(1)","language_name":"english","language_id":38},"transliteration":{"text":null,"language_name":"english","language_id":38}}]},{"id":3790,"verse_number":2,"verse_key":"37:2","hizb_number":45,"rub_el_hizb_number":178,"ruku_number":388,"manzil_number":6,"sajdah_number":null,"page_number":446,"juz_number":23,"words":[{"id":1977,"position":1,"audio_url":"wbw/037_002_001.mp3","verse_key":"37:2","verse_id":3790,"location":"37:2:1","text_uthmani":"فَٱلزَّٰجِرَٰتِ","qpc_uthmani_hafs":"فَٱلزَّٰجِرَٰتِ","char_type_name":"word","page_number":446,"line_number":2,"text":"فَٱلزَّٰجِرَٰتِ","translation":{"text":"And those who drive","language_name":"english","language_id":38},"transliteration":{"text":"fal-zājirāti","language_name":"english","language_id":38}},{"id":1978,"position":2,"audio_url":"wbw/037_002_002.mp3","verse_key":"37:2","verse_id":3790,"location":"37:2:2","text_uthmani":"زَجْرًۭا","qpc_uthmani_hafs":"زَجۡرٗا","char_type_name":"word","page_number":446,"line_number":2,"text":"زَجۡرٗا","translation":{"text":"strongly","language_name":"english","language_id":38},"transliteration":{"text":"zajran","language_name":"english","language_id":38}},{"id":1979,"position":3,"audio_url":null,"verse_key":"37:2","verse_id":3790,"location":"37:2:3","text_uthmani":"٢","qpc_uthmani_hafs":"٢","char_type_name":"end","page_number":446,"line_number":2,"text":"٢","translation":{"text":"(2)","language_name":"english","language_id":38},"transliteration":{"text":null,"language_name":"english","language_id":38}}]},{"id":3791,"verse_number":3,"verse_key":"37:3","hizb_number":45,"rub_el_hizb_number":178,"ruku_number":388,"manzil_number":6,"sajdah_number":null,"page_number":446,"juz_number":23,"words":[{"id":3173,"position":1,"audio_url":"wbw/037_003_001.mp3","verse_key":"37:3","verse_id":3791,"location":"37:3:1","text_uthmani":"فَٱلتَّـٰلِيَـٰتِ","qpc_uthmani_hafs":"فَٱلتَّٰلِيَٰتِ","char_type_name":"word","page_number":446,"line_number":2,"text":"فَٱلتَّٰلِيَٰتِ","translation":{"text":"And those who recite","language_name":"english","language_id":38},"transliteration":{"text":"fal-tāliyāti","language_name":"english","language_id":38}},{"id":3174,"position":2,"audio_url":"wbw/037_003_002.mp3","verse_key":"37:3","verse_id":3791,"location":"37:3:2","text_uthmani":"ذِكْرًا","qpc_uthmani_hafs":"ذِكۡرًا","char_type_name":"word","page_number":446,"line_number":2,"text":"ذِكۡرًا","translation":{"text":"(the) Message","language_name":"english","language_id":38},"transliteration":{"text":"dhik'ran","language_name":"english","language_id":38}},{"id":3175,"position":3,"audio_url":null,"verse_key":"37:3","verse_id":3791,"location":"37:3:3","text_uthmani":"٣","qpc_uthmani_hafs":"٣","char_type_name":"end","page_number":446,"line_number":2,"text":"٣","translation":{"text":"(3)","language_name":"english","language_id":38},"transliteration":{"text":null,"language_name":"english","language_id":38}}]},{"id":3792,"verse_number":4,"verse_key":"37:4","hizb_number":45,"rub_el_hizb_number":178,"ruku_number":388,"manzil_number":6,"sajdah_number":null,"page_number":446,"juz_number":23,"words":[{"id":4528,"position":1,"audio_url":"wbw/037_004_001.mp3","verse_key":"37:4","verse_id":3792,"location":"37:4:1","text_uthmani":"إِنَّ","qpc_uthmani_hafs":"إِنَّ","char_type_name":"word","page_number":446,"line_number":2,"text":"إِنَّ","translation":{"text":"Indeed","language_name":"english","language_id":38},"transliteration":{"text":"inna","language_name":"english","language_id":38}},{"id":4529,"position":2,"audio_url":"wbw/037_004_002.mp3","verse_key":"37:4","verse_id":3792,"location":"37:4:2","text_uthmani":"إِلَـٰهَكُمْ","qpc_uthmani_hafs":"إِلَٰهَكُمۡ","char_type_name":"word","page_number":446,"line_number":3,"text":"إِلَٰهَكُمۡ","translation":{"text":"your Lord","language_name":"english","language_id":38},"transliteration":{"text":"ilāhakum","language_name":"english","language_id":38}},{"id":4530,"position":3,"audio_url":"wbw/037_004_003.mp3","verse_key":"37:4","verse_id":3792,"location":"37:4:3","text_uthmani":"لَوَٰحِدٌۭ","qpc_uthmani_hafs":"لَوَٰحِدٞ","char_type_name":"word","page_number":446,"line_number":3,"text":"لَوَٰحِدٞ","translation":{"text":"(is) surely One","language_name":"english","language_id":38},"transliteration":{"text":"lawāḥidun","language_name":"english","language_id":38}},{"id":4531,"position":4,"audio_url":null,"verse_key":"37:4","verse_id":3792,"location":"37:4:4","text_uthmani":"٤","qpc_uthmani_hafs":"٤","char_type_name":"end","page_number":446,"line_number":3,"text":"٤","translation":{"text":"(4)","language_name":"english","language_id":38},"transliteration":{"text":null,"language_name":"english","language_id":38}}]},{"id":3793,"verse_number":5,"verse_key":"37:5","hizb_number":45,"rub_el_hizb_number":178,"ruku_number":388,"manzil_number":6,"sajdah_number":null,"page_number":446,"juz_number":23,"words":[{"id":5786,"position":1,"audio_url":"wbw/037_005_001.mp3","verse_key":"37:5","verse_id":3793,"location":"37:5:1","text_uthmani":"رَّبُّ","qpc_uthmani_hafs":"رَّبُّ","char_type_name":"word","page_number":446,"line_number":3,"text":"رَّبُّ","translation":{"text":"Lord","language_name":"english","language_id":38},"transliteration":{"text":"rabbu","language_name":"english","language_id":38}},{"id":5787,"position":2,"audio_url":"wbw/037_005_002.mp3","verse_key":"37:5","verse_id":3793,"location":"37:5:2","text_uthmani":"ٱلسَّمَـٰوَٰتِ","qpc_uthmani_hafs":"ٱلسَّمَٰوَٰتِ","char_type_name":"word","page_number":446,"line_number":3,"text":"ٱلسَّمَٰوَٰتِ","translation":{"text":"(of) the heavens","language_name":"english","language_id":38},"transliteration":{"text":"l-samāwāti","language_name":"english","language_id":38}},{"id":5788,"position":3,"audio_url":"wbw/037_005_003.mp3","verse_key":"37:5","verse_id":3793,"location":"37:5:3","text_uthmani":"وَٱلْأَرْضِ","qpc_uthmani_hafs":"وَٱلۡأَرۡضِ","char_type_name":"word","page_number":446,"line_number":3,"text":"وَٱلۡأَرۡضِ","translation":{"text":"and the earth","language_name":"english","language_id":38},"transliteration":{"text":"wal-arḍi","language_name":"english","language_id":38}},{"id":5789,"position":4,"audio_url":"wbw/037_005_004.mp3","verse_key":"37:5","verse_id":3793,"location":"37:5:4","text_uthmani":"وَمَا","qpc_uthmani_hafs":"وَمَا","char_type_name":"word","page_number":446,"line_number":3,"text":"وَمَا","translation":{"text":"and what","language_name":"english","language_id":38},"transliteration":{"text":"wamā","language_name":"english","language_id":38}},{"id":5790,"position":5,"audio_url":"wbw/037_005_005.mp3","verse_key":"37:5","verse_id":3793,"location":"37:5:5","text_uthmani":"بَيْنَهُمَا","qpc_uthmani_hafs":"بَيۡنَهُمَا","char_type_name":"word","page_number":446,"line_number":3,"text":"بَيۡنَهُمَا","translation":{"text":"(is) between both of them","language_name":"english","language_id":38},"transliteration":{"text":"baynahumā","language_name":"english","language_id":38}},{"id":5791,"position":6,"audio_url":"wbw/037_005_006.mp3","verse_key":"37:5","verse_id":3793,"location":"37:5:6","text_uthmani":"وَرَبُّ","qpc_uthmani_hafs":"وَرَبُّ","char_type_name":"word","page_number":446,"line_number":3,"text":"وَرَبُّ","translation":{"text":"and Lord","language_name":"english","language_id":38},"transliteration":{"text":"warabbu","language_name":"english","language_id":38}},{"id":5792,"position":7,"audio_url":"wbw/037_005_007.mp3","verse_key":"37:5","verse_id":3793,"location":"37:5:7","text_uthmani":"ٱلْمَشَـٰرِقِ","qpc_uthmani_hafs":"ٱلۡمَشَٰرِقِ","char_type_name":"word","page_number":446,"line_number":4,"text":"ٱلۡمَشَٰرِقِ","translation":{"text":"(of) each point of sunrise","language_name":"english","language_id":38},"transliteration":{"text":"l-mashāriqi","language_name":"english","language_id":38}},{"id":5793,"position":8,"audio_url":null,"verse_key":"37:5","verse_id":3793,"location":"37:5:8","text_uthmani":"٥","qpc_uthmani_hafs":"٥","char_type_name":"end","page_number":446,"line_number":4,"text":"٥","translation":{"text":"(5)","language_name":"english","language_id":38},"transliteration":{"text":null,"language_name":"english","language_id":38}}]},{"id":3794,"verse_number":6,"verse_key":"37:6","hizb_number":45,"rub_el_hizb_number":178,"ruku_number":388,"manzil_number":6,"sajdah_number":null,"page_number":446,"juz_number":23,"words":[{"id":7081,"position":1,"audio_url":"wbw/037_006_001.mp3","verse_key":"37:6","verse_id":3794,"location":"37:6:1","text_uthmani":"إِنَّا","qpc_uthmani_hafs":"إِنَّا","char_type_name":"word","page_number":446,"line_number":4,"text":"إِنَّا","translation":{"text":"Indeed, We","language_name":"english","language_id":38},"transliteration":{"text":"innā","language_name":"english","language_id":38}},{"id":7082,"position":2,"audio_url":"wbw/037_006_002.mp3","verse_key":"37:6","verse_id":3794,"location":"37:6:2","text_uthmani":"زَيَّنَّا","qpc_uthmani_hafs":"زَيَّنَّا","char_type_name":"word","page_number":446,"line_number":4,"text":"زَيَّنَّا","translation":{"text":"[We] adorned","language_name":"english","language_id":38},"transliteration":{"text":"zayyannā","language_name":"english","language_id":38}},{"id":7083,"position":3,"audio_url":"wbw/037_006_003.mp3","verse_key":"37:6","verse_id":3794,"location":"37:6:3","text_uthmani":"ٱلسَّمَآءَ","qpc_uthmani_hafs":"ٱلسَّمَآءَ","char_type_name":"word","page_number":446,"line_number":4,"text":"ٱلسَّمَآءَ","translation":{"text":"the sky","language_name":"english","language_id":38},"transliteration":{"text":"l-samāa","language_name":"english","language_id":38}},{"id":7084,"position":4,"audio_url":"wbw/037_006_004.mp3","verse_key":"37:6","verse_id":3794,"location":"37:6:4","text_uthmani":"ٱلدُّنْيَا","qpc_uthmani_hafs":"ٱلدُّنۡيَا","char_type_name":"word","page_number":446,"line_number":4,"text":"ٱلدُّنۡيَا","translation":{"text":"[the world]","language_name":"english","language_id":38},"transliteration":{"text":"l-dun'yā","language_name":"english","language_id":38}},{"id":7085,"position":5,"audio_url":"wbw/037_006_005.mp3","verse_key":"37:6","verse_id":3794,"location":"37:6:5","text_uthmani":"بِزِينَةٍ","qpc_uthmani_hafs":"بِزِينَةٍ","char_type_name":"word","page_number":446,"line_number":4,"text":"بِزِينَةٍ","translation":{"text":"with an adornment","language_name":"english","language_id":38},"transliteration":{"text":"bizīnatin","language_name":"english","language_id":38}},{"id":7086,"position":6,"audio_url":"wbw/037_006_006.mp3","verse_key":"37:6","verse_id":3794,"location":"37:6:6","text_uthmani":"ٱلْكَوَاكِبِ","qpc_uthmani_hafs":"ٱلۡكَوَاكِبِ","char_type_name":"word","page_number":446,"line_number":4,"text":"ٱلۡكَوَاكِبِ","translation":{"text":"(of) the stars","language_name":"english","language_id":38},"transliteration":{"text":"l-kawākibi","language_name":"english","language_id":38}},{"id":7087,"position":7,"audio_url":null,"verse_key":"37:6","verse_id":3794,"location":"37:6:7","text_uthmani":"٦","qpc_uthmani_hafs":"٦","char_type_name":"end","page_number":446,"line_number":4,"text":"٦","translation":{"text":"(6)","language_name":"english","language_id":38},"transliteration":{"text":null,"language_name":"english","language_id":38}}]},{"id":3795,"verse_number":7,"verse_key":"37:7","hizb_number":45,"rub_el_hizb_number":178,"ruku_number":388,"manzil_number":6,"sajdah_number":null,"page_number":446,"juz_number":23,"words":[{"id":8389,"position":1,"audio_url":"wbw/037_007_001.mp3","verse_key":"37:7","verse_id":3795,"location":"37:7:1","text_uthmani":"وَحِفْظًۭا","qpc_uthmani_hafs":"وَحِفۡظٗا","char_type_name":"word","page_number":446,"line_number":4,"text":"وَحِفۡظٗا","translation":{"text":"And (to) guard","language_name":"english","language_id":38},"transliteration":{"text":"waḥif'ẓan","language_name":"english","language_id":38}},{"id":8390,"position":2,"audio_url":"wbw/037_007_002.mp3","verse_key":"37:7","verse_id":3795,"location":"37:7:2","text_uthmani":"مِّن","qpc_uthmani_hafs":"مِّن","char_type_name":"word","page_number":446,"line_number":5,"text":"مِّن","translation":{"text":"against","language_name":"english","language_id":38},"transliteration":{"text":"min","language_name":"english","language_id":38}},{"id":8391,"position":3,"audio_url":"wbw/037_007_003.mp3","verse_key":"37:7","verse_id":3795,"location":"37:7:3","text_uthmani":"كُلِّ","qpc_uthmani_hafs":"كُلِّ","char_type_name":"word","page_number":446,"line_number":5,"text":"كُلِّ","translation":{"text":"every","language_name":"english","language_id":38},"transliteration":{"text":"kulli","language_name":"english","language_id":38}},{"id":8392,"position":4,"audio_url":"wbw/037_007_004.mp3","verse_key":"37:7","verse_id":3795,"location":"37:7:4","text_uthmani":"شَيْطَـٰنٍۢ","qpc_uthmani_hafs":"شَيۡطَٰنٖ","char_type_name":"word","page_number":446,"line_number":5,"text":"شَيۡطَٰنٖ","translation":{"text":"devil","language_name":"english","language_id":38},"transliteration":{"text":"shayṭānin","language_name":"english","language_id":38}},{"id":8393,"position":5,"audio_url":"wbw/037_007_005.mp3","verse_key":"37:7","verse_id":3795,"location":"37:7:5","text_uthmani":"مَّارِدٍۢ","qpc_uthmani_hafs":"مَّارِدٖ","char_type_name":"word","page_number":446,"line_number":5,"text":"مَّارِدٖ","translation":{"text":"rebellious","language_name":"english","language_id":38},"transliteration":{"text":"māridin","language_name":"english","language_id":38}},{"id":8394,"position":6,"audio_url":null,"verse_key":"37:7","verse_id":3795,"location":"37:7:6","text_uthmani":"٧","qpc_uthmani_hafs":"٧","char_type_name":"end","page_number":446,"line_number":5,"text":"٧","translation":{"text":"(7)","language_name":"english","language_id":38},"transliteration":{"text":null,"language_name":"english","language_id":38}}]},{"id":3796,"verse_number":8,"verse_key":"37:8","hizb_number":45,"rub_el_hizb_number":178,"ruku_number":388,"manzil_number":6,"sajdah_number":null,"page_number":446,"juz_number":23,"words":[{"id":9572,"position":1,"audio_url":"wbw/037_008_001.mp3","verse_key":"37:8","verse_id":3796,"location":"37:8:1","text_uthmani":"لَّا","qpc_uthmani_hafs":"لَّا","char_type_name":"word","page_number":446,"line_number":5,"text":"لَّا","translation":{"text":"Not","language_name":"english","language_id":38},"transliteration":{"text":"lā","language_name":"english","language_id":38}},{"id":9573,"position":2,"audio_url":"wbw/037_008_002.mp3","verse_key":"37:8","verse_id":3796,"location":"37:8:2","text_uthmani":"يَسَّمَّعُونَ","qpc_uthmani_hafs":"يَسَّمَّعُونَ","char_type_name":"word","page_number":446,"line_number":5,"text":"يَسَّمَّعُونَ","translation":{"text":"they may listen","language_name":"english","language_id":38},"transliteration":{"text":"yassammaʿūna","language_name":"english","language_id":38}},{"id":9574,"position":3,"audio_url":"wbw/037_008_003.mp3","verse_key":"37:8","verse_id":3796,"location":"37:8:3","text_uthmani":"إِلَى","qpc_uthmani_hafs":"إِلَى","char_type_name":"word","page_number":446,"line_number":5,"text":"إِلَى","translation":{"text":"to","language_name":"english","language_id":38},"transliteration":{"text":"ilā","language_name":"english","language_id":38}},{"id":9575,"position":4,"audio_url":"wbw/037_008_004.mp3","verse_key":"37:8","verse_id":3796,"location":"37:8:4","text_uthmani":"ٱلْمَلَإِ","qpc_uthmani_hafs":"ٱلۡمَلَإِ","char_type_name":"word","page_number":446,"line_number":5,"text":"ٱلۡمَلَإِ","translation":{"text":"the assembly","language_name":"english","language_id":38},"transliteration":{"text":"l-mala-i","language_name":"english","language_id":38}},{"id":9576,"position":5,"audio_url":"wbw/037_008_005.mp3","verse_key":"37:8","verse_id":3796,"location":"37:8:5","text_uthmani":"ٱلْأَعْلَىٰ","qpc_uthmani_hafs":"ٱلۡأَعۡلَىٰ","char_type_name":"word","page_number":446,"line_number":5,"text":"ٱلۡأَعۡلَىٰ","translation":{"text":"[the] exalted","language_name":"english","language_id":38},"transliteration":{"text":"l-aʿlā","language_name":"english","language_id":38}},{"id":9577,"position":6,"audio_url":"wbw/037_008_006.mp3","verse_key":"37:8","verse_id":3796,"location":"37:8:6","text_uthmani":"وَيُقْذَفُونَ","qpc_uthmani_hafs":"وَيُقۡذَفُونَ","char_type_name":"word","page_number":446,"line_number":5,"text":"وَيُقۡذَفُونَ","translation":{"text":"are pelted","language_name":"english","language_id":38},"transliteration":{"text":"wayuq'dhafūna","language_name":"english","language_id":38}},{"id":9578,"position":7,"audio_url":"wbw/037_008_007.mp3","verse_key":"37:8","verse_id":3796,"location":"37:8:7","text_uthmani":"مِن","qpc_uthmani_hafs":"مِن","char_type_name":"word","page_number":446,"line_number":6,"text":"مِن","translation":{"text":"from","language_name":"english","language_id":38},"transliteration":{"text":"min","language_name":"english","language_id":38}},{"id":9579,"position":8,"audio_url":"wbw/037_008_008.mp3","verse_key":"37:8","verse_id":3796,"location":"37:8:8","text_uthmani":"كُلِّ","qpc_uthmani_hafs":"كُلِّ","char_type_name":"word","page_number":446,"line_number":6,"text":"كُلِّ","translation":{"text":"every","language_name":"english","language_id":38},"transliteration":{"text":"kulli","language_name":"english","language_id":38}},{"id":9580,"position":9,"audio_url":"wbw/037_008_009.mp3","verse_key":"37:8","verse_id":3796,"location":"37:8:9","text_uthmani":"جَانِبٍۢ","qpc_uthmani_hafs":"جَانِبٖ","char_type_name":"word","page_number":446,"line_number":6,"text":"جَانِبٖ","translation":{"text":"side","language_name":"english","language_id":38},"transliteration":{"text":"jānibin","language_name":"english","language_id":38}},{"id":9581,"position":10,"audio_url":null,"verse_key":"37:8","verse_id":3796,"location":"37:8:10","text_uthmani":"٨","qpc_uthmani_hafs":"٨","char_type_name":"end","page_number":446,"line_number":6,"text":"٨","translation":{"text":"(8)","language_name":"english","language_id":38},"transliteration":{"text":null,"language_name":"english","language_id":38}}]},{"id":3797,"verse_number":9,"verse_key":"37:9","hizb_number":45,"rub_el_hizb_number":178,"ruku_number":388,"manzil_number":6,"sajdah_number":null,"page_number":446,"juz_number":23,"words":[{"id":10754,"position":1,"audio_url":"wbw/037_009_001.mp3","verse_key":"37:9","verse_id":3797,"location":"37:9:1","text_uthmani":"دُحُورًۭا ۖ","qpc_uthmani_hafs":"دُحُورٗاۖ","char_type_name":"word","page_number":446,"line_number":6,"text":"دُحُورٗاۖ","translation":{"text":"Repelled","language_name":"english","language_id":38},"transliteration":{"text":"duḥūran","language_name":"english","language_id":38}},{"id":10756,"position":2,"audio_url":"wbw/037_009_003.mp3","verse_key":"37:9","verse_id":3797,"location":"37:9:2","text_uthmani":"وَلَهُمْ","qpc_uthmani_hafs":"وَلَهُمۡ","char_type_name":"word","page_number":446,"line_number":6,"text":"وَلَهُمۡ","translation":{"text":"and for them","language_name":"english","language_id":38},"transliteration":{"text":"walahum","language_name":"english","language_id":38}},{"id":10757,"position":3,"audio_url":"wbw/037_009_004.mp3","verse_key":"37:9","verse_id":3797,"location":"37:9:3","text_uthmani":"عَذَابٌۭ","qpc_uthmani_hafs":"عَذَابٞ","char_type_name":"word","page_number":446,"line_number":6,"text":"عَذَابٞ","translation":{"text":"(is) a punishment","language_name":"english","language_id":38},"transliteration":{"text":"ʿadhābun","language_name":"english","language_id":38}},{"id":10758,"position":4,"audio_url":"wbw/037_009_005.mp3","verse_key":"37:9","verse_id":3797,"location":"37:9:4","text_uthmani":"وَاصِبٌ","qpc_uthmani_hafs":"وَاصِبٌ","char_type_name":"word","page_number":446,"line_number":6,"text":"وَاصِبٌ","translation":{"text":"perpetual","language_name":"english","language_id":38},"transliteration":{"text":"wāṣibun","language_name":"english","language_id":38}},{"id":10759,"position":5,"audio_url":null,"verse_key":"37:9","verse_id":3797,"location":"37:9:5","text_uthmani":"٩","qpc_uthmani_hafs":"٩","char_type_name":"end","page_number":446,"line_number":6,"text":"٩","translation":{"text":"(9)","language_name":"english","language_id":38},"transliteration":{"text":null,"language_name":"english","language_id":38}}]},{"id":3798,"verse_number":10,"verse_key":"37:10","hizb_number":45,"rub_el_hizb_number":178,"ruku_number":388,"manzil_number":6,"sajdah_number":null,"page_number":446,"juz_number":23,"words":[{"id":12003,"position":1,"audio_url":"wbw/037_010_001.mp3","verse_key":"37:10","verse_id":3798,"location":"37:10:1","text_uthmani":"إِلَّا","qpc_uthmani_hafs":"إِلَّا","char_type_name":"word","page_number":446,"line_number":6,"text":"إِلَّا","translation":{"text":"Except","language_name":"english","language_id":38},"transliteration":{"text":"illā","language_name":"english","language_id":38}},{"id":12004,"position":2,"audio_url":"wbw/037_010_002.mp3","verse_key":"37:10","verse_id":3798,"location":"37:10:2","text_uthmani":"مَنْ","qpc_uthmani_hafs":"مَنۡ","char_type_name":"word","page_number":446,"line_number":6,"text":"مَنۡ","translation":{"text":"(him) who","language_name":"english","language_id":38},"transliteration":{"text":"man","language_name":"english","language_id":38}},{"id":12005,"position":3,"audio_url":"wbw/037_010_003.mp3","verse_key":"37:10","verse_id":3798,"location":"37:10:3","text_uthmani":"خَطِفَ","qpc_uthmani_hafs":"خَطِفَ","char_type_name":"word","page_number":446,"line_number":6,"text":"خَطِفَ","translation":{"text":"snatches","language_name":"english","language_id":38},"transliteration":{"text":"khaṭifa","language_name":"english","language_id":38}},{"id":12006,"position":4,"audio_url":"wbw/037_010_004.mp3","verse_key":"37:10","verse_id":3798,"location":"37:10:4","text_uthmani":"ٱلْخَطْفَةَ","qpc_uthmani_hafs":"ٱلۡخَطۡفَةَ","char_type_name":"word","page_number":446,"line_number":7,"text":"ٱلۡخَطۡفَةَ","translation":{"text":"(by) theft","language_name":"english","language_id":38},"transliteration":{"text":"l-khaṭfata","language_name":"english","language_id":38}},{"id":12007,"position":5,"audio_url":"wbw/037_010_005.mp3","verse_key":"37:10","verse_id":3798,"location":"37:10:5","text_uthmani":"فَأَتْبَعَهُۥ","qpc_uthmani_hafs":"فَأَتۡبَعَهُۥ","char_type_name":"word","page_number":446,"line_number":7,"text":"فَأَتۡبَعَهُۥ","translation":{"text":"but follows him","language_name":"english","language_id":38},"transliteration":{"text":"fa-atbaʿahu","language_name":"english","language_id":38}},{"id":12008,"position":6,"audio_url":"wbw/037_010_006.mp3","verse_key":"37:10","verse_id":3798,"location":"37:10:6","text_uthmani":"شِهَابٌۭ","qpc_uthmani_hafs":"شِهَابٞ","char_type_name":"word","page_number":446,"line_number":7,"text":"شِهَابٞ","translation":{"text":"a burning flame","language_name":"english","language_id":38},"transliteration":{"text":"shihābun","language_name":"english","language_id":38}},{"id":12009,"position":7,"audio_url":"wbw/037_010_007.mp3","verse_key":"37:10","verse_id":3798,"location":"37:10:7","text_uthmani":"ثَاقِبٌۭ","qpc_uthmani_hafs":"ثَاقِبٞ","char_type_name":"word","page_number":446,"line_number":7,"text":"ثَاقِبٞ","translation":{"text":"piercing","language_name":"english","language_id":38},"transliteration":{"text":"thāqibun","language_name":"english","language_id":38}},{"id":12010,"position":8,"audio_url":null,"verse_key":"37:10","verse_id":3798,"location":"37:10:8","text_uthmani":"١٠","qpc_uthmani_hafs":"١٠","char_type_name":"end","page_number":446,"line_number":7,"text":"١٠","translation":{"text":"(10)","language_name":"english","language_id":38},"transliteration":{"text":null,"language_name":"english","language_id":38}}]}],"pagination":{"per_page":10,"current_page":1,"next_page":2,"total_pages":19,"total_records":182}}
