{"verses":[{"id":3879,"verse_number":91,"verse_key":"37:91","hizb_number":45,"rub_el_hizb_number":180,"ruku_number":390,"manzil_number":6,"sajdah_number":null,"page_number":449,"juz_number":23,"words":[{"id":68563,"position":1,"audio_url":"wbw/037_091_001.mp3","verse_key":"37:91","verse_id":3879,"location":"37:91:1","text_uthmani":"فَرَاغَ","qpc_uthmani_hafs":"فَرَاغَ","char_type_name":"word","page_number":449,"line_number":7,"text":"فَرَاغَ","translation":{"text":"Then he turned","language_name":"english","language_id":38},"transliteration":{"text":"farāgha","language_name":"english","language_id":38}},{"id":68564,"position":2,"audio_url":"wbw/037_091_002.mp3","verse_key":"37:91","verse_id":3879,"location":"37:91:2","text_uthmani":"إِلَىٰٓ","qpc_uthmani_hafs":"إِلَىٰٓ","char_type_name":"word","page_number":449,"line_number":7,"text":"إِلَىٰٓ","translation":{"text":"to","language_name":"english","language_id":38},"transliteration":{"text":"ilā","language_name":"english","language_id":38}},{"id":68565,"position":3,"audio_url":"wbw/037_091_003.mp3","verse_key":"37:91","verse_id":3879,"location":"37:91:3","text_uthmani":"ءَالِهَتِهِمْ","qpc_uthmani_hafs":"ءَالِهَتِهِمۡ","char_type_name":"word","page_number":449,"line_number":7,"text":"ءَالِهَتِهِمۡ","translation":{"text":"their gods","language_name":"english","language_id":38},"transliteration":{"text":"ālihatihim","language_name":"english","language_id":38}},{"id":68566,"position":4,"audio_url":"wbw/037_091_004.mp3","verse_key":"37:91","verse_id":3879,"location":"37:91:4","text_uthmani":"فَقَالَ","qpc_uthmani_hafs":"فَقَالَ","char_type_name":"word","page_number":449,"line_number":8,"text":"فَقَالَ","translation":{"text":"and said","language_name":"english","language_id":38},"transliteration":{"text":"faqāla","language_name":"english","language_id":38}},{"id":68567,"position":5,"audio_url":"wbw/037_091_005.mp3","verse_key":"37:91","verse_id":3879,"location":"37:91:5","text_uthmani":"أَلَا","qpc_uthmani_hafs":"أَلَا","char_type_name":"word","page_number":449,"line_number":8,"text":"أَلَا","translation":{"text":"Do not","language_name":"english","language_id":38},"transliteration":{"text":"alā","language_name":"english","language_id":38}},{"id":68568,"position":6,"audio_url":"wbw/037_091_006.mp3","verse_key":"37:91","verse_id":3879,"location":"37:91:6","text_uthmani":"تَأْكُلُونَ","qpc_uthmani_hafs":"تَأۡكُلُونَ","char_type_name":"word","page_number":449,"line_number":8,"text":"تَأۡكُلُونَ","translation":{"text":"you eat","language_name":"english","language_id":38},"transliteration":{"text":"takulūna","language_name":"english","language_id":38}},{"id":68569,"position":7,"audio_url":null,"verse_key":"37:91","verse_id":3879,"location":"37:91:7","text_uthmani":"٩١","qpc_uthmani_hafs":"٩١","char_type_name":"end","page_number":449,"line_number":8,"text":"٩١","translation":{"text":"(91)","language_name":"english","language_id":38},"transliteration":{"text":null,"language_name":"english","language_id":38}}]},{"id":3880,"verse_number":92,"verse_key":"37:92","hizb_number":45,"rub_el_hizb_number":180,"ruku_number":390,"manzil_number":6,"sajdah_number":null,"page_number":449,"juz_number":23,"words":[{"id":68613,"position":1,"audio_url":"wbw/037_092_001.mp3","verse_key":"37:92","verse_id":3880,"location":"37:92:1","text_uthmani":"مَا","qpc_uthmani_hafs":"مَا","char_type_name":"word","page_number":449,"line_number":8,"text":"مَا","translation":{"text":"What (is)","language_name":"english","language_id":38},"transliteration":{"text":"mā","language_name":"english","language_id":38}},{"id":68614,"position":2,"audio_url":"wbw/037_092_002.mp3","verse_key":"37:92","verse_id":3880,"location":"37:92:2","text_uthmani":"لَكُمْ","qpc_uthmani_hafs":"لَكُمۡ","char_type_name":"word","page_number":449,"line_number":8,"text":"لَكُمۡ","translation":{"text":"for you","language_name":"english","language_id":38},"transliteration":{"text":"lakum","language_name":"english","language_id":38}},{"id":68615,"position":3,"audio_url":"wbw/037_092_003.mp3","verse_key":"37:92","verse_id":3880,"location":"37:92:3","text_uthmani":"لَا","qpc_uthmani_hafs":"لَا","char_type_name":"word","page_number":449,"line_number":8,"text":"لَا","translation":{"text":"not","language_name":"english","language_id":38},"transliteration":{"text":"lā","language_name":"english","language_id":38}},{"id":68616,"position":4,"audio_url":"wbw/037_092_004.mp3","verse_key":"37:92","verse_id":3880,"location":"37:92:4","text_uthmani":"تَنطِقُونَ","qpc_uthmani_hafs":"تَنطِقُونَ","char_type_name":"word","page_number":449,"line_number":8,"text":"تَنطِقُونَ","translation":{"text":"you speak","language_name":"english","language_id":38},"transliteration":{"text":"tanṭiqūna","language_name":"english","language_id":38}},{"id":68617,"position":5,"audio_url":null,"verse_key":"37:92","verse_id":3880,"location":"37:92:5","text_uthmani":"٩٢","qpc_uthmani_hafs":"٩٢","char_type_name":"end","page_number":449,"line_number":8,"text":"٩٢","translation":{"text":"(92)","language_name":"english","language_id":38},"transliteration":{"text":null,"language_name":"english","language_id":38}}]},{"id":3881,"verse_number":93,"verse_key":"37:93","hizb_number":45,"rub_el_hizb_number":180,"ruku_number":390,"manzil_number":6,"sajdah_number":null,"page_number":449,"juz_number":23,"words":[{"id":68938,"position":1,"audio_url":"wbw/037_093_001.mp3","verse_key":"37:93","verse_id":3881,"location":"37:93:1","text_uthmani":"فَرَاغَ","qpc_uthmani_hafs":"فَرَاغَ","char_type_name":"word","page_number":449,"line_number":8,"text":"فَرَاغَ","translation":{"text":"Then he turned","language_name":"english","language_id":38},"transliteration":{"text":"farāgha","language_name":"english","language_id":38}},{"id":68939,"position":2,"audio_url":"wbw/037_093_002.mp3","verse_key":"37:93","verse_id":3881,"location":"37:93:2","text_uthmani":"عَلَيْهِمْ","qpc_uthmani_hafs":"عَلَيۡهِمۡ","char_type_name":"word","page_number":449,"line_number":8,"text":"عَلَيۡهِمۡ","translation":{"text":"upon them","language_name":"english","language_id":38},"transliteration":{"text":"ʿalayhim","language_name":"english","language_id":38}},{"id":68940,"position":3,"audio_url":"wbw/037_093_003.mp3","verse_key":"37:93","verse_id":3881,"location":"37:93:3","text_uthmani":"ضَرْبًۢا","qpc_uthmani_hafs":"ضَرۡبَۢا","char_type_name":"word","page_number":449,"line_number":8,"text":"ضَرۡبَۢا","translation":{"text":"striking","language_name":"english","language_id":38},"transliteration":{"text":"ḍarban","language_name":"english","language_id":38}},{"id":68941,"position":4,"audio_url":"wbw/037_093_004.mp3","verse_key":"37:93","verse_id":3881,"location":"37:93:4","text_uthmani":"بِٱلْيَمِينِ","qpc_uthmani_hafs":"بِٱلۡيَمِينِ","char_type_name":"word","page_number":449,"line_number":9,"text":"بِٱلۡيَمِينِ","translation":{"text":"with the right hand","language_name":"english","language_id":38},"transliteration":{"text":"bil-yamīni","language_name":"english","language_id":38}},{"id":68942,"position":5,"audio_url":null,"verse_key":"37:93","verse_id":3881,"location":"37:93:5","text_uthmani":"٩٣","qpc_uthmani_hafs":"٩٣","char_type_name":"end","page_number":449,"line_number":9,"text":"٩٣","translation":{"text":"(93)","language_name":"english","language_id":38},"transliteration":{"text":null,"language_name":"english","language_id":38}}]},{"id":3882,"verse_number":94,"verse_key":"37:94","hizb_number":45,"rub_el_hizb_number":180,"ruku_number":390,"manzil_number":6,"sajdah_number":null,"page_number":449,"juz_number":23,"words":[{"id":69660,"position":1,"audio_url":"wbw/037_094_001.mp3","verse_key":"37:94","verse_id":3882,"location":"37:94:1","text_uthmani":"فَأَقْبَلُوٓا۟","qpc_uthmani_hafs":"فَأَقۡبَلُوٓاْ","char_type_name":"word","page_number":449,"line_number":9,"text":"فَأَقۡبَلُوٓاْ","translation":{"text":"Then they advanced","language_name":"english","language_id":38},"transliteration":{"text":"fa-aqbalū","language_name":"english","language_id":38}},{"id":69661,"position":2,"audio_url":"wbw/037_094_002.mp3","verse_key":"37:94","verse_id":3882,"location":"37:94:2","text_uthmani":"إِلَيْهِ","qpc_uthmani_hafs":"إِلَيۡهِ","char_type_name":"word","page_number":449,"line_number":9,"text":"إِلَيۡهِ","translation":{"text":"towards him","language_name":"english","language_id":38},"transliteration":{"text":"ilayhi","language_name":"english","language_id":38}},{"id":69662,"position":3,"audio_url":"wbw/037_094_003.mp3","verse_key":"37:94","verse_id":3882,"location":"37:94:3","text_uthmani":"يَزِفُّونَ","qpc_uthmani_hafs":"يَزِفُّونَ","char_type_name":"word","page_number":449,"line_number":9,"text":"يَزِفُّونَ","translation":{"text":"hastening","language_name":"english","language_id":38},"transliteration":{"text":"yaziffūna","language_name":"english","language_id":38}},{"id":69663,"position":4,"audio_url":null,"verse_key":"37:94","verse_id":3882,"location":"37:94:4","text_uthmani":"٩٤","qpc_uthmani_hafs":"٩٤","char_type_name":"end","page_number":449,"line_number":9,"text":"٩٤","translation":{"text":"(94)","language_name":"english","language_id":38},"transliteration":{"text":null,"language_name":"english","language_id":38}}]},{"id":3883,"verse_number":95,"verse_key":"37:95","hizb_number":45,"rub_el_hizb_number":180,"ruku_number":390,"manzil_number":6,"sajdah_number":null,"page_number":449,"juz_number":23,"words":[{"id":69958,"position":1,"audio_url":"wbw/037_095_001.mp3","verse_key":"37:95","verse_id":3883,"location":"37:95:1","text_uthmani":"قَالَ","qpc_uthmani_hafs":"قَالَ","char_type_name":"word","page_number":449,"line_number":9,"text":"قَالَ","translation":{"text":"He said","language_name":"english","language_id":38},"transliteration":{"text":"qāla","language_name":"english","language_id":38}},{"id":69959,"position":2,"audio_url":"wbw/037_095_002.mp3","verse_key":"37:95","verse_id":3883,"location":"37:95:2","text_uthmani":"أَتَعْبُدُونَ","qpc_uthmani_hafs":"أَتَعۡبُدُونَ","char_type_name":"word","page_number":449,"line_number":9,"text":"أَتَعۡبُدُونَ","translation":{"text":"Do you worship","language_name":"english","language_id":38},"transliteration":{"text":"ataʿbudūna","language_name":"english","language_id":38}},{"id":69960,"position":3,"audio_url":"wbw/037_095_003.mp3","verse_key":"37:95","verse_id":3883,"location":"37:95:3","text_uthmani":"مَا","qpc_uthmani_hafs":"مَا","char_type_name":"word","page_number":449,"line_number":9,"text":"مَا","translation":{"text":"what","language_name":"english","language_id":38},"transliteration":{"text":"mā","language_name":"english","language_id":38}},{"id":69961,"position":4,"audio_url":"wbw/037_095_004.mp3","verse_key":"37:95","verse_id":3883,"location":"37:95:4","text_uthmani":"تَنْحِتُونَ","qpc_uthmani_hafs":"تَنۡحِتُونَ","char_type_name":"word","page_number":449,"line_number":9,"text":"تَنۡحِتُونَ","translation":{"text":"you carve","language_name":"english","language_id":38},"transliteration":{"text":"tanḥitūna","language_name":"english","language_id":38}},{"id":69962,"position":5,"audio_url":null,"verse_key":"37:95","verse_id":3883,"location":"37:95:5","text_uthmani":"٩٥","qpc_uthmani_hafs":"٩٥","char_type_name":"end","page_number":449,"line_number":10,"text":"٩٥","translation":{"text":"(95)","language_name":"english","language_id":38},"transliteration":{"text":null,"language_name":"english","language_id":38}}]},{"id":3884,"verse_number":96,"verse_key":"37:96","hizb_number":45,"rub_el_hizb_number":180,"ruku_number":390,"manzil_number":6,"sajdah_number":null,"page_number":449,"juz_number":23,"words":[{"id":69988,"position":1,"audio_url":"wbw/037_096_001.mp3","verse_key":"37:96","verse_id":3884,"location":"37:96:1","text_uthmani":"وَٱللَّهُ","qpc_uthmani_hafs":"وَٱللَّهُ","char_type_name":"word","page_number":449,"line_number":10,"text":"وَٱللَّهُ","translation":{"text":"While Allah","language_name":"english","language_id":38},"transliteration":{"text":"wal-lahu","language_name":"english","language_id":38}},{"id":69989,"position":2,"audio_url":"wbw/037_096_002.mp3","verse_key":"37:96","verse_id":3884,"location":"37:96:2","text_uthmani":"خَلَقَكُمْ","qpc_uthmani_hafs":"خَلَقَكُمۡ","char_type_name":"word","page_number":449,"line_number":10,"text":"خَلَقَكُمۡ","translation":{"text":"created you","language_name":"english","language_id":38},"transliteration":{"text":"khalaqakum","language_name":"english","language_id":38}},{"id":69990,"position":3,"audio_url":"wbw/037_096_003.mp3","verse_key":"37:96","verse_id":3884,"location":"37:96:3","text_uthmani":"وَمَا","qpc_uthmani_hafs":"وَمَا","char_type_name":"word","page_number":449,"line_number":10,"text":"وَمَا","translation":{"text":"and what","language_name":"english","language_id":38},"transliteration":{"text":"wamā","language_name":"english","language_id":38}},{"id":69991,"position":4,"audio_url":"wbw/037_096_004.mp3","verse_key":"37:96","verse_id":3884,"location":"37:96:4","text_uthmani":"تَعْمَلُونَ","qpc_uthmani_hafs":"تَعۡمَلُونَ","char_type_name":"word","page_number":449,"line_number":10,"text":"تَعۡمَلُونَ","translation":{"text":"you make","language_name":"english","language_id":38},"transliteration":{"text":"taʿmalūna","language_name":"english","language_id":38}},{"id":69992,"position":5,"audio_url":null,"verse_key":"37:96","verse_id":3884,"location":"37:96:5","text_uthmani":"٩٦","qpc_uthmani_hafs":"٩٦","char_type_name":"end","page_number":449,"line_number":10,"text":"٩٦","translation":{"text":"(96)","language_name":"english","language_id":38},"transliteration":{"text":null,"language_name":"english","language_id":38}}]},{"id":3885,"verse_number":97,"verse_key":"37:97","hizb_number":45,"rub_el_hizb_number":180,"ruku_number":390,"manzil_number":6,"sajdah_number":null,"page_number":449,"juz_number":23,"words":[{"id":70571,"position":1,"audio_url":"wbw/037_097_001.mp3","verse_key":"37:97","verse_id":3885,"location":"37:97:1","text_uthmani":"قَالُوا۟","qpc_uthmani_hafs":"قَالُواْ","char_type_name":"word","page_number":449,"line_number":10,"text":"قَالُواْ","translation":{"text":"They said","language_name":"english","language_id":38},"transliteration":{"text":"qālū","language_name":"english","language_id":38}},{"id":70572,"position":2,"audio_url":"wbw/037_097_002.mp3","verse_key":"37:97","verse_id":3885,"location":"37:97:2","text_uthmani":"ٱبْنُوا۟","qpc_uthmani_hafs":"ٱبۡنُواْ","char_type_name":"word","page_number":449,"line_number":10,"text":"ٱبۡنُواْ","translation":{"text":"Build","language_name":"english","language_id":38},"transliteration":{"text":"ib'nū","language_name":"english","language_id":38}},{"id":70573,"position":3,"audio_url":"wbw/037_097_003.mp3","verse_key":"37:97","verse_id":3885,"location":"37:97:3","text_uthmani":"لَهُۥ","qpc_uthmani_hafs":"لَهُۥ","char_type_name":"word","page_number":449,"line_number":10,"text":"لَهُۥ","translation":{"text":"for him","language_name":"english","language_id":38},"transliteration":{"text":"lahu","language_name":"english","language_id":38}},{"id":70574,"position":4,"audio_url":"wbw/037_097_004.mp3","verse_key":"37:97","verse_id":3885,"location":"37:97:4","text_uthmani":"بُنْيَـٰنًۭا","qpc_uthmani_hafs":"بُنۡيَٰنٗا","char_type_name":"word","page_number":449,"line_number":10,"text":"بُنۡيَٰنٗا","translation":{"text":"a structure","language_name":"english","language_id":38},"transliteration":{"text":"bun'yānan","language_name":"english","language_id":38}},{"id":70575,"position":5,"audio_url":"wbw/037_097_005.mp3","verse_key":"37:97","verse_id":3885,"location":"37:97:5","text_uthmani":"فَأَلْقُوهُ","qpc_uthmani_hafs":"فَأَلۡقُوهُ","char_type_name":"word","page_number":449,"line_number":10,"text":"فَأَلۡقُوهُ","translation":{"text":"and throw him","language_name":"english","language_id":38},"transliteration":{"text":"fa-alqūhu","language_name":"english","language_id":38}},{"id":70576,"position":6,"audio_url":"wbw/037_097_006.mp3","verse_key":"37:97","verse_id":3885,"location":"37:97:6","text_uthmani":"فِى","qpc_uthmani_hafs":"فِي","char_type_name":"word","page_number":449,"line_number":11,"text":"فِي","translation":{"text":"into","language_name":"english","language_id":38},"transliteration":{"text":"fī","language_name":"english","language_id":38}},{"id":70577,"position":7,"audio_url":"wbw/037_097_007.mp3","verse_key":"37:97","verse_id":3885,"location":"37:97:7","text_uthmani":"ٱلْجَحِيمِ","qpc_uthmani_hafs":"ٱلۡجَحِيمِ","char_type_name":"word","page_number":449,"line_number":11,"text":"ٱلۡجَحِيمِ","translation":{"text":"the blazing Fire","language_name":"english","language_id":38},"transliteration":{"text":"l-jaḥīmi","language_name":"english","language_id":38}},{"id":70578,"position":8,"audio_url":null,"verse_key":"37:97","verse_id":3885,"location":"37:97:8","text_uthmani":"٩٧","qpc_uthmani_hafs":"٩٧","char_type_name":"end","page_number":449,"line_number":11,"text":"٩٧","translation":{"text":"(97)","language_name":"english","language_id":38},"transliteration":{"text":null,"language_name":"english","language_id":38}}]},{"id":3886,"verse_number":98,"verse_key":"37:98","hizb_number":45,"rub_el_hizb_number":180,"ruku_number":390,"manzil_number":6,"sajdah_number":null,"page_number":449,"juz_number":23,"words":[{"id":70821,"position":1,"audio_url":"wbw/037_098_001.mp3","verse_key":"37:98","verse_id":3886,"location":"37:98:1","text_uthmani":"فَأَرَادُوا۟","qpc_uthmani_hafs":"فَأَرَادُواْ","char_type_name":"word","page_number":449,"line_number":11,"text":"فَأَرَادُواْ","translation":{"text":"And they intended","language_name":"english","language_id":38},"transliteration":{"text":"fa-arādū","language_name":"english","language_id":38}},{"id":70822,"position":2,"audio_url":"wbw/037_098_002.mp3","verse_key":"37:98","verse_id":3886,"location":"37:98:2","text_uthmani":"بِهِۦ","qpc_uthmani_hafs":"بِهِۦ","char_type_name":"word","page_number":449,"line_number":11,"text":"بِهِۦ","translation":{"text":"for him","language_name":"english","language_id":38},"transliteration":{"text":"bihi","language_name":"english","language_id":38}},{"id":70823,"position":3,"audio_url":"wbw/037_098_003.mp3","verse_key":"37:98","verse_id":3886,"location":"37:98:3","text_uthmani":"كَيْدًۭا","qpc_uthmani_hafs":"كَيۡدٗا","char_type_name":"word","page_number":449,"line_number":11,"text":"كَيۡدٗا","translation":{"text":"a plot","language_name":"english","language_id":38},"transliteration":{"text":"kaydan","language_name":"english","language_id":38}},{"id":70824,"position":4,"audio_url":"wbw/037_098_004.mp3","verse_key":"37:98","verse_id":3886,"location":"37:98:4","text_uthmani":"فَجَعَلْنَـٰهُمُ","qpc_uthmani_hafs":"فَجَعَلۡنَٰهُمُ","char_type_name":"word","page_number":449,"line_number":11,"text":"فَجَعَلۡنَٰهُمُ","translation":{"text":"but We made them","language_name":"english","language_id":38},"transliteration":{"text":"fajaʿalnāhumu","language_name":"english","language_id":38}},{"id":70825,"position":5,"audio_url":"wbw/037_098_005.mp3","verse_key":"37:98","verse_id":3886,"location":"37:98:5","text_uthmani":"ٱلْأَسْفَلِينَ","qpc_uthmani_hafs":"ٱلۡأَسۡفَلِينَ","char_type_name":"word","page_number":449,"line_number":11,"text":"ٱلۡأَسۡفَلِينَ","translation":{"text":"the lowest","language_name":"english","language_id":38},"transliteration":{"text":"l-asfalīna","language_name":"english","language_id":38}},{"id":70826,"position":6,"audio_url":null,"verse_key":"37:98","verse_id":3886,"location":"37:98:6","text_uthmani":"٩٨","qpc_uthmani_hafs":"٩٨","char_type_name":"end","page_number":449,"line_number":11,"text":"٩٨","translation":{"text":"(98)","language_name":"english","language_id":38},"transliteration":{"text":null,"language_name":"english","language_id":38}}]},{"id":3887,"verse_number":99,"verse_key":"37:99","hizb_number":45,"rub_el_hizb_number":180,"ruku_number":390,"manzil_number":6,"sajdah_number":null,"page_number":449,"juz_number":23,"words":[{"id":70842,"position":1,"audio_url":"wbw/037_099_001.mp3","verse_key":"37:99","verse_id":3887,"location":"37:99:1","text_uthmani":"وَقَالَ","qpc_uthmani_hafs":"وَقَالَ","char_type_name":"word","page_number":449,"line_number":12,"text":"وَقَالَ","translation":{"text":"And he said","language_name":"english","language_id":38},"transliteration":{"text":"waqāla","language_name":"english","language_id":38}},{"id":70843,"position":2,"audio_url":"wbw/037_099_002.mp3","verse_key":"37:99","verse_id":3887,"location":"37:99:2","text_uthmani":"إِنِّى","qpc_uthmani_hafs":"إِنِّي","char_type_name":"word","page_number":449,"line_number":12,"text":"إِنِّي","translation":{"text":"Indeed, I am","language_name":"english","language_id":38},"transliteration":{"text":"innī","language_name":"english","language_id":38}},{"id":70844,"position":3,"audio_url":"wbw/037_099_003.mp3","verse_key":"37:99","verse_id":3887,"location":"37:99:3","text_uthmani":"ذَاهِبٌ","qpc_uthmani_hafs":"ذَاهِبٌ","char_type_name":"word","page_number":449,"line_number":12,"text":"ذَاهِبٌ","translation":{"text":"going","language_name":"english","language_id":38},"transliteration":{"text":"dhāhibun","language_name":"english","language_id":38}},{"id":70845,"position":4,"audio_url":"wbw/037_099_004.mp3","verse_key":"37:99","verse_id":3887,"location":"37:99:4","text_uthmani":"إِلَىٰ","qpc_uthmani_hafs":"إِلَىٰ","char_type_name":"word","page_number":449,"line_number":12,"text":"إِلَىٰ","translation":{"text":"to","language_name":"english","language_id":38},"transliteration":{"text":"ilā","language_name":"english","language_id":38}},{"id":70846,"position":5,"audio_url":"wbw/037_099_005.mp3","verse_key":"37:99","verse_id":3887,"location":"37:99:5","text_uthmani":"رَبِّى","qpc_uthmani_hafs":"رَبِّي","char_type_name":"word","page_number":449,"line_number":12,"text":"رَبِّي","translation":{"text":"my Lord","language_name":"english","language_id":38},"transliteration":{"text":"rabbī","language_name":"english","language_id":38}},{"id":70847,"position":6,"audio_url":"wbw/037_099_006.mp3","verse_key":"37:99","verse_id":3887,"location":"37:99:6","text_uthmani":"سَيَهْدِينِ","qpc_uthmani_hafs":"سَيَهۡدِينِ","char_type_name":"word","page_number":449,"line_number":12,"text":"سَيَهۡدِينِ","translation":{"text":"He will guide me","language_name":"english","language_id":38},"transliteration":{"text":"sayahdīni","language_name":"english","language_id":38}},{"id":70848,"position":7,"audio_url":null,"verse_key":"37:99","verse_id":3887,"location":"37:99:7","text_uthmani":"٩٩","qpc_uthmani_hafs":"٩٩","char_type_name":"end","page_number":449,"line_number":12,"text":"٩٩","translation":{"text":"(99)","language_name":"english","language_id":38},"transliteration":{"text":null,"language_name":"english","language_id":38}}]},{"id":3888,"verse_number":100,"verse_key":"37:100","hizb_number":45,"rub_el_hizb_number":180,"ruku_number":390,"manzil_number":6,"sajdah_number":null,"page_number":449,"juz_number":23,"words":[{"id":71188,"position":1,"audio_url":"wbw/037_100_001.mp3","verse_key":"37:100","verse_id":3888,"location":"37:100:1","text_uthmani":"رَبِّ","qpc_uthmani_hafs":"رَبِّ","char_type_name":"word","page_number":449,"line_number":12,"text":"رَبِّ","translation":{"text":"My Lord","language_name":"english","language_id":38},"transliteration":{"text":"rabbi","language_name":"english","language_id":38}},{"id":71189,"position":2,"audio_url":"wbw/037_100_002.mp3","verse_key":"37:100","verse_id":3888,"location":"37:100:2","text_uthmani":"هَبْ","qpc_uthmani_hafs":"هَبۡ","char_type_name":"word","page_number":449,"line_number":12,"text":"هَبۡ","translation":{"text":"grant","language_name":"english","language_id":38},"transliteration":{"text":"hab","language_name":"english","language_id":38}},{"id":71190,"position":3,"audio_url":"wbw/037_100_003.mp3","verse_key":"37:100","verse_id":3888,"location":"37:100:3","text_uthmani":"لِى","qpc_uthmani_hafs":"لِي","char_type_name":"word","page_number":449,"line_number":12,"text":"لِي","translation":{"text":"me","language_name":"english","language_id":38},"transliteration":{"text":"lī","language_name":"english","language_id":38}},{"id":71191,"position":4,"audio_url":"wbw/037_100_004.mp3","verse_key":"37:100","verse_id":3888,"location":"37:100:4","text_uthmani":"مِنَ","qpc_uthmani_hafs":"مِنَ","char_type_name":"word","page_number":449,"line_number":12,"text":"مِنَ","translation":{"text":"of","language_name":"english","language_id":38},"transliteration":{"text":"mina","language_name":"english","language_id":38}},{"id":71192,"position":5,"audio_url":"wbw/037_100_005.mp3","verse_key":"37:100","verse_id":3888,"location":"37:100:5","text_uthmani":"ٱلصَّـٰلِحِينَ","qpc_uthmani_hafs":"ٱلصَّٰلِحِينَ","char_type_name":"word","page_number":449,"line_number":12,"text":"ٱلصَّٰلِحِينَ","translation":{"text":"the righteous","language_name":"english","language_id":38},"transliteration":{"text":"l-ṣāliḥīna","language_name":"english","language_id":38}},{"id":71193,"position":6,"audio_url":null,"verse_key":"37:100","verse_id":3888,"location":"37:100:6","text_uthmani":"١٠٠","qpc_uthmani_hafs":"١٠٠","char_type_name":"end","page_number":449,"line_number":13,"text":"١٠٠","translation":{"text":"(100)","language_name":"english","language_id":38},"transliteration":{"text":null,"language_name":"english","language_id":38}}]}],"pagination":{"per_page":10,"current_page":10,"next_page":11,"total_pages":19,"total_records":182}}
