{"verses":[{"id":3899,"verse_number":111,"verse_key":"37:111","hizb_number":45,"rub_el_hizb_number":180,"ruku_number":390,"manzil_number":6,"sajdah_number":null,"page_number":450,"juz_number":23,"words":[{"id":74485,"position":1,"audio_url":"wbw/037_111_001.mp3","verse_key":"37:111","verse_id":3899,"location":"37:111:1","text_uthmani":"إِنَّهُۥ","qpc_uthmani_hafs":"إِنَّهُۥ","char_type_name":"word","page_number":450,"line_number":5,"text":"إِنَّهُۥ","translation":{"text":"Indeed, he (was)","language_name":"english","language_id":38},"transliteration":{"text":"innahu","language_name":"english","language_id":38}},{"id":74486,"position":2,"audio_url":"wbw/037_111_002.mp3","verse_key":"37:111","verse_id":3899,"location":"37:111:2","text_uthmani":"مِنْ","qpc_uthmani_hafs":"مِنۡ","char_type_name":"word","page_number":450,"line_number":5,"text":"مِنۡ","translation":{"text":"of","language_name":"english","language_id":38},"transliteration":{"text":"min","language_name":"english","language_id":38}},{"id":74487,"position":3,"audio_url":"wbw/037_111_003.mp3","verse_key":"37:111","verse_id":3899,"location":"37:111:3","text_uthmani":"عِبَادِنَا","qpc_uthmani_hafs":"عِبَادِنَا","char_type_name":"word","page_number":450,"line_number":5,"text":"عِبَادِنَا","translation":{"text":"Our slaves","language_name":"english","language_id":38},"transliteration":{"text":"ʿibādinā","language_name":"english","language_id":38}},{"id":74488,"position":4,"audio_url":"wbw/037_111_004.mp3","verse_key":"37:111","verse_id":3899,"location":"37:111:4","text_uthmani":"ٱلْمُؤْمِنِينَ","qpc_uthmani_hafs":"ٱلۡمُؤۡمِنِينَ","char_type_name":"word","page_number":450,"line_number":5,"text":"ٱلۡمُؤۡمِنِينَ","translation":{"text":"believing","language_name":"english","language_id":38},"transliteration":{"text":"l-mu'minīna","language_name":"english","language_id":38}},{"id":74489,"position":5,"audio_url":null,"verse_key":"37:111","verse_id":3899,"location":"37:111:5","text_uthmani":"١١١","qpc_uthmani_hafs":"١١١","char_type_name":"end","page_number":450,"line_number":5,"text":"١١١","translation":{"text":"(111)","language_name":"english","language_id":38},"transliteration":{"text":null,"language_name":"english","language_id":38}}]},{"id":3900,"verse_number":112,"verse_key":"37:112","hizb_number":45,"rub_el_hizb_number":180,"ruku_number":390,"manzil_number":6,"sajdah_number":null,"page_number":450,"juz_number":23,"words":[{"id":74716,"position":1,"audio_url":"wbw/037_112_001.mp3","verse_key":"37:112","verse_id":3900,"location":"37:112:1","text_uthmani":"وَبَشَّرْنَـٰهُ","qpc_uthmani_hafs":"وَبَشَّرۡنَٰهُ","char_type_name":"word","page_number":450,"line_number":5,"text":"وَبَشَّرۡنَٰهُ","translation":{"text":"And We gave him glad tidings","language_name":"english","language_id":38},"transliteration":{"text":"wabasharnāhu","language_name":"english","language_id":38}},{"id":74717,"position":2,"audio_url":"wbw/037_112_002.mp3","verse_key":"37:112","verse_id":3900,"location":"37:112:2","text_uthmani":"بِإِسْحَـٰقَ","qpc_uthmani_hafs":"بِإِسۡحَٰقَ","char_type_name":"word","page_number":450,"line_number":6,"text":"بِإِسۡحَٰقَ","translation":{"text":"of Isaac","language_name":"english","language_id":38},"transliteration":{"text":"bi-is'ḥāqa","language_name":"english","language_id":38}},{"id":74718,"position":3,"audio_url":"wbw/037_112_003.mp3","verse_key":"37:112","verse_id":3900,"location":"37:112:3","text_uthmani":"نَبِيًّۭا","qpc_uthmani_hafs":"نَبِيّٗا","char_type_name":"word","page_number":450,"line_number":6,"text":"نَبِيّٗا","translation":{"text":"a Prophet","language_name":"english","language_id":38},"transliteration":{"text":"nabiyyan","language_name":"english","language_id":38}},{"id":74719,"position":4,"audio_url":"wbw/037_112_004.mp3","verse_key":"37:112","verse_id":3900,"location":"37:112:4","text_uthmani":"مِّنَ","qpc_uthmani_hafs":"مِّنَ","char_type_name":"word","page_number":450,"line_number":6,"text":"مِّنَ","translation":{"text":"among","language_name":"english","language_id":38},"transliteration":{"text":"mina","language_name":"english","language_id":38}},{"id":74720,"position":5,"audio_url":"wbw/037_112_005.mp3","verse_key":"37:112","verse_id":3900,"location":"37:112:5","text_uthmani":"ٱلصَّـٰلِحِينَ","qpc_uthmani_hafs":"ٱلصَّٰلِحِينَ","char_type_name":"word","page_number":450,"line_number":6,"text":"ٱلصَّٰلِحِينَ","translation":{"text":"the righteous","language_name":"english","language_id":38},"transliteration":{"text":"l-ṣāliḥīna","language_name":"english","language_id":38}},{"id":74721,"position":6,"audio_url":null,"verse_key":"37:112","verse_id":3900,"location":"37:112:6","text_uthmani":"١١٢","qpc_uthmani_hafs":"١١٢","char_type_name":"end","page_number":450,"line_number":6,"text":"١١٢","translation":{"text":"(112)","language_name":"english","language_id":38},"transliteration":{"text":null,"language_name":"english","language_id":38}}]},{"id":3901,"verse_number":113,"verse_key":"37:113","hizb_number":45,"rub_el_hizb_number":180,"ruku_number":390,"manzil_number":6,"sajdah_number":null,"page_number":450,"juz_number":23,"words":[{"id":74891,"position":1,"audio_url":"wbw/037_113_001.mp3","verse_key":"37:113","verse_id":3901,"location":"37:113:1","text_uthmani":"وَبَـٰرَكْنَا","qpc_uthmani_hafs":"وَبَٰرَكۡنَا","char_type_name":"word","page_number":450,"line_number":6,"text":"وَبَٰرَكۡنَا","translation":{"text":"And We blessed","language_name":"english","language_id":38},"transliteration":{"text":"wabāraknā","language_name":"english","language_id":38}},{"id":74892,"position":2,"audio_url":"wbw/037_113_002.mp3","verse_key":"37:113","verse_id":3901,"location":"37:113:2","text_uthmani":"عَلَيْهِ","qpc_uthmani_hafs":"عَلَيۡهِ","char_type_name":"word","page_number":450,"line_number":6,"text":"عَلَيۡهِ","translation":{"text":"him","language_name":"english","language_id":38},"transliteration":{"text":"ʿalayhi","language_name":"english","language_id":38}},{"id":74893,"position":3,"audio_url":"wbw/037_113_003.mp3","verse_key":"37:113","verse_id":3901,"location":"37:113:3","text_uthmani":"وَعَلَىٰٓ","qpc_uthmani_hafs":"وَعَلَىٰٓ","char_type_name":"word","page_number":450,"line_number":6,"text":"وَعَلَىٰٓ","translation":{"text":"and [on]","language_name":"english","language_id":38},"transliteration":{"text":"waʿalā","language_name":"english","language_id":38}},{"id":74894,"position":4,"audio_url":"wbw/037_113_004.mp3","verse_key":"37:113","verse_id":3901,"location":"37:113:4","text_uthmani":"إِسْحَـٰقَ ۚ","qpc_uthmani_hafs":"إِسۡحَٰقَۚ","char_type_name":"word","page_number":450,"line_number":6,"text":"إِسۡحَٰقَۚ","translation":{"text":"Isaac","language_name":"english","language_id":38},"transliteration":{"text":"is'ḥāqa","language_name":"english","language_id":38}},{"id":74896,"position":5,"audio_url":"wbw/037_113_006.mp3","verse_key":"37:113","verse_id":3901,"location":"37:113:5","text_uthmani":"وَمِن","qpc_uthmani_hafs":"وَمِن","char_type_name":"word","page_number":450,"line_number":7,"text":"وَمِن","translation":{"text":"And of","language_name":"english","language_id":38},"transliteration":{"text":"wamin","language_name":"english","language_id":38}},{"id":74897,"position":6,"audio_url":"wbw/037_113_007.mp3","verse_key":"37:113","verse_id":3901,"location":"37:113:6","text_uthmani":"ذُرِّيَّتِهِمَا","qpc_uthmani_hafs":"ذُرِّيَّتِهِمَا","char_type_name":"word","page_number":450,"line_number":7,"text":"ذُرِّيَّتِهِمَا","translation":{"text":"their offspring","language_name":"english","language_id":38},"transliteration":{"text":"dhurriyyatihimā","language_name":"english","language_id":38}},{"id":74898,"position":7,"audio_url":"wbw/037_113_008.mp3","verse_key":"37:113","verse_id":3901,"location":"37:113:7","text_uthmani":"مُحْسِنٌۭ","qpc_uthmani_hafs":"مُحۡسِنٞ","char_type_name":"word","page_number":450,"line_number":7,"text":"مُحۡسِنٞ","translation":{"text":"(are) good-doers","language_name":"english","language_id":38},"transliteration":{"text":"muḥ'sinun","language_name":"english","language_id":38}},{"id":74899,"position":8,"audio_url":"wbw/037_113_009.mp3","verse_key":"37:113","verse_id":3901,"location":"37:113:8","text_uthmani":"وَظَالِمٌۭ","qpc_uthmani_hafs":"وَظَالِمٞ","char_type_name":"word","page_number":450,"line_number":7,"text":"وَظَالِمٞ","translation":{"text":"and unjust","language_name":"english","language_id":38},"transliteration":{"text":"waẓālimun","language_name":"english","language_id":38}},{"id":74900,"position":9,"audio_url":"wbw/037_113_010.mp3","verse_key":"37:113","verse_id":3901,"location":"37:113:9","text_uthmani":"لِّنَفْسِهِۦ","qpc_uthmani_hafs":"لِّنَفۡسِهِۦ","char_type_name":"word","page_number":450,"line_number":7,"text":"لِّنَفۡسِهِۦ","translation":{"text":"to himself","language_name":"english","language_id":38},"transliteration":{"text":"linafsihi","language_name":"english","language_id":38}},{"id":74901,"position":10,"audio_url":"wbw/037_113_011.mp3","verse_key":"37:113","verse_id":3901,"location":"37:113:10","text_uthmani":"مُبِينٌۭ","qpc_uthmani_hafs":"مُبِينٞ","char_type_name":"word","page_number":450,"line_number":7,"text":"مُبِينٞ","translation":{"text":"clear","language_name":"english","language_id":38},"transliteration":{"text":"mubīnun","language_name":"english","language_id":38}},{"id":74902,"position":11,"audio_url":null,"verse_key":"37:113","verse_id":3901,"location":"37:113:11","text_uthmani":"١١٣","qpc_uthmani_hafs":"١١٣","char_type_name":"end","page_number":450,"line_number":7,"text":"١١٣","translation":{"text":"(113)","language_name":"english","language_id":38},"transliteration":{"text":null,"language_name":"english","language_id":38}}]},{"id":3902,"verse_number":114,"verse_key":"37:114","hizb_number":45,"rub_el_hizb_number":180,"ruku_number":391,"manzil_number":6,"sajdah_number":null,"page_number":450,"juz_number":23,"words":[{"id":75281,"position":1,"audio_url":"wbw/037_114_001.mp3","verse_key":"37:114","verse_id":3902,"location":"37:114:1","text_uthmani":"وَلَقَدْ","qpc_uthmani_hafs":"وَلَقَدۡ","char_type_name":"word","page_number":450,"line_number":7,"text":"وَلَقَدۡ","translation":{"text":"And verily","language_name":"english","language_id":38},"transliteration":{"text":"walaqad","language_name":"english","language_id":38}},{"id":75282,"position":2,"audio_url":"wbw/037_114_002.mp3","verse_key":"37:114","verse_id":3902,"location":"37:114:2","text_uthmani":"مَنَنَّا","qpc_uthmani_hafs":"مَنَنَّا","char_type_name":"word","page_number":450,"line_number":7,"text":"مَنَنَّا","translation":{"text":"We conferred Favor","language_name":"english","language_id":38},"transliteration":{"text":"manannā","language_name":"english","language_id":38}},{"id":75283,"position":3,"audio_url":"wbw/037_114_003.mp3","verse_key":"37:114","verse_id":3902,"location":"37:114:3","text_uthmani":"عَلَىٰ","qpc_uthmani_hafs":"عَلَىٰ","char_type_name":"word","page_number":450,"line_number":8,"text":"عَلَىٰ","translation":{"text":"upon","language_name":"english","language_id":38},"transliteration":{"text":"ʿalā","language_name":"english","language_id":38}},{"id":75284,"position":4,"audio_url":"wbw/037_114_004.mp3","verse_key":"37:114","verse_id":3902,"location":"37:114:4","text_uthmani":"مُوسَىٰ","qpc_uthmani_hafs":"مُوسَىٰ","char_type_name":"word","page_number":450,"line_number":8,"text":"مُوسَىٰ","translation":{"text":"Musa","language_name":"english","language_id":38},"transliteration":{"text":"mūsā","language_name":"english","language_id":38}},{"id":75285,"position":5,"audio_url":"wbw/037_114_005.mp3","verse_key":"37:114","verse_id":3902,"location":"37:114:5","text_uthmani":"وَهَـٰرُونَ","qpc_uthmani_hafs":"وَهَٰرُونَ","char_type_name":"word","page_number":450,"line_number":8,"text":"وَهَٰرُونَ","translation":{"text":"and Harun","language_name":"english","language_id":38},"transliteration":{"text":"wahārūna","language_name":"english","language_id":38}},{"id":75286,"position":6,"audio_url":null,"verse_key":"37:114","verse_id":3902,"location":"37:114:6","text_uthmani":"١١٤","qpc_uthmani_hafs":"١١٤","char_type_name":"end","page_number":450,"line_number":8,"text":"١١٤","translation":{"text":"(114)","language_name":"english","language_id":38},"transliteration":{"text":null,"language_name":"english","language_id":38}}]},{"id":3903,"verse_number":115,"verse_key":"37:115","hizb_number":45,"rub_el_hizb_number":180,"ruku_number":391,"manzil_number":6,"sajdah_number":null,"page_number":450,"juz_number":23,"words":[{"id":75357,"position":1,"audio_url":"wbw/037_115_001.mp3","verse_key":"37:115","verse_id":3903,"location":"37:115:1","text_uthmani":"وَنَجَّيْنَـٰهُمَا","qpc_uthmani_hafs":"وَنَجَّيۡنَٰهُمَا","char_type_name":"word","page_number":450,"line_number":8,"text":"وَنَجَّيۡنَٰهُمَا","translation":{"text":"And We saved both of them","language_name":"english","language_id":38},"transliteration":{"text":"wanajjaynāhumā","language_name":"english","language_id":38}},{"id":75358,"position":2,"audio_url":"wbw/037_115_002.mp3","verse_key":"37:115","verse_id":3903,"location":"37:115:2","text_uthmani":"وَقَوْمَهُمَا","qpc_uthmani_hafs":"وَقَوۡمَهُمَا","char_type_name":"word","page_number":450,"line_number":8,"text":"وَقَوۡمَهُمَا","translation":{"text":"and their people","language_name":"english","language_id":38},"transliteration":{"text":"waqawmahumā","language_name":"english","language_id":38}},{"id":75359,"position":3,"audio_url":"wbw/037_115_003.mp3","verse_key":"37:115","verse_id":3903,"location":"37:115:3","text_uthmani":"مِنَ","qpc_uthmani_hafs":"مِنَ","char_type_name":"word","page_number":450,"line_number":8,"text":"مِنَ","translation":{"text":"from","language_name":"english","language_id":38},"transliteration":{"text":"mina","language_name":"english","language_id":38}},{"id":75360,"position":4,"audio_url":"wbw/037_115_004.mp3","verse_key":"37:115","verse_id":3903,"location":"37:115:4","text_uthmani":"ٱلْكَرْبِ","qpc_uthmani_hafs":"ٱلۡكَرۡبِ","char_type_name":"word","page_number":450,"line_number":8,"text":"ٱلۡكَرۡبِ","translation":{"text":"the distress","language_name":"english","language_id":38},"transliteration":{"text":"l-karbi","language_name":"english","language_id":38}},{"id":75361,"position":5,"audio_url":"wbw/037_115_005.mp3","verse_key":"37:115","verse_id":3903,"location":"37:115:5","text_uthmani":"ٱلْعَظِيمِ","qpc_uthmani_hafs":"ٱلۡعَظِيمِ","char_type_name":"word","page_number":450,"line_number":9,"text":"ٱلۡعَظِيمِ","translation":{"text":"the great","language_name":"english","language_id":38},"transliteration":{"text":"l-ʿaẓīmi","language_name":"english","language_id":38}},{"id":75362,"position":6,"audio_url":null,"verse_key":"37:115","verse_id":3903,"location":"37:115:6","text_uthmani":"١١٥","qpc_uthmani_hafs":"١١٥","char_type_name":"end","page_number":450,"line_number":9,"text":"١١٥","translation":{"text":"(115)","language_name":"english","language_id":38},"transliteration":{"text":null,"language_name":"english","language_id":38}}]},{"id":3904,"verse_number":116,"verse_key":"37:116","hizb_number":45,"rub_el_hizb_number":180,"ruku_number":391,"manzil_number":6,"sajdah_number":null,"page_number":450,"juz_number":23,"words":[{"id":75687,"position":1,"audio_url":"wbw/037_116_001.mp3","verse_key":"37:116","verse_id":3904,"location":"37:116:1","text_uthmani":"وَنَصَرْنَـٰهُمْ","qpc_uthmani_hafs":"وَنَصَرۡنَٰهُمۡ","char_type_name":"word","page_number":450,"line_number":9,"text":"وَنَصَرۡنَٰهُمۡ","translation":{"text":"And We helped them","language_name":"english","language_id":38},"transliteration":{"text":"wanaṣarnāhum","language_name":"english","language_id":38}},{"id":75688,"position":2,"audio_url":"wbw/037_116_002.mp3","verse_key":"37:116","verse_id":3904,"location":"37:116:2","text_uthmani":"فَكَانُوا۟","qpc_uthmani_hafs":"فَكَانُواْ","char_type_name":"word","page_number":450,"line_number":9,"text":"فَكَانُواْ","translation":{"text":"so they became","language_name":"english","language_id":38},"transliteration":{"text":"fakānū","language_name":"english","language_id":38}},{"id":75689,"position":3,"audio_url":"wbw/037_116_003.mp3","verse_key":"37:116","verse_id":3904,"location":"37:116:3","text_uthmani":"هُمُ","qpc_uthmani_hafs":"هُمُ","char_type_name":"word","page_number":450,"line_number":9,"text":"هُمُ","translation":{"text":"so they became","language_name":"english","language_id":38},"transliteration":{"text":"humu","language_name":"english","language_id":38}},{"id":75690,"position":4,"audio_url":"wbw/037_116_004.mp3","verse_key":"37:116","verse_id":3904,"location":"37:116:4","text_uthmani":"ٱلْغَـٰلِبِينَ","qpc_uthmani_hafs":"ٱلۡغَٰلِبِينَ","char_type_name":"word","page_number":450,"line_number":9,"text":"ٱلۡغَٰلِبِينَ","translation":{"text":"the victors","language_name":"english","language_id":38},"transliteration":{"text":"l-ghālibīna","language_name":"english","language_id":38}},{"id":75691,"position":5,"audio_url":null,"verse_key":"37:116","verse_id":3904,"location":"37:116:5","text_uthmani":"١١٦","qpc_uthmani_hafs":"١١٦","char_type_name":"end","page_number":450,"line_number":9,"text":"١١٦","translation":{"text":"(116)","language_name":"english","language_id":38},"transliteration":{"text":null,"language_name":"english","language_id":38}}]},{"id":3905,"verse_number":117,"verse_key":"37:117","hizb_number":45,"rub_el_hizb_number":180,"ruku_number":391,"manzil_number":6,"sajdah_number":null,"page_number":450,"juz_number":23,"words":[{"id":75855,"position":1,"audio_url":"wbw/037_117_001.mp3","verse_key":"37:117","verse_id":3905,"location":"37:117:1","text_uthmani":"وَءَاتَيْنَـٰهُمَا","qpc_uthmani_hafs":"وَءَاتَيۡنَٰهُمَا","char_type_name":"word","page_number":450,"line_number":9,"text":"وَءَاتَيۡنَٰهُمَا","translation":{"text":"And We gave both of them","language_name":"english","language_id":38},"transliteration":{"text":"waātaynāhumā","language_name":"english","language_id":38}},{"id":75856,"position":2,"audio_url":"wbw/037_117_002.mp3","verse_key":"37:117","verse_id":3905,"location":"37:117:2","text_uthmani":"ٱلْكِتَـٰبَ","qpc_uthmani_hafs":"ٱلۡكِتَٰبَ","char_type_name":"word","page_number":450,"line_number":10,"text":"ٱلۡكِتَٰبَ","translation":{"text":"the Book","language_name":"english","language_id":38},"transliteration":{"text":"l-kitāba","language_name":"english","language_id":38}},{"id":75857,"position":3,"audio_url":"wbw/037_117_003.mp3","verse_key":"37:117","verse_id":3905,"location":"37:117:3","text_uthmani":"ٱلْمُسْتَبِينَ","qpc_uthmani_hafs":"ٱلۡمُسۡتَبِينَ","char_type_name":"word","page_number":450,"line_number":10,"text":"ٱلۡمُسۡتَبِينَ","translation":{"text":"the clear","language_name":"english","language_id":38},"transliteration":{"text":"l-mus'tabīna","language_name":"english","language_id":38}},{"id":75858,"position":4,"audio_url":null,"verse_key":"37:117","verse_id":3905,"location":"37:117:4","text_uthmani":"١١٧","qpc_uthmani_hafs":"١١٧","char_type_name":"end","page_number":450,"line_number":10,"text":"١١٧","translation":{"text":"(117)","language_name":"english","language_id":38},"transliteration":{"text":null,"language_name":"english","language_id":38}}]},{"id":3906,"verse_number":118,"verse_key":"37:118","hizb_number":45,"rub_el_hizb_number":180,"ruku_number":391,"manzil_number":6,"sajdah_number":null,"page_number":450,"juz_number":23,"words":[{"id":76103,"position":1,"audio_url":"wbw/037_118_001.mp3","verse_key":"37:118","verse_id":3906,"location":"37:118:1","text_uthmani":"وَهَدَيْنَـٰهُمَا","qpc_uthmani_hafs":"وَهَدَيۡنَٰهُمَا","char_type_name":"word","page_number":450,"line_number":10,"text":"وَهَدَيۡنَٰهُمَا","translation":{"text":"And We guided both of them","language_name":"english","language_id":38},"transliteration":{"text":"wahadaynāhumā","language_name":"english","language_id":38}},{"id":76104,"position":2,"audio_url":"wbw/037_118_002.mp3","verse_key":"37:118","verse_id":3906,"location":"37:118:2","text_uthmani":"ٱلصِّرَٰطَ","qpc_uthmani_hafs":"ٱلصِّرَٰطَ","char_type_name":"word","page_number":450,"line_number":10,"text":"ٱلصِّرَٰطَ","translation":{"text":"(to) the Path","language_name":"english","language_id":38},"transliteration":{"text":"l-ṣirāṭa","language_name":"english","language_id":38}},{"id":76105,"position":3,"audio_url":"wbw/037_118_003.mp3","verse_key":"37:118","verse_id":3906,"location":"37:118:3","text_uthmani":"ٱلْمُسْتَقِيمَ","qpc_uthmani_hafs":"ٱلۡمُسۡتَقِيمَ","char_type_name":"word","page_number":450,"line_number":10,"text":"ٱلۡمُسۡتَقِيمَ","translation":{"text":"the Straight","language_name":"english","language_id":38},"transliteration":{"text":"l-mus'taqīma","language_name":"english","language_id":38}},{"id":76106,"position":4,"audio_url":null,"verse_key":"37:118","verse_id":3906,"location":"37:118:4","text_uthmani":"١١٨","qpc_uthmani_hafs":"١١٨","char_type_name":"end","page_number":450,"line_number":11,"text":"١١٨","translation":{"text":"(118)","language_name":"english","language_id":38},"transliteration":{"text":null,"language_name":"english","language_id":38}}]},{"id":3907,"verse_number":119,"verse_key":"37:119","hizb_number":45,"rub_el_hizb_number":180,"ruku_number":391,"manzil_number":6,"sajdah_number":null,"page_number":450,"juz_number":23,"words":[{"id":76142,"position":1,"audio_url":"wbw/037_119_001.mp3","verse_key":"37:119","verse_id":3907,"location":"37:119:1","text_uthmani":"وَتَرَكْنَا","qpc_uthmani_hafs":"وَتَرَكۡنَا","char_type_name":"word","page_number":450,"line_number":11,"text":"وَتَرَكۡنَا","translation":{"text":"And We left","language_name":"english","language_id":38},"transliteration":{"text":"wataraknā","language_name":"english","language_id":38}},{"id":76143,"position":2,"audio_url":"wbw/037_119_002.mp3","verse_key":"37:119","verse_id":3907,"location":"37:119:2","text_uthmani":"عَلَيْهِمَا","qpc_uthmani_hafs":"عَلَيۡهِمَا","char_type_name":"word","page_number":450,"line_number":11,"text":"عَلَيۡهِمَا","translation":{"text":"for both of them","language_name":"english","language_id":38},"transliteration":{"text":"ʿalayhimā","language_name":"english","language_id":38}},{"id":76144,"position":3,"audio_url":"wbw/037_119_003.mp3","verse_key":"37:119","verse_id":3907,"location":"37:119:3","text_uthmani":"فِى","qpc_uthmani_hafs":"فِي","char_type_name":"word","page_number":450,"line_number":11,"text":"فِي","translation":{"text":"among","language_name":"english","language_id":38},"transliteration":{"text":"fī","language_name":"english","language_id":38}},{"id":76145,"position":4,"audio_url":"wbw/037_119_004.mp3","verse_key":"37:119","verse_id":3907,"location":"37:119:4","text_uthmani":"ٱلْـَٔاخِرِينَ","qpc_uthmani_hafs":"ٱلۡأٓخِرِينَ","char_type_name":"word","page_number":450,"line_number":11,"text":"ٱلۡأٓخِرِينَ","translation":{"text":"the later generations","language_name":"english","language_id":38},"transliteration":{"text":"l-ākhirīna","language_name":"english","language_id":38}},{"id":76146,"position":5,"audio_url":null,"verse_key":"37:119","verse_id":3907,"location":"37:119:5","text_uthmani":"١١٩","qpc_uthmani_hafs":"١١٩","char_type_name":"end","page_number":450,"line_number":11,"text":"١١٩","translation":{"text":"(119)","language_name":"english","language_id":38},"transliteration":{"text":null,"language_name":"english","language_id":38}}]},{"id":3908,"verse_number":120,"verse_key":"37:120","hizb_number":45,"rub_el_hizb_number":180,"ruku_number":391,"manzil_number":6,"sajdah_number":null,"page_number":450,"juz_number":23,"words":[{"id":76399,"position":1,"audio_url":"wbw/037_120_001.mp3","verse_key":"37:120","verse_id":3908,"location":"37:120:1","text_uthmani":"سَلَـٰمٌ","qpc_uthmani_hafs":"سَلَٰمٌ","char_type_name":"word","page_number":450,"line_number":11,"text":"سَلَٰمٌ","translation":{"text":"Peace be","language_name":"english","language_id":38},"transliteration":{"text":"salāmun","language_name":"english","language_id":38}},{"id":76400,"position":2,"audio_url":"wbw/037_120_002.mp3","verse_key":"37:120","verse_id":3908,"location":"37:120:2","text_uthmani":"عَلَىٰ","qpc_uthmani_hafs":"عَلَىٰ","char_type_name":"word","page_number":450,"line_number":11,"text":"عَلَىٰ","translation":{"text":"upon","language_name":"english","language_id":38},"transliteration":{"text":"ʿalā","language_name":"english","language_id":38}},{"id":76401,"position":3,"audio_url":"wbw/037_120_003.mp3","verse_key":"37:120","verse_id":3908,"location":"37:120:3","text_uthmani":"مُوسَىٰ","qpc_uthmani_hafs":"مُوسَىٰ","char_type_name":"word","page_number":450,"line_number":11,"text":"مُوسَىٰ","translation":{"text":"Musa","language_name":"english","language_id":38},"transliteration":{"text":"mūsā","language_name":"english","language_id":38}},{"id":76402,"position":4,"audio_url":"wbw/037_120_004.mp3","verse_key":"37:120","verse_id":3908,"location":"37:120:4","text_uthmani":"وَهَـٰرُونَ","qpc_uthmani_hafs":"وَهَٰرُونَ","char_type_name":"word","page_number":450,"line_number":12,"text":"وَهَٰرُونَ","translation":{"text":"and Harun","language_name":"english","language_id":38},"transliteration":{"text":"wahārūna","language_name":"english","language_id":38}},{"id":76403,"position":5,"audio_url":null,"verse_key":"37:120","verse_id":3908,"location":"37:120:5","text_uthmani":"١٢٠","qpc_uthmani_hafs":"١٢٠","char_type_name":"end","page_number":450,"line_number":12,"text":"١٢٠","translation":{"text":"(120)","language_name":"english","language_id":38},"transliteration":{"text":null,"language_name":"english","language_id":38}}]}],"pagination":{"per_page":10,"current_page":12,"next_page":13,"total_pages":19,"total_records":182}}
