{"verses":[{"id":3909,"verse_number":121,"verse_key":"37:121","hizb_number":45,"rub_el_hizb_number":180,"ruku_number":391,"manzil_number":6,"sajdah_number":null,"page_number":450,"juz_number":23,"words":[{"id":76544,"position":1,"audio_url":"wbw/037_121_001.mp3","verse_key":"37:121","verse_id":3909,"location":"37:121:1","text_uthmani":"إِنَّا","qpc_uthmani_hafs":"إِنَّا","char_type_name":"word","page_number":450,"line_number":12,"text":"إِنَّا","translation":{"text":"Indeed, We","language_name":"english","language_id":38},"transliteration":{"text":"innā","language_name":"english","language_id":38}},{"id":76545,"position":2,"audio_url":"wbw/037_121_002.mp3","verse_key":"37:121","verse_id":3909,"location":"37:121:2","text_uthmani":"كَذَٰلِكَ","qpc_uthmani_hafs":"كَذَٰلِكَ","char_type_name":"word","page_number":450,"line_number":12,"text":"كَذَٰلِكَ","translation":{"text":"thus","language_name":"english","language_id":38},"transliteration":{"text":"kadhālika","language_name":"english","language_id":38}},{"id":76546,"position":3,"audio_url":"wbw/037_121_003.mp3","verse_key":"37:121","verse_id":3909,"location":"37:121:3","text_uthmani":"نَجْزِى","qpc_uthmani_hafs":"نَجۡزِي","char_type_name":"word","page_number":450,"line_number":12,"text":"نَجۡزِي","translation":{"text":"reward","language_name":"english","language_id":38},"transliteration":{"text":"najzī","language_name":"english","language_id":38}},{"id":76547,"position":4,"audio_url":"wbw/037_121_004.mp3","verse_key":"37:121","verse_id":3909,"location":"37:121:4","text_uthmani":"ٱلْمُحْسِنِينَ","qpc_uthmani_hafs":"ٱلۡمُحۡسِنِينَ","char_type_name":"word","page_number":450,"line_number":12,"text":"ٱلۡمُحۡسِنِينَ","translation":{"text":"the good-doers","language_name":"english","language_id":38},"transliteration":{"text":"l-muḥ'sinīna","language_name":"english","language_id":38}},{"id":76548,"position":5,"audio_url":null,"verse_key":"37:121","verse_id":3909,"location":"37:121:5","text_uthmani":"١٢١","qpc_uthmani_hafs":"١٢١","char_type_name":"end","page_number":450,"line_number":12,"text":"١٢١","translation":{"text":"(121)","language_name":"english","language_id":38},"transliteration":{"text":null,"language_name":"english","language_id":38}}]},{"id":3910,"verse_number":122,"verse_key":"37:122","hizb_number":45,"rub_el_hizb_number":180,"ruku_number":391,"manzil_number":6,"sajdah_number":null,"page_number":450,"juz_number":23,"words":[{"id":76757,"position":1,"audio_url":"wbw/037_122_001.mp3","verse_key":"37:122","verse_id":3910,"location":"37:122:1","text_uthmani":"إِنَّهُمَا","qpc_uthmani_hafs":"إِنَّهُمَا","char_type_name":"word","page_number":450,"line_number":12,"text":"إِنَّهُمَا","translation":{"text":"Indeed, both of them","language_name":"english","language_id":38},"transliteration":{"text":"innahumā","language_name":"english","language_id":38}},{"id":76758,"position":2,"audio_url":"wbw/037_122_002.mp3","verse_key":"37:122","verse_id":3910,"location":"37:122:2","text_uthmani":"مِنْ","qpc_uthmani_hafs":"مِنۡ","char_type_name":"word","page_number":450,"line_number":13,"text":"مِنۡ","translation":{"text":"(were) of","language_name":"english","language_id":38},"transliteration":{"text":"min","language_name":"english","language_id":38}},{"id":76759,"position":3,"audio_url":"wbw/037_122_003.mp3","verse_key":"37:122","verse_id":3910,"location":"37:122:3","text_uthmani":"عِبَادِنَا","qpc_uthmani_hafs":"عِبَادِنَا","char_type_name":"word","page_number":450,"line_number":13,"text":"عِبَادِنَا","translation":{"text":"Our slaves","language_name":"english","language_id":38},"transliteration":{"text":"ʿibādinā","language_name":"english","language_id":38}},{"id":76760,"position":4,"audio_url":"wbw/037_122_004.mp3","verse_key":"37:122","verse_id":3910,"location":"37:122:4","text_uthmani":"ٱلْمُؤْمِنِينَ","qpc_uthmani_hafs":"ٱلۡمُؤۡمِنِينَ","char_type_name":"word","page_number":450,"line_number":13,"text":"ٱلۡمُؤۡمِنِينَ","translation":{"text":"believing","language_name":"english","language_id":38},"transliteration":{"text":"l-mu'minīna","language_name":"english","language_id":38}},{"id":76761,"position":5,"audio_url":null,"verse_key":"37:122","verse_id":3910,"location":"37:122:5","text_uthmani":"١٢٢","qpc_uthmani_hafs":"١٢٢","char_type_name":"end","page_number":450,"line_number":13,"text":"١٢٢","translation":{"text":"(122)","language_name":"english","language_id":38},"transliteration":{"text":null,"language_name":"english","language_id":38}}]},{"id":3911,"verse_number":123,"verse_key":"37:123","hizb_number":45,"rub_el_hizb_number":180,"ruku_number":391,"manzil_number":6,"sajdah_number":null,"page_number":450,"juz_number":23,"words":[{"id":76875,"position":1,"audio_url":"wbw/037_123_001.mp3","verse_key":"37:123","verse_id":3911,"location":"37:123:1","text_uthmani":"وَإِنَّ","qpc_uthmani_hafs":"وَإِنَّ","char_type_name":"word","page_number":450,"line_number":13,"text":"وَإِنَّ","translation":{"text":"And indeed","language_name":"english","language_id":38},"transliteration":{"text":"wa-inna","language_name":"english","language_id":38}},{"id":76876,"position":2,"audio_url":"wbw/037_123_002.mp3","verse_key":"37:123","verse_id":3911,"location":"37:123:2","text_uthmani":"إِلْيَاسَ","qpc_uthmani_hafs":"إِلۡيَاسَ","char_type_name":"word","page_number":450,"line_number":13,"text":"إِلۡيَاسَ","translation":{"text":"Elijah","language_name":"english","language_id":38},"transliteration":{"text":"il'yāsa","language_name":"english","language_id":38}},{"id":76877,"position":3,"audio_url":"wbw/037_123_003.mp3","verse_key":"37:123","verse_id":3911,"location":"37:123:3","text_uthmani":"لَمِنَ","qpc_uthmani_hafs":"لَمِنَ","char_type_name":"word","page_number":450,"line_number":13,"text":"لَمِنَ","translation":{"text":"(was) surely of","language_name":"english","language_id":38},"transliteration":{"text":"lamina","language_name":"english","language_id":38}},{"id":76878,"position":4,"audio_url":"wbw/037_123_004.mp3","verse_key":"37:123","verse_id":3911,"location":"37:123:4","text_uthmani":"ٱلْمُرْسَلِينَ","qpc_uthmani_hafs":"ٱلۡمُرۡسَلِينَ","char_type_name":"word","page_number":450,"line_number":13,"text":"ٱلۡمُرۡسَلِينَ","translation":{"text":"the Messengers","language_name":"english","language_id":38},"transliteration":{"text":"l-mur'salīna","language_name":"english","language_id":38}},{"id":76879,"position":5,"audio_url":null,"verse_key":"37:123","verse_id":3911,"location":"37:123:5","text_uthmani":"١٢٣","qpc_uthmani_hafs":"١٢٣","char_type_name":"end","page_number":450,"line_number":13,"text":"١٢٣","translation":{"text":"(123)","language_name":"english","language_id":38},"transliteration":{"text":null,"language_name":"english","language_id":38}}]},{"id":3912,"verse_number":124,"verse_key":"37:124","hizb_number":45,"rub_el_hizb_number":180,"ruku_number":391,"manzil_number":6,"sajdah_number":null,"page_number":450,"juz_number":23,"words":[{"id":77031,"position":1,"audio_url":"wbw/037_124_001.mp3","verse_key":"37:124","verse_id":3912,"location":"37:124:1","text_uthmani":"إِذْ","qpc_uthmani_hafs":"إِذۡ","char_type_name":"word","page_number":450,"line_number":14,"text":"إِذۡ","translation":{"text":"When","language_name":"english","language_id":38},"transliteration":{"text":"idh","language_name":"english","language_id":38}},{"id":77032,"position":2,"audio_url":"wbw/037_124_002.mp3","verse_key":"37:124","verse_id":3912,"location":"37:124:2","text_uthmani":"قَالَ","qpc_uthmani_hafs":"قَالَ","char_type_name":"word","page_number":450,"line_number":14,"text":"قَالَ","translation":{"text":"he said","language_name":"english","language_id":38},"transliteration":{"text":"qāla","language_name":"english","language_id":38}},{"id":77033,"position":3,"audio_url":"wbw/037_124_003.mp3","verse_key":"37:124","verse_id":3912,"location":"37:124:3","text_uthmani":"لِقَوْمِهِۦٓ","qpc_uthmani_hafs":"لِقَوۡمِهِۦٓ","char_type_name":"word","page_number":450,"line_number":14,"text":"لِقَوۡمِهِۦٓ","translation":{"text":"to his people","language_name":"english","language_id":38},"transliteration":{"text":"liqawmihi","language_name":"english","language_id":38}},{"id":77034,"position":4,"audio_url":"wbw/037_124_004.mp3","verse_key":"37:124","verse_id":3912,"location":"37:124:4","text_uthmani":"أَلَا","qpc_uthmani_hafs":"أَلَا","char_type_name":"word","page_number":450,"line_number":14,"text":"أَلَا","translation":{"text":"Will not","language_name":"english","language_id":38},"transliteration":{"text":"alā","language_name":"english","language_id":38}},{"id":77035,"position":5,"audio_url":"wbw/037_124_005.mp3","verse_key":"37:124","verse_id":3912,"location":"37:124:5","text_uthmani":"تَتَّقُونَ","qpc_uthmani_hafs":"تَتَّقُونَ","char_type_name":"word","page_number":450,"line_number":14,"text":"تَتَّقُونَ","translation":{"text":"you fear","language_name":"english","language_id":38},"transliteration":{"text":"tattaqūna","language_name":"english","language_id":38}},{"id":77036,"position":6,"audio_url":null,"verse_key":"37:124","verse_id":3912,"location":"37:124:6","text_uthmani":"١٢٤","qpc_uthmani_hafs":"١٢٤","char_type_name":"end","page_number":450,"line_number":14,"text":"١٢٤","translation":{"text":"(124)","language_name":"english","language_id":38},"transliteration":{"text":null,"language_name":"english","language_id":38}}]},{"id":3913,"verse_number":125,"verse_key":"37:125","hizb_number":45,"rub_el_hizb_number":180,"ruku_number":391,"manzil_number":6,"sajdah_number":null,"page_number":450,"juz_number":23,"words":[{"id":77121,"position":1,"audio_url":"wbw/037_125_001.mp3","verse_key":"37:125","verse_id":3913,"location":"37:125:1","text_uthmani":"أَتَدْعُونَ","qpc_uthmani_hafs":"أَتَدۡعُونَ","char_type_name":"word","page_number":450,"line_number":14,"text":"أَتَدۡعُونَ","translation":{"text":"Do you call","language_name":"english","language_id":38},"transliteration":{"text":"atadʿūna","language_name":"english","language_id":38}},{"id":77122,"position":2,"audio_url":"wbw/037_125_002.mp3","verse_key":"37:125","verse_id":3913,"location":"37:125:2","text_uthmani":"بَعْلًۭا","qpc_uthmani_hafs":"بَعۡلٗا","char_type_name":"word","page_number":450,"line_number":14,"text":"بَعۡلٗا","translation":{"text":"Baal","language_name":"english","language_id":38},"transliteration":{"text":"baʿlan","language_name":"english","language_id":38}},{"id":77123,"position":3,"audio_url":"wbw/037_125_003.mp3","verse_key":"37:125","verse_id":3913,"location":"37:125:3","text_uthmani":"وَتَذَرُونَ","qpc_uthmani_hafs":"وَتَذَرُونَ","char_type_name":"word","page_number":450,"line_number":14,"text":"وَتَذَرُونَ","translation":{"text":"and you forsake","language_name":"english","language_id":38},"transliteration":{"text":"watadharūna","language_name":"english","language_id":38}},{"id":77124,"position":4,"audio_url":"wbw/037_125_004.mp3","verse_key":"37:125","verse_id":3913,"location":"37:125:4","text_uthmani":"أَحْسَنَ","qpc_uthmani_hafs":"أَحۡسَنَ","char_type_name":"word","page_number":450,"line_number":14,"text":"أَحۡسَنَ","translation":{"text":"(the) Best","language_name":"english","language_id":38},"transliteration":{"text":"aḥsana","language_name":"english","language_id":38}},{"id":77125,"position":5,"audio_url":"wbw/037_125_005.mp3","verse_key":"37:125","verse_id":3913,"location":"37:125:5","text_uthmani":"ٱلْخَـٰلِقِينَ","qpc_uthmani_hafs":"ٱلۡخَٰلِقِينَ","char_type_name":"word","page_number":450,"line_number":15,"text":"ٱلۡخَٰلِقِينَ","translation":{"text":"(of) Creators ","language_name":"english","language_id":38},"transliteration":{"text":"l-khāliqīna","language_name":"english","language_id":38}},{"id":77126,"position":6,"audio_url":null,"verse_key":"37:125","verse_id":3913,"location":"37:125:6","text_uthmani":"١٢٥","qpc_uthmani_hafs":"١٢٥","char_type_name":"end","page_number":450,"line_number":15,"text":"١٢٥","translation":{"text":"(125)","language_name":"english","language_id":38},"transliteration":{"text":null,"language_name":"english","language_id":38}}]},{"id":3914,"verse_number":126,"verse_key":"37:126","hizb_number":45,"rub_el_hizb_number":180,"ruku_number":391,"manzil_number":6,"sajdah_number":null,"page_number":450,"juz_number":23,"words":[{"id":77351,"position":1,"audio_url":"wbw/037_126_001.mp3","verse_key":"37:126","verse_id":3914,"location":"37:126:1","text_uthmani":"ٱللَّهَ","qpc_uthmani_hafs":"ٱللَّهَ","char_type_name":"word","page_number":450,"line_number":15,"text":"ٱللَّهَ","translation":{"text":"Allah","language_name":"english","language_id":38},"transliteration":{"text":"al-laha","language_name":"english","language_id":38}},{"id":77352,"position":2,"audio_url":"wbw/037_126_002.mp3","verse_key":"37:126","verse_id":3914,"location":"37:126:2","text_uthmani":"رَبَّكُمْ","qpc_uthmani_hafs":"رَبَّكُمۡ","char_type_name":"word","page_number":450,"line_number":15,"text":"رَبَّكُمۡ","translation":{"text":"your Lord","language_name":"english","language_id":38},"transliteration":{"text":"rabbakum","language_name":"english","language_id":38}},{"id":77353,"position":3,"audio_url":"wbw/037_126_003.mp3","verse_key":"37:126","verse_id":3914,"location":"37:126:3","text_uthmani":"وَرَبَّ","qpc_uthmani_hafs":"وَرَبَّ","char_type_name":"word","page_number":450,"line_number":15,"text":"وَرَبَّ","translation":{"text":"and (the) Lord","language_name":"english","language_id":38},"transliteration":{"text":"warabba","language_name":"english","language_id":38}},{"id":77354,"position":4,"audio_url":"wbw/037_126_004.mp3","verse_key":"37:126","verse_id":3914,"location":"37:126:4","text_uthmani":"ءَابَآئِكُمُ","qpc_uthmani_hafs":"ءَابَآئِكُمُ","char_type_name":"word","page_number":450,"line_number":15,"text":"ءَابَآئِكُمُ","translation":{"text":"(of) your forefathers","language_name":"english","language_id":38},"transliteration":{"text":"ābāikumu","language_name":"english","language_id":38}},{"id":77355,"position":5,"audio_url":"wbw/037_126_005.mp3","verse_key":"37:126","verse_id":3914,"location":"37:126:5","text_uthmani":"ٱلْأَوَّلِينَ","qpc_uthmani_hafs":"ٱلۡأَوَّلِينَ","char_type_name":"word","page_number":450,"line_number":15,"text":"ٱلۡأَوَّلِينَ","translation":{"text":"(of) your forefathers","language_name":"english","language_id":38},"transliteration":{"text":"l-awalīna","language_name":"english","language_id":38}},{"id":77356,"position":6,"audio_url":null,"verse_key":"37:126","verse_id":3914,"location":"37:126:6","text_uthmani":"١٢٦","qpc_uthmani_hafs":"١٢٦","char_type_name":"end","page_number":450,"line_number":15,"text":"١٢٦","translation":{"text":"(126)","language_name":"english","language_id":38},"transliteration":{"text":null,"language_name":"english","language_id":38}}]},{"id":3915,"verse_number":127,"verse_key":"37:127","hizb_number":45,"rub_el_hizb_number":180,"ruku_number":391,"manzil_number":6,"sajdah_number":null,"page_number":451,"juz_number":23,"words":[{"id":77515,"position":1,"audio_url":"wbw/037_127_001.mp3","verse_key":"37:127","verse_id":3915,"location":"37:127:1","text_uthmani":"فَكَذَّبُوهُ","qpc_uthmani_hafs":"فَكَذَّبُوهُ","char_type_name":"word","page_number":451,"line_number":1,"text":"فَكَذَّبُوهُ","translation":{"text":"But they denied him","language_name":"english","language_id":38},"transliteration":{"text":"fakadhabūhu","language_name":"english","language_id":38}},{"id":77516,"position":2,"audio_url":"wbw/037_127_002.mp3","verse_key":"37:127","verse_id":3915,"location":"37:127:2","text_uthmani":"فَإِنَّهُمْ","qpc_uthmani_hafs":"فَإِنَّهُمۡ","char_type_name":"word","page_number":451,"line_number":1,"text":"فَإِنَّهُمۡ","translation":{"text":"so indeed, they","language_name":"english","language_id":38},"transliteration":{"text":"fa-innahum","language_name":"english","language_id":38}},{"id":77517,"position":3,"audio_url":"wbw/037_127_003.mp3","verse_key":"37:127","verse_id":3915,"location":"37:127:3","text_uthmani":"لَمُحْضَرُونَ","qpc_uthmani_hafs":"لَمُحۡضَرُونَ","char_type_name":"word","page_number":451,"line_number":1,"text":"لَمُحۡضَرُونَ","translation":{"text":"(will) surely be brought","language_name":"english","language_id":38},"transliteration":{"text":"lamuḥ'ḍarūna","language_name":"english","language_id":38}},{"id":77518,"position":4,"audio_url":null,"verse_key":"37:127","verse_id":3915,"location":"37:127:4","text_uthmani":"١٢٧","qpc_uthmani_hafs":"١٢٧","char_type_name":"end","page_number":451,"line_number":1,"text":"١٢٧","translation":{"text":"(127)","language_name":"english","language_id":38},"transliteration":{"text":null,"language_name":"english","language_id":38}}]},{"id":3916,"verse_number":128,"verse_key":"37:128","hizb_number":45,"rub_el_hizb_number":180,"ruku_number":391,"manzil_number":6,"sajdah_number":null,"page_number":451,"juz_number":23,"words":[{"id":77669,"position":1,"audio_url":"wbw/037_128_001.mp3","verse_key":"37:128","verse_id":3916,"location":"37:128:1","text_uthmani":"إِلَّا","qpc_uthmani_hafs":"إِلَّا","char_type_name":"word","page_number":451,"line_number":1,"text":"إِلَّا","translation":{"text":"Except","language_name":"english","language_id":38},"transliteration":{"text":"illā","language_name":"english","language_id":38}},{"id":77670,"position":2,"audio_url":"wbw/037_128_002.mp3","verse_key":"37:128","verse_id":3916,"location":"37:128:2","text_uthmani":"عِبَادَ","qpc_uthmani_hafs":"عِبَادَ","char_type_name":"word","page_number":451,"line_number":1,"text":"عِبَادَ","translation":{"text":"(the) slaves","language_name":"english","language_id":38},"transliteration":{"text":"ʿibāda","language_name":"english","language_id":38}},{"id":77671,"position":3,"audio_url":"wbw/037_128_003.mp3","verse_key":"37:128","verse_id":3916,"location":"37:128:3","text_uthmani":"ٱللَّهِ","qpc_uthmani_hafs":"ٱللَّهِ","char_type_name":"word","page_number":451,"line_number":1,"text":"ٱللَّهِ","translation":{"text":"(of) Allah","language_name":"english","language_id":38},"transliteration":{"text":"l-lahi","language_name":"english","language_id":38}},{"id":77672,"position":4,"audio_url":"wbw/037_128_004.mp3","verse_key":"37:128","verse_id":3916,"location":"37:128:4","text_uthmani":"ٱلْمُخْلَصِينَ","qpc_uthmani_hafs":"ٱلۡمُخۡلَصِينَ","char_type_name":"word","page_number":451,"line_number":1,"text":"ٱلۡمُخۡلَصِينَ","translation":{"text":"the chosen ones","language_name":"english","language_id":38},"transliteration":{"text":"l-mukh'laṣīna","language_name":"english","language_id":38}},{"id":77673,"position":5,"audio_url":null,"verse_key":"37:128","verse_id":3916,"location":"37:128:5","text_uthmani":"١٢٨","qpc_uthmani_hafs":"١٢٨","char_type_name":"end","page_number":451,"line_number":1,"text":"١٢٨","translation":{"text":"(128)","language_name":"english","language_id":38},"transliteration":{"text":null,"language_name":"english","language_id":38}}]},{"id":3917,"verse_number":129,"verse_key":"37:129","hizb_number":45,"rub_el_hizb_number":180,"ruku_number":391,"manzil_number":6,"sajdah_number":null,"page_number":451,"juz_number":23,"words":[{"id":77903,"position":1,"audio_url":"wbw/037_129_001.mp3","verse_key":"37:129","verse_id":3917,"location":"37:129:1","text_uthmani":"وَتَرَكْنَا","qpc_uthmani_hafs":"وَتَرَكۡنَا","char_type_name":"word","page_number":451,"line_number":2,"text":"وَتَرَكۡنَا","translation":{"text":"And We left","language_name":"english","language_id":38},"transliteration":{"text":"wataraknā","language_name":"english","language_id":38}},{"id":77904,"position":2,"audio_url":"wbw/037_129_002.mp3","verse_key":"37:129","verse_id":3917,"location":"37:129:2","text_uthmani":"عَلَيْهِ","qpc_uthmani_hafs":"عَلَيۡهِ","char_type_name":"word","page_number":451,"line_number":2,"text":"عَلَيۡهِ","translation":{"text":"for him","language_name":"english","language_id":38},"transliteration":{"text":"ʿalayhi","language_name":"english","language_id":38}},{"id":77905,"position":3,"audio_url":"wbw/037_129_003.mp3","verse_key":"37:129","verse_id":3917,"location":"37:129:3","text_uthmani":"فِى","qpc_uthmani_hafs":"فِي","char_type_name":"word","page_number":451,"line_number":2,"text":"فِي","translation":{"text":"among","language_name":"english","language_id":38},"transliteration":{"text":"fī","language_name":"english","language_id":38}},{"id":77906,"position":4,"audio_url":"wbw/037_129_004.mp3","verse_key":"37:129","verse_id":3917,"location":"37:129:4","text_uthmani":"ٱلْـَٔاخِرِينَ","qpc_uthmani_hafs":"ٱلۡأٓخِرِينَ","char_type_name":"word","page_number":451,"line_number":2,"text":"ٱلۡأٓخِرِينَ","translation":{"text":"the later generations","language_name":"english","language_id":38},"transliteration":{"text":"l-ākhirīna","language_name":"english","language_id":38}},{"id":77907,"position":5,"audio_url":null,"verse_key":"37:129","verse_id":3917,"location":"37:129:5","text_uthmani":"١٢٩","qpc_uthmani_hafs":"١٢٩","char_type_name":"end","page_number":451,"line_number":2,"text":"١٢٩","translation":{"text":"(129)","language_name":"english","language_id":38},"transliteration":{"text":null,"language_name":"english","language_id":38}}]},{"id":3918,"verse_number":130,"verse_key":"37:130","hizb_number":45,"rub_el_hizb_number":180,"ruku_number":391,"manzil_number":6,"sajdah_number":null,"page_number":451,"juz_number":23,"words":[{"id":77952,"position":1,"audio_url":"wbw/037_130_001.mp3","verse_key":"37:130","verse_id":3918,"location":"37:130:1","text_uthmani":"سَلَـٰمٌ","qpc_uthmani_hafs":"سَلَٰمٌ","char_type_name":"word","page_number":451,"line_number":2,"text":"سَلَٰمٌ","translation":{"text":"Peace be","language_name":"english","language_id":38},"transliteration":{"text":"salāmun","language_name":"english","language_id":38}},{"id":77953,"position":2,"audio_url":"wbw/037_130_002.mp3","verse_key":"37:130","verse_id":3918,"location":"37:130:2","text_uthmani":"عَلَىٰٓ","qpc_uthmani_hafs":"عَلَىٰٓ","char_type_name":"word","page_number":451,"line_number":2,"text":"عَلَىٰٓ","translation":{"text":"upon","language_name":"english","language_id":38},"transliteration":{"text":"ʿalā","language_name":"english","language_id":38}},{"id":77954,"position":3,"audio_url":"wbw/037_130_003.mp3","verse_key":"37:130","verse_id":3918,"location":"37:130:3","text_uthmani":"إِلْ يَاسِينَ","qpc_uthmani_hafs":"إِلۡ يَاسِينَ","char_type_name":"word","page_number":451,"line_number":2,"text":"إِلۡ يَاسِينَ","translation":{"text":"Elijah","language_name":"english","language_id":38},"transliteration":{"text":"il yāsīna","language_name":"english","language_id":38}},{"id":77956,"position":4,"audio_url":"","verse_key":"37:130","verse_id":3918,"location":"37:130:4","text_uthmani":"١٣٠","qpc_uthmani_hafs":"١٣٠","char_type_name":"end","page_number":451,"line_number":2,"text":"١٣٠","translation":{"text":"(130)","language_name":"english","language_id":38},"transliteration":{"text":"","language_name":"english","language_id":38}}]}],"pagination":{"per_page":10,"current_page":13,"next_page":14,"total_pages":19,"total_records":182}}
