{"verses":[{"id":3919,"verse_number":131,"verse_key":"37:131","hizb_number":45,"rub_el_hizb_number":180,"ruku_number":391,"manzil_number":6,"sajdah_number":null,"page_number":451,"juz_number":23,"words":[{"id":78029,"position":1,"audio_url":"wbw/037_131_001.mp3","verse_key":"37:131","verse_id":3919,"location":"37:131:1","text_uthmani":"إِنَّا","qpc_uthmani_hafs":"إِنَّا","char_type_name":"word","page_number":451,"line_number":2,"text":"إِنَّا","translation":{"text":"Indeed, We","language_name":"english","language_id":38},"transliteration":{"text":"innā","language_name":"english","language_id":38}},{"id":78030,"position":2,"audio_url":"wbw/037_131_002.mp3","verse_key":"37:131","verse_id":3919,"location":"37:131:2","text_uthmani":"كَذَٰلِكَ","qpc_uthmani_hafs":"كَذَٰلِكَ","char_type_name":"word","page_number":451,"line_number":3,"text":"كَذَٰلِكَ","translation":{"text":"thus","language_name":"english","language_id":38},"transliteration":{"text":"kadhālika","language_name":"english","language_id":38}},{"id":78031,"position":3,"audio_url":"wbw/037_131_003.mp3","verse_key":"37:131","verse_id":3919,"location":"37:131:3","text_uthmani":"نَجْزِى","qpc_uthmani_hafs":"نَجۡزِي","char_type_name":"word","page_number":451,"line_number":3,"text":"نَجۡزِي","translation":{"text":"reward","language_name":"english","language_id":38},"transliteration":{"text":"najzī","language_name":"english","language_id":38}},{"id":78032,"position":4,"audio_url":"wbw/037_131_004.mp3","verse_key":"37:131","verse_id":3919,"location":"37:131:4","text_uthmani":"ٱلْمُحْسِنِينَ","qpc_uthmani_hafs":"ٱلۡمُحۡسِنِينَ","char_type_name":"word","page_number":451,"line_number":3,"text":"ٱلۡمُحۡسِنِينَ","translation":{"text":"the good-doers","language_name":"english","language_id":38},"transliteration":{"text":"l-muḥ'sinīna","language_name":"english","language_id":38}},{"id":78033,"position":5,"audio_url":null,"verse_key":"37:131","verse_id":3919,"location":"37:131:5","text_uthmani":"١٣١","qpc_uthmani_hafs":"١٣١","char_type_name":"end","page_number":451,"line_number":3,"text":"١٣١","translation":{"text":"(131)","language_name":"english","language_id":38},"transliteration":{"text":null,"language_name":"english","language_id":38}}]},{"id":3920,"verse_number":132,"verse_key":"37:132","hizb_number":45,"rub_el_hizb_number":180,"ruku_number":391,"manzil_number":6,"sajdah_number":null,"page_number":451,"juz_number":23,"words":[{"id":78164,"position":1,"audio_url":"wbw/037_132_001.mp3","verse_key":"37:132","verse_id":3920,"location":"37:132:1","text_uthmani":"إِنَّهُۥ","qpc_uthmani_hafs":"إِنَّهُۥ","char_type_name":"word","page_number":451,"line_number":3,"text":"إِنَّهُۥ","translation":{"text":"Indeed, he (was)","language_name":"english","language_id":38},"transliteration":{"text":"innahu","language_name":"english","language_id":38}},{"id":78165,"position":2,"audio_url":"wbw/037_132_002.mp3","verse_key":"37:132","verse_id":3920,"location":"37:132:2","text_uthmani":"مِنْ","qpc_uthmani_hafs":"مِنۡ","char_type_name":"word","page_number":451,"line_number":3,"text":"مِنۡ","translation":{"text":"of","language_name":"english","language_id":38},"transliteration":{"text":"min","language_name":"english","language_id":38}},{"id":78166,"position":3,"audio_url":"wbw/037_132_003.mp3","verse_key":"37:132","verse_id":3920,"location":"37:132:3","text_uthmani":"عِبَادِنَا","qpc_uthmani_hafs":"عِبَادِنَا","char_type_name":"word","page_number":451,"line_number":3,"text":"عِبَادِنَا","translation":{"text":"Our slaves","language_name":"english","language_id":38},"transliteration":{"text":"ʿibādinā","language_name":"english","language_id":38}},{"id":78167,"position":4,"audio_url":"wbw/037_132_004.mp3","verse_key":"37:132","verse_id":3920,"location":"37:132:4","text_uthmani":"ٱلْمُؤْمِنِينَ","qpc_uthmani_hafs":"ٱلۡمُؤۡمِنِينَ","char_type_name":"word","page_number":451,"line_number":3,"text":"ٱلۡمُؤۡمِنِينَ","translation":{"text":"believing","language_name":"english","language_id":38},"transliteration":{"text":"l-mu'minīna","language_name":"english","language_id":38}},{"id":78168,"position":5,"audio_url":null,"verse_key":"37:132","verse_id":3920,"location":"37:132:5","text_uthmani":"١٣٢","qpc_uthmani_hafs":"١٣٢","char_type_name":"end","page_number":451,"line_number":4,"text":"١٣٢","translation":{"text":"(132)","language_name":"english","language_id":38},"transliteration":{"text":null,"language_name":"english","language_id":38}}]},{"id":3921,"verse_number":133,"verse_key":"37:133","hizb_number":45,"rub_el_hizb_number":180,"ruku_number":391,"manzil_number":6,"sajdah_number":null,"page_number":451,"juz_number":23,"words":[{"id":78233,"position":1,"audio_url":"wbw/037_133_001.mp3","verse_key":"37:133","verse_id":3921,"location":"37:133:1","text_uthmani":"وَإِنَّ","qpc_uthmani_hafs":"وَإِنَّ","char_type_name":"word","page_number":451,"line_number":4,"text":"وَإِنَّ","translation":{"text":"And indeed","language_name":"english","language_id":38},"transliteration":{"text":"wa-inna","language_name":"english","language_id":38}},{"id":78234,"position":2,"audio_url":"wbw/037_133_002.mp3","verse_key":"37:133","verse_id":3921,"location":"37:133:2","text_uthmani":"لُوطًۭا","qpc_uthmani_hafs":"لُوطٗا","char_type_name":"word","page_number":451,"line_number":4,"text":"لُوطٗا","translation":{"text":"Lut","language_name":"english","language_id":38},"transliteration":{"text":"lūṭan","language_name":"english","language_id":38}},{"id":78235,"position":3,"audio_url":"wbw/037_133_003.mp3","verse_key":"37:133","verse_id":3921,"location":"37:133:3","text_uthmani":"لَّمِنَ","qpc_uthmani_hafs":"لَّمِنَ","char_type_name":"word","page_number":451,"line_number":4,"text":"لَّمِنَ","translation":{"text":"(was) of","language_name":"english","language_id":38},"transliteration":{"text":"lamina","language_name":"english","language_id":38}},{"id":78236,"position":4,"audio_url":"wbw/037_133_004.mp3","verse_key":"37:133","verse_id":3921,"location":"37:133:4","text_uthmani":"ٱلْمُرْسَلِينَ","qpc_uthmani_hafs":"ٱلۡمُرۡسَلِينَ","char_type_name":"word","page_number":451,"line_number":4,"text":"ٱلۡمُرۡسَلِينَ","translation":{"text":"the Messengers","language_name":"english","language_id":38},"transliteration":{"text":"l-mur'salīna","language_name":"english","language_id":38}},{"id":78237,"position":5,"audio_url":null,"verse_key":"37:133","verse_id":3921,"location":"37:133:5","text_uthmani":"١٣٣","qpc_uthmani_hafs":"١٣٣","char_type_name":"end","page_number":451,"line_number":4,"text":"١٣٣","translation":{"text":"(133)","language_name":"english","language_id":38},"transliteration":{"text":null,"language_name":"english","language_id":38}}]},{"id":3922,"verse_number":134,"verse_key":"37:134","hizb_number":45,"rub_el_hizb_number":180,"ruku_number":391,"manzil_number":6,"sajdah_number":null,"page_number":451,"juz_number":23,"words":[{"id":78355,"position":1,"audio_url":"wbw/037_134_001.mp3","verse_key":"37:134","verse_id":3922,"location":"37:134:1","text_uthmani":"إِذْ","qpc_uthmani_hafs":"إِذۡ","char_type_name":"word","page_number":451,"line_number":4,"text":"إِذۡ","translation":{"text":"When","language_name":"english","language_id":38},"transliteration":{"text":"idh","language_name":"english","language_id":38}},{"id":78356,"position":2,"audio_url":"wbw/037_134_002.mp3","verse_key":"37:134","verse_id":3922,"location":"37:134:2","text_uthmani":"نَجَّيْنَـٰهُ","qpc_uthmani_hafs":"نَجَّيۡنَٰهُ","char_type_name":"word","page_number":451,"line_number":4,"text":"نَجَّيۡنَٰهُ","translation":{"text":"We saved him","language_name":"english","language_id":38},"transliteration":{"text":"najjaynāhu","language_name":"english","language_id":38}},{"id":78357,"position":3,"audio_url":"wbw/037_134_003.mp3","verse_key":"37:134","verse_id":3922,"location":"37:134:3","text_uthmani":"وَأَهْلَهُۥٓ","qpc_uthmani_hafs":"وَأَهۡلَهُۥٓ","char_type_name":"word","page_number":451,"line_number":4,"text":"وَأَهۡلَهُۥٓ","translation":{"text":"and his family","language_name":"english","language_id":38},"transliteration":{"text":"wa-ahlahu","language_name":"english","language_id":38}},{"id":78358,"position":4,"audio_url":"wbw/037_134_004.mp3","verse_key":"37:134","verse_id":3922,"location":"37:134:4","text_uthmani":"أَجْمَعِينَ","qpc_uthmani_hafs":"أَجۡمَعِينَ","char_type_name":"word","page_number":451,"line_number":4,"text":"أَجۡمَعِينَ","translation":{"text":"all","language_name":"english","language_id":38},"transliteration":{"text":"ajmaʿīna","language_name":"english","language_id":38}},{"id":78359,"position":5,"audio_url":null,"verse_key":"37:134","verse_id":3922,"location":"37:134:5","text_uthmani":"١٣٤","qpc_uthmani_hafs":"١٣٤","char_type_name":"end","page_number":451,"line_number":5,"text":"١٣٤","translation":{"text":"(134)","language_name":"english","language_id":38},"transliteration":{"text":null,"language_name":"english","language_id":38}}]},{"id":3923,"verse_number":135,"verse_key":"37:135","hizb_number":45,"rub_el_hizb_number":180,"ruku_number":391,"manzil_number":6,"sajdah_number":null,"page_number":451,"juz_number":23,"words":[{"id":78543,"position":1,"audio_url":"wbw/037_135_001.mp3","verse_key":"37:135","verse_id":3923,"location":"37:135:1","text_uthmani":"إِلَّا","qpc_uthmani_hafs":"إِلَّا","char_type_name":"word","page_number":451,"line_number":5,"text":"إِلَّا","translation":{"text":"Except","language_name":"english","language_id":38},"transliteration":{"text":"illā","language_name":"english","language_id":38}},{"id":78544,"position":2,"audio_url":"wbw/037_135_002.mp3","verse_key":"37:135","verse_id":3923,"location":"37:135:2","text_uthmani":"عَجُوزًۭا","qpc_uthmani_hafs":"عَجُوزٗا","char_type_name":"word","page_number":451,"line_number":5,"text":"عَجُوزٗا","translation":{"text":"an old woman","language_name":"english","language_id":38},"transliteration":{"text":"ʿajūzan","language_name":"english","language_id":38}},{"id":78545,"position":3,"audio_url":"wbw/037_135_003.mp3","verse_key":"37:135","verse_id":3923,"location":"37:135:3","text_uthmani":"فِى","qpc_uthmani_hafs":"فِي","char_type_name":"word","page_number":451,"line_number":5,"text":"فِي","translation":{"text":"(was) among","language_name":"english","language_id":38},"transliteration":{"text":"fī","language_name":"english","language_id":38}},{"id":78546,"position":4,"audio_url":"wbw/037_135_004.mp3","verse_key":"37:135","verse_id":3923,"location":"37:135:4","text_uthmani":"ٱلْغَـٰبِرِينَ","qpc_uthmani_hafs":"ٱلۡغَٰبِرِينَ","char_type_name":"word","page_number":451,"line_number":5,"text":"ٱلۡغَٰبِرِينَ","translation":{"text":"those who remained behind","language_name":"english","language_id":38},"transliteration":{"text":"l-ghābirīna","language_name":"english","language_id":38}},{"id":78547,"position":5,"audio_url":null,"verse_key":"37:135","verse_id":3923,"location":"37:135:5","text_uthmani":"١٣٥","qpc_uthmani_hafs":"١٣٥","char_type_name":"end","page_number":451,"line_number":5,"text":"١٣٥","translation":{"text":"(135)","language_name":"english","language_id":38},"transliteration":{"text":null,"language_name":"english","language_id":38}}]},{"id":3924,"verse_number":136,"verse_key":"37:136","hizb_number":45,"rub_el_hizb_number":180,"ruku_number":391,"manzil_number":6,"sajdah_number":null,"page_number":451,"juz_number":23,"words":[{"id":78689,"position":1,"audio_url":"wbw/037_136_001.mp3","verse_key":"37:136","verse_id":3924,"location":"37:136:1","text_uthmani":"ثُمَّ","qpc_uthmani_hafs":"ثُمَّ","char_type_name":"word","page_number":451,"line_number":5,"text":"ثُمَّ","translation":{"text":"Then","language_name":"english","language_id":38},"transliteration":{"text":"thumma","language_name":"english","language_id":38}},{"id":78690,"position":2,"audio_url":"wbw/037_136_002.mp3","verse_key":"37:136","verse_id":3924,"location":"37:136:2","text_uthmani":"دَمَّرْنَا","qpc_uthmani_hafs":"دَمَّرۡنَا","char_type_name":"word","page_number":451,"line_number":5,"text":"دَمَّرۡنَا","translation":{"text":"We destroyed","language_name":"english","language_id":38},"transliteration":{"text":"dammarnā","language_name":"english","language_id":38}},{"id":78691,"position":3,"audio_url":"wbw/037_136_003.mp3","verse_key":"37:136","verse_id":3924,"location":"37:136:3","text_uthmani":"ٱلْـَٔاخَرِينَ","qpc_uthmani_hafs":"ٱلۡأٓخَرِينَ","char_type_name":"word","page_number":451,"line_number":5,"text":"ٱلۡأٓخَرِينَ","translation":{"text":"the others","language_name":"english","language_id":38},"transliteration":{"text":"l-ākharīna","language_name":"english","language_id":38}},{"id":78692,"position":4,"audio_url":null,"verse_key":"37:136","verse_id":3924,"location":"37:136:4","text_uthmani":"١٣٦","qpc_uthmani_hafs":"١٣٦","char_type_name":"end","page_number":451,"line_number":5,"text":"١٣٦","translation":{"text":"(136)","language_name":"english","language_id":38},"transliteration":{"text":null,"language_name":"english","language_id":38}}]},{"id":3925,"verse_number":137,"verse_key":"37:137","hizb_number":45,"rub_el_hizb_number":180,"ruku_number":391,"manzil_number":6,"sajdah_number":null,"page_number":451,"juz_number":23,"words":[{"id":78799,"position":1,"audio_url":"wbw/037_137_001.mp3","verse_key":"37:137","verse_id":3925,"location":"37:137:1","text_uthmani":"وَإِنَّكُمْ","qpc_uthmani_hafs":"وَإِنَّكُمۡ","char_type_name":"word","page_number":451,"line_number":5,"text":"وَإِنَّكُمۡ","translation":{"text":"And indeed, you","language_name":"english","language_id":38},"transliteration":{"text":"wa-innakum","language_name":"english","language_id":38}},{"id":78800,"position":2,"audio_url":"wbw/037_137_002.mp3","verse_key":"37:137","verse_id":3925,"location":"37:137:2","text_uthmani":"لَتَمُرُّونَ","qpc_uthmani_hafs":"لَتَمُرُّونَ","char_type_name":"word","page_number":451,"line_number":6,"text":"لَتَمُرُّونَ","translation":{"text":"surely pass","language_name":"english","language_id":38},"transliteration":{"text":"latamurrūna","language_name":"english","language_id":38}},{"id":78801,"position":3,"audio_url":"wbw/037_137_003.mp3","verse_key":"37:137","verse_id":3925,"location":"37:137:3","text_uthmani":"عَلَيْهِم","qpc_uthmani_hafs":"عَلَيۡهِم","char_type_name":"word","page_number":451,"line_number":6,"text":"عَلَيۡهِم","translation":{"text":"by them","language_name":"english","language_id":38},"transliteration":{"text":"ʿalayhim","language_name":"english","language_id":38}},{"id":78802,"position":4,"audio_url":"wbw/037_137_004.mp3","verse_key":"37:137","verse_id":3925,"location":"37:137:4","text_uthmani":"مُّصْبِحِينَ","qpc_uthmani_hafs":"مُّصۡبِحِينَ","char_type_name":"word","page_number":451,"line_number":6,"text":"مُّصۡبِحِينَ","translation":{"text":"(in the) morning","language_name":"english","language_id":38},"transliteration":{"text":"muṣ'biḥīna","language_name":"english","language_id":38}},{"id":78803,"position":5,"audio_url":null,"verse_key":"37:137","verse_id":3925,"location":"37:137:5","text_uthmani":"١٣٧","qpc_uthmani_hafs":"١٣٧","char_type_name":"end","page_number":451,"line_number":6,"text":"١٣٧","translation":{"text":"(137)","language_name":"english","language_id":38},"transliteration":{"text":null,"language_name":"english","language_id":38}}]},{"id":3926,"verse_number":138,"verse_key":"37:138","hizb_number":45,"rub_el_hizb_number":180,"ruku_number":391,"manzil_number":6,"sajdah_number":null,"page_number":451,"juz_number":23,"words":[{"id":78920,"position":1,"audio_url":"wbw/037_138_001.mp3","verse_key":"37:138","verse_id":3926,"location":"37:138:1","text_uthmani":"وَبِٱلَّيْلِ ۗ","qpc_uthmani_hafs":"وَبِٱلَّيۡلِۚ","char_type_name":"word","page_number":451,"line_number":6,"text":"وَبِٱلَّيۡلِۚ","translation":{"text":"And at night","language_name":"english","language_id":38},"transliteration":{"text":"wabi-al-layli","language_name":"english","language_id":38}},{"id":78922,"position":2,"audio_url":"wbw/037_138_003.mp3","verse_key":"37:138","verse_id":3926,"location":"37:138:2","text_uthmani":"أَفَلَا","qpc_uthmani_hafs":"أَفَلَا","char_type_name":"word","page_number":451,"line_number":6,"text":"أَفَلَا","translation":{"text":"Then will not","language_name":"english","language_id":38},"transliteration":{"text":"afalā","language_name":"english","language_id":38}},{"id":78923,"position":3,"audio_url":"wbw/037_138_004.mp3","verse_key":"37:138","verse_id":3926,"location":"37:138:3","text_uthmani":"تَعْقِلُونَ","qpc_uthmani_hafs":"تَعۡقِلُونَ","char_type_name":"word","page_number":451,"line_number":6,"text":"تَعۡقِلُونَ","translation":{"text":"you use reason","language_name":"english","language_id":38},"transliteration":{"text":"taʿqilūna","language_name":"english","language_id":38}},{"id":78924,"position":4,"audio_url":null,"verse_key":"37:138","verse_id":3926,"location":"37:138:4","text_uthmani":"١٣٨","qpc_uthmani_hafs":"١٣٨","char_type_name":"end","page_number":451,"line_number":6,"text":"١٣٨","translation":{"text":"(138)","language_name":"english","language_id":38},"transliteration":{"text":null,"language_name":"english","language_id":38}}]},{"id":3927,"verse_number":139,"verse_key":"37:139","hizb_number":45,"rub_el_hizb_number":180,"ruku_number":392,"manzil_number":6,"sajdah_number":null,"page_number":451,"juz_number":23,"words":[{"id":79018,"position":1,"audio_url":"wbw/037_139_001.mp3","verse_key":"37:139","verse_id":3927,"location":"37:139:1","text_uthmani":"وَإِنَّ","qpc_uthmani_hafs":"وَإِنَّ","char_type_name":"word","page_number":451,"line_number":6,"text":"وَإِنَّ","translation":{"text":"And indeed","language_name":"english","language_id":38},"transliteration":{"text":"wa-inna","language_name":"english","language_id":38}},{"id":79019,"position":2,"audio_url":"wbw/037_139_002.mp3","verse_key":"37:139","verse_id":3927,"location":"37:139:2","text_uthmani":"يُونُسَ","qpc_uthmani_hafs":"يُونُسَ","char_type_name":"word","page_number":451,"line_number":7,"text":"يُونُسَ","translation":{"text":"Yunus","language_name":"english","language_id":38},"transliteration":{"text":"yūnusa","language_name":"english","language_id":38}},{"id":79020,"position":3,"audio_url":"wbw/037_139_003.mp3","verse_key":"37:139","verse_id":3927,"location":"37:139:3","text_uthmani":"لَمِنَ","qpc_uthmani_hafs":"لَمِنَ","char_type_name":"word","page_number":451,"line_number":7,"text":"لَمِنَ","translation":{"text":"(was) surely of","language_name":"english","language_id":38},"transliteration":{"text":"lamina","language_name":"english","language_id":38}},{"id":79021,"position":4,"audio_url":"wbw/037_139_004.mp3","verse_key":"37:139","verse_id":3927,"location":"37:139:4","text_uthmani":"ٱلْمُرْسَلِينَ","qpc_uthmani_hafs":"ٱلۡمُرۡسَلِينَ","char_type_name":"word","page_number":451,"line_number":7,"text":"ٱلۡمُرۡسَلِينَ","translation":{"text":"the Messengers","language_name":"english","language_id":38},"transliteration":{"text":"l-mur'salīna","language_name":"english","language_id":38}},{"id":79022,"position":5,"audio_url":null,"verse_key":"37:139","verse_id":3927,"location":"37:139:5","text_uthmani":"١٣٩","qpc_uthmani_hafs":"١٣٩","char_type_name":"end","page_number":451,"line_number":7,"text":"١٣٩","translation":{"text":"(139)","language_name":"english","language_id":38},"transliteration":{"text":null,"language_name":"english","language_id":38}}]},{"id":3928,"verse_number":140,"verse_key":"37:140","hizb_number":45,"rub_el_hizb_number":180,"ruku_number":392,"manzil_number":6,"sajdah_number":null,"page_number":451,"juz_number":23,"words":[{"id":79088,"position":1,"audio_url":"wbw/037_140_001.mp3","verse_key":"37:140","verse_id":3928,"location":"37:140:1","text_uthmani":"إِذْ","qpc_uthmani_hafs":"إِذۡ","char_type_name":"word","page_number":451,"line_number":7,"text":"إِذۡ","translation":{"text":"When","language_name":"english","language_id":38},"transliteration":{"text":"idh","language_name":"english","language_id":38}},{"id":79089,"position":2,"audio_url":"wbw/037_140_002.mp3","verse_key":"37:140","verse_id":3928,"location":"37:140:2","text_uthmani":"أَبَقَ","qpc_uthmani_hafs":"أَبَقَ","char_type_name":"word","page_number":451,"line_number":7,"text":"أَبَقَ","translation":{"text":"he ran away","language_name":"english","language_id":38},"transliteration":{"text":"abaqa","language_name":"english","language_id":38}},{"id":79090,"position":3,"audio_url":"wbw/037_140_003.mp3","verse_key":"37:140","verse_id":3928,"location":"37:140:3","text_uthmani":"إِلَى","qpc_uthmani_hafs":"إِلَى","char_type_name":"word","page_number":451,"line_number":7,"text":"إِلَى","translation":{"text":"to","language_name":"english","language_id":38},"transliteration":{"text":"ilā","language_name":"english","language_id":38}},{"id":79091,"position":4,"audio_url":"wbw/037_140_004.mp3","verse_key":"37:140","verse_id":3928,"location":"37:140:4","text_uthmani":"ٱلْفُلْكِ","qpc_uthmani_hafs":"ٱلۡفُلۡكِ","char_type_name":"word","page_number":451,"line_number":7,"text":"ٱلۡفُلۡكِ","translation":{"text":"the ship","language_name":"english","language_id":38},"transliteration":{"text":"l-ful'ki","language_name":"english","language_id":38}},{"id":79092,"position":5,"audio_url":"wbw/037_140_005.mp3","verse_key":"37:140","verse_id":3928,"location":"37:140:5","text_uthmani":"ٱلْمَشْحُونِ","qpc_uthmani_hafs":"ٱلۡمَشۡحُونِ","char_type_name":"word","page_number":451,"line_number":7,"text":"ٱلۡمَشۡحُونِ","translation":{"text":"laden","language_name":"english","language_id":38},"transliteration":{"text":"l-mashḥūni","language_name":"english","language_id":38}},{"id":79093,"position":6,"audio_url":null,"verse_key":"37:140","verse_id":3928,"location":"37:140:6","text_uthmani":"١٤٠","qpc_uthmani_hafs":"١٤٠","char_type_name":"end","page_number":451,"line_number":7,"text":"١٤٠","translation":{"text":"(140)","language_name":"english","language_id":38},"transliteration":{"text":null,"language_name":"english","language_id":38}}]}],"pagination":{"per_page":10,"current_page":14,"next_page":15,"total_pages":19,"total_records":182}}
