{"verses":[{"id":3949,"verse_number":161,"verse_key":"37:161","hizb_number":46,"rub_el_hizb_number":181,"ruku_number":392,"manzil_number":6,"sajdah_number":null,"page_number":452,"juz_number":23,"words":[{"id":81884,"position":1,"audio_url":"wbw/037_161_001.mp3","verse_key":"37:161","verse_id":3949,"location":"37:161:1","text_uthmani":"فَإِنَّكُمْ","qpc_uthmani_hafs":"فَإِنَّكُمۡ","char_type_name":"word","page_number":452,"line_number":4,"text":"فَإِنَّكُمۡ","translation":{"text":"So indeed, you","language_name":"english","language_id":38},"transliteration":{"text":"fa-innakum","language_name":"english","language_id":38}},{"id":81885,"position":2,"audio_url":"wbw/037_161_002.mp3","verse_key":"37:161","verse_id":3949,"location":"37:161:2","text_uthmani":"وَمَا","qpc_uthmani_hafs":"وَمَا","char_type_name":"word","page_number":452,"line_number":4,"text":"وَمَا","translation":{"text":"and what","language_name":"english","language_id":38},"transliteration":{"text":"wamā","language_name":"english","language_id":38}},{"id":81886,"position":3,"audio_url":"wbw/037_161_003.mp3","verse_key":"37:161","verse_id":3949,"location":"37:161:3","text_uthmani":"تَعْبُدُونَ","qpc_uthmani_hafs":"تَعۡبُدُونَ","char_type_name":"word","page_number":452,"line_number":4,"text":"تَعۡبُدُونَ","translation":{"text":"you worship","language_name":"english","language_id":38},"transliteration":{"text":"taʿbudūna","language_name":"english","language_id":38}},{"id":81887,"position":4,"audio_url":null,"verse_key":"37:161","verse_id":3949,"location":"37:161:4","text_uthmani":"١٦١","qpc_uthmani_hafs":"١٦١","char_type_name":"end","page_number":452,"line_number":4,"text":"١٦١","translation":{"text":"(161)","language_name":"english","language_id":38},"transliteration":{"text":null,"language_name":"english","language_id":38}}]},{"id":3950,"verse_number":162,"verse_key":"37:162","hizb_number":46,"rub_el_hizb_number":181,"ruku_number":392,"manzil_number":6,"sajdah_number":null,"page_number":452,"juz_number":23,"words":[{"id":82062,"position":1,"audio_url":"wbw/037_162_001.mp3","verse_key":"37:162","verse_id":3950,"location":"37:162:1","text_uthmani":"مَآ","qpc_uthmani_hafs":"مَآ","char_type_name":"word","page_number":452,"line_number":5,"text":"مَآ","translation":{"text":"Not","language_name":"english","language_id":38},"transliteration":{"text":"mā","language_name":"english","language_id":38}},{"id":82063,"position":2,"audio_url":"wbw/037_162_002.mp3","verse_key":"37:162","verse_id":3950,"location":"37:162:2","text_uthmani":"أَنتُمْ","qpc_uthmani_hafs":"أَنتُمۡ","char_type_name":"word","page_number":452,"line_number":5,"text":"أَنتُمۡ","translation":{"text":"you","language_name":"english","language_id":38},"transliteration":{"text":"antum","language_name":"english","language_id":38}},{"id":82064,"position":3,"audio_url":"wbw/037_162_003.mp3","verse_key":"37:162","verse_id":3950,"location":"37:162:3","text_uthmani":"عَلَيْهِ","qpc_uthmani_hafs":"عَلَيۡهِ","char_type_name":"word","page_number":452,"line_number":5,"text":"عَلَيۡهِ","translation":{"text":"from Him","language_name":"english","language_id":38},"transliteration":{"text":"ʿalayhi","language_name":"english","language_id":38}},{"id":82065,"position":4,"audio_url":"wbw/037_162_004.mp3","verse_key":"37:162","verse_id":3950,"location":"37:162:4","text_uthmani":"بِفَـٰتِنِينَ","qpc_uthmani_hafs":"بِفَٰتِنِينَ","char_type_name":"word","page_number":452,"line_number":5,"text":"بِفَٰتِنِينَ","translation":{"text":"can tempt away (anyone)","language_name":"english","language_id":38},"transliteration":{"text":"bifātinīna","language_name":"english","language_id":38}},{"id":82066,"position":5,"audio_url":null,"verse_key":"37:162","verse_id":3950,"location":"37:162:5","text_uthmani":"١٦٢","qpc_uthmani_hafs":"١٦٢","char_type_name":"end","page_number":452,"line_number":5,"text":"١٦٢","translation":{"text":"(162)","language_name":"english","language_id":38},"transliteration":{"text":null,"language_name":"english","language_id":38}}]},{"id":3951,"verse_number":163,"verse_key":"37:163","hizb_number":46,"rub_el_hizb_number":181,"ruku_number":392,"manzil_number":6,"sajdah_number":null,"page_number":452,"juz_number":23,"words":[{"id":82100,"position":1,"audio_url":"wbw/037_163_001.mp3","verse_key":"37:163","verse_id":3951,"location":"37:163:1","text_uthmani":"إِلَّا","qpc_uthmani_hafs":"إِلَّا","char_type_name":"word","page_number":452,"line_number":5,"text":"إِلَّا","translation":{"text":"Except","language_name":"english","language_id":38},"transliteration":{"text":"illā","language_name":"english","language_id":38}},{"id":82101,"position":2,"audio_url":"wbw/037_163_002.mp3","verse_key":"37:163","verse_id":3951,"location":"37:163:2","text_uthmani":"مَنْ","qpc_uthmani_hafs":"مَنۡ","char_type_name":"word","page_number":452,"line_number":5,"text":"مَنۡ","translation":{"text":"who","language_name":"english","language_id":38},"transliteration":{"text":"man","language_name":"english","language_id":38}},{"id":82102,"position":3,"audio_url":"wbw/037_163_003.mp3","verse_key":"37:163","verse_id":3951,"location":"37:163:3","text_uthmani":"هُوَ","qpc_uthmani_hafs":"هُوَ","char_type_name":"word","page_number":452,"line_number":5,"text":"هُوَ","translation":{"text":"he","language_name":"english","language_id":38},"transliteration":{"text":"huwa","language_name":"english","language_id":38}},{"id":82103,"position":4,"audio_url":"wbw/037_163_004.mp3","verse_key":"37:163","verse_id":3951,"location":"37:163:4","text_uthmani":"صَالِ","qpc_uthmani_hafs":"صَالِ","char_type_name":"word","page_number":452,"line_number":5,"text":"صَالِ","translation":{"text":"(is) to burn","language_name":"english","language_id":38},"transliteration":{"text":"ṣāli","language_name":"english","language_id":38}},{"id":82104,"position":5,"audio_url":"wbw/037_163_005.mp3","verse_key":"37:163","verse_id":3951,"location":"37:163:5","text_uthmani":"ٱلْجَحِيمِ","qpc_uthmani_hafs":"ٱلۡجَحِيمِ","char_type_name":"word","page_number":452,"line_number":5,"text":"ٱلۡجَحِيمِ","translation":{"text":"(in) the Hellfire","language_name":"english","language_id":38},"transliteration":{"text":"l-jaḥīmi","language_name":"english","language_id":38}},{"id":82105,"position":6,"audio_url":null,"verse_key":"37:163","verse_id":3951,"location":"37:163:6","text_uthmani":"١٦٣","qpc_uthmani_hafs":"١٦٣","char_type_name":"end","page_number":452,"line_number":5,"text":"١٦٣","translation":{"text":"(163)","language_name":"english","language_id":38},"transliteration":{"text":null,"language_name":"english","language_id":38}}]},{"id":3952,"verse_number":164,"verse_key":"37:164","hizb_number":46,"rub_el_hizb_number":181,"ruku_number":392,"manzil_number":6,"sajdah_number":null,"page_number":452,"juz_number":23,"words":[{"id":82229,"position":1,"audio_url":"wbw/037_164_001.mp3","verse_key":"37:164","verse_id":3952,"location":"37:164:1","text_uthmani":"وَمَا","qpc_uthmani_hafs":"وَمَا","char_type_name":"word","page_number":452,"line_number":5,"text":"وَمَا","translation":{"text":"And not","language_name":"english","language_id":38},"transliteration":{"text":"wamā","language_name":"english","language_id":38}},{"id":82230,"position":2,"audio_url":"wbw/037_164_002.mp3","verse_key":"37:164","verse_id":3952,"location":"37:164:2","text_uthmani":"مِنَّآ","qpc_uthmani_hafs":"مِنَّآ","char_type_name":"word","page_number":452,"line_number":5,"text":"مِنَّآ","translation":{"text":"among us","language_name":"english","language_id":38},"transliteration":{"text":"minnā","language_name":"english","language_id":38}},{"id":82231,"position":3,"audio_url":"wbw/037_164_003.mp3","verse_key":"37:164","verse_id":3952,"location":"37:164:3","text_uthmani":"إِلَّا","qpc_uthmani_hafs":"إِلَّا","char_type_name":"word","page_number":452,"line_number":5,"text":"إِلَّا","translation":{"text":"except","language_name":"english","language_id":38},"transliteration":{"text":"illā","language_name":"english","language_id":38}},{"id":82232,"position":4,"audio_url":"wbw/037_164_004.mp3","verse_key":"37:164","verse_id":3952,"location":"37:164:4","text_uthmani":"لَهُۥ","qpc_uthmani_hafs":"لَهُۥ","char_type_name":"word","page_number":452,"line_number":6,"text":"لَهُۥ","translation":{"text":"for him","language_name":"english","language_id":38},"transliteration":{"text":"lahu","language_name":"english","language_id":38}},{"id":82233,"position":5,"audio_url":"wbw/037_164_005.mp3","verse_key":"37:164","verse_id":3952,"location":"37:164:5","text_uthmani":"مَقَامٌۭ","qpc_uthmani_hafs":"مَقَامٞ","char_type_name":"word","page_number":452,"line_number":6,"text":"مَقَامٞ","translation":{"text":"(is) a position","language_name":"english","language_id":38},"transliteration":{"text":"maqāmun","language_name":"english","language_id":38}},{"id":82234,"position":6,"audio_url":"wbw/037_164_006.mp3","verse_key":"37:164","verse_id":3952,"location":"37:164:6","text_uthmani":"مَّعْلُومٌۭ","qpc_uthmani_hafs":"مَّعۡلُومٞ","char_type_name":"word","page_number":452,"line_number":6,"text":"مَّعۡلُومٞ","translation":{"text":"known","language_name":"english","language_id":38},"transliteration":{"text":"maʿlūmun","language_name":"english","language_id":38}},{"id":82235,"position":7,"audio_url":null,"verse_key":"37:164","verse_id":3952,"location":"37:164:7","text_uthmani":"١٦٤","qpc_uthmani_hafs":"١٦٤","char_type_name":"end","page_number":452,"line_number":6,"text":"١٦٤","translation":{"text":"(164)","language_name":"english","language_id":38},"transliteration":{"text":null,"language_name":"english","language_id":38}}]},{"id":3953,"verse_number":165,"verse_key":"37:165","hizb_number":46,"rub_el_hizb_number":181,"ruku_number":392,"manzil_number":6,"sajdah_number":null,"page_number":452,"juz_number":23,"words":[{"id":82426,"position":1,"audio_url":"wbw/037_165_001.mp3","verse_key":"37:165","verse_id":3953,"location":"37:165:1","text_uthmani":"وَإِنَّا","qpc_uthmani_hafs":"وَإِنَّا","char_type_name":"word","page_number":452,"line_number":6,"text":"وَإِنَّا","translation":{"text":"And indeed, we","language_name":"english","language_id":38},"transliteration":{"text":"wa-innā","language_name":"english","language_id":38}},{"id":82427,"position":2,"audio_url":"wbw/037_165_002.mp3","verse_key":"37:165","verse_id":3953,"location":"37:165:2","text_uthmani":"لَنَحْنُ","qpc_uthmani_hafs":"لَنَحۡنُ","char_type_name":"word","page_number":452,"line_number":6,"text":"لَنَحۡنُ","translation":{"text":"surely, [we]","language_name":"english","language_id":38},"transliteration":{"text":"lanaḥnu","language_name":"english","language_id":38}},{"id":82428,"position":3,"audio_url":"wbw/037_165_003.mp3","verse_key":"37:165","verse_id":3953,"location":"37:165:3","text_uthmani":"ٱلصَّآفُّونَ","qpc_uthmani_hafs":"ٱلصَّآفُّونَ","char_type_name":"word","page_number":452,"line_number":6,"text":"ٱلصَّآفُّونَ","translation":{"text":"stand in rows","language_name":"english","language_id":38},"transliteration":{"text":"l-ṣāfūna","language_name":"english","language_id":38}},{"id":82429,"position":4,"audio_url":null,"verse_key":"37:165","verse_id":3953,"location":"37:165:4","text_uthmani":"١٦٥","qpc_uthmani_hafs":"١٦٥","char_type_name":"end","page_number":452,"line_number":6,"text":"١٦٥","translation":{"text":"(165)","language_name":"english","language_id":38},"transliteration":{"text":null,"language_name":"english","language_id":38}}]},{"id":3954,"verse_number":166,"verse_key":"37:166","hizb_number":46,"rub_el_hizb_number":181,"ruku_number":392,"manzil_number":6,"sajdah_number":null,"page_number":452,"juz_number":23,"words":[{"id":82489,"position":1,"audio_url":"wbw/037_166_001.mp3","verse_key":"37:166","verse_id":3954,"location":"37:166:1","text_uthmani":"وَإِنَّا","qpc_uthmani_hafs":"وَإِنَّا","char_type_name":"word","page_number":452,"line_number":6,"text":"وَإِنَّا","translation":{"text":"And indeed, we","language_name":"english","language_id":38},"transliteration":{"text":"wa-innā","language_name":"english","language_id":38}},{"id":82490,"position":2,"audio_url":"wbw/037_166_002.mp3","verse_key":"37:166","verse_id":3954,"location":"37:166:2","text_uthmani":"لَنَحْنُ","qpc_uthmani_hafs":"لَنَحۡنُ","char_type_name":"word","page_number":452,"line_number":6,"text":"لَنَحۡنُ","translation":{"text":"surely, [we]","language_name":"english","language_id":38},"transliteration":{"text":"lanaḥnu","language_name":"english","language_id":38}},{"id":82491,"position":3,"audio_url":"wbw/037_166_003.mp3","verse_key":"37:166","verse_id":3954,"location":"37:166:3","text_uthmani":"ٱلْمُسَبِّحُونَ","qpc_uthmani_hafs":"ٱلۡمُسَبِّحُونَ","char_type_name":"word","page_number":452,"line_number":6,"text":"ٱلۡمُسَبِّحُونَ","translation":{"text":"glorify (Allah)","language_name":"english","language_id":38},"transliteration":{"text":"l-musabiḥūna","language_name":"english","language_id":38}},{"id":82492,"position":4,"audio_url":null,"verse_key":"37:166","verse_id":3954,"location":"37:166:4","text_uthmani":"١٦٦","qpc_uthmani_hafs":"١٦٦","char_type_name":"end","page_number":452,"line_number":7,"text":"١٦٦","translation":{"text":"(166)","language_name":"english","language_id":38},"transliteration":{"text":null,"language_name":"english","language_id":38}}]},{"id":3955,"verse_number":167,"verse_key":"37:167","hizb_number":46,"rub_el_hizb_number":181,"ruku_number":392,"manzil_number":6,"sajdah_number":null,"page_number":452,"juz_number":23,"words":[{"id":82543,"position":1,"audio_url":"wbw/037_167_001.mp3","verse_key":"37:167","verse_id":3955,"location":"37:167:1","text_uthmani":"وَإِن","qpc_uthmani_hafs":"وَإِن","char_type_name":"word","page_number":452,"line_number":7,"text":"وَإِن","translation":{"text":"And indeed","language_name":"english","language_id":38},"transliteration":{"text":"wa-in","language_name":"english","language_id":38}},{"id":82544,"position":2,"audio_url":"wbw/037_167_002.mp3","verse_key":"37:167","verse_id":3955,"location":"37:167:2","text_uthmani":"كَانُوا۟","qpc_uthmani_hafs":"كَانُواْ","char_type_name":"word","page_number":452,"line_number":7,"text":"كَانُواْ","translation":{"text":"they used to","language_name":"english","language_id":38},"transliteration":{"text":"kānū","language_name":"english","language_id":38}},{"id":82545,"position":3,"audio_url":"wbw/037_167_003.mp3","verse_key":"37:167","verse_id":3955,"location":"37:167:3","text_uthmani":"لَيَقُولُونَ","qpc_uthmani_hafs":"لَيَقُولُونَ","char_type_name":"word","page_number":452,"line_number":7,"text":"لَيَقُولُونَ","translation":{"text":"say","language_name":"english","language_id":38},"transliteration":{"text":"layaqūlūna","language_name":"english","language_id":38}},{"id":82546,"position":4,"audio_url":null,"verse_key":"37:167","verse_id":3955,"location":"37:167:4","text_uthmani":"١٦٧","qpc_uthmani_hafs":"١٦٧","char_type_name":"end","page_number":452,"line_number":7,"text":"١٦٧","translation":{"text":"(167)","language_name":"english","language_id":38},"transliteration":{"text":null,"language_name":"english","language_id":38}}]},{"id":3956,"verse_number":168,"verse_key":"37:168","hizb_number":46,"rub_el_hizb_number":181,"ruku_number":392,"manzil_number":6,"sajdah_number":null,"page_number":452,"juz_number":23,"words":[{"id":82634,"position":1,"audio_url":"wbw/037_168_001.mp3","verse_key":"37:168","verse_id":3956,"location":"37:168:1","text_uthmani":"لَوْ","qpc_uthmani_hafs":"لَوۡ","char_type_name":"word","page_number":452,"line_number":7,"text":"لَوۡ","translation":{"text":"If","language_name":"english","language_id":38},"transliteration":{"text":"law","language_name":"english","language_id":38}},{"id":82635,"position":2,"audio_url":"wbw/037_168_002.mp3","verse_key":"37:168","verse_id":3956,"location":"37:168:2","text_uthmani":"أَنَّ","qpc_uthmani_hafs":"أَنَّ","char_type_name":"word","page_number":452,"line_number":7,"text":"أَنَّ","translation":{"text":"that","language_name":"english","language_id":38},"transliteration":{"text":"anna","language_name":"english","language_id":38}},{"id":82636,"position":3,"audio_url":"wbw/037_168_003.mp3","verse_key":"37:168","verse_id":3956,"location":"37:168:3","text_uthmani":"عِندَنَا","qpc_uthmani_hafs":"عِندَنَا","char_type_name":"word","page_number":452,"line_number":7,"text":"عِندَنَا","translation":{"text":"we had","language_name":"english","language_id":38},"transliteration":{"text":"ʿindanā","language_name":"english","language_id":38}},{"id":82637,"position":4,"audio_url":"wbw/037_168_004.mp3","verse_key":"37:168","verse_id":3956,"location":"37:168:4","text_uthmani":"ذِكْرًۭا","qpc_uthmani_hafs":"ذِكۡرٗا","char_type_name":"word","page_number":452,"line_number":7,"text":"ذِكۡرٗا","translation":{"text":"a reminder","language_name":"english","language_id":38},"transliteration":{"text":"dhik'ran","language_name":"english","language_id":38}},{"id":82638,"position":5,"audio_url":"wbw/037_168_005.mp3","verse_key":"37:168","verse_id":3956,"location":"37:168:5","text_uthmani":"مِّنَ","qpc_uthmani_hafs":"مِّنَ","char_type_name":"word","page_number":452,"line_number":7,"text":"مِّنَ","translation":{"text":"from","language_name":"english","language_id":38},"transliteration":{"text":"mina","language_name":"english","language_id":38}},{"id":82639,"position":6,"audio_url":"wbw/037_168_006.mp3","verse_key":"37:168","verse_id":3956,"location":"37:168:6","text_uthmani":"ٱلْأَوَّلِينَ","qpc_uthmani_hafs":"ٱلۡأَوَّلِينَ","char_type_name":"word","page_number":452,"line_number":7,"text":"ٱلۡأَوَّلِينَ","translation":{"text":"the former (people)","language_name":"english","language_id":38},"transliteration":{"text":"l-awalīna","language_name":"english","language_id":38}},{"id":82640,"position":7,"audio_url":null,"verse_key":"37:168","verse_id":3956,"location":"37:168:7","text_uthmani":"١٦٨","qpc_uthmani_hafs":"١٦٨","char_type_name":"end","page_number":452,"line_number":7,"text":"١٦٨","translation":{"text":"(168)","language_name":"english","language_id":38},"transliteration":{"text":null,"language_name":"english","language_id":38}}]},{"id":3957,"verse_number":169,"verse_key":"37:169","hizb_number":46,"rub_el_hizb_number":181,"ruku_number":392,"manzil_number":6,"sajdah_number":null,"page_number":452,"juz_number":23,"words":[{"id":82732,"position":1,"audio_url":"wbw/037_169_001.mp3","verse_key":"37:169","verse_id":3957,"location":"37:169:1","text_uthmani":"لَكُنَّا","qpc_uthmani_hafs":"لَكُنَّا","char_type_name":"word","page_number":452,"line_number":7,"text":"لَكُنَّا","translation":{"text":"Certainly, we (would) have been","language_name":"english","language_id":38},"transliteration":{"text":"lakunnā","language_name":"english","language_id":38}},{"id":82733,"position":2,"audio_url":"wbw/037_169_002.mp3","verse_key":"37:169","verse_id":3957,"location":"37:169:2","text_uthmani":"عِبَادَ","qpc_uthmani_hafs":"عِبَادَ","char_type_name":"word","page_number":452,"line_number":8,"text":"عِبَادَ","translation":{"text":"slaves","language_name":"english","language_id":38},"transliteration":{"text":"ʿibāda","language_name":"english","language_id":38}},{"id":82734,"position":3,"audio_url":"wbw/037_169_003.mp3","verse_key":"37:169","verse_id":3957,"location":"37:169:3","text_uthmani":"ٱللَّهِ","qpc_uthmani_hafs":"ٱللَّهِ","char_type_name":"word","page_number":452,"line_number":8,"text":"ٱللَّهِ","translation":{"text":"(of) Allah","language_name":"english","language_id":38},"transliteration":{"text":"l-lahi","language_name":"english","language_id":38}},{"id":82735,"position":4,"audio_url":"wbw/037_169_004.mp3","verse_key":"37:169","verse_id":3957,"location":"37:169:4","text_uthmani":"ٱلْمُخْلَصِينَ","qpc_uthmani_hafs":"ٱلۡمُخۡلَصِينَ","char_type_name":"word","page_number":452,"line_number":8,"text":"ٱلۡمُخۡلَصِينَ","translation":{"text":"the chosen","language_name":"english","language_id":38},"transliteration":{"text":"l-mukh'laṣīna","language_name":"english","language_id":38}},{"id":82736,"position":5,"audio_url":null,"verse_key":"37:169","verse_id":3957,"location":"37:169:5","text_uthmani":"١٦٩","qpc_uthmani_hafs":"١٦٩","char_type_name":"end","page_number":452,"line_number":8,"text":"١٦٩","translation":{"text":"(169)","language_name":"english","language_id":38},"transliteration":{"text":null,"language_name":"english","language_id":38}}]},{"id":3958,"verse_number":170,"verse_key":"37:170","hizb_number":46,"rub_el_hizb_number":181,"ruku_number":392,"manzil_number":6,"sajdah_number":null,"page_number":452,"juz_number":23,"words":[{"id":82839,"position":1,"audio_url":"wbw/037_170_001.mp3","verse_key":"37:170","verse_id":3958,"location":"37:170:1","text_uthmani":"فَكَفَرُوا۟","qpc_uthmani_hafs":"فَكَفَرُواْ","char_type_name":"word","page_number":452,"line_number":8,"text":"فَكَفَرُواْ","translation":{"text":"But they disbelieved","language_name":"english","language_id":38},"transliteration":{"text":"fakafarū","language_name":"english","language_id":38}},{"id":82840,"position":2,"audio_url":"wbw/037_170_002.mp3","verse_key":"37:170","verse_id":3958,"location":"37:170:2","text_uthmani":"بِهِۦ ۖ","qpc_uthmani_hafs":"بِهِۦۖ","char_type_name":"word","page_number":452,"line_number":8,"text":"بِهِۦۖ","translation":{"text":"in it","language_name":"english","language_id":38},"transliteration":{"text":"bihi","language_name":"english","language_id":38}},{"id":82842,"position":3,"audio_url":"wbw/037_170_004.mp3","verse_key":"37:170","verse_id":3958,"location":"37:170:3","text_uthmani":"فَسَوْفَ","qpc_uthmani_hafs":"فَسَوۡفَ","char_type_name":"word","page_number":452,"line_number":8,"text":"فَسَوۡفَ","translation":{"text":"so soon","language_name":"english","language_id":38},"transliteration":{"text":"fasawfa","language_name":"english","language_id":38}},{"id":82843,"position":4,"audio_url":"wbw/037_170_005.mp3","verse_key":"37:170","verse_id":3958,"location":"37:170:4","text_uthmani":"يَعْلَمُونَ","qpc_uthmani_hafs":"يَعۡلَمُونَ","char_type_name":"word","page_number":452,"line_number":8,"text":"يَعۡلَمُونَ","translation":{"text":"they will know","language_name":"english","language_id":38},"transliteration":{"text":"yaʿlamūna","language_name":"english","language_id":38}},{"id":82844,"position":5,"audio_url":null,"verse_key":"37:170","verse_id":3958,"location":"37:170:5","text_uthmani":"١٧٠","qpc_uthmani_hafs":"١٧٠","char_type_name":"end","page_number":452,"line_number":8,"text":"١٧٠","translation":{"text":"(170)","language_name":"english","language_id":38},"transliteration":{"text":null,"language_name":"english","language_id":38}}]}],"pagination":{"per_page":10,"current_page":17,"next_page":18,"total_pages":19,"total_records":182}}
