{"verses":[{"id":3809,"verse_number":21,"verse_key":"37:21","hizb_number":45,"rub_el_hizb_number":178,"ruku_number":388,"manzil_number":6,"sajdah_number":null,"page_number":446,"juz_number":23,"words":[{"id":24329,"position":1,"audio_url":"wbw/037_021_001.mp3","verse_key":"37:21","verse_id":3809,"location":"37:21:1","text_uthmani":"هَـٰذَا","qpc_uthmani_hafs":"هَٰذَا","char_type_name":"word","page_number":446,"line_number":13,"text":"هَٰذَا","translation":{"text":"This","language_name":"english","language_id":38},"transliteration":{"text":"hādhā","language_name":"english","language_id":38}},{"id":24330,"position":2,"audio_url":"wbw/037_021_002.mp3","verse_key":"37:21","verse_id":3809,"location":"37:21:2","text_uthmani":"يَوْمُ","qpc_uthmani_hafs":"يَوۡمُ","char_type_name":"word","page_number":446,"line_number":13,"text":"يَوۡمُ","translation":{"text":"(is the) Day","language_name":"english","language_id":38},"transliteration":{"text":"yawmu","language_name":"english","language_id":38}},{"id":24331,"position":3,"audio_url":"wbw/037_021_003.mp3","verse_key":"37:21","verse_id":3809,"location":"37:21:3","text_uthmani":"ٱلْفَصْلِ","qpc_uthmani_hafs":"ٱلۡفَصۡلِ","char_type_name":"word","page_number":446,"line_number":13,"text":"ٱلۡفَصۡلِ","translation":{"text":"(of) Judgment","language_name":"english","language_id":38},"transliteration":{"text":"l-faṣli","language_name":"english","language_id":38}},{"id":24332,"position":4,"audio_url":"wbw/037_021_004.mp3","verse_key":"37:21","verse_id":3809,"location":"37:21:4","text_uthmani":"ٱلَّذِى","qpc_uthmani_hafs":"ٱلَّذِي","char_type_name":"word","page_number":446,"line_number":13,"text":"ٱلَّذِي","translation":{"text":"which","language_name":"english","language_id":38},"transliteration":{"text":"alladhī","language_name":"english","language_id":38}},{"id":24333,"position":5,"audio_url":"wbw/037_021_005.mp3","verse_key":"37:21","verse_id":3809,"location":"37:21:5","text_uthmani":"كُنتُم","qpc_uthmani_hafs":"كُنتُم","char_type_name":"word","page_number":446,"line_number":13,"text":"كُنتُم","translation":{"text":"you used to","language_name":"english","language_id":38},"transliteration":{"text":"kuntum","language_name":"english","language_id":38}},{"id":24334,"position":6,"audio_url":"wbw/037_021_006.mp3","verse_key":"37:21","verse_id":3809,"location":"37:21:6","text_uthmani":"بِهِۦ","qpc_uthmani_hafs":"بِهِۦ","char_type_name":"word","page_number":446,"line_number":13,"text":"بِهِۦ","translation":{"text":"[of it]","language_name":"english","language_id":38},"transliteration":{"text":"bihi","language_name":"english","language_id":38}},{"id":24335,"position":7,"audio_url":"wbw/037_021_007.mp3","verse_key":"37:21","verse_id":3809,"location":"37:21:7","text_uthmani":"تُكَذِّبُونَ","qpc_uthmani_hafs":"تُكَذِّبُونَ","char_type_name":"word","page_number":446,"line_number":13,"text":"تُكَذِّبُونَ","translation":{"text":"deny","language_name":"english","language_id":38},"transliteration":{"text":"tukadhibūna","language_name":"english","language_id":38}},{"id":24336,"position":8,"audio_url":null,"verse_key":"37:21","verse_id":3809,"location":"37:21:8","text_uthmani":"٢١","qpc_uthmani_hafs":"٢١","char_type_name":"end","page_number":446,"line_number":13,"text":"٢١","translation":{"text":"(21)","language_name":"english","language_id":38},"transliteration":{"text":null,"language_name":"english","language_id":38}}]},{"id":3810,"verse_number":22,"verse_key":"37:22","hizb_number":45,"rub_el_hizb_number":179,"ruku_number":389,"manzil_number":6,"sajdah_number":null,"page_number":446,"juz_number":23,"words":[{"id":25356,"position":1,"audio_url":"wbw/037_022_002.mp3","verse_key":"37:22","verse_id":3810,"location":"37:22:1","text_uthmani":"۞ ٱحْشُرُوا۟","qpc_uthmani_hafs":"۞ ٱحۡشُرُواْ","char_type_name":"word","page_number":446,"line_number":14,"text":"۞ ٱحۡشُرُواْ","translation":{"text":"Gather","language_name":"english","language_id":38},"transliteration":{"text":"uḥ'shurū","language_name":"english","language_id":38}},{"id":25357,"position":2,"audio_url":"wbw/037_022_003.mp3","verse_key":"37:22","verse_id":3810,"location":"37:22:2","text_uthmani":"ٱلَّذِينَ","qpc_uthmani_hafs":"ٱلَّذِينَ","char_type_name":"word","page_number":446,"line_number":14,"text":"ٱلَّذِينَ","translation":{"text":"those who","language_name":"english","language_id":38},"transliteration":{"text":"alladhīna","language_name":"english","language_id":38}},{"id":25358,"position":3,"audio_url":"wbw/037_022_004.mp3","verse_key":"37:22","verse_id":3810,"location":"37:22:3","text_uthmani":"ظَلَمُوا۟","qpc_uthmani_hafs":"ظَلَمُواْ","char_type_name":"word","page_number":446,"line_number":14,"text":"ظَلَمُواْ","translation":{"text":"wronged","language_name":"english","language_id":38},"transliteration":{"text":"ẓalamū","language_name":"english","language_id":38}},{"id":25359,"position":4,"audio_url":"wbw/037_022_005.mp3","verse_key":"37:22","verse_id":3810,"location":"37:22:4","text_uthmani":"وَأَزْوَٰجَهُمْ","qpc_uthmani_hafs":"وَأَزۡوَٰجَهُمۡ","char_type_name":"word","page_number":446,"line_number":14,"text":"وَأَزۡوَٰجَهُمۡ","translation":{"text":"and their kinds","language_name":"english","language_id":38},"transliteration":{"text":"wa-azwājahum","language_name":"english","language_id":38}},{"id":25360,"position":5,"audio_url":"wbw/037_022_006.mp3","verse_key":"37:22","verse_id":3810,"location":"37:22:5","text_uthmani":"وَمَا","qpc_uthmani_hafs":"وَمَا","char_type_name":"word","page_number":446,"line_number":14,"text":"وَمَا","translation":{"text":"and what","language_name":"english","language_id":38},"transliteration":{"text":"wamā","language_name":"english","language_id":38}},{"id":25361,"position":6,"audio_url":"wbw/037_022_007.mp3","verse_key":"37:22","verse_id":3810,"location":"37:22:6","text_uthmani":"كَانُوا۟","qpc_uthmani_hafs":"كَانُواْ","char_type_name":"word","page_number":446,"line_number":14,"text":"كَانُواْ","translation":{"text":"they used (to)","language_name":"english","language_id":38},"transliteration":{"text":"kānū","language_name":"english","language_id":38}},{"id":25362,"position":7,"audio_url":"wbw/037_022_008.mp3","verse_key":"37:22","verse_id":3810,"location":"37:22:7","text_uthmani":"يَعْبُدُونَ","qpc_uthmani_hafs":"يَعۡبُدُونَ","char_type_name":"word","page_number":446,"line_number":14,"text":"يَعۡبُدُونَ","translation":{"text":"worship","language_name":"english","language_id":38},"transliteration":{"text":"yaʿbudūna","language_name":"english","language_id":38}},{"id":25363,"position":8,"audio_url":null,"verse_key":"37:22","verse_id":3810,"location":"37:22:8","text_uthmani":"٢٢","qpc_uthmani_hafs":"٢٢","char_type_name":"end","page_number":446,"line_number":14,"text":"٢٢","translation":{"text":"(22)","language_name":"english","language_id":38},"transliteration":{"text":null,"language_name":"english","language_id":38}}]},{"id":3811,"verse_number":23,"verse_key":"37:23","hizb_number":45,"rub_el_hizb_number":179,"ruku_number":389,"manzil_number":6,"sajdah_number":null,"page_number":446,"juz_number":23,"words":[{"id":26403,"position":1,"audio_url":"wbw/037_023_001.mp3","verse_key":"37:23","verse_id":3811,"location":"37:23:1","text_uthmani":"مِن","qpc_uthmani_hafs":"مِن","char_type_name":"word","page_number":446,"line_number":14,"text":"مِن","translation":{"text":"Besides","language_name":"english","language_id":38},"transliteration":{"text":"min","language_name":"english","language_id":38}},{"id":26404,"position":2,"audio_url":"wbw/037_023_002.mp3","verse_key":"37:23","verse_id":3811,"location":"37:23:2","text_uthmani":"دُونِ","qpc_uthmani_hafs":"دُونِ","char_type_name":"word","page_number":446,"line_number":14,"text":"دُونِ","translation":{"text":"Besides","language_name":"english","language_id":38},"transliteration":{"text":"dūni","language_name":"english","language_id":38}},{"id":26405,"position":3,"audio_url":"wbw/037_023_003.mp3","verse_key":"37:23","verse_id":3811,"location":"37:23:3","text_uthmani":"ٱللَّهِ","qpc_uthmani_hafs":"ٱللَّهِ","char_type_name":"word","page_number":446,"line_number":15,"text":"ٱللَّهِ","translation":{"text":"Allah","language_name":"english","language_id":38},"transliteration":{"text":"l-lahi","language_name":"english","language_id":38}},{"id":26406,"position":4,"audio_url":"wbw/037_023_004.mp3","verse_key":"37:23","verse_id":3811,"location":"37:23:4","text_uthmani":"فَٱهْدُوهُمْ","qpc_uthmani_hafs":"فَٱهۡدُوهُمۡ","char_type_name":"word","page_number":446,"line_number":15,"text":"فَٱهۡدُوهُمۡ","translation":{"text":"then lead them","language_name":"english","language_id":38},"transliteration":{"text":"fa-ih'dūhum","language_name":"english","language_id":38}},{"id":26407,"position":5,"audio_url":"wbw/037_023_005.mp3","verse_key":"37:23","verse_id":3811,"location":"37:23:5","text_uthmani":"إِلَىٰ","qpc_uthmani_hafs":"إِلَىٰ","char_type_name":"word","page_number":446,"line_number":15,"text":"إِلَىٰ","translation":{"text":"to","language_name":"english","language_id":38},"transliteration":{"text":"ilā","language_name":"english","language_id":38}},{"id":26408,"position":6,"audio_url":"wbw/037_023_006.mp3","verse_key":"37:23","verse_id":3811,"location":"37:23:6","text_uthmani":"صِرَٰطِ","qpc_uthmani_hafs":"صِرَٰطِ","char_type_name":"word","page_number":446,"line_number":15,"text":"صِرَٰطِ","translation":{"text":"(the) Path","language_name":"english","language_id":38},"transliteration":{"text":"ṣirāṭi","language_name":"english","language_id":38}},{"id":26409,"position":7,"audio_url":"wbw/037_023_007.mp3","verse_key":"37:23","verse_id":3811,"location":"37:23:7","text_uthmani":"ٱلْجَحِيمِ","qpc_uthmani_hafs":"ٱلۡجَحِيمِ","char_type_name":"word","page_number":446,"line_number":15,"text":"ٱلۡجَحِيمِ","translation":{"text":"(of) the Hellfire","language_name":"english","language_id":38},"transliteration":{"text":"l-jaḥīmi","language_name":"english","language_id":38}},{"id":26410,"position":8,"audio_url":null,"verse_key":"37:23","verse_id":3811,"location":"37:23:8","text_uthmani":"٢٣","qpc_uthmani_hafs":"٢٣","char_type_name":"end","page_number":446,"line_number":15,"text":"٢٣","translation":{"text":"(23)","language_name":"english","language_id":38},"transliteration":{"text":null,"language_name":"english","language_id":38}}]},{"id":3812,"verse_number":24,"verse_key":"37:24","hizb_number":45,"rub_el_hizb_number":179,"ruku_number":389,"manzil_number":6,"sajdah_number":null,"page_number":446,"juz_number":23,"words":[{"id":27418,"position":1,"audio_url":"wbw/037_024_001.mp3","verse_key":"37:24","verse_id":3812,"location":"37:24:1","text_uthmani":"وَقِفُوهُمْ ۖ","qpc_uthmani_hafs":"وَقِفُوهُمۡۖ","char_type_name":"word","page_number":446,"line_number":15,"text":"وَقِفُوهُمۡۖ","translation":{"text":"And stop them","language_name":"english","language_id":38},"transliteration":{"text":"waqifūhum","language_name":"english","language_id":38}},{"id":27420,"position":2,"audio_url":"wbw/037_024_003.mp3","verse_key":"37:24","verse_id":3812,"location":"37:24:2","text_uthmani":"إِنَّهُم","qpc_uthmani_hafs":"إِنَّهُم","char_type_name":"word","page_number":446,"line_number":15,"text":"إِنَّهُم","translation":{"text":"indeed, they","language_name":"english","language_id":38},"transliteration":{"text":"innahum","language_name":"english","language_id":38}},{"id":27421,"position":3,"audio_url":"wbw/037_024_004.mp3","verse_key":"37:24","verse_id":3812,"location":"37:24:3","text_uthmani":"مَّسْـُٔولُونَ","qpc_uthmani_hafs":"مَّسۡـُٔولُونَ","char_type_name":"word","page_number":446,"line_number":15,"text":"مَّسۡـُٔولُونَ","translation":{"text":"(are) to be questioned","language_name":"english","language_id":38},"transliteration":{"text":"masūlūna","language_name":"english","language_id":38}},{"id":27422,"position":4,"audio_url":null,"verse_key":"37:24","verse_id":3812,"location":"37:24:4","text_uthmani":"٢٤","qpc_uthmani_hafs":"٢٤","char_type_name":"end","page_number":446,"line_number":15,"text":"٢٤","translation":{"text":"(24)","language_name":"english","language_id":38},"transliteration":{"text":null,"language_name":"english","language_id":38}}]},{"id":3813,"verse_number":25,"verse_key":"37:25","hizb_number":45,"rub_el_hizb_number":179,"ruku_number":389,"manzil_number":6,"sajdah_number":null,"page_number":447,"juz_number":23,"words":[{"id":28478,"position":1,"audio_url":"wbw/037_025_001.mp3","verse_key":"37:25","verse_id":3813,"location":"37:25:1","text_uthmani":"مَا","qpc_uthmani_hafs":"مَا","char_type_name":"word","page_number":447,"line_number":1,"text":"مَا","translation":{"text":"What","language_name":"english","language_id":38},"transliteration":{"text":"mā","language_name":"english","language_id":38}},{"id":28479,"position":2,"audio_url":"wbw/037_025_002.mp3","verse_key":"37:25","verse_id":3813,"location":"37:25:2","text_uthmani":"لَكُمْ","qpc_uthmani_hafs":"لَكُمۡ","char_type_name":"word","page_number":447,"line_number":1,"text":"لَكُمۡ","translation":{"text":"(is) for you","language_name":"english","language_id":38},"transliteration":{"text":"lakum","language_name":"english","language_id":38}},{"id":28480,"position":3,"audio_url":"wbw/037_025_003.mp3","verse_key":"37:25","verse_id":3813,"location":"37:25:3","text_uthmani":"لَا","qpc_uthmani_hafs":"لَا","char_type_name":"word","page_number":447,"line_number":1,"text":"لَا","translation":{"text":"(Why) not","language_name":"english","language_id":38},"transliteration":{"text":"lā","language_name":"english","language_id":38}},{"id":28481,"position":4,"audio_url":"wbw/037_025_004.mp3","verse_key":"37:25","verse_id":3813,"location":"37:25:4","text_uthmani":"تَنَاصَرُونَ","qpc_uthmani_hafs":"تَنَاصَرُونَ","char_type_name":"word","page_number":447,"line_number":1,"text":"تَنَاصَرُونَ","translation":{"text":"you help one another","language_name":"english","language_id":38},"transliteration":{"text":"tanāṣarūna","language_name":"english","language_id":38}},{"id":28482,"position":5,"audio_url":null,"verse_key":"37:25","verse_id":3813,"location":"37:25:5","text_uthmani":"٢٥","qpc_uthmani_hafs":"٢٥","char_type_name":"end","page_number":447,"line_number":1,"text":"٢٥","translation":{"text":"(25)","language_name":"english","language_id":38},"transliteration":{"text":null,"language_name":"english","language_id":38}}]},{"id":3814,"verse_number":26,"verse_key":"37:26","hizb_number":45,"rub_el_hizb_number":179,"ruku_number":389,"manzil_number":6,"sajdah_number":null,"page_number":447,"juz_number":23,"words":[{"id":29390,"position":1,"audio_url":"wbw/037_026_001.mp3","verse_key":"37:26","verse_id":3814,"location":"37:26:1","text_uthmani":"بَلْ","qpc_uthmani_hafs":"بَلۡ","char_type_name":"word","page_number":447,"line_number":1,"text":"بَلۡ","translation":{"text":"Nay","language_name":"english","language_id":38},"transliteration":{"text":"bal","language_name":"english","language_id":38}},{"id":29391,"position":2,"audio_url":"wbw/037_026_002.mp3","verse_key":"37:26","verse_id":3814,"location":"37:26:2","text_uthmani":"هُمُ","qpc_uthmani_hafs":"هُمُ","char_type_name":"word","page_number":447,"line_number":1,"text":"هُمُ","translation":{"text":"they","language_name":"english","language_id":38},"transliteration":{"text":"humu","language_name":"english","language_id":38}},{"id":29392,"position":3,"audio_url":"wbw/037_026_003.mp3","verse_key":"37:26","verse_id":3814,"location":"37:26:3","text_uthmani":"ٱلْيَوْمَ","qpc_uthmani_hafs":"ٱلۡيَوۡمَ","char_type_name":"word","page_number":447,"line_number":1,"text":"ٱلۡيَوۡمَ","translation":{"text":"(on) that Day","language_name":"english","language_id":38},"transliteration":{"text":"l-yawma","language_name":"english","language_id":38}},{"id":29393,"position":4,"audio_url":"wbw/037_026_004.mp3","verse_key":"37:26","verse_id":3814,"location":"37:26:4","text_uthmani":"مُسْتَسْلِمُونَ","qpc_uthmani_hafs":"مُسۡتَسۡلِمُونَ","char_type_name":"word","page_number":447,"line_number":1,"text":"مُسۡتَسۡلِمُونَ","translation":{"text":"(will) surrender","language_name":"english","language_id":38},"transliteration":{"text":"mus'taslimūna","language_name":"english","language_id":38}},{"id":29394,"position":5,"audio_url":null,"verse_key":"37:26","verse_id":3814,"location":"37:26:5","text_uthmani":"٢٦","qpc_uthmani_hafs":"٢٦","char_type_name":"end","page_number":447,"line_number":1,"text":"٢٦","translation":{"text":"(26)","language_name":"english","language_id":38},"transliteration":{"text":null,"language_name":"english","language_id":38}}]},{"id":3815,"verse_number":27,"verse_key":"37:27","hizb_number":45,"rub_el_hizb_number":179,"ruku_number":389,"manzil_number":6,"sajdah_number":null,"page_number":447,"juz_number":23,"words":[{"id":30383,"position":1,"audio_url":"wbw/037_027_001.mp3","verse_key":"37:27","verse_id":3815,"location":"37:27:1","text_uthmani":"وَأَقْبَلَ","qpc_uthmani_hafs":"وَأَقۡبَلَ","char_type_name":"word","page_number":447,"line_number":1,"text":"وَأَقۡبَلَ","translation":{"text":"And will approach","language_name":"english","language_id":38},"transliteration":{"text":"wa-aqbala","language_name":"english","language_id":38}},{"id":30384,"position":2,"audio_url":"wbw/037_027_002.mp3","verse_key":"37:27","verse_id":3815,"location":"37:27:2","text_uthmani":"بَعْضُهُمْ","qpc_uthmani_hafs":"بَعۡضُهُمۡ","char_type_name":"word","page_number":447,"line_number":1,"text":"بَعۡضُهُمۡ","translation":{"text":"some of them","language_name":"english","language_id":38},"transliteration":{"text":"baʿḍuhum","language_name":"english","language_id":38}},{"id":30385,"position":3,"audio_url":"wbw/037_027_003.mp3","verse_key":"37:27","verse_id":3815,"location":"37:27:3","text_uthmani":"عَلَىٰ","qpc_uthmani_hafs":"عَلَىٰ","char_type_name":"word","page_number":447,"line_number":2,"text":"عَلَىٰ","translation":{"text":"to","language_name":"english","language_id":38},"transliteration":{"text":"ʿalā","language_name":"english","language_id":38}},{"id":30386,"position":4,"audio_url":"wbw/037_027_004.mp3","verse_key":"37:27","verse_id":3815,"location":"37:27:4","text_uthmani":"بَعْضٍۢ","qpc_uthmani_hafs":"بَعۡضٖ","char_type_name":"word","page_number":447,"line_number":2,"text":"بَعۡضٖ","translation":{"text":"others","language_name":"english","language_id":38},"transliteration":{"text":"baʿḍin","language_name":"english","language_id":38}},{"id":30387,"position":5,"audio_url":"wbw/037_027_005.mp3","verse_key":"37:27","verse_id":3815,"location":"37:27:5","text_uthmani":"يَتَسَآءَلُونَ","qpc_uthmani_hafs":"يَتَسَآءَلُونَ","char_type_name":"word","page_number":447,"line_number":2,"text":"يَتَسَآءَلُونَ","translation":{"text":"questioning one another","language_name":"english","language_id":38},"transliteration":{"text":"yatasāalūna","language_name":"english","language_id":38}},{"id":30388,"position":6,"audio_url":null,"verse_key":"37:27","verse_id":3815,"location":"37:27:6","text_uthmani":"٢٧","qpc_uthmani_hafs":"٢٧","char_type_name":"end","page_number":447,"line_number":2,"text":"٢٧","translation":{"text":"(27)","language_name":"english","language_id":38},"transliteration":{"text":null,"language_name":"english","language_id":38}}]},{"id":3816,"verse_number":28,"verse_key":"37:28","hizb_number":45,"rub_el_hizb_number":179,"ruku_number":389,"manzil_number":6,"sajdah_number":null,"page_number":447,"juz_number":23,"words":[{"id":31395,"position":1,"audio_url":"wbw/037_028_001.mp3","verse_key":"37:28","verse_id":3816,"location":"37:28:1","text_uthmani":"قَالُوٓا۟","qpc_uthmani_hafs":"قَالُوٓاْ","char_type_name":"word","page_number":447,"line_number":2,"text":"قَالُوٓاْ","translation":{"text":"They will say","language_name":"english","language_id":38},"transliteration":{"text":"qālū","language_name":"english","language_id":38}},{"id":31396,"position":2,"audio_url":"wbw/037_028_002.mp3","verse_key":"37:28","verse_id":3816,"location":"37:28:2","text_uthmani":"إِنَّكُمْ","qpc_uthmani_hafs":"إِنَّكُمۡ","char_type_name":"word","page_number":447,"line_number":2,"text":"إِنَّكُمۡ","translation":{"text":"Indeed, you","language_name":"english","language_id":38},"transliteration":{"text":"innakum","language_name":"english","language_id":38}},{"id":31397,"position":3,"audio_url":"wbw/037_028_003.mp3","verse_key":"37:28","verse_id":3816,"location":"37:28:3","text_uthmani":"كُنتُمْ","qpc_uthmani_hafs":"كُنتُمۡ","char_type_name":"word","page_number":447,"line_number":2,"text":"كُنتُمۡ","translation":{"text":"[you] used (to)","language_name":"english","language_id":38},"transliteration":{"text":"kuntum","language_name":"english","language_id":38}},{"id":31398,"position":4,"audio_url":"wbw/037_028_004.mp3","verse_key":"37:28","verse_id":3816,"location":"37:28:4","text_uthmani":"تَأْتُونَنَا","qpc_uthmani_hafs":"تَأۡتُونَنَا","char_type_name":"word","page_number":447,"line_number":2,"text":"تَأۡتُونَنَا","translation":{"text":"come (to) us","language_name":"english","language_id":38},"transliteration":{"text":"tatūnanā","language_name":"english","language_id":38}},{"id":31399,"position":5,"audio_url":"wbw/037_028_005.mp3","verse_key":"37:28","verse_id":3816,"location":"37:28:5","text_uthmani":"عَنِ","qpc_uthmani_hafs":"عَنِ","char_type_name":"word","page_number":447,"line_number":2,"text":"عَنِ","translation":{"text":"from","language_name":"english","language_id":38},"transliteration":{"text":"ʿani","language_name":"english","language_id":38}},{"id":31400,"position":6,"audio_url":"wbw/037_028_006.mp3","verse_key":"37:28","verse_id":3816,"location":"37:28:6","text_uthmani":"ٱلْيَمِينِ","qpc_uthmani_hafs":"ٱلۡيَمِينِ","char_type_name":"word","page_number":447,"line_number":2,"text":"ٱلۡيَمِينِ","translation":{"text":"the right","language_name":"english","language_id":38},"transliteration":{"text":"l-yamīni","language_name":"english","language_id":38}},{"id":31401,"position":7,"audio_url":null,"verse_key":"37:28","verse_id":3816,"location":"37:28:7","text_uthmani":"٢٨","qpc_uthmani_hafs":"٢٨","char_type_name":"end","page_number":447,"line_number":2,"text":"٢٨","translation":{"text":"(28)","language_name":"english","language_id":38},"transliteration":{"text":null,"language_name":"english","language_id":38}}]},{"id":3817,"verse_number":29,"verse_key":"37:29","hizb_number":45,"rub_el_hizb_number":179,"ruku_number":389,"manzil_number":6,"sajdah_number":null,"page_number":447,"juz_number":23,"words":[{"id":32343,"position":1,"audio_url":"wbw/037_029_001.mp3","verse_key":"37:29","verse_id":3817,"location":"37:29:1","text_uthmani":"قَالُوا۟","qpc_uthmani_hafs":"قَالُواْ","char_type_name":"word","page_number":447,"line_number":3,"text":"قَالُواْ","translation":{"text":"They will say","language_name":"english","language_id":38},"transliteration":{"text":"qālū","language_name":"english","language_id":38}},{"id":32344,"position":2,"audio_url":"wbw/037_029_002.mp3","verse_key":"37:29","verse_id":3817,"location":"37:29:2","text_uthmani":"بَل","qpc_uthmani_hafs":"بَل","char_type_name":"word","page_number":447,"line_number":3,"text":"بَل","translation":{"text":"Nay","language_name":"english","language_id":38},"transliteration":{"text":"bal","language_name":"english","language_id":38}},{"id":32345,"position":3,"audio_url":"wbw/037_029_003.mp3","verse_key":"37:29","verse_id":3817,"location":"37:29:3","text_uthmani":"لَّمْ","qpc_uthmani_hafs":"لَّمۡ","char_type_name":"word","page_number":447,"line_number":3,"text":"لَّمۡ","translation":{"text":"not","language_name":"english","language_id":38},"transliteration":{"text":"lam","language_name":"english","language_id":38}},{"id":32346,"position":4,"audio_url":"wbw/037_029_004.mp3","verse_key":"37:29","verse_id":3817,"location":"37:29:4","text_uthmani":"تَكُونُوا۟","qpc_uthmani_hafs":"تَكُونُواْ","char_type_name":"word","page_number":447,"line_number":3,"text":"تَكُونُواْ","translation":{"text":"you were","language_name":"english","language_id":38},"transliteration":{"text":"takūnū","language_name":"english","language_id":38}},{"id":32347,"position":5,"audio_url":"wbw/037_029_005.mp3","verse_key":"37:29","verse_id":3817,"location":"37:29:5","text_uthmani":"مُؤْمِنِينَ","qpc_uthmani_hafs":"مُؤۡمِنِينَ","char_type_name":"word","page_number":447,"line_number":3,"text":"مُؤۡمِنِينَ","translation":{"text":"believers","language_name":"english","language_id":38},"transliteration":{"text":"mu'minīna","language_name":"english","language_id":38}},{"id":32348,"position":6,"audio_url":null,"verse_key":"37:29","verse_id":3817,"location":"37:29:6","text_uthmani":"٢٩","qpc_uthmani_hafs":"٢٩","char_type_name":"end","page_number":447,"line_number":3,"text":"٢٩","translation":{"text":"(29)","language_name":"english","language_id":38},"transliteration":{"text":null,"language_name":"english","language_id":38}}]},{"id":3818,"verse_number":30,"verse_key":"37:30","hizb_number":45,"rub_el_hizb_number":179,"ruku_number":389,"manzil_number":6,"sajdah_number":null,"page_number":447,"juz_number":23,"words":[{"id":33203,"position":1,"audio_url":"wbw/037_030_001.mp3","verse_key":"37:30","verse_id":3818,"location":"37:30:1","text_uthmani":"وَمَا","qpc_uthmani_hafs":"وَمَا","char_type_name":"word","page_number":447,"line_number":3,"text":"وَمَا","translation":{"text":"And not","language_name":"english","language_id":38},"transliteration":{"text":"wamā","language_name":"english","language_id":38}},{"id":33204,"position":2,"audio_url":"wbw/037_030_002.mp3","verse_key":"37:30","verse_id":3818,"location":"37:30:2","text_uthmani":"كَانَ","qpc_uthmani_hafs":"كَانَ","char_type_name":"word","page_number":447,"line_number":3,"text":"كَانَ","translation":{"text":"was","language_name":"english","language_id":38},"transliteration":{"text":"kāna","language_name":"english","language_id":38}},{"id":33205,"position":3,"audio_url":"wbw/037_030_003.mp3","verse_key":"37:30","verse_id":3818,"location":"37:30:3","text_uthmani":"لَنَا","qpc_uthmani_hafs":"لَنَا","char_type_name":"word","page_number":447,"line_number":3,"text":"لَنَا","translation":{"text":"for us","language_name":"english","language_id":38},"transliteration":{"text":"lanā","language_name":"english","language_id":38}},{"id":33206,"position":4,"audio_url":"wbw/037_030_004.mp3","verse_key":"37:30","verse_id":3818,"location":"37:30:4","text_uthmani":"عَلَيْكُم","qpc_uthmani_hafs":"عَلَيۡكُم","char_type_name":"word","page_number":447,"line_number":3,"text":"عَلَيۡكُم","translation":{"text":"over you","language_name":"english","language_id":38},"transliteration":{"text":"ʿalaykum","language_name":"english","language_id":38}},{"id":33207,"position":5,"audio_url":"wbw/037_030_005.mp3","verse_key":"37:30","verse_id":3818,"location":"37:30:5","text_uthmani":"مِّن","qpc_uthmani_hafs":"مِّن","char_type_name":"word","page_number":447,"line_number":3,"text":"مِّن","translation":{"text":"any","language_name":"english","language_id":38},"transliteration":{"text":"min","language_name":"english","language_id":38}},{"id":33208,"position":6,"audio_url":"wbw/037_030_006.mp3","verse_key":"37:30","verse_id":3818,"location":"37:30:6","text_uthmani":"سُلْطَـٰنٍۭ ۖ","qpc_uthmani_hafs":"سُلۡطَٰنِۭۖ","char_type_name":"word","page_number":447,"line_number":3,"text":"سُلۡطَٰنِۭۖ","translation":{"text":"authority","language_name":"english","language_id":38},"transliteration":{"text":"sul'ṭānin","language_name":"english","language_id":38}},{"id":33210,"position":7,"audio_url":"wbw/037_030_008.mp3","verse_key":"37:30","verse_id":3818,"location":"37:30:7","text_uthmani":"بَلْ","qpc_uthmani_hafs":"بَلۡ","char_type_name":"word","page_number":447,"line_number":4,"text":"بَلۡ","translation":{"text":"Nay","language_name":"english","language_id":38},"transliteration":{"text":"bal","language_name":"english","language_id":38}},{"id":33211,"position":8,"audio_url":"wbw/037_030_009.mp3","verse_key":"37:30","verse_id":3818,"location":"37:30:8","text_uthmani":"كُنتُمْ","qpc_uthmani_hafs":"كُنتُمۡ","char_type_name":"word","page_number":447,"line_number":4,"text":"كُنتُمۡ","translation":{"text":"you were","language_name":"english","language_id":38},"transliteration":{"text":"kuntum","language_name":"english","language_id":38}},{"id":33212,"position":9,"audio_url":"wbw/037_030_010.mp3","verse_key":"37:30","verse_id":3818,"location":"37:30:9","text_uthmani":"قَوْمًۭا","qpc_uthmani_hafs":"قَوۡمٗا","char_type_name":"word","page_number":447,"line_number":4,"text":"قَوۡمٗا","translation":{"text":"a people","language_name":"english","language_id":38},"transliteration":{"text":"qawman","language_name":"english","language_id":38}},{"id":33213,"position":10,"audio_url":"wbw/037_030_011.mp3","verse_key":"37:30","verse_id":3818,"location":"37:30:10","text_uthmani":"طَـٰغِينَ","qpc_uthmani_hafs":"طَٰغِينَ","char_type_name":"word","page_number":447,"line_number":4,"text":"طَٰغِينَ","translation":{"text":"transgressing","language_name":"english","language_id":38},"transliteration":{"text":"ṭāghīna","language_name":"english","language_id":38}},{"id":33214,"position":11,"audio_url":null,"verse_key":"37:30","verse_id":3818,"location":"37:30:11","text_uthmani":"٣٠","qpc_uthmani_hafs":"٣٠","char_type_name":"end","page_number":447,"line_number":4,"text":"٣٠","translation":{"text":"(30)","language_name":"english","language_id":38},"transliteration":{"text":null,"language_name":"english","language_id":38}}]}],"pagination":{"per_page":10,"current_page":3,"next_page":4,"total_pages":19,"total_records":182}}
