{"verses":[{"id":3829,"verse_number":41,"verse_key":"37:41","hizb_number":45,"rub_el_hizb_number":179,"ruku_number":389,"manzil_number":6,"sajdah_number":null,"page_number":447,"juz_number":23,"words":[{"id":42552,"position":1,"audio_url":"wbw/037_041_001.mp3","verse_key":"37:41","verse_id":3829,"location":"37:41:1","text_uthmani":"أُو۟لَـٰٓئِكَ","qpc_uthmani_hafs":"أُوْلَٰٓئِكَ","char_type_name":"word","page_number":447,"line_number":10,"text":"أُوْلَٰٓئِكَ","translation":{"text":"Those","language_name":"english","language_id":38},"transliteration":{"text":"ulāika","language_name":"english","language_id":38}},{"id":42553,"position":2,"audio_url":"wbw/037_041_002.mp3","verse_key":"37:41","verse_id":3829,"location":"37:41:2","text_uthmani":"لَهُمْ","qpc_uthmani_hafs":"لَهُمۡ","char_type_name":"word","page_number":447,"line_number":10,"text":"لَهُمۡ","translation":{"text":"for them","language_name":"english","language_id":38},"transliteration":{"text":"lahum","language_name":"english","language_id":38}},{"id":42554,"position":3,"audio_url":"wbw/037_041_003.mp3","verse_key":"37:41","verse_id":3829,"location":"37:41:3","text_uthmani":"رِزْقٌۭ","qpc_uthmani_hafs":"رِزۡقٞ","char_type_name":"word","page_number":447,"line_number":10,"text":"رِزۡقٞ","translation":{"text":"(will be) a provision","language_name":"english","language_id":38},"transliteration":{"text":"riz'qun","language_name":"english","language_id":38}},{"id":42555,"position":4,"audio_url":"wbw/037_041_004.mp3","verse_key":"37:41","verse_id":3829,"location":"37:41:4","text_uthmani":"مَّعْلُومٌۭ","qpc_uthmani_hafs":"مَّعۡلُومٞ","char_type_name":"word","page_number":447,"line_number":10,"text":"مَّعۡلُومٞ","translation":{"text":"determined","language_name":"english","language_id":38},"transliteration":{"text":"maʿlūmun","language_name":"english","language_id":38}},{"id":42556,"position":5,"audio_url":null,"verse_key":"37:41","verse_id":3829,"location":"37:41:5","text_uthmani":"٤١","qpc_uthmani_hafs":"٤١","char_type_name":"end","page_number":447,"line_number":10,"text":"٤١","translation":{"text":"(41)","language_name":"english","language_id":38},"transliteration":{"text":null,"language_name":"english","language_id":38}}]},{"id":3830,"verse_number":42,"verse_key":"37:42","hizb_number":45,"rub_el_hizb_number":179,"ruku_number":389,"manzil_number":6,"sajdah_number":null,"page_number":447,"juz_number":23,"words":[{"id":43276,"position":1,"audio_url":"wbw/037_042_001.mp3","verse_key":"37:42","verse_id":3830,"location":"37:42:1","text_uthmani":"فَوَٰكِهُ ۖ","qpc_uthmani_hafs":"فَوَٰكِهُ","char_type_name":"word","page_number":447,"line_number":11,"text":"فَوَٰكِهُ","translation":{"text":"Fruits","language_name":"english","language_id":38},"transliteration":{"text":"fawākihu","language_name":"english","language_id":38}},{"id":43278,"position":2,"audio_url":"wbw/037_042_003.mp3","verse_key":"37:42","verse_id":3830,"location":"37:42:2","text_uthmani":"وَهُم","qpc_uthmani_hafs":"وَهُم","char_type_name":"word","page_number":447,"line_number":11,"text":"وَهُم","translation":{"text":"and they","language_name":"english","language_id":38},"transliteration":{"text":"wahum","language_name":"english","language_id":38}},{"id":43279,"position":3,"audio_url":"wbw/037_042_004.mp3","verse_key":"37:42","verse_id":3830,"location":"37:42:3","text_uthmani":"مُّكْرَمُونَ","qpc_uthmani_hafs":"مُّكۡرَمُونَ","char_type_name":"word","page_number":447,"line_number":11,"text":"مُّكۡرَمُونَ","translation":{"text":"(will) be honored","language_name":"english","language_id":38},"transliteration":{"text":"muk'ramūna","language_name":"english","language_id":38}},{"id":43280,"position":4,"audio_url":null,"verse_key":"37:42","verse_id":3830,"location":"37:42:4","text_uthmani":"٤٢","qpc_uthmani_hafs":"٤٢","char_type_name":"end","page_number":447,"line_number":11,"text":"٤٢","translation":{"text":"(42)","language_name":"english","language_id":38},"transliteration":{"text":null,"language_name":"english","language_id":38}}]},{"id":3831,"verse_number":43,"verse_key":"37:43","hizb_number":45,"rub_el_hizb_number":179,"ruku_number":389,"manzil_number":6,"sajdah_number":null,"page_number":447,"juz_number":23,"words":[{"id":44072,"position":1,"audio_url":"wbw/037_043_001.mp3","verse_key":"37:43","verse_id":3831,"location":"37:43:1","text_uthmani":"فِى","qpc_uthmani_hafs":"فِي","char_type_name":"word","page_number":447,"line_number":11,"text":"فِي","translation":{"text":"In","language_name":"english","language_id":38},"transliteration":{"text":"fī","language_name":"english","language_id":38}},{"id":44073,"position":2,"audio_url":"wbw/037_043_002.mp3","verse_key":"37:43","verse_id":3831,"location":"37:43:2","text_uthmani":"جَنَّـٰتِ","qpc_uthmani_hafs":"جَنَّٰتِ","char_type_name":"word","page_number":447,"line_number":11,"text":"جَنَّٰتِ","translation":{"text":"Gardens","language_name":"english","language_id":38},"transliteration":{"text":"jannāti","language_name":"english","language_id":38}},{"id":44074,"position":3,"audio_url":"wbw/037_043_003.mp3","verse_key":"37:43","verse_id":3831,"location":"37:43:3","text_uthmani":"ٱلنَّعِيمِ","qpc_uthmani_hafs":"ٱلنَّعِيمِ","char_type_name":"word","page_number":447,"line_number":11,"text":"ٱلنَّعِيمِ","translation":{"text":"(of) Delight","language_name":"english","language_id":38},"transliteration":{"text":"l-naʿīmi","language_name":"english","language_id":38}},{"id":44075,"position":4,"audio_url":null,"verse_key":"37:43","verse_id":3831,"location":"37:43:4","text_uthmani":"٤٣","qpc_uthmani_hafs":"٤٣","char_type_name":"end","page_number":447,"line_number":11,"text":"٤٣","translation":{"text":"(43)","language_name":"english","language_id":38},"transliteration":{"text":null,"language_name":"english","language_id":38}}]},{"id":3832,"verse_number":44,"verse_key":"37:44","hizb_number":45,"rub_el_hizb_number":179,"ruku_number":389,"manzil_number":6,"sajdah_number":null,"page_number":447,"juz_number":23,"words":[{"id":44474,"position":1,"audio_url":"wbw/037_044_001.mp3","verse_key":"37:44","verse_id":3832,"location":"37:44:1","text_uthmani":"عَلَىٰ","qpc_uthmani_hafs":"عَلَىٰ","char_type_name":"word","page_number":447,"line_number":11,"text":"عَلَىٰ","translation":{"text":"On","language_name":"english","language_id":38},"transliteration":{"text":"ʿalā","language_name":"english","language_id":38}},{"id":44475,"position":2,"audio_url":"wbw/037_044_002.mp3","verse_key":"37:44","verse_id":3832,"location":"37:44:2","text_uthmani":"سُرُرٍۢ","qpc_uthmani_hafs":"سُرُرٖ","char_type_name":"word","page_number":447,"line_number":11,"text":"سُرُرٖ","translation":{"text":"thrones","language_name":"english","language_id":38},"transliteration":{"text":"sururin","language_name":"english","language_id":38}},{"id":44476,"position":3,"audio_url":"wbw/037_044_003.mp3","verse_key":"37:44","verse_id":3832,"location":"37:44:3","text_uthmani":"مُّتَقَـٰبِلِينَ","qpc_uthmani_hafs":"مُّتَقَٰبِلِينَ","char_type_name":"word","page_number":447,"line_number":11,"text":"مُّتَقَٰبِلِينَ","translation":{"text":"facing each other","language_name":"english","language_id":38},"transliteration":{"text":"mutaqābilīna","language_name":"english","language_id":38}},{"id":44477,"position":4,"audio_url":null,"verse_key":"37:44","verse_id":3832,"location":"37:44:4","text_uthmani":"٤٤","qpc_uthmani_hafs":"٤٤","char_type_name":"end","page_number":447,"line_number":12,"text":"٤٤","translation":{"text":"(44)","language_name":"english","language_id":38},"transliteration":{"text":null,"language_name":"english","language_id":38}}]},{"id":3833,"verse_number":45,"verse_key":"37:45","hizb_number":45,"rub_el_hizb_number":179,"ruku_number":389,"manzil_number":6,"sajdah_number":null,"page_number":447,"juz_number":23,"words":[{"id":45314,"position":1,"audio_url":"wbw/037_045_001.mp3","verse_key":"37:45","verse_id":3833,"location":"37:45:1","text_uthmani":"يُطَافُ","qpc_uthmani_hafs":"يُطَافُ","char_type_name":"word","page_number":447,"line_number":12,"text":"يُطَافُ","translation":{"text":"Will be circulated","language_name":"english","language_id":38},"transliteration":{"text":"yuṭāfu","language_name":"english","language_id":38}},{"id":45315,"position":2,"audio_url":"wbw/037_045_002.mp3","verse_key":"37:45","verse_id":3833,"location":"37:45:2","text_uthmani":"عَلَيْهِم","qpc_uthmani_hafs":"عَلَيۡهِم","char_type_name":"word","page_number":447,"line_number":12,"text":"عَلَيۡهِم","translation":{"text":"among them","language_name":"english","language_id":38},"transliteration":{"text":"ʿalayhim","language_name":"english","language_id":38}},{"id":45316,"position":3,"audio_url":"wbw/037_045_003.mp3","verse_key":"37:45","verse_id":3833,"location":"37:45:3","text_uthmani":"بِكَأْسٍۢ","qpc_uthmani_hafs":"بِكَأۡسٖ","char_type_name":"word","page_number":447,"line_number":12,"text":"بِكَأۡسٖ","translation":{"text":"a cup","language_name":"english","language_id":38},"transliteration":{"text":"bikasin","language_name":"english","language_id":38}},{"id":45317,"position":4,"audio_url":"wbw/037_045_004.mp3","verse_key":"37:45","verse_id":3833,"location":"37:45:4","text_uthmani":"مِّن","qpc_uthmani_hafs":"مِّن","char_type_name":"word","page_number":447,"line_number":12,"text":"مِّن","translation":{"text":"from","language_name":"english","language_id":38},"transliteration":{"text":"min","language_name":"english","language_id":38}},{"id":45318,"position":5,"audio_url":"wbw/037_045_005.mp3","verse_key":"37:45","verse_id":3833,"location":"37:45:5","text_uthmani":"مَّعِينٍۭ","qpc_uthmani_hafs":"مَّعِينِۭ","char_type_name":"word","page_number":447,"line_number":12,"text":"مَّعِينِۭ","translation":{"text":"a flowing spring","language_name":"english","language_id":38},"transliteration":{"text":"maʿīnin","language_name":"english","language_id":38}},{"id":45319,"position":6,"audio_url":null,"verse_key":"37:45","verse_id":3833,"location":"37:45:6","text_uthmani":"٤٥","qpc_uthmani_hafs":"٤٥","char_type_name":"end","page_number":447,"line_number":12,"text":"٤٥","translation":{"text":"(45)","language_name":"english","language_id":38},"transliteration":{"text":null,"language_name":"english","language_id":38}}]},{"id":3834,"verse_number":46,"verse_key":"37:46","hizb_number":45,"rub_el_hizb_number":179,"ruku_number":389,"manzil_number":6,"sajdah_number":null,"page_number":447,"juz_number":23,"words":[{"id":46070,"position":1,"audio_url":"wbw/037_046_001.mp3","verse_key":"37:46","verse_id":3834,"location":"37:46:1","text_uthmani":"بَيْضَآءَ","qpc_uthmani_hafs":"بَيۡضَآءَ","char_type_name":"word","page_number":447,"line_number":12,"text":"بَيۡضَآءَ","translation":{"text":"White","language_name":"english","language_id":38},"transliteration":{"text":"bayḍāa","language_name":"english","language_id":38}},{"id":46071,"position":2,"audio_url":"wbw/037_046_002.mp3","verse_key":"37:46","verse_id":3834,"location":"37:46:2","text_uthmani":"لَذَّةٍۢ","qpc_uthmani_hafs":"لَذَّةٖ","char_type_name":"word","page_number":447,"line_number":12,"text":"لَذَّةٖ","translation":{"text":"delicious","language_name":"english","language_id":38},"transliteration":{"text":"ladhatin","language_name":"english","language_id":38}},{"id":46072,"position":3,"audio_url":"wbw/037_046_003.mp3","verse_key":"37:46","verse_id":3834,"location":"37:46:3","text_uthmani":"لِّلشَّـٰرِبِينَ","qpc_uthmani_hafs":"لِّلشَّٰرِبِينَ","char_type_name":"word","page_number":447,"line_number":12,"text":"لِّلشَّٰرِبِينَ","translation":{"text":"for the drinkers","language_name":"english","language_id":38},"transliteration":{"text":"lilshāribīna","language_name":"english","language_id":38}},{"id":46073,"position":4,"audio_url":null,"verse_key":"37:46","verse_id":3834,"location":"37:46:4","text_uthmani":"٤٦","qpc_uthmani_hafs":"٤٦","char_type_name":"end","page_number":447,"line_number":13,"text":"٤٦","translation":{"text":"(46)","language_name":"english","language_id":38},"transliteration":{"text":null,"language_name":"english","language_id":38}}]},{"id":3835,"verse_number":47,"verse_key":"37:47","hizb_number":45,"rub_el_hizb_number":179,"ruku_number":389,"manzil_number":6,"sajdah_number":null,"page_number":447,"juz_number":23,"words":[{"id":46692,"position":1,"audio_url":"wbw/037_047_001.mp3","verse_key":"37:47","verse_id":3835,"location":"37:47:1","text_uthmani":"لَا","qpc_uthmani_hafs":"لَا","char_type_name":"word","page_number":447,"line_number":13,"text":"لَا","translation":{"text":"Not","language_name":"english","language_id":38},"transliteration":{"text":"lā","language_name":"english","language_id":38}},{"id":46693,"position":2,"audio_url":"wbw/037_047_002.mp3","verse_key":"37:47","verse_id":3835,"location":"37:47:2","text_uthmani":"فِيهَا","qpc_uthmani_hafs":"فِيهَا","char_type_name":"word","page_number":447,"line_number":13,"text":"فِيهَا","translation":{"text":"in it","language_name":"english","language_id":38},"transliteration":{"text":"fīhā","language_name":"english","language_id":38}},{"id":46694,"position":3,"audio_url":"wbw/037_047_003.mp3","verse_key":"37:47","verse_id":3835,"location":"37:47:3","text_uthmani":"غَوْلٌۭ","qpc_uthmani_hafs":"غَوۡلٞ","char_type_name":"word","page_number":447,"line_number":13,"text":"غَوۡلٞ","translation":{"text":"(is) bad effect","language_name":"english","language_id":38},"transliteration":{"text":"ghawlun","language_name":"english","language_id":38}},{"id":46695,"position":4,"audio_url":"wbw/037_047_004.mp3","verse_key":"37:47","verse_id":3835,"location":"37:47:4","text_uthmani":"وَلَا","qpc_uthmani_hafs":"وَلَا","char_type_name":"word","page_number":447,"line_number":13,"text":"وَلَا","translation":{"text":"and not","language_name":"english","language_id":38},"transliteration":{"text":"walā","language_name":"english","language_id":38}},{"id":46696,"position":5,"audio_url":"wbw/037_047_005.mp3","verse_key":"37:47","verse_id":3835,"location":"37:47:5","text_uthmani":"هُمْ","qpc_uthmani_hafs":"هُمۡ","char_type_name":"word","page_number":447,"line_number":13,"text":"هُمۡ","translation":{"text":"they","language_name":"english","language_id":38},"transliteration":{"text":"hum","language_name":"english","language_id":38}},{"id":46697,"position":6,"audio_url":"wbw/037_047_006.mp3","verse_key":"37:47","verse_id":3835,"location":"37:47:6","text_uthmani":"عَنْهَا","qpc_uthmani_hafs":"عَنۡهَا","char_type_name":"word","page_number":447,"line_number":13,"text":"عَنۡهَا","translation":{"text":"from it","language_name":"english","language_id":38},"transliteration":{"text":"ʿanhā","language_name":"english","language_id":38}},{"id":46698,"position":7,"audio_url":"wbw/037_047_007.mp3","verse_key":"37:47","verse_id":3835,"location":"37:47:7","text_uthmani":"يُنزَفُونَ","qpc_uthmani_hafs":"يُنزَفُونَ","char_type_name":"word","page_number":447,"line_number":13,"text":"يُنزَفُونَ","translation":{"text":"will be intoxicated","language_name":"english","language_id":38},"transliteration":{"text":"yunzafūna","language_name":"english","language_id":38}},{"id":46699,"position":8,"audio_url":null,"verse_key":"37:47","verse_id":3835,"location":"37:47:8","text_uthmani":"٤٧","qpc_uthmani_hafs":"٤٧","char_type_name":"end","page_number":447,"line_number":13,"text":"٤٧","translation":{"text":"(47)","language_name":"english","language_id":38},"transliteration":{"text":null,"language_name":"english","language_id":38}}]},{"id":3836,"verse_number":48,"verse_key":"37:48","hizb_number":45,"rub_el_hizb_number":179,"ruku_number":389,"manzil_number":6,"sajdah_number":null,"page_number":447,"juz_number":23,"words":[{"id":47477,"position":1,"audio_url":"wbw/037_048_001.mp3","verse_key":"37:48","verse_id":3836,"location":"37:48:1","text_uthmani":"وَعِندَهُمْ","qpc_uthmani_hafs":"وَعِندَهُمۡ","char_type_name":"word","page_number":447,"line_number":13,"text":"وَعِندَهُمۡ","translation":{"text":"And with them","language_name":"english","language_id":38},"transliteration":{"text":"waʿindahum","language_name":"english","language_id":38}},{"id":47478,"position":2,"audio_url":"wbw/037_048_002.mp3","verse_key":"37:48","verse_id":3836,"location":"37:48:2","text_uthmani":"قَـٰصِرَٰتُ","qpc_uthmani_hafs":"قَٰصِرَٰتُ","char_type_name":"word","page_number":447,"line_number":13,"text":"قَٰصِرَٰتُ","translation":{"text":"(will be) companions of modest gaze","language_name":"english","language_id":38},"transliteration":{"text":"qāṣirātu","language_name":"english","language_id":38}},{"id":47479,"position":3,"audio_url":"wbw/037_048_003.mp3","verse_key":"37:48","verse_id":3836,"location":"37:48:3","text_uthmani":"ٱلطَّرْفِ","qpc_uthmani_hafs":"ٱلطَّرۡفِ","char_type_name":"word","page_number":447,"line_number":14,"text":"ٱلطَّرۡفِ","translation":{"text":"(will be) companions of modest gaze","language_name":"english","language_id":38},"transliteration":{"text":"l-ṭarfi","language_name":"english","language_id":38}},{"id":47480,"position":4,"audio_url":"wbw/037_048_004.mp3","verse_key":"37:48","verse_id":3836,"location":"37:48:4","text_uthmani":"عِينٌۭ","qpc_uthmani_hafs":"عِينٞ","char_type_name":"word","page_number":447,"line_number":14,"text":"عِينٞ","translation":{"text":"(having) beautiful eyes","language_name":"english","language_id":38},"transliteration":{"text":"ʿīnun","language_name":"english","language_id":38}},{"id":47481,"position":5,"audio_url":null,"verse_key":"37:48","verse_id":3836,"location":"37:48:5","text_uthmani":"٤٨","qpc_uthmani_hafs":"٤٨","char_type_name":"end","page_number":447,"line_number":14,"text":"٤٨","translation":{"text":"(48)","language_name":"english","language_id":38},"transliteration":{"text":null,"language_name":"english","language_id":38}}]},{"id":3837,"verse_number":49,"verse_key":"37:49","hizb_number":45,"rub_el_hizb_number":179,"ruku_number":389,"manzil_number":6,"sajdah_number":null,"page_number":447,"juz_number":23,"words":[{"id":48157,"position":1,"audio_url":"wbw/037_049_001.mp3","verse_key":"37:49","verse_id":3837,"location":"37:49:1","text_uthmani":"كَأَنَّهُنَّ","qpc_uthmani_hafs":"كَأَنَّهُنَّ","char_type_name":"word","page_number":447,"line_number":14,"text":"كَأَنَّهُنَّ","translation":{"text":"As if they were","language_name":"english","language_id":38},"transliteration":{"text":"ka-annahunna","language_name":"english","language_id":38}},{"id":48158,"position":2,"audio_url":"wbw/037_049_002.mp3","verse_key":"37:49","verse_id":3837,"location":"37:49:2","text_uthmani":"بَيْضٌۭ","qpc_uthmani_hafs":"بَيۡضٞ","char_type_name":"word","page_number":447,"line_number":14,"text":"بَيۡضٞ","translation":{"text":"eggs","language_name":"english","language_id":38},"transliteration":{"text":"bayḍun","language_name":"english","language_id":38}},{"id":48159,"position":3,"audio_url":"wbw/037_049_003.mp3","verse_key":"37:49","verse_id":3837,"location":"37:49:3","text_uthmani":"مَّكْنُونٌۭ","qpc_uthmani_hafs":"مَّكۡنُونٞ","char_type_name":"word","page_number":447,"line_number":14,"text":"مَّكۡنُونٞ","translation":{"text":"well protected","language_name":"english","language_id":38},"transliteration":{"text":"maknūnun","language_name":"english","language_id":38}},{"id":48160,"position":4,"audio_url":null,"verse_key":"37:49","verse_id":3837,"location":"37:49:4","text_uthmani":"٤٩","qpc_uthmani_hafs":"٤٩","char_type_name":"end","page_number":447,"line_number":14,"text":"٤٩","translation":{"text":"(49)","language_name":"english","language_id":38},"transliteration":{"text":null,"language_name":"english","language_id":38}}]},{"id":3838,"verse_number":50,"verse_key":"37:50","hizb_number":45,"rub_el_hizb_number":179,"ruku_number":389,"manzil_number":6,"sajdah_number":null,"page_number":447,"juz_number":23,"words":[{"id":48885,"position":1,"audio_url":"wbw/037_050_001.mp3","verse_key":"37:50","verse_id":3838,"location":"37:50:1","text_uthmani":"فَأَقْبَلَ","qpc_uthmani_hafs":"فَأَقۡبَلَ","char_type_name":"word","page_number":447,"line_number":14,"text":"فَأَقۡبَلَ","translation":{"text":"And (will) approach","language_name":"english","language_id":38},"transliteration":{"text":"fa-aqbala","language_name":"english","language_id":38}},{"id":48886,"position":2,"audio_url":"wbw/037_050_002.mp3","verse_key":"37:50","verse_id":3838,"location":"37:50:2","text_uthmani":"بَعْضُهُمْ","qpc_uthmani_hafs":"بَعۡضُهُمۡ","char_type_name":"word","page_number":447,"line_number":14,"text":"بَعۡضُهُمۡ","translation":{"text":"some of them","language_name":"english","language_id":38},"transliteration":{"text":"baʿḍuhum","language_name":"english","language_id":38}},{"id":48887,"position":3,"audio_url":"wbw/037_050_003.mp3","verse_key":"37:50","verse_id":3838,"location":"37:50:3","text_uthmani":"عَلَىٰ","qpc_uthmani_hafs":"عَلَىٰ","char_type_name":"word","page_number":447,"line_number":14,"text":"عَلَىٰ","translation":{"text":"to","language_name":"english","language_id":38},"transliteration":{"text":"ʿalā","language_name":"english","language_id":38}},{"id":48888,"position":4,"audio_url":"wbw/037_050_004.mp3","verse_key":"37:50","verse_id":3838,"location":"37:50:4","text_uthmani":"بَعْضٍۢ","qpc_uthmani_hafs":"بَعۡضٖ","char_type_name":"word","page_number":447,"line_number":15,"text":"بَعۡضٖ","translation":{"text":"others","language_name":"english","language_id":38},"transliteration":{"text":"baʿḍin","language_name":"english","language_id":38}},{"id":48889,"position":5,"audio_url":"wbw/037_050_005.mp3","verse_key":"37:50","verse_id":3838,"location":"37:50:5","text_uthmani":"يَتَسَآءَلُونَ","qpc_uthmani_hafs":"يَتَسَآءَلُونَ","char_type_name":"word","page_number":447,"line_number":15,"text":"يَتَسَآءَلُونَ","translation":{"text":"questioning one another","language_name":"english","language_id":38},"transliteration":{"text":"yatasāalūna","language_name":"english","language_id":38}},{"id":48890,"position":6,"audio_url":null,"verse_key":"37:50","verse_id":3838,"location":"37:50:6","text_uthmani":"٥٠","qpc_uthmani_hafs":"٥٠","char_type_name":"end","page_number":447,"line_number":15,"text":"٥٠","translation":{"text":"(50)","language_name":"english","language_id":38},"transliteration":{"text":null,"language_name":"english","language_id":38}}]}],"pagination":{"per_page":10,"current_page":5,"next_page":6,"total_pages":19,"total_records":182}}
