{"verses":[{"id":3859,"verse_number":71,"verse_key":"37:71","hizb_number":45,"rub_el_hizb_number":179,"ruku_number":389,"manzil_number":6,"sajdah_number":null,"page_number":448,"juz_number":23,"words":[{"id":60326,"position":1,"audio_url":"wbw/037_071_001.mp3","verse_key":"37:71","verse_id":3859,"location":"37:71:1","text_uthmani":"وَلَقَدْ","qpc_uthmani_hafs":"وَلَقَدۡ","char_type_name":"word","page_number":448,"line_number":12,"text":"وَلَقَدۡ","translation":{"text":"And verily","language_name":"english","language_id":38},"transliteration":{"text":"walaqad","language_name":"english","language_id":38}},{"id":60327,"position":2,"audio_url":"wbw/037_071_002.mp3","verse_key":"37:71","verse_id":3859,"location":"37:71:2","text_uthmani":"ضَلَّ","qpc_uthmani_hafs":"ضَلَّ","char_type_name":"word","page_number":448,"line_number":12,"text":"ضَلَّ","translation":{"text":"went astray","language_name":"english","language_id":38},"transliteration":{"text":"ḍalla","language_name":"english","language_id":38}},{"id":60328,"position":3,"audio_url":"wbw/037_071_003.mp3","verse_key":"37:71","verse_id":3859,"location":"37:71:3","text_uthmani":"قَبْلَهُمْ","qpc_uthmani_hafs":"قَبۡلَهُمۡ","char_type_name":"word","page_number":448,"line_number":12,"text":"قَبۡلَهُمۡ","translation":{"text":"before them","language_name":"english","language_id":38},"transliteration":{"text":"qablahum","language_name":"english","language_id":38}},{"id":60329,"position":4,"audio_url":"wbw/037_071_004.mp3","verse_key":"37:71","verse_id":3859,"location":"37:71:4","text_uthmani":"أَكْثَرُ","qpc_uthmani_hafs":"أَكۡثَرُ","char_type_name":"word","page_number":448,"line_number":12,"text":"أَكۡثَرُ","translation":{"text":"most","language_name":"english","language_id":38},"transliteration":{"text":"aktharu","language_name":"english","language_id":38}},{"id":60330,"position":5,"audio_url":"wbw/037_071_005.mp3","verse_key":"37:71","verse_id":3859,"location":"37:71:5","text_uthmani":"ٱلْأَوَّلِينَ","qpc_uthmani_hafs":"ٱلۡأَوَّلِينَ","char_type_name":"word","page_number":448,"line_number":12,"text":"ٱلۡأَوَّلِينَ","translation":{"text":"(of) the former (people)","language_name":"english","language_id":38},"transliteration":{"text":"l-awalīna","language_name":"english","language_id":38}},{"id":60331,"position":6,"audio_url":null,"verse_key":"37:71","verse_id":3859,"location":"37:71:6","text_uthmani":"٧١","qpc_uthmani_hafs":"٧١","char_type_name":"end","page_number":448,"line_number":12,"text":"٧١","translation":{"text":"(71)","language_name":"english","language_id":38},"transliteration":{"text":null,"language_name":"english","language_id":38}}]},{"id":3860,"verse_number":72,"verse_key":"37:72","hizb_number":45,"rub_el_hizb_number":179,"ruku_number":389,"manzil_number":6,"sajdah_number":null,"page_number":448,"juz_number":23,"words":[{"id":60585,"position":1,"audio_url":"wbw/037_072_001.mp3","verse_key":"37:72","verse_id":3860,"location":"37:72:1","text_uthmani":"وَلَقَدْ","qpc_uthmani_hafs":"وَلَقَدۡ","char_type_name":"word","page_number":448,"line_number":12,"text":"وَلَقَدۡ","translation":{"text":"And verily","language_name":"english","language_id":38},"transliteration":{"text":"walaqad","language_name":"english","language_id":38}},{"id":60586,"position":2,"audio_url":"wbw/037_072_002.mp3","verse_key":"37:72","verse_id":3860,"location":"37:72:2","text_uthmani":"أَرْسَلْنَا","qpc_uthmani_hafs":"أَرۡسَلۡنَا","char_type_name":"word","page_number":448,"line_number":12,"text":"أَرۡسَلۡنَا","translation":{"text":"We sent","language_name":"english","language_id":38},"transliteration":{"text":"arsalnā","language_name":"english","language_id":38}},{"id":60587,"position":3,"audio_url":"wbw/037_072_003.mp3","verse_key":"37:72","verse_id":3860,"location":"37:72:3","text_uthmani":"فِيهِم","qpc_uthmani_hafs":"فِيهِم","char_type_name":"word","page_number":448,"line_number":12,"text":"فِيهِم","translation":{"text":"among them","language_name":"english","language_id":38},"transliteration":{"text":"fīhim","language_name":"english","language_id":38}},{"id":60588,"position":4,"audio_url":"wbw/037_072_004.mp3","verse_key":"37:72","verse_id":3860,"location":"37:72:4","text_uthmani":"مُّنذِرِينَ","qpc_uthmani_hafs":"مُّنذِرِينَ","char_type_name":"word","page_number":448,"line_number":13,"text":"مُّنذِرِينَ","translation":{"text":"warners","language_name":"english","language_id":38},"transliteration":{"text":"mundhirīna","language_name":"english","language_id":38}},{"id":60589,"position":5,"audio_url":null,"verse_key":"37:72","verse_id":3860,"location":"37:72:5","text_uthmani":"٧٢","qpc_uthmani_hafs":"٧٢","char_type_name":"end","page_number":448,"line_number":13,"text":"٧٢","translation":{"text":"(72)","language_name":"english","language_id":38},"transliteration":{"text":null,"language_name":"english","language_id":38}}]},{"id":3861,"verse_number":73,"verse_key":"37:73","hizb_number":45,"rub_el_hizb_number":179,"ruku_number":389,"manzil_number":6,"sajdah_number":null,"page_number":448,"juz_number":23,"words":[{"id":61362,"position":1,"audio_url":"wbw/037_073_001.mp3","verse_key":"37:73","verse_id":3861,"location":"37:73:1","text_uthmani":"فَٱنظُرْ","qpc_uthmani_hafs":"فَٱنظُرۡ","char_type_name":"word","page_number":448,"line_number":13,"text":"فَٱنظُرۡ","translation":{"text":"Then see","language_name":"english","language_id":38},"transliteration":{"text":"fa-unẓur","language_name":"english","language_id":38}},{"id":61363,"position":2,"audio_url":"wbw/037_073_002.mp3","verse_key":"37:73","verse_id":3861,"location":"37:73:2","text_uthmani":"كَيْفَ","qpc_uthmani_hafs":"كَيۡفَ","char_type_name":"word","page_number":448,"line_number":13,"text":"كَيۡفَ","translation":{"text":"how","language_name":"english","language_id":38},"transliteration":{"text":"kayfa","language_name":"english","language_id":38}},{"id":61364,"position":3,"audio_url":"wbw/037_073_003.mp3","verse_key":"37:73","verse_id":3861,"location":"37:73:3","text_uthmani":"كَانَ","qpc_uthmani_hafs":"كَانَ","char_type_name":"word","page_number":448,"line_number":13,"text":"كَانَ","translation":{"text":"was","language_name":"english","language_id":38},"transliteration":{"text":"kāna","language_name":"english","language_id":38}},{"id":61365,"position":4,"audio_url":"wbw/037_073_004.mp3","verse_key":"37:73","verse_id":3861,"location":"37:73:4","text_uthmani":"عَـٰقِبَةُ","qpc_uthmani_hafs":"عَٰقِبَةُ","char_type_name":"word","page_number":448,"line_number":13,"text":"عَٰقِبَةُ","translation":{"text":"(the) end","language_name":"english","language_id":38},"transliteration":{"text":"ʿāqibatu","language_name":"english","language_id":38}},{"id":61366,"position":5,"audio_url":"wbw/037_073_005.mp3","verse_key":"37:73","verse_id":3861,"location":"37:73:5","text_uthmani":"ٱلْمُنذَرِينَ","qpc_uthmani_hafs":"ٱلۡمُنذَرِينَ","char_type_name":"word","page_number":448,"line_number":13,"text":"ٱلۡمُنذَرِينَ","translation":{"text":"(of) those who were warned","language_name":"english","language_id":38},"transliteration":{"text":"l-mundharīna","language_name":"english","language_id":38}},{"id":61367,"position":6,"audio_url":null,"verse_key":"37:73","verse_id":3861,"location":"37:73:6","text_uthmani":"٧٣","qpc_uthmani_hafs":"٧٣","char_type_name":"end","page_number":448,"line_number":13,"text":"٧٣","translation":{"text":"(73)","language_name":"english","language_id":38},"transliteration":{"text":null,"language_name":"english","language_id":38}}]},{"id":3862,"verse_number":74,"verse_key":"37:74","hizb_number":45,"rub_el_hizb_number":179,"ruku_number":389,"manzil_number":6,"sajdah_number":null,"page_number":448,"juz_number":23,"words":[{"id":61452,"position":1,"audio_url":"wbw/037_074_001.mp3","verse_key":"37:74","verse_id":3862,"location":"37:74:1","text_uthmani":"إِلَّا","qpc_uthmani_hafs":"إِلَّا","char_type_name":"word","page_number":448,"line_number":14,"text":"إِلَّا","translation":{"text":"Except","language_name":"english","language_id":38},"transliteration":{"text":"illā","language_name":"english","language_id":38}},{"id":61453,"position":2,"audio_url":"wbw/037_074_002.mp3","verse_key":"37:74","verse_id":3862,"location":"37:74:2","text_uthmani":"عِبَادَ","qpc_uthmani_hafs":"عِبَادَ","char_type_name":"word","page_number":448,"line_number":14,"text":"عِبَادَ","translation":{"text":"(the) slaves","language_name":"english","language_id":38},"transliteration":{"text":"ʿibāda","language_name":"english","language_id":38}},{"id":61454,"position":3,"audio_url":"wbw/037_074_003.mp3","verse_key":"37:74","verse_id":3862,"location":"37:74:3","text_uthmani":"ٱللَّهِ","qpc_uthmani_hafs":"ٱللَّهِ","char_type_name":"word","page_number":448,"line_number":14,"text":"ٱللَّهِ","translation":{"text":"(of) Allah","language_name":"english","language_id":38},"transliteration":{"text":"l-lahi","language_name":"english","language_id":38}},{"id":61455,"position":4,"audio_url":"wbw/037_074_004.mp3","verse_key":"37:74","verse_id":3862,"location":"37:74:4","text_uthmani":"ٱلْمُخْلَصِينَ","qpc_uthmani_hafs":"ٱلۡمُخۡلَصِينَ","char_type_name":"word","page_number":448,"line_number":14,"text":"ٱلۡمُخۡلَصِينَ","translation":{"text":"the chosen ones","language_name":"english","language_id":38},"transliteration":{"text":"l-mukh'laṣīna","language_name":"english","language_id":38}},{"id":61456,"position":5,"audio_url":null,"verse_key":"37:74","verse_id":3862,"location":"37:74:5","text_uthmani":"٧٤","qpc_uthmani_hafs":"٧٤","char_type_name":"end","page_number":448,"line_number":14,"text":"٧٤","translation":{"text":"(74)","language_name":"english","language_id":38},"transliteration":{"text":null,"language_name":"english","language_id":38}}]},{"id":3863,"verse_number":75,"verse_key":"37:75","hizb_number":45,"rub_el_hizb_number":179,"ruku_number":390,"manzil_number":6,"sajdah_number":null,"page_number":448,"juz_number":23,"words":[{"id":62050,"position":1,"audio_url":"wbw/037_075_001.mp3","verse_key":"37:75","verse_id":3863,"location":"37:75:1","text_uthmani":"وَلَقَدْ","qpc_uthmani_hafs":"وَلَقَدۡ","char_type_name":"word","page_number":448,"line_number":14,"text":"وَلَقَدۡ","translation":{"text":"And verily","language_name":"english","language_id":38},"transliteration":{"text":"walaqad","language_name":"english","language_id":38}},{"id":62051,"position":2,"audio_url":"wbw/037_075_002.mp3","verse_key":"37:75","verse_id":3863,"location":"37:75:2","text_uthmani":"نَادَىٰنَا","qpc_uthmani_hafs":"نَادَىٰنَا","char_type_name":"word","page_number":448,"line_number":14,"text":"نَادَىٰنَا","translation":{"text":"called Us","language_name":"english","language_id":38},"transliteration":{"text":"nādānā","language_name":"english","language_id":38}},{"id":62052,"position":3,"audio_url":"wbw/037_075_003.mp3","verse_key":"37:75","verse_id":3863,"location":"37:75:3","text_uthmani":"نُوحٌۭ","qpc_uthmani_hafs":"نُوحٞ","char_type_name":"word","page_number":448,"line_number":14,"text":"نُوحٞ","translation":{"text":"Nuh","language_name":"english","language_id":38},"transliteration":{"text":"nūḥun","language_name":"english","language_id":38}},{"id":62053,"position":4,"audio_url":"wbw/037_075_004.mp3","verse_key":"37:75","verse_id":3863,"location":"37:75:4","text_uthmani":"فَلَنِعْمَ","qpc_uthmani_hafs":"فَلَنِعۡمَ","char_type_name":"word","page_number":448,"line_number":14,"text":"فَلَنِعۡمَ","translation":{"text":"and Best","language_name":"english","language_id":38},"transliteration":{"text":"falaniʿ'ma","language_name":"english","language_id":38}},{"id":62054,"position":5,"audio_url":"wbw/037_075_005.mp3","verse_key":"37:75","verse_id":3863,"location":"37:75:5","text_uthmani":"ٱلْمُجِيبُونَ","qpc_uthmani_hafs":"ٱلۡمُجِيبُونَ","char_type_name":"word","page_number":448,"line_number":15,"text":"ٱلۡمُجِيبُونَ","translation":{"text":"(are We as) Responders","language_name":"english","language_id":38},"transliteration":{"text":"l-mujībūna","language_name":"english","language_id":38}},{"id":62055,"position":6,"audio_url":null,"verse_key":"37:75","verse_id":3863,"location":"37:75:6","text_uthmani":"٧٥","qpc_uthmani_hafs":"٧٥","char_type_name":"end","page_number":448,"line_number":15,"text":"٧٥","translation":{"text":"(75)","language_name":"english","language_id":38},"transliteration":{"text":null,"language_name":"english","language_id":38}}]},{"id":3864,"verse_number":76,"verse_key":"37:76","hizb_number":45,"rub_el_hizb_number":179,"ruku_number":390,"manzil_number":6,"sajdah_number":null,"page_number":448,"juz_number":23,"words":[{"id":62353,"position":1,"audio_url":"wbw/037_076_001.mp3","verse_key":"37:76","verse_id":3864,"location":"37:76:1","text_uthmani":"وَنَجَّيْنَـٰهُ","qpc_uthmani_hafs":"وَنَجَّيۡنَٰهُ","char_type_name":"word","page_number":448,"line_number":15,"text":"وَنَجَّيۡنَٰهُ","translation":{"text":"And We saved him","language_name":"english","language_id":38},"transliteration":{"text":"wanajjaynāhu","language_name":"english","language_id":38}},{"id":62354,"position":2,"audio_url":"wbw/037_076_002.mp3","verse_key":"37:76","verse_id":3864,"location":"37:76:2","text_uthmani":"وَأَهْلَهُۥ","qpc_uthmani_hafs":"وَأَهۡلَهُۥ","char_type_name":"word","page_number":448,"line_number":15,"text":"وَأَهۡلَهُۥ","translation":{"text":"and his family","language_name":"english","language_id":38},"transliteration":{"text":"wa-ahlahu","language_name":"english","language_id":38}},{"id":62355,"position":3,"audio_url":"wbw/037_076_003.mp3","verse_key":"37:76","verse_id":3864,"location":"37:76:3","text_uthmani":"مِنَ","qpc_uthmani_hafs":"مِنَ","char_type_name":"word","page_number":448,"line_number":15,"text":"مِنَ","translation":{"text":"from","language_name":"english","language_id":38},"transliteration":{"text":"mina","language_name":"english","language_id":38}},{"id":62356,"position":4,"audio_url":"wbw/037_076_004.mp3","verse_key":"37:76","verse_id":3864,"location":"37:76:4","text_uthmani":"ٱلْكَرْبِ","qpc_uthmani_hafs":"ٱلۡكَرۡبِ","char_type_name":"word","page_number":448,"line_number":15,"text":"ٱلۡكَرۡبِ","translation":{"text":"the distress","language_name":"english","language_id":38},"transliteration":{"text":"l-karbi","language_name":"english","language_id":38}},{"id":62357,"position":5,"audio_url":"wbw/037_076_005.mp3","verse_key":"37:76","verse_id":3864,"location":"37:76:5","text_uthmani":"ٱلْعَظِيمِ","qpc_uthmani_hafs":"ٱلۡعَظِيمِ","char_type_name":"word","page_number":448,"line_number":15,"text":"ٱلۡعَظِيمِ","translation":{"text":"the great","language_name":"english","language_id":38},"transliteration":{"text":"l-ʿaẓīmi","language_name":"english","language_id":38}},{"id":62358,"position":6,"audio_url":null,"verse_key":"37:76","verse_id":3864,"location":"37:76:6","text_uthmani":"٧٦","qpc_uthmani_hafs":"٧٦","char_type_name":"end","page_number":448,"line_number":15,"text":"٧٦","translation":{"text":"(76)","language_name":"english","language_id":38},"transliteration":{"text":null,"language_name":"english","language_id":38}}]},{"id":3865,"verse_number":77,"verse_key":"37:77","hizb_number":45,"rub_el_hizb_number":179,"ruku_number":390,"manzil_number":6,"sajdah_number":null,"page_number":449,"juz_number":23,"words":[{"id":63163,"position":1,"audio_url":"wbw/037_077_001.mp3","verse_key":"37:77","verse_id":3865,"location":"37:77:1","text_uthmani":"وَجَعَلْنَا","qpc_uthmani_hafs":"وَجَعَلۡنَا","char_type_name":"word","page_number":449,"line_number":1,"text":"وَجَعَلۡنَا","translation":{"text":"And We made","language_name":"english","language_id":38},"transliteration":{"text":"wajaʿalnā","language_name":"english","language_id":38}},{"id":63164,"position":2,"audio_url":"wbw/037_077_002.mp3","verse_key":"37:77","verse_id":3865,"location":"37:77:2","text_uthmani":"ذُرِّيَّتَهُۥ","qpc_uthmani_hafs":"ذُرِّيَّتَهُۥ","char_type_name":"word","page_number":449,"line_number":1,"text":"ذُرِّيَّتَهُۥ","translation":{"text":"his offspring","language_name":"english","language_id":38},"transliteration":{"text":"dhurriyyatahu","language_name":"english","language_id":38}},{"id":63165,"position":3,"audio_url":"wbw/037_077_003.mp3","verse_key":"37:77","verse_id":3865,"location":"37:77:3","text_uthmani":"هُمُ","qpc_uthmani_hafs":"هُمُ","char_type_name":"word","page_number":449,"line_number":1,"text":"هُمُ","translation":{"text":"[they]","language_name":"english","language_id":38},"transliteration":{"text":"humu","language_name":"english","language_id":38}},{"id":63166,"position":4,"audio_url":"wbw/037_077_004.mp3","verse_key":"37:77","verse_id":3865,"location":"37:77:4","text_uthmani":"ٱلْبَاقِينَ","qpc_uthmani_hafs":"ٱلۡبَاقِينَ","char_type_name":"word","page_number":449,"line_number":1,"text":"ٱلۡبَاقِينَ","translation":{"text":"the survivors","language_name":"english","language_id":38},"transliteration":{"text":"l-bāqīna","language_name":"english","language_id":38}},{"id":63167,"position":5,"audio_url":null,"verse_key":"37:77","verse_id":3865,"location":"37:77:5","text_uthmani":"٧٧","qpc_uthmani_hafs":"٧٧","char_type_name":"end","page_number":449,"line_number":1,"text":"٧٧","translation":{"text":"(77)","language_name":"english","language_id":38},"transliteration":{"text":null,"language_name":"english","language_id":38}}]},{"id":3866,"verse_number":78,"verse_key":"37:78","hizb_number":45,"rub_el_hizb_number":179,"ruku_number":390,"manzil_number":6,"sajdah_number":null,"page_number":449,"juz_number":23,"words":[{"id":63683,"position":1,"audio_url":"wbw/037_078_001.mp3","verse_key":"37:78","verse_id":3866,"location":"37:78:1","text_uthmani":"وَتَرَكْنَا","qpc_uthmani_hafs":"وَتَرَكۡنَا","char_type_name":"word","page_number":449,"line_number":1,"text":"وَتَرَكۡنَا","translation":{"text":"And We left","language_name":"english","language_id":38},"transliteration":{"text":"wataraknā","language_name":"english","language_id":38}},{"id":63684,"position":2,"audio_url":"wbw/037_078_002.mp3","verse_key":"37:78","verse_id":3866,"location":"37:78:2","text_uthmani":"عَلَيْهِ","qpc_uthmani_hafs":"عَلَيۡهِ","char_type_name":"word","page_number":449,"line_number":1,"text":"عَلَيۡهِ","translation":{"text":"for him","language_name":"english","language_id":38},"transliteration":{"text":"ʿalayhi","language_name":"english","language_id":38}},{"id":63685,"position":3,"audio_url":"wbw/037_078_003.mp3","verse_key":"37:78","verse_id":3866,"location":"37:78:3","text_uthmani":"فِى","qpc_uthmani_hafs":"فِي","char_type_name":"word","page_number":449,"line_number":1,"text":"فِي","translation":{"text":"among","language_name":"english","language_id":38},"transliteration":{"text":"fī","language_name":"english","language_id":38}},{"id":63686,"position":4,"audio_url":"wbw/037_078_004.mp3","verse_key":"37:78","verse_id":3866,"location":"37:78:4","text_uthmani":"ٱلْـَٔاخِرِينَ","qpc_uthmani_hafs":"ٱلۡأٓخِرِينَ","char_type_name":"word","page_number":449,"line_number":1,"text":"ٱلۡأٓخِرِينَ","translation":{"text":"the later generations","language_name":"english","language_id":38},"transliteration":{"text":"l-ākhirīna","language_name":"english","language_id":38}},{"id":63687,"position":5,"audio_url":null,"verse_key":"37:78","verse_id":3866,"location":"37:78:5","text_uthmani":"٧٨","qpc_uthmani_hafs":"٧٨","char_type_name":"end","page_number":449,"line_number":1,"text":"٧٨","translation":{"text":"(78)","language_name":"english","language_id":38},"transliteration":{"text":null,"language_name":"english","language_id":38}}]},{"id":3867,"verse_number":79,"verse_key":"37:79","hizb_number":45,"rub_el_hizb_number":179,"ruku_number":390,"manzil_number":6,"sajdah_number":null,"page_number":449,"juz_number":23,"words":[{"id":63744,"position":1,"audio_url":"wbw/037_079_001.mp3","verse_key":"37:79","verse_id":3867,"location":"37:79:1","text_uthmani":"سَلَـٰمٌ","qpc_uthmani_hafs":"سَلَٰمٌ","char_type_name":"word","page_number":449,"line_number":1,"text":"سَلَٰمٌ","translation":{"text":"Peace be","language_name":"english","language_id":38},"transliteration":{"text":"salāmun","language_name":"english","language_id":38}},{"id":63745,"position":2,"audio_url":"wbw/037_079_002.mp3","verse_key":"37:79","verse_id":3867,"location":"37:79:2","text_uthmani":"عَلَىٰ","qpc_uthmani_hafs":"عَلَىٰ","char_type_name":"word","page_number":449,"line_number":2,"text":"عَلَىٰ","translation":{"text":"upon","language_name":"english","language_id":38},"transliteration":{"text":"ʿalā","language_name":"english","language_id":38}},{"id":63746,"position":3,"audio_url":"wbw/037_079_003.mp3","verse_key":"37:79","verse_id":3867,"location":"37:79:3","text_uthmani":"نُوحٍۢ","qpc_uthmani_hafs":"نُوحٖ","char_type_name":"word","page_number":449,"line_number":2,"text":"نُوحٖ","translation":{"text":"Nuh","language_name":"english","language_id":38},"transliteration":{"text":"nūḥin","language_name":"english","language_id":38}},{"id":63747,"position":4,"audio_url":"wbw/037_079_004.mp3","verse_key":"37:79","verse_id":3867,"location":"37:79:4","text_uthmani":"فِى","qpc_uthmani_hafs":"فِي","char_type_name":"word","page_number":449,"line_number":2,"text":"فِي","translation":{"text":"among","language_name":"english","language_id":38},"transliteration":{"text":"fī","language_name":"english","language_id":38}},{"id":63748,"position":5,"audio_url":"wbw/037_079_005.mp3","verse_key":"37:79","verse_id":3867,"location":"37:79:5","text_uthmani":"ٱلْعَـٰلَمِينَ","qpc_uthmani_hafs":"ٱلۡعَٰلَمِينَ","char_type_name":"word","page_number":449,"line_number":2,"text":"ٱلۡعَٰلَمِينَ","translation":{"text":"the worlds","language_name":"english","language_id":38},"transliteration":{"text":"l-ʿālamīna","language_name":"english","language_id":38}},{"id":63749,"position":6,"audio_url":null,"verse_key":"37:79","verse_id":3867,"location":"37:79:6","text_uthmani":"٧٩","qpc_uthmani_hafs":"٧٩","char_type_name":"end","page_number":449,"line_number":2,"text":"٧٩","translation":{"text":"(79)","language_name":"english","language_id":38},"transliteration":{"text":null,"language_name":"english","language_id":38}}]},{"id":3868,"verse_number":80,"verse_key":"37:80","hizb_number":45,"rub_el_hizb_number":179,"ruku_number":390,"manzil_number":6,"sajdah_number":null,"page_number":449,"juz_number":23,"words":[{"id":64162,"position":1,"audio_url":"wbw/037_080_001.mp3","verse_key":"37:80","verse_id":3868,"location":"37:80:1","text_uthmani":"إِنَّا","qpc_uthmani_hafs":"إِنَّا","char_type_name":"word","page_number":449,"line_number":2,"text":"إِنَّا","translation":{"text":"Indeed, We","language_name":"english","language_id":38},"transliteration":{"text":"innā","language_name":"english","language_id":38}},{"id":64163,"position":2,"audio_url":"wbw/037_080_002.mp3","verse_key":"37:80","verse_id":3868,"location":"37:80:2","text_uthmani":"كَذَٰلِكَ","qpc_uthmani_hafs":"كَذَٰلِكَ","char_type_name":"word","page_number":449,"line_number":2,"text":"كَذَٰلِكَ","translation":{"text":"thus","language_name":"english","language_id":38},"transliteration":{"text":"kadhālika","language_name":"english","language_id":38}},{"id":64164,"position":3,"audio_url":"wbw/037_080_003.mp3","verse_key":"37:80","verse_id":3868,"location":"37:80:3","text_uthmani":"نَجْزِى","qpc_uthmani_hafs":"نَجۡزِي","char_type_name":"word","page_number":449,"line_number":2,"text":"نَجۡزِي","translation":{"text":"[We] reward","language_name":"english","language_id":38},"transliteration":{"text":"najzī","language_name":"english","language_id":38}},{"id":64165,"position":4,"audio_url":"wbw/037_080_004.mp3","verse_key":"37:80","verse_id":3868,"location":"37:80:4","text_uthmani":"ٱلْمُحْسِنِينَ","qpc_uthmani_hafs":"ٱلۡمُحۡسِنِينَ","char_type_name":"word","page_number":449,"line_number":2,"text":"ٱلۡمُحۡسِنِينَ","translation":{"text":"the good-doers","language_name":"english","language_id":38},"transliteration":{"text":"l-muḥ'sinīna","language_name":"english","language_id":38}},{"id":64166,"position":5,"audio_url":null,"verse_key":"37:80","verse_id":3868,"location":"37:80:5","text_uthmani":"٨٠","qpc_uthmani_hafs":"٨٠","char_type_name":"end","page_number":449,"line_number":2,"text":"٨٠","translation":{"text":"(80)","language_name":"english","language_id":38},"transliteration":{"text":null,"language_name":"english","language_id":38}}]}],"pagination":{"per_page":10,"current_page":8,"next_page":9,"total_pages":19,"total_records":182}}
