{"verses":[{"id":3869,"verse_number":81,"verse_key":"37:81","hizb_number":45,"rub_el_hizb_number":179,"ruku_number":390,"manzil_number":6,"sajdah_number":null,"page_number":449,"juz_number":23,"words":[{"id":64867,"position":1,"audio_url":"wbw/037_081_001.mp3","verse_key":"37:81","verse_id":3869,"location":"37:81:1","text_uthmani":"إِنَّهُۥ","qpc_uthmani_hafs":"إِنَّهُۥ","char_type_name":"word","page_number":449,"line_number":2,"text":"إِنَّهُۥ","translation":{"text":"Indeed, he","language_name":"english","language_id":38},"transliteration":{"text":"innahu","language_name":"english","language_id":38}},{"id":64868,"position":2,"audio_url":"wbw/037_081_002.mp3","verse_key":"37:81","verse_id":3869,"location":"37:81:2","text_uthmani":"مِنْ","qpc_uthmani_hafs":"مِنۡ","char_type_name":"word","page_number":449,"line_number":3,"text":"مِنۡ","translation":{"text":"(was) of","language_name":"english","language_id":38},"transliteration":{"text":"min","language_name":"english","language_id":38}},{"id":64869,"position":3,"audio_url":"wbw/037_081_003.mp3","verse_key":"37:81","verse_id":3869,"location":"37:81:3","text_uthmani":"عِبَادِنَا","qpc_uthmani_hafs":"عِبَادِنَا","char_type_name":"word","page_number":449,"line_number":3,"text":"عِبَادِنَا","translation":{"text":"Our slaves","language_name":"english","language_id":38},"transliteration":{"text":"ʿibādinā","language_name":"english","language_id":38}},{"id":64870,"position":4,"audio_url":"wbw/037_081_004.mp3","verse_key":"37:81","verse_id":3869,"location":"37:81:4","text_uthmani":"ٱلْمُؤْمِنِينَ","qpc_uthmani_hafs":"ٱلۡمُؤۡمِنِينَ","char_type_name":"word","page_number":449,"line_number":3,"text":"ٱلۡمُؤۡمِنِينَ","translation":{"text":"believing","language_name":"english","language_id":38},"transliteration":{"text":"l-mu'minīna","language_name":"english","language_id":38}},{"id":64871,"position":5,"audio_url":null,"verse_key":"37:81","verse_id":3869,"location":"37:81:5","text_uthmani":"٨١","qpc_uthmani_hafs":"٨١","char_type_name":"end","page_number":449,"line_number":3,"text":"٨١","translation":{"text":"(81)","language_name":"english","language_id":38},"transliteration":{"text":null,"language_name":"english","language_id":38}}]},{"id":3870,"verse_number":82,"verse_key":"37:82","hizb_number":45,"rub_el_hizb_number":179,"ruku_number":390,"manzil_number":6,"sajdah_number":null,"page_number":449,"juz_number":23,"words":[{"id":65037,"position":1,"audio_url":"wbw/037_082_001.mp3","verse_key":"37:82","verse_id":3870,"location":"37:82:1","text_uthmani":"ثُمَّ","qpc_uthmani_hafs":"ثُمَّ","char_type_name":"word","page_number":449,"line_number":3,"text":"ثُمَّ","translation":{"text":"Then","language_name":"english","language_id":38},"transliteration":{"text":"thumma","language_name":"english","language_id":38}},{"id":65038,"position":2,"audio_url":"wbw/037_082_002.mp3","verse_key":"37:82","verse_id":3870,"location":"37:82:2","text_uthmani":"أَغْرَقْنَا","qpc_uthmani_hafs":"أَغۡرَقۡنَا","char_type_name":"word","page_number":449,"line_number":3,"text":"أَغۡرَقۡنَا","translation":{"text":"We drowned","language_name":"english","language_id":38},"transliteration":{"text":"aghraqnā","language_name":"english","language_id":38}},{"id":65039,"position":3,"audio_url":"wbw/037_082_003.mp3","verse_key":"37:82","verse_id":3870,"location":"37:82:3","text_uthmani":"ٱلْـَٔاخَرِينَ","qpc_uthmani_hafs":"ٱلۡأٓخَرِينَ","char_type_name":"word","page_number":449,"line_number":3,"text":"ٱلۡأٓخَرِينَ","translation":{"text":"the others","language_name":"english","language_id":38},"transliteration":{"text":"l-ākharīna","language_name":"english","language_id":38}},{"id":65040,"position":4,"audio_url":null,"verse_key":"37:82","verse_id":3870,"location":"37:82:4","text_uthmani":"٨٢","qpc_uthmani_hafs":"٨٢","char_type_name":"end","page_number":449,"line_number":3,"text":"٨٢","translation":{"text":"(82)","language_name":"english","language_id":38},"transliteration":{"text":null,"language_name":"english","language_id":38}}]},{"id":3871,"verse_number":83,"verse_key":"37:83","hizb_number":45,"rub_el_hizb_number":180,"ruku_number":390,"manzil_number":6,"sajdah_number":null,"page_number":449,"juz_number":23,"words":[{"id":65354,"position":1,"audio_url":"wbw/037_083_002.mp3","verse_key":"37:83","verse_id":3871,"location":"37:83:1","text_uthmani":"۞ وَإِنَّ","qpc_uthmani_hafs":"۞ وَإِنَّ","char_type_name":"word","page_number":449,"line_number":3,"text":"۞ وَإِنَّ","translation":{"text":"And indeed","language_name":"english","language_id":38},"transliteration":{"text":"wa-inna","language_name":"english","language_id":38}},{"id":65355,"position":2,"audio_url":"wbw/037_083_003.mp3","verse_key":"37:83","verse_id":3871,"location":"37:83:2","text_uthmani":"مِن","qpc_uthmani_hafs":"مِن","char_type_name":"word","page_number":449,"line_number":3,"text":"مِن","translation":{"text":"among","language_name":"english","language_id":38},"transliteration":{"text":"min","language_name":"english","language_id":38}},{"id":65356,"position":3,"audio_url":"wbw/037_083_004.mp3","verse_key":"37:83","verse_id":3871,"location":"37:83:3","text_uthmani":"شِيعَتِهِۦ","qpc_uthmani_hafs":"شِيعَتِهِۦ","char_type_name":"word","page_number":449,"line_number":4,"text":"شِيعَتِهِۦ","translation":{"text":"his kind","language_name":"english","language_id":38},"transliteration":{"text":"shīʿatihi","language_name":"english","language_id":38}},{"id":65357,"position":4,"audio_url":"wbw/037_083_005.mp3","verse_key":"37:83","verse_id":3871,"location":"37:83:4","text_uthmani":"لَإِبْرَٰهِيمَ","qpc_uthmani_hafs":"لَإِبۡرَٰهِيمَ","char_type_name":"word","page_number":449,"line_number":4,"text":"لَإِبۡرَٰهِيمَ","translation":{"text":"(was) surely Ibrahim","language_name":"english","language_id":38},"transliteration":{"text":"la-ib'rāhīma","language_name":"english","language_id":38}},{"id":65358,"position":5,"audio_url":null,"verse_key":"37:83","verse_id":3871,"location":"37:83:5","text_uthmani":"٨٣","qpc_uthmani_hafs":"٨٣","char_type_name":"end","page_number":449,"line_number":4,"text":"٨٣","translation":{"text":"(83)","language_name":"english","language_id":38},"transliteration":{"text":null,"language_name":"english","language_id":38}}]},{"id":3872,"verse_number":84,"verse_key":"37:84","hizb_number":45,"rub_el_hizb_number":180,"ruku_number":390,"manzil_number":6,"sajdah_number":null,"page_number":449,"juz_number":23,"words":[{"id":65615,"position":1,"audio_url":"wbw/037_084_001.mp3","verse_key":"37:84","verse_id":3872,"location":"37:84:1","text_uthmani":"إِذْ","qpc_uthmani_hafs":"إِذۡ","char_type_name":"word","page_number":449,"line_number":4,"text":"إِذۡ","translation":{"text":"When","language_name":"english","language_id":38},"transliteration":{"text":"idh","language_name":"english","language_id":38}},{"id":65616,"position":2,"audio_url":"wbw/037_084_002.mp3","verse_key":"37:84","verse_id":3872,"location":"37:84:2","text_uthmani":"جَآءَ","qpc_uthmani_hafs":"جَآءَ","char_type_name":"word","page_number":449,"line_number":4,"text":"جَآءَ","translation":{"text":"he came","language_name":"english","language_id":38},"transliteration":{"text":"jāa","language_name":"english","language_id":38}},{"id":65617,"position":3,"audio_url":"wbw/037_084_003.mp3","verse_key":"37:84","verse_id":3872,"location":"37:84:3","text_uthmani":"رَبَّهُۥ","qpc_uthmani_hafs":"رَبَّهُۥ","char_type_name":"word","page_number":449,"line_number":4,"text":"رَبَّهُۥ","translation":{"text":"(to) his Lord","language_name":"english","language_id":38},"transliteration":{"text":"rabbahu","language_name":"english","language_id":38}},{"id":65618,"position":4,"audio_url":"wbw/037_084_004.mp3","verse_key":"37:84","verse_id":3872,"location":"37:84:4","text_uthmani":"بِقَلْبٍۢ","qpc_uthmani_hafs":"بِقَلۡبٖ","char_type_name":"word","page_number":449,"line_number":4,"text":"بِقَلۡبٖ","translation":{"text":"with a heart","language_name":"english","language_id":38},"transliteration":{"text":"biqalbin","language_name":"english","language_id":38}},{"id":65619,"position":5,"audio_url":"wbw/037_084_005.mp3","verse_key":"37:84","verse_id":3872,"location":"37:84:5","text_uthmani":"سَلِيمٍ","qpc_uthmani_hafs":"سَلِيمٍ","char_type_name":"word","page_number":449,"line_number":4,"text":"سَلِيمٍ","translation":{"text":"sound","language_name":"english","language_id":38},"transliteration":{"text":"salīmin","language_name":"english","language_id":38}},{"id":65620,"position":6,"audio_url":null,"verse_key":"37:84","verse_id":3872,"location":"37:84:6","text_uthmani":"٨٤","qpc_uthmani_hafs":"٨٤","char_type_name":"end","page_number":449,"line_number":4,"text":"٨٤","translation":{"text":"(84)","language_name":"english","language_id":38},"transliteration":{"text":null,"language_name":"english","language_id":38}}]},{"id":3873,"verse_number":85,"verse_key":"37:85","hizb_number":45,"rub_el_hizb_number":180,"ruku_number":390,"manzil_number":6,"sajdah_number":null,"page_number":449,"juz_number":23,"words":[{"id":66335,"position":1,"audio_url":"wbw/037_085_001.mp3","verse_key":"37:85","verse_id":3873,"location":"37:85:1","text_uthmani":"إِذْ","qpc_uthmani_hafs":"إِذۡ","char_type_name":"word","page_number":449,"line_number":4,"text":"إِذۡ","translation":{"text":"When","language_name":"english","language_id":38},"transliteration":{"text":"idh","language_name":"english","language_id":38}},{"id":66336,"position":2,"audio_url":"wbw/037_085_002.mp3","verse_key":"37:85","verse_id":3873,"location":"37:85:2","text_uthmani":"قَالَ","qpc_uthmani_hafs":"قَالَ","char_type_name":"word","page_number":449,"line_number":4,"text":"قَالَ","translation":{"text":"he said","language_name":"english","language_id":38},"transliteration":{"text":"qāla","language_name":"english","language_id":38}},{"id":66337,"position":3,"audio_url":"wbw/037_085_003.mp3","verse_key":"37:85","verse_id":3873,"location":"37:85:3","text_uthmani":"لِأَبِيهِ","qpc_uthmani_hafs":"لِأَبِيهِ","char_type_name":"word","page_number":449,"line_number":5,"text":"لِأَبِيهِ","translation":{"text":"to his father","language_name":"english","language_id":38},"transliteration":{"text":"li-abīhi","language_name":"english","language_id":38}},{"id":66338,"position":4,"audio_url":"wbw/037_085_004.mp3","verse_key":"37:85","verse_id":3873,"location":"37:85:4","text_uthmani":"وَقَوْمِهِۦ","qpc_uthmani_hafs":"وَقَوۡمِهِۦ","char_type_name":"word","page_number":449,"line_number":5,"text":"وَقَوۡمِهِۦ","translation":{"text":"and his people","language_name":"english","language_id":38},"transliteration":{"text":"waqawmihi","language_name":"english","language_id":38}},{"id":66339,"position":5,"audio_url":"wbw/037_085_005.mp3","verse_key":"37:85","verse_id":3873,"location":"37:85:5","text_uthmani":"مَاذَا","qpc_uthmani_hafs":"مَاذَا","char_type_name":"word","page_number":449,"line_number":5,"text":"مَاذَا","translation":{"text":"What is it","language_name":"english","language_id":38},"transliteration":{"text":"mādhā","language_name":"english","language_id":38}},{"id":66340,"position":6,"audio_url":"wbw/037_085_006.mp3","verse_key":"37:85","verse_id":3873,"location":"37:85:6","text_uthmani":"تَعْبُدُونَ","qpc_uthmani_hafs":"تَعۡبُدُونَ","char_type_name":"word","page_number":449,"line_number":5,"text":"تَعۡبُدُونَ","translation":{"text":"you worship","language_name":"english","language_id":38},"transliteration":{"text":"taʿbudūna","language_name":"english","language_id":38}},{"id":66341,"position":7,"audio_url":null,"verse_key":"37:85","verse_id":3873,"location":"37:85:7","text_uthmani":"٨٥","qpc_uthmani_hafs":"٨٥","char_type_name":"end","page_number":449,"line_number":5,"text":"٨٥","translation":{"text":"(85)","language_name":"english","language_id":38},"transliteration":{"text":null,"language_name":"english","language_id":38}}]},{"id":3874,"verse_number":86,"verse_key":"37:86","hizb_number":45,"rub_el_hizb_number":180,"ruku_number":390,"manzil_number":6,"sajdah_number":null,"page_number":449,"juz_number":23,"words":[{"id":66426,"position":1,"audio_url":"wbw/037_086_001.mp3","verse_key":"37:86","verse_id":3874,"location":"37:86:1","text_uthmani":"أَئِفْكًا","qpc_uthmani_hafs":"أَئِفۡكًا","char_type_name":"word","page_number":449,"line_number":5,"text":"أَئِفۡكًا","translation":{"text":"Is it falsehood ","language_name":"english","language_id":38},"transliteration":{"text":"a-if'kan","language_name":"english","language_id":38}},{"id":66427,"position":2,"audio_url":"wbw/037_086_002.mp3","verse_key":"37:86","verse_id":3874,"location":"37:86:2","text_uthmani":"ءَالِهَةًۭ","qpc_uthmani_hafs":"ءَالِهَةٗ","char_type_name":"word","page_number":449,"line_number":5,"text":"ءَالِهَةٗ","translation":{"text":"gods","language_name":"english","language_id":38},"transliteration":{"text":"ālihatan","language_name":"english","language_id":38}},{"id":66428,"position":3,"audio_url":"wbw/037_086_003.mp3","verse_key":"37:86","verse_id":3874,"location":"37:86:3","text_uthmani":"دُونَ","qpc_uthmani_hafs":"دُونَ","char_type_name":"word","page_number":449,"line_number":5,"text":"دُونَ","translation":{"text":"other than","language_name":"english","language_id":38},"transliteration":{"text":"dūna","language_name":"english","language_id":38}},{"id":66429,"position":4,"audio_url":"wbw/037_086_004.mp3","verse_key":"37:86","verse_id":3874,"location":"37:86:4","text_uthmani":"ٱللَّهِ","qpc_uthmani_hafs":"ٱللَّهِ","char_type_name":"word","page_number":449,"line_number":5,"text":"ٱللَّهِ","translation":{"text":"Allah ","language_name":"english","language_id":38},"transliteration":{"text":"l-lahi","language_name":"english","language_id":38}},{"id":66430,"position":5,"audio_url":"wbw/037_086_005.mp3","verse_key":"37:86","verse_id":3874,"location":"37:86:5","text_uthmani":"تُرِيدُونَ","qpc_uthmani_hafs":"تُرِيدُونَ","char_type_name":"word","page_number":449,"line_number":5,"text":"تُرِيدُونَ","translation":{"text":"(that) you desire","language_name":"english","language_id":38},"transliteration":{"text":"turīdūna","language_name":"english","language_id":38}},{"id":66431,"position":6,"audio_url":null,"verse_key":"37:86","verse_id":3874,"location":"37:86:6","text_uthmani":"٨٦","qpc_uthmani_hafs":"٨٦","char_type_name":"end","page_number":449,"line_number":6,"text":"٨٦","translation":{"text":"(86)","language_name":"english","language_id":38},"transliteration":{"text":null,"language_name":"english","language_id":38}}]},{"id":3875,"verse_number":87,"verse_key":"37:87","hizb_number":45,"rub_el_hizb_number":180,"ruku_number":390,"manzil_number":6,"sajdah_number":null,"page_number":449,"juz_number":23,"words":[{"id":66746,"position":1,"audio_url":"wbw/037_087_001.mp3","verse_key":"37:87","verse_id":3875,"location":"37:87:1","text_uthmani":"فَمَا","qpc_uthmani_hafs":"فَمَا","char_type_name":"word","page_number":449,"line_number":6,"text":"فَمَا","translation":{"text":"Then what","language_name":"english","language_id":38},"transliteration":{"text":"famā","language_name":"english","language_id":38}},{"id":66747,"position":2,"audio_url":"wbw/037_087_002.mp3","verse_key":"37:87","verse_id":3875,"location":"37:87:2","text_uthmani":"ظَنُّكُم","qpc_uthmani_hafs":"ظَنُّكُم","char_type_name":"word","page_number":449,"line_number":6,"text":"ظَنُّكُم","translation":{"text":"(do) you think","language_name":"english","language_id":38},"transliteration":{"text":"ẓannukum","language_name":"english","language_id":38}},{"id":66748,"position":3,"audio_url":"wbw/037_087_003.mp3","verse_key":"37:87","verse_id":3875,"location":"37:87:3","text_uthmani":"بِرَبِّ","qpc_uthmani_hafs":"بِرَبِّ","char_type_name":"word","page_number":449,"line_number":6,"text":"بِرَبِّ","translation":{"text":"about (the) Lord","language_name":"english","language_id":38},"transliteration":{"text":"birabbi","language_name":"english","language_id":38}},{"id":66749,"position":4,"audio_url":"wbw/037_087_004.mp3","verse_key":"37:87","verse_id":3875,"location":"37:87:4","text_uthmani":"ٱلْعَـٰلَمِينَ","qpc_uthmani_hafs":"ٱلۡعَٰلَمِينَ","char_type_name":"word","page_number":449,"line_number":6,"text":"ٱلۡعَٰلَمِينَ","translation":{"text":"(of) the worlds","language_name":"english","language_id":38},"transliteration":{"text":"l-ʿālamīna","language_name":"english","language_id":38}},{"id":66750,"position":5,"audio_url":null,"verse_key":"37:87","verse_id":3875,"location":"37:87:5","text_uthmani":"٨٧","qpc_uthmani_hafs":"٨٧","char_type_name":"end","page_number":449,"line_number":6,"text":"٨٧","translation":{"text":"(87)","language_name":"english","language_id":38},"transliteration":{"text":null,"language_name":"english","language_id":38}}]},{"id":3876,"verse_number":88,"verse_key":"37:88","hizb_number":45,"rub_el_hizb_number":180,"ruku_number":390,"manzil_number":6,"sajdah_number":null,"page_number":449,"juz_number":23,"words":[{"id":67395,"position":1,"audio_url":"wbw/037_088_001.mp3","verse_key":"37:88","verse_id":3876,"location":"37:88:1","text_uthmani":"فَنَظَرَ","qpc_uthmani_hafs":"فَنَظَرَ","char_type_name":"word","page_number":449,"line_number":6,"text":"فَنَظَرَ","translation":{"text":"Then he glanced","language_name":"english","language_id":38},"transliteration":{"text":"fanaẓara","language_name":"english","language_id":38}},{"id":67396,"position":2,"audio_url":"wbw/037_088_002.mp3","verse_key":"37:88","verse_id":3876,"location":"37:88:2","text_uthmani":"نَظْرَةًۭ","qpc_uthmani_hafs":"نَظۡرَةٗ","char_type_name":"word","page_number":449,"line_number":6,"text":"نَظۡرَةٗ","translation":{"text":"a glance","language_name":"english","language_id":38},"transliteration":{"text":"naẓratan","language_name":"english","language_id":38}},{"id":67397,"position":3,"audio_url":"wbw/037_088_003.mp3","verse_key":"37:88","verse_id":3876,"location":"37:88:3","text_uthmani":"فِى","qpc_uthmani_hafs":"فِي","char_type_name":"word","page_number":449,"line_number":6,"text":"فِي","translation":{"text":"at","language_name":"english","language_id":38},"transliteration":{"text":"fī","language_name":"english","language_id":38}},{"id":67398,"position":4,"audio_url":"wbw/037_088_004.mp3","verse_key":"37:88","verse_id":3876,"location":"37:88:4","text_uthmani":"ٱلنُّجُومِ","qpc_uthmani_hafs":"ٱلنُّجُومِ","char_type_name":"word","page_number":449,"line_number":6,"text":"ٱلنُّجُومِ","translation":{"text":"the stars","language_name":"english","language_id":38},"transliteration":{"text":"l-nujūmi","language_name":"english","language_id":38}},{"id":67399,"position":5,"audio_url":null,"verse_key":"37:88","verse_id":3876,"location":"37:88:5","text_uthmani":"٨٨","qpc_uthmani_hafs":"٨٨","char_type_name":"end","page_number":449,"line_number":6,"text":"٨٨","translation":{"text":"(88)","language_name":"english","language_id":38},"transliteration":{"text":null,"language_name":"english","language_id":38}}]},{"id":3877,"verse_number":89,"verse_key":"37:89","hizb_number":45,"rub_el_hizb_number":180,"ruku_number":390,"manzil_number":6,"sajdah_number":null,"page_number":449,"juz_number":23,"words":[{"id":67558,"position":1,"audio_url":"wbw/037_089_001.mp3","verse_key":"37:89","verse_id":3877,"location":"37:89:1","text_uthmani":"فَقَالَ","qpc_uthmani_hafs":"فَقَالَ","char_type_name":"word","page_number":449,"line_number":7,"text":"فَقَالَ","translation":{"text":"And he said","language_name":"english","language_id":38},"transliteration":{"text":"faqāla","language_name":"english","language_id":38}},{"id":67559,"position":2,"audio_url":"wbw/037_089_002.mp3","verse_key":"37:89","verse_id":3877,"location":"37:89:2","text_uthmani":"إِنِّى","qpc_uthmani_hafs":"إِنِّي","char_type_name":"word","page_number":449,"line_number":7,"text":"إِنِّي","translation":{"text":"Indeed, I am","language_name":"english","language_id":38},"transliteration":{"text":"innī","language_name":"english","language_id":38}},{"id":67560,"position":3,"audio_url":"wbw/037_089_003.mp3","verse_key":"37:89","verse_id":3877,"location":"37:89:3","text_uthmani":"سَقِيمٌۭ","qpc_uthmani_hafs":"سَقِيمٞ","char_type_name":"word","page_number":449,"line_number":7,"text":"سَقِيمٞ","translation":{"text":"sick","language_name":"english","language_id":38},"transliteration":{"text":"saqīmun","language_name":"english","language_id":38}},{"id":67561,"position":4,"audio_url":null,"verse_key":"37:89","verse_id":3877,"location":"37:89:4","text_uthmani":"٨٩","qpc_uthmani_hafs":"٨٩","char_type_name":"end","page_number":449,"line_number":7,"text":"٨٩","translation":{"text":"(89)","language_name":"english","language_id":38},"transliteration":{"text":null,"language_name":"english","language_id":38}}]},{"id":3878,"verse_number":90,"verse_key":"37:90","hizb_number":45,"rub_el_hizb_number":180,"ruku_number":390,"manzil_number":6,"sajdah_number":null,"page_number":449,"juz_number":23,"words":[{"id":68093,"position":1,"audio_url":"wbw/037_090_001.mp3","verse_key":"37:90","verse_id":3878,"location":"37:90:1","text_uthmani":"فَتَوَلَّوْا۟","qpc_uthmani_hafs":"فَتَوَلَّوۡاْ","char_type_name":"word","page_number":449,"line_number":7,"text":"فَتَوَلَّوۡاْ","translation":{"text":"So they turned away","language_name":"english","language_id":38},"transliteration":{"text":"fatawallaw","language_name":"english","language_id":38}},{"id":68094,"position":2,"audio_url":"wbw/037_090_002.mp3","verse_key":"37:90","verse_id":3878,"location":"37:90:2","text_uthmani":"عَنْهُ","qpc_uthmani_hafs":"عَنۡهُ","char_type_name":"word","page_number":449,"line_number":7,"text":"عَنۡهُ","translation":{"text":"from him","language_name":"english","language_id":38},"transliteration":{"text":"ʿanhu","language_name":"english","language_id":38}},{"id":68095,"position":3,"audio_url":"wbw/037_090_003.mp3","verse_key":"37:90","verse_id":3878,"location":"37:90:3","text_uthmani":"مُدْبِرِينَ","qpc_uthmani_hafs":"مُدۡبِرِينَ","char_type_name":"word","page_number":449,"line_number":7,"text":"مُدۡبِرِينَ","translation":{"text":"departing","language_name":"english","language_id":38},"transliteration":{"text":"mud'birīna","language_name":"english","language_id":38}},{"id":68096,"position":4,"audio_url":null,"verse_key":"37:90","verse_id":3878,"location":"37:90:4","text_uthmani":"٩٠","qpc_uthmani_hafs":"٩٠","char_type_name":"end","page_number":449,"line_number":7,"text":"٩٠","translation":{"text":"(90)","language_name":"english","language_id":38},"transliteration":{"text":null,"language_name":"english","language_id":38}}]}],"pagination":{"per_page":10,"current_page":9,"next_page":10,"total_pages":19,"total_records":182}}
