{"verses":[{"id":4001,"verse_number":31,"verse_key":"38:31","hizb_number":46,"rub_el_hizb_number":182,"ruku_number":395,"manzil_number":6,"sajdah_number":null,"page_number":455,"juz_number":23,"words":[{"id":34288,"position":1,"audio_url":"wbw/038_031_001.mp3","char_type_name":"word","page_number":455,"line_number":6,"text":"إِذْ","translation":{"text":"(স্মরণ করো) যখন","language_name":"bengali","language_id":20},"transliteration":{"text":"idh","language_name":"english","language_id":38}},{"id":34289,"position":2,"audio_url":"wbw/038_031_002.mp3","char_type_name":"word","page_number":455,"line_number":6,"text":"عُرِضَ","translation":{"text":"উপস্হিত করা হলো","language_name":"bengali","language_id":20},"transliteration":{"text":"ʿuriḍa","language_name":"english","language_id":38}},{"id":34290,"position":3,"audio_url":"wbw/038_031_003.mp3","char_type_name":"word","page_number":455,"line_number":6,"text":"عَلَيْهِ","translation":{"text":"তার সামনে","language_name":"bengali","language_id":20},"transliteration":{"text":"ʿalayhi","language_name":"english","language_id":38}},{"id":34291,"position":4,"audio_url":"wbw/038_031_004.mp3","char_type_name":"word","page_number":455,"line_number":6,"text":"بِٱلْعَشِىِّ","translation":{"text":"সন্ধ্যায়","language_name":"bengali","language_id":20},"transliteration":{"text":"bil-ʿashiyi","language_name":"english","language_id":38}},{"id":34292,"position":5,"audio_url":"wbw/038_031_005.mp3","char_type_name":"word","page_number":455,"line_number":6,"text":"ٱلصَّـٰفِنَـٰتُ","translation":{"text":"দ্রুতগামী ঘোড়াসমূহ","language_name":"bengali","language_id":20},"transliteration":{"text":"l-ṣāfinātu","language_name":"english","language_id":38}},{"id":34293,"position":6,"audio_url":"wbw/038_031_006.mp3","char_type_name":"word","page_number":455,"line_number":6,"text":"ٱلْجِيَادُ","translation":{"text":"উৎকৃষ্টমানের (ঘোড়া)","language_name":"bengali","language_id":20},"transliteration":{"text":"l-jiyādu","language_name":"english","language_id":38}},{"id":34294,"position":7,"audio_url":null,"char_type_name":"end","page_number":455,"line_number":6,"text":"٣١","translation":{"text":"(৩১)","language_name":"bengali","language_id":20},"transliteration":{"text":null,"language_name":"english","language_id":38}}]},{"id":4002,"verse_number":32,"verse_key":"38:32","hizb_number":46,"rub_el_hizb_number":182,"ruku_number":395,"manzil_number":6,"sajdah_number":null,"page_number":455,"juz_number":23,"words":[{"id":35139,"position":1,"audio_url":"wbw/038_032_001.mp3","char_type_name":"word","page_number":455,"line_number":6,"text":"فَقَالَ","translation":{"text":"তখন সে বললো","language_name":"bengali","language_id":20},"transliteration":{"text":"faqāla","language_name":"english","language_id":38}},{"id":35140,"position":2,"audio_url":"wbw/038_032_002.mp3","char_type_name":"word","page_number":455,"line_number":6,"text":"إِنِّىٓ","translation":{"text":"\"নিশ্চয়ই আমি","language_name":"bengali","language_id":20},"transliteration":{"text":"innī","language_name":"english","language_id":38}},{"id":35141,"position":3,"audio_url":"wbw/038_032_003.mp3","char_type_name":"word","page_number":455,"line_number":6,"text":"أَحْبَبْتُ","translation":{"text":"আমি ভালোবেসেছি","language_name":"bengali","language_id":20},"transliteration":{"text":"aḥbabtu","language_name":"english","language_id":38}},{"id":35142,"position":4,"audio_url":"wbw/038_032_004.mp3","char_type_name":"word","page_number":455,"line_number":7,"text":"حُبَّ","translation":{"text":"ভালোবাসা","language_name":"bengali","language_id":20},"transliteration":{"text":"ḥubba","language_name":"english","language_id":38}},{"id":35143,"position":5,"audio_url":"wbw/038_032_005.mp3","char_type_name":"word","page_number":455,"line_number":7,"text":"ٱلْخَيْرِ","translation":{"text":"(এই) সম্পদের","language_name":"bengali","language_id":20},"transliteration":{"text":"l-khayri","language_name":"english","language_id":38}},{"id":35144,"position":6,"audio_url":"wbw/038_032_006.mp3","char_type_name":"word","page_number":455,"line_number":7,"text":"عَن","translation":{"text":"কারণে","language_name":"bengali","language_id":20},"transliteration":{"text":"ʿan","language_name":"english","language_id":38}},{"id":35145,"position":7,"audio_url":"wbw/038_032_007.mp3","char_type_name":"word","page_number":455,"line_number":7,"text":"ذِكْرِ","translation":{"text":"স্মরণের","language_name":"bengali","language_id":20},"transliteration":{"text":"dhik'ri","language_name":"english","language_id":38}},{"id":35146,"position":8,"audio_url":"wbw/038_032_008.mp3","char_type_name":"word","page_number":455,"line_number":7,"text":"رَبِّى","translation":{"text":"আমার রবের\"","language_name":"bengali","language_id":20},"transliteration":{"text":"rabbī","language_name":"english","language_id":38}},{"id":35147,"position":9,"audio_url":"wbw/038_032_009.mp3","char_type_name":"word","page_number":455,"line_number":7,"text":"حَتَّىٰ","translation":{"text":"এমনকি (যখন)","language_name":"bengali","language_id":20},"transliteration":{"text":"ḥattā","language_name":"english","language_id":38}},{"id":35148,"position":10,"audio_url":"wbw/038_032_010.mp3","char_type_name":"word","page_number":455,"line_number":7,"text":"تَوَارَتْ","translation":{"text":"অদৃশ্য হয়ে গেলো","language_name":"bengali","language_id":20},"transliteration":{"text":"tawārat","language_name":"english","language_id":38}},{"id":35149,"position":11,"audio_url":"wbw/038_032_011.mp3","char_type_name":"word","page_number":455,"line_number":7,"text":"بِٱلْحِجَابِ","translation":{"text":"(চোখের) আড়ালে","language_name":"bengali","language_id":20},"transliteration":{"text":"bil-ḥijābi","language_name":"english","language_id":38}},{"id":35150,"position":12,"audio_url":null,"char_type_name":"end","page_number":455,"line_number":7,"text":"٣٢","translation":{"text":"(৩২)","language_name":"bengali","language_id":20},"transliteration":{"text":null,"language_name":"english","language_id":38}}]},{"id":4003,"verse_number":33,"verse_key":"38:33","hizb_number":46,"rub_el_hizb_number":182,"ruku_number":395,"manzil_number":6,"sajdah_number":null,"page_number":455,"juz_number":23,"words":[{"id":35495,"position":1,"audio_url":"wbw/038_033_001.mp3","char_type_name":"word","page_number":455,"line_number":7,"text":"رُدُّوهَا","translation":{"text":"\"(সে বললো) সেগুলো ফিরিয়ে আনো","language_name":"bengali","language_id":20},"transliteration":{"text":"ruddūhā","language_name":"english","language_id":38}},{"id":35496,"position":2,"audio_url":"wbw/038_033_002.mp3","char_type_name":"word","page_number":455,"line_number":7,"text":"عَلَىَّ ۖ","translation":{"text":"আমার কাছে\"","language_name":"bengali","language_id":20},"transliteration":{"text":"ʿalayya","language_name":"english","language_id":38}},{"id":35498,"position":3,"audio_url":"wbw/038_033_004.mp3","char_type_name":"word","page_number":455,"line_number":8,"text":"فَطَفِقَ","translation":{"text":"সে অতঃপর শুরু করলো","language_name":"bengali","language_id":20},"transliteration":{"text":"faṭafiqa","language_name":"english","language_id":38}},{"id":35499,"position":4,"audio_url":"wbw/038_033_005.mp3","char_type_name":"word","page_number":455,"line_number":8,"text":"مَسْحًۢا","translation":{"text":"(হাত) বুলাতে","language_name":"bengali","language_id":20},"transliteration":{"text":"masḥan","language_name":"english","language_id":38}},{"id":35500,"position":5,"audio_url":"wbw/038_033_006.mp3","char_type_name":"word","page_number":455,"line_number":8,"text":"بِٱلسُّوقِ","translation":{"text":"(ঘোড়ার) পাগুলোর উপর","language_name":"bengali","language_id":20},"transliteration":{"text":"bil-sūqi","language_name":"english","language_id":38}},{"id":35501,"position":6,"audio_url":"wbw/038_033_007.mp3","char_type_name":"word","page_number":455,"line_number":8,"text":"وَٱلْأَعْنَاقِ","translation":{"text":"ও ঘাড়ে","language_name":"bengali","language_id":20},"transliteration":{"text":"wal-aʿnāqi","language_name":"english","language_id":38}},{"id":35502,"position":7,"audio_url":null,"char_type_name":"end","page_number":455,"line_number":8,"text":"٣٣","translation":{"text":"(৩৩)","language_name":"bengali","language_id":20},"transliteration":{"text":null,"language_name":"english","language_id":38}}]},{"id":4004,"verse_number":34,"verse_key":"38:34","hizb_number":46,"rub_el_hizb_number":182,"ruku_number":395,"manzil_number":6,"sajdah_number":null,"page_number":455,"juz_number":23,"words":[{"id":36861,"position":1,"audio_url":"wbw/038_034_001.mp3","char_type_name":"word","page_number":455,"line_number":8,"text":"وَلَقَدْ","translation":{"text":"এবং নিশ্চয়ই","language_name":"bengali","language_id":20},"transliteration":{"text":"walaqad","language_name":"english","language_id":38}},{"id":36862,"position":2,"audio_url":"wbw/038_034_002.mp3","char_type_name":"word","page_number":455,"line_number":8,"text":"فَتَنَّا","translation":{"text":"আমরা পরীক্ষা করেছিলাম","language_name":"bengali","language_id":20},"transliteration":{"text":"fatannā","language_name":"english","language_id":38}},{"id":36863,"position":3,"audio_url":"wbw/038_034_003.mp3","char_type_name":"word","page_number":455,"line_number":8,"text":"سُلَيْمَـٰنَ","translation":{"text":"সুলায়মানকে","language_name":"bengali","language_id":20},"transliteration":{"text":"sulaymāna","language_name":"english","language_id":38}},{"id":36864,"position":4,"audio_url":"wbw/038_034_004.mp3","char_type_name":"word","page_number":455,"line_number":9,"text":"وَأَلْقَيْنَا","translation":{"text":"ও আমরা রেখে দিলাম","language_name":"bengali","language_id":20},"transliteration":{"text":"wa-alqaynā","language_name":"english","language_id":38}},{"id":36865,"position":5,"audio_url":"wbw/038_034_005.mp3","char_type_name":"word","page_number":455,"line_number":9,"text":"عَلَىٰ","translation":{"text":"উপর","language_name":"bengali","language_id":20},"transliteration":{"text":"ʿalā","language_name":"english","language_id":38}},{"id":36866,"position":6,"audio_url":"wbw/038_034_006.mp3","char_type_name":"word","page_number":455,"line_number":9,"text":"كُرْسِيِّهِۦ","translation":{"text":"তার আসনের","language_name":"bengali","language_id":20},"transliteration":{"text":"kur'siyyihi","language_name":"english","language_id":38}},{"id":36867,"position":7,"audio_url":"wbw/038_034_007.mp3","char_type_name":"word","page_number":455,"line_number":9,"text":"جَسَدًۭا","translation":{"text":"একটি দেহ","language_name":"bengali","language_id":20},"transliteration":{"text":"jasadan","language_name":"english","language_id":38}},{"id":36868,"position":8,"audio_url":"wbw/038_034_008.mp3","char_type_name":"word","page_number":455,"line_number":9,"text":"ثُمَّ","translation":{"text":"অতঃপর","language_name":"bengali","language_id":20},"transliteration":{"text":"thumma","language_name":"english","language_id":38}},{"id":36869,"position":9,"audio_url":"wbw/038_034_009.mp3","char_type_name":"word","page_number":455,"line_number":9,"text":"أَنَابَ","translation":{"text":"সে মুখ ফেরালো","language_name":"bengali","language_id":20},"transliteration":{"text":"anāba","language_name":"english","language_id":38}},{"id":36870,"position":10,"audio_url":null,"char_type_name":"end","page_number":455,"line_number":9,"text":"٣٤","translation":{"text":"(৩৪)","language_name":"bengali","language_id":20},"transliteration":{"text":null,"language_name":"english","language_id":38}}]},{"id":4005,"verse_number":35,"verse_key":"38:35","hizb_number":46,"rub_el_hizb_number":182,"ruku_number":395,"manzil_number":6,"sajdah_number":null,"page_number":455,"juz_number":23,"words":[{"id":37695,"position":1,"audio_url":"wbw/038_035_001.mp3","char_type_name":"word","page_number":455,"line_number":9,"text":"قَالَ","translation":{"text":"সে বললো","language_name":"bengali","language_id":20},"transliteration":{"text":"qāla","language_name":"english","language_id":38}},{"id":37696,"position":2,"audio_url":"wbw/038_035_002.mp3","char_type_name":"word","page_number":455,"line_number":9,"text":"رَبِّ","translation":{"text":"\"হে আমার রব","language_name":"bengali","language_id":20},"transliteration":{"text":"rabbi","language_name":"english","language_id":38}},{"id":37697,"position":3,"audio_url":"wbw/038_035_003.mp3","char_type_name":"word","page_number":455,"line_number":9,"text":"ٱغْفِرْ","translation":{"text":"মাফ করো","language_name":"bengali","language_id":20},"transliteration":{"text":"igh'fir","language_name":"english","language_id":38}},{"id":37698,"position":4,"audio_url":"wbw/038_035_004.mp3","char_type_name":"word","page_number":455,"line_number":9,"text":"لِى","translation":{"text":"আমাকে","language_name":"bengali","language_id":20},"transliteration":{"text":"lī","language_name":"english","language_id":38}},{"id":37699,"position":5,"audio_url":"wbw/038_035_005.mp3","char_type_name":"word","page_number":455,"line_number":9,"text":"وَهَبْ","translation":{"text":"ও দাও","language_name":"bengali","language_id":20},"transliteration":{"text":"wahab","language_name":"english","language_id":38}},{"id":37700,"position":6,"audio_url":"wbw/038_035_006.mp3","char_type_name":"word","page_number":455,"line_number":10,"text":"لِى","translation":{"text":"আমাকে","language_name":"bengali","language_id":20},"transliteration":{"text":"lī","language_name":"english","language_id":38}},{"id":37701,"position":7,"audio_url":"wbw/038_035_007.mp3","char_type_name":"word","page_number":455,"line_number":10,"text":"مُلْكًۭا","translation":{"text":"(এমন) রাজত্ব","language_name":"bengali","language_id":20},"transliteration":{"text":"mul'kan","language_name":"english","language_id":38}},{"id":37702,"position":8,"audio_url":"wbw/038_035_008.mp3","char_type_name":"word","page_number":455,"line_number":10,"text":"لَّا","translation":{"text":"না","language_name":"bengali","language_id":20},"transliteration":{"text":"lā","language_name":"english","language_id":38}},{"id":37703,"position":9,"audio_url":"wbw/038_035_009.mp3","char_type_name":"word","page_number":455,"line_number":10,"text":"يَنۢبَغِى","translation":{"text":"শোভনীয় হবে (যা)","language_name":"bengali","language_id":20},"transliteration":{"text":"yanbaghī","language_name":"english","language_id":38}},{"id":37704,"position":10,"audio_url":"wbw/038_035_010.mp3","char_type_name":"word","page_number":455,"line_number":10,"text":"لِأَحَدٍۢ","translation":{"text":"কারও জন্যে","language_name":"bengali","language_id":20},"transliteration":{"text":"li-aḥadin","language_name":"english","language_id":38}},{"id":37705,"position":11,"audio_url":"wbw/038_035_011.mp3","char_type_name":"word","page_number":455,"line_number":10,"text":"مِّنۢ","translation":{"text":"থেকে","language_name":"bengali","language_id":20},"transliteration":{"text":"min","language_name":"english","language_id":38}},{"id":37706,"position":12,"audio_url":"wbw/038_035_012.mp3","char_type_name":"word","page_number":455,"line_number":10,"text":"بَعْدِىٓ ۖ","translation":{"text":"আমার পরে","language_name":"bengali","language_id":20},"transliteration":{"text":"baʿdī","language_name":"english","language_id":38}},{"id":37708,"position":13,"audio_url":"wbw/038_035_014.mp3","char_type_name":"word","page_number":455,"line_number":10,"text":"إِنَّكَ","translation":{"text":"তুমি নিশ্চয়ই","language_name":"bengali","language_id":20},"transliteration":{"text":"innaka","language_name":"english","language_id":38}},{"id":37709,"position":14,"audio_url":"wbw/038_035_015.mp3","char_type_name":"word","page_number":455,"line_number":10,"text":"أَنتَ","translation":{"text":"তুমিই","language_name":"bengali","language_id":20},"transliteration":{"text":"anta","language_name":"english","language_id":38}},{"id":37710,"position":15,"audio_url":"wbw/038_035_016.mp3","char_type_name":"word","page_number":455,"line_number":10,"text":"ٱلْوَهَّابُ","translation":{"text":"মহাদাতা\"","language_name":"bengali","language_id":20},"transliteration":{"text":"l-wahābu","language_name":"english","language_id":38}},{"id":37711,"position":16,"audio_url":null,"char_type_name":"end","page_number":455,"line_number":10,"text":"٣٥","translation":{"text":"(৩৫)","language_name":"bengali","language_id":20},"transliteration":{"text":null,"language_name":"english","language_id":38}}]},{"id":4006,"verse_number":36,"verse_key":"38:36","hizb_number":46,"rub_el_hizb_number":182,"ruku_number":395,"manzil_number":6,"sajdah_number":null,"page_number":455,"juz_number":23,"words":[{"id":37948,"position":1,"audio_url":"wbw/038_036_001.mp3","char_type_name":"word","page_number":455,"line_number":11,"text":"فَسَخَّرْنَا","translation":{"text":"আমরা তখন অধীন করে দিলাম","language_name":"bengali","language_id":20},"transliteration":{"text":"fasakharnā","language_name":"english","language_id":38}},{"id":37949,"position":2,"audio_url":"wbw/038_036_002.mp3","char_type_name":"word","page_number":455,"line_number":11,"text":"لَهُ","translation":{"text":"তার জন্যে","language_name":"bengali","language_id":20},"transliteration":{"text":"lahu","language_name":"english","language_id":38}},{"id":37950,"position":3,"audio_url":"wbw/038_036_003.mp3","char_type_name":"word","page_number":455,"line_number":11,"text":"ٱلرِّيحَ","translation":{"text":"বাতাসকে","language_name":"bengali","language_id":20},"transliteration":{"text":"l-rīḥa","language_name":"english","language_id":38}},{"id":37951,"position":4,"audio_url":"wbw/038_036_004.mp3","char_type_name":"word","page_number":455,"line_number":11,"text":"تَجْرِى","translation":{"text":"বয়ে যেতো","language_name":"bengali","language_id":20},"transliteration":{"text":"tajrī","language_name":"english","language_id":38}},{"id":37952,"position":5,"audio_url":"wbw/038_036_005.mp3","char_type_name":"word","page_number":455,"line_number":11,"text":"بِأَمْرِهِۦ","translation":{"text":"তার আদেশে","language_name":"bengali","language_id":20},"transliteration":{"text":"bi-amrihi","language_name":"english","language_id":38}},{"id":37953,"position":6,"audio_url":"wbw/038_036_006.mp3","char_type_name":"word","page_number":455,"line_number":11,"text":"رُخَآءً","translation":{"text":"গতিতে","language_name":"bengali","language_id":20},"transliteration":{"text":"rukhāan","language_name":"english","language_id":38}},{"id":37954,"position":7,"audio_url":"wbw/038_036_007.mp3","char_type_name":"word","page_number":455,"line_number":11,"text":"حَيْثُ","translation":{"text":"যেখানে","language_name":"bengali","language_id":20},"transliteration":{"text":"ḥaythu","language_name":"english","language_id":38}},{"id":37955,"position":8,"audio_url":"wbw/038_036_008.mp3","char_type_name":"word","page_number":455,"line_number":11,"text":"أَصَابَ","translation":{"text":"তিনি চাইতেন","language_name":"bengali","language_id":20},"transliteration":{"text":"aṣāba","language_name":"english","language_id":38}},{"id":37956,"position":9,"audio_url":null,"char_type_name":"end","page_number":455,"line_number":11,"text":"٣٦","translation":{"text":"(৩৬)","language_name":"bengali","language_id":20},"transliteration":{"text":null,"language_name":"english","language_id":38}}]},{"id":4007,"verse_number":37,"verse_key":"38:37","hizb_number":46,"rub_el_hizb_number":182,"ruku_number":395,"manzil_number":6,"sajdah_number":null,"page_number":455,"juz_number":23,"words":[{"id":39430,"position":1,"audio_url":"wbw/038_037_001.mp3","char_type_name":"word","page_number":455,"line_number":11,"text":"وَٱلشَّيَـٰطِينَ","translation":{"text":"এবং শয়তানগুলোকেও (অধীন করেছিলাম)","language_name":"bengali","language_id":20},"transliteration":{"text":"wal-shayāṭīna","language_name":"english","language_id":38}},{"id":39431,"position":2,"audio_url":"wbw/038_037_002.mp3","char_type_name":"word","page_number":455,"line_number":12,"text":"كُلَّ","translation":{"text":"প্রত্যেকে (যারা ছিলো)","language_name":"bengali","language_id":20},"transliteration":{"text":"kulla","language_name":"english","language_id":38}},{"id":39432,"position":3,"audio_url":"wbw/038_037_003.mp3","char_type_name":"word","page_number":455,"line_number":12,"text":"بَنَّآءٍۢ","translation":{"text":"স্হপতি","language_name":"bengali","language_id":20},"transliteration":{"text":"bannāin","language_name":"english","language_id":38}},{"id":39433,"position":4,"audio_url":"wbw/038_037_004.mp3","char_type_name":"word","page_number":455,"line_number":12,"text":"وَغَوَّاصٍۢ","translation":{"text":"ও ডুবুরী","language_name":"bengali","language_id":20},"transliteration":{"text":"waghawwāṣin","language_name":"english","language_id":38}},{"id":39434,"position":5,"audio_url":null,"char_type_name":"end","page_number":455,"line_number":12,"text":"٣٧","translation":{"text":"(৩৭)","language_name":"bengali","language_id":20},"transliteration":{"text":null,"language_name":"english","language_id":38}}]},{"id":4008,"verse_number":38,"verse_key":"38:38","hizb_number":46,"rub_el_hizb_number":182,"ruku_number":395,"manzil_number":6,"sajdah_number":null,"page_number":455,"juz_number":23,"words":[{"id":40247,"position":1,"audio_url":"wbw/038_038_001.mp3","char_type_name":"word","page_number":455,"line_number":12,"text":"وَءَاخَرِينَ","translation":{"text":"এবং অন্যান্যদেরকে","language_name":"bengali","language_id":20},"transliteration":{"text":"waākharīna","language_name":"english","language_id":38}},{"id":40248,"position":2,"audio_url":"wbw/038_038_002.mp3","char_type_name":"word","page_number":455,"line_number":12,"text":"مُقَرَّنِينَ","translation":{"text":"আবদ্ধ (করলাম)","language_name":"bengali","language_id":20},"transliteration":{"text":"muqarranīna","language_name":"english","language_id":38}},{"id":40249,"position":3,"audio_url":"wbw/038_038_003.mp3","char_type_name":"word","page_number":455,"line_number":12,"text":"فِى","translation":{"text":"মধ্যে","language_name":"bengali","language_id":20},"transliteration":{"text":"fī","language_name":"english","language_id":38}},{"id":40250,"position":4,"audio_url":"wbw/038_038_004.mp3","char_type_name":"word","page_number":455,"line_number":12,"text":"ٱلْأَصْفَادِ","translation":{"text":"শেকলসমূহের","language_name":"bengali","language_id":20},"transliteration":{"text":"l-aṣfādi","language_name":"english","language_id":38}},{"id":40251,"position":5,"audio_url":null,"char_type_name":"end","page_number":455,"line_number":12,"text":"٣٨","translation":{"text":"(৩৮)","language_name":"bengali","language_id":20},"transliteration":{"text":null,"language_name":"english","language_id":38}}]},{"id":4009,"verse_number":39,"verse_key":"38:39","hizb_number":46,"rub_el_hizb_number":182,"ruku_number":395,"manzil_number":6,"sajdah_number":null,"page_number":455,"juz_number":23,"words":[{"id":40995,"position":1,"audio_url":"wbw/038_039_001.mp3","char_type_name":"word","page_number":455,"line_number":12,"text":"هَـٰذَا","translation":{"text":"\"(আমি বললাম) এটা","language_name":"bengali","language_id":20},"transliteration":{"text":"hādhā","language_name":"english","language_id":38}},{"id":40996,"position":2,"audio_url":"wbw/038_039_002.mp3","char_type_name":"word","page_number":455,"line_number":13,"text":"عَطَآؤُنَا","translation":{"text":"আমাদের দান","language_name":"bengali","language_id":20},"transliteration":{"text":"ʿaṭāunā","language_name":"english","language_id":38}},{"id":40997,"position":3,"audio_url":"wbw/038_039_003.mp3","char_type_name":"word","page_number":455,"line_number":13,"text":"فَٱمْنُنْ","translation":{"text":"সুতরাং দান করো (যাকে চাও)","language_name":"bengali","language_id":20},"transliteration":{"text":"fa-um'nun","language_name":"english","language_id":38}},{"id":40998,"position":4,"audio_url":"wbw/038_039_004.mp3","char_type_name":"word","page_number":455,"line_number":13,"text":"أَوْ","translation":{"text":"অথবা","language_name":"bengali","language_id":20},"transliteration":{"text":"aw","language_name":"english","language_id":38}},{"id":40999,"position":5,"audio_url":"wbw/038_039_005.mp3","char_type_name":"word","page_number":455,"line_number":13,"text":"أَمْسِكْ","translation":{"text":"রেখে দাও (নিজের জন্যে)","language_name":"bengali","language_id":20},"transliteration":{"text":"amsik","language_name":"english","language_id":38}},{"id":41000,"position":6,"audio_url":"wbw/038_039_006.mp3","char_type_name":"word","page_number":455,"line_number":13,"text":"بِغَيْرِ","translation":{"text":"ছাড়াই","language_name":"bengali","language_id":20},"transliteration":{"text":"bighayri","language_name":"english","language_id":38}},{"id":41001,"position":7,"audio_url":"wbw/038_039_007.mp3","char_type_name":"word","page_number":455,"line_number":13,"text":"حِسَابٍۢ","translation":{"text":"কোনো হিসেব\"","language_name":"bengali","language_id":20},"transliteration":{"text":"ḥisābin","language_name":"english","language_id":38}},{"id":41002,"position":8,"audio_url":null,"char_type_name":"end","page_number":455,"line_number":13,"text":"٣٩","translation":{"text":"(৩৯)","language_name":"bengali","language_id":20},"transliteration":{"text":null,"language_name":"english","language_id":38}}]},{"id":4010,"verse_number":40,"verse_key":"38:40","hizb_number":46,"rub_el_hizb_number":182,"ruku_number":395,"manzil_number":6,"sajdah_number":null,"page_number":455,"juz_number":23,"words":[{"id":41266,"position":1,"audio_url":"wbw/038_040_001.mp3","char_type_name":"word","page_number":455,"line_number":13,"text":"وَإِنَّ","translation":{"text":"এবং নিশ্চয়ই","language_name":"bengali","language_id":20},"transliteration":{"text":"wa-inna","language_name":"english","language_id":38}},{"id":41267,"position":2,"audio_url":"wbw/038_040_002.mp3","char_type_name":"word","page_number":455,"line_number":13,"text":"لَهُۥ","translation":{"text":"তার জন্যে","language_name":"bengali","language_id":20},"transliteration":{"text":"lahu","language_name":"english","language_id":38}},{"id":41268,"position":3,"audio_url":"wbw/038_040_003.mp3","char_type_name":"word","page_number":455,"line_number":13,"text":"عِندَنَا","translation":{"text":"আমাদের কাছে আছে","language_name":"bengali","language_id":20},"transliteration":{"text":"ʿindanā","language_name":"english","language_id":38}},{"id":41269,"position":4,"audio_url":"wbw/038_040_004.mp3","char_type_name":"word","page_number":455,"line_number":13,"text":"لَزُلْفَىٰ","translation":{"text":"অবশ্যই নৈকট্যের মর্যাদা","language_name":"bengali","language_id":20},"transliteration":{"text":"lazul'fā","language_name":"english","language_id":38}},{"id":41270,"position":5,"audio_url":"wbw/038_040_005.mp3","char_type_name":"word","page_number":455,"line_number":13,"text":"وَحُسْنَ","translation":{"text":"ও সুন্দর","language_name":"bengali","language_id":20},"transliteration":{"text":"waḥus'na","language_name":"english","language_id":38}},{"id":41271,"position":6,"audio_url":"wbw/038_040_006.mp3","char_type_name":"word","page_number":455,"line_number":14,"text":"مَـَٔابٍۢ","translation":{"text":"প্রত্যাবর্তন স্থান (পরিণাম)","language_name":"bengali","language_id":20},"transliteration":{"text":"maābin","language_name":"english","language_id":38}},{"id":41272,"position":7,"audio_url":null,"char_type_name":"end","page_number":455,"line_number":14,"text":"٤٠","translation":{"text":"(৪০)","language_name":"bengali","language_id":20},"transliteration":{"text":null,"language_name":"english","language_id":38}}]}],"pagination":{"per_page":10,"current_page":4,"next_page":5,"total_pages":9,"total_records":88}}
