{"verses":[{"id":4011,"verse_number":41,"verse_key":"38:41","hizb_number":46,"rub_el_hizb_number":182,"ruku_number":396,"manzil_number":6,"sajdah_number":null,"page_number":455,"juz_number":23,"words":[{"id":42632,"position":1,"audio_url":"wbw/038_041_001.mp3","char_type_name":"word","page_number":455,"line_number":14,"text":"وَٱذْكُرْ","translation":{"text":"এবং স্মরণ করো","language_name":"bengali","language_id":20},"transliteration":{"text":"wa-udh'kur","language_name":"english","language_id":38}},{"id":42633,"position":2,"audio_url":"wbw/038_041_002.mp3","char_type_name":"word","page_number":455,"line_number":14,"text":"عَبْدَنَآ","translation":{"text":"আমাদের দাস","language_name":"bengali","language_id":20},"transliteration":{"text":"ʿabdanā","language_name":"english","language_id":38}},{"id":42634,"position":3,"audio_url":"wbw/038_041_003.mp3","char_type_name":"word","page_number":455,"line_number":14,"text":"أَيُّوبَ","translation":{"text":"আইয়ূবকে","language_name":"bengali","language_id":20},"transliteration":{"text":"ayyūba","language_name":"english","language_id":38}},{"id":42635,"position":4,"audio_url":"wbw/038_041_004.mp3","char_type_name":"word","page_number":455,"line_number":14,"text":"إِذْ","translation":{"text":"যখন","language_name":"bengali","language_id":20},"transliteration":{"text":"idh","language_name":"english","language_id":38}},{"id":42636,"position":5,"audio_url":"wbw/038_041_005.mp3","char_type_name":"word","page_number":455,"line_number":14,"text":"نَادَىٰ","translation":{"text":"সে ডেকে ছিলো","language_name":"bengali","language_id":20},"transliteration":{"text":"nādā","language_name":"english","language_id":38}},{"id":42637,"position":6,"audio_url":"wbw/038_041_006.mp3","char_type_name":"word","page_number":455,"line_number":14,"text":"رَبَّهُۥٓ","translation":{"text":"তার রবকে","language_name":"bengali","language_id":20},"transliteration":{"text":"rabbahu","language_name":"english","language_id":38}},{"id":42638,"position":7,"audio_url":"wbw/038_041_007.mp3","char_type_name":"word","page_number":455,"line_number":14,"text":"أَنِّى","translation":{"text":"\"নিশ্চযই় আমি","language_name":"bengali","language_id":20},"transliteration":{"text":"annī","language_name":"english","language_id":38}},{"id":42639,"position":8,"audio_url":"wbw/038_041_008.mp3","char_type_name":"word","page_number":455,"line_number":14,"text":"مَسَّنِىَ","translation":{"text":"আমাকে স্পর্শ করেছে","language_name":"bengali","language_id":20},"transliteration":{"text":"massaniya","language_name":"english","language_id":38}},{"id":42640,"position":9,"audio_url":"wbw/038_041_009.mp3","char_type_name":"word","page_number":455,"line_number":14,"text":"ٱلشَّيْطَـٰنُ","translation":{"text":"শয়তান","language_name":"bengali","language_id":20},"transliteration":{"text":"l-shayṭānu","language_name":"english","language_id":38}},{"id":42641,"position":10,"audio_url":"wbw/038_041_010.mp3","char_type_name":"word","page_number":455,"line_number":15,"text":"بِنُصْبٍۢ","translation":{"text":"কষ্ট দিয়ে","language_name":"bengali","language_id":20},"transliteration":{"text":"binuṣ'bin","language_name":"english","language_id":38}},{"id":42642,"position":11,"audio_url":"wbw/038_041_011.mp3","char_type_name":"word","page_number":455,"line_number":15,"text":"وَعَذَابٍ","translation":{"text":"ও যন্ত্রণায়\"","language_name":"bengali","language_id":20},"transliteration":{"text":"waʿadhābin","language_name":"english","language_id":38}},{"id":42643,"position":12,"audio_url":null,"char_type_name":"end","page_number":455,"line_number":15,"text":"٤١","translation":{"text":"(৪১)","language_name":"bengali","language_id":20},"transliteration":{"text":null,"language_name":"english","language_id":38}}]},{"id":4012,"verse_number":42,"verse_key":"38:42","hizb_number":46,"rub_el_hizb_number":182,"ruku_number":396,"manzil_number":6,"sajdah_number":null,"page_number":455,"juz_number":23,"words":[{"id":42874,"position":1,"audio_url":"wbw/038_042_001.mp3","char_type_name":"word","page_number":455,"line_number":15,"text":"ٱرْكُضْ","translation":{"text":"\"(তাকে বললাম) আঘাত করো","language_name":"bengali","language_id":20},"transliteration":{"text":"ur'kuḍ","language_name":"english","language_id":38}},{"id":42875,"position":2,"audio_url":"wbw/038_042_002.mp3","char_type_name":"word","page_number":455,"line_number":15,"text":"بِرِجْلِكَ ۖ","translation":{"text":"তোমার পা দিয়ে (যমীনে)","language_name":"bengali","language_id":20},"transliteration":{"text":"birij'lika","language_name":"english","language_id":38}},{"id":42877,"position":3,"audio_url":"wbw/038_042_004.mp3","char_type_name":"word","page_number":455,"line_number":15,"text":"هَـٰذَا","translation":{"text":"এটা","language_name":"bengali","language_id":20},"transliteration":{"text":"hādhā","language_name":"english","language_id":38}},{"id":42878,"position":4,"audio_url":"wbw/038_042_005.mp3","char_type_name":"word","page_number":455,"line_number":15,"text":"مُغْتَسَلٌۢ","translation":{"text":"গোসলের পানি","language_name":"bengali","language_id":20},"transliteration":{"text":"mugh'tasalun","language_name":"english","language_id":38}},{"id":42879,"position":5,"audio_url":"wbw/038_042_006.mp3","char_type_name":"word","page_number":455,"line_number":15,"text":"بَارِدٌۭ","translation":{"text":"ঠান্ডা","language_name":"bengali","language_id":20},"transliteration":{"text":"bāridun","language_name":"english","language_id":38}},{"id":42880,"position":6,"audio_url":"wbw/038_042_007.mp3","char_type_name":"word","page_number":455,"line_number":15,"text":"وَشَرَابٌۭ","translation":{"text":"ও সুপেয় পানীয়\"","language_name":"bengali","language_id":20},"transliteration":{"text":"washarābun","language_name":"english","language_id":38}},{"id":42881,"position":7,"audio_url":null,"char_type_name":"end","page_number":455,"line_number":15,"text":"٤٢","translation":{"text":"(৪২)","language_name":"bengali","language_id":20},"transliteration":{"text":null,"language_name":"english","language_id":38}}]},{"id":4013,"verse_number":43,"verse_key":"38:43","hizb_number":46,"rub_el_hizb_number":182,"ruku_number":396,"manzil_number":6,"sajdah_number":null,"page_number":456,"juz_number":23,"words":[{"id":44116,"position":1,"audio_url":"wbw/038_043_001.mp3","char_type_name":"word","page_number":456,"line_number":1,"text":"وَوَهَبْنَا","translation":{"text":"এবং আমরা (ফিরিয়ে) দিলাম","language_name":"bengali","language_id":20},"transliteration":{"text":"wawahabnā","language_name":"english","language_id":38}},{"id":44117,"position":2,"audio_url":"wbw/038_043_002.mp3","char_type_name":"word","page_number":456,"line_number":1,"text":"لَهُۥٓ","translation":{"text":"তার কাছে","language_name":"bengali","language_id":20},"transliteration":{"text":"lahu","language_name":"english","language_id":38}},{"id":44118,"position":3,"audio_url":"wbw/038_043_003.mp3","char_type_name":"word","page_number":456,"line_number":1,"text":"أَهْلَهُۥ","translation":{"text":"তার পরিবারকে","language_name":"bengali","language_id":20},"transliteration":{"text":"ahlahu","language_name":"english","language_id":38}},{"id":44119,"position":4,"audio_url":"wbw/038_043_004.mp3","char_type_name":"word","page_number":456,"line_number":1,"text":"وَمِثْلَهُم","translation":{"text":"আরও তাদের মতো","language_name":"bengali","language_id":20},"transliteration":{"text":"wamith'lahum","language_name":"english","language_id":38}},{"id":44120,"position":5,"audio_url":"wbw/038_043_005.mp3","char_type_name":"word","page_number":456,"line_number":1,"text":"مَّعَهُمْ","translation":{"text":"তাদের সাথে","language_name":"bengali","language_id":20},"transliteration":{"text":"maʿahum","language_name":"english","language_id":38}},{"id":44121,"position":6,"audio_url":"wbw/038_043_006.mp3","char_type_name":"word","page_number":456,"line_number":1,"text":"رَحْمَةًۭ","translation":{"text":"অনুগ্রহ স্বরূপ","language_name":"bengali","language_id":20},"transliteration":{"text":"raḥmatan","language_name":"english","language_id":38}},{"id":44122,"position":7,"audio_url":"wbw/038_043_007.mp3","char_type_name":"word","page_number":456,"line_number":1,"text":"مِّنَّا","translation":{"text":"আমাদের থেকে","language_name":"bengali","language_id":20},"transliteration":{"text":"minnā","language_name":"english","language_id":38}},{"id":44123,"position":8,"audio_url":"wbw/038_043_008.mp3","char_type_name":"word","page_number":456,"line_number":1,"text":"وَذِكْرَىٰ","translation":{"text":"এবং শিক্ষা","language_name":"bengali","language_id":20},"transliteration":{"text":"wadhik'rā","language_name":"english","language_id":38}},{"id":44124,"position":9,"audio_url":"wbw/038_043_009.mp3","char_type_name":"word","page_number":456,"line_number":1,"text":"لِأُو۟لِى","translation":{"text":"সম্পন্নদের জন্যে","language_name":"bengali","language_id":20},"transliteration":{"text":"li-ulī","language_name":"english","language_id":38}},{"id":44125,"position":10,"audio_url":"wbw/038_043_010.mp3","char_type_name":"word","page_number":456,"line_number":1,"text":"ٱلْأَلْبَـٰبِ","translation":{"text":"বিবেক-বুদ্ধি","language_name":"bengali","language_id":20},"transliteration":{"text":"l-albābi","language_name":"english","language_id":38}},{"id":44126,"position":11,"audio_url":null,"char_type_name":"end","page_number":456,"line_number":2,"text":"٤٣","translation":{"text":"(৪৩)","language_name":"bengali","language_id":20},"transliteration":{"text":null,"language_name":"english","language_id":38}}]},{"id":4014,"verse_number":44,"verse_key":"38:44","hizb_number":46,"rub_el_hizb_number":182,"ruku_number":396,"manzil_number":6,"sajdah_number":null,"page_number":456,"juz_number":23,"words":[{"id":44295,"position":1,"audio_url":"wbw/038_044_001.mp3","char_type_name":"word","page_number":456,"line_number":2,"text":"وَخُذْ","translation":{"text":"\"এবং (তাকে বললাম) ধরো","language_name":"bengali","language_id":20},"transliteration":{"text":"wakhudh","language_name":"english","language_id":38}},{"id":44296,"position":2,"audio_url":"wbw/038_044_002.mp3","char_type_name":"word","page_number":456,"line_number":2,"text":"بِيَدِكَ","translation":{"text":"তোমার হাত দিয়ে","language_name":"bengali","language_id":20},"transliteration":{"text":"biyadika","language_name":"english","language_id":38}},{"id":44297,"position":3,"audio_url":"wbw/038_044_003.mp3","char_type_name":"word","page_number":456,"line_number":2,"text":"ضِغْثًۭا","translation":{"text":"একমুঠো ঘাস","language_name":"bengali","language_id":20},"transliteration":{"text":"ḍigh'than","language_name":"english","language_id":38}},{"id":44298,"position":4,"audio_url":"wbw/038_044_004.mp3","char_type_name":"word","page_number":456,"line_number":2,"text":"فَٱضْرِب","translation":{"text":"অতঃপর আঘাত করো","language_name":"bengali","language_id":20},"transliteration":{"text":"fa-iḍ'rib","language_name":"english","language_id":38}},{"id":44299,"position":5,"audio_url":"wbw/038_044_005.mp3","char_type_name":"word","page_number":456,"line_number":2,"text":"بِّهِۦ","translation":{"text":"তা দিয়ে (তোমার স্ত্রীকে)","language_name":"bengali","language_id":20},"transliteration":{"text":"bihi","language_name":"english","language_id":38}},{"id":44300,"position":6,"audio_url":"wbw/038_044_006.mp3","char_type_name":"word","page_number":456,"line_number":2,"text":"وَلَا","translation":{"text":"এবং না","language_name":"bengali","language_id":20},"transliteration":{"text":"walā","language_name":"english","language_id":38}},{"id":44301,"position":7,"audio_url":"wbw/038_044_007.mp3","char_type_name":"word","page_number":456,"line_number":2,"text":"تَحْنَثْ ۗ","translation":{"text":"তুমি শপথ ভঙ্গ করো\"","language_name":"bengali","language_id":20},"transliteration":{"text":"taḥnath","language_name":"english","language_id":38}},{"id":44303,"position":8,"audio_url":"wbw/038_044_009.mp3","char_type_name":"word","page_number":456,"line_number":2,"text":"إِنَّا","translation":{"text":"নিশ্চযই় আমরা","language_name":"bengali","language_id":20},"transliteration":{"text":"innā","language_name":"english","language_id":38}},{"id":44304,"position":9,"audio_url":"wbw/038_044_010.mp3","char_type_name":"word","page_number":456,"line_number":2,"text":"وَجَدْنَـٰهُ","translation":{"text":"তাকে আমরা পেয়েছি","language_name":"bengali","language_id":20},"transliteration":{"text":"wajadnāhu","language_name":"english","language_id":38}},{"id":44305,"position":10,"audio_url":"wbw/038_044_011.mp3","char_type_name":"word","page_number":456,"line_number":2,"text":"صَابِرًۭا ۚ","translation":{"text":"ধৈর্য্যশীল","language_name":"bengali","language_id":20},"transliteration":{"text":"ṣābiran","language_name":"english","language_id":38}},{"id":44307,"position":11,"audio_url":"wbw/038_044_013.mp3","char_type_name":"word","page_number":456,"line_number":2,"text":"نِّعْمَ","translation":{"text":"অতি উত্তম","language_name":"bengali","language_id":20},"transliteration":{"text":"niʿ'ma","language_name":"english","language_id":38}},{"id":44308,"position":12,"audio_url":"wbw/038_044_014.mp3","char_type_name":"word","page_number":456,"line_number":3,"text":"ٱلْعَبْدُ ۖ","translation":{"text":"দাস","language_name":"bengali","language_id":20},"transliteration":{"text":"l-ʿabdu","language_name":"english","language_id":38}},{"id":44310,"position":13,"audio_url":"wbw/038_044_016.mp3","char_type_name":"word","page_number":456,"line_number":3,"text":"إِنَّهُۥٓ","translation":{"text":"সে নিশ্চয়ই  ছিলো","language_name":"bengali","language_id":20},"transliteration":{"text":"innahu","language_name":"english","language_id":38}},{"id":44311,"position":14,"audio_url":"wbw/038_044_017.mp3","char_type_name":"word","page_number":456,"line_number":3,"text":"أَوَّابٌۭ","translation":{"text":"বড় (আল্লাহ) অভিমুখী","language_name":"bengali","language_id":20},"transliteration":{"text":"awwābun","language_name":"english","language_id":38}},{"id":44312,"position":15,"audio_url":null,"char_type_name":"end","page_number":456,"line_number":3,"text":"٤٤","translation":{"text":"(৪৪)","language_name":"bengali","language_id":20},"transliteration":{"text":null,"language_name":"english","language_id":38}}]},{"id":4015,"verse_number":45,"verse_key":"38:45","hizb_number":46,"rub_el_hizb_number":182,"ruku_number":396,"manzil_number":6,"sajdah_number":null,"page_number":456,"juz_number":23,"words":[{"id":45597,"position":1,"audio_url":"wbw/038_045_001.mp3","char_type_name":"word","page_number":456,"line_number":3,"text":"وَٱذْكُرْ","translation":{"text":"এবং স্মরণ করো","language_name":"bengali","language_id":20},"transliteration":{"text":"wa-udh'kur","language_name":"english","language_id":38}},{"id":45598,"position":2,"audio_url":"wbw/038_045_002.mp3","char_type_name":"word","page_number":456,"line_number":3,"text":"عِبَـٰدَنَآ","translation":{"text":"আমাদের দাসদেরকে","language_name":"bengali","language_id":20},"transliteration":{"text":"ʿibādanā","language_name":"english","language_id":38}},{"id":45599,"position":3,"audio_url":"wbw/038_045_003.mp3","char_type_name":"word","page_number":456,"line_number":3,"text":"إِبْرَٰهِيمَ","translation":{"text":"(যেমন) ইবরাহীম","language_name":"bengali","language_id":20},"transliteration":{"text":"ib'rāhīma","language_name":"english","language_id":38}},{"id":45600,"position":4,"audio_url":"wbw/038_045_004.mp3","char_type_name":"word","page_number":456,"line_number":3,"text":"وَإِسْحَـٰقَ","translation":{"text":"ও ইসহাক","language_name":"bengali","language_id":20},"transliteration":{"text":"wa-is'ḥāqa","language_name":"english","language_id":38}},{"id":45601,"position":5,"audio_url":"wbw/038_045_005.mp3","char_type_name":"word","page_number":456,"line_number":3,"text":"وَيَعْقُوبَ","translation":{"text":"ও ইয়াকূব","language_name":"bengali","language_id":20},"transliteration":{"text":"wayaʿqūba","language_name":"english","language_id":38}},{"id":45602,"position":6,"audio_url":"wbw/038_045_006.mp3","char_type_name":"word","page_number":456,"line_number":3,"text":"أُو۟لِى","translation":{"text":"সম্পন্ন","language_name":"bengali","language_id":20},"transliteration":{"text":"ulī","language_name":"english","language_id":38}},{"id":45603,"position":7,"audio_url":"wbw/038_045_007.mp3","char_type_name":"word","page_number":456,"line_number":4,"text":"ٱلْأَيْدِى","translation":{"text":"কর্মক্ষমতা","language_name":"bengali","language_id":20},"transliteration":{"text":"l-aydī","language_name":"english","language_id":38}},{"id":45604,"position":8,"audio_url":"wbw/038_045_008.mp3","char_type_name":"word","page_number":456,"line_number":4,"text":"وَٱلْأَبْصَـٰرِ","translation":{"text":"ও সূক্ষ্মদৃষ্টি (সম্পন্ন)","language_name":"bengali","language_id":20},"transliteration":{"text":"wal-abṣāri","language_name":"english","language_id":38}},{"id":45605,"position":9,"audio_url":null,"char_type_name":"end","page_number":456,"line_number":4,"text":"٤٥","translation":{"text":"(৪৫)","language_name":"bengali","language_id":20},"transliteration":{"text":null,"language_name":"english","language_id":38}}]},{"id":4016,"verse_number":46,"verse_key":"38:46","hizb_number":46,"rub_el_hizb_number":182,"ruku_number":396,"manzil_number":6,"sajdah_number":null,"page_number":456,"juz_number":23,"words":[{"id":46282,"position":1,"audio_url":"wbw/038_046_001.mp3","char_type_name":"word","page_number":456,"line_number":4,"text":"إِنَّآ","translation":{"text":"নিশ্চয়ই আমরা","language_name":"bengali","language_id":20},"transliteration":{"text":"innā","language_name":"english","language_id":38}},{"id":46283,"position":2,"audio_url":"wbw/038_046_002.mp3","char_type_name":"word","page_number":456,"line_number":4,"text":"أَخْلَصْنَـٰهُم","translation":{"text":"তাদেরকে আমরা  মর্যাদা দিয়েছিলাম","language_name":"bengali","language_id":20},"transliteration":{"text":"akhlaṣnāhum","language_name":"english","language_id":38}},{"id":46284,"position":3,"audio_url":"wbw/038_046_003.mp3","char_type_name":"word","page_number":456,"line_number":4,"text":"بِخَالِصَةٍۢ","translation":{"text":"একটি স্বতন্ত্রগুণের কারণে","language_name":"bengali","language_id":20},"transliteration":{"text":"bikhāliṣatin","language_name":"english","language_id":38}},{"id":46285,"position":4,"audio_url":"wbw/038_046_004.mp3","char_type_name":"word","page_number":456,"line_number":4,"text":"ذِكْرَى","translation":{"text":"(তা ছিলো) স্মরণ","language_name":"bengali","language_id":20},"transliteration":{"text":"dhik'rā","language_name":"english","language_id":38}},{"id":46286,"position":5,"audio_url":"wbw/038_046_005.mp3","char_type_name":"word","page_number":456,"line_number":4,"text":"ٱلدَّارِ","translation":{"text":"পরকালের","language_name":"bengali","language_id":20},"transliteration":{"text":"l-dāri","language_name":"english","language_id":38}},{"id":46287,"position":6,"audio_url":null,"char_type_name":"end","page_number":456,"line_number":4,"text":"٤٦","translation":{"text":"(৪৬)","language_name":"bengali","language_id":20},"transliteration":{"text":null,"language_name":"english","language_id":38}}]},{"id":4017,"verse_number":47,"verse_key":"38:47","hizb_number":46,"rub_el_hizb_number":182,"ruku_number":396,"manzil_number":6,"sajdah_number":null,"page_number":456,"juz_number":23,"words":[{"id":46995,"position":1,"audio_url":"wbw/038_047_001.mp3","char_type_name":"word","page_number":456,"line_number":5,"text":"وَإِنَّهُمْ","translation":{"text":"এবং তারা নিশ্চয়ই","language_name":"bengali","language_id":20},"transliteration":{"text":"wa-innahum","language_name":"english","language_id":38}},{"id":46996,"position":2,"audio_url":"wbw/038_047_002.mp3","char_type_name":"word","page_number":456,"line_number":5,"text":"عِندَنَا","translation":{"text":"আমাদের কাছে","language_name":"bengali","language_id":20},"transliteration":{"text":"ʿindanā","language_name":"english","language_id":38}},{"id":46997,"position":3,"audio_url":"wbw/038_047_003.mp3","char_type_name":"word","page_number":456,"line_number":5,"text":"لَمِنَ","translation":{"text":"অবশ্যই অন্তর্ভুক্ত","language_name":"bengali","language_id":20},"transliteration":{"text":"lamina","language_name":"english","language_id":38}},{"id":46998,"position":4,"audio_url":"wbw/038_047_004.mp3","char_type_name":"word","page_number":456,"line_number":5,"text":"ٱلْمُصْطَفَيْنَ","translation":{"text":"মনোনীত  (বান্দাদের)","language_name":"bengali","language_id":20},"transliteration":{"text":"l-muṣ'ṭafayna","language_name":"english","language_id":38}},{"id":46999,"position":5,"audio_url":"wbw/038_047_005.mp3","char_type_name":"word","page_number":456,"line_number":5,"text":"ٱلْأَخْيَارِ","translation":{"text":"উত্তম (বান্দাদের)","language_name":"bengali","language_id":20},"transliteration":{"text":"l-akhyāri","language_name":"english","language_id":38}},{"id":47000,"position":6,"audio_url":null,"char_type_name":"end","page_number":456,"line_number":5,"text":"٤٧","translation":{"text":"(৪৭)","language_name":"bengali","language_id":20},"transliteration":{"text":null,"language_name":"english","language_id":38}}]},{"id":4018,"verse_number":48,"verse_key":"38:48","hizb_number":46,"rub_el_hizb_number":182,"ruku_number":396,"manzil_number":6,"sajdah_number":null,"page_number":456,"juz_number":23,"words":[{"id":47205,"position":1,"audio_url":"wbw/038_048_001.mp3","char_type_name":"word","page_number":456,"line_number":5,"text":"وَٱذْكُرْ","translation":{"text":"এবং স্মরণ করো","language_name":"bengali","language_id":20},"transliteration":{"text":"wa-udh'kur","language_name":"english","language_id":38}},{"id":47206,"position":2,"audio_url":"wbw/038_048_002.mp3","char_type_name":"word","page_number":456,"line_number":5,"text":"إِسْمَـٰعِيلَ","translation":{"text":"ইসমাঈল","language_name":"bengali","language_id":20},"transliteration":{"text":"is'māʿīla","language_name":"english","language_id":38}},{"id":47207,"position":3,"audio_url":"wbw/038_048_003.mp3","char_type_name":"word","page_number":456,"line_number":6,"text":"وَٱلْيَسَعَ","translation":{"text":"ও আলইয়াসা","language_name":"bengali","language_id":20},"transliteration":{"text":"wal-yasaʿa","language_name":"english","language_id":38}},{"id":47208,"position":4,"audio_url":"wbw/038_048_004.mp3","char_type_name":"word","page_number":456,"line_number":6,"text":"وَذَا","translation":{"text":"ও","language_name":"bengali","language_id":20},"transliteration":{"text":"wadhā","language_name":"english","language_id":38}},{"id":47209,"position":5,"audio_url":"wbw/038_048_005.mp3","char_type_name":"word","page_number":456,"line_number":6,"text":"ٱلْكِفْلِ ۖ","translation":{"text":"যুলকিফ্‌লকে","language_name":"bengali","language_id":20},"transliteration":{"text":"l-kif'li","language_name":"english","language_id":38}},{"id":47211,"position":6,"audio_url":"wbw/038_048_007.mp3","char_type_name":"word","page_number":456,"line_number":6,"text":"وَكُلٌّۭ","translation":{"text":"এবং প্রত্যেকে (ছিলো)","language_name":"bengali","language_id":20},"transliteration":{"text":"wakullun","language_name":"english","language_id":38}},{"id":47212,"position":7,"audio_url":"wbw/038_048_008.mp3","char_type_name":"word","page_number":456,"line_number":6,"text":"مِّنَ","translation":{"text":"অন্তর্ভুক্ত","language_name":"bengali","language_id":20},"transliteration":{"text":"mina","language_name":"english","language_id":38}},{"id":47213,"position":8,"audio_url":"wbw/038_048_009.mp3","char_type_name":"word","page_number":456,"line_number":6,"text":"ٱلْأَخْيَارِ","translation":{"text":"উত্তম (বান্দাদের)","language_name":"bengali","language_id":20},"transliteration":{"text":"l-akhyāri","language_name":"english","language_id":38}},{"id":47214,"position":9,"audio_url":null,"char_type_name":"end","page_number":456,"line_number":6,"text":"٤٨","translation":{"text":"(৪৮)","language_name":"bengali","language_id":20},"transliteration":{"text":null,"language_name":"english","language_id":38}}]},{"id":4019,"verse_number":49,"verse_key":"38:49","hizb_number":46,"rub_el_hizb_number":182,"ruku_number":396,"manzil_number":6,"sajdah_number":null,"page_number":456,"juz_number":23,"words":[{"id":48334,"position":1,"audio_url":"wbw/038_049_001.mp3","char_type_name":"word","page_number":456,"line_number":6,"text":"هَـٰذَا","translation":{"text":"এটা","language_name":"bengali","language_id":20},"transliteration":{"text":"hādhā","language_name":"english","language_id":38}},{"id":48335,"position":2,"audio_url":"wbw/038_049_002.mp3","char_type_name":"word","page_number":456,"line_number":6,"text":"ذِكْرٌۭ ۚ","translation":{"text":"একটি স্মরণ","language_name":"bengali","language_id":20},"transliteration":{"text":"dhik'run","language_name":"english","language_id":38}},{"id":48337,"position":3,"audio_url":"wbw/038_049_004.mp3","char_type_name":"word","page_number":456,"line_number":6,"text":"وَإِنَّ","translation":{"text":"এবং নিশ্চয়ই","language_name":"bengali","language_id":20},"transliteration":{"text":"wa-inna","language_name":"english","language_id":38}},{"id":48338,"position":4,"audio_url":"wbw/038_049_005.mp3","char_type_name":"word","page_number":456,"line_number":6,"text":"لِلْمُتَّقِينَ","translation":{"text":"মুত্তাকীদের জন্যে (রয়েছে)","language_name":"bengali","language_id":20},"transliteration":{"text":"lil'muttaqīna","language_name":"english","language_id":38}},{"id":48339,"position":5,"audio_url":"wbw/038_049_006.mp3","char_type_name":"word","page_number":456,"line_number":7,"text":"لَحُسْنَ","translation":{"text":"অবশ্যই উত্তম","language_name":"bengali","language_id":20},"transliteration":{"text":"laḥus'na","language_name":"english","language_id":38}},{"id":48340,"position":6,"audio_url":"wbw/038_049_007.mp3","char_type_name":"word","page_number":456,"line_number":7,"text":"مَـَٔابٍۢ","translation":{"text":"আবাস","language_name":"bengali","language_id":20},"transliteration":{"text":"maābin","language_name":"english","language_id":38}},{"id":48341,"position":7,"audio_url":null,"char_type_name":"end","page_number":456,"line_number":7,"text":"٤٩","translation":{"text":"(৪৯)","language_name":"bengali","language_id":20},"transliteration":{"text":null,"language_name":"english","language_id":38}}]},{"id":4020,"verse_number":50,"verse_key":"38:50","hizb_number":46,"rub_el_hizb_number":182,"ruku_number":396,"manzil_number":6,"sajdah_number":null,"page_number":456,"juz_number":23,"words":[{"id":49006,"position":1,"audio_url":"wbw/038_050_001.mp3","char_type_name":"word","page_number":456,"line_number":7,"text":"جَنَّـٰتِ","translation":{"text":"জান্নাত","language_name":"bengali","language_id":20},"transliteration":{"text":"jannāti","language_name":"english","language_id":38}},{"id":49007,"position":2,"audio_url":"wbw/038_050_002.mp3","char_type_name":"word","page_number":456,"line_number":7,"text":"عَدْنٍۢ","translation":{"text":"চিরস্থায়ী","language_name":"bengali","language_id":20},"transliteration":{"text":"ʿadnin","language_name":"english","language_id":38}},{"id":49008,"position":3,"audio_url":"wbw/038_050_003.mp3","char_type_name":"word","page_number":456,"line_number":7,"text":"مُّفَتَّحَةًۭ","translation":{"text":"খোলা (রয়েছে)","language_name":"bengali","language_id":20},"transliteration":{"text":"mufattaḥatan","language_name":"english","language_id":38}},{"id":49009,"position":4,"audio_url":"wbw/038_050_004.mp3","char_type_name":"word","page_number":456,"line_number":7,"text":"لَّهُمُ","translation":{"text":"তাদের জন্যে","language_name":"bengali","language_id":20},"transliteration":{"text":"lahumu","language_name":"english","language_id":38}},{"id":49010,"position":5,"audio_url":"wbw/038_050_005.mp3","char_type_name":"word","page_number":456,"line_number":7,"text":"ٱلْأَبْوَٰبُ","translation":{"text":"দরজাসমূহ","language_name":"bengali","language_id":20},"transliteration":{"text":"l-abwābu","language_name":"english","language_id":38}},{"id":49011,"position":6,"audio_url":null,"char_type_name":"end","page_number":456,"line_number":7,"text":"٥٠","translation":{"text":"(৫০)","language_name":"bengali","language_id":20},"transliteration":{"text":null,"language_name":"english","language_id":38}}]}],"pagination":{"per_page":10,"current_page":5,"next_page":6,"total_pages":9,"total_records":88}}
