{"verses":[{"id":4041,"verse_number":71,"verse_key":"38:71","hizb_number":46,"rub_el_hizb_number":183,"ruku_number":397,"manzil_number":6,"sajdah_number":null,"page_number":457,"juz_number":23,"words":[{"id":60332,"position":1,"audio_url":"wbw/038_071_001.mp3","char_type_name":"word","page_number":457,"line_number":6,"text":"إِذْ","translation":{"text":"যখন","language_name":"bengali","language_id":20},"transliteration":{"text":"idh","language_name":"english","language_id":38}},{"id":60333,"position":2,"audio_url":"wbw/038_071_002.mp3","char_type_name":"word","page_number":457,"line_number":6,"text":"قَالَ","translation":{"text":"বলেছিলেন","language_name":"bengali","language_id":20},"transliteration":{"text":"qāla","language_name":"english","language_id":38}},{"id":60334,"position":3,"audio_url":"wbw/038_071_003.mp3","char_type_name":"word","page_number":457,"line_number":7,"text":"رَبُّكَ","translation":{"text":"তোমার রব","language_name":"bengali","language_id":20},"transliteration":{"text":"rabbuka","language_name":"english","language_id":38}},{"id":60335,"position":4,"audio_url":"wbw/038_071_004.mp3","char_type_name":"word","page_number":457,"line_number":7,"text":"لِلْمَلَـٰٓئِكَةِ","translation":{"text":"ফেরেশতাদেরকে","language_name":"bengali","language_id":20},"transliteration":{"text":"lil'malāikati","language_name":"english","language_id":38}},{"id":60336,"position":5,"audio_url":"wbw/038_071_005.mp3","char_type_name":"word","page_number":457,"line_number":7,"text":"إِنِّى","translation":{"text":"\"নিশ্চয়ই আমি","language_name":"bengali","language_id":20},"transliteration":{"text":"innī","language_name":"english","language_id":38}},{"id":60337,"position":6,"audio_url":"wbw/038_071_006.mp3","char_type_name":"word","page_number":457,"line_number":7,"text":"خَـٰلِقٌۢ","translation":{"text":"সৃষ্টি করছি","language_name":"bengali","language_id":20},"transliteration":{"text":"khāliqun","language_name":"english","language_id":38}},{"id":60338,"position":7,"audio_url":"wbw/038_071_007.mp3","char_type_name":"word","page_number":457,"line_number":7,"text":"بَشَرًۭا","translation":{"text":"একজন মানুষ","language_name":"bengali","language_id":20},"transliteration":{"text":"basharan","language_name":"english","language_id":38}},{"id":60339,"position":8,"audio_url":"wbw/038_071_008.mp3","char_type_name":"word","page_number":457,"line_number":7,"text":"مِّن","translation":{"text":"থেকে","language_name":"bengali","language_id":20},"transliteration":{"text":"min","language_name":"english","language_id":38}},{"id":60340,"position":9,"audio_url":"wbw/038_071_009.mp3","char_type_name":"word","page_number":457,"line_number":7,"text":"طِينٍۢ","translation":{"text":"মাটি","language_name":"bengali","language_id":20},"transliteration":{"text":"ṭīnin","language_name":"english","language_id":38}},{"id":60341,"position":10,"audio_url":null,"char_type_name":"end","page_number":457,"line_number":7,"text":"٧١","translation":{"text":"(৭১)","language_name":"bengali","language_id":20},"transliteration":{"text":null,"language_name":"english","language_id":38}}]},{"id":4042,"verse_number":72,"verse_key":"38:72","hizb_number":46,"rub_el_hizb_number":183,"ruku_number":397,"manzil_number":6,"sajdah_number":null,"page_number":457,"juz_number":23,"words":[{"id":60856,"position":1,"audio_url":"wbw/038_072_001.mp3","char_type_name":"word","page_number":457,"line_number":7,"text":"فَإِذَا","translation":{"text":"অতঃপর যখন","language_name":"bengali","language_id":20},"transliteration":{"text":"fa-idhā","language_name":"english","language_id":38}},{"id":60857,"position":2,"audio_url":"wbw/038_072_002.mp3","char_type_name":"word","page_number":457,"line_number":7,"text":"سَوَّيْتُهُۥ","translation":{"text":"তা আমি সুঠাম করবো","language_name":"bengali","language_id":20},"transliteration":{"text":"sawwaytuhu","language_name":"english","language_id":38}},{"id":60858,"position":3,"audio_url":"wbw/038_072_003.mp3","char_type_name":"word","page_number":457,"line_number":7,"text":"وَنَفَخْتُ","translation":{"text":"ও আমি সঞ্চার করবো","language_name":"bengali","language_id":20},"transliteration":{"text":"wanafakhtu","language_name":"english","language_id":38}},{"id":60859,"position":4,"audio_url":"wbw/038_072_004.mp3","char_type_name":"word","page_number":457,"line_number":8,"text":"فِيهِ","translation":{"text":"তার মধ্যে","language_name":"bengali","language_id":20},"transliteration":{"text":"fīhi","language_name":"english","language_id":38}},{"id":60860,"position":5,"audio_url":"wbw/038_072_005.mp3","char_type_name":"word","page_number":457,"line_number":8,"text":"مِن","translation":{"text":"থেকে","language_name":"bengali","language_id":20},"transliteration":{"text":"min","language_name":"english","language_id":38}},{"id":60861,"position":6,"audio_url":"wbw/038_072_006.mp3","char_type_name":"word","page_number":457,"line_number":8,"text":"رُّوحِى","translation":{"text":"আমার রূহ","language_name":"bengali","language_id":20},"transliteration":{"text":"rūḥī","language_name":"english","language_id":38}},{"id":60862,"position":7,"audio_url":"wbw/038_072_007.mp3","char_type_name":"word","page_number":457,"line_number":8,"text":"فَقَعُوا۟","translation":{"text":"তোমরা তখন পড়বে","language_name":"bengali","language_id":20},"transliteration":{"text":"faqaʿū","language_name":"english","language_id":38}},{"id":60863,"position":8,"audio_url":"wbw/038_072_008.mp3","char_type_name":"word","page_number":457,"line_number":8,"text":"لَهُۥ","translation":{"text":"তার (সামনে)","language_name":"bengali","language_id":20},"transliteration":{"text":"lahu","language_name":"english","language_id":38}},{"id":60864,"position":9,"audio_url":"wbw/038_072_009.mp3","char_type_name":"word","page_number":457,"line_number":8,"text":"سَـٰجِدِينَ","translation":{"text":"সিজদাকারী হয়ে\"","language_name":"bengali","language_id":20},"transliteration":{"text":"sājidīna","language_name":"english","language_id":38}},{"id":60865,"position":10,"audio_url":null,"char_type_name":"end","page_number":457,"line_number":8,"text":"٧٢","translation":{"text":"(৭২)","language_name":"bengali","language_id":20},"transliteration":{"text":null,"language_name":"english","language_id":38}}]},{"id":4043,"verse_number":73,"verse_key":"38:73","hizb_number":46,"rub_el_hizb_number":183,"ruku_number":397,"manzil_number":6,"sajdah_number":null,"page_number":457,"juz_number":23,"words":[{"id":61338,"position":1,"audio_url":"wbw/038_073_001.mp3","char_type_name":"word","page_number":457,"line_number":8,"text":"فَسَجَدَ","translation":{"text":"অতঃপর সিজদা করলো","language_name":"bengali","language_id":20},"transliteration":{"text":"fasajada","language_name":"english","language_id":38}},{"id":61339,"position":2,"audio_url":"wbw/038_073_002.mp3","char_type_name":"word","page_number":457,"line_number":8,"text":"ٱلْمَلَـٰٓئِكَةُ","translation":{"text":"ফেরেশতারা","language_name":"bengali","language_id":20},"transliteration":{"text":"l-malāikatu","language_name":"english","language_id":38}},{"id":61340,"position":3,"audio_url":"wbw/038_073_003.mp3","char_type_name":"word","page_number":457,"line_number":8,"text":"كُلُّهُمْ","translation":{"text":"তাদের সকলেই","language_name":"bengali","language_id":20},"transliteration":{"text":"kulluhum","language_name":"english","language_id":38}},{"id":61341,"position":4,"audio_url":"wbw/038_073_004.mp3","char_type_name":"word","page_number":457,"line_number":9,"text":"أَجْمَعُونَ","translation":{"text":"একত্রে","language_name":"bengali","language_id":20},"transliteration":{"text":"ajmaʿūna","language_name":"english","language_id":38}},{"id":61342,"position":5,"audio_url":null,"char_type_name":"end","page_number":457,"line_number":9,"text":"٧٣","translation":{"text":"(৭৩)","language_name":"bengali","language_id":20},"transliteration":{"text":null,"language_name":"english","language_id":38}}]},{"id":4044,"verse_number":74,"verse_key":"38:74","hizb_number":46,"rub_el_hizb_number":183,"ruku_number":397,"manzil_number":6,"sajdah_number":null,"page_number":457,"juz_number":23,"words":[{"id":61831,"position":1,"audio_url":"wbw/038_074_001.mp3","char_type_name":"word","page_number":457,"line_number":9,"text":"إِلَّآ","translation":{"text":"ব্যতীত","language_name":"bengali","language_id":20},"transliteration":{"text":"illā","language_name":"english","language_id":38}},{"id":61832,"position":2,"audio_url":"wbw/038_074_002.mp3","char_type_name":"word","page_number":457,"line_number":9,"text":"إِبْلِيسَ","translation":{"text":"ইবলিস","language_name":"bengali","language_id":20},"transliteration":{"text":"ib'līsa","language_name":"english","language_id":38}},{"id":61833,"position":3,"audio_url":"wbw/038_074_003.mp3","char_type_name":"word","page_number":457,"line_number":9,"text":"ٱسْتَكْبَرَ","translation":{"text":"সে অহংকার করলো","language_name":"bengali","language_id":20},"transliteration":{"text":"is'takbara","language_name":"english","language_id":38}},{"id":61834,"position":4,"audio_url":"wbw/038_074_004.mp3","char_type_name":"word","page_number":457,"line_number":9,"text":"وَكَانَ","translation":{"text":"ও হলো","language_name":"bengali","language_id":20},"transliteration":{"text":"wakāna","language_name":"english","language_id":38}},{"id":61835,"position":5,"audio_url":"wbw/038_074_005.mp3","char_type_name":"word","page_number":457,"line_number":9,"text":"مِنَ","translation":{"text":"অন্তর্ভুক্ত","language_name":"bengali","language_id":20},"transliteration":{"text":"mina","language_name":"english","language_id":38}},{"id":61836,"position":6,"audio_url":"wbw/038_074_006.mp3","char_type_name":"word","page_number":457,"line_number":9,"text":"ٱلْكَـٰفِرِينَ","translation":{"text":"কাফিরদের","language_name":"bengali","language_id":20},"transliteration":{"text":"l-kāfirīna","language_name":"english","language_id":38}},{"id":61837,"position":7,"audio_url":null,"char_type_name":"end","page_number":457,"line_number":9,"text":"٧٤","translation":{"text":"(৭৪)","language_name":"bengali","language_id":20},"transliteration":{"text":null,"language_name":"english","language_id":38}}]},{"id":4045,"verse_number":75,"verse_key":"38:75","hizb_number":46,"rub_el_hizb_number":183,"ruku_number":397,"manzil_number":6,"sajdah_number":null,"page_number":457,"juz_number":23,"words":[{"id":62056,"position":1,"audio_url":"wbw/038_075_001.mp3","char_type_name":"word","page_number":457,"line_number":9,"text":"قَالَ","translation":{"text":"(আল্লাহ) বললেন","language_name":"bengali","language_id":20},"transliteration":{"text":"qāla","language_name":"english","language_id":38}},{"id":62057,"position":2,"audio_url":"wbw/038_075_002.mp3","char_type_name":"word","page_number":457,"line_number":10,"text":"يَـٰٓإِبْلِيسُ","translation":{"text":"\"হে ইবলিস","language_name":"bengali","language_id":20},"transliteration":{"text":"yāib'līsu","language_name":"english","language_id":38}},{"id":62058,"position":3,"audio_url":"wbw/038_075_003.mp3","char_type_name":"word","page_number":457,"line_number":10,"text":"مَا","translation":{"text":"কিসে","language_name":"bengali","language_id":20},"transliteration":{"text":"mā","language_name":"english","language_id":38}},{"id":62059,"position":4,"audio_url":"wbw/038_075_004.mp3","char_type_name":"word","page_number":457,"line_number":10,"text":"مَنَعَكَ","translation":{"text":"তোমাকে বাধা দিলো","language_name":"bengali","language_id":20},"transliteration":{"text":"manaʿaka","language_name":"english","language_id":38}},{"id":62060,"position":5,"audio_url":"wbw/038_075_005.mp3","char_type_name":"word","page_number":457,"line_number":10,"text":"أَن","translation":{"text":"যে (না)","language_name":"bengali","language_id":20},"transliteration":{"text":"an","language_name":"english","language_id":38}},{"id":62061,"position":6,"audio_url":"wbw/038_075_006.mp3","char_type_name":"word","page_number":457,"line_number":10,"text":"تَسْجُدَ","translation":{"text":"সিজদা করলে তুমি","language_name":"bengali","language_id":20},"transliteration":{"text":"tasjuda","language_name":"english","language_id":38}},{"id":62062,"position":7,"audio_url":"wbw/038_075_007.mp3","char_type_name":"word","page_number":457,"line_number":10,"text":"لِمَا","translation":{"text":"(তাকে) যাকে","language_name":"bengali","language_id":20},"transliteration":{"text":"limā","language_name":"english","language_id":38}},{"id":62063,"position":8,"audio_url":"wbw/038_075_008.mp3","char_type_name":"word","page_number":457,"line_number":10,"text":"خَلَقْتُ","translation":{"text":"আমি সৃষ্টি করেছি","language_name":"bengali","language_id":20},"transliteration":{"text":"khalaqtu","language_name":"english","language_id":38}},{"id":62064,"position":9,"audio_url":"wbw/038_075_009.mp3","char_type_name":"word","page_number":457,"line_number":10,"text":"بِيَدَىَّ ۖ","translation":{"text":"আমার দু’হাত দ্বারা","language_name":"bengali","language_id":20},"transliteration":{"text":"biyadayya","language_name":"english","language_id":38}},{"id":62066,"position":10,"audio_url":"wbw/038_075_011.mp3","char_type_name":"word","page_number":457,"line_number":10,"text":"أَسْتَكْبَرْتَ","translation":{"text":"তুমি কি অহংকার করলে","language_name":"bengali","language_id":20},"transliteration":{"text":"astakbarta","language_name":"english","language_id":38}},{"id":62067,"position":11,"audio_url":"wbw/038_075_012.mp3","char_type_name":"word","page_number":457,"line_number":10,"text":"أَمْ","translation":{"text":"অথবা","language_name":"bengali","language_id":20},"transliteration":{"text":"am","language_name":"english","language_id":38}},{"id":62068,"position":12,"audio_url":"wbw/038_075_013.mp3","char_type_name":"word","page_number":457,"line_number":10,"text":"كُنتَ","translation":{"text":"তুমি ছিলে","language_name":"bengali","language_id":20},"transliteration":{"text":"kunta","language_name":"english","language_id":38}},{"id":62069,"position":13,"audio_url":"wbw/038_075_014.mp3","char_type_name":"word","page_number":457,"line_number":11,"text":"مِنَ","translation":{"text":"অন্তর্ভুক্ত","language_name":"bengali","language_id":20},"transliteration":{"text":"mina","language_name":"english","language_id":38}},{"id":62070,"position":14,"audio_url":"wbw/038_075_015.mp3","char_type_name":"word","page_number":457,"line_number":11,"text":"ٱلْعَالِينَ","translation":{"text":"উচ্চ মর্যাদাসম্পন্নদের\"","language_name":"bengali","language_id":20},"transliteration":{"text":"l-ʿālīna","language_name":"english","language_id":38}},{"id":62071,"position":15,"audio_url":null,"char_type_name":"end","page_number":457,"line_number":11,"text":"٧٥","translation":{"text":"(৭৫)","language_name":"bengali","language_id":20},"transliteration":{"text":null,"language_name":"english","language_id":38}}]},{"id":4046,"verse_number":76,"verse_key":"38:76","hizb_number":46,"rub_el_hizb_number":183,"ruku_number":397,"manzil_number":6,"sajdah_number":null,"page_number":457,"juz_number":23,"words":[{"id":62721,"position":1,"audio_url":"wbw/038_076_001.mp3","char_type_name":"word","page_number":457,"line_number":11,"text":"قَالَ","translation":{"text":"সে বললো","language_name":"bengali","language_id":20},"transliteration":{"text":"qāla","language_name":"english","language_id":38}},{"id":62722,"position":2,"audio_url":"wbw/038_076_002.mp3","char_type_name":"word","page_number":457,"line_number":11,"text":"أَنَا۠","translation":{"text":"\"আমি","language_name":"bengali","language_id":20},"transliteration":{"text":"anā","language_name":"english","language_id":38}},{"id":62723,"position":3,"audio_url":"wbw/038_076_003.mp3","char_type_name":"word","page_number":457,"line_number":11,"text":"خَيْرٌۭ","translation":{"text":"বড়","language_name":"bengali","language_id":20},"transliteration":{"text":"khayrun","language_name":"english","language_id":38}},{"id":62724,"position":4,"audio_url":"wbw/038_076_004.mp3","char_type_name":"word","page_number":457,"line_number":11,"text":"مِّنْهُ ۖ","translation":{"text":"তার চেয়ে","language_name":"bengali","language_id":20},"transliteration":{"text":"min'hu","language_name":"english","language_id":38}},{"id":62726,"position":5,"audio_url":"wbw/038_076_006.mp3","char_type_name":"word","page_number":457,"line_number":11,"text":"خَلَقْتَنِى","translation":{"text":"আমাকে আপনি সৃষ্টি করেছেন","language_name":"bengali","language_id":20},"transliteration":{"text":"khalaqtanī","language_name":"english","language_id":38}},{"id":62727,"position":6,"audio_url":"wbw/038_076_007.mp3","char_type_name":"word","page_number":457,"line_number":11,"text":"مِن","translation":{"text":"দিয়ে","language_name":"bengali","language_id":20},"transliteration":{"text":"min","language_name":"english","language_id":38}},{"id":62728,"position":7,"audio_url":"wbw/038_076_008.mp3","char_type_name":"word","page_number":457,"line_number":11,"text":"نَّارٍۢ","translation":{"text":"আগুন","language_name":"bengali","language_id":20},"transliteration":{"text":"nārin","language_name":"english","language_id":38}},{"id":62729,"position":8,"audio_url":"wbw/038_076_009.mp3","char_type_name":"word","page_number":457,"line_number":11,"text":"وَخَلَقْتَهُۥ","translation":{"text":"আর তাকে সৃষ্টি করেছেন","language_name":"bengali","language_id":20},"transliteration":{"text":"wakhalaqtahu","language_name":"english","language_id":38}},{"id":62730,"position":9,"audio_url":"wbw/038_076_010.mp3","char_type_name":"word","page_number":457,"line_number":11,"text":"مِن","translation":{"text":"দিয়ে","language_name":"bengali","language_id":20},"transliteration":{"text":"min","language_name":"english","language_id":38}},{"id":62731,"position":10,"audio_url":"wbw/038_076_011.mp3","char_type_name":"word","page_number":457,"line_number":11,"text":"طِينٍۢ","translation":{"text":"মাটি\"","language_name":"bengali","language_id":20},"transliteration":{"text":"ṭīnin","language_name":"english","language_id":38}},{"id":62732,"position":11,"audio_url":null,"char_type_name":"end","page_number":457,"line_number":12,"text":"٧٦","translation":{"text":"(৭৬)","language_name":"bengali","language_id":20},"transliteration":{"text":null,"language_name":"english","language_id":38}}]},{"id":4047,"verse_number":77,"verse_key":"38:77","hizb_number":46,"rub_el_hizb_number":183,"ruku_number":397,"manzil_number":6,"sajdah_number":null,"page_number":457,"juz_number":23,"words":[{"id":63157,"position":1,"audio_url":"wbw/038_077_001.mp3","char_type_name":"word","page_number":457,"line_number":12,"text":"قَالَ","translation":{"text":"(আল্লাহ) বললেন","language_name":"bengali","language_id":20},"transliteration":{"text":"qāla","language_name":"english","language_id":38}},{"id":63158,"position":2,"audio_url":"wbw/038_077_002.mp3","char_type_name":"word","page_number":457,"line_number":12,"text":"فَٱخْرُجْ","translation":{"text":"\"তাহ'লে বের হও","language_name":"bengali","language_id":20},"transliteration":{"text":"fa-ukh'ruj","language_name":"english","language_id":38}},{"id":63159,"position":3,"audio_url":"wbw/038_077_003.mp3","char_type_name":"word","page_number":457,"line_number":12,"text":"مِنْهَا","translation":{"text":"এখান থেকে","language_name":"bengali","language_id":20},"transliteration":{"text":"min'hā","language_name":"english","language_id":38}},{"id":63160,"position":4,"audio_url":"wbw/038_077_004.mp3","char_type_name":"word","page_number":457,"line_number":12,"text":"فَإِنَّكَ","translation":{"text":"তাহ'লে তুমি নিশ্চয়ই","language_name":"bengali","language_id":20},"transliteration":{"text":"fa-innaka","language_name":"english","language_id":38}},{"id":63161,"position":5,"audio_url":"wbw/038_077_005.mp3","char_type_name":"word","page_number":457,"line_number":12,"text":"رَجِيمٌۭ","translation":{"text":"বিতাড়িত","language_name":"bengali","language_id":20},"transliteration":{"text":"rajīmun","language_name":"english","language_id":38}},{"id":63162,"position":6,"audio_url":null,"char_type_name":"end","page_number":457,"line_number":12,"text":"٧٧","translation":{"text":"(৭৭)","language_name":"bengali","language_id":20},"transliteration":{"text":null,"language_name":"english","language_id":38}}]},{"id":4048,"verse_number":78,"verse_key":"38:78","hizb_number":46,"rub_el_hizb_number":183,"ruku_number":397,"manzil_number":6,"sajdah_number":null,"page_number":457,"juz_number":23,"words":[{"id":63688,"position":1,"audio_url":"wbw/038_078_001.mp3","char_type_name":"word","page_number":457,"line_number":12,"text":"وَإِنَّ","translation":{"text":"এবং নিশ্চয়ই","language_name":"bengali","language_id":20},"transliteration":{"text":"wa-inna","language_name":"english","language_id":38}},{"id":63689,"position":2,"audio_url":"wbw/038_078_002.mp3","char_type_name":"word","page_number":457,"line_number":12,"text":"عَلَيْكَ","translation":{"text":"তোমার উপর","language_name":"bengali","language_id":20},"transliteration":{"text":"ʿalayka","language_name":"english","language_id":38}},{"id":63690,"position":3,"audio_url":"wbw/038_078_003.mp3","char_type_name":"word","page_number":457,"line_number":12,"text":"لَعْنَتِىٓ","translation":{"text":"আমার অভিশাপ","language_name":"bengali","language_id":20},"transliteration":{"text":"laʿnatī","language_name":"english","language_id":38}},{"id":63691,"position":4,"audio_url":"wbw/038_078_004.mp3","char_type_name":"word","page_number":457,"line_number":12,"text":"إِلَىٰ","translation":{"text":"পর্যন্ত","language_name":"bengali","language_id":20},"transliteration":{"text":"ilā","language_name":"english","language_id":38}},{"id":63692,"position":5,"audio_url":"wbw/038_078_005.mp3","char_type_name":"word","page_number":457,"line_number":12,"text":"يَوْمِ","translation":{"text":"দিন","language_name":"bengali","language_id":20},"transliteration":{"text":"yawmi","language_name":"english","language_id":38}},{"id":63693,"position":6,"audio_url":"wbw/038_078_006.mp3","char_type_name":"word","page_number":457,"line_number":12,"text":"ٱلدِّينِ","translation":{"text":"বিচার\"","language_name":"bengali","language_id":20},"transliteration":{"text":"l-dīni","language_name":"english","language_id":38}},{"id":63694,"position":7,"audio_url":null,"char_type_name":"end","page_number":457,"line_number":13,"text":"٧٨","translation":{"text":"(৭৮)","language_name":"bengali","language_id":20},"transliteration":{"text":null,"language_name":"english","language_id":38}}]},{"id":4049,"verse_number":79,"verse_key":"38:79","hizb_number":46,"rub_el_hizb_number":183,"ruku_number":397,"manzil_number":6,"sajdah_number":null,"page_number":457,"juz_number":23,"words":[{"id":64045,"position":1,"audio_url":"wbw/038_079_001.mp3","char_type_name":"word","page_number":457,"line_number":13,"text":"قَالَ","translation":{"text":"সে বললো","language_name":"bengali","language_id":20},"transliteration":{"text":"qāla","language_name":"english","language_id":38}},{"id":64046,"position":2,"audio_url":"wbw/038_079_002.mp3","char_type_name":"word","page_number":457,"line_number":13,"text":"رَبِّ","translation":{"text":"\"হে আমার রব","language_name":"bengali","language_id":20},"transliteration":{"text":"rabbi","language_name":"english","language_id":38}},{"id":64047,"position":3,"audio_url":"wbw/038_079_003.mp3","char_type_name":"word","page_number":457,"line_number":13,"text":"فَأَنظِرْنِىٓ","translation":{"text":"আমাকে তাহ'লে অবকাশ দিন","language_name":"bengali","language_id":20},"transliteration":{"text":"fa-anẓir'nī","language_name":"english","language_id":38}},{"id":64048,"position":4,"audio_url":"wbw/038_079_004.mp3","char_type_name":"word","page_number":457,"line_number":13,"text":"إِلَىٰ","translation":{"text":"পর্যন্ত","language_name":"bengali","language_id":20},"transliteration":{"text":"ilā","language_name":"english","language_id":38}},{"id":64049,"position":5,"audio_url":"wbw/038_079_005.mp3","char_type_name":"word","page_number":457,"line_number":13,"text":"يَوْمِ","translation":{"text":"দিন","language_name":"bengali","language_id":20},"transliteration":{"text":"yawmi","language_name":"english","language_id":38}},{"id":64050,"position":6,"audio_url":"wbw/038_079_006.mp3","char_type_name":"word","page_number":457,"line_number":13,"text":"يُبْعَثُونَ","translation":{"text":"উত্থানের\"","language_name":"bengali","language_id":20},"transliteration":{"text":"yub'ʿathūna","language_name":"english","language_id":38}},{"id":64051,"position":7,"audio_url":null,"char_type_name":"end","page_number":457,"line_number":13,"text":"٧٩","translation":{"text":"(৭৯)","language_name":"bengali","language_id":20},"transliteration":{"text":null,"language_name":"english","language_id":38}}]},{"id":4050,"verse_number":80,"verse_key":"38:80","hizb_number":46,"rub_el_hizb_number":183,"ruku_number":397,"manzil_number":6,"sajdah_number":null,"page_number":457,"juz_number":23,"words":[{"id":64450,"position":1,"audio_url":"wbw/038_080_001.mp3","char_type_name":"word","page_number":457,"line_number":13,"text":"قَالَ","translation":{"text":"(আল্লাহ) বললেন","language_name":"bengali","language_id":20},"transliteration":{"text":"qāla","language_name":"english","language_id":38}},{"id":64451,"position":2,"audio_url":"wbw/038_080_002.mp3","char_type_name":"word","page_number":457,"line_number":13,"text":"فَإِنَّكَ","translation":{"text":"\"নিশ্চযই তাহ'লে ়  তুমি","language_name":"bengali","language_id":20},"transliteration":{"text":"fa-innaka","language_name":"english","language_id":38}},{"id":64452,"position":3,"audio_url":"wbw/038_080_003.mp3","char_type_name":"word","page_number":457,"line_number":13,"text":"مِنَ","translation":{"text":"অন্তর্ভুক্ত","language_name":"bengali","language_id":20},"transliteration":{"text":"mina","language_name":"english","language_id":38}},{"id":64453,"position":4,"audio_url":"wbw/038_080_004.mp3","char_type_name":"word","page_number":457,"line_number":14,"text":"ٱلْمُنظَرِينَ","translation":{"text":"অবকাশ প্রাপ্তদের","language_name":"bengali","language_id":20},"transliteration":{"text":"l-munẓarīna","language_name":"english","language_id":38}},{"id":64454,"position":5,"audio_url":null,"char_type_name":"end","page_number":457,"line_number":14,"text":"٨٠","translation":{"text":"(৮০)","language_name":"bengali","language_id":20},"transliteration":{"text":null,"language_name":"english","language_id":38}}]}],"pagination":{"per_page":10,"current_page":8,"next_page":9,"total_pages":9,"total_records":88}}
