{"verses":[{"id":4051,"verse_number":81,"verse_key":"38:81","hizb_number":46,"rub_el_hizb_number":183,"ruku_number":397,"manzil_number":6,"sajdah_number":null,"page_number":457,"juz_number":23,"words":[{"id":64789,"position":1,"audio_url":"wbw/038_081_001.mp3","verse_key":"38:81","verse_id":4051,"location":"38:81:1","text_uthmani":"إِلَىٰ","qpc_uthmani_hafs":"إِلَىٰ","char_type_name":"word","page_number":457,"line_number":14,"text":"إِلَىٰ","translation":{"text":"পর্যন্ত","language_name":"bengali","language_id":20},"transliteration":{"text":"ilā","language_name":"english","language_id":38}},{"id":64790,"position":2,"audio_url":"wbw/038_081_002.mp3","verse_key":"38:81","verse_id":4051,"location":"38:81:2","text_uthmani":"يَوْمِ","qpc_uthmani_hafs":"يَوۡمِ","char_type_name":"word","page_number":457,"line_number":14,"text":"يَوۡمِ","translation":{"text":"দিন","language_name":"bengali","language_id":20},"transliteration":{"text":"yawmi","language_name":"english","language_id":38}},{"id":64791,"position":3,"audio_url":"wbw/038_081_003.mp3","verse_key":"38:81","verse_id":4051,"location":"38:81:3","text_uthmani":"ٱلْوَقْتِ","qpc_uthmani_hafs":"ٱلۡوَقۡتِ","char_type_name":"word","page_number":457,"line_number":14,"text":"ٱلۡوَقۡتِ","translation":{"text":"(এমন) সময়ের","language_name":"bengali","language_id":20},"transliteration":{"text":"l-waqti","language_name":"english","language_id":38}},{"id":64792,"position":4,"audio_url":"wbw/038_081_004.mp3","verse_key":"38:81","verse_id":4051,"location":"38:81:4","text_uthmani":"ٱلْمَعْلُومِ","qpc_uthmani_hafs":"ٱلۡمَعۡلُومِ","char_type_name":"word","page_number":457,"line_number":14,"text":"ٱلۡمَعۡلُومِ","translation":{"text":"(যা) অবধারিত\"","language_name":"bengali","language_id":20},"transliteration":{"text":"l-maʿlūmi","language_name":"english","language_id":38}},{"id":64793,"position":5,"audio_url":null,"verse_key":"38:81","verse_id":4051,"location":"38:81:5","text_uthmani":"٨١","qpc_uthmani_hafs":"٨١","char_type_name":"end","page_number":457,"line_number":14,"text":"٨١","translation":{"text":"(৮১)","language_name":"bengali","language_id":20},"transliteration":{"text":null,"language_name":"english","language_id":38}}]},{"id":4052,"verse_number":82,"verse_key":"38:82","hizb_number":46,"rub_el_hizb_number":183,"ruku_number":397,"manzil_number":6,"sajdah_number":null,"page_number":457,"juz_number":23,"words":[{"id":65237,"position":1,"audio_url":"wbw/038_082_001.mp3","verse_key":"38:82","verse_id":4052,"location":"38:82:1","text_uthmani":"قَالَ","qpc_uthmani_hafs":"قَالَ","char_type_name":"word","page_number":457,"line_number":14,"text":"قَالَ","translation":{"text":"সে বললো","language_name":"bengali","language_id":20},"transliteration":{"text":"qāla","language_name":"english","language_id":38}},{"id":65238,"position":2,"audio_url":"wbw/038_082_002.mp3","verse_key":"38:82","verse_id":4052,"location":"38:82:2","text_uthmani":"فَبِعِزَّتِكَ","qpc_uthmani_hafs":"فَبِعِزَّتِكَ","char_type_name":"word","page_number":457,"line_number":14,"text":"فَبِعِزَّتِكَ","translation":{"text":"\"আপনার সম্মানের শপথ তাহ'লে","language_name":"bengali","language_id":20},"transliteration":{"text":"fabiʿizzatika","language_name":"english","language_id":38}},{"id":65239,"position":3,"audio_url":"wbw/038_082_003.mp3","verse_key":"38:82","verse_id":4052,"location":"38:82:3","text_uthmani":"لَأُغْوِيَنَّهُمْ","qpc_uthmani_hafs":"لَأُغۡوِيَنَّهُمۡ","char_type_name":"word","page_number":457,"line_number":15,"text":"لَأُغۡوِيَنَّهُمۡ","translation":{"text":"তাদের অবশ্যই বিভ্রান্ত করবো আমি","language_name":"bengali","language_id":20},"transliteration":{"text":"la-ugh'wiyannahum","language_name":"english","language_id":38}},{"id":65240,"position":4,"audio_url":"wbw/038_082_004.mp3","verse_key":"38:82","verse_id":4052,"location":"38:82:4","text_uthmani":"أَجْمَعِينَ","qpc_uthmani_hafs":"أَجۡمَعِينَ","char_type_name":"word","page_number":457,"line_number":15,"text":"أَجۡمَعِينَ","translation":{"text":"সকলকেই","language_name":"bengali","language_id":20},"transliteration":{"text":"ajmaʿīna","language_name":"english","language_id":38}},{"id":65241,"position":5,"audio_url":null,"verse_key":"38:82","verse_id":4052,"location":"38:82:5","text_uthmani":"٨٢","qpc_uthmani_hafs":"٨٢","char_type_name":"end","page_number":457,"line_number":15,"text":"٨٢","translation":{"text":"(৮২)","language_name":"bengali","language_id":20},"transliteration":{"text":null,"language_name":"english","language_id":38}}]},{"id":4053,"verse_number":83,"verse_key":"38:83","hizb_number":46,"rub_el_hizb_number":183,"ruku_number":397,"manzil_number":6,"sajdah_number":null,"page_number":457,"juz_number":23,"words":[{"id":65589,"position":1,"audio_url":"wbw/038_083_001.mp3","verse_key":"38:83","verse_id":4053,"location":"38:83:1","text_uthmani":"إِلَّا","qpc_uthmani_hafs":"إِلَّا","char_type_name":"word","page_number":457,"line_number":15,"text":"إِلَّا","translation":{"text":"ব্যতীত","language_name":"bengali","language_id":20},"transliteration":{"text":"illā","language_name":"english","language_id":38}},{"id":65590,"position":2,"audio_url":"wbw/038_083_002.mp3","verse_key":"38:83","verse_id":4053,"location":"38:83:2","text_uthmani":"عِبَادَكَ","qpc_uthmani_hafs":"عِبَادَكَ","char_type_name":"word","page_number":457,"line_number":15,"text":"عِبَادَكَ","translation":{"text":"আপনার দাসদের","language_name":"bengali","language_id":20},"transliteration":{"text":"ʿibādaka","language_name":"english","language_id":38}},{"id":65591,"position":3,"audio_url":"wbw/038_083_003.mp3","verse_key":"38:83","verse_id":4053,"location":"38:83:3","text_uthmani":"مِنْهُمُ","qpc_uthmani_hafs":"مِنۡهُمُ","char_type_name":"word","page_number":457,"line_number":15,"text":"مِنۡهُمُ","translation":{"text":"তাদের মধ্যে হ'তে","language_name":"bengali","language_id":20},"transliteration":{"text":"min'humu","language_name":"english","language_id":38}},{"id":65592,"position":4,"audio_url":"wbw/038_083_004.mp3","verse_key":"38:83","verse_id":4053,"location":"38:83:4","text_uthmani":"ٱلْمُخْلَصِينَ","qpc_uthmani_hafs":"ٱلۡمُخۡلَصِينَ","char_type_name":"word","page_number":457,"line_number":15,"text":"ٱلۡمُخۡلَصِينَ","translation":{"text":"একনিষ্ঠ\"","language_name":"bengali","language_id":20},"transliteration":{"text":"l-mukh'laṣīna","language_name":"english","language_id":38}},{"id":65593,"position":5,"audio_url":null,"verse_key":"38:83","verse_id":4053,"location":"38:83:5","text_uthmani":"٨٣","qpc_uthmani_hafs":"٨٣","char_type_name":"end","page_number":457,"line_number":15,"text":"٨٣","translation":{"text":"(৮৩)","language_name":"bengali","language_id":20},"transliteration":{"text":null,"language_name":"english","language_id":38}}]},{"id":4054,"verse_number":84,"verse_key":"38:84","hizb_number":46,"rub_el_hizb_number":183,"ruku_number":397,"manzil_number":6,"sajdah_number":null,"page_number":458,"juz_number":23,"words":[{"id":65797,"position":1,"audio_url":"wbw/038_084_001.mp3","verse_key":"38:84","verse_id":4054,"location":"38:84:1","text_uthmani":"قَالَ","qpc_uthmani_hafs":"قَالَ","char_type_name":"word","page_number":458,"line_number":1,"text":"قَالَ","translation":{"text":"(আল্লাহ) বললেন","language_name":"bengali","language_id":20},"transliteration":{"text":"qāla","language_name":"english","language_id":38}},{"id":65798,"position":2,"audio_url":"wbw/038_084_002.mp3","verse_key":"38:84","verse_id":4054,"location":"38:84:2","text_uthmani":"فَٱلْحَقُّ","qpc_uthmani_hafs":"فَٱلۡحَقُّ","char_type_name":"word","page_number":458,"line_number":1,"text":"فَٱلۡحَقُّ","translation":{"text":"\"তবে (এটাই) সত্য","language_name":"bengali","language_id":20},"transliteration":{"text":"fal-ḥaqu","language_name":"english","language_id":38}},{"id":65799,"position":3,"audio_url":"wbw/038_084_003.mp3","verse_key":"38:84","verse_id":4054,"location":"38:84:3","text_uthmani":"وَٱلْحَقَّ","qpc_uthmani_hafs":"وَٱلۡحَقَّ","char_type_name":"word","page_number":458,"line_number":1,"text":"وَٱلۡحَقَّ","translation":{"text":"আর সত্যই","language_name":"bengali","language_id":20},"transliteration":{"text":"wal-ḥaqa","language_name":"english","language_id":38}},{"id":65800,"position":4,"audio_url":"wbw/038_084_004.mp3","verse_key":"38:84","verse_id":4054,"location":"38:84:4","text_uthmani":"أَقُولُ","qpc_uthmani_hafs":"أَقُولُ","char_type_name":"word","page_number":458,"line_number":1,"text":"أَقُولُ","translation":{"text":"আমি বলি","language_name":"bengali","language_id":20},"transliteration":{"text":"aqūlu","language_name":"english","language_id":38}},{"id":65801,"position":5,"audio_url":null,"verse_key":"38:84","verse_id":4054,"location":"38:84:5","text_uthmani":"٨٤","qpc_uthmani_hafs":"٨٤","char_type_name":"end","page_number":458,"line_number":1,"text":"٨٤","translation":{"text":"(৮৪)","language_name":"bengali","language_id":20},"transliteration":{"text":null,"language_name":"english","language_id":38}}]},{"id":4055,"verse_number":85,"verse_key":"38:85","hizb_number":46,"rub_el_hizb_number":183,"ruku_number":397,"manzil_number":6,"sajdah_number":null,"page_number":458,"juz_number":23,"words":[{"id":66310,"position":1,"audio_url":"wbw/038_085_001.mp3","verse_key":"38:85","verse_id":4055,"location":"38:85:1","text_uthmani":"لَأَمْلَأَنَّ","qpc_uthmani_hafs":"لَأَمۡلَأَنَّ","char_type_name":"word","page_number":458,"line_number":1,"text":"لَأَمۡلَأَنَّ","translation":{"text":"আমি অবশ্যই ভরিয়ে তুলবো","language_name":"bengali","language_id":20},"transliteration":{"text":"la-amla-anna","language_name":"english","language_id":38}},{"id":66311,"position":2,"audio_url":"wbw/038_085_002.mp3","verse_key":"38:85","verse_id":4055,"location":"38:85:2","text_uthmani":"جَهَنَّمَ","qpc_uthmani_hafs":"جَهَنَّمَ","char_type_name":"word","page_number":458,"line_number":1,"text":"جَهَنَّمَ","translation":{"text":"জাহান্নামকে","language_name":"bengali","language_id":20},"transliteration":{"text":"jahannama","language_name":"english","language_id":38}},{"id":66312,"position":3,"audio_url":"wbw/038_085_003.mp3","verse_key":"38:85","verse_id":4055,"location":"38:85:3","text_uthmani":"مِنكَ","qpc_uthmani_hafs":"مِنكَ","char_type_name":"word","page_number":458,"line_number":1,"text":"مِنكَ","translation":{"text":"তোমার দ্বারা","language_name":"bengali","language_id":20},"transliteration":{"text":"minka","language_name":"english","language_id":38}},{"id":66313,"position":4,"audio_url":"wbw/038_085_004.mp3","verse_key":"38:85","verse_id":4055,"location":"38:85:4","text_uthmani":"وَمِمَّن","qpc_uthmani_hafs":"وَمِمَّن","char_type_name":"word","page_number":458,"line_number":1,"text":"وَمِمَّن","translation":{"text":"ও তার দ্বারা যে","language_name":"bengali","language_id":20},"transliteration":{"text":"wamimman","language_name":"english","language_id":38}},{"id":66314,"position":5,"audio_url":"wbw/038_085_005.mp3","verse_key":"38:85","verse_id":4055,"location":"38:85:5","text_uthmani":"تَبِعَكَ","qpc_uthmani_hafs":"تَبِعَكَ","char_type_name":"word","page_number":458,"line_number":1,"text":"تَبِعَكَ","translation":{"text":"তোমার অনুসরণ করবে","language_name":"bengali","language_id":20},"transliteration":{"text":"tabiʿaka","language_name":"english","language_id":38}},{"id":66315,"position":6,"audio_url":"wbw/038_085_006.mp3","verse_key":"38:85","verse_id":4055,"location":"38:85:6","text_uthmani":"مِنْهُمْ","qpc_uthmani_hafs":"مِنۡهُمۡ","char_type_name":"word","page_number":458,"line_number":1,"text":"مِنۡهُمۡ","translation":{"text":"তাদের মধ্যে হ'তে","language_name":"bengali","language_id":20},"transliteration":{"text":"min'hum","language_name":"english","language_id":38}},{"id":66316,"position":7,"audio_url":"wbw/038_085_007.mp3","verse_key":"38:85","verse_id":4055,"location":"38:85:7","text_uthmani":"أَجْمَعِينَ","qpc_uthmani_hafs":"أَجۡمَعِينَ","char_type_name":"word","page_number":458,"line_number":2,"text":"أَجۡمَعِينَ","translation":{"text":"সকলের (দ্বারা)\"","language_name":"bengali","language_id":20},"transliteration":{"text":"ajmaʿīna","language_name":"english","language_id":38}},{"id":66317,"position":8,"audio_url":null,"verse_key":"38:85","verse_id":4055,"location":"38:85:8","text_uthmani":"٨٥","qpc_uthmani_hafs":"٨٥","char_type_name":"end","page_number":458,"line_number":2,"text":"٨٥","translation":{"text":"(৮৫)","language_name":"bengali","language_id":20},"transliteration":{"text":null,"language_name":"english","language_id":38}}]},{"id":4056,"verse_number":86,"verse_key":"38:86","hizb_number":46,"rub_el_hizb_number":183,"ruku_number":397,"manzil_number":6,"sajdah_number":null,"page_number":458,"juz_number":23,"words":[{"id":66711,"position":1,"audio_url":"wbw/038_086_001.mp3","verse_key":"38:86","verse_id":4056,"location":"38:86:1","text_uthmani":"قُلْ","qpc_uthmani_hafs":"قُلۡ","char_type_name":"word","page_number":458,"line_number":2,"text":"قُلۡ","translation":{"text":"(হে নাবী) বলো","language_name":"bengali","language_id":20},"transliteration":{"text":"qul","language_name":"english","language_id":38}},{"id":66712,"position":2,"audio_url":"wbw/038_086_002.mp3","verse_key":"38:86","verse_id":4056,"location":"38:86:2","text_uthmani":"مَآ","qpc_uthmani_hafs":"مَآ","char_type_name":"word","page_number":458,"line_number":2,"text":"مَآ","translation":{"text":"\"না","language_name":"bengali","language_id":20},"transliteration":{"text":"mā","language_name":"english","language_id":38}},{"id":66713,"position":3,"audio_url":"wbw/038_086_003.mp3","verse_key":"38:86","verse_id":4056,"location":"38:86:3","text_uthmani":"أَسْـَٔلُكُمْ","qpc_uthmani_hafs":"أَسۡـَٔلُكُمۡ","char_type_name":"word","page_number":458,"line_number":2,"text":"أَسۡـَٔلُكُمۡ","translation":{"text":"তোমাদের কাছে চাই আমি","language_name":"bengali","language_id":20},"transliteration":{"text":"asalukum","language_name":"english","language_id":38}},{"id":66714,"position":4,"audio_url":"wbw/038_086_004.mp3","verse_key":"38:86","verse_id":4056,"location":"38:86:4","text_uthmani":"عَلَيْهِ","qpc_uthmani_hafs":"عَلَيۡهِ","char_type_name":"word","page_number":458,"line_number":2,"text":"عَلَيۡهِ","translation":{"text":"এর উপর","language_name":"bengali","language_id":20},"transliteration":{"text":"ʿalayhi","language_name":"english","language_id":38}},{"id":66715,"position":5,"audio_url":"wbw/038_086_005.mp3","verse_key":"38:86","verse_id":4056,"location":"38:86:5","text_uthmani":"مِنْ","qpc_uthmani_hafs":"مِنۡ","char_type_name":"word","page_number":458,"line_number":2,"text":"مِنۡ","translation":{"text":"কোনো","language_name":"bengali","language_id":20},"transliteration":{"text":"min","language_name":"english","language_id":38}},{"id":66716,"position":6,"audio_url":"wbw/038_086_006.mp3","verse_key":"38:86","verse_id":4056,"location":"38:86:6","text_uthmani":"أَجْرٍۢ","qpc_uthmani_hafs":"أَجۡرٖ","char_type_name":"word","page_number":458,"line_number":2,"text":"أَجۡرٖ","translation":{"text":"পারিশ্রমিক","language_name":"bengali","language_id":20},"transliteration":{"text":"ajrin","language_name":"english","language_id":38}},{"id":66717,"position":7,"audio_url":"wbw/038_086_007.mp3","verse_key":"38:86","verse_id":4056,"location":"38:86:7","text_uthmani":"وَمَآ","qpc_uthmani_hafs":"وَمَآ","char_type_name":"word","page_number":458,"line_number":2,"text":"وَمَآ","translation":{"text":"আর না","language_name":"bengali","language_id":20},"transliteration":{"text":"wamā","language_name":"english","language_id":38}},{"id":66718,"position":8,"audio_url":"wbw/038_086_008.mp3","verse_key":"38:86","verse_id":4056,"location":"38:86:8","text_uthmani":"أَنَا۠","qpc_uthmani_hafs":"أَنَا۠","char_type_name":"word","page_number":458,"line_number":2,"text":"أَنَا۠","translation":{"text":"আমি","language_name":"bengali","language_id":20},"transliteration":{"text":"anā","language_name":"english","language_id":38}},{"id":66719,"position":9,"audio_url":"wbw/038_086_009.mp3","verse_key":"38:86","verse_id":4056,"location":"38:86:9","text_uthmani":"مِنَ","qpc_uthmani_hafs":"مِنَ","char_type_name":"word","page_number":458,"line_number":2,"text":"مِنَ","translation":{"text":"অন্তর্ভুক্ত","language_name":"bengali","language_id":20},"transliteration":{"text":"mina","language_name":"english","language_id":38}},{"id":66720,"position":10,"audio_url":"wbw/038_086_010.mp3","verse_key":"38:86","verse_id":4056,"location":"38:86:10","text_uthmani":"ٱلْمُتَكَلِّفِينَ","qpc_uthmani_hafs":"ٱلۡمُتَكَلِّفِينَ","char_type_name":"word","page_number":458,"line_number":2,"text":"ٱلۡمُتَكَلِّفِينَ","translation":{"text":"ভানকারীদের","language_name":"bengali","language_id":20},"transliteration":{"text":"l-mutakalifīna","language_name":"english","language_id":38}},{"id":66721,"position":11,"audio_url":null,"verse_key":"38:86","verse_id":4056,"location":"38:86:11","text_uthmani":"٨٦","qpc_uthmani_hafs":"٨٦","char_type_name":"end","page_number":458,"line_number":3,"text":"٨٦","translation":{"text":"(৮৬)","language_name":"bengali","language_id":20},"transliteration":{"text":null,"language_name":"english","language_id":38}}]},{"id":4057,"verse_number":87,"verse_key":"38:87","hizb_number":46,"rub_el_hizb_number":183,"ruku_number":397,"manzil_number":6,"sajdah_number":null,"page_number":458,"juz_number":23,"words":[{"id":66979,"position":1,"audio_url":"wbw/038_087_001.mp3","verse_key":"38:87","verse_id":4057,"location":"38:87:1","text_uthmani":"إِنْ","qpc_uthmani_hafs":"إِنۡ","char_type_name":"word","page_number":458,"line_number":3,"text":"إِنۡ","translation":{"text":"নয়","language_name":"bengali","language_id":20},"transliteration":{"text":"in","language_name":"english","language_id":38}},{"id":66980,"position":2,"audio_url":"wbw/038_087_002.mp3","verse_key":"38:87","verse_id":4057,"location":"38:87:2","text_uthmani":"هُوَ","qpc_uthmani_hafs":"هُوَ","char_type_name":"word","page_number":458,"line_number":3,"text":"هُوَ","translation":{"text":"তা","language_name":"bengali","language_id":20},"transliteration":{"text":"huwa","language_name":"english","language_id":38}},{"id":66981,"position":3,"audio_url":"wbw/038_087_003.mp3","verse_key":"38:87","verse_id":4057,"location":"38:87:3","text_uthmani":"إِلَّا","qpc_uthmani_hafs":"إِلَّا","char_type_name":"word","page_number":458,"line_number":3,"text":"إِلَّا","translation":{"text":"এ ব্যতীত","language_name":"bengali","language_id":20},"transliteration":{"text":"illā","language_name":"english","language_id":38}},{"id":66982,"position":4,"audio_url":"wbw/038_087_004.mp3","verse_key":"38:87","verse_id":4057,"location":"38:87:4","text_uthmani":"ذِكْرٌۭ","qpc_uthmani_hafs":"ذِكۡرٞ","char_type_name":"word","page_number":458,"line_number":3,"text":"ذِكۡرٞ","translation":{"text":"উপদেশ","language_name":"bengali","language_id":20},"transliteration":{"text":"dhik'run","language_name":"english","language_id":38}},{"id":66983,"position":5,"audio_url":"wbw/038_087_005.mp3","verse_key":"38:87","verse_id":4057,"location":"38:87:5","text_uthmani":"لِّلْعَـٰلَمِينَ","qpc_uthmani_hafs":"لِّلۡعَٰلَمِينَ","char_type_name":"word","page_number":458,"line_number":3,"text":"لِّلۡعَٰلَمِينَ","translation":{"text":"বিশ্ববাসীদের জন্যে","language_name":"bengali","language_id":20},"transliteration":{"text":"lil'ʿālamīna","language_name":"english","language_id":38}},{"id":66984,"position":6,"audio_url":null,"verse_key":"38:87","verse_id":4057,"location":"38:87:6","text_uthmani":"٨٧","qpc_uthmani_hafs":"٨٧","char_type_name":"end","page_number":458,"line_number":3,"text":"٨٧","translation":{"text":"(৮৭)","language_name":"bengali","language_id":20},"transliteration":{"text":null,"language_name":"english","language_id":38}}]},{"id":4058,"verse_number":88,"verse_key":"38:88","hizb_number":46,"rub_el_hizb_number":183,"ruku_number":397,"manzil_number":6,"sajdah_number":null,"page_number":458,"juz_number":23,"words":[{"id":67225,"position":1,"audio_url":"wbw/038_088_001.mp3","verse_key":"38:88","verse_id":4058,"location":"38:88:1","text_uthmani":"وَلَتَعْلَمُنَّ","qpc_uthmani_hafs":"وَلَتَعۡلَمُنَّ","char_type_name":"word","page_number":458,"line_number":3,"text":"وَلَتَعۡلَمُنَّ","translation":{"text":"এবং তোমরা অবশ্যই জানবে","language_name":"bengali","language_id":20},"transliteration":{"text":"walataʿlamunna","language_name":"english","language_id":38}},{"id":67226,"position":2,"audio_url":"wbw/038_088_002.mp3","verse_key":"38:88","verse_id":4058,"location":"38:88:2","text_uthmani":"نَبَأَهُۥ","qpc_uthmani_hafs":"نَبَأَهُۥ","char_type_name":"word","page_number":458,"line_number":3,"text":"نَبَأَهُۥ","translation":{"text":"তার খবর","language_name":"bengali","language_id":20},"transliteration":{"text":"naba-ahu","language_name":"english","language_id":38}},{"id":67227,"position":3,"audio_url":"wbw/038_088_003.mp3","verse_key":"38:88","verse_id":4058,"location":"38:88:3","text_uthmani":"بَعْدَ","qpc_uthmani_hafs":"بَعۡدَ","char_type_name":"word","page_number":458,"line_number":3,"text":"بَعۡدَ","translation":{"text":"পরেই","language_name":"bengali","language_id":20},"transliteration":{"text":"baʿda","language_name":"english","language_id":38}},{"id":67228,"position":4,"audio_url":"wbw/038_088_004.mp3","verse_key":"38:88","verse_id":4058,"location":"38:88:4","text_uthmani":"حِينٍۭ","qpc_uthmani_hafs":"حِينِۭ","char_type_name":"word","page_number":458,"line_number":3,"text":"حِينِۭ","translation":{"text":"কিছুকাল\"","language_name":"bengali","language_id":20},"transliteration":{"text":"ḥīnin","language_name":"english","language_id":38}},{"id":67229,"position":5,"audio_url":null,"verse_key":"38:88","verse_id":4058,"location":"38:88:5","text_uthmani":"٨٨","qpc_uthmani_hafs":"٨٨","char_type_name":"end","page_number":458,"line_number":3,"text":"٨٨","translation":{"text":"(৮৮)","language_name":"bengali","language_id":20},"transliteration":{"text":null,"language_name":"english","language_id":38}}]}],"pagination":{"per_page":10,"current_page":9,"next_page":null,"total_pages":9,"total_records":88}}
