{"verses":[{"id":1748,"verse_number":41,"verse_key":"13:41","hizb_number":26,"rub_el_hizb_number":102,"ruku_number":210,"manzil_number":3,"sajdah_number":null,"page_number":254,"juz_number":13,"words":[{"id":42533,"position":1,"audio_url":"wbw/013_041_001.mp3","char_type_name":"word","page_number":254,"line_number":12,"text":"أَوَلَمْ","translation":{"text":"কি নি","language_name":"bengali","language_id":20},"transliteration":{"text":"awalam","language_name":"english","language_id":38}},{"id":42534,"position":2,"audio_url":"wbw/013_041_002.mp3","char_type_name":"word","page_number":254,"line_number":12,"text":"يَرَوْا۟","translation":{"text":"তারা দেখে","language_name":"bengali","language_id":20},"transliteration":{"text":"yaraw","language_name":"english","language_id":38}},{"id":42535,"position":3,"audio_url":"wbw/013_041_003.mp3","char_type_name":"word","page_number":254,"line_number":12,"text":"أَنَّا","translation":{"text":"যে আমরা","language_name":"bengali","language_id":20},"transliteration":{"text":"annā","language_name":"english","language_id":38}},{"id":42536,"position":4,"audio_url":"wbw/013_041_004.mp3","char_type_name":"word","page_number":254,"line_number":12,"text":"نَأْتِى","translation":{"text":"আমরা চলে আসছি","language_name":"bengali","language_id":20},"transliteration":{"text":"natī","language_name":"english","language_id":38}},{"id":42537,"position":5,"audio_url":"wbw/013_041_005.mp3","char_type_name":"word","page_number":254,"line_number":12,"text":"ٱلْأَرْضَ","translation":{"text":"জমিনের (উপর)","language_name":"bengali","language_id":20},"transliteration":{"text":"l-arḍa","language_name":"english","language_id":38}},{"id":42538,"position":6,"audio_url":"wbw/013_041_006.mp3","char_type_name":"word","page_number":254,"line_number":12,"text":"نَنقُصُهَا","translation":{"text":"তা সংকুচিত করছি আমরা","language_name":"bengali","language_id":20},"transliteration":{"text":"nanquṣuhā","language_name":"english","language_id":38}},{"id":42539,"position":7,"audio_url":"wbw/013_041_007.mp3","char_type_name":"word","page_number":254,"line_number":13,"text":"مِنْ","translation":{"text":"হ'তে","language_name":"bengali","language_id":20},"transliteration":{"text":"min","language_name":"english","language_id":38}},{"id":42540,"position":8,"audio_url":"wbw/013_041_008.mp3","char_type_name":"word","page_number":254,"line_number":13,"text":"أَطْرَافِهَا ۚ","translation":{"text":"তার চারপাশ","language_name":"bengali","language_id":20},"transliteration":{"text":"aṭrāfihā","language_name":"english","language_id":38}},{"id":42542,"position":9,"audio_url":"wbw/013_041_010.mp3","char_type_name":"word","page_number":254,"line_number":13,"text":"وَٱللَّهُ","translation":{"text":"এবং আল্লাহ","language_name":"bengali","language_id":20},"transliteration":{"text":"wal-lahu","language_name":"english","language_id":38}},{"id":42543,"position":10,"audio_url":"wbw/013_041_011.mp3","char_type_name":"word","page_number":254,"line_number":13,"text":"يَحْكُمُ","translation":{"text":"আদেশ করেন","language_name":"bengali","language_id":20},"transliteration":{"text":"yaḥkumu","language_name":"english","language_id":38}},{"id":42544,"position":11,"audio_url":"wbw/013_041_012.mp3","char_type_name":"word","page_number":254,"line_number":13,"text":"لَا","translation":{"text":"নেই","language_name":"bengali","language_id":20},"transliteration":{"text":"lā","language_name":"english","language_id":38}},{"id":42545,"position":12,"audio_url":"wbw/013_041_013.mp3","char_type_name":"word","page_number":254,"line_number":13,"text":"مُعَقِّبَ","translation":{"text":"কোনো প্রতিহতকারী","language_name":"bengali","language_id":20},"transliteration":{"text":"muʿaqqiba","language_name":"english","language_id":38}},{"id":42546,"position":13,"audio_url":"wbw/013_041_014.mp3","char_type_name":"word","page_number":254,"line_number":13,"text":"لِحُكْمِهِۦ ۚ","translation":{"text":"তাঁর আদেশের","language_name":"bengali","language_id":20},"transliteration":{"text":"liḥuk'mihi","language_name":"english","language_id":38}},{"id":42548,"position":14,"audio_url":"wbw/013_041_016.mp3","char_type_name":"word","page_number":254,"line_number":13,"text":"وَهُوَ","translation":{"text":"এবং তিনি","language_name":"bengali","language_id":20},"transliteration":{"text":"wahuwa","language_name":"english","language_id":38}},{"id":42549,"position":15,"audio_url":"wbw/013_041_017.mp3","char_type_name":"word","page_number":254,"line_number":13,"text":"سَرِيعُ","translation":{"text":"দ্রুত","language_name":"bengali","language_id":20},"transliteration":{"text":"sarīʿu","language_name":"english","language_id":38}},{"id":42550,"position":16,"audio_url":"wbw/013_041_018.mp3","char_type_name":"word","page_number":254,"line_number":14,"text":"ٱلْحِسَابِ","translation":{"text":"হিসাব-নিকাশে","language_name":"bengali","language_id":20},"transliteration":{"text":"l-ḥisābi","language_name":"english","language_id":38}},{"id":42551,"position":17,"audio_url":null,"char_type_name":"end","page_number":254,"line_number":14,"text":"٤١","translation":{"text":"(৪১)","language_name":"bengali","language_id":20},"transliteration":{"text":null,"language_name":"english","language_id":38}}]},{"id":1749,"verse_number":42,"verse_key":"13:42","hizb_number":26,"rub_el_hizb_number":102,"ruku_number":210,"manzil_number":3,"sajdah_number":null,"page_number":254,"juz_number":13,"words":[{"id":43232,"position":1,"audio_url":"wbw/013_042_001.mp3","char_type_name":"word","page_number":254,"line_number":14,"text":"وَقَدْ","translation":{"text":"এবং নিশ্চয়ই","language_name":"bengali","language_id":20},"transliteration":{"text":"waqad","language_name":"english","language_id":38}},{"id":43233,"position":2,"audio_url":"wbw/013_042_002.mp3","char_type_name":"word","page_number":254,"line_number":14,"text":"مَكَرَ","translation":{"text":"চক্রান্ত করেছিলো","language_name":"bengali","language_id":20},"transliteration":{"text":"makara","language_name":"english","language_id":38}},{"id":43234,"position":3,"audio_url":"wbw/013_042_003.mp3","char_type_name":"word","page_number":254,"line_number":14,"text":"ٱلَّذِينَ","translation":{"text":"যারা","language_name":"bengali","language_id":20},"transliteration":{"text":"alladhīna","language_name":"english","language_id":38}},{"id":43235,"position":4,"audio_url":"wbw/013_042_004.mp3","char_type_name":"word","page_number":254,"line_number":14,"text":"مِن","translation":{"text":"থেকে","language_name":"bengali","language_id":20},"transliteration":{"text":"min","language_name":"english","language_id":38}},{"id":43236,"position":5,"audio_url":"wbw/013_042_005.mp3","char_type_name":"word","page_number":254,"line_number":14,"text":"قَبْلِهِمْ","translation":{"text":"পূর্ব তাদের (ছিলো)","language_name":"bengali","language_id":20},"transliteration":{"text":"qablihim","language_name":"english","language_id":38}},{"id":43237,"position":6,"audio_url":"wbw/013_042_006.mp3","char_type_name":"word","page_number":254,"line_number":14,"text":"فَلِلَّهِ","translation":{"text":"অতএব অধীনে আল্লাহর","language_name":"bengali","language_id":20},"transliteration":{"text":"falillahi","language_name":"english","language_id":38}},{"id":43238,"position":7,"audio_url":"wbw/013_042_007.mp3","char_type_name":"word","page_number":254,"line_number":14,"text":"ٱلْمَكْرُ","translation":{"text":"চক্রান্ত","language_name":"bengali","language_id":20},"transliteration":{"text":"l-makru","language_name":"english","language_id":38}},{"id":43239,"position":8,"audio_url":"wbw/013_042_008.mp3","char_type_name":"word","page_number":254,"line_number":14,"text":"جَمِيعًۭا ۖ","translation":{"text":"সমস্তই","language_name":"bengali","language_id":20},"transliteration":{"text":"jamīʿan","language_name":"english","language_id":38}},{"id":43241,"position":9,"audio_url":"wbw/013_042_010.mp3","char_type_name":"word","page_number":254,"line_number":15,"text":"يَعْلَمُ","translation":{"text":"তিনি জানেন","language_name":"bengali","language_id":20},"transliteration":{"text":"yaʿlamu","language_name":"english","language_id":38}},{"id":43242,"position":10,"audio_url":"wbw/013_042_011.mp3","char_type_name":"word","page_number":254,"line_number":15,"text":"مَا","translation":{"text":"যা","language_name":"bengali","language_id":20},"transliteration":{"text":"mā","language_name":"english","language_id":38}},{"id":43243,"position":11,"audio_url":"wbw/013_042_012.mp3","char_type_name":"word","page_number":254,"line_number":15,"text":"تَكْسِبُ","translation":{"text":"অর্জন করে","language_name":"bengali","language_id":20},"transliteration":{"text":"taksibu","language_name":"english","language_id":38}},{"id":43244,"position":12,"audio_url":"wbw/013_042_013.mp3","char_type_name":"word","page_number":254,"line_number":15,"text":"كُلُّ","translation":{"text":"প্রত্যেক","language_name":"bengali","language_id":20},"transliteration":{"text":"kullu","language_name":"english","language_id":38}},{"id":43245,"position":13,"audio_url":"wbw/013_042_014.mp3","char_type_name":"word","page_number":254,"line_number":15,"text":"نَفْسٍۢ ۗ","translation":{"text":"ব্যক্তি","language_name":"bengali","language_id":20},"transliteration":{"text":"nafsin","language_name":"english","language_id":38}},{"id":43247,"position":14,"audio_url":"wbw/013_042_016.mp3","char_type_name":"word","page_number":254,"line_number":15,"text":"وَسَيَعْلَمُ","translation":{"text":"এবং শীঘ্রই জানবে","language_name":"bengali","language_id":20},"transliteration":{"text":"wasayaʿlamu","language_name":"english","language_id":38}},{"id":43248,"position":15,"audio_url":"wbw/013_042_017.mp3","char_type_name":"word","page_number":254,"line_number":15,"text":"ٱلْكُفَّـٰرُ","translation":{"text":"কাফেররা","language_name":"bengali","language_id":20},"transliteration":{"text":"l-kufāru","language_name":"english","language_id":38}},{"id":43249,"position":16,"audio_url":"wbw/013_042_018.mp3","char_type_name":"word","page_number":254,"line_number":15,"text":"لِمَنْ","translation":{"text":"কার জন্যে","language_name":"bengali","language_id":20},"transliteration":{"text":"liman","language_name":"english","language_id":38}},{"id":43250,"position":17,"audio_url":"wbw/013_042_019.mp3","char_type_name":"word","page_number":254,"line_number":15,"text":"عُقْبَى","translation":{"text":"পরকালের","language_name":"bengali","language_id":20},"transliteration":{"text":"ʿuq'bā","language_name":"english","language_id":38}},{"id":43251,"position":18,"audio_url":"wbw/013_042_020.mp3","char_type_name":"word","page_number":254,"line_number":15,"text":"ٱلدَّارِ","translation":{"text":"ঘর","language_name":"bengali","language_id":20},"transliteration":{"text":"l-dāri","language_name":"english","language_id":38}},{"id":43252,"position":19,"audio_url":null,"char_type_name":"end","page_number":254,"line_number":15,"text":"٤٢","translation":{"text":"(৪২)","language_name":"bengali","language_id":20},"transliteration":{"text":null,"language_name":"english","language_id":38}}]},{"id":1750,"verse_number":43,"verse_key":"13:43","hizb_number":26,"rub_el_hizb_number":102,"ruku_number":210,"manzil_number":3,"sajdah_number":null,"page_number":255,"juz_number":13,"words":[{"id":43974,"position":1,"audio_url":"wbw/013_043_001.mp3","char_type_name":"word","page_number":255,"line_number":1,"text":"وَيَقُولُ","translation":{"text":"এবং বলে","language_name":"bengali","language_id":20},"transliteration":{"text":"wayaqūlu","language_name":"english","language_id":38}},{"id":43975,"position":2,"audio_url":"wbw/013_043_002.mp3","char_type_name":"word","page_number":255,"line_number":1,"text":"ٱلَّذِينَ","translation":{"text":"যারা","language_name":"bengali","language_id":20},"transliteration":{"text":"alladhīna","language_name":"english","language_id":38}},{"id":43976,"position":3,"audio_url":"wbw/013_043_003.mp3","char_type_name":"word","page_number":255,"line_number":1,"text":"كَفَرُوا۟","translation":{"text":"অস্বীকার করেছে","language_name":"bengali","language_id":20},"transliteration":{"text":"kafarū","language_name":"english","language_id":38}},{"id":43977,"position":4,"audio_url":"wbw/013_043_004.mp3","char_type_name":"word","page_number":255,"line_number":1,"text":"لَسْتَ","translation":{"text":"\"তুমি নও","language_name":"bengali","language_id":20},"transliteration":{"text":"lasta","language_name":"english","language_id":38}},{"id":43978,"position":5,"audio_url":"wbw/013_043_005.mp3","char_type_name":"word","page_number":255,"line_number":1,"text":"مُرْسَلًۭا ۚ","translation":{"text":"প্রেরিত (নাবী)\"","language_name":"bengali","language_id":20},"transliteration":{"text":"mur'salan","language_name":"english","language_id":38}},{"id":43980,"position":6,"audio_url":"wbw/013_043_007.mp3","char_type_name":"word","page_number":255,"line_number":1,"text":"قُلْ","translation":{"text":"বলো","language_name":"bengali","language_id":20},"transliteration":{"text":"qul","language_name":"english","language_id":38}},{"id":43981,"position":7,"audio_url":"wbw/013_043_008.mp3","char_type_name":"word","page_number":255,"line_number":1,"text":"كَفَىٰ","translation":{"text":"\"যথেষ্ট","language_name":"bengali","language_id":20},"transliteration":{"text":"kafā","language_name":"english","language_id":38}},{"id":43982,"position":8,"audio_url":"wbw/013_043_009.mp3","char_type_name":"word","page_number":255,"line_number":1,"text":"بِٱللَّهِ","translation":{"text":"আল্লাহ তা'লা-ই","language_name":"bengali","language_id":20},"transliteration":{"text":"bil-lahi","language_name":"english","language_id":38}},{"id":43983,"position":9,"audio_url":"wbw/013_043_010.mp3","char_type_name":"word","page_number":255,"line_number":1,"text":"شَهِيدًۢا","translation":{"text":"সাক্ষী হিসেবে","language_name":"bengali","language_id":20},"transliteration":{"text":"shahīdan","language_name":"english","language_id":38}},{"id":43984,"position":10,"audio_url":"wbw/013_043_011.mp3","char_type_name":"word","page_number":255,"line_number":2,"text":"بَيْنِى","translation":{"text":"আমার মাঝে","language_name":"bengali","language_id":20},"transliteration":{"text":"baynī","language_name":"english","language_id":38}},{"id":43985,"position":11,"audio_url":"wbw/013_043_012.mp3","char_type_name":"word","page_number":255,"line_number":2,"text":"وَبَيْنَكُمْ","translation":{"text":"ও তোমাদের মাঝে","language_name":"bengali","language_id":20},"transliteration":{"text":"wabaynakum","language_name":"english","language_id":38}},{"id":43986,"position":12,"audio_url":"wbw/013_043_013.mp3","char_type_name":"word","page_number":255,"line_number":2,"text":"وَمَنْ","translation":{"text":"এবং (সাক্ষ্য) যে","language_name":"bengali","language_id":20},"transliteration":{"text":"waman","language_name":"english","language_id":38}},{"id":43987,"position":13,"audio_url":"wbw/013_043_014.mp3","char_type_name":"word","page_number":255,"line_number":2,"text":"عِندَهُۥ","translation":{"text":"তার কাছে আছে","language_name":"bengali","language_id":20},"transliteration":{"text":"ʿindahu","language_name":"english","language_id":38}},{"id":43988,"position":14,"audio_url":"wbw/013_043_015.mp3","char_type_name":"word","page_number":255,"line_number":2,"text":"عِلْمُ","translation":{"text":"জ্ঞান","language_name":"bengali","language_id":20},"transliteration":{"text":"ʿil'mu","language_name":"english","language_id":38}},{"id":43989,"position":15,"audio_url":"wbw/013_043_016.mp3","char_type_name":"word","page_number":255,"line_number":2,"text":"ٱلْكِتَـٰبِ","translation":{"text":"(আসমানী) কিতাবের\"","language_name":"bengali","language_id":20},"transliteration":{"text":"l-kitābi","language_name":"english","language_id":38}},{"id":43990,"position":16,"audio_url":null,"char_type_name":"end","page_number":255,"line_number":2,"text":"٤٣","translation":{"text":"(৪৩)","language_name":"bengali","language_id":20},"transliteration":{"text":null,"language_name":"english","language_id":38}}]}],"pagination":{"per_page":10,"current_page":5,"next_page":null,"total_pages":5,"total_records":43}}
