{"verses":[{"id":5910,"verse_number":1,"verse_key":"85:1","hizb_number":59,"rub_el_hizb_number":236,"ruku_number":529,"manzil_number":7,"sajdah_number":null,"page_number":590,"juz_number":30,"words":[{"id":712,"position":1,"audio_url":"wbw/085_001_001.mp3","verse_key":"85:1","verse_id":5910,"location":"85:1:1","text_uthmani":"وَٱلسَّمَآءِ","qpc_uthmani_hafs":"وَٱلسَّمَآءِ","char_type_name":"word","page_number":590,"line_number":4,"text":"وَٱلسَّمَآءِ","translation":{"text":"শপথ আকাশের","language_name":"bengali","language_id":20},"transliteration":{"text":"wal-samāi","language_name":"english","language_id":38}},{"id":713,"position":2,"audio_url":"wbw/085_001_002.mp3","verse_key":"85:1","verse_id":5910,"location":"85:1:2","text_uthmani":"ذَاتِ","qpc_uthmani_hafs":"ذَاتِ","char_type_name":"word","page_number":590,"line_number":4,"text":"ذَاتِ","translation":{"text":"বিশিষ্ট","language_name":"bengali","language_id":20},"transliteration":{"text":"dhāti","language_name":"english","language_id":38}},{"id":714,"position":3,"audio_url":"wbw/085_001_003.mp3","verse_key":"85:1","verse_id":5910,"location":"85:1:3","text_uthmani":"ٱلْبُرُوجِ","qpc_uthmani_hafs":"ٱلۡبُرُوجِ","char_type_name":"word","page_number":590,"line_number":4,"text":"ٱلۡبُرُوجِ","translation":{"text":"বুরুজ/ গ্রহ-নক্ষত্র","language_name":"bengali","language_id":20},"transliteration":{"text":"l-burūji","language_name":"english","language_id":38}},{"id":715,"position":4,"audio_url":null,"verse_key":"85:1","verse_id":5910,"location":"85:1:4","text_uthmani":"١","qpc_uthmani_hafs":"١","char_type_name":"end","page_number":590,"line_number":4,"text":"١","translation":{"text":"(১)","language_name":"bengali","language_id":20},"transliteration":{"text":null,"language_name":"english","language_id":38}}]},{"id":5911,"verse_number":2,"verse_key":"85:2","hizb_number":59,"rub_el_hizb_number":236,"ruku_number":529,"manzil_number":7,"sajdah_number":null,"page_number":590,"juz_number":30,"words":[{"id":1746,"position":1,"audio_url":"wbw/085_002_001.mp3","verse_key":"85:2","verse_id":5911,"location":"85:2:1","text_uthmani":"وَٱلْيَوْمِ","qpc_uthmani_hafs":"وَٱلۡيَوۡمِ","char_type_name":"word","page_number":590,"line_number":4,"text":"وَٱلۡيَوۡمِ","translation":{"text":"এবং দিনের","language_name":"bengali","language_id":20},"transliteration":{"text":"wal-yawmi","language_name":"english","language_id":38}},{"id":1747,"position":2,"audio_url":"wbw/085_002_002.mp3","verse_key":"85:2","verse_id":5911,"location":"85:2:2","text_uthmani":"ٱلْمَوْعُودِ","qpc_uthmani_hafs":"ٱلۡمَوۡعُودِ","char_type_name":"word","page_number":590,"line_number":4,"text":"ٱلۡمَوۡعُودِ","translation":{"text":"প্রতিশ্রুত","language_name":"bengali","language_id":20},"transliteration":{"text":"l-mawʿūdi","language_name":"english","language_id":38}},{"id":1748,"position":3,"audio_url":null,"verse_key":"85:2","verse_id":5911,"location":"85:2:3","text_uthmani":"٢","qpc_uthmani_hafs":"٢","char_type_name":"end","page_number":590,"line_number":4,"text":"٢","translation":{"text":"(২)","language_name":"bengali","language_id":20},"transliteration":{"text":null,"language_name":"english","language_id":38}}]},{"id":5912,"verse_number":3,"verse_key":"85:3","hizb_number":59,"rub_el_hizb_number":236,"ruku_number":529,"manzil_number":7,"sajdah_number":null,"page_number":590,"juz_number":30,"words":[{"id":2897,"position":1,"audio_url":"wbw/085_003_001.mp3","verse_key":"85:3","verse_id":5912,"location":"85:3:1","text_uthmani":"وَشَاهِدٍۢ","qpc_uthmani_hafs":"وَشَاهِدٖ","char_type_name":"word","page_number":590,"line_number":4,"text":"وَشَاهِدٖ","translation":{"text":"শপথ দর্শকের","language_name":"bengali","language_id":20},"transliteration":{"text":"washāhidin","language_name":"english","language_id":38}},{"id":2898,"position":2,"audio_url":"wbw/085_003_002.mp3","verse_key":"85:3","verse_id":5912,"location":"85:3:2","text_uthmani":"وَمَشْهُودٍۢ","qpc_uthmani_hafs":"وَمَشۡهُودٖ","char_type_name":"word","page_number":590,"line_number":4,"text":"وَمَشۡهُودٖ","translation":{"text":"ও যা পরিদৃষ্ট হয়","language_name":"bengali","language_id":20},"transliteration":{"text":"wamashhūdin","language_name":"english","language_id":38}},{"id":2899,"position":3,"audio_url":null,"verse_key":"85:3","verse_id":5912,"location":"85:3:3","text_uthmani":"٣","qpc_uthmani_hafs":"٣","char_type_name":"end","page_number":590,"line_number":5,"text":"٣","translation":{"text":"(৩)","language_name":"bengali","language_id":20},"transliteration":{"text":null,"language_name":"english","language_id":38}}]},{"id":5913,"verse_number":4,"verse_key":"85:4","hizb_number":59,"rub_el_hizb_number":236,"ruku_number":529,"manzil_number":7,"sajdah_number":null,"page_number":590,"juz_number":30,"words":[{"id":4235,"position":1,"audio_url":"wbw/085_004_001.mp3","verse_key":"85:4","verse_id":5913,"location":"85:4:1","text_uthmani":"قُتِلَ","qpc_uthmani_hafs":"قُتِلَ","char_type_name":"word","page_number":590,"line_number":5,"text":"قُتِلَ","translation":{"text":"ধ্বংস হয়েছে","language_name":"bengali","language_id":20},"transliteration":{"text":"qutila","language_name":"english","language_id":38}},{"id":4236,"position":2,"audio_url":"wbw/085_004_002.mp3","verse_key":"85:4","verse_id":5913,"location":"85:4:2","text_uthmani":"أَصْحَـٰبُ","qpc_uthmani_hafs":"أَصۡحَٰبُ","char_type_name":"word","page_number":590,"line_number":5,"text":"أَصۡحَٰبُ","translation":{"text":"কর্তারা/ অধিপতিরা","language_name":"bengali","language_id":20},"transliteration":{"text":"aṣḥābu","language_name":"english","language_id":38}},{"id":4237,"position":3,"audio_url":"wbw/085_004_003.mp3","verse_key":"85:4","verse_id":5913,"location":"85:4:3","text_uthmani":"ٱلْأُخْدُودِ","qpc_uthmani_hafs":"ٱلۡأُخۡدُودِ","char_type_name":"word","page_number":590,"line_number":5,"text":"ٱلۡأُخۡدُودِ","translation":{"text":"গর্তের","language_name":"bengali","language_id":20},"transliteration":{"text":"l-ukh'dūdi","language_name":"english","language_id":38}},{"id":4238,"position":4,"audio_url":null,"verse_key":"85:4","verse_id":5913,"location":"85:4:4","text_uthmani":"٤","qpc_uthmani_hafs":"٤","char_type_name":"end","page_number":590,"line_number":5,"text":"٤","translation":{"text":"(৪)","language_name":"bengali","language_id":20},"transliteration":{"text":null,"language_name":"english","language_id":38}}]},{"id":5914,"verse_number":5,"verse_key":"85:5","hizb_number":59,"rub_el_hizb_number":236,"ruku_number":529,"manzil_number":7,"sajdah_number":null,"page_number":590,"juz_number":30,"words":[{"id":5492,"position":1,"audio_url":"wbw/085_005_001.mp3","verse_key":"85:5","verse_id":5914,"location":"85:5:1","text_uthmani":"ٱلنَّارِ","qpc_uthmani_hafs":"ٱلنَّارِ","char_type_name":"word","page_number":590,"line_number":5,"text":"ٱلنَّارِ","translation":{"text":"আগুনের","language_name":"bengali","language_id":20},"transliteration":{"text":"al-nāri","language_name":"english","language_id":38}},{"id":5493,"position":2,"audio_url":"wbw/085_005_002.mp3","verse_key":"85:5","verse_id":5914,"location":"85:5:2","text_uthmani":"ذَاتِ","qpc_uthmani_hafs":"ذَاتِ","char_type_name":"word","page_number":590,"line_number":5,"text":"ذَاتِ","translation":{"text":"বিশিষ্ট","language_name":"bengali","language_id":20},"transliteration":{"text":"dhāti","language_name":"english","language_id":38}},{"id":5494,"position":3,"audio_url":"wbw/085_005_003.mp3","verse_key":"85:5","verse_id":5914,"location":"85:5:3","text_uthmani":"ٱلْوَقُودِ","qpc_uthmani_hafs":"ٱلۡوَقُودِ","char_type_name":"word","page_number":590,"line_number":5,"text":"ٱلۡوَقُودِ","translation":{"text":"(প্রজ্জ্বলিত) ইন্ধন","language_name":"bengali","language_id":20},"transliteration":{"text":"l-waqūdi","language_name":"english","language_id":38}},{"id":5495,"position":4,"audio_url":null,"verse_key":"85:5","verse_id":5914,"location":"85:5:4","text_uthmani":"٥","qpc_uthmani_hafs":"٥","char_type_name":"end","page_number":590,"line_number":5,"text":"٥","translation":{"text":"(৫)","language_name":"bengali","language_id":20},"transliteration":{"text":null,"language_name":"english","language_id":38}}]},{"id":5915,"verse_number":6,"verse_key":"85:6","hizb_number":59,"rub_el_hizb_number":236,"ruku_number":529,"manzil_number":7,"sajdah_number":null,"page_number":590,"juz_number":30,"words":[{"id":6733,"position":1,"audio_url":"wbw/085_006_001.mp3","verse_key":"85:6","verse_id":5915,"location":"85:6:1","text_uthmani":"إِذْ","qpc_uthmani_hafs":"إِذۡ","char_type_name":"word","page_number":590,"line_number":5,"text":"إِذۡ","translation":{"text":"যখন","language_name":"bengali","language_id":20},"transliteration":{"text":"idh","language_name":"english","language_id":38}},{"id":6734,"position":2,"audio_url":"wbw/085_006_002.mp3","verse_key":"85:6","verse_id":5915,"location":"85:6:2","text_uthmani":"هُمْ","qpc_uthmani_hafs":"هُمۡ","char_type_name":"word","page_number":590,"line_number":5,"text":"هُمۡ","translation":{"text":"তারা (ছিল)","language_name":"bengali","language_id":20},"transliteration":{"text":"hum","language_name":"english","language_id":38}},{"id":6735,"position":3,"audio_url":"wbw/085_006_003.mp3","verse_key":"85:6","verse_id":5915,"location":"85:6:3","text_uthmani":"عَلَيْهَا","qpc_uthmani_hafs":"عَلَيۡهَا","char_type_name":"word","page_number":590,"line_number":5,"text":"عَلَيۡهَا","translation":{"text":"তার পাশে","language_name":"bengali","language_id":20},"transliteration":{"text":"ʿalayhā","language_name":"english","language_id":38}},{"id":6736,"position":4,"audio_url":"wbw/085_006_004.mp3","verse_key":"85:6","verse_id":5915,"location":"85:6:4","text_uthmani":"قُعُودٌۭ","qpc_uthmani_hafs":"قُعُودٞ","char_type_name":"word","page_number":590,"line_number":6,"text":"قُعُودٞ","translation":{"text":"উপবিষ্ট","language_name":"bengali","language_id":20},"transliteration":{"text":"quʿūdun","language_name":"english","language_id":38}},{"id":6737,"position":5,"audio_url":null,"verse_key":"85:6","verse_id":5915,"location":"85:6:5","text_uthmani":"٦","qpc_uthmani_hafs":"٦","char_type_name":"end","page_number":590,"line_number":6,"text":"٦","translation":{"text":"(৬)","language_name":"bengali","language_id":20},"transliteration":{"text":null,"language_name":"english","language_id":38}}]},{"id":5916,"verse_number":7,"verse_key":"85:7","hizb_number":59,"rub_el_hizb_number":236,"ruku_number":529,"manzil_number":7,"sajdah_number":null,"page_number":590,"juz_number":30,"words":[{"id":8074,"position":1,"audio_url":"wbw/085_007_001.mp3","verse_key":"85:7","verse_id":5916,"location":"85:7:1","text_uthmani":"وَهُمْ","qpc_uthmani_hafs":"وَهُمۡ","char_type_name":"word","page_number":590,"line_number":6,"text":"وَهُمۡ","translation":{"text":"এবং তারা (ছিল)","language_name":"bengali","language_id":20},"transliteration":{"text":"wahum","language_name":"english","language_id":38}},{"id":8075,"position":2,"audio_url":"wbw/085_007_002.mp3","verse_key":"85:7","verse_id":5916,"location":"85:7:2","text_uthmani":"عَلَىٰ","qpc_uthmani_hafs":"عَلَىٰ","char_type_name":"word","page_number":590,"line_number":6,"text":"عَلَىٰ","translation":{"text":"ঐ সম্পর্কে","language_name":"bengali","language_id":20},"transliteration":{"text":"ʿalā","language_name":"english","language_id":38}},{"id":8076,"position":3,"audio_url":"wbw/085_007_003.mp3","verse_key":"85:7","verse_id":5916,"location":"85:7:3","text_uthmani":"مَا","qpc_uthmani_hafs":"مَا","char_type_name":"word","page_number":590,"line_number":6,"text":"مَا","translation":{"text":"যা","language_name":"bengali","language_id":20},"transliteration":{"text":"mā","language_name":"english","language_id":38}},{"id":8077,"position":4,"audio_url":"wbw/085_007_004.mp3","verse_key":"85:7","verse_id":5916,"location":"85:7:4","text_uthmani":"يَفْعَلُونَ","qpc_uthmani_hafs":"يَفۡعَلُونَ","char_type_name":"word","page_number":590,"line_number":6,"text":"يَفۡعَلُونَ","translation":{"text":"তারা করছিল","language_name":"bengali","language_id":20},"transliteration":{"text":"yafʿalūna","language_name":"english","language_id":38}},{"id":8078,"position":5,"audio_url":"wbw/085_007_005.mp3","verse_key":"85:7","verse_id":5916,"location":"85:7:5","text_uthmani":"بِٱلْمُؤْمِنِينَ","qpc_uthmani_hafs":"بِٱلۡمُؤۡمِنِينَ","char_type_name":"word","page_number":590,"line_number":6,"text":"بِٱلۡمُؤۡمِنِينَ","translation":{"text":"মু'মিনদের সাথে","language_name":"bengali","language_id":20},"transliteration":{"text":"bil-mu'minīna","language_name":"english","language_id":38}},{"id":8079,"position":6,"audio_url":"wbw/085_007_006.mp3","verse_key":"85:7","verse_id":5916,"location":"85:7:6","text_uthmani":"شُهُودٌۭ","qpc_uthmani_hafs":"شُهُودٞ","char_type_name":"word","page_number":590,"line_number":6,"text":"شُهُودٞ","translation":{"text":"প্রত্যক্ষকারী","language_name":"bengali","language_id":20},"transliteration":{"text":"shuhūdun","language_name":"english","language_id":38}},{"id":8080,"position":7,"audio_url":null,"verse_key":"85:7","verse_id":5916,"location":"85:7:7","text_uthmani":"٧","qpc_uthmani_hafs":"٧","char_type_name":"end","page_number":590,"line_number":6,"text":"٧","translation":{"text":"(৭)","language_name":"bengali","language_id":20},"transliteration":{"text":null,"language_name":"english","language_id":38}}]},{"id":5917,"verse_number":8,"verse_key":"85:8","hizb_number":59,"rub_el_hizb_number":236,"ruku_number":529,"manzil_number":7,"sajdah_number":null,"page_number":590,"juz_number":30,"words":[{"id":9243,"position":1,"audio_url":"wbw/085_008_001.mp3","verse_key":"85:8","verse_id":5917,"location":"85:8:1","text_uthmani":"وَمَا","qpc_uthmani_hafs":"وَمَا","char_type_name":"word","page_number":590,"line_number":6,"text":"وَمَا","translation":{"text":"এবং না","language_name":"bengali","language_id":20},"transliteration":{"text":"wamā","language_name":"english","language_id":38}},{"id":9244,"position":2,"audio_url":"wbw/085_008_002.mp3","verse_key":"85:8","verse_id":5917,"location":"85:8:2","text_uthmani":"نَقَمُوا۟","qpc_uthmani_hafs":"نَقَمُواْ","char_type_name":"word","page_number":590,"line_number":6,"text":"نَقَمُواْ","translation":{"text":"তারা প্রতিশোধ নিয়েছিল","language_name":"bengali","language_id":20},"transliteration":{"text":"naqamū","language_name":"english","language_id":38}},{"id":9245,"position":3,"audio_url":"wbw/085_008_003.mp3","verse_key":"85:8","verse_id":5917,"location":"85:8:3","text_uthmani":"مِنْهُمْ","qpc_uthmani_hafs":"مِنۡهُمۡ","char_type_name":"word","page_number":590,"line_number":7,"text":"مِنۡهُمۡ","translation":{"text":"তাদের থেকে (অন্য কারণে)","language_name":"bengali","language_id":20},"transliteration":{"text":"min'hum","language_name":"english","language_id":38}},{"id":9246,"position":4,"audio_url":"wbw/085_008_004.mp3","verse_key":"85:8","verse_id":5917,"location":"85:8:4","text_uthmani":"إِلَّآ","qpc_uthmani_hafs":"إِلَّآ","char_type_name":"word","page_number":590,"line_number":7,"text":"إِلَّآ","translation":{"text":"এ ছাড়া","language_name":"bengali","language_id":20},"transliteration":{"text":"illā","language_name":"english","language_id":38}},{"id":9247,"position":5,"audio_url":"wbw/085_008_005.mp3","verse_key":"85:8","verse_id":5917,"location":"85:8:5","text_uthmani":"أَن","qpc_uthmani_hafs":"أَن","char_type_name":"word","page_number":590,"line_number":7,"text":"أَن","translation":{"text":"যে","language_name":"bengali","language_id":20},"transliteration":{"text":"an","language_name":"english","language_id":38}},{"id":9248,"position":6,"audio_url":"wbw/085_008_006.mp3","verse_key":"85:8","verse_id":5917,"location":"85:8:6","text_uthmani":"يُؤْمِنُوا۟","qpc_uthmani_hafs":"يُؤۡمِنُواْ","char_type_name":"word","page_number":590,"line_number":7,"text":"يُؤۡمِنُواْ","translation":{"text":"তারা ঈমান এনেছে","language_name":"bengali","language_id":20},"transliteration":{"text":"yu'minū","language_name":"english","language_id":38}},{"id":9249,"position":7,"audio_url":"wbw/085_008_007.mp3","verse_key":"85:8","verse_id":5917,"location":"85:8:7","text_uthmani":"بِٱللَّهِ","qpc_uthmani_hafs":"بِٱللَّهِ","char_type_name":"word","page_number":590,"line_number":7,"text":"بِٱللَّهِ","translation":{"text":"আল্লাহর উপর","language_name":"bengali","language_id":20},"transliteration":{"text":"bil-lahi","language_name":"english","language_id":38}},{"id":9250,"position":8,"audio_url":"wbw/085_008_008.mp3","verse_key":"85:8","verse_id":5917,"location":"85:8:8","text_uthmani":"ٱلْعَزِيزِ","qpc_uthmani_hafs":"ٱلۡعَزِيزِ","char_type_name":"word","page_number":590,"line_number":7,"text":"ٱلۡعَزِيزِ","translation":{"text":"পরাক্রমশালী","language_name":"bengali","language_id":20},"transliteration":{"text":"l-ʿazīzi","language_name":"english","language_id":38}},{"id":9251,"position":9,"audio_url":"wbw/085_008_009.mp3","verse_key":"85:8","verse_id":5917,"location":"85:8:9","text_uthmani":"ٱلْحَمِيدِ","qpc_uthmani_hafs":"ٱلۡحَمِيدِ","char_type_name":"word","page_number":590,"line_number":7,"text":"ٱلۡحَمِيدِ","translation":{"text":"প্রশংসিত","language_name":"bengali","language_id":20},"transliteration":{"text":"l-ḥamīdi","language_name":"english","language_id":38}},{"id":9252,"position":10,"audio_url":null,"verse_key":"85:8","verse_id":5917,"location":"85:8:10","text_uthmani":"٨","qpc_uthmani_hafs":"٨","char_type_name":"end","page_number":590,"line_number":7,"text":"٨","translation":{"text":"(৮)","language_name":"bengali","language_id":20},"transliteration":{"text":null,"language_name":"english","language_id":38}}]},{"id":5918,"verse_number":9,"verse_key":"85:9","hizb_number":59,"rub_el_hizb_number":236,"ruku_number":529,"manzil_number":7,"sajdah_number":null,"page_number":590,"juz_number":30,"words":[{"id":10438,"position":1,"audio_url":"wbw/085_009_001.mp3","verse_key":"85:9","verse_id":5918,"location":"85:9:1","text_uthmani":"ٱلَّذِى","qpc_uthmani_hafs":"ٱلَّذِي","char_type_name":"word","page_number":590,"line_number":7,"text":"ٱلَّذِي","translation":{"text":"যিনি (এমন সত্তা যে)","language_name":"bengali","language_id":20},"transliteration":{"text":"alladhī","language_name":"english","language_id":38}},{"id":10439,"position":2,"audio_url":"wbw/085_009_002.mp3","verse_key":"85:9","verse_id":5918,"location":"85:9:2","text_uthmani":"لَهُۥ","qpc_uthmani_hafs":"لَهُۥ","char_type_name":"word","page_number":590,"line_number":7,"text":"لَهُۥ","translation":{"text":"তাঁরই জন্য","language_name":"bengali","language_id":20},"transliteration":{"text":"lahu","language_name":"english","language_id":38}},{"id":10440,"position":3,"audio_url":"wbw/085_009_003.mp3","verse_key":"85:9","verse_id":5918,"location":"85:9:3","text_uthmani":"مُلْكُ","qpc_uthmani_hafs":"مُلۡكُ","char_type_name":"word","page_number":590,"line_number":7,"text":"مُلۡكُ","translation":{"text":"রাজত্ব","language_name":"bengali","language_id":20},"transliteration":{"text":"mul'ku","language_name":"english","language_id":38}},{"id":10441,"position":4,"audio_url":"wbw/085_009_004.mp3","verse_key":"85:9","verse_id":5918,"location":"85:9:4","text_uthmani":"ٱلسَّمَـٰوَٰتِ","qpc_uthmani_hafs":"ٱلسَّمَٰوَٰتِ","char_type_name":"word","page_number":590,"line_number":8,"text":"ٱلسَّمَٰوَٰتِ","translation":{"text":"আকাশমণ্ডলীর","language_name":"bengali","language_id":20},"transliteration":{"text":"l-samāwāti","language_name":"english","language_id":38}},{"id":10442,"position":5,"audio_url":"wbw/085_009_005.mp3","verse_key":"85:9","verse_id":5918,"location":"85:9:5","text_uthmani":"وَٱلْأَرْضِ ۚ","qpc_uthmani_hafs":"وَٱلۡأَرۡضِۚ","char_type_name":"word","page_number":590,"line_number":8,"text":"وَٱلۡأَرۡضِۚ","translation":{"text":"ও পৃথিবীর","language_name":"bengali","language_id":20},"transliteration":{"text":"wal-arḍi","language_name":"english","language_id":38}},{"id":10444,"position":6,"audio_url":"wbw/085_009_007.mp3","verse_key":"85:9","verse_id":5918,"location":"85:9:6","text_uthmani":"وَٱللَّهُ","qpc_uthmani_hafs":"وَٱللَّهُ","char_type_name":"word","page_number":590,"line_number":8,"text":"وَٱللَّهُ","translation":{"text":"এবং আল্লাহই","language_name":"bengali","language_id":20},"transliteration":{"text":"wal-lahu","language_name":"english","language_id":38}},{"id":10445,"position":7,"audio_url":"wbw/085_009_008.mp3","verse_key":"85:9","verse_id":5918,"location":"85:9:7","text_uthmani":"عَلَىٰ","qpc_uthmani_hafs":"عَلَىٰ","char_type_name":"word","page_number":590,"line_number":8,"text":"عَلَىٰ","translation":{"text":"উপর","language_name":"bengali","language_id":20},"transliteration":{"text":"ʿalā","language_name":"english","language_id":38}},{"id":10446,"position":8,"audio_url":"wbw/085_009_009.mp3","verse_key":"85:9","verse_id":5918,"location":"85:9:8","text_uthmani":"كُلِّ","qpc_uthmani_hafs":"كُلِّ","char_type_name":"word","page_number":590,"line_number":8,"text":"كُلِّ","translation":{"text":"সব","language_name":"bengali","language_id":20},"transliteration":{"text":"kulli","language_name":"english","language_id":38}},{"id":10447,"position":9,"audio_url":"wbw/085_009_010.mp3","verse_key":"85:9","verse_id":5918,"location":"85:9:9","text_uthmani":"شَىْءٍۢ","qpc_uthmani_hafs":"شَيۡءٖ","char_type_name":"word","page_number":590,"line_number":8,"text":"شَيۡءٖ","translation":{"text":"কিছুর","language_name":"bengali","language_id":20},"transliteration":{"text":"shayin","language_name":"english","language_id":38}},{"id":10448,"position":10,"audio_url":"wbw/085_009_011.mp3","verse_key":"85:9","verse_id":5918,"location":"85:9:10","text_uthmani":"شَهِيدٌ","qpc_uthmani_hafs":"شَهِيدٌ","char_type_name":"word","page_number":590,"line_number":8,"text":"شَهِيدٌ","translation":{"text":"সূক্ষ্মদর্শী","language_name":"bengali","language_id":20},"transliteration":{"text":"shahīdun","language_name":"english","language_id":38}},{"id":10449,"position":11,"audio_url":null,"verse_key":"85:9","verse_id":5918,"location":"85:9:11","text_uthmani":"٩","qpc_uthmani_hafs":"٩","char_type_name":"end","page_number":590,"line_number":8,"text":"٩","translation":{"text":"(৯)","language_name":"bengali","language_id":20},"transliteration":{"text":null,"language_name":"english","language_id":38}}]},{"id":5919,"verse_number":10,"verse_key":"85:10","hizb_number":59,"rub_el_hizb_number":236,"ruku_number":529,"manzil_number":7,"sajdah_number":null,"page_number":590,"juz_number":30,"words":[{"id":10953,"position":1,"audio_url":"wbw/085_010_001.mp3","verse_key":"85:10","verse_id":5919,"location":"85:10:1","text_uthmani":"إِنَّ","qpc_uthmani_hafs":"إِنَّ","char_type_name":"word","page_number":590,"line_number":8,"text":"إِنَّ","translation":{"text":"নিশ্চয়ই","language_name":"bengali","language_id":20},"transliteration":{"text":"inna","language_name":"english","language_id":38}},{"id":10954,"position":2,"audio_url":"wbw/085_010_002.mp3","verse_key":"85:10","verse_id":5919,"location":"85:10:2","text_uthmani":"ٱلَّذِينَ","qpc_uthmani_hafs":"ٱلَّذِينَ","char_type_name":"word","page_number":590,"line_number":8,"text":"ٱلَّذِينَ","translation":{"text":"যারা","language_name":"bengali","language_id":20},"transliteration":{"text":"alladhīna","language_name":"english","language_id":38}},{"id":10955,"position":3,"audio_url":"wbw/085_010_003.mp3","verse_key":"85:10","verse_id":5919,"location":"85:10:3","text_uthmani":"فَتَنُوا۟","qpc_uthmani_hafs":"فَتَنُواْ","char_type_name":"word","page_number":590,"line_number":9,"text":"فَتَنُواْ","translation":{"text":"নির্যাতন করেছিল","language_name":"bengali","language_id":20},"transliteration":{"text":"fatanū","language_name":"english","language_id":38}},{"id":10956,"position":4,"audio_url":"wbw/085_010_004.mp3","verse_key":"85:10","verse_id":5919,"location":"85:10:4","text_uthmani":"ٱلْمُؤْمِنِينَ","qpc_uthmani_hafs":"ٱلۡمُؤۡمِنِينَ","char_type_name":"word","page_number":590,"line_number":9,"text":"ٱلۡمُؤۡمِنِينَ","translation":{"text":"মু'মিনদের","language_name":"bengali","language_id":20},"transliteration":{"text":"l-mu'minīna","language_name":"english","language_id":38}},{"id":10957,"position":5,"audio_url":"wbw/085_010_005.mp3","verse_key":"85:10","verse_id":5919,"location":"85:10:5","text_uthmani":"وَٱلْمُؤْمِنَـٰتِ","qpc_uthmani_hafs":"وَٱلۡمُؤۡمِنَٰتِ","char_type_name":"word","page_number":590,"line_number":9,"text":"وَٱلۡمُؤۡمِنَٰتِ","translation":{"text":"ও মু'মিনাদের (উপর)","language_name":"bengali","language_id":20},"transliteration":{"text":"wal-mu'mināti","language_name":"english","language_id":38}},{"id":10958,"position":6,"audio_url":"wbw/085_010_006.mp3","verse_key":"85:10","verse_id":5919,"location":"85:10:6","text_uthmani":"ثُمَّ","qpc_uthmani_hafs":"ثُمَّ","char_type_name":"word","page_number":590,"line_number":9,"text":"ثُمَّ","translation":{"text":"অতঃপর","language_name":"bengali","language_id":20},"transliteration":{"text":"thumma","language_name":"english","language_id":38}},{"id":10959,"position":7,"audio_url":"wbw/085_010_007.mp3","verse_key":"85:10","verse_id":5919,"location":"85:10:7","text_uthmani":"لَمْ","qpc_uthmani_hafs":"لَمۡ","char_type_name":"word","page_number":590,"line_number":9,"text":"لَمۡ","translation":{"text":"নি","language_name":"bengali","language_id":20},"transliteration":{"text":"lam","language_name":"english","language_id":38}},{"id":10960,"position":8,"audio_url":"wbw/085_010_008.mp3","verse_key":"85:10","verse_id":5919,"location":"85:10:8","text_uthmani":"يَتُوبُوا۟","qpc_uthmani_hafs":"يَتُوبُواْ","char_type_name":"word","page_number":590,"line_number":9,"text":"يَتُوبُواْ","translation":{"text":"তওবা করে","language_name":"bengali","language_id":20},"transliteration":{"text":"yatūbū","language_name":"english","language_id":38}},{"id":10961,"position":9,"audio_url":"wbw/085_010_009.mp3","verse_key":"85:10","verse_id":5919,"location":"85:10:9","text_uthmani":"فَلَهُمْ","qpc_uthmani_hafs":"فَلَهُمۡ","char_type_name":"word","page_number":590,"line_number":9,"text":"فَلَهُمۡ","translation":{"text":"তাদের জন্যে (রয়েছে) তাই","language_name":"bengali","language_id":20},"transliteration":{"text":"falahum","language_name":"english","language_id":38}},{"id":10962,"position":10,"audio_url":"wbw/085_010_010.mp3","verse_key":"85:10","verse_id":5919,"location":"85:10:10","text_uthmani":"عَذَابُ","qpc_uthmani_hafs":"عَذَابُ","char_type_name":"word","page_number":590,"line_number":9,"text":"عَذَابُ","translation":{"text":"শাস্তি","language_name":"bengali","language_id":20},"transliteration":{"text":"ʿadhābu","language_name":"english","language_id":38}},{"id":10963,"position":11,"audio_url":"wbw/085_010_011.mp3","verse_key":"85:10","verse_id":5919,"location":"85:10:11","text_uthmani":"جَهَنَّمَ","qpc_uthmani_hafs":"جَهَنَّمَ","char_type_name":"word","page_number":590,"line_number":9,"text":"جَهَنَّمَ","translation":{"text":"জাহান্নামের","language_name":"bengali","language_id":20},"transliteration":{"text":"jahannama","language_name":"english","language_id":38}},{"id":10964,"position":12,"audio_url":"wbw/085_010_012.mp3","verse_key":"85:10","verse_id":5919,"location":"85:10:12","text_uthmani":"وَلَهُمْ","qpc_uthmani_hafs":"وَلَهُمۡ","char_type_name":"word","page_number":590,"line_number":9,"text":"وَلَهُمۡ","translation":{"text":"ও তাদের জন্যে (রয়েছে)","language_name":"bengali","language_id":20},"transliteration":{"text":"walahum","language_name":"english","language_id":38}},{"id":10965,"position":13,"audio_url":"wbw/085_010_013.mp3","verse_key":"85:10","verse_id":5919,"location":"85:10:13","text_uthmani":"عَذَابُ","qpc_uthmani_hafs":"عَذَابُ","char_type_name":"word","page_number":590,"line_number":10,"text":"عَذَابُ","translation":{"text":"শাস্তি","language_name":"bengali","language_id":20},"transliteration":{"text":"ʿadhābu","language_name":"english","language_id":38}},{"id":10966,"position":14,"audio_url":"wbw/085_010_014.mp3","verse_key":"85:10","verse_id":5919,"location":"85:10:14","text_uthmani":"ٱلْحَرِيقِ","qpc_uthmani_hafs":"ٱلۡحَرِيقِ","char_type_name":"word","page_number":590,"line_number":10,"text":"ٱلۡحَرِيقِ","translation":{"text":"দহনের","language_name":"bengali","language_id":20},"transliteration":{"text":"l-ḥarīqi","language_name":"english","language_id":38}},{"id":10967,"position":15,"audio_url":null,"verse_key":"85:10","verse_id":5919,"location":"85:10:15","text_uthmani":"١٠","qpc_uthmani_hafs":"١٠","char_type_name":"end","page_number":590,"line_number":10,"text":"١٠","translation":{"text":"(১০)","language_name":"bengali","language_id":20},"transliteration":{"text":null,"language_name":"english","language_id":38}}]}],"pagination":{"per_page":10,"current_page":1,"next_page":2,"total_pages":3,"total_records":22}}
