{"verses":[{"id":5920,"verse_number":11,"verse_key":"85:11","hizb_number":59,"rub_el_hizb_number":236,"ruku_number":529,"manzil_number":7,"sajdah_number":null,"page_number":590,"juz_number":30,"words":[{"id":13024,"position":1,"audio_url":"wbw/085_011_001.mp3","char_type_name":"word","page_number":590,"line_number":10,"text":"إِنَّ","translation":{"text":"নিশ্চয়ই","language_name":"bengali","language_id":20},"transliteration":{"text":"inna","language_name":"english","language_id":38}},{"id":13025,"position":2,"audio_url":"wbw/085_011_002.mp3","char_type_name":"word","page_number":590,"line_number":10,"text":"ٱلَّذِينَ","translation":{"text":"যারা","language_name":"bengali","language_id":20},"transliteration":{"text":"alladhīna","language_name":"english","language_id":38}},{"id":13026,"position":3,"audio_url":"wbw/085_011_003.mp3","char_type_name":"word","page_number":590,"line_number":10,"text":"ءَامَنُوا۟","translation":{"text":"ঈমান এনেছে","language_name":"bengali","language_id":20},"transliteration":{"text":"āmanū","language_name":"english","language_id":38}},{"id":13027,"position":4,"audio_url":"wbw/085_011_004.mp3","char_type_name":"word","page_number":590,"line_number":10,"text":"وَعَمِلُوا۟","translation":{"text":"এবং করেছে","language_name":"bengali","language_id":20},"transliteration":{"text":"waʿamilū","language_name":"english","language_id":38}},{"id":13028,"position":5,"audio_url":"wbw/085_011_005.mp3","char_type_name":"word","page_number":590,"line_number":10,"text":"ٱلصَّـٰلِحَـٰتِ","translation":{"text":"সৎকর্ম","language_name":"bengali","language_id":20},"transliteration":{"text":"l-ṣāliḥāti","language_name":"english","language_id":38}},{"id":13029,"position":6,"audio_url":"wbw/085_011_006.mp3","char_type_name":"word","page_number":590,"line_number":10,"text":"لَهُمْ","translation":{"text":"তাদের জন্য (রয়েছে)","language_name":"bengali","language_id":20},"transliteration":{"text":"lahum","language_name":"english","language_id":38}},{"id":13030,"position":7,"audio_url":"wbw/085_011_007.mp3","char_type_name":"word","page_number":590,"line_number":11,"text":"جَنَّـٰتٌۭ","translation":{"text":"জান্নাত","language_name":"bengali","language_id":20},"transliteration":{"text":"jannātun","language_name":"english","language_id":38}},{"id":13031,"position":8,"audio_url":"wbw/085_011_008.mp3","char_type_name":"word","page_number":590,"line_number":11,"text":"تَجْرِى","translation":{"text":"প্রবাহিত হচ্ছে","language_name":"bengali","language_id":20},"transliteration":{"text":"tajrī","language_name":"english","language_id":38}},{"id":13032,"position":9,"audio_url":"wbw/085_011_009.mp3","char_type_name":"word","page_number":590,"line_number":11,"text":"مِن","translation":{"text":"হতে","language_name":"bengali","language_id":20},"transliteration":{"text":"min","language_name":"english","language_id":38}},{"id":13033,"position":10,"audio_url":"wbw/085_011_010.mp3","char_type_name":"word","page_number":590,"line_number":11,"text":"تَحْتِهَا","translation":{"text":"তার নীচ","language_name":"bengali","language_id":20},"transliteration":{"text":"taḥtihā","language_name":"english","language_id":38}},{"id":13034,"position":11,"audio_url":"wbw/085_011_011.mp3","char_type_name":"word","page_number":590,"line_number":11,"text":"ٱلْأَنْهَـٰرُ ۚ","translation":{"text":"ঝর্ণাসমূহ","language_name":"bengali","language_id":20},"transliteration":{"text":"l-anhāru","language_name":"english","language_id":38}},{"id":13036,"position":12,"audio_url":"wbw/085_011_013.mp3","char_type_name":"word","page_number":590,"line_number":11,"text":"ذَٰلِكَ","translation":{"text":"সেটাই","language_name":"bengali","language_id":20},"transliteration":{"text":"dhālika","language_name":"english","language_id":38}},{"id":13037,"position":13,"audio_url":"wbw/085_011_014.mp3","char_type_name":"word","page_number":590,"line_number":11,"text":"ٱلْفَوْزُ","translation":{"text":"সাফল্য","language_name":"bengali","language_id":20},"transliteration":{"text":"l-fawzu","language_name":"english","language_id":38}},{"id":13038,"position":14,"audio_url":"wbw/085_011_015.mp3","char_type_name":"word","page_number":590,"line_number":11,"text":"ٱلْكَبِيرُ","translation":{"text":"মহা","language_name":"bengali","language_id":20},"transliteration":{"text":"l-kabīru","language_name":"english","language_id":38}},{"id":13039,"position":15,"audio_url":null,"char_type_name":"end","page_number":590,"line_number":11,"text":"١١","translation":{"text":"(১১)","language_name":"bengali","language_id":20},"transliteration":{"text":null,"language_name":"english","language_id":38}}]},{"id":5921,"verse_number":12,"verse_key":"85:12","hizb_number":59,"rub_el_hizb_number":236,"ruku_number":529,"manzil_number":7,"sajdah_number":null,"page_number":590,"juz_number":30,"words":[{"id":14282,"position":1,"audio_url":"wbw/085_012_001.mp3","char_type_name":"word","page_number":590,"line_number":11,"text":"إِنَّ","translation":{"text":"নিশ্চয়","language_name":"bengali","language_id":20},"transliteration":{"text":"inna","language_name":"english","language_id":38}},{"id":14283,"position":2,"audio_url":"wbw/085_012_002.mp3","char_type_name":"word","page_number":590,"line_number":11,"text":"بَطْشَ","translation":{"text":"পাকড়াও","language_name":"bengali","language_id":20},"transliteration":{"text":"baṭsha","language_name":"english","language_id":38}},{"id":14284,"position":3,"audio_url":"wbw/085_012_003.mp3","char_type_name":"word","page_number":590,"line_number":12,"text":"رَبِّكَ","translation":{"text":"তোমার রবের","language_name":"bengali","language_id":20},"transliteration":{"text":"rabbika","language_name":"english","language_id":38}},{"id":14285,"position":4,"audio_url":"wbw/085_012_004.mp3","char_type_name":"word","page_number":590,"line_number":12,"text":"لَشَدِيدٌ","translation":{"text":"অবশ্যই কঠিন","language_name":"bengali","language_id":20},"transliteration":{"text":"lashadīdun","language_name":"english","language_id":38}},{"id":14286,"position":5,"audio_url":null,"char_type_name":"end","page_number":590,"line_number":12,"text":"١٢","translation":{"text":"(১২)","language_name":"bengali","language_id":20},"transliteration":{"text":null,"language_name":"english","language_id":38}}]},{"id":5922,"verse_number":13,"verse_key":"85:13","hizb_number":59,"rub_el_hizb_number":236,"ruku_number":529,"manzil_number":7,"sajdah_number":null,"page_number":590,"juz_number":30,"words":[{"id":15397,"position":1,"audio_url":"wbw/085_013_001.mp3","char_type_name":"word","page_number":590,"line_number":12,"text":"إِنَّهُۥ","translation":{"text":"নিশ্চয়ই তিনি","language_name":"bengali","language_id":20},"transliteration":{"text":"innahu","language_name":"english","language_id":38}},{"id":15398,"position":2,"audio_url":"wbw/085_013_002.mp3","char_type_name":"word","page_number":590,"line_number":12,"text":"هُوَ","translation":{"text":"তিনিই","language_name":"bengali","language_id":20},"transliteration":{"text":"huwa","language_name":"english","language_id":38}},{"id":15399,"position":3,"audio_url":"wbw/085_013_003.mp3","char_type_name":"word","page_number":590,"line_number":12,"text":"يُبْدِئُ","translation":{"text":"অস্তিত্ব দান করেন","language_name":"bengali","language_id":20},"transliteration":{"text":"yub'di-u","language_name":"english","language_id":38}},{"id":15400,"position":4,"audio_url":"wbw/085_013_004.mp3","char_type_name":"word","page_number":590,"line_number":12,"text":"وَيُعِيدُ","translation":{"text":"ও তিনি পুনরাবর্তন ঘটান","language_name":"bengali","language_id":20},"transliteration":{"text":"wayuʿīdu","language_name":"english","language_id":38}},{"id":15401,"position":5,"audio_url":null,"char_type_name":"end","page_number":590,"line_number":12,"text":"١٣","translation":{"text":"(১৩)","language_name":"bengali","language_id":20},"transliteration":{"text":null,"language_name":"english","language_id":38}}]},{"id":5923,"verse_number":14,"verse_key":"85:14","hizb_number":59,"rub_el_hizb_number":236,"ruku_number":529,"manzil_number":7,"sajdah_number":null,"page_number":590,"juz_number":30,"words":[{"id":16443,"position":1,"audio_url":"wbw/085_014_001.mp3","char_type_name":"word","page_number":590,"line_number":12,"text":"وَهُوَ","translation":{"text":"এবং তিনিই","language_name":"bengali","language_id":20},"transliteration":{"text":"wahuwa","language_name":"english","language_id":38}},{"id":16444,"position":2,"audio_url":"wbw/085_014_002.mp3","char_type_name":"word","page_number":590,"line_number":12,"text":"ٱلْغَفُورُ","translation":{"text":"ক্ষমাশীল","language_name":"bengali","language_id":20},"transliteration":{"text":"l-ghafūru","language_name":"english","language_id":38}},{"id":16445,"position":3,"audio_url":"wbw/085_014_003.mp3","char_type_name":"word","page_number":590,"line_number":12,"text":"ٱلْوَدُودُ","translation":{"text":"প্রেমময়","language_name":"bengali","language_id":20},"transliteration":{"text":"l-wadūdu","language_name":"english","language_id":38}},{"id":16446,"position":4,"audio_url":null,"char_type_name":"end","page_number":590,"line_number":12,"text":"١٤","translation":{"text":"(১৪)","language_name":"bengali","language_id":20},"transliteration":{"text":null,"language_name":"english","language_id":38}}]},{"id":5924,"verse_number":15,"verse_key":"85:15","hizb_number":59,"rub_el_hizb_number":236,"ruku_number":529,"manzil_number":7,"sajdah_number":null,"page_number":590,"juz_number":30,"words":[{"id":17596,"position":1,"audio_url":"wbw/085_015_001.mp3","char_type_name":"word","page_number":590,"line_number":13,"text":"ذُو","translation":{"text":"অধিকারী","language_name":"bengali","language_id":20},"transliteration":{"text":"dhū","language_name":"english","language_id":38}},{"id":17597,"position":2,"audio_url":"wbw/085_015_002.mp3","char_type_name":"word","page_number":590,"line_number":13,"text":"ٱلْعَرْشِ","translation":{"text":"আরশের","language_name":"bengali","language_id":20},"transliteration":{"text":"l-ʿarshi","language_name":"english","language_id":38}},{"id":17598,"position":3,"audio_url":"wbw/085_015_003.mp3","char_type_name":"word","page_number":590,"line_number":13,"text":"ٱلْمَجِيدُ","translation":{"text":"সম্মানিত","language_name":"bengali","language_id":20},"transliteration":{"text":"l-majīdu","language_name":"english","language_id":38}},{"id":17599,"position":4,"audio_url":null,"char_type_name":"end","page_number":590,"line_number":13,"text":"١٥","translation":{"text":"(১৫)","language_name":"bengali","language_id":20},"transliteration":{"text":null,"language_name":"english","language_id":38}}]},{"id":5925,"verse_number":16,"verse_key":"85:16","hizb_number":59,"rub_el_hizb_number":236,"ruku_number":529,"manzil_number":7,"sajdah_number":null,"page_number":590,"juz_number":30,"words":[{"id":18646,"position":1,"audio_url":"wbw/085_016_001.mp3","char_type_name":"word","page_number":590,"line_number":13,"text":"فَعَّالٌۭ","translation":{"text":"সম্পন্নকারী","language_name":"bengali","language_id":20},"transliteration":{"text":"faʿʿālun","language_name":"english","language_id":38}},{"id":18647,"position":2,"audio_url":"wbw/085_016_002.mp3","char_type_name":"word","page_number":590,"line_number":13,"text":"لِّمَا","translation":{"text":"যা","language_name":"bengali","language_id":20},"transliteration":{"text":"limā","language_name":"english","language_id":38}},{"id":18648,"position":3,"audio_url":"wbw/085_016_003.mp3","char_type_name":"word","page_number":590,"line_number":13,"text":"يُرِيدُ","translation":{"text":"তিনি চান","language_name":"bengali","language_id":20},"transliteration":{"text":"yurīdu","language_name":"english","language_id":38}},{"id":18649,"position":4,"audio_url":null,"char_type_name":"end","page_number":590,"line_number":13,"text":"١٦","translation":{"text":"(১৬)","language_name":"bengali","language_id":20},"transliteration":{"text":null,"language_name":"english","language_id":38}}]},{"id":5926,"verse_number":17,"verse_key":"85:17","hizb_number":59,"rub_el_hizb_number":236,"ruku_number":529,"manzil_number":7,"sajdah_number":null,"page_number":590,"juz_number":30,"words":[{"id":19702,"position":1,"audio_url":"wbw/085_017_001.mp3","char_type_name":"word","page_number":590,"line_number":13,"text":"هَلْ","translation":{"text":"কি","language_name":"bengali","language_id":20},"transliteration":{"text":"hal","language_name":"english","language_id":38}},{"id":19703,"position":2,"audio_url":"wbw/085_017_002.mp3","char_type_name":"word","page_number":590,"line_number":13,"text":"أَتَىٰكَ","translation":{"text":"তোমার কাছে পৌঁছেছে","language_name":"bengali","language_id":20},"transliteration":{"text":"atāka","language_name":"english","language_id":38}},{"id":19704,"position":3,"audio_url":"wbw/085_017_003.mp3","char_type_name":"word","page_number":590,"line_number":13,"text":"حَدِيثُ","translation":{"text":"বৃত্তান্ত","language_name":"bengali","language_id":20},"transliteration":{"text":"ḥadīthu","language_name":"english","language_id":38}},{"id":19705,"position":4,"audio_url":"wbw/085_017_004.mp3","char_type_name":"word","page_number":590,"line_number":13,"text":"ٱلْجُنُودِ","translation":{"text":"সৈন্যদের","language_name":"bengali","language_id":20},"transliteration":{"text":"l-junūdi","language_name":"english","language_id":38}},{"id":19706,"position":5,"audio_url":null,"char_type_name":"end","page_number":590,"line_number":14,"text":"١٧","translation":{"text":"(১৭)","language_name":"bengali","language_id":20},"transliteration":{"text":null,"language_name":"english","language_id":38}}]},{"id":5927,"verse_number":18,"verse_key":"85:18","hizb_number":59,"rub_el_hizb_number":236,"ruku_number":529,"manzil_number":7,"sajdah_number":null,"page_number":590,"juz_number":30,"words":[{"id":20099,"position":1,"audio_url":"wbw/085_018_001.mp3","char_type_name":"word","page_number":590,"line_number":14,"text":"فِرْعَوْنَ","translation":{"text":"ফিরআউনের","language_name":"bengali","language_id":20},"transliteration":{"text":"fir'ʿawna","language_name":"english","language_id":38}},{"id":20100,"position":2,"audio_url":"wbw/085_018_002.mp3","char_type_name":"word","page_number":590,"line_number":14,"text":"وَثَمُودَ","translation":{"text":"ও সামূদের","language_name":"bengali","language_id":20},"transliteration":{"text":"wathamūda","language_name":"english","language_id":38}},{"id":20101,"position":3,"audio_url":null,"char_type_name":"end","page_number":590,"line_number":14,"text":"١٨","translation":{"text":"(১৮)","language_name":"bengali","language_id":20},"transliteration":{"text":null,"language_name":"english","language_id":38}}]},{"id":5928,"verse_number":19,"verse_key":"85:19","hizb_number":59,"rub_el_hizb_number":236,"ruku_number":529,"manzil_number":7,"sajdah_number":null,"page_number":590,"juz_number":30,"words":[{"id":21847,"position":1,"audio_url":"wbw/085_019_001.mp3","char_type_name":"word","page_number":590,"line_number":14,"text":"بَلِ","translation":{"text":"বরং","language_name":"bengali","language_id":20},"transliteration":{"text":"bali","language_name":"english","language_id":38}},{"id":21848,"position":2,"audio_url":"wbw/085_019_002.mp3","char_type_name":"word","page_number":590,"line_number":14,"text":"ٱلَّذِينَ","translation":{"text":"যারা","language_name":"bengali","language_id":20},"transliteration":{"text":"alladhīna","language_name":"english","language_id":38}},{"id":21849,"position":3,"audio_url":"wbw/085_019_003.mp3","char_type_name":"word","page_number":590,"line_number":14,"text":"كَفَرُوا۟","translation":{"text":"অবিশ্বাস করেছে","language_name":"bengali","language_id":20},"transliteration":{"text":"kafarū","language_name":"english","language_id":38}},{"id":21850,"position":4,"audio_url":"wbw/085_019_004.mp3","char_type_name":"word","page_number":590,"line_number":14,"text":"فِى","translation":{"text":"মধ্যে (রত)","language_name":"bengali","language_id":20},"transliteration":{"text":"fī","language_name":"english","language_id":38}},{"id":21851,"position":5,"audio_url":"wbw/085_019_005.mp3","char_type_name":"word","page_number":590,"line_number":14,"text":"تَكْذِيبٍۢ","translation":{"text":"মিথ্যারোপে","language_name":"bengali","language_id":20},"transliteration":{"text":"takdhībin","language_name":"english","language_id":38}},{"id":21852,"position":6,"audio_url":null,"char_type_name":"end","page_number":590,"line_number":14,"text":"١٩","translation":{"text":"(১৯)","language_name":"bengali","language_id":20},"transliteration":{"text":null,"language_name":"english","language_id":38}}]},{"id":5929,"verse_number":20,"verse_key":"85:20","hizb_number":59,"rub_el_hizb_number":236,"ruku_number":529,"manzil_number":7,"sajdah_number":null,"page_number":590,"juz_number":30,"words":[{"id":22972,"position":1,"audio_url":"wbw/085_020_001.mp3","char_type_name":"word","page_number":590,"line_number":14,"text":"وَٱللَّهُ","translation":{"text":"অথচ আল্লাহ","language_name":"bengali","language_id":20},"transliteration":{"text":"wal-lahu","language_name":"english","language_id":38}},{"id":22973,"position":2,"audio_url":"wbw/085_020_002.mp3","char_type_name":"word","page_number":590,"line_number":14,"text":"مِن","translation":{"text":"হতে","language_name":"bengali","language_id":20},"transliteration":{"text":"min","language_name":"english","language_id":38}},{"id":22974,"position":3,"audio_url":"wbw/085_020_003.mp3","char_type_name":"word","page_number":590,"line_number":15,"text":"وَرَآئِهِم","translation":{"text":"তাদের অলক্ষ্য","language_name":"bengali","language_id":20},"transliteration":{"text":"warāihim","language_name":"english","language_id":38}},{"id":22975,"position":4,"audio_url":"wbw/085_020_004.mp3","char_type_name":"word","page_number":590,"line_number":15,"text":"مُّحِيطٌۢ","translation":{"text":"(তাদেরকে) পরিবেষ্টনকারী","language_name":"bengali","language_id":20},"transliteration":{"text":"muḥīṭun","language_name":"english","language_id":38}},{"id":22976,"position":5,"audio_url":null,"char_type_name":"end","page_number":590,"line_number":15,"text":"٢٠","translation":{"text":"(২০)","language_name":"bengali","language_id":20},"transliteration":{"text":null,"language_name":"english","language_id":38}}]}],"pagination":{"per_page":10,"current_page":2,"next_page":3,"total_pages":3,"total_records":22}}
