{"verses":[{"id":5930,"verse_number":21,"verse_key":"85:21","hizb_number":59,"rub_el_hizb_number":236,"ruku_number":529,"manzil_number":7,"sajdah_number":null,"page_number":590,"juz_number":30,"words":[{"id":23998,"position":1,"audio_url":"wbw/085_021_001.mp3","verse_key":"85:21","verse_id":5930,"location":"85:21:1","text_uthmani":"بَلْ","qpc_uthmani_hafs":"بَلۡ","char_type_name":"word","page_number":590,"line_number":15,"text":"بَلۡ","translation":{"text":"বরং","language_name":"bengali","language_id":20},"transliteration":{"text":"bal","language_name":"english","language_id":38}},{"id":23999,"position":2,"audio_url":"wbw/085_021_002.mp3","verse_key":"85:21","verse_id":5930,"location":"85:21:2","text_uthmani":"هُوَ","qpc_uthmani_hafs":"هُوَ","char_type_name":"word","page_number":590,"line_number":15,"text":"هُوَ","translation":{"text":"তা","language_name":"bengali","language_id":20},"transliteration":{"text":"huwa","language_name":"english","language_id":38}},{"id":24000,"position":3,"audio_url":"wbw/085_021_003.mp3","verse_key":"85:21","verse_id":5930,"location":"85:21:3","text_uthmani":"قُرْءَانٌۭ","qpc_uthmani_hafs":"قُرۡءَانٞ","char_type_name":"word","page_number":590,"line_number":15,"text":"قُرۡءَانٞ","translation":{"text":"কুর'আন","language_name":"bengali","language_id":20},"transliteration":{"text":"qur'ānun","language_name":"english","language_id":38}},{"id":24001,"position":4,"audio_url":"wbw/085_021_004.mp3","verse_key":"85:21","verse_id":5930,"location":"85:21:4","text_uthmani":"مَّجِيدٌۭ","qpc_uthmani_hafs":"مَّجِيدٞ","char_type_name":"word","page_number":590,"line_number":15,"text":"مَّجِيدٞ","translation":{"text":"সম্মানিত","language_name":"bengali","language_id":20},"transliteration":{"text":"majīdun","language_name":"english","language_id":38}},{"id":24002,"position":5,"audio_url":null,"verse_key":"85:21","verse_id":5930,"location":"85:21:5","text_uthmani":"٢١","qpc_uthmani_hafs":"٢١","char_type_name":"end","page_number":590,"line_number":15,"text":"٢١","translation":{"text":"(২১)","language_name":"bengali","language_id":20},"transliteration":{"text":null,"language_name":"english","language_id":38}}]},{"id":5931,"verse_number":22,"verse_key":"85:22","hizb_number":59,"rub_el_hizb_number":236,"ruku_number":529,"manzil_number":7,"sajdah_number":null,"page_number":590,"juz_number":30,"words":[{"id":24424,"position":1,"audio_url":"wbw/085_022_001.mp3","verse_key":"85:22","verse_id":5931,"location":"85:22:1","text_uthmani":"فِى","qpc_uthmani_hafs":"فِي","char_type_name":"word","page_number":590,"line_number":15,"text":"فِي","translation":{"text":"মধ্যে","language_name":"bengali","language_id":20},"transliteration":{"text":"fī","language_name":"english","language_id":38}},{"id":24425,"position":2,"audio_url":"wbw/085_022_002.mp3","verse_key":"85:22","verse_id":5931,"location":"85:22:2","text_uthmani":"لَوْحٍۢ","qpc_uthmani_hafs":"لَوۡحٖ","char_type_name":"word","page_number":590,"line_number":15,"text":"لَوۡحٖ","translation":{"text":"ফলকের","language_name":"bengali","language_id":20},"transliteration":{"text":"lawḥin","language_name":"english","language_id":38}},{"id":24426,"position":3,"audio_url":"wbw/085_022_003.mp3","verse_key":"85:22","verse_id":5931,"location":"85:22:3","text_uthmani":"مَّحْفُوظٍۭ","qpc_uthmani_hafs":"مَّحۡفُوظِۭ","char_type_name":"word","page_number":590,"line_number":15,"text":"مَّحۡفُوظِۭ","translation":{"text":"সুরক্ষিত","language_name":"bengali","language_id":20},"transliteration":{"text":"maḥfūẓin","language_name":"english","language_id":38}},{"id":24427,"position":4,"audio_url":null,"verse_key":"85:22","verse_id":5931,"location":"85:22:4","text_uthmani":"٢٢","qpc_uthmani_hafs":"٢٢","char_type_name":"end","page_number":590,"line_number":15,"text":"٢٢","translation":{"text":"(২২)","language_name":"bengali","language_id":20},"transliteration":{"text":null,"language_name":"english","language_id":38}}]}],"pagination":{"per_page":10,"current_page":3,"next_page":null,"total_pages":3,"total_records":22}}
