{"verses":[{"id":5949,"verse_number":1,"verse_key":"87:1","hizb_number":60,"rub_el_hizb_number":237,"ruku_number":531,"manzil_number":7,"sajdah_number":null,"page_number":591,"juz_number":30,"words":[{"id":719,"position":1,"audio_url":"wbw/087_001_001.mp3","verse_key":"87:1","verse_id":5949,"location":"87:1:1","text_uthmani":"سَبِّحِ","qpc_uthmani_hafs":"سَبِّحِ","char_type_name":"word","page_number":591,"line_number":12,"text":"سَبِّحِ","translation":{"text":"Glorify","language_name":"english","language_id":38},"transliteration":{"text":"sabbiḥi","language_name":"english","language_id":38}},{"id":720,"position":2,"audio_url":"wbw/087_001_002.mp3","verse_key":"87:1","verse_id":5949,"location":"87:1:2","text_uthmani":"ٱسْمَ","qpc_uthmani_hafs":"ٱسۡمَ","char_type_name":"word","page_number":591,"line_number":12,"text":"ٱسۡمَ","translation":{"text":"(the) name","language_name":"english","language_id":38},"transliteration":{"text":"is'ma","language_name":"english","language_id":38}},{"id":721,"position":3,"audio_url":"wbw/087_001_003.mp3","verse_key":"87:1","verse_id":5949,"location":"87:1:3","text_uthmani":"رَبِّكَ","qpc_uthmani_hafs":"رَبِّكَ","char_type_name":"word","page_number":591,"line_number":12,"text":"رَبِّكَ","translation":{"text":"(of) your Lord","language_name":"english","language_id":38},"transliteration":{"text":"rabbika","language_name":"english","language_id":38}},{"id":722,"position":4,"audio_url":"wbw/087_001_004.mp3","verse_key":"87:1","verse_id":5949,"location":"87:1:4","text_uthmani":"ٱلْأَعْلَى","qpc_uthmani_hafs":"ٱلۡأَعۡلَى","char_type_name":"word","page_number":591,"line_number":12,"text":"ٱلۡأَعۡلَى","translation":{"text":"the Most High","language_name":"english","language_id":38},"transliteration":{"text":"l-aʿlā","language_name":"english","language_id":38}},{"id":723,"position":5,"audio_url":null,"verse_key":"87:1","verse_id":5949,"location":"87:1:5","text_uthmani":"١","qpc_uthmani_hafs":"١","char_type_name":"end","page_number":591,"line_number":12,"text":"١","translation":{"text":"(1)","language_name":"english","language_id":38},"transliteration":{"text":null,"language_name":"english","language_id":38}}]},{"id":5950,"verse_number":2,"verse_key":"87:2","hizb_number":60,"rub_el_hizb_number":237,"ruku_number":531,"manzil_number":7,"sajdah_number":null,"page_number":591,"juz_number":30,"words":[{"id":1760,"position":1,"audio_url":"wbw/087_002_001.mp3","verse_key":"87:2","verse_id":5950,"location":"87:2:1","text_uthmani":"ٱلَّذِى","qpc_uthmani_hafs":"ٱلَّذِي","char_type_name":"word","page_number":591,"line_number":12,"text":"ٱلَّذِي","translation":{"text":"The One Who","language_name":"english","language_id":38},"transliteration":{"text":"alladhī","language_name":"english","language_id":38}},{"id":1761,"position":2,"audio_url":"wbw/087_002_002.mp3","verse_key":"87:2","verse_id":5950,"location":"87:2:2","text_uthmani":"خَلَقَ","qpc_uthmani_hafs":"خَلَقَ","char_type_name":"word","page_number":591,"line_number":12,"text":"خَلَقَ","translation":{"text":"created","language_name":"english","language_id":38},"transliteration":{"text":"khalaqa","language_name":"english","language_id":38}},{"id":1762,"position":3,"audio_url":"wbw/087_002_003.mp3","verse_key":"87:2","verse_id":5950,"location":"87:2:3","text_uthmani":"فَسَوَّىٰ","qpc_uthmani_hafs":"فَسَوَّىٰ","char_type_name":"word","page_number":591,"line_number":12,"text":"فَسَوَّىٰ","translation":{"text":"then proportioned","language_name":"english","language_id":38},"transliteration":{"text":"fasawwā","language_name":"english","language_id":38}},{"id":1763,"position":4,"audio_url":null,"verse_key":"87:2","verse_id":5950,"location":"87:2:4","text_uthmani":"٢","qpc_uthmani_hafs":"٢","char_type_name":"end","page_number":591,"line_number":12,"text":"٢","translation":{"text":"(2)","language_name":"english","language_id":38},"transliteration":{"text":null,"language_name":"english","language_id":38}}]},{"id":5951,"verse_number":3,"verse_key":"87:3","hizb_number":60,"rub_el_hizb_number":237,"ruku_number":531,"manzil_number":7,"sajdah_number":null,"page_number":591,"juz_number":30,"words":[{"id":2885,"position":1,"audio_url":"wbw/087_003_001.mp3","verse_key":"87:3","verse_id":5951,"location":"87:3:1","text_uthmani":"وَٱلَّذِى","qpc_uthmani_hafs":"وَٱلَّذِي","char_type_name":"word","page_number":591,"line_number":12,"text":"وَٱلَّذِي","translation":{"text":"And the One Who","language_name":"english","language_id":38},"transliteration":{"text":"wa-alladhī","language_name":"english","language_id":38}},{"id":2886,"position":2,"audio_url":"wbw/087_003_002.mp3","verse_key":"87:3","verse_id":5951,"location":"87:3:2","text_uthmani":"قَدَّرَ","qpc_uthmani_hafs":"قَدَّرَ","char_type_name":"word","page_number":591,"line_number":12,"text":"قَدَّرَ","translation":{"text":"measured","language_name":"english","language_id":38},"transliteration":{"text":"qaddara","language_name":"english","language_id":38}},{"id":2887,"position":3,"audio_url":"wbw/087_003_003.mp3","verse_key":"87:3","verse_id":5951,"location":"87:3:3","text_uthmani":"فَهَدَىٰ","qpc_uthmani_hafs":"فَهَدَىٰ","char_type_name":"word","page_number":591,"line_number":12,"text":"فَهَدَىٰ","translation":{"text":"then guided","language_name":"english","language_id":38},"transliteration":{"text":"fahadā","language_name":"english","language_id":38}},{"id":2888,"position":4,"audio_url":null,"verse_key":"87:3","verse_id":5951,"location":"87:3:4","text_uthmani":"٣","qpc_uthmani_hafs":"٣","char_type_name":"end","page_number":591,"line_number":13,"text":"٣","translation":{"text":"(3)","language_name":"english","language_id":38},"transliteration":{"text":null,"language_name":"english","language_id":38}}]},{"id":5952,"verse_number":4,"verse_key":"87:4","hizb_number":60,"rub_el_hizb_number":237,"ruku_number":531,"manzil_number":7,"sajdah_number":null,"page_number":591,"juz_number":30,"words":[{"id":3248,"position":1,"audio_url":"wbw/087_004_001.mp3","verse_key":"87:4","verse_id":5952,"location":"87:4:1","text_uthmani":"وَٱلَّذِىٓ","qpc_uthmani_hafs":"وَٱلَّذِيٓ","char_type_name":"word","page_number":591,"line_number":13,"text":"وَٱلَّذِيٓ","translation":{"text":"And the One Who","language_name":"english","language_id":38},"transliteration":{"text":"wa-alladhī","language_name":"english","language_id":38}},{"id":3249,"position":2,"audio_url":"wbw/087_004_002.mp3","verse_key":"87:4","verse_id":5952,"location":"87:4:2","text_uthmani":"أَخْرَجَ","qpc_uthmani_hafs":"أَخۡرَجَ","char_type_name":"word","page_number":591,"line_number":13,"text":"أَخۡرَجَ","translation":{"text":"brings forth","language_name":"english","language_id":38},"transliteration":{"text":"akhraja","language_name":"english","language_id":38}},{"id":3250,"position":3,"audio_url":"wbw/087_004_003.mp3","verse_key":"87:4","verse_id":5952,"location":"87:4:3","text_uthmani":"ٱلْمَرْعَىٰ","qpc_uthmani_hafs":"ٱلۡمَرۡعَىٰ","char_type_name":"word","page_number":591,"line_number":13,"text":"ٱلۡمَرۡعَىٰ","translation":{"text":"the pasture","language_name":"english","language_id":38},"transliteration":{"text":"l-marʿā","language_name":"english","language_id":38}},{"id":3251,"position":4,"audio_url":null,"verse_key":"87:4","verse_id":5952,"location":"87:4:4","text_uthmani":"٤","qpc_uthmani_hafs":"٤","char_type_name":"end","page_number":591,"line_number":13,"text":"٤","translation":{"text":"(4)","language_name":"english","language_id":38},"transliteration":{"text":null,"language_name":"english","language_id":38}}]},{"id":5953,"verse_number":5,"verse_key":"87:5","hizb_number":60,"rub_el_hizb_number":237,"ruku_number":531,"manzil_number":7,"sajdah_number":null,"page_number":591,"juz_number":30,"words":[{"id":5507,"position":1,"audio_url":"wbw/087_005_001.mp3","verse_key":"87:5","verse_id":5953,"location":"87:5:1","text_uthmani":"فَجَعَلَهُۥ","qpc_uthmani_hafs":"فَجَعَلَهُۥ","char_type_name":"word","page_number":591,"line_number":13,"text":"فَجَعَلَهُۥ","translation":{"text":"And then makes it","language_name":"english","language_id":38},"transliteration":{"text":"fajaʿalahu","language_name":"english","language_id":38}},{"id":5508,"position":2,"audio_url":"wbw/087_005_002.mp3","verse_key":"87:5","verse_id":5953,"location":"87:5:2","text_uthmani":"غُثَآءً","qpc_uthmani_hafs":"غُثَآءً","char_type_name":"word","page_number":591,"line_number":13,"text":"غُثَآءً","translation":{"text":"stubble","language_name":"english","language_id":38},"transliteration":{"text":"ghuthāan","language_name":"english","language_id":38}},{"id":5509,"position":3,"audio_url":"wbw/087_005_003.mp3","verse_key":"87:5","verse_id":5953,"location":"87:5:3","text_uthmani":"أَحْوَىٰ","qpc_uthmani_hafs":"أَحۡوَىٰ","char_type_name":"word","page_number":591,"line_number":13,"text":"أَحۡوَىٰ","translation":{"text":"dark","language_name":"english","language_id":38},"transliteration":{"text":"aḥwā","language_name":"english","language_id":38}},{"id":5510,"position":4,"audio_url":null,"verse_key":"87:5","verse_id":5953,"location":"87:5:4","text_uthmani":"٥","qpc_uthmani_hafs":"٥","char_type_name":"end","page_number":591,"line_number":13,"text":"٥","translation":{"text":"(5)","language_name":"english","language_id":38},"transliteration":{"text":null,"language_name":"english","language_id":38}}]},{"id":5954,"verse_number":6,"verse_key":"87:6","hizb_number":60,"rub_el_hizb_number":237,"ruku_number":531,"manzil_number":7,"sajdah_number":null,"page_number":591,"juz_number":30,"words":[{"id":6743,"position":1,"audio_url":"wbw/087_006_001.mp3","verse_key":"87:6","verse_id":5954,"location":"87:6:1","text_uthmani":"سَنُقْرِئُكَ","qpc_uthmani_hafs":"سَنُقۡرِئُكَ","char_type_name":"word","page_number":591,"line_number":13,"text":"سَنُقۡرِئُكَ","translation":{"text":"We will make you recite","language_name":"english","language_id":38},"transliteration":{"text":"sanuq'ri-uka","language_name":"english","language_id":38}},{"id":6744,"position":2,"audio_url":"wbw/087_006_002.mp3","verse_key":"87:6","verse_id":5954,"location":"87:6:2","text_uthmani":"فَلَا","qpc_uthmani_hafs":"فَلَا","char_type_name":"word","page_number":591,"line_number":14,"text":"فَلَا","translation":{"text":"so not","language_name":"english","language_id":38},"transliteration":{"text":"falā","language_name":"english","language_id":38}},{"id":6745,"position":3,"audio_url":"wbw/087_006_003.mp3","verse_key":"87:6","verse_id":5954,"location":"87:6:3","text_uthmani":"تَنسَىٰٓ","qpc_uthmani_hafs":"تَنسَىٰٓ","char_type_name":"word","page_number":591,"line_number":14,"text":"تَنسَىٰٓ","translation":{"text":"you will forget","language_name":"english","language_id":38},"transliteration":{"text":"tansā","language_name":"english","language_id":38}},{"id":6746,"position":4,"audio_url":null,"verse_key":"87:6","verse_id":5954,"location":"87:6:4","text_uthmani":"٦","qpc_uthmani_hafs":"٦","char_type_name":"end","page_number":591,"line_number":14,"text":"٦","translation":{"text":"(6)","language_name":"english","language_id":38},"transliteration":{"text":null,"language_name":"english","language_id":38}}]},{"id":5955,"verse_number":7,"verse_key":"87:7","hizb_number":60,"rub_el_hizb_number":237,"ruku_number":531,"manzil_number":7,"sajdah_number":null,"page_number":591,"juz_number":30,"words":[{"id":8087,"position":1,"audio_url":"wbw/087_007_001.mp3","verse_key":"87:7","verse_id":5955,"location":"87:7:1","text_uthmani":"إِلَّا","qpc_uthmani_hafs":"إِلَّا","char_type_name":"word","page_number":591,"line_number":14,"text":"إِلَّا","translation":{"text":"Except","language_name":"english","language_id":38},"transliteration":{"text":"illā","language_name":"english","language_id":38}},{"id":8088,"position":2,"audio_url":"wbw/087_007_002.mp3","verse_key":"87:7","verse_id":5955,"location":"87:7:2","text_uthmani":"مَا","qpc_uthmani_hafs":"مَا","char_type_name":"word","page_number":591,"line_number":14,"text":"مَا","translation":{"text":"what","language_name":"english","language_id":38},"transliteration":{"text":"mā","language_name":"english","language_id":38}},{"id":8089,"position":3,"audio_url":"wbw/087_007_003.mp3","verse_key":"87:7","verse_id":5955,"location":"87:7:3","text_uthmani":"شَآءَ","qpc_uthmani_hafs":"شَآءَ","char_type_name":"word","page_number":591,"line_number":14,"text":"شَآءَ","translation":{"text":"wills","language_name":"english","language_id":38},"transliteration":{"text":"shāa","language_name":"english","language_id":38}},{"id":8090,"position":4,"audio_url":"wbw/087_007_004.mp3","verse_key":"87:7","verse_id":5955,"location":"87:7:4","text_uthmani":"ٱللَّهُ ۚ","qpc_uthmani_hafs":"ٱللَّهُۚ","char_type_name":"word","page_number":591,"line_number":14,"text":"ٱللَّهُۚ","translation":{"text":"Allah","language_name":"english","language_id":38},"transliteration":{"text":"l-lahu","language_name":"english","language_id":38}},{"id":8092,"position":5,"audio_url":"wbw/087_007_006.mp3","verse_key":"87:7","verse_id":5955,"location":"87:7:5","text_uthmani":"إِنَّهُۥ","qpc_uthmani_hafs":"إِنَّهُۥ","char_type_name":"word","page_number":591,"line_number":14,"text":"إِنَّهُۥ","translation":{"text":"Indeed, He","language_name":"english","language_id":38},"transliteration":{"text":"innahu","language_name":"english","language_id":38}},{"id":8093,"position":6,"audio_url":"wbw/087_007_007.mp3","verse_key":"87:7","verse_id":5955,"location":"87:7:6","text_uthmani":"يَعْلَمُ","qpc_uthmani_hafs":"يَعۡلَمُ","char_type_name":"word","page_number":591,"line_number":14,"text":"يَعۡلَمُ","translation":{"text":"knows","language_name":"english","language_id":38},"transliteration":{"text":"yaʿlamu","language_name":"english","language_id":38}},{"id":8094,"position":7,"audio_url":"wbw/087_007_008.mp3","verse_key":"87:7","verse_id":5955,"location":"87:7:7","text_uthmani":"ٱلْجَهْرَ","qpc_uthmani_hafs":"ٱلۡجَهۡرَ","char_type_name":"word","page_number":591,"line_number":14,"text":"ٱلۡجَهۡرَ","translation":{"text":"the manifest","language_name":"english","language_id":38},"transliteration":{"text":"l-jahra","language_name":"english","language_id":38}},{"id":8095,"position":8,"audio_url":"wbw/087_007_009.mp3","verse_key":"87:7","verse_id":5955,"location":"87:7:8","text_uthmani":"وَمَا","qpc_uthmani_hafs":"وَمَا","char_type_name":"word","page_number":591,"line_number":14,"text":"وَمَا","translation":{"text":"and what","language_name":"english","language_id":38},"transliteration":{"text":"wamā","language_name":"english","language_id":38}},{"id":8096,"position":9,"audio_url":"wbw/087_007_010.mp3","verse_key":"87:7","verse_id":5955,"location":"87:7:9","text_uthmani":"يَخْفَىٰ","qpc_uthmani_hafs":"يَخۡفَىٰ","char_type_name":"word","page_number":591,"line_number":14,"text":"يَخۡفَىٰ","translation":{"text":"is hidden","language_name":"english","language_id":38},"transliteration":{"text":"yakhfā","language_name":"english","language_id":38}},{"id":8097,"position":10,"audio_url":null,"verse_key":"87:7","verse_id":5955,"location":"87:7:10","text_uthmani":"٧","qpc_uthmani_hafs":"٧","char_type_name":"end","page_number":591,"line_number":14,"text":"٧","translation":{"text":"(7)","language_name":"english","language_id":38},"transliteration":{"text":null,"language_name":"english","language_id":38}}]},{"id":5956,"verse_number":8,"verse_key":"87:8","hizb_number":60,"rub_el_hizb_number":237,"ruku_number":531,"manzil_number":7,"sajdah_number":null,"page_number":591,"juz_number":30,"words":[{"id":9263,"position":1,"audio_url":"wbw/087_008_001.mp3","verse_key":"87:8","verse_id":5956,"location":"87:8:1","text_uthmani":"وَنُيَسِّرُكَ","qpc_uthmani_hafs":"وَنُيَسِّرُكَ","char_type_name":"word","page_number":591,"line_number":14,"text":"وَنُيَسِّرُكَ","translation":{"text":"And We will ease you","language_name":"english","language_id":38},"transliteration":{"text":"wanuyassiruka","language_name":"english","language_id":38}},{"id":9264,"position":2,"audio_url":"wbw/087_008_002.mp3","verse_key":"87:8","verse_id":5956,"location":"87:8:2","text_uthmani":"لِلْيُسْرَىٰ","qpc_uthmani_hafs":"لِلۡيُسۡرَىٰ","char_type_name":"word","page_number":591,"line_number":15,"text":"لِلۡيُسۡرَىٰ","translation":{"text":"to the ease","language_name":"english","language_id":38},"transliteration":{"text":"lil'yus'rā","language_name":"english","language_id":38}},{"id":9265,"position":3,"audio_url":null,"verse_key":"87:8","verse_id":5956,"location":"87:8:3","text_uthmani":"٨","qpc_uthmani_hafs":"٨","char_type_name":"end","page_number":591,"line_number":15,"text":"٨","translation":{"text":"(8)","language_name":"english","language_id":38},"transliteration":{"text":null,"language_name":"english","language_id":38}}]},{"id":5957,"verse_number":9,"verse_key":"87:9","hizb_number":60,"rub_el_hizb_number":237,"ruku_number":531,"manzil_number":7,"sajdah_number":null,"page_number":591,"juz_number":30,"words":[{"id":10457,"position":1,"audio_url":"wbw/087_009_001.mp3","verse_key":"87:9","verse_id":5957,"location":"87:9:1","text_uthmani":"فَذَكِّرْ","qpc_uthmani_hafs":"فَذَكِّرۡ","char_type_name":"word","page_number":591,"line_number":15,"text":"فَذَكِّرۡ","translation":{"text":"So remind","language_name":"english","language_id":38},"transliteration":{"text":"fadhakkir","language_name":"english","language_id":38}},{"id":10458,"position":2,"audio_url":"wbw/087_009_002.mp3","verse_key":"87:9","verse_id":5957,"location":"87:9:2","text_uthmani":"إِن","qpc_uthmani_hafs":"إِن","char_type_name":"word","page_number":591,"line_number":15,"text":"إِن","translation":{"text":"if","language_name":"english","language_id":38},"transliteration":{"text":"in","language_name":"english","language_id":38}},{"id":10459,"position":3,"audio_url":"wbw/087_009_003.mp3","verse_key":"87:9","verse_id":5957,"location":"87:9:3","text_uthmani":"نَّفَعَتِ","qpc_uthmani_hafs":"نَّفَعَتِ","char_type_name":"word","page_number":591,"line_number":15,"text":"نَّفَعَتِ","translation":{"text":"benefits","language_name":"english","language_id":38},"transliteration":{"text":"nafaʿati","language_name":"english","language_id":38}},{"id":10460,"position":4,"audio_url":"wbw/087_009_004.mp3","verse_key":"87:9","verse_id":5957,"location":"87:9:4","text_uthmani":"ٱلذِّكْرَىٰ","qpc_uthmani_hafs":"ٱلذِّكۡرَىٰ","char_type_name":"word","page_number":591,"line_number":15,"text":"ٱلذِّكۡرَىٰ","translation":{"text":"the reminder","language_name":"english","language_id":38},"transliteration":{"text":"l-dhik'rā","language_name":"english","language_id":38}},{"id":10461,"position":5,"audio_url":null,"verse_key":"87:9","verse_id":5957,"location":"87:9:5","text_uthmani":"٩","qpc_uthmani_hafs":"٩","char_type_name":"end","page_number":591,"line_number":15,"text":"٩","translation":{"text":"(9)","language_name":"english","language_id":38},"transliteration":{"text":null,"language_name":"english","language_id":38}}]},{"id":5958,"verse_number":10,"verse_key":"87:10","hizb_number":60,"rub_el_hizb_number":237,"ruku_number":531,"manzil_number":7,"sajdah_number":null,"page_number":591,"juz_number":30,"words":[{"id":11671,"position":1,"audio_url":"wbw/087_010_001.mp3","verse_key":"87:10","verse_id":5958,"location":"87:10:1","text_uthmani":"سَيَذَّكَّرُ","qpc_uthmani_hafs":"سَيَذَّكَّرُ","char_type_name":"word","page_number":591,"line_number":15,"text":"سَيَذَّكَّرُ","translation":{"text":"He will pay heed ","language_name":"english","language_id":38},"transliteration":{"text":"sayadhakkaru","language_name":"english","language_id":38}},{"id":11672,"position":2,"audio_url":"wbw/087_010_002.mp3","verse_key":"87:10","verse_id":5958,"location":"87:10:2","text_uthmani":"مَن","qpc_uthmani_hafs":"مَن","char_type_name":"word","page_number":591,"line_number":15,"text":"مَن","translation":{"text":"(one) who","language_name":"english","language_id":38},"transliteration":{"text":"man","language_name":"english","language_id":38}},{"id":11673,"position":3,"audio_url":"wbw/087_010_003.mp3","verse_key":"87:10","verse_id":5958,"location":"87:10:3","text_uthmani":"يَخْشَىٰ","qpc_uthmani_hafs":"يَخۡشَىٰ","char_type_name":"word","page_number":591,"line_number":15,"text":"يَخۡشَىٰ","translation":{"text":"fears (Allah)","language_name":"english","language_id":38},"transliteration":{"text":"yakhshā","language_name":"english","language_id":38}},{"id":11674,"position":4,"audio_url":null,"verse_key":"87:10","verse_id":5958,"location":"87:10:4","text_uthmani":"١٠","qpc_uthmani_hafs":"١٠","char_type_name":"end","page_number":591,"line_number":15,"text":"١٠","translation":{"text":"(10)","language_name":"english","language_id":38},"transliteration":{"text":null,"language_name":"english","language_id":38}}]}],"pagination":{"per_page":10,"current_page":1,"next_page":2,"total_pages":2,"total_records":19}}
