{"verses":[{"id":5959,"verse_number":11,"verse_key":"87:11","hizb_number":60,"rub_el_hizb_number":237,"ruku_number":531,"manzil_number":7,"sajdah_number":null,"page_number":592,"juz_number":30,"words":[{"id":13050,"position":1,"audio_url":"wbw/087_011_001.mp3","verse_key":"87:11","verse_id":5959,"location":"87:11:1","text_uthmani":"وَيَتَجَنَّبُهَا","qpc_uthmani_hafs":"وَيَتَجَنَّبُهَا","char_type_name":"word","page_number":592,"line_number":1,"text":"وَيَتَجَنَّبُهَا","translation":{"text":"And will avoid it","language_name":"english","language_id":38},"transliteration":{"text":"wayatajannabuhā","language_name":"english","language_id":38}},{"id":13051,"position":2,"audio_url":"wbw/087_011_002.mp3","verse_key":"87:11","verse_id":5959,"location":"87:11:2","text_uthmani":"ٱلْأَشْقَى","qpc_uthmani_hafs":"ٱلۡأَشۡقَى","char_type_name":"word","page_number":592,"line_number":1,"text":"ٱلۡأَشۡقَى","translation":{"text":"the wretched one","language_name":"english","language_id":38},"transliteration":{"text":"l-ashqā","language_name":"english","language_id":38}},{"id":13052,"position":3,"audio_url":null,"verse_key":"87:11","verse_id":5959,"location":"87:11:3","text_uthmani":"١١","qpc_uthmani_hafs":"١١","char_type_name":"end","page_number":592,"line_number":1,"text":"١١","translation":{"text":"(11)","language_name":"english","language_id":38},"transliteration":{"text":null,"language_name":"english","language_id":38}}]},{"id":5960,"verse_number":12,"verse_key":"87:12","hizb_number":60,"rub_el_hizb_number":237,"ruku_number":531,"manzil_number":7,"sajdah_number":null,"page_number":592,"juz_number":30,"words":[{"id":14191,"position":1,"audio_url":"wbw/087_012_001.mp3","verse_key":"87:12","verse_id":5960,"location":"87:12:1","text_uthmani":"ٱلَّذِى","qpc_uthmani_hafs":"ٱلَّذِي","char_type_name":"word","page_number":592,"line_number":1,"text":"ٱلَّذِي","translation":{"text":"The one who","language_name":"english","language_id":38},"transliteration":{"text":"alladhī","language_name":"english","language_id":38}},{"id":14192,"position":2,"audio_url":"wbw/087_012_002.mp3","verse_key":"87:12","verse_id":5960,"location":"87:12:2","text_uthmani":"يَصْلَى","qpc_uthmani_hafs":"يَصۡلَى","char_type_name":"word","page_number":592,"line_number":1,"text":"يَصۡلَى","translation":{"text":"will burn","language_name":"english","language_id":38},"transliteration":{"text":"yaṣlā","language_name":"english","language_id":38}},{"id":14193,"position":3,"audio_url":"wbw/087_012_003.mp3","verse_key":"87:12","verse_id":5960,"location":"87:12:3","text_uthmani":"ٱلنَّارَ","qpc_uthmani_hafs":"ٱلنَّارَ","char_type_name":"word","page_number":592,"line_number":1,"text":"ٱلنَّارَ","translation":{"text":"(in) the Fire","language_name":"english","language_id":38},"transliteration":{"text":"l-nāra","language_name":"english","language_id":38}},{"id":14194,"position":4,"audio_url":"wbw/087_012_004.mp3","verse_key":"87:12","verse_id":5960,"location":"87:12:4","text_uthmani":"ٱلْكُبْرَىٰ","qpc_uthmani_hafs":"ٱلۡكُبۡرَىٰ","char_type_name":"word","page_number":592,"line_number":1,"text":"ٱلۡكُبۡرَىٰ","translation":{"text":"[the] great","language_name":"english","language_id":38},"transliteration":{"text":"l-kub'rā","language_name":"english","language_id":38}},{"id":14195,"position":5,"audio_url":null,"verse_key":"87:12","verse_id":5960,"location":"87:12:5","text_uthmani":"١٢","qpc_uthmani_hafs":"١٢","char_type_name":"end","page_number":592,"line_number":1,"text":"١٢","translation":{"text":"(12)","language_name":"english","language_id":38},"transliteration":{"text":null,"language_name":"english","language_id":38}}]},{"id":5961,"verse_number":13,"verse_key":"87:13","hizb_number":60,"rub_el_hizb_number":237,"ruku_number":531,"manzil_number":7,"sajdah_number":null,"page_number":592,"juz_number":30,"words":[{"id":15406,"position":1,"audio_url":"wbw/087_013_001.mp3","verse_key":"87:13","verse_id":5961,"location":"87:13:1","text_uthmani":"ثُمَّ","qpc_uthmani_hafs":"ثُمَّ","char_type_name":"word","page_number":592,"line_number":1,"text":"ثُمَّ","translation":{"text":"Then","language_name":"english","language_id":38},"transliteration":{"text":"thumma","language_name":"english","language_id":38}},{"id":15407,"position":2,"audio_url":"wbw/087_013_002.mp3","verse_key":"87:13","verse_id":5961,"location":"87:13:2","text_uthmani":"لَا","qpc_uthmani_hafs":"لَا","char_type_name":"word","page_number":592,"line_number":1,"text":"لَا","translation":{"text":"not","language_name":"english","language_id":38},"transliteration":{"text":"lā","language_name":"english","language_id":38}},{"id":15408,"position":3,"audio_url":"wbw/087_013_003.mp3","verse_key":"87:13","verse_id":5961,"location":"87:13:3","text_uthmani":"يَمُوتُ","qpc_uthmani_hafs":"يَمُوتُ","char_type_name":"word","page_number":592,"line_number":1,"text":"يَمُوتُ","translation":{"text":"he will die","language_name":"english","language_id":38},"transliteration":{"text":"yamūtu","language_name":"english","language_id":38}},{"id":15409,"position":4,"audio_url":"wbw/087_013_004.mp3","verse_key":"87:13","verse_id":5961,"location":"87:13:4","text_uthmani":"فِيهَا","qpc_uthmani_hafs":"فِيهَا","char_type_name":"word","page_number":592,"line_number":2,"text":"فِيهَا","translation":{"text":"therein","language_name":"english","language_id":38},"transliteration":{"text":"fīhā","language_name":"english","language_id":38}},{"id":15410,"position":5,"audio_url":"wbw/087_013_005.mp3","verse_key":"87:13","verse_id":5961,"location":"87:13:5","text_uthmani":"وَلَا","qpc_uthmani_hafs":"وَلَا","char_type_name":"word","page_number":592,"line_number":2,"text":"وَلَا","translation":{"text":"and not","language_name":"english","language_id":38},"transliteration":{"text":"walā","language_name":"english","language_id":38}},{"id":15411,"position":6,"audio_url":"wbw/087_013_006.mp3","verse_key":"87:13","verse_id":5961,"location":"87:13:6","text_uthmani":"يَحْيَىٰ","qpc_uthmani_hafs":"يَحۡيَىٰ","char_type_name":"word","page_number":592,"line_number":2,"text":"يَحۡيَىٰ","translation":{"text":"will live","language_name":"english","language_id":38},"transliteration":{"text":"yaḥyā","language_name":"english","language_id":38}},{"id":15412,"position":7,"audio_url":null,"verse_key":"87:13","verse_id":5961,"location":"87:13:7","text_uthmani":"١٣","qpc_uthmani_hafs":"١٣","char_type_name":"end","page_number":592,"line_number":2,"text":"١٣","translation":{"text":"(13)","language_name":"english","language_id":38},"transliteration":{"text":null,"language_name":"english","language_id":38}}]},{"id":5962,"verse_number":14,"verse_key":"87:14","hizb_number":60,"rub_el_hizb_number":237,"ruku_number":531,"manzil_number":7,"sajdah_number":null,"page_number":592,"juz_number":30,"words":[{"id":16451,"position":1,"audio_url":"wbw/087_014_001.mp3","verse_key":"87:14","verse_id":5962,"location":"87:14:1","text_uthmani":"قَدْ","qpc_uthmani_hafs":"قَدۡ","char_type_name":"word","page_number":592,"line_number":2,"text":"قَدۡ","translation":{"text":"Certainly","language_name":"english","language_id":38},"transliteration":{"text":"qad","language_name":"english","language_id":38}},{"id":16452,"position":2,"audio_url":"wbw/087_014_002.mp3","verse_key":"87:14","verse_id":5962,"location":"87:14:2","text_uthmani":"أَفْلَحَ","qpc_uthmani_hafs":"أَفۡلَحَ","char_type_name":"word","page_number":592,"line_number":2,"text":"أَفۡلَحَ","translation":{"text":"has succeeded","language_name":"english","language_id":38},"transliteration":{"text":"aflaḥa","language_name":"english","language_id":38}},{"id":16453,"position":3,"audio_url":"wbw/087_014_003.mp3","verse_key":"87:14","verse_id":5962,"location":"87:14:3","text_uthmani":"مَن","qpc_uthmani_hafs":"مَن","char_type_name":"word","page_number":592,"line_number":2,"text":"مَن","translation":{"text":"(one) who","language_name":"english","language_id":38},"transliteration":{"text":"man","language_name":"english","language_id":38}},{"id":16454,"position":4,"audio_url":"wbw/087_014_004.mp3","verse_key":"87:14","verse_id":5962,"location":"87:14:4","text_uthmani":"تَزَكَّىٰ","qpc_uthmani_hafs":"تَزَكَّىٰ","char_type_name":"word","page_number":592,"line_number":2,"text":"تَزَكَّىٰ","translation":{"text":"purifies (himself)","language_name":"english","language_id":38},"transliteration":{"text":"tazakkā","language_name":"english","language_id":38}},{"id":16455,"position":5,"audio_url":null,"verse_key":"87:14","verse_id":5962,"location":"87:14:5","text_uthmani":"١٤","qpc_uthmani_hafs":"١٤","char_type_name":"end","page_number":592,"line_number":2,"text":"١٤","translation":{"text":"(14)","language_name":"english","language_id":38},"transliteration":{"text":null,"language_name":"english","language_id":38}}]},{"id":5963,"verse_number":15,"verse_key":"87:15","hizb_number":60,"rub_el_hizb_number":237,"ruku_number":531,"manzil_number":7,"sajdah_number":null,"page_number":592,"juz_number":30,"words":[{"id":17611,"position":1,"audio_url":"wbw/087_015_001.mp3","verse_key":"87:15","verse_id":5963,"location":"87:15:1","text_uthmani":"وَذَكَرَ","qpc_uthmani_hafs":"وَذَكَرَ","char_type_name":"word","page_number":592,"line_number":2,"text":"وَذَكَرَ","translation":{"text":"And remembers","language_name":"english","language_id":38},"transliteration":{"text":"wadhakara","language_name":"english","language_id":38}},{"id":17612,"position":2,"audio_url":"wbw/087_015_002.mp3","verse_key":"87:15","verse_id":5963,"location":"87:15:2","text_uthmani":"ٱسْمَ","qpc_uthmani_hafs":"ٱسۡمَ","char_type_name":"word","page_number":592,"line_number":2,"text":"ٱسۡمَ","translation":{"text":"(the) name","language_name":"english","language_id":38},"transliteration":{"text":"is'ma","language_name":"english","language_id":38}},{"id":17613,"position":3,"audio_url":"wbw/087_015_003.mp3","verse_key":"87:15","verse_id":5963,"location":"87:15:3","text_uthmani":"رَبِّهِۦ","qpc_uthmani_hafs":"رَبِّهِۦ","char_type_name":"word","page_number":592,"line_number":2,"text":"رَبِّهِۦ","translation":{"text":"(of) his Lord","language_name":"english","language_id":38},"transliteration":{"text":"rabbihi","language_name":"english","language_id":38}},{"id":17614,"position":4,"audio_url":"wbw/087_015_004.mp3","verse_key":"87:15","verse_id":5963,"location":"87:15:4","text_uthmani":"فَصَلَّىٰ","qpc_uthmani_hafs":"فَصَلَّىٰ","char_type_name":"word","page_number":592,"line_number":2,"text":"فَصَلَّىٰ","translation":{"text":"and prays","language_name":"english","language_id":38},"transliteration":{"text":"faṣallā","language_name":"english","language_id":38}},{"id":17615,"position":5,"audio_url":null,"verse_key":"87:15","verse_id":5963,"location":"87:15:5","text_uthmani":"١٥","qpc_uthmani_hafs":"١٥","char_type_name":"end","page_number":592,"line_number":2,"text":"١٥","translation":{"text":"(15)","language_name":"english","language_id":38},"transliteration":{"text":null,"language_name":"english","language_id":38}}]},{"id":5964,"verse_number":16,"verse_key":"87:16","hizb_number":60,"rub_el_hizb_number":237,"ruku_number":531,"manzil_number":7,"sajdah_number":null,"page_number":592,"juz_number":30,"words":[{"id":18745,"position":1,"audio_url":"wbw/087_016_001.mp3","verse_key":"87:16","verse_id":5964,"location":"87:16:1","text_uthmani":"بَلْ","qpc_uthmani_hafs":"بَلۡ","char_type_name":"word","page_number":592,"line_number":3,"text":"بَلۡ","translation":{"text":"Nay","language_name":"english","language_id":38},"transliteration":{"text":"bal","language_name":"english","language_id":38}},{"id":18746,"position":2,"audio_url":"wbw/087_016_002.mp3","verse_key":"87:16","verse_id":5964,"location":"87:16:2","text_uthmani":"تُؤْثِرُونَ","qpc_uthmani_hafs":"تُؤۡثِرُونَ","char_type_name":"word","page_number":592,"line_number":3,"text":"تُؤۡثِرُونَ","translation":{"text":"You prefer","language_name":"english","language_id":38},"transliteration":{"text":"tu'thirūna","language_name":"english","language_id":38}},{"id":18747,"position":3,"audio_url":"wbw/087_016_003.mp3","verse_key":"87:16","verse_id":5964,"location":"87:16:3","text_uthmani":"ٱلْحَيَوٰةَ","qpc_uthmani_hafs":"ٱلۡحَيَوٰةَ","char_type_name":"word","page_number":592,"line_number":3,"text":"ٱلۡحَيَوٰةَ","translation":{"text":"the life","language_name":"english","language_id":38},"transliteration":{"text":"l-ḥayata","language_name":"english","language_id":38}},{"id":18748,"position":4,"audio_url":"wbw/087_016_004.mp3","verse_key":"87:16","verse_id":5964,"location":"87:16:4","text_uthmani":"ٱلدُّنْيَا","qpc_uthmani_hafs":"ٱلدُّنۡيَا","char_type_name":"word","page_number":592,"line_number":3,"text":"ٱلدُّنۡيَا","translation":{"text":"(of) the world","language_name":"english","language_id":38},"transliteration":{"text":"l-dun'yā","language_name":"english","language_id":38}},{"id":18749,"position":5,"audio_url":null,"verse_key":"87:16","verse_id":5964,"location":"87:16:5","text_uthmani":"١٦","qpc_uthmani_hafs":"١٦","char_type_name":"end","page_number":592,"line_number":3,"text":"١٦","translation":{"text":"(16)","language_name":"english","language_id":38},"transliteration":{"text":null,"language_name":"english","language_id":38}}]},{"id":5965,"verse_number":17,"verse_key":"87:17","hizb_number":60,"rub_el_hizb_number":237,"ruku_number":531,"manzil_number":7,"sajdah_number":null,"page_number":592,"juz_number":30,"words":[{"id":19712,"position":1,"audio_url":"wbw/087_017_001.mp3","verse_key":"87:17","verse_id":5965,"location":"87:17:1","text_uthmani":"وَٱلْـَٔاخِرَةُ","qpc_uthmani_hafs":"وَٱلۡأٓخِرَةُ","char_type_name":"word","page_number":592,"line_number":3,"text":"وَٱلۡأٓخِرَةُ","translation":{"text":"While the Hereafter","language_name":"english","language_id":38},"transliteration":{"text":"wal-ākhiratu","language_name":"english","language_id":38}},{"id":19713,"position":2,"audio_url":"wbw/087_017_002.mp3","verse_key":"87:17","verse_id":5965,"location":"87:17:2","text_uthmani":"خَيْرٌۭ","qpc_uthmani_hafs":"خَيۡرٞ","char_type_name":"word","page_number":592,"line_number":3,"text":"خَيۡرٞ","translation":{"text":"(is) better","language_name":"english","language_id":38},"transliteration":{"text":"khayrun","language_name":"english","language_id":38}},{"id":19714,"position":3,"audio_url":"wbw/087_017_003.mp3","verse_key":"87:17","verse_id":5965,"location":"87:17:3","text_uthmani":"وَأَبْقَىٰٓ","qpc_uthmani_hafs":"وَأَبۡقَىٰٓ","char_type_name":"word","page_number":592,"line_number":3,"text":"وَأَبۡقَىٰٓ","translation":{"text":"and everlasting","language_name":"english","language_id":38},"transliteration":{"text":"wa-abqā","language_name":"english","language_id":38}},{"id":19715,"position":4,"audio_url":null,"verse_key":"87:17","verse_id":5965,"location":"87:17:4","text_uthmani":"١٧","qpc_uthmani_hafs":"١٧","char_type_name":"end","page_number":592,"line_number":3,"text":"١٧","translation":{"text":"(17)","language_name":"english","language_id":38},"transliteration":{"text":null,"language_name":"english","language_id":38}}]},{"id":5966,"verse_number":18,"verse_key":"87:18","hizb_number":60,"rub_el_hizb_number":237,"ruku_number":531,"manzil_number":7,"sajdah_number":null,"page_number":592,"juz_number":30,"words":[{"id":20793,"position":1,"audio_url":"wbw/087_018_001.mp3","verse_key":"87:18","verse_id":5966,"location":"87:18:1","text_uthmani":"إِنَّ","qpc_uthmani_hafs":"إِنَّ","char_type_name":"word","page_number":592,"line_number":3,"text":"إِنَّ","translation":{"text":"Indeed","language_name":"english","language_id":38},"transliteration":{"text":"inna","language_name":"english","language_id":38}},{"id":20794,"position":2,"audio_url":"wbw/087_018_002.mp3","verse_key":"87:18","verse_id":5966,"location":"87:18:2","text_uthmani":"هَـٰذَا","qpc_uthmani_hafs":"هَٰذَا","char_type_name":"word","page_number":592,"line_number":4,"text":"هَٰذَا","translation":{"text":"this","language_name":"english","language_id":38},"transliteration":{"text":"hādhā","language_name":"english","language_id":38}},{"id":20795,"position":3,"audio_url":"wbw/087_018_003.mp3","verse_key":"87:18","verse_id":5966,"location":"87:18:3","text_uthmani":"لَفِى","qpc_uthmani_hafs":"لَفِي","char_type_name":"word","page_number":592,"line_number":4,"text":"لَفِي","translation":{"text":"surely (is) in","language_name":"english","language_id":38},"transliteration":{"text":"lafī","language_name":"english","language_id":38}},{"id":20796,"position":4,"audio_url":"wbw/087_018_004.mp3","verse_key":"87:18","verse_id":5966,"location":"87:18:4","text_uthmani":"ٱلصُّحُفِ","qpc_uthmani_hafs":"ٱلصُّحُفِ","char_type_name":"word","page_number":592,"line_number":4,"text":"ٱلصُّحُفِ","translation":{"text":"the Scriptures","language_name":"english","language_id":38},"transliteration":{"text":"l-ṣuḥufi","language_name":"english","language_id":38}},{"id":20797,"position":5,"audio_url":"wbw/087_018_005.mp3","verse_key":"87:18","verse_id":5966,"location":"87:18:5","text_uthmani":"ٱلْأُولَىٰ","qpc_uthmani_hafs":"ٱلۡأُولَىٰ","char_type_name":"word","page_number":592,"line_number":4,"text":"ٱلۡأُولَىٰ","translation":{"text":"[the] former","language_name":"english","language_id":38},"transliteration":{"text":"l-ūlā","language_name":"english","language_id":38}},{"id":20798,"position":6,"audio_url":null,"verse_key":"87:18","verse_id":5966,"location":"87:18:6","text_uthmani":"١٨","qpc_uthmani_hafs":"١٨","char_type_name":"end","page_number":592,"line_number":4,"text":"١٨","translation":{"text":"(18)","language_name":"english","language_id":38},"transliteration":{"text":null,"language_name":"english","language_id":38}}]},{"id":5967,"verse_number":19,"verse_key":"87:19","hizb_number":60,"rub_el_hizb_number":237,"ruku_number":531,"manzil_number":7,"sajdah_number":null,"page_number":592,"juz_number":30,"words":[{"id":21185,"position":1,"audio_url":"wbw/087_019_001.mp3","verse_key":"87:19","verse_id":5967,"location":"87:19:1","text_uthmani":"صُحُفِ","qpc_uthmani_hafs":"صُحُفِ","char_type_name":"word","page_number":592,"line_number":4,"text":"صُحُفِ","translation":{"text":"(The) Scriptures","language_name":"english","language_id":38},"transliteration":{"text":"ṣuḥufi","language_name":"english","language_id":38}},{"id":21186,"position":2,"audio_url":"wbw/087_019_002.mp3","verse_key":"87:19","verse_id":5967,"location":"87:19:2","text_uthmani":"إِبْرَٰهِيمَ","qpc_uthmani_hafs":"إِبۡرَٰهِيمَ","char_type_name":"word","page_number":592,"line_number":4,"text":"إِبۡرَٰهِيمَ","translation":{"text":"(of) Ibrahim","language_name":"english","language_id":38},"transliteration":{"text":"ib'rāhīma","language_name":"english","language_id":38}},{"id":21187,"position":3,"audio_url":"wbw/087_019_003.mp3","verse_key":"87:19","verse_id":5967,"location":"87:19:3","text_uthmani":"وَمُوسَىٰ","qpc_uthmani_hafs":"وَمُوسَىٰ","char_type_name":"word","page_number":592,"line_number":4,"text":"وَمُوسَىٰ","translation":{"text":"and Musa","language_name":"english","language_id":38},"transliteration":{"text":"wamūsā","language_name":"english","language_id":38}},{"id":21188,"position":4,"audio_url":null,"verse_key":"87:19","verse_id":5967,"location":"87:19:4","text_uthmani":"١٩","qpc_uthmani_hafs":"١٩","char_type_name":"end","page_number":592,"line_number":4,"text":"١٩","translation":{"text":"(19)","language_name":"english","language_id":38},"transliteration":{"text":null,"language_name":"english","language_id":38}}]}],"pagination":{"per_page":10,"current_page":2,"next_page":null,"total_pages":2,"total_records":19}}
