{"verses":[{"id":5949,"verse_number":1,"verse_key":"87:1","hizb_number":60,"rub_el_hizb_number":237,"ruku_number":531,"manzil_number":7,"sajdah_number":null,"page_number":591,"juz_number":30,"words":[{"id":719,"position":1,"audio_url":"wbw/087_001_001.mp3","char_type_name":"word","page_number":591,"line_number":12,"text":"سَبِّحِ","translation":{"text":"মহিমা ঘোষণা করো","language_name":"bengali","language_id":20},"transliteration":{"text":"sabbiḥi","language_name":"english","language_id":38}},{"id":720,"position":2,"audio_url":"wbw/087_001_002.mp3","char_type_name":"word","page_number":591,"line_number":12,"text":"ٱسْمَ","translation":{"text":"নামের","language_name":"bengali","language_id":20},"transliteration":{"text":"is'ma","language_name":"english","language_id":38}},{"id":721,"position":3,"audio_url":"wbw/087_001_003.mp3","char_type_name":"word","page_number":591,"line_number":12,"text":"رَبِّكَ","translation":{"text":"তোমার রবের","language_name":"bengali","language_id":20},"transliteration":{"text":"rabbika","language_name":"english","language_id":38}},{"id":722,"position":4,"audio_url":"wbw/087_001_004.mp3","char_type_name":"word","page_number":591,"line_number":12,"text":"ٱلْأَعْلَى","translation":{"text":"সুমহান","language_name":"bengali","language_id":20},"transliteration":{"text":"l-aʿlā","language_name":"english","language_id":38}},{"id":723,"position":5,"audio_url":null,"char_type_name":"end","page_number":591,"line_number":12,"text":"١","translation":{"text":"(১)","language_name":"bengali","language_id":20},"transliteration":{"text":null,"language_name":"english","language_id":38}}]},{"id":5950,"verse_number":2,"verse_key":"87:2","hizb_number":60,"rub_el_hizb_number":237,"ruku_number":531,"manzil_number":7,"sajdah_number":null,"page_number":591,"juz_number":30,"words":[{"id":1760,"position":1,"audio_url":"wbw/087_002_001.mp3","char_type_name":"word","page_number":591,"line_number":12,"text":"ٱلَّذِى","translation":{"text":"যিনি","language_name":"bengali","language_id":20},"transliteration":{"text":"alladhī","language_name":"english","language_id":38}},{"id":1761,"position":2,"audio_url":"wbw/087_002_002.mp3","char_type_name":"word","page_number":591,"line_number":12,"text":"خَلَقَ","translation":{"text":"সৃষ্টি করেছেন","language_name":"bengali","language_id":20},"transliteration":{"text":"khalaqa","language_name":"english","language_id":38}},{"id":1762,"position":3,"audio_url":"wbw/087_002_003.mp3","char_type_name":"word","page_number":591,"line_number":12,"text":"فَسَوَّىٰ","translation":{"text":"অতঃপর সুবিন্যস্ত করেছেন","language_name":"bengali","language_id":20},"transliteration":{"text":"fasawwā","language_name":"english","language_id":38}},{"id":1763,"position":4,"audio_url":null,"char_type_name":"end","page_number":591,"line_number":12,"text":"٢","translation":{"text":"(২)","language_name":"bengali","language_id":20},"transliteration":{"text":null,"language_name":"english","language_id":38}}]},{"id":5951,"verse_number":3,"verse_key":"87:3","hizb_number":60,"rub_el_hizb_number":237,"ruku_number":531,"manzil_number":7,"sajdah_number":null,"page_number":591,"juz_number":30,"words":[{"id":2885,"position":1,"audio_url":"wbw/087_003_001.mp3","char_type_name":"word","page_number":591,"line_number":12,"text":"وَٱلَّذِى","translation":{"text":"এবং যিনি","language_name":"bengali","language_id":20},"transliteration":{"text":"wa-alladhī","language_name":"english","language_id":38}},{"id":2886,"position":2,"audio_url":"wbw/087_003_002.mp3","char_type_name":"word","page_number":591,"line_number":12,"text":"قَدَّرَ","translation":{"text":"নিয়তি নির্ধারণ করেছেন","language_name":"bengali","language_id":20},"transliteration":{"text":"qaddara","language_name":"english","language_id":38}},{"id":2887,"position":3,"audio_url":"wbw/087_003_003.mp3","char_type_name":"word","page_number":591,"line_number":12,"text":"فَهَدَىٰ","translation":{"text":"অতঃপর পথ দেখিয়েছেন","language_name":"bengali","language_id":20},"transliteration":{"text":"fahadā","language_name":"english","language_id":38}},{"id":2888,"position":4,"audio_url":null,"char_type_name":"end","page_number":591,"line_number":13,"text":"٣","translation":{"text":"(৩)","language_name":"bengali","language_id":20},"transliteration":{"text":null,"language_name":"english","language_id":38}}]},{"id":5952,"verse_number":4,"verse_key":"87:4","hizb_number":60,"rub_el_hizb_number":237,"ruku_number":531,"manzil_number":7,"sajdah_number":null,"page_number":591,"juz_number":30,"words":[{"id":3248,"position":1,"audio_url":"wbw/087_004_001.mp3","char_type_name":"word","page_number":591,"line_number":13,"text":"وَٱلَّذِىٓ","translation":{"text":"এবং যিনি","language_name":"bengali","language_id":20},"transliteration":{"text":"wa-alladhī","language_name":"english","language_id":38}},{"id":3249,"position":2,"audio_url":"wbw/087_004_002.mp3","char_type_name":"word","page_number":591,"line_number":13,"text":"أَخْرَجَ","translation":{"text":"উৎপন্ন করেছেন","language_name":"bengali","language_id":20},"transliteration":{"text":"akhraja","language_name":"english","language_id":38}},{"id":3250,"position":3,"audio_url":"wbw/087_004_003.mp3","char_type_name":"word","page_number":591,"line_number":13,"text":"ٱلْمَرْعَىٰ","translation":{"text":"তৃণ","language_name":"bengali","language_id":20},"transliteration":{"text":"l-marʿā","language_name":"english","language_id":38}},{"id":3251,"position":4,"audio_url":null,"char_type_name":"end","page_number":591,"line_number":13,"text":"٤","translation":{"text":"(৪)","language_name":"bengali","language_id":20},"transliteration":{"text":null,"language_name":"english","language_id":38}}]},{"id":5953,"verse_number":5,"verse_key":"87:5","hizb_number":60,"rub_el_hizb_number":237,"ruku_number":531,"manzil_number":7,"sajdah_number":null,"page_number":591,"juz_number":30,"words":[{"id":5507,"position":1,"audio_url":"wbw/087_005_001.mp3","char_type_name":"word","page_number":591,"line_number":13,"text":"فَجَعَلَهُۥ","translation":{"text":"অতঃপর তা পরিণত করেছেন","language_name":"bengali","language_id":20},"transliteration":{"text":"fajaʿalahu","language_name":"english","language_id":38}},{"id":5508,"position":2,"audio_url":"wbw/087_005_002.mp3","char_type_name":"word","page_number":591,"line_number":13,"text":"غُثَآءً","translation":{"text":"আবর্জনায়","language_name":"bengali","language_id":20},"transliteration":{"text":"ghuthāan","language_name":"english","language_id":38}},{"id":5509,"position":3,"audio_url":"wbw/087_005_003.mp3","char_type_name":"word","page_number":591,"line_number":13,"text":"أَحْوَىٰ","translation":{"text":"কালো","language_name":"bengali","language_id":20},"transliteration":{"text":"aḥwā","language_name":"english","language_id":38}},{"id":5510,"position":4,"audio_url":null,"char_type_name":"end","page_number":591,"line_number":13,"text":"٥","translation":{"text":"(৫)","language_name":"bengali","language_id":20},"transliteration":{"text":null,"language_name":"english","language_id":38}}]},{"id":5954,"verse_number":6,"verse_key":"87:6","hizb_number":60,"rub_el_hizb_number":237,"ruku_number":531,"manzil_number":7,"sajdah_number":null,"page_number":591,"juz_number":30,"words":[{"id":6743,"position":1,"audio_url":"wbw/087_006_001.mp3","char_type_name":"word","page_number":591,"line_number":13,"text":"سَنُقْرِئُكَ","translation":{"text":"তোমাকে শীঘ্রই আমরা পড়িয়ে দেব","language_name":"bengali","language_id":20},"transliteration":{"text":"sanuq'ri-uka","language_name":"english","language_id":38}},{"id":6744,"position":2,"audio_url":"wbw/087_006_002.mp3","char_type_name":"word","page_number":591,"line_number":14,"text":"فَلَا","translation":{"text":"অতঃপর না","language_name":"bengali","language_id":20},"transliteration":{"text":"falā","language_name":"english","language_id":38}},{"id":6745,"position":3,"audio_url":"wbw/087_006_003.mp3","char_type_name":"word","page_number":591,"line_number":14,"text":"تَنسَىٰٓ","translation":{"text":"তুমি ভুলবে","language_name":"bengali","language_id":20},"transliteration":{"text":"tansā","language_name":"english","language_id":38}},{"id":6746,"position":4,"audio_url":null,"char_type_name":"end","page_number":591,"line_number":14,"text":"٦","translation":{"text":"(৬)","language_name":"bengali","language_id":20},"transliteration":{"text":null,"language_name":"english","language_id":38}}]},{"id":5955,"verse_number":7,"verse_key":"87:7","hizb_number":60,"rub_el_hizb_number":237,"ruku_number":531,"manzil_number":7,"sajdah_number":null,"page_number":591,"juz_number":30,"words":[{"id":8087,"position":1,"audio_url":"wbw/087_007_001.mp3","char_type_name":"word","page_number":591,"line_number":14,"text":"إِلَّا","translation":{"text":"এ ব্যতীত","language_name":"bengali","language_id":20},"transliteration":{"text":"illā","language_name":"english","language_id":38}},{"id":8088,"position":2,"audio_url":"wbw/087_007_002.mp3","char_type_name":"word","page_number":591,"line_number":14,"text":"مَا","translation":{"text":"যা","language_name":"bengali","language_id":20},"transliteration":{"text":"mā","language_name":"english","language_id":38}},{"id":8089,"position":3,"audio_url":"wbw/087_007_003.mp3","char_type_name":"word","page_number":591,"line_number":14,"text":"شَآءَ","translation":{"text":"ইচ্ছা করেন","language_name":"bengali","language_id":20},"transliteration":{"text":"shāa","language_name":"english","language_id":38}},{"id":8090,"position":4,"audio_url":"wbw/087_007_004.mp3","char_type_name":"word","page_number":591,"line_number":14,"text":"ٱللَّهُ ۚ","translation":{"text":"আল্লাহ্‌","language_name":"bengali","language_id":20},"transliteration":{"text":"l-lahu","language_name":"english","language_id":38}},{"id":8092,"position":5,"audio_url":"wbw/087_007_006.mp3","char_type_name":"word","page_number":591,"line_number":14,"text":"إِنَّهُۥ","translation":{"text":"নিশ্চয়ই তিনি","language_name":"bengali","language_id":20},"transliteration":{"text":"innahu","language_name":"english","language_id":38}},{"id":8093,"position":6,"audio_url":"wbw/087_007_007.mp3","char_type_name":"word","page_number":591,"line_number":14,"text":"يَعْلَمُ","translation":{"text":"জানেন","language_name":"bengali","language_id":20},"transliteration":{"text":"yaʿlamu","language_name":"english","language_id":38}},{"id":8094,"position":7,"audio_url":"wbw/087_007_008.mp3","char_type_name":"word","page_number":591,"line_number":14,"text":"ٱلْجَهْرَ","translation":{"text":"প্রকাশ্য (বিষয়)","language_name":"bengali","language_id":20},"transliteration":{"text":"l-jahra","language_name":"english","language_id":38}},{"id":8095,"position":8,"audio_url":"wbw/087_007_009.mp3","char_type_name":"word","page_number":591,"line_number":14,"text":"وَمَا","translation":{"text":"ও যা কিছু","language_name":"bengali","language_id":20},"transliteration":{"text":"wamā","language_name":"english","language_id":38}},{"id":8096,"position":9,"audio_url":"wbw/087_007_010.mp3","char_type_name":"word","page_number":591,"line_number":14,"text":"يَخْفَىٰ","translation":{"text":"কেউ গোপন করে","language_name":"bengali","language_id":20},"transliteration":{"text":"yakhfā","language_name":"english","language_id":38}},{"id":8097,"position":10,"audio_url":null,"char_type_name":"end","page_number":591,"line_number":14,"text":"٧","translation":{"text":"(৭)","language_name":"bengali","language_id":20},"transliteration":{"text":null,"language_name":"english","language_id":38}}]},{"id":5956,"verse_number":8,"verse_key":"87:8","hizb_number":60,"rub_el_hizb_number":237,"ruku_number":531,"manzil_number":7,"sajdah_number":null,"page_number":591,"juz_number":30,"words":[{"id":9263,"position":1,"audio_url":"wbw/087_008_001.mp3","char_type_name":"word","page_number":591,"line_number":14,"text":"وَنُيَسِّرُكَ","translation":{"text":"এবং আমরা তোমাকে সহজ করে দিবো","language_name":"bengali","language_id":20},"transliteration":{"text":"wanuyassiruka","language_name":"english","language_id":38}},{"id":9264,"position":2,"audio_url":"wbw/087_008_002.mp3","char_type_name":"word","page_number":591,"line_number":15,"text":"لِلْيُسْرَىٰ","translation":{"text":"সহজ (পন্থাকে)","language_name":"bengali","language_id":20},"transliteration":{"text":"lil'yus'rā","language_name":"english","language_id":38}},{"id":9265,"position":3,"audio_url":null,"char_type_name":"end","page_number":591,"line_number":15,"text":"٨","translation":{"text":"(৮)","language_name":"bengali","language_id":20},"transliteration":{"text":null,"language_name":"english","language_id":38}}]},{"id":5957,"verse_number":9,"verse_key":"87:9","hizb_number":60,"rub_el_hizb_number":237,"ruku_number":531,"manzil_number":7,"sajdah_number":null,"page_number":591,"juz_number":30,"words":[{"id":10457,"position":1,"audio_url":"wbw/087_009_001.mp3","char_type_name":"word","page_number":591,"line_number":15,"text":"فَذَكِّرْ","translation":{"text":"অতঃপর উপদেশ দাও","language_name":"bengali","language_id":20},"transliteration":{"text":"fadhakkir","language_name":"english","language_id":38}},{"id":10458,"position":2,"audio_url":"wbw/087_009_002.mp3","char_type_name":"word","page_number":591,"line_number":15,"text":"إِن","translation":{"text":"যদি","language_name":"bengali","language_id":20},"transliteration":{"text":"in","language_name":"english","language_id":38}},{"id":10459,"position":3,"audio_url":"wbw/087_009_003.mp3","char_type_name":"word","page_number":591,"line_number":15,"text":"نَّفَعَتِ","translation":{"text":"কল্যাণকর হয়","language_name":"bengali","language_id":20},"transliteration":{"text":"nafaʿati","language_name":"english","language_id":38}},{"id":10460,"position":4,"audio_url":"wbw/087_009_004.mp3","char_type_name":"word","page_number":591,"line_number":15,"text":"ٱلذِّكْرَىٰ","translation":{"text":"উপদেশ","language_name":"bengali","language_id":20},"transliteration":{"text":"l-dhik'rā","language_name":"english","language_id":38}},{"id":10461,"position":5,"audio_url":null,"char_type_name":"end","page_number":591,"line_number":15,"text":"٩","translation":{"text":"(৯)","language_name":"bengali","language_id":20},"transliteration":{"text":null,"language_name":"english","language_id":38}}]},{"id":5958,"verse_number":10,"verse_key":"87:10","hizb_number":60,"rub_el_hizb_number":237,"ruku_number":531,"manzil_number":7,"sajdah_number":null,"page_number":591,"juz_number":30,"words":[{"id":11671,"position":1,"audio_url":"wbw/087_010_001.mp3","char_type_name":"word","page_number":591,"line_number":15,"text":"سَيَذَّكَّرُ","translation":{"text":"সে শীঘ্রই শিক্ষা নেবে","language_name":"bengali","language_id":20},"transliteration":{"text":"sayadhakkaru","language_name":"english","language_id":38}},{"id":11672,"position":2,"audio_url":"wbw/087_010_002.mp3","char_type_name":"word","page_number":591,"line_number":15,"text":"مَن","translation":{"text":"যে","language_name":"bengali","language_id":20},"transliteration":{"text":"man","language_name":"english","language_id":38}},{"id":11673,"position":3,"audio_url":"wbw/087_010_003.mp3","char_type_name":"word","page_number":591,"line_number":15,"text":"يَخْشَىٰ","translation":{"text":"ভয় করে","language_name":"bengali","language_id":20},"transliteration":{"text":"yakhshā","language_name":"english","language_id":38}},{"id":11674,"position":4,"audio_url":null,"char_type_name":"end","page_number":591,"line_number":15,"text":"١٠","translation":{"text":"(১০)","language_name":"bengali","language_id":20},"transliteration":{"text":null,"language_name":"english","language_id":38}}]}],"pagination":{"per_page":10,"current_page":1,"next_page":2,"total_pages":2,"total_records":19}}
