{"verses":[{"id":5959,"verse_number":11,"verse_key":"87:11","hizb_number":60,"rub_el_hizb_number":237,"ruku_number":531,"manzil_number":7,"sajdah_number":null,"page_number":592,"juz_number":30,"words":[{"id":13050,"position":1,"audio_url":"wbw/087_011_001.mp3","char_type_name":"word","page_number":592,"line_number":1,"text":"وَيَتَجَنَّبُهَا","translation":{"text":"আর তা পাশ কাটাবে/ উপেক্ষা করবে","language_name":"bengali","language_id":20},"transliteration":{"text":"wayatajannabuhā","language_name":"english","language_id":38}},{"id":13051,"position":2,"audio_url":"wbw/087_011_002.mp3","char_type_name":"word","page_number":592,"line_number":1,"text":"ٱلْأَشْقَى","translation":{"text":"নিতান্তই হতভাগা","language_name":"bengali","language_id":20},"transliteration":{"text":"l-ashqā","language_name":"english","language_id":38}},{"id":13052,"position":3,"audio_url":null,"char_type_name":"end","page_number":592,"line_number":1,"text":"١١","translation":{"text":"(১১)","language_name":"bengali","language_id":20},"transliteration":{"text":null,"language_name":"english","language_id":38}}]},{"id":5960,"verse_number":12,"verse_key":"87:12","hizb_number":60,"rub_el_hizb_number":237,"ruku_number":531,"manzil_number":7,"sajdah_number":null,"page_number":592,"juz_number":30,"words":[{"id":14191,"position":1,"audio_url":"wbw/087_012_001.mp3","char_type_name":"word","page_number":592,"line_number":1,"text":"ٱلَّذِى","translation":{"text":"যে","language_name":"bengali","language_id":20},"transliteration":{"text":"alladhī","language_name":"english","language_id":38}},{"id":14192,"position":2,"audio_url":"wbw/087_012_002.mp3","char_type_name":"word","page_number":592,"line_number":1,"text":"يَصْلَى","translation":{"text":"প্রবেশ করবে","language_name":"bengali","language_id":20},"transliteration":{"text":"yaṣlā","language_name":"english","language_id":38}},{"id":14193,"position":3,"audio_url":"wbw/087_012_003.mp3","char_type_name":"word","page_number":592,"line_number":1,"text":"ٱلنَّارَ","translation":{"text":"আগুনে","language_name":"bengali","language_id":20},"transliteration":{"text":"l-nāra","language_name":"english","language_id":38}},{"id":14194,"position":4,"audio_url":"wbw/087_012_004.mp3","char_type_name":"word","page_number":592,"line_number":1,"text":"ٱلْكُبْرَىٰ","translation":{"text":"ভয়াবহ","language_name":"bengali","language_id":20},"transliteration":{"text":"l-kub'rā","language_name":"english","language_id":38}},{"id":14195,"position":5,"audio_url":null,"char_type_name":"end","page_number":592,"line_number":1,"text":"١٢","translation":{"text":"(১২)","language_name":"bengali","language_id":20},"transliteration":{"text":null,"language_name":"english","language_id":38}}]},{"id":5961,"verse_number":13,"verse_key":"87:13","hizb_number":60,"rub_el_hizb_number":237,"ruku_number":531,"manzil_number":7,"sajdah_number":null,"page_number":592,"juz_number":30,"words":[{"id":15406,"position":1,"audio_url":"wbw/087_013_001.mp3","char_type_name":"word","page_number":592,"line_number":1,"text":"ثُمَّ","translation":{"text":"অতঃপর","language_name":"bengali","language_id":20},"transliteration":{"text":"thumma","language_name":"english","language_id":38}},{"id":15407,"position":2,"audio_url":"wbw/087_013_002.mp3","char_type_name":"word","page_number":592,"line_number":1,"text":"لَا","translation":{"text":"না","language_name":"bengali","language_id":20},"transliteration":{"text":"lā","language_name":"english","language_id":38}},{"id":15408,"position":3,"audio_url":"wbw/087_013_003.mp3","char_type_name":"word","page_number":592,"line_number":1,"text":"يَمُوتُ","translation":{"text":"সে মরবে","language_name":"bengali","language_id":20},"transliteration":{"text":"yamūtu","language_name":"english","language_id":38}},{"id":15409,"position":4,"audio_url":"wbw/087_013_004.mp3","char_type_name":"word","page_number":592,"line_number":2,"text":"فِيهَا","translation":{"text":"তার মধ্যে","language_name":"bengali","language_id":20},"transliteration":{"text":"fīhā","language_name":"english","language_id":38}},{"id":15410,"position":5,"audio_url":"wbw/087_013_005.mp3","char_type_name":"word","page_number":592,"line_number":2,"text":"وَلَا","translation":{"text":"আর না","language_name":"bengali","language_id":20},"transliteration":{"text":"walā","language_name":"english","language_id":38}},{"id":15411,"position":6,"audio_url":"wbw/087_013_006.mp3","char_type_name":"word","page_number":592,"line_number":2,"text":"يَحْيَىٰ","translation":{"text":"বাঁচবে","language_name":"bengali","language_id":20},"transliteration":{"text":"yaḥyā","language_name":"english","language_id":38}},{"id":15412,"position":7,"audio_url":null,"char_type_name":"end","page_number":592,"line_number":2,"text":"١٣","translation":{"text":"(১৩)","language_name":"bengali","language_id":20},"transliteration":{"text":null,"language_name":"english","language_id":38}}]},{"id":5962,"verse_number":14,"verse_key":"87:14","hizb_number":60,"rub_el_hizb_number":237,"ruku_number":531,"manzil_number":7,"sajdah_number":null,"page_number":592,"juz_number":30,"words":[{"id":16451,"position":1,"audio_url":"wbw/087_014_001.mp3","char_type_name":"word","page_number":592,"line_number":2,"text":"قَدْ","translation":{"text":"নিশ্চয়ই","language_name":"bengali","language_id":20},"transliteration":{"text":"qad","language_name":"english","language_id":38}},{"id":16452,"position":2,"audio_url":"wbw/087_014_002.mp3","char_type_name":"word","page_number":592,"line_number":2,"text":"أَفْلَحَ","translation":{"text":"সে সাফল্য পেলো","language_name":"bengali","language_id":20},"transliteration":{"text":"aflaḥa","language_name":"english","language_id":38}},{"id":16453,"position":3,"audio_url":"wbw/087_014_003.mp3","char_type_name":"word","page_number":592,"line_number":2,"text":"مَن","translation":{"text":"যে","language_name":"bengali","language_id":20},"transliteration":{"text":"man","language_name":"english","language_id":38}},{"id":16454,"position":4,"audio_url":"wbw/087_014_004.mp3","char_type_name":"word","page_number":592,"line_number":2,"text":"تَزَكَّىٰ","translation":{"text":"পবিত্র হলো","language_name":"bengali","language_id":20},"transliteration":{"text":"tazakkā","language_name":"english","language_id":38}},{"id":16455,"position":5,"audio_url":null,"char_type_name":"end","page_number":592,"line_number":2,"text":"١٤","translation":{"text":"(১৪)","language_name":"bengali","language_id":20},"transliteration":{"text":null,"language_name":"english","language_id":38}}]},{"id":5963,"verse_number":15,"verse_key":"87:15","hizb_number":60,"rub_el_hizb_number":237,"ruku_number":531,"manzil_number":7,"sajdah_number":null,"page_number":592,"juz_number":30,"words":[{"id":17611,"position":1,"audio_url":"wbw/087_015_001.mp3","char_type_name":"word","page_number":592,"line_number":2,"text":"وَذَكَرَ","translation":{"text":"স্মরণ করল","language_name":"bengali","language_id":20},"transliteration":{"text":"wadhakara","language_name":"english","language_id":38}},{"id":17612,"position":2,"audio_url":"wbw/087_015_002.mp3","char_type_name":"word","page_number":592,"line_number":2,"text":"ٱسْمَ","translation":{"text":"নাম","language_name":"bengali","language_id":20},"transliteration":{"text":"is'ma","language_name":"english","language_id":38}},{"id":17613,"position":3,"audio_url":"wbw/087_015_003.mp3","char_type_name":"word","page_number":592,"line_number":2,"text":"رَبِّهِۦ","translation":{"text":"তার রবের","language_name":"bengali","language_id":20},"transliteration":{"text":"rabbihi","language_name":"english","language_id":38}},{"id":17614,"position":4,"audio_url":"wbw/087_015_004.mp3","char_type_name":"word","page_number":592,"line_number":2,"text":"فَصَلَّىٰ","translation":{"text":"অতঃপর সে  সালাত পড়ল","language_name":"bengali","language_id":20},"transliteration":{"text":"faṣallā","language_name":"english","language_id":38}},{"id":17615,"position":5,"audio_url":null,"char_type_name":"end","page_number":592,"line_number":2,"text":"١٥","translation":{"text":"(১৫)","language_name":"bengali","language_id":20},"transliteration":{"text":null,"language_name":"english","language_id":38}}]},{"id":5964,"verse_number":16,"verse_key":"87:16","hizb_number":60,"rub_el_hizb_number":237,"ruku_number":531,"manzil_number":7,"sajdah_number":null,"page_number":592,"juz_number":30,"words":[{"id":18745,"position":1,"audio_url":"wbw/087_016_001.mp3","char_type_name":"word","page_number":592,"line_number":3,"text":"بَلْ","translation":{"text":"বরং","language_name":"bengali","language_id":20},"transliteration":{"text":"bal","language_name":"english","language_id":38}},{"id":18746,"position":2,"audio_url":"wbw/087_016_002.mp3","char_type_name":"word","page_number":592,"line_number":3,"text":"تُؤْثِرُونَ","translation":{"text":"তোমরা প্রাধান্য দাও","language_name":"bengali","language_id":20},"transliteration":{"text":"tu'thirūna","language_name":"english","language_id":38}},{"id":18747,"position":3,"audio_url":"wbw/087_016_003.mp3","char_type_name":"word","page_number":592,"line_number":3,"text":"ٱلْحَيَوٰةَ","translation":{"text":"জীবনকে","language_name":"bengali","language_id":20},"transliteration":{"text":"l-ḥayata","language_name":"english","language_id":38}},{"id":18748,"position":4,"audio_url":"wbw/087_016_004.mp3","char_type_name":"word","page_number":592,"line_number":3,"text":"ٱلدُّنْيَا","translation":{"text":"দুনিয়ার/ পার্থিব","language_name":"bengali","language_id":20},"transliteration":{"text":"l-dun'yā","language_name":"english","language_id":38}},{"id":18749,"position":5,"audio_url":null,"char_type_name":"end","page_number":592,"line_number":3,"text":"١٦","translation":{"text":"(১৬)","language_name":"bengali","language_id":20},"transliteration":{"text":null,"language_name":"english","language_id":38}}]},{"id":5965,"verse_number":17,"verse_key":"87:17","hizb_number":60,"rub_el_hizb_number":237,"ruku_number":531,"manzil_number":7,"sajdah_number":null,"page_number":592,"juz_number":30,"words":[{"id":19712,"position":1,"audio_url":"wbw/087_017_001.mp3","char_type_name":"word","page_number":592,"line_number":3,"text":"وَٱلْـَٔاخِرَةُ","translation":{"text":"অথচ পরকাল","language_name":"bengali","language_id":20},"transliteration":{"text":"wal-ākhiratu","language_name":"english","language_id":38}},{"id":19713,"position":2,"audio_url":"wbw/087_017_002.mp3","char_type_name":"word","page_number":592,"line_number":3,"text":"خَيْرٌۭ","translation":{"text":"উত্তম","language_name":"bengali","language_id":20},"transliteration":{"text":"khayrun","language_name":"english","language_id":38}},{"id":19714,"position":3,"audio_url":"wbw/087_017_003.mp3","char_type_name":"word","page_number":592,"line_number":3,"text":"وَأَبْقَىٰٓ","translation":{"text":"ও স্থায়ী","language_name":"bengali","language_id":20},"transliteration":{"text":"wa-abqā","language_name":"english","language_id":38}},{"id":19715,"position":4,"audio_url":null,"char_type_name":"end","page_number":592,"line_number":3,"text":"١٧","translation":{"text":"(১৭)","language_name":"bengali","language_id":20},"transliteration":{"text":null,"language_name":"english","language_id":38}}]},{"id":5966,"verse_number":18,"verse_key":"87:18","hizb_number":60,"rub_el_hizb_number":237,"ruku_number":531,"manzil_number":7,"sajdah_number":null,"page_number":592,"juz_number":30,"words":[{"id":20793,"position":1,"audio_url":"wbw/087_018_001.mp3","char_type_name":"word","page_number":592,"line_number":3,"text":"إِنَّ","translation":{"text":"নিশ্চয়ই","language_name":"bengali","language_id":20},"transliteration":{"text":"inna","language_name":"english","language_id":38}},{"id":20794,"position":2,"audio_url":"wbw/087_018_002.mp3","char_type_name":"word","page_number":592,"line_number":4,"text":"هَـٰذَا","translation":{"text":"এটা (ছিল)","language_name":"bengali","language_id":20},"transliteration":{"text":"hādhā","language_name":"english","language_id":38}},{"id":20795,"position":3,"audio_url":"wbw/087_018_003.mp3","char_type_name":"word","page_number":592,"line_number":4,"text":"لَفِى","translation":{"text":"অবশ্যই মধ্যে","language_name":"bengali","language_id":20},"transliteration":{"text":"lafī","language_name":"english","language_id":38}},{"id":20796,"position":4,"audio_url":"wbw/087_018_004.mp3","char_type_name":"word","page_number":592,"line_number":4,"text":"ٱلصُّحُفِ","translation":{"text":"সহীফাসমূহের","language_name":"bengali","language_id":20},"transliteration":{"text":"l-ṣuḥufi","language_name":"english","language_id":38}},{"id":20797,"position":5,"audio_url":"wbw/087_018_005.mp3","char_type_name":"word","page_number":592,"line_number":4,"text":"ٱلْأُولَىٰ","translation":{"text":"পূর্ববর্তী","language_name":"bengali","language_id":20},"transliteration":{"text":"l-ūlā","language_name":"english","language_id":38}},{"id":20798,"position":6,"audio_url":null,"char_type_name":"end","page_number":592,"line_number":4,"text":"١٨","translation":{"text":"(১৮)","language_name":"bengali","language_id":20},"transliteration":{"text":null,"language_name":"english","language_id":38}}]},{"id":5967,"verse_number":19,"verse_key":"87:19","hizb_number":60,"rub_el_hizb_number":237,"ruku_number":531,"manzil_number":7,"sajdah_number":null,"page_number":592,"juz_number":30,"words":[{"id":21185,"position":1,"audio_url":"wbw/087_019_001.mp3","char_type_name":"word","page_number":592,"line_number":4,"text":"صُحُفِ","translation":{"text":"সহীফাসমূহে","language_name":"bengali","language_id":20},"transliteration":{"text":"ṣuḥufi","language_name":"english","language_id":38}},{"id":21186,"position":2,"audio_url":"wbw/087_019_002.mp3","char_type_name":"word","page_number":592,"line_number":4,"text":"إِبْرَٰهِيمَ","translation":{"text":"ইব্রাহীমের","language_name":"bengali","language_id":20},"transliteration":{"text":"ib'rāhīma","language_name":"english","language_id":38}},{"id":21187,"position":3,"audio_url":"wbw/087_019_003.mp3","char_type_name":"word","page_number":592,"line_number":4,"text":"وَمُوسَىٰ","translation":{"text":"ও মূসার","language_name":"bengali","language_id":20},"transliteration":{"text":"wamūsā","language_name":"english","language_id":38}},{"id":21188,"position":4,"audio_url":null,"char_type_name":"end","page_number":592,"line_number":4,"text":"١٩","translation":{"text":"(১৯)","language_name":"bengali","language_id":20},"transliteration":{"text":null,"language_name":"english","language_id":38}}]}],"pagination":{"per_page":10,"current_page":2,"next_page":null,"total_pages":2,"total_records":19}}
