{"verses":[{"id":4323,"verse_number":51,"verse_key":"42:51","hizb_number":49,"rub_el_hizb_number":196,"ruku_number":425,"manzil_number":6,"sajdah_number":null,"page_number":488,"juz_number":25,"words":[{"id":49100,"position":1,"audio_url":"wbw/042_051_002.mp3","char_type_name":"word","page_number":488,"line_number":13,"text":"۞ وَمَا","translation":{"text":"এবং নয় (মর্যাদা)","language_name":"bengali","language_id":20},"transliteration":{"text":"wamā","language_name":"english","language_id":38}},{"id":49101,"position":2,"audio_url":"wbw/042_051_003.mp3","char_type_name":"word","page_number":488,"line_number":13,"text":"كَانَ","translation":{"text":"ছিল","language_name":"bengali","language_id":20},"transliteration":{"text":"kāna","language_name":"english","language_id":38}},{"id":49102,"position":3,"audio_url":"wbw/042_051_004.mp3","char_type_name":"word","page_number":488,"line_number":14,"text":"لِبَشَرٍ","translation":{"text":"মানুষের জন্যে","language_name":"bengali","language_id":20},"transliteration":{"text":"libasharin","language_name":"english","language_id":38}},{"id":49103,"position":4,"audio_url":"wbw/042_051_005.mp3","char_type_name":"word","page_number":488,"line_number":14,"text":"أَن","translation":{"text":"যে","language_name":"bengali","language_id":20},"transliteration":{"text":"an","language_name":"english","language_id":38}},{"id":49104,"position":5,"audio_url":"wbw/042_051_006.mp3","char_type_name":"word","page_number":488,"line_number":14,"text":"يُكَلِّمَهُ","translation":{"text":"তার সাথে কথা বলবেন","language_name":"bengali","language_id":20},"transliteration":{"text":"yukallimahu","language_name":"english","language_id":38}},{"id":49105,"position":6,"audio_url":"wbw/042_051_007.mp3","char_type_name":"word","page_number":488,"line_number":14,"text":"ٱللَّهُ","translation":{"text":"আল্লাহ","language_name":"bengali","language_id":20},"transliteration":{"text":"l-lahu","language_name":"english","language_id":38}},{"id":49106,"position":7,"audio_url":"wbw/042_051_008.mp3","char_type_name":"word","page_number":488,"line_number":14,"text":"إِلَّا","translation":{"text":"ছাড়া","language_name":"bengali","language_id":20},"transliteration":{"text":"illā","language_name":"english","language_id":38}},{"id":49107,"position":8,"audio_url":"wbw/042_051_009.mp3","char_type_name":"word","page_number":488,"line_number":14,"text":"وَحْيًا","translation":{"text":"ওহী","language_name":"bengali","language_id":20},"transliteration":{"text":"waḥyan","language_name":"english","language_id":38}},{"id":49108,"position":9,"audio_url":"wbw/042_051_010.mp3","char_type_name":"word","page_number":488,"line_number":14,"text":"أَوْ","translation":{"text":"বা","language_name":"bengali","language_id":20},"transliteration":{"text":"aw","language_name":"english","language_id":38}},{"id":49109,"position":10,"audio_url":"wbw/042_051_011.mp3","char_type_name":"word","page_number":488,"line_number":14,"text":"مِن","translation":{"text":"থেকে","language_name":"bengali","language_id":20},"transliteration":{"text":"min","language_name":"english","language_id":38}},{"id":49110,"position":11,"audio_url":"wbw/042_051_012.mp3","char_type_name":"word","page_number":488,"line_number":14,"text":"وَرَآئِ","translation":{"text":"আড়াল","language_name":"bengali","language_id":20},"transliteration":{"text":"warāi","language_name":"english","language_id":38}},{"id":49111,"position":12,"audio_url":"wbw/042_051_013.mp3","char_type_name":"word","page_number":488,"line_number":14,"text":"حِجَابٍ","translation":{"text":"পর্দার","language_name":"bengali","language_id":20},"transliteration":{"text":"ḥijābin","language_name":"english","language_id":38}},{"id":49112,"position":13,"audio_url":"wbw/042_051_014.mp3","char_type_name":"word","page_number":488,"line_number":14,"text":"أَوْ","translation":{"text":"অথবা","language_name":"bengali","language_id":20},"transliteration":{"text":"aw","language_name":"english","language_id":38}},{"id":49113,"position":14,"audio_url":"wbw/042_051_015.mp3","char_type_name":"word","page_number":488,"line_number":14,"text":"يُرْسِلَ","translation":{"text":"প্রেরণ করেন","language_name":"bengali","language_id":20},"transliteration":{"text":"yur'sila","language_name":"english","language_id":38}},{"id":49114,"position":15,"audio_url":"wbw/042_051_016.mp3","char_type_name":"word","page_number":488,"line_number":15,"text":"رَسُولًۭا","translation":{"text":"দূত হিসেবে (ফেরেশতা)","language_name":"bengali","language_id":20},"transliteration":{"text":"rasūlan","language_name":"english","language_id":38}},{"id":49115,"position":16,"audio_url":"wbw/042_051_017.mp3","char_type_name":"word","page_number":488,"line_number":15,"text":"فَيُوحِىَ","translation":{"text":"অতঃপর ওহী করে","language_name":"bengali","language_id":20},"transliteration":{"text":"fayūḥiya","language_name":"english","language_id":38}},{"id":49116,"position":17,"audio_url":"wbw/042_051_018.mp3","char_type_name":"word","page_number":488,"line_number":15,"text":"بِإِذْنِهِۦ","translation":{"text":"তাঁর অনুমতিক্রমে","language_name":"bengali","language_id":20},"transliteration":{"text":"bi-idh'nihi","language_name":"english","language_id":38}},{"id":49117,"position":18,"audio_url":"wbw/042_051_019.mp3","char_type_name":"word","page_number":488,"line_number":15,"text":"مَا","translation":{"text":"যা","language_name":"bengali","language_id":20},"transliteration":{"text":"mā","language_name":"english","language_id":38}},{"id":49118,"position":19,"audio_url":"wbw/042_051_020.mp3","char_type_name":"word","page_number":488,"line_number":15,"text":"يَشَآءُ ۚ","translation":{"text":"তিনি ইচ্ছে করেন","language_name":"bengali","language_id":20},"transliteration":{"text":"yashāu","language_name":"english","language_id":38}},{"id":49120,"position":20,"audio_url":"wbw/042_051_022.mp3","char_type_name":"word","page_number":488,"line_number":15,"text":"إِنَّهُۥ","translation":{"text":"তিনি নিশ্চয়ই","language_name":"bengali","language_id":20},"transliteration":{"text":"innahu","language_name":"english","language_id":38}},{"id":49121,"position":21,"audio_url":"wbw/042_051_023.mp3","char_type_name":"word","page_number":488,"line_number":15,"text":"عَلِىٌّ","translation":{"text":"মহান","language_name":"bengali","language_id":20},"transliteration":{"text":"ʿaliyyun","language_name":"english","language_id":38}},{"id":49122,"position":22,"audio_url":"wbw/042_051_024.mp3","char_type_name":"word","page_number":488,"line_number":15,"text":"حَكِيمٌۭ","translation":{"text":"প্রজ্ঞাময়","language_name":"bengali","language_id":20},"transliteration":{"text":"ḥakīmun","language_name":"english","language_id":38}},{"id":49123,"position":23,"audio_url":null,"char_type_name":"end","page_number":488,"line_number":15,"text":"٥١","translation":{"text":"(৫১)","language_name":"bengali","language_id":20},"transliteration":{"text":null,"language_name":"english","language_id":38}}]},{"id":4324,"verse_number":52,"verse_key":"42:52","hizb_number":49,"rub_el_hizb_number":196,"ruku_number":425,"manzil_number":6,"sajdah_number":null,"page_number":489,"juz_number":25,"words":[{"id":49768,"position":1,"audio_url":"wbw/042_052_001.mp3","char_type_name":"word","page_number":489,"line_number":1,"text":"وَكَذَٰلِكَ","translation":{"text":"এবং এভাবে","language_name":"bengali","language_id":20},"transliteration":{"text":"wakadhālika","language_name":"english","language_id":38}},{"id":49769,"position":2,"audio_url":"wbw/042_052_002.mp3","char_type_name":"word","page_number":489,"line_number":1,"text":"أَوْحَيْنَآ","translation":{"text":"আমরা ওহী পাঠিয়েছি","language_name":"bengali","language_id":20},"transliteration":{"text":"awḥaynā","language_name":"english","language_id":38}},{"id":49770,"position":3,"audio_url":"wbw/042_052_003.mp3","char_type_name":"word","page_number":489,"line_number":1,"text":"إِلَيْكَ","translation":{"text":"তোমার প্রতি","language_name":"bengali","language_id":20},"transliteration":{"text":"ilayka","language_name":"english","language_id":38}},{"id":49771,"position":4,"audio_url":"wbw/042_052_004.mp3","char_type_name":"word","page_number":489,"line_number":1,"text":"رُوحًۭا","translation":{"text":"রূহ (অর্থাৎ ওহী) বা কোরআন","language_name":"bengali","language_id":20},"transliteration":{"text":"rūḥan","language_name":"english","language_id":38}},{"id":49772,"position":5,"audio_url":"wbw/042_052_005.mp3","char_type_name":"word","page_number":489,"line_number":1,"text":"مِّنْ","translation":{"text":"থেকে","language_name":"bengali","language_id":20},"transliteration":{"text":"min","language_name":"english","language_id":38}},{"id":49773,"position":6,"audio_url":"wbw/042_052_006.mp3","char_type_name":"word","page_number":489,"line_number":1,"text":"أَمْرِنَا ۚ","translation":{"text":"আমাদের নির্দেশ","language_name":"bengali","language_id":20},"transliteration":{"text":"amrinā","language_name":"english","language_id":38}},{"id":49775,"position":7,"audio_url":"wbw/042_052_008.mp3","char_type_name":"word","page_number":489,"line_number":1,"text":"مَا","translation":{"text":"না","language_name":"bengali","language_id":20},"transliteration":{"text":"mā","language_name":"english","language_id":38}},{"id":49776,"position":8,"audio_url":"wbw/042_052_009.mp3","char_type_name":"word","page_number":489,"line_number":1,"text":"كُنتَ","translation":{"text":"তুমি","language_name":"bengali","language_id":20},"transliteration":{"text":"kunta","language_name":"english","language_id":38}},{"id":49777,"position":9,"audio_url":"wbw/042_052_010.mp3","char_type_name":"word","page_number":489,"line_number":1,"text":"تَدْرِى","translation":{"text":"জানতে","language_name":"bengali","language_id":20},"transliteration":{"text":"tadrī","language_name":"english","language_id":38}},{"id":49778,"position":10,"audio_url":"wbw/042_052_011.mp3","char_type_name":"word","page_number":489,"line_number":1,"text":"مَا","translation":{"text":"কি","language_name":"bengali","language_id":20},"transliteration":{"text":"mā","language_name":"english","language_id":38}},{"id":49779,"position":11,"audio_url":"wbw/042_052_012.mp3","char_type_name":"word","page_number":489,"line_number":1,"text":"ٱلْكِتَـٰبُ","translation":{"text":"কিতাব","language_name":"bengali","language_id":20},"transliteration":{"text":"l-kitābu","language_name":"english","language_id":38}},{"id":49780,"position":12,"audio_url":"wbw/042_052_013.mp3","char_type_name":"word","page_number":489,"line_number":2,"text":"وَلَا","translation":{"text":"আর না (জানতে)","language_name":"bengali","language_id":20},"transliteration":{"text":"walā","language_name":"english","language_id":38}},{"id":49781,"position":13,"audio_url":"wbw/042_052_014.mp3","char_type_name":"word","page_number":489,"line_number":2,"text":"ٱلْإِيمَـٰنُ","translation":{"text":"ঈমান","language_name":"bengali","language_id":20},"transliteration":{"text":"l-īmānu","language_name":"english","language_id":38}},{"id":49782,"position":14,"audio_url":"wbw/042_052_015.mp3","char_type_name":"word","page_number":489,"line_number":2,"text":"وَلَـٰكِن","translation":{"text":"কিন্তু","language_name":"bengali","language_id":20},"transliteration":{"text":"walākin","language_name":"english","language_id":38}},{"id":49783,"position":15,"audio_url":"wbw/042_052_016.mp3","char_type_name":"word","page_number":489,"line_number":2,"text":"جَعَلْنَـٰهُ","translation":{"text":"তাকে আমরা করেছি","language_name":"bengali","language_id":20},"transliteration":{"text":"jaʿalnāhu","language_name":"english","language_id":38}},{"id":49784,"position":16,"audio_url":"wbw/042_052_017.mp3","char_type_name":"word","page_number":489,"line_number":2,"text":"نُورًۭا","translation":{"text":"আলো'","language_name":"bengali","language_id":20},"transliteration":{"text":"nūran","language_name":"english","language_id":38}},{"id":49785,"position":17,"audio_url":"wbw/042_052_018.mp3","char_type_name":"word","page_number":489,"line_number":2,"text":"نَّهْدِى","translation":{"text":"পথ দেখাই আমরা","language_name":"bengali","language_id":20},"transliteration":{"text":"nahdī","language_name":"english","language_id":38}},{"id":49786,"position":18,"audio_url":"wbw/042_052_019.mp3","char_type_name":"word","page_number":489,"line_number":2,"text":"بِهِۦ","translation":{"text":"তা দিয়ে","language_name":"bengali","language_id":20},"transliteration":{"text":"bihi","language_name":"english","language_id":38}},{"id":49787,"position":19,"audio_url":"wbw/042_052_020.mp3","char_type_name":"word","page_number":489,"line_number":2,"text":"مَن","translation":{"text":"যাকে","language_name":"bengali","language_id":20},"transliteration":{"text":"man","language_name":"english","language_id":38}},{"id":49788,"position":20,"audio_url":"wbw/042_052_021.mp3","char_type_name":"word","page_number":489,"line_number":2,"text":"نَّشَآءُ","translation":{"text":"ইচ্ছে করি আমরা","language_name":"bengali","language_id":20},"transliteration":{"text":"nashāu","language_name":"english","language_id":38}},{"id":49789,"position":21,"audio_url":"wbw/042_052_022.mp3","char_type_name":"word","page_number":489,"line_number":2,"text":"مِنْ","translation":{"text":"মধ্য হ'তে","language_name":"bengali","language_id":20},"transliteration":{"text":"min","language_name":"english","language_id":38}},{"id":49790,"position":22,"audio_url":"wbw/042_052_023.mp3","char_type_name":"word","page_number":489,"line_number":2,"text":"عِبَادِنَا ۚ","translation":{"text":"আমাদের দাসদের","language_name":"bengali","language_id":20},"transliteration":{"text":"ʿibādinā","language_name":"english","language_id":38}},{"id":49792,"position":23,"audio_url":"wbw/042_052_025.mp3","char_type_name":"word","page_number":489,"line_number":3,"text":"وَإِنَّكَ","translation":{"text":"এবং তুমি নিশ্চয়ই","language_name":"bengali","language_id":20},"transliteration":{"text":"wa-innaka","language_name":"english","language_id":38}},{"id":49793,"position":24,"audio_url":"wbw/042_052_026.mp3","char_type_name":"word","page_number":489,"line_number":3,"text":"لَتَهْدِىٓ","translation":{"text":"পথ দেখাচ্ছো তুমি অবশ্যই","language_name":"bengali","language_id":20},"transliteration":{"text":"latahdī","language_name":"english","language_id":38}},{"id":49794,"position":25,"audio_url":"wbw/042_052_027.mp3","char_type_name":"word","page_number":489,"line_number":3,"text":"إِلَىٰ","translation":{"text":"দিকে","language_name":"bengali","language_id":20},"transliteration":{"text":"ilā","language_name":"english","language_id":38}},{"id":49795,"position":26,"audio_url":"wbw/042_052_028.mp3","char_type_name":"word","page_number":489,"line_number":3,"text":"صِرَٰطٍۢ","translation":{"text":"পথের","language_name":"bengali","language_id":20},"transliteration":{"text":"ṣirāṭin","language_name":"english","language_id":38}},{"id":49796,"position":27,"audio_url":"wbw/042_052_029.mp3","char_type_name":"word","page_number":489,"line_number":3,"text":"مُّسْتَقِيمٍۢ","translation":{"text":"সরল-সঠিক","language_name":"bengali","language_id":20},"transliteration":{"text":"mus'taqīmin","language_name":"english","language_id":38}},{"id":49797,"position":28,"audio_url":null,"char_type_name":"end","page_number":489,"line_number":3,"text":"٥٢","translation":{"text":"(৫২)","language_name":"bengali","language_id":20},"transliteration":{"text":null,"language_name":"english","language_id":38}}]},{"id":4325,"verse_number":53,"verse_key":"42:53","hizb_number":49,"rub_el_hizb_number":196,"ruku_number":425,"manzil_number":6,"sajdah_number":null,"page_number":489,"juz_number":25,"words":[{"id":50398,"position":1,"audio_url":"wbw/042_053_001.mp3","char_type_name":"word","page_number":489,"line_number":3,"text":"صِرَٰطِ","translation":{"text":"পথ","language_name":"bengali","language_id":20},"transliteration":{"text":"ṣirāṭi","language_name":"english","language_id":38}},{"id":50399,"position":2,"audio_url":"wbw/042_053_002.mp3","char_type_name":"word","page_number":489,"line_number":3,"text":"ٱللَّهِ","translation":{"text":"আল্লাহর","language_name":"bengali","language_id":20},"transliteration":{"text":"l-lahi","language_name":"english","language_id":38}},{"id":50400,"position":3,"audio_url":"wbw/042_053_003.mp3","char_type_name":"word","page_number":489,"line_number":3,"text":"ٱلَّذِى","translation":{"text":"যিনি (এমন সত্ত্বা যে)","language_name":"bengali","language_id":20},"transliteration":{"text":"alladhī","language_name":"english","language_id":38}},{"id":50401,"position":4,"audio_url":"wbw/042_053_004.mp3","char_type_name":"word","page_number":489,"line_number":3,"text":"لَهُۥ","translation":{"text":"তাঁরই জন্যে","language_name":"bengali","language_id":20},"transliteration":{"text":"lahu","language_name":"english","language_id":38}},{"id":50402,"position":5,"audio_url":"wbw/042_053_005.mp3","char_type_name":"word","page_number":489,"line_number":4,"text":"مَا","translation":{"text":"যা কিছু","language_name":"bengali","language_id":20},"transliteration":{"text":"mā","language_name":"english","language_id":38}},{"id":50403,"position":6,"audio_url":"wbw/042_053_006.mp3","char_type_name":"word","page_number":489,"line_number":4,"text":"فِى","translation":{"text":"মধ্যে আছে","language_name":"bengali","language_id":20},"transliteration":{"text":"fī","language_name":"english","language_id":38}},{"id":50404,"position":7,"audio_url":"wbw/042_053_007.mp3","char_type_name":"word","page_number":489,"line_number":4,"text":"ٱلسَّمَـٰوَٰتِ","translation":{"text":"আকাশের","language_name":"bengali","language_id":20},"transliteration":{"text":"l-samāwāti","language_name":"english","language_id":38}},{"id":50405,"position":8,"audio_url":"wbw/042_053_008.mp3","char_type_name":"word","page_number":489,"line_number":4,"text":"وَمَا","translation":{"text":"এবং যা কিছু","language_name":"bengali","language_id":20},"transliteration":{"text":"wamā","language_name":"english","language_id":38}},{"id":50406,"position":9,"audio_url":"wbw/042_053_009.mp3","char_type_name":"word","page_number":489,"line_number":4,"text":"فِى","translation":{"text":"মধ্যে আছে","language_name":"bengali","language_id":20},"transliteration":{"text":"fī","language_name":"english","language_id":38}},{"id":50407,"position":10,"audio_url":"wbw/042_053_010.mp3","char_type_name":"word","page_number":489,"line_number":4,"text":"ٱلْأَرْضِ ۗ","translation":{"text":"পৃথিবীর","language_name":"bengali","language_id":20},"transliteration":{"text":"l-arḍi","language_name":"english","language_id":38}},{"id":50409,"position":11,"audio_url":"wbw/042_053_012.mp3","char_type_name":"word","page_number":489,"line_number":4,"text":"أَلَآ","translation":{"text":"জেনে রাখো","language_name":"bengali","language_id":20},"transliteration":{"text":"alā","language_name":"english","language_id":38}},{"id":50410,"position":12,"audio_url":"wbw/042_053_013.mp3","char_type_name":"word","page_number":489,"line_number":4,"text":"إِلَى","translation":{"text":"দিকে","language_name":"bengali","language_id":20},"transliteration":{"text":"ilā","language_name":"english","language_id":38}},{"id":50411,"position":13,"audio_url":"wbw/042_053_014.mp3","char_type_name":"word","page_number":489,"line_number":4,"text":"ٱللَّهِ","translation":{"text":"আল্লাহরই","language_name":"bengali","language_id":20},"transliteration":{"text":"l-lahi","language_name":"english","language_id":38}},{"id":50412,"position":14,"audio_url":"wbw/042_053_015.mp3","char_type_name":"word","page_number":489,"line_number":4,"text":"تَصِيرُ","translation":{"text":"ফিরে যায়","language_name":"bengali","language_id":20},"transliteration":{"text":"taṣīru","language_name":"english","language_id":38}},{"id":50413,"position":15,"audio_url":"wbw/042_053_016.mp3","char_type_name":"word","page_number":489,"line_number":4,"text":"ٱلْأُمُورُ","translation":{"text":"সকল বিষয়","language_name":"bengali","language_id":20},"transliteration":{"text":"l-umūru","language_name":"english","language_id":38}},{"id":50414,"position":16,"audio_url":null,"char_type_name":"end","page_number":489,"line_number":4,"text":"٥٣","translation":{"text":"(৫৩)","language_name":"bengali","language_id":20},"transliteration":{"text":null,"language_name":"english","language_id":38}}]}],"pagination":{"per_page":10,"current_page":6,"next_page":null,"total_pages":6,"total_records":53}}
