{"verses":[{"id":2349,"verse_number":1,"verse_key":"20:1","hizb_number":32,"rub_el_hizb_number":125,"ruku_number":270,"manzil_number":4,"sajdah_number":null,"page_number":312,"juz_number":16,"words":[{"id":220,"position":1,"audio_url":"wbw/020_001_001.mp3","char_type_name":"word","page_number":312,"line_number":7,"text":"طه","translation":{"text":"ত্বা-হা","language_name":"bengali","language_id":20},"transliteration":{"text":"tta-ha","language_name":"english","language_id":38}},{"id":221,"position":2,"audio_url":null,"char_type_name":"end","page_number":312,"line_number":7,"text":"١","translation":{"text":"(১)","language_name":"bengali","language_id":20},"transliteration":{"text":null,"language_name":"english","language_id":38}}]},{"id":2350,"verse_number":2,"verse_key":"20:2","hizb_number":32,"rub_el_hizb_number":125,"ruku_number":270,"manzil_number":4,"sajdah_number":null,"page_number":312,"juz_number":16,"words":[{"id":1156,"position":1,"audio_url":"wbw/020_002_001.mp3","char_type_name":"word","page_number":312,"line_number":7,"text":"مَآ","translation":{"text":"না","language_name":"bengali","language_id":20},"transliteration":{"text":"mā","language_name":"english","language_id":38}},{"id":1157,"position":2,"audio_url":"wbw/020_002_002.mp3","char_type_name":"word","page_number":312,"line_number":7,"text":"أَنزَلْنَا","translation":{"text":"আমরা অবতীর্ণ করেছি","language_name":"bengali","language_id":20},"transliteration":{"text":"anzalnā","language_name":"english","language_id":38}},{"id":1158,"position":3,"audio_url":"wbw/020_002_003.mp3","char_type_name":"word","page_number":312,"line_number":7,"text":"عَلَيْكَ","translation":{"text":"তোমার উপর","language_name":"bengali","language_id":20},"transliteration":{"text":"ʿalayka","language_name":"english","language_id":38}},{"id":1159,"position":4,"audio_url":"wbw/020_002_004.mp3","char_type_name":"word","page_number":312,"line_number":7,"text":"ٱلْقُرْءَانَ","translation":{"text":"(এই) কুরআন","language_name":"bengali","language_id":20},"transliteration":{"text":"l-qur'āna","language_name":"english","language_id":38}},{"id":1160,"position":5,"audio_url":"wbw/020_002_005.mp3","char_type_name":"word","page_number":312,"line_number":7,"text":"لِتَشْقَىٰٓ","translation":{"text":"তোমাকে কষ্ট দেওয়ার জন্যে","language_name":"bengali","language_id":20},"transliteration":{"text":"litashqā","language_name":"english","language_id":38}},{"id":1161,"position":6,"audio_url":null,"char_type_name":"end","page_number":312,"line_number":7,"text":"٢","translation":{"text":"(২)","language_name":"bengali","language_id":20},"transliteration":{"text":null,"language_name":"english","language_id":38}}]},{"id":2351,"verse_number":3,"verse_key":"20:3","hizb_number":32,"rub_el_hizb_number":125,"ruku_number":270,"manzil_number":4,"sajdah_number":null,"page_number":312,"juz_number":16,"words":[{"id":2203,"position":1,"audio_url":"wbw/020_003_001.mp3","char_type_name":"word","page_number":312,"line_number":7,"text":"إِلَّا","translation":{"text":"কিন্তু","language_name":"bengali","language_id":20},"transliteration":{"text":"illā","language_name":"english","language_id":38}},{"id":2204,"position":2,"audio_url":"wbw/020_003_002.mp3","char_type_name":"word","page_number":312,"line_number":7,"text":"تَذْكِرَةًۭ","translation":{"text":"উপদেশ","language_name":"bengali","language_id":20},"transliteration":{"text":"tadhkiratan","language_name":"english","language_id":38}},{"id":2205,"position":3,"audio_url":"wbw/020_003_003.mp3","char_type_name":"word","page_number":312,"line_number":8,"text":"لِّمَن","translation":{"text":"( তার ) জন্যে যে","language_name":"bengali","language_id":20},"transliteration":{"text":"liman","language_name":"english","language_id":38}},{"id":2206,"position":4,"audio_url":"wbw/020_003_004.mp3","char_type_name":"word","page_number":312,"line_number":8,"text":"يَخْشَىٰ","translation":{"text":"ভয় করে","language_name":"bengali","language_id":20},"transliteration":{"text":"yakhshā","language_name":"english","language_id":38}},{"id":2207,"position":5,"audio_url":null,"char_type_name":"end","page_number":312,"line_number":8,"text":"٣","translation":{"text":"(৩)","language_name":"bengali","language_id":20},"transliteration":{"text":null,"language_name":"english","language_id":38}}]},{"id":2352,"verse_number":4,"verse_key":"20:4","hizb_number":32,"rub_el_hizb_number":125,"ruku_number":270,"manzil_number":4,"sajdah_number":null,"page_number":312,"juz_number":16,"words":[{"id":3531,"position":1,"audio_url":"wbw/020_004_001.mp3","char_type_name":"word","page_number":312,"line_number":8,"text":"تَنزِيلًۭا","translation":{"text":"অবতীর্ণ করা ( হয়েছে )","language_name":"bengali","language_id":20},"transliteration":{"text":"tanzīlan","language_name":"english","language_id":38}},{"id":3532,"position":2,"audio_url":"wbw/020_004_002.mp3","char_type_name":"word","page_number":312,"line_number":8,"text":"مِّمَّنْ","translation":{"text":"তাঁর পক্ষ হ'তে","language_name":"bengali","language_id":20},"transliteration":{"text":"mimman","language_name":"english","language_id":38}},{"id":3533,"position":3,"audio_url":"wbw/020_004_003.mp3","char_type_name":"word","page_number":312,"line_number":8,"text":"خَلَقَ","translation":{"text":"( যিনি ) সৃষ্টি করেছেন","language_name":"bengali","language_id":20},"transliteration":{"text":"khalaqa","language_name":"english","language_id":38}},{"id":3534,"position":4,"audio_url":"wbw/020_004_004.mp3","char_type_name":"word","page_number":312,"line_number":8,"text":"ٱلْأَرْضَ","translation":{"text":"পৃথিবীকে","language_name":"bengali","language_id":20},"transliteration":{"text":"l-arḍa","language_name":"english","language_id":38}},{"id":3535,"position":5,"audio_url":"wbw/020_004_005.mp3","char_type_name":"word","page_number":312,"line_number":8,"text":"وَٱلسَّمَـٰوَٰتِ","translation":{"text":"ও আকাশমণ্ডলীকে","language_name":"bengali","language_id":20},"transliteration":{"text":"wal-samāwāti","language_name":"english","language_id":38}},{"id":3536,"position":6,"audio_url":"wbw/020_004_006.mp3","char_type_name":"word","page_number":312,"line_number":8,"text":"ٱلْعُلَى","translation":{"text":"( যা ) সমুচ্চ","language_name":"bengali","language_id":20},"transliteration":{"text":"l-ʿulā","language_name":"english","language_id":38}},{"id":3537,"position":7,"audio_url":null,"char_type_name":"end","page_number":312,"line_number":8,"text":"٤","translation":{"text":"(৪)","language_name":"bengali","language_id":20},"transliteration":{"text":null,"language_name":"english","language_id":38}}]},{"id":2353,"verse_number":5,"verse_key":"20:5","hizb_number":32,"rub_el_hizb_number":125,"ruku_number":270,"manzil_number":4,"sajdah_number":null,"page_number":312,"juz_number":16,"words":[{"id":4875,"position":1,"audio_url":"wbw/020_005_001.mp3","char_type_name":"word","page_number":312,"line_number":9,"text":"ٱلرَّحْمَـٰنُ","translation":{"text":"( তিনিই ) দয়াময়","language_name":"bengali","language_id":20},"transliteration":{"text":"al-raḥmānu","language_name":"english","language_id":38}},{"id":4876,"position":2,"audio_url":"wbw/020_005_002.mp3","char_type_name":"word","page_number":312,"line_number":9,"text":"عَلَى","translation":{"text":"যিনি উপর","language_name":"bengali","language_id":20},"transliteration":{"text":"ʿalā","language_name":"english","language_id":38}},{"id":4877,"position":3,"audio_url":"wbw/020_005_003.mp3","char_type_name":"word","page_number":312,"line_number":9,"text":"ٱلْعَرْشِ","translation":{"text":"আরশের","language_name":"bengali","language_id":20},"transliteration":{"text":"l-ʿarshi","language_name":"english","language_id":38}},{"id":4878,"position":4,"audio_url":"wbw/020_005_004.mp3","char_type_name":"word","page_number":312,"line_number":9,"text":"ٱسْتَوَىٰ","translation":{"text":"সমাসীন হয়েছেন","language_name":"bengali","language_id":20},"transliteration":{"text":"is'tawā","language_name":"english","language_id":38}},{"id":4879,"position":5,"audio_url":null,"char_type_name":"end","page_number":312,"line_number":9,"text":"٥","translation":{"text":"(৫)","language_name":"bengali","language_id":20},"transliteration":{"text":null,"language_name":"english","language_id":38}}]},{"id":2354,"verse_number":6,"verse_key":"20:6","hizb_number":32,"rub_el_hizb_number":125,"ruku_number":270,"manzil_number":4,"sajdah_number":null,"page_number":312,"juz_number":16,"words":[{"id":6128,"position":1,"audio_url":"wbw/020_006_001.mp3","char_type_name":"word","page_number":312,"line_number":9,"text":"لَهُۥ","translation":{"text":"তাঁরই ( মালিকানায় )","language_name":"bengali","language_id":20},"transliteration":{"text":"lahu","language_name":"english","language_id":38}},{"id":6129,"position":2,"audio_url":"wbw/020_006_002.mp3","char_type_name":"word","page_number":312,"line_number":9,"text":"مَا","translation":{"text":"যা কিছু","language_name":"bengali","language_id":20},"transliteration":{"text":"mā","language_name":"english","language_id":38}},{"id":6130,"position":3,"audio_url":"wbw/020_006_003.mp3","char_type_name":"word","page_number":312,"line_number":9,"text":"فِى","translation":{"text":"মধ্যে আছে","language_name":"bengali","language_id":20},"transliteration":{"text":"fī","language_name":"english","language_id":38}},{"id":6131,"position":4,"audio_url":"wbw/020_006_004.mp3","char_type_name":"word","page_number":312,"line_number":9,"text":"ٱلسَّمَـٰوَٰتِ","translation":{"text":"আকাশমণ্ডলীর","language_name":"bengali","language_id":20},"transliteration":{"text":"l-samāwāti","language_name":"english","language_id":38}},{"id":6132,"position":5,"audio_url":"wbw/020_006_005.mp3","char_type_name":"word","page_number":312,"line_number":9,"text":"وَمَا","translation":{"text":"ও যা কিছু","language_name":"bengali","language_id":20},"transliteration":{"text":"wamā","language_name":"english","language_id":38}},{"id":6133,"position":6,"audio_url":"wbw/020_006_006.mp3","char_type_name":"word","page_number":312,"line_number":9,"text":"فِى","translation":{"text":"মধ্যে আছে","language_name":"bengali","language_id":20},"transliteration":{"text":"fī","language_name":"english","language_id":38}},{"id":6134,"position":7,"audio_url":"wbw/020_006_007.mp3","char_type_name":"word","page_number":312,"line_number":10,"text":"ٱلْأَرْضِ","translation":{"text":"পৃথিবীর","language_name":"bengali","language_id":20},"transliteration":{"text":"l-arḍi","language_name":"english","language_id":38}},{"id":6135,"position":8,"audio_url":"wbw/020_006_008.mp3","char_type_name":"word","page_number":312,"line_number":10,"text":"وَمَا","translation":{"text":"এবং যা কিছু ( আছে )","language_name":"bengali","language_id":20},"transliteration":{"text":"wamā","language_name":"english","language_id":38}},{"id":6136,"position":9,"audio_url":"wbw/020_006_009.mp3","char_type_name":"word","page_number":312,"line_number":10,"text":"بَيْنَهُمَا","translation":{"text":"উভয়ের মাঝে","language_name":"bengali","language_id":20},"transliteration":{"text":"baynahumā","language_name":"english","language_id":38}},{"id":6137,"position":10,"audio_url":"wbw/020_006_010.mp3","char_type_name":"word","page_number":312,"line_number":10,"text":"وَمَا","translation":{"text":"এবং যা কিছু ( আছে )","language_name":"bengali","language_id":20},"transliteration":{"text":"wamā","language_name":"english","language_id":38}},{"id":6138,"position":11,"audio_url":"wbw/020_006_011.mp3","char_type_name":"word","page_number":312,"line_number":10,"text":"تَحْتَ","translation":{"text":"নিচে","language_name":"bengali","language_id":20},"transliteration":{"text":"taḥta","language_name":"english","language_id":38}},{"id":6139,"position":12,"audio_url":"wbw/020_006_012.mp3","char_type_name":"word","page_number":312,"line_number":10,"text":"ٱلثَّرَىٰ","translation":{"text":"সিক্ত মাটির","language_name":"bengali","language_id":20},"transliteration":{"text":"l-tharā","language_name":"english","language_id":38}},{"id":6140,"position":13,"audio_url":null,"char_type_name":"end","page_number":312,"line_number":10,"text":"٦","translation":{"text":"(৬)","language_name":"bengali","language_id":20},"transliteration":{"text":null,"language_name":"english","language_id":38}}]},{"id":2355,"verse_number":7,"verse_key":"20:7","hizb_number":32,"rub_el_hizb_number":125,"ruku_number":270,"manzil_number":4,"sajdah_number":null,"page_number":312,"juz_number":16,"words":[{"id":7450,"position":1,"audio_url":"wbw/020_007_001.mp3","char_type_name":"word","page_number":312,"line_number":10,"text":"وَإِن","translation":{"text":"এবং যদি","language_name":"bengali","language_id":20},"transliteration":{"text":"wa-in","language_name":"english","language_id":38}},{"id":7451,"position":2,"audio_url":"wbw/020_007_002.mp3","char_type_name":"word","page_number":312,"line_number":10,"text":"تَجْهَرْ","translation":{"text":"উঁচু গলায় বলো","language_name":"bengali","language_id":20},"transliteration":{"text":"tajhar","language_name":"english","language_id":38}},{"id":7452,"position":3,"audio_url":"wbw/020_007_003.mp3","char_type_name":"word","page_number":312,"line_number":10,"text":"بِٱلْقَوْلِ","translation":{"text":"কথাকে ( তাও তিনি শুনেন )","language_name":"bengali","language_id":20},"transliteration":{"text":"bil-qawli","language_name":"english","language_id":38}},{"id":7453,"position":4,"audio_url":"wbw/020_007_004.mp3","char_type_name":"word","page_number":312,"line_number":11,"text":"فَإِنَّهُۥ","translation":{"text":"তবে নিশ্চয়ই তিনি","language_name":"bengali","language_id":20},"transliteration":{"text":"fa-innahu","language_name":"english","language_id":38}},{"id":7454,"position":5,"audio_url":"wbw/020_007_005.mp3","char_type_name":"word","page_number":312,"line_number":11,"text":"يَعْلَمُ","translation":{"text":"জানেন","language_name":"bengali","language_id":20},"transliteration":{"text":"yaʿlamu","language_name":"english","language_id":38}},{"id":7455,"position":6,"audio_url":"wbw/020_007_006.mp3","char_type_name":"word","page_number":312,"line_number":11,"text":"ٱلسِّرَّ","translation":{"text":"গুপ্ত","language_name":"bengali","language_id":20},"transliteration":{"text":"l-sira","language_name":"english","language_id":38}},{"id":7456,"position":7,"audio_url":"wbw/020_007_007.mp3","char_type_name":"word","page_number":312,"line_number":11,"text":"وَأَخْفَى","translation":{"text":"এবং অব্যক্ত ( কথাও )","language_name":"bengali","language_id":20},"transliteration":{"text":"wa-akhfā","language_name":"english","language_id":38}},{"id":7457,"position":8,"audio_url":null,"char_type_name":"end","page_number":312,"line_number":11,"text":"٧","translation":{"text":"(৭)","language_name":"bengali","language_id":20},"transliteration":{"text":null,"language_name":"english","language_id":38}}]},{"id":2356,"verse_number":8,"verse_key":"20:8","hizb_number":32,"rub_el_hizb_number":125,"ruku_number":270,"manzil_number":4,"sajdah_number":null,"page_number":312,"juz_number":16,"words":[{"id":8709,"position":1,"audio_url":"wbw/020_008_001.mp3","char_type_name":"word","page_number":312,"line_number":11,"text":"ٱللَّهُ","translation":{"text":"আল্লাহ ( এমন সত্ত্বা যে )","language_name":"bengali","language_id":20},"transliteration":{"text":"al-lahu","language_name":"english","language_id":38}},{"id":8710,"position":2,"audio_url":"wbw/020_008_002.mp3","char_type_name":"word","page_number":312,"line_number":11,"text":"لَآ","translation":{"text":"নেই","language_name":"bengali","language_id":20},"transliteration":{"text":"lā","language_name":"english","language_id":38}},{"id":8711,"position":3,"audio_url":"wbw/020_008_003.mp3","char_type_name":"word","page_number":312,"line_number":11,"text":"إِلَـٰهَ","translation":{"text":"কোন ইলাহ","language_name":"bengali","language_id":20},"transliteration":{"text":"ilāha","language_name":"english","language_id":38}},{"id":8712,"position":4,"audio_url":"wbw/020_008_004.mp3","char_type_name":"word","page_number":312,"line_number":11,"text":"إِلَّا","translation":{"text":"ছাড়া","language_name":"bengali","language_id":20},"transliteration":{"text":"illā","language_name":"english","language_id":38}},{"id":8713,"position":5,"audio_url":"wbw/020_008_005.mp3","char_type_name":"word","page_number":312,"line_number":11,"text":"هُوَ ۖ","translation":{"text":"তিনি","language_name":"bengali","language_id":20},"transliteration":{"text":"huwa","language_name":"english","language_id":38}},{"id":8715,"position":6,"audio_url":"wbw/020_008_007.mp3","char_type_name":"word","page_number":312,"line_number":11,"text":"لَهُ","translation":{"text":"তাঁরই আছে","language_name":"bengali","language_id":20},"transliteration":{"text":"lahu","language_name":"english","language_id":38}},{"id":8716,"position":7,"audio_url":"wbw/020_008_008.mp3","char_type_name":"word","page_number":312,"line_number":11,"text":"ٱلْأَسْمَآءُ","translation":{"text":"নামসমূহ","language_name":"bengali","language_id":20},"transliteration":{"text":"l-asmāu","language_name":"english","language_id":38}},{"id":8717,"position":8,"audio_url":"wbw/020_008_009.mp3","char_type_name":"word","page_number":312,"line_number":12,"text":"ٱلْحُسْنَىٰ","translation":{"text":"সুন্দর","language_name":"bengali","language_id":20},"transliteration":{"text":"l-ḥus'nā","language_name":"english","language_id":38}},{"id":8718,"position":9,"audio_url":null,"char_type_name":"end","page_number":312,"line_number":12,"text":"٨","translation":{"text":"(৮)","language_name":"bengali","language_id":20},"transliteration":{"text":null,"language_name":"english","language_id":38}}]},{"id":2357,"verse_number":9,"verse_key":"20:9","hizb_number":32,"rub_el_hizb_number":125,"ruku_number":270,"manzil_number":4,"sajdah_number":null,"page_number":312,"juz_number":16,"words":[{"id":9935,"position":1,"audio_url":"wbw/020_009_001.mp3","char_type_name":"word","page_number":312,"line_number":12,"text":"وَهَلْ","translation":{"text":"আর কি","language_name":"bengali","language_id":20},"transliteration":{"text":"wahal","language_name":"english","language_id":38}},{"id":9936,"position":2,"audio_url":"wbw/020_009_002.mp3","char_type_name":"word","page_number":312,"line_number":12,"text":"أَتَىٰكَ","translation":{"text":"তোমার কাছে এসেছে","language_name":"bengali","language_id":20},"transliteration":{"text":"atāka","language_name":"english","language_id":38}},{"id":9937,"position":3,"audio_url":"wbw/020_009_003.mp3","char_type_name":"word","page_number":312,"line_number":12,"text":"حَدِيثُ","translation":{"text":"বৃত্তান্ত","language_name":"bengali","language_id":20},"transliteration":{"text":"ḥadīthu","language_name":"english","language_id":38}},{"id":9938,"position":4,"audio_url":"wbw/020_009_004.mp3","char_type_name":"word","page_number":312,"line_number":12,"text":"مُوسَىٰٓ","translation":{"text":"মূসার","language_name":"bengali","language_id":20},"transliteration":{"text":"mūsā","language_name":"english","language_id":38}},{"id":9939,"position":5,"audio_url":null,"char_type_name":"end","page_number":312,"line_number":12,"text":"٩","translation":{"text":"(৯)","language_name":"bengali","language_id":20},"transliteration":{"text":null,"language_name":"english","language_id":38}}]},{"id":2358,"verse_number":10,"verse_key":"20:10","hizb_number":32,"rub_el_hizb_number":125,"ruku_number":270,"manzil_number":4,"sajdah_number":null,"page_number":312,"juz_number":16,"words":[{"id":11115,"position":1,"audio_url":"wbw/020_010_001.mp3","char_type_name":"word","page_number":312,"line_number":12,"text":"إِذْ","translation":{"text":"যখন","language_name":"bengali","language_id":20},"transliteration":{"text":"idh","language_name":"english","language_id":38}},{"id":11116,"position":2,"audio_url":"wbw/020_010_002.mp3","char_type_name":"word","page_number":312,"line_number":12,"text":"رَءَا","translation":{"text":"সে দেখেছিলো","language_name":"bengali","language_id":20},"transliteration":{"text":"raā","language_name":"english","language_id":38}},{"id":11117,"position":3,"audio_url":"wbw/020_010_003.mp3","char_type_name":"word","page_number":312,"line_number":12,"text":"نَارًۭا","translation":{"text":"আগুন","language_name":"bengali","language_id":20},"transliteration":{"text":"nāran","language_name":"english","language_id":38}},{"id":11118,"position":4,"audio_url":"wbw/020_010_004.mp3","char_type_name":"word","page_number":312,"line_number":13,"text":"فَقَالَ","translation":{"text":"তখন বলেছিলো","language_name":"bengali","language_id":20},"transliteration":{"text":"faqāla","language_name":"english","language_id":38}},{"id":11119,"position":5,"audio_url":"wbw/020_010_005.mp3","char_type_name":"word","page_number":312,"line_number":13,"text":"لِأَهْلِهِ","translation":{"text":"তার পরিবারবর্গকে","language_name":"bengali","language_id":20},"transliteration":{"text":"li-ahlihi","language_name":"english","language_id":38}},{"id":11120,"position":6,"audio_url":"wbw/020_010_006.mp3","char_type_name":"word","page_number":312,"line_number":13,"text":"ٱمْكُثُوٓا۟","translation":{"text":"\"তোমরা থাকো ( অপেক্ষা করো )","language_name":"bengali","language_id":20},"transliteration":{"text":"um'kuthū","language_name":"english","language_id":38}},{"id":11121,"position":7,"audio_url":"wbw/020_010_007.mp3","char_type_name":"word","page_number":312,"line_number":13,"text":"إِنِّىٓ","translation":{"text":"নিশ্চয়ই আমি","language_name":"bengali","language_id":20},"transliteration":{"text":"innī","language_name":"english","language_id":38}},{"id":11122,"position":8,"audio_url":"wbw/020_010_008.mp3","char_type_name":"word","page_number":312,"line_number":13,"text":"ءَانَسْتُ","translation":{"text":"দেখেছি","language_name":"bengali","language_id":20},"transliteration":{"text":"ānastu","language_name":"english","language_id":38}},{"id":11123,"position":9,"audio_url":"wbw/020_010_009.mp3","char_type_name":"word","page_number":312,"line_number":13,"text":"نَارًۭا","translation":{"text":"আগুন","language_name":"bengali","language_id":20},"transliteration":{"text":"nāran","language_name":"english","language_id":38}},{"id":11124,"position":10,"audio_url":"wbw/020_010_010.mp3","char_type_name":"word","page_number":312,"line_number":13,"text":"لَّعَلِّىٓ","translation":{"text":"সম্ভবতঃ আমি","language_name":"bengali","language_id":20},"transliteration":{"text":"laʿallī","language_name":"english","language_id":38}},{"id":11125,"position":11,"audio_url":"wbw/020_010_011.mp3","char_type_name":"word","page_number":312,"line_number":13,"text":"ءَاتِيكُم","translation":{"text":"তোমাদের কাছে আমি আসবো","language_name":"bengali","language_id":20},"transliteration":{"text":"ātīkum","language_name":"english","language_id":38}},{"id":11126,"position":12,"audio_url":"wbw/020_010_012.mp3","char_type_name":"word","page_number":312,"line_number":13,"text":"مِّنْهَا","translation":{"text":"তা থেকে","language_name":"bengali","language_id":20},"transliteration":{"text":"min'hā","language_name":"english","language_id":38}},{"id":11127,"position":13,"audio_url":"wbw/020_010_013.mp3","char_type_name":"word","page_number":312,"line_number":13,"text":"بِقَبَسٍ","translation":{"text":"( কিছু ) অঙ্গার নিয়ে","language_name":"bengali","language_id":20},"transliteration":{"text":"biqabasin","language_name":"english","language_id":38}},{"id":11128,"position":14,"audio_url":"wbw/020_010_014.mp3","char_type_name":"word","page_number":312,"line_number":14,"text":"أَوْ","translation":{"text":"অথবা","language_name":"bengali","language_id":20},"transliteration":{"text":"aw","language_name":"english","language_id":38}},{"id":11129,"position":15,"audio_url":"wbw/020_010_015.mp3","char_type_name":"word","page_number":312,"line_number":14,"text":"أَجِدُ","translation":{"text":"আমি পাবো","language_name":"bengali","language_id":20},"transliteration":{"text":"ajidu","language_name":"english","language_id":38}},{"id":11130,"position":16,"audio_url":"wbw/020_010_016.mp3","char_type_name":"word","page_number":312,"line_number":14,"text":"عَلَى","translation":{"text":"কাছে","language_name":"bengali","language_id":20},"transliteration":{"text":"ʿalā","language_name":"english","language_id":38}},{"id":11131,"position":17,"audio_url":"wbw/020_010_017.mp3","char_type_name":"word","page_number":312,"line_number":14,"text":"ٱلنَّارِ","translation":{"text":"আগুনের","language_name":"bengali","language_id":20},"transliteration":{"text":"l-nāri","language_name":"english","language_id":38}},{"id":11132,"position":18,"audio_url":"wbw/020_010_018.mp3","char_type_name":"word","page_number":312,"line_number":14,"text":"هُدًۭى","translation":{"text":"পথের\"","language_name":"bengali","language_id":20},"transliteration":{"text":"hudan","language_name":"english","language_id":38}},{"id":11133,"position":19,"audio_url":null,"char_type_name":"end","page_number":312,"line_number":14,"text":"١٠","translation":{"text":"(১০)","language_name":"bengali","language_id":20},"transliteration":{"text":null,"language_name":"english","language_id":38}}]}],"pagination":{"per_page":10,"current_page":1,"next_page":2,"total_pages":14,"total_records":135}}
