{"verses":[{"id":2479,"verse_number":131,"verse_key":"20:131","hizb_number":32,"rub_el_hizb_number":128,"ruku_number":277,"manzil_number":4,"sajdah_number":null,"page_number":321,"juz_number":16,"words":[{"id":78045,"position":1,"audio_url":"wbw/020_131_001.mp3","char_type_name":"word","page_number":321,"line_number":8,"text":"وَلَا","translation":{"text":"এবং না","language_name":"bengali","language_id":20},"transliteration":{"text":"walā","language_name":"english","language_id":38}},{"id":78046,"position":2,"audio_url":"wbw/020_131_002.mp3","char_type_name":"word","page_number":321,"line_number":8,"text":"تَمُدَّنَّ","translation":{"text":"প্রসারিত তুমি করো","language_name":"bengali","language_id":20},"transliteration":{"text":"tamuddanna","language_name":"english","language_id":38}},{"id":78047,"position":3,"audio_url":"wbw/020_131_003.mp3","char_type_name":"word","page_number":321,"line_number":8,"text":"عَيْنَيْكَ","translation":{"text":"তোমার দুচোখ","language_name":"bengali","language_id":20},"transliteration":{"text":"ʿaynayka","language_name":"english","language_id":38}},{"id":78048,"position":4,"audio_url":"wbw/020_131_004.mp3","char_type_name":"word","page_number":321,"line_number":8,"text":"إِلَىٰ","translation":{"text":"প্রতি","language_name":"bengali","language_id":20},"transliteration":{"text":"ilā","language_name":"english","language_id":38}},{"id":78049,"position":5,"audio_url":"wbw/020_131_005.mp3","char_type_name":"word","page_number":321,"line_number":8,"text":"مَا","translation":{"text":"যা","language_name":"bengali","language_id":20},"transliteration":{"text":"mā","language_name":"english","language_id":38}},{"id":78050,"position":6,"audio_url":"wbw/020_131_006.mp3","char_type_name":"word","page_number":321,"line_number":8,"text":"مَتَّعْنَا","translation":{"text":"আমরা উপকরণ দিয়েছি","language_name":"bengali","language_id":20},"transliteration":{"text":"mattaʿnā","language_name":"english","language_id":38}},{"id":78051,"position":7,"audio_url":"wbw/020_131_007.mp3","char_type_name":"word","page_number":321,"line_number":8,"text":"بِهِۦٓ","translation":{"text":"সে সম্পর্কে","language_name":"bengali","language_id":20},"transliteration":{"text":"bihi","language_name":"english","language_id":38}},{"id":78052,"position":8,"audio_url":"wbw/020_131_008.mp3","char_type_name":"word","page_number":321,"line_number":8,"text":"أَزْوَٰجًۭا","translation":{"text":"বিভিন্ন শ্রেণীকে","language_name":"bengali","language_id":20},"transliteration":{"text":"azwājan","language_name":"english","language_id":38}},{"id":78053,"position":9,"audio_url":"wbw/020_131_009.mp3","char_type_name":"word","page_number":321,"line_number":8,"text":"مِّنْهُمْ","translation":{"text":"তাদের মধ্যকার","language_name":"bengali","language_id":20},"transliteration":{"text":"min'hum","language_name":"english","language_id":38}},{"id":78054,"position":10,"audio_url":"wbw/020_131_010.mp3","char_type_name":"word","page_number":321,"line_number":8,"text":"زَهْرَةَ","translation":{"text":"সৌন্দর্য হিসেবে","language_name":"bengali","language_id":20},"transliteration":{"text":"zahrata","language_name":"english","language_id":38}},{"id":78055,"position":11,"audio_url":"wbw/020_131_011.mp3","char_type_name":"word","page_number":321,"line_number":9,"text":"ٱلْحَيَوٰةِ","translation":{"text":"জীবনের","language_name":"bengali","language_id":20},"transliteration":{"text":"l-ḥayati","language_name":"english","language_id":38}},{"id":78056,"position":12,"audio_url":"wbw/020_131_012.mp3","char_type_name":"word","page_number":321,"line_number":9,"text":"ٱلدُّنْيَا","translation":{"text":"পার্থিব","language_name":"bengali","language_id":20},"transliteration":{"text":"l-dun'yā","language_name":"english","language_id":38}},{"id":78057,"position":13,"audio_url":"wbw/020_131_013.mp3","char_type_name":"word","page_number":321,"line_number":9,"text":"لِنَفْتِنَهُمْ","translation":{"text":"যেন তাদের পরীক্ষা করি আমরা","language_name":"bengali","language_id":20},"transliteration":{"text":"linaftinahum","language_name":"english","language_id":38}},{"id":78058,"position":14,"audio_url":"wbw/020_131_014.mp3","char_type_name":"word","page_number":321,"line_number":9,"text":"فِيهِ ۚ","translation":{"text":"তার মধ্যে","language_name":"bengali","language_id":20},"transliteration":{"text":"fīhi","language_name":"english","language_id":38}},{"id":78060,"position":15,"audio_url":"wbw/020_131_016.mp3","char_type_name":"word","page_number":321,"line_number":9,"text":"وَرِزْقُ","translation":{"text":"আর জীবিকাই","language_name":"bengali","language_id":20},"transliteration":{"text":"wariz'qu","language_name":"english","language_id":38}},{"id":78061,"position":16,"audio_url":"wbw/020_131_017.mp3","char_type_name":"word","page_number":321,"line_number":9,"text":"رَبِّكَ","translation":{"text":"তোমার রবের","language_name":"bengali","language_id":20},"transliteration":{"text":"rabbika","language_name":"english","language_id":38}},{"id":78062,"position":17,"audio_url":"wbw/020_131_018.mp3","char_type_name":"word","page_number":321,"line_number":9,"text":"خَيْرٌۭ","translation":{"text":"উত্তম","language_name":"bengali","language_id":20},"transliteration":{"text":"khayrun","language_name":"english","language_id":38}},{"id":78063,"position":18,"audio_url":"wbw/020_131_019.mp3","char_type_name":"word","page_number":321,"line_number":9,"text":"وَأَبْقَىٰ","translation":{"text":"ও স্থায়ী","language_name":"bengali","language_id":20},"transliteration":{"text":"wa-abqā","language_name":"english","language_id":38}},{"id":78064,"position":19,"audio_url":null,"char_type_name":"end","page_number":321,"line_number":9,"text":"١٣١","translation":{"text":"(১৩১)","language_name":"bengali","language_id":20},"transliteration":{"text":null,"language_name":"english","language_id":38}}]},{"id":2480,"verse_number":132,"verse_key":"20:132","hizb_number":32,"rub_el_hizb_number":128,"ruku_number":277,"manzil_number":4,"sajdah_number":null,"page_number":321,"juz_number":16,"words":[{"id":78198,"position":1,"audio_url":"wbw/020_132_001.mp3","char_type_name":"word","page_number":321,"line_number":9,"text":"وَأْمُرْ","translation":{"text":"এবং নির্দেশ দাও","language_name":"bengali","language_id":20},"transliteration":{"text":"wamur","language_name":"english","language_id":38}},{"id":78199,"position":2,"audio_url":"wbw/020_132_002.mp3","char_type_name":"word","page_number":321,"line_number":9,"text":"أَهْلَكَ","translation":{"text":"তোমার পরিবারকে","language_name":"bengali","language_id":20},"transliteration":{"text":"ahlaka","language_name":"english","language_id":38}},{"id":78200,"position":3,"audio_url":"wbw/020_132_003.mp3","char_type_name":"word","page_number":321,"line_number":10,"text":"بِٱلصَّلَوٰةِ","translation":{"text":"সালাত সম্পর্কে","language_name":"bengali","language_id":20},"transliteration":{"text":"bil-ṣalati","language_name":"english","language_id":38}},{"id":78201,"position":4,"audio_url":"wbw/020_132_004.mp3","char_type_name":"word","page_number":321,"line_number":10,"text":"وَٱصْطَبِرْ","translation":{"text":"এবং দৃঢ় থাকো","language_name":"bengali","language_id":20},"transliteration":{"text":"wa-iṣ'ṭabir","language_name":"english","language_id":38}},{"id":78202,"position":5,"audio_url":"wbw/020_132_005.mp3","char_type_name":"word","page_number":321,"line_number":10,"text":"عَلَيْهَا ۖ","translation":{"text":"তার উপর","language_name":"bengali","language_id":20},"transliteration":{"text":"ʿalayhā","language_name":"english","language_id":38}},{"id":78204,"position":6,"audio_url":"wbw/020_132_007.mp3","char_type_name":"word","page_number":321,"line_number":10,"text":"لَا","translation":{"text":"না","language_name":"bengali","language_id":20},"transliteration":{"text":"lā","language_name":"english","language_id":38}},{"id":78205,"position":7,"audio_url":"wbw/020_132_008.mp3","char_type_name":"word","page_number":321,"line_number":10,"text":"نَسْـَٔلُكَ","translation":{"text":"তোমার কাছে চাই আমরা","language_name":"bengali","language_id":20},"transliteration":{"text":"nasaluka","language_name":"english","language_id":38}},{"id":78206,"position":8,"audio_url":"wbw/020_132_009.mp3","char_type_name":"word","page_number":321,"line_number":10,"text":"رِزْقًۭا ۖ","translation":{"text":"কোন জীবিকা","language_name":"bengali","language_id":20},"transliteration":{"text":"riz'qan","language_name":"english","language_id":38}},{"id":78208,"position":9,"audio_url":"wbw/020_132_011.mp3","char_type_name":"word","page_number":321,"line_number":10,"text":"نَّحْنُ","translation":{"text":"আমরাই","language_name":"bengali","language_id":20},"transliteration":{"text":"naḥnu","language_name":"english","language_id":38}},{"id":78209,"position":10,"audio_url":"wbw/020_132_012.mp3","char_type_name":"word","page_number":321,"line_number":10,"text":"نَرْزُقُكَ ۗ","translation":{"text":"তোমাকে জীবিকা দিই","language_name":"bengali","language_id":20},"transliteration":{"text":"narzuquka","language_name":"english","language_id":38}},{"id":78211,"position":11,"audio_url":"wbw/020_132_014.mp3","char_type_name":"word","page_number":321,"line_number":10,"text":"وَٱلْعَـٰقِبَةُ","translation":{"text":"এবং পরিণাম (শুভ)","language_name":"bengali","language_id":20},"transliteration":{"text":"wal-ʿāqibatu","language_name":"english","language_id":38}},{"id":78212,"position":12,"audio_url":"wbw/020_132_015.mp3","char_type_name":"word","page_number":321,"line_number":11,"text":"لِلتَّقْوَىٰ","translation":{"text":"জন্যে মুত্তাকীদের","language_name":"bengali","language_id":20},"transliteration":{"text":"lilttaqwā","language_name":"english","language_id":38}},{"id":78213,"position":13,"audio_url":null,"char_type_name":"end","page_number":321,"line_number":11,"text":"١٣٢","translation":{"text":"(১৩২)","language_name":"bengali","language_id":20},"transliteration":{"text":null,"language_name":"english","language_id":38}}]},{"id":2481,"verse_number":133,"verse_key":"20:133","hizb_number":32,"rub_el_hizb_number":128,"ruku_number":277,"manzil_number":4,"sajdah_number":null,"page_number":321,"juz_number":16,"words":[{"id":78331,"position":1,"audio_url":"wbw/020_133_001.mp3","char_type_name":"word","page_number":321,"line_number":11,"text":"وَقَالُوا۟","translation":{"text":"এবং তারা বলে","language_name":"bengali","language_id":20},"transliteration":{"text":"waqālū","language_name":"english","language_id":38}},{"id":78332,"position":2,"audio_url":"wbw/020_133_002.mp3","char_type_name":"word","page_number":321,"line_number":11,"text":"لَوْلَا","translation":{"text":"\"কেন না","language_name":"bengali","language_id":20},"transliteration":{"text":"lawlā","language_name":"english","language_id":38}},{"id":78333,"position":3,"audio_url":"wbw/020_133_003.mp3","char_type_name":"word","page_number":321,"line_number":11,"text":"يَأْتِينَا","translation":{"text":"আমাদের কাছে আসে","language_name":"bengali","language_id":20},"transliteration":{"text":"yatīnā","language_name":"english","language_id":38}},{"id":78334,"position":4,"audio_url":"wbw/020_133_004.mp3","char_type_name":"word","page_number":321,"line_number":11,"text":"بِـَٔايَةٍۢ","translation":{"text":"একটি নিদর্শন (অর্থাৎ মুজি'যা)","language_name":"bengali","language_id":20},"transliteration":{"text":"biāyatin","language_name":"english","language_id":38}},{"id":78335,"position":5,"audio_url":"wbw/020_133_005.mp3","char_type_name":"word","page_number":321,"line_number":11,"text":"مِّن","translation":{"text":"থেকে","language_name":"bengali","language_id":20},"transliteration":{"text":"min","language_name":"english","language_id":38}},{"id":78336,"position":6,"audio_url":"wbw/020_133_006.mp3","char_type_name":"word","page_number":321,"line_number":11,"text":"رَّبِّهِۦٓ ۚ","translation":{"text":"তার রবের\"","language_name":"bengali","language_id":20},"transliteration":{"text":"rabbihi","language_name":"english","language_id":38}},{"id":78338,"position":7,"audio_url":"wbw/020_133_008.mp3","char_type_name":"word","page_number":321,"line_number":11,"text":"أَوَلَمْ","translation":{"text":"কি নি","language_name":"bengali","language_id":20},"transliteration":{"text":"awalam","language_name":"english","language_id":38}},{"id":78339,"position":8,"audio_url":"wbw/020_133_009.mp3","char_type_name":"word","page_number":321,"line_number":11,"text":"تَأْتِهِم","translation":{"text":"তাদের কাছে আসে","language_name":"bengali","language_id":20},"transliteration":{"text":"tatihim","language_name":"english","language_id":38}},{"id":78340,"position":9,"audio_url":"wbw/020_133_010.mp3","char_type_name":"word","page_number":321,"line_number":12,"text":"بَيِّنَةُ","translation":{"text":"সুস্পষ্ট (শিক্ষা)","language_name":"bengali","language_id":20},"transliteration":{"text":"bayyinatu","language_name":"english","language_id":38}},{"id":78341,"position":10,"audio_url":"wbw/020_133_011.mp3","char_type_name":"word","page_number":321,"line_number":12,"text":"مَا","translation":{"text":"যা (আছে)","language_name":"bengali","language_id":20},"transliteration":{"text":"mā","language_name":"english","language_id":38}},{"id":78342,"position":11,"audio_url":"wbw/020_133_012.mp3","char_type_name":"word","page_number":321,"line_number":12,"text":"فِى","translation":{"text":"মধ্যে (আছে)","language_name":"bengali","language_id":20},"transliteration":{"text":"fī","language_name":"english","language_id":38}},{"id":78343,"position":12,"audio_url":"wbw/020_133_013.mp3","char_type_name":"word","page_number":321,"line_number":12,"text":"ٱلصُّحُفِ","translation":{"text":"কিতাব","language_name":"bengali","language_id":20},"transliteration":{"text":"l-ṣuḥufi","language_name":"english","language_id":38}},{"id":78344,"position":13,"audio_url":"wbw/020_133_014.mp3","char_type_name":"word","page_number":321,"line_number":12,"text":"ٱلْأُولَىٰ","translation":{"text":"পূর্ববর্তীদের","language_name":"bengali","language_id":20},"transliteration":{"text":"l-ūlā","language_name":"english","language_id":38}},{"id":78345,"position":14,"audio_url":null,"char_type_name":"end","page_number":321,"line_number":12,"text":"١٣٣","translation":{"text":"(১৩৩)","language_name":"bengali","language_id":20},"transliteration":{"text":null,"language_name":"english","language_id":38}}]},{"id":2482,"verse_number":134,"verse_key":"20:134","hizb_number":32,"rub_el_hizb_number":128,"ruku_number":277,"manzil_number":4,"sajdah_number":null,"page_number":321,"juz_number":16,"words":[{"id":78436,"position":1,"audio_url":"wbw/020_134_001.mp3","char_type_name":"word","page_number":321,"line_number":12,"text":"وَلَوْ","translation":{"text":"এবং যদি (এমন হতো)","language_name":"bengali","language_id":20},"transliteration":{"text":"walaw","language_name":"english","language_id":38}},{"id":78437,"position":2,"audio_url":"wbw/020_134_002.mp3","char_type_name":"word","page_number":321,"line_number":12,"text":"أَنَّآ","translation":{"text":"যে আমরা","language_name":"bengali","language_id":20},"transliteration":{"text":"annā","language_name":"english","language_id":38}},{"id":78438,"position":3,"audio_url":"wbw/020_134_003.mp3","char_type_name":"word","page_number":321,"line_number":12,"text":"أَهْلَكْنَـٰهُم","translation":{"text":"তাদের আমরা ধ্বংস করে দিতাম","language_name":"bengali","language_id":20},"transliteration":{"text":"ahlaknāhum","language_name":"english","language_id":38}},{"id":78439,"position":4,"audio_url":"wbw/020_134_004.mp3","char_type_name":"word","page_number":321,"line_number":12,"text":"بِعَذَابٍۢ","translation":{"text":"দিয়ে শাস্তি","language_name":"bengali","language_id":20},"transliteration":{"text":"biʿadhābin","language_name":"english","language_id":38}},{"id":78440,"position":5,"audio_url":"wbw/020_134_005.mp3","char_type_name":"word","page_number":321,"line_number":13,"text":"مِّن","translation":{"text":"থেকে","language_name":"bengali","language_id":20},"transliteration":{"text":"min","language_name":"english","language_id":38}},{"id":78441,"position":6,"audio_url":"wbw/020_134_006.mp3","char_type_name":"word","page_number":321,"line_number":13,"text":"قَبْلِهِۦ","translation":{"text":"তার পূর্ব","language_name":"bengali","language_id":20},"transliteration":{"text":"qablihi","language_name":"english","language_id":38}},{"id":78442,"position":7,"audio_url":"wbw/020_134_007.mp3","char_type_name":"word","page_number":321,"line_number":13,"text":"لَقَالُوا۟","translation":{"text":"অবশ্যই তারা  বলতো","language_name":"bengali","language_id":20},"transliteration":{"text":"laqālū","language_name":"english","language_id":38}},{"id":78443,"position":8,"audio_url":"wbw/020_134_008.mp3","char_type_name":"word","page_number":321,"line_number":13,"text":"رَبَّنَا","translation":{"text":"\"হে আমাদের রব","language_name":"bengali","language_id":20},"transliteration":{"text":"rabbanā","language_name":"english","language_id":38}},{"id":78444,"position":9,"audio_url":"wbw/020_134_009.mp3","char_type_name":"word","page_number":321,"line_number":13,"text":"لَوْلَآ","translation":{"text":"কেন না","language_name":"bengali","language_id":20},"transliteration":{"text":"lawlā","language_name":"english","language_id":38}},{"id":78445,"position":10,"audio_url":"wbw/020_134_010.mp3","char_type_name":"word","page_number":321,"line_number":13,"text":"أَرْسَلْتَ","translation":{"text":"তুমি পাঠিয়েছিলে","language_name":"bengali","language_id":20},"transliteration":{"text":"arsalta","language_name":"english","language_id":38}},{"id":78446,"position":11,"audio_url":"wbw/020_134_011.mp3","char_type_name":"word","page_number":321,"line_number":13,"text":"إِلَيْنَا","translation":{"text":"আমাদের প্রতি","language_name":"bengali","language_id":20},"transliteration":{"text":"ilaynā","language_name":"english","language_id":38}},{"id":78447,"position":12,"audio_url":"wbw/020_134_012.mp3","char_type_name":"word","page_number":321,"line_number":13,"text":"رَسُولًۭا","translation":{"text":"কোন রাসূল","language_name":"bengali","language_id":20},"transliteration":{"text":"rasūlan","language_name":"english","language_id":38}},{"id":78448,"position":13,"audio_url":"wbw/020_134_013.mp3","char_type_name":"word","page_number":321,"line_number":13,"text":"فَنَتَّبِعَ","translation":{"text":"আমরা তাহ'লে অনুসরণ করতাম","language_name":"bengali","language_id":20},"transliteration":{"text":"fanattabiʿa","language_name":"english","language_id":38}},{"id":78449,"position":14,"audio_url":"wbw/020_134_014.mp3","char_type_name":"word","page_number":321,"line_number":14,"text":"ءَايَـٰتِكَ","translation":{"text":"তোমার নিদর্শনাবলীর","language_name":"bengali","language_id":20},"transliteration":{"text":"āyātika","language_name":"english","language_id":38}},{"id":78450,"position":15,"audio_url":"wbw/020_134_015.mp3","char_type_name":"word","page_number":321,"line_number":14,"text":"مِن","translation":{"text":"থেকে","language_name":"bengali","language_id":20},"transliteration":{"text":"min","language_name":"english","language_id":38}},{"id":78451,"position":16,"audio_url":"wbw/020_134_016.mp3","char_type_name":"word","page_number":321,"line_number":14,"text":"قَبْلِ","translation":{"text":"এর পূর্ব","language_name":"bengali","language_id":20},"transliteration":{"text":"qabli","language_name":"english","language_id":38}},{"id":78452,"position":17,"audio_url":"wbw/020_134_017.mp3","char_type_name":"word","page_number":321,"line_number":14,"text":"أَن","translation":{"text":"যে","language_name":"bengali","language_id":20},"transliteration":{"text":"an","language_name":"english","language_id":38}},{"id":78453,"position":18,"audio_url":"wbw/020_134_018.mp3","char_type_name":"word","page_number":321,"line_number":14,"text":"نَّذِلَّ","translation":{"text":"লাঞ্ছিত হতাম আমরা","language_name":"bengali","language_id":20},"transliteration":{"text":"nadhilla","language_name":"english","language_id":38}},{"id":78454,"position":19,"audio_url":"wbw/020_134_019.mp3","char_type_name":"word","page_number":321,"line_number":14,"text":"وَنَخْزَىٰ","translation":{"text":"ও আমরা অপমানিত হতাম\"","language_name":"bengali","language_id":20},"transliteration":{"text":"wanakhzā","language_name":"english","language_id":38}},{"id":78455,"position":20,"audio_url":null,"char_type_name":"end","page_number":321,"line_number":14,"text":"١٣٤","translation":{"text":"(১৩৪)","language_name":"bengali","language_id":20},"transliteration":{"text":null,"language_name":"english","language_id":38}}]},{"id":2483,"verse_number":135,"verse_key":"20:135","hizb_number":32,"rub_el_hizb_number":128,"ruku_number":277,"manzil_number":4,"sajdah_number":null,"page_number":321,"juz_number":16,"words":[{"id":78548,"position":1,"audio_url":"wbw/020_135_001.mp3","char_type_name":"word","page_number":321,"line_number":14,"text":"قُلْ","translation":{"text":"বলো","language_name":"bengali","language_id":20},"transliteration":{"text":"qul","language_name":"english","language_id":38}},{"id":78549,"position":2,"audio_url":"wbw/020_135_002.mp3","char_type_name":"word","page_number":321,"line_number":14,"text":"كُلٌّۭ","translation":{"text":"\"প্রত্যেকেই","language_name":"bengali","language_id":20},"transliteration":{"text":"kullun","language_name":"english","language_id":38}},{"id":78550,"position":3,"audio_url":"wbw/020_135_003.mp3","char_type_name":"word","page_number":321,"line_number":14,"text":"مُّتَرَبِّصٌۭ","translation":{"text":"অপেক্ষাকারী","language_name":"bengali","language_id":20},"transliteration":{"text":"mutarabbiṣun","language_name":"english","language_id":38}},{"id":78551,"position":4,"audio_url":"wbw/020_135_004.mp3","char_type_name":"word","page_number":321,"line_number":14,"text":"فَتَرَبَّصُوا۟ ۖ","translation":{"text":"সুতরাং তোমরা অপেক্ষা করো","language_name":"bengali","language_id":20},"transliteration":{"text":"fatarabbaṣū","language_name":"english","language_id":38}},{"id":78553,"position":5,"audio_url":"wbw/020_135_006.mp3","char_type_name":"word","page_number":321,"line_number":15,"text":"فَسَتَعْلَمُونَ","translation":{"text":"অতঃপর তোমরা জানবে শীঘ্রই","language_name":"bengali","language_id":20},"transliteration":{"text":"fasataʿlamūna","language_name":"english","language_id":38}},{"id":78554,"position":6,"audio_url":"wbw/020_135_007.mp3","char_type_name":"word","page_number":321,"line_number":15,"text":"مَنْ","translation":{"text":"কারা","language_name":"bengali","language_id":20},"transliteration":{"text":"man","language_name":"english","language_id":38}},{"id":78555,"position":7,"audio_url":"wbw/020_135_008.mp3","char_type_name":"word","page_number":321,"line_number":15,"text":"أَصْحَـٰبُ","translation":{"text":"অধিকারী","language_name":"bengali","language_id":20},"transliteration":{"text":"aṣḥābu","language_name":"english","language_id":38}},{"id":78556,"position":8,"audio_url":"wbw/020_135_009.mp3","char_type_name":"word","page_number":321,"line_number":15,"text":"ٱلصِّرَٰطِ","translation":{"text":"পথের","language_name":"bengali","language_id":20},"transliteration":{"text":"l-ṣirāṭi","language_name":"english","language_id":38}},{"id":78557,"position":9,"audio_url":"wbw/020_135_010.mp3","char_type_name":"word","page_number":321,"line_number":15,"text":"ٱلسَّوِىِّ","translation":{"text":"সরল সঠিক","language_name":"bengali","language_id":20},"transliteration":{"text":"l-sawiyi","language_name":"english","language_id":38}},{"id":78558,"position":10,"audio_url":"wbw/020_135_011.mp3","char_type_name":"word","page_number":321,"line_number":15,"text":"وَمَنِ","translation":{"text":"এবং কারা","language_name":"bengali","language_id":20},"transliteration":{"text":"wamani","language_name":"english","language_id":38}},{"id":78559,"position":11,"audio_url":"wbw/020_135_012.mp3","char_type_name":"word","page_number":321,"line_number":15,"text":"ٱهْتَدَىٰ","translation":{"text":"সৎপথ অবলম্বন করেছে\"","language_name":"bengali","language_id":20},"transliteration":{"text":"ih'tadā","language_name":"english","language_id":38}},{"id":78560,"position":12,"audio_url":null,"char_type_name":"end","page_number":321,"line_number":15,"text":"١٣٥","translation":{"text":"(১৩৫)","language_name":"bengali","language_id":20},"transliteration":{"text":null,"language_name":"english","language_id":38}}]}],"pagination":{"per_page":10,"current_page":14,"next_page":null,"total_pages":14,"total_records":135}}
