{"verses":[{"id":2359,"verse_number":11,"verse_key":"20:11","hizb_number":32,"rub_el_hizb_number":125,"ruku_number":270,"manzil_number":4,"sajdah_number":null,"page_number":312,"juz_number":16,"words":[{"id":12453,"position":1,"audio_url":"wbw/020_011_001.mp3","char_type_name":"word","page_number":312,"line_number":14,"text":"فَلَمَّآ","translation":{"text":"অতঃপর যখন","language_name":"bengali","language_id":20},"transliteration":{"text":"falammā","language_name":"english","language_id":38}},{"id":12454,"position":2,"audio_url":"wbw/020_011_002.mp3","char_type_name":"word","page_number":312,"line_number":14,"text":"أَتَىٰهَا","translation":{"text":"তার কাছে আসলো","language_name":"bengali","language_id":20},"transliteration":{"text":"atāhā","language_name":"english","language_id":38}},{"id":12455,"position":3,"audio_url":"wbw/020_011_003.mp3","char_type_name":"word","page_number":312,"line_number":14,"text":"نُودِىَ","translation":{"text":"তাকে ডাকা হলো","language_name":"bengali","language_id":20},"transliteration":{"text":"nūdiya","language_name":"english","language_id":38}},{"id":12456,"position":4,"audio_url":"wbw/020_011_004.mp3","char_type_name":"word","page_number":312,"line_number":14,"text":"يَـٰمُوسَىٰٓ","translation":{"text":"\"( বলা হলো ) হে মূসা","language_name":"bengali","language_id":20},"transliteration":{"text":"yāmūsā","language_name":"english","language_id":38}},{"id":12457,"position":5,"audio_url":null,"char_type_name":"end","page_number":312,"line_number":14,"text":"١١","translation":{"text":"(১১)","language_name":"bengali","language_id":20},"transliteration":{"text":null,"language_name":"english","language_id":38}}]},{"id":2360,"verse_number":12,"verse_key":"20:12","hizb_number":32,"rub_el_hizb_number":125,"ruku_number":270,"manzil_number":4,"sajdah_number":null,"page_number":312,"juz_number":16,"words":[{"id":13761,"position":1,"audio_url":"wbw/020_012_001.mp3","char_type_name":"word","page_number":312,"line_number":14,"text":"إِنِّىٓ","translation":{"text":"নিশ্চয়ই আমি","language_name":"bengali","language_id":20},"transliteration":{"text":"innī","language_name":"english","language_id":38}},{"id":13762,"position":2,"audio_url":"wbw/020_012_002.mp3","char_type_name":"word","page_number":312,"line_number":15,"text":"أَنَا۠","translation":{"text":"আমিই","language_name":"bengali","language_id":20},"transliteration":{"text":"anā","language_name":"english","language_id":38}},{"id":13763,"position":3,"audio_url":"wbw/020_012_003.mp3","char_type_name":"word","page_number":312,"line_number":15,"text":"رَبُّكَ","translation":{"text":"তোমার রব","language_name":"bengali","language_id":20},"transliteration":{"text":"rabbuka","language_name":"english","language_id":38}},{"id":13764,"position":4,"audio_url":"wbw/020_012_004.mp3","char_type_name":"word","page_number":312,"line_number":15,"text":"فَٱخْلَعْ","translation":{"text":"অতএব খুলে ফেলো তুমি","language_name":"bengali","language_id":20},"transliteration":{"text":"fa-ikh'laʿ","language_name":"english","language_id":38}},{"id":13765,"position":5,"audio_url":"wbw/020_012_005.mp3","char_type_name":"word","page_number":312,"line_number":15,"text":"نَعْلَيْكَ ۖ","translation":{"text":"তোমার জুতা জোড়া","language_name":"bengali","language_id":20},"transliteration":{"text":"naʿlayka","language_name":"english","language_id":38}},{"id":13767,"position":6,"audio_url":"wbw/020_012_007.mp3","char_type_name":"word","page_number":312,"line_number":15,"text":"إِنَّكَ","translation":{"text":"তুমি নিশ্চয়ই","language_name":"bengali","language_id":20},"transliteration":{"text":"innaka","language_name":"english","language_id":38}},{"id":13768,"position":7,"audio_url":"wbw/020_012_008.mp3","char_type_name":"word","page_number":312,"line_number":15,"text":"بِٱلْوَادِ","translation":{"text":"উপত্যকার মধ্যে","language_name":"bengali","language_id":20},"transliteration":{"text":"bil-wādi","language_name":"english","language_id":38}},{"id":13769,"position":8,"audio_url":"wbw/020_012_009.mp3","char_type_name":"word","page_number":312,"line_number":15,"text":"ٱلْمُقَدَّسِ","translation":{"text":"পবিত্র","language_name":"bengali","language_id":20},"transliteration":{"text":"l-muqadasi","language_name":"english","language_id":38}},{"id":13770,"position":9,"audio_url":"wbw/020_012_010.mp3","char_type_name":"word","page_number":312,"line_number":15,"text":"طُوًۭى","translation":{"text":"( যার নাম ) তুওয়া","language_name":"bengali","language_id":20},"transliteration":{"text":"ṭuwan","language_name":"english","language_id":38}},{"id":13771,"position":10,"audio_url":null,"char_type_name":"end","page_number":312,"line_number":15,"text":"١٢","translation":{"text":"(১২)","language_name":"bengali","language_id":20},"transliteration":{"text":null,"language_name":"english","language_id":38}}]},{"id":2361,"verse_number":13,"verse_key":"20:13","hizb_number":32,"rub_el_hizb_number":125,"ruku_number":270,"manzil_number":4,"sajdah_number":null,"page_number":313,"juz_number":16,"words":[{"id":14938,"position":1,"audio_url":"wbw/020_013_001.mp3","char_type_name":"word","page_number":313,"line_number":1,"text":"وَأَنَا","translation":{"text":"এবং আমি","language_name":"bengali","language_id":20},"transliteration":{"text":"wa-anā","language_name":"english","language_id":38}},{"id":14939,"position":2,"audio_url":"wbw/020_013_002.mp3","char_type_name":"word","page_number":313,"line_number":1,"text":"ٱخْتَرْتُكَ","translation":{"text":"তোমাকে বেছে নিয়েছি","language_name":"bengali","language_id":20},"transliteration":{"text":"ikh'tartuka","language_name":"english","language_id":38}},{"id":14940,"position":3,"audio_url":"wbw/020_013_003.mp3","char_type_name":"word","page_number":313,"line_number":1,"text":"فَٱسْتَمِعْ","translation":{"text":"সুতরাং তুমি মনোযোগসহ শুনো","language_name":"bengali","language_id":20},"transliteration":{"text":"fa-is'tamiʿ","language_name":"english","language_id":38}},{"id":14941,"position":4,"audio_url":"wbw/020_013_004.mp3","char_type_name":"word","page_number":313,"line_number":1,"text":"لِمَا","translation":{"text":"তাই যা কিছু","language_name":"bengali","language_id":20},"transliteration":{"text":"limā","language_name":"english","language_id":38}},{"id":14942,"position":5,"audio_url":"wbw/020_013_005.mp3","char_type_name":"word","page_number":313,"line_number":1,"text":"يُوحَىٰٓ","translation":{"text":"ওহী করা হয়","language_name":"bengali","language_id":20},"transliteration":{"text":"yūḥā","language_name":"english","language_id":38}},{"id":14943,"position":6,"audio_url":null,"char_type_name":"end","page_number":313,"line_number":1,"text":"١٣","translation":{"text":"(১৩)","language_name":"bengali","language_id":20},"transliteration":{"text":null,"language_name":"english","language_id":38}}]},{"id":2362,"verse_number":14,"verse_key":"20:14","hizb_number":32,"rub_el_hizb_number":125,"ruku_number":270,"manzil_number":4,"sajdah_number":null,"page_number":313,"juz_number":16,"words":[{"id":16004,"position":1,"audio_url":"wbw/020_014_001.mp3","char_type_name":"word","page_number":313,"line_number":1,"text":"إِنَّنِىٓ","translation":{"text":"আমি নিশ্চয়ই","language_name":"bengali","language_id":20},"transliteration":{"text":"innanī","language_name":"english","language_id":38}},{"id":16005,"position":2,"audio_url":"wbw/020_014_002.mp3","char_type_name":"word","page_number":313,"line_number":1,"text":"أَنَا","translation":{"text":"আমিই","language_name":"bengali","language_id":20},"transliteration":{"text":"anā","language_name":"english","language_id":38}},{"id":16006,"position":3,"audio_url":"wbw/020_014_003.mp3","char_type_name":"word","page_number":313,"line_number":1,"text":"ٱللَّهُ","translation":{"text":"আল্লাহ","language_name":"bengali","language_id":20},"transliteration":{"text":"l-lahu","language_name":"english","language_id":38}},{"id":16007,"position":4,"audio_url":"wbw/020_014_004.mp3","char_type_name":"word","page_number":313,"line_number":1,"text":"لَآ","translation":{"text":"নেই","language_name":"bengali","language_id":20},"transliteration":{"text":"lā","language_name":"english","language_id":38}},{"id":16008,"position":5,"audio_url":"wbw/020_014_005.mp3","char_type_name":"word","page_number":313,"line_number":1,"text":"إِلَـٰهَ","translation":{"text":"কোন ইলাহ","language_name":"bengali","language_id":20},"transliteration":{"text":"ilāha","language_name":"english","language_id":38}},{"id":16009,"position":6,"audio_url":"wbw/020_014_006.mp3","char_type_name":"word","page_number":313,"line_number":1,"text":"إِلَّآ","translation":{"text":"ছাড়া","language_name":"bengali","language_id":20},"transliteration":{"text":"illā","language_name":"english","language_id":38}},{"id":16010,"position":7,"audio_url":"wbw/020_014_007.mp3","char_type_name":"word","page_number":313,"line_number":1,"text":"أَنَا۠","translation":{"text":"আমি","language_name":"bengali","language_id":20},"transliteration":{"text":"anā","language_name":"english","language_id":38}},{"id":16011,"position":8,"audio_url":"wbw/020_014_008.mp3","char_type_name":"word","page_number":313,"line_number":2,"text":"فَٱعْبُدْنِى","translation":{"text":"সুতরাং আমারই  ইবাদত করো","language_name":"bengali","language_id":20},"transliteration":{"text":"fa-uʿ'bud'nī","language_name":"english","language_id":38}},{"id":16012,"position":9,"audio_url":"wbw/020_014_009.mp3","char_type_name":"word","page_number":313,"line_number":2,"text":"وَأَقِمِ","translation":{"text":"এবং প্রতিষ্ঠিত করো","language_name":"bengali","language_id":20},"transliteration":{"text":"wa-aqimi","language_name":"english","language_id":38}},{"id":16013,"position":10,"audio_url":"wbw/020_014_010.mp3","char_type_name":"word","page_number":313,"line_number":2,"text":"ٱلصَّلَوٰةَ","translation":{"text":"সালাত","language_name":"bengali","language_id":20},"transliteration":{"text":"l-ṣalata","language_name":"english","language_id":38}},{"id":16014,"position":11,"audio_url":"wbw/020_014_011.mp3","char_type_name":"word","page_number":313,"line_number":2,"text":"لِذِكْرِىٓ","translation":{"text":"আমার স্মরণের জন্যে","language_name":"bengali","language_id":20},"transliteration":{"text":"lidhik'rī","language_name":"english","language_id":38}},{"id":16015,"position":12,"audio_url":null,"char_type_name":"end","page_number":313,"line_number":2,"text":"١٤","translation":{"text":"(১৪)","language_name":"bengali","language_id":20},"transliteration":{"text":null,"language_name":"english","language_id":38}}]},{"id":2363,"verse_number":15,"verse_key":"20:15","hizb_number":32,"rub_el_hizb_number":125,"ruku_number":270,"manzil_number":4,"sajdah_number":null,"page_number":313,"juz_number":16,"words":[{"id":17234,"position":1,"audio_url":"wbw/020_015_001.mp3","char_type_name":"word","page_number":313,"line_number":2,"text":"إِنَّ","translation":{"text":"নিশ্চয়ই","language_name":"bengali","language_id":20},"transliteration":{"text":"inna","language_name":"english","language_id":38}},{"id":17235,"position":2,"audio_url":"wbw/020_015_002.mp3","char_type_name":"word","page_number":313,"line_number":2,"text":"ٱلسَّاعَةَ","translation":{"text":"ক্বিয়ামাত","language_name":"bengali","language_id":20},"transliteration":{"text":"l-sāʿata","language_name":"english","language_id":38}},{"id":17236,"position":3,"audio_url":"wbw/020_015_003.mp3","char_type_name":"word","page_number":313,"line_number":2,"text":"ءَاتِيَةٌ","translation":{"text":"আসবেই","language_name":"bengali","language_id":20},"transliteration":{"text":"ātiyatun","language_name":"english","language_id":38}},{"id":17237,"position":4,"audio_url":"wbw/020_015_004.mp3","char_type_name":"word","page_number":313,"line_number":3,"text":"أَكَادُ","translation":{"text":"রাখতে চাই আমি","language_name":"bengali","language_id":20},"transliteration":{"text":"akādu","language_name":"english","language_id":38}},{"id":17238,"position":5,"audio_url":"wbw/020_015_005.mp3","char_type_name":"word","page_number":313,"line_number":3,"text":"أُخْفِيهَا","translation":{"text":"তা গোপন","language_name":"bengali","language_id":20},"transliteration":{"text":"ukh'fīhā","language_name":"english","language_id":38}},{"id":17239,"position":6,"audio_url":"wbw/020_015_006.mp3","char_type_name":"word","page_number":313,"line_number":3,"text":"لِتُجْزَىٰ","translation":{"text":"যেন প্রতিফল পায়","language_name":"bengali","language_id":20},"transliteration":{"text":"lituj'zā","language_name":"english","language_id":38}},{"id":17240,"position":7,"audio_url":"wbw/020_015_007.mp3","char_type_name":"word","page_number":313,"line_number":3,"text":"كُلُّ","translation":{"text":"প্রত্যেক","language_name":"bengali","language_id":20},"transliteration":{"text":"kullu","language_name":"english","language_id":38}},{"id":17241,"position":8,"audio_url":"wbw/020_015_008.mp3","char_type_name":"word","page_number":313,"line_number":3,"text":"نَفْسٍۭ","translation":{"text":"ব্যক্তি","language_name":"bengali","language_id":20},"transliteration":{"text":"nafsin","language_name":"english","language_id":38}},{"id":17242,"position":9,"audio_url":"wbw/020_015_009.mp3","char_type_name":"word","page_number":313,"line_number":3,"text":"بِمَا","translation":{"text":"ঐ বিষয়ের যা","language_name":"bengali","language_id":20},"transliteration":{"text":"bimā","language_name":"english","language_id":38}},{"id":17243,"position":10,"audio_url":"wbw/020_015_010.mp3","char_type_name":"word","page_number":313,"line_number":3,"text":"تَسْعَىٰ","translation":{"text":"সে চেষ্টা সাধনা করে","language_name":"bengali","language_id":20},"transliteration":{"text":"tasʿā","language_name":"english","language_id":38}},{"id":17244,"position":11,"audio_url":null,"char_type_name":"end","page_number":313,"line_number":3,"text":"١٥","translation":{"text":"(১৫)","language_name":"bengali","language_id":20},"transliteration":{"text":null,"language_name":"english","language_id":38}}]},{"id":2364,"verse_number":16,"verse_key":"20:16","hizb_number":32,"rub_el_hizb_number":125,"ruku_number":270,"manzil_number":4,"sajdah_number":null,"page_number":313,"juz_number":16,"words":[{"id":18281,"position":1,"audio_url":"wbw/020_016_001.mp3","char_type_name":"word","page_number":313,"line_number":3,"text":"فَلَا","translation":{"text":"সুতরাং না","language_name":"bengali","language_id":20},"transliteration":{"text":"falā","language_name":"english","language_id":38}},{"id":18282,"position":2,"audio_url":"wbw/020_016_002.mp3","char_type_name":"word","page_number":313,"line_number":3,"text":"يَصُدَّنَّكَ","translation":{"text":"তোমাকে নিবৃত্ত করে ( যেন )","language_name":"bengali","language_id":20},"transliteration":{"text":"yaṣuddannaka","language_name":"english","language_id":38}},{"id":18283,"position":3,"audio_url":"wbw/020_016_003.mp3","char_type_name":"word","page_number":313,"line_number":4,"text":"عَنْهَا","translation":{"text":"তা থেকে","language_name":"bengali","language_id":20},"transliteration":{"text":"ʿanhā","language_name":"english","language_id":38}},{"id":18284,"position":4,"audio_url":"wbw/020_016_004.mp3","char_type_name":"word","page_number":313,"line_number":4,"text":"مَن","translation":{"text":"সেই ব্যক্তি (যে )","language_name":"bengali","language_id":20},"transliteration":{"text":"man","language_name":"english","language_id":38}},{"id":18285,"position":5,"audio_url":"wbw/020_016_005.mp3","char_type_name":"word","page_number":313,"line_number":4,"text":"لَّا","translation":{"text":"না","language_name":"bengali","language_id":20},"transliteration":{"text":"lā","language_name":"english","language_id":38}},{"id":18286,"position":6,"audio_url":"wbw/020_016_006.mp3","char_type_name":"word","page_number":313,"line_number":4,"text":"يُؤْمِنُ","translation":{"text":"ঈমান আনে","language_name":"bengali","language_id":20},"transliteration":{"text":"yu'minu","language_name":"english","language_id":38}},{"id":18287,"position":7,"audio_url":"wbw/020_016_007.mp3","char_type_name":"word","page_number":313,"line_number":4,"text":"بِهَا","translation":{"text":"তার উপর","language_name":"bengali","language_id":20},"transliteration":{"text":"bihā","language_name":"english","language_id":38}},{"id":18288,"position":8,"audio_url":"wbw/020_016_008.mp3","char_type_name":"word","page_number":313,"line_number":4,"text":"وَٱتَّبَعَ","translation":{"text":"এবং অনুসরণ করেছে","language_name":"bengali","language_id":20},"transliteration":{"text":"wa-ittabaʿa","language_name":"english","language_id":38}},{"id":18289,"position":9,"audio_url":"wbw/020_016_009.mp3","char_type_name":"word","page_number":313,"line_number":4,"text":"هَوَىٰهُ","translation":{"text":"তার প্রবৃত্তির","language_name":"bengali","language_id":20},"transliteration":{"text":"hawāhu","language_name":"english","language_id":38}},{"id":18290,"position":10,"audio_url":"wbw/020_016_010.mp3","char_type_name":"word","page_number":313,"line_number":4,"text":"فَتَرْدَىٰ","translation":{"text":"তাহ'লে তুমি ধ্বংস হবে","language_name":"bengali","language_id":20},"transliteration":{"text":"fatardā","language_name":"english","language_id":38}},{"id":18291,"position":11,"audio_url":null,"char_type_name":"end","page_number":313,"line_number":4,"text":"١٦","translation":{"text":"(১৬)","language_name":"bengali","language_id":20},"transliteration":{"text":null,"language_name":"english","language_id":38}}]},{"id":2365,"verse_number":17,"verse_key":"20:17","hizb_number":32,"rub_el_hizb_number":125,"ruku_number":270,"manzil_number":4,"sajdah_number":null,"page_number":313,"juz_number":16,"words":[{"id":19305,"position":1,"audio_url":"wbw/020_017_001.mp3","char_type_name":"word","page_number":313,"line_number":4,"text":"وَمَا","translation":{"text":"এবং ( আল্লাহ বললেন ) কি","language_name":"bengali","language_id":20},"transliteration":{"text":"wamā","language_name":"english","language_id":38}},{"id":19306,"position":2,"audio_url":"wbw/020_017_002.mp3","char_type_name":"word","page_number":313,"line_number":4,"text":"تِلْكَ","translation":{"text":"ওটা","language_name":"bengali","language_id":20},"transliteration":{"text":"til'ka","language_name":"english","language_id":38}},{"id":19307,"position":3,"audio_url":"wbw/020_017_003.mp3","char_type_name":"word","page_number":313,"line_number":5,"text":"بِيَمِينِكَ","translation":{"text":"তোমার ডান হাতের মধ্যে","language_name":"bengali","language_id":20},"transliteration":{"text":"biyamīnika","language_name":"english","language_id":38}},{"id":19308,"position":4,"audio_url":"wbw/020_017_004.mp3","char_type_name":"word","page_number":313,"line_number":5,"text":"يَـٰمُوسَىٰ","translation":{"text":"হে মূসা\"","language_name":"bengali","language_id":20},"transliteration":{"text":"yāmūsā","language_name":"english","language_id":38}},{"id":19309,"position":5,"audio_url":null,"char_type_name":"end","page_number":313,"line_number":5,"text":"١٧","translation":{"text":"(১৭)","language_name":"bengali","language_id":20},"transliteration":{"text":null,"language_name":"english","language_id":38}}]},{"id":2366,"verse_number":18,"verse_key":"20:18","hizb_number":32,"rub_el_hizb_number":125,"ruku_number":270,"manzil_number":4,"sajdah_number":null,"page_number":313,"juz_number":16,"words":[{"id":20375,"position":1,"audio_url":"wbw/020_018_001.mp3","char_type_name":"word","page_number":313,"line_number":5,"text":"قَالَ","translation":{"text":"সে বললো","language_name":"bengali","language_id":20},"transliteration":{"text":"qāla","language_name":"english","language_id":38}},{"id":20376,"position":2,"audio_url":"wbw/020_018_002.mp3","char_type_name":"word","page_number":313,"line_number":5,"text":"هِىَ","translation":{"text":"\"তা","language_name":"bengali","language_id":20},"transliteration":{"text":"hiya","language_name":"english","language_id":38}},{"id":20377,"position":3,"audio_url":"wbw/020_018_003.mp3","char_type_name":"word","page_number":313,"line_number":5,"text":"عَصَاىَ","translation":{"text":"আমার লাঠি","language_name":"bengali","language_id":20},"transliteration":{"text":"ʿaṣāya","language_name":"english","language_id":38}},{"id":20378,"position":4,"audio_url":"wbw/020_018_004.mp3","char_type_name":"word","page_number":313,"line_number":5,"text":"أَتَوَكَّؤُا۟","translation":{"text":"ভর দিই আমি","language_name":"bengali","language_id":20},"transliteration":{"text":"atawakka-u","language_name":"english","language_id":38}},{"id":20379,"position":5,"audio_url":"wbw/020_018_005.mp3","char_type_name":"word","page_number":313,"line_number":5,"text":"عَلَيْهَا","translation":{"text":"তার উপর","language_name":"bengali","language_id":20},"transliteration":{"text":"ʿalayhā","language_name":"english","language_id":38}},{"id":20380,"position":6,"audio_url":"wbw/020_018_006.mp3","char_type_name":"word","page_number":313,"line_number":6,"text":"وَأَهُشُّ","translation":{"text":"এবং পাতা পাড়ি আমি","language_name":"bengali","language_id":20},"transliteration":{"text":"wa-ahushu","language_name":"english","language_id":38}},{"id":20381,"position":7,"audio_url":"wbw/020_018_007.mp3","char_type_name":"word","page_number":313,"line_number":6,"text":"بِهَا","translation":{"text":"তা দিয়ে","language_name":"bengali","language_id":20},"transliteration":{"text":"bihā","language_name":"english","language_id":38}},{"id":20382,"position":8,"audio_url":"wbw/020_018_008.mp3","char_type_name":"word","page_number":313,"line_number":6,"text":"عَلَىٰ","translation":{"text":"উপর","language_name":"bengali","language_id":20},"transliteration":{"text":"ʿalā","language_name":"english","language_id":38}},{"id":20383,"position":9,"audio_url":"wbw/020_018_009.mp3","char_type_name":"word","page_number":313,"line_number":6,"text":"غَنَمِى","translation":{"text":"আমার ছাগল ( পালের )","language_name":"bengali","language_id":20},"transliteration":{"text":"ghanamī","language_name":"english","language_id":38}},{"id":20384,"position":10,"audio_url":"wbw/020_018_010.mp3","char_type_name":"word","page_number":313,"line_number":6,"text":"وَلِىَ","translation":{"text":"এবং আমার আছে","language_name":"bengali","language_id":20},"transliteration":{"text":"waliya","language_name":"english","language_id":38}},{"id":20385,"position":11,"audio_url":"wbw/020_018_011.mp3","char_type_name":"word","page_number":313,"line_number":6,"text":"فِيهَا","translation":{"text":"তা দ্বারা","language_name":"bengali","language_id":20},"transliteration":{"text":"fīhā","language_name":"english","language_id":38}},{"id":20386,"position":12,"audio_url":"wbw/020_018_012.mp3","char_type_name":"word","page_number":313,"line_number":6,"text":"مَـَٔارِبُ","translation":{"text":"প্রয়োজনসমূহ","language_name":"bengali","language_id":20},"transliteration":{"text":"maāribu","language_name":"english","language_id":38}},{"id":20387,"position":13,"audio_url":"wbw/020_018_013.mp3","char_type_name":"word","page_number":313,"line_number":6,"text":"أُخْرَىٰ","translation":{"text":"আরও ( কিছু )\"","language_name":"bengali","language_id":20},"transliteration":{"text":"ukh'rā","language_name":"english","language_id":38}},{"id":20388,"position":14,"audio_url":null,"char_type_name":"end","page_number":313,"line_number":6,"text":"١٨","translation":{"text":"(১৮)","language_name":"bengali","language_id":20},"transliteration":{"text":null,"language_name":"english","language_id":38}}]},{"id":2367,"verse_number":19,"verse_key":"20:19","hizb_number":32,"rub_el_hizb_number":125,"ruku_number":270,"manzil_number":4,"sajdah_number":null,"page_number":313,"juz_number":16,"words":[{"id":21462,"position":1,"audio_url":"wbw/020_019_001.mp3","char_type_name":"word","page_number":313,"line_number":6,"text":"قَالَ","translation":{"text":"( আল্লাহ ) বললেন","language_name":"bengali","language_id":20},"transliteration":{"text":"qāla","language_name":"english","language_id":38}},{"id":21463,"position":2,"audio_url":"wbw/020_019_002.mp3","char_type_name":"word","page_number":313,"line_number":6,"text":"أَلْقِهَا","translation":{"text":"\"তা নিক্ষেপ করো","language_name":"bengali","language_id":20},"transliteration":{"text":"alqihā","language_name":"english","language_id":38}},{"id":21464,"position":3,"audio_url":"wbw/020_019_003.mp3","char_type_name":"word","page_number":313,"line_number":7,"text":"يَـٰمُوسَىٰ","translation":{"text":"হে মূসা\"","language_name":"bengali","language_id":20},"transliteration":{"text":"yāmūsā","language_name":"english","language_id":38}},{"id":21465,"position":4,"audio_url":null,"char_type_name":"end","page_number":313,"line_number":7,"text":"١٩","translation":{"text":"(১৯)","language_name":"bengali","language_id":20},"transliteration":{"text":null,"language_name":"english","language_id":38}}]},{"id":2368,"verse_number":20,"verse_key":"20:20","hizb_number":32,"rub_el_hizb_number":125,"ruku_number":270,"manzil_number":4,"sajdah_number":null,"page_number":313,"juz_number":16,"words":[{"id":22548,"position":1,"audio_url":"wbw/020_020_001.mp3","char_type_name":"word","page_number":313,"line_number":7,"text":"فَأَلْقَىٰهَا","translation":{"text":"অতঃপর তা সে নিক্ষেপ করলো","language_name":"bengali","language_id":20},"transliteration":{"text":"fa-alqāhā","language_name":"english","language_id":38}},{"id":22549,"position":2,"audio_url":"wbw/020_020_002.mp3","char_type_name":"word","page_number":313,"line_number":7,"text":"فَإِذَا","translation":{"text":"সঙ্গে সঙ্গে","language_name":"bengali","language_id":20},"transliteration":{"text":"fa-idhā","language_name":"english","language_id":38}},{"id":22550,"position":3,"audio_url":"wbw/020_020_003.mp3","char_type_name":"word","page_number":313,"line_number":7,"text":"هِىَ","translation":{"text":"তা ( হলো )","language_name":"bengali","language_id":20},"transliteration":{"text":"hiya","language_name":"english","language_id":38}},{"id":22551,"position":4,"audio_url":"wbw/020_020_004.mp3","char_type_name":"word","page_number":313,"line_number":7,"text":"حَيَّةٌۭ","translation":{"text":"সাপ","language_name":"bengali","language_id":20},"transliteration":{"text":"ḥayyatun","language_name":"english","language_id":38}},{"id":22552,"position":5,"audio_url":"wbw/020_020_005.mp3","char_type_name":"word","page_number":313,"line_number":7,"text":"تَسْعَىٰ","translation":{"text":"( যা ) ছুটোছুটি করতে লাগলো","language_name":"bengali","language_id":20},"transliteration":{"text":"tasʿā","language_name":"english","language_id":38}},{"id":22553,"position":6,"audio_url":null,"char_type_name":"end","page_number":313,"line_number":7,"text":"٢٠","translation":{"text":"(২০)","language_name":"bengali","language_id":20},"transliteration":{"text":null,"language_name":"english","language_id":38}}]}],"pagination":{"per_page":10,"current_page":2,"next_page":3,"total_pages":14,"total_records":135}}
