{"verses":[{"id":2369,"verse_number":21,"verse_key":"20:21","hizb_number":32,"rub_el_hizb_number":125,"ruku_number":270,"manzil_number":4,"sajdah_number":null,"page_number":313,"juz_number":16,"words":[{"id":23711,"position":1,"audio_url":"wbw/020_021_001.mp3","char_type_name":"word","page_number":313,"line_number":7,"text":"قَالَ","translation":{"text":"তিনি বললেন","language_name":"bengali","language_id":20},"transliteration":{"text":"qāla","language_name":"english","language_id":38}},{"id":23712,"position":2,"audio_url":"wbw/020_021_002.mp3","char_type_name":"word","page_number":313,"line_number":7,"text":"خُذْهَا","translation":{"text":"\"তা ধরো","language_name":"bengali","language_id":20},"transliteration":{"text":"khudh'hā","language_name":"english","language_id":38}},{"id":23713,"position":3,"audio_url":"wbw/020_021_003.mp3","char_type_name":"word","page_number":313,"line_number":8,"text":"وَلَا","translation":{"text":"এবং না","language_name":"bengali","language_id":20},"transliteration":{"text":"walā","language_name":"english","language_id":38}},{"id":23714,"position":4,"audio_url":"wbw/020_021_004.mp3","char_type_name":"word","page_number":313,"line_number":8,"text":"تَخَفْ ۖ","translation":{"text":"ভয় করো তুমি","language_name":"bengali","language_id":20},"transliteration":{"text":"takhaf","language_name":"english","language_id":38}},{"id":23716,"position":5,"audio_url":"wbw/020_021_006.mp3","char_type_name":"word","page_number":313,"line_number":8,"text":"سَنُعِيدُهَا","translation":{"text":"অচিরেই তা ফিরিয়ে দিবো আমরা","language_name":"bengali","language_id":20},"transliteration":{"text":"sanuʿīduhā","language_name":"english","language_id":38}},{"id":23717,"position":6,"audio_url":"wbw/020_021_007.mp3","char_type_name":"word","page_number":313,"line_number":8,"text":"سِيرَتَهَا","translation":{"text":"তার অবস্থায়","language_name":"bengali","language_id":20},"transliteration":{"text":"sīratahā","language_name":"english","language_id":38}},{"id":23718,"position":7,"audio_url":"wbw/020_021_008.mp3","char_type_name":"word","page_number":313,"line_number":8,"text":"ٱلْأُولَىٰ","translation":{"text":"পূর্বের","language_name":"bengali","language_id":20},"transliteration":{"text":"l-ūlā","language_name":"english","language_id":38}},{"id":23719,"position":8,"audio_url":null,"char_type_name":"end","page_number":313,"line_number":8,"text":"٢١","translation":{"text":"(২১)","language_name":"bengali","language_id":20},"transliteration":{"text":null,"language_name":"english","language_id":38}}]},{"id":2370,"verse_number":22,"verse_key":"20:22","hizb_number":32,"rub_el_hizb_number":125,"ruku_number":270,"manzil_number":4,"sajdah_number":null,"page_number":313,"juz_number":16,"words":[{"id":24670,"position":1,"audio_url":"wbw/020_022_001.mp3","char_type_name":"word","page_number":313,"line_number":8,"text":"وَٱضْمُمْ","translation":{"text":"এবং চেপে ধরো","language_name":"bengali","language_id":20},"transliteration":{"text":"wa-uḍ'mum","language_name":"english","language_id":38}},{"id":24671,"position":2,"audio_url":"wbw/020_022_002.mp3","char_type_name":"word","page_number":313,"line_number":8,"text":"يَدَكَ","translation":{"text":"তোমার হাত","language_name":"bengali","language_id":20},"transliteration":{"text":"yadaka","language_name":"english","language_id":38}},{"id":24672,"position":3,"audio_url":"wbw/020_022_003.mp3","char_type_name":"word","page_number":313,"line_number":9,"text":"إِلَىٰ","translation":{"text":"মধ্যে","language_name":"bengali","language_id":20},"transliteration":{"text":"ilā","language_name":"english","language_id":38}},{"id":24673,"position":4,"audio_url":"wbw/020_022_004.mp3","char_type_name":"word","page_number":313,"line_number":9,"text":"جَنَاحِكَ","translation":{"text":"তোমার বগলের","language_name":"bengali","language_id":20},"transliteration":{"text":"janāḥika","language_name":"english","language_id":38}},{"id":24674,"position":5,"audio_url":"wbw/020_022_005.mp3","char_type_name":"word","page_number":313,"line_number":9,"text":"تَخْرُجْ","translation":{"text":"বের হবে তা","language_name":"bengali","language_id":20},"transliteration":{"text":"takhruj","language_name":"english","language_id":38}},{"id":24675,"position":6,"audio_url":"wbw/020_022_006.mp3","char_type_name":"word","page_number":313,"line_number":9,"text":"بَيْضَآءَ","translation":{"text":"উজ্জ্বল","language_name":"bengali","language_id":20},"transliteration":{"text":"bayḍāa","language_name":"english","language_id":38}},{"id":24676,"position":7,"audio_url":"wbw/020_022_007.mp3","char_type_name":"word","page_number":313,"line_number":9,"text":"مِنْ","translation":{"text":"কোন","language_name":"bengali","language_id":20},"transliteration":{"text":"min","language_name":"english","language_id":38}},{"id":24677,"position":8,"audio_url":"wbw/020_022_008.mp3","char_type_name":"word","page_number":313,"line_number":9,"text":"غَيْرِ","translation":{"text":"ছাড়াই","language_name":"bengali","language_id":20},"transliteration":{"text":"ghayri","language_name":"english","language_id":38}},{"id":24678,"position":9,"audio_url":"wbw/020_022_009.mp3","char_type_name":"word","page_number":313,"line_number":9,"text":"سُوٓءٍ","translation":{"text":"দোষ","language_name":"bengali","language_id":20},"transliteration":{"text":"sūin","language_name":"english","language_id":38}},{"id":24679,"position":10,"audio_url":"wbw/020_022_010.mp3","char_type_name":"word","page_number":313,"line_number":9,"text":"ءَايَةً","translation":{"text":"নিদর্শন","language_name":"bengali","language_id":20},"transliteration":{"text":"āyatan","language_name":"english","language_id":38}},{"id":24680,"position":11,"audio_url":"wbw/020_022_011.mp3","char_type_name":"word","page_number":313,"line_number":9,"text":"أُخْرَىٰ","translation":{"text":"অপর ( একটি )","language_name":"bengali","language_id":20},"transliteration":{"text":"ukh'rā","language_name":"english","language_id":38}},{"id":24681,"position":12,"audio_url":null,"char_type_name":"end","page_number":313,"line_number":9,"text":"٢٢","translation":{"text":"(২২)","language_name":"bengali","language_id":20},"transliteration":{"text":null,"language_name":"english","language_id":38}}]},{"id":2371,"verse_number":23,"verse_key":"20:23","hizb_number":32,"rub_el_hizb_number":125,"ruku_number":270,"manzil_number":4,"sajdah_number":null,"page_number":313,"juz_number":16,"words":[{"id":25750,"position":1,"audio_url":"wbw/020_023_001.mp3","char_type_name":"word","page_number":313,"line_number":9,"text":"لِنُرِيَكَ","translation":{"text":"তোমাকে যেন আমরা দেখাই","language_name":"bengali","language_id":20},"transliteration":{"text":"linuriyaka","language_name":"english","language_id":38}},{"id":25751,"position":2,"audio_url":"wbw/020_023_002.mp3","char_type_name":"word","page_number":313,"line_number":10,"text":"مِنْ","translation":{"text":"মধ্য হ'তে","language_name":"bengali","language_id":20},"transliteration":{"text":"min","language_name":"english","language_id":38}},{"id":25752,"position":3,"audio_url":"wbw/020_023_003.mp3","char_type_name":"word","page_number":313,"line_number":10,"text":"ءَايَـٰتِنَا","translation":{"text":"আমাদের নিদর্শনাবলীর","language_name":"bengali","language_id":20},"transliteration":{"text":"āyātinā","language_name":"english","language_id":38}},{"id":25753,"position":4,"audio_url":"wbw/020_023_004.mp3","char_type_name":"word","page_number":313,"line_number":10,"text":"ٱلْكُبْرَى","translation":{"text":"বড় বড় ( কয়েকটি )","language_name":"bengali","language_id":20},"transliteration":{"text":"l-kub'rā","language_name":"english","language_id":38}},{"id":25754,"position":5,"audio_url":null,"char_type_name":"end","page_number":313,"line_number":10,"text":"٢٣","translation":{"text":"(২৩)","language_name":"bengali","language_id":20},"transliteration":{"text":null,"language_name":"english","language_id":38}}]},{"id":2372,"verse_number":24,"verse_key":"20:24","hizb_number":32,"rub_el_hizb_number":125,"ruku_number":270,"manzil_number":4,"sajdah_number":null,"page_number":313,"juz_number":16,"words":[{"id":26820,"position":1,"audio_url":"wbw/020_024_001.mp3","char_type_name":"word","page_number":313,"line_number":10,"text":"ٱذْهَبْ","translation":{"text":"তুমি যাও","language_name":"bengali","language_id":20},"transliteration":{"text":"idh'hab","language_name":"english","language_id":38}},{"id":26821,"position":2,"audio_url":"wbw/020_024_002.mp3","char_type_name":"word","page_number":313,"line_number":10,"text":"إِلَىٰ","translation":{"text":"কাছে","language_name":"bengali","language_id":20},"transliteration":{"text":"ilā","language_name":"english","language_id":38}},{"id":26822,"position":3,"audio_url":"wbw/020_024_003.mp3","char_type_name":"word","page_number":313,"line_number":10,"text":"فِرْعَوْنَ","translation":{"text":"ফিরআউনের","language_name":"bengali","language_id":20},"transliteration":{"text":"fir'ʿawna","language_name":"english","language_id":38}},{"id":26823,"position":4,"audio_url":"wbw/020_024_004.mp3","char_type_name":"word","page_number":313,"line_number":10,"text":"إِنَّهُۥ","translation":{"text":"সে নিশ্চয়ই","language_name":"bengali","language_id":20},"transliteration":{"text":"innahu","language_name":"english","language_id":38}},{"id":26824,"position":5,"audio_url":"wbw/020_024_005.mp3","char_type_name":"word","page_number":313,"line_number":10,"text":"طَغَىٰ","translation":{"text":"সীমালঙ্ঘন করেছে\"","language_name":"bengali","language_id":20},"transliteration":{"text":"ṭaghā","language_name":"english","language_id":38}},{"id":26825,"position":6,"audio_url":null,"char_type_name":"end","page_number":313,"line_number":10,"text":"٢٤","translation":{"text":"(২৪)","language_name":"bengali","language_id":20},"transliteration":{"text":null,"language_name":"english","language_id":38}}]},{"id":2373,"verse_number":25,"verse_key":"20:25","hizb_number":32,"rub_el_hizb_number":125,"ruku_number":271,"manzil_number":4,"sajdah_number":null,"page_number":313,"juz_number":16,"words":[{"id":27909,"position":1,"audio_url":"wbw/020_025_001.mp3","char_type_name":"word","page_number":313,"line_number":10,"text":"قَالَ","translation":{"text":"( মূসা ) বললো","language_name":"bengali","language_id":20},"transliteration":{"text":"qāla","language_name":"english","language_id":38}},{"id":27910,"position":2,"audio_url":"wbw/020_025_002.mp3","char_type_name":"word","page_number":313,"line_number":11,"text":"رَبِّ","translation":{"text":"\"হে আমার রব","language_name":"bengali","language_id":20},"transliteration":{"text":"rabbi","language_name":"english","language_id":38}},{"id":27911,"position":3,"audio_url":"wbw/020_025_003.mp3","char_type_name":"word","page_number":313,"line_number":11,"text":"ٱشْرَحْ","translation":{"text":"প্রশস্ত করো","language_name":"bengali","language_id":20},"transliteration":{"text":"ish'raḥ","language_name":"english","language_id":38}},{"id":27912,"position":4,"audio_url":"wbw/020_025_004.mp3","char_type_name":"word","page_number":313,"line_number":11,"text":"لِى","translation":{"text":"আমার জন্যে","language_name":"bengali","language_id":20},"transliteration":{"text":"lī","language_name":"english","language_id":38}},{"id":27913,"position":5,"audio_url":"wbw/020_025_005.mp3","char_type_name":"word","page_number":313,"line_number":11,"text":"صَدْرِى","translation":{"text":"আমার বক্ষ","language_name":"bengali","language_id":20},"transliteration":{"text":"ṣadrī","language_name":"english","language_id":38}},{"id":27914,"position":6,"audio_url":null,"char_type_name":"end","page_number":313,"line_number":11,"text":"٢٥","translation":{"text":"(২৫)","language_name":"bengali","language_id":20},"transliteration":{"text":null,"language_name":"english","language_id":38}}]},{"id":2374,"verse_number":26,"verse_key":"20:26","hizb_number":32,"rub_el_hizb_number":125,"ruku_number":271,"manzil_number":4,"sajdah_number":null,"page_number":313,"juz_number":16,"words":[{"id":28873,"position":1,"audio_url":"wbw/020_026_001.mp3","char_type_name":"word","page_number":313,"line_number":11,"text":"وَيَسِّرْ","translation":{"text":"এবং সহজ করো","language_name":"bengali","language_id":20},"transliteration":{"text":"wayassir","language_name":"english","language_id":38}},{"id":28874,"position":2,"audio_url":"wbw/020_026_002.mp3","char_type_name":"word","page_number":313,"line_number":11,"text":"لِىٓ","translation":{"text":"আমার জন্যে","language_name":"bengali","language_id":20},"transliteration":{"text":"lī","language_name":"english","language_id":38}},{"id":28875,"position":3,"audio_url":"wbw/020_026_003.mp3","char_type_name":"word","page_number":313,"line_number":11,"text":"أَمْرِى","translation":{"text":"আমার কাজ","language_name":"bengali","language_id":20},"transliteration":{"text":"amrī","language_name":"english","language_id":38}},{"id":28876,"position":4,"audio_url":null,"char_type_name":"end","page_number":313,"line_number":11,"text":"٢٦","translation":{"text":"(২৬)","language_name":"bengali","language_id":20},"transliteration":{"text":null,"language_name":"english","language_id":38}}]},{"id":2375,"verse_number":27,"verse_key":"20:27","hizb_number":32,"rub_el_hizb_number":125,"ruku_number":271,"manzil_number":4,"sajdah_number":null,"page_number":313,"juz_number":16,"words":[{"id":29664,"position":1,"audio_url":"wbw/020_027_001.mp3","char_type_name":"word","page_number":313,"line_number":11,"text":"وَٱحْلُلْ","translation":{"text":"এবং খুলে দাও","language_name":"bengali","language_id":20},"transliteration":{"text":"wa-uḥ'lul","language_name":"english","language_id":38}},{"id":29665,"position":2,"audio_url":"wbw/020_027_002.mp3","char_type_name":"word","page_number":313,"line_number":11,"text":"عُقْدَةًۭ","translation":{"text":"গিরা (জড়তা)","language_name":"bengali","language_id":20},"transliteration":{"text":"ʿuq'datan","language_name":"english","language_id":38}},{"id":29666,"position":3,"audio_url":"wbw/020_027_003.mp3","char_type_name":"word","page_number":313,"line_number":11,"text":"مِّن","translation":{"text":"থেকে","language_name":"bengali","language_id":20},"transliteration":{"text":"min","language_name":"english","language_id":38}},{"id":29667,"position":4,"audio_url":"wbw/020_027_004.mp3","char_type_name":"word","page_number":313,"line_number":12,"text":"لِّسَانِى","translation":{"text":"আমার জিহবার","language_name":"bengali","language_id":20},"transliteration":{"text":"lisānī","language_name":"english","language_id":38}},{"id":29668,"position":5,"audio_url":null,"char_type_name":"end","page_number":313,"line_number":12,"text":"٢٧","translation":{"text":"(২৭)","language_name":"bengali","language_id":20},"transliteration":{"text":null,"language_name":"english","language_id":38}}]},{"id":2376,"verse_number":28,"verse_key":"20:28","hizb_number":32,"rub_el_hizb_number":125,"ruku_number":271,"manzil_number":4,"sajdah_number":null,"page_number":313,"juz_number":16,"words":[{"id":30680,"position":1,"audio_url":"wbw/020_028_001.mp3","char_type_name":"word","page_number":313,"line_number":12,"text":"يَفْقَهُوا۟","translation":{"text":"তারা বুঝে ( যেন )","language_name":"bengali","language_id":20},"transliteration":{"text":"yafqahū","language_name":"english","language_id":38}},{"id":30681,"position":2,"audio_url":"wbw/020_028_002.mp3","char_type_name":"word","page_number":313,"line_number":12,"text":"قَوْلِى","translation":{"text":"আমার কথা","language_name":"bengali","language_id":20},"transliteration":{"text":"qawlī","language_name":"english","language_id":38}},{"id":30682,"position":3,"audio_url":null,"char_type_name":"end","page_number":313,"line_number":12,"text":"٢٨","translation":{"text":"(২৮)","language_name":"bengali","language_id":20},"transliteration":{"text":null,"language_name":"english","language_id":38}}]},{"id":2377,"verse_number":29,"verse_key":"20:29","hizb_number":32,"rub_el_hizb_number":125,"ruku_number":271,"manzil_number":4,"sajdah_number":null,"page_number":313,"juz_number":16,"words":[{"id":31804,"position":1,"audio_url":"wbw/020_029_001.mp3","char_type_name":"word","page_number":313,"line_number":12,"text":"وَٱجْعَل","translation":{"text":"এবং বানিয়ে দাও","language_name":"bengali","language_id":20},"transliteration":{"text":"wa-ij'ʿal","language_name":"english","language_id":38}},{"id":31805,"position":2,"audio_url":"wbw/020_029_002.mp3","char_type_name":"word","page_number":313,"line_number":12,"text":"لِّى","translation":{"text":"আমার জন্যে","language_name":"bengali","language_id":20},"transliteration":{"text":"lī","language_name":"english","language_id":38}},{"id":31806,"position":3,"audio_url":"wbw/020_029_003.mp3","char_type_name":"word","page_number":313,"line_number":12,"text":"وَزِيرًۭا","translation":{"text":"একজন সাহায্যকারী","language_name":"bengali","language_id":20},"transliteration":{"text":"wazīran","language_name":"english","language_id":38}},{"id":31807,"position":4,"audio_url":"wbw/020_029_004.mp3","char_type_name":"word","page_number":313,"line_number":12,"text":"مِّنْ","translation":{"text":"মধ্য হ'তে","language_name":"bengali","language_id":20},"transliteration":{"text":"min","language_name":"english","language_id":38}},{"id":31808,"position":5,"audio_url":"wbw/020_029_005.mp3","char_type_name":"word","page_number":313,"line_number":12,"text":"أَهْلِى","translation":{"text":"আমার পরিবারের","language_name":"bengali","language_id":20},"transliteration":{"text":"ahlī","language_name":"english","language_id":38}},{"id":31809,"position":6,"audio_url":null,"char_type_name":"end","page_number":313,"line_number":12,"text":"٢٩","translation":{"text":"(২৯)","language_name":"bengali","language_id":20},"transliteration":{"text":null,"language_name":"english","language_id":38}}]},{"id":2378,"verse_number":30,"verse_key":"20:30","hizb_number":32,"rub_el_hizb_number":125,"ruku_number":271,"manzil_number":4,"sajdah_number":null,"page_number":313,"juz_number":16,"words":[{"id":32871,"position":1,"audio_url":"wbw/020_030_001.mp3","char_type_name":"word","page_number":313,"line_number":12,"text":"هَـٰرُونَ","translation":{"text":"হারুনকে","language_name":"bengali","language_id":20},"transliteration":{"text":"hārūna","language_name":"english","language_id":38}},{"id":32872,"position":2,"audio_url":"wbw/020_030_002.mp3","char_type_name":"word","page_number":313,"line_number":13,"text":"أَخِى","translation":{"text":"( যে ) আমার ভাই","language_name":"bengali","language_id":20},"transliteration":{"text":"akhī","language_name":"english","language_id":38}},{"id":32873,"position":3,"audio_url":null,"char_type_name":"end","page_number":313,"line_number":13,"text":"٣٠","translation":{"text":"(৩০)","language_name":"bengali","language_id":20},"transliteration":{"text":null,"language_name":"english","language_id":38}}]}],"pagination":{"per_page":10,"current_page":3,"next_page":4,"total_pages":14,"total_records":135}}
