{"verses":[{"id":2389,"verse_number":41,"verse_key":"20:41","hizb_number":32,"rub_el_hizb_number":125,"ruku_number":271,"manzil_number":4,"sajdah_number":null,"page_number":314,"juz_number":16,"words":[{"id":42077,"position":1,"audio_url":"wbw/020_041_001.mp3","char_type_name":"word","page_number":314,"line_number":7,"text":"وَٱصْطَنَعْتُكَ","translation":{"text":"এবং তোমাকে আমি প্রস্তুত করেছি","language_name":"bengali","language_id":20},"transliteration":{"text":"wa-iṣ'ṭanaʿtuka","language_name":"english","language_id":38}},{"id":42078,"position":2,"audio_url":"wbw/020_041_002.mp3","char_type_name":"word","page_number":314,"line_number":7,"text":"لِنَفْسِى","translation":{"text":"আমার নিজের (কাজের) জন্যে","language_name":"bengali","language_id":20},"transliteration":{"text":"linafsī","language_name":"english","language_id":38}},{"id":42079,"position":3,"audio_url":null,"char_type_name":"end","page_number":314,"line_number":7,"text":"٤١","translation":{"text":"(৪১)","language_name":"bengali","language_id":20},"transliteration":{"text":null,"language_name":"english","language_id":38}}]},{"id":2390,"verse_number":42,"verse_key":"20:42","hizb_number":32,"rub_el_hizb_number":125,"ruku_number":271,"manzil_number":4,"sajdah_number":null,"page_number":314,"juz_number":16,"words":[{"id":42865,"position":1,"audio_url":"wbw/020_042_001.mp3","char_type_name":"word","page_number":314,"line_number":7,"text":"ٱذْهَبْ","translation":{"text":"যাও","language_name":"bengali","language_id":20},"transliteration":{"text":"idh'hab","language_name":"english","language_id":38}},{"id":42866,"position":2,"audio_url":"wbw/020_042_002.mp3","char_type_name":"word","page_number":314,"line_number":7,"text":"أَنتَ","translation":{"text":"তুমি","language_name":"bengali","language_id":20},"transliteration":{"text":"anta","language_name":"english","language_id":38}},{"id":42867,"position":3,"audio_url":"wbw/020_042_003.mp3","char_type_name":"word","page_number":314,"line_number":7,"text":"وَأَخُوكَ","translation":{"text":"ও তোমার ভাই","language_name":"bengali","language_id":20},"transliteration":{"text":"wa-akhūka","language_name":"english","language_id":38}},{"id":42868,"position":4,"audio_url":"wbw/020_042_004.mp3","char_type_name":"word","page_number":314,"line_number":7,"text":"بِـَٔايَـٰتِى","translation":{"text":"নিয়ে আমার নির্দেশনাবলী","language_name":"bengali","language_id":20},"transliteration":{"text":"biāyātī","language_name":"english","language_id":38}},{"id":42869,"position":5,"audio_url":"wbw/020_042_005.mp3","char_type_name":"word","page_number":314,"line_number":7,"text":"وَلَا","translation":{"text":"এবং না","language_name":"bengali","language_id":20},"transliteration":{"text":"walā","language_name":"english","language_id":38}},{"id":42870,"position":6,"audio_url":"wbw/020_042_006.mp3","char_type_name":"word","page_number":314,"line_number":8,"text":"تَنِيَا","translation":{"text":"তোমরা দু'জনে আসল্য করো","language_name":"bengali","language_id":20},"transliteration":{"text":"taniyā","language_name":"english","language_id":38}},{"id":42871,"position":7,"audio_url":"wbw/020_042_007.mp3","char_type_name":"word","page_number":314,"line_number":8,"text":"فِى","translation":{"text":"ক্ষেত্রে","language_name":"bengali","language_id":20},"transliteration":{"text":"fī","language_name":"english","language_id":38}},{"id":42872,"position":8,"audio_url":"wbw/020_042_008.mp3","char_type_name":"word","page_number":314,"line_number":8,"text":"ذِكْرِى","translation":{"text":"আমার স্মরণের","language_name":"bengali","language_id":20},"transliteration":{"text":"dhik'rī","language_name":"english","language_id":38}},{"id":42873,"position":9,"audio_url":null,"char_type_name":"end","page_number":314,"line_number":8,"text":"٤٢","translation":{"text":"(৪২)","language_name":"bengali","language_id":20},"transliteration":{"text":null,"language_name":"english","language_id":38}}]},{"id":2391,"verse_number":43,"verse_key":"20:43","hizb_number":32,"rub_el_hizb_number":125,"ruku_number":271,"manzil_number":4,"sajdah_number":null,"page_number":314,"juz_number":16,"words":[{"id":43602,"position":1,"audio_url":"wbw/020_043_001.mp3","char_type_name":"word","page_number":314,"line_number":8,"text":"ٱذْهَبَآ","translation":{"text":"দু'জনে যাও","language_name":"bengali","language_id":20},"transliteration":{"text":"idh'habā","language_name":"english","language_id":38}},{"id":43603,"position":2,"audio_url":"wbw/020_043_002.mp3","char_type_name":"word","page_number":314,"line_number":8,"text":"إِلَىٰ","translation":{"text":"নিকট","language_name":"bengali","language_id":20},"transliteration":{"text":"ilā","language_name":"english","language_id":38}},{"id":43604,"position":3,"audio_url":"wbw/020_043_003.mp3","char_type_name":"word","page_number":314,"line_number":8,"text":"فِرْعَوْنَ","translation":{"text":"ফিরআউনের","language_name":"bengali","language_id":20},"transliteration":{"text":"fir'ʿawna","language_name":"english","language_id":38}},{"id":43605,"position":4,"audio_url":"wbw/020_043_004.mp3","char_type_name":"word","page_number":314,"line_number":8,"text":"إِنَّهُۥ","translation":{"text":"সে নিশ্চয়ই","language_name":"bengali","language_id":20},"transliteration":{"text":"innahu","language_name":"english","language_id":38}},{"id":43606,"position":5,"audio_url":"wbw/020_043_005.mp3","char_type_name":"word","page_number":314,"line_number":8,"text":"طَغَىٰ","translation":{"text":"সীমালঙ্ঘন করেছে","language_name":"bengali","language_id":20},"transliteration":{"text":"ṭaghā","language_name":"english","language_id":38}},{"id":43607,"position":6,"audio_url":null,"char_type_name":"end","page_number":314,"line_number":8,"text":"٤٣","translation":{"text":"(৪৩)","language_name":"bengali","language_id":20},"transliteration":{"text":null,"language_name":"english","language_id":38}}]},{"id":2392,"verse_number":44,"verse_key":"20:44","hizb_number":32,"rub_el_hizb_number":125,"ruku_number":271,"manzil_number":4,"sajdah_number":null,"page_number":314,"juz_number":16,"words":[{"id":44704,"position":1,"audio_url":"wbw/020_044_001.mp3","char_type_name":"word","page_number":314,"line_number":8,"text":"فَقُولَا","translation":{"text":"অতঃপর দু'জনে বলবে","language_name":"bengali","language_id":20},"transliteration":{"text":"faqūlā","language_name":"english","language_id":38}},{"id":44705,"position":2,"audio_url":"wbw/020_044_002.mp3","char_type_name":"word","page_number":314,"line_number":8,"text":"لَهُۥ","translation":{"text":"তার সাথে","language_name":"bengali","language_id":20},"transliteration":{"text":"lahu","language_name":"english","language_id":38}},{"id":44706,"position":3,"audio_url":"wbw/020_044_003.mp3","char_type_name":"word","page_number":314,"line_number":8,"text":"قَوْلًۭا","translation":{"text":"কথা","language_name":"bengali","language_id":20},"transliteration":{"text":"qawlan","language_name":"english","language_id":38}},{"id":44707,"position":4,"audio_url":"wbw/020_044_004.mp3","char_type_name":"word","page_number":314,"line_number":9,"text":"لَّيِّنًۭا","translation":{"text":"নম্রভাবে","language_name":"bengali","language_id":20},"transliteration":{"text":"layyinan","language_name":"english","language_id":38}},{"id":44708,"position":5,"audio_url":"wbw/020_044_005.mp3","char_type_name":"word","page_number":314,"line_number":9,"text":"لَّعَلَّهُۥ","translation":{"text":"সে সম্ভবতঃ","language_name":"bengali","language_id":20},"transliteration":{"text":"laʿallahu","language_name":"english","language_id":38}},{"id":44709,"position":6,"audio_url":"wbw/020_044_006.mp3","char_type_name":"word","page_number":314,"line_number":9,"text":"يَتَذَكَّرُ","translation":{"text":"উপদেশ গ্রহণ করবে","language_name":"bengali","language_id":20},"transliteration":{"text":"yatadhakkaru","language_name":"english","language_id":38}},{"id":44710,"position":7,"audio_url":"wbw/020_044_007.mp3","char_type_name":"word","page_number":314,"line_number":9,"text":"أَوْ","translation":{"text":"অথবা","language_name":"bengali","language_id":20},"transliteration":{"text":"aw","language_name":"english","language_id":38}},{"id":44711,"position":8,"audio_url":"wbw/020_044_008.mp3","char_type_name":"word","page_number":314,"line_number":9,"text":"يَخْشَىٰ","translation":{"text":"ভয় করবে\"","language_name":"bengali","language_id":20},"transliteration":{"text":"yakhshā","language_name":"english","language_id":38}},{"id":44712,"position":9,"audio_url":null,"char_type_name":"end","page_number":314,"line_number":9,"text":"٤٤","translation":{"text":"(৪৪)","language_name":"bengali","language_id":20},"transliteration":{"text":null,"language_name":"english","language_id":38}}]},{"id":2393,"verse_number":45,"verse_key":"20:45","hizb_number":32,"rub_el_hizb_number":125,"ruku_number":271,"manzil_number":4,"sajdah_number":null,"page_number":314,"juz_number":16,"words":[{"id":45366,"position":1,"audio_url":"wbw/020_045_001.mp3","char_type_name":"word","page_number":314,"line_number":9,"text":"قَالَا","translation":{"text":"তারা (দু'জনে) বললো","language_name":"bengali","language_id":20},"transliteration":{"text":"qālā","language_name":"english","language_id":38}},{"id":45367,"position":2,"audio_url":"wbw/020_045_002.mp3","char_type_name":"word","page_number":314,"line_number":9,"text":"رَبَّنَآ","translation":{"text":"\"হে আমাদের রব","language_name":"bengali","language_id":20},"transliteration":{"text":"rabbanā","language_name":"english","language_id":38}},{"id":45368,"position":3,"audio_url":"wbw/020_045_003.mp3","char_type_name":"word","page_number":314,"line_number":9,"text":"إِنَّنَا","translation":{"text":"নিশ্চয়ই আমরা","language_name":"bengali","language_id":20},"transliteration":{"text":"innanā","language_name":"english","language_id":38}},{"id":45369,"position":4,"audio_url":"wbw/020_045_004.mp3","char_type_name":"word","page_number":314,"line_number":9,"text":"نَخَافُ","translation":{"text":"আশংকা করি আমরা","language_name":"bengali","language_id":20},"transliteration":{"text":"nakhāfu","language_name":"english","language_id":38}},{"id":45370,"position":5,"audio_url":"wbw/020_045_005.mp3","char_type_name":"word","page_number":314,"line_number":9,"text":"أَن","translation":{"text":"যে","language_name":"bengali","language_id":20},"transliteration":{"text":"an","language_name":"english","language_id":38}},{"id":45371,"position":6,"audio_url":"wbw/020_045_006.mp3","char_type_name":"word","page_number":314,"line_number":9,"text":"يَفْرُطَ","translation":{"text":"ফিরআউন দুর্ব্যবহার করবে","language_name":"bengali","language_id":20},"transliteration":{"text":"yafruṭa","language_name":"english","language_id":38}},{"id":45372,"position":7,"audio_url":"wbw/020_045_007.mp3","char_type_name":"word","page_number":314,"line_number":10,"text":"عَلَيْنَآ","translation":{"text":"আমাদের সাথে","language_name":"bengali","language_id":20},"transliteration":{"text":"ʿalaynā","language_name":"english","language_id":38}},{"id":45373,"position":8,"audio_url":"wbw/020_045_008.mp3","char_type_name":"word","page_number":314,"line_number":10,"text":"أَوْ","translation":{"text":"অথবা","language_name":"bengali","language_id":20},"transliteration":{"text":"aw","language_name":"english","language_id":38}},{"id":45374,"position":9,"audio_url":"wbw/020_045_009.mp3","char_type_name":"word","page_number":314,"line_number":10,"text":"أَن","translation":{"text":"যে","language_name":"bengali","language_id":20},"transliteration":{"text":"an","language_name":"english","language_id":38}},{"id":45375,"position":10,"audio_url":"wbw/020_045_010.mp3","char_type_name":"word","page_number":314,"line_number":10,"text":"يَطْغَىٰ","translation":{"text":"সে সীমালংঘন করবে\"","language_name":"bengali","language_id":20},"transliteration":{"text":"yaṭghā","language_name":"english","language_id":38}},{"id":45376,"position":11,"audio_url":null,"char_type_name":"end","page_number":314,"line_number":10,"text":"٤٥","translation":{"text":"(৪৫)","language_name":"bengali","language_id":20},"transliteration":{"text":null,"language_name":"english","language_id":38}}]},{"id":2394,"verse_number":46,"verse_key":"20:46","hizb_number":32,"rub_el_hizb_number":125,"ruku_number":271,"manzil_number":4,"sajdah_number":null,"page_number":314,"juz_number":16,"words":[{"id":46205,"position":1,"audio_url":"wbw/020_046_001.mp3","char_type_name":"word","page_number":314,"line_number":10,"text":"قَالَ","translation":{"text":"তিনি বললেন","language_name":"bengali","language_id":20},"transliteration":{"text":"qāla","language_name":"english","language_id":38}},{"id":46206,"position":2,"audio_url":"wbw/020_046_002.mp3","char_type_name":"word","page_number":314,"line_number":10,"text":"لَا","translation":{"text":"\"না","language_name":"bengali","language_id":20},"transliteration":{"text":"lā","language_name":"english","language_id":38}},{"id":46207,"position":3,"audio_url":"wbw/020_046_003.mp3","char_type_name":"word","page_number":314,"line_number":10,"text":"تَخَافَآ ۖ","translation":{"text":"তোমরা দু'জনে ভয় করো","language_name":"bengali","language_id":20},"transliteration":{"text":"takhāfā","language_name":"english","language_id":38}},{"id":46209,"position":4,"audio_url":"wbw/020_046_005.mp3","char_type_name":"word","page_number":314,"line_number":10,"text":"إِنَّنِى","translation":{"text":"আমি নিশ্চয়ই","language_name":"bengali","language_id":20},"transliteration":{"text":"innanī","language_name":"english","language_id":38}},{"id":46210,"position":5,"audio_url":"wbw/020_046_006.mp3","char_type_name":"word","page_number":314,"line_number":10,"text":"مَعَكُمَآ","translation":{"text":"তোমাদের দু'জনের সাথে (আছি)","language_name":"bengali","language_id":20},"transliteration":{"text":"maʿakumā","language_name":"english","language_id":38}},{"id":46211,"position":6,"audio_url":"wbw/020_046_007.mp3","char_type_name":"word","page_number":314,"line_number":10,"text":"أَسْمَعُ","translation":{"text":"আমি শুনি (সবকিছু)","language_name":"bengali","language_id":20},"transliteration":{"text":"asmaʿu","language_name":"english","language_id":38}},{"id":46212,"position":7,"audio_url":"wbw/020_046_008.mp3","char_type_name":"word","page_number":314,"line_number":10,"text":"وَأَرَىٰ","translation":{"text":"ও আমি দেখি (সবকিছু)","language_name":"bengali","language_id":20},"transliteration":{"text":"wa-arā","language_name":"english","language_id":38}},{"id":46213,"position":8,"audio_url":null,"char_type_name":"end","page_number":314,"line_number":11,"text":"٤٦","translation":{"text":"(৪৬)","language_name":"bengali","language_id":20},"transliteration":{"text":null,"language_name":"english","language_id":38}}]},{"id":2395,"verse_number":47,"verse_key":"20:47","hizb_number":32,"rub_el_hizb_number":125,"ruku_number":271,"manzil_number":4,"sajdah_number":null,"page_number":314,"juz_number":16,"words":[{"id":46737,"position":1,"audio_url":"wbw/020_047_001.mp3","char_type_name":"word","page_number":314,"line_number":11,"text":"فَأْتِيَاهُ","translation":{"text":"সুতরাং তার কাছে দু'জনে যাও","language_name":"bengali","language_id":20},"transliteration":{"text":"fatiyāhu","language_name":"english","language_id":38}},{"id":46738,"position":2,"audio_url":"wbw/020_047_002.mp3","char_type_name":"word","page_number":314,"line_number":11,"text":"فَقُولَآ","translation":{"text":"অতঃপর দু'জনে বলো","language_name":"bengali","language_id":20},"transliteration":{"text":"faqūlā","language_name":"english","language_id":38}},{"id":46739,"position":3,"audio_url":"wbw/020_047_003.mp3","char_type_name":"word","page_number":314,"line_number":11,"text":"إِنَّا","translation":{"text":"\"নিশ্চয়ই আমরা","language_name":"bengali","language_id":20},"transliteration":{"text":"innā","language_name":"english","language_id":38}},{"id":46740,"position":4,"audio_url":"wbw/020_047_004.mp3","char_type_name":"word","page_number":314,"line_number":11,"text":"رَسُولَا","translation":{"text":"দুই রাসূল","language_name":"bengali","language_id":20},"transliteration":{"text":"rasūlā","language_name":"english","language_id":38}},{"id":46741,"position":5,"audio_url":"wbw/020_047_005.mp3","char_type_name":"word","page_number":314,"line_number":11,"text":"رَبِّكَ","translation":{"text":"তোমার রবের","language_name":"bengali","language_id":20},"transliteration":{"text":"rabbika","language_name":"english","language_id":38}},{"id":46742,"position":6,"audio_url":"wbw/020_047_006.mp3","char_type_name":"word","page_number":314,"line_number":11,"text":"فَأَرْسِلْ","translation":{"text":"সুতরাং পাঠাও","language_name":"bengali","language_id":20},"transliteration":{"text":"fa-arsil","language_name":"english","language_id":38}},{"id":46743,"position":7,"audio_url":"wbw/020_047_007.mp3","char_type_name":"word","page_number":314,"line_number":11,"text":"مَعَنَا","translation":{"text":"আমাদের সাথে","language_name":"bengali","language_id":20},"transliteration":{"text":"maʿanā","language_name":"english","language_id":38}},{"id":46744,"position":8,"audio_url":"wbw/020_047_008.mp3","char_type_name":"word","page_number":314,"line_number":11,"text":"بَنِىٓ","translation":{"text":"বনী","language_name":"bengali","language_id":20},"transliteration":{"text":"banī","language_name":"english","language_id":38}},{"id":46745,"position":9,"audio_url":"wbw/020_047_009.mp3","char_type_name":"word","page_number":314,"line_number":11,"text":"إِسْرَٰٓءِيلَ","translation":{"text":"ইসরাঈলকে","language_name":"bengali","language_id":20},"transliteration":{"text":"is'rāīla","language_name":"english","language_id":38}},{"id":46746,"position":10,"audio_url":"wbw/020_047_010.mp3","char_type_name":"word","page_number":314,"line_number":12,"text":"وَلَا","translation":{"text":"এবং না","language_name":"bengali","language_id":20},"transliteration":{"text":"walā","language_name":"english","language_id":38}},{"id":46747,"position":11,"audio_url":"wbw/020_047_011.mp3","char_type_name":"word","page_number":314,"line_number":12,"text":"تُعَذِّبْهُمْ ۖ","translation":{"text":"তাদেরকে শাস্তি দিও","language_name":"bengali","language_id":20},"transliteration":{"text":"tuʿadhib'hum","language_name":"english","language_id":38}},{"id":46749,"position":12,"audio_url":"wbw/020_047_013.mp3","char_type_name":"word","page_number":314,"line_number":12,"text":"قَدْ","translation":{"text":"নিশ্চয়ই","language_name":"bengali","language_id":20},"transliteration":{"text":"qad","language_name":"english","language_id":38}},{"id":46750,"position":13,"audio_url":"wbw/020_047_014.mp3","char_type_name":"word","page_number":314,"line_number":12,"text":"جِئْنَـٰكَ","translation":{"text":"তোমার কাছে আমরা এসেছি","language_name":"bengali","language_id":20},"transliteration":{"text":"ji'nāka","language_name":"english","language_id":38}},{"id":46751,"position":14,"audio_url":"wbw/020_047_015.mp3","char_type_name":"word","page_number":314,"line_number":12,"text":"بِـَٔايَةٍۢ","translation":{"text":"নিয়ে নিদর্শন","language_name":"bengali","language_id":20},"transliteration":{"text":"biāyatin","language_name":"english","language_id":38}},{"id":46752,"position":15,"audio_url":"wbw/020_047_016.mp3","char_type_name":"word","page_number":314,"line_number":12,"text":"مِّن","translation":{"text":"পক্ষ হ'তে","language_name":"bengali","language_id":20},"transliteration":{"text":"min","language_name":"english","language_id":38}},{"id":46753,"position":16,"audio_url":"wbw/020_047_017.mp3","char_type_name":"word","page_number":314,"line_number":12,"text":"رَّبِّكَ ۖ","translation":{"text":"তোমার রবের","language_name":"bengali","language_id":20},"transliteration":{"text":"rabbika","language_name":"english","language_id":38}},{"id":46755,"position":17,"audio_url":"wbw/020_047_019.mp3","char_type_name":"word","page_number":314,"line_number":12,"text":"وَٱلسَّلَـٰمُ","translation":{"text":"এবং শান্তি","language_name":"bengali","language_id":20},"transliteration":{"text":"wal-salāmu","language_name":"english","language_id":38}},{"id":46756,"position":18,"audio_url":"wbw/020_047_020.mp3","char_type_name":"word","page_number":314,"line_number":12,"text":"عَلَىٰ","translation":{"text":"উপর","language_name":"bengali","language_id":20},"transliteration":{"text":"ʿalā","language_name":"english","language_id":38}},{"id":46757,"position":19,"audio_url":"wbw/020_047_021.mp3","char_type_name":"word","page_number":314,"line_number":12,"text":"مَنِ","translation":{"text":"(তার) যে","language_name":"bengali","language_id":20},"transliteration":{"text":"mani","language_name":"english","language_id":38}},{"id":46758,"position":20,"audio_url":"wbw/020_047_022.mp3","char_type_name":"word","page_number":314,"line_number":12,"text":"ٱتَّبَعَ","translation":{"text":"অনুসরণ করে","language_name":"bengali","language_id":20},"transliteration":{"text":"ittabaʿa","language_name":"english","language_id":38}},{"id":46759,"position":21,"audio_url":"wbw/020_047_023.mp3","char_type_name":"word","page_number":314,"line_number":13,"text":"ٱلْهُدَىٰٓ","translation":{"text":"সঠিক পথের","language_name":"bengali","language_id":20},"transliteration":{"text":"l-hudā","language_name":"english","language_id":38}},{"id":46760,"position":22,"audio_url":null,"char_type_name":"end","page_number":314,"line_number":13,"text":"٤٧","translation":{"text":"(৪৭)","language_name":"bengali","language_id":20},"transliteration":{"text":null,"language_name":"english","language_id":38}}]},{"id":2396,"verse_number":48,"verse_key":"20:48","hizb_number":32,"rub_el_hizb_number":125,"ruku_number":271,"manzil_number":4,"sajdah_number":null,"page_number":314,"juz_number":16,"words":[{"id":47248,"position":1,"audio_url":"wbw/020_048_001.mp3","char_type_name":"word","page_number":314,"line_number":13,"text":"إِنَّا","translation":{"text":"আমরা নিশ্চয়ই (এমন যে)","language_name":"bengali","language_id":20},"transliteration":{"text":"innā","language_name":"english","language_id":38}},{"id":47249,"position":2,"audio_url":"wbw/020_048_002.mp3","char_type_name":"word","page_number":314,"line_number":13,"text":"قَدْ","translation":{"text":"নিশ্চয়ই","language_name":"bengali","language_id":20},"transliteration":{"text":"qad","language_name":"english","language_id":38}},{"id":47250,"position":3,"audio_url":"wbw/020_048_003.mp3","char_type_name":"word","page_number":314,"line_number":13,"text":"أُوحِىَ","translation":{"text":"ওহী করা হয়েছে","language_name":"bengali","language_id":20},"transliteration":{"text":"ūḥiya","language_name":"english","language_id":38}},{"id":47251,"position":4,"audio_url":"wbw/020_048_004.mp3","char_type_name":"word","page_number":314,"line_number":13,"text":"إِلَيْنَآ","translation":{"text":"প্রতি আমাদের","language_name":"bengali","language_id":20},"transliteration":{"text":"ilaynā","language_name":"english","language_id":38}},{"id":47252,"position":5,"audio_url":"wbw/020_048_005.mp3","char_type_name":"word","page_number":314,"line_number":13,"text":"أَنَّ","translation":{"text":"যে","language_name":"bengali","language_id":20},"transliteration":{"text":"anna","language_name":"english","language_id":38}},{"id":47253,"position":6,"audio_url":"wbw/020_048_006.mp3","char_type_name":"word","page_number":314,"line_number":13,"text":"ٱلْعَذَابَ","translation":{"text":"শাস্তি","language_name":"bengali","language_id":20},"transliteration":{"text":"l-ʿadhāba","language_name":"english","language_id":38}},{"id":47254,"position":7,"audio_url":"wbw/020_048_007.mp3","char_type_name":"word","page_number":314,"line_number":13,"text":"عَلَىٰ","translation":{"text":"উপর","language_name":"bengali","language_id":20},"transliteration":{"text":"ʿalā","language_name":"english","language_id":38}},{"id":47255,"position":8,"audio_url":"wbw/020_048_008.mp3","char_type_name":"word","page_number":314,"line_number":13,"text":"مَن","translation":{"text":"(তার) যে","language_name":"bengali","language_id":20},"transliteration":{"text":"man","language_name":"english","language_id":38}},{"id":47256,"position":9,"audio_url":"wbw/020_048_009.mp3","char_type_name":"word","page_number":314,"line_number":13,"text":"كَذَّبَ","translation":{"text":"মিথ্যারোপ করবে","language_name":"bengali","language_id":20},"transliteration":{"text":"kadhaba","language_name":"english","language_id":38}},{"id":47257,"position":10,"audio_url":"wbw/020_048_010.mp3","char_type_name":"word","page_number":314,"line_number":14,"text":"وَتَوَلَّىٰ","translation":{"text":"ও মুখ ফিরাবে (অমান্য করবে)\"","language_name":"bengali","language_id":20},"transliteration":{"text":"watawallā","language_name":"english","language_id":38}},{"id":47258,"position":11,"audio_url":null,"char_type_name":"end","page_number":314,"line_number":14,"text":"٤٨","translation":{"text":"(৪৮)","language_name":"bengali","language_id":20},"transliteration":{"text":null,"language_name":"english","language_id":38}}]},{"id":2397,"verse_number":49,"verse_key":"20:49","hizb_number":32,"rub_el_hizb_number":125,"ruku_number":271,"manzil_number":4,"sajdah_number":null,"page_number":314,"juz_number":16,"words":[{"id":47869,"position":1,"audio_url":"wbw/020_049_001.mp3","char_type_name":"word","page_number":314,"line_number":14,"text":"قَالَ","translation":{"text":"(ফিরআউন) বললো","language_name":"bengali","language_id":20},"transliteration":{"text":"qāla","language_name":"english","language_id":38}},{"id":47870,"position":2,"audio_url":"wbw/020_049_002.mp3","char_type_name":"word","page_number":314,"line_number":14,"text":"فَمَن","translation":{"text":"\"তাহ'লে কে","language_name":"bengali","language_id":20},"transliteration":{"text":"faman","language_name":"english","language_id":38}},{"id":47871,"position":3,"audio_url":"wbw/020_049_003.mp3","char_type_name":"word","page_number":314,"line_number":14,"text":"رَّبُّكُمَا","translation":{"text":"তোমাদের দু'জনের রব","language_name":"bengali","language_id":20},"transliteration":{"text":"rabbukumā","language_name":"english","language_id":38}},{"id":47872,"position":4,"audio_url":"wbw/020_049_004.mp3","char_type_name":"word","page_number":314,"line_number":14,"text":"يَـٰمُوسَىٰ","translation":{"text":"হে মূসা\"","language_name":"bengali","language_id":20},"transliteration":{"text":"yāmūsā","language_name":"english","language_id":38}},{"id":47873,"position":5,"audio_url":null,"char_type_name":"end","page_number":314,"line_number":14,"text":"٤٩","translation":{"text":"(৪৯)","language_name":"bengali","language_id":20},"transliteration":{"text":null,"language_name":"english","language_id":38}}]},{"id":2398,"verse_number":50,"verse_key":"20:50","hizb_number":32,"rub_el_hizb_number":125,"ruku_number":271,"manzil_number":4,"sajdah_number":null,"page_number":314,"juz_number":16,"words":[{"id":48953,"position":1,"audio_url":"wbw/020_050_001.mp3","char_type_name":"word","page_number":314,"line_number":14,"text":"قَالَ","translation":{"text":"মূসা বললো","language_name":"bengali","language_id":20},"transliteration":{"text":"qāla","language_name":"english","language_id":38}},{"id":48954,"position":2,"audio_url":"wbw/020_050_002.mp3","char_type_name":"word","page_number":314,"line_number":14,"text":"رَبُّنَا","translation":{"text":"\"আমাদের রব","language_name":"bengali","language_id":20},"transliteration":{"text":"rabbunā","language_name":"english","language_id":38}},{"id":48955,"position":3,"audio_url":"wbw/020_050_003.mp3","char_type_name":"word","page_number":314,"line_number":14,"text":"ٱلَّذِىٓ","translation":{"text":"(তিনি) যিনি","language_name":"bengali","language_id":20},"transliteration":{"text":"alladhī","language_name":"english","language_id":38}},{"id":48956,"position":4,"audio_url":"wbw/020_050_004.mp3","char_type_name":"word","page_number":314,"line_number":14,"text":"أَعْطَىٰ","translation":{"text":"দিয়েছেন","language_name":"bengali","language_id":20},"transliteration":{"text":"aʿṭā","language_name":"english","language_id":38}},{"id":48957,"position":5,"audio_url":"wbw/020_050_005.mp3","char_type_name":"word","page_number":314,"line_number":15,"text":"كُلَّ","translation":{"text":"প্রত্যেক","language_name":"bengali","language_id":20},"transliteration":{"text":"kulla","language_name":"english","language_id":38}},{"id":48958,"position":6,"audio_url":"wbw/020_050_006.mp3","char_type_name":"word","page_number":314,"line_number":15,"text":"شَىْءٍ","translation":{"text":"বস্তুকে","language_name":"bengali","language_id":20},"transliteration":{"text":"shayin","language_name":"english","language_id":38}},{"id":48959,"position":7,"audio_url":"wbw/020_050_007.mp3","char_type_name":"word","page_number":314,"line_number":15,"text":"خَلْقَهُۥ","translation":{"text":"তার সৃষ্টি কাঠামো","language_name":"bengali","language_id":20},"transliteration":{"text":"khalqahu","language_name":"english","language_id":38}},{"id":48960,"position":8,"audio_url":"wbw/020_050_008.mp3","char_type_name":"word","page_number":314,"line_number":15,"text":"ثُمَّ","translation":{"text":"এরপর","language_name":"bengali","language_id":20},"transliteration":{"text":"thumma","language_name":"english","language_id":38}},{"id":48961,"position":9,"audio_url":"wbw/020_050_009.mp3","char_type_name":"word","page_number":314,"line_number":15,"text":"هَدَىٰ","translation":{"text":"পথ দেখিয়েছেন\"","language_name":"bengali","language_id":20},"transliteration":{"text":"hadā","language_name":"english","language_id":38}},{"id":48962,"position":10,"audio_url":null,"char_type_name":"end","page_number":314,"line_number":15,"text":"٥٠","translation":{"text":"(৫০)","language_name":"bengali","language_id":20},"transliteration":{"text":null,"language_name":"english","language_id":38}}]}],"pagination":{"per_page":10,"current_page":5,"next_page":6,"total_pages":14,"total_records":135}}
