{"verses":[{"id":5801,"verse_number":1,"verse_key":"81:1","hizb_number":59,"rub_el_hizb_number":234,"ruku_number":525,"manzil_number":7,"sajdah_number":null,"page_number":586,"juz_number":30,"words":[{"id":695,"position":1,"audio_url":"wbw/081_001_001.mp3","verse_key":"81:1","verse_id":5801,"location":"81:1:1","text_uthmani":"إِذَا","qpc_uthmani_hafs":"إِذَا","char_type_name":"word","page_number":586,"line_number":4,"text":"إِذَا","translation":{"text":"যখন","language_name":"bengali","language_id":20},"transliteration":{"text":"idhā","language_name":"english","language_id":38}},{"id":696,"position":2,"audio_url":"wbw/081_001_002.mp3","verse_key":"81:1","verse_id":5801,"location":"81:1:2","text_uthmani":"ٱلشَّمْسُ","qpc_uthmani_hafs":"ٱلشَّمۡسُ","char_type_name":"word","page_number":586,"line_number":4,"text":"ٱلشَّمۡسُ","translation":{"text":"সূর্য","language_name":"bengali","language_id":20},"transliteration":{"text":"l-shamsu","language_name":"english","language_id":38}},{"id":697,"position":3,"audio_url":"wbw/081_001_003.mp3","verse_key":"81:1","verse_id":5801,"location":"81:1:3","text_uthmani":"كُوِّرَتْ","qpc_uthmani_hafs":"كُوِّرَتۡ","char_type_name":"word","page_number":586,"line_number":4,"text":"كُوِّرَتۡ","translation":{"text":"নিষ্প্রভ হবে","language_name":"bengali","language_id":20},"transliteration":{"text":"kuwwirat","language_name":"english","language_id":38}},{"id":698,"position":4,"audio_url":null,"verse_key":"81:1","verse_id":5801,"location":"81:1:4","text_uthmani":"١","qpc_uthmani_hafs":"١","char_type_name":"end","page_number":586,"line_number":4,"text":"١","translation":{"text":"(১)","language_name":"bengali","language_id":20},"transliteration":{"text":null,"language_name":"english","language_id":38}}]},{"id":5802,"verse_number":2,"verse_key":"81:2","hizb_number":59,"rub_el_hizb_number":234,"ruku_number":525,"manzil_number":7,"sajdah_number":null,"page_number":586,"juz_number":30,"words":[{"id":1722,"position":1,"audio_url":"wbw/081_002_001.mp3","verse_key":"81:2","verse_id":5802,"location":"81:2:1","text_uthmani":"وَإِذَا","qpc_uthmani_hafs":"وَإِذَا","char_type_name":"word","page_number":586,"line_number":4,"text":"وَإِذَا","translation":{"text":"এবং যখন","language_name":"bengali","language_id":20},"transliteration":{"text":"wa-idhā","language_name":"english","language_id":38}},{"id":1723,"position":2,"audio_url":"wbw/081_002_002.mp3","verse_key":"81:2","verse_id":5802,"location":"81:2:2","text_uthmani":"ٱلنُّجُومُ","qpc_uthmani_hafs":"ٱلنُّجُومُ","char_type_name":"word","page_number":586,"line_number":4,"text":"ٱلنُّجُومُ","translation":{"text":"তারকাগুলো","language_name":"bengali","language_id":20},"transliteration":{"text":"l-nujūmu","language_name":"english","language_id":38}},{"id":1724,"position":3,"audio_url":"wbw/081_002_003.mp3","verse_key":"81:2","verse_id":5802,"location":"81:2:3","text_uthmani":"ٱنكَدَرَتْ","qpc_uthmani_hafs":"ٱنكَدَرَتۡ","char_type_name":"word","page_number":586,"line_number":4,"text":"ٱنكَدَرَتۡ","translation":{"text":"খসে পড়বে","language_name":"bengali","language_id":20},"transliteration":{"text":"inkadarat","language_name":"english","language_id":38}},{"id":1725,"position":4,"audio_url":null,"verse_key":"81:2","verse_id":5802,"location":"81:2:4","text_uthmani":"٢","qpc_uthmani_hafs":"٢","char_type_name":"end","page_number":586,"line_number":4,"text":"٢","translation":{"text":"(২)","language_name":"bengali","language_id":20},"transliteration":{"text":null,"language_name":"english","language_id":38}}]},{"id":5803,"verse_number":3,"verse_key":"81:3","hizb_number":59,"rub_el_hizb_number":234,"ruku_number":525,"manzil_number":7,"sajdah_number":null,"page_number":586,"juz_number":30,"words":[{"id":2845,"position":1,"audio_url":"wbw/081_003_001.mp3","verse_key":"81:3","verse_id":5803,"location":"81:3:1","text_uthmani":"وَإِذَا","qpc_uthmani_hafs":"وَإِذَا","char_type_name":"word","page_number":586,"line_number":4,"text":"وَإِذَا","translation":{"text":"এবং যখন","language_name":"bengali","language_id":20},"transliteration":{"text":"wa-idhā","language_name":"english","language_id":38}},{"id":2846,"position":2,"audio_url":"wbw/081_003_002.mp3","verse_key":"81:3","verse_id":5803,"location":"81:3:2","text_uthmani":"ٱلْجِبَالُ","qpc_uthmani_hafs":"ٱلۡجِبَالُ","char_type_name":"word","page_number":586,"line_number":4,"text":"ٱلۡجِبَالُ","translation":{"text":"পাহাড়গুলো","language_name":"bengali","language_id":20},"transliteration":{"text":"l-jibālu","language_name":"english","language_id":38}},{"id":2847,"position":3,"audio_url":"wbw/081_003_003.mp3","verse_key":"81:3","verse_id":5803,"location":"81:3:3","text_uthmani":"سُيِّرَتْ","qpc_uthmani_hafs":"سُيِّرَتۡ","char_type_name":"word","page_number":586,"line_number":5,"text":"سُيِّرَتۡ","translation":{"text":"চালানো হবে","language_name":"bengali","language_id":20},"transliteration":{"text":"suyyirat","language_name":"english","language_id":38}},{"id":2848,"position":4,"audio_url":null,"verse_key":"81:3","verse_id":5803,"location":"81:3:4","text_uthmani":"٣","qpc_uthmani_hafs":"٣","char_type_name":"end","page_number":586,"line_number":5,"text":"٣","translation":{"text":"(৩)","language_name":"bengali","language_id":20},"transliteration":{"text":null,"language_name":"english","language_id":38}}]},{"id":5804,"verse_number":4,"verse_key":"81:4","hizb_number":59,"rub_el_hizb_number":234,"ruku_number":525,"manzil_number":7,"sajdah_number":null,"page_number":586,"juz_number":30,"words":[{"id":4210,"position":1,"audio_url":"wbw/081_004_001.mp3","verse_key":"81:4","verse_id":5804,"location":"81:4:1","text_uthmani":"وَإِذَا","qpc_uthmani_hafs":"وَإِذَا","char_type_name":"word","page_number":586,"line_number":5,"text":"وَإِذَا","translation":{"text":"এবং যখন","language_name":"bengali","language_id":20},"transliteration":{"text":"wa-idhā","language_name":"english","language_id":38}},{"id":4211,"position":2,"audio_url":"wbw/081_004_002.mp3","verse_key":"81:4","verse_id":5804,"location":"81:4:2","text_uthmani":"ٱلْعِشَارُ","qpc_uthmani_hafs":"ٱلۡعِشَارُ","char_type_name":"word","page_number":586,"line_number":5,"text":"ٱلۡعِشَارُ","translation":{"text":"পূর্ণ গর্ভবতী উট","language_name":"bengali","language_id":20},"transliteration":{"text":"l-ʿishāru","language_name":"english","language_id":38}},{"id":4212,"position":3,"audio_url":"wbw/081_004_003.mp3","verse_key":"81:4","verse_id":5804,"location":"81:4:3","text_uthmani":"عُطِّلَتْ","qpc_uthmani_hafs":"عُطِّلَتۡ","char_type_name":"word","page_number":586,"line_number":5,"text":"عُطِّلَتۡ","translation":{"text":"উপেক্ষিত হবে","language_name":"bengali","language_id":20},"transliteration":{"text":"ʿuṭṭilat","language_name":"english","language_id":38}},{"id":4213,"position":4,"audio_url":null,"verse_key":"81:4","verse_id":5804,"location":"81:4:4","text_uthmani":"٤","qpc_uthmani_hafs":"٤","char_type_name":"end","page_number":586,"line_number":5,"text":"٤","translation":{"text":"(৪)","language_name":"bengali","language_id":20},"transliteration":{"text":null,"language_name":"english","language_id":38}}]},{"id":5805,"verse_number":5,"verse_key":"81:5","hizb_number":59,"rub_el_hizb_number":234,"ruku_number":525,"manzil_number":7,"sajdah_number":null,"page_number":586,"juz_number":30,"words":[{"id":5469,"position":1,"audio_url":"wbw/081_005_001.mp3","verse_key":"81:5","verse_id":5805,"location":"81:5:1","text_uthmani":"وَإِذَا","qpc_uthmani_hafs":"وَإِذَا","char_type_name":"word","page_number":586,"line_number":5,"text":"وَإِذَا","translation":{"text":"ও যখন","language_name":"bengali","language_id":20},"transliteration":{"text":"wa-idhā","language_name":"english","language_id":38}},{"id":5470,"position":2,"audio_url":"wbw/081_005_002.mp3","verse_key":"81:5","verse_id":5805,"location":"81:5:2","text_uthmani":"ٱلْوُحُوشُ","qpc_uthmani_hafs":"ٱلۡوُحُوشُ","char_type_name":"word","page_number":586,"line_number":5,"text":"ٱلۡوُحُوشُ","translation":{"text":"বন্য পশুদের","language_name":"bengali","language_id":20},"transliteration":{"text":"l-wuḥūshu","language_name":"english","language_id":38}},{"id":5471,"position":3,"audio_url":"wbw/081_005_003.mp3","verse_key":"81:5","verse_id":5805,"location":"81:5:3","text_uthmani":"حُشِرَتْ","qpc_uthmani_hafs":"حُشِرَتۡ","char_type_name":"word","page_number":586,"line_number":5,"text":"حُشِرَتۡ","translation":{"text":"একত্র করা হবে","language_name":"bengali","language_id":20},"transliteration":{"text":"ḥushirat","language_name":"english","language_id":38}},{"id":5472,"position":4,"audio_url":null,"verse_key":"81:5","verse_id":5805,"location":"81:5:4","text_uthmani":"٥","qpc_uthmani_hafs":"٥","char_type_name":"end","page_number":586,"line_number":6,"text":"٥","translation":{"text":"(৫)","language_name":"bengali","language_id":20},"transliteration":{"text":null,"language_name":"english","language_id":38}}]},{"id":5806,"verse_number":6,"verse_key":"81:6","hizb_number":59,"rub_el_hizb_number":234,"ruku_number":525,"manzil_number":7,"sajdah_number":null,"page_number":586,"juz_number":30,"words":[{"id":6689,"position":1,"audio_url":"wbw/081_006_001.mp3","verse_key":"81:6","verse_id":5806,"location":"81:6:1","text_uthmani":"وَإِذَا","qpc_uthmani_hafs":"وَإِذَا","char_type_name":"word","page_number":586,"line_number":6,"text":"وَإِذَا","translation":{"text":"এবং যখন","language_name":"bengali","language_id":20},"transliteration":{"text":"wa-idhā","language_name":"english","language_id":38}},{"id":6690,"position":2,"audio_url":"wbw/081_006_002.mp3","verse_key":"81:6","verse_id":5806,"location":"81:6:2","text_uthmani":"ٱلْبِحَارُ","qpc_uthmani_hafs":"ٱلۡبِحَارُ","char_type_name":"word","page_number":586,"line_number":6,"text":"ٱلۡبِحَارُ","translation":{"text":"সাগরগুলো","language_name":"bengali","language_id":20},"transliteration":{"text":"l-biḥāru","language_name":"english","language_id":38}},{"id":6691,"position":3,"audio_url":"wbw/081_006_003.mp3","verse_key":"81:6","verse_id":5806,"location":"81:6:3","text_uthmani":"سُجِّرَتْ","qpc_uthmani_hafs":"سُجِّرَتۡ","char_type_name":"word","page_number":586,"line_number":6,"text":"سُجِّرَتۡ","translation":{"text":"প্রজ্বলিত করা হবে","language_name":"bengali","language_id":20},"transliteration":{"text":"sujjirat","language_name":"english","language_id":38}},{"id":6692,"position":4,"audio_url":null,"verse_key":"81:6","verse_id":5806,"location":"81:6:4","text_uthmani":"٦","qpc_uthmani_hafs":"٦","char_type_name":"end","page_number":586,"line_number":6,"text":"٦","translation":{"text":"(৬)","language_name":"bengali","language_id":20},"transliteration":{"text":null,"language_name":"english","language_id":38}}]},{"id":5807,"verse_number":7,"verse_key":"81:7","hizb_number":59,"rub_el_hizb_number":234,"ruku_number":525,"manzil_number":7,"sajdah_number":null,"page_number":586,"juz_number":30,"words":[{"id":8052,"position":1,"audio_url":"wbw/081_007_001.mp3","verse_key":"81:7","verse_id":5807,"location":"81:7:1","text_uthmani":"وَإِذَا","qpc_uthmani_hafs":"وَإِذَا","char_type_name":"word","page_number":586,"line_number":6,"text":"وَإِذَا","translation":{"text":"এবং যখন","language_name":"bengali","language_id":20},"transliteration":{"text":"wa-idhā","language_name":"english","language_id":38}},{"id":8053,"position":2,"audio_url":"wbw/081_007_002.mp3","verse_key":"81:7","verse_id":5807,"location":"81:7:2","text_uthmani":"ٱلنُّفُوسُ","qpc_uthmani_hafs":"ٱلنُّفُوسُ","char_type_name":"word","page_number":586,"line_number":6,"text":"ٱلنُّفُوسُ","translation":{"text":"আত্মাগুলোকে","language_name":"bengali","language_id":20},"transliteration":{"text":"l-nufūsu","language_name":"english","language_id":38}},{"id":8054,"position":3,"audio_url":"wbw/081_007_003.mp3","verse_key":"81:7","verse_id":5807,"location":"81:7:3","text_uthmani":"زُوِّجَتْ","qpc_uthmani_hafs":"زُوِّجَتۡ","char_type_name":"word","page_number":586,"line_number":6,"text":"زُوِّجَتۡ","translation":{"text":"জুড়ে দেয়া হবে (শরীরের সাথে)","language_name":"bengali","language_id":20},"transliteration":{"text":"zuwwijat","language_name":"english","language_id":38}},{"id":8055,"position":4,"audio_url":null,"verse_key":"81:7","verse_id":5807,"location":"81:7:4","text_uthmani":"٧","qpc_uthmani_hafs":"٧","char_type_name":"end","page_number":586,"line_number":6,"text":"٧","translation":{"text":"(৭)","language_name":"bengali","language_id":20},"transliteration":{"text":null,"language_name":"english","language_id":38}}]},{"id":5808,"verse_number":8,"verse_key":"81:8","hizb_number":59,"rub_el_hizb_number":234,"ruku_number":525,"manzil_number":7,"sajdah_number":null,"page_number":586,"juz_number":30,"words":[{"id":9203,"position":1,"audio_url":"wbw/081_008_001.mp3","verse_key":"81:8","verse_id":5808,"location":"81:8:1","text_uthmani":"وَإِذَا","qpc_uthmani_hafs":"وَإِذَا","char_type_name":"word","page_number":586,"line_number":6,"text":"وَإِذَا","translation":{"text":"এবং যখন","language_name":"bengali","language_id":20},"transliteration":{"text":"wa-idhā","language_name":"english","language_id":38}},{"id":9204,"position":2,"audio_url":"wbw/081_008_002.mp3","verse_key":"81:8","verse_id":5808,"location":"81:8:2","text_uthmani":"ٱلْمَوْءُۥدَةُ","qpc_uthmani_hafs":"ٱلۡمَوۡءُۥدَةُ","char_type_name":"word","page_number":586,"line_number":7,"text":"ٱلۡمَوۡءُۥدَةُ","translation":{"text":"জীবন্ত কবর দেয়া কন্যাকে","language_name":"bengali","language_id":20},"transliteration":{"text":"l-mawūdatu","language_name":"english","language_id":38}},{"id":9205,"position":3,"audio_url":"wbw/081_008_003.mp3","verse_key":"81:8","verse_id":5808,"location":"81:8:3","text_uthmani":"سُئِلَتْ","qpc_uthmani_hafs":"سُئِلَتۡ","char_type_name":"word","page_number":586,"line_number":7,"text":"سُئِلَتۡ","translation":{"text":"জিজ্ঞাসা করা হবে","language_name":"bengali","language_id":20},"transliteration":{"text":"su-ilat","language_name":"english","language_id":38}},{"id":9206,"position":4,"audio_url":null,"verse_key":"81:8","verse_id":5808,"location":"81:8:4","text_uthmani":"٨","qpc_uthmani_hafs":"٨","char_type_name":"end","page_number":586,"line_number":7,"text":"٨","translation":{"text":"(৮)","language_name":"bengali","language_id":20},"transliteration":{"text":null,"language_name":"english","language_id":38}}]},{"id":5809,"verse_number":9,"verse_key":"81:9","hizb_number":59,"rub_el_hizb_number":234,"ruku_number":525,"manzil_number":7,"sajdah_number":null,"page_number":586,"juz_number":30,"words":[{"id":10421,"position":1,"audio_url":"wbw/081_009_001.mp3","verse_key":"81:9","verse_id":5809,"location":"81:9:1","text_uthmani":"بِأَىِّ","qpc_uthmani_hafs":"بِأَيِّ","char_type_name":"word","page_number":586,"line_number":7,"text":"بِأَيِّ","translation":{"text":"কোন কারণে","language_name":"bengali","language_id":20},"transliteration":{"text":"bi-ayyi","language_name":"english","language_id":38}},{"id":10422,"position":2,"audio_url":"wbw/081_009_002.mp3","verse_key":"81:9","verse_id":5809,"location":"81:9:2","text_uthmani":"ذَنۢبٍۢ","qpc_uthmani_hafs":"ذَنۢبٖ","char_type_name":"word","page_number":586,"line_number":7,"text":"ذَنۢبٖ","translation":{"text":"দোষের","language_name":"bengali","language_id":20},"transliteration":{"text":"dhanbin","language_name":"english","language_id":38}},{"id":10423,"position":3,"audio_url":"wbw/081_009_003.mp3","verse_key":"81:9","verse_id":5809,"location":"81:9:3","text_uthmani":"قُتِلَتْ","qpc_uthmani_hafs":"قُتِلَتۡ","char_type_name":"word","page_number":586,"line_number":7,"text":"قُتِلَتۡ","translation":{"text":"তাকে হত্যা করা হয়েছে","language_name":"bengali","language_id":20},"transliteration":{"text":"qutilat","language_name":"english","language_id":38}},{"id":10424,"position":4,"audio_url":null,"verse_key":"81:9","verse_id":5809,"location":"81:9:4","text_uthmani":"٩","qpc_uthmani_hafs":"٩","char_type_name":"end","page_number":586,"line_number":7,"text":"٩","translation":{"text":"(৯)","language_name":"bengali","language_id":20},"transliteration":{"text":null,"language_name":"english","language_id":38}}]},{"id":5810,"verse_number":10,"verse_key":"81:10","hizb_number":59,"rub_el_hizb_number":234,"ruku_number":525,"manzil_number":7,"sajdah_number":null,"page_number":586,"juz_number":30,"words":[{"id":11040,"position":1,"audio_url":"wbw/081_010_001.mp3","verse_key":"81:10","verse_id":5810,"location":"81:10:1","text_uthmani":"وَإِذَا","qpc_uthmani_hafs":"وَإِذَا","char_type_name":"word","page_number":586,"line_number":7,"text":"وَإِذَا","translation":{"text":"এবং যখন","language_name":"bengali","language_id":20},"transliteration":{"text":"wa-idhā","language_name":"english","language_id":38}},{"id":11041,"position":2,"audio_url":"wbw/081_010_002.mp3","verse_key":"81:10","verse_id":5810,"location":"81:10:2","text_uthmani":"ٱلصُّحُفُ","qpc_uthmani_hafs":"ٱلصُّحُفُ","char_type_name":"word","page_number":586,"line_number":7,"text":"ٱلصُّحُفُ","translation":{"text":"আমলনামাগুলো","language_name":"bengali","language_id":20},"transliteration":{"text":"l-ṣuḥufu","language_name":"english","language_id":38}},{"id":11042,"position":3,"audio_url":"wbw/081_010_003.mp3","verse_key":"81:10","verse_id":5810,"location":"81:10:3","text_uthmani":"نُشِرَتْ","qpc_uthmani_hafs":"نُشِرَتۡ","char_type_name":"word","page_number":586,"line_number":7,"text":"نُشِرَتۡ","translation":{"text":"উন্মোচিত হবে","language_name":"bengali","language_id":20},"transliteration":{"text":"nushirat","language_name":"english","language_id":38}},{"id":11043,"position":4,"audio_url":null,"verse_key":"81:10","verse_id":5810,"location":"81:10:4","text_uthmani":"١٠","qpc_uthmani_hafs":"١٠","char_type_name":"end","page_number":586,"line_number":8,"text":"١٠","translation":{"text":"(১০)","language_name":"bengali","language_id":20},"transliteration":{"text":null,"language_name":"english","language_id":38}}]}],"pagination":{"per_page":10,"current_page":1,"next_page":2,"total_pages":3,"total_records":29}}
