{"verses":[{"id":5821,"verse_number":21,"verse_key":"81:21","hizb_number":59,"rub_el_hizb_number":234,"ruku_number":525,"manzil_number":7,"sajdah_number":null,"page_number":586,"juz_number":30,"words":[{"id":23835,"position":1,"audio_url":"wbw/081_021_001.mp3","char_type_name":"word","page_number":586,"line_number":11,"text":"مُّطَاعٍۢ","translation":{"text":"মান্য করা হয়","language_name":"bengali","language_id":20},"transliteration":{"text":"muṭāʿin","language_name":"english","language_id":38}},{"id":23836,"position":2,"audio_url":"wbw/081_021_002.mp3","char_type_name":"word","page_number":586,"line_number":12,"text":"ثَمَّ","translation":{"text":"সেখানে","language_name":"bengali","language_id":20},"transliteration":{"text":"thamma","language_name":"english","language_id":38}},{"id":23837,"position":3,"audio_url":"wbw/081_021_003.mp3","char_type_name":"word","page_number":586,"line_number":12,"text":"أَمِينٍۢ","translation":{"text":"(এবং সে) বিশ্বস্ত","language_name":"bengali","language_id":20},"transliteration":{"text":"amīnin","language_name":"english","language_id":38}},{"id":23838,"position":4,"audio_url":null,"char_type_name":"end","page_number":586,"line_number":12,"text":"٢١","translation":{"text":"(২১)","language_name":"bengali","language_id":20},"transliteration":{"text":null,"language_name":"english","language_id":38}}]},{"id":5822,"verse_number":22,"verse_key":"81:22","hizb_number":59,"rub_el_hizb_number":234,"ruku_number":525,"manzil_number":7,"sajdah_number":null,"page_number":586,"juz_number":30,"words":[{"id":25055,"position":1,"audio_url":"wbw/081_022_001.mp3","char_type_name":"word","page_number":586,"line_number":12,"text":"وَمَا","translation":{"text":"এবং না","language_name":"bengali","language_id":20},"transliteration":{"text":"wamā","language_name":"english","language_id":38}},{"id":25056,"position":2,"audio_url":"wbw/081_022_002.mp3","char_type_name":"word","page_number":586,"line_number":12,"text":"صَاحِبُكُم","translation":{"text":"তোমাদের সাথী","language_name":"bengali","language_id":20},"transliteration":{"text":"ṣāḥibukum","language_name":"english","language_id":38}},{"id":25057,"position":3,"audio_url":"wbw/081_022_003.mp3","char_type_name":"word","page_number":586,"line_number":12,"text":"بِمَجْنُونٍۢ","translation":{"text":"পাগল","language_name":"bengali","language_id":20},"transliteration":{"text":"bimajnūnin","language_name":"english","language_id":38}},{"id":25058,"position":4,"audio_url":null,"char_type_name":"end","page_number":586,"line_number":12,"text":"٢٢","translation":{"text":"(২২)","language_name":"bengali","language_id":20},"transliteration":{"text":null,"language_name":"english","language_id":38}}]},{"id":5823,"verse_number":23,"verse_key":"81:23","hizb_number":59,"rub_el_hizb_number":234,"ruku_number":525,"manzil_number":7,"sajdah_number":null,"page_number":586,"juz_number":30,"words":[{"id":26318,"position":1,"audio_url":"wbw/081_023_001.mp3","char_type_name":"word","page_number":586,"line_number":12,"text":"وَلَقَدْ","translation":{"text":"এবং নিশ্চয়ই সে","language_name":"bengali","language_id":20},"transliteration":{"text":"walaqad","language_name":"english","language_id":38}},{"id":26319,"position":2,"audio_url":"wbw/081_023_002.mp3","char_type_name":"word","page_number":586,"line_number":12,"text":"رَءَاهُ","translation":{"text":"তাকে দেখেছে","language_name":"bengali","language_id":20},"transliteration":{"text":"raāhu","language_name":"english","language_id":38}},{"id":26320,"position":3,"audio_url":"wbw/081_023_003.mp3","char_type_name":"word","page_number":586,"line_number":12,"text":"بِٱلْأُفُقِ","translation":{"text":"দিগন্তে","language_name":"bengali","language_id":20},"transliteration":{"text":"bil-ufuqi","language_name":"english","language_id":38}},{"id":26321,"position":4,"audio_url":"wbw/081_023_004.mp3","char_type_name":"word","page_number":586,"line_number":12,"text":"ٱلْمُبِينِ","translation":{"text":"সুস্পষ্ট","language_name":"bengali","language_id":20},"transliteration":{"text":"l-mubīni","language_name":"english","language_id":38}},{"id":26322,"position":5,"audio_url":null,"char_type_name":"end","page_number":586,"line_number":13,"text":"٢٣","translation":{"text":"(২৩)","language_name":"bengali","language_id":20},"transliteration":{"text":null,"language_name":"english","language_id":38}}]},{"id":5824,"verse_number":24,"verse_key":"81:24","hizb_number":59,"rub_el_hizb_number":234,"ruku_number":525,"manzil_number":7,"sajdah_number":null,"page_number":586,"juz_number":30,"words":[{"id":27140,"position":1,"audio_url":"wbw/081_024_001.mp3","char_type_name":"word","page_number":586,"line_number":13,"text":"وَمَا","translation":{"text":"এবং না","language_name":"bengali","language_id":20},"transliteration":{"text":"wamā","language_name":"english","language_id":38}},{"id":27141,"position":2,"audio_url":"wbw/081_024_002.mp3","char_type_name":"word","page_number":586,"line_number":13,"text":"هُوَ","translation":{"text":"সে","language_name":"bengali","language_id":20},"transliteration":{"text":"huwa","language_name":"english","language_id":38}},{"id":27142,"position":3,"audio_url":"wbw/081_024_003.mp3","char_type_name":"word","page_number":586,"line_number":13,"text":"عَلَى","translation":{"text":"ব্যাপারে","language_name":"bengali","language_id":20},"transliteration":{"text":"ʿalā","language_name":"english","language_id":38}},{"id":27143,"position":4,"audio_url":"wbw/081_024_004.mp3","char_type_name":"word","page_number":586,"line_number":13,"text":"ٱلْغَيْبِ","translation":{"text":"অদৃশ্যের","language_name":"bengali","language_id":20},"transliteration":{"text":"l-ghaybi","language_name":"english","language_id":38}},{"id":27144,"position":5,"audio_url":"wbw/081_024_005.mp3","char_type_name":"word","page_number":586,"line_number":13,"text":"بِضَنِينٍۢ","translation":{"text":"কৃপণ","language_name":"bengali","language_id":20},"transliteration":{"text":"biḍanīnin","language_name":"english","language_id":38}},{"id":27145,"position":6,"audio_url":null,"char_type_name":"end","page_number":586,"line_number":13,"text":"٢٤","translation":{"text":"(২৪)","language_name":"bengali","language_id":20},"transliteration":{"text":null,"language_name":"english","language_id":38}}]},{"id":5825,"verse_number":25,"verse_key":"81:25","hizb_number":59,"rub_el_hizb_number":234,"ruku_number":525,"manzil_number":7,"sajdah_number":null,"page_number":586,"juz_number":30,"words":[{"id":28153,"position":1,"audio_url":"wbw/081_025_001.mp3","char_type_name":"word","page_number":586,"line_number":13,"text":"وَمَا","translation":{"text":"এবং না","language_name":"bengali","language_id":20},"transliteration":{"text":"wamā","language_name":"english","language_id":38}},{"id":28154,"position":2,"audio_url":"wbw/081_025_002.mp3","char_type_name":"word","page_number":586,"line_number":13,"text":"هُوَ","translation":{"text":"তা","language_name":"bengali","language_id":20},"transliteration":{"text":"huwa","language_name":"english","language_id":38}},{"id":28155,"position":3,"audio_url":"wbw/081_025_003.mp3","char_type_name":"word","page_number":586,"line_number":13,"text":"بِقَوْلِ","translation":{"text":"কথা","language_name":"bengali","language_id":20},"transliteration":{"text":"biqawli","language_name":"english","language_id":38}},{"id":28156,"position":4,"audio_url":"wbw/081_025_004.mp3","char_type_name":"word","page_number":586,"line_number":13,"text":"شَيْطَـٰنٍۢ","translation":{"text":"শয়তানের","language_name":"bengali","language_id":20},"transliteration":{"text":"shayṭānin","language_name":"english","language_id":38}},{"id":28157,"position":5,"audio_url":"wbw/081_025_005.mp3","char_type_name":"word","page_number":586,"line_number":13,"text":"رَّجِيمٍۢ","translation":{"text":"অভিশপ্ত","language_name":"bengali","language_id":20},"transliteration":{"text":"rajīmin","language_name":"english","language_id":38}},{"id":28158,"position":6,"audio_url":null,"char_type_name":"end","page_number":586,"line_number":13,"text":"٢٥","translation":{"text":"(২৫)","language_name":"bengali","language_id":20},"transliteration":{"text":null,"language_name":"english","language_id":38}}]},{"id":5826,"verse_number":26,"verse_key":"81:26","hizb_number":59,"rub_el_hizb_number":234,"ruku_number":525,"manzil_number":7,"sajdah_number":null,"page_number":586,"juz_number":30,"words":[{"id":29117,"position":1,"audio_url":"wbw/081_026_001.mp3","char_type_name":"word","page_number":586,"line_number":14,"text":"فَأَيْنَ","translation":{"text":"অতএব কোথায়","language_name":"bengali","language_id":20},"transliteration":{"text":"fa-ayna","language_name":"english","language_id":38}},{"id":29118,"position":2,"audio_url":"wbw/081_026_002.mp3","char_type_name":"word","page_number":586,"line_number":14,"text":"تَذْهَبُونَ","translation":{"text":"তোমরা চলেছ","language_name":"bengali","language_id":20},"transliteration":{"text":"tadhhabūna","language_name":"english","language_id":38}},{"id":29119,"position":3,"audio_url":null,"char_type_name":"end","page_number":586,"line_number":14,"text":"٢٦","translation":{"text":"(২৬)","language_name":"bengali","language_id":20},"transliteration":{"text":null,"language_name":"english","language_id":38}}]},{"id":5827,"verse_number":27,"verse_key":"81:27","hizb_number":59,"rub_el_hizb_number":234,"ruku_number":525,"manzil_number":7,"sajdah_number":null,"page_number":586,"juz_number":30,"words":[{"id":30297,"position":1,"audio_url":"wbw/081_027_001.mp3","char_type_name":"word","page_number":586,"line_number":14,"text":"إِنْ","translation":{"text":"নয়","language_name":"bengali","language_id":20},"transliteration":{"text":"in","language_name":"english","language_id":38}},{"id":30298,"position":2,"audio_url":"wbw/081_027_002.mp3","char_type_name":"word","page_number":586,"line_number":14,"text":"هُوَ","translation":{"text":"তা","language_name":"bengali","language_id":20},"transliteration":{"text":"huwa","language_name":"english","language_id":38}},{"id":30299,"position":3,"audio_url":"wbw/081_027_003.mp3","char_type_name":"word","page_number":586,"line_number":14,"text":"إِلَّا","translation":{"text":"এ ছাড়া","language_name":"bengali","language_id":20},"transliteration":{"text":"illā","language_name":"english","language_id":38}},{"id":30300,"position":4,"audio_url":"wbw/081_027_004.mp3","char_type_name":"word","page_number":586,"line_number":14,"text":"ذِكْرٌۭ","translation":{"text":"উপদেশ","language_name":"bengali","language_id":20},"transliteration":{"text":"dhik'run","language_name":"english","language_id":38}},{"id":30301,"position":5,"audio_url":"wbw/081_027_005.mp3","char_type_name":"word","page_number":586,"line_number":14,"text":"لِّلْعَـٰلَمِينَ","translation":{"text":"বিশ্ব-জগতের জন্যে","language_name":"bengali","language_id":20},"transliteration":{"text":"lil'ʿālamīna","language_name":"english","language_id":38}},{"id":30302,"position":6,"audio_url":null,"char_type_name":"end","page_number":586,"line_number":14,"text":"٢٧","translation":{"text":"(২৭)","language_name":"bengali","language_id":20},"transliteration":{"text":null,"language_name":"english","language_id":38}}]},{"id":5828,"verse_number":28,"verse_key":"81:28","hizb_number":59,"rub_el_hizb_number":234,"ruku_number":525,"manzil_number":7,"sajdah_number":null,"page_number":586,"juz_number":30,"words":[{"id":31325,"position":1,"audio_url":"wbw/081_028_001.mp3","char_type_name":"word","page_number":586,"line_number":14,"text":"لِمَن","translation":{"text":"তার জন্যে","language_name":"bengali","language_id":20},"transliteration":{"text":"liman","language_name":"english","language_id":38}},{"id":31326,"position":2,"audio_url":"wbw/081_028_002.mp3","char_type_name":"word","page_number":586,"line_number":14,"text":"شَآءَ","translation":{"text":"যে চায়","language_name":"bengali","language_id":20},"transliteration":{"text":"shāa","language_name":"english","language_id":38}},{"id":31327,"position":3,"audio_url":"wbw/081_028_003.mp3","char_type_name":"word","page_number":586,"line_number":14,"text":"مِنكُمْ","translation":{"text":"তোমাদের মধ্যে","language_name":"bengali","language_id":20},"transliteration":{"text":"minkum","language_name":"english","language_id":38}},{"id":31328,"position":4,"audio_url":"wbw/081_028_004.mp3","char_type_name":"word","page_number":586,"line_number":14,"text":"أَن","translation":{"text":"যে","language_name":"bengali","language_id":20},"transliteration":{"text":"an","language_name":"english","language_id":38}},{"id":31329,"position":5,"audio_url":"wbw/081_028_005.mp3","char_type_name":"word","page_number":586,"line_number":15,"text":"يَسْتَقِيمَ","translation":{"text":"সোজা চলতে","language_name":"bengali","language_id":20},"transliteration":{"text":"yastaqīma","language_name":"english","language_id":38}},{"id":31330,"position":6,"audio_url":null,"char_type_name":"end","page_number":586,"line_number":15,"text":"٢٨","translation":{"text":"(২৮)","language_name":"bengali","language_id":20},"transliteration":{"text":null,"language_name":"english","language_id":38}}]},{"id":5829,"verse_number":29,"verse_key":"81:29","hizb_number":59,"rub_el_hizb_number":234,"ruku_number":525,"manzil_number":7,"sajdah_number":null,"page_number":586,"juz_number":30,"words":[{"id":32049,"position":1,"audio_url":"wbw/081_029_001.mp3","char_type_name":"word","page_number":586,"line_number":15,"text":"وَمَا","translation":{"text":"এবং না","language_name":"bengali","language_id":20},"transliteration":{"text":"wamā","language_name":"english","language_id":38}},{"id":32050,"position":2,"audio_url":"wbw/081_029_002.mp3","char_type_name":"word","page_number":586,"line_number":15,"text":"تَشَآءُونَ","translation":{"text":"(যা) তোমরা চাও (তা কিছু হয়)","language_name":"bengali","language_id":20},"transliteration":{"text":"tashāūna","language_name":"english","language_id":38}},{"id":32051,"position":3,"audio_url":"wbw/081_029_003.mp3","char_type_name":"word","page_number":586,"line_number":15,"text":"إِلَّآ","translation":{"text":"এ ছাড়া","language_name":"bengali","language_id":20},"transliteration":{"text":"illā","language_name":"english","language_id":38}},{"id":32052,"position":4,"audio_url":"wbw/081_029_004.mp3","char_type_name":"word","page_number":586,"line_number":15,"text":"أَن","translation":{"text":"যে","language_name":"bengali","language_id":20},"transliteration":{"text":"an","language_name":"english","language_id":38}},{"id":32053,"position":5,"audio_url":"wbw/081_029_005.mp3","char_type_name":"word","page_number":586,"line_number":15,"text":"يَشَآءَ","translation":{"text":"চান","language_name":"bengali","language_id":20},"transliteration":{"text":"yashāa","language_name":"english","language_id":38}},{"id":32054,"position":6,"audio_url":"wbw/081_029_006.mp3","char_type_name":"word","page_number":586,"line_number":15,"text":"ٱللَّهُ","translation":{"text":"আল্লাহ","language_name":"bengali","language_id":20},"transliteration":{"text":"l-lahu","language_name":"english","language_id":38}},{"id":32055,"position":7,"audio_url":"wbw/081_029_007.mp3","char_type_name":"word","page_number":586,"line_number":15,"text":"رَبُّ","translation":{"text":"রব","language_name":"bengali","language_id":20},"transliteration":{"text":"rabbu","language_name":"english","language_id":38}},{"id":32056,"position":8,"audio_url":"wbw/081_029_008.mp3","char_type_name":"word","page_number":586,"line_number":15,"text":"ٱلْعَـٰلَمِينَ","translation":{"text":"জগতসমূহের","language_name":"bengali","language_id":20},"transliteration":{"text":"l-ʿālamīna","language_name":"english","language_id":38}},{"id":32057,"position":9,"audio_url":null,"char_type_name":"end","page_number":586,"line_number":15,"text":"٢٩","translation":{"text":"(২৯)","language_name":"bengali","language_id":20},"transliteration":{"text":null,"language_name":"english","language_id":38}}]}],"pagination":{"per_page":10,"current_page":3,"next_page":null,"total_pages":3,"total_records":29}}
