{"verses":[{"id":3879,"verse_number":91,"verse_key":"37:91","hizb_number":45,"rub_el_hizb_number":180,"ruku_number":390,"manzil_number":6,"sajdah_number":null,"page_number":449,"juz_number":23,"words":[{"id":68563,"position":1,"audio_url":"wbw/037_091_001.mp3","char_type_name":"word","page_number":449,"line_number":7,"text":"فَرَاغَ","translation":{"text":"সে অতঃপর চুপিসারে  গেলো","language_name":"bengali","language_id":20},"transliteration":{"text":"farāgha","language_name":"english","language_id":38}},{"id":68564,"position":2,"audio_url":"wbw/037_091_002.mp3","char_type_name":"word","page_number":449,"line_number":7,"text":"إِلَىٰٓ","translation":{"text":"দিকে","language_name":"bengali","language_id":20},"transliteration":{"text":"ilā","language_name":"english","language_id":38}},{"id":68565,"position":3,"audio_url":"wbw/037_091_003.mp3","char_type_name":"word","page_number":449,"line_number":7,"text":"ءَالِهَتِهِمْ","translation":{"text":"তাদের দেবতাগুলোর","language_name":"bengali","language_id":20},"transliteration":{"text":"ālihatihim","language_name":"english","language_id":38}},{"id":68566,"position":4,"audio_url":"wbw/037_091_004.mp3","char_type_name":"word","page_number":449,"line_number":8,"text":"فَقَالَ","translation":{"text":"অতঃপর বললো","language_name":"bengali","language_id":20},"transliteration":{"text":"faqāla","language_name":"english","language_id":38}},{"id":68567,"position":5,"audio_url":"wbw/037_091_005.mp3","char_type_name":"word","page_number":449,"line_number":8,"text":"أَلَا","translation":{"text":"\"কেন না","language_name":"bengali","language_id":20},"transliteration":{"text":"alā","language_name":"english","language_id":38}},{"id":68568,"position":6,"audio_url":"wbw/037_091_006.mp3","char_type_name":"word","page_number":449,"line_number":8,"text":"تَأْكُلُونَ","translation":{"text":"তোমরা খাচ্ছো","language_name":"bengali","language_id":20},"transliteration":{"text":"takulūna","language_name":"english","language_id":38}},{"id":68569,"position":7,"audio_url":null,"char_type_name":"end","page_number":449,"line_number":8,"text":"٩١","translation":{"text":"(৯১)","language_name":"bengali","language_id":20},"transliteration":{"text":null,"language_name":"english","language_id":38}}]},{"id":3880,"verse_number":92,"verse_key":"37:92","hizb_number":45,"rub_el_hizb_number":180,"ruku_number":390,"manzil_number":6,"sajdah_number":null,"page_number":449,"juz_number":23,"words":[{"id":68613,"position":1,"audio_url":"wbw/037_092_001.mp3","char_type_name":"word","page_number":449,"line_number":8,"text":"مَا","translation":{"text":"কি","language_name":"bengali","language_id":20},"transliteration":{"text":"mā","language_name":"english","language_id":38}},{"id":68614,"position":2,"audio_url":"wbw/037_092_002.mp3","char_type_name":"word","page_number":449,"line_number":8,"text":"لَكُمْ","translation":{"text":"তোমাদের হয়েছে","language_name":"bengali","language_id":20},"transliteration":{"text":"lakum","language_name":"english","language_id":38}},{"id":68615,"position":3,"audio_url":"wbw/037_092_003.mp3","char_type_name":"word","page_number":449,"line_number":8,"text":"لَا","translation":{"text":"না","language_name":"bengali","language_id":20},"transliteration":{"text":"lā","language_name":"english","language_id":38}},{"id":68616,"position":4,"audio_url":"wbw/037_092_004.mp3","char_type_name":"word","page_number":449,"line_number":8,"text":"تَنطِقُونَ","translation":{"text":"তোমরা কথা বলো\"","language_name":"bengali","language_id":20},"transliteration":{"text":"tanṭiqūna","language_name":"english","language_id":38}},{"id":68617,"position":5,"audio_url":null,"char_type_name":"end","page_number":449,"line_number":8,"text":"٩٢","translation":{"text":"(৯২)","language_name":"bengali","language_id":20},"transliteration":{"text":null,"language_name":"english","language_id":38}}]},{"id":3881,"verse_number":93,"verse_key":"37:93","hizb_number":45,"rub_el_hizb_number":180,"ruku_number":390,"manzil_number":6,"sajdah_number":null,"page_number":449,"juz_number":23,"words":[{"id":68938,"position":1,"audio_url":"wbw/037_093_001.mp3","char_type_name":"word","page_number":449,"line_number":8,"text":"فَرَاغَ","translation":{"text":"সে অতঃপর ঝাঁপিয়ে পড়লো","language_name":"bengali","language_id":20},"transliteration":{"text":"farāgha","language_name":"english","language_id":38}},{"id":68939,"position":2,"audio_url":"wbw/037_093_002.mp3","char_type_name":"word","page_number":449,"line_number":8,"text":"عَلَيْهِمْ","translation":{"text":"তাদের উপর","language_name":"bengali","language_id":20},"transliteration":{"text":"ʿalayhim","language_name":"english","language_id":38}},{"id":68940,"position":3,"audio_url":"wbw/037_093_003.mp3","char_type_name":"word","page_number":449,"line_number":8,"text":"ضَرْبًۢا","translation":{"text":"আঘাত","language_name":"bengali","language_id":20},"transliteration":{"text":"ḍarban","language_name":"english","language_id":38}},{"id":68941,"position":4,"audio_url":"wbw/037_093_004.mp3","char_type_name":"word","page_number":449,"line_number":9,"text":"بِٱلْيَمِينِ","translation":{"text":"দিয়ে ডান হাত","language_name":"bengali","language_id":20},"transliteration":{"text":"bil-yamīni","language_name":"english","language_id":38}},{"id":68942,"position":5,"audio_url":null,"char_type_name":"end","page_number":449,"line_number":9,"text":"٩٣","translation":{"text":"(৯৩)","language_name":"bengali","language_id":20},"transliteration":{"text":null,"language_name":"english","language_id":38}}]},{"id":3882,"verse_number":94,"verse_key":"37:94","hizb_number":45,"rub_el_hizb_number":180,"ruku_number":390,"manzil_number":6,"sajdah_number":null,"page_number":449,"juz_number":23,"words":[{"id":69660,"position":1,"audio_url":"wbw/037_094_001.mp3","char_type_name":"word","page_number":449,"line_number":9,"text":"فَأَقْبَلُوٓا۟","translation":{"text":"তারা অতঃপর এগিয়ে এলো","language_name":"bengali","language_id":20},"transliteration":{"text":"fa-aqbalū","language_name":"english","language_id":38}},{"id":69661,"position":2,"audio_url":"wbw/037_094_002.mp3","char_type_name":"word","page_number":449,"line_number":9,"text":"إِلَيْهِ","translation":{"text":"তার দিকে","language_name":"bengali","language_id":20},"transliteration":{"text":"ilayhi","language_name":"english","language_id":38}},{"id":69662,"position":3,"audio_url":"wbw/037_094_003.mp3","char_type_name":"word","page_number":449,"line_number":9,"text":"يَزِفُّونَ","translation":{"text":"ছুটে","language_name":"bengali","language_id":20},"transliteration":{"text":"yaziffūna","language_name":"english","language_id":38}},{"id":69663,"position":4,"audio_url":null,"char_type_name":"end","page_number":449,"line_number":9,"text":"٩٤","translation":{"text":"(৯৪)","language_name":"bengali","language_id":20},"transliteration":{"text":null,"language_name":"english","language_id":38}}]},{"id":3883,"verse_number":95,"verse_key":"37:95","hizb_number":45,"rub_el_hizb_number":180,"ruku_number":390,"manzil_number":6,"sajdah_number":null,"page_number":449,"juz_number":23,"words":[{"id":69958,"position":1,"audio_url":"wbw/037_095_001.mp3","char_type_name":"word","page_number":449,"line_number":9,"text":"قَالَ","translation":{"text":"সে বললো","language_name":"bengali","language_id":20},"transliteration":{"text":"qāla","language_name":"english","language_id":38}},{"id":69959,"position":2,"audio_url":"wbw/037_095_002.mp3","char_type_name":"word","page_number":449,"line_number":9,"text":"أَتَعْبُدُونَ","translation":{"text":"\"তোমরা পূজা করো কি","language_name":"bengali","language_id":20},"transliteration":{"text":"ataʿbudūna","language_name":"english","language_id":38}},{"id":69960,"position":3,"audio_url":"wbw/037_095_003.mp3","char_type_name":"word","page_number":449,"line_number":9,"text":"مَا","translation":{"text":"যাকে","language_name":"bengali","language_id":20},"transliteration":{"text":"mā","language_name":"english","language_id":38}},{"id":69961,"position":4,"audio_url":"wbw/037_095_004.mp3","char_type_name":"word","page_number":449,"line_number":9,"text":"تَنْحِتُونَ","translation":{"text":"তোমরা খোদাই করে তৈরী কর","language_name":"bengali","language_id":20},"transliteration":{"text":"tanḥitūna","language_name":"english","language_id":38}},{"id":69962,"position":5,"audio_url":null,"char_type_name":"end","page_number":449,"line_number":10,"text":"٩٥","translation":{"text":"(৯৫)","language_name":"bengali","language_id":20},"transliteration":{"text":null,"language_name":"english","language_id":38}}]},{"id":3884,"verse_number":96,"verse_key":"37:96","hizb_number":45,"rub_el_hizb_number":180,"ruku_number":390,"manzil_number":6,"sajdah_number":null,"page_number":449,"juz_number":23,"words":[{"id":69988,"position":1,"audio_url":"wbw/037_096_001.mp3","char_type_name":"word","page_number":449,"line_number":10,"text":"وَٱللَّهُ","translation":{"text":"অথচ আল্লাহই","language_name":"bengali","language_id":20},"transliteration":{"text":"wal-lahu","language_name":"english","language_id":38}},{"id":69989,"position":2,"audio_url":"wbw/037_096_002.mp3","char_type_name":"word","page_number":449,"line_number":10,"text":"خَلَقَكُمْ","translation":{"text":"তোমাদেরকে সৃষ্টি করেছেন","language_name":"bengali","language_id":20},"transliteration":{"text":"khalaqakum","language_name":"english","language_id":38}},{"id":69990,"position":3,"audio_url":"wbw/037_096_003.mp3","char_type_name":"word","page_number":449,"line_number":10,"text":"وَمَا","translation":{"text":"এবং (তাদেরকেও) যাদের","language_name":"bengali","language_id":20},"transliteration":{"text":"wamā","language_name":"english","language_id":38}},{"id":69991,"position":4,"audio_url":"wbw/037_096_004.mp3","char_type_name":"word","page_number":449,"line_number":10,"text":"تَعْمَلُونَ","translation":{"text":"তোমরা তৈরী করো\"","language_name":"bengali","language_id":20},"transliteration":{"text":"taʿmalūna","language_name":"english","language_id":38}},{"id":69992,"position":5,"audio_url":null,"char_type_name":"end","page_number":449,"line_number":10,"text":"٩٦","translation":{"text":"(৯৬)","language_name":"bengali","language_id":20},"transliteration":{"text":null,"language_name":"english","language_id":38}}]},{"id":3885,"verse_number":97,"verse_key":"37:97","hizb_number":45,"rub_el_hizb_number":180,"ruku_number":390,"manzil_number":6,"sajdah_number":null,"page_number":449,"juz_number":23,"words":[{"id":70571,"position":1,"audio_url":"wbw/037_097_001.mp3","char_type_name":"word","page_number":449,"line_number":10,"text":"قَالُوا۟","translation":{"text":"তারা বললো","language_name":"bengali","language_id":20},"transliteration":{"text":"qālū","language_name":"english","language_id":38}},{"id":70572,"position":2,"audio_url":"wbw/037_097_002.mp3","char_type_name":"word","page_number":449,"line_number":10,"text":"ٱبْنُوا۟","translation":{"text":"\"তোমরা তৈরী করো","language_name":"bengali","language_id":20},"transliteration":{"text":"ib'nū","language_name":"english","language_id":38}},{"id":70573,"position":3,"audio_url":"wbw/037_097_003.mp3","char_type_name":"word","page_number":449,"line_number":10,"text":"لَهُۥ","translation":{"text":"তার জন্যে","language_name":"bengali","language_id":20},"transliteration":{"text":"lahu","language_name":"english","language_id":38}},{"id":70574,"position":4,"audio_url":"wbw/037_097_004.mp3","char_type_name":"word","page_number":449,"line_number":10,"text":"بُنْيَـٰنًۭا","translation":{"text":"প্রাচীর বেষ্টনী (অগ্নিকুন্ডের)","language_name":"bengali","language_id":20},"transliteration":{"text":"bun'yānan","language_name":"english","language_id":38}},{"id":70575,"position":5,"audio_url":"wbw/037_097_005.mp3","char_type_name":"word","page_number":449,"line_number":10,"text":"فَأَلْقُوهُ","translation":{"text":"তাকে অতঃপর নিক্ষেপ করো","language_name":"bengali","language_id":20},"transliteration":{"text":"fa-alqūhu","language_name":"english","language_id":38}},{"id":70576,"position":6,"audio_url":"wbw/037_097_006.mp3","char_type_name":"word","page_number":449,"line_number":11,"text":"فِى","translation":{"text":"মধ্যে","language_name":"bengali","language_id":20},"transliteration":{"text":"fī","language_name":"english","language_id":38}},{"id":70577,"position":7,"audio_url":"wbw/037_097_007.mp3","char_type_name":"word","page_number":449,"line_number":11,"text":"ٱلْجَحِيمِ","translation":{"text":"জ্বলন্ত আগুনে\"","language_name":"bengali","language_id":20},"transliteration":{"text":"l-jaḥīmi","language_name":"english","language_id":38}},{"id":70578,"position":8,"audio_url":null,"char_type_name":"end","page_number":449,"line_number":11,"text":"٩٧","translation":{"text":"(৯৭)","language_name":"bengali","language_id":20},"transliteration":{"text":null,"language_name":"english","language_id":38}}]},{"id":3886,"verse_number":98,"verse_key":"37:98","hizb_number":45,"rub_el_hizb_number":180,"ruku_number":390,"manzil_number":6,"sajdah_number":null,"page_number":449,"juz_number":23,"words":[{"id":70821,"position":1,"audio_url":"wbw/037_098_001.mp3","char_type_name":"word","page_number":449,"line_number":11,"text":"فَأَرَادُوا۟","translation":{"text":"তারা অতঃপর সংকল্প করলো","language_name":"bengali","language_id":20},"transliteration":{"text":"fa-arādū","language_name":"english","language_id":38}},{"id":70822,"position":2,"audio_url":"wbw/037_098_002.mp3","char_type_name":"word","page_number":449,"line_number":11,"text":"بِهِۦ","translation":{"text":"তাঁর বিরুদ্ধে","language_name":"bengali","language_id":20},"transliteration":{"text":"bihi","language_name":"english","language_id":38}},{"id":70823,"position":3,"audio_url":"wbw/037_098_003.mp3","char_type_name":"word","page_number":449,"line_number":11,"text":"كَيْدًۭا","translation":{"text":"একটি ষড়যন্ত্রের","language_name":"bengali","language_id":20},"transliteration":{"text":"kaydan","language_name":"english","language_id":38}},{"id":70824,"position":4,"audio_url":"wbw/037_098_004.mp3","char_type_name":"word","page_number":449,"line_number":11,"text":"فَجَعَلْنَـٰهُمُ","translation":{"text":"তাদেরকে তখন আমরা করলাম","language_name":"bengali","language_id":20},"transliteration":{"text":"fajaʿalnāhumu","language_name":"english","language_id":38}},{"id":70825,"position":5,"audio_url":"wbw/037_098_005.mp3","char_type_name":"word","page_number":449,"line_number":11,"text":"ٱلْأَسْفَلِينَ","translation":{"text":"অতিশয় হীন","language_name":"bengali","language_id":20},"transliteration":{"text":"l-asfalīna","language_name":"english","language_id":38}},{"id":70826,"position":6,"audio_url":null,"char_type_name":"end","page_number":449,"line_number":11,"text":"٩٨","translation":{"text":"(৯৮)","language_name":"bengali","language_id":20},"transliteration":{"text":null,"language_name":"english","language_id":38}}]},{"id":3887,"verse_number":99,"verse_key":"37:99","hizb_number":45,"rub_el_hizb_number":180,"ruku_number":390,"manzil_number":6,"sajdah_number":null,"page_number":449,"juz_number":23,"words":[{"id":70842,"position":1,"audio_url":"wbw/037_099_001.mp3","char_type_name":"word","page_number":449,"line_number":12,"text":"وَقَالَ","translation":{"text":"এবং সে বললো","language_name":"bengali","language_id":20},"transliteration":{"text":"waqāla","language_name":"english","language_id":38}},{"id":70843,"position":2,"audio_url":"wbw/037_099_002.mp3","char_type_name":"word","page_number":449,"line_number":12,"text":"إِنِّى","translation":{"text":"\"নিশ্চয়ই আমি","language_name":"bengali","language_id":20},"transliteration":{"text":"innī","language_name":"english","language_id":38}},{"id":70844,"position":3,"audio_url":"wbw/037_099_003.mp3","char_type_name":"word","page_number":449,"line_number":12,"text":"ذَاهِبٌ","translation":{"text":"চললাম","language_name":"bengali","language_id":20},"transliteration":{"text":"dhāhibun","language_name":"english","language_id":38}},{"id":70845,"position":4,"audio_url":"wbw/037_099_004.mp3","char_type_name":"word","page_number":449,"line_number":12,"text":"إِلَىٰ","translation":{"text":"দিকে","language_name":"bengali","language_id":20},"transliteration":{"text":"ilā","language_name":"english","language_id":38}},{"id":70846,"position":5,"audio_url":"wbw/037_099_005.mp3","char_type_name":"word","page_number":449,"line_number":12,"text":"رَبِّى","translation":{"text":"আমার রবের","language_name":"bengali","language_id":20},"transliteration":{"text":"rabbī","language_name":"english","language_id":38}},{"id":70847,"position":6,"audio_url":"wbw/037_099_006.mp3","char_type_name":"word","page_number":449,"line_number":12,"text":"سَيَهْدِينِ","translation":{"text":"পথ দেখাবেন শীঘ্রই তিনি আমাকে","language_name":"bengali","language_id":20},"transliteration":{"text":"sayahdīni","language_name":"english","language_id":38}},{"id":70848,"position":7,"audio_url":null,"char_type_name":"end","page_number":449,"line_number":12,"text":"٩٩","translation":{"text":"(৯৯)","language_name":"bengali","language_id":20},"transliteration":{"text":null,"language_name":"english","language_id":38}}]},{"id":3888,"verse_number":100,"verse_key":"37:100","hizb_number":45,"rub_el_hizb_number":180,"ruku_number":390,"manzil_number":6,"sajdah_number":null,"page_number":449,"juz_number":23,"words":[{"id":71188,"position":1,"audio_url":"wbw/037_100_001.mp3","char_type_name":"word","page_number":449,"line_number":12,"text":"رَبِّ","translation":{"text":"(সে দোয়া করলো) হে আমার রব","language_name":"bengali","language_id":20},"transliteration":{"text":"rabbi","language_name":"english","language_id":38}},{"id":71189,"position":2,"audio_url":"wbw/037_100_002.mp3","char_type_name":"word","page_number":449,"line_number":12,"text":"هَبْ","translation":{"text":"দাও","language_name":"bengali","language_id":20},"transliteration":{"text":"hab","language_name":"english","language_id":38}},{"id":71190,"position":3,"audio_url":"wbw/037_100_003.mp3","char_type_name":"word","page_number":449,"line_number":12,"text":"لِى","translation":{"text":"আমাকে (সন্তান)","language_name":"bengali","language_id":20},"transliteration":{"text":"lī","language_name":"english","language_id":38}},{"id":71191,"position":4,"audio_url":"wbw/037_100_004.mp3","char_type_name":"word","page_number":449,"line_number":12,"text":"مِنَ","translation":{"text":"মধ্য হ'তে","language_name":"bengali","language_id":20},"transliteration":{"text":"mina","language_name":"english","language_id":38}},{"id":71192,"position":5,"audio_url":"wbw/037_100_005.mp3","char_type_name":"word","page_number":449,"line_number":12,"text":"ٱلصَّـٰلِحِينَ","translation":{"text":"সৎপরায়ণদের\"","language_name":"bengali","language_id":20},"transliteration":{"text":"l-ṣāliḥīna","language_name":"english","language_id":38}},{"id":71193,"position":6,"audio_url":null,"char_type_name":"end","page_number":449,"line_number":13,"text":"١٠٠","translation":{"text":"(১০০)","language_name":"bengali","language_id":20},"transliteration":{"text":null,"language_name":"english","language_id":38}}]}],"pagination":{"per_page":10,"current_page":10,"next_page":11,"total_pages":19,"total_records":182}}
