{"verses":[{"id":3889,"verse_number":101,"verse_key":"37:101","hizb_number":45,"rub_el_hizb_number":180,"ruku_number":390,"manzil_number":6,"sajdah_number":null,"page_number":449,"juz_number":23,"words":[{"id":71751,"position":1,"audio_url":"wbw/037_101_001.mp3","char_type_name":"word","page_number":449,"line_number":13,"text":"فَبَشَّرْنَـٰهُ","translation":{"text":"তাকে আমরা ফলে সুসংবাদ দিলাম","language_name":"bengali","language_id":20},"transliteration":{"text":"fabasharnāhu","language_name":"english","language_id":38}},{"id":71752,"position":2,"audio_url":"wbw/037_101_002.mp3","char_type_name":"word","page_number":449,"line_number":13,"text":"بِغُلَـٰمٍ","translation":{"text":"এক পুত্রের","language_name":"bengali","language_id":20},"transliteration":{"text":"bighulāmin","language_name":"english","language_id":38}},{"id":71753,"position":3,"audio_url":"wbw/037_101_003.mp3","char_type_name":"word","page_number":449,"line_number":13,"text":"حَلِيمٍۢ","translation":{"text":"ধীরস্থির","language_name":"bengali","language_id":20},"transliteration":{"text":"ḥalīmin","language_name":"english","language_id":38}},{"id":71754,"position":4,"audio_url":null,"char_type_name":"end","page_number":449,"line_number":13,"text":"١٠١","translation":{"text":"(১০১)","language_name":"bengali","language_id":20},"transliteration":{"text":null,"language_name":"english","language_id":38}}]},{"id":3890,"verse_number":102,"verse_key":"37:102","hizb_number":45,"rub_el_hizb_number":180,"ruku_number":390,"manzil_number":6,"sajdah_number":null,"page_number":449,"juz_number":23,"words":[{"id":72104,"position":1,"audio_url":"wbw/037_102_001.mp3","char_type_name":"word","page_number":449,"line_number":13,"text":"فَلَمَّا","translation":{"text":"অতঃপর যখন","language_name":"bengali","language_id":20},"transliteration":{"text":"falammā","language_name":"english","language_id":38}},{"id":72105,"position":2,"audio_url":"wbw/037_102_002.mp3","char_type_name":"word","page_number":449,"line_number":13,"text":"بَلَغَ","translation":{"text":"পৌঁছলো","language_name":"bengali","language_id":20},"transliteration":{"text":"balagha","language_name":"english","language_id":38}},{"id":72106,"position":3,"audio_url":"wbw/037_102_003.mp3","char_type_name":"word","page_number":449,"line_number":13,"text":"مَعَهُ","translation":{"text":"তার সাথে","language_name":"bengali","language_id":20},"transliteration":{"text":"maʿahu","language_name":"english","language_id":38}},{"id":72107,"position":4,"audio_url":"wbw/037_102_004.mp3","char_type_name":"word","page_number":449,"line_number":13,"text":"ٱلسَّعْىَ","translation":{"text":"চলাফেরার (বয়সে)","language_name":"bengali","language_id":20},"transliteration":{"text":"l-saʿya","language_name":"english","language_id":38}},{"id":72108,"position":5,"audio_url":"wbw/037_102_005.mp3","char_type_name":"word","page_number":449,"line_number":13,"text":"قَالَ","translation":{"text":"সে বললো","language_name":"bengali","language_id":20},"transliteration":{"text":"qāla","language_name":"english","language_id":38}},{"id":72109,"position":6,"audio_url":"wbw/037_102_006.mp3","char_type_name":"word","page_number":449,"line_number":13,"text":"يَـٰبُنَىَّ","translation":{"text":"\"হে আমার পুত্র","language_name":"bengali","language_id":20},"transliteration":{"text":"yābunayya","language_name":"english","language_id":38}},{"id":72110,"position":7,"audio_url":"wbw/037_102_007.mp3","char_type_name":"word","page_number":449,"line_number":14,"text":"إِنِّىٓ","translation":{"text":"নিশ্চয়ই আমি","language_name":"bengali","language_id":20},"transliteration":{"text":"innī","language_name":"english","language_id":38}},{"id":72111,"position":8,"audio_url":"wbw/037_102_008.mp3","char_type_name":"word","page_number":449,"line_number":14,"text":"أَرَىٰ","translation":{"text":"দেখেছি","language_name":"bengali","language_id":20},"transliteration":{"text":"arā","language_name":"english","language_id":38}},{"id":72112,"position":9,"audio_url":"wbw/037_102_009.mp3","char_type_name":"word","page_number":449,"line_number":14,"text":"فِى","translation":{"text":"মধ্যে","language_name":"bengali","language_id":20},"transliteration":{"text":"fī","language_name":"english","language_id":38}},{"id":72113,"position":10,"audio_url":"wbw/037_102_010.mp3","char_type_name":"word","page_number":449,"line_number":14,"text":"ٱلْمَنَامِ","translation":{"text":"স্বপ্নের","language_name":"bengali","language_id":20},"transliteration":{"text":"l-manāmi","language_name":"english","language_id":38}},{"id":72114,"position":11,"audio_url":"wbw/037_102_011.mp3","char_type_name":"word","page_number":449,"line_number":14,"text":"أَنِّىٓ","translation":{"text":"যে আমি","language_name":"bengali","language_id":20},"transliteration":{"text":"annī","language_name":"english","language_id":38}},{"id":72115,"position":12,"audio_url":"wbw/037_102_012.mp3","char_type_name":"word","page_number":449,"line_number":14,"text":"أَذْبَحُكَ","translation":{"text":"তোমাকে জবাই করছি","language_name":"bengali","language_id":20},"transliteration":{"text":"adhbaḥuka","language_name":"english","language_id":38}},{"id":72116,"position":13,"audio_url":"wbw/037_102_013.mp3","char_type_name":"word","page_number":449,"line_number":14,"text":"فَٱنظُرْ","translation":{"text":"তাই ভেবে দেখো","language_name":"bengali","language_id":20},"transliteration":{"text":"fa-unẓur","language_name":"english","language_id":38}},{"id":72117,"position":14,"audio_url":"wbw/037_102_014.mp3","char_type_name":"word","page_number":449,"line_number":14,"text":"مَاذَا","translation":{"text":"কি","language_name":"bengali","language_id":20},"transliteration":{"text":"mādhā","language_name":"english","language_id":38}},{"id":72118,"position":15,"audio_url":"wbw/037_102_015.mp3","char_type_name":"word","page_number":449,"line_number":14,"text":"تَرَىٰ ۚ","translation":{"text":"তোমার মত\"","language_name":"bengali","language_id":20},"transliteration":{"text":"tarā","language_name":"english","language_id":38}},{"id":72120,"position":16,"audio_url":"wbw/037_102_017.mp3","char_type_name":"word","page_number":449,"line_number":14,"text":"قَالَ","translation":{"text":"সে বললো","language_name":"bengali","language_id":20},"transliteration":{"text":"qāla","language_name":"english","language_id":38}},{"id":72121,"position":17,"audio_url":"wbw/037_102_018.mp3","char_type_name":"word","page_number":449,"line_number":14,"text":"يَـٰٓأَبَتِ","translation":{"text":"\"হে আমার পিতা","language_name":"bengali","language_id":20},"transliteration":{"text":"yāabati","language_name":"english","language_id":38}},{"id":72122,"position":18,"audio_url":"wbw/037_102_019.mp3","char_type_name":"word","page_number":449,"line_number":15,"text":"ٱفْعَلْ","translation":{"text":"আপনি করুন","language_name":"bengali","language_id":20},"transliteration":{"text":"if'ʿal","language_name":"english","language_id":38}},{"id":72123,"position":19,"audio_url":"wbw/037_102_020.mp3","char_type_name":"word","page_number":449,"line_number":15,"text":"مَا","translation":{"text":"যা","language_name":"bengali","language_id":20},"transliteration":{"text":"mā","language_name":"english","language_id":38}},{"id":72124,"position":20,"audio_url":"wbw/037_102_021.mp3","char_type_name":"word","page_number":449,"line_number":15,"text":"تُؤْمَرُ ۖ","translation":{"text":"আপনাকে আদেশ করা হয়েছে","language_name":"bengali","language_id":20},"transliteration":{"text":"tu'maru","language_name":"english","language_id":38}},{"id":72126,"position":21,"audio_url":"wbw/037_102_023.mp3","char_type_name":"word","page_number":449,"line_number":15,"text":"سَتَجِدُنِىٓ","translation":{"text":"আমাকে আপনি পাবেন","language_name":"bengali","language_id":20},"transliteration":{"text":"satajidunī","language_name":"english","language_id":38}},{"id":72127,"position":22,"audio_url":"wbw/037_102_024.mp3","char_type_name":"word","page_number":449,"line_number":15,"text":"إِن","translation":{"text":"যদি","language_name":"bengali","language_id":20},"transliteration":{"text":"in","language_name":"english","language_id":38}},{"id":72128,"position":23,"audio_url":"wbw/037_102_025.mp3","char_type_name":"word","page_number":449,"line_number":15,"text":"شَآءَ","translation":{"text":"ইচ্ছে করে","language_name":"bengali","language_id":20},"transliteration":{"text":"shāa","language_name":"english","language_id":38}},{"id":72129,"position":24,"audio_url":"wbw/037_102_026.mp3","char_type_name":"word","page_number":449,"line_number":15,"text":"ٱللَّهُ","translation":{"text":"আল্লাহ","language_name":"bengali","language_id":20},"transliteration":{"text":"l-lahu","language_name":"english","language_id":38}},{"id":72130,"position":25,"audio_url":"wbw/037_102_027.mp3","char_type_name":"word","page_number":449,"line_number":15,"text":"مِنَ","translation":{"text":"অন্তর্ভুক্ত","language_name":"bengali","language_id":20},"transliteration":{"text":"mina","language_name":"english","language_id":38}},{"id":72131,"position":26,"audio_url":"wbw/037_102_028.mp3","char_type_name":"word","page_number":449,"line_number":15,"text":"ٱلصَّـٰبِرِينَ","translation":{"text":"ধৈর্য্যশীলদের\"","language_name":"bengali","language_id":20},"transliteration":{"text":"l-ṣābirīna","language_name":"english","language_id":38}},{"id":72132,"position":27,"audio_url":null,"char_type_name":"end","page_number":449,"line_number":15,"text":"١٠٢","translation":{"text":"(১০২)","language_name":"bengali","language_id":20},"transliteration":{"text":null,"language_name":"english","language_id":38}}]},{"id":3891,"verse_number":103,"verse_key":"37:103","hizb_number":45,"rub_el_hizb_number":180,"ruku_number":390,"manzil_number":6,"sajdah_number":null,"page_number":450,"juz_number":23,"words":[{"id":72394,"position":1,"audio_url":"wbw/037_103_001.mp3","char_type_name":"word","page_number":450,"line_number":1,"text":"فَلَمَّآ","translation":{"text":"যখন অতঃপর","language_name":"bengali","language_id":20},"transliteration":{"text":"falammā","language_name":"english","language_id":38}},{"id":72395,"position":2,"audio_url":"wbw/037_103_002.mp3","char_type_name":"word","page_number":450,"line_number":1,"text":"أَسْلَمَا","translation":{"text":"অনুগত হয়ে গেলো উভয়ে","language_name":"bengali","language_id":20},"transliteration":{"text":"aslamā","language_name":"english","language_id":38}},{"id":72396,"position":3,"audio_url":"wbw/037_103_003.mp3","char_type_name":"word","page_number":450,"line_number":1,"text":"وَتَلَّهُۥ","translation":{"text":"এবং তাকে শুইয়ে দিলো","language_name":"bengali","language_id":20},"transliteration":{"text":"watallahu","language_name":"english","language_id":38}},{"id":72397,"position":4,"audio_url":"wbw/037_103_004.mp3","char_type_name":"word","page_number":450,"line_number":1,"text":"لِلْجَبِينِ","translation":{"text":"উপুড় করে","language_name":"bengali","language_id":20},"transliteration":{"text":"lil'jabīni","language_name":"english","language_id":38}},{"id":72398,"position":5,"audio_url":null,"char_type_name":"end","page_number":450,"line_number":1,"text":"١٠٣","translation":{"text":"(১০৩)","language_name":"bengali","language_id":20},"transliteration":{"text":null,"language_name":"english","language_id":38}}]},{"id":3892,"verse_number":104,"verse_key":"37:104","hizb_number":45,"rub_el_hizb_number":180,"ruku_number":390,"manzil_number":6,"sajdah_number":null,"page_number":450,"juz_number":23,"words":[{"id":72668,"position":1,"audio_url":"wbw/037_104_001.mp3","char_type_name":"word","page_number":450,"line_number":1,"text":"وَنَـٰدَيْنَـٰهُ","translation":{"text":"এবং তাকে আমরা ডাক দিলাম","language_name":"bengali","language_id":20},"transliteration":{"text":"wanādaynāhu","language_name":"english","language_id":38}},{"id":72669,"position":2,"audio_url":"wbw/037_104_002.mp3","char_type_name":"word","page_number":450,"line_number":1,"text":"أَن","translation":{"text":"যে","language_name":"bengali","language_id":20},"transliteration":{"text":"an","language_name":"english","language_id":38}},{"id":72670,"position":3,"audio_url":"wbw/037_104_003.mp3","char_type_name":"word","page_number":450,"line_number":1,"text":"يَـٰٓإِبْرَٰهِيمُ","translation":{"text":"\"হে ইব্রাহীম","language_name":"bengali","language_id":20},"transliteration":{"text":"yāib'rāhīmu","language_name":"english","language_id":38}},{"id":72671,"position":4,"audio_url":null,"char_type_name":"end","page_number":450,"line_number":1,"text":"١٠٤","translation":{"text":"(১০৪)","language_name":"bengali","language_id":20},"transliteration":{"text":null,"language_name":"english","language_id":38}}]},{"id":3893,"verse_number":105,"verse_key":"37:105","hizb_number":45,"rub_el_hizb_number":180,"ruku_number":390,"manzil_number":6,"sajdah_number":null,"page_number":450,"juz_number":23,"words":[{"id":72910,"position":1,"audio_url":"wbw/037_105_001.mp3","char_type_name":"word","page_number":450,"line_number":2,"text":"قَدْ","translation":{"text":"নিশ্চয়ই","language_name":"bengali","language_id":20},"transliteration":{"text":"qad","language_name":"english","language_id":38}},{"id":72911,"position":2,"audio_url":"wbw/037_105_002.mp3","char_type_name":"word","page_number":450,"line_number":2,"text":"صَدَّقْتَ","translation":{"text":"তুমি সত্য করেছো","language_name":"bengali","language_id":20},"transliteration":{"text":"ṣaddaqta","language_name":"english","language_id":38}},{"id":72912,"position":3,"audio_url":"wbw/037_105_003.mp3","char_type_name":"word","page_number":450,"line_number":2,"text":"ٱلرُّءْيَآ ۚ","translation":{"text":"স্বপ্নকে\"","language_name":"bengali","language_id":20},"transliteration":{"text":"l-ru'yā","language_name":"english","language_id":38}},{"id":72914,"position":4,"audio_url":"wbw/037_105_005.mp3","char_type_name":"word","page_number":450,"line_number":2,"text":"إِنَّا","translation":{"text":"নিশ্চয়ই আমরা","language_name":"bengali","language_id":20},"transliteration":{"text":"innā","language_name":"english","language_id":38}},{"id":72915,"position":5,"audio_url":"wbw/037_105_006.mp3","char_type_name":"word","page_number":450,"line_number":2,"text":"كَذَٰلِكَ","translation":{"text":"এরূপে","language_name":"bengali","language_id":20},"transliteration":{"text":"kadhālika","language_name":"english","language_id":38}},{"id":72916,"position":6,"audio_url":"wbw/037_105_007.mp3","char_type_name":"word","page_number":450,"line_number":2,"text":"نَجْزِى","translation":{"text":"প্রতিফল দিই আমরা","language_name":"bengali","language_id":20},"transliteration":{"text":"najzī","language_name":"english","language_id":38}},{"id":72917,"position":7,"audio_url":"wbw/037_105_008.mp3","char_type_name":"word","page_number":450,"line_number":2,"text":"ٱلْمُحْسِنِينَ","translation":{"text":"সৎকর্মপরায়ণদের","language_name":"bengali","language_id":20},"transliteration":{"text":"l-muḥ'sinīna","language_name":"english","language_id":38}},{"id":72918,"position":8,"audio_url":null,"char_type_name":"end","page_number":450,"line_number":2,"text":"١٠٥","translation":{"text":"(১০৫)","language_name":"bengali","language_id":20},"transliteration":{"text":null,"language_name":"english","language_id":38}}]},{"id":3894,"verse_number":106,"verse_key":"37:106","hizb_number":45,"rub_el_hizb_number":180,"ruku_number":390,"manzil_number":6,"sajdah_number":null,"page_number":450,"juz_number":23,"words":[{"id":73174,"position":1,"audio_url":"wbw/037_106_001.mp3","char_type_name":"word","page_number":450,"line_number":2,"text":"إِنَّ","translation":{"text":"নিশ্চয়ই","language_name":"bengali","language_id":20},"transliteration":{"text":"inna","language_name":"english","language_id":38}},{"id":73175,"position":2,"audio_url":"wbw/037_106_002.mp3","char_type_name":"word","page_number":450,"line_number":3,"text":"هَـٰذَا","translation":{"text":"এটা","language_name":"bengali","language_id":20},"transliteration":{"text":"hādhā","language_name":"english","language_id":38}},{"id":73176,"position":3,"audio_url":"wbw/037_106_003.mp3","char_type_name":"word","page_number":450,"line_number":3,"text":"لَهُوَ","translation":{"text":"তা অবশ্যই (ছিলো)","language_name":"bengali","language_id":20},"transliteration":{"text":"lahuwa","language_name":"english","language_id":38}},{"id":73177,"position":4,"audio_url":"wbw/037_106_004.mp3","char_type_name":"word","page_number":450,"line_number":3,"text":"ٱلْبَلَـٰٓؤُا۟","translation":{"text":"পরীক্ষা","language_name":"bengali","language_id":20},"transliteration":{"text":"l-balāu","language_name":"english","language_id":38}},{"id":73178,"position":5,"audio_url":"wbw/037_106_005.mp3","char_type_name":"word","page_number":450,"line_number":3,"text":"ٱلْمُبِينُ","translation":{"text":"সুস্পষ্ট","language_name":"bengali","language_id":20},"transliteration":{"text":"l-mubīnu","language_name":"english","language_id":38}},{"id":73179,"position":6,"audio_url":null,"char_type_name":"end","page_number":450,"line_number":3,"text":"١٠٦","translation":{"text":"(১০৬)","language_name":"bengali","language_id":20},"transliteration":{"text":null,"language_name":"english","language_id":38}}]},{"id":3895,"verse_number":107,"verse_key":"37:107","hizb_number":45,"rub_el_hizb_number":180,"ruku_number":390,"manzil_number":6,"sajdah_number":null,"page_number":450,"juz_number":23,"words":[{"id":73420,"position":1,"audio_url":"wbw/037_107_001.mp3","char_type_name":"word","page_number":450,"line_number":3,"text":"وَفَدَيْنَـٰهُ","translation":{"text":"এবং তাকে আমরা ছাড়িয়ে নিই","language_name":"bengali","language_id":20},"transliteration":{"text":"wafadaynāhu","language_name":"english","language_id":38}},{"id":73421,"position":2,"audio_url":"wbw/037_107_002.mp3","char_type_name":"word","page_number":450,"line_number":3,"text":"بِذِبْحٍ","translation":{"text":"জবাই পশুর বিনিময়ে","language_name":"bengali","language_id":20},"transliteration":{"text":"bidhib'ḥin","language_name":"english","language_id":38}},{"id":73422,"position":3,"audio_url":"wbw/037_107_003.mp3","char_type_name":"word","page_number":450,"line_number":3,"text":"عَظِيمٍۢ","translation":{"text":"বড়","language_name":"bengali","language_id":20},"transliteration":{"text":"ʿaẓīmin","language_name":"english","language_id":38}},{"id":73423,"position":4,"audio_url":null,"char_type_name":"end","page_number":450,"line_number":3,"text":"١٠٧","translation":{"text":"(১০৭)","language_name":"bengali","language_id":20},"transliteration":{"text":null,"language_name":"english","language_id":38}}]},{"id":3896,"verse_number":108,"verse_key":"37:108","hizb_number":45,"rub_el_hizb_number":180,"ruku_number":390,"manzil_number":6,"sajdah_number":null,"page_number":450,"juz_number":23,"words":[{"id":73688,"position":1,"audio_url":"wbw/037_108_001.mp3","char_type_name":"word","page_number":450,"line_number":3,"text":"وَتَرَكْنَا","translation":{"text":"এবং আমরা প্রচলিত রাখলাম","language_name":"bengali","language_id":20},"transliteration":{"text":"wataraknā","language_name":"english","language_id":38}},{"id":73689,"position":2,"audio_url":"wbw/037_108_002.mp3","char_type_name":"word","page_number":450,"line_number":4,"text":"عَلَيْهِ","translation":{"text":"তাঁর উপর","language_name":"bengali","language_id":20},"transliteration":{"text":"ʿalayhi","language_name":"english","language_id":38}},{"id":73690,"position":3,"audio_url":"wbw/037_108_003.mp3","char_type_name":"word","page_number":450,"line_number":4,"text":"فِى","translation":{"text":"মধ্যে","language_name":"bengali","language_id":20},"transliteration":{"text":"fī","language_name":"english","language_id":38}},{"id":73691,"position":4,"audio_url":"wbw/037_108_004.mp3","char_type_name":"word","page_number":450,"line_number":4,"text":"ٱلْـَٔاخِرِينَ","translation":{"text":"পরবর্তীদের (তাঁর স্মরণ)","language_name":"bengali","language_id":20},"transliteration":{"text":"l-ākhirīna","language_name":"english","language_id":38}},{"id":73692,"position":5,"audio_url":null,"char_type_name":"end","page_number":450,"line_number":4,"text":"١٠٨","translation":{"text":"(১০৮)","language_name":"bengali","language_id":20},"transliteration":{"text":null,"language_name":"english","language_id":38}}]},{"id":3897,"verse_number":109,"verse_key":"37:109","hizb_number":45,"rub_el_hizb_number":180,"ruku_number":390,"manzil_number":6,"sajdah_number":null,"page_number":450,"juz_number":23,"words":[{"id":73984,"position":1,"audio_url":"wbw/037_109_001.mp3","char_type_name":"word","page_number":450,"line_number":4,"text":"سَلَـٰمٌ","translation":{"text":"\"সালাম (বর্ষিত হোক)","language_name":"bengali","language_id":20},"transliteration":{"text":"salāmun","language_name":"english","language_id":38}},{"id":73985,"position":2,"audio_url":"wbw/037_109_002.mp3","char_type_name":"word","page_number":450,"line_number":4,"text":"عَلَىٰٓ","translation":{"text":"উপর","language_name":"bengali","language_id":20},"transliteration":{"text":"ʿalā","language_name":"english","language_id":38}},{"id":73986,"position":3,"audio_url":"wbw/037_109_003.mp3","char_type_name":"word","page_number":450,"line_number":4,"text":"إِبْرَٰهِيمَ","translation":{"text":"ইবরাহীমের\"","language_name":"bengali","language_id":20},"transliteration":{"text":"ib'rāhīma","language_name":"english","language_id":38}},{"id":73987,"position":4,"audio_url":null,"char_type_name":"end","page_number":450,"line_number":4,"text":"١٠٩","translation":{"text":"(১০৯)","language_name":"bengali","language_id":20},"transliteration":{"text":null,"language_name":"english","language_id":38}}]},{"id":3898,"verse_number":110,"verse_key":"37:110","hizb_number":45,"rub_el_hizb_number":180,"ruku_number":390,"manzil_number":6,"sajdah_number":null,"page_number":450,"juz_number":23,"words":[{"id":74141,"position":1,"audio_url":"wbw/037_110_001.mp3","char_type_name":"word","page_number":450,"line_number":4,"text":"كَذَٰلِكَ","translation":{"text":"এরূপে","language_name":"bengali","language_id":20},"transliteration":{"text":"kadhālika","language_name":"english","language_id":38}},{"id":74142,"position":2,"audio_url":"wbw/037_110_002.mp3","char_type_name":"word","page_number":450,"line_number":4,"text":"نَجْزِى","translation":{"text":"প্রতিফল দিই আমরা","language_name":"bengali","language_id":20},"transliteration":{"text":"najzī","language_name":"english","language_id":38}},{"id":74143,"position":3,"audio_url":"wbw/037_110_003.mp3","char_type_name":"word","page_number":450,"line_number":5,"text":"ٱلْمُحْسِنِينَ","translation":{"text":"উত্তম কর্মশীলদেরকে","language_name":"bengali","language_id":20},"transliteration":{"text":"l-muḥ'sinīna","language_name":"english","language_id":38}},{"id":74144,"position":4,"audio_url":null,"char_type_name":"end","page_number":450,"line_number":5,"text":"١١٠","translation":{"text":"(১১০)","language_name":"bengali","language_id":20},"transliteration":{"text":null,"language_name":"english","language_id":38}}]}],"pagination":{"per_page":10,"current_page":11,"next_page":12,"total_pages":19,"total_records":182}}
