{"verses":[{"id":3809,"verse_number":21,"verse_key":"37:21","hizb_number":45,"rub_el_hizb_number":178,"ruku_number":388,"manzil_number":6,"sajdah_number":null,"page_number":446,"juz_number":23,"words":[{"id":24329,"position":1,"audio_url":"wbw/037_021_001.mp3","char_type_name":"word","page_number":446,"line_number":13,"text":"هَـٰذَا","translation":{"text":"\"এটাই","language_name":"bengali","language_id":20},"transliteration":{"text":"hādhā","language_name":"english","language_id":38}},{"id":24330,"position":2,"audio_url":"wbw/037_021_002.mp3","char_type_name":"word","page_number":446,"line_number":13,"text":"يَوْمُ","translation":{"text":"দিন","language_name":"bengali","language_id":20},"transliteration":{"text":"yawmu","language_name":"english","language_id":38}},{"id":24331,"position":3,"audio_url":"wbw/037_021_003.mp3","char_type_name":"word","page_number":446,"line_number":13,"text":"ٱلْفَصْلِ","translation":{"text":"মীমাংসার","language_name":"bengali","language_id":20},"transliteration":{"text":"l-faṣli","language_name":"english","language_id":38}},{"id":24332,"position":4,"audio_url":"wbw/037_021_004.mp3","char_type_name":"word","page_number":446,"line_number":13,"text":"ٱلَّذِى","translation":{"text":"যা","language_name":"bengali","language_id":20},"transliteration":{"text":"alladhī","language_name":"english","language_id":38}},{"id":24333,"position":5,"audio_url":"wbw/037_021_005.mp3","char_type_name":"word","page_number":446,"line_number":13,"text":"كُنتُم","translation":{"text":"তোমরা ছিলে","language_name":"bengali","language_id":20},"transliteration":{"text":"kuntum","language_name":"english","language_id":38}},{"id":24334,"position":6,"audio_url":"wbw/037_021_006.mp3","char_type_name":"word","page_number":446,"line_number":13,"text":"بِهِۦ","translation":{"text":"তা সম্পর্কে","language_name":"bengali","language_id":20},"transliteration":{"text":"bihi","language_name":"english","language_id":38}},{"id":24335,"position":7,"audio_url":"wbw/037_021_007.mp3","char_type_name":"word","page_number":446,"line_number":13,"text":"تُكَذِّبُونَ","translation":{"text":"মিথ্যা বলতে\"","language_name":"bengali","language_id":20},"transliteration":{"text":"tukadhibūna","language_name":"english","language_id":38}},{"id":24336,"position":8,"audio_url":null,"char_type_name":"end","page_number":446,"line_number":13,"text":"٢١","translation":{"text":"(২১)","language_name":"bengali","language_id":20},"transliteration":{"text":null,"language_name":"english","language_id":38}}]},{"id":3810,"verse_number":22,"verse_key":"37:22","hizb_number":45,"rub_el_hizb_number":179,"ruku_number":389,"manzil_number":6,"sajdah_number":null,"page_number":446,"juz_number":23,"words":[{"id":25356,"position":1,"audio_url":"wbw/037_022_002.mp3","char_type_name":"word","page_number":446,"line_number":14,"text":"۞ ٱحْشُرُوا۟","translation":{"text":"(বলা হবে) একত্র করে আনো","language_name":"bengali","language_id":20},"transliteration":{"text":"uḥ'shurū","language_name":"english","language_id":38}},{"id":25357,"position":2,"audio_url":"wbw/037_022_003.mp3","char_type_name":"word","page_number":446,"line_number":14,"text":"ٱلَّذِينَ","translation":{"text":"(তাদেরকে) যারা","language_name":"bengali","language_id":20},"transliteration":{"text":"alladhīna","language_name":"english","language_id":38}},{"id":25358,"position":3,"audio_url":"wbw/037_022_004.mp3","char_type_name":"word","page_number":446,"line_number":14,"text":"ظَلَمُوا۟","translation":{"text":"সীমালঙ্ঘন করেছিলো","language_name":"bengali","language_id":20},"transliteration":{"text":"ẓalamū","language_name":"english","language_id":38}},{"id":25359,"position":4,"audio_url":"wbw/037_022_005.mp3","char_type_name":"word","page_number":446,"line_number":14,"text":"وَأَزْوَٰجَهُمْ","translation":{"text":"এবং তাদের দোসরদেরকে","language_name":"bengali","language_id":20},"transliteration":{"text":"wa-azwājahum","language_name":"english","language_id":38}},{"id":25360,"position":5,"audio_url":"wbw/037_022_006.mp3","char_type_name":"word","page_number":446,"line_number":14,"text":"وَمَا","translation":{"text":"এবং যাদের","language_name":"bengali","language_id":20},"transliteration":{"text":"wamā","language_name":"english","language_id":38}},{"id":25361,"position":6,"audio_url":"wbw/037_022_007.mp3","char_type_name":"word","page_number":446,"line_number":14,"text":"كَانُوا۟","translation":{"text":"তারা","language_name":"bengali","language_id":20},"transliteration":{"text":"kānū","language_name":"english","language_id":38}},{"id":25362,"position":7,"audio_url":"wbw/037_022_008.mp3","char_type_name":"word","page_number":446,"line_number":14,"text":"يَعْبُدُونَ","translation":{"text":"উপাসনা করতো","language_name":"bengali","language_id":20},"transliteration":{"text":"yaʿbudūna","language_name":"english","language_id":38}},{"id":25363,"position":8,"audio_url":null,"char_type_name":"end","page_number":446,"line_number":14,"text":"٢٢","translation":{"text":"(২২)","language_name":"bengali","language_id":20},"transliteration":{"text":null,"language_name":"english","language_id":38}}]},{"id":3811,"verse_number":23,"verse_key":"37:23","hizb_number":45,"rub_el_hizb_number":179,"ruku_number":389,"manzil_number":6,"sajdah_number":null,"page_number":446,"juz_number":23,"words":[{"id":26403,"position":1,"audio_url":"wbw/037_023_001.mp3","char_type_name":"word","page_number":446,"line_number":14,"text":"مِن","translation":{"text":"মধ্য হতে","language_name":"bengali","language_id":20},"transliteration":{"text":"min","language_name":"english","language_id":38}},{"id":26404,"position":2,"audio_url":"wbw/037_023_002.mp3","char_type_name":"word","page_number":446,"line_number":14,"text":"دُونِ","translation":{"text":"ছাড়া","language_name":"bengali","language_id":20},"transliteration":{"text":"dūni","language_name":"english","language_id":38}},{"id":26405,"position":3,"audio_url":"wbw/037_023_003.mp3","char_type_name":"word","page_number":446,"line_number":15,"text":"ٱللَّهِ","translation":{"text":"আল্লাহ","language_name":"bengali","language_id":20},"transliteration":{"text":"l-lahi","language_name":"english","language_id":38}},{"id":26406,"position":4,"audio_url":"wbw/037_023_004.mp3","char_type_name":"word","page_number":446,"line_number":15,"text":"فَٱهْدُوهُمْ","translation":{"text":"তাই তাদেরকে পরিচালিত করো","language_name":"bengali","language_id":20},"transliteration":{"text":"fa-ih'dūhum","language_name":"english","language_id":38}},{"id":26407,"position":5,"audio_url":"wbw/037_023_005.mp3","char_type_name":"word","page_number":446,"line_number":15,"text":"إِلَىٰ","translation":{"text":"দিকে","language_name":"bengali","language_id":20},"transliteration":{"text":"ilā","language_name":"english","language_id":38}},{"id":26408,"position":6,"audio_url":"wbw/037_023_006.mp3","char_type_name":"word","page_number":446,"line_number":15,"text":"صِرَٰطِ","translation":{"text":"পথের","language_name":"bengali","language_id":20},"transliteration":{"text":"ṣirāṭi","language_name":"english","language_id":38}},{"id":26409,"position":7,"audio_url":"wbw/037_023_007.mp3","char_type_name":"word","page_number":446,"line_number":15,"text":"ٱلْجَحِيمِ","translation":{"text":"জাহান্নামের","language_name":"bengali","language_id":20},"transliteration":{"text":"l-jaḥīmi","language_name":"english","language_id":38}},{"id":26410,"position":8,"audio_url":null,"char_type_name":"end","page_number":446,"line_number":15,"text":"٢٣","translation":{"text":"(২৩)","language_name":"bengali","language_id":20},"transliteration":{"text":null,"language_name":"english","language_id":38}}]},{"id":3812,"verse_number":24,"verse_key":"37:24","hizb_number":45,"rub_el_hizb_number":179,"ruku_number":389,"manzil_number":6,"sajdah_number":null,"page_number":446,"juz_number":23,"words":[{"id":27418,"position":1,"audio_url":"wbw/037_024_001.mp3","char_type_name":"word","page_number":446,"line_number":15,"text":"وَقِفُوهُمْ ۖ","translation":{"text":"এবং থামাও তাদেরকে","language_name":"bengali","language_id":20},"transliteration":{"text":"waqifūhum","language_name":"english","language_id":38}},{"id":27420,"position":2,"audio_url":"wbw/037_024_003.mp3","char_type_name":"word","page_number":446,"line_number":15,"text":"إِنَّهُم","translation":{"text":"তারা নিশ্চয়ই","language_name":"bengali","language_id":20},"transliteration":{"text":"innahum","language_name":"english","language_id":38}},{"id":27421,"position":3,"audio_url":"wbw/037_024_004.mp3","char_type_name":"word","page_number":446,"line_number":15,"text":"مَّسْـُٔولُونَ","translation":{"text":"জিজ্ঞাসিত হবে\"","language_name":"bengali","language_id":20},"transliteration":{"text":"masūlūna","language_name":"english","language_id":38}},{"id":27422,"position":4,"audio_url":null,"char_type_name":"end","page_number":446,"line_number":15,"text":"٢٤","translation":{"text":"(২৪)","language_name":"bengali","language_id":20},"transliteration":{"text":null,"language_name":"english","language_id":38}}]},{"id":3813,"verse_number":25,"verse_key":"37:25","hizb_number":45,"rub_el_hizb_number":179,"ruku_number":389,"manzil_number":6,"sajdah_number":null,"page_number":447,"juz_number":23,"words":[{"id":28478,"position":1,"audio_url":"wbw/037_025_001.mp3","char_type_name":"word","page_number":447,"line_number":1,"text":"مَا","translation":{"text":"\"(বলা হবে) কি","language_name":"bengali","language_id":20},"transliteration":{"text":"mā","language_name":"english","language_id":38}},{"id":28479,"position":2,"audio_url":"wbw/037_025_002.mp3","char_type_name":"word","page_number":447,"line_number":1,"text":"لَكُمْ","translation":{"text":"তোমাদের হলো (যে)","language_name":"bengali","language_id":20},"transliteration":{"text":"lakum","language_name":"english","language_id":38}},{"id":28480,"position":3,"audio_url":"wbw/037_025_003.mp3","char_type_name":"word","page_number":447,"line_number":1,"text":"لَا","translation":{"text":"না","language_name":"bengali","language_id":20},"transliteration":{"text":"lā","language_name":"english","language_id":38}},{"id":28481,"position":4,"audio_url":"wbw/037_025_004.mp3","char_type_name":"word","page_number":447,"line_number":1,"text":"تَنَاصَرُونَ","translation":{"text":"তোমরা পরস্পরে সাহায্য করছো\"","language_name":"bengali","language_id":20},"transliteration":{"text":"tanāṣarūna","language_name":"english","language_id":38}},{"id":28482,"position":5,"audio_url":null,"char_type_name":"end","page_number":447,"line_number":1,"text":"٢٥","translation":{"text":"(২৫)","language_name":"bengali","language_id":20},"transliteration":{"text":null,"language_name":"english","language_id":38}}]},{"id":3814,"verse_number":26,"verse_key":"37:26","hizb_number":45,"rub_el_hizb_number":179,"ruku_number":389,"manzil_number":6,"sajdah_number":null,"page_number":447,"juz_number":23,"words":[{"id":29390,"position":1,"audio_url":"wbw/037_026_001.mp3","char_type_name":"word","page_number":447,"line_number":1,"text":"بَلْ","translation":{"text":"বরং","language_name":"bengali","language_id":20},"transliteration":{"text":"bal","language_name":"english","language_id":38}},{"id":29391,"position":2,"audio_url":"wbw/037_026_002.mp3","char_type_name":"word","page_number":447,"line_number":1,"text":"هُمُ","translation":{"text":"তারা","language_name":"bengali","language_id":20},"transliteration":{"text":"humu","language_name":"english","language_id":38}},{"id":29392,"position":3,"audio_url":"wbw/037_026_003.mp3","char_type_name":"word","page_number":447,"line_number":1,"text":"ٱلْيَوْمَ","translation":{"text":"আজ","language_name":"bengali","language_id":20},"transliteration":{"text":"l-yawma","language_name":"english","language_id":38}},{"id":29393,"position":4,"audio_url":"wbw/037_026_004.mp3","char_type_name":"word","page_number":447,"line_number":1,"text":"مُسْتَسْلِمُونَ","translation":{"text":"আত্মসমর্পণকারী","language_name":"bengali","language_id":20},"transliteration":{"text":"mus'taslimūna","language_name":"english","language_id":38}},{"id":29394,"position":5,"audio_url":null,"char_type_name":"end","page_number":447,"line_number":1,"text":"٢٦","translation":{"text":"(২৬)","language_name":"bengali","language_id":20},"transliteration":{"text":null,"language_name":"english","language_id":38}}]},{"id":3815,"verse_number":27,"verse_key":"37:27","hizb_number":45,"rub_el_hizb_number":179,"ruku_number":389,"manzil_number":6,"sajdah_number":null,"page_number":447,"juz_number":23,"words":[{"id":30383,"position":1,"audio_url":"wbw/037_027_001.mp3","char_type_name":"word","page_number":447,"line_number":1,"text":"وَأَقْبَلَ","translation":{"text":"এবং মুখোমুখী হবে","language_name":"bengali","language_id":20},"transliteration":{"text":"wa-aqbala","language_name":"english","language_id":38}},{"id":30384,"position":2,"audio_url":"wbw/037_027_002.mp3","char_type_name":"word","page_number":447,"line_number":1,"text":"بَعْضُهُمْ","translation":{"text":"তাদের একে","language_name":"bengali","language_id":20},"transliteration":{"text":"baʿḍuhum","language_name":"english","language_id":38}},{"id":30385,"position":3,"audio_url":"wbw/037_027_003.mp3","char_type_name":"word","page_number":447,"line_number":2,"text":"عَلَىٰ","translation":{"text":"দিকে","language_name":"bengali","language_id":20},"transliteration":{"text":"ʿalā","language_name":"english","language_id":38}},{"id":30386,"position":4,"audio_url":"wbw/037_027_004.mp3","char_type_name":"word","page_number":447,"line_number":2,"text":"بَعْضٍۢ","translation":{"text":"অপরের","language_name":"bengali","language_id":20},"transliteration":{"text":"baʿḍin","language_name":"english","language_id":38}},{"id":30387,"position":5,"audio_url":"wbw/037_027_005.mp3","char_type_name":"word","page_number":447,"line_number":2,"text":"يَتَسَآءَلُونَ","translation":{"text":"তারা পরস্পরে জিজ্ঞাসাবাদ করবে","language_name":"bengali","language_id":20},"transliteration":{"text":"yatasāalūna","language_name":"english","language_id":38}},{"id":30388,"position":6,"audio_url":null,"char_type_name":"end","page_number":447,"line_number":2,"text":"٢٧","translation":{"text":"(২৭)","language_name":"bengali","language_id":20},"transliteration":{"text":null,"language_name":"english","language_id":38}}]},{"id":3816,"verse_number":28,"verse_key":"37:28","hizb_number":45,"rub_el_hizb_number":179,"ruku_number":389,"manzil_number":6,"sajdah_number":null,"page_number":447,"juz_number":23,"words":[{"id":31395,"position":1,"audio_url":"wbw/037_028_001.mp3","char_type_name":"word","page_number":447,"line_number":2,"text":"قَالُوٓا۟","translation":{"text":"(অনুসারীরা) বলবে","language_name":"bengali","language_id":20},"transliteration":{"text":"qālū","language_name":"english","language_id":38}},{"id":31396,"position":2,"audio_url":"wbw/037_028_002.mp3","char_type_name":"word","page_number":447,"line_number":2,"text":"إِنَّكُمْ","translation":{"text":"\"তোমরা নিশ্চয়ই","language_name":"bengali","language_id":20},"transliteration":{"text":"innakum","language_name":"english","language_id":38}},{"id":31397,"position":3,"audio_url":"wbw/037_028_003.mp3","char_type_name":"word","page_number":447,"line_number":2,"text":"كُنتُمْ","translation":{"text":"আমাদের","language_name":"bengali","language_id":20},"transliteration":{"text":"kuntum","language_name":"english","language_id":38}},{"id":31398,"position":4,"audio_url":"wbw/037_028_004.mp3","char_type_name":"word","page_number":447,"line_number":2,"text":"تَأْتُونَنَا","translation":{"text":"কাছে আসতে","language_name":"bengali","language_id":20},"transliteration":{"text":"tatūnanā","language_name":"english","language_id":38}},{"id":31399,"position":5,"audio_url":"wbw/037_028_005.mp3","char_type_name":"word","page_number":447,"line_number":2,"text":"عَنِ","translation":{"text":"থেকে","language_name":"bengali","language_id":20},"transliteration":{"text":"ʿani","language_name":"english","language_id":38}},{"id":31400,"position":6,"audio_url":"wbw/037_028_006.mp3","char_type_name":"word","page_number":447,"line_number":2,"text":"ٱلْيَمِينِ","translation":{"text":"ডানদিক (অর্থাৎ শক্তি নিয়ে)\"","language_name":"bengali","language_id":20},"transliteration":{"text":"l-yamīni","language_name":"english","language_id":38}},{"id":31401,"position":7,"audio_url":null,"char_type_name":"end","page_number":447,"line_number":2,"text":"٢٨","translation":{"text":"(২৮)","language_name":"bengali","language_id":20},"transliteration":{"text":null,"language_name":"english","language_id":38}}]},{"id":3817,"verse_number":29,"verse_key":"37:29","hizb_number":45,"rub_el_hizb_number":179,"ruku_number":389,"manzil_number":6,"sajdah_number":null,"page_number":447,"juz_number":23,"words":[{"id":32343,"position":1,"audio_url":"wbw/037_029_001.mp3","char_type_name":"word","page_number":447,"line_number":3,"text":"قَالُوا۟","translation":{"text":"(নেতারা) বলবে","language_name":"bengali","language_id":20},"transliteration":{"text":"qālū","language_name":"english","language_id":38}},{"id":32344,"position":2,"audio_url":"wbw/037_029_002.mp3","char_type_name":"word","page_number":447,"line_number":3,"text":"بَل","translation":{"text":"\"বরং","language_name":"bengali","language_id":20},"transliteration":{"text":"bal","language_name":"english","language_id":38}},{"id":32345,"position":3,"audio_url":"wbw/037_029_003.mp3","char_type_name":"word","page_number":447,"line_number":3,"text":"لَّمْ","translation":{"text":"না","language_name":"bengali","language_id":20},"transliteration":{"text":"lam","language_name":"english","language_id":38}},{"id":32346,"position":4,"audio_url":"wbw/037_029_004.mp3","char_type_name":"word","page_number":447,"line_number":3,"text":"تَكُونُوا۟","translation":{"text":"তোমরা ছিলে","language_name":"bengali","language_id":20},"transliteration":{"text":"takūnū","language_name":"english","language_id":38}},{"id":32347,"position":5,"audio_url":"wbw/037_029_005.mp3","char_type_name":"word","page_number":447,"line_number":3,"text":"مُؤْمِنِينَ","translation":{"text":"মু'মিন","language_name":"bengali","language_id":20},"transliteration":{"text":"mu'minīna","language_name":"english","language_id":38}},{"id":32348,"position":6,"audio_url":null,"char_type_name":"end","page_number":447,"line_number":3,"text":"٢٩","translation":{"text":"(২৯)","language_name":"bengali","language_id":20},"transliteration":{"text":null,"language_name":"english","language_id":38}}]},{"id":3818,"verse_number":30,"verse_key":"37:30","hizb_number":45,"rub_el_hizb_number":179,"ruku_number":389,"manzil_number":6,"sajdah_number":null,"page_number":447,"juz_number":23,"words":[{"id":33203,"position":1,"audio_url":"wbw/037_030_001.mp3","char_type_name":"word","page_number":447,"line_number":3,"text":"وَمَا","translation":{"text":"এবং না","language_name":"bengali","language_id":20},"transliteration":{"text":"wamā","language_name":"english","language_id":38}},{"id":33204,"position":2,"audio_url":"wbw/037_030_002.mp3","char_type_name":"word","page_number":447,"line_number":3,"text":"كَانَ","translation":{"text":"ছিলো","language_name":"bengali","language_id":20},"transliteration":{"text":"kāna","language_name":"english","language_id":38}},{"id":33205,"position":3,"audio_url":"wbw/037_030_003.mp3","char_type_name":"word","page_number":447,"line_number":3,"text":"لَنَا","translation":{"text":"আমাদের জন্যে","language_name":"bengali","language_id":20},"transliteration":{"text":"lanā","language_name":"english","language_id":38}},{"id":33206,"position":4,"audio_url":"wbw/037_030_004.mp3","char_type_name":"word","page_number":447,"line_number":3,"text":"عَلَيْكُم","translation":{"text":"তোমাদের উপর","language_name":"bengali","language_id":20},"transliteration":{"text":"ʿalaykum","language_name":"english","language_id":38}},{"id":33207,"position":5,"audio_url":"wbw/037_030_005.mp3","char_type_name":"word","page_number":447,"line_number":3,"text":"مِّن","translation":{"text":"কোনো","language_name":"bengali","language_id":20},"transliteration":{"text":"min","language_name":"english","language_id":38}},{"id":33208,"position":6,"audio_url":"wbw/037_030_006.mp3","char_type_name":"word","page_number":447,"line_number":3,"text":"سُلْطَـٰنٍۭ ۖ","translation":{"text":"কর্তৃত্ব","language_name":"bengali","language_id":20},"transliteration":{"text":"sul'ṭānin","language_name":"english","language_id":38}},{"id":33210,"position":7,"audio_url":"wbw/037_030_008.mp3","char_type_name":"word","page_number":447,"line_number":4,"text":"بَلْ","translation":{"text":"বরং","language_name":"bengali","language_id":20},"transliteration":{"text":"bal","language_name":"english","language_id":38}},{"id":33211,"position":8,"audio_url":"wbw/037_030_009.mp3","char_type_name":"word","page_number":447,"line_number":4,"text":"كُنتُمْ","translation":{"text":"তোমরা ছিলে","language_name":"bengali","language_id":20},"transliteration":{"text":"kuntum","language_name":"english","language_id":38}},{"id":33212,"position":9,"audio_url":"wbw/037_030_010.mp3","char_type_name":"word","page_number":447,"line_number":4,"text":"قَوْمًۭا","translation":{"text":"সম্প্রদায়","language_name":"bengali","language_id":20},"transliteration":{"text":"qawman","language_name":"english","language_id":38}},{"id":33213,"position":10,"audio_url":"wbw/037_030_011.mp3","char_type_name":"word","page_number":447,"line_number":4,"text":"طَـٰغِينَ","translation":{"text":"অবাধ্য","language_name":"bengali","language_id":20},"transliteration":{"text":"ṭāghīna","language_name":"english","language_id":38}},{"id":33214,"position":11,"audio_url":null,"char_type_name":"end","page_number":447,"line_number":4,"text":"٣٠","translation":{"text":"(৩০)","language_name":"bengali","language_id":20},"transliteration":{"text":null,"language_name":"english","language_id":38}}]}],"pagination":{"per_page":10,"current_page":3,"next_page":4,"total_pages":19,"total_records":182}}
