{"verses":[{"id":3839,"verse_number":51,"verse_key":"37:51","hizb_number":45,"rub_el_hizb_number":179,"ruku_number":389,"manzil_number":6,"sajdah_number":null,"page_number":447,"juz_number":23,"words":[{"id":49470,"position":1,"audio_url":"wbw/037_051_001.mp3","char_type_name":"word","page_number":447,"line_number":15,"text":"قَالَ","translation":{"text":"বলবে,","language_name":"bengali","language_id":20},"transliteration":{"text":"qāla","language_name":"english","language_id":38}},{"id":49471,"position":2,"audio_url":"wbw/037_051_002.mp3","char_type_name":"word","page_number":447,"line_number":15,"text":"قَآئِلٌۭ","translation":{"text":"এক বক্তা","language_name":"bengali","language_id":20},"transliteration":{"text":"qāilun","language_name":"english","language_id":38}},{"id":49472,"position":3,"audio_url":"wbw/037_051_003.mp3","char_type_name":"word","page_number":447,"line_number":15,"text":"مِّنْهُمْ","translation":{"text":"তাদের মধ্যে হ'তে","language_name":"bengali","language_id":20},"transliteration":{"text":"min'hum","language_name":"english","language_id":38}},{"id":49473,"position":4,"audio_url":"wbw/037_051_004.mp3","char_type_name":"word","page_number":447,"line_number":15,"text":"إِنِّى","translation":{"text":"\"নিশ্চয়ই আমার","language_name":"bengali","language_id":20},"transliteration":{"text":"innī","language_name":"english","language_id":38}},{"id":49474,"position":5,"audio_url":"wbw/037_051_005.mp3","char_type_name":"word","page_number":447,"line_number":15,"text":"كَانَ","translation":{"text":"ছিলো","language_name":"bengali","language_id":20},"transliteration":{"text":"kāna","language_name":"english","language_id":38}},{"id":49475,"position":6,"audio_url":"wbw/037_051_006.mp3","char_type_name":"word","page_number":447,"line_number":15,"text":"لِى","translation":{"text":"আমার","language_name":"bengali","language_id":20},"transliteration":{"text":"lī","language_name":"english","language_id":38}},{"id":49476,"position":7,"audio_url":"wbw/037_051_007.mp3","char_type_name":"word","page_number":447,"line_number":15,"text":"قَرِينٌۭ","translation":{"text":"একজন সঙ্গী","language_name":"bengali","language_id":20},"transliteration":{"text":"qarīnun","language_name":"english","language_id":38}},{"id":49477,"position":8,"audio_url":null,"char_type_name":"end","page_number":447,"line_number":15,"text":"٥١","translation":{"text":"(৫১)","language_name":"bengali","language_id":20},"transliteration":{"text":null,"language_name":"english","language_id":38}}]},{"id":3840,"verse_number":52,"verse_key":"37:52","hizb_number":45,"rub_el_hizb_number":179,"ruku_number":389,"manzil_number":6,"sajdah_number":null,"page_number":448,"juz_number":23,"words":[{"id":50196,"position":1,"audio_url":"wbw/037_052_001.mp3","char_type_name":"word","page_number":448,"line_number":1,"text":"يَقُولُ","translation":{"text":"সে বলতো","language_name":"bengali","language_id":20},"transliteration":{"text":"yaqūlu","language_name":"english","language_id":38}},{"id":50197,"position":2,"audio_url":"wbw/037_052_002.mp3","char_type_name":"word","page_number":448,"line_number":1,"text":"أَءِنَّكَ","translation":{"text":"\"তুমি কি নিশ্চয়ই","language_name":"bengali","language_id":20},"transliteration":{"text":"a-innaka","language_name":"english","language_id":38}},{"id":50198,"position":3,"audio_url":"wbw/037_052_003.mp3","char_type_name":"word","page_number":448,"line_number":1,"text":"لَمِنَ","translation":{"text":"অবশ্যই অন্তর্ভুক্ত","language_name":"bengali","language_id":20},"transliteration":{"text":"lamina","language_name":"english","language_id":38}},{"id":50199,"position":4,"audio_url":"wbw/037_052_004.mp3","char_type_name":"word","page_number":448,"line_number":1,"text":"ٱلْمُصَدِّقِينَ","translation":{"text":"সত্যতা স্বীকারকারীদের","language_name":"bengali","language_id":20},"transliteration":{"text":"l-muṣadiqīna","language_name":"english","language_id":38}},{"id":50200,"position":5,"audio_url":null,"char_type_name":"end","page_number":448,"line_number":1,"text":"٥٢","translation":{"text":"(৫২)","language_name":"bengali","language_id":20},"transliteration":{"text":null,"language_name":"english","language_id":38}}]},{"id":3841,"verse_number":53,"verse_key":"37:53","hizb_number":45,"rub_el_hizb_number":179,"ruku_number":389,"manzil_number":6,"sajdah_number":null,"page_number":448,"juz_number":23,"words":[{"id":50889,"position":1,"audio_url":"wbw/037_053_001.mp3","char_type_name":"word","page_number":448,"line_number":1,"text":"أَءِذَا","translation":{"text":"কি যখন","language_name":"bengali","language_id":20},"transliteration":{"text":"a-idhā","language_name":"english","language_id":38}},{"id":50890,"position":2,"audio_url":"wbw/037_053_002.mp3","char_type_name":"word","page_number":448,"line_number":1,"text":"مِتْنَا","translation":{"text":"আমরা মারা যাবো","language_name":"bengali","language_id":20},"transliteration":{"text":"mit'nā","language_name":"english","language_id":38}},{"id":50891,"position":3,"audio_url":"wbw/037_053_003.mp3","char_type_name":"word","page_number":448,"line_number":1,"text":"وَكُنَّا","translation":{"text":"এবং আমরা হবো","language_name":"bengali","language_id":20},"transliteration":{"text":"wakunnā","language_name":"english","language_id":38}},{"id":50892,"position":4,"audio_url":"wbw/037_053_004.mp3","char_type_name":"word","page_number":448,"line_number":1,"text":"تُرَابًۭا","translation":{"text":"মাটি","language_name":"bengali","language_id":20},"transliteration":{"text":"turāban","language_name":"english","language_id":38}},{"id":50893,"position":5,"audio_url":"wbw/037_053_005.mp3","char_type_name":"word","page_number":448,"line_number":1,"text":"وَعِظَـٰمًا","translation":{"text":"ও হাড় (সর্বস্ব)","language_name":"bengali","language_id":20},"transliteration":{"text":"waʿiẓāman","language_name":"english","language_id":38}},{"id":50894,"position":6,"audio_url":"wbw/037_053_006.mp3","char_type_name":"word","page_number":448,"line_number":1,"text":"أَءِنَّا","translation":{"text":"আমরা কি নিশ্চয়ই","language_name":"bengali","language_id":20},"transliteration":{"text":"a-innā","language_name":"english","language_id":38}},{"id":50895,"position":7,"audio_url":"wbw/037_053_007.mp3","char_type_name":"word","page_number":448,"line_number":2,"text":"لَمَدِينُونَ","translation":{"text":"প্রতিফলপ্রাপ্ত হবো অবশ্যই\"","language_name":"bengali","language_id":20},"transliteration":{"text":"lamadīnūna","language_name":"english","language_id":38}},{"id":50896,"position":8,"audio_url":null,"char_type_name":"end","page_number":448,"line_number":2,"text":"٥٣","translation":{"text":"(৫৩)","language_name":"bengali","language_id":20},"transliteration":{"text":null,"language_name":"english","language_id":38}}]},{"id":3842,"verse_number":54,"verse_key":"37:54","hizb_number":45,"rub_el_hizb_number":179,"ruku_number":389,"manzil_number":6,"sajdah_number":null,"page_number":448,"juz_number":23,"words":[{"id":51486,"position":1,"audio_url":"wbw/037_054_001.mp3","char_type_name":"word","page_number":448,"line_number":2,"text":"قَالَ","translation":{"text":"বলবে","language_name":"bengali","language_id":20},"transliteration":{"text":"qāla","language_name":"english","language_id":38}},{"id":51487,"position":2,"audio_url":"wbw/037_054_002.mp3","char_type_name":"word","page_number":448,"line_number":2,"text":"هَلْ","translation":{"text":"\"কি","language_name":"bengali","language_id":20},"transliteration":{"text":"hal","language_name":"english","language_id":38}},{"id":51488,"position":3,"audio_url":"wbw/037_054_003.mp3","char_type_name":"word","page_number":448,"line_number":2,"text":"أَنتُم","translation":{"text":"তোমরা","language_name":"bengali","language_id":20},"transliteration":{"text":"antum","language_name":"english","language_id":38}},{"id":51489,"position":4,"audio_url":"wbw/037_054_004.mp3","char_type_name":"word","page_number":448,"line_number":2,"text":"مُّطَّلِعُونَ","translation":{"text":"(সেসব লোকদেরকে) উঁকি মেরে দেখতে পাও\"","language_name":"bengali","language_id":20},"transliteration":{"text":"muṭṭaliʿūna","language_name":"english","language_id":38}},{"id":51490,"position":5,"audio_url":null,"char_type_name":"end","page_number":448,"line_number":2,"text":"٥٤","translation":{"text":"(৫৪)","language_name":"bengali","language_id":20},"transliteration":{"text":null,"language_name":"english","language_id":38}}]},{"id":3843,"verse_number":55,"verse_key":"37:55","hizb_number":45,"rub_el_hizb_number":179,"ruku_number":389,"manzil_number":6,"sajdah_number":null,"page_number":448,"juz_number":23,"words":[{"id":51994,"position":1,"audio_url":"wbw/037_055_001.mp3","char_type_name":"word","page_number":448,"line_number":2,"text":"فَٱطَّلَعَ","translation":{"text":"সে তখন উঁকি মেরে দেখবে","language_name":"bengali","language_id":20},"transliteration":{"text":"fa-iṭṭalaʿa","language_name":"english","language_id":38}},{"id":51995,"position":2,"audio_url":"wbw/037_055_002.mp3","char_type_name":"word","page_number":448,"line_number":2,"text":"فَرَءَاهُ","translation":{"text":"তাকে ফলে দেখতে পাবে","language_name":"bengali","language_id":20},"transliteration":{"text":"faraāhu","language_name":"english","language_id":38}},{"id":51996,"position":3,"audio_url":"wbw/037_055_003.mp3","char_type_name":"word","page_number":448,"line_number":2,"text":"فِى","translation":{"text":"মধ্যে","language_name":"bengali","language_id":20},"transliteration":{"text":"fī","language_name":"english","language_id":38}},{"id":51997,"position":4,"audio_url":"wbw/037_055_004.mp3","char_type_name":"word","page_number":448,"line_number":2,"text":"سَوَآءِ","translation":{"text":"মাঝখানে","language_name":"bengali","language_id":20},"transliteration":{"text":"sawāi","language_name":"english","language_id":38}},{"id":51998,"position":5,"audio_url":"wbw/037_055_005.mp3","char_type_name":"word","page_number":448,"line_number":3,"text":"ٱلْجَحِيمِ","translation":{"text":"জাহান্নামের","language_name":"bengali","language_id":20},"transliteration":{"text":"l-jaḥīmi","language_name":"english","language_id":38}},{"id":51999,"position":6,"audio_url":null,"char_type_name":"end","page_number":448,"line_number":3,"text":"٥٥","translation":{"text":"(৫৫)","language_name":"bengali","language_id":20},"transliteration":{"text":null,"language_name":"english","language_id":38}}]},{"id":3844,"verse_number":56,"verse_key":"37:56","hizb_number":45,"rub_el_hizb_number":179,"ruku_number":389,"manzil_number":6,"sajdah_number":null,"page_number":448,"juz_number":23,"words":[{"id":52294,"position":1,"audio_url":"wbw/037_056_001.mp3","char_type_name":"word","page_number":448,"line_number":3,"text":"قَالَ","translation":{"text":"সে বলবে","language_name":"bengali","language_id":20},"transliteration":{"text":"qāla","language_name":"english","language_id":38}},{"id":52295,"position":2,"audio_url":"wbw/037_056_002.mp3","char_type_name":"word","page_number":448,"line_number":3,"text":"تَٱللَّهِ","translation":{"text":"\"আল্লাহর শপথ","language_name":"bengali","language_id":20},"transliteration":{"text":"tal-lahi","language_name":"english","language_id":38}},{"id":52296,"position":3,"audio_url":"wbw/037_056_003.mp3","char_type_name":"word","page_number":448,"line_number":3,"text":"إِن","translation":{"text":"যে","language_name":"bengali","language_id":20},"transliteration":{"text":"in","language_name":"english","language_id":38}},{"id":52297,"position":4,"audio_url":"wbw/037_056_004.mp3","char_type_name":"word","page_number":448,"line_number":3,"text":"كِدتَّ","translation":{"text":"তুমি প্রায়","language_name":"bengali","language_id":20},"transliteration":{"text":"kidtta","language_name":"english","language_id":38}},{"id":52298,"position":5,"audio_url":"wbw/037_056_005.mp3","char_type_name":"word","page_number":448,"line_number":3,"text":"لَتُرْدِينِ","translation":{"text":"আমাকে ধ্বংস করেই ফেলেছিলে","language_name":"bengali","language_id":20},"transliteration":{"text":"latur'dīni","language_name":"english","language_id":38}},{"id":52299,"position":6,"audio_url":null,"char_type_name":"end","page_number":448,"line_number":3,"text":"٥٦","translation":{"text":"(৫৬)","language_name":"bengali","language_id":20},"transliteration":{"text":null,"language_name":"english","language_id":38}}]},{"id":3845,"verse_number":57,"verse_key":"37:57","hizb_number":45,"rub_el_hizb_number":179,"ruku_number":389,"manzil_number":6,"sajdah_number":null,"page_number":448,"juz_number":23,"words":[{"id":53039,"position":1,"audio_url":"wbw/037_057_001.mp3","char_type_name":"word","page_number":448,"line_number":3,"text":"وَلَوْلَا","translation":{"text":"এবং যদি না","language_name":"bengali","language_id":20},"transliteration":{"text":"walawlā","language_name":"english","language_id":38}},{"id":53040,"position":2,"audio_url":"wbw/037_057_002.mp3","char_type_name":"word","page_number":448,"line_number":3,"text":"نِعْمَةُ","translation":{"text":"অনুগ্রহ (হতো)","language_name":"bengali","language_id":20},"transliteration":{"text":"niʿ'matu","language_name":"english","language_id":38}},{"id":53041,"position":3,"audio_url":"wbw/037_057_003.mp3","char_type_name":"word","page_number":448,"line_number":3,"text":"رَبِّى","translation":{"text":"আমার রবের","language_name":"bengali","language_id":20},"transliteration":{"text":"rabbī","language_name":"english","language_id":38}},{"id":53042,"position":4,"audio_url":"wbw/037_057_004.mp3","char_type_name":"word","page_number":448,"line_number":4,"text":"لَكُنتُ","translation":{"text":"অবশ্যই আমি হতাম","language_name":"bengali","language_id":20},"transliteration":{"text":"lakuntu","language_name":"english","language_id":38}},{"id":53043,"position":5,"audio_url":"wbw/037_057_005.mp3","char_type_name":"word","page_number":448,"line_number":4,"text":"مِنَ","translation":{"text":"অন্তর্ভুক্ত","language_name":"bengali","language_id":20},"transliteration":{"text":"mina","language_name":"english","language_id":38}},{"id":53044,"position":6,"audio_url":"wbw/037_057_006.mp3","char_type_name":"word","page_number":448,"line_number":4,"text":"ٱلْمُحْضَرِينَ","translation":{"text":"(জাহান্নামে) উপস্থিত করা লোকদের","language_name":"bengali","language_id":20},"transliteration":{"text":"l-muḥ'ḍarīna","language_name":"english","language_id":38}},{"id":53045,"position":7,"audio_url":null,"char_type_name":"end","page_number":448,"line_number":4,"text":"٥٧","translation":{"text":"(৫৭)","language_name":"bengali","language_id":20},"transliteration":{"text":null,"language_name":"english","language_id":38}}]},{"id":3846,"verse_number":58,"verse_key":"37:58","hizb_number":45,"rub_el_hizb_number":179,"ruku_number":389,"manzil_number":6,"sajdah_number":null,"page_number":448,"juz_number":23,"words":[{"id":53591,"position":1,"audio_url":"wbw/037_058_001.mp3","char_type_name":"word","page_number":448,"line_number":4,"text":"أَفَمَا","translation":{"text":"তবে কি না","language_name":"bengali","language_id":20},"transliteration":{"text":"afamā","language_name":"english","language_id":38}},{"id":53592,"position":2,"audio_url":"wbw/037_058_002.mp3","char_type_name":"word","page_number":448,"line_number":4,"text":"نَحْنُ","translation":{"text":"আমরা","language_name":"bengali","language_id":20},"transliteration":{"text":"naḥnu","language_name":"english","language_id":38}},{"id":53593,"position":3,"audio_url":"wbw/037_058_003.mp3","char_type_name":"word","page_number":448,"line_number":4,"text":"بِمَيِّتِينَ","translation":{"text":"মৃত্যুবরণকারী হবো","language_name":"bengali","language_id":20},"transliteration":{"text":"bimayyitīna","language_name":"english","language_id":38}},{"id":53594,"position":4,"audio_url":null,"char_type_name":"end","page_number":448,"line_number":4,"text":"٥٨","translation":{"text":"(৫৮)","language_name":"bengali","language_id":20},"transliteration":{"text":null,"language_name":"english","language_id":38}}]},{"id":3847,"verse_number":59,"verse_key":"37:59","hizb_number":45,"rub_el_hizb_number":179,"ruku_number":389,"manzil_number":6,"sajdah_number":null,"page_number":448,"juz_number":23,"words":[{"id":54142,"position":1,"audio_url":"wbw/037_059_001.mp3","char_type_name":"word","page_number":448,"line_number":4,"text":"إِلَّا","translation":{"text":"ব্যতীত","language_name":"bengali","language_id":20},"transliteration":{"text":"illā","language_name":"english","language_id":38}},{"id":54143,"position":2,"audio_url":"wbw/037_059_002.mp3","char_type_name":"word","page_number":448,"line_number":4,"text":"مَوْتَتَنَا","translation":{"text":"আমাদের মৃত্যু","language_name":"bengali","language_id":20},"transliteration":{"text":"mawtatanā","language_name":"english","language_id":38}},{"id":54144,"position":3,"audio_url":"wbw/037_059_003.mp3","char_type_name":"word","page_number":448,"line_number":5,"text":"ٱلْأُولَىٰ","translation":{"text":"প্রথম","language_name":"bengali","language_id":20},"transliteration":{"text":"l-ūlā","language_name":"english","language_id":38}},{"id":54145,"position":4,"audio_url":"wbw/037_059_004.mp3","char_type_name":"word","page_number":448,"line_number":5,"text":"وَمَا","translation":{"text":"এবং না","language_name":"bengali","language_id":20},"transliteration":{"text":"wamā","language_name":"english","language_id":38}},{"id":54146,"position":5,"audio_url":"wbw/037_059_005.mp3","char_type_name":"word","page_number":448,"line_number":5,"text":"نَحْنُ","translation":{"text":"আমরা","language_name":"bengali","language_id":20},"transliteration":{"text":"naḥnu","language_name":"english","language_id":38}},{"id":54147,"position":6,"audio_url":"wbw/037_059_006.mp3","char_type_name":"word","page_number":448,"line_number":5,"text":"بِمُعَذَّبِينَ","translation":{"text":"শাস্তিপ্রাপ্ত হবো\"","language_name":"bengali","language_id":20},"transliteration":{"text":"bimuʿadhabīna","language_name":"english","language_id":38}},{"id":54148,"position":7,"audio_url":null,"char_type_name":"end","page_number":448,"line_number":5,"text":"٥٩","translation":{"text":"(৫৯)","language_name":"bengali","language_id":20},"transliteration":{"text":null,"language_name":"english","language_id":38}}]},{"id":3848,"verse_number":60,"verse_key":"37:60","hizb_number":45,"rub_el_hizb_number":179,"ruku_number":389,"manzil_number":6,"sajdah_number":null,"page_number":448,"juz_number":23,"words":[{"id":54504,"position":1,"audio_url":"wbw/037_060_001.mp3","char_type_name":"word","page_number":448,"line_number":5,"text":"إِنَّ","translation":{"text":"নিশ্চয়ই","language_name":"bengali","language_id":20},"transliteration":{"text":"inna","language_name":"english","language_id":38}},{"id":54505,"position":2,"audio_url":"wbw/037_060_002.mp3","char_type_name":"word","page_number":448,"line_number":5,"text":"هَـٰذَا","translation":{"text":"এটা","language_name":"bengali","language_id":20},"transliteration":{"text":"hādhā","language_name":"english","language_id":38}},{"id":54506,"position":3,"audio_url":"wbw/037_060_003.mp3","char_type_name":"word","page_number":448,"line_number":5,"text":"لَهُوَ","translation":{"text":"অবশ্যই সেই","language_name":"bengali","language_id":20},"transliteration":{"text":"lahuwa","language_name":"english","language_id":38}},{"id":54507,"position":4,"audio_url":"wbw/037_060_004.mp3","char_type_name":"word","page_number":448,"line_number":5,"text":"ٱلْفَوْزُ","translation":{"text":"সাফল্য","language_name":"bengali","language_id":20},"transliteration":{"text":"l-fawzu","language_name":"english","language_id":38}},{"id":54508,"position":5,"audio_url":"wbw/037_060_005.mp3","char_type_name":"word","page_number":448,"line_number":5,"text":"ٱلْعَظِيمُ","translation":{"text":"মহা","language_name":"bengali","language_id":20},"transliteration":{"text":"l-ʿaẓīmu","language_name":"english","language_id":38}},{"id":54509,"position":6,"audio_url":null,"char_type_name":"end","page_number":448,"line_number":5,"text":"٦٠","translation":{"text":"(৬০)","language_name":"bengali","language_id":20},"transliteration":{"text":null,"language_name":"english","language_id":38}}]}],"pagination":{"per_page":10,"current_page":6,"next_page":7,"total_pages":19,"total_records":182}}
