{"verses":[{"id":3869,"verse_number":81,"verse_key":"37:81","hizb_number":45,"rub_el_hizb_number":179,"ruku_number":390,"manzil_number":6,"sajdah_number":null,"page_number":449,"juz_number":23,"words":[{"id":64867,"position":1,"audio_url":"wbw/037_081_001.mp3","char_type_name":"word","page_number":449,"line_number":2,"text":"إِنَّهُۥ","translation":{"text":"সে নিশ্চয়ই (ছিলো)","language_name":"bengali","language_id":20},"transliteration":{"text":"innahu","language_name":"english","language_id":38}},{"id":64868,"position":2,"audio_url":"wbw/037_081_002.mp3","char_type_name":"word","page_number":449,"line_number":3,"text":"مِنْ","translation":{"text":"অন্তর্ভুক্ত","language_name":"bengali","language_id":20},"transliteration":{"text":"min","language_name":"english","language_id":38}},{"id":64869,"position":3,"audio_url":"wbw/037_081_003.mp3","char_type_name":"word","page_number":449,"line_number":3,"text":"عِبَادِنَا","translation":{"text":"আমাদের দাসদের","language_name":"bengali","language_id":20},"transliteration":{"text":"ʿibādinā","language_name":"english","language_id":38}},{"id":64870,"position":4,"audio_url":"wbw/037_081_004.mp3","char_type_name":"word","page_number":449,"line_number":3,"text":"ٱلْمُؤْمِنِينَ","translation":{"text":"মু'মিন","language_name":"bengali","language_id":20},"transliteration":{"text":"l-mu'minīna","language_name":"english","language_id":38}},{"id":64871,"position":5,"audio_url":null,"char_type_name":"end","page_number":449,"line_number":3,"text":"٨١","translation":{"text":"(৮১)","language_name":"bengali","language_id":20},"transliteration":{"text":null,"language_name":"english","language_id":38}}]},{"id":3870,"verse_number":82,"verse_key":"37:82","hizb_number":45,"rub_el_hizb_number":179,"ruku_number":390,"manzil_number":6,"sajdah_number":null,"page_number":449,"juz_number":23,"words":[{"id":65037,"position":1,"audio_url":"wbw/037_082_001.mp3","char_type_name":"word","page_number":449,"line_number":3,"text":"ثُمَّ","translation":{"text":"এরপর","language_name":"bengali","language_id":20},"transliteration":{"text":"thumma","language_name":"english","language_id":38}},{"id":65038,"position":2,"audio_url":"wbw/037_082_002.mp3","char_type_name":"word","page_number":449,"line_number":3,"text":"أَغْرَقْنَا","translation":{"text":"আমরা ডুবিয়ে দিই","language_name":"bengali","language_id":20},"transliteration":{"text":"aghraqnā","language_name":"english","language_id":38}},{"id":65039,"position":3,"audio_url":"wbw/037_082_003.mp3","char_type_name":"word","page_number":449,"line_number":3,"text":"ٱلْـَٔاخَرِينَ","translation":{"text":"অন্যদেরকে","language_name":"bengali","language_id":20},"transliteration":{"text":"l-ākharīna","language_name":"english","language_id":38}},{"id":65040,"position":4,"audio_url":null,"char_type_name":"end","page_number":449,"line_number":3,"text":"٨٢","translation":{"text":"(৮২)","language_name":"bengali","language_id":20},"transliteration":{"text":null,"language_name":"english","language_id":38}}]},{"id":3871,"verse_number":83,"verse_key":"37:83","hizb_number":45,"rub_el_hizb_number":180,"ruku_number":390,"manzil_number":6,"sajdah_number":null,"page_number":449,"juz_number":23,"words":[{"id":65354,"position":1,"audio_url":"wbw/037_083_002.mp3","char_type_name":"word","page_number":449,"line_number":3,"text":"۞ وَإِنَّ","translation":{"text":"এবং নিশ্চয়ই","language_name":"bengali","language_id":20},"transliteration":{"text":"wa-inna","language_name":"english","language_id":38}},{"id":65355,"position":2,"audio_url":"wbw/037_083_003.mp3","char_type_name":"word","page_number":449,"line_number":3,"text":"مِن","translation":{"text":"মধ্য হ'তে","language_name":"bengali","language_id":20},"transliteration":{"text":"min","language_name":"english","language_id":38}},{"id":65356,"position":3,"audio_url":"wbw/037_083_004.mp3","char_type_name":"word","page_number":449,"line_number":4,"text":"شِيعَتِهِۦ","translation":{"text":"তার পথের অনুসারীদের","language_name":"bengali","language_id":20},"transliteration":{"text":"shīʿatihi","language_name":"english","language_id":38}},{"id":65357,"position":4,"audio_url":"wbw/037_083_005.mp3","char_type_name":"word","page_number":449,"line_number":4,"text":"لَإِبْرَٰهِيمَ","translation":{"text":"ইব্রাহীম অবশ্যই (অন্তর্ভক্ত ছিলো)","language_name":"bengali","language_id":20},"transliteration":{"text":"la-ib'rāhīma","language_name":"english","language_id":38}},{"id":65358,"position":5,"audio_url":null,"char_type_name":"end","page_number":449,"line_number":4,"text":"٨٣","translation":{"text":"(৮৩)","language_name":"bengali","language_id":20},"transliteration":{"text":null,"language_name":"english","language_id":38}}]},{"id":3872,"verse_number":84,"verse_key":"37:84","hizb_number":45,"rub_el_hizb_number":180,"ruku_number":390,"manzil_number":6,"sajdah_number":null,"page_number":449,"juz_number":23,"words":[{"id":65615,"position":1,"audio_url":"wbw/037_084_001.mp3","char_type_name":"word","page_number":449,"line_number":4,"text":"إِذْ","translation":{"text":"(স্মরণ করো) যখন","language_name":"bengali","language_id":20},"transliteration":{"text":"idh","language_name":"english","language_id":38}},{"id":65616,"position":2,"audio_url":"wbw/037_084_002.mp3","char_type_name":"word","page_number":449,"line_number":4,"text":"جَآءَ","translation":{"text":"সে এসেছিলো","language_name":"bengali","language_id":20},"transliteration":{"text":"jāa","language_name":"english","language_id":38}},{"id":65617,"position":3,"audio_url":"wbw/037_084_003.mp3","char_type_name":"word","page_number":449,"line_number":4,"text":"رَبَّهُۥ","translation":{"text":"তার রবের (কাছে)","language_name":"bengali","language_id":20},"transliteration":{"text":"rabbahu","language_name":"english","language_id":38}},{"id":65618,"position":4,"audio_url":"wbw/037_084_004.mp3","char_type_name":"word","page_number":449,"line_number":4,"text":"بِقَلْبٍۢ","translation":{"text":"নিয়ে অন্তর","language_name":"bengali","language_id":20},"transliteration":{"text":"biqalbin","language_name":"english","language_id":38}},{"id":65619,"position":5,"audio_url":"wbw/037_084_005.mp3","char_type_name":"word","page_number":449,"line_number":4,"text":"سَلِيمٍ","translation":{"text":"বিশুদ্ধ","language_name":"bengali","language_id":20},"transliteration":{"text":"salīmin","language_name":"english","language_id":38}},{"id":65620,"position":6,"audio_url":null,"char_type_name":"end","page_number":449,"line_number":4,"text":"٨٤","translation":{"text":"(৮৪)","language_name":"bengali","language_id":20},"transliteration":{"text":null,"language_name":"english","language_id":38}}]},{"id":3873,"verse_number":85,"verse_key":"37:85","hizb_number":45,"rub_el_hizb_number":180,"ruku_number":390,"manzil_number":6,"sajdah_number":null,"page_number":449,"juz_number":23,"words":[{"id":66335,"position":1,"audio_url":"wbw/037_085_001.mp3","char_type_name":"word","page_number":449,"line_number":4,"text":"إِذْ","translation":{"text":"যখন","language_name":"bengali","language_id":20},"transliteration":{"text":"idh","language_name":"english","language_id":38}},{"id":66336,"position":2,"audio_url":"wbw/037_085_002.mp3","char_type_name":"word","page_number":449,"line_number":4,"text":"قَالَ","translation":{"text":"সে বলেছিলো","language_name":"bengali","language_id":20},"transliteration":{"text":"qāla","language_name":"english","language_id":38}},{"id":66337,"position":3,"audio_url":"wbw/037_085_003.mp3","char_type_name":"word","page_number":449,"line_number":5,"text":"لِأَبِيهِ","translation":{"text":"তার পিতাকে","language_name":"bengali","language_id":20},"transliteration":{"text":"li-abīhi","language_name":"english","language_id":38}},{"id":66338,"position":4,"audio_url":"wbw/037_085_004.mp3","char_type_name":"word","page_number":449,"line_number":5,"text":"وَقَوْمِهِۦ","translation":{"text":"ও তার জাতিকে","language_name":"bengali","language_id":20},"transliteration":{"text":"waqawmihi","language_name":"english","language_id":38}},{"id":66339,"position":5,"audio_url":"wbw/037_085_005.mp3","char_type_name":"word","page_number":449,"line_number":5,"text":"مَاذَا","translation":{"text":"\"কিসের","language_name":"bengali","language_id":20},"transliteration":{"text":"mādhā","language_name":"english","language_id":38}},{"id":66340,"position":6,"audio_url":"wbw/037_085_006.mp3","char_type_name":"word","page_number":449,"line_number":5,"text":"تَعْبُدُونَ","translation":{"text":"তোমরা উপাসনা করছো","language_name":"bengali","language_id":20},"transliteration":{"text":"taʿbudūna","language_name":"english","language_id":38}},{"id":66341,"position":7,"audio_url":null,"char_type_name":"end","page_number":449,"line_number":5,"text":"٨٥","translation":{"text":"(৮৫)","language_name":"bengali","language_id":20},"transliteration":{"text":null,"language_name":"english","language_id":38}}]},{"id":3874,"verse_number":86,"verse_key":"37:86","hizb_number":45,"rub_el_hizb_number":180,"ruku_number":390,"manzil_number":6,"sajdah_number":null,"page_number":449,"juz_number":23,"words":[{"id":66426,"position":1,"audio_url":"wbw/037_086_001.mp3","char_type_name":"word","page_number":449,"line_number":5,"text":"أَئِفْكًا","translation":{"text":"কি মিথ্যা","language_name":"bengali","language_id":20},"transliteration":{"text":"a-if'kan","language_name":"english","language_id":38}},{"id":66427,"position":2,"audio_url":"wbw/037_086_002.mp3","char_type_name":"word","page_number":449,"line_number":5,"text":"ءَالِهَةًۭ","translation":{"text":"উপাস্যদের","language_name":"bengali","language_id":20},"transliteration":{"text":"ālihatan","language_name":"english","language_id":38}},{"id":66428,"position":3,"audio_url":"wbw/037_086_003.mp3","char_type_name":"word","page_number":449,"line_number":5,"text":"دُونَ","translation":{"text":"ব্যতীত","language_name":"bengali","language_id":20},"transliteration":{"text":"dūna","language_name":"english","language_id":38}},{"id":66429,"position":4,"audio_url":"wbw/037_086_004.mp3","char_type_name":"word","page_number":449,"line_number":5,"text":"ٱللَّهِ","translation":{"text":"আল্লাহকে","language_name":"bengali","language_id":20},"transliteration":{"text":"l-lahi","language_name":"english","language_id":38}},{"id":66430,"position":5,"audio_url":"wbw/037_086_005.mp3","char_type_name":"word","page_number":449,"line_number":5,"text":"تُرِيدُونَ","translation":{"text":"তোমরা পেতে চাও","language_name":"bengali","language_id":20},"transliteration":{"text":"turīdūna","language_name":"english","language_id":38}},{"id":66431,"position":6,"audio_url":null,"char_type_name":"end","page_number":449,"line_number":6,"text":"٨٦","translation":{"text":"(৮৬)","language_name":"bengali","language_id":20},"transliteration":{"text":null,"language_name":"english","language_id":38}}]},{"id":3875,"verse_number":87,"verse_key":"37:87","hizb_number":45,"rub_el_hizb_number":180,"ruku_number":390,"manzil_number":6,"sajdah_number":null,"page_number":449,"juz_number":23,"words":[{"id":66746,"position":1,"audio_url":"wbw/037_087_001.mp3","char_type_name":"word","page_number":449,"line_number":6,"text":"فَمَا","translation":{"text":"কি তাহ'লে","language_name":"bengali","language_id":20},"transliteration":{"text":"famā","language_name":"english","language_id":38}},{"id":66747,"position":2,"audio_url":"wbw/037_087_002.mp3","char_type_name":"word","page_number":449,"line_number":6,"text":"ظَنُّكُم","translation":{"text":"তোমরা মনে করো","language_name":"bengali","language_id":20},"transliteration":{"text":"ẓannukum","language_name":"english","language_id":38}},{"id":66748,"position":3,"audio_url":"wbw/037_087_003.mp3","char_type_name":"word","page_number":449,"line_number":6,"text":"بِرَبِّ","translation":{"text":"রব সম্বন্ধে","language_name":"bengali","language_id":20},"transliteration":{"text":"birabbi","language_name":"english","language_id":38}},{"id":66749,"position":4,"audio_url":"wbw/037_087_004.mp3","char_type_name":"word","page_number":449,"line_number":6,"text":"ٱلْعَـٰلَمِينَ","translation":{"text":"বিশ্বজগতের\"","language_name":"bengali","language_id":20},"transliteration":{"text":"l-ʿālamīna","language_name":"english","language_id":38}},{"id":66750,"position":5,"audio_url":null,"char_type_name":"end","page_number":449,"line_number":6,"text":"٨٧","translation":{"text":"(৮৭)","language_name":"bengali","language_id":20},"transliteration":{"text":null,"language_name":"english","language_id":38}}]},{"id":3876,"verse_number":88,"verse_key":"37:88","hizb_number":45,"rub_el_hizb_number":180,"ruku_number":390,"manzil_number":6,"sajdah_number":null,"page_number":449,"juz_number":23,"words":[{"id":67395,"position":1,"audio_url":"wbw/037_088_001.mp3","char_type_name":"word","page_number":449,"line_number":6,"text":"فَنَظَرَ","translation":{"text":"অতঃপর সে তাকালো","language_name":"bengali","language_id":20},"transliteration":{"text":"fanaẓara","language_name":"english","language_id":38}},{"id":67396,"position":2,"audio_url":"wbw/037_088_002.mp3","char_type_name":"word","page_number":449,"line_number":6,"text":"نَظْرَةًۭ","translation":{"text":"একবার","language_name":"bengali","language_id":20},"transliteration":{"text":"naẓratan","language_name":"english","language_id":38}},{"id":67397,"position":3,"audio_url":"wbw/037_088_003.mp3","char_type_name":"word","page_number":449,"line_number":6,"text":"فِى","translation":{"text":"দিকে","language_name":"bengali","language_id":20},"transliteration":{"text":"fī","language_name":"english","language_id":38}},{"id":67398,"position":4,"audio_url":"wbw/037_088_004.mp3","char_type_name":"word","page_number":449,"line_number":6,"text":"ٱلنُّجُومِ","translation":{"text":"তারকাদের","language_name":"bengali","language_id":20},"transliteration":{"text":"l-nujūmi","language_name":"english","language_id":38}},{"id":67399,"position":5,"audio_url":null,"char_type_name":"end","page_number":449,"line_number":6,"text":"٨٨","translation":{"text":"(৮৮)","language_name":"bengali","language_id":20},"transliteration":{"text":null,"language_name":"english","language_id":38}}]},{"id":3877,"verse_number":89,"verse_key":"37:89","hizb_number":45,"rub_el_hizb_number":180,"ruku_number":390,"manzil_number":6,"sajdah_number":null,"page_number":449,"juz_number":23,"words":[{"id":67558,"position":1,"audio_url":"wbw/037_089_001.mp3","char_type_name":"word","page_number":449,"line_number":7,"text":"فَقَالَ","translation":{"text":"অতঃপর বললো","language_name":"bengali","language_id":20},"transliteration":{"text":"faqāla","language_name":"english","language_id":38}},{"id":67559,"position":2,"audio_url":"wbw/037_089_002.mp3","char_type_name":"word","page_number":449,"line_number":7,"text":"إِنِّى","translation":{"text":"\"নিশ্চয়ই আমি","language_name":"bengali","language_id":20},"transliteration":{"text":"innī","language_name":"english","language_id":38}},{"id":67560,"position":3,"audio_url":"wbw/037_089_003.mp3","char_type_name":"word","page_number":449,"line_number":7,"text":"سَقِيمٌۭ","translation":{"text":"অসুস্থ\"","language_name":"bengali","language_id":20},"transliteration":{"text":"saqīmun","language_name":"english","language_id":38}},{"id":67561,"position":4,"audio_url":null,"char_type_name":"end","page_number":449,"line_number":7,"text":"٨٩","translation":{"text":"(৮৯)","language_name":"bengali","language_id":20},"transliteration":{"text":null,"language_name":"english","language_id":38}}]},{"id":3878,"verse_number":90,"verse_key":"37:90","hizb_number":45,"rub_el_hizb_number":180,"ruku_number":390,"manzil_number":6,"sajdah_number":null,"page_number":449,"juz_number":23,"words":[{"id":68093,"position":1,"audio_url":"wbw/037_090_001.mp3","char_type_name":"word","page_number":449,"line_number":7,"text":"فَتَوَلَّوْا۟","translation":{"text":"তারা অতঃপর ফিরে গেল","language_name":"bengali","language_id":20},"transliteration":{"text":"fatawallaw","language_name":"english","language_id":38}},{"id":68094,"position":2,"audio_url":"wbw/037_090_002.mp3","char_type_name":"word","page_number":449,"line_number":7,"text":"عَنْهُ","translation":{"text":"তার থেকে","language_name":"bengali","language_id":20},"transliteration":{"text":"ʿanhu","language_name":"english","language_id":38}},{"id":68095,"position":3,"audio_url":"wbw/037_090_003.mp3","char_type_name":"word","page_number":449,"line_number":7,"text":"مُدْبِرِينَ","translation":{"text":"পিঠ ফিরিয়ে","language_name":"bengali","language_id":20},"transliteration":{"text":"mud'birīna","language_name":"english","language_id":38}},{"id":68096,"position":4,"audio_url":null,"char_type_name":"end","page_number":449,"line_number":7,"text":"٩٠","translation":{"text":"(৯০)","language_name":"bengali","language_id":20},"transliteration":{"text":null,"language_name":"english","language_id":38}}]}],"pagination":{"per_page":10,"current_page":9,"next_page":10,"total_pages":19,"total_records":182}}
