{"verses":[{"id":4445,"verse_number":31,"verse_key":"44:31","hizb_number":50,"rub_el_hizb_number":199,"ruku_number":434,"manzil_number":6,"sajdah_number":null,"page_number":497,"juz_number":25,"words":[{"id":33393,"position":1,"audio_url":"wbw/044_031_001.mp3","char_type_name":"word","page_number":497,"line_number":8,"text":"مِن","translation":{"text":"দেওয়া","language_name":"bengali","language_id":20},"transliteration":{"text":"min","language_name":"english","language_id":38}},{"id":33394,"position":2,"audio_url":"wbw/044_031_002.mp3","char_type_name":"word","page_number":497,"line_number":8,"text":"فِرْعَوْنَ ۚ","translation":{"text":"ফিরআউনের","language_name":"bengali","language_id":20},"transliteration":{"text":"fir'ʿawna","language_name":"english","language_id":38}},{"id":33396,"position":3,"audio_url":"wbw/044_031_004.mp3","char_type_name":"word","page_number":497,"line_number":8,"text":"إِنَّهُۥ","translation":{"text":"সে নিশ্চয়ই","language_name":"bengali","language_id":20},"transliteration":{"text":"innahu","language_name":"english","language_id":38}},{"id":33397,"position":4,"audio_url":"wbw/044_031_005.mp3","char_type_name":"word","page_number":497,"line_number":9,"text":"كَانَ","translation":{"text":"ছিলো","language_name":"bengali","language_id":20},"transliteration":{"text":"kāna","language_name":"english","language_id":38}},{"id":33398,"position":5,"audio_url":"wbw/044_031_006.mp3","char_type_name":"word","page_number":497,"line_number":9,"text":"عَالِيًۭا","translation":{"text":"পরাক্রান্ত","language_name":"bengali","language_id":20},"transliteration":{"text":"ʿāliyan","language_name":"english","language_id":38}},{"id":33399,"position":6,"audio_url":"wbw/044_031_007.mp3","char_type_name":"word","page_number":497,"line_number":9,"text":"مِّنَ","translation":{"text":"মধ্য হতে","language_name":"bengali","language_id":20},"transliteration":{"text":"mina","language_name":"english","language_id":38}},{"id":33400,"position":7,"audio_url":"wbw/044_031_008.mp3","char_type_name":"word","page_number":497,"line_number":9,"text":"ٱلْمُسْرِفِينَ","translation":{"text":"সীমালংঘনকারীদের","language_name":"bengali","language_id":20},"transliteration":{"text":"l-mus'rifīna","language_name":"english","language_id":38}},{"id":33401,"position":8,"audio_url":null,"char_type_name":"end","page_number":497,"line_number":9,"text":"٣١","translation":{"text":"(৩১)","language_name":"bengali","language_id":20},"transliteration":{"text":null,"language_name":"english","language_id":38}}]},{"id":4446,"verse_number":32,"verse_key":"44:32","hizb_number":50,"rub_el_hizb_number":199,"ruku_number":434,"manzil_number":6,"sajdah_number":null,"page_number":497,"juz_number":25,"words":[{"id":34447,"position":1,"audio_url":"wbw/044_032_001.mp3","char_type_name":"word","page_number":497,"line_number":9,"text":"وَلَقَدِ","translation":{"text":"এবং নিশ্চয়ই","language_name":"bengali","language_id":20},"transliteration":{"text":"walaqadi","language_name":"english","language_id":38}},{"id":34448,"position":2,"audio_url":"wbw/044_032_002.mp3","char_type_name":"word","page_number":497,"line_number":9,"text":"ٱخْتَرْنَـٰهُمْ","translation":{"text":"তাদেরকে (বনী ইসরাঈলকে) আমরা মনোনীত করেছিলাম","language_name":"bengali","language_id":20},"transliteration":{"text":"ikh'tarnāhum","language_name":"english","language_id":38}},{"id":34449,"position":3,"audio_url":"wbw/044_032_003.mp3","char_type_name":"word","page_number":497,"line_number":9,"text":"عَلَىٰ","translation":{"text":"ভিত্তিতে","language_name":"bengali","language_id":20},"transliteration":{"text":"ʿalā","language_name":"english","language_id":38}},{"id":34450,"position":4,"audio_url":"wbw/044_032_004.mp3","char_type_name":"word","page_number":497,"line_number":9,"text":"عِلْمٍ","translation":{"text":"জ্ঞানের","language_name":"bengali","language_id":20},"transliteration":{"text":"ʿil'min","language_name":"english","language_id":38}},{"id":34451,"position":5,"audio_url":"wbw/044_032_005.mp3","char_type_name":"word","page_number":497,"line_number":9,"text":"عَلَى","translation":{"text":"উপর","language_name":"bengali","language_id":20},"transliteration":{"text":"ʿalā","language_name":"english","language_id":38}},{"id":34452,"position":6,"audio_url":"wbw/044_032_006.mp3","char_type_name":"word","page_number":497,"line_number":10,"text":"ٱلْعَـٰلَمِينَ","translation":{"text":"বিশ্ববাসীর (অন্যান্য জাতির)","language_name":"bengali","language_id":20},"transliteration":{"text":"l-ʿālamīna","language_name":"english","language_id":38}},{"id":34453,"position":7,"audio_url":null,"char_type_name":"end","page_number":497,"line_number":10,"text":"٣٢","translation":{"text":"(৩২)","language_name":"bengali","language_id":20},"transliteration":{"text":null,"language_name":"english","language_id":38}}]},{"id":4447,"verse_number":33,"verse_key":"44:33","hizb_number":50,"rub_el_hizb_number":199,"ruku_number":434,"manzil_number":6,"sajdah_number":null,"page_number":497,"juz_number":25,"words":[{"id":35354,"position":1,"audio_url":"wbw/044_033_001.mp3","char_type_name":"word","page_number":497,"line_number":10,"text":"وَءَاتَيْنَـٰهُم","translation":{"text":"এবং তাদেরকে আমরা দিয়েছিলাম","language_name":"bengali","language_id":20},"transliteration":{"text":"waātaynāhum","language_name":"english","language_id":38}},{"id":35355,"position":2,"audio_url":"wbw/044_033_002.mp3","char_type_name":"word","page_number":497,"line_number":10,"text":"مِّنَ","translation":{"text":"কিছু","language_name":"bengali","language_id":20},"transliteration":{"text":"mina","language_name":"english","language_id":38}},{"id":35356,"position":3,"audio_url":"wbw/044_033_003.mp3","char_type_name":"word","page_number":497,"line_number":10,"text":"ٱلْـَٔايَـٰتِ","translation":{"text":"নিদর্শনাবলী","language_name":"bengali","language_id":20},"transliteration":{"text":"l-āyāti","language_name":"english","language_id":38}},{"id":35357,"position":4,"audio_url":"wbw/044_033_004.mp3","char_type_name":"word","page_number":497,"line_number":10,"text":"مَا","translation":{"text":"যার","language_name":"bengali","language_id":20},"transliteration":{"text":"mā","language_name":"english","language_id":38}},{"id":35358,"position":5,"audio_url":"wbw/044_033_005.mp3","char_type_name":"word","page_number":497,"line_number":10,"text":"فِيهِ","translation":{"text":"মধ্যে ছিলো","language_name":"bengali","language_id":20},"transliteration":{"text":"fīhi","language_name":"english","language_id":38}},{"id":35359,"position":6,"audio_url":"wbw/044_033_006.mp3","char_type_name":"word","page_number":497,"line_number":10,"text":"بَلَـٰٓؤٌۭا۟","translation":{"text":"পরীক্ষা","language_name":"bengali","language_id":20},"transliteration":{"text":"balāon","language_name":"english","language_id":38}},{"id":35360,"position":7,"audio_url":"wbw/044_033_007.mp3","char_type_name":"word","page_number":497,"line_number":10,"text":"مُّبِينٌ","translation":{"text":"সুস্পষ্ট","language_name":"bengali","language_id":20},"transliteration":{"text":"mubīnun","language_name":"english","language_id":38}},{"id":35361,"position":8,"audio_url":null,"char_type_name":"end","page_number":497,"line_number":10,"text":"٣٣","translation":{"text":"(৩৩)","language_name":"bengali","language_id":20},"transliteration":{"text":null,"language_name":"english","language_id":38}}]},{"id":4448,"verse_number":34,"verse_key":"44:34","hizb_number":50,"rub_el_hizb_number":199,"ruku_number":434,"manzil_number":6,"sajdah_number":null,"page_number":497,"juz_number":25,"words":[{"id":36158,"position":1,"audio_url":"wbw/044_034_001.mp3","char_type_name":"word","page_number":497,"line_number":11,"text":"إِنَّ","translation":{"text":"নিশ্চয়ই","language_name":"bengali","language_id":20},"transliteration":{"text":"inna","language_name":"english","language_id":38}},{"id":36159,"position":2,"audio_url":"wbw/044_034_002.mp3","char_type_name":"word","page_number":497,"line_number":11,"text":"هَـٰٓؤُلَآءِ","translation":{"text":"এসব লোক","language_name":"bengali","language_id":20},"transliteration":{"text":"hāulāi","language_name":"english","language_id":38}},{"id":36160,"position":3,"audio_url":"wbw/044_034_003.mp3","char_type_name":"word","page_number":497,"line_number":11,"text":"لَيَقُولُونَ","translation":{"text":"অবশ্যই বলে","language_name":"bengali","language_id":20},"transliteration":{"text":"layaqūlūna","language_name":"english","language_id":38}},{"id":36161,"position":4,"audio_url":null,"char_type_name":"end","page_number":497,"line_number":11,"text":"٣٤","translation":{"text":"(৩৪)","language_name":"bengali","language_id":20},"transliteration":{"text":null,"language_name":"english","language_id":38}}]},{"id":4449,"verse_number":35,"verse_key":"44:35","hizb_number":50,"rub_el_hizb_number":199,"ruku_number":434,"manzil_number":6,"sajdah_number":null,"page_number":497,"juz_number":25,"words":[{"id":36898,"position":1,"audio_url":"wbw/044_035_001.mp3","char_type_name":"word","page_number":497,"line_number":11,"text":"إِنْ","translation":{"text":"\"নেই","language_name":"bengali","language_id":20},"transliteration":{"text":"in","language_name":"english","language_id":38}},{"id":36899,"position":2,"audio_url":"wbw/044_035_002.mp3","char_type_name":"word","page_number":497,"line_number":11,"text":"هِىَ","translation":{"text":"তা","language_name":"bengali","language_id":20},"transliteration":{"text":"hiya","language_name":"english","language_id":38}},{"id":36900,"position":3,"audio_url":"wbw/044_035_003.mp3","char_type_name":"word","page_number":497,"line_number":11,"text":"إِلَّا","translation":{"text":"এ ব্যতীত","language_name":"bengali","language_id":20},"transliteration":{"text":"illā","language_name":"english","language_id":38}},{"id":36901,"position":4,"audio_url":"wbw/044_035_004.mp3","char_type_name":"word","page_number":497,"line_number":11,"text":"مَوْتَتُنَا","translation":{"text":"আমাদের মৃত্যু","language_name":"bengali","language_id":20},"transliteration":{"text":"mawtatunā","language_name":"english","language_id":38}},{"id":36902,"position":5,"audio_url":"wbw/044_035_005.mp3","char_type_name":"word","page_number":497,"line_number":11,"text":"ٱلْأُولَىٰ","translation":{"text":"প্রথম (অর্থাৎ মৃতই শেষ)","language_name":"bengali","language_id":20},"transliteration":{"text":"l-ūlā","language_name":"english","language_id":38}},{"id":36903,"position":6,"audio_url":"wbw/044_035_006.mp3","char_type_name":"word","page_number":497,"line_number":11,"text":"وَمَا","translation":{"text":"এবং না","language_name":"bengali","language_id":20},"transliteration":{"text":"wamā","language_name":"english","language_id":38}},{"id":36904,"position":7,"audio_url":"wbw/044_035_007.mp3","char_type_name":"word","page_number":497,"line_number":11,"text":"نَحْنُ","translation":{"text":"আমরা","language_name":"bengali","language_id":20},"transliteration":{"text":"naḥnu","language_name":"english","language_id":38}},{"id":36905,"position":8,"audio_url":"wbw/044_035_008.mp3","char_type_name":"word","page_number":497,"line_number":12,"text":"بِمُنشَرِينَ","translation":{"text":"উত্থিত হবো","language_name":"bengali","language_id":20},"transliteration":{"text":"bimunsharīna","language_name":"english","language_id":38}},{"id":36906,"position":9,"audio_url":null,"char_type_name":"end","page_number":497,"line_number":12,"text":"٣٥","translation":{"text":"(৩৫)","language_name":"bengali","language_id":20},"transliteration":{"text":null,"language_name":"english","language_id":38}}]},{"id":4450,"verse_number":36,"verse_key":"44:36","hizb_number":50,"rub_el_hizb_number":199,"ruku_number":434,"manzil_number":6,"sajdah_number":null,"page_number":497,"juz_number":25,"words":[{"id":37775,"position":1,"audio_url":"wbw/044_036_001.mp3","char_type_name":"word","page_number":497,"line_number":12,"text":"فَأْتُوا۟","translation":{"text":"তোমরা তবে আসো","language_name":"bengali","language_id":20},"transliteration":{"text":"fatū","language_name":"english","language_id":38}},{"id":37776,"position":2,"audio_url":"wbw/044_036_002.mp3","char_type_name":"word","page_number":497,"line_number":12,"text":"بِـَٔابَآئِنَآ","translation":{"text":"নিয়ে আমাদের পিতৃপুরুষদেরকে","language_name":"bengali","language_id":20},"transliteration":{"text":"biābāinā","language_name":"english","language_id":38}},{"id":37777,"position":3,"audio_url":"wbw/044_036_003.mp3","char_type_name":"word","page_number":497,"line_number":12,"text":"إِن","translation":{"text":"যদি","language_name":"bengali","language_id":20},"transliteration":{"text":"in","language_name":"english","language_id":38}},{"id":37778,"position":4,"audio_url":"wbw/044_036_004.mp3","char_type_name":"word","page_number":497,"line_number":12,"text":"كُنتُمْ","translation":{"text":"তোমরা হও","language_name":"bengali","language_id":20},"transliteration":{"text":"kuntum","language_name":"english","language_id":38}},{"id":37779,"position":5,"audio_url":"wbw/044_036_005.mp3","char_type_name":"word","page_number":497,"line_number":12,"text":"صَـٰدِقِينَ","translation":{"text":"সত্যবাদী\"","language_name":"bengali","language_id":20},"transliteration":{"text":"ṣādiqīna","language_name":"english","language_id":38}},{"id":37780,"position":6,"audio_url":null,"char_type_name":"end","page_number":497,"line_number":12,"text":"٣٦","translation":{"text":"(৩৬)","language_name":"bengali","language_id":20},"transliteration":{"text":null,"language_name":"english","language_id":38}}]},{"id":4451,"verse_number":37,"verse_key":"44:37","hizb_number":50,"rub_el_hizb_number":199,"ruku_number":434,"manzil_number":6,"sajdah_number":null,"page_number":497,"juz_number":25,"words":[{"id":39025,"position":1,"audio_url":"wbw/044_037_001.mp3","char_type_name":"word","page_number":497,"line_number":12,"text":"أَهُمْ","translation":{"text":"(তাদেরকে বলো) তারা কি","language_name":"bengali","language_id":20},"transliteration":{"text":"ahum","language_name":"english","language_id":38}},{"id":39026,"position":2,"audio_url":"wbw/044_037_002.mp3","char_type_name":"word","page_number":497,"line_number":13,"text":"خَيْرٌ","translation":{"text":"উত্তম","language_name":"bengali","language_id":20},"transliteration":{"text":"khayrun","language_name":"english","language_id":38}},{"id":39027,"position":3,"audio_url":"wbw/044_037_003.mp3","char_type_name":"word","page_number":497,"line_number":13,"text":"أَمْ","translation":{"text":"অথবা","language_name":"bengali","language_id":20},"transliteration":{"text":"am","language_name":"english","language_id":38}},{"id":39028,"position":4,"audio_url":"wbw/044_037_004.mp3","char_type_name":"word","page_number":497,"line_number":13,"text":"قَوْمُ","translation":{"text":"জাতি","language_name":"bengali","language_id":20},"transliteration":{"text":"qawmu","language_name":"english","language_id":38}},{"id":39029,"position":5,"audio_url":"wbw/044_037_005.mp3","char_type_name":"word","page_number":497,"line_number":13,"text":"تُبَّعٍۢ","translation":{"text":"তুব্বার","language_name":"bengali","language_id":20},"transliteration":{"text":"tubbaʿin","language_name":"english","language_id":38}},{"id":39030,"position":6,"audio_url":"wbw/044_037_006.mp3","char_type_name":"word","page_number":497,"line_number":13,"text":"وَٱلَّذِينَ","translation":{"text":"এবং যারা (ছিলো)","language_name":"bengali","language_id":20},"transliteration":{"text":"wa-alladhīna","language_name":"english","language_id":38}},{"id":39031,"position":7,"audio_url":"wbw/044_037_007.mp3","char_type_name":"word","page_number":497,"line_number":13,"text":"مِن","translation":{"text":"মধ্য হতে","language_name":"bengali","language_id":20},"transliteration":{"text":"min","language_name":"english","language_id":38}},{"id":39032,"position":8,"audio_url":"wbw/044_037_008.mp3","char_type_name":"word","page_number":497,"line_number":13,"text":"قَبْلِهِمْ ۚ","translation":{"text":"তাদের পূর্বে","language_name":"bengali","language_id":20},"transliteration":{"text":"qablihim","language_name":"english","language_id":38}},{"id":39034,"position":9,"audio_url":"wbw/044_037_010.mp3","char_type_name":"word","page_number":497,"line_number":13,"text":"أَهْلَكْنَـٰهُمْ ۖ","translation":{"text":"তাদেরকে আমরা ধ্বংস করেছি","language_name":"bengali","language_id":20},"transliteration":{"text":"ahlaknāhum","language_name":"english","language_id":38}},{"id":39036,"position":10,"audio_url":"wbw/044_037_012.mp3","char_type_name":"word","page_number":497,"line_number":13,"text":"إِنَّهُمْ","translation":{"text":"তারা নিশ্চয়ই","language_name":"bengali","language_id":20},"transliteration":{"text":"innahum","language_name":"english","language_id":38}},{"id":39037,"position":11,"audio_url":"wbw/044_037_013.mp3","char_type_name":"word","page_number":497,"line_number":13,"text":"كَانُوا۟","translation":{"text":"ছিলো","language_name":"bengali","language_id":20},"transliteration":{"text":"kānū","language_name":"english","language_id":38}},{"id":39038,"position":12,"audio_url":"wbw/044_037_014.mp3","char_type_name":"word","page_number":497,"line_number":14,"text":"مُجْرِمِينَ","translation":{"text":"অপরাধী","language_name":"bengali","language_id":20},"transliteration":{"text":"muj'rimīna","language_name":"english","language_id":38}},{"id":39039,"position":13,"audio_url":null,"char_type_name":"end","page_number":497,"line_number":14,"text":"٣٧","translation":{"text":"(৩৭)","language_name":"bengali","language_id":20},"transliteration":{"text":null,"language_name":"english","language_id":38}}]},{"id":4452,"verse_number":38,"verse_key":"44:38","hizb_number":50,"rub_el_hizb_number":199,"ruku_number":434,"manzil_number":6,"sajdah_number":null,"page_number":497,"juz_number":25,"words":[{"id":39586,"position":1,"audio_url":"wbw/044_038_001.mp3","char_type_name":"word","page_number":497,"line_number":14,"text":"وَمَا","translation":{"text":"এবং না","language_name":"bengali","language_id":20},"transliteration":{"text":"wamā","language_name":"english","language_id":38}},{"id":39587,"position":2,"audio_url":"wbw/044_038_002.mp3","char_type_name":"word","page_number":497,"line_number":14,"text":"خَلَقْنَا","translation":{"text":"আমরা সৃষ্টি করেছি","language_name":"bengali","language_id":20},"transliteration":{"text":"khalaqnā","language_name":"english","language_id":38}},{"id":39588,"position":3,"audio_url":"wbw/044_038_003.mp3","char_type_name":"word","page_number":497,"line_number":14,"text":"ٱلسَّمَـٰوَٰتِ","translation":{"text":"আকাশকে","language_name":"bengali","language_id":20},"transliteration":{"text":"l-samāwāti","language_name":"english","language_id":38}},{"id":39589,"position":4,"audio_url":"wbw/044_038_004.mp3","char_type_name":"word","page_number":497,"line_number":14,"text":"وَٱلْأَرْضَ","translation":{"text":"ও পৃথিবীকে","language_name":"bengali","language_id":20},"transliteration":{"text":"wal-arḍa","language_name":"english","language_id":38}},{"id":39590,"position":5,"audio_url":"wbw/044_038_005.mp3","char_type_name":"word","page_number":497,"line_number":14,"text":"وَمَا","translation":{"text":"এবং যা কিছু","language_name":"bengali","language_id":20},"transliteration":{"text":"wamā","language_name":"english","language_id":38}},{"id":39591,"position":6,"audio_url":"wbw/044_038_006.mp3","char_type_name":"word","page_number":497,"line_number":14,"text":"بَيْنَهُمَا","translation":{"text":"উভয়ের মাঝে আছে","language_name":"bengali","language_id":20},"transliteration":{"text":"baynahumā","language_name":"english","language_id":38}},{"id":39592,"position":7,"audio_url":"wbw/044_038_007.mp3","char_type_name":"word","page_number":497,"line_number":14,"text":"لَـٰعِبِينَ","translation":{"text":"খেলাচ্ছলে","language_name":"bengali","language_id":20},"transliteration":{"text":"lāʿibīna","language_name":"english","language_id":38}},{"id":39593,"position":8,"audio_url":null,"char_type_name":"end","page_number":497,"line_number":15,"text":"٣٨","translation":{"text":"(৩৮)","language_name":"bengali","language_id":20},"transliteration":{"text":null,"language_name":"english","language_id":38}}]},{"id":4453,"verse_number":39,"verse_key":"44:39","hizb_number":50,"rub_el_hizb_number":199,"ruku_number":434,"manzil_number":6,"sajdah_number":null,"page_number":497,"juz_number":25,"words":[{"id":40430,"position":1,"audio_url":"wbw/044_039_001.mp3","char_type_name":"word","page_number":497,"line_number":15,"text":"مَا","translation":{"text":"না","language_name":"bengali","language_id":20},"transliteration":{"text":"mā","language_name":"english","language_id":38}},{"id":40431,"position":2,"audio_url":"wbw/044_039_002.mp3","char_type_name":"word","page_number":497,"line_number":15,"text":"خَلَقْنَـٰهُمَآ","translation":{"text":"উভয়কে আমরা সৃষ্টি করেছি","language_name":"bengali","language_id":20},"transliteration":{"text":"khalaqnāhumā","language_name":"english","language_id":38}},{"id":40432,"position":3,"audio_url":"wbw/044_039_003.mp3","char_type_name":"word","page_number":497,"line_number":15,"text":"إِلَّا","translation":{"text":"এ ব্যতীত","language_name":"bengali","language_id":20},"transliteration":{"text":"illā","language_name":"english","language_id":38}},{"id":40433,"position":4,"audio_url":"wbw/044_039_004.mp3","char_type_name":"word","page_number":497,"line_number":15,"text":"بِٱلْحَقِّ","translation":{"text":"সত্যসহ","language_name":"bengali","language_id":20},"transliteration":{"text":"bil-ḥaqi","language_name":"english","language_id":38}},{"id":40434,"position":5,"audio_url":"wbw/044_039_005.mp3","char_type_name":"word","page_number":497,"line_number":15,"text":"وَلَـٰكِنَّ","translation":{"text":"কিন্তু","language_name":"bengali","language_id":20},"transliteration":{"text":"walākinna","language_name":"english","language_id":38}},{"id":40435,"position":6,"audio_url":"wbw/044_039_006.mp3","char_type_name":"word","page_number":497,"line_number":15,"text":"أَكْثَرَهُمْ","translation":{"text":"তাদের অধিকাংশই","language_name":"bengali","language_id":20},"transliteration":{"text":"aktharahum","language_name":"english","language_id":38}},{"id":40436,"position":7,"audio_url":"wbw/044_039_007.mp3","char_type_name":"word","page_number":497,"line_number":15,"text":"لَا","translation":{"text":"না","language_name":"bengali","language_id":20},"transliteration":{"text":"lā","language_name":"english","language_id":38}},{"id":40437,"position":8,"audio_url":"wbw/044_039_008.mp3","char_type_name":"word","page_number":497,"line_number":15,"text":"يَعْلَمُونَ","translation":{"text":"জানে","language_name":"bengali","language_id":20},"transliteration":{"text":"yaʿlamūna","language_name":"english","language_id":38}},{"id":40438,"position":9,"audio_url":null,"char_type_name":"end","page_number":497,"line_number":15,"text":"٣٩","translation":{"text":"(৩৯)","language_name":"bengali","language_id":20},"transliteration":{"text":null,"language_name":"english","language_id":38}}]},{"id":4454,"verse_number":40,"verse_key":"44:40","hizb_number":50,"rub_el_hizb_number":199,"ruku_number":434,"manzil_number":6,"sajdah_number":null,"page_number":498,"juz_number":25,"words":[{"id":41137,"position":1,"audio_url":"wbw/044_040_001.mp3","char_type_name":"word","page_number":498,"line_number":1,"text":"إِنَّ","translation":{"text":"নিশ্চয়ই (আসবে)","language_name":"bengali","language_id":20},"transliteration":{"text":"inna","language_name":"english","language_id":38}},{"id":41138,"position":2,"audio_url":"wbw/044_040_002.mp3","char_type_name":"word","page_number":498,"line_number":1,"text":"يَوْمَ","translation":{"text":"দিন","language_name":"bengali","language_id":20},"transliteration":{"text":"yawma","language_name":"english","language_id":38}},{"id":41139,"position":3,"audio_url":"wbw/044_040_003.mp3","char_type_name":"word","page_number":498,"line_number":1,"text":"ٱلْفَصْلِ","translation":{"text":"মীমাংসার","language_name":"bengali","language_id":20},"transliteration":{"text":"l-faṣli","language_name":"english","language_id":38}},{"id":41140,"position":4,"audio_url":"wbw/044_040_004.mp3","char_type_name":"word","page_number":498,"line_number":1,"text":"مِيقَـٰتُهُمْ","translation":{"text":"তাদের নির্ধারিত সময়ে","language_name":"bengali","language_id":20},"transliteration":{"text":"mīqātuhum","language_name":"english","language_id":38}},{"id":41141,"position":5,"audio_url":"wbw/044_040_005.mp3","char_type_name":"word","page_number":498,"line_number":1,"text":"أَجْمَعِينَ","translation":{"text":"সকলেরই","language_name":"bengali","language_id":20},"transliteration":{"text":"ajmaʿīna","language_name":"english","language_id":38}},{"id":41142,"position":6,"audio_url":null,"char_type_name":"end","page_number":498,"line_number":1,"text":"٤٠","translation":{"text":"(৪০)","language_name":"bengali","language_id":20},"transliteration":{"text":null,"language_name":"english","language_id":38}}]}],"pagination":{"per_page":10,"current_page":4,"next_page":5,"total_pages":6,"total_records":59}}
