{"verses":[{"id":4455,"verse_number":41,"verse_key":"44:41","hizb_number":50,"rub_el_hizb_number":199,"ruku_number":434,"manzil_number":6,"sajdah_number":null,"page_number":498,"juz_number":25,"words":[{"id":42252,"position":1,"audio_url":"wbw/044_041_001.mp3","char_type_name":"word","page_number":498,"line_number":1,"text":"يَوْمَ","translation":{"text":"যেদিন","language_name":"bengali","language_id":20},"transliteration":{"text":"yawma","language_name":"english","language_id":38}},{"id":42253,"position":2,"audio_url":"wbw/044_041_002.mp3","char_type_name":"word","page_number":498,"line_number":1,"text":"لَا","translation":{"text":"না","language_name":"bengali","language_id":20},"transliteration":{"text":"lā","language_name":"english","language_id":38}},{"id":42254,"position":3,"audio_url":"wbw/044_041_003.mp3","char_type_name":"word","page_number":498,"line_number":1,"text":"يُغْنِى","translation":{"text":"কাজে লাগবে","language_name":"bengali","language_id":20},"transliteration":{"text":"yugh'nī","language_name":"english","language_id":38}},{"id":42255,"position":4,"audio_url":"wbw/044_041_004.mp3","char_type_name":"word","page_number":498,"line_number":1,"text":"مَوْلًى","translation":{"text":"কোনো বন্ধু","language_name":"bengali","language_id":20},"transliteration":{"text":"mawlan","language_name":"english","language_id":38}},{"id":42256,"position":5,"audio_url":"wbw/044_041_005.mp3","char_type_name":"word","page_number":498,"line_number":2,"text":"عَن","translation":{"text":"জন্যে","language_name":"bengali","language_id":20},"transliteration":{"text":"ʿan","language_name":"english","language_id":38}},{"id":42257,"position":6,"audio_url":"wbw/044_041_006.mp3","char_type_name":"word","page_number":498,"line_number":2,"text":"مَّوْلًۭى","translation":{"text":"(অপর) কোনো বন্ধুর","language_name":"bengali","language_id":20},"transliteration":{"text":"mawlan","language_name":"english","language_id":38}},{"id":42258,"position":7,"audio_url":"wbw/044_041_007.mp3","char_type_name":"word","page_number":498,"line_number":2,"text":"شَيْـًۭٔا","translation":{"text":"কিছুমাত্র","language_name":"bengali","language_id":20},"transliteration":{"text":"shayan","language_name":"english","language_id":38}},{"id":42259,"position":8,"audio_url":"wbw/044_041_008.mp3","char_type_name":"word","page_number":498,"line_number":2,"text":"وَلَا","translation":{"text":"আর না","language_name":"bengali","language_id":20},"transliteration":{"text":"walā","language_name":"english","language_id":38}},{"id":42260,"position":9,"audio_url":"wbw/044_041_009.mp3","char_type_name":"word","page_number":498,"line_number":2,"text":"هُمْ","translation":{"text":"তাদের","language_name":"bengali","language_id":20},"transliteration":{"text":"hum","language_name":"english","language_id":38}},{"id":42261,"position":10,"audio_url":"wbw/044_041_010.mp3","char_type_name":"word","page_number":498,"line_number":2,"text":"يُنصَرُونَ","translation":{"text":"সাহায্য করা হবে","language_name":"bengali","language_id":20},"transliteration":{"text":"yunṣarūna","language_name":"english","language_id":38}},{"id":42262,"position":11,"audio_url":null,"char_type_name":"end","page_number":498,"line_number":2,"text":"٤١","translation":{"text":"(৪১)","language_name":"bengali","language_id":20},"transliteration":{"text":null,"language_name":"english","language_id":38}}]},{"id":4456,"verse_number":42,"verse_key":"44:42","hizb_number":50,"rub_el_hizb_number":199,"ruku_number":434,"manzil_number":6,"sajdah_number":null,"page_number":498,"juz_number":25,"words":[{"id":42786,"position":1,"audio_url":"wbw/044_042_001.mp3","char_type_name":"word","page_number":498,"line_number":2,"text":"إِلَّا","translation":{"text":"কিন্তু","language_name":"bengali","language_id":20},"transliteration":{"text":"illā","language_name":"english","language_id":38}},{"id":42787,"position":2,"audio_url":"wbw/044_042_002.mp3","char_type_name":"word","page_number":498,"line_number":2,"text":"مَن","translation":{"text":"যাকে","language_name":"bengali","language_id":20},"transliteration":{"text":"man","language_name":"english","language_id":38}},{"id":42788,"position":3,"audio_url":"wbw/044_042_003.mp3","char_type_name":"word","page_number":498,"line_number":2,"text":"رَّحِمَ","translation":{"text":"দয়া করবেন","language_name":"bengali","language_id":20},"transliteration":{"text":"raḥima","language_name":"english","language_id":38}},{"id":42789,"position":4,"audio_url":"wbw/044_042_004.mp3","char_type_name":"word","page_number":498,"line_number":2,"text":"ٱللَّهُ ۚ","translation":{"text":"আল্লাহ (সেটা অন্য কথা)","language_name":"bengali","language_id":20},"transliteration":{"text":"l-lahu","language_name":"english","language_id":38}},{"id":42791,"position":5,"audio_url":"wbw/044_042_006.mp3","char_type_name":"word","page_number":498,"line_number":3,"text":"إِنَّهُۥ","translation":{"text":"তিনি নিশ্চয়ই","language_name":"bengali","language_id":20},"transliteration":{"text":"innahu","language_name":"english","language_id":38}},{"id":42792,"position":6,"audio_url":"wbw/044_042_007.mp3","char_type_name":"word","page_number":498,"line_number":3,"text":"هُوَ","translation":{"text":"তিনিই","language_name":"bengali","language_id":20},"transliteration":{"text":"huwa","language_name":"english","language_id":38}},{"id":42793,"position":7,"audio_url":"wbw/044_042_008.mp3","char_type_name":"word","page_number":498,"line_number":3,"text":"ٱلْعَزِيزُ","translation":{"text":"পরাক্রমশালী","language_name":"bengali","language_id":20},"transliteration":{"text":"l-ʿazīzu","language_name":"english","language_id":38}},{"id":42794,"position":8,"audio_url":"wbw/044_042_009.mp3","char_type_name":"word","page_number":498,"line_number":3,"text":"ٱلرَّحِيمُ","translation":{"text":"দয়ালু","language_name":"bengali","language_id":20},"transliteration":{"text":"l-raḥīmu","language_name":"english","language_id":38}},{"id":42795,"position":9,"audio_url":null,"char_type_name":"end","page_number":498,"line_number":3,"text":"٤٢","translation":{"text":"(৪২)","language_name":"bengali","language_id":20},"transliteration":{"text":null,"language_name":"english","language_id":38}}]},{"id":4457,"verse_number":43,"verse_key":"44:43","hizb_number":50,"rub_el_hizb_number":199,"ruku_number":435,"manzil_number":6,"sajdah_number":null,"page_number":498,"juz_number":25,"words":[{"id":43568,"position":1,"audio_url":"wbw/044_043_001.mp3","char_type_name":"word","page_number":498,"line_number":3,"text":"إِنَّ","translation":{"text":"নিশ্চয়ই","language_name":"bengali","language_id":20},"transliteration":{"text":"inna","language_name":"english","language_id":38}},{"id":43569,"position":2,"audio_url":"wbw/044_043_002.mp3","char_type_name":"word","page_number":498,"line_number":3,"text":"شَجَرَتَ","translation":{"text":"গাছ","language_name":"bengali","language_id":20},"transliteration":{"text":"shajarata","language_name":"english","language_id":38}},{"id":43570,"position":3,"audio_url":"wbw/044_043_003.mp3","char_type_name":"word","page_number":498,"line_number":3,"text":"ٱلزَّقُّومِ","translation":{"text":"যাক্কুম'","language_name":"bengali","language_id":20},"transliteration":{"text":"l-zaqūmi","language_name":"english","language_id":38}},{"id":43571,"position":4,"audio_url":null,"char_type_name":"end","page_number":498,"line_number":3,"text":"٤٣","translation":{"text":"(৪৩)","language_name":"bengali","language_id":20},"transliteration":{"text":null,"language_name":"english","language_id":38}}]},{"id":4458,"verse_number":44,"verse_key":"44:44","hizb_number":50,"rub_el_hizb_number":199,"ruku_number":435,"manzil_number":6,"sajdah_number":null,"page_number":498,"juz_number":25,"words":[{"id":44292,"position":1,"audio_url":"wbw/044_044_001.mp3","char_type_name":"word","page_number":498,"line_number":3,"text":"طَعَامُ","translation":{"text":"খাদ্য","language_name":"bengali","language_id":20},"transliteration":{"text":"ṭaʿāmu","language_name":"english","language_id":38}},{"id":44293,"position":2,"audio_url":"wbw/044_044_002.mp3","char_type_name":"word","page_number":498,"line_number":4,"text":"ٱلْأَثِيمِ","translation":{"text":"পাপীদের","language_name":"bengali","language_id":20},"transliteration":{"text":"l-athīmi","language_name":"english","language_id":38}},{"id":44294,"position":3,"audio_url":null,"char_type_name":"end","page_number":498,"line_number":4,"text":"٤٤","translation":{"text":"(৪৪)","language_name":"bengali","language_id":20},"transliteration":{"text":null,"language_name":"english","language_id":38}}]},{"id":4459,"verse_number":45,"verse_key":"44:45","hizb_number":50,"rub_el_hizb_number":199,"ruku_number":435,"manzil_number":6,"sajdah_number":null,"page_number":498,"juz_number":25,"words":[{"id":45231,"position":1,"audio_url":"wbw/044_045_001.mp3","char_type_name":"word","page_number":498,"line_number":4,"text":"كَٱلْمُهْلِ","translation":{"text":"গলিত তামার মতো","language_name":"bengali","language_id":20},"transliteration":{"text":"kal-muh'li","language_name":"english","language_id":38}},{"id":45232,"position":2,"audio_url":"wbw/044_045_002.mp3","char_type_name":"word","page_number":498,"line_number":4,"text":"يَغْلِى","translation":{"text":"ফুটবে","language_name":"bengali","language_id":20},"transliteration":{"text":"yaghlī","language_name":"english","language_id":38}},{"id":45233,"position":3,"audio_url":"wbw/044_045_003.mp3","char_type_name":"word","page_number":498,"line_number":4,"text":"فِى","translation":{"text":"মধ্যে","language_name":"bengali","language_id":20},"transliteration":{"text":"fī","language_name":"english","language_id":38}},{"id":45234,"position":4,"audio_url":"wbw/044_045_004.mp3","char_type_name":"word","page_number":498,"line_number":4,"text":"ٱلْبُطُونِ","translation":{"text":"পেটের","language_name":"bengali","language_id":20},"transliteration":{"text":"l-buṭūni","language_name":"english","language_id":38}},{"id":45235,"position":5,"audio_url":null,"char_type_name":"end","page_number":498,"line_number":4,"text":"٤٥","translation":{"text":"(৪৫)","language_name":"bengali","language_id":20},"transliteration":{"text":null,"language_name":"english","language_id":38}}]},{"id":4460,"verse_number":46,"verse_key":"44:46","hizb_number":50,"rub_el_hizb_number":199,"ruku_number":435,"manzil_number":6,"sajdah_number":null,"page_number":498,"juz_number":25,"words":[{"id":45763,"position":1,"audio_url":"wbw/044_046_001.mp3","char_type_name":"word","page_number":498,"line_number":4,"text":"كَغَلْىِ","translation":{"text":"ফুটে যেমন","language_name":"bengali","language_id":20},"transliteration":{"text":"kaghalyi","language_name":"english","language_id":38}},{"id":45764,"position":2,"audio_url":"wbw/044_046_002.mp3","char_type_name":"word","page_number":498,"line_number":5,"text":"ٱلْحَمِيمِ","translation":{"text":"ফুটন্ত পানি","language_name":"bengali","language_id":20},"transliteration":{"text":"l-ḥamīmi","language_name":"english","language_id":38}},{"id":45765,"position":3,"audio_url":null,"char_type_name":"end","page_number":498,"line_number":5,"text":"٤٦","translation":{"text":"(৪৬)","language_name":"bengali","language_id":20},"transliteration":{"text":null,"language_name":"english","language_id":38}}]},{"id":4461,"verse_number":47,"verse_key":"44:47","hizb_number":50,"rub_el_hizb_number":199,"ruku_number":435,"manzil_number":6,"sajdah_number":null,"page_number":498,"juz_number":25,"words":[{"id":46439,"position":1,"audio_url":"wbw/044_047_001.mp3","char_type_name":"word","page_number":498,"line_number":5,"text":"خُذُوهُ","translation":{"text":"\"(বলা হবে) তাকে ধরো","language_name":"bengali","language_id":20},"transliteration":{"text":"khudhūhu","language_name":"english","language_id":38}},{"id":46440,"position":2,"audio_url":"wbw/044_047_002.mp3","char_type_name":"word","page_number":498,"line_number":5,"text":"فَٱعْتِلُوهُ","translation":{"text":"এরপর তাকে টেনে নাও","language_name":"bengali","language_id":20},"transliteration":{"text":"fa-iʿ'tilūhu","language_name":"english","language_id":38}},{"id":46441,"position":3,"audio_url":"wbw/044_047_003.mp3","char_type_name":"word","page_number":498,"line_number":5,"text":"إِلَىٰ","translation":{"text":"দিকে","language_name":"bengali","language_id":20},"transliteration":{"text":"ilā","language_name":"english","language_id":38}},{"id":46442,"position":4,"audio_url":"wbw/044_047_004.mp3","char_type_name":"word","page_number":498,"line_number":5,"text":"سَوَآءِ","translation":{"text":"মধ্যস্থলে","language_name":"bengali","language_id":20},"transliteration":{"text":"sawāi","language_name":"english","language_id":38}},{"id":46443,"position":5,"audio_url":"wbw/044_047_005.mp3","char_type_name":"word","page_number":498,"line_number":5,"text":"ٱلْجَحِيمِ","translation":{"text":"জাহান্নামের","language_name":"bengali","language_id":20},"transliteration":{"text":"l-jaḥīmi","language_name":"english","language_id":38}},{"id":46444,"position":6,"audio_url":null,"char_type_name":"end","page_number":498,"line_number":5,"text":"٤٧","translation":{"text":"(৪৭)","language_name":"bengali","language_id":20},"transliteration":{"text":null,"language_name":"english","language_id":38}}]},{"id":4462,"verse_number":48,"verse_key":"44:48","hizb_number":50,"rub_el_hizb_number":199,"ruku_number":435,"manzil_number":6,"sajdah_number":null,"page_number":498,"juz_number":25,"words":[{"id":47096,"position":1,"audio_url":"wbw/044_048_001.mp3","char_type_name":"word","page_number":498,"line_number":5,"text":"ثُمَّ","translation":{"text":"এরপর","language_name":"bengali","language_id":20},"transliteration":{"text":"thumma","language_name":"english","language_id":38}},{"id":47097,"position":2,"audio_url":"wbw/044_048_002.mp3","char_type_name":"word","page_number":498,"line_number":6,"text":"صُبُّوا۟","translation":{"text":"তোমরা ঢালো","language_name":"bengali","language_id":20},"transliteration":{"text":"ṣubbū","language_name":"english","language_id":38}},{"id":47098,"position":3,"audio_url":"wbw/044_048_003.mp3","char_type_name":"word","page_number":498,"line_number":6,"text":"فَوْقَ","translation":{"text":"উপর","language_name":"bengali","language_id":20},"transliteration":{"text":"fawqa","language_name":"english","language_id":38}},{"id":47099,"position":4,"audio_url":"wbw/044_048_004.mp3","char_type_name":"word","page_number":498,"line_number":6,"text":"رَأْسِهِۦ","translation":{"text":"তার মাথায়","language_name":"bengali","language_id":20},"transliteration":{"text":"rasihi","language_name":"english","language_id":38}},{"id":47100,"position":5,"audio_url":"wbw/044_048_005.mp3","char_type_name":"word","page_number":498,"line_number":6,"text":"مِنْ","translation":{"text":"থেকে","language_name":"bengali","language_id":20},"transliteration":{"text":"min","language_name":"english","language_id":38}},{"id":47101,"position":6,"audio_url":"wbw/044_048_006.mp3","char_type_name":"word","page_number":498,"line_number":6,"text":"عَذَابِ","translation":{"text":"শাস্তি","language_name":"bengali","language_id":20},"transliteration":{"text":"ʿadhābi","language_name":"english","language_id":38}},{"id":47102,"position":7,"audio_url":"wbw/044_048_007.mp3","char_type_name":"word","page_number":498,"line_number":6,"text":"ٱلْحَمِيمِ","translation":{"text":"ফুটন্ত পানির","language_name":"bengali","language_id":20},"transliteration":{"text":"l-ḥamīmi","language_name":"english","language_id":38}},{"id":47103,"position":8,"audio_url":null,"char_type_name":"end","page_number":498,"line_number":6,"text":"٤٨","translation":{"text":"(৪৮)","language_name":"bengali","language_id":20},"transliteration":{"text":null,"language_name":"english","language_id":38}}]},{"id":4463,"verse_number":49,"verse_key":"44:49","hizb_number":50,"rub_el_hizb_number":199,"ruku_number":435,"manzil_number":6,"sajdah_number":null,"page_number":498,"juz_number":25,"words":[{"id":47928,"position":1,"audio_url":"wbw/044_049_001.mp3","char_type_name":"word","page_number":498,"line_number":6,"text":"ذُقْ","translation":{"text":"(বলা হবে) স্বাদ নাও","language_name":"bengali","language_id":20},"transliteration":{"text":"dhuq","language_name":"english","language_id":38}},{"id":47929,"position":2,"audio_url":"wbw/044_049_002.mp3","char_type_name":"word","page_number":498,"line_number":6,"text":"إِنَّكَ","translation":{"text":"তুমি নিশ্চয়ই","language_name":"bengali","language_id":20},"transliteration":{"text":"innaka","language_name":"english","language_id":38}},{"id":47930,"position":3,"audio_url":"wbw/044_049_003.mp3","char_type_name":"word","page_number":498,"line_number":7,"text":"أَنتَ","translation":{"text":"তুমিই (ছিলে)","language_name":"bengali","language_id":20},"transliteration":{"text":"anta","language_name":"english","language_id":38}},{"id":47931,"position":4,"audio_url":"wbw/044_049_004.mp3","char_type_name":"word","page_number":498,"line_number":7,"text":"ٱلْعَزِيزُ","translation":{"text":"পরাক্রমশালী(?)","language_name":"bengali","language_id":20},"transliteration":{"text":"l-ʿazīzu","language_name":"english","language_id":38}},{"id":47932,"position":5,"audio_url":"wbw/044_049_005.mp3","char_type_name":"word","page_number":498,"line_number":7,"text":"ٱلْكَرِيمُ","translation":{"text":"সম্মানিত","language_name":"bengali","language_id":20},"transliteration":{"text":"l-karīmu","language_name":"english","language_id":38}},{"id":47933,"position":6,"audio_url":null,"char_type_name":"end","page_number":498,"line_number":7,"text":"٤٩","translation":{"text":"(৪৯)","language_name":"bengali","language_id":20},"transliteration":{"text":null,"language_name":"english","language_id":38}}]},{"id":4464,"verse_number":50,"verse_key":"44:50","hizb_number":50,"rub_el_hizb_number":199,"ruku_number":435,"manzil_number":6,"sajdah_number":null,"page_number":498,"juz_number":25,"words":[{"id":48457,"position":1,"audio_url":"wbw/044_050_001.mp3","char_type_name":"word","page_number":498,"line_number":7,"text":"إِنَّ","translation":{"text":"নিশ্চয়ই","language_name":"bengali","language_id":20},"transliteration":{"text":"inna","language_name":"english","language_id":38}},{"id":48458,"position":2,"audio_url":"wbw/044_050_002.mp3","char_type_name":"word","page_number":498,"line_number":7,"text":"هَـٰذَا","translation":{"text":"এটাই","language_name":"bengali","language_id":20},"transliteration":{"text":"hādhā","language_name":"english","language_id":38}},{"id":48459,"position":3,"audio_url":"wbw/044_050_003.mp3","char_type_name":"word","page_number":498,"line_number":7,"text":"مَا","translation":{"text":"(সেই জিনিষ) যা","language_name":"bengali","language_id":20},"transliteration":{"text":"mā","language_name":"english","language_id":38}},{"id":48460,"position":4,"audio_url":"wbw/044_050_004.mp3","char_type_name":"word","page_number":498,"line_number":7,"text":"كُنتُم","translation":{"text":"তোমরা ছিলে","language_name":"bengali","language_id":20},"transliteration":{"text":"kuntum","language_name":"english","language_id":38}},{"id":48461,"position":5,"audio_url":"wbw/044_050_005.mp3","char_type_name":"word","page_number":498,"line_number":7,"text":"بِهِۦ","translation":{"text":"সে সম্বন্ধে","language_name":"bengali","language_id":20},"transliteration":{"text":"bihi","language_name":"english","language_id":38}},{"id":48462,"position":6,"audio_url":"wbw/044_050_006.mp3","char_type_name":"word","page_number":498,"line_number":7,"text":"تَمْتَرُونَ","translation":{"text":"সন্দেহ করতে\"","language_name":"bengali","language_id":20},"transliteration":{"text":"tamtarūna","language_name":"english","language_id":38}},{"id":48463,"position":7,"audio_url":null,"char_type_name":"end","page_number":498,"line_number":8,"text":"٥٠","translation":{"text":"(৫০)","language_name":"bengali","language_id":20},"transliteration":{"text":null,"language_name":"english","language_id":38}}]}],"pagination":{"per_page":10,"current_page":5,"next_page":6,"total_pages":6,"total_records":59}}
