{"verses":[{"id":4746,"verse_number":11,"verse_key":"52:11","hizb_number":53,"rub_el_hizb_number":209,"ruku_number":460,"manzil_number":7,"sajdah_number":null,"page_number":523,"juz_number":27,"words":[{"id":12255,"position":1,"audio_url":"wbw/052_011_001.mp3","char_type_name":"word","page_number":523,"line_number":13,"text":"فَوَيْلٌۭ","translation":{"text":"অতঃপর দুর্ভোগ","language_name":"bengali","language_id":20},"transliteration":{"text":"fawaylun","language_name":"english","language_id":38}},{"id":12256,"position":2,"audio_url":"wbw/052_011_002.mp3","char_type_name":"word","page_number":523,"line_number":13,"text":"يَوْمَئِذٍۢ","translation":{"text":"সেদিন","language_name":"bengali","language_id":20},"transliteration":{"text":"yawma-idhin","language_name":"english","language_id":38}},{"id":12257,"position":3,"audio_url":"wbw/052_011_003.mp3","char_type_name":"word","page_number":523,"line_number":13,"text":"لِّلْمُكَذِّبِينَ","translation":{"text":"মিথ্যারোপকারীদের জন্যে","language_name":"bengali","language_id":20},"transliteration":{"text":"lil'mukadhibīna","language_name":"english","language_id":38}},{"id":12258,"position":4,"audio_url":null,"char_type_name":"end","page_number":523,"line_number":14,"text":"١١","translation":{"text":"(১১)","language_name":"bengali","language_id":20},"transliteration":{"text":null,"language_name":"english","language_id":38}}]},{"id":4747,"verse_number":12,"verse_key":"52:12","hizb_number":53,"rub_el_hizb_number":209,"ruku_number":460,"manzil_number":7,"sajdah_number":null,"page_number":523,"juz_number":27,"words":[{"id":13630,"position":1,"audio_url":"wbw/052_012_001.mp3","char_type_name":"word","page_number":523,"line_number":14,"text":"ٱلَّذِينَ","translation":{"text":"যারা (এমন যে)","language_name":"bengali","language_id":20},"transliteration":{"text":"alladhīna","language_name":"english","language_id":38}},{"id":13631,"position":2,"audio_url":"wbw/052_012_002.mp3","char_type_name":"word","page_number":523,"line_number":14,"text":"هُمْ","translation":{"text":"তারা","language_name":"bengali","language_id":20},"transliteration":{"text":"hum","language_name":"english","language_id":38}},{"id":13632,"position":3,"audio_url":"wbw/052_012_003.mp3","char_type_name":"word","page_number":523,"line_number":14,"text":"فِى","translation":{"text":"মধ্যে","language_name":"bengali","language_id":20},"transliteration":{"text":"fī","language_name":"english","language_id":38}},{"id":13633,"position":4,"audio_url":"wbw/052_012_004.mp3","char_type_name":"word","page_number":523,"line_number":14,"text":"خَوْضٍۢ","translation":{"text":"অর্থহীন যুক্তি প্রদানের","language_name":"bengali","language_id":20},"transliteration":{"text":"khawḍin","language_name":"english","language_id":38}},{"id":13634,"position":5,"audio_url":"wbw/052_012_005.mp3","char_type_name":"word","page_number":523,"line_number":14,"text":"يَلْعَبُونَ","translation":{"text":"খেলায় মেতে আছে","language_name":"bengali","language_id":20},"transliteration":{"text":"yalʿabūna","language_name":"english","language_id":38}},{"id":13635,"position":6,"audio_url":null,"char_type_name":"end","page_number":523,"line_number":14,"text":"١٢","translation":{"text":"(১২)","language_name":"bengali","language_id":20},"transliteration":{"text":null,"language_name":"english","language_id":38}}]},{"id":4748,"verse_number":13,"verse_key":"52:13","hizb_number":53,"rub_el_hizb_number":209,"ruku_number":460,"manzil_number":7,"sajdah_number":null,"page_number":523,"juz_number":27,"words":[{"id":14918,"position":1,"audio_url":"wbw/052_013_001.mp3","char_type_name":"word","page_number":523,"line_number":14,"text":"يَوْمَ","translation":{"text":"সেদিন","language_name":"bengali","language_id":20},"transliteration":{"text":"yawma","language_name":"english","language_id":38}},{"id":14919,"position":2,"audio_url":"wbw/052_013_002.mp3","char_type_name":"word","page_number":523,"line_number":14,"text":"يُدَعُّونَ","translation":{"text":"তাদেরকে ধাক্কা দেওয়া হবে","language_name":"bengali","language_id":20},"transliteration":{"text":"yudaʿʿūna","language_name":"english","language_id":38}},{"id":14920,"position":3,"audio_url":"wbw/052_013_003.mp3","char_type_name":"word","page_number":523,"line_number":14,"text":"إِلَىٰ","translation":{"text":"দিকে","language_name":"bengali","language_id":20},"transliteration":{"text":"ilā","language_name":"english","language_id":38}},{"id":14921,"position":4,"audio_url":"wbw/052_013_004.mp3","char_type_name":"word","page_number":523,"line_number":14,"text":"نَارِ","translation":{"text":"আগুনের","language_name":"bengali","language_id":20},"transliteration":{"text":"nāri","language_name":"english","language_id":38}},{"id":14922,"position":5,"audio_url":"wbw/052_013_005.mp3","char_type_name":"word","page_number":523,"line_number":15,"text":"جَهَنَّمَ","translation":{"text":"জাহান্নামের","language_name":"bengali","language_id":20},"transliteration":{"text":"jahannama","language_name":"english","language_id":38}},{"id":14923,"position":6,"audio_url":"wbw/052_013_006.mp3","char_type_name":"word","page_number":523,"line_number":15,"text":"دَعًّا","translation":{"text":"জোর ধাক্কা","language_name":"bengali","language_id":20},"transliteration":{"text":"daʿʿan","language_name":"english","language_id":38}},{"id":14924,"position":7,"audio_url":null,"char_type_name":"end","page_number":523,"line_number":15,"text":"١٣","translation":{"text":"(১৩)","language_name":"bengali","language_id":20},"transliteration":{"text":null,"language_name":"english","language_id":38}}]},{"id":4749,"verse_number":14,"verse_key":"52:14","hizb_number":53,"rub_el_hizb_number":209,"ruku_number":460,"manzil_number":7,"sajdah_number":null,"page_number":523,"juz_number":27,"words":[{"id":15997,"position":1,"audio_url":"wbw/052_014_001.mp3","char_type_name":"word","page_number":523,"line_number":15,"text":"هَـٰذِهِ","translation":{"text":"\"(বলা হবে) সেই এই","language_name":"bengali","language_id":20},"transliteration":{"text":"hādhihi","language_name":"english","language_id":38}},{"id":15998,"position":2,"audio_url":"wbw/052_014_002.mp3","char_type_name":"word","page_number":523,"line_number":15,"text":"ٱلنَّارُ","translation":{"text":"আগুন","language_name":"bengali","language_id":20},"transliteration":{"text":"l-nāru","language_name":"english","language_id":38}},{"id":15999,"position":3,"audio_url":"wbw/052_014_003.mp3","char_type_name":"word","page_number":523,"line_number":15,"text":"ٱلَّتِى","translation":{"text":"যা","language_name":"bengali","language_id":20},"transliteration":{"text":"allatī","language_name":"english","language_id":38}},{"id":16000,"position":4,"audio_url":"wbw/052_014_004.mp3","char_type_name":"word","page_number":523,"line_number":15,"text":"كُنتُم","translation":{"text":"তোমরা ছিলে","language_name":"bengali","language_id":20},"transliteration":{"text":"kuntum","language_name":"english","language_id":38}},{"id":16001,"position":5,"audio_url":"wbw/052_014_005.mp3","char_type_name":"word","page_number":523,"line_number":15,"text":"بِهَا","translation":{"text":"সে বিষয়ে","language_name":"bengali","language_id":20},"transliteration":{"text":"bihā","language_name":"english","language_id":38}},{"id":16002,"position":6,"audio_url":"wbw/052_014_006.mp3","char_type_name":"word","page_number":523,"line_number":15,"text":"تُكَذِّبُونَ","translation":{"text":"মিথ্যা মনে করতে","language_name":"bengali","language_id":20},"transliteration":{"text":"tukadhibūna","language_name":"english","language_id":38}},{"id":16003,"position":7,"audio_url":null,"char_type_name":"end","page_number":523,"line_number":15,"text":"١٤","translation":{"text":"(১৪)","language_name":"bengali","language_id":20},"transliteration":{"text":null,"language_name":"english","language_id":38}}]},{"id":4750,"verse_number":15,"verse_key":"52:15","hizb_number":53,"rub_el_hizb_number":209,"ruku_number":460,"manzil_number":7,"sajdah_number":null,"page_number":524,"juz_number":27,"words":[{"id":17222,"position":1,"audio_url":"wbw/052_015_001.mp3","char_type_name":"word","page_number":524,"line_number":1,"text":"أَفَسِحْرٌ","translation":{"text":"জাদু তবে কি","language_name":"bengali","language_id":20},"transliteration":{"text":"afasiḥ'run","language_name":"english","language_id":38}},{"id":17223,"position":2,"audio_url":"wbw/052_015_002.mp3","char_type_name":"word","page_number":524,"line_number":1,"text":"هَـٰذَآ","translation":{"text":"এটা","language_name":"bengali","language_id":20},"transliteration":{"text":"hādhā","language_name":"english","language_id":38}},{"id":17224,"position":3,"audio_url":"wbw/052_015_003.mp3","char_type_name":"word","page_number":524,"line_number":1,"text":"أَمْ","translation":{"text":"নাকি","language_name":"bengali","language_id":20},"transliteration":{"text":"am","language_name":"english","language_id":38}},{"id":17225,"position":4,"audio_url":"wbw/052_015_004.mp3","char_type_name":"word","page_number":524,"line_number":1,"text":"أَنتُمْ","translation":{"text":"তোমরা","language_name":"bengali","language_id":20},"transliteration":{"text":"antum","language_name":"english","language_id":38}},{"id":17226,"position":5,"audio_url":"wbw/052_015_005.mp3","char_type_name":"word","page_number":524,"line_number":1,"text":"لَا","translation":{"text":"না","language_name":"bengali","language_id":20},"transliteration":{"text":"lā","language_name":"english","language_id":38}},{"id":17227,"position":6,"audio_url":"wbw/052_015_006.mp3","char_type_name":"word","page_number":524,"line_number":1,"text":"تُبْصِرُونَ","translation":{"text":"চোখে দেখছ","language_name":"bengali","language_id":20},"transliteration":{"text":"tub'ṣirūna","language_name":"english","language_id":38}},{"id":17228,"position":7,"audio_url":null,"char_type_name":"end","page_number":524,"line_number":1,"text":"١٥","translation":{"text":"(১৫)","language_name":"bengali","language_id":20},"transliteration":{"text":null,"language_name":"english","language_id":38}}]},{"id":4751,"verse_number":16,"verse_key":"52:16","hizb_number":53,"rub_el_hizb_number":209,"ruku_number":460,"manzil_number":7,"sajdah_number":null,"page_number":524,"juz_number":27,"words":[{"id":18267,"position":1,"audio_url":"wbw/052_016_001.mp3","char_type_name":"word","page_number":524,"line_number":1,"text":"ٱصْلَوْهَا","translation":{"text":"তাতে তোমরা প্রবেশ করো","language_name":"bengali","language_id":20},"transliteration":{"text":"iṣ'lawhā","language_name":"english","language_id":38}},{"id":18268,"position":2,"audio_url":"wbw/052_016_002.mp3","char_type_name":"word","page_number":524,"line_number":1,"text":"فَٱصْبِرُوٓا۟","translation":{"text":"অতঃপর তোমরা সহ্য করতে পার","language_name":"bengali","language_id":20},"transliteration":{"text":"fa-iṣ'birū","language_name":"english","language_id":38}},{"id":18269,"position":3,"audio_url":"wbw/052_016_003.mp3","char_type_name":"word","page_number":524,"line_number":2,"text":"أَوْ","translation":{"text":"বা","language_name":"bengali","language_id":20},"transliteration":{"text":"aw","language_name":"english","language_id":38}},{"id":18270,"position":4,"audio_url":"wbw/052_016_004.mp3","char_type_name":"word","page_number":524,"line_number":2,"text":"لَا","translation":{"text":"না","language_name":"bengali","language_id":20},"transliteration":{"text":"lā","language_name":"english","language_id":38}},{"id":18271,"position":5,"audio_url":"wbw/052_016_005.mp3","char_type_name":"word","page_number":524,"line_number":2,"text":"تَصْبِرُوا۟","translation":{"text":"তোমরা সহ্য করতে পার","language_name":"bengali","language_id":20},"transliteration":{"text":"taṣbirū","language_name":"english","language_id":38}},{"id":18272,"position":6,"audio_url":"wbw/052_016_006.mp3","char_type_name":"word","page_number":524,"line_number":2,"text":"سَوَآءٌ","translation":{"text":"(সবই) সমান","language_name":"bengali","language_id":20},"transliteration":{"text":"sawāon","language_name":"english","language_id":38}},{"id":18273,"position":7,"audio_url":"wbw/052_016_007.mp3","char_type_name":"word","page_number":524,"line_number":2,"text":"عَلَيْكُمْ ۖ","translation":{"text":"তোমাদের জন্যে","language_name":"bengali","language_id":20},"transliteration":{"text":"ʿalaykum","language_name":"english","language_id":38}},{"id":18275,"position":8,"audio_url":"wbw/052_016_009.mp3","char_type_name":"word","page_number":524,"line_number":2,"text":"إِنَّمَا","translation":{"text":"প্রকৃতপক্ষে (আজ)","language_name":"bengali","language_id":20},"transliteration":{"text":"innamā","language_name":"english","language_id":38}},{"id":18276,"position":9,"audio_url":"wbw/052_016_010.mp3","char_type_name":"word","page_number":524,"line_number":2,"text":"تُجْزَوْنَ","translation":{"text":"তোমাদেরকে প্রতিফল দেয়া হচ্ছে","language_name":"bengali","language_id":20},"transliteration":{"text":"tuj'zawna","language_name":"english","language_id":38}},{"id":18277,"position":10,"audio_url":"wbw/052_016_011.mp3","char_type_name":"word","page_number":524,"line_number":2,"text":"مَا","translation":{"text":"যা","language_name":"bengali","language_id":20},"transliteration":{"text":"mā","language_name":"english","language_id":38}},{"id":18278,"position":11,"audio_url":"wbw/052_016_012.mp3","char_type_name":"word","page_number":524,"line_number":2,"text":"كُنتُمْ","translation":{"text":"তোমরা ছিলে","language_name":"bengali","language_id":20},"transliteration":{"text":"kuntum","language_name":"english","language_id":38}},{"id":18279,"position":12,"audio_url":"wbw/052_016_013.mp3","char_type_name":"word","page_number":524,"line_number":2,"text":"تَعْمَلُونَ","translation":{"text":"কাজ করছ\"","language_name":"bengali","language_id":20},"transliteration":{"text":"taʿmalūna","language_name":"english","language_id":38}},{"id":18280,"position":13,"audio_url":null,"char_type_name":"end","page_number":524,"line_number":2,"text":"١٦","translation":{"text":"(১৬)","language_name":"bengali","language_id":20},"transliteration":{"text":null,"language_name":"english","language_id":38}}]},{"id":4752,"verse_number":17,"verse_key":"52:17","hizb_number":53,"rub_el_hizb_number":209,"ruku_number":460,"manzil_number":7,"sajdah_number":null,"page_number":524,"juz_number":27,"words":[{"id":19299,"position":1,"audio_url":"wbw/052_017_001.mp3","char_type_name":"word","page_number":524,"line_number":3,"text":"إِنَّ","translation":{"text":"নিশ্চয়ই","language_name":"bengali","language_id":20},"transliteration":{"text":"inna","language_name":"english","language_id":38}},{"id":19300,"position":2,"audio_url":"wbw/052_017_002.mp3","char_type_name":"word","page_number":524,"line_number":3,"text":"ٱلْمُتَّقِينَ","translation":{"text":"মুত্তাকীরা (অবস্থিত হবে)","language_name":"bengali","language_id":20},"transliteration":{"text":"l-mutaqīna","language_name":"english","language_id":38}},{"id":19301,"position":3,"audio_url":"wbw/052_017_003.mp3","char_type_name":"word","page_number":524,"line_number":3,"text":"فِى","translation":{"text":"মধ্যে","language_name":"bengali","language_id":20},"transliteration":{"text":"fī","language_name":"english","language_id":38}},{"id":19302,"position":4,"audio_url":"wbw/052_017_004.mp3","char_type_name":"word","page_number":524,"line_number":3,"text":"جَنَّـٰتٍۢ","translation":{"text":"জান্নাতের","language_name":"bengali","language_id":20},"transliteration":{"text":"jannātin","language_name":"english","language_id":38}},{"id":19303,"position":5,"audio_url":"wbw/052_017_005.mp3","char_type_name":"word","page_number":524,"line_number":3,"text":"وَنَعِيمٍۢ","translation":{"text":"ও আরাম আয়েশে","language_name":"bengali","language_id":20},"transliteration":{"text":"wanaʿīmin","language_name":"english","language_id":38}},{"id":19304,"position":6,"audio_url":null,"char_type_name":"end","page_number":524,"line_number":3,"text":"١٧","translation":{"text":"(১৭)","language_name":"bengali","language_id":20},"transliteration":{"text":null,"language_name":"english","language_id":38}}]},{"id":4753,"verse_number":18,"verse_key":"52:18","hizb_number":53,"rub_el_hizb_number":209,"ruku_number":460,"manzil_number":7,"sajdah_number":null,"page_number":524,"juz_number":27,"words":[{"id":20366,"position":1,"audio_url":"wbw/052_018_001.mp3","char_type_name":"word","page_number":524,"line_number":3,"text":"فَـٰكِهِينَ","translation":{"text":"সানন্দে উপভোগকারী হবে তারা","language_name":"bengali","language_id":20},"transliteration":{"text":"fākihīna","language_name":"english","language_id":38}},{"id":20367,"position":2,"audio_url":"wbw/052_018_002.mp3","char_type_name":"word","page_number":524,"line_number":3,"text":"بِمَآ","translation":{"text":"ঐ জিনিসের যা","language_name":"bengali","language_id":20},"transliteration":{"text":"bimā","language_name":"english","language_id":38}},{"id":20368,"position":3,"audio_url":"wbw/052_018_003.mp3","char_type_name":"word","page_number":524,"line_number":3,"text":"ءَاتَىٰهُمْ","translation":{"text":"তাদের দান করবেন","language_name":"bengali","language_id":20},"transliteration":{"text":"ātāhum","language_name":"english","language_id":38}},{"id":20369,"position":4,"audio_url":"wbw/052_018_004.mp3","char_type_name":"word","page_number":524,"line_number":3,"text":"رَبُّهُمْ","translation":{"text":"তাদের রব","language_name":"bengali","language_id":20},"transliteration":{"text":"rabbuhum","language_name":"english","language_id":38}},{"id":20370,"position":5,"audio_url":"wbw/052_018_005.mp3","char_type_name":"word","page_number":524,"line_number":4,"text":"وَوَقَىٰهُمْ","translation":{"text":"এবং তাদের রক্ষা করবেন","language_name":"bengali","language_id":20},"transliteration":{"text":"wawaqāhum","language_name":"english","language_id":38}},{"id":20371,"position":6,"audio_url":"wbw/052_018_006.mp3","char_type_name":"word","page_number":524,"line_number":4,"text":"رَبُّهُمْ","translation":{"text":"তাদের রব","language_name":"bengali","language_id":20},"transliteration":{"text":"rabbuhum","language_name":"english","language_id":38}},{"id":20372,"position":7,"audio_url":"wbw/052_018_007.mp3","char_type_name":"word","page_number":524,"line_number":4,"text":"عَذَابَ","translation":{"text":"শাস্তি (হতে)","language_name":"bengali","language_id":20},"transliteration":{"text":"ʿadhāba","language_name":"english","language_id":38}},{"id":20373,"position":8,"audio_url":"wbw/052_018_008.mp3","char_type_name":"word","page_number":524,"line_number":4,"text":"ٱلْجَحِيمِ","translation":{"text":"জাহান্নামের","language_name":"bengali","language_id":20},"transliteration":{"text":"l-jaḥīmi","language_name":"english","language_id":38}},{"id":20374,"position":9,"audio_url":null,"char_type_name":"end","page_number":524,"line_number":4,"text":"١٨","translation":{"text":"(১৮)","language_name":"bengali","language_id":20},"transliteration":{"text":null,"language_name":"english","language_id":38}}]},{"id":4754,"verse_number":19,"verse_key":"52:19","hizb_number":53,"rub_el_hizb_number":209,"ruku_number":460,"manzil_number":7,"sajdah_number":null,"page_number":524,"juz_number":27,"words":[{"id":21444,"position":1,"audio_url":"wbw/052_019_001.mp3","char_type_name":"word","page_number":524,"line_number":4,"text":"كُلُوا۟","translation":{"text":"\"(বলা হবে) তোমরা খাও","language_name":"bengali","language_id":20},"transliteration":{"text":"kulū","language_name":"english","language_id":38}},{"id":21445,"position":2,"audio_url":"wbw/052_019_002.mp3","char_type_name":"word","page_number":524,"line_number":4,"text":"وَٱشْرَبُوا۟","translation":{"text":"ও তোমরা পান করো","language_name":"bengali","language_id":20},"transliteration":{"text":"wa-ish'rabū","language_name":"english","language_id":38}},{"id":21446,"position":3,"audio_url":"wbw/052_019_003.mp3","char_type_name":"word","page_number":524,"line_number":4,"text":"هَنِيٓـًٔۢا","translation":{"text":"তৃপ্তির সাথে","language_name":"bengali","language_id":20},"transliteration":{"text":"hanīan","language_name":"english","language_id":38}},{"id":21447,"position":4,"audio_url":"wbw/052_019_004.mp3","char_type_name":"word","page_number":524,"line_number":4,"text":"بِمَا","translation":{"text":"তার বদলে যা","language_name":"bengali","language_id":20},"transliteration":{"text":"bimā","language_name":"english","language_id":38}},{"id":21448,"position":5,"audio_url":"wbw/052_019_005.mp3","char_type_name":"word","page_number":524,"line_number":5,"text":"كُنتُمْ","translation":{"text":"তোমরা করছিলে","language_name":"bengali","language_id":20},"transliteration":{"text":"kuntum","language_name":"english","language_id":38}},{"id":21449,"position":6,"audio_url":"wbw/052_019_006.mp3","char_type_name":"word","page_number":524,"line_number":5,"text":"تَعْمَلُونَ","translation":{"text":"তোমরা কাজ করছিলে\"","language_name":"bengali","language_id":20},"transliteration":{"text":"taʿmalūna","language_name":"english","language_id":38}},{"id":21450,"position":7,"audio_url":null,"char_type_name":"end","page_number":524,"line_number":5,"text":"١٩","translation":{"text":"(১৯)","language_name":"bengali","language_id":20},"transliteration":{"text":null,"language_name":"english","language_id":38}}]},{"id":4755,"verse_number":20,"verse_key":"52:20","hizb_number":53,"rub_el_hizb_number":209,"ruku_number":460,"manzil_number":7,"sajdah_number":null,"page_number":524,"juz_number":27,"words":[{"id":22539,"position":1,"audio_url":"wbw/052_020_001.mp3","char_type_name":"word","page_number":524,"line_number":5,"text":"مُتَّكِـِٔينَ","translation":{"text":"তারা হেলান দিয়ে বসবে","language_name":"bengali","language_id":20},"transliteration":{"text":"muttakiīna","language_name":"english","language_id":38}},{"id":22540,"position":2,"audio_url":"wbw/052_020_002.mp3","char_type_name":"word","page_number":524,"line_number":5,"text":"عَلَىٰ","translation":{"text":"উপর","language_name":"bengali","language_id":20},"transliteration":{"text":"ʿalā","language_name":"english","language_id":38}},{"id":22541,"position":3,"audio_url":"wbw/052_020_003.mp3","char_type_name":"word","page_number":524,"line_number":5,"text":"سُرُرٍۢ","translation":{"text":"আসনসমূহের","language_name":"bengali","language_id":20},"transliteration":{"text":"sururin","language_name":"english","language_id":38}},{"id":22542,"position":4,"audio_url":"wbw/052_020_004.mp3","char_type_name":"word","page_number":524,"line_number":5,"text":"مَّصْفُوفَةٍۢ ۖ","translation":{"text":"সারিবদ্ধভাবে","language_name":"bengali","language_id":20},"transliteration":{"text":"maṣfūfatin","language_name":"english","language_id":38}},{"id":22544,"position":5,"audio_url":"wbw/052_020_006.mp3","char_type_name":"word","page_number":524,"line_number":5,"text":"وَزَوَّجْنَـٰهُم","translation":{"text":"এবং তাদেরকে আমরা বিয়ে দিব","language_name":"bengali","language_id":20},"transliteration":{"text":"wazawwajnāhum","language_name":"english","language_id":38}},{"id":22545,"position":6,"audio_url":"wbw/052_020_007.mp3","char_type_name":"word","page_number":524,"line_number":6,"text":"بِحُورٍ","translation":{"text":"হূরদের সাথে","language_name":"bengali","language_id":20},"transliteration":{"text":"biḥūrin","language_name":"english","language_id":38}},{"id":22546,"position":7,"audio_url":"wbw/052_020_008.mp3","char_type_name":"word","page_number":524,"line_number":6,"text":"عِينٍۢ","translation":{"text":"(যারা হবে) আয়তলোচনা","language_name":"bengali","language_id":20},"transliteration":{"text":"ʿīnin","language_name":"english","language_id":38}},{"id":22547,"position":8,"audio_url":null,"char_type_name":"end","page_number":524,"line_number":6,"text":"٢٠","translation":{"text":"(২০)","language_name":"bengali","language_id":20},"transliteration":{"text":null,"language_name":"english","language_id":38}}]}],"pagination":{"per_page":10,"current_page":2,"next_page":3,"total_pages":5,"total_records":49}}
