{"verses":[{"id":4766,"verse_number":31,"verse_key":"52:31","hizb_number":53,"rub_el_hizb_number":210,"ruku_number":461,"manzil_number":7,"sajdah_number":null,"page_number":524,"juz_number":27,"words":[{"id":33502,"position":1,"audio_url":"wbw/052_031_001.mp3","char_type_name":"word","page_number":524,"line_number":15,"text":"قُلْ","translation":{"text":"(তুমি) বলো","language_name":"bengali","language_id":20},"transliteration":{"text":"qul","language_name":"english","language_id":38}},{"id":33503,"position":2,"audio_url":"wbw/052_031_002.mp3","char_type_name":"word","page_number":524,"line_number":15,"text":"تَرَبَّصُوا۟","translation":{"text":"\"তোমরা অপেক্ষা করো","language_name":"bengali","language_id":20},"transliteration":{"text":"tarabbaṣū","language_name":"english","language_id":38}},{"id":33504,"position":3,"audio_url":"wbw/052_031_003.mp3","char_type_name":"word","page_number":524,"line_number":15,"text":"فَإِنِّى","translation":{"text":"আর নিশ্চয়ই আমি","language_name":"bengali","language_id":20},"transliteration":{"text":"fa-innī","language_name":"english","language_id":38}},{"id":33505,"position":4,"audio_url":"wbw/052_031_004.mp3","char_type_name":"word","page_number":524,"line_number":15,"text":"مَعَكُم","translation":{"text":"তোমাদের সাথে","language_name":"bengali","language_id":20},"transliteration":{"text":"maʿakum","language_name":"english","language_id":38}},{"id":33506,"position":5,"audio_url":"wbw/052_031_005.mp3","char_type_name":"word","page_number":524,"line_number":15,"text":"مِّنَ","translation":{"text":"অন্তর্ভুক্ত","language_name":"bengali","language_id":20},"transliteration":{"text":"mina","language_name":"english","language_id":38}},{"id":33507,"position":6,"audio_url":"wbw/052_031_006.mp3","char_type_name":"word","page_number":524,"line_number":15,"text":"ٱلْمُتَرَبِّصِينَ","translation":{"text":"অপেক্ষাকারীদের\"","language_name":"bengali","language_id":20},"transliteration":{"text":"l-mutarabiṣīna","language_name":"english","language_id":38}},{"id":33508,"position":7,"audio_url":null,"char_type_name":"end","page_number":524,"line_number":15,"text":"٣١","translation":{"text":"(৩১)","language_name":"bengali","language_id":20},"transliteration":{"text":null,"language_name":"english","language_id":38}}]},{"id":4767,"verse_number":32,"verse_key":"52:32","hizb_number":53,"rub_el_hizb_number":210,"ruku_number":461,"manzil_number":7,"sajdah_number":null,"page_number":525,"juz_number":27,"words":[{"id":34596,"position":1,"audio_url":"wbw/052_032_001.mp3","char_type_name":"word","page_number":525,"line_number":1,"text":"أَمْ","translation":{"text":"(তবে) কি","language_name":"bengali","language_id":20},"transliteration":{"text":"am","language_name":"english","language_id":38}},{"id":34597,"position":2,"audio_url":"wbw/052_032_002.mp3","char_type_name":"word","page_number":525,"line_number":1,"text":"تَأْمُرُهُمْ","translation":{"text":"নির্দেশ দেয় তাদেরকে","language_name":"bengali","language_id":20},"transliteration":{"text":"tamuruhum","language_name":"english","language_id":38}},{"id":34598,"position":3,"audio_url":"wbw/052_032_003.mp3","char_type_name":"word","page_number":525,"line_number":1,"text":"أَحْلَـٰمُهُم","translation":{"text":"তাদের বিবেকবুদ্ধি","language_name":"bengali","language_id":20},"transliteration":{"text":"aḥlāmuhum","language_name":"english","language_id":38}},{"id":34599,"position":4,"audio_url":"wbw/052_032_004.mp3","char_type_name":"word","page_number":525,"line_number":1,"text":"بِهَـٰذَآ ۚ","translation":{"text":"এটা সম্বন্ধে","language_name":"bengali","language_id":20},"transliteration":{"text":"bihādhā","language_name":"english","language_id":38}},{"id":34601,"position":5,"audio_url":"wbw/052_032_006.mp3","char_type_name":"word","page_number":525,"line_number":1,"text":"أَمْ","translation":{"text":"না কি (প্রকৃতপক্ষে)","language_name":"bengali","language_id":20},"transliteration":{"text":"am","language_name":"english","language_id":38}},{"id":34602,"position":6,"audio_url":"wbw/052_032_007.mp3","char_type_name":"word","page_number":525,"line_number":1,"text":"هُمْ","translation":{"text":"তারা","language_name":"bengali","language_id":20},"transliteration":{"text":"hum","language_name":"english","language_id":38}},{"id":34603,"position":7,"audio_url":"wbw/052_032_008.mp3","char_type_name":"word","page_number":525,"line_number":1,"text":"قَوْمٌۭ","translation":{"text":"জাতি","language_name":"bengali","language_id":20},"transliteration":{"text":"qawmun","language_name":"english","language_id":38}},{"id":34604,"position":8,"audio_url":"wbw/052_032_009.mp3","char_type_name":"word","page_number":525,"line_number":1,"text":"طَاغُونَ","translation":{"text":"সীমালঙ্ঘনকারী","language_name":"bengali","language_id":20},"transliteration":{"text":"ṭāghūna","language_name":"english","language_id":38}},{"id":34605,"position":9,"audio_url":null,"char_type_name":"end","page_number":525,"line_number":1,"text":"٣٢","translation":{"text":"(৩২)","language_name":"bengali","language_id":20},"transliteration":{"text":null,"language_name":"english","language_id":38}}]},{"id":4768,"verse_number":33,"verse_key":"52:33","hizb_number":53,"rub_el_hizb_number":210,"ruku_number":461,"manzil_number":7,"sajdah_number":null,"page_number":525,"juz_number":27,"words":[{"id":35409,"position":1,"audio_url":"wbw/052_033_001.mp3","char_type_name":"word","page_number":525,"line_number":1,"text":"أَمْ","translation":{"text":"কি","language_name":"bengali","language_id":20},"transliteration":{"text":"am","language_name":"english","language_id":38}},{"id":35410,"position":2,"audio_url":"wbw/052_033_002.mp3","char_type_name":"word","page_number":525,"line_number":1,"text":"يَقُولُونَ","translation":{"text":"তারা বলে","language_name":"bengali","language_id":20},"transliteration":{"text":"yaqūlūna","language_name":"english","language_id":38}},{"id":35411,"position":3,"audio_url":"wbw/052_033_003.mp3","char_type_name":"word","page_number":525,"line_number":1,"text":"تَقَوَّلَهُۥ ۚ","translation":{"text":"\"তা সে রচনা করেছে\"","language_name":"bengali","language_id":20},"transliteration":{"text":"taqawwalahu","language_name":"english","language_id":38}},{"id":35413,"position":4,"audio_url":"wbw/052_033_005.mp3","char_type_name":"word","page_number":525,"line_number":2,"text":"بَل","translation":{"text":"আসল কথা হল","language_name":"bengali","language_id":20},"transliteration":{"text":"bal","language_name":"english","language_id":38}},{"id":35414,"position":5,"audio_url":"wbw/052_033_006.mp3","char_type_name":"word","page_number":525,"line_number":2,"text":"لَّا","translation":{"text":"না","language_name":"bengali","language_id":20},"transliteration":{"text":"lā","language_name":"english","language_id":38}},{"id":35415,"position":6,"audio_url":"wbw/052_033_007.mp3","char_type_name":"word","page_number":525,"line_number":2,"text":"يُؤْمِنُونَ","translation":{"text":"তারা ঈমান আনতে চায়","language_name":"bengali","language_id":20},"transliteration":{"text":"yu'minūna","language_name":"english","language_id":38}},{"id":35416,"position":7,"audio_url":null,"char_type_name":"end","page_number":525,"line_number":2,"text":"٣٣","translation":{"text":"(৩৩)","language_name":"bengali","language_id":20},"transliteration":{"text":null,"language_name":"english","language_id":38}}]},{"id":4769,"verse_number":34,"verse_key":"52:34","hizb_number":53,"rub_el_hizb_number":210,"ruku_number":461,"manzil_number":7,"sajdah_number":null,"page_number":525,"juz_number":27,"words":[{"id":36335,"position":1,"audio_url":"wbw/052_034_001.mp3","char_type_name":"word","page_number":525,"line_number":2,"text":"فَلْيَأْتُوا۟","translation":{"text":"তারা আনুক তাহলে  (রচনা করে)","language_name":"bengali","language_id":20},"transliteration":{"text":"falyatū","language_name":"english","language_id":38}},{"id":36336,"position":2,"audio_url":"wbw/052_034_002.mp3","char_type_name":"word","page_number":525,"line_number":2,"text":"بِحَدِيثٍۢ","translation":{"text":"নিয়ে কোনো বাণী","language_name":"bengali","language_id":20},"transliteration":{"text":"biḥadīthin","language_name":"english","language_id":38}},{"id":36337,"position":3,"audio_url":"wbw/052_034_003.mp3","char_type_name":"word","page_number":525,"line_number":2,"text":"مِّثْلِهِۦٓ","translation":{"text":"তার মতো (মর্যাদাবান)","language_name":"bengali","language_id":20},"transliteration":{"text":"mith'lihi","language_name":"english","language_id":38}},{"id":36338,"position":4,"audio_url":"wbw/052_034_004.mp3","char_type_name":"word","page_number":525,"line_number":2,"text":"إِن","translation":{"text":"যদি","language_name":"bengali","language_id":20},"transliteration":{"text":"in","language_name":"english","language_id":38}},{"id":36339,"position":5,"audio_url":"wbw/052_034_005.mp3","char_type_name":"word","page_number":525,"line_number":2,"text":"كَانُوا۟","translation":{"text":"তারা হয়","language_name":"bengali","language_id":20},"transliteration":{"text":"kānū","language_name":"english","language_id":38}},{"id":36340,"position":6,"audio_url":"wbw/052_034_006.mp3","char_type_name":"word","page_number":525,"line_number":2,"text":"صَـٰدِقِينَ","translation":{"text":"সত্যবাদী","language_name":"bengali","language_id":20},"transliteration":{"text":"ṣādiqīna","language_name":"english","language_id":38}},{"id":36341,"position":7,"audio_url":null,"char_type_name":"end","page_number":525,"line_number":3,"text":"٣٤","translation":{"text":"(৩৪)","language_name":"bengali","language_id":20},"transliteration":{"text":null,"language_name":"english","language_id":38}}]},{"id":4770,"verse_number":35,"verse_key":"52:35","hizb_number":53,"rub_el_hizb_number":210,"ruku_number":461,"manzil_number":7,"sajdah_number":null,"page_number":525,"juz_number":27,"words":[{"id":37205,"position":1,"audio_url":"wbw/052_035_001.mp3","char_type_name":"word","page_number":525,"line_number":3,"text":"أَمْ","translation":{"text":"কি","language_name":"bengali","language_id":20},"transliteration":{"text":"am","language_name":"english","language_id":38}},{"id":37206,"position":2,"audio_url":"wbw/052_035_002.mp3","char_type_name":"word","page_number":525,"line_number":3,"text":"خُلِقُوا۟","translation":{"text":"তারা সৃষ্টি হয়েছে","language_name":"bengali","language_id":20},"transliteration":{"text":"khuliqū","language_name":"english","language_id":38}},{"id":37207,"position":3,"audio_url":"wbw/052_035_003.mp3","char_type_name":"word","page_number":525,"line_number":3,"text":"مِنْ","translation":{"text":"কোনো","language_name":"bengali","language_id":20},"transliteration":{"text":"min","language_name":"english","language_id":38}},{"id":37208,"position":4,"audio_url":"wbw/052_035_004.mp3","char_type_name":"word","page_number":525,"line_number":3,"text":"غَيْرِ","translation":{"text":"ব্যতীতই","language_name":"bengali","language_id":20},"transliteration":{"text":"ghayri","language_name":"english","language_id":38}},{"id":37209,"position":5,"audio_url":"wbw/052_035_005.mp3","char_type_name":"word","page_number":525,"line_number":3,"text":"شَىْءٍ","translation":{"text":"কিছু (কোনো স্রষ্টা)","language_name":"bengali","language_id":20},"transliteration":{"text":"shayin","language_name":"english","language_id":38}},{"id":37210,"position":6,"audio_url":"wbw/052_035_006.mp3","char_type_name":"word","page_number":525,"line_number":3,"text":"أَمْ","translation":{"text":"অথবা","language_name":"bengali","language_id":20},"transliteration":{"text":"am","language_name":"english","language_id":38}},{"id":37211,"position":7,"audio_url":"wbw/052_035_007.mp3","char_type_name":"word","page_number":525,"line_number":3,"text":"هُمُ","translation":{"text":"তারা (নিজেরাই)","language_name":"bengali","language_id":20},"transliteration":{"text":"humu","language_name":"english","language_id":38}},{"id":37212,"position":8,"audio_url":"wbw/052_035_008.mp3","char_type_name":"word","page_number":525,"line_number":3,"text":"ٱلْخَـٰلِقُونَ","translation":{"text":"(নিজেদের) সৃষ্টিকারী","language_name":"bengali","language_id":20},"transliteration":{"text":"l-khāliqūna","language_name":"english","language_id":38}},{"id":37213,"position":9,"audio_url":null,"char_type_name":"end","page_number":525,"line_number":3,"text":"٣٥","translation":{"text":"(৩৫)","language_name":"bengali","language_id":20},"transliteration":{"text":null,"language_name":"english","language_id":38}}]},{"id":4771,"verse_number":36,"verse_key":"52:36","hizb_number":53,"rub_el_hizb_number":210,"ruku_number":461,"manzil_number":7,"sajdah_number":null,"page_number":525,"juz_number":27,"words":[{"id":37957,"position":1,"audio_url":"wbw/052_036_001.mp3","char_type_name":"word","page_number":525,"line_number":3,"text":"أَمْ","translation":{"text":"অথবা","language_name":"bengali","language_id":20},"transliteration":{"text":"am","language_name":"english","language_id":38}},{"id":37958,"position":2,"audio_url":"wbw/052_036_002.mp3","char_type_name":"word","page_number":525,"line_number":3,"text":"خَلَقُوا۟","translation":{"text":"তারা সৃষ্টি করেছে","language_name":"bengali","language_id":20},"transliteration":{"text":"khalaqū","language_name":"english","language_id":38}},{"id":37959,"position":3,"audio_url":"wbw/052_036_003.mp3","char_type_name":"word","page_number":525,"line_number":4,"text":"ٱلسَّمَـٰوَٰتِ","translation":{"text":"আকাশ","language_name":"bengali","language_id":20},"transliteration":{"text":"l-samāwāti","language_name":"english","language_id":38}},{"id":37960,"position":4,"audio_url":"wbw/052_036_004.mp3","char_type_name":"word","page_number":525,"line_number":4,"text":"وَٱلْأَرْضَ ۚ","translation":{"text":"ও পৃথিবী","language_name":"bengali","language_id":20},"transliteration":{"text":"wal-arḍa","language_name":"english","language_id":38}},{"id":37962,"position":5,"audio_url":"wbw/052_036_006.mp3","char_type_name":"word","page_number":525,"line_number":4,"text":"بَل","translation":{"text":"বরং","language_name":"bengali","language_id":20},"transliteration":{"text":"bal","language_name":"english","language_id":38}},{"id":37963,"position":6,"audio_url":"wbw/052_036_007.mp3","char_type_name":"word","page_number":525,"line_number":4,"text":"لَّا","translation":{"text":"না","language_name":"bengali","language_id":20},"transliteration":{"text":"lā","language_name":"english","language_id":38}},{"id":37964,"position":7,"audio_url":"wbw/052_036_008.mp3","char_type_name":"word","page_number":525,"line_number":4,"text":"يُوقِنُونَ","translation":{"text":"(কোনো কথায়) তারা বিশ্বাস করে","language_name":"bengali","language_id":20},"transliteration":{"text":"yūqinūna","language_name":"english","language_id":38}},{"id":37965,"position":8,"audio_url":null,"char_type_name":"end","page_number":525,"line_number":4,"text":"٣٦","translation":{"text":"(৩৬)","language_name":"bengali","language_id":20},"transliteration":{"text":null,"language_name":"english","language_id":38}}]},{"id":4772,"verse_number":37,"verse_key":"52:37","hizb_number":53,"rub_el_hizb_number":210,"ruku_number":461,"manzil_number":7,"sajdah_number":null,"page_number":525,"juz_number":27,"words":[{"id":38791,"position":1,"audio_url":"wbw/052_037_001.mp3","char_type_name":"word","page_number":525,"line_number":4,"text":"أَمْ","translation":{"text":"তবে কি","language_name":"bengali","language_id":20},"transliteration":{"text":"am","language_name":"english","language_id":38}},{"id":38792,"position":2,"audio_url":"wbw/052_037_002.mp3","char_type_name":"word","page_number":525,"line_number":4,"text":"عِندَهُمْ","translation":{"text":"তাদের আছে","language_name":"bengali","language_id":20},"transliteration":{"text":"ʿindahum","language_name":"english","language_id":38}},{"id":38793,"position":3,"audio_url":"wbw/052_037_003.mp3","char_type_name":"word","page_number":525,"line_number":4,"text":"خَزَآئِنُ","translation":{"text":"ধনভাণ্ডারসমূহ","language_name":"bengali","language_id":20},"transliteration":{"text":"khazāinu","language_name":"english","language_id":38}},{"id":38794,"position":4,"audio_url":"wbw/052_037_004.mp3","char_type_name":"word","page_number":525,"line_number":4,"text":"رَبِّكَ","translation":{"text":"তোমার রবের","language_name":"bengali","language_id":20},"transliteration":{"text":"rabbika","language_name":"english","language_id":38}},{"id":38795,"position":5,"audio_url":"wbw/052_037_005.mp3","char_type_name":"word","page_number":525,"line_number":5,"text":"أَمْ","translation":{"text":"নাকি","language_name":"bengali","language_id":20},"transliteration":{"text":"am","language_name":"english","language_id":38}},{"id":38796,"position":6,"audio_url":"wbw/052_037_006.mp3","char_type_name":"word","page_number":525,"line_number":5,"text":"هُمُ","translation":{"text":"তারা","language_name":"bengali","language_id":20},"transliteration":{"text":"humu","language_name":"english","language_id":38}},{"id":38797,"position":7,"audio_url":"wbw/052_037_007.mp3","char_type_name":"word","page_number":525,"line_number":5,"text":"ٱلْمُصَۣيْطِرُونَ","translation":{"text":"(তার উপর) নিয়ন্তা","language_name":"bengali","language_id":20},"transliteration":{"text":"l-muṣayṭirūna","language_name":"english","language_id":38}},{"id":38798,"position":8,"audio_url":null,"char_type_name":"end","page_number":525,"line_number":5,"text":"٣٧","translation":{"text":"(৩৭)","language_name":"bengali","language_id":20},"transliteration":{"text":null,"language_name":"english","language_id":38}}]},{"id":4773,"verse_number":38,"verse_key":"52:38","hizb_number":53,"rub_el_hizb_number":210,"ruku_number":461,"manzil_number":7,"sajdah_number":null,"page_number":525,"juz_number":27,"words":[{"id":39681,"position":1,"audio_url":"wbw/052_038_001.mp3","char_type_name":"word","page_number":525,"line_number":5,"text":"أَمْ","translation":{"text":"তবে কি","language_name":"bengali","language_id":20},"transliteration":{"text":"am","language_name":"english","language_id":38}},{"id":39682,"position":2,"audio_url":"wbw/052_038_002.mp3","char_type_name":"word","page_number":525,"line_number":5,"text":"لَهُمْ","translation":{"text":"তাদের আছে","language_name":"bengali","language_id":20},"transliteration":{"text":"lahum","language_name":"english","language_id":38}},{"id":39683,"position":3,"audio_url":"wbw/052_038_003.mp3","char_type_name":"word","page_number":525,"line_number":5,"text":"سُلَّمٌۭ","translation":{"text":"কোনো সিঁড়ি","language_name":"bengali","language_id":20},"transliteration":{"text":"sullamun","language_name":"english","language_id":38}},{"id":39684,"position":4,"audio_url":"wbw/052_038_004.mp3","char_type_name":"word","page_number":525,"line_number":5,"text":"يَسْتَمِعُونَ","translation":{"text":"(তা চড়ে গোপন খবর) তারা শুনে নেয়","language_name":"bengali","language_id":20},"transliteration":{"text":"yastamiʿūna","language_name":"english","language_id":38}},{"id":39685,"position":5,"audio_url":"wbw/052_038_005.mp3","char_type_name":"word","page_number":525,"line_number":5,"text":"فِيهِ ۖ","translation":{"text":"সেখানকার","language_name":"bengali","language_id":20},"transliteration":{"text":"fīhi","language_name":"english","language_id":38}},{"id":39687,"position":6,"audio_url":"wbw/052_038_007.mp3","char_type_name":"word","page_number":525,"line_number":5,"text":"فَلْيَأْتِ","translation":{"text":"আসুক তাহলে","language_name":"bengali","language_id":20},"transliteration":{"text":"falyati","language_name":"english","language_id":38}},{"id":39688,"position":7,"audio_url":"wbw/052_038_008.mp3","char_type_name":"word","page_number":525,"line_number":6,"text":"مُسْتَمِعُهُم","translation":{"text":"তাদের কোনো শ্রোতা","language_name":"bengali","language_id":20},"transliteration":{"text":"mus'tamiʿuhum","language_name":"english","language_id":38}},{"id":39689,"position":8,"audio_url":"wbw/052_038_009.mp3","char_type_name":"word","page_number":525,"line_number":6,"text":"بِسُلْطَـٰنٍۢ","translation":{"text":"নিয়ে প্রমাণসহ","language_name":"bengali","language_id":20},"transliteration":{"text":"bisul'ṭānin","language_name":"english","language_id":38}},{"id":39690,"position":9,"audio_url":"wbw/052_038_010.mp3","char_type_name":"word","page_number":525,"line_number":6,"text":"مُّبِينٍ","translation":{"text":"সুস্পষ্ট","language_name":"bengali","language_id":20},"transliteration":{"text":"mubīnin","language_name":"english","language_id":38}},{"id":39691,"position":10,"audio_url":null,"char_type_name":"end","page_number":525,"line_number":6,"text":"٣٨","translation":{"text":"(৩৮)","language_name":"bengali","language_id":20},"transliteration":{"text":null,"language_name":"english","language_id":38}}]},{"id":4774,"verse_number":39,"verse_key":"52:39","hizb_number":53,"rub_el_hizb_number":210,"ruku_number":461,"manzil_number":7,"sajdah_number":null,"page_number":525,"juz_number":27,"words":[{"id":40719,"position":1,"audio_url":"wbw/052_039_001.mp3","char_type_name":"word","page_number":525,"line_number":6,"text":"أَمْ","translation":{"text":"না কি","language_name":"bengali","language_id":20},"transliteration":{"text":"am","language_name":"english","language_id":38}},{"id":40720,"position":2,"audio_url":"wbw/052_039_002.mp3","char_type_name":"word","page_number":525,"line_number":6,"text":"لَهُ","translation":{"text":"তাঁর জন্যে (নির্ধারণ করে)","language_name":"bengali","language_id":20},"transliteration":{"text":"lahu","language_name":"english","language_id":38}},{"id":40721,"position":3,"audio_url":"wbw/052_039_003.mp3","char_type_name":"word","page_number":525,"line_number":6,"text":"ٱلْبَنَـٰتُ","translation":{"text":"কন্যাসমূহ","language_name":"bengali","language_id":20},"transliteration":{"text":"l-banātu","language_name":"english","language_id":38}},{"id":40722,"position":4,"audio_url":"wbw/052_039_004.mp3","char_type_name":"word","page_number":525,"line_number":6,"text":"وَلَكُمُ","translation":{"text":"ও তোমাদের জন্যে (চাও)","language_name":"bengali","language_id":20},"transliteration":{"text":"walakumu","language_name":"english","language_id":38}},{"id":40723,"position":5,"audio_url":"wbw/052_039_005.mp3","char_type_name":"word","page_number":525,"line_number":6,"text":"ٱلْبَنُونَ","translation":{"text":"পুত্রসমূহ","language_name":"bengali","language_id":20},"transliteration":{"text":"l-banūna","language_name":"english","language_id":38}},{"id":40724,"position":6,"audio_url":null,"char_type_name":"end","page_number":525,"line_number":6,"text":"٣٩","translation":{"text":"(৩৯)","language_name":"bengali","language_id":20},"transliteration":{"text":null,"language_name":"english","language_id":38}}]},{"id":4775,"verse_number":40,"verse_key":"52:40","hizb_number":53,"rub_el_hizb_number":210,"ruku_number":461,"manzil_number":7,"sajdah_number":null,"page_number":525,"juz_number":27,"words":[{"id":41171,"position":1,"audio_url":"wbw/052_040_001.mp3","char_type_name":"word","page_number":525,"line_number":7,"text":"أَمْ","translation":{"text":"তবে কি","language_name":"bengali","language_id":20},"transliteration":{"text":"am","language_name":"english","language_id":38}},{"id":41172,"position":2,"audio_url":"wbw/052_040_002.mp3","char_type_name":"word","page_number":525,"line_number":7,"text":"تَسْـَٔلُهُمْ","translation":{"text":"তাদের কাছে চাচ্ছ তুমি","language_name":"bengali","language_id":20},"transliteration":{"text":"tasaluhum","language_name":"english","language_id":38}},{"id":41173,"position":3,"audio_url":"wbw/052_040_003.mp3","char_type_name":"word","page_number":525,"line_number":7,"text":"أَجْرًۭا","translation":{"text":"কোনো পারিশ্রমিক","language_name":"bengali","language_id":20},"transliteration":{"text":"ajran","language_name":"english","language_id":38}},{"id":41174,"position":4,"audio_url":"wbw/052_040_004.mp3","char_type_name":"word","page_number":525,"line_number":7,"text":"فَهُم","translation":{"text":"তারা তাই","language_name":"bengali","language_id":20},"transliteration":{"text":"fahum","language_name":"english","language_id":38}},{"id":41175,"position":5,"audio_url":"wbw/052_040_005.mp3","char_type_name":"word","page_number":525,"line_number":7,"text":"مِّن","translation":{"text":"কারণে","language_name":"bengali","language_id":20},"transliteration":{"text":"min","language_name":"english","language_id":38}},{"id":41176,"position":6,"audio_url":"wbw/052_040_006.mp3","char_type_name":"word","page_number":525,"line_number":7,"text":"مَّغْرَمٍۢ","translation":{"text":"জরিমানার","language_name":"bengali","language_id":20},"transliteration":{"text":"maghramin","language_name":"english","language_id":38}},{"id":41177,"position":7,"audio_url":"wbw/052_040_007.mp3","char_type_name":"word","page_number":525,"line_number":7,"text":"مُّثْقَلُونَ","translation":{"text":"ভারগ্রস্ত হয়ে আছে","language_name":"bengali","language_id":20},"transliteration":{"text":"muth'qalūna","language_name":"english","language_id":38}},{"id":41178,"position":8,"audio_url":null,"char_type_name":"end","page_number":525,"line_number":7,"text":"٤٠","translation":{"text":"(৪০)","language_name":"bengali","language_id":20},"transliteration":{"text":null,"language_name":"english","language_id":38}}]}],"pagination":{"per_page":10,"current_page":4,"next_page":5,"total_pages":5,"total_records":49}}
