{"verses":[{"id":5506,"verse_number":11,"verse_key":"74:11","hizb_number":58,"rub_el_hizb_number":230,"ruku_number":512,"manzil_number":7,"sajdah_number":null,"page_number":575,"juz_number":29,"words":[{"id":12881,"position":1,"audio_url":"wbw/074_011_001.mp3","char_type_name":"word","page_number":575,"line_number":13,"text":"ذَرْنِى","translation":{"text":"আমাকে ছাড়","language_name":"bengali","language_id":20},"transliteration":{"text":"dharnī","language_name":"english","language_id":38}},{"id":12882,"position":2,"audio_url":"wbw/074_011_002.mp3","char_type_name":"word","page_number":575,"line_number":13,"text":"وَمَنْ","translation":{"text":"আর যাকে","language_name":"bengali","language_id":20},"transliteration":{"text":"waman","language_name":"english","language_id":38}},{"id":12883,"position":3,"audio_url":"wbw/074_011_003.mp3","char_type_name":"word","page_number":575,"line_number":13,"text":"خَلَقْتُ","translation":{"text":"আমি সৃষ্টি করেছি","language_name":"bengali","language_id":20},"transliteration":{"text":"khalaqtu","language_name":"english","language_id":38}},{"id":12884,"position":4,"audio_url":"wbw/074_011_004.mp3","char_type_name":"word","page_number":575,"line_number":13,"text":"وَحِيدًۭا","translation":{"text":"একেলা","language_name":"bengali","language_id":20},"transliteration":{"text":"waḥīdan","language_name":"english","language_id":38}},{"id":12885,"position":5,"audio_url":null,"char_type_name":"end","page_number":575,"line_number":13,"text":"١١","translation":{"text":"(১১)","language_name":"bengali","language_id":20},"transliteration":{"text":null,"language_name":"english","language_id":38}}]},{"id":5507,"verse_number":12,"verse_key":"74:12","hizb_number":58,"rub_el_hizb_number":230,"ruku_number":512,"manzil_number":7,"sajdah_number":null,"page_number":575,"juz_number":29,"words":[{"id":14136,"position":1,"audio_url":"wbw/074_012_001.mp3","char_type_name":"word","page_number":575,"line_number":13,"text":"وَجَعَلْتُ","translation":{"text":"এবং আমি বানিয়েছি","language_name":"bengali","language_id":20},"transliteration":{"text":"wajaʿaltu","language_name":"english","language_id":38}},{"id":14137,"position":2,"audio_url":"wbw/074_012_002.mp3","char_type_name":"word","page_number":575,"line_number":13,"text":"لَهُۥ","translation":{"text":"তার জন্যে","language_name":"bengali","language_id":20},"transliteration":{"text":"lahu","language_name":"english","language_id":38}},{"id":14138,"position":3,"audio_url":"wbw/074_012_003.mp3","char_type_name":"word","page_number":575,"line_number":13,"text":"مَالًۭا","translation":{"text":"সম্পদ","language_name":"bengali","language_id":20},"transliteration":{"text":"mālan","language_name":"english","language_id":38}},{"id":14139,"position":4,"audio_url":"wbw/074_012_004.mp3","char_type_name":"word","page_number":575,"line_number":13,"text":"مَّمْدُودًۭا","translation":{"text":"বিপুল","language_name":"bengali","language_id":20},"transliteration":{"text":"mamdūdan","language_name":"english","language_id":38}},{"id":14140,"position":5,"audio_url":null,"char_type_name":"end","page_number":575,"line_number":13,"text":"١٢","translation":{"text":"(১২)","language_name":"bengali","language_id":20},"transliteration":{"text":null,"language_name":"english","language_id":38}}]},{"id":5508,"verse_number":13,"verse_key":"74:13","hizb_number":58,"rub_el_hizb_number":230,"ruku_number":512,"manzil_number":7,"sajdah_number":null,"page_number":575,"juz_number":29,"words":[{"id":15267,"position":1,"audio_url":"wbw/074_013_001.mp3","char_type_name":"word","page_number":575,"line_number":13,"text":"وَبَنِينَ","translation":{"text":"এবং সন্তানাদি","language_name":"bengali","language_id":20},"transliteration":{"text":"wabanīna","language_name":"english","language_id":38}},{"id":15268,"position":2,"audio_url":"wbw/074_013_002.mp3","char_type_name":"word","page_number":575,"line_number":14,"text":"شُهُودًۭا","translation":{"text":"সদা উপস্থিত","language_name":"bengali","language_id":20},"transliteration":{"text":"shuhūdan","language_name":"english","language_id":38}},{"id":15269,"position":3,"audio_url":null,"char_type_name":"end","page_number":575,"line_number":14,"text":"١٣","translation":{"text":"(১৩)","language_name":"bengali","language_id":20},"transliteration":{"text":null,"language_name":"english","language_id":38}}]},{"id":5509,"verse_number":14,"verse_key":"74:14","hizb_number":58,"rub_el_hizb_number":230,"ruku_number":512,"manzil_number":7,"sajdah_number":null,"page_number":575,"juz_number":29,"words":[{"id":16463,"position":1,"audio_url":"wbw/074_014_001.mp3","char_type_name":"word","page_number":575,"line_number":14,"text":"وَمَهَّدتُّ","translation":{"text":"এবং আমি সুগম করেছি","language_name":"bengali","language_id":20},"transliteration":{"text":"wamahhadttu","language_name":"english","language_id":38}},{"id":16464,"position":2,"audio_url":"wbw/074_014_002.mp3","char_type_name":"word","page_number":575,"line_number":14,"text":"لَهُۥ","translation":{"text":"তার জন্যে","language_name":"bengali","language_id":20},"transliteration":{"text":"lahu","language_name":"english","language_id":38}},{"id":16465,"position":3,"audio_url":"wbw/074_014_003.mp3","char_type_name":"word","page_number":575,"line_number":14,"text":"تَمْهِيدًۭا","translation":{"text":"প্রচুর স্বচ্ছলতা","language_name":"bengali","language_id":20},"transliteration":{"text":"tamhīdan","language_name":"english","language_id":38}},{"id":16466,"position":4,"audio_url":null,"char_type_name":"end","page_number":575,"line_number":14,"text":"١٤","translation":{"text":"(১৪)","language_name":"bengali","language_id":20},"transliteration":{"text":null,"language_name":"english","language_id":38}}]},{"id":5510,"verse_number":15,"verse_key":"74:15","hizb_number":58,"rub_el_hizb_number":230,"ruku_number":512,"manzil_number":7,"sajdah_number":null,"page_number":575,"juz_number":29,"words":[{"id":17466,"position":1,"audio_url":"wbw/074_015_001.mp3","char_type_name":"word","page_number":575,"line_number":14,"text":"ثُمَّ","translation":{"text":"এরপর","language_name":"bengali","language_id":20},"transliteration":{"text":"thumma","language_name":"english","language_id":38}},{"id":17467,"position":2,"audio_url":"wbw/074_015_002.mp3","char_type_name":"word","page_number":575,"line_number":14,"text":"يَطْمَعُ","translation":{"text":"লালসা সে করে","language_name":"bengali","language_id":20},"transliteration":{"text":"yaṭmaʿu","language_name":"english","language_id":38}},{"id":17468,"position":3,"audio_url":"wbw/074_015_003.mp3","char_type_name":"word","page_number":575,"line_number":14,"text":"أَنْ","translation":{"text":"যে","language_name":"bengali","language_id":20},"transliteration":{"text":"an","language_name":"english","language_id":38}},{"id":17469,"position":4,"audio_url":"wbw/074_015_004.mp3","char_type_name":"word","page_number":575,"line_number":14,"text":"أَزِيدَ","translation":{"text":"অধিক দিব আমি","language_name":"bengali","language_id":20},"transliteration":{"text":"azīda","language_name":"english","language_id":38}},{"id":17470,"position":5,"audio_url":null,"char_type_name":"end","page_number":575,"line_number":14,"text":"١٥","translation":{"text":"(১৫)","language_name":"bengali","language_id":20},"transliteration":{"text":null,"language_name":"english","language_id":38}}]},{"id":5511,"verse_number":16,"verse_key":"74:16","hizb_number":58,"rub_el_hizb_number":230,"ruku_number":512,"manzil_number":7,"sajdah_number":null,"page_number":575,"juz_number":29,"words":[{"id":18548,"position":1,"audio_url":"wbw/074_016_001.mp3","char_type_name":"word","page_number":575,"line_number":14,"text":"كَلَّآ ۖ","translation":{"text":"কক্ষণও না","language_name":"bengali","language_id":20},"transliteration":{"text":"kallā","language_name":"english","language_id":38}},{"id":18550,"position":2,"audio_url":"wbw/074_016_003.mp3","char_type_name":"word","page_number":575,"line_number":14,"text":"إِنَّهُۥ","translation":{"text":"সে নিশ্চয়","language_name":"bengali","language_id":20},"transliteration":{"text":"innahu","language_name":"english","language_id":38}},{"id":18551,"position":3,"audio_url":"wbw/074_016_004.mp3","char_type_name":"word","page_number":575,"line_number":15,"text":"كَانَ","translation":{"text":"হল","language_name":"bengali","language_id":20},"transliteration":{"text":"kāna","language_name":"english","language_id":38}},{"id":18552,"position":4,"audio_url":"wbw/074_016_005.mp3","char_type_name":"word","page_number":575,"line_number":15,"text":"لِـَٔايَـٰتِنَا","translation":{"text":"আমাদের নিদর্শনাদির প্রতি","language_name":"bengali","language_id":20},"transliteration":{"text":"liāyātinā","language_name":"english","language_id":38}},{"id":18553,"position":5,"audio_url":"wbw/074_016_006.mp3","char_type_name":"word","page_number":575,"line_number":15,"text":"عَنِيدًۭا","translation":{"text":"শত্রুতা ভাবাপন্ন","language_name":"bengali","language_id":20},"transliteration":{"text":"ʿanīdan","language_name":"english","language_id":38}},{"id":18554,"position":6,"audio_url":null,"char_type_name":"end","page_number":575,"line_number":15,"text":"١٦","translation":{"text":"(১৬)","language_name":"bengali","language_id":20},"transliteration":{"text":null,"language_name":"english","language_id":38}}]},{"id":5512,"verse_number":17,"verse_key":"74:17","hizb_number":58,"rub_el_hizb_number":230,"ruku_number":512,"manzil_number":7,"sajdah_number":null,"page_number":575,"juz_number":29,"words":[{"id":19554,"position":1,"audio_url":"wbw/074_017_001.mp3","char_type_name":"word","page_number":575,"line_number":15,"text":"سَأُرْهِقُهُۥ","translation":{"text":"তাকে চড়াব আমি শীঘ্রই","language_name":"bengali","language_id":20},"transliteration":{"text":"sa-ur'hiquhu","language_name":"english","language_id":38}},{"id":19555,"position":2,"audio_url":"wbw/074_017_002.mp3","char_type_name":"word","page_number":575,"line_number":15,"text":"صَعُودًا","translation":{"text":"কঠিন চড়াইয়ে","language_name":"bengali","language_id":20},"transliteration":{"text":"ṣaʿūdan","language_name":"english","language_id":38}},{"id":19556,"position":3,"audio_url":null,"char_type_name":"end","page_number":575,"line_number":15,"text":"١٧","translation":{"text":"(১৭)","language_name":"bengali","language_id":20},"transliteration":{"text":null,"language_name":"english","language_id":38}}]},{"id":5513,"verse_number":18,"verse_key":"74:18","hizb_number":58,"rub_el_hizb_number":230,"ruku_number":512,"manzil_number":7,"sajdah_number":null,"page_number":575,"juz_number":29,"words":[{"id":20640,"position":1,"audio_url":"wbw/074_018_001.mp3","char_type_name":"word","page_number":575,"line_number":15,"text":"إِنَّهُۥ","translation":{"text":"সে নিশ্চয়ই","language_name":"bengali","language_id":20},"transliteration":{"text":"innahu","language_name":"english","language_id":38}},{"id":20641,"position":2,"audio_url":"wbw/074_018_002.mp3","char_type_name":"word","page_number":575,"line_number":15,"text":"فَكَّرَ","translation":{"text":"চিন্তা করল","language_name":"bengali","language_id":20},"transliteration":{"text":"fakkara","language_name":"english","language_id":38}},{"id":20642,"position":3,"audio_url":"wbw/074_018_003.mp3","char_type_name":"word","page_number":575,"line_number":15,"text":"وَقَدَّرَ","translation":{"text":"এবং সে সিদ্ধান্ত নিল","language_name":"bengali","language_id":20},"transliteration":{"text":"waqaddara","language_name":"english","language_id":38}},{"id":20643,"position":4,"audio_url":null,"char_type_name":"end","page_number":575,"line_number":15,"text":"١٨","translation":{"text":"(১৮)","language_name":"bengali","language_id":20},"transliteration":{"text":null,"language_name":"english","language_id":38}}]},{"id":5514,"verse_number":19,"verse_key":"74:19","hizb_number":58,"rub_el_hizb_number":230,"ruku_number":512,"manzil_number":7,"sajdah_number":null,"page_number":576,"juz_number":29,"words":[{"id":21696,"position":1,"audio_url":"wbw/074_019_001.mp3","char_type_name":"word","page_number":576,"line_number":1,"text":"فَقُتِلَ","translation":{"text":"সে নস্যাৎ তাই হয়েছে","language_name":"bengali","language_id":20},"transliteration":{"text":"faqutila","language_name":"english","language_id":38}},{"id":21697,"position":2,"audio_url":"wbw/074_019_002.mp3","char_type_name":"word","page_number":576,"line_number":1,"text":"كَيْفَ","translation":{"text":"কেমন","language_name":"bengali","language_id":20},"transliteration":{"text":"kayfa","language_name":"english","language_id":38}},{"id":21698,"position":3,"audio_url":"wbw/074_019_003.mp3","char_type_name":"word","page_number":576,"line_number":1,"text":"قَدَّرَ","translation":{"text":"সে সিদ্ধান্ত নিল","language_name":"bengali","language_id":20},"transliteration":{"text":"qaddara","language_name":"english","language_id":38}},{"id":21699,"position":4,"audio_url":null,"char_type_name":"end","page_number":576,"line_number":1,"text":"١٩","translation":{"text":"(১৯)","language_name":"bengali","language_id":20},"transliteration":{"text":null,"language_name":"english","language_id":38}}]},{"id":5515,"verse_number":20,"verse_key":"74:20","hizb_number":58,"rub_el_hizb_number":230,"ruku_number":512,"manzil_number":7,"sajdah_number":null,"page_number":576,"juz_number":29,"words":[{"id":22871,"position":1,"audio_url":"wbw/074_020_001.mp3","char_type_name":"word","page_number":576,"line_number":1,"text":"ثُمَّ","translation":{"text":"আবারও","language_name":"bengali","language_id":20},"transliteration":{"text":"thumma","language_name":"english","language_id":38}},{"id":22872,"position":2,"audio_url":"wbw/074_020_002.mp3","char_type_name":"word","page_number":576,"line_number":1,"text":"قُتِلَ","translation":{"text":"মার পড়ল","language_name":"bengali","language_id":20},"transliteration":{"text":"qutila","language_name":"english","language_id":38}},{"id":22873,"position":3,"audio_url":"wbw/074_020_003.mp3","char_type_name":"word","page_number":576,"line_number":1,"text":"كَيْفَ","translation":{"text":"কেমন","language_name":"bengali","language_id":20},"transliteration":{"text":"kayfa","language_name":"english","language_id":38}},{"id":22874,"position":4,"audio_url":"wbw/074_020_004.mp3","char_type_name":"word","page_number":576,"line_number":1,"text":"قَدَّرَ","translation":{"text":"সিদ্ধান্ত নিল","language_name":"bengali","language_id":20},"transliteration":{"text":"qaddara","language_name":"english","language_id":38}},{"id":22875,"position":5,"audio_url":null,"char_type_name":"end","page_number":576,"line_number":1,"text":"٢٠","translation":{"text":"(২০)","language_name":"bengali","language_id":20},"transliteration":{"text":null,"language_name":"english","language_id":38}}]}],"pagination":{"per_page":10,"current_page":2,"next_page":3,"total_pages":6,"total_records":56}}
