{"verses":[{"id":5516,"verse_number":21,"verse_key":"74:21","hizb_number":58,"rub_el_hizb_number":230,"ruku_number":512,"manzil_number":7,"sajdah_number":null,"page_number":576,"juz_number":29,"words":[{"id":23959,"position":1,"audio_url":"wbw/074_021_001.mp3","verse_key":"74:21","verse_id":5516,"location":"74:21:1","text_uthmani":"ثُمَّ","qpc_uthmani_hafs":"ثُمَّ","char_type_name":"word","page_number":576,"line_number":1,"text":"ثُمَّ","translation":{"text":"এরপর","language_name":"bengali","language_id":20},"transliteration":{"text":"thumma","language_name":"english","language_id":38}},{"id":23960,"position":2,"audio_url":"wbw/074_021_002.mp3","verse_key":"74:21","verse_id":5516,"location":"74:21:2","text_uthmani":"نَظَرَ","qpc_uthmani_hafs":"نَظَرَ","char_type_name":"word","page_number":576,"line_number":1,"text":"نَظَرَ","translation":{"text":"সে তাকাল","language_name":"bengali","language_id":20},"transliteration":{"text":"naẓara","language_name":"english","language_id":38}},{"id":23961,"position":3,"audio_url":null,"verse_key":"74:21","verse_id":5516,"location":"74:21:3","text_uthmani":"٢١","qpc_uthmani_hafs":"٢١","char_type_name":"end","page_number":576,"line_number":1,"text":"٢١","translation":{"text":"(২১)","language_name":"bengali","language_id":20},"transliteration":{"text":null,"language_name":"english","language_id":38}}]},{"id":5517,"verse_number":22,"verse_key":"74:22","hizb_number":58,"rub_el_hizb_number":230,"ruku_number":512,"manzil_number":7,"sajdah_number":null,"page_number":576,"juz_number":29,"words":[{"id":24998,"position":1,"audio_url":"wbw/074_022_001.mp3","verse_key":"74:22","verse_id":5517,"location":"74:22:1","text_uthmani":"ثُمَّ","qpc_uthmani_hafs":"ثُمَّ","char_type_name":"word","page_number":576,"line_number":1,"text":"ثُمَّ","translation":{"text":"পরে","language_name":"bengali","language_id":20},"transliteration":{"text":"thumma","language_name":"english","language_id":38}},{"id":24999,"position":2,"audio_url":"wbw/074_022_002.mp3","verse_key":"74:22","verse_id":5517,"location":"74:22:2","text_uthmani":"عَبَسَ","qpc_uthmani_hafs":"عَبَسَ","char_type_name":"word","page_number":576,"line_number":1,"text":"عَبَسَ","translation":{"text":"কপাল কুচড়াল","language_name":"bengali","language_id":20},"transliteration":{"text":"ʿabasa","language_name":"english","language_id":38}},{"id":25000,"position":3,"audio_url":"wbw/074_022_003.mp3","verse_key":"74:22","verse_id":5517,"location":"74:22:3","text_uthmani":"وَبَسَرَ","qpc_uthmani_hafs":"وَبَسَرَ","char_type_name":"word","page_number":576,"line_number":1,"text":"وَبَسَرَ","translation":{"text":"ও মুখ বাঁকাল","language_name":"bengali","language_id":20},"transliteration":{"text":"wabasara","language_name":"english","language_id":38}},{"id":25001,"position":4,"audio_url":null,"verse_key":"74:22","verse_id":5517,"location":"74:22:4","text_uthmani":"٢٢","qpc_uthmani_hafs":"٢٢","char_type_name":"end","page_number":576,"line_number":2,"text":"٢٢","translation":{"text":"(২২)","language_name":"bengali","language_id":20},"transliteration":{"text":null,"language_name":"english","language_id":38}}]},{"id":5518,"verse_number":23,"verse_key":"74:23","hizb_number":58,"rub_el_hizb_number":230,"ruku_number":512,"manzil_number":7,"sajdah_number":null,"page_number":576,"juz_number":29,"words":[{"id":26001,"position":1,"audio_url":"wbw/074_023_001.mp3","verse_key":"74:23","verse_id":5518,"location":"74:23:1","text_uthmani":"ثُمَّ","qpc_uthmani_hafs":"ثُمَّ","char_type_name":"word","page_number":576,"line_number":2,"text":"ثُمَّ","translation":{"text":"এরপর","language_name":"bengali","language_id":20},"transliteration":{"text":"thumma","language_name":"english","language_id":38}},{"id":26002,"position":2,"audio_url":"wbw/074_023_002.mp3","verse_key":"74:23","verse_id":5518,"location":"74:23:2","text_uthmani":"أَدْبَرَ","qpc_uthmani_hafs":"أَدۡبَرَ","char_type_name":"word","page_number":576,"line_number":2,"text":"أَدۡبَرَ","translation":{"text":"সে ফিরল","language_name":"bengali","language_id":20},"transliteration":{"text":"adbara","language_name":"english","language_id":38}},{"id":26003,"position":3,"audio_url":"wbw/074_023_003.mp3","verse_key":"74:23","verse_id":5518,"location":"74:23:3","text_uthmani":"وَٱسْتَكْبَرَ","qpc_uthmani_hafs":"وَٱسۡتَكۡبَرَ","char_type_name":"word","page_number":576,"line_number":2,"text":"وَٱسۡتَكۡبَرَ","translation":{"text":"এবং অহংকার করল","language_name":"bengali","language_id":20},"transliteration":{"text":"wa-is'takbara","language_name":"english","language_id":38}},{"id":26004,"position":4,"audio_url":null,"verse_key":"74:23","verse_id":5518,"location":"74:23:4","text_uthmani":"٢٣","qpc_uthmani_hafs":"٢٣","char_type_name":"end","page_number":576,"line_number":2,"text":"٢٣","translation":{"text":"(২৩)","language_name":"bengali","language_id":20},"transliteration":{"text":null,"language_name":"english","language_id":38}}]},{"id":5519,"verse_number":24,"verse_key":"74:24","hizb_number":58,"rub_el_hizb_number":230,"ruku_number":512,"manzil_number":7,"sajdah_number":null,"page_number":576,"juz_number":29,"words":[{"id":27084,"position":1,"audio_url":"wbw/074_024_001.mp3","verse_key":"74:24","verse_id":5519,"location":"74:24:1","text_uthmani":"فَقَالَ","qpc_uthmani_hafs":"فَقَالَ","char_type_name":"word","page_number":576,"line_number":2,"text":"فَقَالَ","translation":{"text":"সে বলল অতঃপর","language_name":"bengali","language_id":20},"transliteration":{"text":"faqāla","language_name":"english","language_id":38}},{"id":27085,"position":2,"audio_url":"wbw/074_024_002.mp3","verse_key":"74:24","verse_id":5519,"location":"74:24:2","text_uthmani":"إِنْ","qpc_uthmani_hafs":"إِنۡ","char_type_name":"word","page_number":576,"line_number":2,"text":"إِنۡ","translation":{"text":"\"নয়","language_name":"bengali","language_id":20},"transliteration":{"text":"in","language_name":"english","language_id":38}},{"id":27086,"position":3,"audio_url":"wbw/074_024_003.mp3","verse_key":"74:24","verse_id":5519,"location":"74:24:3","text_uthmani":"هَـٰذَآ","qpc_uthmani_hafs":"هَٰذَآ","char_type_name":"word","page_number":576,"line_number":2,"text":"هَٰذَآ","translation":{"text":"এটা","language_name":"bengali","language_id":20},"transliteration":{"text":"hādhā","language_name":"english","language_id":38}},{"id":27087,"position":4,"audio_url":"wbw/074_024_004.mp3","verse_key":"74:24","verse_id":5519,"location":"74:24:4","text_uthmani":"إِلَّا","qpc_uthmani_hafs":"إِلَّا","char_type_name":"word","page_number":576,"line_number":2,"text":"إِلَّا","translation":{"text":"এছাড়া","language_name":"bengali","language_id":20},"transliteration":{"text":"illā","language_name":"english","language_id":38}},{"id":27088,"position":5,"audio_url":"wbw/074_024_005.mp3","verse_key":"74:24","verse_id":5519,"location":"74:24:5","text_uthmani":"سِحْرٌۭ","qpc_uthmani_hafs":"سِحۡرٞ","char_type_name":"word","page_number":576,"line_number":2,"text":"سِحۡرٞ","translation":{"text":"জাদু","language_name":"bengali","language_id":20},"transliteration":{"text":"siḥ'run","language_name":"english","language_id":38}},{"id":27089,"position":6,"audio_url":"wbw/074_024_006.mp3","verse_key":"74:24","verse_id":5519,"location":"74:24:6","text_uthmani":"يُؤْثَرُ","qpc_uthmani_hafs":"يُؤۡثَرُ","char_type_name":"word","page_number":576,"line_number":2,"text":"يُؤۡثَرُ","translation":{"text":"চলে আসা","language_name":"bengali","language_id":20},"transliteration":{"text":"yu'tharu","language_name":"english","language_id":38}},{"id":27090,"position":7,"audio_url":null,"verse_key":"74:24","verse_id":5519,"location":"74:24:7","text_uthmani":"٢٤","qpc_uthmani_hafs":"٢٤","char_type_name":"end","page_number":576,"line_number":2,"text":"٢٤","translation":{"text":"(২৪)","language_name":"bengali","language_id":20},"transliteration":{"text":null,"language_name":"english","language_id":38}}]},{"id":5520,"verse_number":25,"verse_key":"74:25","hizb_number":58,"rub_el_hizb_number":230,"ruku_number":512,"manzil_number":7,"sajdah_number":null,"page_number":576,"juz_number":29,"words":[{"id":28095,"position":1,"audio_url":"wbw/074_025_001.mp3","verse_key":"74:25","verse_id":5520,"location":"74:25:1","text_uthmani":"إِنْ","qpc_uthmani_hafs":"إِنۡ","char_type_name":"word","page_number":576,"line_number":2,"text":"إِنۡ","translation":{"text":"নয়","language_name":"bengali","language_id":20},"transliteration":{"text":"in","language_name":"english","language_id":38}},{"id":28096,"position":2,"audio_url":"wbw/074_025_002.mp3","verse_key":"74:25","verse_id":5520,"location":"74:25:2","text_uthmani":"هَـٰذَآ","qpc_uthmani_hafs":"هَٰذَآ","char_type_name":"word","page_number":576,"line_number":2,"text":"هَٰذَآ","translation":{"text":"এটা","language_name":"bengali","language_id":20},"transliteration":{"text":"hādhā","language_name":"english","language_id":38}},{"id":28097,"position":3,"audio_url":"wbw/074_025_003.mp3","verse_key":"74:25","verse_id":5520,"location":"74:25:3","text_uthmani":"إِلَّا","qpc_uthmani_hafs":"إِلَّا","char_type_name":"word","page_number":576,"line_number":3,"text":"إِلَّا","translation":{"text":"এছাড়া","language_name":"bengali","language_id":20},"transliteration":{"text":"illā","language_name":"english","language_id":38}},{"id":28098,"position":4,"audio_url":"wbw/074_025_004.mp3","verse_key":"74:25","verse_id":5520,"location":"74:25:4","text_uthmani":"قَوْلُ","qpc_uthmani_hafs":"قَوۡلُ","char_type_name":"word","page_number":576,"line_number":3,"text":"قَوۡلُ","translation":{"text":"কথা","language_name":"bengali","language_id":20},"transliteration":{"text":"qawlu","language_name":"english","language_id":38}},{"id":28099,"position":5,"audio_url":"wbw/074_025_005.mp3","verse_key":"74:25","verse_id":5520,"location":"74:25:5","text_uthmani":"ٱلْبَشَرِ","qpc_uthmani_hafs":"ٱلۡبَشَرِ","char_type_name":"word","page_number":576,"line_number":3,"text":"ٱلۡبَشَرِ","translation":{"text":"মানুুষের\"","language_name":"bengali","language_id":20},"transliteration":{"text":"l-bashari","language_name":"english","language_id":38}},{"id":28100,"position":6,"audio_url":null,"verse_key":"74:25","verse_id":5520,"location":"74:25:6","text_uthmani":"٢٥","qpc_uthmani_hafs":"٢٥","char_type_name":"end","page_number":576,"line_number":3,"text":"٢٥","translation":{"text":"(২৫)","language_name":"bengali","language_id":20},"transliteration":{"text":null,"language_name":"english","language_id":38}}]},{"id":5521,"verse_number":26,"verse_key":"74:26","hizb_number":58,"rub_el_hizb_number":230,"ruku_number":512,"manzil_number":7,"sajdah_number":null,"page_number":576,"juz_number":29,"words":[{"id":29050,"position":1,"audio_url":"wbw/074_026_001.mp3","verse_key":"74:26","verse_id":5521,"location":"74:26:1","text_uthmani":"سَأُصْلِيهِ","qpc_uthmani_hafs":"سَأُصۡلِيهِ","char_type_name":"word","page_number":576,"line_number":3,"text":"سَأُصۡلِيهِ","translation":{"text":"তাকে প্রবেশ আমি শীঘ্রই করাবো","language_name":"bengali","language_id":20},"transliteration":{"text":"sa-uṣ'līhi","language_name":"english","language_id":38}},{"id":29051,"position":2,"audio_url":"wbw/074_026_002.mp3","verse_key":"74:26","verse_id":5521,"location":"74:26:2","text_uthmani":"سَقَرَ","qpc_uthmani_hafs":"سَقَرَ","char_type_name":"word","page_number":576,"line_number":3,"text":"سَقَرَ","translation":{"text":"দোযখে","language_name":"bengali","language_id":20},"transliteration":{"text":"saqara","language_name":"english","language_id":38}},{"id":29052,"position":3,"audio_url":null,"verse_key":"74:26","verse_id":5521,"location":"74:26:3","text_uthmani":"٢٦","qpc_uthmani_hafs":"٢٦","char_type_name":"end","page_number":576,"line_number":3,"text":"٢٦","translation":{"text":"(২৬)","language_name":"bengali","language_id":20},"transliteration":{"text":null,"language_name":"english","language_id":38}}]},{"id":5522,"verse_number":27,"verse_key":"74:27","hizb_number":58,"rub_el_hizb_number":230,"ruku_number":512,"manzil_number":7,"sajdah_number":null,"page_number":576,"juz_number":29,"words":[{"id":29862,"position":1,"audio_url":"wbw/074_027_001.mp3","verse_key":"74:27","verse_id":5522,"location":"74:27:1","text_uthmani":"وَمَآ","qpc_uthmani_hafs":"وَمَآ","char_type_name":"word","page_number":576,"line_number":3,"text":"وَمَآ","translation":{"text":"এবং কি","language_name":"bengali","language_id":20},"transliteration":{"text":"wamā","language_name":"english","language_id":38}},{"id":29863,"position":2,"audio_url":"wbw/074_027_002.mp3","verse_key":"74:27","verse_id":5522,"location":"74:27:2","text_uthmani":"أَدْرَىٰكَ","qpc_uthmani_hafs":"أَدۡرَىٰكَ","char_type_name":"word","page_number":576,"line_number":3,"text":"أَدۡرَىٰكَ","translation":{"text":"তুমি জান","language_name":"bengali","language_id":20},"transliteration":{"text":"adrāka","language_name":"english","language_id":38}},{"id":29864,"position":3,"audio_url":"wbw/074_027_003.mp3","verse_key":"74:27","verse_id":5522,"location":"74:27:3","text_uthmani":"مَا","qpc_uthmani_hafs":"مَا","char_type_name":"word","page_number":576,"line_number":3,"text":"مَا","translation":{"text":"কি সেই","language_name":"bengali","language_id":20},"transliteration":{"text":"mā","language_name":"english","language_id":38}},{"id":29865,"position":4,"audio_url":"wbw/074_027_004.mp3","verse_key":"74:27","verse_id":5522,"location":"74:27:4","text_uthmani":"سَقَرُ","qpc_uthmani_hafs":"سَقَرُ","char_type_name":"word","page_number":576,"line_number":3,"text":"سَقَرُ","translation":{"text":"দোযখ","language_name":"bengali","language_id":20},"transliteration":{"text":"saqaru","language_name":"english","language_id":38}},{"id":29866,"position":5,"audio_url":null,"verse_key":"74:27","verse_id":5522,"location":"74:27:5","text_uthmani":"٢٧","qpc_uthmani_hafs":"٢٧","char_type_name":"end","page_number":576,"line_number":3,"text":"٢٧","translation":{"text":"(২৭)","language_name":"bengali","language_id":20},"transliteration":{"text":null,"language_name":"english","language_id":38}}]},{"id":5523,"verse_number":28,"verse_key":"74:28","hizb_number":58,"rub_el_hizb_number":230,"ruku_number":512,"manzil_number":7,"sajdah_number":null,"page_number":576,"juz_number":29,"words":[{"id":31002,"position":1,"audio_url":"wbw/074_028_001.mp3","verse_key":"74:28","verse_id":5523,"location":"74:28:1","text_uthmani":"لَا","qpc_uthmani_hafs":"لَا","char_type_name":"word","page_number":576,"line_number":4,"text":"لَا","translation":{"text":"না","language_name":"bengali","language_id":20},"transliteration":{"text":"lā","language_name":"english","language_id":38}},{"id":31003,"position":2,"audio_url":"wbw/074_028_002.mp3","verse_key":"74:28","verse_id":5523,"location":"74:28:2","text_uthmani":"تُبْقِى","qpc_uthmani_hafs":"تُبۡقِي","char_type_name":"word","page_number":576,"line_number":4,"text":"تُبۡقِي","translation":{"text":"বাকী রাখে","language_name":"bengali","language_id":20},"transliteration":{"text":"tub'qī","language_name":"english","language_id":38}},{"id":31004,"position":3,"audio_url":"wbw/074_028_003.mp3","verse_key":"74:28","verse_id":5523,"location":"74:28:3","text_uthmani":"وَلَا","qpc_uthmani_hafs":"وَلَا","char_type_name":"word","page_number":576,"line_number":4,"text":"وَلَا","translation":{"text":"এবং না","language_name":"bengali","language_id":20},"transliteration":{"text":"walā","language_name":"english","language_id":38}},{"id":31005,"position":4,"audio_url":"wbw/074_028_004.mp3","verse_key":"74:28","verse_id":5523,"location":"74:28:4","text_uthmani":"تَذَرُ","qpc_uthmani_hafs":"تَذَرُ","char_type_name":"word","page_number":576,"line_number":4,"text":"تَذَرُ","translation":{"text":"ছেড়ে দেয়","language_name":"bengali","language_id":20},"transliteration":{"text":"tadharu","language_name":"english","language_id":38}},{"id":31006,"position":5,"audio_url":null,"verse_key":"74:28","verse_id":5523,"location":"74:28:5","text_uthmani":"٢٨","qpc_uthmani_hafs":"٢٨","char_type_name":"end","page_number":576,"line_number":4,"text":"٢٨","translation":{"text":"(২৮)","language_name":"bengali","language_id":20},"transliteration":{"text":null,"language_name":"english","language_id":38}}]},{"id":5524,"verse_number":29,"verse_key":"74:29","hizb_number":58,"rub_el_hizb_number":230,"ruku_number":512,"manzil_number":7,"sajdah_number":null,"page_number":576,"juz_number":29,"words":[{"id":31982,"position":1,"audio_url":"wbw/074_029_001.mp3","verse_key":"74:29","verse_id":5524,"location":"74:29:1","text_uthmani":"لَوَّاحَةٌۭ","qpc_uthmani_hafs":"لَوَّاحَةٞ","char_type_name":"word","page_number":576,"line_number":4,"text":"لَوَّاحَةٞ","translation":{"text":"ঝলসে দেয়","language_name":"bengali","language_id":20},"transliteration":{"text":"lawwāḥatun","language_name":"english","language_id":38}},{"id":31983,"position":2,"audio_url":"wbw/074_029_002.mp3","verse_key":"74:29","verse_id":5524,"location":"74:29:2","text_uthmani":"لِّلْبَشَرِ","qpc_uthmani_hafs":"لِّلۡبَشَرِ","char_type_name":"word","page_number":576,"line_number":4,"text":"لِّلۡبَشَرِ","translation":{"text":"চামড়াকে","language_name":"bengali","language_id":20},"transliteration":{"text":"lil'bashari","language_name":"english","language_id":38}},{"id":31984,"position":3,"audio_url":null,"verse_key":"74:29","verse_id":5524,"location":"74:29:3","text_uthmani":"٢٩","qpc_uthmani_hafs":"٢٩","char_type_name":"end","page_number":576,"line_number":4,"text":"٢٩","translation":{"text":"(২৯)","language_name":"bengali","language_id":20},"transliteration":{"text":null,"language_name":"english","language_id":38}}]},{"id":5525,"verse_number":30,"verse_key":"74:30","hizb_number":58,"rub_el_hizb_number":230,"ruku_number":512,"manzil_number":7,"sajdah_number":null,"page_number":576,"juz_number":29,"words":[{"id":32862,"position":1,"audio_url":"wbw/074_030_001.mp3","verse_key":"74:30","verse_id":5525,"location":"74:30:1","text_uthmani":"عَلَيْهَا","qpc_uthmani_hafs":"عَلَيۡهَا","char_type_name":"word","page_number":576,"line_number":4,"text":"عَلَيۡهَا","translation":{"text":"তার উপর","language_name":"bengali","language_id":20},"transliteration":{"text":"ʿalayhā","language_name":"english","language_id":38}},{"id":32863,"position":2,"audio_url":"wbw/074_030_002.mp3","verse_key":"74:30","verse_id":5525,"location":"74:30:2","text_uthmani":"تِسْعَةَ","qpc_uthmani_hafs":"تِسۡعَةَ","char_type_name":"word","page_number":576,"line_number":4,"text":"تِسۡعَةَ","translation":{"text":"উনিশ","language_name":"bengali","language_id":20},"transliteration":{"text":"tis'ʿata","language_name":"english","language_id":38}},{"id":32864,"position":3,"audio_url":"wbw/074_030_003.mp3","verse_key":"74:30","verse_id":5525,"location":"74:30:3","text_uthmani":"عَشَرَ","qpc_uthmani_hafs":"عَشَرَ","char_type_name":"word","page_number":576,"line_number":4,"text":"عَشَرَ","translation":{"text":"(প্রহরী)","language_name":"bengali","language_id":20},"transliteration":{"text":"ʿashara","language_name":"english","language_id":38}},{"id":32865,"position":4,"audio_url":null,"verse_key":"74:30","verse_id":5525,"location":"74:30:4","text_uthmani":"٣٠","qpc_uthmani_hafs":"٣٠","char_type_name":"end","page_number":576,"line_number":4,"text":"٣٠","translation":{"text":"(৩০)","language_name":"bengali","language_id":20},"transliteration":{"text":null,"language_name":"english","language_id":38}}]}],"pagination":{"per_page":10,"current_page":3,"next_page":4,"total_pages":6,"total_records":56}}
