{"verses":[{"id":5536,"verse_number":41,"verse_key":"74:41","hizb_number":58,"rub_el_hizb_number":230,"ruku_number":513,"manzil_number":7,"sajdah_number":null,"page_number":576,"juz_number":29,"words":[{"id":42226,"position":1,"audio_url":"wbw/074_041_001.mp3","verse_key":"74:41","verse_id":5536,"location":"74:41:1","text_uthmani":"عَنِ","qpc_uthmani_hafs":"عَنِ","char_type_name":"word","page_number":576,"line_number":13,"text":"عَنِ","translation":{"text":"সম্পর্কে","language_name":"bengali","language_id":20},"transliteration":{"text":"ʿani","language_name":"english","language_id":38}},{"id":42227,"position":2,"audio_url":"wbw/074_041_002.mp3","verse_key":"74:41","verse_id":5536,"location":"74:41:2","text_uthmani":"ٱلْمُجْرِمِينَ","qpc_uthmani_hafs":"ٱلۡمُجۡرِمِينَ","char_type_name":"word","page_number":576,"line_number":13,"text":"ٱلۡمُجۡرِمِينَ","translation":{"text":"অপরাধীদের","language_name":"bengali","language_id":20},"transliteration":{"text":"l-muj'rimīna","language_name":"english","language_id":38}},{"id":42228,"position":3,"audio_url":null,"verse_key":"74:41","verse_id":5536,"location":"74:41:3","text_uthmani":"٤١","qpc_uthmani_hafs":"٤١","char_type_name":"end","page_number":576,"line_number":13,"text":"٤١","translation":{"text":"(৪১)","language_name":"bengali","language_id":20},"transliteration":{"text":null,"language_name":"english","language_id":38}}]},{"id":5537,"verse_number":42,"verse_key":"74:42","hizb_number":58,"rub_el_hizb_number":230,"ruku_number":513,"manzil_number":7,"sajdah_number":null,"page_number":576,"juz_number":29,"words":[{"id":42972,"position":1,"audio_url":"wbw/074_042_001.mp3","verse_key":"74:42","verse_id":5537,"location":"74:42:1","text_uthmani":"مَا","qpc_uthmani_hafs":"مَا","char_type_name":"word","page_number":576,"line_number":13,"text":"مَا","translation":{"text":"\"কিসে","language_name":"bengali","language_id":20},"transliteration":{"text":"mā","language_name":"english","language_id":38}},{"id":42973,"position":2,"audio_url":"wbw/074_042_002.mp3","verse_key":"74:42","verse_id":5537,"location":"74:42:2","text_uthmani":"سَلَكَكُمْ","qpc_uthmani_hafs":"سَلَكَكُمۡ","char_type_name":"word","page_number":576,"line_number":13,"text":"سَلَكَكُمۡ","translation":{"text":"তোমাদের প্রবেশ করিয়েছে","language_name":"bengali","language_id":20},"transliteration":{"text":"salakakum","language_name":"english","language_id":38}},{"id":42974,"position":3,"audio_url":"wbw/074_042_003.mp3","verse_key":"74:42","verse_id":5537,"location":"74:42:3","text_uthmani":"فِى","qpc_uthmani_hafs":"فِي","char_type_name":"word","page_number":576,"line_number":13,"text":"فِي","translation":{"text":"মধ্যে","language_name":"bengali","language_id":20},"transliteration":{"text":"fī","language_name":"english","language_id":38}},{"id":42975,"position":4,"audio_url":"wbw/074_042_004.mp3","verse_key":"74:42","verse_id":5537,"location":"74:42:4","text_uthmani":"سَقَرَ","qpc_uthmani_hafs":"سَقَرَ","char_type_name":"word","page_number":576,"line_number":13,"text":"سَقَرَ","translation":{"text":"দোযখের\"","language_name":"bengali","language_id":20},"transliteration":{"text":"saqara","language_name":"english","language_id":38}},{"id":42976,"position":5,"audio_url":null,"verse_key":"74:42","verse_id":5537,"location":"74:42:5","text_uthmani":"٤٢","qpc_uthmani_hafs":"٤٢","char_type_name":"end","page_number":576,"line_number":13,"text":"٤٢","translation":{"text":"(৪২)","language_name":"bengali","language_id":20},"transliteration":{"text":null,"language_name":"english","language_id":38}}]},{"id":5538,"verse_number":43,"verse_key":"74:43","hizb_number":58,"rub_el_hizb_number":230,"ruku_number":513,"manzil_number":7,"sajdah_number":null,"page_number":576,"juz_number":29,"words":[{"id":43723,"position":1,"audio_url":"wbw/074_043_001.mp3","verse_key":"74:43","verse_id":5538,"location":"74:43:1","text_uthmani":"قَالُوا۟","qpc_uthmani_hafs":"قَالُواْ","char_type_name":"word","page_number":576,"line_number":13,"text":"قَالُواْ","translation":{"text":"তারা বলবে","language_name":"bengali","language_id":20},"transliteration":{"text":"qālū","language_name":"english","language_id":38}},{"id":43724,"position":2,"audio_url":"wbw/074_043_002.mp3","verse_key":"74:43","verse_id":5538,"location":"74:43:2","text_uthmani":"لَمْ","qpc_uthmani_hafs":"لَمۡ","char_type_name":"word","page_number":576,"line_number":13,"text":"لَمۡ","translation":{"text":"\"না","language_name":"bengali","language_id":20},"transliteration":{"text":"lam","language_name":"english","language_id":38}},{"id":43725,"position":3,"audio_url":"wbw/074_043_003.mp3","verse_key":"74:43","verse_id":5538,"location":"74:43:3","text_uthmani":"نَكُ","qpc_uthmani_hafs":"نَكُ","char_type_name":"word","page_number":576,"line_number":13,"text":"نَكُ","translation":{"text":"ছিলাম আমরা","language_name":"bengali","language_id":20},"transliteration":{"text":"naku","language_name":"english","language_id":38}},{"id":43726,"position":4,"audio_url":"wbw/074_043_004.mp3","verse_key":"74:43","verse_id":5538,"location":"74:43:4","text_uthmani":"مِنَ","qpc_uthmani_hafs":"مِنَ","char_type_name":"word","page_number":576,"line_number":14,"text":"مِنَ","translation":{"text":"অন্তর্ভূক্ত","language_name":"bengali","language_id":20},"transliteration":{"text":"mina","language_name":"english","language_id":38}},{"id":43727,"position":5,"audio_url":"wbw/074_043_005.mp3","verse_key":"74:43","verse_id":5538,"location":"74:43:5","text_uthmani":"ٱلْمُصَلِّينَ","qpc_uthmani_hafs":"ٱلۡمُصَلِّينَ","char_type_name":"word","page_number":576,"line_number":14,"text":"ٱلۡمُصَلِّينَ","translation":{"text":"নামাজীদের","language_name":"bengali","language_id":20},"transliteration":{"text":"l-muṣalīna","language_name":"english","language_id":38}},{"id":43728,"position":6,"audio_url":null,"verse_key":"74:43","verse_id":5538,"location":"74:43:6","text_uthmani":"٤٣","qpc_uthmani_hafs":"٤٣","char_type_name":"end","page_number":576,"line_number":14,"text":"٤٣","translation":{"text":"(৪৩)","language_name":"bengali","language_id":20},"transliteration":{"text":null,"language_name":"english","language_id":38}}]},{"id":5539,"verse_number":44,"verse_key":"74:44","hizb_number":58,"rub_el_hizb_number":230,"ruku_number":513,"manzil_number":7,"sajdah_number":null,"page_number":576,"juz_number":29,"words":[{"id":44489,"position":1,"audio_url":"wbw/074_044_001.mp3","verse_key":"74:44","verse_id":5539,"location":"74:44:1","text_uthmani":"وَلَمْ","qpc_uthmani_hafs":"وَلَمۡ","char_type_name":"word","page_number":576,"line_number":14,"text":"وَلَمۡ","translation":{"text":"এবং না","language_name":"bengali","language_id":20},"transliteration":{"text":"walam","language_name":"english","language_id":38}},{"id":44490,"position":2,"audio_url":"wbw/074_044_002.mp3","verse_key":"74:44","verse_id":5539,"location":"74:44:2","text_uthmani":"نَكُ","qpc_uthmani_hafs":"نَكُ","char_type_name":"word","page_number":576,"line_number":14,"text":"نَكُ","translation":{"text":"আমরা","language_name":"bengali","language_id":20},"transliteration":{"text":"naku","language_name":"english","language_id":38}},{"id":44491,"position":3,"audio_url":"wbw/074_044_003.mp3","verse_key":"74:44","verse_id":5539,"location":"74:44:3","text_uthmani":"نُطْعِمُ","qpc_uthmani_hafs":"نُطۡعِمُ","char_type_name":"word","page_number":576,"line_number":14,"text":"نُطۡعِمُ","translation":{"text":"খাওয়াতাম","language_name":"bengali","language_id":20},"transliteration":{"text":"nuṭ'ʿimu","language_name":"english","language_id":38}},{"id":44492,"position":4,"audio_url":"wbw/074_044_004.mp3","verse_key":"74:44","verse_id":5539,"location":"74:44:4","text_uthmani":"ٱلْمِسْكِينَ","qpc_uthmani_hafs":"ٱلۡمِسۡكِينَ","char_type_name":"word","page_number":576,"line_number":14,"text":"ٱلۡمِسۡكِينَ","translation":{"text":"মিছকিনকে","language_name":"bengali","language_id":20},"transliteration":{"text":"l-mis'kīna","language_name":"english","language_id":38}},{"id":44493,"position":5,"audio_url":null,"verse_key":"74:44","verse_id":5539,"location":"74:44:5","text_uthmani":"٤٤","qpc_uthmani_hafs":"٤٤","char_type_name":"end","page_number":576,"line_number":14,"text":"٤٤","translation":{"text":"(৪৪)","language_name":"bengali","language_id":20},"transliteration":{"text":null,"language_name":"english","language_id":38}}]},{"id":5540,"verse_number":45,"verse_key":"74:45","hizb_number":58,"rub_el_hizb_number":230,"ruku_number":513,"manzil_number":7,"sajdah_number":null,"page_number":576,"juz_number":29,"words":[{"id":45271,"position":1,"audio_url":"wbw/074_045_001.mp3","verse_key":"74:45","verse_id":5540,"location":"74:45:1","text_uthmani":"وَكُنَّا","qpc_uthmani_hafs":"وَكُنَّا","char_type_name":"word","page_number":576,"line_number":14,"text":"وَكُنَّا","translation":{"text":"এবং আমরা আলোচনা করতাম","language_name":"bengali","language_id":20},"transliteration":{"text":"wakunnā","language_name":"english","language_id":38}},{"id":45272,"position":2,"audio_url":"wbw/074_045_002.mp3","verse_key":"74:45","verse_id":5540,"location":"74:45:2","text_uthmani":"نَخُوضُ","qpc_uthmani_hafs":"نَخُوضُ","char_type_name":"word","page_number":576,"line_number":14,"text":"نَخُوضُ","translation":{"text":"এবং আমরা আলোচনা করতাম","language_name":"bengali","language_id":20},"transliteration":{"text":"nakhūḍu","language_name":"english","language_id":38}},{"id":45273,"position":3,"audio_url":"wbw/074_045_003.mp3","verse_key":"74:45","verse_id":5540,"location":"74:45:3","text_uthmani":"مَعَ","qpc_uthmani_hafs":"مَعَ","char_type_name":"word","page_number":576,"line_number":14,"text":"مَعَ","translation":{"text":"সাথে","language_name":"bengali","language_id":20},"transliteration":{"text":"maʿa","language_name":"english","language_id":38}},{"id":45274,"position":4,"audio_url":"wbw/074_045_004.mp3","verse_key":"74:45","verse_id":5540,"location":"74:45:4","text_uthmani":"ٱلْخَآئِضِينَ","qpc_uthmani_hafs":"ٱلۡخَآئِضِينَ","char_type_name":"word","page_number":576,"line_number":15,"text":"ٱلۡخَآئِضِينَ","translation":{"text":"আলোচনাকারীদের","language_name":"bengali","language_id":20},"transliteration":{"text":"l-khāiḍīna","language_name":"english","language_id":38}},{"id":45275,"position":5,"audio_url":null,"verse_key":"74:45","verse_id":5540,"location":"74:45:5","text_uthmani":"٤٥","qpc_uthmani_hafs":"٤٥","char_type_name":"end","page_number":576,"line_number":15,"text":"٤٥","translation":{"text":"(৪৫)","language_name":"bengali","language_id":20},"transliteration":{"text":null,"language_name":"english","language_id":38}}]},{"id":5541,"verse_number":46,"verse_key":"74:46","hizb_number":58,"rub_el_hizb_number":230,"ruku_number":513,"manzil_number":7,"sajdah_number":null,"page_number":576,"juz_number":29,"words":[{"id":45646,"position":1,"audio_url":"wbw/074_046_001.mp3","verse_key":"74:46","verse_id":5541,"location":"74:46:1","text_uthmani":"وَكُنَّا","qpc_uthmani_hafs":"وَكُنَّا","char_type_name":"word","page_number":576,"line_number":15,"text":"وَكُنَّا","translation":{"text":"এবং মিথ্যারোপ করতাম আমরা","language_name":"bengali","language_id":20},"transliteration":{"text":"wakunnā","language_name":"english","language_id":38}},{"id":45647,"position":2,"audio_url":"wbw/074_046_002.mp3","verse_key":"74:46","verse_id":5541,"location":"74:46:2","text_uthmani":"نُكَذِّبُ","qpc_uthmani_hafs":"نُكَذِّبُ","char_type_name":"word","page_number":576,"line_number":15,"text":"نُكَذِّبُ","translation":{"text":"এবং মিথ্যারোপ করতাম আমরা","language_name":"bengali","language_id":20},"transliteration":{"text":"nukadhibu","language_name":"english","language_id":38}},{"id":45648,"position":3,"audio_url":"wbw/074_046_003.mp3","verse_key":"74:46","verse_id":5541,"location":"74:46:3","text_uthmani":"بِيَوْمِ","qpc_uthmani_hafs":"بِيَوۡمِ","char_type_name":"word","page_number":576,"line_number":15,"text":"بِيَوۡمِ","translation":{"text":"দিনকে","language_name":"bengali","language_id":20},"transliteration":{"text":"biyawmi","language_name":"english","language_id":38}},{"id":45649,"position":4,"audio_url":"wbw/074_046_004.mp3","verse_key":"74:46","verse_id":5541,"location":"74:46:4","text_uthmani":"ٱلدِّينِ","qpc_uthmani_hafs":"ٱلدِّينِ","char_type_name":"word","page_number":576,"line_number":15,"text":"ٱلدِّينِ","translation":{"text":"প্রতিদানের","language_name":"bengali","language_id":20},"transliteration":{"text":"l-dīni","language_name":"english","language_id":38}},{"id":45650,"position":5,"audio_url":null,"verse_key":"74:46","verse_id":5541,"location":"74:46:5","text_uthmani":"٤٦","qpc_uthmani_hafs":"٤٦","char_type_name":"end","page_number":576,"line_number":15,"text":"٤٦","translation":{"text":"(৪৬)","language_name":"bengali","language_id":20},"transliteration":{"text":null,"language_name":"english","language_id":38}}]},{"id":5542,"verse_number":47,"verse_key":"74:47","hizb_number":58,"rub_el_hizb_number":230,"ruku_number":513,"manzil_number":7,"sajdah_number":null,"page_number":576,"juz_number":29,"words":[{"id":46600,"position":1,"audio_url":"wbw/074_047_001.mp3","verse_key":"74:47","verse_id":5542,"location":"74:47:1","text_uthmani":"حَتَّىٰٓ","qpc_uthmani_hafs":"حَتَّىٰٓ","char_type_name":"word","page_number":576,"line_number":15,"text":"حَتَّىٰٓ","translation":{"text":"শেষ পর্যন্ত","language_name":"bengali","language_id":20},"transliteration":{"text":"ḥattā","language_name":"english","language_id":38}},{"id":46601,"position":2,"audio_url":"wbw/074_047_002.mp3","verse_key":"74:47","verse_id":5542,"location":"74:47:2","text_uthmani":"أَتَىٰنَا","qpc_uthmani_hafs":"أَتَىٰنَا","char_type_name":"word","page_number":576,"line_number":15,"text":"أَتَىٰنَا","translation":{"text":"আমাদের কাছে আসল","language_name":"bengali","language_id":20},"transliteration":{"text":"atānā","language_name":"english","language_id":38}},{"id":46602,"position":3,"audio_url":"wbw/074_047_003.mp3","verse_key":"74:47","verse_id":5542,"location":"74:47:3","text_uthmani":"ٱلْيَقِينُ","qpc_uthmani_hafs":"ٱلۡيَقِينُ","char_type_name":"word","page_number":576,"line_number":15,"text":"ٱلۡيَقِينُ","translation":{"text":"দৃঢ়বিশ্বাস (মৃত্যু)\"","language_name":"bengali","language_id":20},"transliteration":{"text":"l-yaqīnu","language_name":"english","language_id":38}},{"id":46603,"position":4,"audio_url":null,"verse_key":"74:47","verse_id":5542,"location":"74:47:4","text_uthmani":"٤٧","qpc_uthmani_hafs":"٤٧","char_type_name":"end","page_number":576,"line_number":15,"text":"٤٧","translation":{"text":"(৪৭)","language_name":"bengali","language_id":20},"transliteration":{"text":null,"language_name":"english","language_id":38}}]},{"id":5543,"verse_number":48,"verse_key":"74:48","hizb_number":58,"rub_el_hizb_number":230,"ruku_number":513,"manzil_number":7,"sajdah_number":null,"page_number":577,"juz_number":29,"words":[{"id":47377,"position":1,"audio_url":"wbw/074_048_001.mp3","verse_key":"74:48","verse_id":5543,"location":"74:48:1","text_uthmani":"فَمَا","qpc_uthmani_hafs":"فَمَا","char_type_name":"word","page_number":577,"line_number":1,"text":"فَمَا","translation":{"text":"না অতঃপর","language_name":"bengali","language_id":20},"transliteration":{"text":"famā","language_name":"english","language_id":38}},{"id":47378,"position":2,"audio_url":"wbw/074_048_002.mp3","verse_key":"74:48","verse_id":5543,"location":"74:48:2","text_uthmani":"تَنفَعُهُمْ","qpc_uthmani_hafs":"تَنفَعُهُمۡ","char_type_name":"word","page_number":577,"line_number":1,"text":"تَنفَعُهُمۡ","translation":{"text":"তাদের কাজে আসবে","language_name":"bengali","language_id":20},"transliteration":{"text":"tanfaʿuhum","language_name":"english","language_id":38}},{"id":47379,"position":3,"audio_url":"wbw/074_048_003.mp3","verse_key":"74:48","verse_id":5543,"location":"74:48:3","text_uthmani":"شَفَـٰعَةُ","qpc_uthmani_hafs":"شَفَٰعَةُ","char_type_name":"word","page_number":577,"line_number":1,"text":"شَفَٰعَةُ","translation":{"text":"সুপারিশ","language_name":"bengali","language_id":20},"transliteration":{"text":"shafāʿatu","language_name":"english","language_id":38}},{"id":47380,"position":4,"audio_url":"wbw/074_048_004.mp3","verse_key":"74:48","verse_id":5543,"location":"74:48:4","text_uthmani":"ٱلشَّـٰفِعِينَ","qpc_uthmani_hafs":"ٱلشَّٰفِعِينَ","char_type_name":"word","page_number":577,"line_number":1,"text":"ٱلشَّٰفِعِينَ","translation":{"text":"সুপারিশকারীদের","language_name":"bengali","language_id":20},"transliteration":{"text":"l-shāfiʿīna","language_name":"english","language_id":38}},{"id":47381,"position":5,"audio_url":null,"verse_key":"74:48","verse_id":5543,"location":"74:48:5","text_uthmani":"٤٨","qpc_uthmani_hafs":"٤٨","char_type_name":"end","page_number":577,"line_number":1,"text":"٤٨","translation":{"text":"(৪৮)","language_name":"bengali","language_id":20},"transliteration":{"text":null,"language_name":"english","language_id":38}}]},{"id":5544,"verse_number":49,"verse_key":"74:49","hizb_number":58,"rub_el_hizb_number":230,"ruku_number":513,"manzil_number":7,"sajdah_number":null,"page_number":577,"juz_number":29,"words":[{"id":47947,"position":1,"audio_url":"wbw/074_049_001.mp3","verse_key":"74:49","verse_id":5544,"location":"74:49:1","text_uthmani":"فَمَا","qpc_uthmani_hafs":"فَمَا","char_type_name":"word","page_number":577,"line_number":1,"text":"فَمَا","translation":{"text":"অতঃপর","language_name":"bengali","language_id":20},"transliteration":{"text":"famā","language_name":"english","language_id":38}},{"id":47948,"position":2,"audio_url":"wbw/074_049_002.mp3","verse_key":"74:49","verse_id":5544,"location":"74:49:2","text_uthmani":"لَهُمْ","qpc_uthmani_hafs":"لَهُمۡ","char_type_name":"word","page_number":577,"line_number":1,"text":"لَهُمۡ","translation":{"text":"তাদের হয়েছে কি","language_name":"bengali","language_id":20},"transliteration":{"text":"lahum","language_name":"english","language_id":38}},{"id":47949,"position":3,"audio_url":"wbw/074_049_003.mp3","verse_key":"74:49","verse_id":5544,"location":"74:49:3","text_uthmani":"عَنِ","qpc_uthmani_hafs":"عَنِ","char_type_name":"word","page_number":577,"line_number":1,"text":"عَنِ","translation":{"text":"থেকে","language_name":"bengali","language_id":20},"transliteration":{"text":"ʿani","language_name":"english","language_id":38}},{"id":47950,"position":4,"audio_url":"wbw/074_049_004.mp3","verse_key":"74:49","verse_id":5544,"location":"74:49:4","text_uthmani":"ٱلتَّذْكِرَةِ","qpc_uthmani_hafs":"ٱلتَّذۡكِرَةِ","char_type_name":"word","page_number":577,"line_number":1,"text":"ٱلتَّذۡكِرَةِ","translation":{"text":"নসীহত","language_name":"bengali","language_id":20},"transliteration":{"text":"l-tadhkirati","language_name":"english","language_id":38}},{"id":47951,"position":5,"audio_url":"wbw/074_049_005.mp3","verse_key":"74:49","verse_id":5544,"location":"74:49:5","text_uthmani":"مُعْرِضِينَ","qpc_uthmani_hafs":"مُعۡرِضِينَ","char_type_name":"word","page_number":577,"line_number":1,"text":"مُعۡرِضِينَ","translation":{"text":"মুখ ফিরিয়ে নেয়","language_name":"bengali","language_id":20},"transliteration":{"text":"muʿ'riḍīna","language_name":"english","language_id":38}},{"id":47952,"position":6,"audio_url":null,"verse_key":"74:49","verse_id":5544,"location":"74:49:6","text_uthmani":"٤٩","qpc_uthmani_hafs":"٤٩","char_type_name":"end","page_number":577,"line_number":2,"text":"٤٩","translation":{"text":"(৪৯)","language_name":"bengali","language_id":20},"transliteration":{"text":null,"language_name":"english","language_id":38}}]},{"id":5545,"verse_number":50,"verse_key":"74:50","hizb_number":58,"rub_el_hizb_number":230,"ruku_number":513,"manzil_number":7,"sajdah_number":null,"page_number":577,"juz_number":29,"words":[{"id":48675,"position":1,"audio_url":"wbw/074_050_001.mp3","verse_key":"74:50","verse_id":5545,"location":"74:50:1","text_uthmani":"كَأَنَّهُمْ","qpc_uthmani_hafs":"كَأَنَّهُمۡ","char_type_name":"word","page_number":577,"line_number":2,"text":"كَأَنَّهُمۡ","translation":{"text":"তারা যেন","language_name":"bengali","language_id":20},"transliteration":{"text":"ka-annahum","language_name":"english","language_id":38}},{"id":48676,"position":2,"audio_url":"wbw/074_050_002.mp3","verse_key":"74:50","verse_id":5545,"location":"74:50:2","text_uthmani":"حُمُرٌۭ","qpc_uthmani_hafs":"حُمُرٞ","char_type_name":"word","page_number":577,"line_number":2,"text":"حُمُرٞ","translation":{"text":"গর্দভসমূহ","language_name":"bengali","language_id":20},"transliteration":{"text":"ḥumurun","language_name":"english","language_id":38}},{"id":48677,"position":3,"audio_url":"wbw/074_050_003.mp3","verse_key":"74:50","verse_id":5545,"location":"74:50:3","text_uthmani":"مُّسْتَنفِرَةٌۭ","qpc_uthmani_hafs":"مُّسۡتَنفِرَةٞ","char_type_name":"word","page_number":577,"line_number":2,"text":"مُّسۡتَنفِرَةٞ","translation":{"text":"ভীতত্রস্ত","language_name":"bengali","language_id":20},"transliteration":{"text":"mus'tanfiratun","language_name":"english","language_id":38}},{"id":48678,"position":4,"audio_url":null,"verse_key":"74:50","verse_id":5545,"location":"74:50:4","text_uthmani":"٥٠","qpc_uthmani_hafs":"٥٠","char_type_name":"end","page_number":577,"line_number":2,"text":"٥٠","translation":{"text":"(৫০)","language_name":"bengali","language_id":20},"transliteration":{"text":null,"language_name":"english","language_id":38}}]}],"pagination":{"per_page":10,"current_page":5,"next_page":6,"total_pages":6,"total_records":56}}
