{"verses":[{"id":5546,"verse_number":51,"verse_key":"74:51","hizb_number":58,"rub_el_hizb_number":230,"ruku_number":513,"manzil_number":7,"sajdah_number":null,"page_number":577,"juz_number":29,"words":[{"id":49281,"position":1,"audio_url":"wbw/074_051_001.mp3","verse_key":"74:51","verse_id":5546,"location":"74:51:1","text_uthmani":"فَرَّتْ","qpc_uthmani_hafs":"فَرَّتۡ","char_type_name":"word","page_number":577,"line_number":2,"text":"فَرَّتۡ","translation":{"text":"পলায়ন করছে","language_name":"bengali","language_id":20},"transliteration":{"text":"farrat","language_name":"english","language_id":38}},{"id":49282,"position":2,"audio_url":"wbw/074_051_002.mp3","verse_key":"74:51","verse_id":5546,"location":"74:51:2","text_uthmani":"مِن","qpc_uthmani_hafs":"مِن","char_type_name":"word","page_number":577,"line_number":2,"text":"مِن","translation":{"text":"থেকে","language_name":"bengali","language_id":20},"transliteration":{"text":"min","language_name":"english","language_id":38}},{"id":49283,"position":3,"audio_url":"wbw/074_051_003.mp3","verse_key":"74:51","verse_id":5546,"location":"74:51:3","text_uthmani":"قَسْوَرَةٍۭ","qpc_uthmani_hafs":"قَسۡوَرَةِۭ","char_type_name":"word","page_number":577,"line_number":2,"text":"قَسۡوَرَةِۭ","translation":{"text":"সিংহ","language_name":"bengali","language_id":20},"transliteration":{"text":"qaswaratin","language_name":"english","language_id":38}},{"id":49284,"position":4,"audio_url":null,"verse_key":"74:51","verse_id":5546,"location":"74:51:4","text_uthmani":"٥١","qpc_uthmani_hafs":"٥١","char_type_name":"end","page_number":577,"line_number":2,"text":"٥١","translation":{"text":"(৫১)","language_name":"bengali","language_id":20},"transliteration":{"text":null,"language_name":"english","language_id":38}}]},{"id":5547,"verse_number":52,"verse_key":"74:52","hizb_number":58,"rub_el_hizb_number":230,"ruku_number":513,"manzil_number":7,"sajdah_number":null,"page_number":577,"juz_number":29,"words":[{"id":49933,"position":1,"audio_url":"wbw/074_052_001.mp3","verse_key":"74:52","verse_id":5547,"location":"74:52:1","text_uthmani":"بَلْ","qpc_uthmani_hafs":"بَلۡ","char_type_name":"word","page_number":577,"line_number":2,"text":"بَلۡ","translation":{"text":"বরং","language_name":"bengali","language_id":20},"transliteration":{"text":"bal","language_name":"english","language_id":38}},{"id":49934,"position":2,"audio_url":"wbw/074_052_002.mp3","verse_key":"74:52","verse_id":5547,"location":"74:52:2","text_uthmani":"يُرِيدُ","qpc_uthmani_hafs":"يُرِيدُ","char_type_name":"word","page_number":577,"line_number":2,"text":"يُرِيدُ","translation":{"text":"চায়","language_name":"bengali","language_id":20},"transliteration":{"text":"yurīdu","language_name":"english","language_id":38}},{"id":49935,"position":3,"audio_url":"wbw/074_052_003.mp3","verse_key":"74:52","verse_id":5547,"location":"74:52:3","text_uthmani":"كُلُّ","qpc_uthmani_hafs":"كُلُّ","char_type_name":"word","page_number":577,"line_number":3,"text":"كُلُّ","translation":{"text":"প্রত্যেক","language_name":"bengali","language_id":20},"transliteration":{"text":"kullu","language_name":"english","language_id":38}},{"id":49936,"position":4,"audio_url":"wbw/074_052_004.mp3","verse_key":"74:52","verse_id":5547,"location":"74:52:4","text_uthmani":"ٱمْرِئٍۢ","qpc_uthmani_hafs":"ٱمۡرِيٕٖ","char_type_name":"word","page_number":577,"line_number":3,"text":"ٱمۡرِيٕٖ","translation":{"text":"ব্যক্তি","language_name":"bengali","language_id":20},"transliteration":{"text":"im'ri-in","language_name":"english","language_id":38}},{"id":49937,"position":5,"audio_url":"wbw/074_052_005.mp3","verse_key":"74:52","verse_id":5547,"location":"74:52:5","text_uthmani":"مِّنْهُمْ","qpc_uthmani_hafs":"مِّنۡهُمۡ","char_type_name":"word","page_number":577,"line_number":3,"text":"مِّنۡهُمۡ","translation":{"text":"তাদের মধ্যে","language_name":"bengali","language_id":20},"transliteration":{"text":"min'hum","language_name":"english","language_id":38}},{"id":49938,"position":6,"audio_url":"wbw/074_052_006.mp3","verse_key":"74:52","verse_id":5547,"location":"74:52:6","text_uthmani":"أَن","qpc_uthmani_hafs":"أَن","char_type_name":"word","page_number":577,"line_number":3,"text":"أَن","translation":{"text":"যে","language_name":"bengali","language_id":20},"transliteration":{"text":"an","language_name":"english","language_id":38}},{"id":49939,"position":7,"audio_url":"wbw/074_052_007.mp3","verse_key":"74:52","verse_id":5547,"location":"74:52:7","text_uthmani":"يُؤْتَىٰ","qpc_uthmani_hafs":"يُؤۡتَىٰ","char_type_name":"word","page_number":577,"line_number":3,"text":"يُؤۡتَىٰ","translation":{"text":"দেয়া হোক","language_name":"bengali","language_id":20},"transliteration":{"text":"yu'tā","language_name":"english","language_id":38}},{"id":49940,"position":8,"audio_url":"wbw/074_052_008.mp3","verse_key":"74:52","verse_id":5547,"location":"74:52:8","text_uthmani":"صُحُفًۭا","qpc_uthmani_hafs":"صُحُفٗا","char_type_name":"word","page_number":577,"line_number":3,"text":"صُحُفٗا","translation":{"text":"গ্রন্থসমূহ","language_name":"bengali","language_id":20},"transliteration":{"text":"ṣuḥufan","language_name":"english","language_id":38}},{"id":49941,"position":9,"audio_url":"wbw/074_052_009.mp3","verse_key":"74:52","verse_id":5547,"location":"74:52:9","text_uthmani":"مُّنَشَّرَةًۭ","qpc_uthmani_hafs":"مُّنَشَّرَةٗ","char_type_name":"word","page_number":577,"line_number":3,"text":"مُّنَشَّرَةٗ","translation":{"text":"উন্মুক্ত","language_name":"bengali","language_id":20},"transliteration":{"text":"munasharatan","language_name":"english","language_id":38}},{"id":49942,"position":10,"audio_url":null,"verse_key":"74:52","verse_id":5547,"location":"74:52:10","text_uthmani":"٥٢","qpc_uthmani_hafs":"٥٢","char_type_name":"end","page_number":577,"line_number":3,"text":"٥٢","translation":{"text":"(৫২)","language_name":"bengali","language_id":20},"transliteration":{"text":null,"language_name":"english","language_id":38}}]},{"id":5548,"verse_number":53,"verse_key":"74:53","hizb_number":58,"rub_el_hizb_number":230,"ruku_number":513,"manzil_number":7,"sajdah_number":null,"page_number":577,"juz_number":29,"words":[{"id":50558,"position":1,"audio_url":"wbw/074_053_001.mp3","verse_key":"74:53","verse_id":5548,"location":"74:53:1","text_uthmani":"كَلَّا ۖ","qpc_uthmani_hafs":"كـَلَّاۖ","char_type_name":"word","page_number":577,"line_number":3,"text":"كـَلَّاۖ","translation":{"text":"কক্ষণও না","language_name":"bengali","language_id":20},"transliteration":{"text":"kallā","language_name":"english","language_id":38}},{"id":50560,"position":2,"audio_url":"wbw/074_053_003.mp3","verse_key":"74:53","verse_id":5548,"location":"74:53:2","text_uthmani":"بَل","qpc_uthmani_hafs":"بَل","char_type_name":"word","page_number":577,"line_number":3,"text":"بَل","translation":{"text":"বরং","language_name":"bengali","language_id":20},"transliteration":{"text":"bal","language_name":"english","language_id":38}},{"id":50561,"position":3,"audio_url":"wbw/074_053_004.mp3","verse_key":"74:53","verse_id":5548,"location":"74:53:3","text_uthmani":"لَّا","qpc_uthmani_hafs":"لَّا","char_type_name":"word","page_number":577,"line_number":3,"text":"لَّا","translation":{"text":"না","language_name":"bengali","language_id":20},"transliteration":{"text":"lā","language_name":"english","language_id":38}},{"id":50562,"position":4,"audio_url":"wbw/074_053_005.mp3","verse_key":"74:53","verse_id":5548,"location":"74:53:4","text_uthmani":"يَخَافُونَ","qpc_uthmani_hafs":"يَخَافُونَ","char_type_name":"word","page_number":577,"line_number":3,"text":"يَخَافُونَ","translation":{"text":"তারা ভয় করে না","language_name":"bengali","language_id":20},"transliteration":{"text":"yakhāfūna","language_name":"english","language_id":38}},{"id":50563,"position":5,"audio_url":"wbw/074_053_006.mp3","verse_key":"74:53","verse_id":5548,"location":"74:53:5","text_uthmani":"ٱلْـَٔاخِرَةَ","qpc_uthmani_hafs":"ٱلۡأٓخِرَةَ","char_type_name":"word","page_number":577,"line_number":4,"text":"ٱلۡأٓخِرَةَ","translation":{"text":"আখেরাতকে","language_name":"bengali","language_id":20},"transliteration":{"text":"l-ākhirata","language_name":"english","language_id":38}},{"id":50564,"position":6,"audio_url":null,"verse_key":"74:53","verse_id":5548,"location":"74:53:6","text_uthmani":"٥٣","qpc_uthmani_hafs":"٥٣","char_type_name":"end","page_number":577,"line_number":4,"text":"٥٣","translation":{"text":"(৫৩)","language_name":"bengali","language_id":20},"transliteration":{"text":null,"language_name":"english","language_id":38}}]},{"id":5549,"verse_number":54,"verse_key":"74:54","hizb_number":58,"rub_el_hizb_number":230,"ruku_number":513,"manzil_number":7,"sajdah_number":null,"page_number":577,"juz_number":29,"words":[{"id":51345,"position":1,"audio_url":"wbw/074_054_001.mp3","verse_key":"74:54","verse_id":5549,"location":"74:54:1","text_uthmani":"كَلَّآ","qpc_uthmani_hafs":"كـَلَّآ","char_type_name":"word","page_number":577,"line_number":4,"text":"كـَلَّآ","translation":{"text":"কক্ষণও না","language_name":"bengali","language_id":20},"transliteration":{"text":"kallā","language_name":"english","language_id":38}},{"id":51346,"position":2,"audio_url":"wbw/074_054_002.mp3","verse_key":"74:54","verse_id":5549,"location":"74:54:2","text_uthmani":"إِنَّهُۥ","qpc_uthmani_hafs":"إِنَّهُۥ","char_type_name":"word","page_number":577,"line_number":4,"text":"إِنَّهُۥ","translation":{"text":"তা নিশ্চয়","language_name":"bengali","language_id":20},"transliteration":{"text":"innahu","language_name":"english","language_id":38}},{"id":51347,"position":3,"audio_url":"wbw/074_054_003.mp3","verse_key":"74:54","verse_id":5549,"location":"74:54:3","text_uthmani":"تَذْكِرَةٌۭ","qpc_uthmani_hafs":"تَذۡكِرَةٞ","char_type_name":"word","page_number":577,"line_number":4,"text":"تَذۡكِرَةٞ","translation":{"text":"উপদেশ","language_name":"bengali","language_id":20},"transliteration":{"text":"tadhkiratun","language_name":"english","language_id":38}},{"id":51348,"position":4,"audio_url":null,"verse_key":"74:54","verse_id":5549,"location":"74:54:4","text_uthmani":"٥٤","qpc_uthmani_hafs":"٥٤","char_type_name":"end","page_number":577,"line_number":4,"text":"٥٤","translation":{"text":"(৫৪)","language_name":"bengali","language_id":20},"transliteration":{"text":null,"language_name":"english","language_id":38}}]},{"id":5550,"verse_number":55,"verse_key":"74:55","hizb_number":58,"rub_el_hizb_number":230,"ruku_number":513,"manzil_number":7,"sajdah_number":null,"page_number":577,"juz_number":29,"words":[{"id":51729,"position":1,"audio_url":"wbw/074_055_001.mp3","verse_key":"74:55","verse_id":5550,"location":"74:55:1","text_uthmani":"فَمَن","qpc_uthmani_hafs":"فَمَن","char_type_name":"word","page_number":577,"line_number":4,"text":"فَمَن","translation":{"text":"যে অতএব","language_name":"bengali","language_id":20},"transliteration":{"text":"faman","language_name":"english","language_id":38}},{"id":51730,"position":2,"audio_url":"wbw/074_055_002.mp3","verse_key":"74:55","verse_id":5550,"location":"74:55:2","text_uthmani":"شَآءَ","qpc_uthmani_hafs":"شَآءَ","char_type_name":"word","page_number":577,"line_number":4,"text":"شَآءَ","translation":{"text":"ইচ্ছা করে","language_name":"bengali","language_id":20},"transliteration":{"text":"shāa","language_name":"english","language_id":38}},{"id":51731,"position":3,"audio_url":"wbw/074_055_003.mp3","verse_key":"74:55","verse_id":5550,"location":"74:55:3","text_uthmani":"ذَكَرَهُۥ","qpc_uthmani_hafs":"ذَكَرَهُۥ","char_type_name":"word","page_number":577,"line_number":4,"text":"ذَكَرَهُۥ","translation":{"text":"তার শিক্ষা নিক","language_name":"bengali","language_id":20},"transliteration":{"text":"dhakarahu","language_name":"english","language_id":38}},{"id":51732,"position":4,"audio_url":null,"verse_key":"74:55","verse_id":5550,"location":"74:55:4","text_uthmani":"٥٥","qpc_uthmani_hafs":"٥٥","char_type_name":"end","page_number":577,"line_number":4,"text":"٥٥","translation":{"text":"(৫৫)","language_name":"bengali","language_id":20},"transliteration":{"text":null,"language_name":"english","language_id":38}}]},{"id":5551,"verse_number":56,"verse_key":"74:56","hizb_number":58,"rub_el_hizb_number":230,"ruku_number":513,"manzil_number":7,"sajdah_number":null,"page_number":577,"juz_number":29,"words":[{"id":52267,"position":1,"audio_url":"wbw/074_056_001.mp3","verse_key":"74:56","verse_id":5551,"location":"74:56:1","text_uthmani":"وَمَا","qpc_uthmani_hafs":"وَمَا","char_type_name":"word","page_number":577,"line_number":4,"text":"وَمَا","translation":{"text":"এবং না","language_name":"bengali","language_id":20},"transliteration":{"text":"wamā","language_name":"english","language_id":38}},{"id":52268,"position":2,"audio_url":"wbw/074_056_002.mp3","verse_key":"74:56","verse_id":5551,"location":"74:56:2","text_uthmani":"يَذْكُرُونَ","qpc_uthmani_hafs":"يَذۡكُرُونَ","char_type_name":"word","page_number":577,"line_number":4,"text":"يَذۡكُرُونَ","translation":{"text":"তারা শিক্ষা নেবে","language_name":"bengali","language_id":20},"transliteration":{"text":"yadhkurūna","language_name":"english","language_id":38}},{"id":52269,"position":3,"audio_url":"wbw/074_056_003.mp3","verse_key":"74:56","verse_id":5551,"location":"74:56:3","text_uthmani":"إِلَّآ","qpc_uthmani_hafs":"إِلَّآ","char_type_name":"word","page_number":577,"line_number":5,"text":"إِلَّآ","translation":{"text":"এ ছাড়া","language_name":"bengali","language_id":20},"transliteration":{"text":"illā","language_name":"english","language_id":38}},{"id":52270,"position":4,"audio_url":"wbw/074_056_004.mp3","verse_key":"74:56","verse_id":5551,"location":"74:56:4","text_uthmani":"أَن","qpc_uthmani_hafs":"أَن","char_type_name":"word","page_number":577,"line_number":5,"text":"أَن","translation":{"text":"যে","language_name":"bengali","language_id":20},"transliteration":{"text":"an","language_name":"english","language_id":38}},{"id":52271,"position":5,"audio_url":"wbw/074_056_005.mp3","verse_key":"74:56","verse_id":5551,"location":"74:56:5","text_uthmani":"يَشَآءَ","qpc_uthmani_hafs":"يَشَآءَ","char_type_name":"word","page_number":577,"line_number":5,"text":"يَشَآءَ","translation":{"text":"ইচ্ছা করেন","language_name":"bengali","language_id":20},"transliteration":{"text":"yashāa","language_name":"english","language_id":38}},{"id":52272,"position":6,"audio_url":"wbw/074_056_006.mp3","verse_key":"74:56","verse_id":5551,"location":"74:56:6","text_uthmani":"ٱللَّهُ ۚ","qpc_uthmani_hafs":"ٱللَّهُۚ","char_type_name":"word","page_number":577,"line_number":5,"text":"ٱللَّهُۚ","translation":{"text":"আল্লাহ","language_name":"bengali","language_id":20},"transliteration":{"text":"l-lahu","language_name":"english","language_id":38}},{"id":52274,"position":7,"audio_url":"wbw/074_056_008.mp3","verse_key":"74:56","verse_id":5551,"location":"74:56:7","text_uthmani":"هُوَ","qpc_uthmani_hafs":"هُوَ","char_type_name":"word","page_number":577,"line_number":5,"text":"هُوَ","translation":{"text":"তিনিই","language_name":"bengali","language_id":20},"transliteration":{"text":"huwa","language_name":"english","language_id":38}},{"id":52275,"position":8,"audio_url":"wbw/074_056_009.mp3","verse_key":"74:56","verse_id":5551,"location":"74:56:8","text_uthmani":"أَهْلُ","qpc_uthmani_hafs":"أَهۡلُ","char_type_name":"word","page_number":577,"line_number":5,"text":"أَهۡلُ","translation":{"text":"যোগ্য","language_name":"bengali","language_id":20},"transliteration":{"text":"ahlu","language_name":"english","language_id":38}},{"id":52276,"position":9,"audio_url":"wbw/074_056_010.mp3","verse_key":"74:56","verse_id":5551,"location":"74:56:9","text_uthmani":"ٱلتَّقْوَىٰ","qpc_uthmani_hafs":"ٱلتَّقۡوَىٰ","char_type_name":"word","page_number":577,"line_number":5,"text":"ٱلتَّقۡوَىٰ","translation":{"text":"ভয়ের","language_name":"bengali","language_id":20},"transliteration":{"text":"l-taqwā","language_name":"english","language_id":38}},{"id":52277,"position":10,"audio_url":"wbw/074_056_011.mp3","verse_key":"74:56","verse_id":5551,"location":"74:56:10","text_uthmani":"وَأَهْلُ","qpc_uthmani_hafs":"وَأَهۡلُ","char_type_name":"word","page_number":577,"line_number":5,"text":"وَأَهۡلُ","translation":{"text":"এবং অধিকারী","language_name":"bengali","language_id":20},"transliteration":{"text":"wa-ahlu","language_name":"english","language_id":38}},{"id":52278,"position":11,"audio_url":"wbw/074_056_012.mp3","verse_key":"74:56","verse_id":5551,"location":"74:56:11","text_uthmani":"ٱلْمَغْفِرَةِ","qpc_uthmani_hafs":"ٱلۡمَغۡفِرَةِ","char_type_name":"word","page_number":577,"line_number":5,"text":"ٱلۡمَغۡفِرَةِ","translation":{"text":"মাফ করার","language_name":"bengali","language_id":20},"transliteration":{"text":"l-maghfirati","language_name":"english","language_id":38}},{"id":52279,"position":12,"audio_url":null,"verse_key":"74:56","verse_id":5551,"location":"74:56:12","text_uthmani":"٥٦","qpc_uthmani_hafs":"٥٦","char_type_name":"end","page_number":577,"line_number":5,"text":"٥٦","translation":{"text":"(৫৬)","language_name":"bengali","language_id":20},"transliteration":{"text":null,"language_name":"english","language_id":38}}]}],"pagination":{"per_page":10,"current_page":6,"next_page":null,"total_pages":6,"total_records":56}}
