{"verses":[{"id":5653,"verse_number":31,"verse_key":"77:31","hizb_number":58,"rub_el_hizb_number":232,"ruku_number":518,"manzil_number":7,"sajdah_number":null,"page_number":581,"juz_number":29,"words":[{"id":33654,"position":1,"audio_url":"wbw/077_031_001.mp3","char_type_name":"word","page_number":581,"line_number":6,"text":"لَّا","translation":{"text":"না","language_name":"bengali","language_id":20},"transliteration":{"text":"lā","language_name":"english","language_id":38}},{"id":33655,"position":2,"audio_url":"wbw/077_031_002.mp3","char_type_name":"word","page_number":581,"line_number":6,"text":"ظَلِيلٍۢ","translation":{"text":"শৈত্যদাতা","language_name":"bengali","language_id":20},"transliteration":{"text":"ẓalīlin","language_name":"english","language_id":38}},{"id":33656,"position":3,"audio_url":"wbw/077_031_003.mp3","char_type_name":"word","page_number":581,"line_number":6,"text":"وَلَا","translation":{"text":"আর না","language_name":"bengali","language_id":20},"transliteration":{"text":"walā","language_name":"english","language_id":38}},{"id":33657,"position":4,"audio_url":"wbw/077_031_004.mp3","char_type_name":"word","page_number":581,"line_number":6,"text":"يُغْنِى","translation":{"text":"রক্ষা করবে","language_name":"bengali","language_id":20},"transliteration":{"text":"yugh'nī","language_name":"english","language_id":38}},{"id":33658,"position":5,"audio_url":"wbw/077_031_005.mp3","char_type_name":"word","page_number":581,"line_number":6,"text":"مِنَ","translation":{"text":"থেকে","language_name":"bengali","language_id":20},"transliteration":{"text":"mina","language_name":"english","language_id":38}},{"id":33659,"position":6,"audio_url":"wbw/077_031_006.mp3","char_type_name":"word","page_number":581,"line_number":6,"text":"ٱللَّهَبِ","translation":{"text":"আগুনের শিখা","language_name":"bengali","language_id":20},"transliteration":{"text":"l-lahabi","language_name":"english","language_id":38}},{"id":33660,"position":7,"audio_url":null,"char_type_name":"end","page_number":581,"line_number":6,"text":"٣١","translation":{"text":"(৩১)","language_name":"bengali","language_id":20},"transliteration":{"text":null,"language_name":"english","language_id":38}}]},{"id":5654,"verse_number":32,"verse_key":"77:32","hizb_number":58,"rub_el_hizb_number":232,"ruku_number":518,"manzil_number":7,"sajdah_number":null,"page_number":581,"juz_number":29,"words":[{"id":34750,"position":1,"audio_url":"wbw/077_032_001.mp3","char_type_name":"word","page_number":581,"line_number":6,"text":"إِنَّهَا","translation":{"text":"তা নিশ্চয়","language_name":"bengali","language_id":20},"transliteration":{"text":"innahā","language_name":"english","language_id":38}},{"id":34751,"position":2,"audio_url":"wbw/077_032_002.mp3","char_type_name":"word","page_number":581,"line_number":6,"text":"تَرْمِى","translation":{"text":"নিক্ষেপ করবে","language_name":"bengali","language_id":20},"transliteration":{"text":"tarmī","language_name":"english","language_id":38}},{"id":34752,"position":3,"audio_url":"wbw/077_032_003.mp3","char_type_name":"word","page_number":581,"line_number":6,"text":"بِشَرَرٍۢ","translation":{"text":"স্কুলিংগকে","language_name":"bengali","language_id":20},"transliteration":{"text":"bishararin","language_name":"english","language_id":38}},{"id":34753,"position":4,"audio_url":"wbw/077_032_004.mp3","char_type_name":"word","page_number":581,"line_number":7,"text":"كَٱلْقَصْرِ","translation":{"text":"প্রাসাদের ন্যায়","language_name":"bengali","language_id":20},"transliteration":{"text":"kal-qaṣri","language_name":"english","language_id":38}},{"id":34754,"position":5,"audio_url":null,"char_type_name":"end","page_number":581,"line_number":7,"text":"٣٢","translation":{"text":"(৩২)","language_name":"bengali","language_id":20},"transliteration":{"text":null,"language_name":"english","language_id":38}}]},{"id":5655,"verse_number":33,"verse_key":"77:33","hizb_number":58,"rub_el_hizb_number":232,"ruku_number":518,"manzil_number":7,"sajdah_number":null,"page_number":581,"juz_number":29,"words":[{"id":35562,"position":1,"audio_url":"wbw/077_033_001.mp3","char_type_name":"word","page_number":581,"line_number":7,"text":"كَأَنَّهُۥ","translation":{"text":"তা যেন","language_name":"bengali","language_id":20},"transliteration":{"text":"ka-annahu","language_name":"english","language_id":38}},{"id":35563,"position":2,"audio_url":"wbw/077_033_002.mp3","char_type_name":"word","page_number":581,"line_number":7,"text":"جِمَـٰلَتٌۭ","translation":{"text":"উট সমূহ","language_name":"bengali","language_id":20},"transliteration":{"text":"jimālatun","language_name":"english","language_id":38}},{"id":35564,"position":3,"audio_url":"wbw/077_033_003.mp3","char_type_name":"word","page_number":581,"line_number":7,"text":"صُفْرٌۭ","translation":{"text":"হলুদ বর্ণের","language_name":"bengali","language_id":20},"transliteration":{"text":"ṣuf'run","language_name":"english","language_id":38}},{"id":35565,"position":4,"audio_url":null,"char_type_name":"end","page_number":581,"line_number":7,"text":"٣٣","translation":{"text":"(৩৩)","language_name":"bengali","language_id":20},"transliteration":{"text":null,"language_name":"english","language_id":38}}]},{"id":5656,"verse_number":34,"verse_key":"77:34","hizb_number":58,"rub_el_hizb_number":232,"ruku_number":518,"manzil_number":7,"sajdah_number":null,"page_number":581,"juz_number":29,"words":[{"id":36427,"position":1,"audio_url":"wbw/077_034_001.mp3","char_type_name":"word","page_number":581,"line_number":7,"text":"وَيْلٌۭ","translation":{"text":"ধ্বংস","language_name":"bengali","language_id":20},"transliteration":{"text":"waylun","language_name":"english","language_id":38}},{"id":36428,"position":2,"audio_url":"wbw/077_034_002.mp3","char_type_name":"word","page_number":581,"line_number":7,"text":"يَوْمَئِذٍۢ","translation":{"text":"সেদিন","language_name":"bengali","language_id":20},"transliteration":{"text":"yawma-idhin","language_name":"english","language_id":38}},{"id":36429,"position":3,"audio_url":"wbw/077_034_003.mp3","char_type_name":"word","page_number":581,"line_number":7,"text":"لِّلْمُكَذِّبِينَ","translation":{"text":"মিথ্যারোপকারিদের জন্যে","language_name":"bengali","language_id":20},"transliteration":{"text":"lil'mukadhibīna","language_name":"english","language_id":38}},{"id":36430,"position":4,"audio_url":null,"char_type_name":"end","page_number":581,"line_number":7,"text":"٣٤","translation":{"text":"(৩৪)","language_name":"bengali","language_id":20},"transliteration":{"text":null,"language_name":"english","language_id":38}}]},{"id":5657,"verse_number":35,"verse_key":"77:35","hizb_number":58,"rub_el_hizb_number":232,"ruku_number":518,"manzil_number":7,"sajdah_number":null,"page_number":581,"juz_number":29,"words":[{"id":37271,"position":1,"audio_url":"wbw/077_035_001.mp3","char_type_name":"word","page_number":581,"line_number":8,"text":"هَـٰذَا","translation":{"text":"(সেই) এই","language_name":"bengali","language_id":20},"transliteration":{"text":"hādhā","language_name":"english","language_id":38}},{"id":37272,"position":2,"audio_url":"wbw/077_035_002.mp3","char_type_name":"word","page_number":581,"line_number":8,"text":"يَوْمُ","translation":{"text":"দিন","language_name":"bengali","language_id":20},"transliteration":{"text":"yawmu","language_name":"english","language_id":38}},{"id":37273,"position":3,"audio_url":"wbw/077_035_003.mp3","char_type_name":"word","page_number":581,"line_number":8,"text":"لَا","translation":{"text":"না","language_name":"bengali","language_id":20},"transliteration":{"text":"lā","language_name":"english","language_id":38}},{"id":37274,"position":4,"audio_url":"wbw/077_035_004.mp3","char_type_name":"word","page_number":581,"line_number":8,"text":"يَنطِقُونَ","translation":{"text":"তোমরা কথা বলবে","language_name":"bengali","language_id":20},"transliteration":{"text":"yanṭiqūna","language_name":"english","language_id":38}},{"id":37275,"position":5,"audio_url":null,"char_type_name":"end","page_number":581,"line_number":8,"text":"٣٥","translation":{"text":"(৩৫)","language_name":"bengali","language_id":20},"transliteration":{"text":null,"language_name":"english","language_id":38}}]},{"id":5658,"verse_number":36,"verse_key":"77:36","hizb_number":58,"rub_el_hizb_number":232,"ruku_number":518,"manzil_number":7,"sajdah_number":null,"page_number":581,"juz_number":29,"words":[{"id":38121,"position":1,"audio_url":"wbw/077_036_001.mp3","char_type_name":"word","page_number":581,"line_number":8,"text":"وَلَا","translation":{"text":"না আর","language_name":"bengali","language_id":20},"transliteration":{"text":"walā","language_name":"english","language_id":38}},{"id":38122,"position":2,"audio_url":"wbw/077_036_002.mp3","char_type_name":"word","page_number":581,"line_number":8,"text":"يُؤْذَنُ","translation":{"text":"অনুুমতি দেওয়া হবে","language_name":"bengali","language_id":20},"transliteration":{"text":"yu'dhanu","language_name":"english","language_id":38}},{"id":38123,"position":3,"audio_url":"wbw/077_036_003.mp3","char_type_name":"word","page_number":581,"line_number":8,"text":"لَهُمْ","translation":{"text":"তাদের কে","language_name":"bengali","language_id":20},"transliteration":{"text":"lahum","language_name":"english","language_id":38}},{"id":38124,"position":4,"audio_url":"wbw/077_036_004.mp3","char_type_name":"word","page_number":581,"line_number":8,"text":"فَيَعْتَذِرُونَ","translation":{"text":"তারা ওজর পেশ যে করবে","language_name":"bengali","language_id":20},"transliteration":{"text":"fayaʿtadhirūna","language_name":"english","language_id":38}},{"id":38125,"position":5,"audio_url":null,"char_type_name":"end","page_number":581,"line_number":8,"text":"٣٦","translation":{"text":"(৩৬)","language_name":"bengali","language_id":20},"transliteration":{"text":null,"language_name":"english","language_id":38}}]},{"id":5659,"verse_number":37,"verse_key":"77:37","hizb_number":58,"rub_el_hizb_number":232,"ruku_number":518,"manzil_number":7,"sajdah_number":null,"page_number":581,"juz_number":29,"words":[{"id":38877,"position":1,"audio_url":"wbw/077_037_001.mp3","char_type_name":"word","page_number":581,"line_number":8,"text":"وَيْلٌۭ","translation":{"text":"ধ্বংস","language_name":"bengali","language_id":20},"transliteration":{"text":"waylun","language_name":"english","language_id":38}},{"id":38878,"position":2,"audio_url":"wbw/077_037_002.mp3","char_type_name":"word","page_number":581,"line_number":8,"text":"يَوْمَئِذٍۢ","translation":{"text":"সেই দিন","language_name":"bengali","language_id":20},"transliteration":{"text":"yawma-idhin","language_name":"english","language_id":38}},{"id":38879,"position":3,"audio_url":"wbw/077_037_003.mp3","char_type_name":"word","page_number":581,"line_number":9,"text":"لِّلْمُكَذِّبِينَ","translation":{"text":"মিথ্যারপকারীদের জন্যে","language_name":"bengali","language_id":20},"transliteration":{"text":"lil'mukadhibīna","language_name":"english","language_id":38}},{"id":38880,"position":4,"audio_url":null,"char_type_name":"end","page_number":581,"line_number":9,"text":"٣٧","translation":{"text":"(৩৭)","language_name":"bengali","language_id":20},"transliteration":{"text":null,"language_name":"english","language_id":38}}]},{"id":5660,"verse_number":38,"verse_key":"77:38","hizb_number":58,"rub_el_hizb_number":232,"ruku_number":518,"manzil_number":7,"sajdah_number":null,"page_number":581,"juz_number":29,"words":[{"id":39516,"position":1,"audio_url":"wbw/077_038_001.mp3","char_type_name":"word","page_number":581,"line_number":9,"text":"هَـٰذَا","translation":{"text":"এটা","language_name":"bengali","language_id":20},"transliteration":{"text":"hādhā","language_name":"english","language_id":38}},{"id":39517,"position":2,"audio_url":"wbw/077_038_002.mp3","char_type_name":"word","page_number":581,"line_number":9,"text":"يَوْمُ","translation":{"text":"দিন","language_name":"bengali","language_id":20},"transliteration":{"text":"yawmu","language_name":"english","language_id":38}},{"id":39518,"position":3,"audio_url":"wbw/077_038_003.mp3","char_type_name":"word","page_number":581,"line_number":9,"text":"ٱلْفَصْلِ ۖ","translation":{"text":"ফয়সালার","language_name":"bengali","language_id":20},"transliteration":{"text":"l-faṣli","language_name":"english","language_id":38}},{"id":39520,"position":4,"audio_url":"wbw/077_038_005.mp3","char_type_name":"word","page_number":581,"line_number":9,"text":"جَمَعْنَـٰكُمْ","translation":{"text":"তোমাদেরকে আমরা একত্র করেছি","language_name":"bengali","language_id":20},"transliteration":{"text":"jamaʿnākum","language_name":"english","language_id":38}},{"id":39521,"position":5,"audio_url":"wbw/077_038_006.mp3","char_type_name":"word","page_number":581,"line_number":9,"text":"وَٱلْأَوَّلِينَ","translation":{"text":"ও (তোমাদের) পূর্ববতীদেরকে","language_name":"bengali","language_id":20},"transliteration":{"text":"wal-awalīna","language_name":"english","language_id":38}},{"id":39522,"position":6,"audio_url":null,"char_type_name":"end","page_number":581,"line_number":9,"text":"٣٨","translation":{"text":"(৩৮)","language_name":"bengali","language_id":20},"transliteration":{"text":null,"language_name":"english","language_id":38}}]},{"id":5661,"verse_number":39,"verse_key":"77:39","hizb_number":58,"rub_el_hizb_number":232,"ruku_number":518,"manzil_number":7,"sajdah_number":null,"page_number":581,"juz_number":29,"words":[{"id":40577,"position":1,"audio_url":"wbw/077_039_001.mp3","char_type_name":"word","page_number":581,"line_number":9,"text":"فَإِن","translation":{"text":"যদি এখন","language_name":"bengali","language_id":20},"transliteration":{"text":"fa-in","language_name":"english","language_id":38}},{"id":40578,"position":2,"audio_url":"wbw/077_039_002.mp3","char_type_name":"word","page_number":581,"line_number":9,"text":"كَانَ","translation":{"text":"হয় (সম্ভব)","language_name":"bengali","language_id":20},"transliteration":{"text":"kāna","language_name":"english","language_id":38}},{"id":40579,"position":3,"audio_url":"wbw/077_039_003.mp3","char_type_name":"word","page_number":581,"line_number":10,"text":"لَكُمْ","translation":{"text":"তোমাদের পক্ষে","language_name":"bengali","language_id":20},"transliteration":{"text":"lakum","language_name":"english","language_id":38}},{"id":40580,"position":4,"audio_url":"wbw/077_039_004.mp3","char_type_name":"word","page_number":581,"line_number":10,"text":"كَيْدٌۭ","translation":{"text":"কোন কৌশল","language_name":"bengali","language_id":20},"transliteration":{"text":"kaydun","language_name":"english","language_id":38}},{"id":40581,"position":5,"audio_url":"wbw/077_039_005.mp3","char_type_name":"word","page_number":581,"line_number":10,"text":"فَكِيدُونِ","translation":{"text":"তোমরা কৌশল করো তবে","language_name":"bengali","language_id":20},"transliteration":{"text":"fakīdūni","language_name":"english","language_id":38}},{"id":40582,"position":6,"audio_url":null,"char_type_name":"end","page_number":581,"line_number":10,"text":"٣٩","translation":{"text":"(৩৯)","language_name":"bengali","language_id":20},"transliteration":{"text":null,"language_name":"english","language_id":38}}]},{"id":5662,"verse_number":40,"verse_key":"77:40","hizb_number":58,"rub_el_hizb_number":232,"ruku_number":518,"manzil_number":7,"sajdah_number":null,"page_number":581,"juz_number":29,"words":[{"id":41469,"position":1,"audio_url":"wbw/077_040_001.mp3","char_type_name":"word","page_number":581,"line_number":10,"text":"وَيْلٌۭ","translation":{"text":"ধ্বংস","language_name":"bengali","language_id":20},"transliteration":{"text":"waylun","language_name":"english","language_id":38}},{"id":41470,"position":2,"audio_url":"wbw/077_040_002.mp3","char_type_name":"word","page_number":581,"line_number":10,"text":"يَوْمَئِذٍۢ","translation":{"text":"সেদিন","language_name":"bengali","language_id":20},"transliteration":{"text":"yawma-idhin","language_name":"english","language_id":38}},{"id":41471,"position":3,"audio_url":"wbw/077_040_003.mp3","char_type_name":"word","page_number":581,"line_number":10,"text":"لِّلْمُكَذِّبِينَ","translation":{"text":"মিথ্যারপকারিদের জন্যে","language_name":"bengali","language_id":20},"transliteration":{"text":"lil'mukadhibīna","language_name":"english","language_id":38}},{"id":41472,"position":4,"audio_url":null,"char_type_name":"end","page_number":581,"line_number":10,"text":"٤٠","translation":{"text":"(৪০)","language_name":"bengali","language_id":20},"transliteration":{"text":null,"language_name":"english","language_id":38}}]}],"pagination":{"per_page":10,"current_page":4,"next_page":5,"total_pages":5,"total_records":50}}
