{"verses":[{"id":1801,"verse_number":51,"verse_key":"14:51","hizb_number":26,"rub_el_hizb_number":104,"ruku_number":217,"manzil_number":3,"sajdah_number":null,"page_number":261,"juz_number":13,"words":[{"id":49564,"position":1,"audio_url":"wbw/014_051_001.mp3","char_type_name":"word","page_number":261,"line_number":13,"text":"لِيَجْزِىَ","translation":{"text":"যেন প্রতিফল দেন","language_name":"bengali","language_id":20},"transliteration":{"text":"liyajziya","language_name":"english","language_id":38}},{"id":49565,"position":2,"audio_url":"wbw/014_051_002.mp3","char_type_name":"word","page_number":261,"line_number":13,"text":"ٱللَّهُ","translation":{"text":"আল্লাহ","language_name":"bengali","language_id":20},"transliteration":{"text":"l-lahu","language_name":"english","language_id":38}},{"id":49566,"position":3,"audio_url":"wbw/014_051_003.mp3","char_type_name":"word","page_number":261,"line_number":13,"text":"كُلَّ","translation":{"text":"প্রত্যেক","language_name":"bengali","language_id":20},"transliteration":{"text":"kulla","language_name":"english","language_id":38}},{"id":49567,"position":4,"audio_url":"wbw/014_051_004.mp3","char_type_name":"word","page_number":261,"line_number":13,"text":"نَفْسٍۢ","translation":{"text":"ব্যক্তিকে","language_name":"bengali","language_id":20},"transliteration":{"text":"nafsin","language_name":"english","language_id":38}},{"id":49568,"position":5,"audio_url":"wbw/014_051_005.mp3","char_type_name":"word","page_number":261,"line_number":13,"text":"مَّا","translation":{"text":"যা","language_name":"bengali","language_id":20},"transliteration":{"text":"mā","language_name":"english","language_id":38}},{"id":49569,"position":6,"audio_url":"wbw/014_051_006.mp3","char_type_name":"word","page_number":261,"line_number":13,"text":"كَسَبَتْ ۚ","translation":{"text":"সে উপার্জন করেছে","language_name":"bengali","language_id":20},"transliteration":{"text":"kasabat","language_name":"english","language_id":38}},{"id":49571,"position":7,"audio_url":"wbw/014_051_008.mp3","char_type_name":"word","page_number":261,"line_number":14,"text":"إِنَّ","translation":{"text":"নিশ্চয়ই","language_name":"bengali","language_id":20},"transliteration":{"text":"inna","language_name":"english","language_id":38}},{"id":49572,"position":8,"audio_url":"wbw/014_051_009.mp3","char_type_name":"word","page_number":261,"line_number":14,"text":"ٱللَّهَ","translation":{"text":"আল্লাহ","language_name":"bengali","language_id":20},"transliteration":{"text":"l-laha","language_name":"english","language_id":38}},{"id":49573,"position":9,"audio_url":"wbw/014_051_010.mp3","char_type_name":"word","page_number":261,"line_number":14,"text":"سَرِيعُ","translation":{"text":"দ্রুত","language_name":"bengali","language_id":20},"transliteration":{"text":"sarīʿu","language_name":"english","language_id":38}},{"id":49574,"position":10,"audio_url":"wbw/014_051_011.mp3","char_type_name":"word","page_number":261,"line_number":14,"text":"ٱلْحِسَابِ","translation":{"text":"হিসেব গ্রহণে","language_name":"bengali","language_id":20},"transliteration":{"text":"l-ḥisābi","language_name":"english","language_id":38}},{"id":49575,"position":11,"audio_url":null,"char_type_name":"end","page_number":261,"line_number":14,"text":"٥١","translation":{"text":"(৫১)","language_name":"bengali","language_id":20},"transliteration":{"text":null,"language_name":"english","language_id":38}}]},{"id":1802,"verse_number":52,"verse_key":"14:52","hizb_number":26,"rub_el_hizb_number":104,"ruku_number":217,"manzil_number":3,"sajdah_number":null,"page_number":261,"juz_number":13,"words":[{"id":50238,"position":1,"audio_url":"wbw/014_052_001.mp3","char_type_name":"word","page_number":261,"line_number":14,"text":"هَـٰذَا","translation":{"text":"এটা","language_name":"bengali","language_id":20},"transliteration":{"text":"hādhā","language_name":"english","language_id":38}},{"id":50239,"position":2,"audio_url":"wbw/014_052_002.mp3","char_type_name":"word","page_number":261,"line_number":14,"text":"بَلَـٰغٌۭ","translation":{"text":"এক বার্তা","language_name":"bengali","language_id":20},"transliteration":{"text":"balāghun","language_name":"english","language_id":38}},{"id":50240,"position":3,"audio_url":"wbw/014_052_003.mp3","char_type_name":"word","page_number":261,"line_number":14,"text":"لِّلنَّاسِ","translation":{"text":"মানুষের জন্যে","language_name":"bengali","language_id":20},"transliteration":{"text":"lilnnāsi","language_name":"english","language_id":38}},{"id":50241,"position":4,"audio_url":"wbw/014_052_004.mp3","char_type_name":"word","page_number":261,"line_number":14,"text":"وَلِيُنذَرُوا۟","translation":{"text":"এবং তাদের যেন সতর্ক করা হয়","language_name":"bengali","language_id":20},"transliteration":{"text":"waliyundharū","language_name":"english","language_id":38}},{"id":50242,"position":5,"audio_url":"wbw/014_052_005.mp3","char_type_name":"word","page_number":261,"line_number":14,"text":"بِهِۦ","translation":{"text":"দিয়ে তা","language_name":"bengali","language_id":20},"transliteration":{"text":"bihi","language_name":"english","language_id":38}},{"id":50243,"position":6,"audio_url":"wbw/014_052_006.mp3","char_type_name":"word","page_number":261,"line_number":15,"text":"وَلِيَعْلَمُوٓا۟","translation":{"text":"এবং যেন তারা জানে","language_name":"bengali","language_id":20},"transliteration":{"text":"waliyaʿlamū","language_name":"english","language_id":38}},{"id":50244,"position":7,"audio_url":"wbw/014_052_007.mp3","char_type_name":"word","page_number":261,"line_number":15,"text":"أَنَّمَا","translation":{"text":"প্রকৃতপক্ষে","language_name":"bengali","language_id":20},"transliteration":{"text":"annamā","language_name":"english","language_id":38}},{"id":50245,"position":8,"audio_url":"wbw/014_052_008.mp3","char_type_name":"word","page_number":261,"line_number":15,"text":"هُوَ","translation":{"text":"তিনিই","language_name":"bengali","language_id":20},"transliteration":{"text":"huwa","language_name":"english","language_id":38}},{"id":50246,"position":9,"audio_url":"wbw/014_052_009.mp3","char_type_name":"word","page_number":261,"line_number":15,"text":"إِلَـٰهٌۭ","translation":{"text":"ইলাহ","language_name":"bengali","language_id":20},"transliteration":{"text":"ilāhun","language_name":"english","language_id":38}},{"id":50247,"position":10,"audio_url":"wbw/014_052_010.mp3","char_type_name":"word","page_number":261,"line_number":15,"text":"وَٰحِدٌۭ","translation":{"text":"একমাত্র","language_name":"bengali","language_id":20},"transliteration":{"text":"wāḥidun","language_name":"english","language_id":38}},{"id":50248,"position":11,"audio_url":"wbw/014_052_011.mp3","char_type_name":"word","page_number":261,"line_number":15,"text":"وَلِيَذَّكَّرَ","translation":{"text":"ও যেন শিক্ষা গ্রহণ করে","language_name":"bengali","language_id":20},"transliteration":{"text":"waliyadhakkara","language_name":"english","language_id":38}},{"id":50249,"position":12,"audio_url":"wbw/014_052_012.mp3","char_type_name":"word","page_number":261,"line_number":15,"text":"أُو۟لُوا۟","translation":{"text":"সম্পন্নরা","language_name":"bengali","language_id":20},"transliteration":{"text":"ulū","language_name":"english","language_id":38}},{"id":50250,"position":13,"audio_url":"wbw/014_052_013.mp3","char_type_name":"word","page_number":261,"line_number":15,"text":"ٱلْأَلْبَـٰبِ","translation":{"text":"বোধ (লোকেরা)","language_name":"bengali","language_id":20},"transliteration":{"text":"l-albābi","language_name":"english","language_id":38}},{"id":50251,"position":14,"audio_url":null,"char_type_name":"end","page_number":261,"line_number":15,"text":"٥٢","translation":{"text":"(৫২)","language_name":"bengali","language_id":20},"transliteration":{"text":null,"language_name":"english","language_id":38}}]}],"pagination":{"per_page":10,"current_page":6,"next_page":null,"total_pages":6,"total_records":52}}
