{"verses":[{"id":5125,"verse_number":21,"verse_key":"58:21","hizb_number":55,"rub_el_hizb_number":218,"ruku_number":480,"manzil_number":7,"sajdah_number":null,"page_number":544,"juz_number":28,"words":[{"id":23813,"position":1,"audio_url":"wbw/058_021_001.mp3","verse_key":"58:21","verse_id":5125,"location":"58:21:1","text_uthmani":"كَتَبَ","qpc_uthmani_hafs":"كَتَبَ","char_type_name":"word","page_number":544,"line_number":15,"text":"كَتَبَ","translation":{"text":"লিখে দিয়েছেন","language_name":"bengali","language_id":20},"transliteration":{"text":"kataba","language_name":"english","language_id":38}},{"id":23814,"position":2,"audio_url":"wbw/058_021_002.mp3","verse_key":"58:21","verse_id":5125,"location":"58:21:2","text_uthmani":"ٱللَّهُ","qpc_uthmani_hafs":"ٱللَّهُ","char_type_name":"word","page_number":544,"line_number":15,"text":"ٱللَّهُ","translation":{"text":"আল্লাহ্‌","language_name":"bengali","language_id":20},"transliteration":{"text":"l-lahu","language_name":"english","language_id":38}},{"id":23815,"position":3,"audio_url":"wbw/058_021_003.mp3","verse_key":"58:21","verse_id":5125,"location":"58:21:3","text_uthmani":"لَأَغْلِبَنَّ","qpc_uthmani_hafs":"لَأَغۡلِبَنَّ","char_type_name":"word","page_number":544,"line_number":15,"text":"لَأَغۡلِبَنَّ","translation":{"text":"\"অবশ্যই বিজয়ী হব","language_name":"bengali","language_id":20},"transliteration":{"text":"la-aghlibanna","language_name":"english","language_id":38}},{"id":23816,"position":4,"audio_url":"wbw/058_021_004.mp3","verse_key":"58:21","verse_id":5125,"location":"58:21:4","text_uthmani":"أَنَا۠","qpc_uthmani_hafs":"أَنَا۠","char_type_name":"word","page_number":544,"line_number":15,"text":"أَنَا۠","translation":{"text":"আমি","language_name":"bengali","language_id":20},"transliteration":{"text":"anā","language_name":"english","language_id":38}},{"id":23817,"position":5,"audio_url":"wbw/058_021_005.mp3","verse_key":"58:21","verse_id":5125,"location":"58:21:5","text_uthmani":"وَرُسُلِىٓ ۚ","qpc_uthmani_hafs":"وَرُسُلِيٓۚ","char_type_name":"word","page_number":544,"line_number":15,"text":"وَرُسُلِيٓۚ","translation":{"text":"ও আমার রাসূলরা\"","language_name":"bengali","language_id":20},"transliteration":{"text":"warusulī","language_name":"english","language_id":38}},{"id":23819,"position":6,"audio_url":"wbw/058_021_007.mp3","verse_key":"58:21","verse_id":5125,"location":"58:21:6","text_uthmani":"إِنَّ","qpc_uthmani_hafs":"إِنَّ","char_type_name":"word","page_number":544,"line_number":15,"text":"إِنَّ","translation":{"text":"নিশ্চয়ই","language_name":"bengali","language_id":20},"transliteration":{"text":"inna","language_name":"english","language_id":38}},{"id":23820,"position":7,"audio_url":"wbw/058_021_008.mp3","verse_key":"58:21","verse_id":5125,"location":"58:21:7","text_uthmani":"ٱللَّهَ","qpc_uthmani_hafs":"ٱللَّهَ","char_type_name":"word","page_number":544,"line_number":15,"text":"ٱللَّهَ","translation":{"text":"আল্লাহ্‌","language_name":"bengali","language_id":20},"transliteration":{"text":"l-laha","language_name":"english","language_id":38}},{"id":23821,"position":8,"audio_url":"wbw/058_021_009.mp3","verse_key":"58:21","verse_id":5125,"location":"58:21:8","text_uthmani":"قَوِىٌّ","qpc_uthmani_hafs":"قَوِيٌّ","char_type_name":"word","page_number":544,"line_number":15,"text":"قَوِيٌّ","translation":{"text":"শক্তিধর","language_name":"bengali","language_id":20},"transliteration":{"text":"qawiyyun","language_name":"english","language_id":38}},{"id":23822,"position":9,"audio_url":"wbw/058_021_010.mp3","verse_key":"58:21","verse_id":5125,"location":"58:21:9","text_uthmani":"عَزِيزٌۭ","qpc_uthmani_hafs":"عَزِيزٞ","char_type_name":"word","page_number":544,"line_number":15,"text":"عَزِيزٞ","translation":{"text":"পরাক্রমশালী","language_name":"bengali","language_id":20},"transliteration":{"text":"ʿazīzun","language_name":"english","language_id":38}},{"id":23823,"position":10,"audio_url":null,"verse_key":"58:21","verse_id":5125,"location":"58:21:10","text_uthmani":"٢١","qpc_uthmani_hafs":"٢١","char_type_name":"end","page_number":544,"line_number":15,"text":"٢١","translation":{"text":"(২১)","language_name":"bengali","language_id":20},"transliteration":{"text":null,"language_name":"english","language_id":38}}]},{"id":5126,"verse_number":22,"verse_key":"58:22","hizb_number":55,"rub_el_hizb_number":218,"ruku_number":480,"manzil_number":7,"sajdah_number":null,"page_number":545,"juz_number":28,"words":[{"id":24778,"position":1,"audio_url":"wbw/058_022_001.mp3","verse_key":"58:22","verse_id":5126,"location":"58:22:1","text_uthmani":"لَّا","qpc_uthmani_hafs":"لَّا","char_type_name":"word","page_number":545,"line_number":1,"text":"لَّا","translation":{"text":"না","language_name":"bengali","language_id":20},"transliteration":{"text":"lā","language_name":"english","language_id":38}},{"id":24779,"position":2,"audio_url":"wbw/058_022_002.mp3","verse_key":"58:22","verse_id":5126,"location":"58:22:2","text_uthmani":"تَجِدُ","qpc_uthmani_hafs":"تَجِدُ","char_type_name":"word","page_number":545,"line_number":1,"text":"تَجِدُ","translation":{"text":"পাবে তুমি","language_name":"bengali","language_id":20},"transliteration":{"text":"tajidu","language_name":"english","language_id":38}},{"id":24780,"position":3,"audio_url":"wbw/058_022_003.mp3","verse_key":"58:22","verse_id":5126,"location":"58:22:3","text_uthmani":"قَوْمًۭا","qpc_uthmani_hafs":"قَوۡمٗا","char_type_name":"word","page_number":545,"line_number":1,"text":"قَوۡمٗا","translation":{"text":"সম্প্রদায়কে (এমন যে)","language_name":"bengali","language_id":20},"transliteration":{"text":"qawman","language_name":"english","language_id":38}},{"id":24781,"position":4,"audio_url":"wbw/058_022_004.mp3","verse_key":"58:22","verse_id":5126,"location":"58:22:4","text_uthmani":"يُؤْمِنُونَ","qpc_uthmani_hafs":"يُؤۡمِنُونَ","char_type_name":"word","page_number":545,"line_number":1,"text":"يُؤۡمِنُونَ","translation":{"text":"বিশ্বাস করে","language_name":"bengali","language_id":20},"transliteration":{"text":"yu'minūna","language_name":"english","language_id":38}},{"id":24782,"position":5,"audio_url":"wbw/058_022_005.mp3","verse_key":"58:22","verse_id":5126,"location":"58:22:5","text_uthmani":"بِٱللَّهِ","qpc_uthmani_hafs":"بِٱللَّهِ","char_type_name":"word","page_number":545,"line_number":1,"text":"بِٱللَّهِ","translation":{"text":"আল্লাহ্‌র উপর","language_name":"bengali","language_id":20},"transliteration":{"text":"bil-lahi","language_name":"english","language_id":38}},{"id":24783,"position":6,"audio_url":"wbw/058_022_006.mp3","verse_key":"58:22","verse_id":5126,"location":"58:22:6","text_uthmani":"وَٱلْيَوْمِ","qpc_uthmani_hafs":"وَٱلۡيَوۡمِ","char_type_name":"word","page_number":545,"line_number":1,"text":"وَٱلۡيَوۡمِ","translation":{"text":"ও উপর দিনের","language_name":"bengali","language_id":20},"transliteration":{"text":"wal-yawmi","language_name":"english","language_id":38}},{"id":24784,"position":7,"audio_url":"wbw/058_022_007.mp3","verse_key":"58:22","verse_id":5126,"location":"58:22:7","text_uthmani":"ٱلْـَٔاخِرِ","qpc_uthmani_hafs":"ٱلۡأٓخِرِ","char_type_name":"word","page_number":545,"line_number":1,"text":"ٱلۡأٓخِرِ","translation":{"text":"শেষ","language_name":"bengali","language_id":20},"transliteration":{"text":"l-ākhiri","language_name":"english","language_id":38}},{"id":24785,"position":8,"audio_url":"wbw/058_022_008.mp3","verse_key":"58:22","verse_id":5126,"location":"58:22:8","text_uthmani":"يُوَآدُّونَ","qpc_uthmani_hafs":"يُوَآدُّونَ","char_type_name":"word","page_number":545,"line_number":1,"text":"يُوَآدُّونَ","translation":{"text":"(আবার তারা) বন্ধুত্বও করে","language_name":"bengali","language_id":20},"transliteration":{"text":"yuwāddūna","language_name":"english","language_id":38}},{"id":24786,"position":9,"audio_url":"wbw/058_022_009.mp3","verse_key":"58:22","verse_id":5126,"location":"58:22:9","text_uthmani":"مَنْ","qpc_uthmani_hafs":"مَنۡ","char_type_name":"word","page_number":545,"line_number":1,"text":"مَنۡ","translation":{"text":"(তাদের সাথে) যারা","language_name":"bengali","language_id":20},"transliteration":{"text":"man","language_name":"english","language_id":38}},{"id":24787,"position":10,"audio_url":"wbw/058_022_010.mp3","verse_key":"58:22","verse_id":5126,"location":"58:22:10","text_uthmani":"حَآدَّ","qpc_uthmani_hafs":"حَآدَّ","char_type_name":"word","page_number":545,"line_number":1,"text":"حَآدَّ","translation":{"text":"বিরোধিতা করে","language_name":"bengali","language_id":20},"transliteration":{"text":"ḥādda","language_name":"english","language_id":38}},{"id":24788,"position":11,"audio_url":"wbw/058_022_011.mp3","verse_key":"58:22","verse_id":5126,"location":"58:22:11","text_uthmani":"ٱللَّهَ","qpc_uthmani_hafs":"ٱللَّهَ","char_type_name":"word","page_number":545,"line_number":2,"text":"ٱللَّهَ","translation":{"text":"আল্লাহ্‌র","language_name":"bengali","language_id":20},"transliteration":{"text":"l-laha","language_name":"english","language_id":38}},{"id":24789,"position":12,"audio_url":"wbw/058_022_012.mp3","verse_key":"58:22","verse_id":5126,"location":"58:22:12","text_uthmani":"وَرَسُولَهُۥ","qpc_uthmani_hafs":"وَرَسُولَهُۥ","char_type_name":"word","page_number":545,"line_number":2,"text":"وَرَسُولَهُۥ","translation":{"text":"ও তাঁর রাসূলের","language_name":"bengali","language_id":20},"transliteration":{"text":"warasūlahu","language_name":"english","language_id":38}},{"id":24790,"position":13,"audio_url":"wbw/058_022_013.mp3","verse_key":"58:22","verse_id":5126,"location":"58:22:13","text_uthmani":"وَلَوْ","qpc_uthmani_hafs":"وَلَوۡ","char_type_name":"word","page_number":545,"line_number":2,"text":"وَلَوۡ","translation":{"text":"এবং যদিও","language_name":"bengali","language_id":20},"transliteration":{"text":"walaw","language_name":"english","language_id":38}},{"id":24791,"position":14,"audio_url":"wbw/058_022_014.mp3","verse_key":"58:22","verse_id":5126,"location":"58:22:14","text_uthmani":"كَانُوٓا۟","qpc_uthmani_hafs":"كَانُوٓاْ","char_type_name":"word","page_number":545,"line_number":2,"text":"كَانُوٓاْ","translation":{"text":"তারা হয়","language_name":"bengali","language_id":20},"transliteration":{"text":"kānū","language_name":"english","language_id":38}},{"id":24792,"position":15,"audio_url":"wbw/058_022_015.mp3","verse_key":"58:22","verse_id":5126,"location":"58:22:15","text_uthmani":"ءَابَآءَهُمْ","qpc_uthmani_hafs":"ءَابَآءَهُمۡ","char_type_name":"word","page_number":545,"line_number":2,"text":"ءَابَآءَهُمۡ","translation":{"text":"তাদের পিতা","language_name":"bengali","language_id":20},"transliteration":{"text":"ābāahum","language_name":"english","language_id":38}},{"id":24793,"position":16,"audio_url":"wbw/058_022_016.mp3","verse_key":"58:22","verse_id":5126,"location":"58:22:16","text_uthmani":"أَوْ","qpc_uthmani_hafs":"أَوۡ","char_type_name":"word","page_number":545,"line_number":2,"text":"أَوۡ","translation":{"text":"বা","language_name":"bengali","language_id":20},"transliteration":{"text":"aw","language_name":"english","language_id":38}},{"id":24794,"position":17,"audio_url":"wbw/058_022_017.mp3","verse_key":"58:22","verse_id":5126,"location":"58:22:17","text_uthmani":"أَبْنَآءَهُمْ","qpc_uthmani_hafs":"أَبۡنَآءَهُمۡ","char_type_name":"word","page_number":545,"line_number":2,"text":"أَبۡنَآءَهُمۡ","translation":{"text":"তাদের পুত্র","language_name":"bengali","language_id":20},"transliteration":{"text":"abnāahum","language_name":"english","language_id":38}},{"id":24795,"position":18,"audio_url":"wbw/058_022_018.mp3","verse_key":"58:22","verse_id":5126,"location":"58:22:18","text_uthmani":"أَوْ","qpc_uthmani_hafs":"أَوۡ","char_type_name":"word","page_number":545,"line_number":2,"text":"أَوۡ","translation":{"text":"বা","language_name":"bengali","language_id":20},"transliteration":{"text":"aw","language_name":"english","language_id":38}},{"id":24796,"position":19,"audio_url":"wbw/058_022_019.mp3","verse_key":"58:22","verse_id":5126,"location":"58:22:19","text_uthmani":"إِخْوَٰنَهُمْ","qpc_uthmani_hafs":"إِخۡوَٰنَهُمۡ","char_type_name":"word","page_number":545,"line_number":2,"text":"إِخۡوَٰنَهُمۡ","translation":{"text":"তাদের ভাইয়েরা","language_name":"bengali","language_id":20},"transliteration":{"text":"ikh'wānahum","language_name":"english","language_id":38}},{"id":24797,"position":20,"audio_url":"wbw/058_022_020.mp3","verse_key":"58:22","verse_id":5126,"location":"58:22:20","text_uthmani":"أَوْ","qpc_uthmani_hafs":"أَوۡ","char_type_name":"word","page_number":545,"line_number":3,"text":"أَوۡ","translation":{"text":"বা","language_name":"bengali","language_id":20},"transliteration":{"text":"aw","language_name":"english","language_id":38}},{"id":24798,"position":21,"audio_url":"wbw/058_022_021.mp3","verse_key":"58:22","verse_id":5126,"location":"58:22:21","text_uthmani":"عَشِيرَتَهُمْ ۚ","qpc_uthmani_hafs":"عَشِيرَتَهُمۡۚ","char_type_name":"word","page_number":545,"line_number":3,"text":"عَشِيرَتَهُمۡۚ","translation":{"text":"তাদের জাতি-গোত্র","language_name":"bengali","language_id":20},"transliteration":{"text":"ʿashīratahum","language_name":"english","language_id":38}},{"id":24800,"position":22,"audio_url":"wbw/058_022_023.mp3","verse_key":"58:22","verse_id":5126,"location":"58:22:22","text_uthmani":"أُو۟لَـٰٓئِكَ","qpc_uthmani_hafs":"أُوْلَٰٓئِكَ","char_type_name":"word","page_number":545,"line_number":3,"text":"أُوْلَٰٓئِكَ","translation":{"text":"ঐসব লোক (আল্লাহ)","language_name":"bengali","language_id":20},"transliteration":{"text":"ulāika","language_name":"english","language_id":38}},{"id":24801,"position":23,"audio_url":"wbw/058_022_024.mp3","verse_key":"58:22","verse_id":5126,"location":"58:22:23","text_uthmani":"كَتَبَ","qpc_uthmani_hafs":"كَتَبَ","char_type_name":"word","page_number":545,"line_number":3,"text":"كَتَبَ","translation":{"text":"সুদৃঢ় করে দিয়েছেন","language_name":"bengali","language_id":20},"transliteration":{"text":"kataba","language_name":"english","language_id":38}},{"id":24802,"position":24,"audio_url":"wbw/058_022_025.mp3","verse_key":"58:22","verse_id":5126,"location":"58:22:24","text_uthmani":"فِى","qpc_uthmani_hafs":"فِي","char_type_name":"word","page_number":545,"line_number":3,"text":"فِي","translation":{"text":"মধ্যে","language_name":"bengali","language_id":20},"transliteration":{"text":"fī","language_name":"english","language_id":38}},{"id":24803,"position":25,"audio_url":"wbw/058_022_026.mp3","verse_key":"58:22","verse_id":5126,"location":"58:22:25","text_uthmani":"قُلُوبِهِمُ","qpc_uthmani_hafs":"قُلُوبِهِمُ","char_type_name":"word","page_number":545,"line_number":3,"text":"قُلُوبِهِمُ","translation":{"text":"তাদের অন্তর সমূহের","language_name":"bengali","language_id":20},"transliteration":{"text":"qulūbihimu","language_name":"english","language_id":38}},{"id":24804,"position":26,"audio_url":"wbw/058_022_027.mp3","verse_key":"58:22","verse_id":5126,"location":"58:22:26","text_uthmani":"ٱلْإِيمَـٰنَ","qpc_uthmani_hafs":"ٱلۡإِيمَٰنَ","char_type_name":"word","page_number":545,"line_number":3,"text":"ٱلۡإِيمَٰنَ","translation":{"text":"ঈমান","language_name":"bengali","language_id":20},"transliteration":{"text":"l-īmāna","language_name":"english","language_id":38}},{"id":24805,"position":27,"audio_url":"wbw/058_022_028.mp3","verse_key":"58:22","verse_id":5126,"location":"58:22:27","text_uthmani":"وَأَيَّدَهُم","qpc_uthmani_hafs":"وَأَيَّدَهُم","char_type_name":"word","page_number":545,"line_number":3,"text":"وَأَيَّدَهُم","translation":{"text":"ও তাদের শক্তিশালী করেছেন","language_name":"bengali","language_id":20},"transliteration":{"text":"wa-ayyadahum","language_name":"english","language_id":38}},{"id":24806,"position":28,"audio_url":"wbw/058_022_029.mp3","verse_key":"58:22","verse_id":5126,"location":"58:22:28","text_uthmani":"بِرُوحٍۢ","qpc_uthmani_hafs":"بِرُوحٖ","char_type_name":"word","page_number":545,"line_number":4,"text":"بِرُوحٖ","translation":{"text":"রূহ দিয়ে","language_name":"bengali","language_id":20},"transliteration":{"text":"birūḥin","language_name":"english","language_id":38}},{"id":24807,"position":29,"audio_url":"wbw/058_022_030.mp3","verse_key":"58:22","verse_id":5126,"location":"58:22:29","text_uthmani":"مِّنْهُ ۖ","qpc_uthmani_hafs":"مِّنۡهُۖ","char_type_name":"word","page_number":545,"line_number":4,"text":"مِّنۡهُۖ","translation":{"text":"তাঁর পক্ষ হতে","language_name":"bengali","language_id":20},"transliteration":{"text":"min'hu","language_name":"english","language_id":38}},{"id":24809,"position":30,"audio_url":"wbw/058_022_032.mp3","verse_key":"58:22","verse_id":5126,"location":"58:22:30","text_uthmani":"وَيُدْخِلُهُمْ","qpc_uthmani_hafs":"وَيُدۡخِلُهُمۡ","char_type_name":"word","page_number":545,"line_number":4,"text":"وَيُدۡخِلُهُمۡ","translation":{"text":"এবং তাদেরকে প্রবেশ করাবেন","language_name":"bengali","language_id":20},"transliteration":{"text":"wayud'khiluhum","language_name":"english","language_id":38}},{"id":24810,"position":31,"audio_url":"wbw/058_022_033.mp3","verse_key":"58:22","verse_id":5126,"location":"58:22:31","text_uthmani":"جَنَّـٰتٍۢ","qpc_uthmani_hafs":"جَنَّٰتٖ","char_type_name":"word","page_number":545,"line_number":4,"text":"جَنَّٰتٖ","translation":{"text":"জান্নাতে","language_name":"bengali","language_id":20},"transliteration":{"text":"jannātin","language_name":"english","language_id":38}},{"id":24811,"position":32,"audio_url":"wbw/058_022_034.mp3","verse_key":"58:22","verse_id":5126,"location":"58:22:32","text_uthmani":"تَجْرِى","qpc_uthmani_hafs":"تَجۡرِي","char_type_name":"word","page_number":545,"line_number":4,"text":"تَجۡرِي","translation":{"text":"প্রবাহিত হয়","language_name":"bengali","language_id":20},"transliteration":{"text":"tajrī","language_name":"english","language_id":38}},{"id":24812,"position":33,"audio_url":"wbw/058_022_035.mp3","verse_key":"58:22","verse_id":5126,"location":"58:22:33","text_uthmani":"مِن","qpc_uthmani_hafs":"مِن","char_type_name":"word","page_number":545,"line_number":4,"text":"مِن","translation":{"text":"থেকে","language_name":"bengali","language_id":20},"transliteration":{"text":"min","language_name":"english","language_id":38}},{"id":24813,"position":34,"audio_url":"wbw/058_022_036.mp3","verse_key":"58:22","verse_id":5126,"location":"58:22:34","text_uthmani":"تَحْتِهَا","qpc_uthmani_hafs":"تَحۡتِهَا","char_type_name":"word","page_number":545,"line_number":4,"text":"تَحۡتِهَا","translation":{"text":"তার নিচ","language_name":"bengali","language_id":20},"transliteration":{"text":"taḥtihā","language_name":"english","language_id":38}},{"id":24814,"position":35,"audio_url":"wbw/058_022_037.mp3","verse_key":"58:22","verse_id":5126,"location":"58:22:35","text_uthmani":"ٱلْأَنْهَـٰرُ","qpc_uthmani_hafs":"ٱلۡأَنۡهَٰرُ","char_type_name":"word","page_number":545,"line_number":4,"text":"ٱلۡأَنۡهَٰرُ","translation":{"text":"ঝর্ণাধারা সমূহ","language_name":"bengali","language_id":20},"transliteration":{"text":"l-anhāru","language_name":"english","language_id":38}},{"id":24815,"position":36,"audio_url":"wbw/058_022_038.mp3","verse_key":"58:22","verse_id":5126,"location":"58:22:36","text_uthmani":"خَـٰلِدِينَ","qpc_uthmani_hafs":"خَٰلِدِينَ","char_type_name":"word","page_number":545,"line_number":5,"text":"خَٰلِدِينَ","translation":{"text":"তারা চিরকাল থাকবে","language_name":"bengali","language_id":20},"transliteration":{"text":"khālidīna","language_name":"english","language_id":38}},{"id":24816,"position":37,"audio_url":"wbw/058_022_039.mp3","verse_key":"58:22","verse_id":5126,"location":"58:22:37","text_uthmani":"فِيهَا ۚ","qpc_uthmani_hafs":"فِيهَاۚ","char_type_name":"word","page_number":545,"line_number":5,"text":"فِيهَاۚ","translation":{"text":"তার মধ্যে","language_name":"bengali","language_id":20},"transliteration":{"text":"fīhā","language_name":"english","language_id":38}},{"id":24818,"position":38,"audio_url":"wbw/058_022_041.mp3","verse_key":"58:22","verse_id":5126,"location":"58:22:38","text_uthmani":"رَضِىَ","qpc_uthmani_hafs":"رَضِيَ","char_type_name":"word","page_number":545,"line_number":5,"text":"رَضِيَ","translation":{"text":"সন্তুষ্ট/ প্রসন্ন হয়েছেন","language_name":"bengali","language_id":20},"transliteration":{"text":"raḍiya","language_name":"english","language_id":38}},{"id":24819,"position":39,"audio_url":"wbw/058_022_042.mp3","verse_key":"58:22","verse_id":5126,"location":"58:22:39","text_uthmani":"ٱللَّهُ","qpc_uthmani_hafs":"ٱللَّهُ","char_type_name":"word","page_number":545,"line_number":5,"text":"ٱللَّهُ","translation":{"text":"আল্লাহ","language_name":"bengali","language_id":20},"transliteration":{"text":"l-lahu","language_name":"english","language_id":38}},{"id":24820,"position":40,"audio_url":"wbw/058_022_043.mp3","verse_key":"58:22","verse_id":5126,"location":"58:22:40","text_uthmani":"عَنْهُمْ","qpc_uthmani_hafs":"عَنۡهُمۡ","char_type_name":"word","page_number":545,"line_number":5,"text":"عَنۡهُمۡ","translation":{"text":"তাদের প্রতি","language_name":"bengali","language_id":20},"transliteration":{"text":"ʿanhum","language_name":"english","language_id":38}},{"id":24821,"position":41,"audio_url":"wbw/058_022_044.mp3","verse_key":"58:22","verse_id":5126,"location":"58:22:41","text_uthmani":"وَرَضُوا۟","qpc_uthmani_hafs":"وَرَضُواْ","char_type_name":"word","page_number":545,"line_number":5,"text":"وَرَضُواْ","translation":{"text":"ও তারা সন্তুষ্ট হয়েছে","language_name":"bengali","language_id":20},"transliteration":{"text":"waraḍū","language_name":"english","language_id":38}},{"id":24822,"position":42,"audio_url":"wbw/058_022_045.mp3","verse_key":"58:22","verse_id":5126,"location":"58:22:42","text_uthmani":"عَنْهُ ۚ","qpc_uthmani_hafs":"عَنۡهُۚ","char_type_name":"word","page_number":545,"line_number":5,"text":"عَنۡهُۚ","translation":{"text":"তাঁর প্রতি","language_name":"bengali","language_id":20},"transliteration":{"text":"ʿanhu","language_name":"english","language_id":38}},{"id":24824,"position":43,"audio_url":"wbw/058_022_047.mp3","verse_key":"58:22","verse_id":5126,"location":"58:22:43","text_uthmani":"أُو۟لَـٰٓئِكَ","qpc_uthmani_hafs":"أُوْلَٰٓئِكَ","char_type_name":"word","page_number":545,"line_number":5,"text":"أُوْلَٰٓئِكَ","translation":{"text":"ঐসব লোক(অন্তর্ভুক্ত)","language_name":"bengali","language_id":20},"transliteration":{"text":"ulāika","language_name":"english","language_id":38}},{"id":24825,"position":44,"audio_url":"wbw/058_022_048.mp3","verse_key":"58:22","verse_id":5126,"location":"58:22:44","text_uthmani":"حِزْبُ","qpc_uthmani_hafs":"حِزۡبُ","char_type_name":"word","page_number":545,"line_number":5,"text":"حِزۡبُ","translation":{"text":"দলের","language_name":"bengali","language_id":20},"transliteration":{"text":"ḥiz'bu","language_name":"english","language_id":38}},{"id":24826,"position":45,"audio_url":"wbw/058_022_049.mp3","verse_key":"58:22","verse_id":5126,"location":"58:22:45","text_uthmani":"ٱللَّهِ ۚ","qpc_uthmani_hafs":"ٱللَّهِۚ","char_type_name":"word","page_number":545,"line_number":6,"text":"ٱللَّهِۚ","translation":{"text":"আল্লাহর","language_name":"bengali","language_id":20},"transliteration":{"text":"l-lahi","language_name":"english","language_id":38}},{"id":24828,"position":46,"audio_url":"wbw/058_022_051.mp3","verse_key":"58:22","verse_id":5126,"location":"58:22:46","text_uthmani":"أَلَآ","qpc_uthmani_hafs":"أَلَآ","char_type_name":"word","page_number":545,"line_number":6,"text":"أَلَآ","translation":{"text":"জেনে রাখ","language_name":"bengali","language_id":20},"transliteration":{"text":"alā","language_name":"english","language_id":38}},{"id":24829,"position":47,"audio_url":"wbw/058_022_052.mp3","verse_key":"58:22","verse_id":5126,"location":"58:22:47","text_uthmani":"إِنَّ","qpc_uthmani_hafs":"إِنَّ","char_type_name":"word","page_number":545,"line_number":6,"text":"إِنَّ","translation":{"text":"নিশ্চয়ই","language_name":"bengali","language_id":20},"transliteration":{"text":"inna","language_name":"english","language_id":38}},{"id":24830,"position":48,"audio_url":"wbw/058_022_053.mp3","verse_key":"58:22","verse_id":5126,"location":"58:22:48","text_uthmani":"حِزْبَ","qpc_uthmani_hafs":"حِزۡبَ","char_type_name":"word","page_number":545,"line_number":6,"text":"حِزۡبَ","translation":{"text":"দল","language_name":"bengali","language_id":20},"transliteration":{"text":"ḥiz'ba","language_name":"english","language_id":38}},{"id":24831,"position":49,"audio_url":"wbw/058_022_054.mp3","verse_key":"58:22","verse_id":5126,"location":"58:22:49","text_uthmani":"ٱللَّهِ","qpc_uthmani_hafs":"ٱللَّهِ","char_type_name":"word","page_number":545,"line_number":6,"text":"ٱللَّهِ","translation":{"text":"আল্লাহর","language_name":"bengali","language_id":20},"transliteration":{"text":"l-lahi","language_name":"english","language_id":38}},{"id":24832,"position":50,"audio_url":"wbw/058_022_055.mp3","verse_key":"58:22","verse_id":5126,"location":"58:22:50","text_uthmani":"هُمُ","qpc_uthmani_hafs":"هُمُ","char_type_name":"word","page_number":545,"line_number":6,"text":"هُمُ","translation":{"text":"তারাই","language_name":"bengali","language_id":20},"transliteration":{"text":"humu","language_name":"english","language_id":38}},{"id":24833,"position":51,"audio_url":"wbw/058_022_056.mp3","verse_key":"58:22","verse_id":5126,"location":"58:22:51","text_uthmani":"ٱلْمُفْلِحُونَ","qpc_uthmani_hafs":"ٱلۡمُفۡلِحُونَ","char_type_name":"word","page_number":545,"line_number":6,"text":"ٱلۡمُفۡلِحُونَ","translation":{"text":"সফলকাম","language_name":"bengali","language_id":20},"transliteration":{"text":"l-muf'liḥūna","language_name":"english","language_id":38}},{"id":24834,"position":52,"audio_url":null,"verse_key":"58:22","verse_id":5126,"location":"58:22:52","text_uthmani":"٢٢","qpc_uthmani_hafs":"٢٢","char_type_name":"end","page_number":545,"line_number":6,"text":"٢٢","translation":{"text":"(২২)","language_name":"bengali","language_id":20},"transliteration":{"text":null,"language_name":"english","language_id":38}}]}],"pagination":{"per_page":10,"current_page":3,"next_page":null,"total_pages":3,"total_records":22}}
