{"verses":[{"id":2933,"verse_number":1,"verse_key":"26:1","hizb_number":37,"rub_el_hizb_number":147,"ruku_number":316,"manzil_number":5,"sajdah_number":null,"page_number":367,"juz_number":19,"words":[{"id":710,"position":1,"audio_url":"wbw/026_001_001.mp3","char_type_name":"word","page_number":367,"line_number":2,"text":"طسٓمٓ","translation":{"text":"ত্বা-সীন-মীম","language_name":"bengali","language_id":20},"transliteration":{"text":"tta-seen-meem","language_name":"english","language_id":38}},{"id":711,"position":2,"audio_url":null,"char_type_name":"end","page_number":367,"line_number":2,"text":"١","translation":{"text":"(১)","language_name":"bengali","language_id":20},"transliteration":{"text":null,"language_name":"english","language_id":38}}]},{"id":2934,"verse_number":2,"verse_key":"26:2","hizb_number":37,"rub_el_hizb_number":147,"ruku_number":316,"manzil_number":5,"sajdah_number":null,"page_number":367,"juz_number":19,"words":[{"id":1769,"position":1,"audio_url":"wbw/026_002_001.mp3","char_type_name":"word","page_number":367,"line_number":2,"text":"تِلْكَ","translation":{"text":"এই","language_name":"bengali","language_id":20},"transliteration":{"text":"til'ka","language_name":"english","language_id":38}},{"id":1770,"position":2,"audio_url":"wbw/026_002_002.mp3","char_type_name":"word","page_number":367,"line_number":2,"text":"ءَايَـٰتُ","translation":{"text":"আয়াতগুলো","language_name":"bengali","language_id":20},"transliteration":{"text":"āyātu","language_name":"english","language_id":38}},{"id":1771,"position":3,"audio_url":"wbw/026_002_003.mp3","char_type_name":"word","page_number":367,"line_number":2,"text":"ٱلْكِتَـٰبِ","translation":{"text":"কিতাবের","language_name":"bengali","language_id":20},"transliteration":{"text":"l-kitābi","language_name":"english","language_id":38}},{"id":1772,"position":4,"audio_url":"wbw/026_002_004.mp3","char_type_name":"word","page_number":367,"line_number":2,"text":"ٱلْمُبِينِ","translation":{"text":"(যা) সুস্পষ্ট","language_name":"bengali","language_id":20},"transliteration":{"text":"l-mubīni","language_name":"english","language_id":38}},{"id":1773,"position":5,"audio_url":null,"char_type_name":"end","page_number":367,"line_number":2,"text":"٢","translation":{"text":"(২)","language_name":"bengali","language_id":20},"transliteration":{"text":null,"language_name":"english","language_id":38}}]},{"id":2935,"verse_number":3,"verse_key":"26:3","hizb_number":37,"rub_el_hizb_number":147,"ruku_number":316,"manzil_number":5,"sajdah_number":null,"page_number":367,"juz_number":19,"words":[{"id":2807,"position":1,"audio_url":"wbw/026_003_001.mp3","char_type_name":"word","page_number":367,"line_number":2,"text":"لَعَلَّكَ","translation":{"text":"হয়তো তুমি (হে নাবী)","language_name":"bengali","language_id":20},"transliteration":{"text":"laʿallaka","language_name":"english","language_id":38}},{"id":2808,"position":2,"audio_url":"wbw/026_003_002.mp3","char_type_name":"word","page_number":367,"line_number":2,"text":"بَـٰخِعٌۭ","translation":{"text":"ধ্বংসকারী","language_name":"bengali","language_id":20},"transliteration":{"text":"bākhiʿun","language_name":"english","language_id":38}},{"id":2809,"position":3,"audio_url":"wbw/026_003_003.mp3","char_type_name":"word","page_number":367,"line_number":2,"text":"نَّفْسَكَ","translation":{"text":"তোমার প্রাণ (এ চিন্তায়)","language_name":"bengali","language_id":20},"transliteration":{"text":"nafsaka","language_name":"english","language_id":38}},{"id":2810,"position":4,"audio_url":"wbw/026_003_004.mp3","char_type_name":"word","page_number":367,"line_number":2,"text":"أَلَّا","translation":{"text":"যে না","language_name":"bengali","language_id":20},"transliteration":{"text":"allā","language_name":"english","language_id":38}},{"id":2811,"position":5,"audio_url":"wbw/026_003_005.mp3","char_type_name":"word","page_number":367,"line_number":3,"text":"يَكُونُوا۟","translation":{"text":"তারা হচ্ছে","language_name":"bengali","language_id":20},"transliteration":{"text":"yakūnū","language_name":"english","language_id":38}},{"id":2812,"position":6,"audio_url":"wbw/026_003_006.mp3","char_type_name":"word","page_number":367,"line_number":3,"text":"مُؤْمِنِينَ","translation":{"text":"মু'মিন","language_name":"bengali","language_id":20},"transliteration":{"text":"mu'minīna","language_name":"english","language_id":38}},{"id":2813,"position":7,"audio_url":null,"char_type_name":"end","page_number":367,"line_number":3,"text":"٣","translation":{"text":"(৩)","language_name":"bengali","language_id":20},"transliteration":{"text":null,"language_name":"english","language_id":38}}]},{"id":2936,"verse_number":4,"verse_key":"26:4","hizb_number":37,"rub_el_hizb_number":147,"ruku_number":316,"manzil_number":5,"sajdah_number":null,"page_number":367,"juz_number":19,"words":[{"id":3727,"position":1,"audio_url":"wbw/026_004_001.mp3","char_type_name":"word","page_number":367,"line_number":3,"text":"إِن","translation":{"text":"যদি","language_name":"bengali","language_id":20},"transliteration":{"text":"in","language_name":"english","language_id":38}},{"id":3728,"position":2,"audio_url":"wbw/026_004_002.mp3","char_type_name":"word","page_number":367,"line_number":3,"text":"نَّشَأْ","translation":{"text":"আমরা চাইতাম","language_name":"bengali","language_id":20},"transliteration":{"text":"nasha","language_name":"english","language_id":38}},{"id":3729,"position":3,"audio_url":"wbw/026_004_003.mp3","char_type_name":"word","page_number":367,"line_number":3,"text":"نُنَزِّلْ","translation":{"text":"অবতীর্ণ করতাম আমরা","language_name":"bengali","language_id":20},"transliteration":{"text":"nunazzil","language_name":"english","language_id":38}},{"id":3730,"position":4,"audio_url":"wbw/026_004_004.mp3","char_type_name":"word","page_number":367,"line_number":3,"text":"عَلَيْهِم","translation":{"text":"উপর তাদের","language_name":"bengali","language_id":20},"transliteration":{"text":"ʿalayhim","language_name":"english","language_id":38}},{"id":3731,"position":5,"audio_url":"wbw/026_004_005.mp3","char_type_name":"word","page_number":367,"line_number":3,"text":"مِّنَ","translation":{"text":"হ'তে","language_name":"bengali","language_id":20},"transliteration":{"text":"mina","language_name":"english","language_id":38}},{"id":3732,"position":6,"audio_url":"wbw/026_004_006.mp3","char_type_name":"word","page_number":367,"line_number":3,"text":"ٱلسَّمَآءِ","translation":{"text":"আকাশ","language_name":"bengali","language_id":20},"transliteration":{"text":"l-samāi","language_name":"english","language_id":38}},{"id":3733,"position":7,"audio_url":"wbw/026_004_007.mp3","char_type_name":"word","page_number":367,"line_number":3,"text":"ءَايَةًۭ","translation":{"text":"(এমন) কোনো নিদর্শন","language_name":"bengali","language_id":20},"transliteration":{"text":"āyatan","language_name":"english","language_id":38}},{"id":3734,"position":8,"audio_url":"wbw/026_004_008.mp3","char_type_name":"word","page_number":367,"line_number":3,"text":"فَظَلَّتْ","translation":{"text":"ফলে হয়ে পড়তো","language_name":"bengali","language_id":20},"transliteration":{"text":"faẓallat","language_name":"english","language_id":38}},{"id":3735,"position":9,"audio_url":"wbw/026_004_009.mp3","char_type_name":"word","page_number":367,"line_number":4,"text":"أَعْنَـٰقُهُمْ","translation":{"text":"ঘাড়গুলো তাদের","language_name":"bengali","language_id":20},"transliteration":{"text":"aʿnāquhum","language_name":"english","language_id":38}},{"id":3736,"position":10,"audio_url":"wbw/026_004_010.mp3","char_type_name":"word","page_number":367,"line_number":4,"text":"لَهَا","translation":{"text":"প্রতি তাঁর","language_name":"bengali","language_id":20},"transliteration":{"text":"lahā","language_name":"english","language_id":38}},{"id":3737,"position":11,"audio_url":"wbw/026_004_011.mp3","char_type_name":"word","page_number":367,"line_number":4,"text":"خَـٰضِعِينَ","translation":{"text":"অবনত","language_name":"bengali","language_id":20},"transliteration":{"text":"khāḍiʿīna","language_name":"english","language_id":38}},{"id":3738,"position":12,"audio_url":null,"char_type_name":"end","page_number":367,"line_number":4,"text":"٤","translation":{"text":"(৪)","language_name":"bengali","language_id":20},"transliteration":{"text":null,"language_name":"english","language_id":38}}]},{"id":2937,"verse_number":5,"verse_key":"26:5","hizb_number":37,"rub_el_hizb_number":147,"ruku_number":316,"manzil_number":5,"sajdah_number":null,"page_number":367,"juz_number":19,"words":[{"id":4698,"position":1,"audio_url":"wbw/026_005_001.mp3","char_type_name":"word","page_number":367,"line_number":4,"text":"وَمَا","translation":{"text":"এবং না","language_name":"bengali","language_id":20},"transliteration":{"text":"wamā","language_name":"english","language_id":38}},{"id":4699,"position":2,"audio_url":"wbw/026_005_002.mp3","char_type_name":"word","page_number":367,"line_number":4,"text":"يَأْتِيهِم","translation":{"text":"আসে তাদের (কাছে)","language_name":"bengali","language_id":20},"transliteration":{"text":"yatīhim","language_name":"english","language_id":38}},{"id":4700,"position":3,"audio_url":"wbw/026_005_003.mp3","char_type_name":"word","page_number":367,"line_number":4,"text":"مِّن","translation":{"text":"কোনো","language_name":"bengali","language_id":20},"transliteration":{"text":"min","language_name":"english","language_id":38}},{"id":4701,"position":4,"audio_url":"wbw/026_005_004.mp3","char_type_name":"word","page_number":367,"line_number":4,"text":"ذِكْرٍۢ","translation":{"text":"উপদেশ","language_name":"bengali","language_id":20},"transliteration":{"text":"dhik'rin","language_name":"english","language_id":38}},{"id":4702,"position":5,"audio_url":"wbw/026_005_005.mp3","char_type_name":"word","page_number":367,"line_number":4,"text":"مِّنَ","translation":{"text":"হ'তে","language_name":"bengali","language_id":20},"transliteration":{"text":"mina","language_name":"english","language_id":38}},{"id":4703,"position":6,"audio_url":"wbw/026_005_006.mp3","char_type_name":"word","page_number":367,"line_number":4,"text":"ٱلرَّحْمَـٰنِ","translation":{"text":"দয়াময়","language_name":"bengali","language_id":20},"transliteration":{"text":"l-raḥmāni","language_name":"english","language_id":38}},{"id":4704,"position":7,"audio_url":"wbw/026_005_007.mp3","char_type_name":"word","page_number":367,"line_number":4,"text":"مُحْدَثٍ","translation":{"text":"(উপদেশ) নতুন","language_name":"bengali","language_id":20},"transliteration":{"text":"muḥ'dathin","language_name":"english","language_id":38}},{"id":4705,"position":8,"audio_url":"wbw/026_005_008.mp3","char_type_name":"word","page_number":367,"line_number":5,"text":"إِلَّا","translation":{"text":"এ ছাড়া যে","language_name":"bengali","language_id":20},"transliteration":{"text":"illā","language_name":"english","language_id":38}},{"id":4706,"position":9,"audio_url":"wbw/026_005_009.mp3","char_type_name":"word","page_number":367,"line_number":5,"text":"كَانُوا۟","translation":{"text":"তারা ছিলো","language_name":"bengali","language_id":20},"transliteration":{"text":"kānū","language_name":"english","language_id":38}},{"id":4707,"position":10,"audio_url":"wbw/026_005_010.mp3","char_type_name":"word","page_number":367,"line_number":5,"text":"عَنْهُ","translation":{"text":"তা হতে","language_name":"bengali","language_id":20},"transliteration":{"text":"ʿanhu","language_name":"english","language_id":38}},{"id":4708,"position":11,"audio_url":"wbw/026_005_011.mp3","char_type_name":"word","page_number":367,"line_number":5,"text":"مُعْرِضِينَ","translation":{"text":"মুখ ফিরিয়ে নিতো","language_name":"bengali","language_id":20},"transliteration":{"text":"muʿ'riḍīna","language_name":"english","language_id":38}},{"id":4709,"position":12,"audio_url":null,"char_type_name":"end","page_number":367,"line_number":5,"text":"٥","translation":{"text":"(৫)","language_name":"bengali","language_id":20},"transliteration":{"text":null,"language_name":"english","language_id":38}}]},{"id":2938,"verse_number":6,"verse_key":"26:6","hizb_number":37,"rub_el_hizb_number":147,"ruku_number":316,"manzil_number":5,"sajdah_number":null,"page_number":367,"juz_number":19,"words":[{"id":5968,"position":1,"audio_url":"wbw/026_006_001.mp3","char_type_name":"word","page_number":367,"line_number":5,"text":"فَقَدْ","translation":{"text":"এখন নিশ্চয়ই","language_name":"bengali","language_id":20},"transliteration":{"text":"faqad","language_name":"english","language_id":38}},{"id":5969,"position":2,"audio_url":"wbw/026_006_002.mp3","char_type_name":"word","page_number":367,"line_number":5,"text":"كَذَّبُوا۟","translation":{"text":"তারা মিথ্যারোপ করেছে","language_name":"bengali","language_id":20},"transliteration":{"text":"kadhabū","language_name":"english","language_id":38}},{"id":5970,"position":3,"audio_url":"wbw/026_006_003.mp3","char_type_name":"word","page_number":367,"line_number":5,"text":"فَسَيَأْتِيهِمْ","translation":{"text":"সুতরাং শীঘ্রই আসবে তাদের (কাছে)","language_name":"bengali","language_id":20},"transliteration":{"text":"fasayatīhim","language_name":"english","language_id":38}},{"id":5971,"position":4,"audio_url":"wbw/026_006_004.mp3","char_type_name":"word","page_number":367,"line_number":5,"text":"أَنۢبَـٰٓؤُا۟","translation":{"text":"সংবাদ","language_name":"bengali","language_id":20},"transliteration":{"text":"anbāu","language_name":"english","language_id":38}},{"id":5972,"position":5,"audio_url":"wbw/026_006_005.mp3","char_type_name":"word","page_number":367,"line_number":5,"text":"مَا","translation":{"text":"যা কিছু","language_name":"bengali","language_id":20},"transliteration":{"text":"mā","language_name":"english","language_id":38}},{"id":5973,"position":6,"audio_url":"wbw/026_006_006.mp3","char_type_name":"word","page_number":367,"line_number":5,"text":"كَانُوا۟","translation":{"text":"তারা ছিলো","language_name":"bengali","language_id":20},"transliteration":{"text":"kānū","language_name":"english","language_id":38}},{"id":5974,"position":7,"audio_url":"wbw/026_006_007.mp3","char_type_name":"word","page_number":367,"line_number":6,"text":"بِهِۦ","translation":{"text":"সম্পর্কে সে","language_name":"bengali","language_id":20},"transliteration":{"text":"bihi","language_name":"english","language_id":38}},{"id":5975,"position":8,"audio_url":"wbw/026_006_008.mp3","char_type_name":"word","page_number":367,"line_number":6,"text":"يَسْتَهْزِءُونَ","translation":{"text":"ঠাট্টা-বিদ্রুপ করতো","language_name":"bengali","language_id":20},"transliteration":{"text":"yastahziūna","language_name":"english","language_id":38}},{"id":5976,"position":9,"audio_url":null,"char_type_name":"end","page_number":367,"line_number":6,"text":"٦","translation":{"text":"(৬)","language_name":"bengali","language_id":20},"transliteration":{"text":null,"language_name":"english","language_id":38}}]},{"id":2939,"verse_number":7,"verse_key":"26:7","hizb_number":37,"rub_el_hizb_number":147,"ruku_number":316,"manzil_number":5,"sajdah_number":null,"page_number":367,"juz_number":19,"words":[{"id":7192,"position":1,"audio_url":"wbw/026_007_001.mp3","char_type_name":"word","page_number":367,"line_number":6,"text":"أَوَلَمْ","translation":{"text":"কি নি","language_name":"bengali","language_id":20},"transliteration":{"text":"awalam","language_name":"english","language_id":38}},{"id":7193,"position":2,"audio_url":"wbw/026_007_002.mp3","char_type_name":"word","page_number":367,"line_number":6,"text":"يَرَوْا۟","translation":{"text":"তারা লক্ষ্য করে","language_name":"bengali","language_id":20},"transliteration":{"text":"yaraw","language_name":"english","language_id":38}},{"id":7194,"position":3,"audio_url":"wbw/026_007_003.mp3","char_type_name":"word","page_number":367,"line_number":6,"text":"إِلَى","translation":{"text":"প্রতি","language_name":"bengali","language_id":20},"transliteration":{"text":"ilā","language_name":"english","language_id":38}},{"id":7195,"position":4,"audio_url":"wbw/026_007_004.mp3","char_type_name":"word","page_number":367,"line_number":6,"text":"ٱلْأَرْضِ","translation":{"text":"পৃথিবীর","language_name":"bengali","language_id":20},"transliteration":{"text":"l-arḍi","language_name":"english","language_id":38}},{"id":7196,"position":5,"audio_url":"wbw/026_007_005.mp3","char_type_name":"word","page_number":367,"line_number":6,"text":"كَمْ","translation":{"text":"কত (বিপুল পরিমাণ)","language_name":"bengali","language_id":20},"transliteration":{"text":"kam","language_name":"english","language_id":38}},{"id":7197,"position":6,"audio_url":"wbw/026_007_006.mp3","char_type_name":"word","page_number":367,"line_number":6,"text":"أَنۢبَتْنَا","translation":{"text":"উদ্গত করেছি আমরা","language_name":"bengali","language_id":20},"transliteration":{"text":"anbatnā","language_name":"english","language_id":38}},{"id":7198,"position":7,"audio_url":"wbw/026_007_007.mp3","char_type_name":"word","page_number":367,"line_number":6,"text":"فِيهَا","translation":{"text":"মধ্যে তার","language_name":"bengali","language_id":20},"transliteration":{"text":"fīhā","language_name":"english","language_id":38}},{"id":7199,"position":8,"audio_url":"wbw/026_007_008.mp3","char_type_name":"word","page_number":367,"line_number":6,"text":"مِن","translation":{"text":"থেকে","language_name":"bengali","language_id":20},"transliteration":{"text":"min","language_name":"english","language_id":38}},{"id":7200,"position":9,"audio_url":"wbw/026_007_009.mp3","char_type_name":"word","page_number":367,"line_number":6,"text":"كُلِّ","translation":{"text":"প্রত্যেক","language_name":"bengali","language_id":20},"transliteration":{"text":"kulli","language_name":"english","language_id":38}},{"id":7201,"position":10,"audio_url":"wbw/026_007_010.mp3","char_type_name":"word","page_number":367,"line_number":6,"text":"زَوْجٍۢ","translation":{"text":"প্রকার (উদ্ভিদ)","language_name":"bengali","language_id":20},"transliteration":{"text":"zawjin","language_name":"english","language_id":38}},{"id":7202,"position":11,"audio_url":"wbw/026_007_011.mp3","char_type_name":"word","page_number":367,"line_number":7,"text":"كَرِيمٍ","translation":{"text":"চমৎকার","language_name":"bengali","language_id":20},"transliteration":{"text":"karīmin","language_name":"english","language_id":38}},{"id":7203,"position":12,"audio_url":null,"char_type_name":"end","page_number":367,"line_number":7,"text":"٧","translation":{"text":"(৭)","language_name":"bengali","language_id":20},"transliteration":{"text":null,"language_name":"english","language_id":38}}]},{"id":2940,"verse_number":8,"verse_key":"26:8","hizb_number":37,"rub_el_hizb_number":147,"ruku_number":316,"manzil_number":5,"sajdah_number":null,"page_number":367,"juz_number":19,"words":[{"id":9266,"position":1,"audio_url":"wbw/026_008_001.mp3","char_type_name":"word","page_number":367,"line_number":7,"text":"إِنَّ","translation":{"text":"নিশ্চয়ই","language_name":"bengali","language_id":20},"transliteration":{"text":"inna","language_name":"english","language_id":38}},{"id":9267,"position":2,"audio_url":"wbw/026_008_002.mp3","char_type_name":"word","page_number":367,"line_number":7,"text":"فِى","translation":{"text":"মধ্যে (রয়েছে)","language_name":"bengali","language_id":20},"transliteration":{"text":"fī","language_name":"english","language_id":38}},{"id":9268,"position":3,"audio_url":"wbw/026_008_003.mp3","char_type_name":"word","page_number":367,"line_number":7,"text":"ذَٰلِكَ","translation":{"text":"এর","language_name":"bengali","language_id":20},"transliteration":{"text":"dhālika","language_name":"english","language_id":38}},{"id":9269,"position":4,"audio_url":"wbw/026_008_004.mp3","char_type_name":"word","page_number":367,"line_number":7,"text":"لَـَٔايَةًۭ ۖ","translation":{"text":"অবশ্যই নিদর্শন","language_name":"bengali","language_id":20},"transliteration":{"text":"laāyatan","language_name":"english","language_id":38}},{"id":9271,"position":5,"audio_url":"wbw/026_008_006.mp3","char_type_name":"word","page_number":367,"line_number":7,"text":"وَمَا","translation":{"text":"কিন্তু না","language_name":"bengali","language_id":20},"transliteration":{"text":"wamā","language_name":"english","language_id":38}},{"id":9272,"position":6,"audio_url":"wbw/026_008_007.mp3","char_type_name":"word","page_number":367,"line_number":7,"text":"كَانَ","translation":{"text":"ছিলো","language_name":"bengali","language_id":20},"transliteration":{"text":"kāna","language_name":"english","language_id":38}},{"id":9273,"position":7,"audio_url":"wbw/026_008_008.mp3","char_type_name":"word","page_number":367,"line_number":7,"text":"أَكْثَرُهُم","translation":{"text":"অধিকাংশ তাদের","language_name":"bengali","language_id":20},"transliteration":{"text":"aktharuhum","language_name":"english","language_id":38}},{"id":9274,"position":8,"audio_url":"wbw/026_008_009.mp3","char_type_name":"word","page_number":367,"line_number":7,"text":"مُّؤْمِنِينَ","translation":{"text":"মু'মিন","language_name":"bengali","language_id":20},"transliteration":{"text":"mu'minīna","language_name":"english","language_id":38}},{"id":9275,"position":9,"audio_url":null,"char_type_name":"end","page_number":367,"line_number":7,"text":"٨","translation":{"text":"(৮)","language_name":"bengali","language_id":20},"transliteration":{"text":null,"language_name":"english","language_id":38}}]},{"id":2941,"verse_number":9,"verse_key":"26:9","hizb_number":37,"rub_el_hizb_number":147,"ruku_number":316,"manzil_number":5,"sajdah_number":null,"page_number":367,"juz_number":19,"words":[{"id":10462,"position":1,"audio_url":"wbw/026_009_001.mp3","char_type_name":"word","page_number":367,"line_number":7,"text":"وَإِنَّ","translation":{"text":"এবং নিশ্চয়ই","language_name":"bengali","language_id":20},"transliteration":{"text":"wa-inna","language_name":"english","language_id":38}},{"id":10463,"position":2,"audio_url":"wbw/026_009_002.mp3","char_type_name":"word","page_number":367,"line_number":8,"text":"رَبَّكَ","translation":{"text":"তোমার রব","language_name":"bengali","language_id":20},"transliteration":{"text":"rabbaka","language_name":"english","language_id":38}},{"id":10464,"position":3,"audio_url":"wbw/026_009_003.mp3","char_type_name":"word","page_number":367,"line_number":8,"text":"لَهُوَ","translation":{"text":"অবশ্যই তিনি","language_name":"bengali","language_id":20},"transliteration":{"text":"lahuwa","language_name":"english","language_id":38}},{"id":10465,"position":4,"audio_url":"wbw/026_009_004.mp3","char_type_name":"word","page_number":367,"line_number":8,"text":"ٱلْعَزِيزُ","translation":{"text":"পরাক্রমশালী","language_name":"bengali","language_id":20},"transliteration":{"text":"l-ʿazīzu","language_name":"english","language_id":38}},{"id":10466,"position":5,"audio_url":"wbw/026_009_005.mp3","char_type_name":"word","page_number":367,"line_number":8,"text":"ٱلرَّحِيمُ","translation":{"text":"পরম দয়ালুও","language_name":"bengali","language_id":20},"transliteration":{"text":"l-raḥīmu","language_name":"english","language_id":38}},{"id":10467,"position":6,"audio_url":null,"char_type_name":"end","page_number":367,"line_number":8,"text":"٩","translation":{"text":"(৯)","language_name":"bengali","language_id":20},"transliteration":{"text":null,"language_name":"english","language_id":38}}]},{"id":2942,"verse_number":10,"verse_key":"26:10","hizb_number":37,"rub_el_hizb_number":147,"ruku_number":317,"manzil_number":5,"sajdah_number":null,"page_number":367,"juz_number":19,"words":[{"id":11675,"position":1,"audio_url":"wbw/026_010_001.mp3","char_type_name":"word","page_number":367,"line_number":8,"text":"وَإِذْ","translation":{"text":"এবং (স্মরণ করো) যখন","language_name":"bengali","language_id":20},"transliteration":{"text":"wa-idh","language_name":"english","language_id":38}},{"id":11676,"position":2,"audio_url":"wbw/026_010_002.mp3","char_type_name":"word","page_number":367,"line_number":8,"text":"نَادَىٰ","translation":{"text":"ডেকেছিলেন","language_name":"bengali","language_id":20},"transliteration":{"text":"nādā","language_name":"english","language_id":38}},{"id":11677,"position":3,"audio_url":"wbw/026_010_003.mp3","char_type_name":"word","page_number":367,"line_number":8,"text":"رَبُّكَ","translation":{"text":"তোমার রব","language_name":"bengali","language_id":20},"transliteration":{"text":"rabbuka","language_name":"english","language_id":38}},{"id":11678,"position":4,"audio_url":"wbw/026_010_004.mp3","char_type_name":"word","page_number":367,"line_number":8,"text":"مُوسَىٰٓ","translation":{"text":"মূসাকে","language_name":"bengali","language_id":20},"transliteration":{"text":"mūsā","language_name":"english","language_id":38}},{"id":11679,"position":5,"audio_url":"wbw/026_010_005.mp3","char_type_name":"word","page_number":367,"line_number":8,"text":"أَنِ","translation":{"text":"যে","language_name":"bengali","language_id":20},"transliteration":{"text":"ani","language_name":"english","language_id":38}},{"id":11680,"position":6,"audio_url":"wbw/026_010_006.mp3","char_type_name":"word","page_number":367,"line_number":8,"text":"ٱئْتِ","translation":{"text":"\"যাও তুমি","language_name":"bengali","language_id":20},"transliteration":{"text":"i'ti","language_name":"english","language_id":38}},{"id":11681,"position":7,"audio_url":"wbw/026_010_007.mp3","char_type_name":"word","page_number":367,"line_number":8,"text":"ٱلْقَوْمَ","translation":{"text":"জাতির (নিকট)","language_name":"bengali","language_id":20},"transliteration":{"text":"l-qawma","language_name":"english","language_id":38}},{"id":11682,"position":8,"audio_url":"wbw/026_010_008.mp3","char_type_name":"word","page_number":367,"line_number":9,"text":"ٱلظَّـٰلِمِينَ","translation":{"text":"সীমালঙ্ঘনকারী","language_name":"bengali","language_id":20},"transliteration":{"text":"l-ẓālimīna","language_name":"english","language_id":38}},{"id":11683,"position":9,"audio_url":null,"char_type_name":"end","page_number":367,"line_number":9,"text":"١٠","translation":{"text":"(১০)","language_name":"bengali","language_id":20},"transliteration":{"text":null,"language_name":"english","language_id":38}}]}],"pagination":{"per_page":10,"current_page":1,"next_page":2,"total_pages":23,"total_records":227}}
