{"verses":[{"id":3053,"verse_number":121,"verse_key":"26:121","hizb_number":38,"rub_el_hizb_number":149,"ruku_number":321,"manzil_number":5,"sajdah_number":null,"page_number":372,"juz_number":19,"words":[{"id":76620,"position":1,"audio_url":"wbw/026_121_001.mp3","char_type_name":"word","page_number":372,"line_number":6,"text":"إِنَّ","translation":{"text":"নিশ্চয়ই","language_name":"bengali","language_id":20},"transliteration":{"text":"inna","language_name":"english","language_id":38}},{"id":76621,"position":2,"audio_url":"wbw/026_121_002.mp3","char_type_name":"word","page_number":372,"line_number":6,"text":"فِى","translation":{"text":"মধ্যে (আছে)","language_name":"bengali","language_id":20},"transliteration":{"text":"fī","language_name":"english","language_id":38}},{"id":76622,"position":3,"audio_url":"wbw/026_121_003.mp3","char_type_name":"word","page_number":372,"line_number":6,"text":"ذَٰلِكَ","translation":{"text":"এর","language_name":"bengali","language_id":20},"transliteration":{"text":"dhālika","language_name":"english","language_id":38}},{"id":76623,"position":4,"audio_url":"wbw/026_121_004.mp3","char_type_name":"word","page_number":372,"line_number":6,"text":"لَـَٔايَةًۭ ۖ","translation":{"text":"অবশ্যই নিদর্শন","language_name":"bengali","language_id":20},"transliteration":{"text":"laāyatan","language_name":"english","language_id":38}},{"id":76625,"position":5,"audio_url":"wbw/026_121_006.mp3","char_type_name":"word","page_number":372,"line_number":6,"text":"وَمَا","translation":{"text":"আর না","language_name":"bengali","language_id":20},"transliteration":{"text":"wamā","language_name":"english","language_id":38}},{"id":76626,"position":6,"audio_url":"wbw/026_121_007.mp3","char_type_name":"word","page_number":372,"line_number":6,"text":"كَانَ","translation":{"text":"ছিলো","language_name":"bengali","language_id":20},"transliteration":{"text":"kāna","language_name":"english","language_id":38}},{"id":76627,"position":7,"audio_url":"wbw/026_121_008.mp3","char_type_name":"word","page_number":372,"line_number":7,"text":"أَكْثَرُهُم","translation":{"text":"অধিকাংশই তাদের","language_name":"bengali","language_id":20},"transliteration":{"text":"aktharuhum","language_name":"english","language_id":38}},{"id":76628,"position":8,"audio_url":"wbw/026_121_009.mp3","char_type_name":"word","page_number":372,"line_number":7,"text":"مُّؤْمِنِينَ","translation":{"text":"মু'মিন","language_name":"bengali","language_id":20},"transliteration":{"text":"mu'minīna","language_name":"english","language_id":38}},{"id":76629,"position":9,"audio_url":null,"char_type_name":"end","page_number":372,"line_number":7,"text":"١٢١","translation":{"text":"(১২১)","language_name":"bengali","language_id":20},"transliteration":{"text":null,"language_name":"english","language_id":38}}]},{"id":3054,"verse_number":122,"verse_key":"26:122","hizb_number":38,"rub_el_hizb_number":149,"ruku_number":321,"manzil_number":5,"sajdah_number":null,"page_number":372,"juz_number":19,"words":[{"id":76649,"position":1,"audio_url":"wbw/026_122_001.mp3","char_type_name":"word","page_number":372,"line_number":7,"text":"وَإِنَّ","translation":{"text":"আর নিশ্চয়ই","language_name":"bengali","language_id":20},"transliteration":{"text":"wa-inna","language_name":"english","language_id":38}},{"id":76650,"position":2,"audio_url":"wbw/026_122_002.mp3","char_type_name":"word","page_number":372,"line_number":7,"text":"رَبَّكَ","translation":{"text":"তোমার রব","language_name":"bengali","language_id":20},"transliteration":{"text":"rabbaka","language_name":"english","language_id":38}},{"id":76651,"position":3,"audio_url":"wbw/026_122_003.mp3","char_type_name":"word","page_number":372,"line_number":7,"text":"لَهُوَ","translation":{"text":"অবশ্যই তিনি","language_name":"bengali","language_id":20},"transliteration":{"text":"lahuwa","language_name":"english","language_id":38}},{"id":76652,"position":4,"audio_url":"wbw/026_122_004.mp3","char_type_name":"word","page_number":372,"line_number":7,"text":"ٱلْعَزِيزُ","translation":{"text":"পরাক্রমশালী","language_name":"bengali","language_id":20},"transliteration":{"text":"l-ʿazīzu","language_name":"english","language_id":38}},{"id":76653,"position":5,"audio_url":"wbw/026_122_005.mp3","char_type_name":"word","page_number":372,"line_number":7,"text":"ٱلرَّحِيمُ","translation":{"text":"পরম দয়ালু","language_name":"bengali","language_id":20},"transliteration":{"text":"l-raḥīmu","language_name":"english","language_id":38}},{"id":76654,"position":6,"audio_url":null,"char_type_name":"end","page_number":372,"line_number":7,"text":"١٢٢","translation":{"text":"(১২২)","language_name":"bengali","language_id":20},"transliteration":{"text":null,"language_name":"english","language_id":38}}]},{"id":3055,"verse_number":123,"verse_key":"26:123","hizb_number":38,"rub_el_hizb_number":149,"ruku_number":322,"manzil_number":5,"sajdah_number":null,"page_number":372,"juz_number":19,"words":[{"id":76880,"position":1,"audio_url":"wbw/026_123_001.mp3","char_type_name":"word","page_number":372,"line_number":7,"text":"كَذَّبَتْ","translation":{"text":"মিথ্যারোপ করেছিলো","language_name":"bengali","language_id":20},"transliteration":{"text":"kadhabat","language_name":"english","language_id":38}},{"id":76881,"position":2,"audio_url":"wbw/026_123_002.mp3","char_type_name":"word","page_number":372,"line_number":8,"text":"عَادٌ","translation":{"text":"আ'দ জাতিও","language_name":"bengali","language_id":20},"transliteration":{"text":"ʿādun","language_name":"english","language_id":38}},{"id":76882,"position":3,"audio_url":"wbw/026_123_003.mp3","char_type_name":"word","page_number":372,"line_number":8,"text":"ٱلْمُرْسَلِينَ","translation":{"text":"রাসূলদেরকে","language_name":"bengali","language_id":20},"transliteration":{"text":"l-mur'salīna","language_name":"english","language_id":38}},{"id":76883,"position":4,"audio_url":null,"char_type_name":"end","page_number":372,"line_number":8,"text":"١٢٣","translation":{"text":"(১২৩)","language_name":"bengali","language_id":20},"transliteration":{"text":null,"language_name":"english","language_id":38}}]},{"id":3056,"verse_number":124,"verse_key":"26:124","hizb_number":38,"rub_el_hizb_number":149,"ruku_number":322,"manzil_number":5,"sajdah_number":null,"page_number":372,"juz_number":19,"words":[{"id":76976,"position":1,"audio_url":"wbw/026_124_001.mp3","char_type_name":"word","page_number":372,"line_number":8,"text":"إِذْ","translation":{"text":"(স্মরণ করো) যখন","language_name":"bengali","language_id":20},"transliteration":{"text":"idh","language_name":"english","language_id":38}},{"id":76977,"position":2,"audio_url":"wbw/026_124_002.mp3","char_type_name":"word","page_number":372,"line_number":8,"text":"قَالَ","translation":{"text":"বলেছিলো","language_name":"bengali","language_id":20},"transliteration":{"text":"qāla","language_name":"english","language_id":38}},{"id":76978,"position":3,"audio_url":"wbw/026_124_003.mp3","char_type_name":"word","page_number":372,"line_number":8,"text":"لَهُمْ","translation":{"text":"উদ্দেশ্যে তাদের","language_name":"bengali","language_id":20},"transliteration":{"text":"lahum","language_name":"english","language_id":38}},{"id":76979,"position":4,"audio_url":"wbw/026_124_004.mp3","char_type_name":"word","page_number":372,"line_number":8,"text":"أَخُوهُمْ","translation":{"text":"ভাই তাদের","language_name":"bengali","language_id":20},"transliteration":{"text":"akhūhum","language_name":"english","language_id":38}},{"id":76980,"position":5,"audio_url":"wbw/026_124_005.mp3","char_type_name":"word","page_number":372,"line_number":8,"text":"هُودٌ","translation":{"text":"হূদ","language_name":"bengali","language_id":20},"transliteration":{"text":"hūdun","language_name":"english","language_id":38}},{"id":76981,"position":6,"audio_url":"wbw/026_124_006.mp3","char_type_name":"word","page_number":372,"line_number":8,"text":"أَلَا","translation":{"text":"\"কি না","language_name":"bengali","language_id":20},"transliteration":{"text":"alā","language_name":"english","language_id":38}},{"id":76982,"position":7,"audio_url":"wbw/026_124_007.mp3","char_type_name":"word","page_number":372,"line_number":8,"text":"تَتَّقُونَ","translation":{"text":"তোমরা ভয় করবে","language_name":"bengali","language_id":20},"transliteration":{"text":"tattaqūna","language_name":"english","language_id":38}},{"id":76983,"position":8,"audio_url":null,"char_type_name":"end","page_number":372,"line_number":8,"text":"١٢٤","translation":{"text":"(১২৪)","language_name":"bengali","language_id":20},"transliteration":{"text":null,"language_name":"english","language_id":38}}]},{"id":3057,"verse_number":125,"verse_key":"26:125","hizb_number":38,"rub_el_hizb_number":149,"ruku_number":322,"manzil_number":5,"sajdah_number":null,"page_number":372,"juz_number":19,"words":[{"id":77196,"position":1,"audio_url":"wbw/026_125_001.mp3","char_type_name":"word","page_number":372,"line_number":8,"text":"إِنِّى","translation":{"text":"নিশ্চয়ই আমি","language_name":"bengali","language_id":20},"transliteration":{"text":"innī","language_name":"english","language_id":38}},{"id":77197,"position":2,"audio_url":"wbw/026_125_002.mp3","char_type_name":"word","page_number":372,"line_number":8,"text":"لَكُمْ","translation":{"text":"জন্যে তোমাদের","language_name":"bengali","language_id":20},"transliteration":{"text":"lakum","language_name":"english","language_id":38}},{"id":77198,"position":3,"audio_url":"wbw/026_125_003.mp3","char_type_name":"word","page_number":372,"line_number":9,"text":"رَسُولٌ","translation":{"text":"একজন রাসূল","language_name":"bengali","language_id":20},"transliteration":{"text":"rasūlun","language_name":"english","language_id":38}},{"id":77199,"position":4,"audio_url":"wbw/026_125_004.mp3","char_type_name":"word","page_number":372,"line_number":9,"text":"أَمِينٌۭ","translation":{"text":"বিশ্বস্ত","language_name":"bengali","language_id":20},"transliteration":{"text":"amīnun","language_name":"english","language_id":38}},{"id":77200,"position":5,"audio_url":null,"char_type_name":"end","page_number":372,"line_number":9,"text":"١٢٥","translation":{"text":"(১২৫)","language_name":"bengali","language_id":20},"transliteration":{"text":null,"language_name":"english","language_id":38}}]},{"id":3058,"verse_number":126,"verse_key":"26:126","hizb_number":38,"rub_el_hizb_number":149,"ruku_number":322,"manzil_number":5,"sajdah_number":null,"page_number":372,"juz_number":19,"words":[{"id":77291,"position":1,"audio_url":"wbw/026_126_001.mp3","char_type_name":"word","page_number":372,"line_number":9,"text":"فَٱتَّقُوا۟","translation":{"text":"অতএব তোমরা ভয় করো","language_name":"bengali","language_id":20},"transliteration":{"text":"fa-ittaqū","language_name":"english","language_id":38}},{"id":77292,"position":2,"audio_url":"wbw/026_126_002.mp3","char_type_name":"word","page_number":372,"line_number":9,"text":"ٱللَّهَ","translation":{"text":"আল্লাহকে","language_name":"bengali","language_id":20},"transliteration":{"text":"l-laha","language_name":"english","language_id":38}},{"id":77293,"position":3,"audio_url":"wbw/026_126_003.mp3","char_type_name":"word","page_number":372,"line_number":9,"text":"وَأَطِيعُونِ","translation":{"text":"ও তোমরা আমার আনুগত্য করো","language_name":"bengali","language_id":20},"transliteration":{"text":"wa-aṭīʿūni","language_name":"english","language_id":38}},{"id":77294,"position":4,"audio_url":null,"char_type_name":"end","page_number":372,"line_number":9,"text":"١٢٦","translation":{"text":"(১২৬)","language_name":"bengali","language_id":20},"transliteration":{"text":null,"language_name":"english","language_id":38}}]},{"id":3059,"verse_number":127,"verse_key":"26:127","hizb_number":38,"rub_el_hizb_number":149,"ruku_number":322,"manzil_number":5,"sajdah_number":null,"page_number":372,"juz_number":19,"words":[{"id":77556,"position":1,"audio_url":"wbw/026_127_001.mp3","char_type_name":"word","page_number":372,"line_number":9,"text":"وَمَآ","translation":{"text":"আর না","language_name":"bengali","language_id":20},"transliteration":{"text":"wamā","language_name":"english","language_id":38}},{"id":77557,"position":2,"audio_url":"wbw/026_127_002.mp3","char_type_name":"word","page_number":372,"line_number":9,"text":"أَسْـَٔلُكُمْ","translation":{"text":"তোমাদের (নিকট) আমি চাচ্ছি","language_name":"bengali","language_id":20},"transliteration":{"text":"asalukum","language_name":"english","language_id":38}},{"id":77558,"position":3,"audio_url":"wbw/026_127_003.mp3","char_type_name":"word","page_number":372,"line_number":9,"text":"عَلَيْهِ","translation":{"text":"জন্যে এর","language_name":"bengali","language_id":20},"transliteration":{"text":"ʿalayhi","language_name":"english","language_id":38}},{"id":77559,"position":4,"audio_url":"wbw/026_127_004.mp3","char_type_name":"word","page_number":372,"line_number":10,"text":"مِنْ","translation":{"text":"কোনো","language_name":"bengali","language_id":20},"transliteration":{"text":"min","language_name":"english","language_id":38}},{"id":77560,"position":5,"audio_url":"wbw/026_127_005.mp3","char_type_name":"word","page_number":372,"line_number":10,"text":"أَجْرٍ ۖ","translation":{"text":"প্রতিদান","language_name":"bengali","language_id":20},"transliteration":{"text":"ajrin","language_name":"english","language_id":38}},{"id":77562,"position":6,"audio_url":"wbw/026_127_007.mp3","char_type_name":"word","page_number":372,"line_number":10,"text":"إِنْ","translation":{"text":"নেই","language_name":"bengali","language_id":20},"transliteration":{"text":"in","language_name":"english","language_id":38}},{"id":77563,"position":7,"audio_url":"wbw/026_127_008.mp3","char_type_name":"word","page_number":372,"line_number":10,"text":"أَجْرِىَ","translation":{"text":"আমার প্রতিদান (অন্য কারো নিকট)","language_name":"bengali","language_id":20},"transliteration":{"text":"ajriya","language_name":"english","language_id":38}},{"id":77564,"position":8,"audio_url":"wbw/026_127_009.mp3","char_type_name":"word","page_number":372,"line_number":10,"text":"إِلَّا","translation":{"text":"ছাড়া","language_name":"bengali","language_id":20},"transliteration":{"text":"illā","language_name":"english","language_id":38}},{"id":77565,"position":9,"audio_url":"wbw/026_127_010.mp3","char_type_name":"word","page_number":372,"line_number":10,"text":"عَلَىٰ","translation":{"text":"নিকট","language_name":"bengali","language_id":20},"transliteration":{"text":"ʿalā","language_name":"english","language_id":38}},{"id":77566,"position":10,"audio_url":"wbw/026_127_011.mp3","char_type_name":"word","page_number":372,"line_number":10,"text":"رَبِّ","translation":{"text":"রবের","language_name":"bengali","language_id":20},"transliteration":{"text":"rabbi","language_name":"english","language_id":38}},{"id":77567,"position":11,"audio_url":"wbw/026_127_012.mp3","char_type_name":"word","page_number":372,"line_number":10,"text":"ٱلْعَـٰلَمِينَ","translation":{"text":"বিশ্বজগতের","language_name":"bengali","language_id":20},"transliteration":{"text":"l-ʿālamīna","language_name":"english","language_id":38}},{"id":77568,"position":12,"audio_url":null,"char_type_name":"end","page_number":372,"line_number":10,"text":"١٢٧","translation":{"text":"(১২৭)","language_name":"bengali","language_id":20},"transliteration":{"text":null,"language_name":"english","language_id":38}}]},{"id":3060,"verse_number":128,"verse_key":"26:128","hizb_number":38,"rub_el_hizb_number":149,"ruku_number":322,"manzil_number":5,"sajdah_number":null,"page_number":372,"juz_number":19,"words":[{"id":77683,"position":1,"audio_url":"wbw/026_128_001.mp3","char_type_name":"word","page_number":372,"line_number":10,"text":"أَتَبْنُونَ","translation":{"text":"কি তোমরা নির্মাণ করছো","language_name":"bengali","language_id":20},"transliteration":{"text":"atabnūna","language_name":"english","language_id":38}},{"id":77684,"position":2,"audio_url":"wbw/026_128_002.mp3","char_type_name":"word","page_number":372,"line_number":10,"text":"بِكُلِّ","translation":{"text":"স্হানে প্রত্যক","language_name":"bengali","language_id":20},"transliteration":{"text":"bikulli","language_name":"english","language_id":38}},{"id":77685,"position":3,"audio_url":"wbw/026_128_003.mp3","char_type_name":"word","page_number":372,"line_number":10,"text":"رِيعٍ","translation":{"text":"উঁচু","language_name":"bengali","language_id":20},"transliteration":{"text":"rīʿin","language_name":"english","language_id":38}},{"id":77686,"position":4,"audio_url":"wbw/026_128_004.mp3","char_type_name":"word","page_number":372,"line_number":11,"text":"ءَايَةًۭ","translation":{"text":"(স্মৃতিচিহ্ন) নিদর্শন","language_name":"bengali","language_id":20},"transliteration":{"text":"āyatan","language_name":"english","language_id":38}},{"id":77687,"position":5,"audio_url":"wbw/026_128_005.mp3","char_type_name":"word","page_number":372,"line_number":11,"text":"تَعْبَثُونَ","translation":{"text":"তোমরা নিরর্থক কাজ করছো","language_name":"bengali","language_id":20},"transliteration":{"text":"taʿbathūna","language_name":"english","language_id":38}},{"id":77688,"position":6,"audio_url":null,"char_type_name":"end","page_number":372,"line_number":11,"text":"١٢٨","translation":{"text":"(১২৮)","language_name":"bengali","language_id":20},"transliteration":{"text":null,"language_name":"english","language_id":38}}]},{"id":3061,"verse_number":129,"verse_key":"26:129","hizb_number":38,"rub_el_hizb_number":149,"ruku_number":322,"manzil_number":5,"sajdah_number":null,"page_number":372,"juz_number":19,"words":[{"id":77828,"position":1,"audio_url":"wbw/026_129_001.mp3","char_type_name":"word","page_number":372,"line_number":11,"text":"وَتَتَّخِذُونَ","translation":{"text":"ও তোমরা তৈরী করছো","language_name":"bengali","language_id":20},"transliteration":{"text":"watattakhidhūna","language_name":"english","language_id":38}},{"id":77829,"position":2,"audio_url":"wbw/026_129_002.mp3","char_type_name":"word","page_number":372,"line_number":11,"text":"مَصَانِعَ","translation":{"text":"প্রাসাদ","language_name":"bengali","language_id":20},"transliteration":{"text":"maṣāniʿa","language_name":"english","language_id":38}},{"id":77830,"position":3,"audio_url":"wbw/026_129_003.mp3","char_type_name":"word","page_number":372,"line_number":11,"text":"لَعَلَّكُمْ","translation":{"text":"যেন তোমরা","language_name":"bengali","language_id":20},"transliteration":{"text":"laʿallakum","language_name":"english","language_id":38}},{"id":77831,"position":4,"audio_url":"wbw/026_129_004.mp3","char_type_name":"word","page_number":372,"line_number":11,"text":"تَخْلُدُونَ","translation":{"text":"চিরস্থায়ী হবে","language_name":"bengali","language_id":20},"transliteration":{"text":"takhludūna","language_name":"english","language_id":38}},{"id":77832,"position":5,"audio_url":null,"char_type_name":"end","page_number":372,"line_number":11,"text":"١٢٩","translation":{"text":"(১২৯)","language_name":"bengali","language_id":20},"transliteration":{"text":null,"language_name":"english","language_id":38}}]},{"id":3062,"verse_number":130,"verse_key":"26:130","hizb_number":38,"rub_el_hizb_number":149,"ruku_number":322,"manzil_number":5,"sajdah_number":null,"page_number":372,"juz_number":19,"words":[{"id":78024,"position":1,"audio_url":"wbw/026_130_001.mp3","char_type_name":"word","page_number":372,"line_number":12,"text":"وَإِذَا","translation":{"text":"এবং যখন","language_name":"bengali","language_id":20},"transliteration":{"text":"wa-idhā","language_name":"english","language_id":38}},{"id":78025,"position":2,"audio_url":"wbw/026_130_002.mp3","char_type_name":"word","page_number":372,"line_number":12,"text":"بَطَشْتُم","translation":{"text":"তোমরা আঘাত করো","language_name":"bengali","language_id":20},"transliteration":{"text":"baṭashtum","language_name":"english","language_id":38}},{"id":78026,"position":3,"audio_url":"wbw/026_130_003.mp3","char_type_name":"word","page_number":372,"line_number":12,"text":"بَطَشْتُمْ","translation":{"text":"তোমরা আঘাত করো","language_name":"bengali","language_id":20},"transliteration":{"text":"baṭashtum","language_name":"english","language_id":38}},{"id":78027,"position":4,"audio_url":"wbw/026_130_004.mp3","char_type_name":"word","page_number":372,"line_number":12,"text":"جَبَّارِينَ","translation":{"text":"স্বেচ্ছাচারী হয়ে","language_name":"bengali","language_id":20},"transliteration":{"text":"jabbārīna","language_name":"english","language_id":38}},{"id":78028,"position":5,"audio_url":null,"char_type_name":"end","page_number":372,"line_number":12,"text":"١٣٠","translation":{"text":"(১৩০)","language_name":"bengali","language_id":20},"transliteration":{"text":null,"language_name":"english","language_id":38}}]}],"pagination":{"per_page":10,"current_page":13,"next_page":14,"total_pages":23,"total_records":227}}
