{"verses":[{"id":3103,"verse_number":171,"verse_key":"26:171","hizb_number":38,"rub_el_hizb_number":149,"ruku_number":324,"manzil_number":5,"sajdah_number":null,"page_number":374,"juz_number":19,"words":[{"id":82899,"position":1,"audio_url":"wbw/026_171_001.mp3","char_type_name":"word","page_number":374,"line_number":8,"text":"إِلَّا","translation":{"text":"ছাড়া","language_name":"bengali","language_id":20},"transliteration":{"text":"illā","language_name":"english","language_id":38}},{"id":82900,"position":2,"audio_url":"wbw/026_171_002.mp3","char_type_name":"word","page_number":374,"line_number":8,"text":"عَجُوزًۭا","translation":{"text":"এক বৃদ্ধা (তার স্ত্রী)","language_name":"bengali","language_id":20},"transliteration":{"text":"ʿajūzan","language_name":"english","language_id":38}},{"id":82901,"position":3,"audio_url":"wbw/026_171_003.mp3","char_type_name":"word","page_number":374,"line_number":8,"text":"فِى","translation":{"text":"(সে ছিলো) অন্তর্ভুক্ত","language_name":"bengali","language_id":20},"transliteration":{"text":"fī","language_name":"english","language_id":38}},{"id":82902,"position":4,"audio_url":"wbw/026_171_004.mp3","char_type_name":"word","page_number":374,"line_number":8,"text":"ٱلْغَـٰبِرِينَ","translation":{"text":"পিছনে অবস্থানকারীদের","language_name":"bengali","language_id":20},"transliteration":{"text":"l-ghābirīna","language_name":"english","language_id":38}},{"id":82903,"position":5,"audio_url":null,"char_type_name":"end","page_number":374,"line_number":8,"text":"١٧١","translation":{"text":"(১৭১)","language_name":"bengali","language_id":20},"transliteration":{"text":null,"language_name":"english","language_id":38}}]},{"id":3104,"verse_number":172,"verse_key":"26:172","hizb_number":38,"rub_el_hizb_number":149,"ruku_number":324,"manzil_number":5,"sajdah_number":null,"page_number":374,"juz_number":19,"words":[{"id":83075,"position":1,"audio_url":"wbw/026_172_001.mp3","char_type_name":"word","page_number":374,"line_number":8,"text":"ثُمَّ","translation":{"text":"এরপর","language_name":"bengali","language_id":20},"transliteration":{"text":"thumma","language_name":"english","language_id":38}},{"id":83076,"position":2,"audio_url":"wbw/026_172_002.mp3","char_type_name":"word","page_number":374,"line_number":8,"text":"دَمَّرْنَا","translation":{"text":"আমরা ধ্বংস করলাম","language_name":"bengali","language_id":20},"transliteration":{"text":"dammarnā","language_name":"english","language_id":38}},{"id":83077,"position":3,"audio_url":"wbw/026_172_003.mp3","char_type_name":"word","page_number":374,"line_number":8,"text":"ٱلْـَٔاخَرِينَ","translation":{"text":"অন্যদেরকে","language_name":"bengali","language_id":20},"transliteration":{"text":"l-ākharīna","language_name":"english","language_id":38}},{"id":83078,"position":4,"audio_url":null,"char_type_name":"end","page_number":374,"line_number":8,"text":"١٧٢","translation":{"text":"(১৭২)","language_name":"bengali","language_id":20},"transliteration":{"text":null,"language_name":"english","language_id":38}}]},{"id":3105,"verse_number":173,"verse_key":"26:173","hizb_number":38,"rub_el_hizb_number":149,"ruku_number":324,"manzil_number":5,"sajdah_number":null,"page_number":374,"juz_number":19,"words":[{"id":83207,"position":1,"audio_url":"wbw/026_173_001.mp3","char_type_name":"word","page_number":374,"line_number":8,"text":"وَأَمْطَرْنَا","translation":{"text":"এবং আমরা বর্ষণ করেছিলাম","language_name":"bengali","language_id":20},"transliteration":{"text":"wa-amṭarnā","language_name":"english","language_id":38}},{"id":83208,"position":2,"audio_url":"wbw/026_173_002.mp3","char_type_name":"word","page_number":374,"line_number":8,"text":"عَلَيْهِم","translation":{"text":"উপর তাদের","language_name":"bengali","language_id":20},"transliteration":{"text":"ʿalayhim","language_name":"english","language_id":38}},{"id":83209,"position":3,"audio_url":"wbw/026_173_003.mp3","char_type_name":"word","page_number":374,"line_number":9,"text":"مَّطَرًۭا ۖ","translation":{"text":"এক বর্ষণ (শাস্তিমূলক)","language_name":"bengali","language_id":20},"transliteration":{"text":"maṭaran","language_name":"english","language_id":38}},{"id":83211,"position":4,"audio_url":"wbw/026_173_005.mp3","char_type_name":"word","page_number":374,"line_number":9,"text":"فَسَآءَ","translation":{"text":"অতএব কত নিকৃষ্ট","language_name":"bengali","language_id":20},"transliteration":{"text":"fasāa","language_name":"english","language_id":38}},{"id":83212,"position":5,"audio_url":"wbw/026_173_006.mp3","char_type_name":"word","page_number":374,"line_number":9,"text":"مَطَرُ","translation":{"text":"বর্ষণ","language_name":"bengali","language_id":20},"transliteration":{"text":"maṭaru","language_name":"english","language_id":38}},{"id":83213,"position":6,"audio_url":"wbw/026_173_007.mp3","char_type_name":"word","page_number":374,"line_number":9,"text":"ٱلْمُنذَرِينَ","translation":{"text":"সতর্ককৃতদের (জন্যে)","language_name":"bengali","language_id":20},"transliteration":{"text":"l-mundharīna","language_name":"english","language_id":38}},{"id":83214,"position":7,"audio_url":null,"char_type_name":"end","page_number":374,"line_number":9,"text":"١٧٣","translation":{"text":"(১৭৩)","language_name":"bengali","language_id":20},"transliteration":{"text":null,"language_name":"english","language_id":38}}]},{"id":3106,"verse_number":174,"verse_key":"26:174","hizb_number":38,"rub_el_hizb_number":149,"ruku_number":324,"manzil_number":5,"sajdah_number":null,"page_number":374,"juz_number":19,"words":[{"id":83286,"position":1,"audio_url":"wbw/026_174_001.mp3","char_type_name":"word","page_number":374,"line_number":9,"text":"إِنَّ","translation":{"text":"নিশ্চয়ই","language_name":"bengali","language_id":20},"transliteration":{"text":"inna","language_name":"english","language_id":38}},{"id":83287,"position":2,"audio_url":"wbw/026_174_002.mp3","char_type_name":"word","page_number":374,"line_number":9,"text":"فِى","translation":{"text":"মধ্যে (আছে)","language_name":"bengali","language_id":20},"transliteration":{"text":"fī","language_name":"english","language_id":38}},{"id":83288,"position":3,"audio_url":"wbw/026_174_003.mp3","char_type_name":"word","page_number":374,"line_number":9,"text":"ذَٰلِكَ","translation":{"text":"এর","language_name":"bengali","language_id":20},"transliteration":{"text":"dhālika","language_name":"english","language_id":38}},{"id":83289,"position":4,"audio_url":"wbw/026_174_004.mp3","char_type_name":"word","page_number":374,"line_number":9,"text":"لَـَٔايَةًۭ ۖ","translation":{"text":"অবশ্যই নিদর্শন","language_name":"bengali","language_id":20},"transliteration":{"text":"laāyatan","language_name":"english","language_id":38}},{"id":83291,"position":5,"audio_url":"wbw/026_174_006.mp3","char_type_name":"word","page_number":374,"line_number":9,"text":"وَمَا","translation":{"text":"আর না","language_name":"bengali","language_id":20},"transliteration":{"text":"wamā","language_name":"english","language_id":38}},{"id":83292,"position":6,"audio_url":"wbw/026_174_007.mp3","char_type_name":"word","page_number":374,"line_number":9,"text":"كَانَ","translation":{"text":"ছিলো","language_name":"bengali","language_id":20},"transliteration":{"text":"kāna","language_name":"english","language_id":38}},{"id":83293,"position":7,"audio_url":"wbw/026_174_008.mp3","char_type_name":"word","page_number":374,"line_number":9,"text":"أَكْثَرُهُم","translation":{"text":"অধিকাংশই তাদের","language_name":"bengali","language_id":20},"transliteration":{"text":"aktharuhum","language_name":"english","language_id":38}},{"id":83294,"position":8,"audio_url":"wbw/026_174_009.mp3","char_type_name":"word","page_number":374,"line_number":10,"text":"مُّؤْمِنِينَ","translation":{"text":"মু'মিন","language_name":"bengali","language_id":20},"transliteration":{"text":"mu'minīna","language_name":"english","language_id":38}},{"id":83295,"position":9,"audio_url":null,"char_type_name":"end","page_number":374,"line_number":10,"text":"١٧٤","translation":{"text":"(১৭৪)","language_name":"bengali","language_id":20},"transliteration":{"text":null,"language_name":"english","language_id":38}}]},{"id":3107,"verse_number":175,"verse_key":"26:175","hizb_number":38,"rub_el_hizb_number":149,"ruku_number":324,"manzil_number":5,"sajdah_number":null,"page_number":374,"juz_number":19,"words":[{"id":83305,"position":1,"audio_url":"wbw/026_175_001.mp3","char_type_name":"word","page_number":374,"line_number":10,"text":"وَإِنَّ","translation":{"text":"অথচ নিশ্চয়ই","language_name":"bengali","language_id":20},"transliteration":{"text":"wa-inna","language_name":"english","language_id":38}},{"id":83306,"position":2,"audio_url":"wbw/026_175_002.mp3","char_type_name":"word","page_number":374,"line_number":10,"text":"رَبَّكَ","translation":{"text":"তোমার রব","language_name":"bengali","language_id":20},"transliteration":{"text":"rabbaka","language_name":"english","language_id":38}},{"id":83307,"position":3,"audio_url":"wbw/026_175_003.mp3","char_type_name":"word","page_number":374,"line_number":10,"text":"لَهُوَ","translation":{"text":"অবশ্যই তিনি","language_name":"bengali","language_id":20},"transliteration":{"text":"lahuwa","language_name":"english","language_id":38}},{"id":83308,"position":4,"audio_url":"wbw/026_175_004.mp3","char_type_name":"word","page_number":374,"line_number":10,"text":"ٱلْعَزِيزُ","translation":{"text":"পরাক্রমশালী","language_name":"bengali","language_id":20},"transliteration":{"text":"l-ʿazīzu","language_name":"english","language_id":38}},{"id":83309,"position":5,"audio_url":"wbw/026_175_005.mp3","char_type_name":"word","page_number":374,"line_number":10,"text":"ٱلرَّحِيمُ","translation":{"text":"পরম দয়ালু","language_name":"bengali","language_id":20},"transliteration":{"text":"l-raḥīmu","language_name":"english","language_id":38}},{"id":83310,"position":6,"audio_url":null,"char_type_name":"end","page_number":374,"line_number":10,"text":"١٧٥","translation":{"text":"(১৭৫)","language_name":"bengali","language_id":20},"transliteration":{"text":null,"language_name":"english","language_id":38}}]},{"id":3108,"verse_number":176,"verse_key":"26:176","hizb_number":38,"rub_el_hizb_number":149,"ruku_number":325,"manzil_number":5,"sajdah_number":null,"page_number":374,"juz_number":19,"words":[{"id":83502,"position":1,"audio_url":"wbw/026_176_001.mp3","char_type_name":"word","page_number":374,"line_number":10,"text":"كَذَّبَ","translation":{"text":"মিথ্যারোপ করেছিলো","language_name":"bengali","language_id":20},"transliteration":{"text":"kadhaba","language_name":"english","language_id":38}},{"id":83503,"position":2,"audio_url":"wbw/026_176_002.mp3","char_type_name":"word","page_number":374,"line_number":10,"text":"أَصْحَـٰبُ","translation":{"text":"অধিবাসীরাও","language_name":"bengali","language_id":20},"transliteration":{"text":"aṣḥābu","language_name":"english","language_id":38}},{"id":83504,"position":3,"audio_url":"wbw/026_176_003.mp3","char_type_name":"word","page_number":374,"line_number":11,"text":"لْـَٔيْكَةِ","translation":{"text":"আইকার","language_name":"bengali","language_id":20},"transliteration":{"text":"al'aykati","language_name":"english","language_id":38}},{"id":83505,"position":4,"audio_url":"wbw/026_176_004.mp3","char_type_name":"word","page_number":374,"line_number":11,"text":"ٱلْمُرْسَلِينَ","translation":{"text":"রাসূলদেরকে","language_name":"bengali","language_id":20},"transliteration":{"text":"l-mur'salīna","language_name":"english","language_id":38}},{"id":83506,"position":5,"audio_url":null,"char_type_name":"end","page_number":374,"line_number":11,"text":"١٧٦","translation":{"text":"(১৭৬)","language_name":"bengali","language_id":20},"transliteration":{"text":null,"language_name":"english","language_id":38}}]},{"id":3109,"verse_number":177,"verse_key":"26:177","hizb_number":38,"rub_el_hizb_number":149,"ruku_number":325,"manzil_number":5,"sajdah_number":null,"page_number":374,"juz_number":19,"words":[{"id":83507,"position":1,"audio_url":"wbw/026_177_001.mp3","char_type_name":"word","page_number":374,"line_number":11,"text":"إِذْ","translation":{"text":"(স্মরণ করো) যখন","language_name":"bengali","language_id":20},"transliteration":{"text":"idh","language_name":"english","language_id":38}},{"id":83508,"position":2,"audio_url":"wbw/026_177_002.mp3","char_type_name":"word","page_number":374,"line_number":11,"text":"قَالَ","translation":{"text":"বলেছিলো","language_name":"bengali","language_id":20},"transliteration":{"text":"qāla","language_name":"english","language_id":38}},{"id":83509,"position":3,"audio_url":"wbw/026_177_003.mp3","char_type_name":"word","page_number":374,"line_number":11,"text":"لَهُمْ","translation":{"text":"উদ্দেশ্যে তাদের","language_name":"bengali","language_id":20},"transliteration":{"text":"lahum","language_name":"english","language_id":38}},{"id":83510,"position":4,"audio_url":"wbw/026_177_004.mp3","char_type_name":"word","page_number":374,"line_number":11,"text":"شُعَيْبٌ","translation":{"text":"শু'আইব","language_name":"bengali","language_id":20},"transliteration":{"text":"shuʿaybun","language_name":"english","language_id":38}},{"id":83511,"position":5,"audio_url":"wbw/026_177_005.mp3","char_type_name":"word","page_number":374,"line_number":11,"text":"أَلَا","translation":{"text":"\"কি না","language_name":"bengali","language_id":20},"transliteration":{"text":"alā","language_name":"english","language_id":38}},{"id":83512,"position":6,"audio_url":"wbw/026_177_006.mp3","char_type_name":"word","page_number":374,"line_number":11,"text":"تَتَّقُونَ","translation":{"text":"তোমরা ভয় করবে","language_name":"bengali","language_id":20},"transliteration":{"text":"tattaqūna","language_name":"english","language_id":38}},{"id":83513,"position":7,"audio_url":null,"char_type_name":"end","page_number":374,"line_number":11,"text":"١٧٧","translation":{"text":"(১৭৭)","language_name":"bengali","language_id":20},"transliteration":{"text":null,"language_name":"english","language_id":38}}]},{"id":3110,"verse_number":178,"verse_key":"26:178","hizb_number":38,"rub_el_hizb_number":149,"ruku_number":325,"manzil_number":5,"sajdah_number":null,"page_number":374,"juz_number":19,"words":[{"id":83600,"position":1,"audio_url":"wbw/026_178_001.mp3","char_type_name":"word","page_number":374,"line_number":11,"text":"إِنِّى","translation":{"text":"নিশ্চয়ই আমি","language_name":"bengali","language_id":20},"transliteration":{"text":"innī","language_name":"english","language_id":38}},{"id":83601,"position":2,"audio_url":"wbw/026_178_002.mp3","char_type_name":"word","page_number":374,"line_number":11,"text":"لَكُمْ","translation":{"text":"জন্যে তোমাদের","language_name":"bengali","language_id":20},"transliteration":{"text":"lakum","language_name":"english","language_id":38}},{"id":83602,"position":3,"audio_url":"wbw/026_178_003.mp3","char_type_name":"word","page_number":374,"line_number":12,"text":"رَسُولٌ","translation":{"text":"একজন রাসূল","language_name":"bengali","language_id":20},"transliteration":{"text":"rasūlun","language_name":"english","language_id":38}},{"id":83603,"position":4,"audio_url":"wbw/026_178_004.mp3","char_type_name":"word","page_number":374,"line_number":12,"text":"أَمِينٌۭ","translation":{"text":"বিশ্বস্ত","language_name":"bengali","language_id":20},"transliteration":{"text":"amīnun","language_name":"english","language_id":38}},{"id":83604,"position":5,"audio_url":null,"char_type_name":"end","page_number":374,"line_number":12,"text":"١٧٨","translation":{"text":"(১৭৮)","language_name":"bengali","language_id":20},"transliteration":{"text":null,"language_name":"english","language_id":38}}]},{"id":3111,"verse_number":179,"verse_key":"26:179","hizb_number":38,"rub_el_hizb_number":149,"ruku_number":325,"manzil_number":5,"sajdah_number":null,"page_number":374,"juz_number":19,"words":[{"id":83733,"position":1,"audio_url":"wbw/026_179_001.mp3","char_type_name":"word","page_number":374,"line_number":12,"text":"فَٱتَّقُوا۟","translation":{"text":"অতঃপর তোমরা ভয় করো","language_name":"bengali","language_id":20},"transliteration":{"text":"fa-ittaqū","language_name":"english","language_id":38}},{"id":83734,"position":2,"audio_url":"wbw/026_179_002.mp3","char_type_name":"word","page_number":374,"line_number":12,"text":"ٱللَّهَ","translation":{"text":"আল্লাহকে","language_name":"bengali","language_id":20},"transliteration":{"text":"l-laha","language_name":"english","language_id":38}},{"id":83735,"position":3,"audio_url":"wbw/026_179_003.mp3","char_type_name":"word","page_number":374,"line_number":12,"text":"وَأَطِيعُونِ","translation":{"text":"ও তোমরা আমার আনুগত্য করো","language_name":"bengali","language_id":20},"transliteration":{"text":"wa-aṭīʿūni","language_name":"english","language_id":38}},{"id":83736,"position":4,"audio_url":null,"char_type_name":"end","page_number":374,"line_number":12,"text":"١٧٩","translation":{"text":"(১৭৯)","language_name":"bengali","language_id":20},"transliteration":{"text":null,"language_name":"english","language_id":38}}]},{"id":3112,"verse_number":180,"verse_key":"26:180","hizb_number":38,"rub_el_hizb_number":149,"ruku_number":325,"manzil_number":5,"sajdah_number":null,"page_number":374,"juz_number":19,"words":[{"id":83792,"position":1,"audio_url":"wbw/026_180_001.mp3","char_type_name":"word","page_number":374,"line_number":12,"text":"وَمَآ","translation":{"text":"আর না","language_name":"bengali","language_id":20},"transliteration":{"text":"wamā","language_name":"english","language_id":38}},{"id":83793,"position":2,"audio_url":"wbw/026_180_002.mp3","char_type_name":"word","page_number":374,"line_number":12,"text":"أَسْـَٔلُكُمْ","translation":{"text":"তোমাদের (নিকট) আমি চাচ্ছি","language_name":"bengali","language_id":20},"transliteration":{"text":"asalukum","language_name":"english","language_id":38}},{"id":83794,"position":3,"audio_url":"wbw/026_180_003.mp3","char_type_name":"word","page_number":374,"line_number":12,"text":"عَلَيْهِ","translation":{"text":"জন্যে এর","language_name":"bengali","language_id":20},"transliteration":{"text":"ʿalayhi","language_name":"english","language_id":38}},{"id":83795,"position":4,"audio_url":"wbw/026_180_004.mp3","char_type_name":"word","page_number":374,"line_number":13,"text":"مِنْ","translation":{"text":"কোনো","language_name":"bengali","language_id":20},"transliteration":{"text":"min","language_name":"english","language_id":38}},{"id":83796,"position":5,"audio_url":"wbw/026_180_005.mp3","char_type_name":"word","page_number":374,"line_number":13,"text":"أَجْرٍ ۖ","translation":{"text":"প্রতিদান","language_name":"bengali","language_id":20},"transliteration":{"text":"ajrin","language_name":"english","language_id":38}},{"id":83798,"position":6,"audio_url":"wbw/026_180_007.mp3","char_type_name":"word","page_number":374,"line_number":13,"text":"إِنْ","translation":{"text":"নেই","language_name":"bengali","language_id":20},"transliteration":{"text":"in","language_name":"english","language_id":38}},{"id":83799,"position":7,"audio_url":"wbw/026_180_008.mp3","char_type_name":"word","page_number":374,"line_number":13,"text":"أَجْرِىَ","translation":{"text":"আমার প্রতিদান (অন্য কারো নিকট)","language_name":"bengali","language_id":20},"transliteration":{"text":"ajriya","language_name":"english","language_id":38}},{"id":83800,"position":8,"audio_url":"wbw/026_180_009.mp3","char_type_name":"word","page_number":374,"line_number":13,"text":"إِلَّا","translation":{"text":"ছাড়া","language_name":"bengali","language_id":20},"transliteration":{"text":"illā","language_name":"english","language_id":38}},{"id":83801,"position":9,"audio_url":"wbw/026_180_010.mp3","char_type_name":"word","page_number":374,"line_number":13,"text":"عَلَىٰ","translation":{"text":"নিকট","language_name":"bengali","language_id":20},"transliteration":{"text":"ʿalā","language_name":"english","language_id":38}},{"id":83802,"position":10,"audio_url":"wbw/026_180_011.mp3","char_type_name":"word","page_number":374,"line_number":13,"text":"رَبِّ","translation":{"text":"রবের","language_name":"bengali","language_id":20},"transliteration":{"text":"rabbi","language_name":"english","language_id":38}},{"id":83803,"position":11,"audio_url":"wbw/026_180_012.mp3","char_type_name":"word","page_number":374,"line_number":13,"text":"ٱلْعَـٰلَمِينَ","translation":{"text":"বিশ্বজগতের","language_name":"bengali","language_id":20},"transliteration":{"text":"l-ʿālamīna","language_name":"english","language_id":38}},{"id":83804,"position":12,"audio_url":null,"char_type_name":"end","page_number":374,"line_number":13,"text":"١٨٠","translation":{"text":"(১৮০)","language_name":"bengali","language_id":20},"transliteration":{"text":null,"language_name":"english","language_id":38}}]}],"pagination":{"per_page":10,"current_page":18,"next_page":19,"total_pages":23,"total_records":227}}
