{"verses":[{"id":2943,"verse_number":11,"verse_key":"26:11","hizb_number":37,"rub_el_hizb_number":147,"ruku_number":317,"manzil_number":5,"sajdah_number":null,"page_number":367,"juz_number":19,"words":[{"id":13044,"position":1,"audio_url":"wbw/026_011_001.mp3","char_type_name":"word","page_number":367,"line_number":9,"text":"قَوْمَ","translation":{"text":"জাতি","language_name":"bengali","language_id":20},"transliteration":{"text":"qawma","language_name":"english","language_id":38}},{"id":13045,"position":2,"audio_url":"wbw/026_011_002.mp3","char_type_name":"word","page_number":367,"line_number":9,"text":"فِرْعَوْنَ ۚ","translation":{"text":"ফিরআউনের","language_name":"bengali","language_id":20},"transliteration":{"text":"fir'ʿawna","language_name":"english","language_id":38}},{"id":13047,"position":3,"audio_url":"wbw/026_011_004.mp3","char_type_name":"word","page_number":367,"line_number":9,"text":"أَلَا","translation":{"text":"কি না","language_name":"bengali","language_id":20},"transliteration":{"text":"alā","language_name":"english","language_id":38}},{"id":13048,"position":4,"audio_url":"wbw/026_011_005.mp3","char_type_name":"word","page_number":367,"line_number":9,"text":"يَتَّقُونَ","translation":{"text":"তারা ভয় করে\"","language_name":"bengali","language_id":20},"transliteration":{"text":"yattaqūna","language_name":"english","language_id":38}},{"id":13049,"position":5,"audio_url":null,"char_type_name":"end","page_number":367,"line_number":9,"text":"١١","translation":{"text":"(১১)","language_name":"bengali","language_id":20},"transliteration":{"text":null,"language_name":"english","language_id":38}}]},{"id":2944,"verse_number":12,"verse_key":"26:12","hizb_number":37,"rub_el_hizb_number":147,"ruku_number":317,"manzil_number":5,"sajdah_number":null,"page_number":367,"juz_number":19,"words":[{"id":14287,"position":1,"audio_url":"wbw/026_012_001.mp3","char_type_name":"word","page_number":367,"line_number":9,"text":"قَالَ","translation":{"text":"(মূসা) বললো","language_name":"bengali","language_id":20},"transliteration":{"text":"qāla","language_name":"english","language_id":38}},{"id":14288,"position":2,"audio_url":"wbw/026_012_002.mp3","char_type_name":"word","page_number":367,"line_number":9,"text":"رَبِّ","translation":{"text":"\"হে আমার রব","language_name":"bengali","language_id":20},"transliteration":{"text":"rabbi","language_name":"english","language_id":38}},{"id":14289,"position":3,"audio_url":"wbw/026_012_003.mp3","char_type_name":"word","page_number":367,"line_number":9,"text":"إِنِّىٓ","translation":{"text":"নিশ্চয়ই আমি","language_name":"bengali","language_id":20},"transliteration":{"text":"innī","language_name":"english","language_id":38}},{"id":14290,"position":4,"audio_url":"wbw/026_012_004.mp3","char_type_name":"word","page_number":367,"line_number":9,"text":"أَخَافُ","translation":{"text":"আমি আশংকা করছি","language_name":"bengali","language_id":20},"transliteration":{"text":"akhāfu","language_name":"english","language_id":38}},{"id":14291,"position":5,"audio_url":"wbw/026_012_005.mp3","char_type_name":"word","page_number":367,"line_number":10,"text":"أَن","translation":{"text":"যে","language_name":"bengali","language_id":20},"transliteration":{"text":"an","language_name":"english","language_id":38}},{"id":14292,"position":6,"audio_url":"wbw/026_012_006.mp3","char_type_name":"word","page_number":367,"line_number":10,"text":"يُكَذِّبُونِ","translation":{"text":"মিথ্যাবাদী বলবে তারা আমাকে","language_name":"bengali","language_id":20},"transliteration":{"text":"yukadhibūni","language_name":"english","language_id":38}},{"id":14293,"position":7,"audio_url":null,"char_type_name":"end","page_number":367,"line_number":10,"text":"١٢","translation":{"text":"(১২)","language_name":"bengali","language_id":20},"transliteration":{"text":null,"language_name":"english","language_id":38}}]},{"id":2945,"verse_number":13,"verse_key":"26:13","hizb_number":37,"rub_el_hizb_number":147,"ruku_number":317,"manzil_number":5,"sajdah_number":null,"page_number":367,"juz_number":19,"words":[{"id":15413,"position":1,"audio_url":"wbw/026_013_001.mp3","char_type_name":"word","page_number":367,"line_number":10,"text":"وَيَضِيقُ","translation":{"text":"এবং সংকুচিত হচ্ছে","language_name":"bengali","language_id":20},"transliteration":{"text":"wayaḍīqu","language_name":"english","language_id":38}},{"id":15414,"position":2,"audio_url":"wbw/026_013_002.mp3","char_type_name":"word","page_number":367,"line_number":10,"text":"صَدْرِى","translation":{"text":"আমার অন্তর","language_name":"bengali","language_id":20},"transliteration":{"text":"ṣadrī","language_name":"english","language_id":38}},{"id":15415,"position":3,"audio_url":"wbw/026_013_003.mp3","char_type_name":"word","page_number":367,"line_number":10,"text":"وَلَا","translation":{"text":"আর না","language_name":"bengali","language_id":20},"transliteration":{"text":"walā","language_name":"english","language_id":38}},{"id":15416,"position":4,"audio_url":"wbw/026_013_004.mp3","char_type_name":"word","page_number":367,"line_number":10,"text":"يَنطَلِقُ","translation":{"text":"অগ্রসর হয়","language_name":"bengali","language_id":20},"transliteration":{"text":"yanṭaliqu","language_name":"english","language_id":38}},{"id":15417,"position":5,"audio_url":"wbw/026_013_005.mp3","char_type_name":"word","page_number":367,"line_number":10,"text":"لِسَانِى","translation":{"text":"জিহবা আমার","language_name":"bengali","language_id":20},"transliteration":{"text":"lisānī","language_name":"english","language_id":38}},{"id":15418,"position":6,"audio_url":"wbw/026_013_006.mp3","char_type_name":"word","page_number":367,"line_number":10,"text":"فَأَرْسِلْ","translation":{"text":"সুতরাং আপনি পাঠান (ওহি)","language_name":"bengali","language_id":20},"transliteration":{"text":"fa-arsil","language_name":"english","language_id":38}},{"id":15419,"position":7,"audio_url":"wbw/026_013_007.mp3","char_type_name":"word","page_number":367,"line_number":11,"text":"إِلَىٰ","translation":{"text":"প্রতিও","language_name":"bengali","language_id":20},"transliteration":{"text":"ilā","language_name":"english","language_id":38}},{"id":15420,"position":8,"audio_url":"wbw/026_013_008.mp3","char_type_name":"word","page_number":367,"line_number":11,"text":"هَـٰرُونَ","translation":{"text":"হারূনের","language_name":"bengali","language_id":20},"transliteration":{"text":"hārūna","language_name":"english","language_id":38}},{"id":15421,"position":9,"audio_url":null,"char_type_name":"end","page_number":367,"line_number":11,"text":"١٣","translation":{"text":"(১৩)","language_name":"bengali","language_id":20},"transliteration":{"text":null,"language_name":"english","language_id":38}}]},{"id":2946,"verse_number":14,"verse_key":"26:14","hizb_number":37,"rub_el_hizb_number":147,"ruku_number":317,"manzil_number":5,"sajdah_number":null,"page_number":367,"juz_number":19,"words":[{"id":16456,"position":1,"audio_url":"wbw/026_014_001.mp3","char_type_name":"word","page_number":367,"line_number":11,"text":"وَلَهُمْ","translation":{"text":"এবং আছে তাদের","language_name":"bengali","language_id":20},"transliteration":{"text":"walahum","language_name":"english","language_id":38}},{"id":16457,"position":2,"audio_url":"wbw/026_014_002.mp3","char_type_name":"word","page_number":367,"line_number":11,"text":"عَلَىَّ","translation":{"text":"বিরুদ্ধে আমার","language_name":"bengali","language_id":20},"transliteration":{"text":"ʿalayya","language_name":"english","language_id":38}},{"id":16458,"position":3,"audio_url":"wbw/026_014_003.mp3","char_type_name":"word","page_number":367,"line_number":11,"text":"ذَنۢبٌۭ","translation":{"text":"(অপরাধের) অভিযোগ","language_name":"bengali","language_id":20},"transliteration":{"text":"dhanbun","language_name":"english","language_id":38}},{"id":16459,"position":4,"audio_url":"wbw/026_014_004.mp3","char_type_name":"word","page_number":367,"line_number":11,"text":"فَأَخَافُ","translation":{"text":"তাই আমি আশংকা করছি","language_name":"bengali","language_id":20},"transliteration":{"text":"fa-akhāfu","language_name":"english","language_id":38}},{"id":16460,"position":5,"audio_url":"wbw/026_014_005.mp3","char_type_name":"word","page_number":367,"line_number":11,"text":"أَن","translation":{"text":"যে","language_name":"bengali","language_id":20},"transliteration":{"text":"an","language_name":"english","language_id":38}},{"id":16461,"position":6,"audio_url":"wbw/026_014_006.mp3","char_type_name":"word","page_number":367,"line_number":11,"text":"يَقْتُلُونِ","translation":{"text":"আমাকে তারা হত্যা করবে\"","language_name":"bengali","language_id":20},"transliteration":{"text":"yaqtulūni","language_name":"english","language_id":38}},{"id":16462,"position":7,"audio_url":null,"char_type_name":"end","page_number":367,"line_number":11,"text":"١٤","translation":{"text":"(১৪)","language_name":"bengali","language_id":20},"transliteration":{"text":null,"language_name":"english","language_id":38}}]},{"id":2947,"verse_number":15,"verse_key":"26:15","hizb_number":37,"rub_el_hizb_number":147,"ruku_number":317,"manzil_number":5,"sajdah_number":null,"page_number":367,"juz_number":19,"words":[{"id":17616,"position":1,"audio_url":"wbw/026_015_001.mp3","char_type_name":"word","page_number":367,"line_number":11,"text":"قَالَ","translation":{"text":"(আল্লাহ) বললেন","language_name":"bengali","language_id":20},"transliteration":{"text":"qāla","language_name":"english","language_id":38}},{"id":17617,"position":2,"audio_url":"wbw/026_015_002.mp3","char_type_name":"word","page_number":367,"line_number":12,"text":"كَلَّا ۖ","translation":{"text":"\"কখনও না (তারা পারবে)","language_name":"bengali","language_id":20},"transliteration":{"text":"kallā","language_name":"english","language_id":38}},{"id":17619,"position":3,"audio_url":"wbw/026_015_004.mp3","char_type_name":"word","page_number":367,"line_number":12,"text":"فَٱذْهَبَا","translation":{"text":"অতএব তোমরা দু'জনে যাও","language_name":"bengali","language_id":20},"transliteration":{"text":"fa-idh'habā","language_name":"english","language_id":38}},{"id":17620,"position":4,"audio_url":"wbw/026_015_005.mp3","char_type_name":"word","page_number":367,"line_number":12,"text":"بِـَٔايَـٰتِنَآ ۖ","translation":{"text":"নিয়ে নিদর্শনাবলী আমাদের","language_name":"bengali","language_id":20},"transliteration":{"text":"biāyātinā","language_name":"english","language_id":38}},{"id":17622,"position":5,"audio_url":"wbw/026_015_007.mp3","char_type_name":"word","page_number":367,"line_number":12,"text":"إِنَّا","translation":{"text":"নিশ্চয়ই আমরা","language_name":"bengali","language_id":20},"transliteration":{"text":"innā","language_name":"english","language_id":38}},{"id":17623,"position":6,"audio_url":"wbw/026_015_008.mp3","char_type_name":"word","page_number":367,"line_number":12,"text":"مَعَكُم","translation":{"text":"সাথে তোমাদের (আছি)","language_name":"bengali","language_id":20},"transliteration":{"text":"maʿakum","language_name":"english","language_id":38}},{"id":17624,"position":7,"audio_url":"wbw/026_015_009.mp3","char_type_name":"word","page_number":367,"line_number":12,"text":"مُّسْتَمِعُونَ","translation":{"text":"(সদা সর্বদা)শ্রবণকারী","language_name":"bengali","language_id":20},"transliteration":{"text":"mus'tamiʿūna","language_name":"english","language_id":38}},{"id":17625,"position":8,"audio_url":null,"char_type_name":"end","page_number":367,"line_number":12,"text":"١٥","translation":{"text":"(১৫)","language_name":"bengali","language_id":20},"transliteration":{"text":null,"language_name":"english","language_id":38}}]},{"id":2948,"verse_number":16,"verse_key":"26:16","hizb_number":37,"rub_el_hizb_number":147,"ruku_number":317,"manzil_number":5,"sajdah_number":null,"page_number":367,"juz_number":19,"words":[{"id":18650,"position":1,"audio_url":"wbw/026_016_001.mp3","char_type_name":"word","page_number":367,"line_number":12,"text":"فَأْتِيَا","translation":{"text":"সুতরাং দু'জনে যাও","language_name":"bengali","language_id":20},"transliteration":{"text":"fatiyā","language_name":"english","language_id":38}},{"id":18651,"position":2,"audio_url":"wbw/026_016_002.mp3","char_type_name":"word","page_number":367,"line_number":12,"text":"فِرْعَوْنَ","translation":{"text":"ফিরআউনের (নিকট)","language_name":"bengali","language_id":20},"transliteration":{"text":"fir'ʿawna","language_name":"english","language_id":38}},{"id":18652,"position":3,"audio_url":"wbw/026_016_003.mp3","char_type_name":"word","page_number":367,"line_number":13,"text":"فَقُولَآ","translation":{"text":"অতঃপর দু'জনে বলো","language_name":"bengali","language_id":20},"transliteration":{"text":"faqūlā","language_name":"english","language_id":38}},{"id":18653,"position":4,"audio_url":"wbw/026_016_004.mp3","char_type_name":"word","page_number":367,"line_number":13,"text":"إِنَّا","translation":{"text":"নিশ্চয়ই আমরা","language_name":"bengali","language_id":20},"transliteration":{"text":"innā","language_name":"english","language_id":38}},{"id":18654,"position":5,"audio_url":"wbw/026_016_005.mp3","char_type_name":"word","page_number":367,"line_number":13,"text":"رَسُولُ","translation":{"text":"রাসূল","language_name":"bengali","language_id":20},"transliteration":{"text":"rasūlu","language_name":"english","language_id":38}},{"id":18655,"position":6,"audio_url":"wbw/026_016_006.mp3","char_type_name":"word","page_number":367,"line_number":13,"text":"رَبِّ","translation":{"text":"রবের","language_name":"bengali","language_id":20},"transliteration":{"text":"rabbi","language_name":"english","language_id":38}},{"id":18656,"position":7,"audio_url":"wbw/026_016_007.mp3","char_type_name":"word","page_number":367,"line_number":13,"text":"ٱلْعَـٰلَمِينَ","translation":{"text":"বিশ্বজগতের","language_name":"bengali","language_id":20},"transliteration":{"text":"l-ʿālamīna","language_name":"english","language_id":38}},{"id":18657,"position":8,"audio_url":null,"char_type_name":"end","page_number":367,"line_number":13,"text":"١٦","translation":{"text":"(১৬)","language_name":"bengali","language_id":20},"transliteration":{"text":null,"language_name":"english","language_id":38}}]},{"id":2949,"verse_number":17,"verse_key":"26:17","hizb_number":37,"rub_el_hizb_number":147,"ruku_number":317,"manzil_number":5,"sajdah_number":null,"page_number":367,"juz_number":19,"words":[{"id":19716,"position":1,"audio_url":"wbw/026_017_001.mp3","char_type_name":"word","page_number":367,"line_number":13,"text":"أَنْ","translation":{"text":"(আরও বলো) যে","language_name":"bengali","language_id":20},"transliteration":{"text":"an","language_name":"english","language_id":38}},{"id":19717,"position":2,"audio_url":"wbw/026_017_002.mp3","char_type_name":"word","page_number":367,"line_number":13,"text":"أَرْسِلْ","translation":{"text":"পাঠাও","language_name":"bengali","language_id":20},"transliteration":{"text":"arsil","language_name":"english","language_id":38}},{"id":19718,"position":3,"audio_url":"wbw/026_017_003.mp3","char_type_name":"word","page_number":367,"line_number":13,"text":"مَعَنَا","translation":{"text":"সাথে আমাদের","language_name":"bengali","language_id":20},"transliteration":{"text":"maʿanā","language_name":"english","language_id":38}},{"id":19719,"position":4,"audio_url":"wbw/026_017_004.mp3","char_type_name":"word","page_number":367,"line_number":13,"text":"بَنِىٓ","translation":{"text":"বনী","language_name":"bengali","language_id":20},"transliteration":{"text":"banī","language_name":"english","language_id":38}},{"id":19720,"position":5,"audio_url":"wbw/026_017_005.mp3","char_type_name":"word","page_number":367,"line_number":13,"text":"إِسْرَٰٓءِيلَ","translation":{"text":"ইসরাঈলকে","language_name":"bengali","language_id":20},"transliteration":{"text":"is'rāīla","language_name":"english","language_id":38}},{"id":19721,"position":6,"audio_url":null,"char_type_name":"end","page_number":367,"line_number":14,"text":"١٧","translation":{"text":"(১৭)","language_name":"bengali","language_id":20},"transliteration":{"text":null,"language_name":"english","language_id":38}}]},{"id":2950,"verse_number":18,"verse_key":"26:18","hizb_number":37,"rub_el_hizb_number":147,"ruku_number":317,"manzil_number":5,"sajdah_number":null,"page_number":367,"juz_number":19,"words":[{"id":20799,"position":1,"audio_url":"wbw/026_018_001.mp3","char_type_name":"word","page_number":367,"line_number":14,"text":"قَالَ","translation":{"text":"(ফিরআউন) বললো","language_name":"bengali","language_id":20},"transliteration":{"text":"qāla","language_name":"english","language_id":38}},{"id":20800,"position":2,"audio_url":"wbw/026_018_002.mp3","char_type_name":"word","page_number":367,"line_number":14,"text":"أَلَمْ","translation":{"text":"\"কি নি","language_name":"bengali","language_id":20},"transliteration":{"text":"alam","language_name":"english","language_id":38}},{"id":20801,"position":3,"audio_url":"wbw/026_018_003.mp3","char_type_name":"word","page_number":367,"line_number":14,"text":"نُرَبِّكَ","translation":{"text":"আমরা তোমাকে প্রতিপালন করি","language_name":"bengali","language_id":20},"transliteration":{"text":"nurabbika","language_name":"english","language_id":38}},{"id":20802,"position":4,"audio_url":"wbw/026_018_004.mp3","char_type_name":"word","page_number":367,"line_number":14,"text":"فِينَا","translation":{"text":"মাঝে আমাদের","language_name":"bengali","language_id":20},"transliteration":{"text":"fīnā","language_name":"english","language_id":38}},{"id":20803,"position":5,"audio_url":"wbw/026_018_005.mp3","char_type_name":"word","page_number":367,"line_number":14,"text":"وَلِيدًۭا","translation":{"text":"শৈশবে","language_name":"bengali","language_id":20},"transliteration":{"text":"walīdan","language_name":"english","language_id":38}},{"id":20804,"position":6,"audio_url":"wbw/026_018_006.mp3","char_type_name":"word","page_number":367,"line_number":14,"text":"وَلَبِثْتَ","translation":{"text":"এবং তুমি কাটিয়েছো","language_name":"bengali","language_id":20},"transliteration":{"text":"walabith'ta","language_name":"english","language_id":38}},{"id":20805,"position":7,"audio_url":"wbw/026_018_007.mp3","char_type_name":"word","page_number":367,"line_number":14,"text":"فِينَا","translation":{"text":"মাঝে আমাদের","language_name":"bengali","language_id":20},"transliteration":{"text":"fīnā","language_name":"english","language_id":38}},{"id":20806,"position":8,"audio_url":"wbw/026_018_008.mp3","char_type_name":"word","page_number":367,"line_number":14,"text":"مِنْ","translation":{"text":"থেকে","language_name":"bengali","language_id":20},"transliteration":{"text":"min","language_name":"english","language_id":38}},{"id":20807,"position":9,"audio_url":"wbw/026_018_009.mp3","char_type_name":"word","page_number":367,"line_number":14,"text":"عُمُرِكَ","translation":{"text":"জীবনের তোমার","language_name":"bengali","language_id":20},"transliteration":{"text":"ʿumurika","language_name":"english","language_id":38}},{"id":20808,"position":10,"audio_url":"wbw/026_018_010.mp3","char_type_name":"word","page_number":367,"line_number":14,"text":"سِنِينَ","translation":{"text":"(কয়েকটি) বছর","language_name":"bengali","language_id":20},"transliteration":{"text":"sinīna","language_name":"english","language_id":38}},{"id":20809,"position":11,"audio_url":null,"char_type_name":"end","page_number":367,"line_number":15,"text":"١٨","translation":{"text":"(১৮)","language_name":"bengali","language_id":20},"transliteration":{"text":null,"language_name":"english","language_id":38}}]},{"id":2951,"verse_number":19,"verse_key":"26:19","hizb_number":37,"rub_el_hizb_number":147,"ruku_number":317,"manzil_number":5,"sajdah_number":null,"page_number":367,"juz_number":19,"words":[{"id":22102,"position":1,"audio_url":"wbw/026_019_001.mp3","char_type_name":"word","page_number":367,"line_number":15,"text":"وَفَعَلْتَ","translation":{"text":"এবং তুমি করেছো","language_name":"bengali","language_id":20},"transliteration":{"text":"wafaʿalta","language_name":"english","language_id":38}},{"id":22103,"position":2,"audio_url":"wbw/026_019_002.mp3","char_type_name":"word","page_number":367,"line_number":15,"text":"فَعْلَتَكَ","translation":{"text":"কর্ম তোমার","language_name":"bengali","language_id":20},"transliteration":{"text":"faʿlataka","language_name":"english","language_id":38}},{"id":22104,"position":3,"audio_url":"wbw/026_019_003.mp3","char_type_name":"word","page_number":367,"line_number":15,"text":"ٱلَّتِى","translation":{"text":"যা কিছু","language_name":"bengali","language_id":20},"transliteration":{"text":"allatī","language_name":"english","language_id":38}},{"id":22105,"position":4,"audio_url":"wbw/026_019_004.mp3","char_type_name":"word","page_number":367,"line_number":15,"text":"فَعَلْتَ","translation":{"text":"তুমি করেছো","language_name":"bengali","language_id":20},"transliteration":{"text":"faʿalta","language_name":"english","language_id":38}},{"id":22106,"position":5,"audio_url":"wbw/026_019_005.mp3","char_type_name":"word","page_number":367,"line_number":15,"text":"وَأَنتَ","translation":{"text":"আর তুমি","language_name":"bengali","language_id":20},"transliteration":{"text":"wa-anta","language_name":"english","language_id":38}},{"id":22107,"position":6,"audio_url":"wbw/026_019_006.mp3","char_type_name":"word","page_number":367,"line_number":15,"text":"مِنَ","translation":{"text":"অন্তর্ভূক্ত","language_name":"bengali","language_id":20},"transliteration":{"text":"mina","language_name":"english","language_id":38}},{"id":22108,"position":7,"audio_url":"wbw/026_019_007.mp3","char_type_name":"word","page_number":367,"line_number":15,"text":"ٱلْكَـٰفِرِينَ","translation":{"text":"অকৃতজ্ঞদের\"","language_name":"bengali","language_id":20},"transliteration":{"text":"l-kāfirīna","language_name":"english","language_id":38}},{"id":22109,"position":8,"audio_url":null,"char_type_name":"end","page_number":367,"line_number":15,"text":"١٩","translation":{"text":"(১৯)","language_name":"bengali","language_id":20},"transliteration":{"text":null,"language_name":"english","language_id":38}}]},{"id":2952,"verse_number":20,"verse_key":"26:20","hizb_number":37,"rub_el_hizb_number":147,"ruku_number":317,"manzil_number":5,"sajdah_number":null,"page_number":368,"juz_number":19,"words":[{"id":23215,"position":1,"audio_url":"wbw/026_020_001.mp3","char_type_name":"word","page_number":368,"line_number":1,"text":"قَالَ","translation":{"text":"(মূসা) বললো","language_name":"bengali","language_id":20},"transliteration":{"text":"qāla","language_name":"english","language_id":38}},{"id":23216,"position":2,"audio_url":"wbw/026_020_002.mp3","char_type_name":"word","page_number":368,"line_number":1,"text":"فَعَلْتُهَآ","translation":{"text":"\"তা আমি করেছিলাম","language_name":"bengali","language_id":20},"transliteration":{"text":"faʿaltuhā","language_name":"english","language_id":38}},{"id":23217,"position":3,"audio_url":"wbw/026_020_003.mp3","char_type_name":"word","page_number":368,"line_number":1,"text":"إِذًۭا","translation":{"text":"তখন (সে সময়)","language_name":"bengali","language_id":20},"transliteration":{"text":"idhan","language_name":"english","language_id":38}},{"id":23218,"position":4,"audio_url":"wbw/026_020_004.mp3","char_type_name":"word","page_number":368,"line_number":1,"text":"وَأَنَا۠","translation":{"text":"যখন আমি (ছিলাম)","language_name":"bengali","language_id":20},"transliteration":{"text":"wa-anā","language_name":"english","language_id":38}},{"id":23219,"position":5,"audio_url":"wbw/026_020_005.mp3","char_type_name":"word","page_number":368,"line_number":1,"text":"مِنَ","translation":{"text":"অন্তর্ভূক্ত","language_name":"bengali","language_id":20},"transliteration":{"text":"mina","language_name":"english","language_id":38}},{"id":23220,"position":6,"audio_url":"wbw/026_020_006.mp3","char_type_name":"word","page_number":368,"line_number":1,"text":"ٱلضَّآلِّينَ","translation":{"text":"পথভ্রষ্টদের","language_name":"bengali","language_id":20},"transliteration":{"text":"l-ḍālīna","language_name":"english","language_id":38}},{"id":23221,"position":7,"audio_url":null,"char_type_name":"end","page_number":368,"line_number":1,"text":"٢٠","translation":{"text":"(২০)","language_name":"bengali","language_id":20},"transliteration":{"text":null,"language_name":"english","language_id":38}}]}],"pagination":{"per_page":10,"current_page":2,"next_page":3,"total_pages":23,"total_records":227}}
