{"verses":[{"id":2963,"verse_number":31,"verse_key":"26:31","hizb_number":37,"rub_el_hizb_number":147,"ruku_number":317,"manzil_number":5,"sajdah_number":null,"page_number":368,"juz_number":19,"words":[{"id":33807,"position":1,"audio_url":"wbw/026_031_001.mp3","char_type_name":"word","page_number":368,"line_number":9,"text":"قَالَ","translation":{"text":"(ফিরআউন) বললো","language_name":"bengali","language_id":20},"transliteration":{"text":"qāla","language_name":"english","language_id":38}},{"id":33808,"position":2,"audio_url":"wbw/026_031_002.mp3","char_type_name":"word","page_number":368,"line_number":9,"text":"فَأْتِ","translation":{"text":"\"তবে আসো","language_name":"bengali","language_id":20},"transliteration":{"text":"fati","language_name":"english","language_id":38}},{"id":33809,"position":3,"audio_url":"wbw/026_031_003.mp3","char_type_name":"word","page_number":368,"line_number":9,"text":"بِهِۦٓ","translation":{"text":"নিয়ে তা","language_name":"bengali","language_id":20},"transliteration":{"text":"bihi","language_name":"english","language_id":38}},{"id":33810,"position":4,"audio_url":"wbw/026_031_004.mp3","char_type_name":"word","page_number":368,"line_number":9,"text":"إِن","translation":{"text":"যদি","language_name":"bengali","language_id":20},"transliteration":{"text":"in","language_name":"english","language_id":38}},{"id":33811,"position":5,"audio_url":"wbw/026_031_005.mp3","char_type_name":"word","page_number":368,"line_number":9,"text":"كُنتَ","translation":{"text":"তুমি হও","language_name":"bengali","language_id":20},"transliteration":{"text":"kunta","language_name":"english","language_id":38}},{"id":33812,"position":6,"audio_url":"wbw/026_031_006.mp3","char_type_name":"word","page_number":368,"line_number":10,"text":"مِنَ","translation":{"text":"অন্তর্ভূক্ত","language_name":"bengali","language_id":20},"transliteration":{"text":"mina","language_name":"english","language_id":38}},{"id":33813,"position":7,"audio_url":"wbw/026_031_007.mp3","char_type_name":"word","page_number":368,"line_number":10,"text":"ٱلصَّـٰدِقِينَ","translation":{"text":"সত্যবাদীদের\"","language_name":"bengali","language_id":20},"transliteration":{"text":"l-ṣādiqīna","language_name":"english","language_id":38}},{"id":33814,"position":8,"audio_url":null,"char_type_name":"end","page_number":368,"line_number":10,"text":"٣١","translation":{"text":"(৩১)","language_name":"bengali","language_id":20},"transliteration":{"text":null,"language_name":"english","language_id":38}}]},{"id":2964,"verse_number":32,"verse_key":"26:32","hizb_number":37,"rub_el_hizb_number":147,"ruku_number":317,"manzil_number":5,"sajdah_number":null,"page_number":368,"juz_number":19,"words":[{"id":34788,"position":1,"audio_url":"wbw/026_032_001.mp3","char_type_name":"word","page_number":368,"line_number":10,"text":"فَأَلْقَىٰ","translation":{"text":"অতঃপর সে ছুঁড়ে ফেললো","language_name":"bengali","language_id":20},"transliteration":{"text":"fa-alqā","language_name":"english","language_id":38}},{"id":34789,"position":2,"audio_url":"wbw/026_032_002.mp3","char_type_name":"word","page_number":368,"line_number":10,"text":"عَصَاهُ","translation":{"text":"লাঠি তাঁর","language_name":"bengali","language_id":20},"transliteration":{"text":"ʿaṣāhu","language_name":"english","language_id":38}},{"id":34790,"position":3,"audio_url":"wbw/026_032_003.mp3","char_type_name":"word","page_number":368,"line_number":10,"text":"فَإِذَا","translation":{"text":"তখনই","language_name":"bengali","language_id":20},"transliteration":{"text":"fa-idhā","language_name":"english","language_id":38}},{"id":34791,"position":4,"audio_url":"wbw/026_032_004.mp3","char_type_name":"word","page_number":368,"line_number":10,"text":"هِىَ","translation":{"text":"তা (হয়ে গেলো)","language_name":"bengali","language_id":20},"transliteration":{"text":"hiya","language_name":"english","language_id":38}},{"id":34792,"position":5,"audio_url":"wbw/026_032_005.mp3","char_type_name":"word","page_number":368,"line_number":10,"text":"ثُعْبَانٌۭ","translation":{"text":"অজগর","language_name":"bengali","language_id":20},"transliteration":{"text":"thuʿ'bānun","language_name":"english","language_id":38}},{"id":34793,"position":6,"audio_url":"wbw/026_032_006.mp3","char_type_name":"word","page_number":368,"line_number":10,"text":"مُّبِينٌۭ","translation":{"text":"সুস্পষ্ট","language_name":"bengali","language_id":20},"transliteration":{"text":"mubīnun","language_name":"english","language_id":38}},{"id":34794,"position":7,"audio_url":null,"char_type_name":"end","page_number":368,"line_number":10,"text":"٣٢","translation":{"text":"(৩২)","language_name":"bengali","language_id":20},"transliteration":{"text":null,"language_name":"english","language_id":38}}]},{"id":2965,"verse_number":33,"verse_key":"26:33","hizb_number":37,"rub_el_hizb_number":147,"ruku_number":317,"manzil_number":5,"sajdah_number":null,"page_number":368,"juz_number":19,"words":[{"id":35608,"position":1,"audio_url":"wbw/026_033_001.mp3","char_type_name":"word","page_number":368,"line_number":11,"text":"وَنَزَعَ","translation":{"text":"এবং টেনে বের করলো (বগল হ'তে)","language_name":"bengali","language_id":20},"transliteration":{"text":"wanazaʿa","language_name":"english","language_id":38}},{"id":35609,"position":2,"audio_url":"wbw/026_033_002.mp3","char_type_name":"word","page_number":368,"line_number":11,"text":"يَدَهُۥ","translation":{"text":"হাত তাঁর","language_name":"bengali","language_id":20},"transliteration":{"text":"yadahu","language_name":"english","language_id":38}},{"id":35610,"position":3,"audio_url":"wbw/026_033_003.mp3","char_type_name":"word","page_number":368,"line_number":11,"text":"فَإِذَا","translation":{"text":"তখনই","language_name":"bengali","language_id":20},"transliteration":{"text":"fa-idhā","language_name":"english","language_id":38}},{"id":35611,"position":4,"audio_url":"wbw/026_033_004.mp3","char_type_name":"word","page_number":368,"line_number":11,"text":"هِىَ","translation":{"text":"তা (হয়ে গেলো)","language_name":"bengali","language_id":20},"transliteration":{"text":"hiya","language_name":"english","language_id":38}},{"id":35612,"position":5,"audio_url":"wbw/026_033_005.mp3","char_type_name":"word","page_number":368,"line_number":11,"text":"بَيْضَآءُ","translation":{"text":"শুভ্র উজ্জ্বল","language_name":"bengali","language_id":20},"transliteration":{"text":"bayḍāu","language_name":"english","language_id":38}},{"id":35613,"position":6,"audio_url":"wbw/026_033_006.mp3","char_type_name":"word","page_number":368,"line_number":11,"text":"لِلنَّـٰظِرِينَ","translation":{"text":"জন্যে দর্শকদের","language_name":"bengali","language_id":20},"transliteration":{"text":"lilnnāẓirīna","language_name":"english","language_id":38}},{"id":35614,"position":7,"audio_url":null,"char_type_name":"end","page_number":368,"line_number":11,"text":"٣٣","translation":{"text":"(৩৩)","language_name":"bengali","language_id":20},"transliteration":{"text":null,"language_name":"english","language_id":38}}]},{"id":2966,"verse_number":34,"verse_key":"26:34","hizb_number":37,"rub_el_hizb_number":147,"ruku_number":318,"manzil_number":5,"sajdah_number":null,"page_number":368,"juz_number":19,"words":[{"id":36526,"position":1,"audio_url":"wbw/026_034_001.mp3","char_type_name":"word","page_number":368,"line_number":11,"text":"قَالَ","translation":{"text":"(ফিরআউন) বললো","language_name":"bengali","language_id":20},"transliteration":{"text":"qāla","language_name":"english","language_id":38}},{"id":36527,"position":2,"audio_url":"wbw/026_034_002.mp3","char_type_name":"word","page_number":368,"line_number":11,"text":"لِلْمَلَإِ","translation":{"text":"সভাষদদের","language_name":"bengali","language_id":20},"transliteration":{"text":"lil'mala-i","language_name":"english","language_id":38}},{"id":36528,"position":3,"audio_url":"wbw/026_034_003.mp3","char_type_name":"word","page_number":368,"line_number":11,"text":"حَوْلَهُۥٓ","translation":{"text":"চারপাশের তার","language_name":"bengali","language_id":20},"transliteration":{"text":"ḥawlahu","language_name":"english","language_id":38}},{"id":36529,"position":4,"audio_url":"wbw/026_034_004.mp3","char_type_name":"word","page_number":368,"line_number":12,"text":"إِنَّ","translation":{"text":"\"নিশ্চয়ই","language_name":"bengali","language_id":20},"transliteration":{"text":"inna","language_name":"english","language_id":38}},{"id":36530,"position":5,"audio_url":"wbw/026_034_005.mp3","char_type_name":"word","page_number":368,"line_number":12,"text":"هَـٰذَا","translation":{"text":"এতো","language_name":"bengali","language_id":20},"transliteration":{"text":"hādhā","language_name":"english","language_id":38}},{"id":36531,"position":6,"audio_url":"wbw/026_034_006.mp3","char_type_name":"word","page_number":368,"line_number":12,"text":"لَسَـٰحِرٌ","translation":{"text":"অবশ্যই জাদুকর","language_name":"bengali","language_id":20},"transliteration":{"text":"lasāḥirun","language_name":"english","language_id":38}},{"id":36532,"position":7,"audio_url":"wbw/026_034_007.mp3","char_type_name":"word","page_number":368,"line_number":12,"text":"عَلِيمٌۭ","translation":{"text":"সূদক্ষ","language_name":"bengali","language_id":20},"transliteration":{"text":"ʿalīmun","language_name":"english","language_id":38}},{"id":36533,"position":8,"audio_url":null,"char_type_name":"end","page_number":368,"line_number":12,"text":"٣٤","translation":{"text":"(৩৪)","language_name":"bengali","language_id":20},"transliteration":{"text":null,"language_name":"english","language_id":38}}]},{"id":2967,"verse_number":35,"verse_key":"26:35","hizb_number":37,"rub_el_hizb_number":147,"ruku_number":318,"manzil_number":5,"sajdah_number":null,"page_number":368,"juz_number":19,"words":[{"id":37402,"position":1,"audio_url":"wbw/026_035_001.mp3","char_type_name":"word","page_number":368,"line_number":12,"text":"يُرِيدُ","translation":{"text":"সে চায়","language_name":"bengali","language_id":20},"transliteration":{"text":"yurīdu","language_name":"english","language_id":38}},{"id":37403,"position":2,"audio_url":"wbw/026_035_002.mp3","char_type_name":"word","page_number":368,"line_number":12,"text":"أَن","translation":{"text":"যে","language_name":"bengali","language_id":20},"transliteration":{"text":"an","language_name":"english","language_id":38}},{"id":37404,"position":3,"audio_url":"wbw/026_035_003.mp3","char_type_name":"word","page_number":368,"line_number":12,"text":"يُخْرِجَكُم","translation":{"text":"সে বের করবে তোমাদেরকে","language_name":"bengali","language_id":20},"transliteration":{"text":"yukh'rijakum","language_name":"english","language_id":38}},{"id":37405,"position":4,"audio_url":"wbw/026_035_004.mp3","char_type_name":"word","page_number":368,"line_number":12,"text":"مِّنْ","translation":{"text":"হ'তে","language_name":"bengali","language_id":20},"transliteration":{"text":"min","language_name":"english","language_id":38}},{"id":37406,"position":5,"audio_url":"wbw/026_035_005.mp3","char_type_name":"word","page_number":368,"line_number":12,"text":"أَرْضِكُم","translation":{"text":"দেশ তোমাদের","language_name":"bengali","language_id":20},"transliteration":{"text":"arḍikum","language_name":"english","language_id":38}},{"id":37407,"position":6,"audio_url":"wbw/026_035_006.mp3","char_type_name":"word","page_number":368,"line_number":13,"text":"بِسِحْرِهِۦ","translation":{"text":"সাহায্যে তাঁর জাদুর","language_name":"bengali","language_id":20},"transliteration":{"text":"bisiḥ'rihi","language_name":"english","language_id":38}},{"id":37408,"position":7,"audio_url":"wbw/026_035_007.mp3","char_type_name":"word","page_number":368,"line_number":13,"text":"فَمَاذَا","translation":{"text":"অতঃপর কি","language_name":"bengali","language_id":20},"transliteration":{"text":"famādhā","language_name":"english","language_id":38}},{"id":37409,"position":8,"audio_url":"wbw/026_035_008.mp3","char_type_name":"word","page_number":368,"line_number":13,"text":"تَأْمُرُونَ","translation":{"text":"তোমরা পরামর্শ দিচ্ছো\"","language_name":"bengali","language_id":20},"transliteration":{"text":"tamurūna","language_name":"english","language_id":38}},{"id":37410,"position":9,"audio_url":null,"char_type_name":"end","page_number":368,"line_number":13,"text":"٣٥","translation":{"text":"(৩৫)","language_name":"bengali","language_id":20},"transliteration":{"text":null,"language_name":"english","language_id":38}}]},{"id":2968,"verse_number":36,"verse_key":"26:36","hizb_number":37,"rub_el_hizb_number":147,"ruku_number":318,"manzil_number":5,"sajdah_number":null,"page_number":368,"juz_number":19,"words":[{"id":38275,"position":1,"audio_url":"wbw/026_036_001.mp3","char_type_name":"word","page_number":368,"line_number":13,"text":"قَالُوٓا۟","translation":{"text":"তারা বললো","language_name":"bengali","language_id":20},"transliteration":{"text":"qālū","language_name":"english","language_id":38}},{"id":38276,"position":2,"audio_url":"wbw/026_036_002.mp3","char_type_name":"word","page_number":368,"line_number":13,"text":"أَرْجِهْ","translation":{"text":"\"তাঁর (ব্যাপার) স্থগিত রাখুন","language_name":"bengali","language_id":20},"transliteration":{"text":"arjih","language_name":"english","language_id":38}},{"id":38277,"position":3,"audio_url":"wbw/026_036_003.mp3","char_type_name":"word","page_number":368,"line_number":13,"text":"وَأَخَاهُ","translation":{"text":"ও তাঁর ভায়ের (ব্যাপারে)","language_name":"bengali","language_id":20},"transliteration":{"text":"wa-akhāhu","language_name":"english","language_id":38}},{"id":38278,"position":4,"audio_url":"wbw/026_036_004.mp3","char_type_name":"word","page_number":368,"line_number":13,"text":"وَٱبْعَثْ","translation":{"text":"এবং পাঠিয়ে দিন","language_name":"bengali","language_id":20},"transliteration":{"text":"wa-ib'ʿath","language_name":"english","language_id":38}},{"id":38279,"position":5,"audio_url":"wbw/026_036_005.mp3","char_type_name":"word","page_number":368,"line_number":13,"text":"فِى","translation":{"text":"মধ্যে","language_name":"bengali","language_id":20},"transliteration":{"text":"fī","language_name":"english","language_id":38}},{"id":38280,"position":6,"audio_url":"wbw/026_036_006.mp3","char_type_name":"word","page_number":368,"line_number":13,"text":"ٱلْمَدَآئِنِ","translation":{"text":"শহরে শহরে","language_name":"bengali","language_id":20},"transliteration":{"text":"l-madāini","language_name":"english","language_id":38}},{"id":38281,"position":7,"audio_url":"wbw/026_036_007.mp3","char_type_name":"word","page_number":368,"line_number":14,"text":"حَـٰشِرِينَ","translation":{"text":"সংগ্রহকারীদেরকে","language_name":"bengali","language_id":20},"transliteration":{"text":"ḥāshirīna","language_name":"english","language_id":38}},{"id":38282,"position":8,"audio_url":null,"char_type_name":"end","page_number":368,"line_number":14,"text":"٣٦","translation":{"text":"(৩৬)","language_name":"bengali","language_id":20},"transliteration":{"text":null,"language_name":"english","language_id":38}}]},{"id":2969,"verse_number":37,"verse_key":"26:37","hizb_number":37,"rub_el_hizb_number":147,"ruku_number":318,"manzil_number":5,"sajdah_number":null,"page_number":368,"juz_number":19,"words":[{"id":39122,"position":1,"audio_url":"wbw/026_037_001.mp3","char_type_name":"word","page_number":368,"line_number":14,"text":"يَأْتُوكَ","translation":{"text":"আপনার নিকট আসবে তারা","language_name":"bengali","language_id":20},"transliteration":{"text":"yatūka","language_name":"english","language_id":38}},{"id":39123,"position":2,"audio_url":"wbw/026_037_002.mp3","char_type_name":"word","page_number":368,"line_number":14,"text":"بِكُلِّ","translation":{"text":"নিয়ে প্রত্যেক","language_name":"bengali","language_id":20},"transliteration":{"text":"bikulli","language_name":"english","language_id":38}},{"id":39124,"position":3,"audio_url":"wbw/026_037_003.mp3","char_type_name":"word","page_number":368,"line_number":14,"text":"سَحَّارٍ","translation":{"text":"বড় জাদুকরকে","language_name":"bengali","language_id":20},"transliteration":{"text":"saḥḥārin","language_name":"english","language_id":38}},{"id":39125,"position":4,"audio_url":"wbw/026_037_004.mp3","char_type_name":"word","page_number":368,"line_number":14,"text":"عَلِيمٍۢ","translation":{"text":"সূদক্ষ\"","language_name":"bengali","language_id":20},"transliteration":{"text":"ʿalīmin","language_name":"english","language_id":38}},{"id":39126,"position":5,"audio_url":null,"char_type_name":"end","page_number":368,"line_number":14,"text":"٣٧","translation":{"text":"(৩৭)","language_name":"bengali","language_id":20},"transliteration":{"text":null,"language_name":"english","language_id":38}}]},{"id":2970,"verse_number":38,"verse_key":"26:38","hizb_number":37,"rub_el_hizb_number":147,"ruku_number":318,"manzil_number":5,"sajdah_number":null,"page_number":368,"juz_number":19,"words":[{"id":39914,"position":1,"audio_url":"wbw/026_038_001.mp3","char_type_name":"word","page_number":368,"line_number":14,"text":"فَجُمِعَ","translation":{"text":"অতঃপর জড়ো করা হলো","language_name":"bengali","language_id":20},"transliteration":{"text":"fajumiʿa","language_name":"english","language_id":38}},{"id":39915,"position":2,"audio_url":"wbw/026_038_002.mp3","char_type_name":"word","page_number":368,"line_number":14,"text":"ٱلسَّحَرَةُ","translation":{"text":"জাদুকরদেরকে","language_name":"bengali","language_id":20},"transliteration":{"text":"l-saḥaratu","language_name":"english","language_id":38}},{"id":39916,"position":3,"audio_url":"wbw/026_038_003.mp3","char_type_name":"word","page_number":368,"line_number":15,"text":"لِمِيقَـٰتِ","translation":{"text":"জন্যে নির্দিষ্ট সময়ের","language_name":"bengali","language_id":20},"transliteration":{"text":"limīqāti","language_name":"english","language_id":38}},{"id":39917,"position":4,"audio_url":"wbw/026_038_004.mp3","char_type_name":"word","page_number":368,"line_number":15,"text":"يَوْمٍۢ","translation":{"text":"দিনের","language_name":"bengali","language_id":20},"transliteration":{"text":"yawmin","language_name":"english","language_id":38}},{"id":39918,"position":5,"audio_url":"wbw/026_038_005.mp3","char_type_name":"word","page_number":368,"line_number":15,"text":"مَّعْلُومٍۢ","translation":{"text":"নির্ধারিত","language_name":"bengali","language_id":20},"transliteration":{"text":"maʿlūmin","language_name":"english","language_id":38}},{"id":39919,"position":6,"audio_url":null,"char_type_name":"end","page_number":368,"line_number":15,"text":"٣٨","translation":{"text":"(৩৮)","language_name":"bengali","language_id":20},"transliteration":{"text":null,"language_name":"english","language_id":38}}]},{"id":2971,"verse_number":39,"verse_key":"26:39","hizb_number":37,"rub_el_hizb_number":147,"ruku_number":318,"manzil_number":5,"sajdah_number":null,"page_number":368,"juz_number":19,"words":[{"id":40732,"position":1,"audio_url":"wbw/026_039_001.mp3","char_type_name":"word","page_number":368,"line_number":15,"text":"وَقِيلَ","translation":{"text":"এবং বলা হলো","language_name":"bengali","language_id":20},"transliteration":{"text":"waqīla","language_name":"english","language_id":38}},{"id":40733,"position":2,"audio_url":"wbw/026_039_002.mp3","char_type_name":"word","page_number":368,"line_number":15,"text":"لِلنَّاسِ","translation":{"text":"লোকদেরকে","language_name":"bengali","language_id":20},"transliteration":{"text":"lilnnāsi","language_name":"english","language_id":38}},{"id":40734,"position":3,"audio_url":"wbw/026_039_003.mp3","char_type_name":"word","page_number":368,"line_number":15,"text":"هَلْ","translation":{"text":"\"(তাহ'লে) কি","language_name":"bengali","language_id":20},"transliteration":{"text":"hal","language_name":"english","language_id":38}},{"id":40735,"position":4,"audio_url":"wbw/026_039_004.mp3","char_type_name":"word","page_number":368,"line_number":15,"text":"أَنتُم","translation":{"text":"তোমরা","language_name":"bengali","language_id":20},"transliteration":{"text":"antum","language_name":"english","language_id":38}},{"id":40736,"position":5,"audio_url":"wbw/026_039_005.mp3","char_type_name":"word","page_number":368,"line_number":15,"text":"مُّجْتَمِعُونَ","translation":{"text":"(সম্মেলনে) সমবেত হচ্ছো","language_name":"bengali","language_id":20},"transliteration":{"text":"muj'tamiʿūna","language_name":"english","language_id":38}},{"id":40737,"position":6,"audio_url":null,"char_type_name":"end","page_number":368,"line_number":15,"text":"٣٩","translation":{"text":"(৩৯)","language_name":"bengali","language_id":20},"transliteration":{"text":null,"language_name":"english","language_id":38}}]},{"id":2972,"verse_number":40,"verse_key":"26:40","hizb_number":37,"rub_el_hizb_number":147,"ruku_number":318,"manzil_number":5,"sajdah_number":null,"page_number":369,"juz_number":19,"words":[{"id":41559,"position":1,"audio_url":"wbw/026_040_001.mp3","char_type_name":"word","page_number":369,"line_number":1,"text":"لَعَلَّنَا","translation":{"text":"সম্ভবতঃ আমরা","language_name":"bengali","language_id":20},"transliteration":{"text":"laʿallanā","language_name":"english","language_id":38}},{"id":41560,"position":2,"audio_url":"wbw/026_040_002.mp3","char_type_name":"word","page_number":369,"line_number":1,"text":"نَتَّبِعُ","translation":{"text":"অনুসরণ করবো","language_name":"bengali","language_id":20},"transliteration":{"text":"nattabiʿu","language_name":"english","language_id":38}},{"id":41561,"position":3,"audio_url":"wbw/026_040_003.mp3","char_type_name":"word","page_number":369,"line_number":1,"text":"ٱلسَّحَرَةَ","translation":{"text":"জাদুকরদের (দ্বীনকে)","language_name":"bengali","language_id":20},"transliteration":{"text":"l-saḥarata","language_name":"english","language_id":38}},{"id":41562,"position":4,"audio_url":"wbw/026_040_004.mp3","char_type_name":"word","page_number":369,"line_number":1,"text":"إِن","translation":{"text":"যদি","language_name":"bengali","language_id":20},"transliteration":{"text":"in","language_name":"english","language_id":38}},{"id":41563,"position":5,"audio_url":"wbw/026_040_005.mp3","char_type_name":"word","page_number":369,"line_number":1,"text":"كَانُوا۟","translation":{"text":"তারা হয়","language_name":"bengali","language_id":20},"transliteration":{"text":"kānū","language_name":"english","language_id":38}},{"id":41564,"position":6,"audio_url":"wbw/026_040_006.mp3","char_type_name":"word","page_number":369,"line_number":1,"text":"هُمُ","translation":{"text":"তারা","language_name":"bengali","language_id":20},"transliteration":{"text":"humu","language_name":"english","language_id":38}},{"id":41565,"position":7,"audio_url":"wbw/026_040_007.mp3","char_type_name":"word","page_number":369,"line_number":1,"text":"ٱلْغَـٰلِبِينَ","translation":{"text":"বিজয়ী\"","language_name":"bengali","language_id":20},"transliteration":{"text":"l-ghālibīna","language_name":"english","language_id":38}},{"id":41566,"position":8,"audio_url":null,"char_type_name":"end","page_number":369,"line_number":1,"text":"٤٠","translation":{"text":"(৪০)","language_name":"bengali","language_id":20},"transliteration":{"text":null,"language_name":"english","language_id":38}}]}],"pagination":{"per_page":10,"current_page":4,"next_page":5,"total_pages":23,"total_records":227}}
