{"verses":[{"id":2983,"verse_number":51,"verse_key":"26:51","hizb_number":37,"rub_el_hizb_number":147,"ruku_number":318,"manzil_number":5,"sajdah_number":null,"page_number":369,"juz_number":19,"words":[{"id":49351,"position":1,"audio_url":"wbw/026_051_001.mp3","char_type_name":"word","page_number":369,"line_number":10,"text":"إِنَّا","translation":{"text":"নিশ্চয়ই  আমরা","language_name":"bengali","language_id":20},"transliteration":{"text":"innā","language_name":"english","language_id":38}},{"id":49352,"position":2,"audio_url":"wbw/026_051_002.mp3","char_type_name":"word","page_number":369,"line_number":10,"text":"نَطْمَعُ","translation":{"text":"আশা করি","language_name":"bengali","language_id":20},"transliteration":{"text":"naṭmaʿu","language_name":"english","language_id":38}},{"id":49353,"position":3,"audio_url":"wbw/026_051_003.mp3","char_type_name":"word","page_number":369,"line_number":10,"text":"أَن","translation":{"text":"যে","language_name":"bengali","language_id":20},"transliteration":{"text":"an","language_name":"english","language_id":38}},{"id":49354,"position":4,"audio_url":"wbw/026_051_004.mp3","char_type_name":"word","page_number":369,"line_number":10,"text":"يَغْفِرَ","translation":{"text":"ক্ষমা করবেন","language_name":"bengali","language_id":20},"transliteration":{"text":"yaghfira","language_name":"english","language_id":38}},{"id":49355,"position":5,"audio_url":"wbw/026_051_005.mp3","char_type_name":"word","page_number":369,"line_number":10,"text":"لَنَا","translation":{"text":"আমাদেরকে","language_name":"bengali","language_id":20},"transliteration":{"text":"lanā","language_name":"english","language_id":38}},{"id":49356,"position":6,"audio_url":"wbw/026_051_006.mp3","char_type_name":"word","page_number":369,"line_number":10,"text":"رَبُّنَا","translation":{"text":"রব আমাদের","language_name":"bengali","language_id":20},"transliteration":{"text":"rabbunā","language_name":"english","language_id":38}},{"id":49357,"position":7,"audio_url":"wbw/026_051_007.mp3","char_type_name":"word","page_number":369,"line_number":10,"text":"خَطَـٰيَـٰنَآ","translation":{"text":"ভুলক্রটিগুলোকে আমাদের","language_name":"bengali","language_id":20},"transliteration":{"text":"khaṭāyānā","language_name":"english","language_id":38}},{"id":49358,"position":8,"audio_url":"wbw/026_051_008.mp3","char_type_name":"word","page_number":369,"line_number":10,"text":"أَن","translation":{"text":"(এজন্য) যে","language_name":"bengali","language_id":20},"transliteration":{"text":"an","language_name":"english","language_id":38}},{"id":49359,"position":9,"audio_url":"wbw/026_051_009.mp3","char_type_name":"word","page_number":369,"line_number":10,"text":"كُنَّآ","translation":{"text":"আমরা হলাম","language_name":"bengali","language_id":20},"transliteration":{"text":"kunnā","language_name":"english","language_id":38}},{"id":49360,"position":10,"audio_url":"wbw/026_051_010.mp3","char_type_name":"word","page_number":369,"line_number":11,"text":"أَوَّلَ","translation":{"text":"প্রথম","language_name":"bengali","language_id":20},"transliteration":{"text":"awwala","language_name":"english","language_id":38}},{"id":49361,"position":11,"audio_url":"wbw/026_051_011.mp3","char_type_name":"word","page_number":369,"line_number":11,"text":"ٱلْمُؤْمِنِينَ","translation":{"text":"মু'মিন\"","language_name":"bengali","language_id":20},"transliteration":{"text":"l-mu'minīna","language_name":"english","language_id":38}},{"id":49362,"position":12,"audio_url":null,"char_type_name":"end","page_number":369,"line_number":11,"text":"٥١","translation":{"text":"(৫১)","language_name":"bengali","language_id":20},"transliteration":{"text":null,"language_name":"english","language_id":38}}]},{"id":2984,"verse_number":52,"verse_key":"26:52","hizb_number":37,"rub_el_hizb_number":148,"ruku_number":319,"manzil_number":5,"sajdah_number":null,"page_number":369,"juz_number":19,"words":[{"id":50067,"position":1,"audio_url":"wbw/026_052_002.mp3","char_type_name":"word","page_number":369,"line_number":11,"text":"۞ وَأَوْحَيْنَآ","translation":{"text":"এবং আমরা ওহী পাঠালাম","language_name":"bengali","language_id":20},"transliteration":{"text":"wa-awḥaynā","language_name":"english","language_id":38}},{"id":50068,"position":2,"audio_url":"wbw/026_052_003.mp3","char_type_name":"word","page_number":369,"line_number":11,"text":"إِلَىٰ","translation":{"text":"প্রতি","language_name":"bengali","language_id":20},"transliteration":{"text":"ilā","language_name":"english","language_id":38}},{"id":50069,"position":3,"audio_url":"wbw/026_052_004.mp3","char_type_name":"word","page_number":369,"line_number":11,"text":"مُوسَىٰٓ","translation":{"text":"মূসার","language_name":"bengali","language_id":20},"transliteration":{"text":"mūsā","language_name":"english","language_id":38}},{"id":50070,"position":4,"audio_url":"wbw/026_052_005.mp3","char_type_name":"word","page_number":369,"line_number":11,"text":"أَنْ","translation":{"text":"যে","language_name":"bengali","language_id":20},"transliteration":{"text":"an","language_name":"english","language_id":38}},{"id":50071,"position":5,"audio_url":"wbw/026_052_006.mp3","char_type_name":"word","page_number":369,"line_number":11,"text":"أَسْرِ","translation":{"text":"\"রাতে বের হয়ে যাও","language_name":"bengali","language_id":20},"transliteration":{"text":"asri","language_name":"english","language_id":38}},{"id":50072,"position":6,"audio_url":"wbw/026_052_007.mp3","char_type_name":"word","page_number":369,"line_number":11,"text":"بِعِبَادِىٓ","translation":{"text":"নিয়ে আমার দাসদের","language_name":"bengali","language_id":20},"transliteration":{"text":"biʿibādī","language_name":"english","language_id":38}},{"id":50073,"position":7,"audio_url":"wbw/026_052_008.mp3","char_type_name":"word","page_number":369,"line_number":11,"text":"إِنَّكُم","translation":{"text":"নিশ্চয়ই তোমাদেরকে","language_name":"bengali","language_id":20},"transliteration":{"text":"innakum","language_name":"english","language_id":38}},{"id":50074,"position":8,"audio_url":"wbw/026_052_009.mp3","char_type_name":"word","page_number":369,"line_number":12,"text":"مُّتَّبَعُونَ","translation":{"text":"পিছনে অনুসরণ করা হবে\"","language_name":"bengali","language_id":20},"transliteration":{"text":"muttabaʿūna","language_name":"english","language_id":38}},{"id":50075,"position":9,"audio_url":null,"char_type_name":"end","page_number":369,"line_number":12,"text":"٥٢","translation":{"text":"(৫২)","language_name":"bengali","language_id":20},"transliteration":{"text":null,"language_name":"english","language_id":38}}]},{"id":2985,"verse_number":53,"verse_key":"26:53","hizb_number":37,"rub_el_hizb_number":148,"ruku_number":319,"manzil_number":5,"sajdah_number":null,"page_number":369,"juz_number":19,"words":[{"id":50655,"position":1,"audio_url":"wbw/026_053_001.mp3","char_type_name":"word","page_number":369,"line_number":12,"text":"فَأَرْسَلَ","translation":{"text":"অতঃপর পাঠালো","language_name":"bengali","language_id":20},"transliteration":{"text":"fa-arsala","language_name":"english","language_id":38}},{"id":50656,"position":2,"audio_url":"wbw/026_053_002.mp3","char_type_name":"word","page_number":369,"line_number":12,"text":"فِرْعَوْنُ","translation":{"text":"ফিরআউন","language_name":"bengali","language_id":20},"transliteration":{"text":"fir'ʿawnu","language_name":"english","language_id":38}},{"id":50657,"position":3,"audio_url":"wbw/026_053_003.mp3","char_type_name":"word","page_number":369,"line_number":12,"text":"فِى","translation":{"text":"মধ্যে","language_name":"bengali","language_id":20},"transliteration":{"text":"fī","language_name":"english","language_id":38}},{"id":50658,"position":4,"audio_url":"wbw/026_053_004.mp3","char_type_name":"word","page_number":369,"line_number":12,"text":"ٱلْمَدَآئِنِ","translation":{"text":"শহরগুলোর","language_name":"bengali","language_id":20},"transliteration":{"text":"l-madāini","language_name":"english","language_id":38}},{"id":50659,"position":5,"audio_url":"wbw/026_053_005.mp3","char_type_name":"word","page_number":369,"line_number":12,"text":"حَـٰشِرِينَ","translation":{"text":"(লোক) সংগ্রহকারীদেরকে","language_name":"bengali","language_id":20},"transliteration":{"text":"ḥāshirīna","language_name":"english","language_id":38}},{"id":50660,"position":6,"audio_url":null,"char_type_name":"end","page_number":369,"line_number":12,"text":"٥٣","translation":{"text":"(৫৩)","language_name":"bengali","language_id":20},"transliteration":{"text":null,"language_name":"english","language_id":38}}]},{"id":2986,"verse_number":54,"verse_key":"26:54","hizb_number":37,"rub_el_hizb_number":148,"ruku_number":319,"manzil_number":5,"sajdah_number":null,"page_number":369,"juz_number":19,"words":[{"id":51491,"position":1,"audio_url":"wbw/026_054_001.mp3","char_type_name":"word","page_number":369,"line_number":12,"text":"إِنَّ","translation":{"text":"\"(এই বলে যে) নিশ্চয়ই","language_name":"bengali","language_id":20},"transliteration":{"text":"inna","language_name":"english","language_id":38}},{"id":51492,"position":2,"audio_url":"wbw/026_054_002.mp3","char_type_name":"word","page_number":369,"line_number":12,"text":"هَـٰٓؤُلَآءِ","translation":{"text":"এরা","language_name":"bengali","language_id":20},"transliteration":{"text":"hāulāi","language_name":"english","language_id":38}},{"id":51493,"position":3,"audio_url":"wbw/026_054_003.mp3","char_type_name":"word","page_number":369,"line_number":13,"text":"لَشِرْذِمَةٌۭ","translation":{"text":"অবশ্যই একটি ক্ষুদে দল","language_name":"bengali","language_id":20},"transliteration":{"text":"lashir'dhimatun","language_name":"english","language_id":38}},{"id":51494,"position":4,"audio_url":"wbw/026_054_004.mp3","char_type_name":"word","page_number":369,"line_number":13,"text":"قَلِيلُونَ","translation":{"text":"কম (লোক)","language_name":"bengali","language_id":20},"transliteration":{"text":"qalīlūna","language_name":"english","language_id":38}},{"id":51495,"position":5,"audio_url":null,"char_type_name":"end","page_number":369,"line_number":13,"text":"٥٤","translation":{"text":"(৫৪)","language_name":"bengali","language_id":20},"transliteration":{"text":null,"language_name":"english","language_id":38}}]},{"id":2987,"verse_number":55,"verse_key":"26:55","hizb_number":37,"rub_el_hizb_number":148,"ruku_number":319,"manzil_number":5,"sajdah_number":null,"page_number":369,"juz_number":19,"words":[{"id":51819,"position":1,"audio_url":"wbw/026_055_001.mp3","char_type_name":"word","page_number":369,"line_number":13,"text":"وَإِنَّهُمْ","translation":{"text":"এবং নিশ্চয়ই তারা","language_name":"bengali","language_id":20},"transliteration":{"text":"wa-innahum","language_name":"english","language_id":38}},{"id":51820,"position":2,"audio_url":"wbw/026_055_002.mp3","char_type_name":"word","page_number":369,"line_number":13,"text":"لَنَا","translation":{"text":"জন্যে আমাদের","language_name":"bengali","language_id":20},"transliteration":{"text":"lanā","language_name":"english","language_id":38}},{"id":51821,"position":3,"audio_url":"wbw/026_055_003.mp3","char_type_name":"word","page_number":369,"line_number":13,"text":"لَغَآئِظُونَ","translation":{"text":"রাগউদ্রেককারী","language_name":"bengali","language_id":20},"transliteration":{"text":"laghāiẓūna","language_name":"english","language_id":38}},{"id":51822,"position":4,"audio_url":null,"char_type_name":"end","page_number":369,"line_number":13,"text":"٥٥","translation":{"text":"(৫৫)","language_name":"bengali","language_id":20},"transliteration":{"text":null,"language_name":"english","language_id":38}}]},{"id":2988,"verse_number":56,"verse_key":"26:56","hizb_number":37,"rub_el_hizb_number":148,"ruku_number":319,"manzil_number":5,"sajdah_number":null,"page_number":369,"juz_number":19,"words":[{"id":52335,"position":1,"audio_url":"wbw/026_056_001.mp3","char_type_name":"word","page_number":369,"line_number":13,"text":"وَإِنَّا","translation":{"text":"এবং নিশ্চয়ই আমরা","language_name":"bengali","language_id":20},"transliteration":{"text":"wa-innā","language_name":"english","language_id":38}},{"id":52336,"position":2,"audio_url":"wbw/026_056_002.mp3","char_type_name":"word","page_number":369,"line_number":13,"text":"لَجَمِيعٌ","translation":{"text":"অবশ্যই সবাই","language_name":"bengali","language_id":20},"transliteration":{"text":"lajamīʿun","language_name":"english","language_id":38}},{"id":52337,"position":3,"audio_url":"wbw/026_056_003.mp3","char_type_name":"word","page_number":369,"line_number":13,"text":"حَـٰذِرُونَ","translation":{"text":"সদা-সতর্ক\"","language_name":"bengali","language_id":20},"transliteration":{"text":"ḥādhirūna","language_name":"english","language_id":38}},{"id":52338,"position":4,"audio_url":null,"char_type_name":"end","page_number":369,"line_number":14,"text":"٥٦","translation":{"text":"(৫৬)","language_name":"bengali","language_id":20},"transliteration":{"text":null,"language_name":"english","language_id":38}}]},{"id":2989,"verse_number":57,"verse_key":"26:57","hizb_number":37,"rub_el_hizb_number":148,"ruku_number":319,"manzil_number":5,"sajdah_number":null,"page_number":369,"juz_number":19,"words":[{"id":52881,"position":1,"audio_url":"wbw/026_057_001.mp3","char_type_name":"word","page_number":369,"line_number":14,"text":"فَأَخْرَجْنَـٰهُم","translation":{"text":"এরপর আমরা বের করলাম তাদেরকে","language_name":"bengali","language_id":20},"transliteration":{"text":"fa-akhrajnāhum","language_name":"english","language_id":38}},{"id":52882,"position":2,"audio_url":"wbw/026_057_002.mp3","char_type_name":"word","page_number":369,"line_number":14,"text":"مِّن","translation":{"text":"হ'তে","language_name":"bengali","language_id":20},"transliteration":{"text":"min","language_name":"english","language_id":38}},{"id":52883,"position":3,"audio_url":"wbw/026_057_003.mp3","char_type_name":"word","page_number":369,"line_number":14,"text":"جَنَّـٰتٍۢ","translation":{"text":"বাগান","language_name":"bengali","language_id":20},"transliteration":{"text":"jannātin","language_name":"english","language_id":38}},{"id":52884,"position":4,"audio_url":"wbw/026_057_004.mp3","char_type_name":"word","page_number":369,"line_number":14,"text":"وَعُيُونٍۢ","translation":{"text":"ও ঝর্ণাসমূহ","language_name":"bengali","language_id":20},"transliteration":{"text":"waʿuyūnin","language_name":"english","language_id":38}},{"id":52885,"position":5,"audio_url":null,"char_type_name":"end","page_number":369,"line_number":14,"text":"٥٧","translation":{"text":"(৫৭)","language_name":"bengali","language_id":20},"transliteration":{"text":null,"language_name":"english","language_id":38}}]},{"id":2990,"verse_number":58,"verse_key":"26:58","hizb_number":37,"rub_el_hizb_number":148,"ruku_number":319,"manzil_number":5,"sajdah_number":null,"page_number":369,"juz_number":19,"words":[{"id":53579,"position":1,"audio_url":"wbw/026_058_001.mp3","char_type_name":"word","page_number":369,"line_number":14,"text":"وَكُنُوزٍۢ","translation":{"text":"এবং ধন-ভান্ডার","language_name":"bengali","language_id":20},"transliteration":{"text":"wakunūzin","language_name":"english","language_id":38}},{"id":53580,"position":2,"audio_url":"wbw/026_058_002.mp3","char_type_name":"word","page_number":369,"line_number":14,"text":"وَمَقَامٍۢ","translation":{"text":"ও (হ'তে) স্থানসমূহ","language_name":"bengali","language_id":20},"transliteration":{"text":"wamaqāmin","language_name":"english","language_id":38}},{"id":53581,"position":3,"audio_url":"wbw/026_058_003.mp3","char_type_name":"word","page_number":369,"line_number":14,"text":"كَرِيمٍۢ","translation":{"text":"সম্মানের","language_name":"bengali","language_id":20},"transliteration":{"text":"karīmin","language_name":"english","language_id":38}},{"id":53582,"position":4,"audio_url":null,"char_type_name":"end","page_number":369,"line_number":14,"text":"٥٨","translation":{"text":"(৫৮)","language_name":"bengali","language_id":20},"transliteration":{"text":null,"language_name":"english","language_id":38}}]},{"id":2991,"verse_number":59,"verse_key":"26:59","hizb_number":37,"rub_el_hizb_number":148,"ruku_number":319,"manzil_number":5,"sajdah_number":null,"page_number":369,"juz_number":19,"words":[{"id":53903,"position":1,"audio_url":"wbw/026_059_001.mp3","char_type_name":"word","page_number":369,"line_number":15,"text":"كَذَٰلِكَ","translation":{"text":"এরূপই (ঘটেছিলো)","language_name":"bengali","language_id":20},"transliteration":{"text":"kadhālika","language_name":"english","language_id":38}},{"id":53904,"position":2,"audio_url":"wbw/026_059_002.mp3","char_type_name":"word","page_number":369,"line_number":15,"text":"وَأَوْرَثْنَـٰهَا","translation":{"text":"আর আমরা উত্তরাধিকারী করেছিলাম তার","language_name":"bengali","language_id":20},"transliteration":{"text":"wa-awrathnāhā","language_name":"english","language_id":38}},{"id":53905,"position":3,"audio_url":"wbw/026_059_003.mp3","char_type_name":"word","page_number":369,"line_number":15,"text":"بَنِىٓ","translation":{"text":"বনী","language_name":"bengali","language_id":20},"transliteration":{"text":"banī","language_name":"english","language_id":38}},{"id":53906,"position":4,"audio_url":"wbw/026_059_004.mp3","char_type_name":"word","page_number":369,"line_number":15,"text":"إِسْرَٰٓءِيلَ","translation":{"text":"ইসরাঈলদেরকে","language_name":"bengali","language_id":20},"transliteration":{"text":"is'rāīla","language_name":"english","language_id":38}},{"id":53907,"position":5,"audio_url":null,"char_type_name":"end","page_number":369,"line_number":15,"text":"٥٩","translation":{"text":"(৫৯)","language_name":"bengali","language_id":20},"transliteration":{"text":null,"language_name":"english","language_id":38}}]},{"id":2992,"verse_number":60,"verse_key":"26:60","hizb_number":37,"rub_el_hizb_number":148,"ruku_number":319,"manzil_number":5,"sajdah_number":null,"page_number":369,"juz_number":19,"words":[{"id":54554,"position":1,"audio_url":"wbw/026_060_001.mp3","char_type_name":"word","page_number":369,"line_number":15,"text":"فَأَتْبَعُوهُم","translation":{"text":"অতঃপর তারা পিছু নিলো তাদেরকে","language_name":"bengali","language_id":20},"transliteration":{"text":"fa-atbaʿūhum","language_name":"english","language_id":38}},{"id":54555,"position":2,"audio_url":"wbw/026_060_002.mp3","char_type_name":"word","page_number":369,"line_number":15,"text":"مُّشْرِقِينَ","translation":{"text":"সূর্যোদয়ের সময়","language_name":"bengali","language_id":20},"transliteration":{"text":"mush'riqīna","language_name":"english","language_id":38}},{"id":54556,"position":3,"audio_url":null,"char_type_name":"end","page_number":369,"line_number":15,"text":"٦٠","translation":{"text":"(৬০)","language_name":"bengali","language_id":20},"transliteration":{"text":null,"language_name":"english","language_id":38}}]}],"pagination":{"per_page":10,"current_page":6,"next_page":7,"total_pages":23,"total_records":227}}
