{"verses":[{"id":3013,"verse_number":81,"verse_key":"26:81","hizb_number":37,"rub_el_hizb_number":148,"ruku_number":320,"manzil_number":5,"sajdah_number":null,"page_number":370,"juz_number":19,"words":[{"id":64536,"position":1,"audio_url":"wbw/026_081_001.mp3","char_type_name":"word","page_number":370,"line_number":13,"text":"وَٱلَّذِى","translation":{"text":"এবং (তিনিই) যিনি","language_name":"bengali","language_id":20},"transliteration":{"text":"wa-alladhī","language_name":"english","language_id":38}},{"id":64537,"position":2,"audio_url":"wbw/026_081_002.mp3","char_type_name":"word","page_number":370,"line_number":14,"text":"يُمِيتُنِى","translation":{"text":"আমাকে মৃত্যু দিবেন","language_name":"bengali","language_id":20},"transliteration":{"text":"yumītunī","language_name":"english","language_id":38}},{"id":64538,"position":3,"audio_url":"wbw/026_081_003.mp3","char_type_name":"word","page_number":370,"line_number":14,"text":"ثُمَّ","translation":{"text":"এরপর","language_name":"bengali","language_id":20},"transliteration":{"text":"thumma","language_name":"english","language_id":38}},{"id":64539,"position":4,"audio_url":"wbw/026_081_004.mp3","char_type_name":"word","page_number":370,"line_number":14,"text":"يُحْيِينِ","translation":{"text":"জীবিত করবেন","language_name":"bengali","language_id":20},"transliteration":{"text":"yuḥ'yīni","language_name":"english","language_id":38}},{"id":64540,"position":5,"audio_url":null,"char_type_name":"end","page_number":370,"line_number":14,"text":"٨١","translation":{"text":"(৮১)","language_name":"bengali","language_id":20},"transliteration":{"text":null,"language_name":"english","language_id":38}}]},{"id":3014,"verse_number":82,"verse_key":"26:82","hizb_number":37,"rub_el_hizb_number":148,"ruku_number":320,"manzil_number":5,"sajdah_number":null,"page_number":370,"juz_number":19,"words":[{"id":65097,"position":1,"audio_url":"wbw/026_082_001.mp3","char_type_name":"word","page_number":370,"line_number":14,"text":"وَٱلَّذِىٓ","translation":{"text":"(তিনিই) যার (নিকট)","language_name":"bengali","language_id":20},"transliteration":{"text":"wa-alladhī","language_name":"english","language_id":38}},{"id":65098,"position":2,"audio_url":"wbw/026_082_002.mp3","char_type_name":"word","page_number":370,"line_number":14,"text":"أَطْمَعُ","translation":{"text":"আশা করি আমি","language_name":"bengali","language_id":20},"transliteration":{"text":"aṭmaʿu","language_name":"english","language_id":38}},{"id":65099,"position":3,"audio_url":"wbw/026_082_003.mp3","char_type_name":"word","page_number":370,"line_number":14,"text":"أَن","translation":{"text":"যে","language_name":"bengali","language_id":20},"transliteration":{"text":"an","language_name":"english","language_id":38}},{"id":65100,"position":4,"audio_url":"wbw/026_082_004.mp3","char_type_name":"word","page_number":370,"line_number":14,"text":"يَغْفِرَ","translation":{"text":"ক্ষমা করবেন","language_name":"bengali","language_id":20},"transliteration":{"text":"yaghfira","language_name":"english","language_id":38}},{"id":65101,"position":5,"audio_url":"wbw/026_082_005.mp3","char_type_name":"word","page_number":370,"line_number":14,"text":"لِى","translation":{"text":"আমাকে","language_name":"bengali","language_id":20},"transliteration":{"text":"lī","language_name":"english","language_id":38}},{"id":65102,"position":6,"audio_url":"wbw/026_082_006.mp3","char_type_name":"word","page_number":370,"line_number":14,"text":"خَطِيٓـَٔتِى","translation":{"text":"আমার ভুলত্রুটি","language_name":"bengali","language_id":20},"transliteration":{"text":"khaṭīatī","language_name":"english","language_id":38}},{"id":65103,"position":7,"audio_url":"wbw/026_082_007.mp3","char_type_name":"word","page_number":370,"line_number":15,"text":"يَوْمَ","translation":{"text":"দিনে","language_name":"bengali","language_id":20},"transliteration":{"text":"yawma","language_name":"english","language_id":38}},{"id":65104,"position":8,"audio_url":"wbw/026_082_008.mp3","char_type_name":"word","page_number":370,"line_number":15,"text":"ٱلدِّينِ","translation":{"text":"বিচারের","language_name":"bengali","language_id":20},"transliteration":{"text":"l-dīni","language_name":"english","language_id":38}},{"id":65105,"position":9,"audio_url":null,"char_type_name":"end","page_number":370,"line_number":15,"text":"٨٢","translation":{"text":"(৮২)","language_name":"bengali","language_id":20},"transliteration":{"text":null,"language_name":"english","language_id":38}}]},{"id":3015,"verse_number":83,"verse_key":"26:83","hizb_number":37,"rub_el_hizb_number":148,"ruku_number":320,"manzil_number":5,"sajdah_number":null,"page_number":370,"juz_number":19,"words":[{"id":65425,"position":1,"audio_url":"wbw/026_083_001.mp3","char_type_name":"word","page_number":370,"line_number":15,"text":"رَبِّ","translation":{"text":"(পরে বললেন) হে আমার রব","language_name":"bengali","language_id":20},"transliteration":{"text":"rabbi","language_name":"english","language_id":38}},{"id":65426,"position":2,"audio_url":"wbw/026_083_002.mp3","char_type_name":"word","page_number":370,"line_number":15,"text":"هَبْ","translation":{"text":"দান করো","language_name":"bengali","language_id":20},"transliteration":{"text":"hab","language_name":"english","language_id":38}},{"id":65427,"position":3,"audio_url":"wbw/026_083_003.mp3","char_type_name":"word","page_number":370,"line_number":15,"text":"لِى","translation":{"text":"জন্যে আমার","language_name":"bengali","language_id":20},"transliteration":{"text":"lī","language_name":"english","language_id":38}},{"id":65428,"position":4,"audio_url":"wbw/026_083_004.mp3","char_type_name":"word","page_number":370,"line_number":15,"text":"حُكْمًۭا","translation":{"text":"প্রজ্ঞা","language_name":"bengali","language_id":20},"transliteration":{"text":"ḥuk'man","language_name":"english","language_id":38}},{"id":65429,"position":5,"audio_url":"wbw/026_083_005.mp3","char_type_name":"word","page_number":370,"line_number":15,"text":"وَأَلْحِقْنِى","translation":{"text":"ও মিলিত করো","language_name":"bengali","language_id":20},"transliteration":{"text":"wa-alḥiq'nī","language_name":"english","language_id":38}},{"id":65430,"position":6,"audio_url":"wbw/026_083_006.mp3","char_type_name":"word","page_number":370,"line_number":15,"text":"بِٱلصَّـٰلِحِينَ","translation":{"text":"সাথে সৎকর্মশীলদের","language_name":"bengali","language_id":20},"transliteration":{"text":"bil-ṣāliḥīna","language_name":"english","language_id":38}},{"id":65431,"position":7,"audio_url":null,"char_type_name":"end","page_number":370,"line_number":15,"text":"٨٣","translation":{"text":"(৮৩)","language_name":"bengali","language_id":20},"transliteration":{"text":null,"language_name":"english","language_id":38}}]},{"id":3016,"verse_number":84,"verse_key":"26:84","hizb_number":37,"rub_el_hizb_number":148,"ruku_number":320,"manzil_number":5,"sajdah_number":null,"page_number":371,"juz_number":19,"words":[{"id":65939,"position":1,"audio_url":"wbw/026_084_001.mp3","char_type_name":"word","page_number":371,"line_number":1,"text":"وَٱجْعَل","translation":{"text":"এবং দাও","language_name":"bengali","language_id":20},"transliteration":{"text":"wa-ij'ʿal","language_name":"english","language_id":38}},{"id":65940,"position":2,"audio_url":"wbw/026_084_002.mp3","char_type_name":"word","page_number":371,"line_number":1,"text":"لِّى","translation":{"text":"জন্যে আমার","language_name":"bengali","language_id":20},"transliteration":{"text":"lī","language_name":"english","language_id":38}},{"id":65941,"position":3,"audio_url":"wbw/026_084_003.mp3","char_type_name":"word","page_number":371,"line_number":1,"text":"لِسَانَ","translation":{"text":"জিহবা (খ্যাতি)","language_name":"bengali","language_id":20},"transliteration":{"text":"lisāna","language_name":"english","language_id":38}},{"id":65942,"position":4,"audio_url":"wbw/026_084_004.mp3","char_type_name":"word","page_number":371,"line_number":1,"text":"صِدْقٍۢ","translation":{"text":"সত্যিকার","language_name":"bengali","language_id":20},"transliteration":{"text":"ṣid'qin","language_name":"english","language_id":38}},{"id":65943,"position":5,"audio_url":"wbw/026_084_005.mp3","char_type_name":"word","page_number":371,"line_number":1,"text":"فِى","translation":{"text":"মধ্যে","language_name":"bengali","language_id":20},"transliteration":{"text":"fī","language_name":"english","language_id":38}},{"id":65944,"position":6,"audio_url":"wbw/026_084_006.mp3","char_type_name":"word","page_number":371,"line_number":1,"text":"ٱلْـَٔاخِرِينَ","translation":{"text":"পরবর্তীদের","language_name":"bengali","language_id":20},"transliteration":{"text":"l-ākhirīna","language_name":"english","language_id":38}},{"id":65945,"position":7,"audio_url":null,"char_type_name":"end","page_number":371,"line_number":1,"text":"٨٤","translation":{"text":"(৮৪)","language_name":"bengali","language_id":20},"transliteration":{"text":null,"language_name":"english","language_id":38}}]},{"id":3017,"verse_number":85,"verse_key":"26:85","hizb_number":37,"rub_el_hizb_number":148,"ruku_number":320,"manzil_number":5,"sajdah_number":null,"page_number":371,"juz_number":19,"words":[{"id":66304,"position":1,"audio_url":"wbw/026_085_001.mp3","char_type_name":"word","page_number":371,"line_number":1,"text":"وَٱجْعَلْنِى","translation":{"text":"এবং আমাকে করো","language_name":"bengali","language_id":20},"transliteration":{"text":"wa-ij'ʿalnī","language_name":"english","language_id":38}},{"id":66305,"position":2,"audio_url":"wbw/026_085_002.mp3","char_type_name":"word","page_number":371,"line_number":1,"text":"مِن","translation":{"text":"অন্তর্ভূক্ত","language_name":"bengali","language_id":20},"transliteration":{"text":"min","language_name":"english","language_id":38}},{"id":66306,"position":3,"audio_url":"wbw/026_085_003.mp3","char_type_name":"word","page_number":371,"line_number":1,"text":"وَرَثَةِ","translation":{"text":"উত্তরাধিকারীদের","language_name":"bengali","language_id":20},"transliteration":{"text":"warathati","language_name":"english","language_id":38}},{"id":66307,"position":4,"audio_url":"wbw/026_085_004.mp3","char_type_name":"word","page_number":371,"line_number":1,"text":"جَنَّةِ","translation":{"text":"জান্নাতের","language_name":"bengali","language_id":20},"transliteration":{"text":"jannati","language_name":"english","language_id":38}},{"id":66308,"position":5,"audio_url":"wbw/026_085_005.mp3","char_type_name":"word","page_number":371,"line_number":2,"text":"ٱلنَّعِيمِ","translation":{"text":"সুখকর","language_name":"bengali","language_id":20},"transliteration":{"text":"l-naʿīmi","language_name":"english","language_id":38}},{"id":66309,"position":6,"audio_url":null,"char_type_name":"end","page_number":371,"line_number":2,"text":"٨٥","translation":{"text":"(৮৫)","language_name":"bengali","language_id":20},"transliteration":{"text":null,"language_name":"english","language_id":38}}]},{"id":3018,"verse_number":86,"verse_key":"26:86","hizb_number":37,"rub_el_hizb_number":148,"ruku_number":320,"manzil_number":5,"sajdah_number":null,"page_number":371,"juz_number":19,"words":[{"id":66657,"position":1,"audio_url":"wbw/026_086_001.mp3","char_type_name":"word","page_number":371,"line_number":2,"text":"وَٱغْفِرْ","translation":{"text":"এবং ক্ষমা করো","language_name":"bengali","language_id":20},"transliteration":{"text":"wa-igh'fir","language_name":"english","language_id":38}},{"id":66658,"position":2,"audio_url":"wbw/026_086_002.mp3","char_type_name":"word","page_number":371,"line_number":2,"text":"لِأَبِىٓ","translation":{"text":"আমার পিতাকে","language_name":"bengali","language_id":20},"transliteration":{"text":"li-abī","language_name":"english","language_id":38}},{"id":66659,"position":3,"audio_url":"wbw/026_086_003.mp3","char_type_name":"word","page_number":371,"line_number":2,"text":"إِنَّهُۥ","translation":{"text":"নিশ্চয়ই তিনি","language_name":"bengali","language_id":20},"transliteration":{"text":"innahu","language_name":"english","language_id":38}},{"id":66660,"position":4,"audio_url":"wbw/026_086_004.mp3","char_type_name":"word","page_number":371,"line_number":2,"text":"كَانَ","translation":{"text":"ছিলেন","language_name":"bengali","language_id":20},"transliteration":{"text":"kāna","language_name":"english","language_id":38}},{"id":66661,"position":5,"audio_url":"wbw/026_086_005.mp3","char_type_name":"word","page_number":371,"line_number":2,"text":"مِنَ","translation":{"text":"অর্ন্তভূক্ত","language_name":"bengali","language_id":20},"transliteration":{"text":"mina","language_name":"english","language_id":38}},{"id":66662,"position":6,"audio_url":"wbw/026_086_006.mp3","char_type_name":"word","page_number":371,"line_number":2,"text":"ٱلضَّآلِّينَ","translation":{"text":"পথভ্রষ্ঠদের","language_name":"bengali","language_id":20},"transliteration":{"text":"l-ḍālīna","language_name":"english","language_id":38}},{"id":66663,"position":7,"audio_url":null,"char_type_name":"end","page_number":371,"line_number":2,"text":"٨٦","translation":{"text":"(৮৬)","language_name":"bengali","language_id":20},"transliteration":{"text":null,"language_name":"english","language_id":38}}]},{"id":3019,"verse_number":87,"verse_key":"26:87","hizb_number":37,"rub_el_hizb_number":148,"ruku_number":320,"manzil_number":5,"sajdah_number":null,"page_number":371,"juz_number":19,"words":[{"id":66823,"position":1,"audio_url":"wbw/026_087_001.mp3","char_type_name":"word","page_number":371,"line_number":2,"text":"وَلَا","translation":{"text":"আর না","language_name":"bengali","language_id":20},"transliteration":{"text":"walā","language_name":"english","language_id":38}},{"id":66824,"position":2,"audio_url":"wbw/026_087_002.mp3","char_type_name":"word","page_number":371,"line_number":2,"text":"تُخْزِنِى","translation":{"text":"আমাকে লাঞ্চিত করো","language_name":"bengali","language_id":20},"transliteration":{"text":"tukh'zinī","language_name":"english","language_id":38}},{"id":66825,"position":3,"audio_url":"wbw/026_087_003.mp3","char_type_name":"word","page_number":371,"line_number":2,"text":"يَوْمَ","translation":{"text":"দিনে","language_name":"bengali","language_id":20},"transliteration":{"text":"yawma","language_name":"english","language_id":38}},{"id":66826,"position":4,"audio_url":"wbw/026_087_004.mp3","char_type_name":"word","page_number":371,"line_number":3,"text":"يُبْعَثُونَ","translation":{"text":"উত্থানের","language_name":"bengali","language_id":20},"transliteration":{"text":"yub'ʿathūna","language_name":"english","language_id":38}},{"id":66827,"position":5,"audio_url":null,"char_type_name":"end","page_number":371,"line_number":3,"text":"٨٧","translation":{"text":"(৮৭)","language_name":"bengali","language_id":20},"transliteration":{"text":null,"language_name":"english","language_id":38}}]},{"id":3020,"verse_number":88,"verse_key":"26:88","hizb_number":37,"rub_el_hizb_number":148,"ruku_number":320,"manzil_number":5,"sajdah_number":null,"page_number":371,"juz_number":19,"words":[{"id":67086,"position":1,"audio_url":"wbw/026_088_001.mp3","char_type_name":"word","page_number":371,"line_number":3,"text":"يَوْمَ","translation":{"text":"সেদিন","language_name":"bengali","language_id":20},"transliteration":{"text":"yawma","language_name":"english","language_id":38}},{"id":67087,"position":2,"audio_url":"wbw/026_088_002.mp3","char_type_name":"word","page_number":371,"line_number":3,"text":"لَا","translation":{"text":"না","language_name":"bengali","language_id":20},"transliteration":{"text":"lā","language_name":"english","language_id":38}},{"id":67088,"position":3,"audio_url":"wbw/026_088_003.mp3","char_type_name":"word","page_number":371,"line_number":3,"text":"يَنفَعُ","translation":{"text":"উপকারে আসবে","language_name":"bengali","language_id":20},"transliteration":{"text":"yanfaʿu","language_name":"english","language_id":38}},{"id":67089,"position":4,"audio_url":"wbw/026_088_004.mp3","char_type_name":"word","page_number":371,"line_number":3,"text":"مَالٌۭ","translation":{"text":"ধন-সম্পদ","language_name":"bengali","language_id":20},"transliteration":{"text":"mālun","language_name":"english","language_id":38}},{"id":67090,"position":5,"audio_url":"wbw/026_088_005.mp3","char_type_name":"word","page_number":371,"line_number":3,"text":"وَلَا","translation":{"text":"আর না","language_name":"bengali","language_id":20},"transliteration":{"text":"walā","language_name":"english","language_id":38}},{"id":67091,"position":6,"audio_url":"wbw/026_088_006.mp3","char_type_name":"word","page_number":371,"line_number":3,"text":"بَنُونَ","translation":{"text":"সন্তান-সন্ততি","language_name":"bengali","language_id":20},"transliteration":{"text":"banūna","language_name":"english","language_id":38}},{"id":67092,"position":7,"audio_url":null,"char_type_name":"end","page_number":371,"line_number":3,"text":"٨٨","translation":{"text":"(৮৮)","language_name":"bengali","language_id":20},"transliteration":{"text":null,"language_name":"english","language_id":38}}]},{"id":3021,"verse_number":89,"verse_key":"26:89","hizb_number":37,"rub_el_hizb_number":148,"ruku_number":320,"manzil_number":5,"sajdah_number":null,"page_number":371,"juz_number":19,"words":[{"id":67816,"position":1,"audio_url":"wbw/026_089_001.mp3","char_type_name":"word","page_number":371,"line_number":3,"text":"إِلَّا","translation":{"text":"তবে","language_name":"bengali","language_id":20},"transliteration":{"text":"illā","language_name":"english","language_id":38}},{"id":67817,"position":2,"audio_url":"wbw/026_089_002.mp3","char_type_name":"word","page_number":371,"line_number":3,"text":"مَنْ","translation":{"text":"(তাকে) যে","language_name":"bengali","language_id":20},"transliteration":{"text":"man","language_name":"english","language_id":38}},{"id":67818,"position":3,"audio_url":"wbw/026_089_003.mp3","char_type_name":"word","page_number":371,"line_number":3,"text":"أَتَى","translation":{"text":"আসবে","language_name":"bengali","language_id":20},"transliteration":{"text":"atā","language_name":"english","language_id":38}},{"id":67819,"position":4,"audio_url":"wbw/026_089_004.mp3","char_type_name":"word","page_number":371,"line_number":3,"text":"ٱللَّهَ","translation":{"text":"আল্লাহর নিকট","language_name":"bengali","language_id":20},"transliteration":{"text":"l-laha","language_name":"english","language_id":38}},{"id":67820,"position":5,"audio_url":"wbw/026_089_005.mp3","char_type_name":"word","page_number":371,"line_number":3,"text":"بِقَلْبٍۢ","translation":{"text":"সহ অন্তর","language_name":"bengali","language_id":20},"transliteration":{"text":"biqalbin","language_name":"english","language_id":38}},{"id":67821,"position":6,"audio_url":"wbw/026_089_006.mp3","char_type_name":"word","page_number":371,"line_number":4,"text":"سَلِيمٍۢ","translation":{"text":"প্রশান্ত (বিশুদ্ধ)\"","language_name":"bengali","language_id":20},"transliteration":{"text":"salīmin","language_name":"english","language_id":38}},{"id":67822,"position":7,"audio_url":null,"char_type_name":"end","page_number":371,"line_number":4,"text":"٨٩","translation":{"text":"(৮৯)","language_name":"bengali","language_id":20},"transliteration":{"text":null,"language_name":"english","language_id":38}}]},{"id":3022,"verse_number":90,"verse_key":"26:90","hizb_number":37,"rub_el_hizb_number":148,"ruku_number":320,"manzil_number":5,"sajdah_number":null,"page_number":371,"juz_number":19,"words":[{"id":68017,"position":1,"audio_url":"wbw/026_090_001.mp3","char_type_name":"word","page_number":371,"line_number":4,"text":"وَأُزْلِفَتِ","translation":{"text":"এবং নিকটে আনা হবে","language_name":"bengali","language_id":20},"transliteration":{"text":"wa-uz'lifati","language_name":"english","language_id":38}},{"id":68018,"position":2,"audio_url":"wbw/026_090_002.mp3","char_type_name":"word","page_number":371,"line_number":4,"text":"ٱلْجَنَّةُ","translation":{"text":"জান্নাত","language_name":"bengali","language_id":20},"transliteration":{"text":"l-janatu","language_name":"english","language_id":38}},{"id":68019,"position":3,"audio_url":"wbw/026_090_003.mp3","char_type_name":"word","page_number":371,"line_number":4,"text":"لِلْمُتَّقِينَ","translation":{"text":"জন্যে মুত্তাকীদের","language_name":"bengali","language_id":20},"transliteration":{"text":"lil'muttaqīna","language_name":"english","language_id":38}},{"id":68020,"position":4,"audio_url":null,"char_type_name":"end","page_number":371,"line_number":4,"text":"٩٠","translation":{"text":"(৯০)","language_name":"bengali","language_id":20},"transliteration":{"text":null,"language_name":"english","language_id":38}}]}],"pagination":{"per_page":10,"current_page":9,"next_page":10,"total_pages":23,"total_records":227}}
