{"verses":[{"id":4980,"verse_number":1,"verse_key":"56:1","hizb_number":54,"rub_el_hizb_number":214,"ruku_number":471,"manzil_number":7,"sajdah_number":null,"page_number":534,"juz_number":27,"words":[{"id":299,"position":1,"audio_url":"wbw/056_001_001.mp3","char_type_name":"word","page_number":534,"line_number":9,"text":"إِذَا","translation":{"text":"যখন","language_name":"bengali","language_id":20},"transliteration":{"text":"idhā","language_name":"english","language_id":38}},{"id":300,"position":2,"audio_url":"wbw/056_001_002.mp3","char_type_name":"word","page_number":534,"line_number":9,"text":"وَقَعَتِ","translation":{"text":"ঘটবে","language_name":"bengali","language_id":20},"transliteration":{"text":"waqaʿati","language_name":"english","language_id":38}},{"id":301,"position":3,"audio_url":"wbw/056_001_003.mp3","char_type_name":"word","page_number":534,"line_number":9,"text":"ٱلْوَاقِعَةُ","translation":{"text":"ঘটনাটি (কিয়ামত)","language_name":"bengali","language_id":20},"transliteration":{"text":"l-wāqiʿatu","language_name":"english","language_id":38}},{"id":302,"position":4,"audio_url":null,"char_type_name":"end","page_number":534,"line_number":9,"text":"١","translation":{"text":"(১)","language_name":"bengali","language_id":20},"transliteration":{"text":null,"language_name":"english","language_id":38}}]},{"id":4981,"verse_number":2,"verse_key":"56:2","hizb_number":54,"rub_el_hizb_number":214,"ruku_number":471,"manzil_number":7,"sajdah_number":null,"page_number":534,"juz_number":27,"words":[{"id":1221,"position":1,"audio_url":"wbw/056_002_001.mp3","char_type_name":"word","page_number":534,"line_number":9,"text":"لَيْسَ","translation":{"text":"না (হবে)","language_name":"bengali","language_id":20},"transliteration":{"text":"laysa","language_name":"english","language_id":38}},{"id":1222,"position":2,"audio_url":"wbw/056_002_002.mp3","char_type_name":"word","page_number":534,"line_number":9,"text":"لِوَقْعَتِهَا","translation":{"text":"তার সংঘটনের (ব্যাপারে)","language_name":"bengali","language_id":20},"transliteration":{"text":"liwaqʿatihā","language_name":"english","language_id":38}},{"id":1223,"position":3,"audio_url":"wbw/056_002_003.mp3","char_type_name":"word","page_number":534,"line_number":9,"text":"كَاذِبَةٌ","translation":{"text":"কোনো অস্বীকারকারী","language_name":"bengali","language_id":20},"transliteration":{"text":"kādhibatun","language_name":"english","language_id":38}},{"id":1224,"position":4,"audio_url":null,"char_type_name":"end","page_number":534,"line_number":9,"text":"٢","translation":{"text":"(২)","language_name":"bengali","language_id":20},"transliteration":{"text":null,"language_name":"english","language_id":38}}]},{"id":4982,"verse_number":3,"verse_key":"56:3","hizb_number":54,"rub_el_hizb_number":214,"ruku_number":471,"manzil_number":7,"sajdah_number":null,"page_number":534,"juz_number":27,"words":[{"id":2257,"position":1,"audio_url":"wbw/056_003_001.mp3","char_type_name":"word","page_number":534,"line_number":9,"text":"خَافِضَةٌۭ","translation":{"text":"(তাহবে কাঊকে) অবনতকারী","language_name":"bengali","language_id":20},"transliteration":{"text":"khāfiḍatun","language_name":"english","language_id":38}},{"id":2258,"position":2,"audio_url":"wbw/056_003_002.mp3","char_type_name":"word","page_number":534,"line_number":9,"text":"رَّافِعَةٌ","translation":{"text":"(আবার কাঊকে)  সমুন্নতকারী","language_name":"bengali","language_id":20},"transliteration":{"text":"rāfiʿatun","language_name":"english","language_id":38}},{"id":2259,"position":3,"audio_url":null,"char_type_name":"end","page_number":534,"line_number":10,"text":"٣","translation":{"text":"(৩)","language_name":"bengali","language_id":20},"transliteration":{"text":null,"language_name":"english","language_id":38}}]},{"id":4983,"verse_number":4,"verse_key":"56:4","hizb_number":54,"rub_el_hizb_number":214,"ruku_number":471,"manzil_number":7,"sajdah_number":null,"page_number":534,"juz_number":27,"words":[{"id":3582,"position":1,"audio_url":"wbw/056_004_001.mp3","char_type_name":"word","page_number":534,"line_number":10,"text":"إِذَا","translation":{"text":"যখন","language_name":"bengali","language_id":20},"transliteration":{"text":"idhā","language_name":"english","language_id":38}},{"id":3583,"position":2,"audio_url":"wbw/056_004_002.mp3","char_type_name":"word","page_number":534,"line_number":10,"text":"رُجَّتِ","translation":{"text":"প্রকম্পিত করা হবে","language_name":"bengali","language_id":20},"transliteration":{"text":"rujjati","language_name":"english","language_id":38}},{"id":3584,"position":3,"audio_url":"wbw/056_004_003.mp3","char_type_name":"word","page_number":534,"line_number":10,"text":"ٱلْأَرْضُ","translation":{"text":"পৃথিবী","language_name":"bengali","language_id":20},"transliteration":{"text":"l-arḍu","language_name":"english","language_id":38}},{"id":3585,"position":4,"audio_url":"wbw/056_004_004.mp3","char_type_name":"word","page_number":534,"line_number":10,"text":"رَجًّۭا","translation":{"text":"(প্রবল) কম্পন","language_name":"bengali","language_id":20},"transliteration":{"text":"rajjan","language_name":"english","language_id":38}},{"id":3586,"position":5,"audio_url":null,"char_type_name":"end","page_number":534,"line_number":10,"text":"٤","translation":{"text":"(৪)","language_name":"bengali","language_id":20},"transliteration":{"text":null,"language_name":"english","language_id":38}}]},{"id":4984,"verse_number":5,"verse_key":"56:5","hizb_number":54,"rub_el_hizb_number":214,"ruku_number":471,"manzil_number":7,"sajdah_number":null,"page_number":534,"juz_number":27,"words":[{"id":4909,"position":1,"audio_url":"wbw/056_005_001.mp3","char_type_name":"word","page_number":534,"line_number":10,"text":"وَبُسَّتِ","translation":{"text":"এবং ছিন্নভিন্ন করা হবে","language_name":"bengali","language_id":20},"transliteration":{"text":"wabussati","language_name":"english","language_id":38}},{"id":4910,"position":2,"audio_url":"wbw/056_005_002.mp3","char_type_name":"word","page_number":534,"line_number":10,"text":"ٱلْجِبَالُ","translation":{"text":"পাহারসমূহকে","language_name":"bengali","language_id":20},"transliteration":{"text":"l-jibālu","language_name":"english","language_id":38}},{"id":4911,"position":3,"audio_url":"wbw/056_005_003.mp3","char_type_name":"word","page_number":534,"line_number":10,"text":"بَسًّۭا","translation":{"text":"ছিন্নভিন্ন করার মতো","language_name":"bengali","language_id":20},"transliteration":{"text":"bassan","language_name":"english","language_id":38}},{"id":4912,"position":4,"audio_url":null,"char_type_name":"end","page_number":534,"line_number":10,"text":"٥","translation":{"text":"(৫)","language_name":"bengali","language_id":20},"transliteration":{"text":null,"language_name":"english","language_id":38}}]},{"id":4985,"verse_number":6,"verse_key":"56:6","hizb_number":54,"rub_el_hizb_number":214,"ruku_number":471,"manzil_number":7,"sajdah_number":null,"page_number":534,"juz_number":27,"words":[{"id":6181,"position":1,"audio_url":"wbw/056_006_001.mp3","char_type_name":"word","page_number":534,"line_number":10,"text":"فَكَانَتْ","translation":{"text":"অতঃপর তা হবে","language_name":"bengali","language_id":20},"transliteration":{"text":"fakānat","language_name":"english","language_id":38}},{"id":6182,"position":2,"audio_url":"wbw/056_006_002.mp3","char_type_name":"word","page_number":534,"line_number":11,"text":"هَبَآءًۭ","translation":{"text":"ধূলিকণা","language_name":"bengali","language_id":20},"transliteration":{"text":"habāan","language_name":"english","language_id":38}},{"id":6183,"position":3,"audio_url":"wbw/056_006_003.mp3","char_type_name":"word","page_number":534,"line_number":11,"text":"مُّنۢبَثًّۭا","translation":{"text":"বিক্ষিপ্ত","language_name":"bengali","language_id":20},"transliteration":{"text":"munbathan","language_name":"english","language_id":38}},{"id":6184,"position":4,"audio_url":null,"char_type_name":"end","page_number":534,"line_number":11,"text":"٦","translation":{"text":"(৬)","language_name":"bengali","language_id":20},"transliteration":{"text":null,"language_name":"english","language_id":38}}]},{"id":4986,"verse_number":7,"verse_key":"56:7","hizb_number":54,"rub_el_hizb_number":214,"ruku_number":471,"manzil_number":7,"sajdah_number":null,"page_number":534,"juz_number":27,"words":[{"id":7500,"position":1,"audio_url":"wbw/056_007_001.mp3","char_type_name":"word","page_number":534,"line_number":11,"text":"وَكُنتُمْ","translation":{"text":"এবং তোমরা হবে বিভক্ত","language_name":"bengali","language_id":20},"transliteration":{"text":"wakuntum","language_name":"english","language_id":38}},{"id":7501,"position":2,"audio_url":"wbw/056_007_002.mp3","char_type_name":"word","page_number":534,"line_number":11,"text":"أَزْوَٰجًۭا","translation":{"text":"ভাগে বিভক্ত","language_name":"bengali","language_id":20},"transliteration":{"text":"azwājan","language_name":"english","language_id":38}},{"id":7502,"position":3,"audio_url":"wbw/056_007_003.mp3","char_type_name":"word","page_number":534,"line_number":11,"text":"ثَلَـٰثَةًۭ","translation":{"text":"তিনটি","language_name":"bengali","language_id":20},"transliteration":{"text":"thalāthatan","language_name":"english","language_id":38}},{"id":7503,"position":4,"audio_url":null,"char_type_name":"end","page_number":534,"line_number":11,"text":"٧","translation":{"text":"(৭)","language_name":"bengali","language_id":20},"transliteration":{"text":null,"language_name":"english","language_id":38}}]},{"id":4987,"verse_number":8,"verse_key":"56:8","hizb_number":54,"rub_el_hizb_number":214,"ruku_number":471,"manzil_number":7,"sajdah_number":null,"page_number":534,"juz_number":27,"words":[{"id":8746,"position":1,"audio_url":"wbw/056_008_001.mp3","char_type_name":"word","page_number":534,"line_number":11,"text":"فَأَصْحَـٰبُ","translation":{"text":"লোকগুলো অতঃপর","language_name":"bengali","language_id":20},"transliteration":{"text":"fa-aṣḥābu","language_name":"english","language_id":38}},{"id":8747,"position":2,"audio_url":"wbw/056_008_002.mp3","char_type_name":"word","page_number":534,"line_number":11,"text":"ٱلْمَيْمَنَةِ","translation":{"text":"ডান হাতের","language_name":"bengali","language_id":20},"transliteration":{"text":"l-maymanati","language_name":"english","language_id":38}},{"id":8748,"position":3,"audio_url":"wbw/056_008_003.mp3","char_type_name":"word","page_number":534,"line_number":12,"text":"مَآ","translation":{"text":"কি (ভাগ্যবান)","language_name":"bengali","language_id":20},"transliteration":{"text":"mā","language_name":"english","language_id":38}},{"id":8749,"position":4,"audio_url":"wbw/056_008_004.mp3","char_type_name":"word","page_number":534,"line_number":12,"text":"أَصْحَـٰبُ","translation":{"text":"লোকগুলো","language_name":"bengali","language_id":20},"transliteration":{"text":"aṣḥābu","language_name":"english","language_id":38}},{"id":8750,"position":5,"audio_url":"wbw/056_008_005.mp3","char_type_name":"word","page_number":534,"line_number":12,"text":"ٱلْمَيْمَنَةِ","translation":{"text":"ডানহাতের","language_name":"bengali","language_id":20},"transliteration":{"text":"l-maymanati","language_name":"english","language_id":38}},{"id":8751,"position":6,"audio_url":null,"char_type_name":"end","page_number":534,"line_number":12,"text":"٨","translation":{"text":"(৮)","language_name":"bengali","language_id":20},"transliteration":{"text":null,"language_name":"english","language_id":38}}]},{"id":4988,"verse_number":9,"verse_key":"56:9","hizb_number":54,"rub_el_hizb_number":214,"ruku_number":471,"manzil_number":7,"sajdah_number":null,"page_number":534,"juz_number":27,"words":[{"id":9976,"position":1,"audio_url":"wbw/056_009_001.mp3","char_type_name":"word","page_number":534,"line_number":12,"text":"وَأَصْحَـٰبُ","translation":{"text":"এবং লোকগুলো","language_name":"bengali","language_id":20},"transliteration":{"text":"wa-aṣḥābu","language_name":"english","language_id":38}},{"id":9977,"position":2,"audio_url":"wbw/056_009_002.mp3","char_type_name":"word","page_number":534,"line_number":12,"text":"ٱلْمَشْـَٔمَةِ","translation":{"text":"বামহাতের","language_name":"bengali","language_id":20},"transliteration":{"text":"l-mashamati","language_name":"english","language_id":38}},{"id":9978,"position":3,"audio_url":"wbw/056_009_003.mp3","char_type_name":"word","page_number":534,"line_number":12,"text":"مَآ","translation":{"text":"কি (দুর্ভাগা)","language_name":"bengali","language_id":20},"transliteration":{"text":"mā","language_name":"english","language_id":38}},{"id":9979,"position":4,"audio_url":"wbw/056_009_004.mp3","char_type_name":"word","page_number":534,"line_number":12,"text":"أَصْحَـٰبُ","translation":{"text":"লোকগুলো","language_name":"bengali","language_id":20},"transliteration":{"text":"aṣḥābu","language_name":"english","language_id":38}},{"id":9980,"position":5,"audio_url":"wbw/056_009_005.mp3","char_type_name":"word","page_number":534,"line_number":13,"text":"ٱلْمَشْـَٔمَةِ","translation":{"text":"বামহাতের","language_name":"bengali","language_id":20},"transliteration":{"text":"l-mashamati","language_name":"english","language_id":38}},{"id":9981,"position":6,"audio_url":null,"char_type_name":"end","page_number":534,"line_number":13,"text":"٩","translation":{"text":"(৯)","language_name":"bengali","language_id":20},"transliteration":{"text":null,"language_name":"english","language_id":38}}]},{"id":4989,"verse_number":10,"verse_key":"56:10","hizb_number":54,"rub_el_hizb_number":214,"ruku_number":471,"manzil_number":7,"sajdah_number":null,"page_number":534,"juz_number":27,"words":[{"id":11171,"position":1,"audio_url":"wbw/056_010_001.mp3","char_type_name":"word","page_number":534,"line_number":13,"text":"وَٱلسَّـٰبِقُونَ","translation":{"text":"এবং অগ্রবর্তীরা (তো)","language_name":"bengali","language_id":20},"transliteration":{"text":"wal-sābiqūna","language_name":"english","language_id":38}},{"id":11172,"position":2,"audio_url":"wbw/056_010_002.mp3","char_type_name":"word","page_number":534,"line_number":13,"text":"ٱلسَّـٰبِقُونَ","translation":{"text":"অগ্রবর্তীই","language_name":"bengali","language_id":20},"transliteration":{"text":"l-sābiqūna","language_name":"english","language_id":38}},{"id":11173,"position":3,"audio_url":null,"char_type_name":"end","page_number":534,"line_number":13,"text":"١٠","translation":{"text":"(১০)","language_name":"bengali","language_id":20},"transliteration":{"text":null,"language_name":"english","language_id":38}}]}],"pagination":{"per_page":10,"current_page":1,"next_page":2,"total_pages":10,"total_records":96}}
