{"verses":[{"id":4990,"verse_number":11,"verse_key":"56:11","hizb_number":54,"rub_el_hizb_number":214,"ruku_number":471,"manzil_number":7,"sajdah_number":null,"page_number":534,"juz_number":27,"words":[{"id":12499,"position":1,"audio_url":"wbw/056_011_001.mp3","char_type_name":"word","page_number":534,"line_number":13,"text":"أُو۟لَـٰٓئِكَ","translation":{"text":"তারাই","language_name":"bengali","language_id":20},"transliteration":{"text":"ulāika","language_name":"english","language_id":38}},{"id":12500,"position":2,"audio_url":"wbw/056_011_002.mp3","char_type_name":"word","page_number":534,"line_number":13,"text":"ٱلْمُقَرَّبُونَ","translation":{"text":"নৈকট্যপ্রাপ্ত","language_name":"bengali","language_id":20},"transliteration":{"text":"l-muqarabūna","language_name":"english","language_id":38}},{"id":12501,"position":3,"audio_url":null,"char_type_name":"end","page_number":534,"line_number":13,"text":"١١","translation":{"text":"(১১)","language_name":"bengali","language_id":20},"transliteration":{"text":null,"language_name":"english","language_id":38}}]},{"id":4991,"verse_number":12,"verse_key":"56:12","hizb_number":54,"rub_el_hizb_number":214,"ruku_number":471,"manzil_number":7,"sajdah_number":null,"page_number":534,"juz_number":27,"words":[{"id":13825,"position":1,"audio_url":"wbw/056_012_001.mp3","char_type_name":"word","page_number":534,"line_number":14,"text":"فِى","translation":{"text":"(তারা থাকবে) মধ্যে","language_name":"bengali","language_id":20},"transliteration":{"text":"fī","language_name":"english","language_id":38}},{"id":13826,"position":2,"audio_url":"wbw/056_012_002.mp3","char_type_name":"word","page_number":534,"line_number":14,"text":"جَنَّـٰتِ","translation":{"text":"জান্নাতের","language_name":"bengali","language_id":20},"transliteration":{"text":"jannāti","language_name":"english","language_id":38}},{"id":13827,"position":3,"audio_url":"wbw/056_012_003.mp3","char_type_name":"word","page_number":534,"line_number":14,"text":"ٱلنَّعِيمِ","translation":{"text":"সুখের","language_name":"bengali","language_id":20},"transliteration":{"text":"l-naʿīmi","language_name":"english","language_id":38}},{"id":13828,"position":4,"audio_url":null,"char_type_name":"end","page_number":534,"line_number":14,"text":"١٢","translation":{"text":"(১২)","language_name":"bengali","language_id":20},"transliteration":{"text":null,"language_name":"english","language_id":38}}]},{"id":4992,"verse_number":13,"verse_key":"56:13","hizb_number":54,"rub_el_hizb_number":214,"ruku_number":471,"manzil_number":7,"sajdah_number":null,"page_number":534,"juz_number":27,"words":[{"id":14975,"position":1,"audio_url":"wbw/056_013_001.mp3","char_type_name":"word","page_number":534,"line_number":14,"text":"ثُلَّةٌۭ","translation":{"text":"বেশিসংখ্যক","language_name":"bengali","language_id":20},"transliteration":{"text":"thullatun","language_name":"english","language_id":38}},{"id":14976,"position":2,"audio_url":"wbw/056_013_002.mp3","char_type_name":"word","page_number":534,"line_number":14,"text":"مِّنَ","translation":{"text":"মধ্য হতে","language_name":"bengali","language_id":20},"transliteration":{"text":"mina","language_name":"english","language_id":38}},{"id":14977,"position":3,"audio_url":"wbw/056_013_003.mp3","char_type_name":"word","page_number":534,"line_number":14,"text":"ٱلْأَوَّلِينَ","translation":{"text":"পূর্ববর্তীদের","language_name":"bengali","language_id":20},"transliteration":{"text":"l-awalīna","language_name":"english","language_id":38}},{"id":14978,"position":4,"audio_url":null,"char_type_name":"end","page_number":534,"line_number":14,"text":"١٣","translation":{"text":"(১৩)","language_name":"bengali","language_id":20},"transliteration":{"text":null,"language_name":"english","language_id":38}}]},{"id":4993,"verse_number":14,"verse_key":"56:14","hizb_number":54,"rub_el_hizb_number":214,"ruku_number":471,"manzil_number":7,"sajdah_number":null,"page_number":534,"juz_number":27,"words":[{"id":16044,"position":1,"audio_url":"wbw/056_014_001.mp3","char_type_name":"word","page_number":534,"line_number":14,"text":"وَقَلِيلٌۭ","translation":{"text":"এবং অল্পসংখ্যক (হবে)","language_name":"bengali","language_id":20},"transliteration":{"text":"waqalīlun","language_name":"english","language_id":38}},{"id":16045,"position":2,"audio_url":"wbw/056_014_002.mp3","char_type_name":"word","page_number":534,"line_number":14,"text":"مِّنَ","translation":{"text":"মধ্য হতে","language_name":"bengali","language_id":20},"transliteration":{"text":"mina","language_name":"english","language_id":38}},{"id":16046,"position":3,"audio_url":"wbw/056_014_003.mp3","char_type_name":"word","page_number":534,"line_number":14,"text":"ٱلْـَٔاخِرِينَ","translation":{"text":"পরবর্তীদের","language_name":"bengali","language_id":20},"transliteration":{"text":"l-ākhirīna","language_name":"english","language_id":38}},{"id":16047,"position":4,"audio_url":null,"char_type_name":"end","page_number":534,"line_number":15,"text":"١٤","translation":{"text":"(১৪)","language_name":"bengali","language_id":20},"transliteration":{"text":null,"language_name":"english","language_id":38}}]},{"id":4994,"verse_number":15,"verse_key":"56:15","hizb_number":54,"rub_el_hizb_number":214,"ruku_number":471,"manzil_number":7,"sajdah_number":null,"page_number":534,"juz_number":27,"words":[{"id":17292,"position":1,"audio_url":"wbw/056_015_001.mp3","char_type_name":"word","page_number":534,"line_number":15,"text":"عَلَىٰ","translation":{"text":"(তারা বসবে) উপর","language_name":"bengali","language_id":20},"transliteration":{"text":"ʿalā","language_name":"english","language_id":38}},{"id":17293,"position":2,"audio_url":"wbw/056_015_002.mp3","char_type_name":"word","page_number":534,"line_number":15,"text":"سُرُرٍۢ","translation":{"text":"আসন সমূহের","language_name":"bengali","language_id":20},"transliteration":{"text":"sururin","language_name":"english","language_id":38}},{"id":17294,"position":3,"audio_url":"wbw/056_015_003.mp3","char_type_name":"word","page_number":534,"line_number":15,"text":"مَّوْضُونَةٍۢ","translation":{"text":"স্বর্ণখচিত","language_name":"bengali","language_id":20},"transliteration":{"text":"mawḍūnatin","language_name":"english","language_id":38}},{"id":17295,"position":4,"audio_url":null,"char_type_name":"end","page_number":534,"line_number":15,"text":"١٥","translation":{"text":"(১৫)","language_name":"bengali","language_id":20},"transliteration":{"text":null,"language_name":"english","language_id":38}}]},{"id":4995,"verse_number":16,"verse_key":"56:16","hizb_number":54,"rub_el_hizb_number":214,"ruku_number":471,"manzil_number":7,"sajdah_number":null,"page_number":534,"juz_number":27,"words":[{"id":18345,"position":1,"audio_url":"wbw/056_016_001.mp3","char_type_name":"word","page_number":534,"line_number":15,"text":"مُّتَّكِـِٔينَ","translation":{"text":"হেলানদিয়ে বসবে","language_name":"bengali","language_id":20},"transliteration":{"text":"muttakiīna","language_name":"english","language_id":38}},{"id":18346,"position":2,"audio_url":"wbw/056_016_002.mp3","char_type_name":"word","page_number":534,"line_number":15,"text":"عَلَيْهَا","translation":{"text":"তার উপর","language_name":"bengali","language_id":20},"transliteration":{"text":"ʿalayhā","language_name":"english","language_id":38}},{"id":18347,"position":3,"audio_url":"wbw/056_016_003.mp3","char_type_name":"word","page_number":534,"line_number":15,"text":"مُتَقَـٰبِلِينَ","translation":{"text":"মুখোমুখি হয়ে","language_name":"bengali","language_id":20},"transliteration":{"text":"mutaqābilīna","language_name":"english","language_id":38}},{"id":18348,"position":4,"audio_url":null,"char_type_name":"end","page_number":534,"line_number":15,"text":"١٦","translation":{"text":"(১৬)","language_name":"bengali","language_id":20},"transliteration":{"text":null,"language_name":"english","language_id":38}}]},{"id":4996,"verse_number":17,"verse_key":"56:17","hizb_number":54,"rub_el_hizb_number":214,"ruku_number":471,"manzil_number":7,"sajdah_number":null,"page_number":535,"juz_number":27,"words":[{"id":19364,"position":1,"audio_url":"wbw/056_017_001.mp3","char_type_name":"word","page_number":535,"line_number":1,"text":"يَطُوفُ","translation":{"text":"ঘুরাফিরা করবে","language_name":"bengali","language_id":20},"transliteration":{"text":"yaṭūfu","language_name":"english","language_id":38}},{"id":19365,"position":2,"audio_url":"wbw/056_017_002.mp3","char_type_name":"word","page_number":535,"line_number":1,"text":"عَلَيْهِمْ","translation":{"text":"তাদের কাছে","language_name":"bengali","language_id":20},"transliteration":{"text":"ʿalayhim","language_name":"english","language_id":38}},{"id":19366,"position":3,"audio_url":"wbw/056_017_003.mp3","char_type_name":"word","page_number":535,"line_number":1,"text":"وِلْدَٰنٌۭ","translation":{"text":"কিশোররা","language_name":"bengali","language_id":20},"transliteration":{"text":"wil'dānun","language_name":"english","language_id":38}},{"id":19367,"position":4,"audio_url":"wbw/056_017_004.mp3","char_type_name":"word","page_number":535,"line_number":1,"text":"مُّخَلَّدُونَ","translation":{"text":"চির","language_name":"bengali","language_id":20},"transliteration":{"text":"mukhalladūna","language_name":"english","language_id":38}},{"id":19368,"position":5,"audio_url":null,"char_type_name":"end","page_number":535,"line_number":1,"text":"١٧","translation":{"text":"(১৭)","language_name":"bengali","language_id":20},"transliteration":{"text":null,"language_name":"english","language_id":38}}]},{"id":4997,"verse_number":18,"verse_key":"56:18","hizb_number":54,"rub_el_hizb_number":214,"ruku_number":471,"manzil_number":7,"sajdah_number":null,"page_number":535,"juz_number":27,"words":[{"id":20420,"position":1,"audio_url":"wbw/056_018_001.mp3","char_type_name":"word","page_number":535,"line_number":1,"text":"بِأَكْوَابٍۢ","translation":{"text":"পান পাত্রগুলো নিয়ে","language_name":"bengali","language_id":20},"transliteration":{"text":"bi-akwābin","language_name":"english","language_id":38}},{"id":20421,"position":2,"audio_url":"wbw/056_018_002.mp3","char_type_name":"word","page_number":535,"line_number":1,"text":"وَأَبَارِيقَ","translation":{"text":"ও কুঁজো","language_name":"bengali","language_id":20},"transliteration":{"text":"wa-abārīqa","language_name":"english","language_id":38}},{"id":20422,"position":3,"audio_url":"wbw/056_018_003.mp3","char_type_name":"word","page_number":535,"line_number":1,"text":"وَكَأْسٍۢ","translation":{"text":"ও পেয়ালা (ভরা)","language_name":"bengali","language_id":20},"transliteration":{"text":"wakasin","language_name":"english","language_id":38}},{"id":20423,"position":4,"audio_url":"wbw/056_018_004.mp3","char_type_name":"word","page_number":535,"line_number":1,"text":"مِّن","translation":{"text":"হতে","language_name":"bengali","language_id":20},"transliteration":{"text":"min","language_name":"english","language_id":38}},{"id":20424,"position":5,"audio_url":"wbw/056_018_005.mp3","char_type_name":"word","page_number":535,"line_number":1,"text":"مَّعِينٍۢ","translation":{"text":"প্রবাহিত সূরারঝর্ণা","language_name":"bengali","language_id":20},"transliteration":{"text":"maʿīnin","language_name":"english","language_id":38}},{"id":20425,"position":6,"audio_url":null,"char_type_name":"end","page_number":535,"line_number":2,"text":"١٨","translation":{"text":"(১৮)","language_name":"bengali","language_id":20},"transliteration":{"text":null,"language_name":"english","language_id":38}}]},{"id":4998,"verse_number":19,"verse_key":"56:19","hizb_number":54,"rub_el_hizb_number":214,"ruku_number":471,"manzil_number":7,"sajdah_number":null,"page_number":535,"juz_number":27,"words":[{"id":21518,"position":1,"audio_url":"wbw/056_019_001.mp3","char_type_name":"word","page_number":535,"line_number":2,"text":"لَّا","translation":{"text":"না","language_name":"bengali","language_id":20},"transliteration":{"text":"lā","language_name":"english","language_id":38}},{"id":21519,"position":2,"audio_url":"wbw/056_019_002.mp3","char_type_name":"word","page_number":535,"line_number":2,"text":"يُصَدَّعُونَ","translation":{"text":"মাথাঘুরাবে","language_name":"bengali","language_id":20},"transliteration":{"text":"yuṣaddaʿūna","language_name":"english","language_id":38}},{"id":21520,"position":3,"audio_url":"wbw/056_019_003.mp3","char_type_name":"word","page_number":535,"line_number":2,"text":"عَنْهَا","translation":{"text":"তা থেকে","language_name":"bengali","language_id":20},"transliteration":{"text":"ʿanhā","language_name":"english","language_id":38}},{"id":21521,"position":4,"audio_url":"wbw/056_019_004.mp3","char_type_name":"word","page_number":535,"line_number":2,"text":"وَلَا","translation":{"text":"এবং না","language_name":"bengali","language_id":20},"transliteration":{"text":"walā","language_name":"english","language_id":38}},{"id":21522,"position":5,"audio_url":"wbw/056_019_005.mp3","char_type_name":"word","page_number":535,"line_number":2,"text":"يُنزِفُونَ","translation":{"text":"তারা জ্ঞানহারা হবে","language_name":"bengali","language_id":20},"transliteration":{"text":"yunzifūna","language_name":"english","language_id":38}},{"id":21523,"position":6,"audio_url":null,"char_type_name":"end","page_number":535,"line_number":2,"text":"١٩","translation":{"text":"(১৯)","language_name":"bengali","language_id":20},"transliteration":{"text":null,"language_name":"english","language_id":38}}]},{"id":4999,"verse_number":20,"verse_key":"56:20","hizb_number":54,"rub_el_hizb_number":214,"ruku_number":471,"manzil_number":7,"sajdah_number":null,"page_number":535,"juz_number":27,"words":[{"id":22587,"position":1,"audio_url":"wbw/056_020_001.mp3","char_type_name":"word","page_number":535,"line_number":2,"text":"وَفَـٰكِهَةٍۢ","translation":{"text":"এবং ফলমূল (থাকবে)","language_name":"bengali","language_id":20},"transliteration":{"text":"wafākihatin","language_name":"english","language_id":38}},{"id":22588,"position":2,"audio_url":"wbw/056_020_002.mp3","char_type_name":"word","page_number":535,"line_number":2,"text":"مِّمَّا","translation":{"text":"তা হতে যা (চাইবে)","language_name":"bengali","language_id":20},"transliteration":{"text":"mimmā","language_name":"english","language_id":38}},{"id":22589,"position":3,"audio_url":"wbw/056_020_003.mp3","char_type_name":"word","page_number":535,"line_number":2,"text":"يَتَخَيَّرُونَ","translation":{"text":"তারা বেছে নিবে","language_name":"bengali","language_id":20},"transliteration":{"text":"yatakhayyarūna","language_name":"english","language_id":38}},{"id":22590,"position":4,"audio_url":null,"char_type_name":"end","page_number":535,"line_number":3,"text":"٢٠","translation":{"text":"(২০)","language_name":"bengali","language_id":20},"transliteration":{"text":null,"language_name":"english","language_id":38}}]}],"pagination":{"per_page":10,"current_page":2,"next_page":3,"total_pages":10,"total_records":96}}
