{"verses":[{"id":5000,"verse_number":21,"verse_key":"56:21","hizb_number":54,"rub_el_hizb_number":214,"ruku_number":471,"manzil_number":7,"sajdah_number":null,"page_number":535,"juz_number":27,"words":[{"id":23392,"position":1,"audio_url":"wbw/056_021_001.mp3","char_type_name":"word","page_number":535,"line_number":3,"text":"وَلَحْمِ","translation":{"text":"এবং গোশত (থাকবে)","language_name":"bengali","language_id":20},"transliteration":{"text":"walaḥmi","language_name":"english","language_id":38}},{"id":23393,"position":2,"audio_url":"wbw/056_021_002.mp3","char_type_name":"word","page_number":535,"line_number":3,"text":"طَيْرٍۢ","translation":{"text":"পাখির","language_name":"bengali","language_id":20},"transliteration":{"text":"ṭayrin","language_name":"english","language_id":38}},{"id":23394,"position":3,"audio_url":"wbw/056_021_003.mp3","char_type_name":"word","page_number":535,"line_number":3,"text":"مِّمَّا","translation":{"text":"তাহতে যা","language_name":"bengali","language_id":20},"transliteration":{"text":"mimmā","language_name":"english","language_id":38}},{"id":23395,"position":4,"audio_url":"wbw/056_021_004.mp3","char_type_name":"word","page_number":535,"line_number":3,"text":"يَشْتَهُونَ","translation":{"text":"তারা চাইবে (নিতে পারবে)","language_name":"bengali","language_id":20},"transliteration":{"text":"yashtahūna","language_name":"english","language_id":38}},{"id":23396,"position":5,"audio_url":null,"char_type_name":"end","page_number":535,"line_number":3,"text":"٢١","translation":{"text":"(২১)","language_name":"bengali","language_id":20},"transliteration":{"text":null,"language_name":"english","language_id":38}}]},{"id":5001,"verse_number":22,"verse_key":"56:22","hizb_number":54,"rub_el_hizb_number":214,"ruku_number":471,"manzil_number":7,"sajdah_number":null,"page_number":535,"juz_number":27,"words":[{"id":24751,"position":1,"audio_url":"wbw/056_022_001.mp3","char_type_name":"word","page_number":535,"line_number":3,"text":"وَحُورٌ","translation":{"text":"এবং হুরসমূহ (থাকবে)","language_name":"bengali","language_id":20},"transliteration":{"text":"waḥūrun","language_name":"english","language_id":38}},{"id":24752,"position":2,"audio_url":"wbw/056_022_002.mp3","char_type_name":"word","page_number":535,"line_number":3,"text":"عِينٌۭ","translation":{"text":"ডাগর চোখ বিশিষ্ট","language_name":"bengali","language_id":20},"transliteration":{"text":"ʿīnun","language_name":"english","language_id":38}},{"id":24753,"position":3,"audio_url":null,"char_type_name":"end","page_number":535,"line_number":3,"text":"٢٢","translation":{"text":"(২২)","language_name":"bengali","language_id":20},"transliteration":{"text":null,"language_name":"english","language_id":38}}]},{"id":5002,"verse_number":23,"verse_key":"56:23","hizb_number":54,"rub_el_hizb_number":214,"ruku_number":471,"manzil_number":7,"sajdah_number":null,"page_number":535,"juz_number":27,"words":[{"id":25801,"position":1,"audio_url":"wbw/056_023_001.mp3","char_type_name":"word","page_number":535,"line_number":3,"text":"كَأَمْثَـٰلِ","translation":{"text":"দৃষ্টান্ত মতো","language_name":"bengali","language_id":20},"transliteration":{"text":"ka-amthāli","language_name":"english","language_id":38}},{"id":25802,"position":2,"audio_url":"wbw/056_023_002.mp3","char_type_name":"word","page_number":535,"line_number":3,"text":"ٱللُّؤْلُؤِ","translation":{"text":"মুক্তার","language_name":"bengali","language_id":20},"transliteration":{"text":"l-lu'lu-i","language_name":"english","language_id":38}},{"id":25803,"position":3,"audio_url":"wbw/056_023_003.mp3","char_type_name":"word","page_number":535,"line_number":4,"text":"ٱلْمَكْنُونِ","translation":{"text":"লুকিয়েরাখা","language_name":"bengali","language_id":20},"transliteration":{"text":"l-maknūni","language_name":"english","language_id":38}},{"id":25804,"position":4,"audio_url":null,"char_type_name":"end","page_number":535,"line_number":4,"text":"٢٣","translation":{"text":"(২৩)","language_name":"bengali","language_id":20},"transliteration":{"text":null,"language_name":"english","language_id":38}}]},{"id":5003,"verse_number":24,"verse_key":"56:24","hizb_number":54,"rub_el_hizb_number":214,"ruku_number":471,"manzil_number":7,"sajdah_number":null,"page_number":535,"juz_number":27,"words":[{"id":26876,"position":1,"audio_url":"wbw/056_024_001.mp3","char_type_name":"word","page_number":535,"line_number":4,"text":"جَزَآءًۢ","translation":{"text":"পুরষ্কার","language_name":"bengali","language_id":20},"transliteration":{"text":"jazāan","language_name":"english","language_id":38}},{"id":26877,"position":2,"audio_url":"wbw/056_024_002.mp3","char_type_name":"word","page_number":535,"line_number":4,"text":"بِمَا","translation":{"text":"ঐ বিষয়ের যা","language_name":"bengali","language_id":20},"transliteration":{"text":"bimā","language_name":"english","language_id":38}},{"id":26878,"position":3,"audio_url":"wbw/056_024_003.mp3","char_type_name":"word","page_number":535,"line_number":4,"text":"كَانُوا۟","translation":{"text":"তারা ছিল","language_name":"bengali","language_id":20},"transliteration":{"text":"kānū","language_name":"english","language_id":38}},{"id":26879,"position":4,"audio_url":"wbw/056_024_004.mp3","char_type_name":"word","page_number":535,"line_number":4,"text":"يَعْمَلُونَ","translation":{"text":"তারা কাজ করতে","language_name":"bengali","language_id":20},"transliteration":{"text":"yaʿmalūna","language_name":"english","language_id":38}},{"id":26880,"position":5,"audio_url":null,"char_type_name":"end","page_number":535,"line_number":4,"text":"٢٤","translation":{"text":"(২৪)","language_name":"bengali","language_id":20},"transliteration":{"text":null,"language_name":"english","language_id":38}}]},{"id":5004,"verse_number":25,"verse_key":"56:25","hizb_number":54,"rub_el_hizb_number":214,"ruku_number":471,"manzil_number":7,"sajdah_number":null,"page_number":535,"juz_number":27,"words":[{"id":27765,"position":1,"audio_url":"wbw/056_025_001.mp3","char_type_name":"word","page_number":535,"line_number":4,"text":"لَا","translation":{"text":"না","language_name":"bengali","language_id":20},"transliteration":{"text":"lā","language_name":"english","language_id":38}},{"id":27766,"position":2,"audio_url":"wbw/056_025_002.mp3","char_type_name":"word","page_number":535,"line_number":4,"text":"يَسْمَعُونَ","translation":{"text":"তারা শুনতেপাবে","language_name":"bengali","language_id":20},"transliteration":{"text":"yasmaʿūna","language_name":"english","language_id":38}},{"id":27767,"position":3,"audio_url":"wbw/056_025_003.mp3","char_type_name":"word","page_number":535,"line_number":4,"text":"فِيهَا","translation":{"text":"তার মধ্যে","language_name":"bengali","language_id":20},"transliteration":{"text":"fīhā","language_name":"english","language_id":38}},{"id":27768,"position":4,"audio_url":"wbw/056_025_004.mp3","char_type_name":"word","page_number":535,"line_number":4,"text":"لَغْوًۭا","translation":{"text":"অসারকথা","language_name":"bengali","language_id":20},"transliteration":{"text":"laghwan","language_name":"english","language_id":38}},{"id":27769,"position":5,"audio_url":"wbw/056_025_005.mp3","char_type_name":"word","page_number":535,"line_number":5,"text":"وَلَا","translation":{"text":"এবং না","language_name":"bengali","language_id":20},"transliteration":{"text":"walā","language_name":"english","language_id":38}},{"id":27770,"position":6,"audio_url":"wbw/056_025_006.mp3","char_type_name":"word","page_number":535,"line_number":5,"text":"تَأْثِيمًا","translation":{"text":"পাপের (কথা)","language_name":"bengali","language_id":20},"transliteration":{"text":"tathīman","language_name":"english","language_id":38}},{"id":27771,"position":7,"audio_url":null,"char_type_name":"end","page_number":535,"line_number":5,"text":"٢٥","translation":{"text":"(২৫)","language_name":"bengali","language_id":20},"transliteration":{"text":null,"language_name":"english","language_id":38}}]},{"id":5005,"verse_number":26,"verse_key":"56:26","hizb_number":54,"rub_el_hizb_number":214,"ruku_number":471,"manzil_number":7,"sajdah_number":null,"page_number":535,"juz_number":27,"words":[{"id":28877,"position":1,"audio_url":"wbw/056_026_001.mp3","char_type_name":"word","page_number":535,"line_number":5,"text":"إِلَّا","translation":{"text":"তবে","language_name":"bengali","language_id":20},"transliteration":{"text":"illā","language_name":"english","language_id":38}},{"id":28878,"position":2,"audio_url":"wbw/056_026_002.mp3","char_type_name":"word","page_number":535,"line_number":5,"text":"قِيلًۭا","translation":{"text":"বলা হবে","language_name":"bengali","language_id":20},"transliteration":{"text":"qīlan","language_name":"english","language_id":38}},{"id":28879,"position":3,"audio_url":"wbw/056_026_003.mp3","char_type_name":"word","page_number":535,"line_number":5,"text":"سَلَـٰمًۭا","translation":{"text":"\"সালাম\"","language_name":"bengali","language_id":20},"transliteration":{"text":"salāman","language_name":"english","language_id":38}},{"id":28880,"position":4,"audio_url":"wbw/056_026_004.mp3","char_type_name":"word","page_number":535,"line_number":5,"text":"سَلَـٰمًۭا","translation":{"text":"\"(আর) সালাম\"","language_name":"bengali","language_id":20},"transliteration":{"text":"salāman","language_name":"english","language_id":38}},{"id":28881,"position":5,"audio_url":null,"char_type_name":"end","page_number":535,"line_number":5,"text":"٢٦","translation":{"text":"(২৬)","language_name":"bengali","language_id":20},"transliteration":{"text":null,"language_name":"english","language_id":38}}]},{"id":5006,"verse_number":27,"verse_key":"56:27","hizb_number":54,"rub_el_hizb_number":214,"ruku_number":471,"manzil_number":7,"sajdah_number":null,"page_number":535,"juz_number":27,"words":[{"id":29684,"position":1,"audio_url":"wbw/056_027_001.mp3","char_type_name":"word","page_number":535,"line_number":5,"text":"وَأَصْحَـٰبُ","translation":{"text":"এবং লোকগুলো","language_name":"bengali","language_id":20},"transliteration":{"text":"wa-aṣḥābu","language_name":"english","language_id":38}},{"id":29685,"position":2,"audio_url":"wbw/056_027_002.mp3","char_type_name":"word","page_number":535,"line_number":5,"text":"ٱلْيَمِينِ","translation":{"text":"ডানহাতের","language_name":"bengali","language_id":20},"transliteration":{"text":"l-yamīni","language_name":"english","language_id":38}},{"id":29686,"position":3,"audio_url":"wbw/056_027_003.mp3","char_type_name":"word","page_number":535,"line_number":5,"text":"مَآ","translation":{"text":"কি (ভাগ্যবান)","language_name":"bengali","language_id":20},"transliteration":{"text":"mā","language_name":"english","language_id":38}},{"id":29687,"position":4,"audio_url":"wbw/056_027_004.mp3","char_type_name":"word","page_number":535,"line_number":5,"text":"أَصْحَـٰبُ","translation":{"text":"লোকগুলো","language_name":"bengali","language_id":20},"transliteration":{"text":"aṣḥābu","language_name":"english","language_id":38}},{"id":29688,"position":5,"audio_url":"wbw/056_027_005.mp3","char_type_name":"word","page_number":535,"line_number":6,"text":"ٱلْيَمِينِ","translation":{"text":"ডানহাতের","language_name":"bengali","language_id":20},"transliteration":{"text":"l-yamīni","language_name":"english","language_id":38}},{"id":29689,"position":6,"audio_url":null,"char_type_name":"end","page_number":535,"line_number":6,"text":"٢٧","translation":{"text":"(২৭)","language_name":"bengali","language_id":20},"transliteration":{"text":null,"language_name":"english","language_id":38}}]},{"id":5007,"verse_number":28,"verse_key":"56:28","hizb_number":54,"rub_el_hizb_number":214,"ruku_number":471,"manzil_number":7,"sajdah_number":null,"page_number":535,"juz_number":27,"words":[{"id":30764,"position":1,"audio_url":"wbw/056_028_001.mp3","char_type_name":"word","page_number":535,"line_number":6,"text":"فِى","translation":{"text":"মধ্যে","language_name":"bengali","language_id":20},"transliteration":{"text":"fī","language_name":"english","language_id":38}},{"id":30765,"position":2,"audio_url":"wbw/056_028_002.mp3","char_type_name":"word","page_number":535,"line_number":6,"text":"سِدْرٍۢ","translation":{"text":"কুলবৃক্ষসমূহের","language_name":"bengali","language_id":20},"transliteration":{"text":"sid'rin","language_name":"english","language_id":38}},{"id":30766,"position":3,"audio_url":"wbw/056_028_003.mp3","char_type_name":"word","page_number":535,"line_number":6,"text":"مَّخْضُودٍۢ","translation":{"text":"কাঁটাহীন","language_name":"bengali","language_id":20},"transliteration":{"text":"makhḍūdin","language_name":"english","language_id":38}},{"id":30767,"position":4,"audio_url":null,"char_type_name":"end","page_number":535,"line_number":6,"text":"٢٨","translation":{"text":"(২৮)","language_name":"bengali","language_id":20},"transliteration":{"text":null,"language_name":"english","language_id":38}}]},{"id":5008,"verse_number":29,"verse_key":"56:29","hizb_number":54,"rub_el_hizb_number":214,"ruku_number":471,"manzil_number":7,"sajdah_number":null,"page_number":535,"juz_number":27,"words":[{"id":31856,"position":1,"audio_url":"wbw/056_029_001.mp3","char_type_name":"word","page_number":535,"line_number":6,"text":"وَطَلْحٍۢ","translation":{"text":"এবং কলাসমূহে","language_name":"bengali","language_id":20},"transliteration":{"text":"waṭalḥin","language_name":"english","language_id":38}},{"id":31857,"position":2,"audio_url":"wbw/056_029_002.mp3","char_type_name":"word","page_number":535,"line_number":6,"text":"مَّنضُودٍۢ","translation":{"text":"থরে থরে সাজানো","language_name":"bengali","language_id":20},"transliteration":{"text":"manḍūdin","language_name":"english","language_id":38}},{"id":31858,"position":3,"audio_url":null,"char_type_name":"end","page_number":535,"line_number":6,"text":"٢٩","translation":{"text":"(২৯)","language_name":"bengali","language_id":20},"transliteration":{"text":null,"language_name":"english","language_id":38}}]},{"id":5009,"verse_number":30,"verse_key":"56:30","hizb_number":54,"rub_el_hizb_number":214,"ruku_number":471,"manzil_number":7,"sajdah_number":null,"page_number":535,"juz_number":27,"words":[{"id":32722,"position":1,"audio_url":"wbw/056_030_001.mp3","char_type_name":"word","page_number":535,"line_number":6,"text":"وَظِلٍّۢ","translation":{"text":"ও ছায়ায়","language_name":"bengali","language_id":20},"transliteration":{"text":"waẓillin","language_name":"english","language_id":38}},{"id":32723,"position":2,"audio_url":"wbw/056_030_002.mp3","char_type_name":"word","page_number":535,"line_number":6,"text":"مَّمْدُودٍۢ","translation":{"text":"বিস্তৃত","language_name":"bengali","language_id":20},"transliteration":{"text":"mamdūdin","language_name":"english","language_id":38}},{"id":32724,"position":3,"audio_url":null,"char_type_name":"end","page_number":535,"line_number":7,"text":"٣٠","translation":{"text":"(৩০)","language_name":"bengali","language_id":20},"transliteration":{"text":null,"language_name":"english","language_id":38}}]}],"pagination":{"per_page":10,"current_page":3,"next_page":4,"total_pages":10,"total_records":96}}
