{"verses":[{"id":5010,"verse_number":31,"verse_key":"56:31","hizb_number":54,"rub_el_hizb_number":214,"ruku_number":471,"manzil_number":7,"sajdah_number":null,"page_number":535,"juz_number":27,"words":[{"id":33545,"position":1,"audio_url":"wbw/056_031_001.mp3","char_type_name":"word","page_number":535,"line_number":7,"text":"وَمَآءٍۢ","translation":{"text":"এবং পানির (কাছে)","language_name":"bengali","language_id":20},"transliteration":{"text":"wamāin","language_name":"english","language_id":38}},{"id":33546,"position":2,"audio_url":"wbw/056_031_002.mp3","char_type_name":"word","page_number":535,"line_number":7,"text":"مَّسْكُوبٍۢ","translation":{"text":"(সদা) প্রবহমান","language_name":"bengali","language_id":20},"transliteration":{"text":"maskūbin","language_name":"english","language_id":38}},{"id":33547,"position":3,"audio_url":null,"char_type_name":"end","page_number":535,"line_number":7,"text":"٣١","translation":{"text":"(৩১)","language_name":"bengali","language_id":20},"transliteration":{"text":null,"language_name":"english","language_id":38}}]},{"id":5011,"verse_number":32,"verse_key":"56:32","hizb_number":54,"rub_el_hizb_number":214,"ruku_number":471,"manzil_number":7,"sajdah_number":null,"page_number":535,"juz_number":27,"words":[{"id":34654,"position":1,"audio_url":"wbw/056_032_001.mp3","char_type_name":"word","page_number":535,"line_number":7,"text":"وَفَـٰكِهَةٍۢ","translation":{"text":"এবং ফলমূল","language_name":"bengali","language_id":20},"transliteration":{"text":"wafākihatin","language_name":"english","language_id":38}},{"id":34655,"position":2,"audio_url":"wbw/056_032_002.mp3","char_type_name":"word","page_number":535,"line_number":7,"text":"كَثِيرَةٍۢ","translation":{"text":"পর্যাপ্ত","language_name":"bengali","language_id":20},"transliteration":{"text":"kathīratin","language_name":"english","language_id":38}},{"id":34656,"position":3,"audio_url":null,"char_type_name":"end","page_number":535,"line_number":7,"text":"٣٢","translation":{"text":"(৩২)","language_name":"bengali","language_id":20},"transliteration":{"text":null,"language_name":"english","language_id":38}}]},{"id":5012,"verse_number":33,"verse_key":"56:33","hizb_number":54,"rub_el_hizb_number":214,"ruku_number":471,"manzil_number":7,"sajdah_number":null,"page_number":535,"juz_number":27,"words":[{"id":36066,"position":1,"audio_url":"wbw/056_033_001.mp3","char_type_name":"word","page_number":535,"line_number":7,"text":"لَّا","translation":{"text":"না","language_name":"bengali","language_id":20},"transliteration":{"text":"lā","language_name":"english","language_id":38}},{"id":36067,"position":2,"audio_url":"wbw/056_033_002.mp3","char_type_name":"word","page_number":535,"line_number":7,"text":"مَقْطُوعَةٍۢ","translation":{"text":"শেষ হবে","language_name":"bengali","language_id":20},"transliteration":{"text":"maqṭūʿatin","language_name":"english","language_id":38}},{"id":36068,"position":3,"audio_url":"wbw/056_033_003.mp3","char_type_name":"word","page_number":535,"line_number":7,"text":"وَلَا","translation":{"text":"আর না","language_name":"bengali","language_id":20},"transliteration":{"text":"walā","language_name":"english","language_id":38}},{"id":36069,"position":4,"audio_url":"wbw/056_033_004.mp3","char_type_name":"word","page_number":535,"line_number":7,"text":"مَمْنُوعَةٍۢ","translation":{"text":"নিষিদ্ধ হবে","language_name":"bengali","language_id":20},"transliteration":{"text":"mamnūʿatin","language_name":"english","language_id":38}},{"id":36070,"position":5,"audio_url":null,"char_type_name":"end","page_number":535,"line_number":8,"text":"٣٣","translation":{"text":"(৩৩)","language_name":"bengali","language_id":20},"transliteration":{"text":null,"language_name":"english","language_id":38}}]},{"id":5013,"verse_number":34,"verse_key":"56:34","hizb_number":54,"rub_el_hizb_number":214,"ruku_number":471,"manzil_number":7,"sajdah_number":null,"page_number":535,"juz_number":27,"words":[{"id":36358,"position":1,"audio_url":"wbw/056_034_001.mp3","char_type_name":"word","page_number":535,"line_number":8,"text":"وَفُرُشٍۢ","translation":{"text":"এবং শয্যাসমূহে","language_name":"bengali","language_id":20},"transliteration":{"text":"wafurushin","language_name":"english","language_id":38}},{"id":36359,"position":2,"audio_url":"wbw/056_034_002.mp3","char_type_name":"word","page_number":535,"line_number":8,"text":"مَّرْفُوعَةٍ","translation":{"text":"সুউচ্চ","language_name":"bengali","language_id":20},"transliteration":{"text":"marfūʿatin","language_name":"english","language_id":38}},{"id":36360,"position":3,"audio_url":null,"char_type_name":"end","page_number":535,"line_number":8,"text":"٣٤","translation":{"text":"(৩৪)","language_name":"bengali","language_id":20},"transliteration":{"text":null,"language_name":"english","language_id":38}}]},{"id":5014,"verse_number":35,"verse_key":"56:35","hizb_number":54,"rub_el_hizb_number":214,"ruku_number":471,"manzil_number":7,"sajdah_number":null,"page_number":535,"juz_number":27,"words":[{"id":37201,"position":1,"audio_url":"wbw/056_035_001.mp3","char_type_name":"word","page_number":535,"line_number":8,"text":"إِنَّآ","translation":{"text":"নিশ্চয়ই আমরা","language_name":"bengali","language_id":20},"transliteration":{"text":"innā","language_name":"english","language_id":38}},{"id":37202,"position":2,"audio_url":"wbw/056_035_002.mp3","char_type_name":"word","page_number":535,"line_number":8,"text":"أَنشَأْنَـٰهُنَّ","translation":{"text":"তাদের আমরা সৃষ্টি করব","language_name":"bengali","language_id":20},"transliteration":{"text":"anshanāhunna","language_name":"english","language_id":38}},{"id":37203,"position":3,"audio_url":"wbw/056_035_003.mp3","char_type_name":"word","page_number":535,"line_number":8,"text":"إِنشَآءًۭ","translation":{"text":"সৃষ্টি (নতুন করে)","language_name":"bengali","language_id":20},"transliteration":{"text":"inshāan","language_name":"english","language_id":38}},{"id":37204,"position":4,"audio_url":null,"char_type_name":"end","page_number":535,"line_number":8,"text":"٣٥","translation":{"text":"(৩৫)","language_name":"bengali","language_id":20},"transliteration":{"text":null,"language_name":"english","language_id":38}}]},{"id":5015,"verse_number":36,"verse_key":"56:36","hizb_number":54,"rub_el_hizb_number":214,"ruku_number":471,"manzil_number":7,"sajdah_number":null,"page_number":535,"juz_number":27,"words":[{"id":38029,"position":1,"audio_url":"wbw/056_036_001.mp3","char_type_name":"word","page_number":535,"line_number":8,"text":"فَجَعَلْنَـٰهُنَّ","translation":{"text":"তাদের অতঃপর আমরা বানানো","language_name":"bengali","language_id":20},"transliteration":{"text":"fajaʿalnāhunna","language_name":"english","language_id":38}},{"id":38030,"position":2,"audio_url":"wbw/056_036_002.mp3","char_type_name":"word","page_number":535,"line_number":8,"text":"أَبْكَارًا","translation":{"text":"চিরকুমারী","language_name":"bengali","language_id":20},"transliteration":{"text":"abkāran","language_name":"english","language_id":38}},{"id":38031,"position":3,"audio_url":null,"char_type_name":"end","page_number":535,"line_number":9,"text":"٣٦","translation":{"text":"(৩৬)","language_name":"bengali","language_id":20},"transliteration":{"text":null,"language_name":"english","language_id":38}}]},{"id":5016,"verse_number":37,"verse_key":"56:37","hizb_number":54,"rub_el_hizb_number":214,"ruku_number":471,"manzil_number":7,"sajdah_number":null,"page_number":535,"juz_number":27,"words":[{"id":39383,"position":1,"audio_url":"wbw/056_037_001.mp3","char_type_name":"word","page_number":535,"line_number":9,"text":"عُرُبًا","translation":{"text":"স্বামীসোহাগিনী","language_name":"bengali","language_id":20},"transliteration":{"text":"ʿuruban","language_name":"english","language_id":38}},{"id":39384,"position":2,"audio_url":"wbw/056_037_002.mp3","char_type_name":"word","page_number":535,"line_number":9,"text":"أَتْرَابًۭا","translation":{"text":"সমবয়স্কা","language_name":"bengali","language_id":20},"transliteration":{"text":"atrāban","language_name":"english","language_id":38}},{"id":39385,"position":3,"audio_url":null,"char_type_name":"end","page_number":535,"line_number":9,"text":"٣٧","translation":{"text":"(৩৭)","language_name":"bengali","language_id":20},"transliteration":{"text":null,"language_name":"english","language_id":38}}]},{"id":5017,"verse_number":38,"verse_key":"56:38","hizb_number":54,"rub_el_hizb_number":214,"ruku_number":471,"manzil_number":7,"sajdah_number":null,"page_number":535,"juz_number":27,"words":[{"id":39727,"position":1,"audio_url":"wbw/056_038_001.mp3","char_type_name":"word","page_number":535,"line_number":9,"text":"لِّأَصْحَـٰبِ","translation":{"text":"লোকদের জন্যে","language_name":"bengali","language_id":20},"transliteration":{"text":"li-aṣḥābi","language_name":"english","language_id":38}},{"id":39728,"position":2,"audio_url":"wbw/056_038_002.mp3","char_type_name":"word","page_number":535,"line_number":9,"text":"ٱلْيَمِينِ","translation":{"text":"ডানহাতের","language_name":"bengali","language_id":20},"transliteration":{"text":"l-yamīni","language_name":"english","language_id":38}},{"id":39729,"position":3,"audio_url":null,"char_type_name":"end","page_number":535,"line_number":9,"text":"٣٨","translation":{"text":"(৩৮)","language_name":"bengali","language_id":20},"transliteration":{"text":null,"language_name":"english","language_id":38}}]},{"id":5018,"verse_number":39,"verse_key":"56:39","hizb_number":54,"rub_el_hizb_number":214,"ruku_number":472,"manzil_number":7,"sajdah_number":null,"page_number":535,"juz_number":27,"words":[{"id":40540,"position":1,"audio_url":"wbw/056_039_001.mp3","char_type_name":"word","page_number":535,"line_number":9,"text":"ثُلَّةٌۭ","translation":{"text":"বহুসংখ্যক","language_name":"bengali","language_id":20},"transliteration":{"text":"thullatun","language_name":"english","language_id":38}},{"id":40541,"position":2,"audio_url":"wbw/056_039_002.mp3","char_type_name":"word","page_number":535,"line_number":9,"text":"مِّنَ","translation":{"text":"মধ্য হতে","language_name":"bengali","language_id":20},"transliteration":{"text":"mina","language_name":"english","language_id":38}},{"id":40542,"position":3,"audio_url":"wbw/056_039_003.mp3","char_type_name":"word","page_number":535,"line_number":9,"text":"ٱلْأَوَّلِينَ","translation":{"text":"পূর্ববর্তীদের","language_name":"bengali","language_id":20},"transliteration":{"text":"l-awalīna","language_name":"english","language_id":38}},{"id":40543,"position":4,"audio_url":null,"char_type_name":"end","page_number":535,"line_number":9,"text":"٣٩","translation":{"text":"(৩৯)","language_name":"bengali","language_id":20},"transliteration":{"text":null,"language_name":"english","language_id":38}}]},{"id":5019,"verse_number":40,"verse_key":"56:40","hizb_number":54,"rub_el_hizb_number":214,"ruku_number":472,"manzil_number":7,"sajdah_number":null,"page_number":535,"juz_number":27,"words":[{"id":41251,"position":1,"audio_url":"wbw/056_040_001.mp3","char_type_name":"word","page_number":535,"line_number":10,"text":"وَثُلَّةٌۭ","translation":{"text":"বহুসংখ্যক","language_name":"bengali","language_id":20},"transliteration":{"text":"wathullatun","language_name":"english","language_id":38}},{"id":41252,"position":2,"audio_url":"wbw/056_040_002.mp3","char_type_name":"word","page_number":535,"line_number":10,"text":"مِّنَ","translation":{"text":"মধ্য হতে","language_name":"bengali","language_id":20},"transliteration":{"text":"mina","language_name":"english","language_id":38}},{"id":41253,"position":3,"audio_url":"wbw/056_040_003.mp3","char_type_name":"word","page_number":535,"line_number":10,"text":"ٱلْـَٔاخِرِينَ","translation":{"text":"পরবর্তীদের","language_name":"bengali","language_id":20},"transliteration":{"text":"l-ākhirīna","language_name":"english","language_id":38}},{"id":41254,"position":4,"audio_url":null,"char_type_name":"end","page_number":535,"line_number":10,"text":"٤٠","translation":{"text":"(৪০)","language_name":"bengali","language_id":20},"transliteration":{"text":null,"language_name":"english","language_id":38}}]}],"pagination":{"per_page":10,"current_page":4,"next_page":5,"total_pages":10,"total_records":96}}
