{"verses":[{"id":5020,"verse_number":41,"verse_key":"56:41","hizb_number":54,"rub_el_hizb_number":214,"ruku_number":472,"manzil_number":7,"sajdah_number":null,"page_number":535,"juz_number":27,"words":[{"id":42573,"position":1,"audio_url":"wbw/056_041_001.mp3","char_type_name":"word","page_number":535,"line_number":10,"text":"وَأَصْحَـٰبُ","translation":{"text":"এবং লোকদের","language_name":"bengali","language_id":20},"transliteration":{"text":"wa-aṣḥābu","language_name":"english","language_id":38}},{"id":42574,"position":2,"audio_url":"wbw/056_041_002.mp3","char_type_name":"word","page_number":535,"line_number":10,"text":"ٱلشِّمَالِ","translation":{"text":"বামহাতের","language_name":"bengali","language_id":20},"transliteration":{"text":"l-shimāli","language_name":"english","language_id":38}},{"id":42575,"position":3,"audio_url":"wbw/056_041_003.mp3","char_type_name":"word","page_number":535,"line_number":10,"text":"مَآ","translation":{"text":"কি (দুর্ভাগ্য)","language_name":"bengali","language_id":20},"transliteration":{"text":"mā","language_name":"english","language_id":38}},{"id":42576,"position":4,"audio_url":"wbw/056_041_004.mp3","char_type_name":"word","page_number":535,"line_number":10,"text":"أَصْحَـٰبُ","translation":{"text":"লোকদের","language_name":"bengali","language_id":20},"transliteration":{"text":"aṣḥābu","language_name":"english","language_id":38}},{"id":42577,"position":5,"audio_url":"wbw/056_041_005.mp3","char_type_name":"word","page_number":535,"line_number":10,"text":"ٱلشِّمَالِ","translation":{"text":"বামহাতের","language_name":"bengali","language_id":20},"transliteration":{"text":"l-shimāli","language_name":"english","language_id":38}},{"id":42578,"position":6,"audio_url":null,"char_type_name":"end","page_number":535,"line_number":11,"text":"٤١","translation":{"text":"(৪১)","language_name":"bengali","language_id":20},"transliteration":{"text":null,"language_name":"english","language_id":38}}]},{"id":5021,"verse_number":42,"verse_key":"56:42","hizb_number":54,"rub_el_hizb_number":214,"ruku_number":472,"manzil_number":7,"sajdah_number":null,"page_number":535,"juz_number":27,"words":[{"id":42782,"position":1,"audio_url":"wbw/056_042_001.mp3","char_type_name":"word","page_number":535,"line_number":11,"text":"فِى","translation":{"text":"মধ্য (থাকবে)","language_name":"bengali","language_id":20},"transliteration":{"text":"fī","language_name":"english","language_id":38}},{"id":42783,"position":2,"audio_url":"wbw/056_042_002.mp3","char_type_name":"word","page_number":535,"line_number":11,"text":"سَمُومٍۢ","translation":{"text":"উষ্ণবাতাস","language_name":"bengali","language_id":20},"transliteration":{"text":"samūmin","language_name":"english","language_id":38}},{"id":42784,"position":3,"audio_url":"wbw/056_042_003.mp3","char_type_name":"word","page_number":535,"line_number":11,"text":"وَحَمِيمٍۢ","translation":{"text":"ও ফুটন্ত পানির","language_name":"bengali","language_id":20},"transliteration":{"text":"waḥamīmin","language_name":"english","language_id":38}},{"id":42785,"position":4,"audio_url":null,"char_type_name":"end","page_number":535,"line_number":11,"text":"٤٢","translation":{"text":"(৪২)","language_name":"bengali","language_id":20},"transliteration":{"text":null,"language_name":"english","language_id":38}}]},{"id":5022,"verse_number":43,"verse_key":"56:43","hizb_number":54,"rub_el_hizb_number":214,"ruku_number":472,"manzil_number":7,"sajdah_number":null,"page_number":535,"juz_number":27,"words":[{"id":43688,"position":1,"audio_url":"wbw/056_043_001.mp3","char_type_name":"word","page_number":535,"line_number":11,"text":"وَظِلٍّۢ","translation":{"text":"এবং ছায়ায়","language_name":"bengali","language_id":20},"transliteration":{"text":"waẓillin","language_name":"english","language_id":38}},{"id":43689,"position":2,"audio_url":"wbw/056_043_002.mp3","char_type_name":"word","page_number":535,"line_number":11,"text":"مِّن","translation":{"text":"থেকে (সৃষ্টি)","language_name":"bengali","language_id":20},"transliteration":{"text":"min","language_name":"english","language_id":38}},{"id":43690,"position":3,"audio_url":"wbw/056_043_003.mp3","char_type_name":"word","page_number":535,"line_number":11,"text":"يَحْمُومٍۢ","translation":{"text":"কালো ধোঁয়ার","language_name":"bengali","language_id":20},"transliteration":{"text":"yaḥmūmin","language_name":"english","language_id":38}},{"id":43691,"position":4,"audio_url":null,"char_type_name":"end","page_number":535,"line_number":11,"text":"٤٣","translation":{"text":"(৪৩)","language_name":"bengali","language_id":20},"transliteration":{"text":null,"language_name":"english","language_id":38}}]},{"id":5023,"verse_number":44,"verse_key":"56:44","hizb_number":54,"rub_el_hizb_number":214,"ruku_number":472,"manzil_number":7,"sajdah_number":null,"page_number":535,"juz_number":27,"words":[{"id":44575,"position":1,"audio_url":"wbw/056_044_001.mp3","char_type_name":"word","page_number":535,"line_number":11,"text":"لَّا","translation":{"text":"না","language_name":"bengali","language_id":20},"transliteration":{"text":"lā","language_name":"english","language_id":38}},{"id":44576,"position":2,"audio_url":"wbw/056_044_002.mp3","char_type_name":"word","page_number":535,"line_number":11,"text":"بَارِدٍۢ","translation":{"text":"ঠাণ্ডা (হবে)","language_name":"bengali","language_id":20},"transliteration":{"text":"bāridin","language_name":"english","language_id":38}},{"id":44577,"position":3,"audio_url":"wbw/056_044_003.mp3","char_type_name":"word","page_number":535,"line_number":12,"text":"وَلَا","translation":{"text":"আর না","language_name":"bengali","language_id":20},"transliteration":{"text":"walā","language_name":"english","language_id":38}},{"id":44578,"position":4,"audio_url":"wbw/056_044_004.mp3","char_type_name":"word","page_number":535,"line_number":12,"text":"كَرِيمٍ","translation":{"text":"আনন্দদায়ক","language_name":"bengali","language_id":20},"transliteration":{"text":"karīmin","language_name":"english","language_id":38}},{"id":44579,"position":5,"audio_url":null,"char_type_name":"end","page_number":535,"line_number":12,"text":"٤٤","translation":{"text":"(৪৪)","language_name":"bengali","language_id":20},"transliteration":{"text":null,"language_name":"english","language_id":38}}]},{"id":5024,"verse_number":45,"verse_key":"56:45","hizb_number":54,"rub_el_hizb_number":214,"ruku_number":472,"manzil_number":7,"sajdah_number":null,"page_number":535,"juz_number":27,"words":[{"id":45155,"position":1,"audio_url":"wbw/056_045_001.mp3","char_type_name":"word","page_number":535,"line_number":12,"text":"إِنَّهُمْ","translation":{"text":"তারা নিশ্চয়ই","language_name":"bengali","language_id":20},"transliteration":{"text":"innahum","language_name":"english","language_id":38}},{"id":45156,"position":2,"audio_url":"wbw/056_045_002.mp3","char_type_name":"word","page_number":535,"line_number":12,"text":"كَانُوا۟","translation":{"text":"ছিল","language_name":"bengali","language_id":20},"transliteration":{"text":"kānū","language_name":"english","language_id":38}},{"id":45157,"position":3,"audio_url":"wbw/056_045_003.mp3","char_type_name":"word","page_number":535,"line_number":12,"text":"قَبْلَ","translation":{"text":"পূর্বে","language_name":"bengali","language_id":20},"transliteration":{"text":"qabla","language_name":"english","language_id":38}},{"id":45158,"position":4,"audio_url":"wbw/056_045_004.mp3","char_type_name":"word","page_number":535,"line_number":12,"text":"ذَٰلِكَ","translation":{"text":"এর","language_name":"bengali","language_id":20},"transliteration":{"text":"dhālika","language_name":"english","language_id":38}},{"id":45159,"position":5,"audio_url":"wbw/056_045_005.mp3","char_type_name":"word","page_number":535,"line_number":12,"text":"مُتْرَفِينَ","translation":{"text":"বিলাসী জীবনের অধিকারী","language_name":"bengali","language_id":20},"transliteration":{"text":"mut'rafīna","language_name":"english","language_id":38}},{"id":45160,"position":6,"audio_url":null,"char_type_name":"end","page_number":535,"line_number":12,"text":"٤٥","translation":{"text":"(৪৫)","language_name":"bengali","language_id":20},"transliteration":{"text":null,"language_name":"english","language_id":38}}]},{"id":5025,"verse_number":46,"verse_key":"56:46","hizb_number":54,"rub_el_hizb_number":214,"ruku_number":472,"manzil_number":7,"sajdah_number":null,"page_number":535,"juz_number":27,"words":[{"id":45877,"position":1,"audio_url":"wbw/056_046_001.mp3","char_type_name":"word","page_number":535,"line_number":12,"text":"وَكَانُوا۟","translation":{"text":"এবং তারা ছিল","language_name":"bengali","language_id":20},"transliteration":{"text":"wakānū","language_name":"english","language_id":38}},{"id":45878,"position":2,"audio_url":"wbw/056_046_002.mp3","char_type_name":"word","page_number":535,"line_number":13,"text":"يُصِرُّونَ","translation":{"text":"তারা অবিরত লিপ্ত থাকে","language_name":"bengali","language_id":20},"transliteration":{"text":"yuṣirrūna","language_name":"english","language_id":38}},{"id":45879,"position":3,"audio_url":"wbw/056_046_003.mp3","char_type_name":"word","page_number":535,"line_number":13,"text":"عَلَى","translation":{"text":"উপর","language_name":"bengali","language_id":20},"transliteration":{"text":"ʿalā","language_name":"english","language_id":38}},{"id":45880,"position":4,"audio_url":"wbw/056_046_004.mp3","char_type_name":"word","page_number":535,"line_number":13,"text":"ٱلْحِنثِ","translation":{"text":"পাপের","language_name":"bengali","language_id":20},"transliteration":{"text":"l-ḥinthi","language_name":"english","language_id":38}},{"id":45881,"position":5,"audio_url":"wbw/056_046_005.mp3","char_type_name":"word","page_number":535,"line_number":13,"text":"ٱلْعَظِيمِ","translation":{"text":"ঘোরতর","language_name":"bengali","language_id":20},"transliteration":{"text":"l-ʿaẓīmi","language_name":"english","language_id":38}},{"id":45882,"position":6,"audio_url":null,"char_type_name":"end","page_number":535,"line_number":13,"text":"٤٦","translation":{"text":"(৪৬)","language_name":"bengali","language_id":20},"transliteration":{"text":null,"language_name":"english","language_id":38}}]},{"id":5026,"verse_number":47,"verse_key":"56:47","hizb_number":54,"rub_el_hizb_number":214,"ruku_number":472,"manzil_number":7,"sajdah_number":null,"page_number":535,"juz_number":27,"words":[{"id":46519,"position":1,"audio_url":"wbw/056_047_001.mp3","char_type_name":"word","page_number":535,"line_number":13,"text":"وَكَانُوا۟","translation":{"text":"এবং তারা ছিল","language_name":"bengali","language_id":20},"transliteration":{"text":"wakānū","language_name":"english","language_id":38}},{"id":46520,"position":2,"audio_url":"wbw/056_047_002.mp3","char_type_name":"word","page_number":535,"line_number":13,"text":"يَقُولُونَ","translation":{"text":"তারা বলে","language_name":"bengali","language_id":20},"transliteration":{"text":"yaqūlūna","language_name":"english","language_id":38}},{"id":46521,"position":3,"audio_url":"wbw/056_047_003.mp3","char_type_name":"word","page_number":535,"line_number":13,"text":"أَئِذَا","translation":{"text":"\"যখন কি","language_name":"bengali","language_id":20},"transliteration":{"text":"a-idhā","language_name":"english","language_id":38}},{"id":46522,"position":4,"audio_url":"wbw/056_047_004.mp3","char_type_name":"word","page_number":535,"line_number":13,"text":"مِتْنَا","translation":{"text":"আমরা মরে যাব","language_name":"bengali","language_id":20},"transliteration":{"text":"mit'nā","language_name":"english","language_id":38}},{"id":46523,"position":5,"audio_url":"wbw/056_047_005.mp3","char_type_name":"word","page_number":535,"line_number":13,"text":"وَكُنَّا","translation":{"text":"ও আমরা হব","language_name":"bengali","language_id":20},"transliteration":{"text":"wakunnā","language_name":"english","language_id":38}},{"id":46524,"position":6,"audio_url":"wbw/056_047_006.mp3","char_type_name":"word","page_number":535,"line_number":14,"text":"تُرَابًۭا","translation":{"text":"মাটি","language_name":"bengali","language_id":20},"transliteration":{"text":"turāban","language_name":"english","language_id":38}},{"id":46525,"position":7,"audio_url":"wbw/056_047_007.mp3","char_type_name":"word","page_number":535,"line_number":14,"text":"وَعِظَـٰمًا","translation":{"text":"ও হাড়","language_name":"bengali","language_id":20},"transliteration":{"text":"waʿiẓāman","language_name":"english","language_id":38}},{"id":46526,"position":8,"audio_url":"wbw/056_047_008.mp3","char_type_name":"word","page_number":535,"line_number":14,"text":"أَءِنَّا","translation":{"text":"নিশ্চয়ই কি আমরা","language_name":"bengali","language_id":20},"transliteration":{"text":"a-innā","language_name":"english","language_id":38}},{"id":46527,"position":9,"audio_url":"wbw/056_047_009.mp3","char_type_name":"word","page_number":535,"line_number":14,"text":"لَمَبْعُوثُونَ","translation":{"text":"উত্থিত হব অবশ্যই","language_name":"bengali","language_id":20},"transliteration":{"text":"lamabʿūthūna","language_name":"english","language_id":38}},{"id":46528,"position":10,"audio_url":null,"char_type_name":"end","page_number":535,"line_number":14,"text":"٤٧","translation":{"text":"(৪৭)","language_name":"bengali","language_id":20},"transliteration":{"text":null,"language_name":"english","language_id":38}}]},{"id":5027,"verse_number":48,"verse_key":"56:48","hizb_number":54,"rub_el_hizb_number":214,"ruku_number":472,"manzil_number":7,"sajdah_number":null,"page_number":535,"juz_number":27,"words":[{"id":47597,"position":1,"audio_url":"wbw/056_048_001.mp3","char_type_name":"word","page_number":535,"line_number":14,"text":"أَوَءَابَآؤُنَا","translation":{"text":"অথবা আমাদের বাপদাদারও","language_name":"bengali","language_id":20},"transliteration":{"text":"awaābāunā","language_name":"english","language_id":38}},{"id":47598,"position":2,"audio_url":"wbw/056_048_002.mp3","char_type_name":"word","page_number":535,"line_number":14,"text":"ٱلْأَوَّلُونَ","translation":{"text":"পূর্বসূরী","language_name":"bengali","language_id":20},"transliteration":{"text":"l-awalūna","language_name":"english","language_id":38}},{"id":47599,"position":3,"audio_url":null,"char_type_name":"end","page_number":535,"line_number":14,"text":"٤٨","translation":{"text":"(৪৮)","language_name":"bengali","language_id":20},"transliteration":{"text":null,"language_name":"english","language_id":38}}]},{"id":5028,"verse_number":49,"verse_key":"56:49","hizb_number":54,"rub_el_hizb_number":214,"ruku_number":472,"manzil_number":7,"sajdah_number":null,"page_number":535,"juz_number":27,"words":[{"id":47885,"position":1,"audio_url":"wbw/056_049_001.mp3","char_type_name":"word","page_number":535,"line_number":14,"text":"قُلْ","translation":{"text":"বলো","language_name":"bengali","language_id":20},"transliteration":{"text":"qul","language_name":"english","language_id":38}},{"id":47886,"position":2,"audio_url":"wbw/056_049_002.mp3","char_type_name":"word","page_number":535,"line_number":14,"text":"إِنَّ","translation":{"text":"\"নিশ্চয়ই","language_name":"bengali","language_id":20},"transliteration":{"text":"inna","language_name":"english","language_id":38}},{"id":47887,"position":3,"audio_url":"wbw/056_049_003.mp3","char_type_name":"word","page_number":535,"line_number":15,"text":"ٱلْأَوَّلِينَ","translation":{"text":"পূর্বসূরীকে","language_name":"bengali","language_id":20},"transliteration":{"text":"l-awalīna","language_name":"english","language_id":38}},{"id":47888,"position":4,"audio_url":"wbw/056_049_004.mp3","char_type_name":"word","page_number":535,"line_number":15,"text":"وَٱلْـَٔاخِرِينَ","translation":{"text":"এবং উত্তরসূরীকে","language_name":"bengali","language_id":20},"transliteration":{"text":"wal-ākhirīna","language_name":"english","language_id":38}},{"id":47889,"position":5,"audio_url":null,"char_type_name":"end","page_number":535,"line_number":15,"text":"٤٩","translation":{"text":"(৪৯)","language_name":"bengali","language_id":20},"transliteration":{"text":null,"language_name":"english","language_id":38}}]},{"id":5029,"verse_number":50,"verse_key":"56:50","hizb_number":54,"rub_el_hizb_number":214,"ruku_number":472,"manzil_number":7,"sajdah_number":null,"page_number":535,"juz_number":27,"words":[{"id":48669,"position":1,"audio_url":"wbw/056_050_001.mp3","char_type_name":"word","page_number":535,"line_number":15,"text":"لَمَجْمُوعُونَ","translation":{"text":"অবশ্যই একত্র করা হবে","language_name":"bengali","language_id":20},"transliteration":{"text":"lamajmūʿūna","language_name":"english","language_id":38}},{"id":48670,"position":2,"audio_url":"wbw/056_050_002.mp3","char_type_name":"word","page_number":535,"line_number":15,"text":"إِلَىٰ","translation":{"text":"দিকে","language_name":"bengali","language_id":20},"transliteration":{"text":"ilā","language_name":"english","language_id":38}},{"id":48671,"position":3,"audio_url":"wbw/056_050_003.mp3","char_type_name":"word","page_number":535,"line_number":15,"text":"مِيقَـٰتِ","translation":{"text":"(নির্দিষ্ট) সময়ে","language_name":"bengali","language_id":20},"transliteration":{"text":"mīqāti","language_name":"english","language_id":38}},{"id":48672,"position":4,"audio_url":"wbw/056_050_004.mp3","char_type_name":"word","page_number":535,"line_number":15,"text":"يَوْمٍۢ","translation":{"text":"দিনে","language_name":"bengali","language_id":20},"transliteration":{"text":"yawmin","language_name":"english","language_id":38}},{"id":48673,"position":5,"audio_url":"wbw/056_050_005.mp3","char_type_name":"word","page_number":535,"line_number":15,"text":"مَّعْلُومٍۢ","translation":{"text":"নির্ধারিত\"","language_name":"bengali","language_id":20},"transliteration":{"text":"maʿlūmin","language_name":"english","language_id":38}},{"id":48674,"position":6,"audio_url":null,"char_type_name":"end","page_number":535,"line_number":15,"text":"٥٠","translation":{"text":"(৫০)","language_name":"bengali","language_id":20},"transliteration":{"text":null,"language_name":"english","language_id":38}}]}],"pagination":{"per_page":10,"current_page":5,"next_page":6,"total_pages":10,"total_records":96}}
