{"verses":[{"id":5040,"verse_number":61,"verse_key":"56:61","hizb_number":54,"rub_el_hizb_number":214,"ruku_number":472,"manzil_number":7,"sajdah_number":null,"page_number":536,"juz_number":27,"words":[{"id":55004,"position":1,"audio_url":"wbw/056_061_001.mp3","char_type_name":"word","page_number":536,"line_number":6,"text":"عَلَىٰٓ","translation":{"text":"এক্ষেত্রে","language_name":"bengali","language_id":20},"transliteration":{"text":"ʿalā","language_name":"english","language_id":38}},{"id":55005,"position":2,"audio_url":"wbw/056_061_002.mp3","char_type_name":"word","page_number":536,"line_number":6,"text":"أَن","translation":{"text":"যে","language_name":"bengali","language_id":20},"transliteration":{"text":"an","language_name":"english","language_id":38}},{"id":55006,"position":3,"audio_url":"wbw/056_061_003.mp3","char_type_name":"word","page_number":536,"line_number":6,"text":"نُّبَدِّلَ","translation":{"text":"পরিবর্তন করব আমরা","language_name":"bengali","language_id":20},"transliteration":{"text":"nubaddila","language_name":"english","language_id":38}},{"id":55007,"position":4,"audio_url":"wbw/056_061_004.mp3","char_type_name":"word","page_number":536,"line_number":6,"text":"أَمْثَـٰلَكُمْ","translation":{"text":"তোমাদের আকৃতি","language_name":"bengali","language_id":20},"transliteration":{"text":"amthālakum","language_name":"english","language_id":38}},{"id":55008,"position":5,"audio_url":"wbw/056_061_005.mp3","char_type_name":"word","page_number":536,"line_number":6,"text":"وَنُنشِئَكُمْ","translation":{"text":"এবং তোমাদের সৃষ্টি করব আমরা","language_name":"bengali","language_id":20},"transliteration":{"text":"wanunshi-akum","language_name":"english","language_id":38}},{"id":55009,"position":6,"audio_url":"wbw/056_061_006.mp3","char_type_name":"word","page_number":536,"line_number":6,"text":"فِى","translation":{"text":"(এমন আকৃতির) মধ্যে","language_name":"bengali","language_id":20},"transliteration":{"text":"fī","language_name":"english","language_id":38}},{"id":55010,"position":7,"audio_url":"wbw/056_061_007.mp3","char_type_name":"word","page_number":536,"line_number":6,"text":"مَا","translation":{"text":"যা","language_name":"bengali","language_id":20},"transliteration":{"text":"mā","language_name":"english","language_id":38}},{"id":55011,"position":8,"audio_url":"wbw/056_061_008.mp3","char_type_name":"word","page_number":536,"line_number":6,"text":"لَا","translation":{"text":"না","language_name":"bengali","language_id":20},"transliteration":{"text":"lā","language_name":"english","language_id":38}},{"id":55012,"position":9,"audio_url":"wbw/056_061_009.mp3","char_type_name":"word","page_number":536,"line_number":6,"text":"تَعْلَمُونَ","translation":{"text":"তোমরা জান","language_name":"bengali","language_id":20},"transliteration":{"text":"taʿlamūna","language_name":"english","language_id":38}},{"id":55013,"position":10,"audio_url":null,"char_type_name":"end","page_number":536,"line_number":6,"text":"٦١","translation":{"text":"(৬১)","language_name":"bengali","language_id":20},"transliteration":{"text":null,"language_name":"english","language_id":38}}]},{"id":5041,"verse_number":62,"verse_key":"56:62","hizb_number":54,"rub_el_hizb_number":214,"ruku_number":472,"manzil_number":7,"sajdah_number":null,"page_number":536,"juz_number":27,"words":[{"id":55553,"position":1,"audio_url":"wbw/056_062_001.mp3","char_type_name":"word","page_number":536,"line_number":6,"text":"وَلَقَدْ","translation":{"text":"এবং নিশ্চয়ই","language_name":"bengali","language_id":20},"transliteration":{"text":"walaqad","language_name":"english","language_id":38}},{"id":55554,"position":2,"audio_url":"wbw/056_062_002.mp3","char_type_name":"word","page_number":536,"line_number":7,"text":"عَلِمْتُمُ","translation":{"text":"তোমরা জেনেছ","language_name":"bengali","language_id":20},"transliteration":{"text":"ʿalim'tumu","language_name":"english","language_id":38}},{"id":55555,"position":3,"audio_url":"wbw/056_062_003.mp3","char_type_name":"word","page_number":536,"line_number":7,"text":"ٱلنَّشْأَةَ","translation":{"text":"সৃষ্টিকে","language_name":"bengali","language_id":20},"transliteration":{"text":"l-nashata","language_name":"english","language_id":38}},{"id":55556,"position":4,"audio_url":"wbw/056_062_004.mp3","char_type_name":"word","page_number":536,"line_number":7,"text":"ٱلْأُولَىٰ","translation":{"text":"প্রথমবার","language_name":"bengali","language_id":20},"transliteration":{"text":"l-ūlā","language_name":"english","language_id":38}},{"id":55557,"position":5,"audio_url":"wbw/056_062_005.mp3","char_type_name":"word","page_number":536,"line_number":7,"text":"فَلَوْلَا","translation":{"text":"কেন তবে না","language_name":"bengali","language_id":20},"transliteration":{"text":"falawlā","language_name":"english","language_id":38}},{"id":55558,"position":6,"audio_url":"wbw/056_062_006.mp3","char_type_name":"word","page_number":536,"line_number":7,"text":"تَذَكَّرُونَ","translation":{"text":"তোমরা শিক্ষা গ্রহণ কর","language_name":"bengali","language_id":20},"transliteration":{"text":"tadhakkarūna","language_name":"english","language_id":38}},{"id":55559,"position":7,"audio_url":null,"char_type_name":"end","page_number":536,"line_number":7,"text":"٦٢","translation":{"text":"(৬২)","language_name":"bengali","language_id":20},"transliteration":{"text":null,"language_name":"english","language_id":38}}]},{"id":5042,"verse_number":63,"verse_key":"56:63","hizb_number":54,"rub_el_hizb_number":214,"ruku_number":472,"manzil_number":7,"sajdah_number":null,"page_number":536,"juz_number":27,"words":[{"id":56163,"position":1,"audio_url":"wbw/056_063_001.mp3","char_type_name":"word","page_number":536,"line_number":7,"text":"أَفَرَءَيْتُم","translation":{"text":"তোমরা তবে কি (ভেবে) দেখেছ","language_name":"bengali","language_id":20},"transliteration":{"text":"afara-aytum","language_name":"english","language_id":38}},{"id":56164,"position":2,"audio_url":"wbw/056_063_002.mp3","char_type_name":"word","page_number":536,"line_number":7,"text":"مَّا","translation":{"text":"যা","language_name":"bengali","language_id":20},"transliteration":{"text":"mā","language_name":"english","language_id":38}},{"id":56165,"position":3,"audio_url":"wbw/056_063_003.mp3","char_type_name":"word","page_number":536,"line_number":7,"text":"تَحْرُثُونَ","translation":{"text":"তোমরা বীজবপণ কর","language_name":"bengali","language_id":20},"transliteration":{"text":"taḥruthūna","language_name":"english","language_id":38}},{"id":56166,"position":4,"audio_url":null,"char_type_name":"end","page_number":536,"line_number":8,"text":"٦٣","translation":{"text":"(৬৩)","language_name":"bengali","language_id":20},"transliteration":{"text":null,"language_name":"english","language_id":38}}]},{"id":5043,"verse_number":64,"verse_key":"56:64","hizb_number":54,"rub_el_hizb_number":214,"ruku_number":472,"manzil_number":7,"sajdah_number":null,"page_number":536,"juz_number":27,"words":[{"id":56676,"position":1,"audio_url":"wbw/056_064_001.mp3","char_type_name":"word","page_number":536,"line_number":8,"text":"ءَأَنتُمْ","translation":{"text":"তোমরা কি","language_name":"bengali","language_id":20},"transliteration":{"text":"a-antum","language_name":"english","language_id":38}},{"id":56677,"position":2,"audio_url":"wbw/056_064_002.mp3","char_type_name":"word","page_number":536,"line_number":8,"text":"تَزْرَعُونَهُۥٓ","translation":{"text":"সেই ফসল ফলাও","language_name":"bengali","language_id":20},"transliteration":{"text":"tazraʿūnahu","language_name":"english","language_id":38}},{"id":56678,"position":3,"audio_url":"wbw/056_064_003.mp3","char_type_name":"word","page_number":536,"line_number":8,"text":"أَمْ","translation":{"text":"না","language_name":"bengali","language_id":20},"transliteration":{"text":"am","language_name":"english","language_id":38}},{"id":56679,"position":4,"audio_url":"wbw/056_064_004.mp3","char_type_name":"word","page_number":536,"line_number":8,"text":"نَحْنُ","translation":{"text":"আমরা","language_name":"bengali","language_id":20},"transliteration":{"text":"naḥnu","language_name":"english","language_id":38}},{"id":56680,"position":5,"audio_url":"wbw/056_064_005.mp3","char_type_name":"word","page_number":536,"line_number":8,"text":"ٱلزَّٰرِعُونَ","translation":{"text":"উৎপাদনকারী","language_name":"bengali","language_id":20},"transliteration":{"text":"l-zāriʿūna","language_name":"english","language_id":38}},{"id":56681,"position":6,"audio_url":null,"char_type_name":"end","page_number":536,"line_number":8,"text":"٦٤","translation":{"text":"(৬৪)","language_name":"bengali","language_id":20},"transliteration":{"text":null,"language_name":"english","language_id":38}}]},{"id":5044,"verse_number":65,"verse_key":"56:65","hizb_number":54,"rub_el_hizb_number":214,"ruku_number":472,"manzil_number":7,"sajdah_number":null,"page_number":536,"juz_number":27,"words":[{"id":57219,"position":1,"audio_url":"wbw/056_065_001.mp3","char_type_name":"word","page_number":536,"line_number":8,"text":"لَوْ","translation":{"text":"যদি","language_name":"bengali","language_id":20},"transliteration":{"text":"law","language_name":"english","language_id":38}},{"id":57220,"position":2,"audio_url":"wbw/056_065_002.mp3","char_type_name":"word","page_number":536,"line_number":8,"text":"نَشَآءُ","translation":{"text":"চাই আমরা","language_name":"bengali","language_id":20},"transliteration":{"text":"nashāu","language_name":"english","language_id":38}},{"id":57221,"position":3,"audio_url":"wbw/056_065_003.mp3","char_type_name":"word","page_number":536,"line_number":8,"text":"لَجَعَلْنَـٰهُ","translation":{"text":"তা আমরা পরিণত করতে পারি অবশ্যই","language_name":"bengali","language_id":20},"transliteration":{"text":"lajaʿalnāhu","language_name":"english","language_id":38}},{"id":57222,"position":4,"audio_url":"wbw/056_065_004.mp3","char_type_name":"word","page_number":536,"line_number":9,"text":"حُطَـٰمًۭا","translation":{"text":"খড়কুটায়","language_name":"bengali","language_id":20},"transliteration":{"text":"ḥuṭāman","language_name":"english","language_id":38}},{"id":57223,"position":5,"audio_url":"wbw/056_065_005.mp3","char_type_name":"word","page_number":536,"line_number":9,"text":"فَظَلْتُمْ","translation":{"text":"তোমরা তখন থাকবে","language_name":"bengali","language_id":20},"transliteration":{"text":"faẓaltum","language_name":"english","language_id":38}},{"id":57224,"position":6,"audio_url":"wbw/056_065_006.mp3","char_type_name":"word","page_number":536,"line_number":9,"text":"تَفَكَّهُونَ","translation":{"text":"অবাক বোধ করতে","language_name":"bengali","language_id":20},"transliteration":{"text":"tafakkahūna","language_name":"english","language_id":38}},{"id":57225,"position":7,"audio_url":null,"char_type_name":"end","page_number":536,"line_number":9,"text":"٦٥","translation":{"text":"(৬৫)","language_name":"bengali","language_id":20},"transliteration":{"text":null,"language_name":"english","language_id":38}}]},{"id":5045,"verse_number":66,"verse_key":"56:66","hizb_number":54,"rub_el_hizb_number":214,"ruku_number":472,"manzil_number":7,"sajdah_number":null,"page_number":536,"juz_number":27,"words":[{"id":57736,"position":1,"audio_url":"wbw/056_066_001.mp3","char_type_name":"word","page_number":536,"line_number":9,"text":"إِنَّا","translation":{"text":"\"(বলবে) আমরা নিশ্চয়ই","language_name":"bengali","language_id":20},"transliteration":{"text":"innā","language_name":"english","language_id":38}},{"id":57737,"position":2,"audio_url":"wbw/056_066_002.mp3","char_type_name":"word","page_number":536,"line_number":9,"text":"لَمُغْرَمُونَ","translation":{"text":"অবশ্যই ঋণগ্রস্ত হয়েছি","language_name":"bengali","language_id":20},"transliteration":{"text":"lamugh'ramūna","language_name":"english","language_id":38}},{"id":57738,"position":3,"audio_url":null,"char_type_name":"end","page_number":536,"line_number":9,"text":"٦٦","translation":{"text":"(৬৬)","language_name":"bengali","language_id":20},"transliteration":{"text":null,"language_name":"english","language_id":38}}]},{"id":5046,"verse_number":67,"verse_key":"56:67","hizb_number":54,"rub_el_hizb_number":214,"ruku_number":472,"manzil_number":7,"sajdah_number":null,"page_number":536,"juz_number":27,"words":[{"id":58201,"position":1,"audio_url":"wbw/056_067_001.mp3","char_type_name":"word","page_number":536,"line_number":9,"text":"بَلْ","translation":{"text":"বরং","language_name":"bengali","language_id":20},"transliteration":{"text":"bal","language_name":"english","language_id":38}},{"id":58202,"position":2,"audio_url":"wbw/056_067_002.mp3","char_type_name":"word","page_number":536,"line_number":9,"text":"نَحْنُ","translation":{"text":"আমরা","language_name":"bengali","language_id":20},"transliteration":{"text":"naḥnu","language_name":"english","language_id":38}},{"id":58203,"position":3,"audio_url":"wbw/056_067_003.mp3","char_type_name":"word","page_number":536,"line_number":10,"text":"مَحْرُومُونَ","translation":{"text":"বঞ্চিত হয়েছি\"","language_name":"bengali","language_id":20},"transliteration":{"text":"maḥrūmūna","language_name":"english","language_id":38}},{"id":58204,"position":4,"audio_url":null,"char_type_name":"end","page_number":536,"line_number":10,"text":"٦٧","translation":{"text":"(৬৭)","language_name":"bengali","language_id":20},"transliteration":{"text":null,"language_name":"english","language_id":38}}]},{"id":5047,"verse_number":68,"verse_key":"56:68","hizb_number":54,"rub_el_hizb_number":214,"ruku_number":472,"manzil_number":7,"sajdah_number":null,"page_number":536,"juz_number":27,"words":[{"id":58585,"position":1,"audio_url":"wbw/056_068_001.mp3","char_type_name":"word","page_number":536,"line_number":10,"text":"أَفَرَءَيْتُمُ","translation":{"text":"তোমরা তবে কি (ভেবে) দেখেছ","language_name":"bengali","language_id":20},"transliteration":{"text":"afara-aytumu","language_name":"english","language_id":38}},{"id":58586,"position":2,"audio_url":"wbw/056_068_002.mp3","char_type_name":"word","page_number":536,"line_number":10,"text":"ٱلْمَآءَ","translation":{"text":"পানি (সম্পর্কে)","language_name":"bengali","language_id":20},"transliteration":{"text":"l-māa","language_name":"english","language_id":38}},{"id":58587,"position":3,"audio_url":"wbw/056_068_003.mp3","char_type_name":"word","page_number":536,"line_number":10,"text":"ٱلَّذِى","translation":{"text":"যা","language_name":"bengali","language_id":20},"transliteration":{"text":"alladhī","language_name":"english","language_id":38}},{"id":58588,"position":4,"audio_url":"wbw/056_068_004.mp3","char_type_name":"word","page_number":536,"line_number":10,"text":"تَشْرَبُونَ","translation":{"text":"তোমরা পান কর","language_name":"bengali","language_id":20},"transliteration":{"text":"tashrabūna","language_name":"english","language_id":38}},{"id":58589,"position":5,"audio_url":null,"char_type_name":"end","page_number":536,"line_number":10,"text":"٦٨","translation":{"text":"(৬৮)","language_name":"bengali","language_id":20},"transliteration":{"text":null,"language_name":"english","language_id":38}}]},{"id":5048,"verse_number":69,"verse_key":"56:69","hizb_number":54,"rub_el_hizb_number":214,"ruku_number":472,"manzil_number":7,"sajdah_number":null,"page_number":536,"juz_number":27,"words":[{"id":59031,"position":1,"audio_url":"wbw/056_069_001.mp3","char_type_name":"word","page_number":536,"line_number":10,"text":"ءَأَنتُمْ","translation":{"text":"তোমরা কি","language_name":"bengali","language_id":20},"transliteration":{"text":"a-antum","language_name":"english","language_id":38}},{"id":59032,"position":2,"audio_url":"wbw/056_069_002.mp3","char_type_name":"word","page_number":536,"line_number":10,"text":"أَنزَلْتُمُوهُ","translation":{"text":"তা নামিয়ে আন","language_name":"bengali","language_id":20},"transliteration":{"text":"anzaltumūhu","language_name":"english","language_id":38}},{"id":59033,"position":3,"audio_url":"wbw/056_069_003.mp3","char_type_name":"word","page_number":536,"line_number":11,"text":"مِنَ","translation":{"text":"থেকে","language_name":"bengali","language_id":20},"transliteration":{"text":"mina","language_name":"english","language_id":38}},{"id":59034,"position":4,"audio_url":"wbw/056_069_004.mp3","char_type_name":"word","page_number":536,"line_number":11,"text":"ٱلْمُزْنِ","translation":{"text":"মেঘ","language_name":"bengali","language_id":20},"transliteration":{"text":"l-muz'ni","language_name":"english","language_id":38}},{"id":59035,"position":5,"audio_url":"wbw/056_069_005.mp3","char_type_name":"word","page_number":536,"line_number":11,"text":"أَمْ","translation":{"text":"না","language_name":"bengali","language_id":20},"transliteration":{"text":"am","language_name":"english","language_id":38}},{"id":59036,"position":6,"audio_url":"wbw/056_069_006.mp3","char_type_name":"word","page_number":536,"line_number":11,"text":"نَحْنُ","translation":{"text":"আমরা","language_name":"bengali","language_id":20},"transliteration":{"text":"naḥnu","language_name":"english","language_id":38}},{"id":59037,"position":7,"audio_url":"wbw/056_069_007.mp3","char_type_name":"word","page_number":536,"line_number":11,"text":"ٱلْمُنزِلُونَ","translation":{"text":"বর্ষণকারী","language_name":"bengali","language_id":20},"transliteration":{"text":"l-munzilūna","language_name":"english","language_id":38}},{"id":59038,"position":8,"audio_url":null,"char_type_name":"end","page_number":536,"line_number":11,"text":"٦٩","translation":{"text":"(৬৯)","language_name":"bengali","language_id":20},"transliteration":{"text":null,"language_name":"english","language_id":38}}]},{"id":5049,"verse_number":70,"verse_key":"56:70","hizb_number":54,"rub_el_hizb_number":214,"ruku_number":472,"manzil_number":7,"sajdah_number":null,"page_number":536,"juz_number":27,"words":[{"id":59425,"position":1,"audio_url":"wbw/056_070_001.mp3","char_type_name":"word","page_number":536,"line_number":11,"text":"لَوْ","translation":{"text":"যদি","language_name":"bengali","language_id":20},"transliteration":{"text":"law","language_name":"english","language_id":38}},{"id":59426,"position":2,"audio_url":"wbw/056_070_002.mp3","char_type_name":"word","page_number":536,"line_number":11,"text":"نَشَآءُ","translation":{"text":"চাই আমরা","language_name":"bengali","language_id":20},"transliteration":{"text":"nashāu","language_name":"english","language_id":38}},{"id":59427,"position":3,"audio_url":"wbw/056_070_003.mp3","char_type_name":"word","page_number":536,"line_number":11,"text":"جَعَلْنَـٰهُ","translation":{"text":"তা আমরা করতে পারি","language_name":"bengali","language_id":20},"transliteration":{"text":"jaʿalnāhu","language_name":"english","language_id":38}},{"id":59428,"position":4,"audio_url":"wbw/056_070_004.mp3","char_type_name":"word","page_number":536,"line_number":11,"text":"أُجَاجًۭا","translation":{"text":"লোনা","language_name":"bengali","language_id":20},"transliteration":{"text":"ujājan","language_name":"english","language_id":38}},{"id":59429,"position":5,"audio_url":"wbw/056_070_005.mp3","char_type_name":"word","page_number":536,"line_number":11,"text":"فَلَوْلَا","translation":{"text":"কেন তাহলে না","language_name":"bengali","language_id":20},"transliteration":{"text":"falawlā","language_name":"english","language_id":38}},{"id":59430,"position":6,"audio_url":"wbw/056_070_006.mp3","char_type_name":"word","page_number":536,"line_number":12,"text":"تَشْكُرُونَ","translation":{"text":"তোমরা কৃতজ্ঞতা প্রকাশ কর","language_name":"bengali","language_id":20},"transliteration":{"text":"tashkurūna","language_name":"english","language_id":38}},{"id":59431,"position":7,"audio_url":null,"char_type_name":"end","page_number":536,"line_number":12,"text":"٧٠","translation":{"text":"(৭০)","language_name":"bengali","language_id":20},"transliteration":{"text":null,"language_name":"english","language_id":38}}]}],"pagination":{"per_page":10,"current_page":7,"next_page":8,"total_pages":10,"total_records":96}}
