{"verses":[{"id":4671,"verse_number":41,"verse_key":"50:41","hizb_number":52,"rub_el_hizb_number":208,"ruku_number":456,"manzil_number":7,"sajdah_number":null,"page_number":520,"juz_number":26,"words":[{"id":42055,"position":1,"audio_url":"wbw/050_041_001.mp3","verse_key":"50:41","verse_id":4671,"location":"50:41:1","text_uthmani":"وَٱسْتَمِعْ","qpc_uthmani_hafs":"وَٱسۡتَمِعۡ","char_type_name":"word","page_number":520,"line_number":7,"text":"وَٱسۡتَمِعۡ","translation":{"text":"And listen","language_name":"english","language_id":38},"transliteration":{"text":"wa-is'tamiʿ","language_name":"english","language_id":38}},{"id":42056,"position":2,"audio_url":"wbw/050_041_002.mp3","verse_key":"50:41","verse_id":4671,"location":"50:41:2","text_uthmani":"يَوْمَ","qpc_uthmani_hafs":"يَوۡمَ","char_type_name":"word","page_number":520,"line_number":7,"text":"يَوۡمَ","translation":{"text":"(The) Day","language_name":"english","language_id":38},"transliteration":{"text":"yawma","language_name":"english","language_id":38}},{"id":42057,"position":3,"audio_url":"wbw/050_041_003.mp3","verse_key":"50:41","verse_id":4671,"location":"50:41:3","text_uthmani":"يُنَادِ","qpc_uthmani_hafs":"يُنَادِ","char_type_name":"word","page_number":520,"line_number":7,"text":"يُنَادِ","translation":{"text":"will call","language_name":"english","language_id":38},"transliteration":{"text":"yunādi","language_name":"english","language_id":38}},{"id":42058,"position":4,"audio_url":"wbw/050_041_004.mp3","verse_key":"50:41","verse_id":4671,"location":"50:41:4","text_uthmani":"ٱلْمُنَادِ","qpc_uthmani_hafs":"ٱلۡمُنَادِ","char_type_name":"word","page_number":520,"line_number":7,"text":"ٱلۡمُنَادِ","translation":{"text":"the caller","language_name":"english","language_id":38},"transliteration":{"text":"l-munādi","language_name":"english","language_id":38}},{"id":42059,"position":5,"audio_url":"wbw/050_041_005.mp3","verse_key":"50:41","verse_id":4671,"location":"50:41:5","text_uthmani":"مِن","qpc_uthmani_hafs":"مِن","char_type_name":"word","page_number":520,"line_number":7,"text":"مِن","translation":{"text":"from","language_name":"english","language_id":38},"transliteration":{"text":"min","language_name":"english","language_id":38}},{"id":42060,"position":6,"audio_url":"wbw/050_041_006.mp3","verse_key":"50:41","verse_id":4671,"location":"50:41:6","text_uthmani":"مَّكَانٍۢ","qpc_uthmani_hafs":"مَّكَانٖ","char_type_name":"word","page_number":520,"line_number":7,"text":"مَّكَانٖ","translation":{"text":"a place","language_name":"english","language_id":38},"transliteration":{"text":"makānin","language_name":"english","language_id":38}},{"id":42061,"position":7,"audio_url":"wbw/050_041_007.mp3","verse_key":"50:41","verse_id":4671,"location":"50:41:7","text_uthmani":"قَرِيبٍۢ","qpc_uthmani_hafs":"قَرِيبٖ","char_type_name":"word","page_number":520,"line_number":7,"text":"قَرِيبٖ","translation":{"text":"near","language_name":"english","language_id":38},"transliteration":{"text":"qarībin","language_name":"english","language_id":38}},{"id":42062,"position":8,"audio_url":null,"verse_key":"50:41","verse_id":4671,"location":"50:41:8","text_uthmani":"٤١","qpc_uthmani_hafs":"٤١","char_type_name":"end","page_number":520,"line_number":8,"text":"٤١","translation":{"text":"(41)","language_name":"english","language_id":38},"transliteration":{"text":null,"language_name":"english","language_id":38}}]},{"id":4672,"verse_number":42,"verse_key":"50:42","hizb_number":52,"rub_el_hizb_number":208,"ruku_number":456,"manzil_number":7,"sajdah_number":null,"page_number":520,"juz_number":26,"words":[{"id":42796,"position":1,"audio_url":"wbw/050_042_001.mp3","verse_key":"50:42","verse_id":4672,"location":"50:42:1","text_uthmani":"يَوْمَ","qpc_uthmani_hafs":"يَوۡمَ","char_type_name":"word","page_number":520,"line_number":8,"text":"يَوۡمَ","translation":{"text":"(The) Day","language_name":"english","language_id":38},"transliteration":{"text":"yawma","language_name":"english","language_id":38}},{"id":42797,"position":2,"audio_url":"wbw/050_042_002.mp3","verse_key":"50:42","verse_id":4672,"location":"50:42:2","text_uthmani":"يَسْمَعُونَ","qpc_uthmani_hafs":"يَسۡمَعُونَ","char_type_name":"word","page_number":520,"line_number":8,"text":"يَسۡمَعُونَ","translation":{"text":"they will hear","language_name":"english","language_id":38},"transliteration":{"text":"yasmaʿūna","language_name":"english","language_id":38}},{"id":42798,"position":3,"audio_url":"wbw/050_042_003.mp3","verse_key":"50:42","verse_id":4672,"location":"50:42:3","text_uthmani":"ٱلصَّيْحَةَ","qpc_uthmani_hafs":"ٱلصَّيۡحَةَ","char_type_name":"word","page_number":520,"line_number":8,"text":"ٱلصَّيۡحَةَ","translation":{"text":"the Blast","language_name":"english","language_id":38},"transliteration":{"text":"l-ṣayḥata","language_name":"english","language_id":38}},{"id":42799,"position":4,"audio_url":"wbw/050_042_004.mp3","verse_key":"50:42","verse_id":4672,"location":"50:42:4","text_uthmani":"بِٱلْحَقِّ ۚ","qpc_uthmani_hafs":"بِٱلۡحَقِّۚ","char_type_name":"word","page_number":520,"line_number":8,"text":"بِٱلۡحَقِّۚ","translation":{"text":"in truth","language_name":"english","language_id":38},"transliteration":{"text":"bil-ḥaqi","language_name":"english","language_id":38}},{"id":42801,"position":5,"audio_url":"wbw/050_042_006.mp3","verse_key":"50:42","verse_id":4672,"location":"50:42:5","text_uthmani":"ذَٰلِكَ","qpc_uthmani_hafs":"ذَٰلِكَ","char_type_name":"word","page_number":520,"line_number":8,"text":"ذَٰلِكَ","translation":{"text":"That","language_name":"english","language_id":38},"transliteration":{"text":"dhālika","language_name":"english","language_id":38}},{"id":42802,"position":6,"audio_url":"wbw/050_042_007.mp3","verse_key":"50:42","verse_id":4672,"location":"50:42:6","text_uthmani":"يَوْمُ","qpc_uthmani_hafs":"يَوۡمُ","char_type_name":"word","page_number":520,"line_number":8,"text":"يَوۡمُ","translation":{"text":"(is the) Day","language_name":"english","language_id":38},"transliteration":{"text":"yawmu","language_name":"english","language_id":38}},{"id":42803,"position":7,"audio_url":"wbw/050_042_008.mp3","verse_key":"50:42","verse_id":4672,"location":"50:42:7","text_uthmani":"ٱلْخُرُوجِ","qpc_uthmani_hafs":"ٱلۡخُرُوجِ","char_type_name":"word","page_number":520,"line_number":8,"text":"ٱلۡخُرُوجِ","translation":{"text":"(of) coming forth","language_name":"english","language_id":38},"transliteration":{"text":"l-khurūji","language_name":"english","language_id":38}},{"id":42804,"position":8,"audio_url":null,"verse_key":"50:42","verse_id":4672,"location":"50:42:8","text_uthmani":"٤٢","qpc_uthmani_hafs":"٤٢","char_type_name":"end","page_number":520,"line_number":8,"text":"٤٢","translation":{"text":"(42)","language_name":"english","language_id":38},"transliteration":{"text":null,"language_name":"english","language_id":38}}]},{"id":4673,"verse_number":43,"verse_key":"50:43","hizb_number":52,"rub_el_hizb_number":208,"ruku_number":456,"manzil_number":7,"sajdah_number":null,"page_number":520,"juz_number":26,"words":[{"id":43572,"position":1,"audio_url":"wbw/050_043_001.mp3","verse_key":"50:43","verse_id":4673,"location":"50:43:1","text_uthmani":"إِنَّا","qpc_uthmani_hafs":"إِنَّا","char_type_name":"word","page_number":520,"line_number":8,"text":"إِنَّا","translation":{"text":"Indeed, We","language_name":"english","language_id":38},"transliteration":{"text":"innā","language_name":"english","language_id":38}},{"id":43573,"position":2,"audio_url":"wbw/050_043_002.mp3","verse_key":"50:43","verse_id":4673,"location":"50:43:2","text_uthmani":"نَحْنُ","qpc_uthmani_hafs":"نَحۡنُ","char_type_name":"word","page_number":520,"line_number":9,"text":"نَحۡنُ","translation":{"text":"[We]","language_name":"english","language_id":38},"transliteration":{"text":"naḥnu","language_name":"english","language_id":38}},{"id":43574,"position":3,"audio_url":"wbw/050_043_003.mp3","verse_key":"50:43","verse_id":4673,"location":"50:43:3","text_uthmani":"نُحْىِۦ","qpc_uthmani_hafs":"نُحۡيِۦ","char_type_name":"word","page_number":520,"line_number":9,"text":"نُحۡيِۦ","translation":{"text":"[We] give life","language_name":"english","language_id":38},"transliteration":{"text":"nuḥ'yī","language_name":"english","language_id":38}},{"id":43575,"position":4,"audio_url":"wbw/050_043_004.mp3","verse_key":"50:43","verse_id":4673,"location":"50:43:4","text_uthmani":"وَنُمِيتُ","qpc_uthmani_hafs":"وَنُمِيتُ","char_type_name":"word","page_number":520,"line_number":9,"text":"وَنُمِيتُ","translation":{"text":"and [We] cause death","language_name":"english","language_id":38},"transliteration":{"text":"wanumītu","language_name":"english","language_id":38}},{"id":43576,"position":5,"audio_url":"wbw/050_043_005.mp3","verse_key":"50:43","verse_id":4673,"location":"50:43:5","text_uthmani":"وَإِلَيْنَا","qpc_uthmani_hafs":"وَإِلَيۡنَا","char_type_name":"word","page_number":520,"line_number":9,"text":"وَإِلَيۡنَا","translation":{"text":"and to Us","language_name":"english","language_id":38},"transliteration":{"text":"wa-ilaynā","language_name":"english","language_id":38}},{"id":43577,"position":6,"audio_url":"wbw/050_043_006.mp3","verse_key":"50:43","verse_id":4673,"location":"50:43:6","text_uthmani":"ٱلْمَصِيرُ","qpc_uthmani_hafs":"ٱلۡمَصِيرُ","char_type_name":"word","page_number":520,"line_number":9,"text":"ٱلۡمَصِيرُ","translation":{"text":"(is) the final return","language_name":"english","language_id":38},"transliteration":{"text":"l-maṣīru","language_name":"english","language_id":38}},{"id":43578,"position":7,"audio_url":null,"verse_key":"50:43","verse_id":4673,"location":"50:43:7","text_uthmani":"٤٣","qpc_uthmani_hafs":"٤٣","char_type_name":"end","page_number":520,"line_number":9,"text":"٤٣","translation":{"text":"(43)","language_name":"english","language_id":38},"transliteration":{"text":null,"language_name":"english","language_id":38}}]},{"id":4674,"verse_number":44,"verse_key":"50:44","hizb_number":52,"rub_el_hizb_number":208,"ruku_number":456,"manzil_number":7,"sajdah_number":null,"page_number":520,"juz_number":26,"words":[{"id":44693,"position":1,"audio_url":"wbw/050_044_001.mp3","verse_key":"50:44","verse_id":4674,"location":"50:44:1","text_uthmani":"يَوْمَ","qpc_uthmani_hafs":"يَوۡمَ","char_type_name":"word","page_number":520,"line_number":9,"text":"يَوۡمَ","translation":{"text":"(The) Day","language_name":"english","language_id":38},"transliteration":{"text":"yawma","language_name":"english","language_id":38}},{"id":44694,"position":2,"audio_url":"wbw/050_044_002.mp3","verse_key":"50:44","verse_id":4674,"location":"50:44:2","text_uthmani":"تَشَقَّقُ","qpc_uthmani_hafs":"تَشَقَّقُ","char_type_name":"word","page_number":520,"line_number":9,"text":"تَشَقَّقُ","translation":{"text":"will split","language_name":"english","language_id":38},"transliteration":{"text":"tashaqqaqu","language_name":"english","language_id":38}},{"id":44695,"position":3,"audio_url":"wbw/050_044_003.mp3","verse_key":"50:44","verse_id":4674,"location":"50:44:3","text_uthmani":"ٱلْأَرْضُ","qpc_uthmani_hafs":"ٱلۡأَرۡضُ","char_type_name":"word","page_number":520,"line_number":9,"text":"ٱلۡأَرۡضُ","translation":{"text":"the earth","language_name":"english","language_id":38},"transliteration":{"text":"l-arḍu","language_name":"english","language_id":38}},{"id":44696,"position":4,"audio_url":"wbw/050_044_004.mp3","verse_key":"50:44","verse_id":4674,"location":"50:44:4","text_uthmani":"عَنْهُمْ","qpc_uthmani_hafs":"عَنۡهُمۡ","char_type_name":"word","page_number":520,"line_number":10,"text":"عَنۡهُمۡ","translation":{"text":"from them","language_name":"english","language_id":38},"transliteration":{"text":"ʿanhum","language_name":"english","language_id":38}},{"id":44697,"position":5,"audio_url":"wbw/050_044_005.mp3","verse_key":"50:44","verse_id":4674,"location":"50:44:5","text_uthmani":"سِرَاعًۭا ۚ","qpc_uthmani_hafs":"سِرَاعٗاۚ","char_type_name":"word","page_number":520,"line_number":10,"text":"سِرَاعٗاۚ","translation":{"text":"hurrying","language_name":"english","language_id":38},"transliteration":{"text":"sirāʿan","language_name":"english","language_id":38}},{"id":44699,"position":6,"audio_url":"wbw/050_044_007.mp3","verse_key":"50:44","verse_id":4674,"location":"50:44:6","text_uthmani":"ذَٰلِكَ","qpc_uthmani_hafs":"ذَٰلِكَ","char_type_name":"word","page_number":520,"line_number":10,"text":"ذَٰلِكَ","translation":{"text":"That","language_name":"english","language_id":38},"transliteration":{"text":"dhālika","language_name":"english","language_id":38}},{"id":44700,"position":7,"audio_url":"wbw/050_044_008.mp3","verse_key":"50:44","verse_id":4674,"location":"50:44:7","text_uthmani":"حَشْرٌ","qpc_uthmani_hafs":"حَشۡرٌ","char_type_name":"word","page_number":520,"line_number":10,"text":"حَشۡرٌ","translation":{"text":"(is) a gathering","language_name":"english","language_id":38},"transliteration":{"text":"ḥashrun","language_name":"english","language_id":38}},{"id":44701,"position":8,"audio_url":"wbw/050_044_009.mp3","verse_key":"50:44","verse_id":4674,"location":"50:44:8","text_uthmani":"عَلَيْنَا","qpc_uthmani_hafs":"عَلَيۡنَا","char_type_name":"word","page_number":520,"line_number":10,"text":"عَلَيۡنَا","translation":{"text":"for Us","language_name":"english","language_id":38},"transliteration":{"text":"ʿalaynā","language_name":"english","language_id":38}},{"id":44702,"position":9,"audio_url":"wbw/050_044_010.mp3","verse_key":"50:44","verse_id":4674,"location":"50:44:9","text_uthmani":"يَسِيرٌۭ","qpc_uthmani_hafs":"يَسِيرٞ","char_type_name":"word","page_number":520,"line_number":10,"text":"يَسِيرٞ","translation":{"text":"easy","language_name":"english","language_id":38},"transliteration":{"text":"yasīrun","language_name":"english","language_id":38}},{"id":44703,"position":10,"audio_url":null,"verse_key":"50:44","verse_id":4674,"location":"50:44:10","text_uthmani":"٤٤","qpc_uthmani_hafs":"٤٤","char_type_name":"end","page_number":520,"line_number":10,"text":"٤٤","translation":{"text":"(44)","language_name":"english","language_id":38},"transliteration":{"text":null,"language_name":"english","language_id":38}}]},{"id":4675,"verse_number":45,"verse_key":"50:45","hizb_number":52,"rub_el_hizb_number":208,"ruku_number":456,"manzil_number":7,"sajdah_number":null,"page_number":520,"juz_number":26,"words":[{"id":45089,"position":1,"audio_url":"wbw/050_045_001.mp3","verse_key":"50:45","verse_id":4675,"location":"50:45:1","text_uthmani":"نَّحْنُ","qpc_uthmani_hafs":"نَّحۡنُ","char_type_name":"word","page_number":520,"line_number":10,"text":"نَّحۡنُ","translation":{"text":"We","language_name":"english","language_id":38},"transliteration":{"text":"naḥnu","language_name":"english","language_id":38}},{"id":45090,"position":2,"audio_url":"wbw/050_045_002.mp3","verse_key":"50:45","verse_id":4675,"location":"50:45:2","text_uthmani":"أَعْلَمُ","qpc_uthmani_hafs":"أَعۡلَمُ","char_type_name":"word","page_number":520,"line_number":10,"text":"أَعۡلَمُ","translation":{"text":"know best","language_name":"english","language_id":38},"transliteration":{"text":"aʿlamu","language_name":"english","language_id":38}},{"id":45091,"position":3,"audio_url":"wbw/050_045_003.mp3","verse_key":"50:45","verse_id":4675,"location":"50:45:3","text_uthmani":"بِمَا","qpc_uthmani_hafs":"بِمَا","char_type_name":"word","page_number":520,"line_number":10,"text":"بِمَا","translation":{"text":"[of] what","language_name":"english","language_id":38},"transliteration":{"text":"bimā","language_name":"english","language_id":38}},{"id":45092,"position":4,"audio_url":"wbw/050_045_004.mp3","verse_key":"50:45","verse_id":4675,"location":"50:45:4","text_uthmani":"يَقُولُونَ ۖ","qpc_uthmani_hafs":"يَقُولُونَۖ","char_type_name":"word","page_number":520,"line_number":10,"text":"يَقُولُونَۖ","translation":{"text":"they say","language_name":"english","language_id":38},"transliteration":{"text":"yaqūlūna","language_name":"english","language_id":38}},{"id":45094,"position":5,"audio_url":"wbw/050_045_006.mp3","verse_key":"50:45","verse_id":4675,"location":"50:45:5","text_uthmani":"وَمَآ","qpc_uthmani_hafs":"وَمَآ","char_type_name":"word","page_number":520,"line_number":11,"text":"وَمَآ","translation":{"text":"and not","language_name":"english","language_id":38},"transliteration":{"text":"wamā","language_name":"english","language_id":38}},{"id":45095,"position":6,"audio_url":"wbw/050_045_007.mp3","verse_key":"50:45","verse_id":4675,"location":"50:45:6","text_uthmani":"أَنتَ","qpc_uthmani_hafs":"أَنتَ","char_type_name":"word","page_number":520,"line_number":11,"text":"أَنتَ","translation":{"text":"(are) you","language_name":"english","language_id":38},"transliteration":{"text":"anta","language_name":"english","language_id":38}},{"id":45096,"position":7,"audio_url":"wbw/050_045_008.mp3","verse_key":"50:45","verse_id":4675,"location":"50:45:7","text_uthmani":"عَلَيْهِم","qpc_uthmani_hafs":"عَلَيۡهِم","char_type_name":"word","page_number":520,"line_number":11,"text":"عَلَيۡهِم","translation":{"text":"over them","language_name":"english","language_id":38},"transliteration":{"text":"ʿalayhim","language_name":"english","language_id":38}},{"id":45097,"position":8,"audio_url":"wbw/050_045_009.mp3","verse_key":"50:45","verse_id":4675,"location":"50:45:8","text_uthmani":"بِجَبَّارٍۢ ۖ","qpc_uthmani_hafs":"بِجَبَّارٖۖ","char_type_name":"word","page_number":520,"line_number":11,"text":"بِجَبَّارٖۖ","translation":{"text":"the one to compel","language_name":"english","language_id":38},"transliteration":{"text":"bijabbārin","language_name":"english","language_id":38}},{"id":45099,"position":9,"audio_url":"wbw/050_045_011.mp3","verse_key":"50:45","verse_id":4675,"location":"50:45:9","text_uthmani":"فَذَكِّرْ","qpc_uthmani_hafs":"فَذَكِّرۡ","char_type_name":"word","page_number":520,"line_number":11,"text":"فَذَكِّرۡ","translation":{"text":"But remind","language_name":"english","language_id":38},"transliteration":{"text":"fadhakkir","language_name":"english","language_id":38}},{"id":45100,"position":10,"audio_url":"wbw/050_045_012.mp3","verse_key":"50:45","verse_id":4675,"location":"50:45:10","text_uthmani":"بِٱلْقُرْءَانِ","qpc_uthmani_hafs":"بِٱلۡقُرۡءَانِ","char_type_name":"word","page_number":520,"line_number":11,"text":"بِٱلۡقُرۡءَانِ","translation":{"text":"with the Quran","language_name":"english","language_id":38},"transliteration":{"text":"bil-qur'āni","language_name":"english","language_id":38}},{"id":45101,"position":11,"audio_url":"wbw/050_045_013.mp3","verse_key":"50:45","verse_id":4675,"location":"50:45:11","text_uthmani":"مَن","qpc_uthmani_hafs":"مَن","char_type_name":"word","page_number":520,"line_number":11,"text":"مَن","translation":{"text":"whoever","language_name":"english","language_id":38},"transliteration":{"text":"man","language_name":"english","language_id":38}},{"id":45102,"position":12,"audio_url":"wbw/050_045_014.mp3","verse_key":"50:45","verse_id":4675,"location":"50:45:12","text_uthmani":"يَخَافُ","qpc_uthmani_hafs":"يَخَافُ","char_type_name":"word","page_number":520,"line_number":11,"text":"يَخَافُ","translation":{"text":"fears","language_name":"english","language_id":38},"transliteration":{"text":"yakhāfu","language_name":"english","language_id":38}},{"id":45103,"position":13,"audio_url":"wbw/050_045_015.mp3","verse_key":"50:45","verse_id":4675,"location":"50:45:13","text_uthmani":"وَعِيدِ","qpc_uthmani_hafs":"وَعِيدِ","char_type_name":"word","page_number":520,"line_number":11,"text":"وَعِيدِ","translation":{"text":"My threat","language_name":"english","language_id":38},"transliteration":{"text":"waʿīdi","language_name":"english","language_id":38}},{"id":45104,"position":14,"audio_url":null,"verse_key":"50:45","verse_id":4675,"location":"50:45:14","text_uthmani":"٤٥","qpc_uthmani_hafs":"٤٥","char_type_name":"end","page_number":520,"line_number":11,"text":"٤٥","translation":{"text":"(45)","language_name":"english","language_id":38},"transliteration":{"text":null,"language_name":"english","language_id":38}}]}],"pagination":{"per_page":10,"current_page":5,"next_page":null,"total_pages":5,"total_records":45}}
