{"verses":[{"id":5344,"verse_number":21,"verse_key":"69:21","hizb_number":57,"rub_el_hizb_number":227,"ruku_number":502,"manzil_number":7,"sajdah_number":null,"page_number":567,"juz_number":29,"words":[{"id":23891,"position":1,"audio_url":"wbw/069_021_001.mp3","verse_key":"69:21","verse_id":5344,"location":"69:21:1","text_uthmani":"فَهُوَ","qpc_uthmani_hafs":"فَهُوَ","char_type_name":"word","page_number":567,"line_number":9,"text":"فَهُوَ","translation":{"text":"So he","language_name":"english","language_id":38},"transliteration":{"text":"fahuwa","language_name":"english","language_id":38}},{"id":23892,"position":2,"audio_url":"wbw/069_021_002.mp3","verse_key":"69:21","verse_id":5344,"location":"69:21:2","text_uthmani":"فِى","qpc_uthmani_hafs":"فِي","char_type_name":"word","page_number":567,"line_number":9,"text":"فِي","translation":{"text":"(will be) in","language_name":"english","language_id":38},"transliteration":{"text":"fī","language_name":"english","language_id":38}},{"id":23893,"position":3,"audio_url":"wbw/069_021_003.mp3","verse_key":"69:21","verse_id":5344,"location":"69:21:3","text_uthmani":"عِيشَةٍۢ","qpc_uthmani_hafs":"عِيشَةٖ","char_type_name":"word","page_number":567,"line_number":9,"text":"عِيشَةٖ","translation":{"text":"a life","language_name":"english","language_id":38},"transliteration":{"text":"ʿīshatin","language_name":"english","language_id":38}},{"id":23894,"position":4,"audio_url":"wbw/069_021_004.mp3","verse_key":"69:21","verse_id":5344,"location":"69:21:4","text_uthmani":"رَّاضِيَةٍۢ","qpc_uthmani_hafs":"رَّاضِيَةٖ","char_type_name":"word","page_number":567,"line_number":9,"text":"رَّاضِيَةٖ","translation":{"text":"pleasant","language_name":"english","language_id":38},"transliteration":{"text":"rāḍiyatin","language_name":"english","language_id":38}},{"id":23895,"position":5,"audio_url":null,"verse_key":"69:21","verse_id":5344,"location":"69:21:5","text_uthmani":"٢١","qpc_uthmani_hafs":"٢١","char_type_name":"end","page_number":567,"line_number":9,"text":"٢١","translation":{"text":"(21)","language_name":"english","language_id":38},"transliteration":{"text":null,"language_name":"english","language_id":38}}]},{"id":5345,"verse_number":22,"verse_key":"69:22","hizb_number":57,"rub_el_hizb_number":227,"ruku_number":502,"manzil_number":7,"sajdah_number":null,"page_number":567,"juz_number":29,"words":[{"id":24905,"position":1,"audio_url":"wbw/069_022_001.mp3","verse_key":"69:22","verse_id":5345,"location":"69:22:1","text_uthmani":"فِى","qpc_uthmani_hafs":"فِي","char_type_name":"word","page_number":567,"line_number":9,"text":"فِي","translation":{"text":"In","language_name":"english","language_id":38},"transliteration":{"text":"fī","language_name":"english","language_id":38}},{"id":24906,"position":2,"audio_url":"wbw/069_022_002.mp3","verse_key":"69:22","verse_id":5345,"location":"69:22:2","text_uthmani":"جَنَّةٍ","qpc_uthmani_hafs":"جَنَّةٍ","char_type_name":"word","page_number":567,"line_number":9,"text":"جَنَّةٍ","translation":{"text":"a Garden","language_name":"english","language_id":38},"transliteration":{"text":"jannatin","language_name":"english","language_id":38}},{"id":24907,"position":3,"audio_url":"wbw/069_022_003.mp3","verse_key":"69:22","verse_id":5345,"location":"69:22:3","text_uthmani":"عَالِيَةٍۢ","qpc_uthmani_hafs":"عَالِيَةٖ","char_type_name":"word","page_number":567,"line_number":9,"text":"عَالِيَةٖ","translation":{"text":"elevated","language_name":"english","language_id":38},"transliteration":{"text":"ʿāliyatin","language_name":"english","language_id":38}},{"id":24908,"position":4,"audio_url":null,"verse_key":"69:22","verse_id":5345,"location":"69:22:4","text_uthmani":"٢٢","qpc_uthmani_hafs":"٢٢","char_type_name":"end","page_number":567,"line_number":9,"text":"٢٢","translation":{"text":"(22)","language_name":"english","language_id":38},"transliteration":{"text":null,"language_name":"english","language_id":38}}]},{"id":5346,"verse_number":23,"verse_key":"69:23","hizb_number":57,"rub_el_hizb_number":227,"ruku_number":502,"manzil_number":7,"sajdah_number":null,"page_number":567,"juz_number":29,"words":[{"id":25970,"position":1,"audio_url":"wbw/069_023_001.mp3","verse_key":"69:23","verse_id":5346,"location":"69:23:1","text_uthmani":"قُطُوفُهَا","qpc_uthmani_hafs":"قُطُوفُهَا","char_type_name":"word","page_number":567,"line_number":9,"text":"قُطُوفُهَا","translation":{"text":"Its clusters of fruits","language_name":"english","language_id":38},"transliteration":{"text":"quṭūfuhā","language_name":"english","language_id":38}},{"id":25971,"position":2,"audio_url":"wbw/069_023_002.mp3","verse_key":"69:23","verse_id":5346,"location":"69:23:2","text_uthmani":"دَانِيَةٌۭ","qpc_uthmani_hafs":"دَانِيَةٞ","char_type_name":"word","page_number":567,"line_number":9,"text":"دَانِيَةٞ","translation":{"text":"hanging near","language_name":"english","language_id":38},"transliteration":{"text":"dāniyatun","language_name":"english","language_id":38}},{"id":25972,"position":3,"audio_url":null,"verse_key":"69:23","verse_id":5346,"location":"69:23:3","text_uthmani":"٢٣","qpc_uthmani_hafs":"٢٣","char_type_name":"end","page_number":567,"line_number":9,"text":"٢٣","translation":{"text":"(23)","language_name":"english","language_id":38},"transliteration":{"text":null,"language_name":"english","language_id":38}}]},{"id":5347,"verse_number":24,"verse_key":"69:24","hizb_number":57,"rub_el_hizb_number":227,"ruku_number":502,"manzil_number":7,"sajdah_number":null,"page_number":567,"juz_number":29,"words":[{"id":26972,"position":1,"audio_url":"wbw/069_024_001.mp3","verse_key":"69:24","verse_id":5347,"location":"69:24:1","text_uthmani":"كُلُوا۟","qpc_uthmani_hafs":"كُلُواْ","char_type_name":"word","page_number":567,"line_number":10,"text":"كُلُواْ","translation":{"text":"Eat","language_name":"english","language_id":38},"transliteration":{"text":"kulū","language_name":"english","language_id":38}},{"id":26973,"position":2,"audio_url":"wbw/069_024_002.mp3","verse_key":"69:24","verse_id":5347,"location":"69:24:2","text_uthmani":"وَٱشْرَبُوا۟","qpc_uthmani_hafs":"وَٱشۡرَبُواْ","char_type_name":"word","page_number":567,"line_number":10,"text":"وَٱشۡرَبُواْ","translation":{"text":"and drink","language_name":"english","language_id":38},"transliteration":{"text":"wa-ish'rabū","language_name":"english","language_id":38}},{"id":26974,"position":3,"audio_url":"wbw/069_024_003.mp3","verse_key":"69:24","verse_id":5347,"location":"69:24:3","text_uthmani":"هَنِيٓـًٔۢا","qpc_uthmani_hafs":"هَنِيٓـَٔۢا","char_type_name":"word","page_number":567,"line_number":10,"text":"هَنِيٓـَٔۢا","translation":{"text":"(in) satisfaction","language_name":"english","language_id":38},"transliteration":{"text":"hanīan","language_name":"english","language_id":38}},{"id":26975,"position":4,"audio_url":"wbw/069_024_004.mp3","verse_key":"69:24","verse_id":5347,"location":"69:24:4","text_uthmani":"بِمَآ","qpc_uthmani_hafs":"بِمَآ","char_type_name":"word","page_number":567,"line_number":10,"text":"بِمَآ","translation":{"text":"for what","language_name":"english","language_id":38},"transliteration":{"text":"bimā","language_name":"english","language_id":38}},{"id":26976,"position":5,"audio_url":"wbw/069_024_005.mp3","verse_key":"69:24","verse_id":5347,"location":"69:24:5","text_uthmani":"أَسْلَفْتُمْ","qpc_uthmani_hafs":"أَسۡلَفۡتُمۡ","char_type_name":"word","page_number":567,"line_number":10,"text":"أَسۡلَفۡتُمۡ","translation":{"text":"you sent before you","language_name":"english","language_id":38},"transliteration":{"text":"aslaftum","language_name":"english","language_id":38}},{"id":26977,"position":6,"audio_url":"wbw/069_024_006.mp3","verse_key":"69:24","verse_id":5347,"location":"69:24:6","text_uthmani":"فِى","qpc_uthmani_hafs":"فِي","char_type_name":"word","page_number":567,"line_number":10,"text":"فِي","translation":{"text":"in","language_name":"english","language_id":38},"transliteration":{"text":"fī","language_name":"english","language_id":38}},{"id":26978,"position":7,"audio_url":"wbw/069_024_007.mp3","verse_key":"69:24","verse_id":5347,"location":"69:24:7","text_uthmani":"ٱلْأَيَّامِ","qpc_uthmani_hafs":"ٱلۡأَيَّامِ","char_type_name":"word","page_number":567,"line_number":10,"text":"ٱلۡأَيَّامِ","translation":{"text":"the days","language_name":"english","language_id":38},"transliteration":{"text":"l-ayāmi","language_name":"english","language_id":38}},{"id":26979,"position":8,"audio_url":"wbw/069_024_008.mp3","verse_key":"69:24","verse_id":5347,"location":"69:24:8","text_uthmani":"ٱلْخَالِيَةِ","qpc_uthmani_hafs":"ٱلۡخَالِيَةِ","char_type_name":"word","page_number":567,"line_number":10,"text":"ٱلۡخَالِيَةِ","translation":{"text":"past","language_name":"english","language_id":38},"transliteration":{"text":"l-khāliyati","language_name":"english","language_id":38}},{"id":26980,"position":9,"audio_url":null,"verse_key":"69:24","verse_id":5347,"location":"69:24:9","text_uthmani":"٢٤","qpc_uthmani_hafs":"٢٤","char_type_name":"end","page_number":567,"line_number":10,"text":"٢٤","translation":{"text":"(24)","language_name":"english","language_id":38},"transliteration":{"text":null,"language_name":"english","language_id":38}}]},{"id":5348,"verse_number":25,"verse_key":"69:25","hizb_number":57,"rub_el_hizb_number":227,"ruku_number":502,"manzil_number":7,"sajdah_number":null,"page_number":567,"juz_number":29,"words":[{"id":28032,"position":1,"audio_url":"wbw/069_025_001.mp3","verse_key":"69:25","verse_id":5348,"location":"69:25:1","text_uthmani":"وَأَمَّا","qpc_uthmani_hafs":"وَأَمَّا","char_type_name":"word","page_number":567,"line_number":10,"text":"وَأَمَّا","translation":{"text":"But as for","language_name":"english","language_id":38},"transliteration":{"text":"wa-ammā","language_name":"english","language_id":38}},{"id":28033,"position":2,"audio_url":"wbw/069_025_002.mp3","verse_key":"69:25","verse_id":5348,"location":"69:25:2","text_uthmani":"مَنْ","qpc_uthmani_hafs":"مَنۡ","char_type_name":"word","page_number":567,"line_number":10,"text":"مَنۡ","translation":{"text":"(him) who","language_name":"english","language_id":38},"transliteration":{"text":"man","language_name":"english","language_id":38}},{"id":28034,"position":3,"audio_url":"wbw/069_025_003.mp3","verse_key":"69:25","verse_id":5348,"location":"69:25:3","text_uthmani":"أُوتِىَ","qpc_uthmani_hafs":"أُوتِيَ","char_type_name":"word","page_number":567,"line_number":10,"text":"أُوتِيَ","translation":{"text":"is given","language_name":"english","language_id":38},"transliteration":{"text":"ūtiya","language_name":"english","language_id":38}},{"id":28035,"position":4,"audio_url":"wbw/069_025_004.mp3","verse_key":"69:25","verse_id":5348,"location":"69:25:4","text_uthmani":"كِتَـٰبَهُۥ","qpc_uthmani_hafs":"كِتَٰبَهُۥ","char_type_name":"word","page_number":567,"line_number":11,"text":"كِتَٰبَهُۥ","translation":{"text":"his record","language_name":"english","language_id":38},"transliteration":{"text":"kitābahu","language_name":"english","language_id":38}},{"id":28036,"position":5,"audio_url":"wbw/069_025_005.mp3","verse_key":"69:25","verse_id":5348,"location":"69:25:5","text_uthmani":"بِشِمَالِهِۦ","qpc_uthmani_hafs":"بِشِمَالِهِۦ","char_type_name":"word","page_number":567,"line_number":11,"text":"بِشِمَالِهِۦ","translation":{"text":"in his left hand","language_name":"english","language_id":38},"transliteration":{"text":"bishimālihi","language_name":"english","language_id":38}},{"id":28037,"position":6,"audio_url":"wbw/069_025_006.mp3","verse_key":"69:25","verse_id":5348,"location":"69:25:6","text_uthmani":"فَيَقُولُ","qpc_uthmani_hafs":"فَيَقُولُ","char_type_name":"word","page_number":567,"line_number":11,"text":"فَيَقُولُ","translation":{"text":"will say","language_name":"english","language_id":38},"transliteration":{"text":"fayaqūlu","language_name":"english","language_id":38}},{"id":28038,"position":7,"audio_url":"wbw/069_025_007.mp3","verse_key":"69:25","verse_id":5348,"location":"69:25:7","text_uthmani":"يَـٰلَيْتَنِى","qpc_uthmani_hafs":"يَٰلَيۡتَنِي","char_type_name":"word","page_number":567,"line_number":11,"text":"يَٰلَيۡتَنِي","translation":{"text":"O! I wish","language_name":"english","language_id":38},"transliteration":{"text":"yālaytanī","language_name":"english","language_id":38}},{"id":28039,"position":8,"audio_url":"wbw/069_025_008.mp3","verse_key":"69:25","verse_id":5348,"location":"69:25:8","text_uthmani":"لَمْ","qpc_uthmani_hafs":"لَمۡ","char_type_name":"word","page_number":567,"line_number":11,"text":"لَمۡ","translation":{"text":"not","language_name":"english","language_id":38},"transliteration":{"text":"lam","language_name":"english","language_id":38}},{"id":28040,"position":9,"audio_url":"wbw/069_025_009.mp3","verse_key":"69:25","verse_id":5348,"location":"69:25:9","text_uthmani":"أُوتَ","qpc_uthmani_hafs":"أُوتَ","char_type_name":"word","page_number":567,"line_number":11,"text":"أُوتَ","translation":{"text":"I had been given","language_name":"english","language_id":38},"transliteration":{"text":"ūta","language_name":"english","language_id":38}},{"id":28041,"position":10,"audio_url":"wbw/069_025_010.mp3","verse_key":"69:25","verse_id":5348,"location":"69:25:10","text_uthmani":"كِتَـٰبِيَهْ","qpc_uthmani_hafs":"كِتَٰبِيَهۡ","char_type_name":"word","page_number":567,"line_number":11,"text":"كِتَٰبِيَهۡ","translation":{"text":"my record","language_name":"english","language_id":38},"transliteration":{"text":"kitābiyah","language_name":"english","language_id":38}},{"id":28042,"position":11,"audio_url":null,"verse_key":"69:25","verse_id":5348,"location":"69:25:11","text_uthmani":"٢٥","qpc_uthmani_hafs":"٢٥","char_type_name":"end","page_number":567,"line_number":11,"text":"٢٥","translation":{"text":"(25)","language_name":"english","language_id":38},"transliteration":{"text":null,"language_name":"english","language_id":38}}]},{"id":5349,"verse_number":26,"verse_key":"69:26","hizb_number":57,"rub_el_hizb_number":227,"ruku_number":502,"manzil_number":7,"sajdah_number":null,"page_number":567,"juz_number":29,"words":[{"id":28990,"position":1,"audio_url":"wbw/069_026_001.mp3","verse_key":"69:26","verse_id":5349,"location":"69:26:1","text_uthmani":"وَلَمْ","qpc_uthmani_hafs":"وَلَمۡ","char_type_name":"word","page_number":567,"line_number":11,"text":"وَلَمۡ","translation":{"text":"And not","language_name":"english","language_id":38},"transliteration":{"text":"walam","language_name":"english","language_id":38}},{"id":28991,"position":2,"audio_url":"wbw/069_026_002.mp3","verse_key":"69:26","verse_id":5349,"location":"69:26:2","text_uthmani":"أَدْرِ","qpc_uthmani_hafs":"أَدۡرِ","char_type_name":"word","page_number":567,"line_number":11,"text":"أَدۡرِ","translation":{"text":"I had known","language_name":"english","language_id":38},"transliteration":{"text":"adri","language_name":"english","language_id":38}},{"id":28992,"position":3,"audio_url":"wbw/069_026_003.mp3","verse_key":"69:26","verse_id":5349,"location":"69:26:3","text_uthmani":"مَا","qpc_uthmani_hafs":"مَا","char_type_name":"word","page_number":567,"line_number":11,"text":"مَا","translation":{"text":"what","language_name":"english","language_id":38},"transliteration":{"text":"mā","language_name":"english","language_id":38}},{"id":28993,"position":4,"audio_url":"wbw/069_026_004.mp3","verse_key":"69:26","verse_id":5349,"location":"69:26:4","text_uthmani":"حِسَابِيَهْ","qpc_uthmani_hafs":"حِسَابِيَهۡ","char_type_name":"word","page_number":567,"line_number":11,"text":"حِسَابِيَهۡ","translation":{"text":"(is) my account","language_name":"english","language_id":38},"transliteration":{"text":"ḥisābiyah","language_name":"english","language_id":38}},{"id":28994,"position":5,"audio_url":null,"verse_key":"69:26","verse_id":5349,"location":"69:26:5","text_uthmani":"٢٦","qpc_uthmani_hafs":"٢٦","char_type_name":"end","page_number":567,"line_number":12,"text":"٢٦","translation":{"text":"(26)","language_name":"english","language_id":38},"transliteration":{"text":null,"language_name":"english","language_id":38}}]},{"id":5350,"verse_number":27,"verse_key":"69:27","hizb_number":57,"rub_el_hizb_number":227,"ruku_number":502,"manzil_number":7,"sajdah_number":null,"page_number":567,"juz_number":29,"words":[{"id":29803,"position":1,"audio_url":"wbw/069_027_001.mp3","verse_key":"69:27","verse_id":5350,"location":"69:27:1","text_uthmani":"يَـٰلَيْتَهَا","qpc_uthmani_hafs":"يَٰلَيۡتَهَا","char_type_name":"word","page_number":567,"line_number":12,"text":"يَٰلَيۡتَهَا","translation":{"text":"O! I wish it","language_name":"english","language_id":38},"transliteration":{"text":"yālaytahā","language_name":"english","language_id":38}},{"id":29804,"position":2,"audio_url":"wbw/069_027_002.mp3","verse_key":"69:27","verse_id":5350,"location":"69:27:2","text_uthmani":"كَانَتِ","qpc_uthmani_hafs":"كَانَتِ","char_type_name":"word","page_number":567,"line_number":12,"text":"كَانَتِ","translation":{"text":"had been","language_name":"english","language_id":38},"transliteration":{"text":"kānati","language_name":"english","language_id":38}},{"id":29805,"position":3,"audio_url":"wbw/069_027_003.mp3","verse_key":"69:27","verse_id":5350,"location":"69:27:3","text_uthmani":"ٱلْقَاضِيَةَ","qpc_uthmani_hafs":"ٱلۡقَاضِيَةَ","char_type_name":"word","page_number":567,"line_number":12,"text":"ٱلۡقَاضِيَةَ","translation":{"text":"the end","language_name":"english","language_id":38},"transliteration":{"text":"l-qāḍiyata","language_name":"english","language_id":38}},{"id":29806,"position":4,"audio_url":null,"verse_key":"69:27","verse_id":5350,"location":"69:27:4","text_uthmani":"٢٧","qpc_uthmani_hafs":"٢٧","char_type_name":"end","page_number":567,"line_number":12,"text":"٢٧","translation":{"text":"(27)","language_name":"english","language_id":38},"transliteration":{"text":null,"language_name":"english","language_id":38}}]},{"id":5351,"verse_number":28,"verse_key":"69:28","hizb_number":57,"rub_el_hizb_number":227,"ruku_number":502,"manzil_number":7,"sajdah_number":null,"page_number":567,"juz_number":29,"words":[{"id":30852,"position":1,"audio_url":"wbw/069_028_001.mp3","verse_key":"69:28","verse_id":5351,"location":"69:28:1","text_uthmani":"مَآ","qpc_uthmani_hafs":"مَآ","char_type_name":"word","page_number":567,"line_number":12,"text":"مَآ","translation":{"text":"Not","language_name":"english","language_id":38},"transliteration":{"text":"mā","language_name":"english","language_id":38}},{"id":30853,"position":2,"audio_url":"wbw/069_028_002.mp3","verse_key":"69:28","verse_id":5351,"location":"69:28:2","text_uthmani":"أَغْنَىٰ","qpc_uthmani_hafs":"أَغۡنَىٰ","char_type_name":"word","page_number":567,"line_number":12,"text":"أَغۡنَىٰ","translation":{"text":"has availed","language_name":"english","language_id":38},"transliteration":{"text":"aghnā","language_name":"english","language_id":38}},{"id":30854,"position":3,"audio_url":"wbw/069_028_003.mp3","verse_key":"69:28","verse_id":5351,"location":"69:28:3","text_uthmani":"عَنِّى","qpc_uthmani_hafs":"عَنِّي","char_type_name":"word","page_number":567,"line_number":12,"text":"عَنِّي","translation":{"text":"me","language_name":"english","language_id":38},"transliteration":{"text":"ʿannī","language_name":"english","language_id":38}},{"id":30855,"position":4,"audio_url":"wbw/069_028_004.mp3","verse_key":"69:28","verse_id":5351,"location":"69:28:4","text_uthmani":"مَالِيَهْ ۜ","qpc_uthmani_hafs":"مَالِيَهۡۜ","char_type_name":"word","page_number":567,"line_number":12,"text":"مَالِيَهۡۜ","translation":{"text":"my wealth","language_name":"english","language_id":38},"transliteration":{"text":"māliyah","language_name":"english","language_id":38}},{"id":30857,"position":5,"audio_url":null,"verse_key":"69:28","verse_id":5351,"location":"69:28:5","text_uthmani":"٢٨","qpc_uthmani_hafs":"٢٨","char_type_name":"end","page_number":567,"line_number":12,"text":"٢٨","translation":{"text":"(28)","language_name":"english","language_id":38},"transliteration":{"text":null,"language_name":"english","language_id":38}}]},{"id":5352,"verse_number":29,"verse_key":"69:29","hizb_number":57,"rub_el_hizb_number":227,"ruku_number":502,"manzil_number":7,"sajdah_number":null,"page_number":567,"juz_number":29,"words":[{"id":31929,"position":1,"audio_url":"wbw/069_029_001.mp3","verse_key":"69:29","verse_id":5352,"location":"69:29:1","text_uthmani":"هَلَكَ","qpc_uthmani_hafs":"هَلَكَ","char_type_name":"word","page_number":567,"line_number":12,"text":"هَلَكَ","translation":{"text":"Is gone","language_name":"english","language_id":38},"transliteration":{"text":"halaka","language_name":"english","language_id":38}},{"id":31930,"position":2,"audio_url":"wbw/069_029_002.mp3","verse_key":"69:29","verse_id":5352,"location":"69:29:2","text_uthmani":"عَنِّى","qpc_uthmani_hafs":"عَنِّي","char_type_name":"word","page_number":567,"line_number":12,"text":"عَنِّي","translation":{"text":"from me","language_name":"english","language_id":38},"transliteration":{"text":"ʿannī","language_name":"english","language_id":38}},{"id":31931,"position":3,"audio_url":"wbw/069_029_003.mp3","verse_key":"69:29","verse_id":5352,"location":"69:29:3","text_uthmani":"سُلْطَـٰنِيَهْ","qpc_uthmani_hafs":"سُلۡطَٰنِيَهۡ","char_type_name":"word","page_number":567,"line_number":12,"text":"سُلۡطَٰنِيَهۡ","translation":{"text":"my authority","language_name":"english","language_id":38},"transliteration":{"text":"sul'ṭāniyah","language_name":"english","language_id":38}},{"id":31932,"position":4,"audio_url":null,"verse_key":"69:29","verse_id":5352,"location":"69:29:4","text_uthmani":"٢٩","qpc_uthmani_hafs":"٢٩","char_type_name":"end","page_number":567,"line_number":13,"text":"٢٩","translation":{"text":"(29)","language_name":"english","language_id":38},"transliteration":{"text":null,"language_name":"english","language_id":38}}]},{"id":5353,"verse_number":30,"verse_key":"69:30","hizb_number":57,"rub_el_hizb_number":227,"ruku_number":502,"manzil_number":7,"sajdah_number":null,"page_number":567,"juz_number":29,"words":[{"id":32812,"position":1,"audio_url":"wbw/069_030_001.mp3","verse_key":"69:30","verse_id":5353,"location":"69:30:1","text_uthmani":"خُذُوهُ","qpc_uthmani_hafs":"خُذُوهُ","char_type_name":"word","page_number":567,"line_number":13,"text":"خُذُوهُ","translation":{"text":"Seize him","language_name":"english","language_id":38},"transliteration":{"text":"khudhūhu","language_name":"english","language_id":38}},{"id":32813,"position":2,"audio_url":"wbw/069_030_002.mp3","verse_key":"69:30","verse_id":5353,"location":"69:30:2","text_uthmani":"فَغُلُّوهُ","qpc_uthmani_hafs":"فَغُلُّوهُ","char_type_name":"word","page_number":567,"line_number":13,"text":"فَغُلُّوهُ","translation":{"text":"and shackle him","language_name":"english","language_id":38},"transliteration":{"text":"faghullūhu","language_name":"english","language_id":38}},{"id":32814,"position":3,"audio_url":null,"verse_key":"69:30","verse_id":5353,"location":"69:30:3","text_uthmani":"٣٠","qpc_uthmani_hafs":"٣٠","char_type_name":"end","page_number":567,"line_number":13,"text":"٣٠","translation":{"text":"(30)","language_name":"english","language_id":38},"transliteration":{"text":null,"language_name":"english","language_id":38}}]}],"pagination":{"per_page":10,"current_page":3,"next_page":4,"total_pages":6,"total_records":52}}
