{"verses":[{"id":5364,"verse_number":41,"verse_key":"69:41","hizb_number":57,"rub_el_hizb_number":227,"ruku_number":503,"manzil_number":7,"sajdah_number":null,"page_number":568,"juz_number":29,"words":[{"id":42179,"position":1,"audio_url":"wbw/069_041_001.mp3","verse_key":"69:41","verse_id":5364,"location":"69:41:1","text_uthmani":"وَمَا","qpc_uthmani_hafs":"وَمَا","char_type_name":"word","page_number":568,"line_number":2,"text":"وَمَا","translation":{"text":"And not","language_name":"english","language_id":38},"transliteration":{"text":"wamā","language_name":"english","language_id":38}},{"id":42180,"position":2,"audio_url":"wbw/069_041_002.mp3","verse_key":"69:41","verse_id":5364,"location":"69:41:2","text_uthmani":"هُوَ","qpc_uthmani_hafs":"هُوَ","char_type_name":"word","page_number":568,"line_number":2,"text":"هُوَ","translation":{"text":"it","language_name":"english","language_id":38},"transliteration":{"text":"huwa","language_name":"english","language_id":38}},{"id":42181,"position":3,"audio_url":"wbw/069_041_003.mp3","verse_key":"69:41","verse_id":5364,"location":"69:41:3","text_uthmani":"بِقَوْلِ","qpc_uthmani_hafs":"بِقَوۡلِ","char_type_name":"word","page_number":568,"line_number":3,"text":"بِقَوۡلِ","translation":{"text":"(is the) word","language_name":"english","language_id":38},"transliteration":{"text":"biqawli","language_name":"english","language_id":38}},{"id":42182,"position":4,"audio_url":"wbw/069_041_004.mp3","verse_key":"69:41","verse_id":5364,"location":"69:41:4","text_uthmani":"شَاعِرٍۢ ۚ","qpc_uthmani_hafs":"شَاعِرٖۚ","char_type_name":"word","page_number":568,"line_number":3,"text":"شَاعِرٖۚ","translation":{"text":"(of) a poet","language_name":"english","language_id":38},"transliteration":{"text":"shāʿirin","language_name":"english","language_id":38}},{"id":42184,"position":5,"audio_url":"wbw/069_041_006.mp3","verse_key":"69:41","verse_id":5364,"location":"69:41:5","text_uthmani":"قَلِيلًۭا","qpc_uthmani_hafs":"قَلِيلٗا","char_type_name":"word","page_number":568,"line_number":3,"text":"قَلِيلٗا","translation":{"text":"little","language_name":"english","language_id":38},"transliteration":{"text":"qalīlan","language_name":"english","language_id":38}},{"id":42185,"position":6,"audio_url":"wbw/069_041_007.mp3","verse_key":"69:41","verse_id":5364,"location":"69:41:6","text_uthmani":"مَّا","qpc_uthmani_hafs":"مَّا","char_type_name":"word","page_number":568,"line_number":3,"text":"مَّا","translation":{"text":"(is) what","language_name":"english","language_id":38},"transliteration":{"text":"mā","language_name":"english","language_id":38}},{"id":42186,"position":7,"audio_url":"wbw/069_041_008.mp3","verse_key":"69:41","verse_id":5364,"location":"69:41:7","text_uthmani":"تُؤْمِنُونَ","qpc_uthmani_hafs":"تُؤۡمِنُونَ","char_type_name":"word","page_number":568,"line_number":3,"text":"تُؤۡمِنُونَ","translation":{"text":"you believe","language_name":"english","language_id":38},"transliteration":{"text":"tu'minūna","language_name":"english","language_id":38}},{"id":42187,"position":8,"audio_url":null,"verse_key":"69:41","verse_id":5364,"location":"69:41:8","text_uthmani":"٤١","qpc_uthmani_hafs":"٤١","char_type_name":"end","page_number":568,"line_number":3,"text":"٤١","translation":{"text":"(41)","language_name":"english","language_id":38},"transliteration":{"text":null,"language_name":"english","language_id":38}}]},{"id":5365,"verse_number":42,"verse_key":"69:42","hizb_number":57,"rub_el_hizb_number":227,"ruku_number":503,"manzil_number":7,"sajdah_number":null,"page_number":568,"juz_number":29,"words":[{"id":43018,"position":1,"audio_url":"wbw/069_042_001.mp3","verse_key":"69:42","verse_id":5365,"location":"69:42:1","text_uthmani":"وَلَا","qpc_uthmani_hafs":"وَلَا","char_type_name":"word","page_number":568,"line_number":3,"text":"وَلَا","translation":{"text":"And not","language_name":"english","language_id":38},"transliteration":{"text":"walā","language_name":"english","language_id":38}},{"id":43019,"position":2,"audio_url":"wbw/069_042_002.mp3","verse_key":"69:42","verse_id":5365,"location":"69:42:2","text_uthmani":"بِقَوْلِ","qpc_uthmani_hafs":"بِقَوۡلِ","char_type_name":"word","page_number":568,"line_number":3,"text":"بِقَوۡلِ","translation":{"text":"(it is the) word","language_name":"english","language_id":38},"transliteration":{"text":"biqawli","language_name":"english","language_id":38}},{"id":43020,"position":3,"audio_url":"wbw/069_042_003.mp3","verse_key":"69:42","verse_id":5365,"location":"69:42:3","text_uthmani":"كَاهِنٍۢ ۚ","qpc_uthmani_hafs":"كَاهِنٖۚ","char_type_name":"word","page_number":568,"line_number":3,"text":"كَاهِنٖۚ","translation":{"text":"(of) a soothsayer","language_name":"english","language_id":38},"transliteration":{"text":"kāhinin","language_name":"english","language_id":38}},{"id":43022,"position":4,"audio_url":"wbw/069_042_005.mp3","verse_key":"69:42","verse_id":5365,"location":"69:42:4","text_uthmani":"قَلِيلًۭا","qpc_uthmani_hafs":"قَلِيلٗا","char_type_name":"word","page_number":568,"line_number":3,"text":"قَلِيلٗا","translation":{"text":"little","language_name":"english","language_id":38},"transliteration":{"text":"qalīlan","language_name":"english","language_id":38}},{"id":43023,"position":5,"audio_url":"wbw/069_042_006.mp3","verse_key":"69:42","verse_id":5365,"location":"69:42:5","text_uthmani":"مَّا","qpc_uthmani_hafs":"مَّا","char_type_name":"word","page_number":568,"line_number":3,"text":"مَّا","translation":{"text":"(is) what","language_name":"english","language_id":38},"transliteration":{"text":"mā","language_name":"english","language_id":38}},{"id":43024,"position":6,"audio_url":"wbw/069_042_007.mp3","verse_key":"69:42","verse_id":5365,"location":"69:42:6","text_uthmani":"تَذَكَّرُونَ","qpc_uthmani_hafs":"تَذَكَّرُونَ","char_type_name":"word","page_number":568,"line_number":3,"text":"تَذَكَّرُونَ","translation":{"text":"you take heed","language_name":"english","language_id":38},"transliteration":{"text":"tadhakkarūna","language_name":"english","language_id":38}},{"id":43025,"position":7,"audio_url":null,"verse_key":"69:42","verse_id":5365,"location":"69:42:7","text_uthmani":"٤٢","qpc_uthmani_hafs":"٤٢","char_type_name":"end","page_number":568,"line_number":4,"text":"٤٢","translation":{"text":"(42)","language_name":"english","language_id":38},"transliteration":{"text":null,"language_name":"english","language_id":38}}]},{"id":5366,"verse_number":43,"verse_key":"69:43","hizb_number":57,"rub_el_hizb_number":227,"ruku_number":503,"manzil_number":7,"sajdah_number":null,"page_number":568,"juz_number":29,"words":[{"id":43710,"position":1,"audio_url":"wbw/069_043_001.mp3","verse_key":"69:43","verse_id":5366,"location":"69:43:1","text_uthmani":"تَنزِيلٌۭ","qpc_uthmani_hafs":"تَنزِيلٞ","char_type_name":"word","page_number":568,"line_number":4,"text":"تَنزِيلٞ","translation":{"text":"(It is) a revelation","language_name":"english","language_id":38},"transliteration":{"text":"tanzīlun","language_name":"english","language_id":38}},{"id":43711,"position":2,"audio_url":"wbw/069_043_002.mp3","verse_key":"69:43","verse_id":5366,"location":"69:43:2","text_uthmani":"مِّن","qpc_uthmani_hafs":"مِّن","char_type_name":"word","page_number":568,"line_number":4,"text":"مِّن","translation":{"text":"from","language_name":"english","language_id":38},"transliteration":{"text":"min","language_name":"english","language_id":38}},{"id":43712,"position":3,"audio_url":"wbw/069_043_003.mp3","verse_key":"69:43","verse_id":5366,"location":"69:43:3","text_uthmani":"رَّبِّ","qpc_uthmani_hafs":"رَّبِّ","char_type_name":"word","page_number":568,"line_number":4,"text":"رَّبِّ","translation":{"text":"(the) Lord","language_name":"english","language_id":38},"transliteration":{"text":"rabbi","language_name":"english","language_id":38}},{"id":43713,"position":4,"audio_url":"wbw/069_043_004.mp3","verse_key":"69:43","verse_id":5366,"location":"69:43:4","text_uthmani":"ٱلْعَـٰلَمِينَ","qpc_uthmani_hafs":"ٱلۡعَٰلَمِينَ","char_type_name":"word","page_number":568,"line_number":4,"text":"ٱلۡعَٰلَمِينَ","translation":{"text":"(of) the worlds","language_name":"english","language_id":38},"transliteration":{"text":"l-ʿālamīna","language_name":"english","language_id":38}},{"id":43714,"position":5,"audio_url":null,"verse_key":"69:43","verse_id":5366,"location":"69:43:5","text_uthmani":"٤٣","qpc_uthmani_hafs":"٤٣","char_type_name":"end","page_number":568,"line_number":4,"text":"٤٣","translation":{"text":"(43)","language_name":"english","language_id":38},"transliteration":{"text":null,"language_name":"english","language_id":38}}]},{"id":5367,"verse_number":44,"verse_key":"69:44","hizb_number":57,"rub_el_hizb_number":227,"ruku_number":503,"manzil_number":7,"sajdah_number":null,"page_number":568,"juz_number":29,"words":[{"id":44524,"position":1,"audio_url":"wbw/069_044_001.mp3","verse_key":"69:44","verse_id":5367,"location":"69:44:1","text_uthmani":"وَلَوْ","qpc_uthmani_hafs":"وَلَوۡ","char_type_name":"word","page_number":568,"line_number":4,"text":"وَلَوۡ","translation":{"text":"And if","language_name":"english","language_id":38},"transliteration":{"text":"walaw","language_name":"english","language_id":38}},{"id":44525,"position":2,"audio_url":"wbw/069_044_002.mp3","verse_key":"69:44","verse_id":5367,"location":"69:44:2","text_uthmani":"تَقَوَّلَ","qpc_uthmani_hafs":"تَقَوَّلَ","char_type_name":"word","page_number":568,"line_number":4,"text":"تَقَوَّلَ","translation":{"text":"he (had) fabricated","language_name":"english","language_id":38},"transliteration":{"text":"taqawwala","language_name":"english","language_id":38}},{"id":44526,"position":3,"audio_url":"wbw/069_044_003.mp3","verse_key":"69:44","verse_id":5367,"location":"69:44:3","text_uthmani":"عَلَيْنَا","qpc_uthmani_hafs":"عَلَيۡنَا","char_type_name":"word","page_number":568,"line_number":4,"text":"عَلَيۡنَا","translation":{"text":"against Us","language_name":"english","language_id":38},"transliteration":{"text":"ʿalaynā","language_name":"english","language_id":38}},{"id":44527,"position":4,"audio_url":"wbw/069_044_004.mp3","verse_key":"69:44","verse_id":5367,"location":"69:44:4","text_uthmani":"بَعْضَ","qpc_uthmani_hafs":"بَعۡضَ","char_type_name":"word","page_number":568,"line_number":4,"text":"بَعۡضَ","translation":{"text":"some","language_name":"english","language_id":38},"transliteration":{"text":"baʿḍa","language_name":"english","language_id":38}},{"id":44528,"position":5,"audio_url":"wbw/069_044_005.mp3","verse_key":"69:44","verse_id":5367,"location":"69:44:5","text_uthmani":"ٱلْأَقَاوِيلِ","qpc_uthmani_hafs":"ٱلۡأَقَاوِيلِ","char_type_name":"word","page_number":568,"line_number":4,"text":"ٱلۡأَقَاوِيلِ","translation":{"text":"sayings","language_name":"english","language_id":38},"transliteration":{"text":"l-aqāwīli","language_name":"english","language_id":38}},{"id":44529,"position":6,"audio_url":null,"verse_key":"69:44","verse_id":5367,"location":"69:44:6","text_uthmani":"٤٤","qpc_uthmani_hafs":"٤٤","char_type_name":"end","page_number":568,"line_number":4,"text":"٤٤","translation":{"text":"(44)","language_name":"english","language_id":38},"transliteration":{"text":null,"language_name":"english","language_id":38}}]},{"id":5368,"verse_number":45,"verse_key":"69:45","hizb_number":57,"rub_el_hizb_number":227,"ruku_number":503,"manzil_number":7,"sajdah_number":null,"page_number":568,"juz_number":29,"words":[{"id":45227,"position":1,"audio_url":"wbw/069_045_001.mp3","verse_key":"69:45","verse_id":5368,"location":"69:45:1","text_uthmani":"لَأَخَذْنَا","qpc_uthmani_hafs":"لَأَخَذۡنَا","char_type_name":"word","page_number":568,"line_number":5,"text":"لَأَخَذۡنَا","translation":{"text":"Certainly We (would) have seized","language_name":"english","language_id":38},"transliteration":{"text":"la-akhadhnā","language_name":"english","language_id":38}},{"id":45228,"position":2,"audio_url":"wbw/069_045_002.mp3","verse_key":"69:45","verse_id":5368,"location":"69:45:2","text_uthmani":"مِنْهُ","qpc_uthmani_hafs":"مِنۡهُ","char_type_name":"word","page_number":568,"line_number":5,"text":"مِنۡهُ","translation":{"text":"him","language_name":"english","language_id":38},"transliteration":{"text":"min'hu","language_name":"english","language_id":38}},{"id":45229,"position":3,"audio_url":"wbw/069_045_003.mp3","verse_key":"69:45","verse_id":5368,"location":"69:45:3","text_uthmani":"بِٱلْيَمِينِ","qpc_uthmani_hafs":"بِٱلۡيَمِينِ","char_type_name":"word","page_number":568,"line_number":5,"text":"بِٱلۡيَمِينِ","translation":{"text":"by the right hand","language_name":"english","language_id":38},"transliteration":{"text":"bil-yamīni","language_name":"english","language_id":38}},{"id":45230,"position":4,"audio_url":null,"verse_key":"69:45","verse_id":5368,"location":"69:45:4","text_uthmani":"٤٥","qpc_uthmani_hafs":"٤٥","char_type_name":"end","page_number":568,"line_number":5,"text":"٤٥","translation":{"text":"(45)","language_name":"english","language_id":38},"transliteration":{"text":null,"language_name":"english","language_id":38}}]},{"id":5369,"verse_number":46,"verse_key":"69:46","hizb_number":57,"rub_el_hizb_number":227,"ruku_number":503,"manzil_number":7,"sajdah_number":null,"page_number":568,"juz_number":29,"words":[{"id":45965,"position":1,"audio_url":"wbw/069_046_001.mp3","verse_key":"69:46","verse_id":5369,"location":"69:46:1","text_uthmani":"ثُمَّ","qpc_uthmani_hafs":"ثُمَّ","char_type_name":"word","page_number":568,"line_number":5,"text":"ثُمَّ","translation":{"text":"Then","language_name":"english","language_id":38},"transliteration":{"text":"thumma","language_name":"english","language_id":38}},{"id":45966,"position":2,"audio_url":"wbw/069_046_002.mp3","verse_key":"69:46","verse_id":5369,"location":"69:46:2","text_uthmani":"لَقَطَعْنَا","qpc_uthmani_hafs":"لَقَطَعۡنَا","char_type_name":"word","page_number":568,"line_number":5,"text":"لَقَطَعۡنَا","translation":{"text":"certainly We (would) have cut off","language_name":"english","language_id":38},"transliteration":{"text":"laqaṭaʿnā","language_name":"english","language_id":38}},{"id":45967,"position":3,"audio_url":"wbw/069_046_003.mp3","verse_key":"69:46","verse_id":5369,"location":"69:46:3","text_uthmani":"مِنْهُ","qpc_uthmani_hafs":"مِنۡهُ","char_type_name":"word","page_number":568,"line_number":5,"text":"مِنۡهُ","translation":{"text":"from him","language_name":"english","language_id":38},"transliteration":{"text":"min'hu","language_name":"english","language_id":38}},{"id":45968,"position":4,"audio_url":"wbw/069_046_004.mp3","verse_key":"69:46","verse_id":5369,"location":"69:46:4","text_uthmani":"ٱلْوَتِينَ","qpc_uthmani_hafs":"ٱلۡوَتِينَ","char_type_name":"word","page_number":568,"line_number":5,"text":"ٱلۡوَتِينَ","translation":{"text":"the aorta","language_name":"english","language_id":38},"transliteration":{"text":"l-watīna","language_name":"english","language_id":38}},{"id":45969,"position":5,"audio_url":null,"verse_key":"69:46","verse_id":5369,"location":"69:46:5","text_uthmani":"٤٦","qpc_uthmani_hafs":"٤٦","char_type_name":"end","page_number":568,"line_number":5,"text":"٤٦","translation":{"text":"(46)","language_name":"english","language_id":38},"transliteration":{"text":null,"language_name":"english","language_id":38}}]},{"id":5370,"verse_number":47,"verse_key":"69:47","hizb_number":57,"rub_el_hizb_number":227,"ruku_number":503,"manzil_number":7,"sajdah_number":null,"page_number":568,"juz_number":29,"words":[{"id":46593,"position":1,"audio_url":"wbw/069_047_001.mp3","verse_key":"69:47","verse_id":5370,"location":"69:47:1","text_uthmani":"فَمَا","qpc_uthmani_hafs":"فَمَا","char_type_name":"word","page_number":568,"line_number":5,"text":"فَمَا","translation":{"text":"And not","language_name":"english","language_id":38},"transliteration":{"text":"famā","language_name":"english","language_id":38}},{"id":46594,"position":2,"audio_url":"wbw/069_047_002.mp3","verse_key":"69:47","verse_id":5370,"location":"69:47:2","text_uthmani":"مِنكُم","qpc_uthmani_hafs":"مِنكُم","char_type_name":"word","page_number":568,"line_number":5,"text":"مِنكُم","translation":{"text":"from you","language_name":"english","language_id":38},"transliteration":{"text":"minkum","language_name":"english","language_id":38}},{"id":46595,"position":3,"audio_url":"wbw/069_047_003.mp3","verse_key":"69:47","verse_id":5370,"location":"69:47:3","text_uthmani":"مِّنْ","qpc_uthmani_hafs":"مِّنۡ","char_type_name":"word","page_number":568,"line_number":6,"text":"مِّنۡ","translation":{"text":"any","language_name":"english","language_id":38},"transliteration":{"text":"min","language_name":"english","language_id":38}},{"id":46596,"position":4,"audio_url":"wbw/069_047_004.mp3","verse_key":"69:47","verse_id":5370,"location":"69:47:4","text_uthmani":"أَحَدٍ","qpc_uthmani_hafs":"أَحَدٍ","char_type_name":"word","page_number":568,"line_number":6,"text":"أَحَدٍ","translation":{"text":"one","language_name":"english","language_id":38},"transliteration":{"text":"aḥadin","language_name":"english","language_id":38}},{"id":46597,"position":5,"audio_url":"wbw/069_047_005.mp3","verse_key":"69:47","verse_id":5370,"location":"69:47:5","text_uthmani":"عَنْهُ","qpc_uthmani_hafs":"عَنۡهُ","char_type_name":"word","page_number":568,"line_number":6,"text":"عَنۡهُ","translation":{"text":"[from him]","language_name":"english","language_id":38},"transliteration":{"text":"ʿanhu","language_name":"english","language_id":38}},{"id":46598,"position":6,"audio_url":"wbw/069_047_006.mp3","verse_key":"69:47","verse_id":5370,"location":"69:47:6","text_uthmani":"حَـٰجِزِينَ","qpc_uthmani_hafs":"حَٰجِزِينَ","char_type_name":"word","page_number":568,"line_number":6,"text":"حَٰجِزِينَ","translation":{"text":"(who could) prevent (it)","language_name":"english","language_id":38},"transliteration":{"text":"ḥājizīna","language_name":"english","language_id":38}},{"id":46599,"position":7,"audio_url":null,"verse_key":"69:47","verse_id":5370,"location":"69:47:7","text_uthmani":"٤٧","qpc_uthmani_hafs":"٤٧","char_type_name":"end","page_number":568,"line_number":6,"text":"٤٧","translation":{"text":"(47)","language_name":"english","language_id":38},"transliteration":{"text":null,"language_name":"english","language_id":38}}]},{"id":5371,"verse_number":48,"verse_key":"69:48","hizb_number":57,"rub_el_hizb_number":227,"ruku_number":503,"manzil_number":7,"sajdah_number":null,"page_number":568,"juz_number":29,"words":[{"id":47088,"position":1,"audio_url":"wbw/069_048_001.mp3","verse_key":"69:48","verse_id":5371,"location":"69:48:1","text_uthmani":"وَإِنَّهُۥ","qpc_uthmani_hafs":"وَإِنَّهُۥ","char_type_name":"word","page_number":568,"line_number":6,"text":"وَإِنَّهُۥ","translation":{"text":"And indeed, it","language_name":"english","language_id":38},"transliteration":{"text":"wa-innahu","language_name":"english","language_id":38}},{"id":47089,"position":2,"audio_url":"wbw/069_048_002.mp3","verse_key":"69:48","verse_id":5371,"location":"69:48:2","text_uthmani":"لَتَذْكِرَةٌۭ","qpc_uthmani_hafs":"لَتَذۡكِرَةٞ","char_type_name":"word","page_number":568,"line_number":6,"text":"لَتَذۡكِرَةٞ","translation":{"text":"(is) surely a reminder","language_name":"english","language_id":38},"transliteration":{"text":"latadhkiratun","language_name":"english","language_id":38}},{"id":47090,"position":3,"audio_url":"wbw/069_048_003.mp3","verse_key":"69:48","verse_id":5371,"location":"69:48:3","text_uthmani":"لِّلْمُتَّقِينَ","qpc_uthmani_hafs":"لِّلۡمُتَّقِينَ","char_type_name":"word","page_number":568,"line_number":6,"text":"لِّلۡمُتَّقِينَ","translation":{"text":"for the Allah-fearing","language_name":"english","language_id":38},"transliteration":{"text":"lil'muttaqīna","language_name":"english","language_id":38}},{"id":47091,"position":4,"audio_url":null,"verse_key":"69:48","verse_id":5371,"location":"69:48:4","text_uthmani":"٤٨","qpc_uthmani_hafs":"٤٨","char_type_name":"end","page_number":568,"line_number":6,"text":"٤٨","translation":{"text":"(48)","language_name":"english","language_id":38},"transliteration":{"text":null,"language_name":"english","language_id":38}}]},{"id":5372,"verse_number":49,"verse_key":"69:49","hizb_number":57,"rub_el_hizb_number":227,"ruku_number":503,"manzil_number":7,"sajdah_number":null,"page_number":568,"juz_number":29,"words":[{"id":47934,"position":1,"audio_url":"wbw/069_049_001.mp3","verse_key":"69:49","verse_id":5372,"location":"69:49:1","text_uthmani":"وَإِنَّا","qpc_uthmani_hafs":"وَإِنَّا","char_type_name":"word","page_number":568,"line_number":6,"text":"وَإِنَّا","translation":{"text":"And indeed, We","language_name":"english","language_id":38},"transliteration":{"text":"wa-innā","language_name":"english","language_id":38}},{"id":47935,"position":2,"audio_url":"wbw/069_049_002.mp3","verse_key":"69:49","verse_id":5372,"location":"69:49:2","text_uthmani":"لَنَعْلَمُ","qpc_uthmani_hafs":"لَنَعۡلَمُ","char_type_name":"word","page_number":568,"line_number":7,"text":"لَنَعۡلَمُ","translation":{"text":"surely know","language_name":"english","language_id":38},"transliteration":{"text":"lanaʿlamu","language_name":"english","language_id":38}},{"id":47936,"position":3,"audio_url":"wbw/069_049_003.mp3","verse_key":"69:49","verse_id":5372,"location":"69:49:3","text_uthmani":"أَنَّ","qpc_uthmani_hafs":"أَنَّ","char_type_name":"word","page_number":568,"line_number":7,"text":"أَنَّ","translation":{"text":"that","language_name":"english","language_id":38},"transliteration":{"text":"anna","language_name":"english","language_id":38}},{"id":47937,"position":4,"audio_url":"wbw/069_049_004.mp3","verse_key":"69:49","verse_id":5372,"location":"69:49:4","text_uthmani":"مِنكُم","qpc_uthmani_hafs":"مِنكُم","char_type_name":"word","page_number":568,"line_number":7,"text":"مِنكُم","translation":{"text":"among you","language_name":"english","language_id":38},"transliteration":{"text":"minkum","language_name":"english","language_id":38}},{"id":47938,"position":5,"audio_url":"wbw/069_049_005.mp3","verse_key":"69:49","verse_id":5372,"location":"69:49:5","text_uthmani":"مُّكَذِّبِينَ","qpc_uthmani_hafs":"مُّكَذِّبِينَ","char_type_name":"word","page_number":568,"line_number":7,"text":"مُّكَذِّبِينَ","translation":{"text":"(are) deniers","language_name":"english","language_id":38},"transliteration":{"text":"mukadhibīna","language_name":"english","language_id":38}},{"id":47939,"position":6,"audio_url":null,"verse_key":"69:49","verse_id":5372,"location":"69:49:6","text_uthmani":"٤٩","qpc_uthmani_hafs":"٤٩","char_type_name":"end","page_number":568,"line_number":7,"text":"٤٩","translation":{"text":"(49)","language_name":"english","language_id":38},"transliteration":{"text":null,"language_name":"english","language_id":38}}]},{"id":5373,"verse_number":50,"verse_key":"69:50","hizb_number":57,"rub_el_hizb_number":227,"ruku_number":503,"manzil_number":7,"sajdah_number":null,"page_number":568,"juz_number":29,"words":[{"id":48697,"position":1,"audio_url":"wbw/069_050_001.mp3","verse_key":"69:50","verse_id":5373,"location":"69:50:1","text_uthmani":"وَإِنَّهُۥ","qpc_uthmani_hafs":"وَإِنَّهُۥ","char_type_name":"word","page_number":568,"line_number":7,"text":"وَإِنَّهُۥ","translation":{"text":"And indeed, it","language_name":"english","language_id":38},"transliteration":{"text":"wa-innahu","language_name":"english","language_id":38}},{"id":48698,"position":2,"audio_url":"wbw/069_050_002.mp3","verse_key":"69:50","verse_id":5373,"location":"69:50:2","text_uthmani":"لَحَسْرَةٌ","qpc_uthmani_hafs":"لَحَسۡرَةٌ","char_type_name":"word","page_number":568,"line_number":7,"text":"لَحَسۡرَةٌ","translation":{"text":"(is) surely a regret","language_name":"english","language_id":38},"transliteration":{"text":"laḥasratun","language_name":"english","language_id":38}},{"id":48699,"position":3,"audio_url":"wbw/069_050_003.mp3","verse_key":"69:50","verse_id":5373,"location":"69:50:3","text_uthmani":"عَلَى","qpc_uthmani_hafs":"عَلَى","char_type_name":"word","page_number":568,"line_number":7,"text":"عَلَى","translation":{"text":"upon","language_name":"english","language_id":38},"transliteration":{"text":"ʿalā","language_name":"english","language_id":38}},{"id":48700,"position":4,"audio_url":"wbw/069_050_004.mp3","verse_key":"69:50","verse_id":5373,"location":"69:50:4","text_uthmani":"ٱلْكَـٰفِرِينَ","qpc_uthmani_hafs":"ٱلۡكَٰفِرِينَ","char_type_name":"word","page_number":568,"line_number":7,"text":"ٱلۡكَٰفِرِينَ","translation":{"text":"the disbelievers","language_name":"english","language_id":38},"transliteration":{"text":"l-kāfirīna","language_name":"english","language_id":38}},{"id":48701,"position":5,"audio_url":null,"verse_key":"69:50","verse_id":5373,"location":"69:50:5","text_uthmani":"٥٠","qpc_uthmani_hafs":"٥٠","char_type_name":"end","page_number":568,"line_number":8,"text":"٥٠","translation":{"text":"(50)","language_name":"english","language_id":38},"transliteration":{"text":null,"language_name":"english","language_id":38}}]}],"pagination":{"per_page":10,"current_page":5,"next_page":6,"total_pages":6,"total_records":52}}
