{"verses":[{"id":5430,"verse_number":11,"verse_key":"71:11","hizb_number":57,"rub_el_hizb_number":228,"ruku_number":506,"manzil_number":7,"sajdah_number":null,"page_number":571,"juz_number":29,"words":[{"id":12854,"position":1,"audio_url":"wbw/071_011_001.mp3","verse_key":"71:11","verse_id":5430,"location":"71:11:1","text_uthmani":"يُرْسِلِ","qpc_uthmani_hafs":"يُرۡسِلِ","char_type_name":"word","page_number":571,"line_number":1,"text":"يُرۡسِلِ","translation":{"text":"He will send down","language_name":"english","language_id":38},"transliteration":{"text":"yur'sili","language_name":"english","language_id":38}},{"id":12855,"position":2,"audio_url":"wbw/071_011_002.mp3","verse_key":"71:11","verse_id":5430,"location":"71:11:2","text_uthmani":"ٱلسَّمَآءَ","qpc_uthmani_hafs":"ٱلسَّمَآءَ","char_type_name":"word","page_number":571,"line_number":1,"text":"ٱلسَّمَآءَ","translation":{"text":"(rain from) the sky","language_name":"english","language_id":38},"transliteration":{"text":"l-samāa","language_name":"english","language_id":38}},{"id":12856,"position":3,"audio_url":"wbw/071_011_003.mp3","verse_key":"71:11","verse_id":5430,"location":"71:11:3","text_uthmani":"عَلَيْكُم","qpc_uthmani_hafs":"عَلَيۡكُم","char_type_name":"word","page_number":571,"line_number":1,"text":"عَلَيۡكُم","translation":{"text":"upon you","language_name":"english","language_id":38},"transliteration":{"text":"ʿalaykum","language_name":"english","language_id":38}},{"id":12857,"position":4,"audio_url":"wbw/071_011_004.mp3","verse_key":"71:11","verse_id":5430,"location":"71:11:4","text_uthmani":"مِّدْرَارًۭا","qpc_uthmani_hafs":"مِّدۡرَارٗا","char_type_name":"word","page_number":571,"line_number":1,"text":"مِّدۡرَارٗا","translation":{"text":"(in) abundance","language_name":"english","language_id":38},"transliteration":{"text":"mid'rāran","language_name":"english","language_id":38}},{"id":12858,"position":5,"audio_url":null,"verse_key":"71:11","verse_id":5430,"location":"71:11:5","text_uthmani":"١١","qpc_uthmani_hafs":"١١","char_type_name":"end","page_number":571,"line_number":1,"text":"١١","translation":{"text":"(11)","language_name":"english","language_id":38},"transliteration":{"text":null,"language_name":"english","language_id":38}}]},{"id":5431,"verse_number":12,"verse_key":"71:12","hizb_number":57,"rub_el_hizb_number":228,"ruku_number":506,"manzil_number":7,"sajdah_number":null,"page_number":571,"juz_number":29,"words":[{"id":14104,"position":1,"audio_url":"wbw/071_012_001.mp3","verse_key":"71:12","verse_id":5431,"location":"71:12:1","text_uthmani":"وَيُمْدِدْكُم","qpc_uthmani_hafs":"وَيُمۡدِدۡكُم","char_type_name":"word","page_number":571,"line_number":1,"text":"وَيُمۡدِدۡكُم","translation":{"text":"And provide you","language_name":"english","language_id":38},"transliteration":{"text":"wayum'did'kum","language_name":"english","language_id":38}},{"id":14105,"position":2,"audio_url":"wbw/071_012_002.mp3","verse_key":"71:12","verse_id":5431,"location":"71:12:2","text_uthmani":"بِأَمْوَٰلٍۢ","qpc_uthmani_hafs":"بِأَمۡوَٰلٖ","char_type_name":"word","page_number":571,"line_number":1,"text":"بِأَمۡوَٰلٖ","translation":{"text":"with wealth","language_name":"english","language_id":38},"transliteration":{"text":"bi-amwālin","language_name":"english","language_id":38}},{"id":14106,"position":3,"audio_url":"wbw/071_012_003.mp3","verse_key":"71:12","verse_id":5431,"location":"71:12:3","text_uthmani":"وَبَنِينَ","qpc_uthmani_hafs":"وَبَنِينَ","char_type_name":"word","page_number":571,"line_number":1,"text":"وَبَنِينَ","translation":{"text":"and children","language_name":"english","language_id":38},"transliteration":{"text":"wabanīna","language_name":"english","language_id":38}},{"id":14107,"position":4,"audio_url":"wbw/071_012_004.mp3","verse_key":"71:12","verse_id":5431,"location":"71:12:4","text_uthmani":"وَيَجْعَل","qpc_uthmani_hafs":"وَيَجۡعَل","char_type_name":"word","page_number":571,"line_number":1,"text":"وَيَجۡعَل","translation":{"text":"and make","language_name":"english","language_id":38},"transliteration":{"text":"wayajʿal","language_name":"english","language_id":38}},{"id":14108,"position":5,"audio_url":"wbw/071_012_005.mp3","verse_key":"71:12","verse_id":5431,"location":"71:12:5","text_uthmani":"لَّكُمْ","qpc_uthmani_hafs":"لَّكُمۡ","char_type_name":"word","page_number":571,"line_number":2,"text":"لَّكُمۡ","translation":{"text":"for you","language_name":"english","language_id":38},"transliteration":{"text":"lakum","language_name":"english","language_id":38}},{"id":14109,"position":6,"audio_url":"wbw/071_012_006.mp3","verse_key":"71:12","verse_id":5431,"location":"71:12:6","text_uthmani":"جَنَّـٰتٍۢ","qpc_uthmani_hafs":"جَنَّٰتٖ","char_type_name":"word","page_number":571,"line_number":2,"text":"جَنَّٰتٖ","translation":{"text":"gardens","language_name":"english","language_id":38},"transliteration":{"text":"jannātin","language_name":"english","language_id":38}},{"id":14110,"position":7,"audio_url":"wbw/071_012_007.mp3","verse_key":"71:12","verse_id":5431,"location":"71:12:7","text_uthmani":"وَيَجْعَل","qpc_uthmani_hafs":"وَيَجۡعَل","char_type_name":"word","page_number":571,"line_number":2,"text":"وَيَجۡعَل","translation":{"text":"and make","language_name":"english","language_id":38},"transliteration":{"text":"wayajʿal","language_name":"english","language_id":38}},{"id":14111,"position":8,"audio_url":"wbw/071_012_008.mp3","verse_key":"71:12","verse_id":5431,"location":"71:12:8","text_uthmani":"لَّكُمْ","qpc_uthmani_hafs":"لَّكُمۡ","char_type_name":"word","page_number":571,"line_number":2,"text":"لَّكُمۡ","translation":{"text":"for you","language_name":"english","language_id":38},"transliteration":{"text":"lakum","language_name":"english","language_id":38}},{"id":14112,"position":9,"audio_url":"wbw/071_012_009.mp3","verse_key":"71:12","verse_id":5431,"location":"71:12:9","text_uthmani":"أَنْهَـٰرًۭا","qpc_uthmani_hafs":"أَنۡهَٰرٗا","char_type_name":"word","page_number":571,"line_number":2,"text":"أَنۡهَٰرٗا","translation":{"text":"rivers","language_name":"english","language_id":38},"transliteration":{"text":"anhāran","language_name":"english","language_id":38}},{"id":14113,"position":10,"audio_url":null,"verse_key":"71:12","verse_id":5431,"location":"71:12:10","text_uthmani":"١٢","qpc_uthmani_hafs":"١٢","char_type_name":"end","page_number":571,"line_number":2,"text":"١٢","translation":{"text":"(12)","language_name":"english","language_id":38},"transliteration":{"text":null,"language_name":"english","language_id":38}}]},{"id":5432,"verse_number":13,"verse_key":"71:13","hizb_number":57,"rub_el_hizb_number":228,"ruku_number":506,"manzil_number":7,"sajdah_number":null,"page_number":571,"juz_number":29,"words":[{"id":15231,"position":1,"audio_url":"wbw/071_013_001.mp3","verse_key":"71:13","verse_id":5432,"location":"71:13:1","text_uthmani":"مَّا","qpc_uthmani_hafs":"مَّا","char_type_name":"word","page_number":571,"line_number":2,"text":"مَّا","translation":{"text":"What","language_name":"english","language_id":38},"transliteration":{"text":"mā","language_name":"english","language_id":38}},{"id":15232,"position":2,"audio_url":"wbw/071_013_002.mp3","verse_key":"71:13","verse_id":5432,"location":"71:13:2","text_uthmani":"لَكُمْ","qpc_uthmani_hafs":"لَكُمۡ","char_type_name":"word","page_number":571,"line_number":2,"text":"لَكُمۡ","translation":{"text":"(is) for you","language_name":"english","language_id":38},"transliteration":{"text":"lakum","language_name":"english","language_id":38}},{"id":15233,"position":3,"audio_url":"wbw/071_013_003.mp3","verse_key":"71:13","verse_id":5432,"location":"71:13:3","text_uthmani":"لَا","qpc_uthmani_hafs":"لَا","char_type_name":"word","page_number":571,"line_number":2,"text":"لَا","translation":{"text":"not","language_name":"english","language_id":38},"transliteration":{"text":"lā","language_name":"english","language_id":38}},{"id":15234,"position":4,"audio_url":"wbw/071_013_004.mp3","verse_key":"71:13","verse_id":5432,"location":"71:13:4","text_uthmani":"تَرْجُونَ","qpc_uthmani_hafs":"تَرۡجُونَ","char_type_name":"word","page_number":571,"line_number":2,"text":"تَرۡجُونَ","translation":{"text":"you attribute","language_name":"english","language_id":38},"transliteration":{"text":"tarjūna","language_name":"english","language_id":38}},{"id":15235,"position":5,"audio_url":"wbw/071_013_005.mp3","verse_key":"71:13","verse_id":5432,"location":"71:13:5","text_uthmani":"لِلَّهِ","qpc_uthmani_hafs":"لِلَّهِ","char_type_name":"word","page_number":571,"line_number":2,"text":"لِلَّهِ","translation":{"text":"to Allah","language_name":"english","language_id":38},"transliteration":{"text":"lillahi","language_name":"english","language_id":38}},{"id":15236,"position":6,"audio_url":"wbw/071_013_006.mp3","verse_key":"71:13","verse_id":5432,"location":"71:13:6","text_uthmani":"وَقَارًۭا","qpc_uthmani_hafs":"وَقَارٗا","char_type_name":"word","page_number":571,"line_number":2,"text":"وَقَارٗا","translation":{"text":"grandeur","language_name":"english","language_id":38},"transliteration":{"text":"waqāran","language_name":"english","language_id":38}},{"id":15237,"position":7,"audio_url":null,"verse_key":"71:13","verse_id":5432,"location":"71:13:7","text_uthmani":"١٣","qpc_uthmani_hafs":"١٣","char_type_name":"end","page_number":571,"line_number":2,"text":"١٣","translation":{"text":"(13)","language_name":"english","language_id":38},"transliteration":{"text":null,"language_name":"english","language_id":38}}]},{"id":5433,"verse_number":14,"verse_key":"71:14","hizb_number":57,"rub_el_hizb_number":228,"ruku_number":506,"manzil_number":7,"sajdah_number":null,"page_number":571,"juz_number":29,"words":[{"id":16263,"position":1,"audio_url":"wbw/071_014_001.mp3","verse_key":"71:14","verse_id":5433,"location":"71:14:1","text_uthmani":"وَقَدْ","qpc_uthmani_hafs":"وَقَدۡ","char_type_name":"word","page_number":571,"line_number":3,"text":"وَقَدۡ","translation":{"text":"And indeed","language_name":"english","language_id":38},"transliteration":{"text":"waqad","language_name":"english","language_id":38}},{"id":16264,"position":2,"audio_url":"wbw/071_014_002.mp3","verse_key":"71:14","verse_id":5433,"location":"71:14:2","text_uthmani":"خَلَقَكُمْ","qpc_uthmani_hafs":"خَلَقَكُمۡ","char_type_name":"word","page_number":571,"line_number":3,"text":"خَلَقَكُمۡ","translation":{"text":"He created you","language_name":"english","language_id":38},"transliteration":{"text":"khalaqakum","language_name":"english","language_id":38}},{"id":16265,"position":3,"audio_url":"wbw/071_014_003.mp3","verse_key":"71:14","verse_id":5433,"location":"71:14:3","text_uthmani":"أَطْوَارًا","qpc_uthmani_hafs":"أَطۡوَارًا","char_type_name":"word","page_number":571,"line_number":3,"text":"أَطۡوَارًا","translation":{"text":"(in) stages","language_name":"english","language_id":38},"transliteration":{"text":"aṭwāran","language_name":"english","language_id":38}},{"id":16266,"position":4,"audio_url":null,"verse_key":"71:14","verse_id":5433,"location":"71:14:4","text_uthmani":"١٤","qpc_uthmani_hafs":"١٤","char_type_name":"end","page_number":571,"line_number":3,"text":"١٤","translation":{"text":"(14)","language_name":"english","language_id":38},"transliteration":{"text":null,"language_name":"english","language_id":38}}]},{"id":5434,"verse_number":15,"verse_key":"71:15","hizb_number":57,"rub_el_hizb_number":228,"ruku_number":506,"manzil_number":7,"sajdah_number":null,"page_number":571,"juz_number":29,"words":[{"id":17457,"position":1,"audio_url":"wbw/071_015_001.mp3","verse_key":"71:15","verse_id":5434,"location":"71:15:1","text_uthmani":"أَلَمْ","qpc_uthmani_hafs":"أَلَمۡ","char_type_name":"word","page_number":571,"line_number":3,"text":"أَلَمۡ","translation":{"text":"Do not","language_name":"english","language_id":38},"transliteration":{"text":"alam","language_name":"english","language_id":38}},{"id":17458,"position":2,"audio_url":"wbw/071_015_002.mp3","verse_key":"71:15","verse_id":5434,"location":"71:15:2","text_uthmani":"تَرَوْا۟","qpc_uthmani_hafs":"تَرَوۡاْ","char_type_name":"word","page_number":571,"line_number":3,"text":"تَرَوۡاْ","translation":{"text":"you see","language_name":"english","language_id":38},"transliteration":{"text":"taraw","language_name":"english","language_id":38}},{"id":17459,"position":3,"audio_url":"wbw/071_015_003.mp3","verse_key":"71:15","verse_id":5434,"location":"71:15:3","text_uthmani":"كَيْفَ","qpc_uthmani_hafs":"كَيۡفَ","char_type_name":"word","page_number":571,"line_number":3,"text":"كَيۡفَ","translation":{"text":"how","language_name":"english","language_id":38},"transliteration":{"text":"kayfa","language_name":"english","language_id":38}},{"id":17460,"position":4,"audio_url":"wbw/071_015_004.mp3","verse_key":"71:15","verse_id":5434,"location":"71:15:4","text_uthmani":"خَلَقَ","qpc_uthmani_hafs":"خَلَقَ","char_type_name":"word","page_number":571,"line_number":3,"text":"خَلَقَ","translation":{"text":"did create","language_name":"english","language_id":38},"transliteration":{"text":"khalaqa","language_name":"english","language_id":38}},{"id":17461,"position":5,"audio_url":"wbw/071_015_005.mp3","verse_key":"71:15","verse_id":5434,"location":"71:15:5","text_uthmani":"ٱللَّهُ","qpc_uthmani_hafs":"ٱللَّهُ","char_type_name":"word","page_number":571,"line_number":3,"text":"ٱللَّهُ","translation":{"text":"Allah","language_name":"english","language_id":38},"transliteration":{"text":"l-lahu","language_name":"english","language_id":38}},{"id":17462,"position":6,"audio_url":"wbw/071_015_006.mp3","verse_key":"71:15","verse_id":5434,"location":"71:15:6","text_uthmani":"سَبْعَ","qpc_uthmani_hafs":"سَبۡعَ","char_type_name":"word","page_number":571,"line_number":3,"text":"سَبۡعَ","translation":{"text":"(the) seven","language_name":"english","language_id":38},"transliteration":{"text":"sabʿa","language_name":"english","language_id":38}},{"id":17463,"position":7,"audio_url":"wbw/071_015_007.mp3","verse_key":"71:15","verse_id":5434,"location":"71:15:7","text_uthmani":"سَمَـٰوَٰتٍۢ","qpc_uthmani_hafs":"سَمَٰوَٰتٖ","char_type_name":"word","page_number":571,"line_number":3,"text":"سَمَٰوَٰتٖ","translation":{"text":"heavens","language_name":"english","language_id":38},"transliteration":{"text":"samāwātin","language_name":"english","language_id":38}},{"id":17464,"position":8,"audio_url":"wbw/071_015_008.mp3","verse_key":"71:15","verse_id":5434,"location":"71:15:8","text_uthmani":"طِبَاقًۭا","qpc_uthmani_hafs":"طِبَاقٗا","char_type_name":"word","page_number":571,"line_number":4,"text":"طِبَاقٗا","translation":{"text":"(in) layers","language_name":"english","language_id":38},"transliteration":{"text":"ṭibāqan","language_name":"english","language_id":38}},{"id":17465,"position":9,"audio_url":null,"verse_key":"71:15","verse_id":5434,"location":"71:15:9","text_uthmani":"١٥","qpc_uthmani_hafs":"١٥","char_type_name":"end","page_number":571,"line_number":4,"text":"١٥","translation":{"text":"(15)","language_name":"english","language_id":38},"transliteration":{"text":null,"language_name":"english","language_id":38}}]},{"id":5435,"verse_number":16,"verse_key":"71:16","hizb_number":57,"rub_el_hizb_number":228,"ruku_number":506,"manzil_number":7,"sajdah_number":null,"page_number":571,"juz_number":29,"words":[{"id":18508,"position":1,"audio_url":"wbw/071_016_001.mp3","verse_key":"71:16","verse_id":5435,"location":"71:16:1","text_uthmani":"وَجَعَلَ","qpc_uthmani_hafs":"وَجَعَلَ","char_type_name":"word","page_number":571,"line_number":4,"text":"وَجَعَلَ","translation":{"text":"And made","language_name":"english","language_id":38},"transliteration":{"text":"wajaʿala","language_name":"english","language_id":38}},{"id":18509,"position":2,"audio_url":"wbw/071_016_002.mp3","verse_key":"71:16","verse_id":5435,"location":"71:16:2","text_uthmani":"ٱلْقَمَرَ","qpc_uthmani_hafs":"ٱلۡقَمَرَ","char_type_name":"word","page_number":571,"line_number":4,"text":"ٱلۡقَمَرَ","translation":{"text":"the moon","language_name":"english","language_id":38},"transliteration":{"text":"l-qamara","language_name":"english","language_id":38}},{"id":18510,"position":3,"audio_url":"wbw/071_016_003.mp3","verse_key":"71:16","verse_id":5435,"location":"71:16:3","text_uthmani":"فِيهِنَّ","qpc_uthmani_hafs":"فِيهِنَّ","char_type_name":"word","page_number":571,"line_number":4,"text":"فِيهِنَّ","translation":{"text":"therein","language_name":"english","language_id":38},"transliteration":{"text":"fīhinna","language_name":"english","language_id":38}},{"id":18511,"position":4,"audio_url":"wbw/071_016_004.mp3","verse_key":"71:16","verse_id":5435,"location":"71:16:4","text_uthmani":"نُورًۭا","qpc_uthmani_hafs":"نُورٗا","char_type_name":"word","page_number":571,"line_number":4,"text":"نُورٗا","translation":{"text":"a light","language_name":"english","language_id":38},"transliteration":{"text":"nūran","language_name":"english","language_id":38}},{"id":18512,"position":5,"audio_url":"wbw/071_016_005.mp3","verse_key":"71:16","verse_id":5435,"location":"71:16:5","text_uthmani":"وَجَعَلَ","qpc_uthmani_hafs":"وَجَعَلَ","char_type_name":"word","page_number":571,"line_number":4,"text":"وَجَعَلَ","translation":{"text":"and made","language_name":"english","language_id":38},"transliteration":{"text":"wajaʿala","language_name":"english","language_id":38}},{"id":18513,"position":6,"audio_url":"wbw/071_016_006.mp3","verse_key":"71:16","verse_id":5435,"location":"71:16:6","text_uthmani":"ٱلشَّمْسَ","qpc_uthmani_hafs":"ٱلشَّمۡسَ","char_type_name":"word","page_number":571,"line_number":4,"text":"ٱلشَّمۡسَ","translation":{"text":"the sun","language_name":"english","language_id":38},"transliteration":{"text":"l-shamsa","language_name":"english","language_id":38}},{"id":18514,"position":7,"audio_url":"wbw/071_016_007.mp3","verse_key":"71:16","verse_id":5435,"location":"71:16:7","text_uthmani":"سِرَاجًۭا","qpc_uthmani_hafs":"سِرَاجٗا","char_type_name":"word","page_number":571,"line_number":4,"text":"سِرَاجٗا","translation":{"text":"a lamp","language_name":"english","language_id":38},"transliteration":{"text":"sirājan","language_name":"english","language_id":38}},{"id":18515,"position":8,"audio_url":null,"verse_key":"71:16","verse_id":5435,"location":"71:16:8","text_uthmani":"١٦","qpc_uthmani_hafs":"١٦","char_type_name":"end","page_number":571,"line_number":4,"text":"١٦","translation":{"text":"(16)","language_name":"english","language_id":38},"transliteration":{"text":null,"language_name":"english","language_id":38}}]},{"id":5436,"verse_number":17,"verse_key":"71:17","hizb_number":57,"rub_el_hizb_number":228,"ruku_number":506,"manzil_number":7,"sajdah_number":null,"page_number":571,"juz_number":29,"words":[{"id":19527,"position":1,"audio_url":"wbw/071_017_001.mp3","verse_key":"71:17","verse_id":5436,"location":"71:17:1","text_uthmani":"وَٱللَّهُ","qpc_uthmani_hafs":"وَٱللَّهُ","char_type_name":"word","page_number":571,"line_number":5,"text":"وَٱللَّهُ","translation":{"text":"And Allah","language_name":"english","language_id":38},"transliteration":{"text":"wal-lahu","language_name":"english","language_id":38}},{"id":19528,"position":2,"audio_url":"wbw/071_017_002.mp3","verse_key":"71:17","verse_id":5436,"location":"71:17:2","text_uthmani":"أَنۢبَتَكُم","qpc_uthmani_hafs":"أَنۢبَتَكُم","char_type_name":"word","page_number":571,"line_number":5,"text":"أَنۢبَتَكُم","translation":{"text":"has caused you to grow","language_name":"english","language_id":38},"transliteration":{"text":"anbatakum","language_name":"english","language_id":38}},{"id":19529,"position":3,"audio_url":"wbw/071_017_003.mp3","verse_key":"71:17","verse_id":5436,"location":"71:17:3","text_uthmani":"مِّنَ","qpc_uthmani_hafs":"مِّنَ","char_type_name":"word","page_number":571,"line_number":5,"text":"مِّنَ","translation":{"text":"from","language_name":"english","language_id":38},"transliteration":{"text":"mina","language_name":"english","language_id":38}},{"id":19530,"position":4,"audio_url":"wbw/071_017_004.mp3","verse_key":"71:17","verse_id":5436,"location":"71:17:4","text_uthmani":"ٱلْأَرْضِ","qpc_uthmani_hafs":"ٱلۡأَرۡضِ","char_type_name":"word","page_number":571,"line_number":5,"text":"ٱلۡأَرۡضِ","translation":{"text":"the earth","language_name":"english","language_id":38},"transliteration":{"text":"l-arḍi","language_name":"english","language_id":38}},{"id":19531,"position":5,"audio_url":"wbw/071_017_005.mp3","verse_key":"71:17","verse_id":5436,"location":"71:17:5","text_uthmani":"نَبَاتًۭا","qpc_uthmani_hafs":"نَبَاتٗا","char_type_name":"word","page_number":571,"line_number":5,"text":"نَبَاتٗا","translation":{"text":"(as) a growth","language_name":"english","language_id":38},"transliteration":{"text":"nabātan","language_name":"english","language_id":38}},{"id":19532,"position":6,"audio_url":null,"verse_key":"71:17","verse_id":5436,"location":"71:17:6","text_uthmani":"١٧","qpc_uthmani_hafs":"١٧","char_type_name":"end","page_number":571,"line_number":5,"text":"١٧","translation":{"text":"(17)","language_name":"english","language_id":38},"transliteration":{"text":null,"language_name":"english","language_id":38}}]},{"id":5437,"verse_number":18,"verse_key":"71:18","hizb_number":57,"rub_el_hizb_number":228,"ruku_number":506,"manzil_number":7,"sajdah_number":null,"page_number":571,"juz_number":29,"words":[{"id":20603,"position":1,"audio_url":"wbw/071_018_001.mp3","verse_key":"71:18","verse_id":5437,"location":"71:18:1","text_uthmani":"ثُمَّ","qpc_uthmani_hafs":"ثُمَّ","char_type_name":"word","page_number":571,"line_number":5,"text":"ثُمَّ","translation":{"text":"Then","language_name":"english","language_id":38},"transliteration":{"text":"thumma","language_name":"english","language_id":38}},{"id":20604,"position":2,"audio_url":"wbw/071_018_002.mp3","verse_key":"71:18","verse_id":5437,"location":"71:18:2","text_uthmani":"يُعِيدُكُمْ","qpc_uthmani_hafs":"يُعِيدُكُمۡ","char_type_name":"word","page_number":571,"line_number":5,"text":"يُعِيدُكُمۡ","translation":{"text":"He will return you","language_name":"english","language_id":38},"transliteration":{"text":"yuʿīdukum","language_name":"english","language_id":38}},{"id":20605,"position":3,"audio_url":"wbw/071_018_003.mp3","verse_key":"71:18","verse_id":5437,"location":"71:18:3","text_uthmani":"فِيهَا","qpc_uthmani_hafs":"فِيهَا","char_type_name":"word","page_number":571,"line_number":5,"text":"فِيهَا","translation":{"text":"into it","language_name":"english","language_id":38},"transliteration":{"text":"fīhā","language_name":"english","language_id":38}},{"id":20606,"position":4,"audio_url":"wbw/071_018_004.mp3","verse_key":"71:18","verse_id":5437,"location":"71:18:4","text_uthmani":"وَيُخْرِجُكُمْ","qpc_uthmani_hafs":"وَيُخۡرِجُكُمۡ","char_type_name":"word","page_number":571,"line_number":5,"text":"وَيُخۡرِجُكُمۡ","translation":{"text":"and bring you forth","language_name":"english","language_id":38},"transliteration":{"text":"wayukh'rijukum","language_name":"english","language_id":38}},{"id":20607,"position":5,"audio_url":"wbw/071_018_005.mp3","verse_key":"71:18","verse_id":5437,"location":"71:18:5","text_uthmani":"إِخْرَاجًۭا","qpc_uthmani_hafs":"إِخۡرَاجٗا","char_type_name":"word","page_number":571,"line_number":6,"text":"إِخۡرَاجٗا","translation":{"text":"(a new) bringing forth","language_name":"english","language_id":38},"transliteration":{"text":"ikh'rājan","language_name":"english","language_id":38}},{"id":20608,"position":6,"audio_url":null,"verse_key":"71:18","verse_id":5437,"location":"71:18:6","text_uthmani":"١٨","qpc_uthmani_hafs":"١٨","char_type_name":"end","page_number":571,"line_number":6,"text":"١٨","translation":{"text":"(18)","language_name":"english","language_id":38},"transliteration":{"text":null,"language_name":"english","language_id":38}}]},{"id":5438,"verse_number":19,"verse_key":"71:19","hizb_number":57,"rub_el_hizb_number":228,"ruku_number":506,"manzil_number":7,"sajdah_number":null,"page_number":571,"juz_number":29,"words":[{"id":21665,"position":1,"audio_url":"wbw/071_019_001.mp3","verse_key":"71:19","verse_id":5438,"location":"71:19:1","text_uthmani":"وَٱللَّهُ","qpc_uthmani_hafs":"وَٱللَّهُ","char_type_name":"word","page_number":571,"line_number":6,"text":"وَٱللَّهُ","translation":{"text":"And Allah","language_name":"english","language_id":38},"transliteration":{"text":"wal-lahu","language_name":"english","language_id":38}},{"id":21666,"position":2,"audio_url":"wbw/071_019_002.mp3","verse_key":"71:19","verse_id":5438,"location":"71:19:2","text_uthmani":"جَعَلَ","qpc_uthmani_hafs":"جَعَلَ","char_type_name":"word","page_number":571,"line_number":6,"text":"جَعَلَ","translation":{"text":"made","language_name":"english","language_id":38},"transliteration":{"text":"jaʿala","language_name":"english","language_id":38}},{"id":21667,"position":3,"audio_url":"wbw/071_019_003.mp3","verse_key":"71:19","verse_id":5438,"location":"71:19:3","text_uthmani":"لَكُمُ","qpc_uthmani_hafs":"لَكُمُ","char_type_name":"word","page_number":571,"line_number":6,"text":"لَكُمُ","translation":{"text":"for you","language_name":"english","language_id":38},"transliteration":{"text":"lakumu","language_name":"english","language_id":38}},{"id":21668,"position":4,"audio_url":"wbw/071_019_004.mp3","verse_key":"71:19","verse_id":5438,"location":"71:19:4","text_uthmani":"ٱلْأَرْضَ","qpc_uthmani_hafs":"ٱلۡأَرۡضَ","char_type_name":"word","page_number":571,"line_number":6,"text":"ٱلۡأَرۡضَ","translation":{"text":"the earth","language_name":"english","language_id":38},"transliteration":{"text":"l-arḍa","language_name":"english","language_id":38}},{"id":21669,"position":5,"audio_url":"wbw/071_019_005.mp3","verse_key":"71:19","verse_id":5438,"location":"71:19:5","text_uthmani":"بِسَاطًۭا","qpc_uthmani_hafs":"بِسَاطٗا","char_type_name":"word","page_number":571,"line_number":6,"text":"بِسَاطٗا","translation":{"text":"an expanse","language_name":"english","language_id":38},"transliteration":{"text":"bisāṭan","language_name":"english","language_id":38}},{"id":21670,"position":6,"audio_url":null,"verse_key":"71:19","verse_id":5438,"location":"71:19:6","text_uthmani":"١٩","qpc_uthmani_hafs":"١٩","char_type_name":"end","page_number":571,"line_number":6,"text":"١٩","translation":{"text":"(19)","language_name":"english","language_id":38},"transliteration":{"text":null,"language_name":"english","language_id":38}}]},{"id":5439,"verse_number":20,"verse_key":"71:20","hizb_number":57,"rub_el_hizb_number":228,"ruku_number":506,"manzil_number":7,"sajdah_number":null,"page_number":571,"juz_number":29,"words":[{"id":22751,"position":1,"audio_url":"wbw/071_020_001.mp3","verse_key":"71:20","verse_id":5439,"location":"71:20:1","text_uthmani":"لِّتَسْلُكُوا۟","qpc_uthmani_hafs":"لِّتَسۡلُكُواْ","char_type_name":"word","page_number":571,"line_number":6,"text":"لِّتَسۡلُكُواْ","translation":{"text":"That you may go along","language_name":"english","language_id":38},"transliteration":{"text":"litaslukū","language_name":"english","language_id":38}},{"id":22752,"position":2,"audio_url":"wbw/071_020_002.mp3","verse_key":"71:20","verse_id":5439,"location":"71:20:2","text_uthmani":"مِنْهَا","qpc_uthmani_hafs":"مِنۡهَا","char_type_name":"word","page_number":571,"line_number":6,"text":"مِنۡهَا","translation":{"text":"therein","language_name":"english","language_id":38},"transliteration":{"text":"min'hā","language_name":"english","language_id":38}},{"id":22753,"position":3,"audio_url":"wbw/071_020_003.mp3","verse_key":"71:20","verse_id":5439,"location":"71:20:3","text_uthmani":"سُبُلًۭا","qpc_uthmani_hafs":"سُبُلٗا","char_type_name":"word","page_number":571,"line_number":7,"text":"سُبُلٗا","translation":{"text":"(in) paths","language_name":"english","language_id":38},"transliteration":{"text":"subulan","language_name":"english","language_id":38}},{"id":22754,"position":4,"audio_url":"wbw/071_020_004.mp3","verse_key":"71:20","verse_id":5439,"location":"71:20:4","text_uthmani":"فِجَاجًۭا","qpc_uthmani_hafs":"فِجَاجٗا","char_type_name":"word","page_number":571,"line_number":7,"text":"فِجَاجٗا","translation":{"text":"wide","language_name":"english","language_id":38},"transliteration":{"text":"fijājan","language_name":"english","language_id":38}},{"id":22755,"position":5,"audio_url":null,"verse_key":"71:20","verse_id":5439,"location":"71:20:5","text_uthmani":"٢٠","qpc_uthmani_hafs":"٢٠","char_type_name":"end","page_number":571,"line_number":7,"text":"٢٠","translation":{"text":"(20)","language_name":"english","language_id":38},"transliteration":{"text":null,"language_name":"english","language_id":38}}]}],"pagination":{"per_page":10,"current_page":2,"next_page":3,"total_pages":3,"total_records":28}}
