{"verses":[{"id":4785,"verse_number":1,"verse_key":"53:1","hizb_number":53,"rub_el_hizb_number":210,"ruku_number":462,"manzil_number":7,"sajdah_number":null,"page_number":526,"juz_number":27,"words":[{"id":280,"position":1,"audio_url":"wbw/053_001_001.mp3","char_type_name":"word","page_number":526,"line_number":2,"text":"وَٱلنَّجْمِ","translation":{"text":"শপথ তারকার","language_name":"bengali","language_id":20},"transliteration":{"text":"wal-najmi","language_name":"english","language_id":38}},{"id":281,"position":2,"audio_url":"wbw/053_001_002.mp3","char_type_name":"word","page_number":526,"line_number":2,"text":"إِذَا","translation":{"text":"যখন","language_name":"bengali","language_id":20},"transliteration":{"text":"idhā","language_name":"english","language_id":38}},{"id":282,"position":3,"audio_url":"wbw/053_001_003.mp3","char_type_name":"word","page_number":526,"line_number":2,"text":"هَوَىٰ","translation":{"text":"অস্তমিত হয়","language_name":"bengali","language_id":20},"transliteration":{"text":"hawā","language_name":"english","language_id":38}},{"id":283,"position":4,"audio_url":null,"char_type_name":"end","page_number":526,"line_number":2,"text":"١","translation":{"text":"(১)","language_name":"bengali","language_id":20},"transliteration":{"text":null,"language_name":"english","language_id":38}}]},{"id":4786,"verse_number":2,"verse_key":"53:2","hizb_number":53,"rub_el_hizb_number":210,"ruku_number":462,"manzil_number":7,"sajdah_number":null,"page_number":526,"juz_number":27,"words":[{"id":1162,"position":1,"audio_url":"wbw/053_002_001.mp3","char_type_name":"word","page_number":526,"line_number":2,"text":"مَا","translation":{"text":"না","language_name":"bengali","language_id":20},"transliteration":{"text":"mā","language_name":"english","language_id":38}},{"id":1163,"position":2,"audio_url":"wbw/053_002_002.mp3","char_type_name":"word","page_number":526,"line_number":2,"text":"ضَلَّ","translation":{"text":"পথভ্রষ্ট হয়েছে","language_name":"bengali","language_id":20},"transliteration":{"text":"ḍalla","language_name":"english","language_id":38}},{"id":1164,"position":3,"audio_url":"wbw/053_002_003.mp3","char_type_name":"word","page_number":526,"line_number":2,"text":"صَاحِبُكُمْ","translation":{"text":"তোমাদের সঙ্গী","language_name":"bengali","language_id":20},"transliteration":{"text":"ṣāḥibukum","language_name":"english","language_id":38}},{"id":1165,"position":4,"audio_url":"wbw/053_002_004.mp3","char_type_name":"word","page_number":526,"line_number":2,"text":"وَمَا","translation":{"text":"আর না","language_name":"bengali","language_id":20},"transliteration":{"text":"wamā","language_name":"english","language_id":38}},{"id":1166,"position":5,"audio_url":"wbw/053_002_005.mp3","char_type_name":"word","page_number":526,"line_number":2,"text":"غَوَىٰ","translation":{"text":"বিপথগামী হয়েছে","language_name":"bengali","language_id":20},"transliteration":{"text":"ghawā","language_name":"english","language_id":38}},{"id":1167,"position":6,"audio_url":null,"char_type_name":"end","page_number":526,"line_number":2,"text":"٢","translation":{"text":"(২)","language_name":"bengali","language_id":20},"transliteration":{"text":null,"language_name":"english","language_id":38}}]},{"id":4787,"verse_number":3,"verse_key":"53:3","hizb_number":53,"rub_el_hizb_number":210,"ruku_number":462,"manzil_number":7,"sajdah_number":null,"page_number":526,"juz_number":27,"words":[{"id":2208,"position":1,"audio_url":"wbw/053_003_001.mp3","char_type_name":"word","page_number":526,"line_number":2,"text":"وَمَا","translation":{"text":"এবং না","language_name":"bengali","language_id":20},"transliteration":{"text":"wamā","language_name":"english","language_id":38}},{"id":2209,"position":2,"audio_url":"wbw/053_003_002.mp3","char_type_name":"word","page_number":526,"line_number":2,"text":"يَنطِقُ","translation":{"text":"সে কথা বলে","language_name":"bengali","language_id":20},"transliteration":{"text":"yanṭiqu","language_name":"english","language_id":38}},{"id":2210,"position":3,"audio_url":"wbw/053_003_003.mp3","char_type_name":"word","page_number":526,"line_number":2,"text":"عَنِ","translation":{"text":"হতে","language_name":"bengali","language_id":20},"transliteration":{"text":"ʿani","language_name":"english","language_id":38}},{"id":2211,"position":4,"audio_url":"wbw/053_003_004.mp3","char_type_name":"word","page_number":526,"line_number":3,"text":"ٱلْهَوَىٰٓ","translation":{"text":"প্রবৃত্তির তাড়না","language_name":"bengali","language_id":20},"transliteration":{"text":"l-hawā","language_name":"english","language_id":38}},{"id":2212,"position":5,"audio_url":null,"char_type_name":"end","page_number":526,"line_number":3,"text":"٣","translation":{"text":"(৩)","language_name":"bengali","language_id":20},"transliteration":{"text":null,"language_name":"english","language_id":38}}]},{"id":4788,"verse_number":4,"verse_key":"53:4","hizb_number":53,"rub_el_hizb_number":210,"ruku_number":462,"manzil_number":7,"sajdah_number":null,"page_number":526,"juz_number":27,"words":[{"id":3538,"position":1,"audio_url":"wbw/053_004_001.mp3","char_type_name":"word","page_number":526,"line_number":3,"text":"إِنْ","translation":{"text":"নয়","language_name":"bengali","language_id":20},"transliteration":{"text":"in","language_name":"english","language_id":38}},{"id":3539,"position":2,"audio_url":"wbw/053_004_002.mp3","char_type_name":"word","page_number":526,"line_number":3,"text":"هُوَ","translation":{"text":"তা","language_name":"bengali","language_id":20},"transliteration":{"text":"huwa","language_name":"english","language_id":38}},{"id":3540,"position":3,"audio_url":"wbw/053_004_003.mp3","char_type_name":"word","page_number":526,"line_number":3,"text":"إِلَّا","translation":{"text":"এছাড়া","language_name":"bengali","language_id":20},"transliteration":{"text":"illā","language_name":"english","language_id":38}},{"id":3541,"position":4,"audio_url":"wbw/053_004_004.mp3","char_type_name":"word","page_number":526,"line_number":3,"text":"وَحْىٌۭ","translation":{"text":"ওহী","language_name":"bengali","language_id":20},"transliteration":{"text":"waḥyun","language_name":"english","language_id":38}},{"id":3542,"position":5,"audio_url":"wbw/053_004_005.mp3","char_type_name":"word","page_number":526,"line_number":3,"text":"يُوحَىٰ","translation":{"text":"অবতীর্ণ করা হয় (যা)","language_name":"bengali","language_id":20},"transliteration":{"text":"yūḥā","language_name":"english","language_id":38}},{"id":3543,"position":6,"audio_url":null,"char_type_name":"end","page_number":526,"line_number":3,"text":"٤","translation":{"text":"(৪)","language_name":"bengali","language_id":20},"transliteration":{"text":null,"language_name":"english","language_id":38}}]},{"id":4789,"verse_number":5,"verse_key":"53:5","hizb_number":53,"rub_el_hizb_number":210,"ruku_number":462,"manzil_number":7,"sajdah_number":null,"page_number":526,"juz_number":27,"words":[{"id":4898,"position":1,"audio_url":"wbw/053_005_001.mp3","char_type_name":"word","page_number":526,"line_number":3,"text":"عَلَّمَهُۥ","translation":{"text":"তাকে শিক্ষা দিয়েছে","language_name":"bengali","language_id":20},"transliteration":{"text":"ʿallamahu","language_name":"english","language_id":38}},{"id":4899,"position":2,"audio_url":"wbw/053_005_002.mp3","char_type_name":"word","page_number":526,"line_number":3,"text":"شَدِيدُ","translation":{"text":"(জিবরাইল) অত্যন্তপ্রবল","language_name":"bengali","language_id":20},"transliteration":{"text":"shadīdu","language_name":"english","language_id":38}},{"id":4900,"position":3,"audio_url":"wbw/053_005_003.mp3","char_type_name":"word","page_number":526,"line_number":3,"text":"ٱلْقُوَىٰ","translation":{"text":"শক্তিতে","language_name":"bengali","language_id":20},"transliteration":{"text":"l-quwā","language_name":"english","language_id":38}},{"id":4901,"position":4,"audio_url":null,"char_type_name":"end","page_number":526,"line_number":3,"text":"٥","translation":{"text":"(৫)","language_name":"bengali","language_id":20},"transliteration":{"text":null,"language_name":"english","language_id":38}}]},{"id":4790,"verse_number":6,"verse_key":"53:6","hizb_number":53,"rub_el_hizb_number":210,"ruku_number":462,"manzil_number":7,"sajdah_number":null,"page_number":526,"juz_number":27,"words":[{"id":6144,"position":1,"audio_url":"wbw/053_006_001.mp3","char_type_name":"word","page_number":526,"line_number":4,"text":"ذُو","translation":{"text":"আছে","language_name":"bengali","language_id":20},"transliteration":{"text":"dhū","language_name":"english","language_id":38}},{"id":6145,"position":2,"audio_url":"wbw/053_006_002.mp3","char_type_name":"word","page_number":526,"line_number":4,"text":"مِرَّةٍۢ","translation":{"text":"কৌশলসম্পন্ন","language_name":"bengali","language_id":20},"transliteration":{"text":"mirratin","language_name":"english","language_id":38}},{"id":6146,"position":3,"audio_url":"wbw/053_006_003.mp3","char_type_name":"word","page_number":526,"line_number":4,"text":"فَٱسْتَوَىٰ","translation":{"text":"অতঃপর সে স্থির হয়ে (দাঁড়িয়ে) ছিল","language_name":"bengali","language_id":20},"transliteration":{"text":"fa-is'tawā","language_name":"english","language_id":38}},{"id":6147,"position":4,"audio_url":null,"char_type_name":"end","page_number":526,"line_number":4,"text":"٦","translation":{"text":"(৬)","language_name":"bengali","language_id":20},"transliteration":{"text":null,"language_name":"english","language_id":38}}]},{"id":4791,"verse_number":7,"verse_key":"53:7","hizb_number":53,"rub_el_hizb_number":210,"ruku_number":462,"manzil_number":7,"sajdah_number":null,"page_number":526,"juz_number":27,"words":[{"id":7482,"position":1,"audio_url":"wbw/053_007_001.mp3","char_type_name":"word","page_number":526,"line_number":4,"text":"وَهُوَ","translation":{"text":"এমতাবস্থায় সে (ছিল)","language_name":"bengali","language_id":20},"transliteration":{"text":"wahuwa","language_name":"english","language_id":38}},{"id":7483,"position":2,"audio_url":"wbw/053_007_002.mp3","char_type_name":"word","page_number":526,"line_number":4,"text":"بِٱلْأُفُقِ","translation":{"text":"দিগন্তে","language_name":"bengali","language_id":20},"transliteration":{"text":"bil-ufuqi","language_name":"english","language_id":38}},{"id":7484,"position":3,"audio_url":"wbw/053_007_003.mp3","char_type_name":"word","page_number":526,"line_number":4,"text":"ٱلْأَعْلَىٰ","translation":{"text":"ঊর্ধ্ব","language_name":"bengali","language_id":20},"transliteration":{"text":"l-aʿlā","language_name":"english","language_id":38}},{"id":7485,"position":4,"audio_url":null,"char_type_name":"end","page_number":526,"line_number":4,"text":"٧","translation":{"text":"(৭)","language_name":"bengali","language_id":20},"transliteration":{"text":null,"language_name":"english","language_id":38}}]},{"id":4792,"verse_number":8,"verse_key":"53:8","hizb_number":53,"rub_el_hizb_number":210,"ruku_number":462,"manzil_number":7,"sajdah_number":null,"page_number":526,"juz_number":27,"words":[{"id":8727,"position":1,"audio_url":"wbw/053_008_001.mp3","char_type_name":"word","page_number":526,"line_number":4,"text":"ثُمَّ","translation":{"text":"এরপর","language_name":"bengali","language_id":20},"transliteration":{"text":"thumma","language_name":"english","language_id":38}},{"id":8728,"position":2,"audio_url":"wbw/053_008_002.mp3","char_type_name":"word","page_number":526,"line_number":4,"text":"دَنَا","translation":{"text":"সে কাছে এল","language_name":"bengali","language_id":20},"transliteration":{"text":"danā","language_name":"english","language_id":38}},{"id":8729,"position":3,"audio_url":"wbw/053_008_003.mp3","char_type_name":"word","page_number":526,"line_number":4,"text":"فَتَدَلَّىٰ","translation":{"text":"অতঃপর শূন্যে ভেসে রইল","language_name":"bengali","language_id":20},"transliteration":{"text":"fatadallā","language_name":"english","language_id":38}},{"id":8730,"position":4,"audio_url":null,"char_type_name":"end","page_number":526,"line_number":4,"text":"٨","translation":{"text":"(৮)","language_name":"bengali","language_id":20},"transliteration":{"text":null,"language_name":"english","language_id":38}}]},{"id":4793,"verse_number":9,"verse_key":"53:9","hizb_number":53,"rub_el_hizb_number":210,"ruku_number":462,"manzil_number":7,"sajdah_number":null,"page_number":526,"juz_number":27,"words":[{"id":9952,"position":1,"audio_url":"wbw/053_009_001.mp3","char_type_name":"word","page_number":526,"line_number":5,"text":"فَكَانَ","translation":{"text":"ফলে সে হল","language_name":"bengali","language_id":20},"transliteration":{"text":"fakāna","language_name":"english","language_id":38}},{"id":9953,"position":2,"audio_url":"wbw/053_009_002.mp3","char_type_name":"word","page_number":526,"line_number":5,"text":"قَابَ","translation":{"text":"দূরত্বে","language_name":"bengali","language_id":20},"transliteration":{"text":"qāba","language_name":"english","language_id":38}},{"id":9954,"position":3,"audio_url":"wbw/053_009_003.mp3","char_type_name":"word","page_number":526,"line_number":5,"text":"قَوْسَيْنِ","translation":{"text":"দুই ধনুকের","language_name":"bengali","language_id":20},"transliteration":{"text":"qawsayni","language_name":"english","language_id":38}},{"id":9955,"position":4,"audio_url":"wbw/053_009_004.mp3","char_type_name":"word","page_number":526,"line_number":5,"text":"أَوْ","translation":{"text":"বা","language_name":"bengali","language_id":20},"transliteration":{"text":"aw","language_name":"english","language_id":38}},{"id":9956,"position":5,"audio_url":"wbw/053_009_005.mp3","char_type_name":"word","page_number":526,"line_number":5,"text":"أَدْنَىٰ","translation":{"text":"(তারও) কিছু কম","language_name":"bengali","language_id":20},"transliteration":{"text":"adnā","language_name":"english","language_id":38}},{"id":9957,"position":6,"audio_url":null,"char_type_name":"end","page_number":526,"line_number":5,"text":"٩","translation":{"text":"(৯)","language_name":"bengali","language_id":20},"transliteration":{"text":null,"language_name":"english","language_id":38}}]},{"id":4794,"verse_number":10,"verse_key":"53:10","hizb_number":53,"rub_el_hizb_number":210,"ruku_number":462,"manzil_number":7,"sajdah_number":null,"page_number":526,"juz_number":27,"words":[{"id":11155,"position":1,"audio_url":"wbw/053_010_001.mp3","char_type_name":"word","page_number":526,"line_number":5,"text":"فَأَوْحَىٰٓ","translation":{"text":"অতঃপর সে ওহী পৌঁছাল","language_name":"bengali","language_id":20},"transliteration":{"text":"fa-awḥā","language_name":"english","language_id":38}},{"id":11156,"position":2,"audio_url":"wbw/053_010_002.mp3","char_type_name":"word","page_number":526,"line_number":5,"text":"إِلَىٰ","translation":{"text":"কাছে","language_name":"bengali","language_id":20},"transliteration":{"text":"ilā","language_name":"english","language_id":38}},{"id":11157,"position":3,"audio_url":"wbw/053_010_003.mp3","char_type_name":"word","page_number":526,"line_number":5,"text":"عَبْدِهِۦ","translation":{"text":"তাঁর (অর্থাৎ আল্লাহর) বান্দার/ দাসের","language_name":"bengali","language_id":20},"transliteration":{"text":"ʿabdihi","language_name":"english","language_id":38}},{"id":11158,"position":4,"audio_url":"wbw/053_010_004.mp3","char_type_name":"word","page_number":526,"line_number":5,"text":"مَآ","translation":{"text":"যা","language_name":"bengali","language_id":20},"transliteration":{"text":"mā","language_name":"english","language_id":38}},{"id":11159,"position":5,"audio_url":"wbw/053_010_005.mp3","char_type_name":"word","page_number":526,"line_number":5,"text":"أَوْحَىٰ","translation":{"text":"ওহী পৌঁছানোর","language_name":"bengali","language_id":20},"transliteration":{"text":"awḥā","language_name":"english","language_id":38}},{"id":11160,"position":6,"audio_url":null,"char_type_name":"end","page_number":526,"line_number":5,"text":"١٠","translation":{"text":"(১০)","language_name":"bengali","language_id":20},"transliteration":{"text":null,"language_name":"english","language_id":38}}]}],"pagination":{"per_page":10,"current_page":1,"next_page":2,"total_pages":7,"total_records":62}}
