{"verses":[{"id":5324,"verse_number":1,"verse_key":"69:1","hizb_number":57,"rub_el_hizb_number":227,"ruku_number":502,"manzil_number":7,"sajdah_number":null,"page_number":566,"juz_number":29,"words":[{"id":588,"position":1,"audio_url":"wbw/069_001_001.mp3","verse_key":"69:1","verse_id":5324,"location":"69:1:1","text_uthmani":"ٱلْحَآقَّةُ","qpc_uthmani_hafs":"ٱلۡحَآقَّةُ","char_type_name":"word","page_number":566,"line_number":12,"text":"ٱلۡحَآقَّةُ","translation":{"text":"সুনিশ্চিত ঘটনা!","language_name":"bengali","language_id":20},"transliteration":{"text":"al-ḥāqatu","language_name":"english","language_id":38}},{"id":589,"position":2,"audio_url":null,"verse_key":"69:1","verse_id":5324,"location":"69:1:2","text_uthmani":"١","qpc_uthmani_hafs":"١","char_type_name":"end","page_number":566,"line_number":12,"text":"١","translation":{"text":"(১)","language_name":"bengali","language_id":20},"transliteration":{"text":null,"language_name":"english","language_id":38}}]},{"id":5325,"verse_number":2,"verse_key":"69:2","hizb_number":57,"rub_el_hizb_number":227,"ruku_number":502,"manzil_number":7,"sajdah_number":null,"page_number":566,"juz_number":29,"words":[{"id":1484,"position":1,"audio_url":"wbw/069_002_001.mp3","verse_key":"69:2","verse_id":5325,"location":"69:2:1","text_uthmani":"مَا","qpc_uthmani_hafs":"مَا","char_type_name":"word","page_number":566,"line_number":12,"text":"مَا","translation":{"text":"কি সেই?","language_name":"bengali","language_id":20},"transliteration":{"text":"mā","language_name":"english","language_id":38}},{"id":1485,"position":2,"audio_url":"wbw/069_002_002.mp3","verse_key":"69:2","verse_id":5325,"location":"69:2:2","text_uthmani":"ٱلْحَآقَّةُ","qpc_uthmani_hafs":"ٱلۡحَآقَّةُ","char_type_name":"word","page_number":566,"line_number":12,"text":"ٱلۡحَآقَّةُ","translation":{"text":"সুনিশ্চিত ঘটনা","language_name":"bengali","language_id":20},"transliteration":{"text":"l-ḥāqatu","language_name":"english","language_id":38}},{"id":1486,"position":3,"audio_url":null,"verse_key":"69:2","verse_id":5325,"location":"69:2:3","text_uthmani":"٢","qpc_uthmani_hafs":"٢","char_type_name":"end","page_number":566,"line_number":12,"text":"٢","translation":{"text":"(২)","language_name":"bengali","language_id":20},"transliteration":{"text":null,"language_name":"english","language_id":38}}]},{"id":5326,"verse_number":3,"verse_key":"69:3","hizb_number":57,"rub_el_hizb_number":227,"ruku_number":502,"manzil_number":7,"sajdah_number":null,"page_number":566,"juz_number":29,"words":[{"id":2561,"position":1,"audio_url":"wbw/069_003_001.mp3","verse_key":"69:3","verse_id":5326,"location":"69:3:1","text_uthmani":"وَمَآ","qpc_uthmani_hafs":"وَمَآ","char_type_name":"word","page_number":566,"line_number":12,"text":"وَمَآ","translation":{"text":"এবং কি?","language_name":"bengali","language_id":20},"transliteration":{"text":"wamā","language_name":"english","language_id":38}},{"id":2562,"position":2,"audio_url":"wbw/069_003_002.mp3","verse_key":"69:3","verse_id":5326,"location":"69:3:2","text_uthmani":"أَدْرَىٰكَ","qpc_uthmani_hafs":"أَدۡرَىٰكَ","char_type_name":"word","page_number":566,"line_number":12,"text":"أَدۡرَىٰكَ","translation":{"text":"জান তুমি","language_name":"bengali","language_id":20},"transliteration":{"text":"adrāka","language_name":"english","language_id":38}},{"id":2563,"position":3,"audio_url":"wbw/069_003_003.mp3","verse_key":"69:3","verse_id":5326,"location":"69:3:3","text_uthmani":"مَا","qpc_uthmani_hafs":"مَا","char_type_name":"word","page_number":566,"line_number":12,"text":"مَا","translation":{"text":"কি সেই","language_name":"bengali","language_id":20},"transliteration":{"text":"mā","language_name":"english","language_id":38}},{"id":2564,"position":4,"audio_url":"wbw/069_003_004.mp3","verse_key":"69:3","verse_id":5326,"location":"69:3:4","text_uthmani":"ٱلْحَآقَّةُ","qpc_uthmani_hafs":"ٱلۡحَآقَّةُ","char_type_name":"word","page_number":566,"line_number":12,"text":"ٱلۡحَآقَّةُ","translation":{"text":"সুনিশ্চিত ঘটনা","language_name":"bengali","language_id":20},"transliteration":{"text":"l-ḥāqatu","language_name":"english","language_id":38}},{"id":2565,"position":5,"audio_url":null,"verse_key":"69:3","verse_id":5326,"location":"69:3:5","text_uthmani":"٣","qpc_uthmani_hafs":"٣","char_type_name":"end","page_number":566,"line_number":12,"text":"٣","translation":{"text":"(৩)","language_name":"bengali","language_id":20},"transliteration":{"text":null,"language_name":"english","language_id":38}}]},{"id":5327,"verse_number":4,"verse_key":"69:4","hizb_number":57,"rub_el_hizb_number":227,"ruku_number":502,"manzil_number":7,"sajdah_number":null,"page_number":566,"juz_number":29,"words":[{"id":3970,"position":1,"audio_url":"wbw/069_004_001.mp3","verse_key":"69:4","verse_id":5327,"location":"69:4:1","text_uthmani":"كَذَّبَتْ","qpc_uthmani_hafs":"كَذَّبَتۡ","char_type_name":"word","page_number":566,"line_number":12,"text":"كَذَّبَتۡ","translation":{"text":"মিথারোপ করেছিল","language_name":"bengali","language_id":20},"transliteration":{"text":"kadhabat","language_name":"english","language_id":38}},{"id":3971,"position":2,"audio_url":"wbw/069_004_002.mp3","verse_key":"69:4","verse_id":5327,"location":"69:4:2","text_uthmani":"ثَمُودُ","qpc_uthmani_hafs":"ثَمُودُ","char_type_name":"word","page_number":566,"line_number":12,"text":"ثَمُودُ","translation":{"text":"সামুদ","language_name":"bengali","language_id":20},"transliteration":{"text":"thamūdu","language_name":"english","language_id":38}},{"id":3972,"position":3,"audio_url":"wbw/069_004_003.mp3","verse_key":"69:4","verse_id":5327,"location":"69:4:3","text_uthmani":"وَعَادٌۢ","qpc_uthmani_hafs":"وَعَادُۢ","char_type_name":"word","page_number":566,"line_number":12,"text":"وَعَادُۢ","translation":{"text":"এবং আদ","language_name":"bengali","language_id":20},"transliteration":{"text":"waʿādun","language_name":"english","language_id":38}},{"id":3973,"position":4,"audio_url":"wbw/069_004_004.mp3","verse_key":"69:4","verse_id":5327,"location":"69:4:4","text_uthmani":"بِٱلْقَارِعَةِ","qpc_uthmani_hafs":"بِٱلۡقَارِعَةِ","char_type_name":"word","page_number":566,"line_number":13,"text":"بِٱلۡقَارِعَةِ","translation":{"text":"মহাপ্রলয়কে","language_name":"bengali","language_id":20},"transliteration":{"text":"bil-qāriʿati","language_name":"english","language_id":38}},{"id":3974,"position":5,"audio_url":null,"verse_key":"69:4","verse_id":5327,"location":"69:4:5","text_uthmani":"٤","qpc_uthmani_hafs":"٤","char_type_name":"end","page_number":566,"line_number":13,"text":"٤","translation":{"text":"(৪)","language_name":"bengali","language_id":20},"transliteration":{"text":null,"language_name":"english","language_id":38}}]},{"id":5328,"verse_number":5,"verse_key":"69:5","hizb_number":57,"rub_el_hizb_number":227,"ruku_number":502,"manzil_number":7,"sajdah_number":null,"page_number":566,"juz_number":29,"words":[{"id":5275,"position":1,"audio_url":"wbw/069_005_001.mp3","verse_key":"69:5","verse_id":5328,"location":"69:5:1","text_uthmani":"فَأَمَّا","qpc_uthmani_hafs":"فَأَمَّا","char_type_name":"word","page_number":566,"line_number":13,"text":"فَأَمَّا","translation":{"text":"আর","language_name":"bengali","language_id":20},"transliteration":{"text":"fa-ammā","language_name":"english","language_id":38}},{"id":5276,"position":2,"audio_url":"wbw/069_005_002.mp3","verse_key":"69:5","verse_id":5328,"location":"69:5:2","text_uthmani":"ثَمُودُ","qpc_uthmani_hafs":"ثَمُودُ","char_type_name":"word","page_number":566,"line_number":13,"text":"ثَمُودُ","translation":{"text":"সামুদ","language_name":"bengali","language_id":20},"transliteration":{"text":"thamūdu","language_name":"english","language_id":38}},{"id":5277,"position":3,"audio_url":"wbw/069_005_003.mp3","verse_key":"69:5","verse_id":5328,"location":"69:5:3","text_uthmani":"فَأُهْلِكُوا۟","qpc_uthmani_hafs":"فَأُهۡلِكُواْ","char_type_name":"word","page_number":566,"line_number":13,"text":"فَأُهۡلِكُواْ","translation":{"text":"ধ্বংস করা হয়েছে অতঃপর","language_name":"bengali","language_id":20},"transliteration":{"text":"fa-uh'likū","language_name":"english","language_id":38}},{"id":5278,"position":4,"audio_url":"wbw/069_005_004.mp3","verse_key":"69:5","verse_id":5328,"location":"69:5:4","text_uthmani":"بِٱلطَّاغِيَةِ","qpc_uthmani_hafs":"بِٱلطَّاغِيَةِ","char_type_name":"word","page_number":566,"line_number":13,"text":"بِٱلطَّاغِيَةِ","translation":{"text":"তাঁর ঝনঝা বায়ু দিয়ে","language_name":"bengali","language_id":20},"transliteration":{"text":"bil-ṭāghiyati","language_name":"english","language_id":38}},{"id":5279,"position":5,"audio_url":null,"verse_key":"69:5","verse_id":5328,"location":"69:5:5","text_uthmani":"٥","qpc_uthmani_hafs":"٥","char_type_name":"end","page_number":566,"line_number":13,"text":"٥","translation":{"text":"(৫)","language_name":"bengali","language_id":20},"transliteration":{"text":null,"language_name":"english","language_id":38}}]},{"id":5329,"verse_number":6,"verse_key":"69:6","hizb_number":57,"rub_el_hizb_number":227,"ruku_number":502,"manzil_number":7,"sajdah_number":null,"page_number":566,"juz_number":29,"words":[{"id":6487,"position":1,"audio_url":"wbw/069_006_001.mp3","verse_key":"69:6","verse_id":5329,"location":"69:6:1","text_uthmani":"وَأَمَّا","qpc_uthmani_hafs":"وَأَمَّا","char_type_name":"word","page_number":566,"line_number":13,"text":"وَأَمَّا","translation":{"text":"আর","language_name":"bengali","language_id":20},"transliteration":{"text":"wa-ammā","language_name":"english","language_id":38}},{"id":6488,"position":2,"audio_url":"wbw/069_006_002.mp3","verse_key":"69:6","verse_id":5329,"location":"69:6:2","text_uthmani":"عَادٌۭ","qpc_uthmani_hafs":"عَادٞ","char_type_name":"word","page_number":566,"line_number":13,"text":"عَادٞ","translation":{"text":"আদ","language_name":"bengali","language_id":20},"transliteration":{"text":"ʿādun","language_name":"english","language_id":38}},{"id":6489,"position":3,"audio_url":"wbw/069_006_003.mp3","verse_key":"69:6","verse_id":5329,"location":"69:6:3","text_uthmani":"فَأُهْلِكُوا۟","qpc_uthmani_hafs":"فَأُهۡلِكُواْ","char_type_name":"word","page_number":566,"line_number":13,"text":"فَأُهۡلِكُواْ","translation":{"text":"অতঃপর ধ্বংস করা হয়েছে","language_name":"bengali","language_id":20},"transliteration":{"text":"fa-uh'likū","language_name":"english","language_id":38}},{"id":6490,"position":4,"audio_url":"wbw/069_006_004.mp3","verse_key":"69:6","verse_id":5329,"location":"69:6:4","text_uthmani":"بِرِيحٍۢ","qpc_uthmani_hafs":"بِرِيحٖ","char_type_name":"word","page_number":566,"line_number":13,"text":"بِرِيحٖ","translation":{"text":"বায়ু দিয়ে","language_name":"bengali","language_id":20},"transliteration":{"text":"birīḥin","language_name":"english","language_id":38}},{"id":6491,"position":5,"audio_url":"wbw/069_006_005.mp3","verse_key":"69:6","verse_id":5329,"location":"69:6:5","text_uthmani":"صَرْصَرٍ","qpc_uthmani_hafs":"صَرۡصَرٍ","char_type_name":"word","page_number":566,"line_number":14,"text":"صَرۡصَرٍ","translation":{"text":"ঝঞ্জা","language_name":"bengali","language_id":20},"transliteration":{"text":"ṣarṣarin","language_name":"english","language_id":38}},{"id":6492,"position":6,"audio_url":"wbw/069_006_006.mp3","verse_key":"69:6","verse_id":5329,"location":"69:6:6","text_uthmani":"عَاتِيَةٍۢ","qpc_uthmani_hafs":"عَاتِيَةٖ","char_type_name":"word","page_number":566,"line_number":14,"text":"عَاتِيَةٖ","translation":{"text":"প্রচন্ড","language_name":"bengali","language_id":20},"transliteration":{"text":"ʿātiyatin","language_name":"english","language_id":38}},{"id":6493,"position":7,"audio_url":null,"verse_key":"69:6","verse_id":5329,"location":"69:6:7","text_uthmani":"٦","qpc_uthmani_hafs":"٦","char_type_name":"end","page_number":566,"line_number":14,"text":"٦","translation":{"text":"(৬)","language_name":"bengali","language_id":20},"transliteration":{"text":null,"language_name":"english","language_id":38}}]},{"id":5330,"verse_number":7,"verse_key":"69:7","hizb_number":57,"rub_el_hizb_number":227,"ruku_number":502,"manzil_number":7,"sajdah_number":null,"page_number":566,"juz_number":29,"words":[{"id":7888,"position":1,"audio_url":"wbw/069_007_001.mp3","verse_key":"69:7","verse_id":5330,"location":"69:7:1","text_uthmani":"سَخَّرَهَا","qpc_uthmani_hafs":"سَخَّرَهَا","char_type_name":"word","page_number":566,"line_number":14,"text":"سَخَّرَهَا","translation":{"text":"তা প্রবাহিত করেন","language_name":"bengali","language_id":20},"transliteration":{"text":"sakharahā","language_name":"english","language_id":38}},{"id":7889,"position":2,"audio_url":"wbw/069_007_002.mp3","verse_key":"69:7","verse_id":5330,"location":"69:7:2","text_uthmani":"عَلَيْهِمْ","qpc_uthmani_hafs":"عَلَيۡهِمۡ","char_type_name":"word","page_number":566,"line_number":14,"text":"عَلَيۡهِمۡ","translation":{"text":"তাদের উপর","language_name":"bengali","language_id":20},"transliteration":{"text":"ʿalayhim","language_name":"english","language_id":38}},{"id":7890,"position":3,"audio_url":"wbw/069_007_003.mp3","verse_key":"69:7","verse_id":5330,"location":"69:7:3","text_uthmani":"سَبْعَ","qpc_uthmani_hafs":"سَبۡعَ","char_type_name":"word","page_number":566,"line_number":14,"text":"سَبۡعَ","translation":{"text":"সাত","language_name":"bengali","language_id":20},"transliteration":{"text":"sabʿa","language_name":"english","language_id":38}},{"id":7891,"position":4,"audio_url":"wbw/069_007_004.mp3","verse_key":"69:7","verse_id":5330,"location":"69:7:4","text_uthmani":"لَيَالٍۢ","qpc_uthmani_hafs":"لَيَالٖ","char_type_name":"word","page_number":566,"line_number":14,"text":"لَيَالٖ","translation":{"text":"রাত","language_name":"bengali","language_id":20},"transliteration":{"text":"layālin","language_name":"english","language_id":38}},{"id":7892,"position":5,"audio_url":"wbw/069_007_005.mp3","verse_key":"69:7","verse_id":5330,"location":"69:7:5","text_uthmani":"وَثَمَـٰنِيَةَ","qpc_uthmani_hafs":"وَثَمَٰنِيَةَ","char_type_name":"word","page_number":566,"line_number":14,"text":"وَثَمَٰنِيَةَ","translation":{"text":"এবং আট","language_name":"bengali","language_id":20},"transliteration":{"text":"wathamāniyata","language_name":"english","language_id":38}},{"id":7893,"position":6,"audio_url":"wbw/069_007_006.mp3","verse_key":"69:7","verse_id":5330,"location":"69:7:6","text_uthmani":"أَيَّامٍ","qpc_uthmani_hafs":"أَيَّامٍ","char_type_name":"word","page_number":566,"line_number":14,"text":"أَيَّامٍ","translation":{"text":"দিন","language_name":"bengali","language_id":20},"transliteration":{"text":"ayyāmin","language_name":"english","language_id":38}},{"id":7894,"position":7,"audio_url":"wbw/069_007_007.mp3","verse_key":"69:7","verse_id":5330,"location":"69:7:7","text_uthmani":"حُسُومًۭا","qpc_uthmani_hafs":"حُسُومٗاۖ","char_type_name":"word","page_number":566,"line_number":14,"text":"حُسُومٗاۖ","translation":{"text":"ক্রমাগত","language_name":"bengali","language_id":20},"transliteration":{"text":"ḥusūman","language_name":"english","language_id":38}},{"id":7895,"position":8,"audio_url":"wbw/069_007_008.mp3","verse_key":"69:7","verse_id":5330,"location":"69:7:8","text_uthmani":"فَتَرَى","qpc_uthmani_hafs":"فَتَرَى","char_type_name":"word","page_number":566,"line_number":14,"text":"فَتَرَى","translation":{"text":"তুমি দেখতে তখন (তথায় থাকিলে)","language_name":"bengali","language_id":20},"transliteration":{"text":"fatarā","language_name":"english","language_id":38}},{"id":7896,"position":9,"audio_url":"wbw/069_007_009.mp3","verse_key":"69:7","verse_id":5330,"location":"69:7:9","text_uthmani":"ٱلْقَوْمَ","qpc_uthmani_hafs":"ٱلۡقَوۡمَ","char_type_name":"word","page_number":566,"line_number":15,"text":"ٱلۡقَوۡمَ","translation":{"text":"সে জাতিকে","language_name":"bengali","language_id":20},"transliteration":{"text":"l-qawma","language_name":"english","language_id":38}},{"id":7897,"position":10,"audio_url":"wbw/069_007_010.mp3","verse_key":"69:7","verse_id":5330,"location":"69:7:10","text_uthmani":"فِيهَا","qpc_uthmani_hafs":"فِيهَا","char_type_name":"word","page_number":566,"line_number":15,"text":"فِيهَا","translation":{"text":"তার মধ্যে","language_name":"bengali","language_id":20},"transliteration":{"text":"fīhā","language_name":"english","language_id":38}},{"id":7898,"position":11,"audio_url":"wbw/069_007_011.mp3","verse_key":"69:7","verse_id":5330,"location":"69:7:11","text_uthmani":"صَرْعَىٰ","qpc_uthmani_hafs":"صَرۡعَىٰ","char_type_name":"word","page_number":566,"line_number":15,"text":"صَرۡعَىٰ","translation":{"text":"পড়ে থাকা","language_name":"bengali","language_id":20},"transliteration":{"text":"ṣarʿā","language_name":"english","language_id":38}},{"id":7899,"position":12,"audio_url":"wbw/069_007_012.mp3","verse_key":"69:7","verse_id":5330,"location":"69:7:12","text_uthmani":"كَأَنَّهُمْ","qpc_uthmani_hafs":"كَأَنَّهُمۡ","char_type_name":"word","page_number":566,"line_number":15,"text":"كَأَنَّهُمۡ","translation":{"text":"তারা যেন","language_name":"bengali","language_id":20},"transliteration":{"text":"ka-annahum","language_name":"english","language_id":38}},{"id":7900,"position":13,"audio_url":"wbw/069_007_013.mp3","verse_key":"69:7","verse_id":5330,"location":"69:7:13","text_uthmani":"أَعْجَازُ","qpc_uthmani_hafs":"أَعۡجَازُ","char_type_name":"word","page_number":566,"line_number":15,"text":"أَعۡجَازُ","translation":{"text":"কাণ্ড সমূহ","language_name":"bengali","language_id":20},"transliteration":{"text":"aʿjāzu","language_name":"english","language_id":38}},{"id":7901,"position":14,"audio_url":"wbw/069_007_014.mp3","verse_key":"69:7","verse_id":5330,"location":"69:7:14","text_uthmani":"نَخْلٍ","qpc_uthmani_hafs":"نَخۡلٍ","char_type_name":"word","page_number":566,"line_number":15,"text":"نَخۡلٍ","translation":{"text":"খেজুর গাছের","language_name":"bengali","language_id":20},"transliteration":{"text":"nakhlin","language_name":"english","language_id":38}},{"id":7902,"position":15,"audio_url":"wbw/069_007_015.mp3","verse_key":"69:7","verse_id":5330,"location":"69:7:15","text_uthmani":"خَاوِيَةٍۢ","qpc_uthmani_hafs":"خَاوِيَةٖ","char_type_name":"word","page_number":566,"line_number":15,"text":"خَاوِيَةٖ","translation":{"text":"পরিত্যাক্ত","language_name":"bengali","language_id":20},"transliteration":{"text":"khāwiyatin","language_name":"english","language_id":38}},{"id":7903,"position":16,"audio_url":null,"verse_key":"69:7","verse_id":5330,"location":"69:7:16","text_uthmani":"٧","qpc_uthmani_hafs":"٧","char_type_name":"end","page_number":566,"line_number":15,"text":"٧","translation":{"text":"(৭)","language_name":"bengali","language_id":20},"transliteration":{"text":null,"language_name":"english","language_id":38}}]},{"id":5331,"verse_number":8,"verse_key":"69:8","hizb_number":57,"rub_el_hizb_number":227,"ruku_number":502,"manzil_number":7,"sajdah_number":null,"page_number":566,"juz_number":29,"words":[{"id":9071,"position":1,"audio_url":"wbw/069_008_001.mp3","verse_key":"69:8","verse_id":5331,"location":"69:8:1","text_uthmani":"فَهَلْ","qpc_uthmani_hafs":"فَهَلۡ","char_type_name":"word","page_number":566,"line_number":15,"text":"فَهَلۡ","translation":{"text":"কি এক্ষণে","language_name":"bengali","language_id":20},"transliteration":{"text":"fahal","language_name":"english","language_id":38}},{"id":9072,"position":2,"audio_url":"wbw/069_008_002.mp3","verse_key":"69:8","verse_id":5331,"location":"69:8:2","text_uthmani":"تَرَىٰ","qpc_uthmani_hafs":"تَرَىٰ","char_type_name":"word","page_number":566,"line_number":15,"text":"تَرَىٰ","translation":{"text":"তুমি দেখ","language_name":"bengali","language_id":20},"transliteration":{"text":"tarā","language_name":"english","language_id":38}},{"id":9073,"position":3,"audio_url":"wbw/069_008_003.mp3","verse_key":"69:8","verse_id":5331,"location":"69:8:3","text_uthmani":"لَهُم","qpc_uthmani_hafs":"لَهُم","char_type_name":"word","page_number":566,"line_number":15,"text":"لَهُم","translation":{"text":"তদেরকে","language_name":"bengali","language_id":20},"transliteration":{"text":"lahum","language_name":"english","language_id":38}},{"id":9074,"position":4,"audio_url":"wbw/069_008_004.mp3","verse_key":"69:8","verse_id":5331,"location":"69:8:4","text_uthmani":"مِّنۢ","qpc_uthmani_hafs":"مِّنۢ","char_type_name":"word","page_number":566,"line_number":15,"text":"مِّنۢ","translation":{"text":"কিছু","language_name":"bengali","language_id":20},"transliteration":{"text":"min","language_name":"english","language_id":38}},{"id":9075,"position":5,"audio_url":"wbw/069_008_005.mp3","verse_key":"69:8","verse_id":5331,"location":"69:8:5","text_uthmani":"بَاقِيَةٍۢ","qpc_uthmani_hafs":"بَاقِيَةٖ","char_type_name":"word","page_number":566,"line_number":15,"text":"بَاقِيَةٖ","translation":{"text":"অবশিষ্ট","language_name":"bengali","language_id":20},"transliteration":{"text":"bāqiyatin","language_name":"english","language_id":38}},{"id":9076,"position":6,"audio_url":null,"verse_key":"69:8","verse_id":5331,"location":"69:8:6","text_uthmani":"٨","qpc_uthmani_hafs":"٨","char_type_name":"end","page_number":566,"line_number":15,"text":"٨","translation":{"text":"(৮)","language_name":"bengali","language_id":20},"transliteration":{"text":null,"language_name":"english","language_id":38}}]},{"id":5332,"verse_number":9,"verse_key":"69:9","hizb_number":57,"rub_el_hizb_number":227,"ruku_number":502,"manzil_number":7,"sajdah_number":null,"page_number":567,"juz_number":29,"words":[{"id":10288,"position":1,"audio_url":"wbw/069_009_001.mp3","verse_key":"69:9","verse_id":5332,"location":"69:9:1","text_uthmani":"وَجَآءَ","qpc_uthmani_hafs":"وَجَآءَ","char_type_name":"word","page_number":567,"line_number":1,"text":"وَجَآءَ","translation":{"text":"এবং এসেছিল","language_name":"bengali","language_id":20},"transliteration":{"text":"wajāa","language_name":"english","language_id":38}},{"id":10289,"position":2,"audio_url":"wbw/069_009_002.mp3","verse_key":"69:9","verse_id":5332,"location":"69:9:2","text_uthmani":"فِرْعَوْنُ","qpc_uthmani_hafs":"فِرۡعَوۡنُ","char_type_name":"word","page_number":567,"line_number":1,"text":"فِرۡعَوۡنُ","translation":{"text":"ফিরাউন","language_name":"bengali","language_id":20},"transliteration":{"text":"fir'ʿawnu","language_name":"english","language_id":38}},{"id":10290,"position":3,"audio_url":"wbw/069_009_003.mp3","verse_key":"69:9","verse_id":5332,"location":"69:9:3","text_uthmani":"وَمَن","qpc_uthmani_hafs":"وَمَن","char_type_name":"word","page_number":567,"line_number":1,"text":"وَمَن","translation":{"text":"ও যারা","language_name":"bengali","language_id":20},"transliteration":{"text":"waman","language_name":"english","language_id":38}},{"id":10291,"position":4,"audio_url":"wbw/069_009_004.mp3","verse_key":"69:9","verse_id":5332,"location":"69:9:4","text_uthmani":"قَبْلَهُۥ","qpc_uthmani_hafs":"قَبۡلَهُۥ","char_type_name":"word","page_number":567,"line_number":1,"text":"قَبۡلَهُۥ","translation":{"text":"তার পূর্বে","language_name":"bengali","language_id":20},"transliteration":{"text":"qablahu","language_name":"english","language_id":38}},{"id":10292,"position":5,"audio_url":"wbw/069_009_005.mp3","verse_key":"69:9","verse_id":5332,"location":"69:9:5","text_uthmani":"وَٱلْمُؤْتَفِكَـٰتُ","qpc_uthmani_hafs":"وَٱلۡمُؤۡتَفِكَٰتُ","char_type_name":"word","page_number":567,"line_number":1,"text":"وَٱلۡمُؤۡتَفِكَٰتُ","translation":{"text":"এবং উলটে দেয়া বস্তীবাসীদের","language_name":"bengali","language_id":20},"transliteration":{"text":"wal-mu'tafikātu","language_name":"english","language_id":38}},{"id":10293,"position":6,"audio_url":"wbw/069_009_006.mp3","verse_key":"69:9","verse_id":5332,"location":"69:9:6","text_uthmani":"بِٱلْخَاطِئَةِ","qpc_uthmani_hafs":"بِٱلۡخَاطِئَةِ","char_type_name":"word","page_number":567,"line_number":1,"text":"بِٱلۡخَاطِئَةِ","translation":{"text":"অপরাধের কারণে","language_name":"bengali","language_id":20},"transliteration":{"text":"bil-khāṭi-ati","language_name":"english","language_id":38}},{"id":10294,"position":7,"audio_url":null,"verse_key":"69:9","verse_id":5332,"location":"69:9:7","text_uthmani":"٩","qpc_uthmani_hafs":"٩","char_type_name":"end","page_number":567,"line_number":1,"text":"٩","translation":{"text":"(৯)","language_name":"bengali","language_id":20},"transliteration":{"text":null,"language_name":"english","language_id":38}}]},{"id":5333,"verse_number":10,"verse_key":"69:10","hizb_number":57,"rub_el_hizb_number":227,"ruku_number":502,"manzil_number":7,"sajdah_number":null,"page_number":567,"juz_number":29,"words":[{"id":11519,"position":1,"audio_url":"wbw/069_010_001.mp3","verse_key":"69:10","verse_id":5333,"location":"69:10:1","text_uthmani":"فَعَصَوْا۟","qpc_uthmani_hafs":"فَعَصَوۡاْ","char_type_name":"word","page_number":567,"line_number":1,"text":"فَعَصَوۡاْ","translation":{"text":"অতঃপর তারা অমান্য করেছিল","language_name":"bengali","language_id":20},"transliteration":{"text":"faʿaṣaw","language_name":"english","language_id":38}},{"id":11520,"position":2,"audio_url":"wbw/069_010_002.mp3","verse_key":"69:10","verse_id":5333,"location":"69:10:2","text_uthmani":"رَسُولَ","qpc_uthmani_hafs":"رَسُولَ","char_type_name":"word","page_number":567,"line_number":1,"text":"رَسُولَ","translation":{"text":"রাসূলকে","language_name":"bengali","language_id":20},"transliteration":{"text":"rasūla","language_name":"english","language_id":38}},{"id":11521,"position":3,"audio_url":"wbw/069_010_003.mp3","verse_key":"69:10","verse_id":5333,"location":"69:10:3","text_uthmani":"رَبِّهِمْ","qpc_uthmani_hafs":"رَبِّهِمۡ","char_type_name":"word","page_number":567,"line_number":2,"text":"رَبِّهِمۡ","translation":{"text":"তাদের রবের","language_name":"bengali","language_id":20},"transliteration":{"text":"rabbihim","language_name":"english","language_id":38}},{"id":11522,"position":4,"audio_url":"wbw/069_010_004.mp3","verse_key":"69:10","verse_id":5333,"location":"69:10:4","text_uthmani":"فَأَخَذَهُمْ","qpc_uthmani_hafs":"فَأَخَذَهُمۡ","char_type_name":"word","page_number":567,"line_number":2,"text":"فَأَخَذَهُمۡ","translation":{"text":"ফলে তাদের ধরলেন","language_name":"bengali","language_id":20},"transliteration":{"text":"fa-akhadhahum","language_name":"english","language_id":38}},{"id":11523,"position":5,"audio_url":"wbw/069_010_005.mp3","verse_key":"69:10","verse_id":5333,"location":"69:10:5","text_uthmani":"أَخْذَةًۭ","qpc_uthmani_hafs":"أَخۡذَةٗ","char_type_name":"word","page_number":567,"line_number":2,"text":"أَخۡذَةٗ","translation":{"text":"ধরা","language_name":"bengali","language_id":20},"transliteration":{"text":"akhdhatan","language_name":"english","language_id":38}},{"id":11524,"position":6,"audio_url":"wbw/069_010_006.mp3","verse_key":"69:10","verse_id":5333,"location":"69:10:6","text_uthmani":"رَّابِيَةً","qpc_uthmani_hafs":"رَّابِيَةً","char_type_name":"word","page_number":567,"line_number":2,"text":"رَّابِيَةً","translation":{"text":"শক্ত","language_name":"bengali","language_id":20},"transliteration":{"text":"rābiyatan","language_name":"english","language_id":38}},{"id":11525,"position":7,"audio_url":null,"verse_key":"69:10","verse_id":5333,"location":"69:10:7","text_uthmani":"١٠","qpc_uthmani_hafs":"١٠","char_type_name":"end","page_number":567,"line_number":2,"text":"١٠","translation":{"text":"(১০)","language_name":"bengali","language_id":20},"transliteration":{"text":null,"language_name":"english","language_id":38}}]}],"pagination":{"per_page":10,"current_page":1,"next_page":2,"total_pages":6,"total_records":52}}
