{"verses":[{"id":5364,"verse_number":41,"verse_key":"69:41","hizb_number":57,"rub_el_hizb_number":227,"ruku_number":503,"manzil_number":7,"sajdah_number":null,"page_number":568,"juz_number":29,"words":[{"id":42179,"position":1,"audio_url":"wbw/069_041_001.mp3","char_type_name":"word","page_number":568,"line_number":2,"text":"وَمَا","translation":{"text":"এবং না","language_name":"bengali","language_id":20},"transliteration":{"text":"wamā","language_name":"english","language_id":38}},{"id":42180,"position":2,"audio_url":"wbw/069_041_002.mp3","char_type_name":"word","page_number":568,"line_number":2,"text":"هُوَ","translation":{"text":"তা","language_name":"bengali","language_id":20},"transliteration":{"text":"huwa","language_name":"english","language_id":38}},{"id":42181,"position":3,"audio_url":"wbw/069_041_003.mp3","char_type_name":"word","page_number":568,"line_number":3,"text":"بِقَوْلِ","translation":{"text":"কথা","language_name":"bengali","language_id":20},"transliteration":{"text":"biqawli","language_name":"english","language_id":38}},{"id":42182,"position":4,"audio_url":"wbw/069_041_004.mp3","char_type_name":"word","page_number":568,"line_number":3,"text":"شَاعِرٍۢ ۚ","translation":{"text":"কবির","language_name":"bengali","language_id":20},"transliteration":{"text":"shāʿirin","language_name":"english","language_id":38}},{"id":42184,"position":5,"audio_url":"wbw/069_041_006.mp3","char_type_name":"word","page_number":568,"line_number":3,"text":"قَلِيلًۭا","translation":{"text":"কমই","language_name":"bengali","language_id":20},"transliteration":{"text":"qalīlan","language_name":"english","language_id":38}},{"id":42185,"position":6,"audio_url":"wbw/069_041_007.mp3","char_type_name":"word","page_number":568,"line_number":3,"text":"مَّا","translation":{"text":"যা","language_name":"bengali","language_id":20},"transliteration":{"text":"mā","language_name":"english","language_id":38}},{"id":42186,"position":7,"audio_url":"wbw/069_041_008.mp3","char_type_name":"word","page_number":568,"line_number":3,"text":"تُؤْمِنُونَ","translation":{"text":"তোমরা ইমান আন","language_name":"bengali","language_id":20},"transliteration":{"text":"tu'minūna","language_name":"english","language_id":38}},{"id":42187,"position":8,"audio_url":null,"char_type_name":"end","page_number":568,"line_number":3,"text":"٤١","translation":{"text":"(৪১)","language_name":"bengali","language_id":20},"transliteration":{"text":null,"language_name":"english","language_id":38}}]},{"id":5365,"verse_number":42,"verse_key":"69:42","hizb_number":57,"rub_el_hizb_number":227,"ruku_number":503,"manzil_number":7,"sajdah_number":null,"page_number":568,"juz_number":29,"words":[{"id":43018,"position":1,"audio_url":"wbw/069_042_001.mp3","char_type_name":"word","page_number":568,"line_number":3,"text":"وَلَا","translation":{"text":"এবং না","language_name":"bengali","language_id":20},"transliteration":{"text":"walā","language_name":"english","language_id":38}},{"id":43019,"position":2,"audio_url":"wbw/069_042_002.mp3","char_type_name":"word","page_number":568,"line_number":3,"text":"بِقَوْلِ","translation":{"text":"বানী","language_name":"bengali","language_id":20},"transliteration":{"text":"biqawli","language_name":"english","language_id":38}},{"id":43020,"position":3,"audio_url":"wbw/069_042_003.mp3","char_type_name":"word","page_number":568,"line_number":3,"text":"كَاهِنٍۢ ۚ","translation":{"text":"কোন গণকের","language_name":"bengali","language_id":20},"transliteration":{"text":"kāhinin","language_name":"english","language_id":38}},{"id":43022,"position":4,"audio_url":"wbw/069_042_005.mp3","char_type_name":"word","page_number":568,"line_number":3,"text":"قَلِيلًۭا","translation":{"text":"কমই","language_name":"bengali","language_id":20},"transliteration":{"text":"qalīlan","language_name":"english","language_id":38}},{"id":43023,"position":5,"audio_url":"wbw/069_042_006.mp3","char_type_name":"word","page_number":568,"line_number":3,"text":"مَّا","translation":{"text":"যা","language_name":"bengali","language_id":20},"transliteration":{"text":"mā","language_name":"english","language_id":38}},{"id":43024,"position":6,"audio_url":"wbw/069_042_007.mp3","char_type_name":"word","page_number":568,"line_number":3,"text":"تَذَكَّرُونَ","translation":{"text":"তোমরা উপদেশ গ্রহণ কর","language_name":"bengali","language_id":20},"transliteration":{"text":"tadhakkarūna","language_name":"english","language_id":38}},{"id":43025,"position":7,"audio_url":null,"char_type_name":"end","page_number":568,"line_number":4,"text":"٤٢","translation":{"text":"(৪২)","language_name":"bengali","language_id":20},"transliteration":{"text":null,"language_name":"english","language_id":38}}]},{"id":5366,"verse_number":43,"verse_key":"69:43","hizb_number":57,"rub_el_hizb_number":227,"ruku_number":503,"manzil_number":7,"sajdah_number":null,"page_number":568,"juz_number":29,"words":[{"id":43710,"position":1,"audio_url":"wbw/069_043_001.mp3","char_type_name":"word","page_number":568,"line_number":4,"text":"تَنزِيلٌۭ","translation":{"text":"নাযিলকৃত","language_name":"bengali","language_id":20},"transliteration":{"text":"tanzīlun","language_name":"english","language_id":38}},{"id":43711,"position":2,"audio_url":"wbw/069_043_002.mp3","char_type_name":"word","page_number":568,"line_number":4,"text":"مِّن","translation":{"text":"থেকে","language_name":"bengali","language_id":20},"transliteration":{"text":"min","language_name":"english","language_id":38}},{"id":43712,"position":3,"audio_url":"wbw/069_043_003.mp3","char_type_name":"word","page_number":568,"line_number":4,"text":"رَّبِّ","translation":{"text":"রবের","language_name":"bengali","language_id":20},"transliteration":{"text":"rabbi","language_name":"english","language_id":38}},{"id":43713,"position":4,"audio_url":"wbw/069_043_004.mp3","char_type_name":"word","page_number":568,"line_number":4,"text":"ٱلْعَـٰلَمِينَ","translation":{"text":"মহাবিশ্বের","language_name":"bengali","language_id":20},"transliteration":{"text":"l-ʿālamīna","language_name":"english","language_id":38}},{"id":43714,"position":5,"audio_url":null,"char_type_name":"end","page_number":568,"line_number":4,"text":"٤٣","translation":{"text":"(৪৩)","language_name":"bengali","language_id":20},"transliteration":{"text":null,"language_name":"english","language_id":38}}]},{"id":5367,"verse_number":44,"verse_key":"69:44","hizb_number":57,"rub_el_hizb_number":227,"ruku_number":503,"manzil_number":7,"sajdah_number":null,"page_number":568,"juz_number":29,"words":[{"id":44524,"position":1,"audio_url":"wbw/069_044_001.mp3","char_type_name":"word","page_number":568,"line_number":4,"text":"وَلَوْ","translation":{"text":"এবং যদি","language_name":"bengali","language_id":20},"transliteration":{"text":"walaw","language_name":"english","language_id":38}},{"id":44525,"position":2,"audio_url":"wbw/069_044_002.mp3","char_type_name":"word","page_number":568,"line_number":4,"text":"تَقَوَّلَ","translation":{"text":"কথা বানাত","language_name":"bengali","language_id":20},"transliteration":{"text":"taqawwala","language_name":"english","language_id":38}},{"id":44526,"position":3,"audio_url":"wbw/069_044_003.mp3","char_type_name":"word","page_number":568,"line_number":4,"text":"عَلَيْنَا","translation":{"text":"আমাদের বিপক্ষে","language_name":"bengali","language_id":20},"transliteration":{"text":"ʿalaynā","language_name":"english","language_id":38}},{"id":44527,"position":4,"audio_url":"wbw/069_044_004.mp3","char_type_name":"word","page_number":568,"line_number":4,"text":"بَعْضَ","translation":{"text":"কিছু","language_name":"bengali","language_id":20},"transliteration":{"text":"baʿḍa","language_name":"english","language_id":38}},{"id":44528,"position":5,"audio_url":"wbw/069_044_005.mp3","char_type_name":"word","page_number":568,"line_number":4,"text":"ٱلْأَقَاوِيلِ","translation":{"text":"কথা","language_name":"bengali","language_id":20},"transliteration":{"text":"l-aqāwīli","language_name":"english","language_id":38}},{"id":44529,"position":6,"audio_url":null,"char_type_name":"end","page_number":568,"line_number":4,"text":"٤٤","translation":{"text":"(৪৪)","language_name":"bengali","language_id":20},"transliteration":{"text":null,"language_name":"english","language_id":38}}]},{"id":5368,"verse_number":45,"verse_key":"69:45","hizb_number":57,"rub_el_hizb_number":227,"ruku_number":503,"manzil_number":7,"sajdah_number":null,"page_number":568,"juz_number":29,"words":[{"id":45227,"position":1,"audio_url":"wbw/069_045_001.mp3","char_type_name":"word","page_number":568,"line_number":5,"text":"لَأَخَذْنَا","translation":{"text":"অবশ্যই আমরা ধরতাম","language_name":"bengali","language_id":20},"transliteration":{"text":"la-akhadhnā","language_name":"english","language_id":38}},{"id":45228,"position":2,"audio_url":"wbw/069_045_002.mp3","char_type_name":"word","page_number":568,"line_number":5,"text":"مِنْهُ","translation":{"text":"তাকে","language_name":"bengali","language_id":20},"transliteration":{"text":"min'hu","language_name":"english","language_id":38}},{"id":45229,"position":3,"audio_url":"wbw/069_045_003.mp3","char_type_name":"word","page_number":568,"line_number":5,"text":"بِٱلْيَمِينِ","translation":{"text":"ডান হাত দ্বারা;","language_name":"bengali","language_id":20},"transliteration":{"text":"bil-yamīni","language_name":"english","language_id":38}},{"id":45230,"position":4,"audio_url":null,"char_type_name":"end","page_number":568,"line_number":5,"text":"٤٥","translation":{"text":"(৪৫)","language_name":"bengali","language_id":20},"transliteration":{"text":null,"language_name":"english","language_id":38}}]},{"id":5369,"verse_number":46,"verse_key":"69:46","hizb_number":57,"rub_el_hizb_number":227,"ruku_number":503,"manzil_number":7,"sajdah_number":null,"page_number":568,"juz_number":29,"words":[{"id":45965,"position":1,"audio_url":"wbw/069_046_001.mp3","char_type_name":"word","page_number":568,"line_number":5,"text":"ثُمَّ","translation":{"text":"তারপর","language_name":"bengali","language_id":20},"transliteration":{"text":"thumma","language_name":"english","language_id":38}},{"id":45966,"position":2,"audio_url":"wbw/069_046_002.mp3","char_type_name":"word","page_number":568,"line_number":5,"text":"لَقَطَعْنَا","translation":{"text":"অবশ্যই আমরা কাটতাম","language_name":"bengali","language_id":20},"transliteration":{"text":"laqaṭaʿnā","language_name":"english","language_id":38}},{"id":45967,"position":3,"audio_url":"wbw/069_046_003.mp3","char_type_name":"word","page_number":568,"line_number":5,"text":"مِنْهُ","translation":{"text":"তার থেকে","language_name":"bengali","language_id":20},"transliteration":{"text":"min'hu","language_name":"english","language_id":38}},{"id":45968,"position":4,"audio_url":"wbw/069_046_004.mp3","char_type_name":"word","page_number":568,"line_number":5,"text":"ٱلْوَتِينَ","translation":{"text":"মহাধমনী.","language_name":"bengali","language_id":20},"transliteration":{"text":"l-watīna","language_name":"english","language_id":38}},{"id":45969,"position":5,"audio_url":null,"char_type_name":"end","page_number":568,"line_number":5,"text":"٤٦","translation":{"text":"(৪৬)","language_name":"bengali","language_id":20},"transliteration":{"text":null,"language_name":"english","language_id":38}}]},{"id":5370,"verse_number":47,"verse_key":"69:47","hizb_number":57,"rub_el_hizb_number":227,"ruku_number":503,"manzil_number":7,"sajdah_number":null,"page_number":568,"juz_number":29,"words":[{"id":46593,"position":1,"audio_url":"wbw/069_047_001.mp3","char_type_name":"word","page_number":568,"line_number":5,"text":"فَمَا","translation":{"text":"এবং না","language_name":"bengali","language_id":20},"transliteration":{"text":"famā","language_name":"english","language_id":38}},{"id":46594,"position":2,"audio_url":"wbw/069_047_002.mp3","char_type_name":"word","page_number":568,"line_number":5,"text":"مِنكُم","translation":{"text":"তোমাদের মধ্যে","language_name":"bengali","language_id":20},"transliteration":{"text":"minkum","language_name":"english","language_id":38}},{"id":46595,"position":3,"audio_url":"wbw/069_047_003.mp3","char_type_name":"word","page_number":568,"line_number":6,"text":"مِّنْ","translation":{"text":"কোন","language_name":"bengali","language_id":20},"transliteration":{"text":"min","language_name":"english","language_id":38}},{"id":46596,"position":4,"audio_url":"wbw/069_047_004.mp3","char_type_name":"word","page_number":568,"line_number":6,"text":"أَحَدٍ","translation":{"text":"কেও","language_name":"bengali","language_id":20},"transliteration":{"text":"aḥadin","language_name":"english","language_id":38}},{"id":46597,"position":5,"audio_url":"wbw/069_047_005.mp3","char_type_name":"word","page_number":568,"line_number":6,"text":"عَنْهُ","translation":{"text":"[তার কাছ থেকে]","language_name":"bengali","language_id":20},"transliteration":{"text":"ʿanhu","language_name":"english","language_id":38}},{"id":46598,"position":6,"audio_url":"wbw/069_047_006.mp3","char_type_name":"word","page_number":568,"line_number":6,"text":"حَـٰجِزِينَ","translation":{"text":"বিরতকারী","language_name":"bengali","language_id":20},"transliteration":{"text":"ḥājizīna","language_name":"english","language_id":38}},{"id":46599,"position":7,"audio_url":null,"char_type_name":"end","page_number":568,"line_number":6,"text":"٤٧","translation":{"text":"(৪৭)","language_name":"bengali","language_id":20},"transliteration":{"text":null,"language_name":"english","language_id":38}}]},{"id":5371,"verse_number":48,"verse_key":"69:48","hizb_number":57,"rub_el_hizb_number":227,"ruku_number":503,"manzil_number":7,"sajdah_number":null,"page_number":568,"juz_number":29,"words":[{"id":47088,"position":1,"audio_url":"wbw/069_048_001.mp3","char_type_name":"word","page_number":568,"line_number":6,"text":"وَإِنَّهُۥ","translation":{"text":"এবং তা","language_name":"bengali","language_id":20},"transliteration":{"text":"wa-innahu","language_name":"english","language_id":38}},{"id":47089,"position":2,"audio_url":"wbw/069_048_002.mp3","char_type_name":"word","page_number":568,"line_number":6,"text":"لَتَذْكِرَةٌۭ","translation":{"text":"অবশ্যই উপদেশ","language_name":"bengali","language_id":20},"transliteration":{"text":"latadhkiratun","language_name":"english","language_id":38}},{"id":47090,"position":3,"audio_url":"wbw/069_048_003.mp3","char_type_name":"word","page_number":568,"line_number":6,"text":"لِّلْمُتَّقِينَ","translation":{"text":"মুত্তাকীদের","language_name":"bengali","language_id":20},"transliteration":{"text":"lil'muttaqīna","language_name":"english","language_id":38}},{"id":47091,"position":4,"audio_url":null,"char_type_name":"end","page_number":568,"line_number":6,"text":"٤٨","translation":{"text":"(৪৮)","language_name":"bengali","language_id":20},"transliteration":{"text":null,"language_name":"english","language_id":38}}]},{"id":5372,"verse_number":49,"verse_key":"69:49","hizb_number":57,"rub_el_hizb_number":227,"ruku_number":503,"manzil_number":7,"sajdah_number":null,"page_number":568,"juz_number":29,"words":[{"id":47934,"position":1,"audio_url":"wbw/069_049_001.mp3","char_type_name":"word","page_number":568,"line_number":6,"text":"وَإِنَّا","translation":{"text":"এবং নিশ্চয় আমরা","language_name":"bengali","language_id":20},"transliteration":{"text":"wa-innā","language_name":"english","language_id":38}},{"id":47935,"position":2,"audio_url":"wbw/069_049_002.mp3","char_type_name":"word","page_number":568,"line_number":7,"text":"لَنَعْلَمُ","translation":{"text":"অবশ্যই জানি","language_name":"bengali","language_id":20},"transliteration":{"text":"lanaʿlamu","language_name":"english","language_id":38}},{"id":47936,"position":3,"audio_url":"wbw/069_049_003.mp3","char_type_name":"word","page_number":568,"line_number":7,"text":"أَنَّ","translation":{"text":"যে","language_name":"bengali","language_id":20},"transliteration":{"text":"anna","language_name":"english","language_id":38}},{"id":47937,"position":4,"audio_url":"wbw/069_049_004.mp3","char_type_name":"word","page_number":568,"line_number":7,"text":"مِنكُم","translation":{"text":"তোমাদের মধ্যে","language_name":"bengali","language_id":20},"transliteration":{"text":"minkum","language_name":"english","language_id":38}},{"id":47938,"position":5,"audio_url":"wbw/069_049_005.mp3","char_type_name":"word","page_number":568,"line_number":7,"text":"مُّكَذِّبِينَ","translation":{"text":"অস্বীকারকারীরা (সম্পূর্ণ).","language_name":"bengali","language_id":20},"transliteration":{"text":"mukadhibīna","language_name":"english","language_id":38}},{"id":47939,"position":6,"audio_url":null,"char_type_name":"end","page_number":568,"line_number":7,"text":"٤٩","translation":{"text":"(৪৯)","language_name":"bengali","language_id":20},"transliteration":{"text":null,"language_name":"english","language_id":38}}]},{"id":5373,"verse_number":50,"verse_key":"69:50","hizb_number":57,"rub_el_hizb_number":227,"ruku_number":503,"manzil_number":7,"sajdah_number":null,"page_number":568,"juz_number":29,"words":[{"id":48697,"position":1,"audio_url":"wbw/069_050_001.mp3","char_type_name":"word","page_number":568,"line_number":7,"text":"وَإِنَّهُۥ","translation":{"text":"এবং নিশ্চয় তা","language_name":"bengali","language_id":20},"transliteration":{"text":"wa-innahu","language_name":"english","language_id":38}},{"id":48698,"position":2,"audio_url":"wbw/069_050_002.mp3","char_type_name":"word","page_number":568,"line_number":7,"text":"لَحَسْرَةٌ","translation":{"text":"আক্ষেপের","language_name":"bengali","language_id":20},"transliteration":{"text":"laḥasratun","language_name":"english","language_id":38}},{"id":48699,"position":3,"audio_url":"wbw/069_050_003.mp3","char_type_name":"word","page_number":568,"line_number":7,"text":"عَلَى","translation":{"text":"উপর","language_name":"bengali","language_id":20},"transliteration":{"text":"ʿalā","language_name":"english","language_id":38}},{"id":48700,"position":4,"audio_url":"wbw/069_050_004.mp3","char_type_name":"word","page_number":568,"line_number":7,"text":"ٱلْكَـٰفِرِينَ","translation":{"text":"কাফিরদের.","language_name":"bengali","language_id":20},"transliteration":{"text":"l-kāfirīna","language_name":"english","language_id":38}},{"id":48701,"position":5,"audio_url":null,"char_type_name":"end","page_number":568,"line_number":8,"text":"٥٠","translation":{"text":"(৫০)","language_name":"bengali","language_id":20},"transliteration":{"text":null,"language_name":"english","language_id":38}}]}],"pagination":{"per_page":10,"current_page":5,"next_page":6,"total_pages":6,"total_records":52}}
