{"verses":[{"id":5374,"verse_number":51,"verse_key":"69:51","hizb_number":57,"rub_el_hizb_number":227,"ruku_number":503,"manzil_number":7,"sajdah_number":null,"page_number":568,"juz_number":29,"words":[{"id":49239,"position":1,"audio_url":"wbw/069_051_001.mp3","verse_key":"69:51","verse_id":5374,"location":"69:51:1","text_uthmani":"وَإِنَّهُۥ","qpc_uthmani_hafs":"وَإِنَّهُۥ","char_type_name":"word","page_number":568,"line_number":8,"text":"وَإِنَّهُۥ","translation":{"text":"ও নিশ্চয় তা","language_name":"bengali","language_id":20},"transliteration":{"text":"wa-innahu","language_name":"english","language_id":38}},{"id":49240,"position":2,"audio_url":"wbw/069_051_002.mp3","verse_key":"69:51","verse_id":5374,"location":"69:51:2","text_uthmani":"لَحَقُّ","qpc_uthmani_hafs":"لَحَقُّ","char_type_name":"word","page_number":568,"line_number":8,"text":"لَحَقُّ","translation":{"text":"অবশ্যই সত্য","language_name":"bengali","language_id":20},"transliteration":{"text":"laḥaqqu","language_name":"english","language_id":38}},{"id":49241,"position":3,"audio_url":"wbw/069_051_003.mp3","verse_key":"69:51","verse_id":5374,"location":"69:51:3","text_uthmani":"ٱلْيَقِينِ","qpc_uthmani_hafs":"ٱلۡيَقِينِ","char_type_name":"word","page_number":568,"line_number":8,"text":"ٱلۡيَقِينِ","translation":{"text":"সুনিশ্চিত","language_name":"bengali","language_id":20},"transliteration":{"text":"l-yaqīni","language_name":"english","language_id":38}},{"id":49242,"position":4,"audio_url":null,"verse_key":"69:51","verse_id":5374,"location":"69:51:4","text_uthmani":"٥١","qpc_uthmani_hafs":"٥١","char_type_name":"end","page_number":568,"line_number":8,"text":"٥١","translation":{"text":"(৫১)","language_name":"bengali","language_id":20},"transliteration":{"text":null,"language_name":"english","language_id":38}}]},{"id":5375,"verse_number":52,"verse_key":"69:52","hizb_number":57,"rub_el_hizb_number":227,"ruku_number":503,"manzil_number":7,"sajdah_number":null,"page_number":568,"juz_number":29,"words":[{"id":49973,"position":1,"audio_url":"wbw/069_052_001.mp3","verse_key":"69:52","verse_id":5375,"location":"69:52:1","text_uthmani":"فَسَبِّحْ","qpc_uthmani_hafs":"فَسَبِّحۡ","char_type_name":"word","page_number":568,"line_number":8,"text":"فَسَبِّحۡ","translation":{"text":"অতএব তাসবীহ পাঠ কর","language_name":"bengali","language_id":20},"transliteration":{"text":"fasabbiḥ","language_name":"english","language_id":38}},{"id":49974,"position":2,"audio_url":"wbw/069_052_002.mp3","verse_key":"69:52","verse_id":5375,"location":"69:52:2","text_uthmani":"بِٱسْمِ","qpc_uthmani_hafs":"بِٱسۡمِ","char_type_name":"word","page_number":568,"line_number":8,"text":"بِٱسۡمِ","translation":{"text":"নামের","language_name":"bengali","language_id":20},"transliteration":{"text":"bi-is'mi","language_name":"english","language_id":38}},{"id":49975,"position":3,"audio_url":"wbw/069_052_003.mp3","verse_key":"69:52","verse_id":5375,"location":"69:52:3","text_uthmani":"رَبِّكَ","qpc_uthmani_hafs":"رَبِّكَ","char_type_name":"word","page_number":568,"line_number":8,"text":"رَبِّكَ","translation":{"text":"তোমার রবের","language_name":"bengali","language_id":20},"transliteration":{"text":"rabbika","language_name":"english","language_id":38}},{"id":49976,"position":4,"audio_url":"wbw/069_052_004.mp3","verse_key":"69:52","verse_id":5375,"location":"69:52:4","text_uthmani":"ٱلْعَظِيمِ","qpc_uthmani_hafs":"ٱلۡعَظِيمِ","char_type_name":"word","page_number":568,"line_number":8,"text":"ٱلۡعَظِيمِ","translation":{"text":"মহান","language_name":"bengali","language_id":20},"transliteration":{"text":"l-ʿaẓīmi","language_name":"english","language_id":38}},{"id":49977,"position":5,"audio_url":null,"verse_key":"69:52","verse_id":5375,"location":"69:52:5","text_uthmani":"٥٢","qpc_uthmani_hafs":"٥٢","char_type_name":"end","page_number":568,"line_number":8,"text":"٥٢","translation":{"text":"(৫২)","language_name":"bengali","language_id":20},"transliteration":{"text":null,"language_name":"english","language_id":38}}]}],"pagination":{"per_page":10,"current_page":6,"next_page":null,"total_pages":6,"total_records":52}}
