{"verses":[{"id":5673,"verse_number":1,"verse_key":"78:1","hizb_number":59,"rub_el_hizb_number":233,"ruku_number":520,"manzil_number":7,"sajdah_number":null,"page_number":582,"juz_number":30,"words":[{"id":676,"position":1,"audio_url":"wbw/078_001_001.mp3","verse_key":"78:1","verse_id":5673,"location":"78:1:1","text_uthmani":"عَمَّ","qpc_uthmani_hafs":"عَمَّ","char_type_name":"word","page_number":582,"line_number":3,"text":"عَمَّ","translation":{"text":"About what","language_name":"english","language_id":38},"transliteration":{"text":"ʿamma","language_name":"english","language_id":38}},{"id":677,"position":2,"audio_url":"wbw/078_001_002.mp3","verse_key":"78:1","verse_id":5673,"location":"78:1:2","text_uthmani":"يَتَسَآءَلُونَ","qpc_uthmani_hafs":"يَتَسَآءَلُونَ","char_type_name":"word","page_number":582,"line_number":3,"text":"يَتَسَآءَلُونَ","translation":{"text":"are they asking one another","language_name":"english","language_id":38},"transliteration":{"text":"yatasāalūna","language_name":"english","language_id":38}},{"id":678,"position":3,"audio_url":null,"verse_key":"78:1","verse_id":5673,"location":"78:1:3","text_uthmani":"١","qpc_uthmani_hafs":"١","char_type_name":"end","page_number":582,"line_number":3,"text":"١","translation":{"text":"(1)","language_name":"english","language_id":38},"transliteration":{"text":null,"language_name":"english","language_id":38}}]},{"id":5674,"verse_number":2,"verse_key":"78:2","hizb_number":59,"rub_el_hizb_number":233,"ruku_number":520,"manzil_number":7,"sajdah_number":null,"page_number":582,"juz_number":30,"words":[{"id":1691,"position":1,"audio_url":"wbw/078_002_001.mp3","verse_key":"78:2","verse_id":5674,"location":"78:2:1","text_uthmani":"عَنِ","qpc_uthmani_hafs":"عَنِ","char_type_name":"word","page_number":582,"line_number":3,"text":"عَنِ","translation":{"text":"About","language_name":"english","language_id":38},"transliteration":{"text":"ʿani","language_name":"english","language_id":38}},{"id":1692,"position":2,"audio_url":"wbw/078_002_002.mp3","verse_key":"78:2","verse_id":5674,"location":"78:2:2","text_uthmani":"ٱلنَّبَإِ","qpc_uthmani_hafs":"ٱلنَّبَإِ","char_type_name":"word","page_number":582,"line_number":3,"text":"ٱلنَّبَإِ","translation":{"text":"the News","language_name":"english","language_id":38},"transliteration":{"text":"l-naba-i","language_name":"english","language_id":38}},{"id":1693,"position":3,"audio_url":"wbw/078_002_003.mp3","verse_key":"78:2","verse_id":5674,"location":"78:2:3","text_uthmani":"ٱلْعَظِيمِ","qpc_uthmani_hafs":"ٱلۡعَظِيمِ","char_type_name":"word","page_number":582,"line_number":3,"text":"ٱلۡعَظِيمِ","translation":{"text":"the Great","language_name":"english","language_id":38},"transliteration":{"text":"l-ʿaẓīmi","language_name":"english","language_id":38}},{"id":1694,"position":4,"audio_url":null,"verse_key":"78:2","verse_id":5674,"location":"78:2:4","text_uthmani":"٢","qpc_uthmani_hafs":"٢","char_type_name":"end","page_number":582,"line_number":3,"text":"٢","translation":{"text":"(2)","language_name":"english","language_id":38},"transliteration":{"text":null,"language_name":"english","language_id":38}}]},{"id":5675,"verse_number":3,"verse_key":"78:3","hizb_number":59,"rub_el_hizb_number":233,"ruku_number":520,"manzil_number":7,"sajdah_number":null,"page_number":582,"juz_number":30,"words":[{"id":2799,"position":1,"audio_url":"wbw/078_003_001.mp3","verse_key":"78:3","verse_id":5675,"location":"78:3:1","text_uthmani":"ٱلَّذِى","qpc_uthmani_hafs":"ٱلَّذِي","char_type_name":"word","page_number":582,"line_number":3,"text":"ٱلَّذِي","translation":{"text":"(About) which","language_name":"english","language_id":38},"transliteration":{"text":"alladhī","language_name":"english","language_id":38}},{"id":2800,"position":2,"audio_url":"wbw/078_003_002.mp3","verse_key":"78:3","verse_id":5675,"location":"78:3:2","text_uthmani":"هُمْ","qpc_uthmani_hafs":"هُمۡ","char_type_name":"word","page_number":582,"line_number":3,"text":"هُمۡ","translation":{"text":"they","language_name":"english","language_id":38},"transliteration":{"text":"hum","language_name":"english","language_id":38}},{"id":2801,"position":3,"audio_url":"wbw/078_003_003.mp3","verse_key":"78:3","verse_id":5675,"location":"78:3:3","text_uthmani":"فِيهِ","qpc_uthmani_hafs":"فِيهِ","char_type_name":"word","page_number":582,"line_number":3,"text":"فِيهِ","translation":{"text":"(are) concerning it","language_name":"english","language_id":38},"transliteration":{"text":"fīhi","language_name":"english","language_id":38}},{"id":2802,"position":4,"audio_url":"wbw/078_003_004.mp3","verse_key":"78:3","verse_id":5675,"location":"78:3:4","text_uthmani":"مُخْتَلِفُونَ","qpc_uthmani_hafs":"مُخۡتَلِفُونَ","char_type_name":"word","page_number":582,"line_number":3,"text":"مُخۡتَلِفُونَ","translation":{"text":"(in) disagreement","language_name":"english","language_id":38},"transliteration":{"text":"mukh'talifūna","language_name":"english","language_id":38}},{"id":2803,"position":5,"audio_url":null,"verse_key":"78:3","verse_id":5675,"location":"78:3:5","text_uthmani":"٣","qpc_uthmani_hafs":"٣","char_type_name":"end","page_number":582,"line_number":3,"text":"٣","translation":{"text":"(3)","language_name":"english","language_id":38},"transliteration":{"text":null,"language_name":"english","language_id":38}}]},{"id":5676,"verse_number":4,"verse_key":"78:4","hizb_number":59,"rub_el_hizb_number":233,"ruku_number":520,"manzil_number":7,"sajdah_number":null,"page_number":582,"juz_number":30,"words":[{"id":4175,"position":1,"audio_url":"wbw/078_004_001.mp3","verse_key":"78:4","verse_id":5676,"location":"78:4:1","text_uthmani":"كَلَّا","qpc_uthmani_hafs":"كـَلَّا","char_type_name":"word","page_number":582,"line_number":4,"text":"كـَلَّا","translation":{"text":"Nay","language_name":"english","language_id":38},"transliteration":{"text":"kallā","language_name":"english","language_id":38}},{"id":4176,"position":2,"audio_url":"wbw/078_004_002.mp3","verse_key":"78:4","verse_id":5676,"location":"78:4:2","text_uthmani":"سَيَعْلَمُونَ","qpc_uthmani_hafs":"سَيَعۡلَمُونَ","char_type_name":"word","page_number":582,"line_number":4,"text":"سَيَعۡلَمُونَ","translation":{"text":"(soon) they will know","language_name":"english","language_id":38},"transliteration":{"text":"sayaʿlamūna","language_name":"english","language_id":38}},{"id":4177,"position":3,"audio_url":null,"verse_key":"78:4","verse_id":5676,"location":"78:4:3","text_uthmani":"٤","qpc_uthmani_hafs":"٤","char_type_name":"end","page_number":582,"line_number":4,"text":"٤","translation":{"text":"(4)","language_name":"english","language_id":38},"transliteration":{"text":null,"language_name":"english","language_id":38}}]},{"id":5677,"verse_number":5,"verse_key":"78:5","hizb_number":59,"rub_el_hizb_number":233,"ruku_number":520,"manzil_number":7,"sajdah_number":null,"page_number":582,"juz_number":30,"words":[{"id":5448,"position":1,"audio_url":"wbw/078_005_001.mp3","verse_key":"78:5","verse_id":5677,"location":"78:5:1","text_uthmani":"ثُمَّ","qpc_uthmani_hafs":"ثُمَّ","char_type_name":"word","page_number":582,"line_number":4,"text":"ثُمَّ","translation":{"text":"Then","language_name":"english","language_id":38},"transliteration":{"text":"thumma","language_name":"english","language_id":38}},{"id":5449,"position":2,"audio_url":"wbw/078_005_002.mp3","verse_key":"78:5","verse_id":5677,"location":"78:5:2","text_uthmani":"كَلَّا","qpc_uthmani_hafs":"كـَلَّا","char_type_name":"word","page_number":582,"line_number":4,"text":"كـَلَّا","translation":{"text":"Nay","language_name":"english","language_id":38},"transliteration":{"text":"kallā","language_name":"english","language_id":38}},{"id":5450,"position":3,"audio_url":"wbw/078_005_003.mp3","verse_key":"78:5","verse_id":5677,"location":"78:5:3","text_uthmani":"سَيَعْلَمُونَ","qpc_uthmani_hafs":"سَيَعۡلَمُونَ","char_type_name":"word","page_number":582,"line_number":4,"text":"سَيَعۡلَمُونَ","translation":{"text":"(soon) they will know","language_name":"english","language_id":38},"transliteration":{"text":"sayaʿlamūna","language_name":"english","language_id":38}},{"id":5451,"position":4,"audio_url":null,"verse_key":"78:5","verse_id":5677,"location":"78:5:4","text_uthmani":"٥","qpc_uthmani_hafs":"٥","char_type_name":"end","page_number":582,"line_number":4,"text":"٥","translation":{"text":"(5)","language_name":"english","language_id":38},"transliteration":{"text":null,"language_name":"english","language_id":38}}]},{"id":5678,"verse_number":6,"verse_key":"78:6","hizb_number":59,"rub_el_hizb_number":233,"ruku_number":520,"manzil_number":7,"sajdah_number":null,"page_number":582,"juz_number":30,"words":[{"id":6671,"position":1,"audio_url":"wbw/078_006_001.mp3","verse_key":"78:6","verse_id":5678,"location":"78:6:1","text_uthmani":"أَلَمْ","qpc_uthmani_hafs":"أَلَمۡ","char_type_name":"word","page_number":582,"line_number":4,"text":"أَلَمۡ","translation":{"text":"Have not","language_name":"english","language_id":38},"transliteration":{"text":"alam","language_name":"english","language_id":38}},{"id":6672,"position":2,"audio_url":"wbw/078_006_002.mp3","verse_key":"78:6","verse_id":5678,"location":"78:6:2","text_uthmani":"نَجْعَلِ","qpc_uthmani_hafs":"نَجۡعَلِ","char_type_name":"word","page_number":582,"line_number":4,"text":"نَجۡعَلِ","translation":{"text":"We made","language_name":"english","language_id":38},"transliteration":{"text":"najʿali","language_name":"english","language_id":38}},{"id":6673,"position":3,"audio_url":"wbw/078_006_003.mp3","verse_key":"78:6","verse_id":5678,"location":"78:6:3","text_uthmani":"ٱلْأَرْضَ","qpc_uthmani_hafs":"ٱلۡأَرۡضَ","char_type_name":"word","page_number":582,"line_number":4,"text":"ٱلۡأَرۡضَ","translation":{"text":"the earth","language_name":"english","language_id":38},"transliteration":{"text":"l-arḍa","language_name":"english","language_id":38}},{"id":6674,"position":4,"audio_url":"wbw/078_006_004.mp3","verse_key":"78:6","verse_id":5678,"location":"78:6:4","text_uthmani":"مِهَـٰدًۭا","qpc_uthmani_hafs":"مِهَٰدٗا","char_type_name":"word","page_number":582,"line_number":4,"text":"مِهَٰدٗا","translation":{"text":"a resting place","language_name":"english","language_id":38},"transliteration":{"text":"mihādan","language_name":"english","language_id":38}},{"id":6675,"position":5,"audio_url":null,"verse_key":"78:6","verse_id":5678,"location":"78:6:5","text_uthmani":"٦","qpc_uthmani_hafs":"٦","char_type_name":"end","page_number":582,"line_number":4,"text":"٦","translation":{"text":"(6)","language_name":"english","language_id":38},"transliteration":{"text":null,"language_name":"english","language_id":38}}]},{"id":5679,"verse_number":7,"verse_key":"78:7","hizb_number":59,"rub_el_hizb_number":233,"ruku_number":520,"manzil_number":7,"sajdah_number":null,"page_number":582,"juz_number":30,"words":[{"id":8023,"position":1,"audio_url":"wbw/078_007_001.mp3","verse_key":"78:7","verse_id":5679,"location":"78:7:1","text_uthmani":"وَٱلْجِبَالَ","qpc_uthmani_hafs":"وَٱلۡجِبَالَ","char_type_name":"word","page_number":582,"line_number":5,"text":"وَٱلۡجِبَالَ","translation":{"text":"And the mountains","language_name":"english","language_id":38},"transliteration":{"text":"wal-jibāla","language_name":"english","language_id":38}},{"id":8024,"position":2,"audio_url":"wbw/078_007_002.mp3","verse_key":"78:7","verse_id":5679,"location":"78:7:2","text_uthmani":"أَوْتَادًۭا","qpc_uthmani_hafs":"أَوۡتَادٗا","char_type_name":"word","page_number":582,"line_number":5,"text":"أَوۡتَادٗا","translation":{"text":"(as) pegs","language_name":"english","language_id":38},"transliteration":{"text":"awtādan","language_name":"english","language_id":38}},{"id":8025,"position":3,"audio_url":null,"verse_key":"78:7","verse_id":5679,"location":"78:7:3","text_uthmani":"٧","qpc_uthmani_hafs":"٧","char_type_name":"end","page_number":582,"line_number":5,"text":"٧","translation":{"text":"(7)","language_name":"english","language_id":38},"transliteration":{"text":null,"language_name":"english","language_id":38}}]},{"id":5680,"verse_number":8,"verse_key":"78:8","hizb_number":59,"rub_el_hizb_number":233,"ruku_number":520,"manzil_number":7,"sajdah_number":null,"page_number":582,"juz_number":30,"words":[{"id":9186,"position":1,"audio_url":"wbw/078_008_001.mp3","verse_key":"78:8","verse_id":5680,"location":"78:8:1","text_uthmani":"وَخَلَقْنَـٰكُمْ","qpc_uthmani_hafs":"وَخَلَقۡنَٰكُمۡ","char_type_name":"word","page_number":582,"line_number":5,"text":"وَخَلَقۡنَٰكُمۡ","translation":{"text":"And We created you","language_name":"english","language_id":38},"transliteration":{"text":"wakhalaqnākum","language_name":"english","language_id":38}},{"id":9187,"position":2,"audio_url":"wbw/078_008_002.mp3","verse_key":"78:8","verse_id":5680,"location":"78:8:2","text_uthmani":"أَزْوَٰجًۭا","qpc_uthmani_hafs":"أَزۡوَٰجٗا","char_type_name":"word","page_number":582,"line_number":5,"text":"أَزۡوَٰجٗا","translation":{"text":"(in) pairs","language_name":"english","language_id":38},"transliteration":{"text":"azwājan","language_name":"english","language_id":38}},{"id":9188,"position":3,"audio_url":null,"verse_key":"78:8","verse_id":5680,"location":"78:8:3","text_uthmani":"٨","qpc_uthmani_hafs":"٨","char_type_name":"end","page_number":582,"line_number":5,"text":"٨","translation":{"text":"(8)","language_name":"english","language_id":38},"transliteration":{"text":null,"language_name":"english","language_id":38}}]},{"id":5681,"verse_number":9,"verse_key":"78:9","hizb_number":59,"rub_el_hizb_number":233,"ruku_number":520,"manzil_number":7,"sajdah_number":null,"page_number":582,"juz_number":30,"words":[{"id":10397,"position":1,"audio_url":"wbw/078_009_001.mp3","verse_key":"78:9","verse_id":5681,"location":"78:9:1","text_uthmani":"وَجَعَلْنَا","qpc_uthmani_hafs":"وَجَعَلۡنَا","char_type_name":"word","page_number":582,"line_number":5,"text":"وَجَعَلۡنَا","translation":{"text":"And We made","language_name":"english","language_id":38},"transliteration":{"text":"wajaʿalnā","language_name":"english","language_id":38}},{"id":10398,"position":2,"audio_url":"wbw/078_009_002.mp3","verse_key":"78:9","verse_id":5681,"location":"78:9:2","text_uthmani":"نَوْمَكُمْ","qpc_uthmani_hafs":"نَوۡمَكُمۡ","char_type_name":"word","page_number":582,"line_number":5,"text":"نَوۡمَكُمۡ","translation":{"text":"your sleep","language_name":"english","language_id":38},"transliteration":{"text":"nawmakum","language_name":"english","language_id":38}},{"id":10399,"position":3,"audio_url":"wbw/078_009_003.mp3","verse_key":"78:9","verse_id":5681,"location":"78:9:3","text_uthmani":"سُبَاتًۭا","qpc_uthmani_hafs":"سُبَاتٗا","char_type_name":"word","page_number":582,"line_number":5,"text":"سُبَاتٗا","translation":{"text":"(for) rest","language_name":"english","language_id":38},"transliteration":{"text":"subātan","language_name":"english","language_id":38}},{"id":10400,"position":4,"audio_url":null,"verse_key":"78:9","verse_id":5681,"location":"78:9:4","text_uthmani":"٩","qpc_uthmani_hafs":"٩","char_type_name":"end","page_number":582,"line_number":6,"text":"٩","translation":{"text":"(9)","language_name":"english","language_id":38},"transliteration":{"text":null,"language_name":"english","language_id":38}}]},{"id":5682,"verse_number":10,"verse_key":"78:10","hizb_number":59,"rub_el_hizb_number":233,"ruku_number":520,"manzil_number":7,"sajdah_number":null,"page_number":582,"juz_number":30,"words":[{"id":11624,"position":1,"audio_url":"wbw/078_010_001.mp3","verse_key":"78:10","verse_id":5682,"location":"78:10:1","text_uthmani":"وَجَعَلْنَا","qpc_uthmani_hafs":"وَجَعَلۡنَا","char_type_name":"word","page_number":582,"line_number":6,"text":"وَجَعَلۡنَا","translation":{"text":"And We made","language_name":"english","language_id":38},"transliteration":{"text":"wajaʿalnā","language_name":"english","language_id":38}},{"id":11625,"position":2,"audio_url":"wbw/078_010_002.mp3","verse_key":"78:10","verse_id":5682,"location":"78:10:2","text_uthmani":"ٱلَّيْلَ","qpc_uthmani_hafs":"ٱلَّيۡلَ","char_type_name":"word","page_number":582,"line_number":6,"text":"ٱلَّيۡلَ","translation":{"text":"the night","language_name":"english","language_id":38},"transliteration":{"text":"al-layla","language_name":"english","language_id":38}},{"id":11626,"position":3,"audio_url":"wbw/078_010_003.mp3","verse_key":"78:10","verse_id":5682,"location":"78:10:3","text_uthmani":"لِبَاسًۭا","qpc_uthmani_hafs":"لِبَاسٗا","char_type_name":"word","page_number":582,"line_number":6,"text":"لِبَاسٗا","translation":{"text":"(as) covering","language_name":"english","language_id":38},"transliteration":{"text":"libāsan","language_name":"english","language_id":38}},{"id":11627,"position":4,"audio_url":null,"verse_key":"78:10","verse_id":5682,"location":"78:10:4","text_uthmani":"١٠","qpc_uthmani_hafs":"١٠","char_type_name":"end","page_number":582,"line_number":6,"text":"١٠","translation":{"text":"(10)","language_name":"english","language_id":38},"transliteration":{"text":null,"language_name":"english","language_id":38}}]}],"pagination":{"per_page":10,"current_page":1,"next_page":2,"total_pages":4,"total_records":40}}
