{"verses":[{"id":5683,"verse_number":11,"verse_key":"78:11","hizb_number":59,"rub_el_hizb_number":233,"ruku_number":520,"manzil_number":7,"sajdah_number":null,"page_number":582,"juz_number":30,"words":[{"id":12975,"position":1,"audio_url":"wbw/078_011_001.mp3","verse_key":"78:11","verse_id":5683,"location":"78:11:1","text_uthmani":"وَجَعَلْنَا","qpc_uthmani_hafs":"وَجَعَلۡنَا","char_type_name":"word","page_number":582,"line_number":6,"text":"وَجَعَلۡنَا","translation":{"text":"And We made","language_name":"english","language_id":38},"transliteration":{"text":"wajaʿalnā","language_name":"english","language_id":38}},{"id":12976,"position":2,"audio_url":"wbw/078_011_002.mp3","verse_key":"78:11","verse_id":5683,"location":"78:11:2","text_uthmani":"ٱلنَّهَارَ","qpc_uthmani_hafs":"ٱلنَّهَارَ","char_type_name":"word","page_number":582,"line_number":6,"text":"ٱلنَّهَارَ","translation":{"text":"the day","language_name":"english","language_id":38},"transliteration":{"text":"l-nahāra","language_name":"english","language_id":38}},{"id":12977,"position":3,"audio_url":"wbw/078_011_003.mp3","verse_key":"78:11","verse_id":5683,"location":"78:11:3","text_uthmani":"مَعَاشًۭا","qpc_uthmani_hafs":"مَعَاشٗا","char_type_name":"word","page_number":582,"line_number":6,"text":"مَعَاشٗا","translation":{"text":"(for) livelihood","language_name":"english","language_id":38},"transliteration":{"text":"maʿāshan","language_name":"english","language_id":38}},{"id":12978,"position":4,"audio_url":null,"verse_key":"78:11","verse_id":5683,"location":"78:11:4","text_uthmani":"١١","qpc_uthmani_hafs":"١١","char_type_name":"end","page_number":582,"line_number":6,"text":"١١","translation":{"text":"(11)","language_name":"english","language_id":38},"transliteration":{"text":null,"language_name":"english","language_id":38}}]},{"id":5684,"verse_number":12,"verse_key":"78:12","hizb_number":59,"rub_el_hizb_number":233,"ruku_number":520,"manzil_number":7,"sajdah_number":null,"page_number":582,"juz_number":30,"words":[{"id":14242,"position":1,"audio_url":"wbw/078_012_001.mp3","verse_key":"78:12","verse_id":5684,"location":"78:12:1","text_uthmani":"وَبَنَيْنَا","qpc_uthmani_hafs":"وَبَنَيۡنَا","char_type_name":"word","page_number":582,"line_number":6,"text":"وَبَنَيۡنَا","translation":{"text":"And We constructed","language_name":"english","language_id":38},"transliteration":{"text":"wabanaynā","language_name":"english","language_id":38}},{"id":14243,"position":2,"audio_url":"wbw/078_012_002.mp3","verse_key":"78:12","verse_id":5684,"location":"78:12:2","text_uthmani":"فَوْقَكُمْ","qpc_uthmani_hafs":"فَوۡقَكُمۡ","char_type_name":"word","page_number":582,"line_number":7,"text":"فَوۡقَكُمۡ","translation":{"text":"over you","language_name":"english","language_id":38},"transliteration":{"text":"fawqakum","language_name":"english","language_id":38}},{"id":14244,"position":3,"audio_url":"wbw/078_012_003.mp3","verse_key":"78:12","verse_id":5684,"location":"78:12:3","text_uthmani":"سَبْعًۭا","qpc_uthmani_hafs":"سَبۡعٗا","char_type_name":"word","page_number":582,"line_number":7,"text":"سَبۡعٗا","translation":{"text":"seven","language_name":"english","language_id":38},"transliteration":{"text":"sabʿan","language_name":"english","language_id":38}},{"id":14245,"position":4,"audio_url":"wbw/078_012_004.mp3","verse_key":"78:12","verse_id":5684,"location":"78:12:4","text_uthmani":"شِدَادًۭا","qpc_uthmani_hafs":"شِدَادٗا","char_type_name":"word","page_number":582,"line_number":7,"text":"شِدَادٗا","translation":{"text":"strong","language_name":"english","language_id":38},"transliteration":{"text":"shidādan","language_name":"english","language_id":38}},{"id":14246,"position":5,"audio_url":null,"verse_key":"78:12","verse_id":5684,"location":"78:12:5","text_uthmani":"١٢","qpc_uthmani_hafs":"١٢","char_type_name":"end","page_number":582,"line_number":7,"text":"١٢","translation":{"text":"(12)","language_name":"english","language_id":38},"transliteration":{"text":null,"language_name":"english","language_id":38}}]},{"id":5685,"verse_number":13,"verse_key":"78:13","hizb_number":59,"rub_el_hizb_number":233,"ruku_number":520,"manzil_number":7,"sajdah_number":null,"page_number":582,"juz_number":30,"words":[{"id":14934,"position":1,"audio_url":"wbw/078_013_001.mp3","verse_key":"78:13","verse_id":5685,"location":"78:13:1","text_uthmani":"وَجَعَلْنَا","qpc_uthmani_hafs":"وَجَعَلۡنَا","char_type_name":"word","page_number":582,"line_number":7,"text":"وَجَعَلۡنَا","translation":{"text":"And We placed","language_name":"english","language_id":38},"transliteration":{"text":"wajaʿalnā","language_name":"english","language_id":38}},{"id":14935,"position":2,"audio_url":"wbw/078_013_002.mp3","verse_key":"78:13","verse_id":5685,"location":"78:13:2","text_uthmani":"سِرَاجًۭا","qpc_uthmani_hafs":"سِرَاجٗا","char_type_name":"word","page_number":582,"line_number":7,"text":"سِرَاجٗا","translation":{"text":"a lamp","language_name":"english","language_id":38},"transliteration":{"text":"sirājan","language_name":"english","language_id":38}},{"id":14936,"position":3,"audio_url":"wbw/078_013_003.mp3","verse_key":"78:13","verse_id":5685,"location":"78:13:3","text_uthmani":"وَهَّاجًۭا","qpc_uthmani_hafs":"وَهَّاجٗا","char_type_name":"word","page_number":582,"line_number":7,"text":"وَهَّاجٗا","translation":{"text":"burning","language_name":"english","language_id":38},"transliteration":{"text":"wahhājan","language_name":"english","language_id":38}},{"id":14937,"position":4,"audio_url":null,"verse_key":"78:13","verse_id":5685,"location":"78:13:4","text_uthmani":"١٣","qpc_uthmani_hafs":"١٣","char_type_name":"end","page_number":582,"line_number":7,"text":"١٣","translation":{"text":"(13)","language_name":"english","language_id":38},"transliteration":{"text":null,"language_name":"english","language_id":38}}]},{"id":5686,"verse_number":14,"verse_key":"78:14","hizb_number":59,"rub_el_hizb_number":233,"ruku_number":520,"manzil_number":7,"sajdah_number":null,"page_number":582,"juz_number":30,"words":[{"id":16417,"position":1,"audio_url":"wbw/078_014_001.mp3","verse_key":"78:14","verse_id":5686,"location":"78:14:1","text_uthmani":"وَأَنزَلْنَا","qpc_uthmani_hafs":"وَأَنزَلۡنَا","char_type_name":"word","page_number":582,"line_number":7,"text":"وَأَنزَلۡنَا","translation":{"text":"And We sent down","language_name":"english","language_id":38},"transliteration":{"text":"wa-anzalnā","language_name":"english","language_id":38}},{"id":16418,"position":2,"audio_url":"wbw/078_014_002.mp3","verse_key":"78:14","verse_id":5686,"location":"78:14:2","text_uthmani":"مِنَ","qpc_uthmani_hafs":"مِنَ","char_type_name":"word","page_number":582,"line_number":7,"text":"مِنَ","translation":{"text":"from","language_name":"english","language_id":38},"transliteration":{"text":"mina","language_name":"english","language_id":38}},{"id":16419,"position":3,"audio_url":"wbw/078_014_003.mp3","verse_key":"78:14","verse_id":5686,"location":"78:14:3","text_uthmani":"ٱلْمُعْصِرَٰتِ","qpc_uthmani_hafs":"ٱلۡمُعۡصِرَٰتِ","char_type_name":"word","page_number":582,"line_number":8,"text":"ٱلۡمُعۡصِرَٰتِ","translation":{"text":"the rain clouds","language_name":"english","language_id":38},"transliteration":{"text":"l-muʿ'ṣirāti","language_name":"english","language_id":38}},{"id":16420,"position":4,"audio_url":"wbw/078_014_004.mp3","verse_key":"78:14","verse_id":5686,"location":"78:14:4","text_uthmani":"مَآءًۭ","qpc_uthmani_hafs":"مَآءٗ","char_type_name":"word","page_number":582,"line_number":8,"text":"مَآءٗ","translation":{"text":"water","language_name":"english","language_id":38},"transliteration":{"text":"māan","language_name":"english","language_id":38}},{"id":16421,"position":5,"audio_url":"wbw/078_014_005.mp3","verse_key":"78:14","verse_id":5686,"location":"78:14:5","text_uthmani":"ثَجَّاجًۭا","qpc_uthmani_hafs":"ثَجَّاجٗا","char_type_name":"word","page_number":582,"line_number":8,"text":"ثَجَّاجٗا","translation":{"text":"pouring abundantly","language_name":"english","language_id":38},"transliteration":{"text":"thajjājan","language_name":"english","language_id":38}},{"id":16422,"position":6,"audio_url":null,"verse_key":"78:14","verse_id":5686,"location":"78:14:6","text_uthmani":"١٤","qpc_uthmani_hafs":"١٤","char_type_name":"end","page_number":582,"line_number":8,"text":"١٤","translation":{"text":"(14)","language_name":"english","language_id":38},"transliteration":{"text":null,"language_name":"english","language_id":38}}]},{"id":5687,"verse_number":15,"verse_key":"78:15","hizb_number":59,"rub_el_hizb_number":233,"ruku_number":520,"manzil_number":7,"sajdah_number":null,"page_number":582,"juz_number":30,"words":[{"id":17571,"position":1,"audio_url":"wbw/078_015_001.mp3","verse_key":"78:15","verse_id":5687,"location":"78:15:1","text_uthmani":"لِّنُخْرِجَ","qpc_uthmani_hafs":"لِّنُخۡرِجَ","char_type_name":"word","page_number":582,"line_number":8,"text":"لِّنُخۡرِجَ","translation":{"text":"That We may bring forth","language_name":"english","language_id":38},"transliteration":{"text":"linukh'rija","language_name":"english","language_id":38}},{"id":17572,"position":2,"audio_url":"wbw/078_015_002.mp3","verse_key":"78:15","verse_id":5687,"location":"78:15:2","text_uthmani":"بِهِۦ","qpc_uthmani_hafs":"بِهِۦ","char_type_name":"word","page_number":582,"line_number":8,"text":"بِهِۦ","translation":{"text":"thereby","language_name":"english","language_id":38},"transliteration":{"text":"bihi","language_name":"english","language_id":38}},{"id":17573,"position":3,"audio_url":"wbw/078_015_003.mp3","verse_key":"78:15","verse_id":5687,"location":"78:15:3","text_uthmani":"حَبًّۭا","qpc_uthmani_hafs":"حَبّٗا","char_type_name":"word","page_number":582,"line_number":8,"text":"حَبّٗا","translation":{"text":"grain","language_name":"english","language_id":38},"transliteration":{"text":"ḥabban","language_name":"english","language_id":38}},{"id":17574,"position":4,"audio_url":"wbw/078_015_004.mp3","verse_key":"78:15","verse_id":5687,"location":"78:15:4","text_uthmani":"وَنَبَاتًۭا","qpc_uthmani_hafs":"وَنَبَاتٗا","char_type_name":"word","page_number":582,"line_number":8,"text":"وَنَبَاتٗا","translation":{"text":"and vegetation","language_name":"english","language_id":38},"transliteration":{"text":"wanabātan","language_name":"english","language_id":38}},{"id":17575,"position":5,"audio_url":null,"verse_key":"78:15","verse_id":5687,"location":"78:15:5","text_uthmani":"١٥","qpc_uthmani_hafs":"١٥","char_type_name":"end","page_number":582,"line_number":8,"text":"١٥","translation":{"text":"(15)","language_name":"english","language_id":38},"transliteration":{"text":null,"language_name":"english","language_id":38}}]},{"id":5688,"verse_number":16,"verse_key":"78:16","hizb_number":59,"rub_el_hizb_number":233,"ruku_number":520,"manzil_number":7,"sajdah_number":null,"page_number":582,"juz_number":30,"words":[{"id":18606,"position":1,"audio_url":"wbw/078_016_001.mp3","verse_key":"78:16","verse_id":5688,"location":"78:16:1","text_uthmani":"وَجَنَّـٰتٍ","qpc_uthmani_hafs":"وَجَنَّٰتٍ","char_type_name":"word","page_number":582,"line_number":8,"text":"وَجَنَّٰتٍ","translation":{"text":"And gardens","language_name":"english","language_id":38},"transliteration":{"text":"wajannātin","language_name":"english","language_id":38}},{"id":18607,"position":2,"audio_url":"wbw/078_016_002.mp3","verse_key":"78:16","verse_id":5688,"location":"78:16:2","text_uthmani":"أَلْفَافًا","qpc_uthmani_hafs":"أَلۡفَافًا","char_type_name":"word","page_number":582,"line_number":9,"text":"أَلۡفَافًا","translation":{"text":"(of) thick foliage","language_name":"english","language_id":38},"transliteration":{"text":"alfāfan","language_name":"english","language_id":38}},{"id":18608,"position":3,"audio_url":null,"verse_key":"78:16","verse_id":5688,"location":"78:16:3","text_uthmani":"١٦","qpc_uthmani_hafs":"١٦","char_type_name":"end","page_number":582,"line_number":9,"text":"١٦","translation":{"text":"(16)","language_name":"english","language_id":38},"transliteration":{"text":null,"language_name":"english","language_id":38}}]},{"id":5689,"verse_number":17,"verse_key":"78:17","hizb_number":59,"rub_el_hizb_number":233,"ruku_number":520,"manzil_number":7,"sajdah_number":null,"page_number":582,"juz_number":30,"words":[{"id":19597,"position":1,"audio_url":"wbw/078_017_001.mp3","verse_key":"78:17","verse_id":5689,"location":"78:17:1","text_uthmani":"إِنَّ","qpc_uthmani_hafs":"إِنَّ","char_type_name":"word","page_number":582,"line_number":9,"text":"إِنَّ","translation":{"text":"Indeed","language_name":"english","language_id":38},"transliteration":{"text":"inna","language_name":"english","language_id":38}},{"id":19598,"position":2,"audio_url":"wbw/078_017_002.mp3","verse_key":"78:17","verse_id":5689,"location":"78:17:2","text_uthmani":"يَوْمَ","qpc_uthmani_hafs":"يَوۡمَ","char_type_name":"word","page_number":582,"line_number":9,"text":"يَوۡمَ","translation":{"text":"(the) Day","language_name":"english","language_id":38},"transliteration":{"text":"yawma","language_name":"english","language_id":38}},{"id":19599,"position":3,"audio_url":"wbw/078_017_003.mp3","verse_key":"78:17","verse_id":5689,"location":"78:17:3","text_uthmani":"ٱلْفَصْلِ","qpc_uthmani_hafs":"ٱلۡفَصۡلِ","char_type_name":"word","page_number":582,"line_number":9,"text":"ٱلۡفَصۡلِ","translation":{"text":"(of) the Judgment","language_name":"english","language_id":38},"transliteration":{"text":"l-faṣli","language_name":"english","language_id":38}},{"id":19600,"position":4,"audio_url":"wbw/078_017_004.mp3","verse_key":"78:17","verse_id":5689,"location":"78:17:4","text_uthmani":"كَانَ","qpc_uthmani_hafs":"كَانَ","char_type_name":"word","page_number":582,"line_number":9,"text":"كَانَ","translation":{"text":"is","language_name":"english","language_id":38},"transliteration":{"text":"kāna","language_name":"english","language_id":38}},{"id":19601,"position":5,"audio_url":"wbw/078_017_005.mp3","verse_key":"78:17","verse_id":5689,"location":"78:17:5","text_uthmani":"مِيقَـٰتًۭا","qpc_uthmani_hafs":"مِيقَٰتٗا","char_type_name":"word","page_number":582,"line_number":9,"text":"مِيقَٰتٗا","translation":{"text":"an appointed time","language_name":"english","language_id":38},"transliteration":{"text":"mīqātan","language_name":"english","language_id":38}},{"id":19602,"position":6,"audio_url":null,"verse_key":"78:17","verse_id":5689,"location":"78:17:6","text_uthmani":"١٧","qpc_uthmani_hafs":"١٧","char_type_name":"end","page_number":582,"line_number":9,"text":"١٧","translation":{"text":"(17)","language_name":"english","language_id":38},"transliteration":{"text":null,"language_name":"english","language_id":38}}]},{"id":5690,"verse_number":18,"verse_key":"78:18","hizb_number":59,"rub_el_hizb_number":233,"ruku_number":520,"manzil_number":7,"sajdah_number":null,"page_number":582,"juz_number":30,"words":[{"id":20738,"position":1,"audio_url":"wbw/078_018_001.mp3","verse_key":"78:18","verse_id":5690,"location":"78:18:1","text_uthmani":"يَوْمَ","qpc_uthmani_hafs":"يَوۡمَ","char_type_name":"word","page_number":582,"line_number":9,"text":"يَوۡمَ","translation":{"text":"(The) Day","language_name":"english","language_id":38},"transliteration":{"text":"yawma","language_name":"english","language_id":38}},{"id":20739,"position":2,"audio_url":"wbw/078_018_002.mp3","verse_key":"78:18","verse_id":5690,"location":"78:18:2","text_uthmani":"يُنفَخُ","qpc_uthmani_hafs":"يُنفَخُ","char_type_name":"word","page_number":582,"line_number":9,"text":"يُنفَخُ","translation":{"text":"(in which) shall be blown","language_name":"english","language_id":38},"transliteration":{"text":"yunfakhu","language_name":"english","language_id":38}},{"id":20740,"position":3,"audio_url":"wbw/078_018_003.mp3","verse_key":"78:18","verse_id":5690,"location":"78:18:3","text_uthmani":"فِى","qpc_uthmani_hafs":"فِي","char_type_name":"word","page_number":582,"line_number":9,"text":"فِي","translation":{"text":"in","language_name":"english","language_id":38},"transliteration":{"text":"fī","language_name":"english","language_id":38}},{"id":20741,"position":4,"audio_url":"wbw/078_018_004.mp3","verse_key":"78:18","verse_id":5690,"location":"78:18:4","text_uthmani":"ٱلصُّورِ","qpc_uthmani_hafs":"ٱلصُّورِ","char_type_name":"word","page_number":582,"line_number":9,"text":"ٱلصُّورِ","translation":{"text":"the trumpet","language_name":"english","language_id":38},"transliteration":{"text":"l-ṣūri","language_name":"english","language_id":38}},{"id":20742,"position":5,"audio_url":"wbw/078_018_005.mp3","verse_key":"78:18","verse_id":5690,"location":"78:18:5","text_uthmani":"فَتَأْتُونَ","qpc_uthmani_hafs":"فَتَأۡتُونَ","char_type_name":"word","page_number":582,"line_number":10,"text":"فَتَأۡتُونَ","translation":{"text":"and you will come forth","language_name":"english","language_id":38},"transliteration":{"text":"fatatūna","language_name":"english","language_id":38}},{"id":20743,"position":6,"audio_url":"wbw/078_018_006.mp3","verse_key":"78:18","verse_id":5690,"location":"78:18:6","text_uthmani":"أَفْوَاجًۭا","qpc_uthmani_hafs":"أَفۡوَاجٗا","char_type_name":"word","page_number":582,"line_number":10,"text":"أَفۡوَاجٗا","translation":{"text":"(in) crowds","language_name":"english","language_id":38},"transliteration":{"text":"afwājan","language_name":"english","language_id":38}},{"id":20744,"position":7,"audio_url":null,"verse_key":"78:18","verse_id":5690,"location":"78:18:7","text_uthmani":"١٨","qpc_uthmani_hafs":"١٨","char_type_name":"end","page_number":582,"line_number":10,"text":"١٨","translation":{"text":"(18)","language_name":"english","language_id":38},"transliteration":{"text":null,"language_name":"english","language_id":38}}]},{"id":5691,"verse_number":19,"verse_key":"78:19","hizb_number":59,"rub_el_hizb_number":233,"ruku_number":520,"manzil_number":7,"sajdah_number":null,"page_number":582,"juz_number":30,"words":[{"id":21767,"position":1,"audio_url":"wbw/078_019_001.mp3","verse_key":"78:19","verse_id":5691,"location":"78:19:1","text_uthmani":"وَفُتِحَتِ","qpc_uthmani_hafs":"وَفُتِحَتِ","char_type_name":"word","page_number":582,"line_number":10,"text":"وَفُتِحَتِ","translation":{"text":"And is opened","language_name":"english","language_id":38},"transliteration":{"text":"wafutiḥati","language_name":"english","language_id":38}},{"id":21768,"position":2,"audio_url":"wbw/078_019_002.mp3","verse_key":"78:19","verse_id":5691,"location":"78:19:2","text_uthmani":"ٱلسَّمَآءُ","qpc_uthmani_hafs":"ٱلسَّمَآءُ","char_type_name":"word","page_number":582,"line_number":10,"text":"ٱلسَّمَآءُ","translation":{"text":"the heaven","language_name":"english","language_id":38},"transliteration":{"text":"l-samāu","language_name":"english","language_id":38}},{"id":21769,"position":3,"audio_url":"wbw/078_019_003.mp3","verse_key":"78:19","verse_id":5691,"location":"78:19:3","text_uthmani":"فَكَانَتْ","qpc_uthmani_hafs":"فَكَانَتۡ","char_type_name":"word","page_number":582,"line_number":10,"text":"فَكَانَتۡ","translation":{"text":"and becomes","language_name":"english","language_id":38},"transliteration":{"text":"fakānat","language_name":"english","language_id":38}},{"id":21770,"position":4,"audio_url":"wbw/078_019_004.mp3","verse_key":"78:19","verse_id":5691,"location":"78:19:4","text_uthmani":"أَبْوَٰبًۭا","qpc_uthmani_hafs":"أَبۡوَٰبٗا","char_type_name":"word","page_number":582,"line_number":10,"text":"أَبۡوَٰبٗا","translation":{"text":"gateways","language_name":"english","language_id":38},"transliteration":{"text":"abwāban","language_name":"english","language_id":38}},{"id":21771,"position":5,"audio_url":null,"verse_key":"78:19","verse_id":5691,"location":"78:19:5","text_uthmani":"١٩","qpc_uthmani_hafs":"١٩","char_type_name":"end","page_number":582,"line_number":10,"text":"١٩","translation":{"text":"(19)","language_name":"english","language_id":38},"transliteration":{"text":null,"language_name":"english","language_id":38}}]},{"id":5692,"verse_number":20,"verse_key":"78:20","hizb_number":59,"rub_el_hizb_number":233,"ruku_number":520,"manzil_number":7,"sajdah_number":null,"page_number":582,"juz_number":30,"words":[{"id":22905,"position":1,"audio_url":"wbw/078_020_001.mp3","verse_key":"78:20","verse_id":5692,"location":"78:20:1","text_uthmani":"وَسُيِّرَتِ","qpc_uthmani_hafs":"وَسُيِّرَتِ","char_type_name":"word","page_number":582,"line_number":10,"text":"وَسُيِّرَتِ","translation":{"text":"And are moved","language_name":"english","language_id":38},"transliteration":{"text":"wasuyyirati","language_name":"english","language_id":38}},{"id":22906,"position":2,"audio_url":"wbw/078_020_002.mp3","verse_key":"78:20","verse_id":5692,"location":"78:20:2","text_uthmani":"ٱلْجِبَالُ","qpc_uthmani_hafs":"ٱلۡجِبَالُ","char_type_name":"word","page_number":582,"line_number":11,"text":"ٱلۡجِبَالُ","translation":{"text":"the mountains","language_name":"english","language_id":38},"transliteration":{"text":"l-jibālu","language_name":"english","language_id":38}},{"id":22907,"position":3,"audio_url":"wbw/078_020_003.mp3","verse_key":"78:20","verse_id":5692,"location":"78:20:3","text_uthmani":"فَكَانَتْ","qpc_uthmani_hafs":"فَكَانَتۡ","char_type_name":"word","page_number":582,"line_number":11,"text":"فَكَانَتۡ","translation":{"text":"and become","language_name":"english","language_id":38},"transliteration":{"text":"fakānat","language_name":"english","language_id":38}},{"id":22908,"position":4,"audio_url":"wbw/078_020_004.mp3","verse_key":"78:20","verse_id":5692,"location":"78:20:4","text_uthmani":"سَرَابًا","qpc_uthmani_hafs":"سَرَابًا","char_type_name":"word","page_number":582,"line_number":11,"text":"سَرَابًا","translation":{"text":"a mirage","language_name":"english","language_id":38},"transliteration":{"text":"sarāban","language_name":"english","language_id":38}},{"id":22909,"position":5,"audio_url":null,"verse_key":"78:20","verse_id":5692,"location":"78:20:5","text_uthmani":"٢٠","qpc_uthmani_hafs":"٢٠","char_type_name":"end","page_number":582,"line_number":11,"text":"٢٠","translation":{"text":"(20)","language_name":"english","language_id":38},"transliteration":{"text":null,"language_name":"english","language_id":38}}]}],"pagination":{"per_page":10,"current_page":2,"next_page":3,"total_pages":4,"total_records":40}}
