{"verses":[{"id":5693,"verse_number":21,"verse_key":"78:21","hizb_number":59,"rub_el_hizb_number":233,"ruku_number":520,"manzil_number":7,"sajdah_number":null,"page_number":582,"juz_number":30,"words":[{"id":23638,"position":1,"audio_url":"wbw/078_021_001.mp3","verse_key":"78:21","verse_id":5693,"location":"78:21:1","text_uthmani":"إِنَّ","qpc_uthmani_hafs":"إِنَّ","char_type_name":"word","page_number":582,"line_number":11,"text":"إِنَّ","translation":{"text":"Indeed","language_name":"english","language_id":38},"transliteration":{"text":"inna","language_name":"english","language_id":38}},{"id":23639,"position":2,"audio_url":"wbw/078_021_002.mp3","verse_key":"78:21","verse_id":5693,"location":"78:21:2","text_uthmani":"جَهَنَّمَ","qpc_uthmani_hafs":"جَهَنَّمَ","char_type_name":"word","page_number":582,"line_number":11,"text":"جَهَنَّمَ","translation":{"text":"Hell","language_name":"english","language_id":38},"transliteration":{"text":"jahannama","language_name":"english","language_id":38}},{"id":23640,"position":3,"audio_url":"wbw/078_021_003.mp3","verse_key":"78:21","verse_id":5693,"location":"78:21:3","text_uthmani":"كَانَتْ","qpc_uthmani_hafs":"كَانَتۡ","char_type_name":"word","page_number":582,"line_number":11,"text":"كَانَتۡ","translation":{"text":"is","language_name":"english","language_id":38},"transliteration":{"text":"kānat","language_name":"english","language_id":38}},{"id":23641,"position":4,"audio_url":"wbw/078_021_004.mp3","verse_key":"78:21","verse_id":5693,"location":"78:21:4","text_uthmani":"مِرْصَادًۭا","qpc_uthmani_hafs":"مِرۡصَادٗا","char_type_name":"word","page_number":582,"line_number":11,"text":"مِرۡصَادٗا","translation":{"text":"lying in wait","language_name":"english","language_id":38},"transliteration":{"text":"mir'ṣādan","language_name":"english","language_id":38}},{"id":23642,"position":5,"audio_url":null,"verse_key":"78:21","verse_id":5693,"location":"78:21:5","text_uthmani":"٢١","qpc_uthmani_hafs":"٢١","char_type_name":"end","page_number":582,"line_number":11,"text":"٢١","translation":{"text":"(21)","language_name":"english","language_id":38},"transliteration":{"text":null,"language_name":"english","language_id":38}}]},{"id":5694,"verse_number":22,"verse_key":"78:22","hizb_number":59,"rub_el_hizb_number":233,"ruku_number":520,"manzil_number":7,"sajdah_number":null,"page_number":582,"juz_number":30,"words":[{"id":24973,"position":1,"audio_url":"wbw/078_022_001.mp3","verse_key":"78:22","verse_id":5694,"location":"78:22:1","text_uthmani":"لِّلطَّـٰغِينَ","qpc_uthmani_hafs":"لِّلطَّٰغِينَ","char_type_name":"word","page_number":582,"line_number":11,"text":"لِّلطَّٰغِينَ","translation":{"text":"For the transgressors","language_name":"english","language_id":38},"transliteration":{"text":"lilṭṭāghīna","language_name":"english","language_id":38}},{"id":24974,"position":2,"audio_url":"wbw/078_022_002.mp3","verse_key":"78:22","verse_id":5694,"location":"78:22:2","text_uthmani":"مَـَٔابًۭا","qpc_uthmani_hafs":"مَـَٔابٗا","char_type_name":"word","page_number":582,"line_number":12,"text":"مَـَٔابٗا","translation":{"text":"a place of return","language_name":"english","language_id":38},"transliteration":{"text":"maāban","language_name":"english","language_id":38}},{"id":24975,"position":3,"audio_url":null,"verse_key":"78:22","verse_id":5694,"location":"78:22:3","text_uthmani":"٢٢","qpc_uthmani_hafs":"٢٢","char_type_name":"end","page_number":582,"line_number":12,"text":"٢٢","translation":{"text":"(22)","language_name":"english","language_id":38},"transliteration":{"text":null,"language_name":"english","language_id":38}}]},{"id":5695,"verse_number":23,"verse_key":"78:23","hizb_number":59,"rub_el_hizb_number":233,"ruku_number":520,"manzil_number":7,"sajdah_number":null,"page_number":582,"juz_number":30,"words":[{"id":25605,"position":1,"audio_url":"wbw/078_023_001.mp3","verse_key":"78:23","verse_id":5695,"location":"78:23:1","text_uthmani":"لَّـٰبِثِينَ","qpc_uthmani_hafs":"لَّٰبِثِينَ","char_type_name":"word","page_number":582,"line_number":12,"text":"لَّٰبِثِينَ","translation":{"text":"(They will) be remaining","language_name":"english","language_id":38},"transliteration":{"text":"lābithīna","language_name":"english","language_id":38}},{"id":25606,"position":2,"audio_url":"wbw/078_023_002.mp3","verse_key":"78:23","verse_id":5695,"location":"78:23:2","text_uthmani":"فِيهَآ","qpc_uthmani_hafs":"فِيهَآ","char_type_name":"word","page_number":582,"line_number":12,"text":"فِيهَآ","translation":{"text":"therein","language_name":"english","language_id":38},"transliteration":{"text":"fīhā","language_name":"english","language_id":38}},{"id":25607,"position":3,"audio_url":"wbw/078_023_003.mp3","verse_key":"78:23","verse_id":5695,"location":"78:23:3","text_uthmani":"أَحْقَابًۭا","qpc_uthmani_hafs":"أَحۡقَابٗا","char_type_name":"word","page_number":582,"line_number":12,"text":"أَحۡقَابٗا","translation":{"text":"(for) ages","language_name":"english","language_id":38},"transliteration":{"text":"aḥqāban","language_name":"english","language_id":38}},{"id":25608,"position":4,"audio_url":null,"verse_key":"78:23","verse_id":5695,"location":"78:23:4","text_uthmani":"٢٣","qpc_uthmani_hafs":"٢٣","char_type_name":"end","page_number":582,"line_number":12,"text":"٢٣","translation":{"text":"(23)","language_name":"english","language_id":38},"transliteration":{"text":null,"language_name":"english","language_id":38}}]},{"id":5696,"verse_number":24,"verse_key":"78:24","hizb_number":59,"rub_el_hizb_number":233,"ruku_number":520,"manzil_number":7,"sajdah_number":null,"page_number":582,"juz_number":30,"words":[{"id":27095,"position":1,"audio_url":"wbw/078_024_001.mp3","verse_key":"78:24","verse_id":5696,"location":"78:24:1","text_uthmani":"لَّا","qpc_uthmani_hafs":"لَّا","char_type_name":"word","page_number":582,"line_number":12,"text":"لَّا","translation":{"text":"Not","language_name":"english","language_id":38},"transliteration":{"text":"lā","language_name":"english","language_id":38}},{"id":27096,"position":2,"audio_url":"wbw/078_024_002.mp3","verse_key":"78:24","verse_id":5696,"location":"78:24:2","text_uthmani":"يَذُوقُونَ","qpc_uthmani_hafs":"يَذُوقُونَ","char_type_name":"word","page_number":582,"line_number":12,"text":"يَذُوقُونَ","translation":{"text":"they will taste","language_name":"english","language_id":38},"transliteration":{"text":"yadhūqūna","language_name":"english","language_id":38}},{"id":27097,"position":3,"audio_url":"wbw/078_024_003.mp3","verse_key":"78:24","verse_id":5696,"location":"78:24:3","text_uthmani":"فِيهَا","qpc_uthmani_hafs":"فِيهَا","char_type_name":"word","page_number":582,"line_number":12,"text":"فِيهَا","translation":{"text":"therein","language_name":"english","language_id":38},"transliteration":{"text":"fīhā","language_name":"english","language_id":38}},{"id":27098,"position":4,"audio_url":"wbw/078_024_004.mp3","verse_key":"78:24","verse_id":5696,"location":"78:24:4","text_uthmani":"بَرْدًۭا","qpc_uthmani_hafs":"بَرۡدٗا","char_type_name":"word","page_number":582,"line_number":12,"text":"بَرۡدٗا","translation":{"text":"coolness","language_name":"english","language_id":38},"transliteration":{"text":"bardan","language_name":"english","language_id":38}},{"id":27099,"position":5,"audio_url":"wbw/078_024_005.mp3","verse_key":"78:24","verse_id":5696,"location":"78:24:5","text_uthmani":"وَلَا","qpc_uthmani_hafs":"وَلَا","char_type_name":"word","page_number":582,"line_number":12,"text":"وَلَا","translation":{"text":"and not","language_name":"english","language_id":38},"transliteration":{"text":"walā","language_name":"english","language_id":38}},{"id":27100,"position":6,"audio_url":"wbw/078_024_006.mp3","verse_key":"78:24","verse_id":5696,"location":"78:24:6","text_uthmani":"شَرَابًا","qpc_uthmani_hafs":"شَرَابًا","char_type_name":"word","page_number":582,"line_number":12,"text":"شَرَابًا","translation":{"text":"any drink","language_name":"english","language_id":38},"transliteration":{"text":"sharāban","language_name":"english","language_id":38}},{"id":27101,"position":7,"audio_url":null,"verse_key":"78:24","verse_id":5696,"location":"78:24:7","text_uthmani":"٢٤","qpc_uthmani_hafs":"٢٤","char_type_name":"end","page_number":582,"line_number":13,"text":"٢٤","translation":{"text":"(24)","language_name":"english","language_id":38},"transliteration":{"text":null,"language_name":"english","language_id":38}}]},{"id":5697,"verse_number":25,"verse_key":"78:25","hizb_number":59,"rub_el_hizb_number":233,"ruku_number":520,"manzil_number":7,"sajdah_number":null,"page_number":582,"juz_number":30,"words":[{"id":27701,"position":1,"audio_url":"wbw/078_025_001.mp3","verse_key":"78:25","verse_id":5697,"location":"78:25:1","text_uthmani":"إِلَّا","qpc_uthmani_hafs":"إِلَّا","char_type_name":"word","page_number":582,"line_number":13,"text":"إِلَّا","translation":{"text":"Except","language_name":"english","language_id":38},"transliteration":{"text":"illā","language_name":"english","language_id":38}},{"id":27702,"position":2,"audio_url":"wbw/078_025_002.mp3","verse_key":"78:25","verse_id":5697,"location":"78:25:2","text_uthmani":"حَمِيمًۭا","qpc_uthmani_hafs":"حَمِيمٗا","char_type_name":"word","page_number":582,"line_number":13,"text":"حَمِيمٗا","translation":{"text":"scalding water","language_name":"english","language_id":38},"transliteration":{"text":"ḥamīman","language_name":"english","language_id":38}},{"id":27703,"position":3,"audio_url":"wbw/078_025_003.mp3","verse_key":"78:25","verse_id":5697,"location":"78:25:3","text_uthmani":"وَغَسَّاقًۭا","qpc_uthmani_hafs":"وَغَسَّاقٗا","char_type_name":"word","page_number":582,"line_number":13,"text":"وَغَسَّاقٗا","translation":{"text":"and purulence","language_name":"english","language_id":38},"transliteration":{"text":"waghassāqan","language_name":"english","language_id":38}},{"id":27704,"position":4,"audio_url":null,"verse_key":"78:25","verse_id":5697,"location":"78:25:4","text_uthmani":"٢٥","qpc_uthmani_hafs":"٢٥","char_type_name":"end","page_number":582,"line_number":13,"text":"٢٥","translation":{"text":"(25)","language_name":"english","language_id":38},"transliteration":{"text":null,"language_name":"english","language_id":38}}]},{"id":5698,"verse_number":26,"verse_key":"78:26","hizb_number":59,"rub_el_hizb_number":233,"ruku_number":520,"manzil_number":7,"sajdah_number":null,"page_number":582,"juz_number":30,"words":[{"id":28535,"position":1,"audio_url":"wbw/078_026_001.mp3","verse_key":"78:26","verse_id":5698,"location":"78:26:1","text_uthmani":"جَزَآءًۭ","qpc_uthmani_hafs":"جَزَآءٗ","char_type_name":"word","page_number":582,"line_number":13,"text":"جَزَآءٗ","translation":{"text":"A recompense","language_name":"english","language_id":38},"transliteration":{"text":"jazāan","language_name":"english","language_id":38}},{"id":28536,"position":2,"audio_url":"wbw/078_026_002.mp3","verse_key":"78:26","verse_id":5698,"location":"78:26:2","text_uthmani":"وِفَاقًا","qpc_uthmani_hafs":"وِفَاقًا","char_type_name":"word","page_number":582,"line_number":13,"text":"وِفَاقًا","translation":{"text":"appropriate","language_name":"english","language_id":38},"transliteration":{"text":"wifāqan","language_name":"english","language_id":38}},{"id":28537,"position":3,"audio_url":null,"verse_key":"78:26","verse_id":5698,"location":"78:26:3","text_uthmani":"٢٦","qpc_uthmani_hafs":"٢٦","char_type_name":"end","page_number":582,"line_number":13,"text":"٢٦","translation":{"text":"(26)","language_name":"english","language_id":38},"transliteration":{"text":null,"language_name":"english","language_id":38}}]},{"id":5699,"verse_number":27,"verse_key":"78:27","hizb_number":59,"rub_el_hizb_number":233,"ruku_number":520,"manzil_number":7,"sajdah_number":null,"page_number":582,"juz_number":30,"words":[{"id":29508,"position":1,"audio_url":"wbw/078_027_001.mp3","verse_key":"78:27","verse_id":5699,"location":"78:27:1","text_uthmani":"إِنَّهُمْ","qpc_uthmani_hafs":"إِنَّهُمۡ","char_type_name":"word","page_number":582,"line_number":13,"text":"إِنَّهُمۡ","translation":{"text":"Indeed, they","language_name":"english","language_id":38},"transliteration":{"text":"innahum","language_name":"english","language_id":38}},{"id":29509,"position":2,"audio_url":"wbw/078_027_002.mp3","verse_key":"78:27","verse_id":5699,"location":"78:27:2","text_uthmani":"كَانُوا۟","qpc_uthmani_hafs":"كَانُواْ","char_type_name":"word","page_number":582,"line_number":13,"text":"كَانُواْ","translation":{"text":"were","language_name":"english","language_id":38},"transliteration":{"text":"kānū","language_name":"english","language_id":38}},{"id":29510,"position":3,"audio_url":"wbw/078_027_003.mp3","verse_key":"78:27","verse_id":5699,"location":"78:27:3","text_uthmani":"لَا","qpc_uthmani_hafs":"لَا","char_type_name":"word","page_number":582,"line_number":14,"text":"لَا","translation":{"text":"not","language_name":"english","language_id":38},"transliteration":{"text":"lā","language_name":"english","language_id":38}},{"id":29511,"position":4,"audio_url":"wbw/078_027_004.mp3","verse_key":"78:27","verse_id":5699,"location":"78:27:4","text_uthmani":"يَرْجُونَ","qpc_uthmani_hafs":"يَرۡجُونَ","char_type_name":"word","page_number":582,"line_number":14,"text":"يَرۡجُونَ","translation":{"text":"expecting","language_name":"english","language_id":38},"transliteration":{"text":"yarjūna","language_name":"english","language_id":38}},{"id":29512,"position":5,"audio_url":"wbw/078_027_005.mp3","verse_key":"78:27","verse_id":5699,"location":"78:27:5","text_uthmani":"حِسَابًۭا","qpc_uthmani_hafs":"حِسَابٗا","char_type_name":"word","page_number":582,"line_number":14,"text":"حِسَابٗا","translation":{"text":"an account","language_name":"english","language_id":38},"transliteration":{"text":"ḥisāban","language_name":"english","language_id":38}},{"id":29513,"position":6,"audio_url":null,"verse_key":"78:27","verse_id":5699,"location":"78:27:6","text_uthmani":"٢٧","qpc_uthmani_hafs":"٢٧","char_type_name":"end","page_number":582,"line_number":14,"text":"٢٧","translation":{"text":"(27)","language_name":"english","language_id":38},"transliteration":{"text":null,"language_name":"english","language_id":38}}]},{"id":5700,"verse_number":28,"verse_key":"78:28","hizb_number":59,"rub_el_hizb_number":233,"ruku_number":520,"manzil_number":7,"sajdah_number":null,"page_number":582,"juz_number":30,"words":[{"id":30557,"position":1,"audio_url":"wbw/078_028_001.mp3","verse_key":"78:28","verse_id":5700,"location":"78:28:1","text_uthmani":"وَكَذَّبُوا۟","qpc_uthmani_hafs":"وَكَذَّبُواْ","char_type_name":"word","page_number":582,"line_number":14,"text":"وَكَذَّبُواْ","translation":{"text":"And they denied","language_name":"english","language_id":38},"transliteration":{"text":"wakadhabū","language_name":"english","language_id":38}},{"id":30558,"position":2,"audio_url":"wbw/078_028_002.mp3","verse_key":"78:28","verse_id":5700,"location":"78:28:2","text_uthmani":"بِـَٔايَـٰتِنَا","qpc_uthmani_hafs":"بِـَٔايَٰتِنَا","char_type_name":"word","page_number":582,"line_number":14,"text":"بِـَٔايَٰتِنَا","translation":{"text":"Our Signs","language_name":"english","language_id":38},"transliteration":{"text":"biāyātinā","language_name":"english","language_id":38}},{"id":30559,"position":3,"audio_url":"wbw/078_028_003.mp3","verse_key":"78:28","verse_id":5700,"location":"78:28:3","text_uthmani":"كِذَّابًۭا","qpc_uthmani_hafs":"كِذَّابٗا","char_type_name":"word","page_number":582,"line_number":14,"text":"كِذَّابٗا","translation":{"text":"(with) denial","language_name":"english","language_id":38},"transliteration":{"text":"kidhāban","language_name":"english","language_id":38}},{"id":30560,"position":4,"audio_url":null,"verse_key":"78:28","verse_id":5700,"location":"78:28:4","text_uthmani":"٢٨","qpc_uthmani_hafs":"٢٨","char_type_name":"end","page_number":582,"line_number":14,"text":"٢٨","translation":{"text":"(28)","language_name":"english","language_id":38},"transliteration":{"text":null,"language_name":"english","language_id":38}}]},{"id":5701,"verse_number":29,"verse_key":"78:29","hizb_number":59,"rub_el_hizb_number":233,"ruku_number":520,"manzil_number":7,"sajdah_number":null,"page_number":582,"juz_number":30,"words":[{"id":31527,"position":1,"audio_url":"wbw/078_029_001.mp3","verse_key":"78:29","verse_id":5701,"location":"78:29:1","text_uthmani":"وَكُلَّ","qpc_uthmani_hafs":"وَكُلَّ","char_type_name":"word","page_number":582,"line_number":14,"text":"وَكُلَّ","translation":{"text":"And every","language_name":"english","language_id":38},"transliteration":{"text":"wakulla","language_name":"english","language_id":38}},{"id":31528,"position":2,"audio_url":"wbw/078_029_002.mp3","verse_key":"78:29","verse_id":5701,"location":"78:29:2","text_uthmani":"شَىْءٍ","qpc_uthmani_hafs":"شَيۡءٍ","char_type_name":"word","page_number":582,"line_number":14,"text":"شَيۡءٍ","translation":{"text":"thing","language_name":"english","language_id":38},"transliteration":{"text":"shayin","language_name":"english","language_id":38}},{"id":31529,"position":3,"audio_url":"wbw/078_029_003.mp3","verse_key":"78:29","verse_id":5701,"location":"78:29:3","text_uthmani":"أَحْصَيْنَـٰهُ","qpc_uthmani_hafs":"أَحۡصَيۡنَٰهُ","char_type_name":"word","page_number":582,"line_number":15,"text":"أَحۡصَيۡنَٰهُ","translation":{"text":"We have enumerated it","language_name":"english","language_id":38},"transliteration":{"text":"aḥṣaynāhu","language_name":"english","language_id":38}},{"id":31530,"position":4,"audio_url":"wbw/078_029_004.mp3","verse_key":"78:29","verse_id":5701,"location":"78:29:4","text_uthmani":"كِتَـٰبًۭا","qpc_uthmani_hafs":"كِتَٰبٗا","char_type_name":"word","page_number":582,"line_number":15,"text":"كِتَٰبٗا","translation":{"text":"(in) a Book","language_name":"english","language_id":38},"transliteration":{"text":"kitāban","language_name":"english","language_id":38}},{"id":31531,"position":5,"audio_url":null,"verse_key":"78:29","verse_id":5701,"location":"78:29:5","text_uthmani":"٢٩","qpc_uthmani_hafs":"٢٩","char_type_name":"end","page_number":582,"line_number":15,"text":"٢٩","translation":{"text":"(29)","language_name":"english","language_id":38},"transliteration":{"text":null,"language_name":"english","language_id":38}}]},{"id":5702,"verse_number":30,"verse_key":"78:30","hizb_number":59,"rub_el_hizb_number":233,"ruku_number":520,"manzil_number":7,"sajdah_number":null,"page_number":582,"juz_number":30,"words":[{"id":32887,"position":1,"audio_url":"wbw/078_030_001.mp3","verse_key":"78:30","verse_id":5702,"location":"78:30:1","text_uthmani":"فَذُوقُوا۟","qpc_uthmani_hafs":"فَذُوقُواْ","char_type_name":"word","page_number":582,"line_number":15,"text":"فَذُوقُواْ","translation":{"text":"So taste","language_name":"english","language_id":38},"transliteration":{"text":"fadhūqū","language_name":"english","language_id":38}},{"id":32888,"position":2,"audio_url":"wbw/078_030_002.mp3","verse_key":"78:30","verse_id":5702,"location":"78:30:2","text_uthmani":"فَلَن","qpc_uthmani_hafs":"فَلَن","char_type_name":"word","page_number":582,"line_number":15,"text":"فَلَن","translation":{"text":"and never","language_name":"english","language_id":38},"transliteration":{"text":"falan","language_name":"english","language_id":38}},{"id":32889,"position":3,"audio_url":"wbw/078_030_003.mp3","verse_key":"78:30","verse_id":5702,"location":"78:30:3","text_uthmani":"نَّزِيدَكُمْ","qpc_uthmani_hafs":"نَّزِيدَكُمۡ","char_type_name":"word","page_number":582,"line_number":15,"text":"نَّزِيدَكُمۡ","translation":{"text":"We will increase you","language_name":"english","language_id":38},"transliteration":{"text":"nazīdakum","language_name":"english","language_id":38}},{"id":32890,"position":4,"audio_url":"wbw/078_030_004.mp3","verse_key":"78:30","verse_id":5702,"location":"78:30:4","text_uthmani":"إِلَّا","qpc_uthmani_hafs":"إِلَّا","char_type_name":"word","page_number":582,"line_number":15,"text":"إِلَّا","translation":{"text":"except","language_name":"english","language_id":38},"transliteration":{"text":"illā","language_name":"english","language_id":38}},{"id":32891,"position":5,"audio_url":"wbw/078_030_005.mp3","verse_key":"78:30","verse_id":5702,"location":"78:30:5","text_uthmani":"عَذَابًا","qpc_uthmani_hafs":"عَذَابًا","char_type_name":"word","page_number":582,"line_number":15,"text":"عَذَابًا","translation":{"text":"(in) punishment","language_name":"english","language_id":38},"transliteration":{"text":"ʿadhāban","language_name":"english","language_id":38}},{"id":32892,"position":6,"audio_url":null,"verse_key":"78:30","verse_id":5702,"location":"78:30:6","text_uthmani":"٣٠","qpc_uthmani_hafs":"٣٠","char_type_name":"end","page_number":582,"line_number":15,"text":"٣٠","translation":{"text":"(30)","language_name":"english","language_id":38},"transliteration":{"text":null,"language_name":"english","language_id":38}}]}],"pagination":{"per_page":10,"current_page":3,"next_page":4,"total_pages":4,"total_records":40}}
