{"verses":[{"id":5147,"verse_number":21,"verse_key":"59:21","hizb_number":55,"rub_el_hizb_number":219,"ruku_number":483,"manzil_number":7,"sajdah_number":null,"page_number":548,"juz_number":28,"words":[{"id":23908,"position":1,"audio_url":"wbw/059_021_001.mp3","char_type_name":"word","page_number":548,"line_number":6,"text":"لَوْ","translation":{"text":"যদি","language_name":"bengali","language_id":20},"transliteration":{"text":"law","language_name":"english","language_id":38}},{"id":23909,"position":2,"audio_url":"wbw/059_021_002.mp3","char_type_name":"word","page_number":548,"line_number":6,"text":"أَنزَلْنَا","translation":{"text":"আমরা অবতীর্ণ করতাম","language_name":"bengali","language_id":20},"transliteration":{"text":"anzalnā","language_name":"english","language_id":38}},{"id":23910,"position":3,"audio_url":"wbw/059_021_003.mp3","char_type_name":"word","page_number":548,"line_number":6,"text":"هَـٰذَا","translation":{"text":"এই","language_name":"bengali","language_id":20},"transliteration":{"text":"hādhā","language_name":"english","language_id":38}},{"id":23911,"position":4,"audio_url":"wbw/059_021_004.mp3","char_type_name":"word","page_number":548,"line_number":7,"text":"ٱلْقُرْءَانَ","translation":{"text":"কুরআন","language_name":"bengali","language_id":20},"transliteration":{"text":"l-qur'āna","language_name":"english","language_id":38}},{"id":23912,"position":5,"audio_url":"wbw/059_021_005.mp3","char_type_name":"word","page_number":548,"line_number":7,"text":"عَلَىٰ","translation":{"text":"উপর","language_name":"bengali","language_id":20},"transliteration":{"text":"ʿalā","language_name":"english","language_id":38}},{"id":23913,"position":6,"audio_url":"wbw/059_021_006.mp3","char_type_name":"word","page_number":548,"line_number":7,"text":"جَبَلٍۢ","translation":{"text":"একটি পর্বতের","language_name":"bengali","language_id":20},"transliteration":{"text":"jabalin","language_name":"english","language_id":38}},{"id":23914,"position":7,"audio_url":"wbw/059_021_007.mp3","char_type_name":"word","page_number":548,"line_number":7,"text":"لَّرَأَيْتَهُۥ","translation":{"text":"নিশ্চয় আপনি তা দেখতেন","language_name":"bengali","language_id":20},"transliteration":{"text":"lara-aytahu","language_name":"english","language_id":38}},{"id":23915,"position":8,"audio_url":"wbw/059_021_008.mp3","char_type_name":"word","page_number":548,"line_number":7,"text":"خَـٰشِعًۭا","translation":{"text":"বিনীত ,","language_name":"bengali","language_id":20},"transliteration":{"text":"khāshiʿan","language_name":"english","language_id":38}},{"id":23916,"position":9,"audio_url":"wbw/059_021_009.mp3","char_type_name":"word","page_number":548,"line_number":7,"text":"مُّتَصَدِّعًۭا","translation":{"text":"দুভাগে বিভক্ত ভঙ্গ","language_name":"bengali","language_id":20},"transliteration":{"text":"mutaṣaddiʿan","language_name":"english","language_id":38}},{"id":23917,"position":10,"audio_url":"wbw/059_021_010.mp3","char_type_name":"word","page_number":548,"line_number":7,"text":"مِّنْ","translation":{"text":"থেকে","language_name":"bengali","language_id":20},"transliteration":{"text":"min","language_name":"english","language_id":38}},{"id":23918,"position":11,"audio_url":"wbw/059_021_011.mp3","char_type_name":"word","page_number":548,"line_number":7,"text":"خَشْيَةِ","translation":{"text":"ভয়","language_name":"bengali","language_id":20},"transliteration":{"text":"khashyati","language_name":"english","language_id":38}},{"id":23919,"position":12,"audio_url":"wbw/059_021_012.mp3","char_type_name":"word","page_number":548,"line_number":8,"text":"ٱللَّهِ ۚ","translation":{"text":"আল্লাহর","language_name":"bengali","language_id":20},"transliteration":{"text":"l-lahi","language_name":"english","language_id":38}},{"id":23921,"position":13,"audio_url":"wbw/059_021_014.mp3","char_type_name":"word","page_number":548,"line_number":8,"text":"وَتِلْكَ","translation":{"text":"আর এই","language_name":"bengali","language_id":20},"transliteration":{"text":"watil'ka","language_name":"english","language_id":38}},{"id":23922,"position":14,"audio_url":"wbw/059_021_015.mp3","char_type_name":"word","page_number":548,"line_number":8,"text":"ٱلْأَمْثَـٰلُ","translation":{"text":"উদাহরণ ( সম্পূর্ণ ) ,","language_name":"bengali","language_id":20},"transliteration":{"text":"l-amthālu","language_name":"english","language_id":38}},{"id":23923,"position":15,"audio_url":"wbw/059_021_016.mp3","char_type_name":"word","page_number":548,"line_number":8,"text":"نَضْرِبُهَا","translation":{"text":"আমরা তাদের উপস্থাপন করি","language_name":"bengali","language_id":20},"transliteration":{"text":"naḍribuhā","language_name":"english","language_id":38}},{"id":23924,"position":16,"audio_url":"wbw/059_021_017.mp3","char_type_name":"word","page_number":548,"line_number":8,"text":"لِلنَّاسِ","translation":{"text":"মানুষের কাছে","language_name":"bengali","language_id":20},"transliteration":{"text":"lilnnāsi","language_name":"english","language_id":38}},{"id":23925,"position":17,"audio_url":"wbw/059_021_018.mp3","char_type_name":"word","page_number":548,"line_number":8,"text":"لَعَلَّهُمْ","translation":{"text":"যেন তারা","language_name":"bengali","language_id":20},"transliteration":{"text":"laʿallahum","language_name":"english","language_id":38}},{"id":23926,"position":18,"audio_url":"wbw/059_021_019.mp3","char_type_name":"word","page_number":548,"line_number":8,"text":"يَتَفَكَّرُونَ","translation":{"text":"চিন্তা-ভাবনা করে","language_name":"bengali","language_id":20},"transliteration":{"text":"yatafakkarūna","language_name":"english","language_id":38}},{"id":23927,"position":19,"audio_url":null,"char_type_name":"end","page_number":548,"line_number":9,"text":"٢١","translation":{"text":"(২১)","language_name":"bengali","language_id":20},"transliteration":{"text":null,"language_name":"english","language_id":38}}]},{"id":5148,"verse_number":22,"verse_key":"59:22","hizb_number":55,"rub_el_hizb_number":219,"ruku_number":483,"manzil_number":7,"sajdah_number":null,"page_number":548,"juz_number":28,"words":[{"id":24851,"position":1,"audio_url":"wbw/059_022_001.mp3","char_type_name":"word","page_number":548,"line_number":9,"text":"هُوَ","translation":{"text":"তিনিই","language_name":"bengali","language_id":20},"transliteration":{"text":"huwa","language_name":"english","language_id":38}},{"id":24852,"position":2,"audio_url":"wbw/059_022_002.mp3","char_type_name":"word","page_number":548,"line_number":9,"text":"ٱللَّهُ","translation":{"text":"আল্লাহ","language_name":"bengali","language_id":20},"transliteration":{"text":"l-lahu","language_name":"english","language_id":38}},{"id":24853,"position":3,"audio_url":"wbw/059_022_003.mp3","char_type_name":"word","page_number":548,"line_number":9,"text":"ٱلَّذِى","translation":{"text":"যে","language_name":"bengali","language_id":20},"transliteration":{"text":"alladhī","language_name":"english","language_id":38}},{"id":24854,"position":4,"audio_url":"wbw/059_022_004.mp3","char_type_name":"word","page_number":548,"line_number":9,"text":"لَآ","translation":{"text":"নাই","language_name":"bengali","language_id":20},"transliteration":{"text":"lā","language_name":"english","language_id":38}},{"id":24855,"position":5,"audio_url":"wbw/059_022_005.mp3","char_type_name":"word","page_number":548,"line_number":9,"text":"إِلَـٰهَ","translation":{"text":"কোনো ইলাহ","language_name":"bengali","language_id":20},"transliteration":{"text":"ilāha","language_name":"english","language_id":38}},{"id":24856,"position":6,"audio_url":"wbw/059_022_006.mp3","char_type_name":"word","page_number":548,"line_number":9,"text":"إِلَّا","translation":{"text":"ব্যতীত","language_name":"bengali","language_id":20},"transliteration":{"text":"illā","language_name":"english","language_id":38}},{"id":24857,"position":7,"audio_url":"wbw/059_022_007.mp3","char_type_name":"word","page_number":548,"line_number":9,"text":"هُوَ ۖ","translation":{"text":"তাঁর,","language_name":"bengali","language_id":20},"transliteration":{"text":"huwa","language_name":"english","language_id":38}},{"id":24859,"position":8,"audio_url":"wbw/059_022_009.mp3","char_type_name":"word","page_number":548,"line_number":9,"text":"عَـٰلِمُ","translation":{"text":"জানেন","language_name":"bengali","language_id":20},"transliteration":{"text":"ʿālimu","language_name":"english","language_id":38}},{"id":24860,"position":9,"audio_url":"wbw/059_022_010.mp3","char_type_name":"word","page_number":548,"line_number":9,"text":"ٱلْغَيْبِ","translation":{"text":"গোপন","language_name":"bengali","language_id":20},"transliteration":{"text":"l-ghaybi","language_name":"english","language_id":38}},{"id":24861,"position":10,"audio_url":"wbw/059_022_011.mp3","char_type_name":"word","page_number":548,"line_number":9,"text":"وَٱلشَّهَـٰدَةِ ۖ","translation":{"text":"ও প্রকাশ্য","language_name":"bengali","language_id":20},"transliteration":{"text":"wal-shahādati","language_name":"english","language_id":38}},{"id":24863,"position":11,"audio_url":"wbw/059_022_013.mp3","char_type_name":"word","page_number":548,"line_number":10,"text":"هُوَ","translation":{"text":"তিনি","language_name":"bengali","language_id":20},"transliteration":{"text":"huwa","language_name":"english","language_id":38}},{"id":24864,"position":12,"audio_url":"wbw/059_022_014.mp3","char_type_name":"word","page_number":548,"line_number":10,"text":"ٱلرَّحْمَـٰنُ","translation":{"text":"পরম করুণাময়","language_name":"bengali","language_id":20},"transliteration":{"text":"l-raḥmānu","language_name":"english","language_id":38}},{"id":24865,"position":13,"audio_url":"wbw/059_022_015.mp3","char_type_name":"word","page_number":548,"line_number":10,"text":"ٱلرَّحِيمُ","translation":{"text":"অসীম দয়ালু","language_name":"bengali","language_id":20},"transliteration":{"text":"l-raḥīmu","language_name":"english","language_id":38}},{"id":24866,"position":14,"audio_url":null,"char_type_name":"end","page_number":548,"line_number":10,"text":"٢٢","translation":{"text":"(২২)","language_name":"bengali","language_id":20},"transliteration":{"text":null,"language_name":"english","language_id":38}}]},{"id":5149,"verse_number":23,"verse_key":"59:23","hizb_number":55,"rub_el_hizb_number":219,"ruku_number":483,"manzil_number":7,"sajdah_number":null,"page_number":548,"juz_number":28,"words":[{"id":25854,"position":1,"audio_url":"wbw/059_023_001.mp3","char_type_name":"word","page_number":548,"line_number":10,"text":"هُوَ","translation":{"text":"তিনিই","language_name":"bengali","language_id":20},"transliteration":{"text":"huwa","language_name":"english","language_id":38}},{"id":25855,"position":2,"audio_url":"wbw/059_023_002.mp3","char_type_name":"word","page_number":548,"line_number":10,"text":"ٱللَّهُ","translation":{"text":"আল্লাহ","language_name":"bengali","language_id":20},"transliteration":{"text":"l-lahu","language_name":"english","language_id":38}},{"id":25856,"position":3,"audio_url":"wbw/059_023_003.mp3","char_type_name":"word","page_number":548,"line_number":10,"text":"ٱلَّذِى","translation":{"text":"যে","language_name":"bengali","language_id":20},"transliteration":{"text":"alladhī","language_name":"english","language_id":38}},{"id":25857,"position":4,"audio_url":"wbw/059_023_004.mp3","char_type_name":"word","page_number":548,"line_number":10,"text":"لَآ","translation":{"text":"নাই","language_name":"bengali","language_id":20},"transliteration":{"text":"lā","language_name":"english","language_id":38}},{"id":25858,"position":5,"audio_url":"wbw/059_023_005.mp3","char_type_name":"word","page_number":548,"line_number":10,"text":"إِلَـٰهَ","translation":{"text":"কোনো ইলাহ","language_name":"bengali","language_id":20},"transliteration":{"text":"ilāha","language_name":"english","language_id":38}},{"id":25859,"position":6,"audio_url":"wbw/059_023_006.mp3","char_type_name":"word","page_number":548,"line_number":10,"text":"إِلَّا","translation":{"text":"ব্যতীত","language_name":"bengali","language_id":20},"transliteration":{"text":"illā","language_name":"english","language_id":38}},{"id":25860,"position":7,"audio_url":"wbw/059_023_007.mp3","char_type_name":"word","page_number":548,"line_number":10,"text":"هُوَ","translation":{"text":"তাঁর,","language_name":"bengali","language_id":20},"transliteration":{"text":"huwa","language_name":"english","language_id":38}},{"id":25861,"position":8,"audio_url":"wbw/059_023_008.mp3","char_type_name":"word","page_number":548,"line_number":10,"text":"ٱلْمَلِكُ","translation":{"text":"বাদশাহ,","language_name":"bengali","language_id":20},"transliteration":{"text":"l-maliku","language_name":"english","language_id":38}},{"id":25862,"position":9,"audio_url":"wbw/059_023_009.mp3","char_type_name":"word","page_number":548,"line_number":11,"text":"ٱلْقُدُّوسُ","translation":{"text":"অতীব প্রবিত্র,","language_name":"bengali","language_id":20},"transliteration":{"text":"l-qudūsu","language_name":"english","language_id":38}},{"id":25863,"position":10,"audio_url":"wbw/059_023_010.mp3","char_type_name":"word","page_number":548,"line_number":11,"text":"ٱلسَّلَـٰمُ","translation":{"text":"শান্তিদাতা,","language_name":"bengali","language_id":20},"transliteration":{"text":"l-salāmu","language_name":"english","language_id":38}},{"id":25864,"position":11,"audio_url":"wbw/059_023_011.mp3","char_type_name":"word","page_number":548,"line_number":11,"text":"ٱلْمُؤْمِنُ","translation":{"text":"নিরাপত্তাদাতা,","language_name":"bengali","language_id":20},"transliteration":{"text":"l-mu'minu","language_name":"english","language_id":38}},{"id":25865,"position":12,"audio_url":"wbw/059_023_012.mp3","char_type_name":"word","page_number":548,"line_number":11,"text":"ٱلْمُهَيْمِنُ","translation":{"text":"সংরক্ষক,","language_name":"bengali","language_id":20},"transliteration":{"text":"l-muhayminu","language_name":"english","language_id":38}},{"id":25866,"position":13,"audio_url":"wbw/059_023_013.mp3","char_type_name":"word","page_number":548,"line_number":11,"text":"ٱلْعَزِيزُ","translation":{"text":"পরাক্রমশালী,","language_name":"bengali","language_id":20},"transliteration":{"text":"l-ʿazīzu","language_name":"english","language_id":38}},{"id":25867,"position":14,"audio_url":"wbw/059_023_014.mp3","char_type_name":"word","page_number":548,"line_number":11,"text":"ٱلْجَبَّارُ","translation":{"text":"প্রবল,","language_name":"bengali","language_id":20},"transliteration":{"text":"l-jabāru","language_name":"english","language_id":38}},{"id":25868,"position":15,"audio_url":"wbw/059_023_015.mp3","char_type_name":"word","page_number":548,"line_number":12,"text":"ٱلْمُتَكَبِّرُ ۚ","translation":{"text":"মহিমান্বিত,","language_name":"bengali","language_id":20},"transliteration":{"text":"l-mutakabiru","language_name":"english","language_id":38}},{"id":25870,"position":16,"audio_url":"wbw/059_023_017.mp3","char_type_name":"word","page_number":548,"line_number":12,"text":"سُبْحَـٰنَ","translation":{"text":"পবিত্র","language_name":"bengali","language_id":20},"transliteration":{"text":"sub'ḥāna","language_name":"english","language_id":38}},{"id":25871,"position":17,"audio_url":"wbw/059_023_018.mp3","char_type_name":"word","page_number":548,"line_number":12,"text":"ٱللَّهِ","translation":{"text":"আল্লাহ (র)","language_name":"bengali","language_id":20},"transliteration":{"text":"l-lahi","language_name":"english","language_id":38}},{"id":25872,"position":18,"audio_url":"wbw/059_023_019.mp3","char_type_name":"word","page_number":548,"line_number":12,"text":"عَمَّا","translation":{"text":"যা হতে","language_name":"bengali","language_id":20},"transliteration":{"text":"ʿammā","language_name":"english","language_id":38}},{"id":25873,"position":19,"audio_url":"wbw/059_023_020.mp3","char_type_name":"word","page_number":548,"line_number":12,"text":"يُشْرِكُونَ","translation":{"text":"তারা শরীক করে","language_name":"bengali","language_id":20},"transliteration":{"text":"yush'rikūna","language_name":"english","language_id":38}},{"id":25874,"position":20,"audio_url":null,"char_type_name":"end","page_number":548,"line_number":12,"text":"٢٣","translation":{"text":"(২৩)","language_name":"bengali","language_id":20},"transliteration":{"text":null,"language_name":"english","language_id":38}}]},{"id":5150,"verse_number":24,"verse_key":"59:24","hizb_number":55,"rub_el_hizb_number":219,"ruku_number":483,"manzil_number":7,"sajdah_number":null,"page_number":548,"juz_number":28,"words":[{"id":26951,"position":1,"audio_url":"wbw/059_024_001.mp3","char_type_name":"word","page_number":548,"line_number":12,"text":"هُوَ","translation":{"text":"তিনিই","language_name":"bengali","language_id":20},"transliteration":{"text":"huwa","language_name":"english","language_id":38}},{"id":26952,"position":2,"audio_url":"wbw/059_024_002.mp3","char_type_name":"word","page_number":548,"line_number":12,"text":"ٱللَّهُ","translation":{"text":"আল্লাহ","language_name":"bengali","language_id":20},"transliteration":{"text":"l-lahu","language_name":"english","language_id":38}},{"id":26953,"position":3,"audio_url":"wbw/059_024_003.mp3","char_type_name":"word","page_number":548,"line_number":13,"text":"ٱلْخَـٰلِقُ","translation":{"text":"সৃষ্টিকর্তা,","language_name":"bengali","language_id":20},"transliteration":{"text":"l-khāliqu","language_name":"english","language_id":38}},{"id":26954,"position":4,"audio_url":"wbw/059_024_004.mp3","char_type_name":"word","page_number":548,"line_number":13,"text":"ٱلْبَارِئُ","translation":{"text":"উদ্ভাবনকর্তা,","language_name":"bengali","language_id":20},"transliteration":{"text":"l-bāri-u","language_name":"english","language_id":38}},{"id":26955,"position":5,"audio_url":"wbw/059_024_005.mp3","char_type_name":"word","page_number":548,"line_number":13,"text":"ٱلْمُصَوِّرُ ۖ","translation":{"text":"আকৃতিদাতা,","language_name":"bengali","language_id":20},"transliteration":{"text":"l-muṣawiru","language_name":"english","language_id":38}},{"id":26957,"position":6,"audio_url":"wbw/059_024_007.mp3","char_type_name":"word","page_number":548,"line_number":13,"text":"لَهُ","translation":{"text":"তাঁর জন্যই","language_name":"bengali","language_id":20},"transliteration":{"text":"lahu","language_name":"english","language_id":38}},{"id":26958,"position":7,"audio_url":"wbw/059_024_008.mp3","char_type_name":"word","page_number":548,"line_number":13,"text":"ٱلْأَسْمَآءُ","translation":{"text":"নামসমুহ","language_name":"bengali","language_id":20},"transliteration":{"text":"l-asmāu","language_name":"english","language_id":38}},{"id":26959,"position":8,"audio_url":"wbw/059_024_009.mp3","char_type_name":"word","page_number":548,"line_number":13,"text":"ٱلْحُسْنَىٰ ۚ","translation":{"text":"উত্তম","language_name":"bengali","language_id":20},"transliteration":{"text":"l-ḥus'nā","language_name":"english","language_id":38}},{"id":26961,"position":9,"audio_url":"wbw/059_024_011.mp3","char_type_name":"word","page_number":548,"line_number":13,"text":"يُسَبِّحُ","translation":{"text":"গৌরব বর্ণনা করে","language_name":"bengali","language_id":20},"transliteration":{"text":"yusabbiḥu","language_name":"english","language_id":38}},{"id":26962,"position":10,"audio_url":"wbw/059_024_012.mp3","char_type_name":"word","page_number":548,"line_number":14,"text":"لَهُۥ","translation":{"text":"তারই","language_name":"bengali","language_id":20},"transliteration":{"text":"lahu","language_name":"english","language_id":38}},{"id":26963,"position":11,"audio_url":"wbw/059_024_013.mp3","char_type_name":"word","page_number":548,"line_number":14,"text":"مَا","translation":{"text":"যা কিছু","language_name":"bengali","language_id":20},"transliteration":{"text":"mā","language_name":"english","language_id":38}},{"id":26964,"position":12,"audio_url":"wbw/059_024_014.mp3","char_type_name":"word","page_number":548,"line_number":14,"text":"فِى","translation":{"text":"আছে","language_name":"bengali","language_id":20},"transliteration":{"text":"fī","language_name":"english","language_id":38}},{"id":26965,"position":13,"audio_url":"wbw/059_024_015.mp3","char_type_name":"word","page_number":548,"line_number":14,"text":"ٱلسَّمَـٰوَٰتِ","translation":{"text":"আসমানে","language_name":"bengali","language_id":20},"transliteration":{"text":"l-samāwāti","language_name":"english","language_id":38}},{"id":26966,"position":14,"audio_url":"wbw/059_024_016.mp3","char_type_name":"word","page_number":548,"line_number":14,"text":"وَٱلْأَرْضِ ۖ","translation":{"text":"এবং পৃথিবীতে","language_name":"bengali","language_id":20},"transliteration":{"text":"wal-arḍi","language_name":"english","language_id":38}},{"id":26968,"position":15,"audio_url":"wbw/059_024_018.mp3","char_type_name":"word","page_number":548,"line_number":14,"text":"وَهُوَ","translation":{"text":"এবং তিনি","language_name":"bengali","language_id":20},"transliteration":{"text":"wahuwa","language_name":"english","language_id":38}},{"id":26969,"position":16,"audio_url":"wbw/059_024_019.mp3","char_type_name":"word","page_number":548,"line_number":14,"text":"ٱلْعَزِيزُ","translation":{"text":"পরাক্রমশালী,","language_name":"bengali","language_id":20},"transliteration":{"text":"l-ʿazīzu","language_name":"english","language_id":38}},{"id":26970,"position":17,"audio_url":"wbw/059_024_020.mp3","char_type_name":"word","page_number":548,"line_number":14,"text":"ٱلْحَكِيمُ","translation":{"text":"মহাবিজ্ঞ","language_name":"bengali","language_id":20},"transliteration":{"text":"l-ḥakīmu","language_name":"english","language_id":38}},{"id":26971,"position":18,"audio_url":null,"char_type_name":"end","page_number":548,"line_number":14,"text":"٢٤","translation":{"text":"(২৪)","language_name":"bengali","language_id":20},"transliteration":{"text":null,"language_name":"english","language_id":38}}]}],"pagination":{"per_page":10,"current_page":3,"next_page":null,"total_pages":3,"total_records":24}}
