{"verses":[{"id":6158,"verse_number":1,"verse_key":"101:1","hizb_number":60,"rub_el_hizb_number":240,"ruku_number":545,"manzil_number":7,"sajdah_number":null,"page_number":600,"juz_number":30,"words":[{"id":272,"position":1,"audio_url":"wbw/101_001_001.mp3","verse_key":"101:1","verse_id":6158,"location":"101:1:1","text_uthmani":"ٱلْقَارِعَةُ","qpc_uthmani_hafs":"ٱلۡقَارِعَةُ","char_type_name":"word","page_number":600,"line_number":6,"text":"ٱلۡقَارِعَةُ","translation":{"text":"The Striking Calamity","language_name":"english","language_id":38},"transliteration":{"text":"al-qāriʿatu","language_name":"english","language_id":38}},{"id":273,"position":2,"audio_url":null,"verse_key":"101:1","verse_id":6158,"location":"101:1:2","text_uthmani":"١","qpc_uthmani_hafs":"١","char_type_name":"end","page_number":600,"line_number":6,"text":"١","translation":{"text":"(1)","language_name":"english","language_id":38},"transliteration":{"text":null,"language_name":"english","language_id":38}}]},{"id":6159,"verse_number":2,"verse_key":"101:2","hizb_number":60,"rub_el_hizb_number":240,"ruku_number":545,"manzil_number":7,"sajdah_number":null,"page_number":600,"juz_number":30,"words":[{"id":977,"position":1,"audio_url":"wbw/101_002_001.mp3","verse_key":"101:2","verse_id":6159,"location":"101:2:1","text_uthmani":"مَا","qpc_uthmani_hafs":"مَا","char_type_name":"word","page_number":600,"line_number":6,"text":"مَا","translation":{"text":"What","language_name":"english","language_id":38},"transliteration":{"text":"mā","language_name":"english","language_id":38}},{"id":978,"position":2,"audio_url":"wbw/101_002_002.mp3","verse_key":"101:2","verse_id":6159,"location":"101:2:2","text_uthmani":"ٱلْقَارِعَةُ","qpc_uthmani_hafs":"ٱلۡقَارِعَةُ","char_type_name":"word","page_number":600,"line_number":6,"text":"ٱلۡقَارِعَةُ","translation":{"text":"(is) the Striking Calamity","language_name":"english","language_id":38},"transliteration":{"text":"l-qāriʿatu","language_name":"english","language_id":38}},{"id":979,"position":3,"audio_url":null,"verse_key":"101:2","verse_id":6159,"location":"101:2:3","text_uthmani":"٢","qpc_uthmani_hafs":"٢","char_type_name":"end","page_number":600,"line_number":6,"text":"٢","translation":{"text":"(2)","language_name":"english","language_id":38},"transliteration":{"text":null,"language_name":"english","language_id":38}}]},{"id":6160,"verse_number":3,"verse_key":"101:3","hizb_number":60,"rub_el_hizb_number":240,"ruku_number":545,"manzil_number":7,"sajdah_number":null,"page_number":600,"juz_number":30,"words":[{"id":2067,"position":1,"audio_url":"wbw/101_003_001.mp3","verse_key":"101:3","verse_id":6160,"location":"101:3:1","text_uthmani":"وَمَآ","qpc_uthmani_hafs":"وَمَآ","char_type_name":"word","page_number":600,"line_number":6,"text":"وَمَآ","translation":{"text":"And what","language_name":"english","language_id":38},"transliteration":{"text":"wamā","language_name":"english","language_id":38}},{"id":2068,"position":2,"audio_url":"wbw/101_003_002.mp3","verse_key":"101:3","verse_id":6160,"location":"101:3:2","text_uthmani":"أَدْرَىٰكَ","qpc_uthmani_hafs":"أَدۡرَىٰكَ","char_type_name":"word","page_number":600,"line_number":6,"text":"أَدۡرَىٰكَ","translation":{"text":"will make you know","language_name":"english","language_id":38},"transliteration":{"text":"adrāka","language_name":"english","language_id":38}},{"id":2069,"position":3,"audio_url":"wbw/101_003_003.mp3","verse_key":"101:3","verse_id":6160,"location":"101:3:3","text_uthmani":"مَا","qpc_uthmani_hafs":"مَا","char_type_name":"word","page_number":600,"line_number":6,"text":"مَا","translation":{"text":"what","language_name":"english","language_id":38},"transliteration":{"text":"mā","language_name":"english","language_id":38}},{"id":2070,"position":4,"audio_url":"wbw/101_003_004.mp3","verse_key":"101:3","verse_id":6160,"location":"101:3:4","text_uthmani":"ٱلْقَارِعَةُ","qpc_uthmani_hafs":"ٱلۡقَارِعَةُ","char_type_name":"word","page_number":600,"line_number":6,"text":"ٱلۡقَارِعَةُ","translation":{"text":"(is) the Striking Calamity","language_name":"english","language_id":38},"transliteration":{"text":"l-qāriʿatu","language_name":"english","language_id":38}},{"id":2071,"position":5,"audio_url":null,"verse_key":"101:3","verse_id":6160,"location":"101:3:5","text_uthmani":"٣","qpc_uthmani_hafs":"٣","char_type_name":"end","page_number":600,"line_number":6,"text":"٣","translation":{"text":"(3)","language_name":"english","language_id":38},"transliteration":{"text":null,"language_name":"english","language_id":38}}]},{"id":6161,"verse_number":4,"verse_key":"101:4","hizb_number":60,"rub_el_hizb_number":240,"ruku_number":545,"manzil_number":7,"sajdah_number":null,"page_number":600,"juz_number":30,"words":[{"id":3357,"position":1,"audio_url":"wbw/101_004_001.mp3","verse_key":"101:4","verse_id":6161,"location":"101:4:1","text_uthmani":"يَوْمَ","qpc_uthmani_hafs":"يَوۡمَ","char_type_name":"word","page_number":600,"line_number":6,"text":"يَوۡمَ","translation":{"text":"(The) Day","language_name":"english","language_id":38},"transliteration":{"text":"yawma","language_name":"english","language_id":38}},{"id":3358,"position":2,"audio_url":"wbw/101_004_002.mp3","verse_key":"101:4","verse_id":6161,"location":"101:4:2","text_uthmani":"يَكُونُ","qpc_uthmani_hafs":"يَكُونُ","char_type_name":"word","page_number":600,"line_number":7,"text":"يَكُونُ","translation":{"text":"will be","language_name":"english","language_id":38},"transliteration":{"text":"yakūnu","language_name":"english","language_id":38}},{"id":3359,"position":3,"audio_url":"wbw/101_004_003.mp3","verse_key":"101:4","verse_id":6161,"location":"101:4:3","text_uthmani":"ٱلنَّاسُ","qpc_uthmani_hafs":"ٱلنَّاسُ","char_type_name":"word","page_number":600,"line_number":7,"text":"ٱلنَّاسُ","translation":{"text":"the mankind","language_name":"english","language_id":38},"transliteration":{"text":"l-nāsu","language_name":"english","language_id":38}},{"id":3360,"position":4,"audio_url":"wbw/101_004_004.mp3","verse_key":"101:4","verse_id":6161,"location":"101:4:4","text_uthmani":"كَٱلْفَرَاشِ","qpc_uthmani_hafs":"كَٱلۡفَرَاشِ","char_type_name":"word","page_number":600,"line_number":7,"text":"كَٱلۡفَرَاشِ","translation":{"text":"like moths","language_name":"english","language_id":38},"transliteration":{"text":"kal-farāshi","language_name":"english","language_id":38}},{"id":3361,"position":5,"audio_url":"wbw/101_004_005.mp3","verse_key":"101:4","verse_id":6161,"location":"101:4:5","text_uthmani":"ٱلْمَبْثُوثِ","qpc_uthmani_hafs":"ٱلۡمَبۡثُوثِ","char_type_name":"word","page_number":600,"line_number":7,"text":"ٱلۡمَبۡثُوثِ","translation":{"text":"scattered","language_name":"english","language_id":38},"transliteration":{"text":"l-mabthūthi","language_name":"english","language_id":38}},{"id":3362,"position":6,"audio_url":null,"verse_key":"101:4","verse_id":6161,"location":"101:4:6","text_uthmani":"٤","qpc_uthmani_hafs":"٤","char_type_name":"end","page_number":600,"line_number":7,"text":"٤","translation":{"text":"(4)","language_name":"english","language_id":38},"transliteration":{"text":null,"language_name":"english","language_id":38}}]},{"id":6162,"verse_number":5,"verse_key":"101:5","hizb_number":60,"rub_el_hizb_number":240,"ruku_number":545,"manzil_number":7,"sajdah_number":null,"page_number":600,"juz_number":30,"words":[{"id":4791,"position":1,"audio_url":"wbw/101_005_001.mp3","verse_key":"101:5","verse_id":6162,"location":"101:5:1","text_uthmani":"وَتَكُونُ","qpc_uthmani_hafs":"وَتَكُونُ","char_type_name":"word","page_number":600,"line_number":7,"text":"وَتَكُونُ","translation":{"text":"And will be","language_name":"english","language_id":38},"transliteration":{"text":"watakūnu","language_name":"english","language_id":38}},{"id":4792,"position":2,"audio_url":"wbw/101_005_002.mp3","verse_key":"101:5","verse_id":6162,"location":"101:5:2","text_uthmani":"ٱلْجِبَالُ","qpc_uthmani_hafs":"ٱلۡجِبَالُ","char_type_name":"word","page_number":600,"line_number":7,"text":"ٱلۡجِبَالُ","translation":{"text":"the mountains","language_name":"english","language_id":38},"transliteration":{"text":"l-jibālu","language_name":"english","language_id":38}},{"id":4793,"position":3,"audio_url":"wbw/101_005_003.mp3","verse_key":"101:5","verse_id":6162,"location":"101:5:3","text_uthmani":"كَٱلْعِهْنِ","qpc_uthmani_hafs":"كَٱلۡعِهۡنِ","char_type_name":"word","page_number":600,"line_number":8,"text":"كَٱلۡعِهۡنِ","translation":{"text":"like wool","language_name":"english","language_id":38},"transliteration":{"text":"kal-ʿih'ni","language_name":"english","language_id":38}},{"id":4794,"position":4,"audio_url":"wbw/101_005_004.mp3","verse_key":"101:5","verse_id":6162,"location":"101:5:4","text_uthmani":"ٱلْمَنفُوشِ","qpc_uthmani_hafs":"ٱلۡمَنفُوشِ","char_type_name":"word","page_number":600,"line_number":8,"text":"ٱلۡمَنفُوشِ","translation":{"text":"fluffed up","language_name":"english","language_id":38},"transliteration":{"text":"l-manfūshi","language_name":"english","language_id":38}},{"id":4795,"position":5,"audio_url":null,"verse_key":"101:5","verse_id":6162,"location":"101:5:5","text_uthmani":"٥","qpc_uthmani_hafs":"٥","char_type_name":"end","page_number":600,"line_number":8,"text":"٥","translation":{"text":"(5)","language_name":"english","language_id":38},"transliteration":{"text":null,"language_name":"english","language_id":38}}]},{"id":6163,"verse_number":6,"verse_key":"101:6","hizb_number":60,"rub_el_hizb_number":240,"ruku_number":545,"manzil_number":7,"sajdah_number":null,"page_number":600,"juz_number":30,"words":[{"id":6037,"position":1,"audio_url":"wbw/101_006_001.mp3","verse_key":"101:6","verse_id":6163,"location":"101:6:1","text_uthmani":"فَأَمَّا","qpc_uthmani_hafs":"فَأَمَّا","char_type_name":"word","page_number":600,"line_number":8,"text":"فَأَمَّا","translation":{"text":"Then as for","language_name":"english","language_id":38},"transliteration":{"text":"fa-ammā","language_name":"english","language_id":38}},{"id":6038,"position":2,"audio_url":"wbw/101_006_002.mp3","verse_key":"101:6","verse_id":6163,"location":"101:6:2","text_uthmani":"مَن","qpc_uthmani_hafs":"مَن","char_type_name":"word","page_number":600,"line_number":8,"text":"مَن","translation":{"text":"(him) whose","language_name":"english","language_id":38},"transliteration":{"text":"man","language_name":"english","language_id":38}},{"id":6039,"position":3,"audio_url":"wbw/101_006_003.mp3","verse_key":"101:6","verse_id":6163,"location":"101:6:3","text_uthmani":"ثَقُلَتْ","qpc_uthmani_hafs":"ثَقُلَتۡ","char_type_name":"word","page_number":600,"line_number":8,"text":"ثَقُلَتۡ","translation":{"text":"(are) heavy","language_name":"english","language_id":38},"transliteration":{"text":"thaqulat","language_name":"english","language_id":38}},{"id":6040,"position":4,"audio_url":"wbw/101_006_004.mp3","verse_key":"101:6","verse_id":6163,"location":"101:6:4","text_uthmani":"مَوَٰزِينُهُۥ","qpc_uthmani_hafs":"مَوَٰزِينُهُۥ","char_type_name":"word","page_number":600,"line_number":8,"text":"مَوَٰزِينُهُۥ","translation":{"text":"his scales","language_name":"english","language_id":38},"transliteration":{"text":"mawāzīnuhu","language_name":"english","language_id":38}},{"id":6041,"position":5,"audio_url":null,"verse_key":"101:6","verse_id":6163,"location":"101:6:5","text_uthmani":"٦","qpc_uthmani_hafs":"٦","char_type_name":"end","page_number":600,"line_number":8,"text":"٦","translation":{"text":"(6)","language_name":"english","language_id":38},"transliteration":{"text":null,"language_name":"english","language_id":38}}]},{"id":6164,"verse_number":7,"verse_key":"101:7","hizb_number":60,"rub_el_hizb_number":240,"ruku_number":545,"manzil_number":7,"sajdah_number":null,"page_number":600,"juz_number":30,"words":[{"id":7350,"position":1,"audio_url":"wbw/101_007_001.mp3","verse_key":"101:7","verse_id":6164,"location":"101:7:1","text_uthmani":"فَهُوَ","qpc_uthmani_hafs":"فَهُوَ","char_type_name":"word","page_number":600,"line_number":8,"text":"فَهُوَ","translation":{"text":"Then he","language_name":"english","language_id":38},"transliteration":{"text":"fahuwa","language_name":"english","language_id":38}},{"id":7351,"position":2,"audio_url":"wbw/101_007_002.mp3","verse_key":"101:7","verse_id":6164,"location":"101:7:2","text_uthmani":"فِى","qpc_uthmani_hafs":"فِي","char_type_name":"word","page_number":600,"line_number":8,"text":"فِي","translation":{"text":"(will be) in","language_name":"english","language_id":38},"transliteration":{"text":"fī","language_name":"english","language_id":38}},{"id":7352,"position":3,"audio_url":"wbw/101_007_003.mp3","verse_key":"101:7","verse_id":6164,"location":"101:7:3","text_uthmani":"عِيشَةٍۢ","qpc_uthmani_hafs":"عِيشَةٖ","char_type_name":"word","page_number":600,"line_number":9,"text":"عِيشَةٖ","translation":{"text":"a life","language_name":"english","language_id":38},"transliteration":{"text":"ʿīshatin","language_name":"english","language_id":38}},{"id":7353,"position":4,"audio_url":"wbw/101_007_004.mp3","verse_key":"101:7","verse_id":6164,"location":"101:7:4","text_uthmani":"رَّاضِيَةٍۢ","qpc_uthmani_hafs":"رَّاضِيَةٖ","char_type_name":"word","page_number":600,"line_number":9,"text":"رَّاضِيَةٖ","translation":{"text":"pleasant","language_name":"english","language_id":38},"transliteration":{"text":"rāḍiyatin","language_name":"english","language_id":38}},{"id":7354,"position":5,"audio_url":null,"verse_key":"101:7","verse_id":6164,"location":"101:7:5","text_uthmani":"٧","qpc_uthmani_hafs":"٧","char_type_name":"end","page_number":600,"line_number":9,"text":"٧","translation":{"text":"(7)","language_name":"english","language_id":38},"transliteration":{"text":null,"language_name":"english","language_id":38}}]},{"id":6165,"verse_number":8,"verse_key":"101:8","hizb_number":60,"rub_el_hizb_number":240,"ruku_number":545,"manzil_number":7,"sajdah_number":null,"page_number":600,"juz_number":30,"words":[{"id":8590,"position":1,"audio_url":"wbw/101_008_001.mp3","verse_key":"101:8","verse_id":6165,"location":"101:8:1","text_uthmani":"وَأَمَّا","qpc_uthmani_hafs":"وَأَمَّا","char_type_name":"word","page_number":600,"line_number":9,"text":"وَأَمَّا","translation":{"text":"But as for","language_name":"english","language_id":38},"transliteration":{"text":"wa-ammā","language_name":"english","language_id":38}},{"id":8591,"position":2,"audio_url":"wbw/101_008_002.mp3","verse_key":"101:8","verse_id":6165,"location":"101:8:2","text_uthmani":"مَنْ","qpc_uthmani_hafs":"مَنۡ","char_type_name":"word","page_number":600,"line_number":9,"text":"مَنۡ","translation":{"text":"(him) whose","language_name":"english","language_id":38},"transliteration":{"text":"man","language_name":"english","language_id":38}},{"id":8592,"position":3,"audio_url":"wbw/101_008_003.mp3","verse_key":"101:8","verse_id":6165,"location":"101:8:3","text_uthmani":"خَفَّتْ","qpc_uthmani_hafs":"خَفَّتۡ","char_type_name":"word","page_number":600,"line_number":9,"text":"خَفَّتۡ","translation":{"text":"(are) light","language_name":"english","language_id":38},"transliteration":{"text":"khaffat","language_name":"english","language_id":38}},{"id":8593,"position":4,"audio_url":"wbw/101_008_004.mp3","verse_key":"101:8","verse_id":6165,"location":"101:8:4","text_uthmani":"مَوَٰزِينُهُۥ","qpc_uthmani_hafs":"مَوَٰزِينُهُۥ","char_type_name":"word","page_number":600,"line_number":9,"text":"مَوَٰزِينُهُۥ","translation":{"text":"his scales","language_name":"english","language_id":38},"transliteration":{"text":"mawāzīnuhu","language_name":"english","language_id":38}},{"id":8594,"position":5,"audio_url":null,"verse_key":"101:8","verse_id":6165,"location":"101:8:5","text_uthmani":"٨","qpc_uthmani_hafs":"٨","char_type_name":"end","page_number":600,"line_number":9,"text":"٨","translation":{"text":"(8)","language_name":"english","language_id":38},"transliteration":{"text":null,"language_name":"english","language_id":38}}]},{"id":6166,"verse_number":9,"verse_key":"101:9","hizb_number":60,"rub_el_hizb_number":240,"ruku_number":545,"manzil_number":7,"sajdah_number":null,"page_number":600,"juz_number":30,"words":[{"id":9782,"position":1,"audio_url":"wbw/101_009_001.mp3","verse_key":"101:9","verse_id":6166,"location":"101:9:1","text_uthmani":"فَأُمُّهُۥ","qpc_uthmani_hafs":"فَأُمُّهُۥ","char_type_name":"word","page_number":600,"line_number":9,"text":"فَأُمُّهُۥ","translation":{"text":"His abode","language_name":"english","language_id":38},"transliteration":{"text":"fa-ummuhu","language_name":"english","language_id":38}},{"id":9783,"position":2,"audio_url":"wbw/101_009_002.mp3","verse_key":"101:9","verse_id":6166,"location":"101:9:2","text_uthmani":"هَاوِيَةٌۭ","qpc_uthmani_hafs":"هَاوِيَةٞ","char_type_name":"word","page_number":600,"line_number":9,"text":"هَاوِيَةٞ","translation":{"text":"(will be the) Pit","language_name":"english","language_id":38},"transliteration":{"text":"hāwiyatun","language_name":"english","language_id":38}},{"id":9784,"position":3,"audio_url":null,"verse_key":"101:9","verse_id":6166,"location":"101:9:3","text_uthmani":"٩","qpc_uthmani_hafs":"٩","char_type_name":"end","page_number":600,"line_number":10,"text":"٩","translation":{"text":"(9)","language_name":"english","language_id":38},"transliteration":{"text":null,"language_name":"english","language_id":38}}]},{"id":6167,"verse_number":10,"verse_key":"101:10","hizb_number":60,"rub_el_hizb_number":240,"ruku_number":545,"manzil_number":7,"sajdah_number":null,"page_number":600,"juz_number":30,"words":[{"id":10824,"position":1,"audio_url":"wbw/101_010_001.mp3","verse_key":"101:10","verse_id":6167,"location":"101:10:1","text_uthmani":"وَمَآ","qpc_uthmani_hafs":"وَمَآ","char_type_name":"word","page_number":600,"line_number":10,"text":"وَمَآ","translation":{"text":"And what","language_name":"english","language_id":38},"transliteration":{"text":"wamā","language_name":"english","language_id":38}},{"id":10825,"position":2,"audio_url":"wbw/101_010_002.mp3","verse_key":"101:10","verse_id":6167,"location":"101:10:2","text_uthmani":"أَدْرَىٰكَ","qpc_uthmani_hafs":"أَدۡرَىٰكَ","char_type_name":"word","page_number":600,"line_number":10,"text":"أَدۡرَىٰكَ","translation":{"text":"will make you know","language_name":"english","language_id":38},"transliteration":{"text":"adrāka","language_name":"english","language_id":38}},{"id":10826,"position":3,"audio_url":"wbw/101_010_003.mp3","verse_key":"101:10","verse_id":6167,"location":"101:10:3","text_uthmani":"مَا","qpc_uthmani_hafs":"مَا","char_type_name":"word","page_number":600,"line_number":10,"text":"مَا","translation":{"text":"what","language_name":"english","language_id":38},"transliteration":{"text":"mā","language_name":"english","language_id":38}},{"id":10827,"position":4,"audio_url":"wbw/101_010_004.mp3","verse_key":"101:10","verse_id":6167,"location":"101:10:4","text_uthmani":"هِيَهْ","qpc_uthmani_hafs":"هِيَهۡ","char_type_name":"word","page_number":600,"line_number":10,"text":"هِيَهۡ","translation":{"text":"it is","language_name":"english","language_id":38},"transliteration":{"text":"hiyah","language_name":"english","language_id":38}},{"id":10828,"position":5,"audio_url":null,"verse_key":"101:10","verse_id":6167,"location":"101:10:5","text_uthmani":"١٠","qpc_uthmani_hafs":"١٠","char_type_name":"end","page_number":600,"line_number":10,"text":"١٠","translation":{"text":"(10)","language_name":"english","language_id":38},"transliteration":{"text":null,"language_name":"english","language_id":38}}]}],"pagination":{"per_page":10,"current_page":1,"next_page":2,"total_pages":2,"total_records":11}}
