{"verses":[{"id":5496,"verse_number":1,"verse_key":"74:1","hizb_number":58,"rub_el_hizb_number":230,"ruku_number":512,"manzil_number":7,"sajdah_number":null,"page_number":575,"juz_number":29,"words":[{"id":631,"position":1,"audio_url":"wbw/074_001_001.mp3","verse_key":"74:1","verse_id":5496,"location":"74:1:1","text_uthmani":"يَـٰٓأَيُّهَا","qpc_uthmani_hafs":"يَٰٓأَيُّهَا","char_type_name":"word","page_number":575,"line_number":10,"text":"يَٰٓأَيُّهَا","translation":{"text":"O you","language_name":"english","language_id":38},"transliteration":{"text":"yāayyuhā","language_name":"english","language_id":38}},{"id":632,"position":2,"audio_url":"wbw/074_001_002.mp3","verse_key":"74:1","verse_id":5496,"location":"74:1:2","text_uthmani":"ٱلْمُدَّثِّرُ","qpc_uthmani_hafs":"ٱلۡمُدَّثِّرُ","char_type_name":"word","page_number":575,"line_number":10,"text":"ٱلۡمُدَّثِّرُ","translation":{"text":"who covers himself","language_name":"english","language_id":38},"transliteration":{"text":"l-mudathiru","language_name":"english","language_id":38}},{"id":633,"position":3,"audio_url":null,"verse_key":"74:1","verse_id":5496,"location":"74:1:3","text_uthmani":"١","qpc_uthmani_hafs":"١","char_type_name":"end","page_number":575,"line_number":10,"text":"١","translation":{"text":"(1)","language_name":"english","language_id":38},"transliteration":{"text":null,"language_name":"english","language_id":38}}]},{"id":5497,"verse_number":2,"verse_key":"74:2","hizb_number":58,"rub_el_hizb_number":230,"ruku_number":512,"manzil_number":7,"sajdah_number":null,"page_number":575,"juz_number":29,"words":[{"id":1613,"position":1,"audio_url":"wbw/074_002_001.mp3","verse_key":"74:2","verse_id":5497,"location":"74:2:1","text_uthmani":"قُمْ","qpc_uthmani_hafs":"قُمۡ","char_type_name":"word","page_number":575,"line_number":10,"text":"قُمۡ","translation":{"text":"Stand up","language_name":"english","language_id":38},"transliteration":{"text":"qum","language_name":"english","language_id":38}},{"id":1614,"position":2,"audio_url":"wbw/074_002_002.mp3","verse_key":"74:2","verse_id":5497,"location":"74:2:2","text_uthmani":"فَأَنذِرْ","qpc_uthmani_hafs":"فَأَنذِرۡ","char_type_name":"word","page_number":575,"line_number":10,"text":"فَأَنذِرۡ","translation":{"text":"and warn","language_name":"english","language_id":38},"transliteration":{"text":"fa-andhir","language_name":"english","language_id":38}},{"id":1615,"position":3,"audio_url":null,"verse_key":"74:2","verse_id":5497,"location":"74:2:3","text_uthmani":"٢","qpc_uthmani_hafs":"٢","char_type_name":"end","page_number":575,"line_number":10,"text":"٢","translation":{"text":"(2)","language_name":"english","language_id":38},"transliteration":{"text":null,"language_name":"english","language_id":38}}]},{"id":5498,"verse_number":3,"verse_key":"74:3","hizb_number":58,"rub_el_hizb_number":230,"ruku_number":512,"manzil_number":7,"sajdah_number":null,"page_number":575,"juz_number":29,"words":[{"id":2622,"position":1,"audio_url":"wbw/074_003_001.mp3","verse_key":"74:3","verse_id":5498,"location":"74:3:1","text_uthmani":"وَرَبَّكَ","qpc_uthmani_hafs":"وَرَبَّكَ","char_type_name":"word","page_number":575,"line_number":10,"text":"وَرَبَّكَ","translation":{"text":"And your Lord","language_name":"english","language_id":38},"transliteration":{"text":"warabbaka","language_name":"english","language_id":38}},{"id":2623,"position":2,"audio_url":"wbw/074_003_002.mp3","verse_key":"74:3","verse_id":5498,"location":"74:3:2","text_uthmani":"فَكَبِّرْ","qpc_uthmani_hafs":"فَكَبِّرۡ","char_type_name":"word","page_number":575,"line_number":10,"text":"فَكَبِّرۡ","translation":{"text":"magnify","language_name":"english","language_id":38},"transliteration":{"text":"fakabbir","language_name":"english","language_id":38}},{"id":2624,"position":3,"audio_url":null,"verse_key":"74:3","verse_id":5498,"location":"74:3:3","text_uthmani":"٣","qpc_uthmani_hafs":"٣","char_type_name":"end","page_number":575,"line_number":10,"text":"٣","translation":{"text":"(3)","language_name":"english","language_id":38},"transliteration":{"text":null,"language_name":"english","language_id":38}}]},{"id":5499,"verse_number":4,"verse_key":"74:4","hizb_number":58,"rub_el_hizb_number":230,"ruku_number":512,"manzil_number":7,"sajdah_number":null,"page_number":575,"juz_number":29,"words":[{"id":4045,"position":1,"audio_url":"wbw/074_004_001.mp3","verse_key":"74:4","verse_id":5499,"location":"74:4:1","text_uthmani":"وَثِيَابَكَ","qpc_uthmani_hafs":"وَثِيَابَكَ","char_type_name":"word","page_number":575,"line_number":10,"text":"وَثِيَابَكَ","translation":{"text":"And your clothing","language_name":"english","language_id":38},"transliteration":{"text":"wathiyābaka","language_name":"english","language_id":38}},{"id":4046,"position":2,"audio_url":"wbw/074_004_002.mp3","verse_key":"74:4","verse_id":5499,"location":"74:4:2","text_uthmani":"فَطَهِّرْ","qpc_uthmani_hafs":"فَطَهِّرۡ","char_type_name":"word","page_number":575,"line_number":10,"text":"فَطَهِّرۡ","translation":{"text":"purify","language_name":"english","language_id":38},"transliteration":{"text":"faṭahhir","language_name":"english","language_id":38}},{"id":4047,"position":3,"audio_url":null,"verse_key":"74:4","verse_id":5499,"location":"74:4:3","text_uthmani":"٤","qpc_uthmani_hafs":"٤","char_type_name":"end","page_number":575,"line_number":10,"text":"٤","translation":{"text":"(4)","language_name":"english","language_id":38},"transliteration":{"text":null,"language_name":"english","language_id":38}}]},{"id":5500,"verse_number":5,"verse_key":"74:5","hizb_number":58,"rub_el_hizb_number":230,"ruku_number":512,"manzil_number":7,"sajdah_number":null,"page_number":575,"juz_number":29,"words":[{"id":5331,"position":1,"audio_url":"wbw/074_005_001.mp3","verse_key":"74:5","verse_id":5500,"location":"74:5:1","text_uthmani":"وَٱلرُّجْزَ","qpc_uthmani_hafs":"وَٱلرُّجۡزَ","char_type_name":"word","page_number":575,"line_number":11,"text":"وَٱلرُّجۡزَ","translation":{"text":"And uncleanliness","language_name":"english","language_id":38},"transliteration":{"text":"wal-ruj'za","language_name":"english","language_id":38}},{"id":5332,"position":2,"audio_url":"wbw/074_005_002.mp3","verse_key":"74:5","verse_id":5500,"location":"74:5:2","text_uthmani":"فَٱهْجُرْ","qpc_uthmani_hafs":"فَٱهۡجُرۡ","char_type_name":"word","page_number":575,"line_number":11,"text":"فَٱهۡجُرۡ","translation":{"text":"avoid","language_name":"english","language_id":38},"transliteration":{"text":"fa-uh'jur","language_name":"english","language_id":38}},{"id":5333,"position":3,"audio_url":null,"verse_key":"74:5","verse_id":5500,"location":"74:5:3","text_uthmani":"٥","qpc_uthmani_hafs":"٥","char_type_name":"end","page_number":575,"line_number":11,"text":"٥","translation":{"text":"(5)","language_name":"english","language_id":38},"transliteration":{"text":null,"language_name":"english","language_id":38}}]},{"id":5501,"verse_number":6,"verse_key":"74:6","hizb_number":58,"rub_el_hizb_number":230,"ruku_number":512,"manzil_number":7,"sajdah_number":null,"page_number":575,"juz_number":29,"words":[{"id":6546,"position":1,"audio_url":"wbw/074_006_001.mp3","verse_key":"74:6","verse_id":5501,"location":"74:6:1","text_uthmani":"وَلَا","qpc_uthmani_hafs":"وَلَا","char_type_name":"word","page_number":575,"line_number":11,"text":"وَلَا","translation":{"text":"And (do) not","language_name":"english","language_id":38},"transliteration":{"text":"walā","language_name":"english","language_id":38}},{"id":6547,"position":2,"audio_url":"wbw/074_006_002.mp3","verse_key":"74:6","verse_id":5501,"location":"74:6:2","text_uthmani":"تَمْنُن","qpc_uthmani_hafs":"تَمۡنُن","char_type_name":"word","page_number":575,"line_number":11,"text":"تَمۡنُن","translation":{"text":"confer favor","language_name":"english","language_id":38},"transliteration":{"text":"tamnun","language_name":"english","language_id":38}},{"id":6548,"position":3,"audio_url":"wbw/074_006_003.mp3","verse_key":"74:6","verse_id":5501,"location":"74:6:3","text_uthmani":"تَسْتَكْثِرُ","qpc_uthmani_hafs":"تَسۡتَكۡثِرُ","char_type_name":"word","page_number":575,"line_number":11,"text":"تَسۡتَكۡثِرُ","translation":{"text":"(to) acquire more","language_name":"english","language_id":38},"transliteration":{"text":"tastakthiru","language_name":"english","language_id":38}},{"id":6549,"position":4,"audio_url":null,"verse_key":"74:6","verse_id":5501,"location":"74:6:4","text_uthmani":"٦","qpc_uthmani_hafs":"٦","char_type_name":"end","page_number":575,"line_number":11,"text":"٦","translation":{"text":"(6)","language_name":"english","language_id":38},"transliteration":{"text":null,"language_name":"english","language_id":38}}]},{"id":5502,"verse_number":7,"verse_key":"74:7","hizb_number":58,"rub_el_hizb_number":230,"ruku_number":512,"manzil_number":7,"sajdah_number":null,"page_number":575,"juz_number":29,"words":[{"id":7947,"position":1,"audio_url":"wbw/074_007_001.mp3","verse_key":"74:7","verse_id":5502,"location":"74:7:1","text_uthmani":"وَلِرَبِّكَ","qpc_uthmani_hafs":"وَلِرَبِّكَ","char_type_name":"word","page_number":575,"line_number":11,"text":"وَلِرَبِّكَ","translation":{"text":"And for your Lord","language_name":"english","language_id":38},"transliteration":{"text":"walirabbika","language_name":"english","language_id":38}},{"id":7948,"position":2,"audio_url":"wbw/074_007_002.mp3","verse_key":"74:7","verse_id":5502,"location":"74:7:2","text_uthmani":"فَٱصْبِرْ","qpc_uthmani_hafs":"فَٱصۡبِرۡ","char_type_name":"word","page_number":575,"line_number":11,"text":"فَٱصۡبِرۡ","translation":{"text":"be patient","language_name":"english","language_id":38},"transliteration":{"text":"fa-iṣ'bir","language_name":"english","language_id":38}},{"id":7949,"position":3,"audio_url":null,"verse_key":"74:7","verse_id":5502,"location":"74:7:3","text_uthmani":"٧","qpc_uthmani_hafs":"٧","char_type_name":"end","page_number":575,"line_number":11,"text":"٧","translation":{"text":"(7)","language_name":"english","language_id":38},"transliteration":{"text":null,"language_name":"english","language_id":38}}]},{"id":5503,"verse_number":8,"verse_key":"74:8","hizb_number":58,"rub_el_hizb_number":230,"ruku_number":512,"manzil_number":7,"sajdah_number":null,"page_number":575,"juz_number":29,"words":[{"id":9113,"position":1,"audio_url":"wbw/074_008_001.mp3","verse_key":"74:8","verse_id":5503,"location":"74:8:1","text_uthmani":"فَإِذَا","qpc_uthmani_hafs":"فَإِذَا","char_type_name":"word","page_number":575,"line_number":11,"text":"فَإِذَا","translation":{"text":"Then when","language_name":"english","language_id":38},"transliteration":{"text":"fa-idhā","language_name":"english","language_id":38}},{"id":9114,"position":2,"audio_url":"wbw/074_008_002.mp3","verse_key":"74:8","verse_id":5503,"location":"74:8:2","text_uthmani":"نُقِرَ","qpc_uthmani_hafs":"نُقِرَ","char_type_name":"word","page_number":575,"line_number":11,"text":"نُقِرَ","translation":{"text":"is blown","language_name":"english","language_id":38},"transliteration":{"text":"nuqira","language_name":"english","language_id":38}},{"id":9115,"position":3,"audio_url":"wbw/074_008_003.mp3","verse_key":"74:8","verse_id":5503,"location":"74:8:3","text_uthmani":"فِى","qpc_uthmani_hafs":"فِي","char_type_name":"word","page_number":575,"line_number":12,"text":"فِي","translation":{"text":"in","language_name":"english","language_id":38},"transliteration":{"text":"fī","language_name":"english","language_id":38}},{"id":9116,"position":4,"audio_url":"wbw/074_008_004.mp3","verse_key":"74:8","verse_id":5503,"location":"74:8:4","text_uthmani":"ٱلنَّاقُورِ","qpc_uthmani_hafs":"ٱلنَّاقُورِ","char_type_name":"word","page_number":575,"line_number":12,"text":"ٱلنَّاقُورِ","translation":{"text":"the trumpet","language_name":"english","language_id":38},"transliteration":{"text":"l-nāqūri","language_name":"english","language_id":38}},{"id":9117,"position":5,"audio_url":null,"verse_key":"74:8","verse_id":5503,"location":"74:8:5","text_uthmani":"٨","qpc_uthmani_hafs":"٨","char_type_name":"end","page_number":575,"line_number":12,"text":"٨","translation":{"text":"(8)","language_name":"english","language_id":38},"transliteration":{"text":null,"language_name":"english","language_id":38}}]},{"id":5504,"verse_number":9,"verse_key":"74:9","hizb_number":58,"rub_el_hizb_number":230,"ruku_number":512,"manzil_number":7,"sajdah_number":null,"page_number":575,"juz_number":29,"words":[{"id":10338,"position":1,"audio_url":"wbw/074_009_001.mp3","verse_key":"74:9","verse_id":5504,"location":"74:9:1","text_uthmani":"فَذَٰلِكَ","qpc_uthmani_hafs":"فَذَٰلِكَ","char_type_name":"word","page_number":575,"line_number":12,"text":"فَذَٰلِكَ","translation":{"text":"That","language_name":"english","language_id":38},"transliteration":{"text":"fadhālika","language_name":"english","language_id":38}},{"id":10339,"position":2,"audio_url":"wbw/074_009_002.mp3","verse_key":"74:9","verse_id":5504,"location":"74:9:2","text_uthmani":"يَوْمَئِذٍۢ","qpc_uthmani_hafs":"يَوۡمَئِذٖ","char_type_name":"word","page_number":575,"line_number":12,"text":"يَوۡمَئِذٖ","translation":{"text":"Day","language_name":"english","language_id":38},"transliteration":{"text":"yawma-idhin","language_name":"english","language_id":38}},{"id":10340,"position":3,"audio_url":"wbw/074_009_003.mp3","verse_key":"74:9","verse_id":5504,"location":"74:9:3","text_uthmani":"يَوْمٌ","qpc_uthmani_hafs":"يَوۡمٌ","char_type_name":"word","page_number":575,"line_number":12,"text":"يَوۡمٌ","translation":{"text":"(will be) a Day","language_name":"english","language_id":38},"transliteration":{"text":"yawmun","language_name":"english","language_id":38}},{"id":10341,"position":4,"audio_url":"wbw/074_009_004.mp3","verse_key":"74:9","verse_id":5504,"location":"74:9:4","text_uthmani":"عَسِيرٌ","qpc_uthmani_hafs":"عَسِيرٌ","char_type_name":"word","page_number":575,"line_number":12,"text":"عَسِيرٌ","translation":{"text":"difficult","language_name":"english","language_id":38},"transliteration":{"text":"ʿasīrun","language_name":"english","language_id":38}},{"id":10342,"position":5,"audio_url":null,"verse_key":"74:9","verse_id":5504,"location":"74:9:5","text_uthmani":"٩","qpc_uthmani_hafs":"٩","char_type_name":"end","page_number":575,"line_number":12,"text":"٩","translation":{"text":"(9)","language_name":"english","language_id":38},"transliteration":{"text":null,"language_name":"english","language_id":38}}]},{"id":5505,"verse_number":10,"verse_key":"74:10","hizb_number":58,"rub_el_hizb_number":230,"ruku_number":512,"manzil_number":7,"sajdah_number":null,"page_number":575,"juz_number":29,"words":[{"id":11570,"position":1,"audio_url":"wbw/074_010_001.mp3","verse_key":"74:10","verse_id":5505,"location":"74:10:1","text_uthmani":"عَلَى","qpc_uthmani_hafs":"عَلَى","char_type_name":"word","page_number":575,"line_number":12,"text":"عَلَى","translation":{"text":"For","language_name":"english","language_id":38},"transliteration":{"text":"ʿalā","language_name":"english","language_id":38}},{"id":11571,"position":2,"audio_url":"wbw/074_010_002.mp3","verse_key":"74:10","verse_id":5505,"location":"74:10:2","text_uthmani":"ٱلْكَـٰفِرِينَ","qpc_uthmani_hafs":"ٱلۡكَٰفِرِينَ","char_type_name":"word","page_number":575,"line_number":12,"text":"ٱلۡكَٰفِرِينَ","translation":{"text":"the disbelievers ","language_name":"english","language_id":38},"transliteration":{"text":"l-kāfirīna","language_name":"english","language_id":38}},{"id":11572,"position":3,"audio_url":"wbw/074_010_003.mp3","verse_key":"74:10","verse_id":5505,"location":"74:10:3","text_uthmani":"غَيْرُ","qpc_uthmani_hafs":"غَيۡرُ","char_type_name":"word","page_number":575,"line_number":12,"text":"غَيۡرُ","translation":{"text":"not","language_name":"english","language_id":38},"transliteration":{"text":"ghayru","language_name":"english","language_id":38}},{"id":11573,"position":4,"audio_url":"wbw/074_010_004.mp3","verse_key":"74:10","verse_id":5505,"location":"74:10:4","text_uthmani":"يَسِيرٍۢ","qpc_uthmani_hafs":"يَسِيرٖ","char_type_name":"word","page_number":575,"line_number":12,"text":"يَسِيرٖ","translation":{"text":"easy","language_name":"english","language_id":38},"transliteration":{"text":"yasīrin","language_name":"english","language_id":38}},{"id":11574,"position":5,"audio_url":null,"verse_key":"74:10","verse_id":5505,"location":"74:10:5","text_uthmani":"١٠","qpc_uthmani_hafs":"١٠","char_type_name":"end","page_number":575,"line_number":12,"text":"١٠","translation":{"text":"(10)","language_name":"english","language_id":38},"transliteration":{"text":null,"language_name":"english","language_id":38}}]}],"pagination":{"per_page":10,"current_page":1,"next_page":2,"total_pages":6,"total_records":56}}
