{"verses":[{"id":4736,"verse_number":1,"verse_key":"52:1","hizb_number":53,"rub_el_hizb_number":209,"ruku_number":460,"manzil_number":7,"sajdah_number":null,"page_number":523,"juz_number":27,"words":[{"id":274,"position":1,"audio_url":"wbw/052_001_001.mp3","char_type_name":"word","page_number":523,"line_number":10,"text":"وَٱلطُّورِ","translation":{"text":"শপথ তূর (পাহাড়ের)","language_name":"bengali","language_id":20},"transliteration":{"text":"wal-ṭūri","language_name":"english","language_id":38}},{"id":275,"position":2,"audio_url":null,"char_type_name":"end","page_number":523,"line_number":10,"text":"١","translation":{"text":"(১)","language_name":"bengali","language_id":20},"transliteration":{"text":null,"language_name":"english","language_id":38}}]},{"id":4737,"verse_number":2,"verse_key":"52:2","hizb_number":53,"rub_el_hizb_number":209,"ruku_number":460,"manzil_number":7,"sajdah_number":null,"page_number":523,"juz_number":27,"words":[{"id":1153,"position":1,"audio_url":"wbw/052_002_001.mp3","char_type_name":"word","page_number":523,"line_number":10,"text":"وَكِتَـٰبٍۢ","translation":{"text":"এবং (শপথ) কিতাবের","language_name":"bengali","language_id":20},"transliteration":{"text":"wakitābin","language_name":"english","language_id":38}},{"id":1154,"position":2,"audio_url":"wbw/052_002_002.mp3","char_type_name":"word","page_number":523,"line_number":10,"text":"مَّسْطُورٍۢ","translation":{"text":"(যা) লিখিত","language_name":"bengali","language_id":20},"transliteration":{"text":"masṭūrin","language_name":"english","language_id":38}},{"id":1155,"position":3,"audio_url":null,"char_type_name":"end","page_number":523,"line_number":10,"text":"٢","translation":{"text":"(২)","language_name":"bengali","language_id":20},"transliteration":{"text":null,"language_name":"english","language_id":38}}]},{"id":4738,"verse_number":3,"verse_key":"52:3","hizb_number":53,"rub_el_hizb_number":209,"ruku_number":460,"manzil_number":7,"sajdah_number":null,"page_number":523,"juz_number":27,"words":[{"id":2192,"position":1,"audio_url":"wbw/052_003_001.mp3","char_type_name":"word","page_number":523,"line_number":10,"text":"فِى","translation":{"text":"মধ্যে","language_name":"bengali","language_id":20},"transliteration":{"text":"fī","language_name":"english","language_id":38}},{"id":2193,"position":2,"audio_url":"wbw/052_003_002.mp3","char_type_name":"word","page_number":523,"line_number":10,"text":"رَقٍّۢ","translation":{"text":"চামড়ার কাগজের","language_name":"bengali","language_id":20},"transliteration":{"text":"raqqin","language_name":"english","language_id":38}},{"id":2194,"position":3,"audio_url":"wbw/052_003_003.mp3","char_type_name":"word","page_number":523,"line_number":10,"text":"مَّنشُورٍۢ","translation":{"text":"উন্মুক্ত","language_name":"bengali","language_id":20},"transliteration":{"text":"manshūrin","language_name":"english","language_id":38}},{"id":2195,"position":4,"audio_url":null,"char_type_name":"end","page_number":523,"line_number":10,"text":"٣","translation":{"text":"(৩)","language_name":"bengali","language_id":20},"transliteration":{"text":null,"language_name":"english","language_id":38}}]},{"id":4739,"verse_number":4,"verse_key":"52:4","hizb_number":53,"rub_el_hizb_number":209,"ruku_number":460,"manzil_number":7,"sajdah_number":null,"page_number":523,"juz_number":27,"words":[{"id":3515,"position":1,"audio_url":"wbw/052_004_001.mp3","char_type_name":"word","page_number":523,"line_number":10,"text":"وَٱلْبَيْتِ","translation":{"text":"এবং (শপথ) ঘরের","language_name":"bengali","language_id":20},"transliteration":{"text":"wal-bayti","language_name":"english","language_id":38}},{"id":3516,"position":2,"audio_url":"wbw/052_004_002.mp3","char_type_name":"word","page_number":523,"line_number":11,"text":"ٱلْمَعْمُورِ","translation":{"text":"চির আবাদ","language_name":"bengali","language_id":20},"transliteration":{"text":"l-maʿmūri","language_name":"english","language_id":38}},{"id":3517,"position":3,"audio_url":null,"char_type_name":"end","page_number":523,"line_number":11,"text":"٤","translation":{"text":"(৪)","language_name":"bengali","language_id":20},"transliteration":{"text":null,"language_name":"english","language_id":38}}]},{"id":4740,"verse_number":5,"verse_key":"52:5","hizb_number":53,"rub_el_hizb_number":209,"ruku_number":460,"manzil_number":7,"sajdah_number":null,"page_number":523,"juz_number":27,"words":[{"id":4868,"position":1,"audio_url":"wbw/052_005_001.mp3","char_type_name":"word","page_number":523,"line_number":11,"text":"وَٱلسَّقْفِ","translation":{"text":"এবং (শপথ) ছাদের (অর্থাৎ আকাশের)","language_name":"bengali","language_id":20},"transliteration":{"text":"wal-saqfi","language_name":"english","language_id":38}},{"id":4869,"position":2,"audio_url":"wbw/052_005_002.mp3","char_type_name":"word","page_number":523,"line_number":11,"text":"ٱلْمَرْفُوعِ","translation":{"text":"সুউচ্চ","language_name":"bengali","language_id":20},"transliteration":{"text":"l-marfūʿi","language_name":"english","language_id":38}},{"id":4870,"position":3,"audio_url":null,"char_type_name":"end","page_number":523,"line_number":11,"text":"٥","translation":{"text":"(৫)","language_name":"bengali","language_id":20},"transliteration":{"text":null,"language_name":"english","language_id":38}}]},{"id":4741,"verse_number":6,"verse_key":"52:6","hizb_number":53,"rub_el_hizb_number":209,"ruku_number":460,"manzil_number":7,"sajdah_number":null,"page_number":523,"juz_number":27,"words":[{"id":6112,"position":1,"audio_url":"wbw/052_006_001.mp3","char_type_name":"word","page_number":523,"line_number":11,"text":"وَٱلْبَحْرِ","translation":{"text":"এবং (শপথ) সাগরের","language_name":"bengali","language_id":20},"transliteration":{"text":"wal-baḥri","language_name":"english","language_id":38}},{"id":6113,"position":2,"audio_url":"wbw/052_006_002.mp3","char_type_name":"word","page_number":523,"line_number":11,"text":"ٱلْمَسْجُورِ","translation":{"text":"উত্তাল","language_name":"bengali","language_id":20},"transliteration":{"text":"l-masjūri","language_name":"english","language_id":38}},{"id":6114,"position":3,"audio_url":null,"char_type_name":"end","page_number":523,"line_number":11,"text":"٦","translation":{"text":"(৬)","language_name":"bengali","language_id":20},"transliteration":{"text":null,"language_name":"english","language_id":38}}]},{"id":4742,"verse_number":7,"verse_key":"52:7","hizb_number":53,"rub_el_hizb_number":209,"ruku_number":460,"manzil_number":7,"sajdah_number":null,"page_number":523,"juz_number":27,"words":[{"id":7445,"position":1,"audio_url":"wbw/052_007_001.mp3","char_type_name":"word","page_number":523,"line_number":11,"text":"إِنَّ","translation":{"text":"নিশ্চয়ই","language_name":"bengali","language_id":20},"transliteration":{"text":"inna","language_name":"english","language_id":38}},{"id":7446,"position":2,"audio_url":"wbw/052_007_002.mp3","char_type_name":"word","page_number":523,"line_number":12,"text":"عَذَابَ","translation":{"text":"শাস্তি","language_name":"bengali","language_id":20},"transliteration":{"text":"ʿadhāba","language_name":"english","language_id":38}},{"id":7447,"position":3,"audio_url":"wbw/052_007_003.mp3","char_type_name":"word","page_number":523,"line_number":12,"text":"رَبِّكَ","translation":{"text":"তোমার রবের","language_name":"bengali","language_id":20},"transliteration":{"text":"rabbika","language_name":"english","language_id":38}},{"id":7448,"position":4,"audio_url":"wbw/052_007_004.mp3","char_type_name":"word","page_number":523,"line_number":12,"text":"لَوَٰقِعٌۭ","translation":{"text":"অবশ্যই ঘটবে","language_name":"bengali","language_id":20},"transliteration":{"text":"lawāqiʿun","language_name":"english","language_id":38}},{"id":7449,"position":5,"audio_url":null,"char_type_name":"end","page_number":523,"line_number":12,"text":"٧","translation":{"text":"(৭)","language_name":"bengali","language_id":20},"transliteration":{"text":null,"language_name":"english","language_id":38}}]},{"id":4743,"verse_number":8,"verse_key":"52:8","hizb_number":53,"rub_el_hizb_number":209,"ruku_number":460,"manzil_number":7,"sajdah_number":null,"page_number":523,"juz_number":27,"words":[{"id":8704,"position":1,"audio_url":"wbw/052_008_001.mp3","char_type_name":"word","page_number":523,"line_number":12,"text":"مَّا","translation":{"text":"নেই","language_name":"bengali","language_id":20},"transliteration":{"text":"mā","language_name":"english","language_id":38}},{"id":8705,"position":2,"audio_url":"wbw/052_008_002.mp3","char_type_name":"word","page_number":523,"line_number":12,"text":"لَهُۥ","translation":{"text":"তার জন্যে","language_name":"bengali","language_id":20},"transliteration":{"text":"lahu","language_name":"english","language_id":38}},{"id":8706,"position":3,"audio_url":"wbw/052_008_003.mp3","char_type_name":"word","page_number":523,"line_number":12,"text":"مِن","translation":{"text":"কোনো","language_name":"bengali","language_id":20},"transliteration":{"text":"min","language_name":"english","language_id":38}},{"id":8707,"position":4,"audio_url":"wbw/052_008_004.mp3","char_type_name":"word","page_number":523,"line_number":12,"text":"دَافِعٍۢ","translation":{"text":"প্রতিরোধকারী","language_name":"bengali","language_id":20},"transliteration":{"text":"dāfiʿin","language_name":"english","language_id":38}},{"id":8708,"position":5,"audio_url":null,"char_type_name":"end","page_number":523,"line_number":12,"text":"٨","translation":{"text":"(৮)","language_name":"bengali","language_id":20},"transliteration":{"text":null,"language_name":"english","language_id":38}}]},{"id":4744,"verse_number":9,"verse_key":"52:9","hizb_number":53,"rub_el_hizb_number":209,"ruku_number":460,"manzil_number":7,"sajdah_number":null,"page_number":523,"juz_number":27,"words":[{"id":9930,"position":1,"audio_url":"wbw/052_009_001.mp3","char_type_name":"word","page_number":523,"line_number":12,"text":"يَوْمَ","translation":{"text":"সেদিন","language_name":"bengali","language_id":20},"transliteration":{"text":"yawma","language_name":"english","language_id":38}},{"id":9931,"position":2,"audio_url":"wbw/052_009_002.mp3","char_type_name":"word","page_number":523,"line_number":12,"text":"تَمُورُ","translation":{"text":"কাঁপবে","language_name":"bengali","language_id":20},"transliteration":{"text":"tamūru","language_name":"english","language_id":38}},{"id":9932,"position":3,"audio_url":"wbw/052_009_003.mp3","char_type_name":"word","page_number":523,"line_number":12,"text":"ٱلسَّمَآءُ","translation":{"text":"আকাশ","language_name":"bengali","language_id":20},"transliteration":{"text":"l-samāu","language_name":"english","language_id":38}},{"id":9933,"position":4,"audio_url":"wbw/052_009_004.mp3","char_type_name":"word","page_number":523,"line_number":13,"text":"مَوْرًۭا","translation":{"text":"প্রবল কম্পনে","language_name":"bengali","language_id":20},"transliteration":{"text":"mawran","language_name":"english","language_id":38}},{"id":9934,"position":5,"audio_url":null,"char_type_name":"end","page_number":523,"line_number":13,"text":"٩","translation":{"text":"(৯)","language_name":"bengali","language_id":20},"transliteration":{"text":null,"language_name":"english","language_id":38}}]},{"id":4745,"verse_number":10,"verse_key":"52:10","hizb_number":53,"rub_el_hizb_number":209,"ruku_number":460,"manzil_number":7,"sajdah_number":null,"page_number":523,"juz_number":27,"words":[{"id":11059,"position":1,"audio_url":"wbw/052_010_001.mp3","char_type_name":"word","page_number":523,"line_number":13,"text":"وَتَسِيرُ","translation":{"text":"এবং চলবে","language_name":"bengali","language_id":20},"transliteration":{"text":"watasīru","language_name":"english","language_id":38}},{"id":11060,"position":2,"audio_url":"wbw/052_010_002.mp3","char_type_name":"word","page_number":523,"line_number":13,"text":"ٱلْجِبَالُ","translation":{"text":"পাহাড়গুলো","language_name":"bengali","language_id":20},"transliteration":{"text":"l-jibālu","language_name":"english","language_id":38}},{"id":11061,"position":3,"audio_url":"wbw/052_010_003.mp3","char_type_name":"word","page_number":523,"line_number":13,"text":"سَيْرًۭا","translation":{"text":"(দ্রুত) চলার মতো","language_name":"bengali","language_id":20},"transliteration":{"text":"sayran","language_name":"english","language_id":38}},{"id":11062,"position":4,"audio_url":null,"char_type_name":"end","page_number":523,"line_number":13,"text":"١٠","translation":{"text":"(১০)","language_name":"bengali","language_id":20},"transliteration":{"text":null,"language_name":"english","language_id":38}}]}],"pagination":{"per_page":10,"current_page":1,"next_page":2,"total_pages":5,"total_records":49}}
