{"verses":[{"id":4756,"verse_number":21,"verse_key":"52:21","hizb_number":53,"rub_el_hizb_number":209,"ruku_number":460,"manzil_number":7,"sajdah_number":null,"page_number":524,"juz_number":27,"words":[{"id":23690,"position":1,"audio_url":"wbw/052_021_001.mp3","char_type_name":"word","page_number":524,"line_number":6,"text":"وَٱلَّذِينَ","translation":{"text":"এবং যারা","language_name":"bengali","language_id":20},"transliteration":{"text":"wa-alladhīna","language_name":"english","language_id":38}},{"id":23691,"position":2,"audio_url":"wbw/052_021_002.mp3","char_type_name":"word","page_number":524,"line_number":6,"text":"ءَامَنُوا۟","translation":{"text":"ঈমান এনেছে","language_name":"bengali","language_id":20},"transliteration":{"text":"āmanū","language_name":"english","language_id":38}},{"id":23692,"position":3,"audio_url":"wbw/052_021_003.mp3","char_type_name":"word","page_number":524,"line_number":6,"text":"وَٱتَّبَعَتْهُمْ","translation":{"text":"ও তাদেরকে অনুসরণ করেছে","language_name":"bengali","language_id":20},"transliteration":{"text":"wa-ittabaʿathum","language_name":"english","language_id":38}},{"id":23693,"position":4,"audio_url":"wbw/052_021_004.mp3","char_type_name":"word","page_number":524,"line_number":6,"text":"ذُرِّيَّتُهُم","translation":{"text":"তাদের সন্তানরা","language_name":"bengali","language_id":20},"transliteration":{"text":"dhurriyyatuhum","language_name":"english","language_id":38}},{"id":23694,"position":5,"audio_url":"wbw/052_021_005.mp3","char_type_name":"word","page_number":524,"line_number":6,"text":"بِإِيمَـٰنٍ","translation":{"text":"ঈমানসহ","language_name":"bengali","language_id":20},"transliteration":{"text":"biīmānin","language_name":"english","language_id":38}},{"id":23695,"position":6,"audio_url":"wbw/052_021_006.mp3","char_type_name":"word","page_number":524,"line_number":6,"text":"أَلْحَقْنَا","translation":{"text":"আমরা মিলিত করব","language_name":"bengali","language_id":20},"transliteration":{"text":"alḥaqnā","language_name":"english","language_id":38}},{"id":23696,"position":7,"audio_url":"wbw/052_021_007.mp3","char_type_name":"word","page_number":524,"line_number":7,"text":"بِهِمْ","translation":{"text":"তাদের সাথে","language_name":"bengali","language_id":20},"transliteration":{"text":"bihim","language_name":"english","language_id":38}},{"id":23697,"position":8,"audio_url":"wbw/052_021_008.mp3","char_type_name":"word","page_number":524,"line_number":7,"text":"ذُرِّيَّتَهُمْ","translation":{"text":"তাদের সন্তানদেরকে","language_name":"bengali","language_id":20},"transliteration":{"text":"dhurriyyatahum","language_name":"english","language_id":38}},{"id":23698,"position":9,"audio_url":"wbw/052_021_009.mp3","char_type_name":"word","page_number":524,"line_number":7,"text":"وَمَآ","translation":{"text":"এবং না","language_name":"bengali","language_id":20},"transliteration":{"text":"wamā","language_name":"english","language_id":38}},{"id":23699,"position":10,"audio_url":"wbw/052_021_010.mp3","char_type_name":"word","page_number":524,"line_number":7,"text":"أَلَتْنَـٰهُم","translation":{"text":"তাদের আমরা কম করব","language_name":"bengali","language_id":20},"transliteration":{"text":"alatnāhum","language_name":"english","language_id":38}},{"id":23700,"position":11,"audio_url":"wbw/052_021_011.mp3","char_type_name":"word","page_number":524,"line_number":7,"text":"مِّنْ","translation":{"text":"হতে","language_name":"bengali","language_id":20},"transliteration":{"text":"min","language_name":"english","language_id":38}},{"id":23701,"position":12,"audio_url":"wbw/052_021_012.mp3","char_type_name":"word","page_number":524,"line_number":7,"text":"عَمَلِهِم","translation":{"text":"তাদের আমল","language_name":"bengali","language_id":20},"transliteration":{"text":"ʿamalihim","language_name":"english","language_id":38}},{"id":23702,"position":13,"audio_url":"wbw/052_021_013.mp3","char_type_name":"word","page_number":524,"line_number":7,"text":"مِّن","translation":{"text":"কোনো","language_name":"bengali","language_id":20},"transliteration":{"text":"min","language_name":"english","language_id":38}},{"id":23703,"position":14,"audio_url":"wbw/052_021_014.mp3","char_type_name":"word","page_number":524,"line_number":7,"text":"شَىْءٍۢ ۚ","translation":{"text":"কিছুই","language_name":"bengali","language_id":20},"transliteration":{"text":"shayin","language_name":"english","language_id":38}},{"id":23705,"position":15,"audio_url":"wbw/052_021_016.mp3","char_type_name":"word","page_number":524,"line_number":7,"text":"كُلُّ","translation":{"text":"প্রত্যেক","language_name":"bengali","language_id":20},"transliteration":{"text":"kullu","language_name":"english","language_id":38}},{"id":23706,"position":16,"audio_url":"wbw/052_021_017.mp3","char_type_name":"word","page_number":524,"line_number":7,"text":"ٱمْرِئٍۭ","translation":{"text":"ব্যক্তি","language_name":"bengali","language_id":20},"transliteration":{"text":"im'ri-in","language_name":"english","language_id":38}},{"id":23707,"position":17,"audio_url":"wbw/052_021_018.mp3","char_type_name":"word","page_number":524,"line_number":7,"text":"بِمَا","translation":{"text":"ঐ বিষয়ে যা","language_name":"bengali","language_id":20},"transliteration":{"text":"bimā","language_name":"english","language_id":38}},{"id":23708,"position":18,"audio_url":"wbw/052_021_019.mp3","char_type_name":"word","page_number":524,"line_number":8,"text":"كَسَبَ","translation":{"text":"সে অর্জন করেছে","language_name":"bengali","language_id":20},"transliteration":{"text":"kasaba","language_name":"english","language_id":38}},{"id":23709,"position":19,"audio_url":"wbw/052_021_020.mp3","char_type_name":"word","page_number":524,"line_number":8,"text":"رَهِينٌۭ","translation":{"text":"দায়ী/ বন্ধক (আছে)","language_name":"bengali","language_id":20},"transliteration":{"text":"rahīnun","language_name":"english","language_id":38}},{"id":23710,"position":20,"audio_url":null,"char_type_name":"end","page_number":524,"line_number":8,"text":"٢١","translation":{"text":"(২১)","language_name":"bengali","language_id":20},"transliteration":{"text":null,"language_name":"english","language_id":38}}]},{"id":4757,"verse_number":22,"verse_key":"52:22","hizb_number":53,"rub_el_hizb_number":209,"ruku_number":460,"manzil_number":7,"sajdah_number":null,"page_number":524,"juz_number":27,"words":[{"id":24664,"position":1,"audio_url":"wbw/052_022_001.mp3","char_type_name":"word","page_number":524,"line_number":8,"text":"وَأَمْدَدْنَـٰهُم","translation":{"text":"এবং তাদেরকে আমরা বেশি করে দেব","language_name":"bengali","language_id":20},"transliteration":{"text":"wa-amdadnāhum","language_name":"english","language_id":38}},{"id":24665,"position":2,"audio_url":"wbw/052_022_002.mp3","char_type_name":"word","page_number":524,"line_number":8,"text":"بِفَـٰكِهَةٍۢ","translation":{"text":"ফল মূল","language_name":"bengali","language_id":20},"transliteration":{"text":"bifākihatin","language_name":"english","language_id":38}},{"id":24666,"position":3,"audio_url":"wbw/052_022_003.mp3","char_type_name":"word","page_number":524,"line_number":8,"text":"وَلَحْمٍۢ","translation":{"text":"ও গোশত","language_name":"bengali","language_id":20},"transliteration":{"text":"walaḥmin","language_name":"english","language_id":38}},{"id":24667,"position":4,"audio_url":"wbw/052_022_004.mp3","char_type_name":"word","page_number":524,"line_number":8,"text":"مِّمَّا","translation":{"text":"তা হতে যা","language_name":"bengali","language_id":20},"transliteration":{"text":"mimmā","language_name":"english","language_id":38}},{"id":24668,"position":5,"audio_url":"wbw/052_022_005.mp3","char_type_name":"word","page_number":524,"line_number":8,"text":"يَشْتَهُونَ","translation":{"text":"তারা পছন্দ করবে","language_name":"bengali","language_id":20},"transliteration":{"text":"yashtahūna","language_name":"english","language_id":38}},{"id":24669,"position":6,"audio_url":null,"char_type_name":"end","page_number":524,"line_number":8,"text":"٢٢","translation":{"text":"(২২)","language_name":"bengali","language_id":20},"transliteration":{"text":null,"language_name":"english","language_id":38}}]},{"id":4758,"verse_number":23,"verse_key":"52:23","hizb_number":53,"rub_el_hizb_number":209,"ruku_number":460,"manzil_number":7,"sajdah_number":null,"page_number":524,"juz_number":27,"words":[{"id":26136,"position":1,"audio_url":"wbw/052_023_001.mp3","char_type_name":"word","page_number":524,"line_number":9,"text":"يَتَنَـٰزَعُونَ","translation":{"text":"তারা পরস্পরে নেবে","language_name":"bengali","language_id":20},"transliteration":{"text":"yatanāzaʿūna","language_name":"english","language_id":38}},{"id":26137,"position":2,"audio_url":"wbw/052_023_002.mp3","char_type_name":"word","page_number":524,"line_number":9,"text":"فِيهَا","translation":{"text":"তার মধ্যে","language_name":"bengali","language_id":20},"transliteration":{"text":"fīhā","language_name":"english","language_id":38}},{"id":26138,"position":3,"audio_url":"wbw/052_023_003.mp3","char_type_name":"word","page_number":524,"line_number":9,"text":"كَأْسًۭا","translation":{"text":"পানপাত্র","language_name":"bengali","language_id":20},"transliteration":{"text":"kasan","language_name":"english","language_id":38}},{"id":26139,"position":4,"audio_url":"wbw/052_023_004.mp3","char_type_name":"word","page_number":524,"line_number":9,"text":"لَّا","translation":{"text":"না","language_name":"bengali","language_id":20},"transliteration":{"text":"lā","language_name":"english","language_id":38}},{"id":26140,"position":5,"audio_url":"wbw/052_023_005.mp3","char_type_name":"word","page_number":524,"line_number":9,"text":"لَغْوٌۭ","translation":{"text":"অসার কথা (হবে)","language_name":"bengali","language_id":20},"transliteration":{"text":"laghwun","language_name":"english","language_id":38}},{"id":26141,"position":6,"audio_url":"wbw/052_023_006.mp3","char_type_name":"word","page_number":524,"line_number":9,"text":"فِيهَا","translation":{"text":"তার মধ্যে","language_name":"bengali","language_id":20},"transliteration":{"text":"fīhā","language_name":"english","language_id":38}},{"id":26142,"position":7,"audio_url":"wbw/052_023_007.mp3","char_type_name":"word","page_number":524,"line_number":9,"text":"وَلَا","translation":{"text":"এবং না","language_name":"bengali","language_id":20},"transliteration":{"text":"walā","language_name":"english","language_id":38}},{"id":26143,"position":8,"audio_url":"wbw/052_023_008.mp3","char_type_name":"word","page_number":524,"line_number":9,"text":"تَأْثِيمٌۭ","translation":{"text":"পাপকর্ম","language_name":"bengali","language_id":20},"transliteration":{"text":"tathīmun","language_name":"english","language_id":38}},{"id":26144,"position":9,"audio_url":null,"char_type_name":"end","page_number":524,"line_number":9,"text":"٢٣","translation":{"text":"(২৩)","language_name":"bengali","language_id":20},"transliteration":{"text":null,"language_name":"english","language_id":38}}]},{"id":4759,"verse_number":24,"verse_key":"52:24","hizb_number":53,"rub_el_hizb_number":210,"ruku_number":460,"manzil_number":7,"sajdah_number":null,"page_number":524,"juz_number":27,"words":[{"id":26808,"position":1,"audio_url":"wbw/052_024_002.mp3","char_type_name":"word","page_number":524,"line_number":9,"text":"۞ وَيَطُوفُ","translation":{"text":"এবং ঘুরতে থাকবে","language_name":"bengali","language_id":20},"transliteration":{"text":"wayaṭūfu","language_name":"english","language_id":38}},{"id":26809,"position":2,"audio_url":"wbw/052_024_003.mp3","char_type_name":"word","page_number":524,"line_number":9,"text":"عَلَيْهِمْ","translation":{"text":"তাদের কাছে","language_name":"bengali","language_id":20},"transliteration":{"text":"ʿalayhim","language_name":"english","language_id":38}},{"id":26810,"position":3,"audio_url":"wbw/052_024_004.mp3","char_type_name":"word","page_number":524,"line_number":10,"text":"غِلْمَانٌۭ","translation":{"text":"কিশোরেরা (সেবা করতে)","language_name":"bengali","language_id":20},"transliteration":{"text":"ghil'mānun","language_name":"english","language_id":38}},{"id":26811,"position":4,"audio_url":"wbw/052_024_005.mp3","char_type_name":"word","page_number":524,"line_number":10,"text":"لَّهُمْ","translation":{"text":"তাদের জন্যে","language_name":"bengali","language_id":20},"transliteration":{"text":"lahum","language_name":"english","language_id":38}},{"id":26812,"position":5,"audio_url":"wbw/052_024_006.mp3","char_type_name":"word","page_number":524,"line_number":10,"text":"كَأَنَّهُمْ","translation":{"text":"(এত সুন্দর হবে) তারা যেন","language_name":"bengali","language_id":20},"transliteration":{"text":"ka-annahum","language_name":"english","language_id":38}},{"id":26813,"position":6,"audio_url":"wbw/052_024_007.mp3","char_type_name":"word","page_number":524,"line_number":10,"text":"لُؤْلُؤٌۭ","translation":{"text":"মুক্তা","language_name":"bengali","language_id":20},"transliteration":{"text":"lu'lu-on","language_name":"english","language_id":38}},{"id":26814,"position":7,"audio_url":"wbw/052_024_008.mp3","char_type_name":"word","page_number":524,"line_number":10,"text":"مَّكْنُونٌۭ","translation":{"text":"লুকিয়ে রাখা","language_name":"bengali","language_id":20},"transliteration":{"text":"maknūnun","language_name":"english","language_id":38}},{"id":26815,"position":8,"audio_url":null,"char_type_name":"end","page_number":524,"line_number":10,"text":"٢٤","translation":{"text":"(২৪)","language_name":"bengali","language_id":20},"transliteration":{"text":null,"language_name":"english","language_id":38}}]},{"id":4760,"verse_number":25,"verse_key":"52:25","hizb_number":53,"rub_el_hizb_number":210,"ruku_number":460,"manzil_number":7,"sajdah_number":null,"page_number":524,"juz_number":27,"words":[{"id":27863,"position":1,"audio_url":"wbw/052_025_001.mp3","char_type_name":"word","page_number":524,"line_number":10,"text":"وَأَقْبَلَ","translation":{"text":"এবং সামনাসামনি হয়ে","language_name":"bengali","language_id":20},"transliteration":{"text":"wa-aqbala","language_name":"english","language_id":38}},{"id":27864,"position":2,"audio_url":"wbw/052_025_002.mp3","char_type_name":"word","page_number":524,"line_number":10,"text":"بَعْضُهُمْ","translation":{"text":"তাদের একে","language_name":"bengali","language_id":20},"transliteration":{"text":"baʿḍuhum","language_name":"english","language_id":38}},{"id":27865,"position":3,"audio_url":"wbw/052_025_003.mp3","char_type_name":"word","page_number":524,"line_number":10,"text":"عَلَىٰ","translation":{"text":"কাছে","language_name":"bengali","language_id":20},"transliteration":{"text":"ʿalā","language_name":"english","language_id":38}},{"id":27866,"position":4,"audio_url":"wbw/052_025_004.mp3","char_type_name":"word","page_number":524,"line_number":11,"text":"بَعْضٍۢ","translation":{"text":"অপরের","language_name":"bengali","language_id":20},"transliteration":{"text":"baʿḍin","language_name":"english","language_id":38}},{"id":27867,"position":5,"audio_url":"wbw/052_025_005.mp3","char_type_name":"word","page_number":524,"line_number":11,"text":"يَتَسَآءَلُونَ","translation":{"text":"পরস্পরের জিজ্ঞাসাবাদ করবে (অতীত সম্পর্কে)","language_name":"bengali","language_id":20},"transliteration":{"text":"yatasāalūna","language_name":"english","language_id":38}},{"id":27868,"position":6,"audio_url":null,"char_type_name":"end","page_number":524,"line_number":11,"text":"٢٥","translation":{"text":"(২৫)","language_name":"bengali","language_id":20},"transliteration":{"text":null,"language_name":"english","language_id":38}}]},{"id":4761,"verse_number":26,"verse_key":"52:26","hizb_number":53,"rub_el_hizb_number":210,"ruku_number":460,"manzil_number":7,"sajdah_number":null,"page_number":524,"juz_number":27,"words":[{"id":28820,"position":1,"audio_url":"wbw/052_026_001.mp3","char_type_name":"word","page_number":524,"line_number":11,"text":"قَالُوٓا۟","translation":{"text":"তারা বলবে","language_name":"bengali","language_id":20},"transliteration":{"text":"qālū","language_name":"english","language_id":38}},{"id":28821,"position":2,"audio_url":"wbw/052_026_002.mp3","char_type_name":"word","page_number":524,"line_number":11,"text":"إِنَّا","translation":{"text":"\"নিশ্চয়ই আমরা","language_name":"bengali","language_id":20},"transliteration":{"text":"innā","language_name":"english","language_id":38}},{"id":28822,"position":3,"audio_url":"wbw/052_026_003.mp3","char_type_name":"word","page_number":524,"line_number":11,"text":"كُنَّا","translation":{"text":"ছিলাম","language_name":"bengali","language_id":20},"transliteration":{"text":"kunnā","language_name":"english","language_id":38}},{"id":28823,"position":4,"audio_url":"wbw/052_026_004.mp3","char_type_name":"word","page_number":524,"line_number":11,"text":"قَبْلُ","translation":{"text":"পূর্বে","language_name":"bengali","language_id":20},"transliteration":{"text":"qablu","language_name":"english","language_id":38}},{"id":28824,"position":5,"audio_url":"wbw/052_026_005.mp3","char_type_name":"word","page_number":524,"line_number":11,"text":"فِىٓ","translation":{"text":"মধ্যে","language_name":"bengali","language_id":20},"transliteration":{"text":"fī","language_name":"english","language_id":38}},{"id":28825,"position":6,"audio_url":"wbw/052_026_006.mp3","char_type_name":"word","page_number":524,"line_number":11,"text":"أَهْلِنَا","translation":{"text":"আমাদের পরিবারের","language_name":"bengali","language_id":20},"transliteration":{"text":"ahlinā","language_name":"english","language_id":38}},{"id":28826,"position":7,"audio_url":"wbw/052_026_007.mp3","char_type_name":"word","page_number":524,"line_number":11,"text":"مُشْفِقِينَ","translation":{"text":"শঙ্কিত অবস্থায়","language_name":"bengali","language_id":20},"transliteration":{"text":"mush'fiqīna","language_name":"english","language_id":38}},{"id":28827,"position":8,"audio_url":null,"char_type_name":"end","page_number":524,"line_number":12,"text":"٢٦","translation":{"text":"(২৬)","language_name":"bengali","language_id":20},"transliteration":{"text":null,"language_name":"english","language_id":38}}]},{"id":4762,"verse_number":27,"verse_key":"52:27","hizb_number":53,"rub_el_hizb_number":210,"ruku_number":460,"manzil_number":7,"sajdah_number":null,"page_number":524,"juz_number":27,"words":[{"id":30275,"position":1,"audio_url":"wbw/052_027_001.mp3","char_type_name":"word","page_number":524,"line_number":12,"text":"فَمَنَّ","translation":{"text":"অবশেষে অনুগ্রহ করেছেন","language_name":"bengali","language_id":20},"transliteration":{"text":"famanna","language_name":"english","language_id":38}},{"id":30276,"position":2,"audio_url":"wbw/052_027_002.mp3","char_type_name":"word","page_number":524,"line_number":12,"text":"ٱللَّهُ","translation":{"text":"আল্লাহ","language_name":"bengali","language_id":20},"transliteration":{"text":"l-lahu","language_name":"english","language_id":38}},{"id":30277,"position":3,"audio_url":"wbw/052_027_003.mp3","char_type_name":"word","page_number":524,"line_number":12,"text":"عَلَيْنَا","translation":{"text":"আমাদের উপর","language_name":"bengali","language_id":20},"transliteration":{"text":"ʿalaynā","language_name":"english","language_id":38}},{"id":30278,"position":4,"audio_url":"wbw/052_027_004.mp3","char_type_name":"word","page_number":524,"line_number":12,"text":"وَوَقَىٰنَا","translation":{"text":"এবং আমাদেরকে রক্ষা করেছেন","language_name":"bengali","language_id":20},"transliteration":{"text":"wawaqānā","language_name":"english","language_id":38}},{"id":30279,"position":5,"audio_url":"wbw/052_027_005.mp3","char_type_name":"word","page_number":524,"line_number":12,"text":"عَذَابَ","translation":{"text":"শাস্তি (হতে)","language_name":"bengali","language_id":20},"transliteration":{"text":"ʿadhāba","language_name":"english","language_id":38}},{"id":30280,"position":6,"audio_url":"wbw/052_027_006.mp3","char_type_name":"word","page_number":524,"line_number":12,"text":"ٱلسَّمُومِ","translation":{"text":"দগ্ধকারী হাওয়ার (যা ঝলসে দেয়)","language_name":"bengali","language_id":20},"transliteration":{"text":"l-samūmi","language_name":"english","language_id":38}},{"id":30281,"position":7,"audio_url":null,"char_type_name":"end","page_number":524,"line_number":12,"text":"٢٧","translation":{"text":"(২৭)","language_name":"bengali","language_id":20},"transliteration":{"text":null,"language_name":"english","language_id":38}}]},{"id":4763,"verse_number":28,"verse_key":"52:28","hizb_number":53,"rub_el_hizb_number":210,"ruku_number":460,"manzil_number":7,"sajdah_number":null,"page_number":524,"juz_number":27,"words":[{"id":30704,"position":1,"audio_url":"wbw/052_028_001.mp3","char_type_name":"word","page_number":524,"line_number":12,"text":"إِنَّا","translation":{"text":"নিশ্চয়ই আমরা","language_name":"bengali","language_id":20},"transliteration":{"text":"innā","language_name":"english","language_id":38}},{"id":30705,"position":2,"audio_url":"wbw/052_028_002.mp3","char_type_name":"word","page_number":524,"line_number":12,"text":"كُنَّا","translation":{"text":"ছিলাম","language_name":"bengali","language_id":20},"transliteration":{"text":"kunnā","language_name":"english","language_id":38}},{"id":30706,"position":3,"audio_url":"wbw/052_028_003.mp3","char_type_name":"word","page_number":524,"line_number":13,"text":"مِن","translation":{"text":"থেকে","language_name":"bengali","language_id":20},"transliteration":{"text":"min","language_name":"english","language_id":38}},{"id":30707,"position":4,"audio_url":"wbw/052_028_004.mp3","char_type_name":"word","page_number":524,"line_number":13,"text":"قَبْلُ","translation":{"text":"পূর্বেও","language_name":"bengali","language_id":20},"transliteration":{"text":"qablu","language_name":"english","language_id":38}},{"id":30708,"position":5,"audio_url":"wbw/052_028_005.mp3","char_type_name":"word","page_number":524,"line_number":13,"text":"نَدْعُوهُ ۖ","translation":{"text":"তাঁকে ডাকতাম আমরা","language_name":"bengali","language_id":20},"transliteration":{"text":"nadʿūhu","language_name":"english","language_id":38}},{"id":30710,"position":6,"audio_url":"wbw/052_028_007.mp3","char_type_name":"word","page_number":524,"line_number":13,"text":"إِنَّهُۥ","translation":{"text":"নিশ্চয়ই তিনি","language_name":"bengali","language_id":20},"transliteration":{"text":"innahu","language_name":"english","language_id":38}},{"id":30711,"position":7,"audio_url":"wbw/052_028_008.mp3","char_type_name":"word","page_number":524,"line_number":13,"text":"هُوَ","translation":{"text":"তিনিই","language_name":"bengali","language_id":20},"transliteration":{"text":"huwa","language_name":"english","language_id":38}},{"id":30712,"position":8,"audio_url":"wbw/052_028_009.mp3","char_type_name":"word","page_number":524,"line_number":13,"text":"ٱلْبَرُّ","translation":{"text":"বড় অনুগ্রহকারী","language_name":"bengali","language_id":20},"transliteration":{"text":"l-baru","language_name":"english","language_id":38}},{"id":30713,"position":9,"audio_url":"wbw/052_028_010.mp3","char_type_name":"word","page_number":524,"line_number":13,"text":"ٱلرَّحِيمُ","translation":{"text":"পরম দয়ালু\"","language_name":"bengali","language_id":20},"transliteration":{"text":"l-raḥīmu","language_name":"english","language_id":38}},{"id":30714,"position":10,"audio_url":null,"char_type_name":"end","page_number":524,"line_number":13,"text":"٢٨","translation":{"text":"(২৮)","language_name":"bengali","language_id":20},"transliteration":{"text":null,"language_name":"english","language_id":38}}]},{"id":4764,"verse_number":29,"verse_key":"52:29","hizb_number":53,"rub_el_hizb_number":210,"ruku_number":461,"manzil_number":7,"sajdah_number":null,"page_number":524,"juz_number":27,"words":[{"id":31795,"position":1,"audio_url":"wbw/052_029_001.mp3","char_type_name":"word","page_number":524,"line_number":13,"text":"فَذَكِّرْ","translation":{"text":"(হে নবী) তাই উপদেশ দাও","language_name":"bengali","language_id":20},"transliteration":{"text":"fadhakkir","language_name":"english","language_id":38}},{"id":31796,"position":2,"audio_url":"wbw/052_029_002.mp3","char_type_name":"word","page_number":524,"line_number":13,"text":"فَمَآ","translation":{"text":"না আর","language_name":"bengali","language_id":20},"transliteration":{"text":"famā","language_name":"english","language_id":38}},{"id":31797,"position":3,"audio_url":"wbw/052_029_003.mp3","char_type_name":"word","page_number":524,"line_number":13,"text":"أَنتَ","translation":{"text":"তুমি","language_name":"bengali","language_id":20},"transliteration":{"text":"anta","language_name":"english","language_id":38}},{"id":31798,"position":4,"audio_url":"wbw/052_029_004.mp3","char_type_name":"word","page_number":524,"line_number":13,"text":"بِنِعْمَتِ","translation":{"text":"অনুগ্রহের কারণে","language_name":"bengali","language_id":20},"transliteration":{"text":"biniʿ'mati","language_name":"english","language_id":38}},{"id":31799,"position":5,"audio_url":"wbw/052_029_005.mp3","char_type_name":"word","page_number":524,"line_number":14,"text":"رَبِّكَ","translation":{"text":"তোমার রবের","language_name":"bengali","language_id":20},"transliteration":{"text":"rabbika","language_name":"english","language_id":38}},{"id":31800,"position":6,"audio_url":"wbw/052_029_006.mp3","char_type_name":"word","page_number":524,"line_number":14,"text":"بِكَاهِنٍۢ","translation":{"text":"কোনো গণক","language_name":"bengali","language_id":20},"transliteration":{"text":"bikāhinin","language_name":"english","language_id":38}},{"id":31801,"position":7,"audio_url":"wbw/052_029_007.mp3","char_type_name":"word","page_number":524,"line_number":14,"text":"وَلَا","translation":{"text":"আর না","language_name":"bengali","language_id":20},"transliteration":{"text":"walā","language_name":"english","language_id":38}},{"id":31802,"position":8,"audio_url":"wbw/052_029_008.mp3","char_type_name":"word","page_number":524,"line_number":14,"text":"مَجْنُونٍ","translation":{"text":"পাগল","language_name":"bengali","language_id":20},"transliteration":{"text":"majnūnin","language_name":"english","language_id":38}},{"id":31803,"position":9,"audio_url":null,"char_type_name":"end","page_number":524,"line_number":14,"text":"٢٩","translation":{"text":"(২৯)","language_name":"bengali","language_id":20},"transliteration":{"text":null,"language_name":"english","language_id":38}}]},{"id":4765,"verse_number":30,"verse_key":"52:30","hizb_number":53,"rub_el_hizb_number":210,"ruku_number":461,"manzil_number":7,"sajdah_number":null,"page_number":524,"juz_number":27,"words":[{"id":32628,"position":1,"audio_url":"wbw/052_030_001.mp3","char_type_name":"word","page_number":524,"line_number":14,"text":"أَمْ","translation":{"text":"কি","language_name":"bengali","language_id":20},"transliteration":{"text":"am","language_name":"english","language_id":38}},{"id":32629,"position":2,"audio_url":"wbw/052_030_002.mp3","char_type_name":"word","page_number":524,"line_number":14,"text":"يَقُولُونَ","translation":{"text":"তারা বলে","language_name":"bengali","language_id":20},"transliteration":{"text":"yaqūlūna","language_name":"english","language_id":38}},{"id":32630,"position":3,"audio_url":"wbw/052_030_003.mp3","char_type_name":"word","page_number":524,"line_number":14,"text":"شَاعِرٌۭ","translation":{"text":"\"(সে) একজন কবি","language_name":"bengali","language_id":20},"transliteration":{"text":"shāʿirun","language_name":"english","language_id":38}},{"id":32631,"position":4,"audio_url":"wbw/052_030_004.mp3","char_type_name":"word","page_number":524,"line_number":14,"text":"نَّتَرَبَّصُ","translation":{"text":"অপেক্ষা করছি আমরা","language_name":"bengali","language_id":20},"transliteration":{"text":"natarabbaṣu","language_name":"english","language_id":38}},{"id":32632,"position":5,"audio_url":"wbw/052_030_005.mp3","char_type_name":"word","page_number":524,"line_number":14,"text":"بِهِۦ","translation":{"text":"এ ব্যাপারে","language_name":"bengali","language_id":20},"transliteration":{"text":"bihi","language_name":"english","language_id":38}},{"id":32633,"position":6,"audio_url":"wbw/052_030_006.mp3","char_type_name":"word","page_number":524,"line_number":14,"text":"رَيْبَ","translation":{"text":"বিপর্যয়ের\"","language_name":"bengali","language_id":20},"transliteration":{"text":"rayba","language_name":"english","language_id":38}},{"id":32634,"position":7,"audio_url":"wbw/052_030_007.mp3","char_type_name":"word","page_number":524,"line_number":15,"text":"ٱلْمَنُونِ","translation":{"text":"মৃত্যুর\"","language_name":"bengali","language_id":20},"transliteration":{"text":"l-manūni","language_name":"english","language_id":38}},{"id":32635,"position":8,"audio_url":null,"char_type_name":"end","page_number":524,"line_number":15,"text":"٣٠","translation":{"text":"(৩০)","language_name":"bengali","language_id":20},"transliteration":{"text":null,"language_name":"english","language_id":38}}]}],"pagination":{"per_page":10,"current_page":3,"next_page":4,"total_pages":5,"total_records":49}}
