{"verses":[{"id":4776,"verse_number":41,"verse_key":"52:41","hizb_number":53,"rub_el_hizb_number":210,"ruku_number":461,"manzil_number":7,"sajdah_number":null,"page_number":525,"juz_number":27,"words":[{"id":42071,"position":1,"audio_url":"wbw/052_041_001.mp3","char_type_name":"word","page_number":525,"line_number":7,"text":"أَمْ","translation":{"text":"নাকি","language_name":"bengali","language_id":20},"transliteration":{"text":"am","language_name":"english","language_id":38}},{"id":42072,"position":2,"audio_url":"wbw/052_041_002.mp3","char_type_name":"word","page_number":525,"line_number":7,"text":"عِندَهُمُ","translation":{"text":"আছে তাদের কাছে","language_name":"bengali","language_id":20},"transliteration":{"text":"ʿindahumu","language_name":"english","language_id":38}},{"id":42073,"position":3,"audio_url":"wbw/052_041_003.mp3","char_type_name":"word","page_number":525,"line_number":7,"text":"ٱلْغَيْبُ","translation":{"text":"অদৃশ্যের জ্ঞান","language_name":"bengali","language_id":20},"transliteration":{"text":"l-ghaybu","language_name":"english","language_id":38}},{"id":42074,"position":4,"audio_url":"wbw/052_041_004.mp3","char_type_name":"word","page_number":525,"line_number":8,"text":"فَهُمْ","translation":{"text":"তারা ফলে","language_name":"bengali","language_id":20},"transliteration":{"text":"fahum","language_name":"english","language_id":38}},{"id":42075,"position":5,"audio_url":"wbw/052_041_005.mp3","char_type_name":"word","page_number":525,"line_number":8,"text":"يَكْتُبُونَ","translation":{"text":"লিখে দিতে পারে","language_name":"bengali","language_id":20},"transliteration":{"text":"yaktubūna","language_name":"english","language_id":38}},{"id":42076,"position":6,"audio_url":null,"char_type_name":"end","page_number":525,"line_number":8,"text":"٤١","translation":{"text":"(৪১)","language_name":"bengali","language_id":20},"transliteration":{"text":null,"language_name":"english","language_id":38}}]},{"id":4777,"verse_number":42,"verse_key":"52:42","hizb_number":53,"rub_el_hizb_number":210,"ruku_number":461,"manzil_number":7,"sajdah_number":null,"page_number":525,"juz_number":27,"words":[{"id":42835,"position":1,"audio_url":"wbw/052_042_001.mp3","char_type_name":"word","page_number":525,"line_number":8,"text":"أَمْ","translation":{"text":"তবে কি","language_name":"bengali","language_id":20},"transliteration":{"text":"am","language_name":"english","language_id":38}},{"id":42836,"position":2,"audio_url":"wbw/052_042_002.mp3","char_type_name":"word","page_number":525,"line_number":8,"text":"يُرِيدُونَ","translation":{"text":"তারা চাচ্ছে","language_name":"bengali","language_id":20},"transliteration":{"text":"yurīdūna","language_name":"english","language_id":38}},{"id":42837,"position":3,"audio_url":"wbw/052_042_003.mp3","char_type_name":"word","page_number":525,"line_number":8,"text":"كَيْدًۭا ۖ","translation":{"text":"কোনো ষড়যন্ত্র (করতে)","language_name":"bengali","language_id":20},"transliteration":{"text":"kaydan","language_name":"english","language_id":38}},{"id":42839,"position":4,"audio_url":"wbw/052_042_005.mp3","char_type_name":"word","page_number":525,"line_number":8,"text":"فَٱلَّذِينَ","translation":{"text":"যারা তাহলে","language_name":"bengali","language_id":20},"transliteration":{"text":"fa-alladhīna","language_name":"english","language_id":38}},{"id":42840,"position":5,"audio_url":"wbw/052_042_006.mp3","char_type_name":"word","page_number":525,"line_number":8,"text":"كَفَرُوا۟","translation":{"text":"অস্বীকার করেছে","language_name":"bengali","language_id":20},"transliteration":{"text":"kafarū","language_name":"english","language_id":38}},{"id":42841,"position":6,"audio_url":"wbw/052_042_007.mp3","char_type_name":"word","page_number":525,"line_number":8,"text":"هُمُ","translation":{"text":"তারাই","language_name":"bengali","language_id":20},"transliteration":{"text":"humu","language_name":"english","language_id":38}},{"id":42842,"position":7,"audio_url":"wbw/052_042_008.mp3","char_type_name":"word","page_number":525,"line_number":8,"text":"ٱلْمَكِيدُونَ","translation":{"text":"ষড়যন্ত্রের শিকার হবে","language_name":"bengali","language_id":20},"transliteration":{"text":"l-makīdūna","language_name":"english","language_id":38}},{"id":42843,"position":8,"audio_url":null,"char_type_name":"end","page_number":525,"line_number":8,"text":"٤٢","translation":{"text":"(৪২)","language_name":"bengali","language_id":20},"transliteration":{"text":null,"language_name":"english","language_id":38}}]},{"id":4778,"verse_number":43,"verse_key":"52:43","hizb_number":53,"rub_el_hizb_number":210,"ruku_number":461,"manzil_number":7,"sajdah_number":null,"page_number":525,"juz_number":27,"words":[{"id":43744,"position":1,"audio_url":"wbw/052_043_001.mp3","char_type_name":"word","page_number":525,"line_number":9,"text":"أَمْ","translation":{"text":"নাকি","language_name":"bengali","language_id":20},"transliteration":{"text":"am","language_name":"english","language_id":38}},{"id":43745,"position":2,"audio_url":"wbw/052_043_002.mp3","char_type_name":"word","page_number":525,"line_number":9,"text":"لَهُمْ","translation":{"text":"তাদের আছে","language_name":"bengali","language_id":20},"transliteration":{"text":"lahum","language_name":"english","language_id":38}},{"id":43746,"position":3,"audio_url":"wbw/052_043_003.mp3","char_type_name":"word","page_number":525,"line_number":9,"text":"إِلَـٰهٌ","translation":{"text":"কোনো উপাস্য","language_name":"bengali","language_id":20},"transliteration":{"text":"ilāhun","language_name":"english","language_id":38}},{"id":43747,"position":4,"audio_url":"wbw/052_043_004.mp3","char_type_name":"word","page_number":525,"line_number":9,"text":"غَيْرُ","translation":{"text":"ব্যতীত","language_name":"bengali","language_id":20},"transliteration":{"text":"ghayru","language_name":"english","language_id":38}},{"id":43748,"position":5,"audio_url":"wbw/052_043_005.mp3","char_type_name":"word","page_number":525,"line_number":9,"text":"ٱللَّهِ ۚ","translation":{"text":"আল্লাহ","language_name":"bengali","language_id":20},"transliteration":{"text":"l-lahi","language_name":"english","language_id":38}},{"id":43750,"position":6,"audio_url":"wbw/052_043_007.mp3","char_type_name":"word","page_number":525,"line_number":9,"text":"سُبْحَـٰنَ","translation":{"text":"মহান পবিত্র","language_name":"bengali","language_id":20},"transliteration":{"text":"sub'ḥāna","language_name":"english","language_id":38}},{"id":43751,"position":7,"audio_url":"wbw/052_043_008.mp3","char_type_name":"word","page_number":525,"line_number":9,"text":"ٱللَّهِ","translation":{"text":"আল্লাহ","language_name":"bengali","language_id":20},"transliteration":{"text":"l-lahi","language_name":"english","language_id":38}},{"id":43752,"position":8,"audio_url":"wbw/052_043_009.mp3","char_type_name":"word","page_number":525,"line_number":9,"text":"عَمَّا","translation":{"text":"তা হতে যার","language_name":"bengali","language_id":20},"transliteration":{"text":"ʿammā","language_name":"english","language_id":38}},{"id":43753,"position":9,"audio_url":"wbw/052_043_010.mp3","char_type_name":"word","page_number":525,"line_number":9,"text":"يُشْرِكُونَ","translation":{"text":"তারা শরিক করছে","language_name":"bengali","language_id":20},"transliteration":{"text":"yush'rikūna","language_name":"english","language_id":38}},{"id":43754,"position":10,"audio_url":null,"char_type_name":"end","page_number":525,"line_number":9,"text":"٤٣","translation":{"text":"(৪৩)","language_name":"bengali","language_id":20},"transliteration":{"text":null,"language_name":"english","language_id":38}}]},{"id":4779,"verse_number":44,"verse_key":"52:44","hizb_number":53,"rub_el_hizb_number":210,"ruku_number":461,"manzil_number":7,"sajdah_number":null,"page_number":525,"juz_number":27,"words":[{"id":44374,"position":1,"audio_url":"wbw/052_044_001.mp3","char_type_name":"word","page_number":525,"line_number":9,"text":"وَإِن","translation":{"text":"এবং যদি","language_name":"bengali","language_id":20},"transliteration":{"text":"wa-in","language_name":"english","language_id":38}},{"id":44375,"position":2,"audio_url":"wbw/052_044_002.mp3","char_type_name":"word","page_number":525,"line_number":9,"text":"يَرَوْا۟","translation":{"text":"তারা দেখে","language_name":"bengali","language_id":20},"transliteration":{"text":"yaraw","language_name":"english","language_id":38}},{"id":44376,"position":3,"audio_url":"wbw/052_044_003.mp3","char_type_name":"word","page_number":525,"line_number":9,"text":"كِسْفًۭا","translation":{"text":"এক অংশ","language_name":"bengali","language_id":20},"transliteration":{"text":"kis'fan","language_name":"english","language_id":38}},{"id":44377,"position":4,"audio_url":"wbw/052_044_004.mp3","char_type_name":"word","page_number":525,"line_number":10,"text":"مِّنَ","translation":{"text":"হতে","language_name":"bengali","language_id":20},"transliteration":{"text":"mina","language_name":"english","language_id":38}},{"id":44378,"position":5,"audio_url":"wbw/052_044_005.mp3","char_type_name":"word","page_number":525,"line_number":10,"text":"ٱلسَّمَآءِ","translation":{"text":"আকাশ","language_name":"bengali","language_id":20},"transliteration":{"text":"l-samāi","language_name":"english","language_id":38}},{"id":44379,"position":6,"audio_url":"wbw/052_044_006.mp3","char_type_name":"word","page_number":525,"line_number":10,"text":"سَاقِطًۭا","translation":{"text":"ভেঙে পড়তে","language_name":"bengali","language_id":20},"transliteration":{"text":"sāqiṭan","language_name":"english","language_id":38}},{"id":44380,"position":7,"audio_url":"wbw/052_044_007.mp3","char_type_name":"word","page_number":525,"line_number":10,"text":"يَقُولُوا۟","translation":{"text":"(তবুও) তারা বলবে","language_name":"bengali","language_id":20},"transliteration":{"text":"yaqūlū","language_name":"english","language_id":38}},{"id":44381,"position":8,"audio_url":"wbw/052_044_008.mp3","char_type_name":"word","page_number":525,"line_number":10,"text":"سَحَابٌۭ","translation":{"text":"\"(সেটা) মেঘ","language_name":"bengali","language_id":20},"transliteration":{"text":"saḥābun","language_name":"english","language_id":38}},{"id":44382,"position":9,"audio_url":"wbw/052_044_009.mp3","char_type_name":"word","page_number":525,"line_number":10,"text":"مَّرْكُومٌۭ","translation":{"text":"পুঞ্জীভূত\"","language_name":"bengali","language_id":20},"transliteration":{"text":"markūmun","language_name":"english","language_id":38}},{"id":44383,"position":10,"audio_url":null,"char_type_name":"end","page_number":525,"line_number":10,"text":"٤٤","translation":{"text":"(৪৪)","language_name":"bengali","language_id":20},"transliteration":{"text":null,"language_name":"english","language_id":38}}]},{"id":4780,"verse_number":45,"verse_key":"52:45","hizb_number":53,"rub_el_hizb_number":210,"ruku_number":461,"manzil_number":7,"sajdah_number":null,"page_number":525,"juz_number":27,"words":[{"id":45113,"position":1,"audio_url":"wbw/052_045_001.mp3","char_type_name":"word","page_number":525,"line_number":10,"text":"فَذَرْهُمْ","translation":{"text":"(হে নবী) অতএব তাদেরকে ছেড়ে দাও","language_name":"bengali","language_id":20},"transliteration":{"text":"fadharhum","language_name":"english","language_id":38}},{"id":45114,"position":2,"audio_url":"wbw/052_045_002.mp3","char_type_name":"word","page_number":525,"line_number":10,"text":"حَتَّىٰ","translation":{"text":"যতক্ষণ না","language_name":"bengali","language_id":20},"transliteration":{"text":"ḥattā","language_name":"english","language_id":38}},{"id":45115,"position":3,"audio_url":"wbw/052_045_003.mp3","char_type_name":"word","page_number":525,"line_number":10,"text":"يُلَـٰقُوا۟","translation":{"text":"তারা সাক্ষাৎ করবে","language_name":"bengali","language_id":20},"transliteration":{"text":"yulāqū","language_name":"english","language_id":38}},{"id":45116,"position":4,"audio_url":"wbw/052_045_004.mp3","char_type_name":"word","page_number":525,"line_number":11,"text":"يَوْمَهُمُ","translation":{"text":"তাদের সেই দিনের","language_name":"bengali","language_id":20},"transliteration":{"text":"yawmahumu","language_name":"english","language_id":38}},{"id":45117,"position":5,"audio_url":"wbw/052_045_005.mp3","char_type_name":"word","page_number":525,"line_number":11,"text":"ٱلَّذِى","translation":{"text":"যা (এমন যে)","language_name":"bengali","language_id":20},"transliteration":{"text":"alladhī","language_name":"english","language_id":38}},{"id":45118,"position":6,"audio_url":"wbw/052_045_006.mp3","char_type_name":"word","page_number":525,"line_number":11,"text":"فِيهِ","translation":{"text":"তার মধ্যে","language_name":"bengali","language_id":20},"transliteration":{"text":"fīhi","language_name":"english","language_id":38}},{"id":45119,"position":7,"audio_url":"wbw/052_045_007.mp3","char_type_name":"word","page_number":525,"line_number":11,"text":"يُصْعَقُونَ","translation":{"text":"তাদেরকে শাস্তির মধ্যে নিক্ষেপ করা হবে","language_name":"bengali","language_id":20},"transliteration":{"text":"yuṣ'ʿaqūna","language_name":"english","language_id":38}},{"id":45120,"position":8,"audio_url":null,"char_type_name":"end","page_number":525,"line_number":11,"text":"٤٥","translation":{"text":"(৪৫)","language_name":"bengali","language_id":20},"transliteration":{"text":null,"language_name":"english","language_id":38}}]},{"id":4781,"verse_number":46,"verse_key":"52:46","hizb_number":53,"rub_el_hizb_number":210,"ruku_number":461,"manzil_number":7,"sajdah_number":null,"page_number":525,"juz_number":27,"words":[{"id":45849,"position":1,"audio_url":"wbw/052_046_001.mp3","char_type_name":"word","page_number":525,"line_number":11,"text":"يَوْمَ","translation":{"text":"সেদিন","language_name":"bengali","language_id":20},"transliteration":{"text":"yawma","language_name":"english","language_id":38}},{"id":45850,"position":2,"audio_url":"wbw/052_046_002.mp3","char_type_name":"word","page_number":525,"line_number":11,"text":"لَا","translation":{"text":"না","language_name":"bengali","language_id":20},"transliteration":{"text":"lā","language_name":"english","language_id":38}},{"id":45851,"position":3,"audio_url":"wbw/052_046_003.mp3","char_type_name":"word","page_number":525,"line_number":11,"text":"يُغْنِى","translation":{"text":"কাজে আসবে","language_name":"bengali","language_id":20},"transliteration":{"text":"yugh'nī","language_name":"english","language_id":38}},{"id":45852,"position":4,"audio_url":"wbw/052_046_004.mp3","char_type_name":"word","page_number":525,"line_number":11,"text":"عَنْهُمْ","translation":{"text":"তাদের জন্যে","language_name":"bengali","language_id":20},"transliteration":{"text":"ʿanhum","language_name":"english","language_id":38}},{"id":45853,"position":5,"audio_url":"wbw/052_046_005.mp3","char_type_name":"word","page_number":525,"line_number":11,"text":"كَيْدُهُمْ","translation":{"text":"তাদের ষড়যন্ত্র","language_name":"bengali","language_id":20},"transliteration":{"text":"kayduhum","language_name":"english","language_id":38}},{"id":45854,"position":6,"audio_url":"wbw/052_046_006.mp3","char_type_name":"word","page_number":525,"line_number":11,"text":"شَيْـًۭٔا","translation":{"text":"কিছুমাত্রও","language_name":"bengali","language_id":20},"transliteration":{"text":"shayan","language_name":"english","language_id":38}},{"id":45855,"position":7,"audio_url":"wbw/052_046_007.mp3","char_type_name":"word","page_number":525,"line_number":12,"text":"وَلَا","translation":{"text":"এবং না","language_name":"bengali","language_id":20},"transliteration":{"text":"walā","language_name":"english","language_id":38}},{"id":45856,"position":8,"audio_url":"wbw/052_046_008.mp3","char_type_name":"word","page_number":525,"line_number":12,"text":"هُمْ","translation":{"text":"তাদের","language_name":"bengali","language_id":20},"transliteration":{"text":"hum","language_name":"english","language_id":38}},{"id":45857,"position":9,"audio_url":"wbw/052_046_009.mp3","char_type_name":"word","page_number":525,"line_number":12,"text":"يُنصَرُونَ","translation":{"text":"সাহায্য করা হবে","language_name":"bengali","language_id":20},"transliteration":{"text":"yunṣarūna","language_name":"english","language_id":38}},{"id":45858,"position":10,"audio_url":null,"char_type_name":"end","page_number":525,"line_number":12,"text":"٤٦","translation":{"text":"(৪৬)","language_name":"bengali","language_id":20},"transliteration":{"text":null,"language_name":"english","language_id":38}}]},{"id":4782,"verse_number":47,"verse_key":"52:47","hizb_number":53,"rub_el_hizb_number":210,"ruku_number":461,"manzil_number":7,"sajdah_number":null,"page_number":525,"juz_number":27,"words":[{"id":46604,"position":1,"audio_url":"wbw/052_047_001.mp3","char_type_name":"word","page_number":525,"line_number":12,"text":"وَإِنَّ","translation":{"text":"এবং নিশ্চয়ই","language_name":"bengali","language_id":20},"transliteration":{"text":"wa-inna","language_name":"english","language_id":38}},{"id":46605,"position":2,"audio_url":"wbw/052_047_002.mp3","char_type_name":"word","page_number":525,"line_number":12,"text":"لِلَّذِينَ","translation":{"text":"(তাদের) জন্যে যারা","language_name":"bengali","language_id":20},"transliteration":{"text":"lilladhīna","language_name":"english","language_id":38}},{"id":46606,"position":3,"audio_url":"wbw/052_047_003.mp3","char_type_name":"word","page_number":525,"line_number":12,"text":"ظَلَمُوا۟","translation":{"text":"সীমালঙ্ঘন করেছে","language_name":"bengali","language_id":20},"transliteration":{"text":"ẓalamū","language_name":"english","language_id":38}},{"id":46607,"position":4,"audio_url":"wbw/052_047_004.mp3","char_type_name":"word","page_number":525,"line_number":12,"text":"عَذَابًۭا","translation":{"text":"শাস্তি (রয়েছে)","language_name":"bengali","language_id":20},"transliteration":{"text":"ʿadhāban","language_name":"english","language_id":38}},{"id":46608,"position":5,"audio_url":"wbw/052_047_005.mp3","char_type_name":"word","page_number":525,"line_number":12,"text":"دُونَ","translation":{"text":"ছাড়াও","language_name":"bengali","language_id":20},"transliteration":{"text":"dūna","language_name":"english","language_id":38}},{"id":46609,"position":6,"audio_url":"wbw/052_047_006.mp3","char_type_name":"word","page_number":525,"line_number":12,"text":"ذَٰلِكَ","translation":{"text":"এটা","language_name":"bengali","language_id":20},"transliteration":{"text":"dhālika","language_name":"english","language_id":38}},{"id":46610,"position":7,"audio_url":"wbw/052_047_007.mp3","char_type_name":"word","page_number":525,"line_number":12,"text":"وَلَـٰكِنَّ","translation":{"text":"কিন্তু","language_name":"bengali","language_id":20},"transliteration":{"text":"walākinna","language_name":"english","language_id":38}},{"id":46611,"position":8,"audio_url":"wbw/052_047_008.mp3","char_type_name":"word","page_number":525,"line_number":13,"text":"أَكْثَرَهُمْ","translation":{"text":"তাদের অধিকাংশই","language_name":"bengali","language_id":20},"transliteration":{"text":"aktharahum","language_name":"english","language_id":38}},{"id":46612,"position":9,"audio_url":"wbw/052_047_009.mp3","char_type_name":"word","page_number":525,"line_number":13,"text":"لَا","translation":{"text":"না","language_name":"bengali","language_id":20},"transliteration":{"text":"lā","language_name":"english","language_id":38}},{"id":46613,"position":10,"audio_url":"wbw/052_047_010.mp3","char_type_name":"word","page_number":525,"line_number":13,"text":"يَعْلَمُونَ","translation":{"text":"তারা জানে","language_name":"bengali","language_id":20},"transliteration":{"text":"yaʿlamūna","language_name":"english","language_id":38}},{"id":46614,"position":11,"audio_url":null,"char_type_name":"end","page_number":525,"line_number":13,"text":"٤٧","translation":{"text":"(৪৭)","language_name":"bengali","language_id":20},"transliteration":{"text":null,"language_name":"english","language_id":38}}]},{"id":4783,"verse_number":48,"verse_key":"52:48","hizb_number":53,"rub_el_hizb_number":210,"ruku_number":461,"manzil_number":7,"sajdah_number":null,"page_number":525,"juz_number":27,"words":[{"id":47215,"position":1,"audio_url":"wbw/052_048_001.mp3","char_type_name":"word","page_number":525,"line_number":13,"text":"وَٱصْبِرْ","translation":{"text":"এবং (হে নবী) ধৈর্য ধর","language_name":"bengali","language_id":20},"transliteration":{"text":"wa-iṣ'bir","language_name":"english","language_id":38}},{"id":47216,"position":2,"audio_url":"wbw/052_048_002.mp3","char_type_name":"word","page_number":525,"line_number":13,"text":"لِحُكْمِ","translation":{"text":"সিদ্ধান্তের জন্যে","language_name":"bengali","language_id":20},"transliteration":{"text":"liḥuk'mi","language_name":"english","language_id":38}},{"id":47217,"position":3,"audio_url":"wbw/052_048_003.mp3","char_type_name":"word","page_number":525,"line_number":13,"text":"رَبِّكَ","translation":{"text":"তোমার রবের","language_name":"bengali","language_id":20},"transliteration":{"text":"rabbika","language_name":"english","language_id":38}},{"id":47218,"position":4,"audio_url":"wbw/052_048_004.mp3","char_type_name":"word","page_number":525,"line_number":13,"text":"فَإِنَّكَ","translation":{"text":"অতঃপর তুমি নিশ্চয়ই","language_name":"bengali","language_id":20},"transliteration":{"text":"fa-innaka","language_name":"english","language_id":38}},{"id":47219,"position":5,"audio_url":"wbw/052_048_005.mp3","char_type_name":"word","page_number":525,"line_number":13,"text":"بِأَعْيُنِنَا ۖ","translation":{"text":"আমাদের চোখে (আছ)","language_name":"bengali","language_id":20},"transliteration":{"text":"bi-aʿyuninā","language_name":"english","language_id":38}},{"id":47221,"position":6,"audio_url":"wbw/052_048_007.mp3","char_type_name":"word","page_number":525,"line_number":13,"text":"وَسَبِّحْ","translation":{"text":"এবং পবিত্রতা ঘোষণা করো","language_name":"bengali","language_id":20},"transliteration":{"text":"wasabbiḥ","language_name":"english","language_id":38}},{"id":47222,"position":7,"audio_url":"wbw/052_048_008.mp3","char_type_name":"word","page_number":525,"line_number":14,"text":"بِحَمْدِ","translation":{"text":"প্রশংসার সাথে","language_name":"bengali","language_id":20},"transliteration":{"text":"biḥamdi","language_name":"english","language_id":38}},{"id":47223,"position":8,"audio_url":"wbw/052_048_009.mp3","char_type_name":"word","page_number":525,"line_number":14,"text":"رَبِّكَ","translation":{"text":"তোমার রবের","language_name":"bengali","language_id":20},"transliteration":{"text":"rabbika","language_name":"english","language_id":38}},{"id":47224,"position":9,"audio_url":"wbw/052_048_010.mp3","char_type_name":"word","page_number":525,"line_number":14,"text":"حِينَ","translation":{"text":"যখন","language_name":"bengali","language_id":20},"transliteration":{"text":"ḥīna","language_name":"english","language_id":38}},{"id":47225,"position":10,"audio_url":"wbw/052_048_011.mp3","char_type_name":"word","page_number":525,"line_number":14,"text":"تَقُومُ","translation":{"text":"তুমি উঠবে","language_name":"bengali","language_id":20},"transliteration":{"text":"taqūmu","language_name":"english","language_id":38}},{"id":47226,"position":11,"audio_url":null,"char_type_name":"end","page_number":525,"line_number":14,"text":"٤٨","translation":{"text":"(৪৮)","language_name":"bengali","language_id":20},"transliteration":{"text":null,"language_name":"english","language_id":38}}]},{"id":4784,"verse_number":49,"verse_key":"52:49","hizb_number":53,"rub_el_hizb_number":210,"ruku_number":461,"manzil_number":7,"sajdah_number":null,"page_number":525,"juz_number":27,"words":[{"id":48042,"position":1,"audio_url":"wbw/052_049_001.mp3","char_type_name":"word","page_number":525,"line_number":14,"text":"وَمِنَ","translation":{"text":"এবং কিছু অংশে","language_name":"bengali","language_id":20},"transliteration":{"text":"wamina","language_name":"english","language_id":38}},{"id":48043,"position":2,"audio_url":"wbw/052_049_002.mp3","char_type_name":"word","page_number":525,"line_number":14,"text":"ٱلَّيْلِ","translation":{"text":"রাতের","language_name":"bengali","language_id":20},"transliteration":{"text":"al-layli","language_name":"english","language_id":38}},{"id":48044,"position":3,"audio_url":"wbw/052_049_003.mp3","char_type_name":"word","page_number":525,"line_number":14,"text":"فَسَبِّحْهُ","translation":{"text":"অতঃপর তার পবিত্র মহিমা ঘোষণা করো","language_name":"bengali","language_id":20},"transliteration":{"text":"fasabbiḥ'hu","language_name":"english","language_id":38}},{"id":48045,"position":4,"audio_url":"wbw/052_049_004.mp3","char_type_name":"word","page_number":525,"line_number":14,"text":"وَإِدْبَـٰرَ","translation":{"text":"এবং অস্তগমনেও","language_name":"bengali","language_id":20},"transliteration":{"text":"wa-id'bāra","language_name":"english","language_id":38}},{"id":48046,"position":5,"audio_url":"wbw/052_049_005.mp3","char_type_name":"word","page_number":525,"line_number":14,"text":"ٱلنُّجُومِ","translation":{"text":"তারাদের","language_name":"bengali","language_id":20},"transliteration":{"text":"l-nujūmi","language_name":"english","language_id":38}},{"id":48047,"position":6,"audio_url":null,"char_type_name":"end","page_number":525,"line_number":14,"text":"٤٩","translation":{"text":"(৪৯)","language_name":"bengali","language_id":20},"transliteration":{"text":null,"language_name":"english","language_id":38}}]}],"pagination":{"per_page":10,"current_page":5,"next_page":null,"total_pages":5,"total_records":49}}
