{"verses":[{"id":4847,"verse_number":1,"verse_key":"54:1","hizb_number":53,"rub_el_hizb_number":211,"ruku_number":465,"manzil_number":7,"sajdah_number":null,"page_number":528,"juz_number":27,"words":[{"id":292,"position":1,"audio_url":"wbw/054_001_001.mp3","char_type_name":"word","page_number":528,"line_number":12,"text":"ٱقْتَرَبَتِ","translation":{"text":"নিকটবর্তী হয়েছে","language_name":"bengali","language_id":20},"transliteration":{"text":"iq'tarabati","language_name":"english","language_id":38}},{"id":293,"position":2,"audio_url":"wbw/054_001_002.mp3","char_type_name":"word","page_number":528,"line_number":12,"text":"ٱلسَّاعَةُ","translation":{"text":"কিয়ামত","language_name":"bengali","language_id":20},"transliteration":{"text":"l-sāʿatu","language_name":"english","language_id":38}},{"id":294,"position":3,"audio_url":"wbw/054_001_003.mp3","char_type_name":"word","page_number":528,"line_number":12,"text":"وَٱنشَقَّ","translation":{"text":"এবং বিদীর্ণ হয়েছে","language_name":"bengali","language_id":20},"transliteration":{"text":"wa-inshaqqa","language_name":"english","language_id":38}},{"id":295,"position":4,"audio_url":"wbw/054_001_004.mp3","char_type_name":"word","page_number":528,"line_number":12,"text":"ٱلْقَمَرُ","translation":{"text":"চাঁদ","language_name":"bengali","language_id":20},"transliteration":{"text":"l-qamaru","language_name":"english","language_id":38}},{"id":296,"position":5,"audio_url":null,"char_type_name":"end","page_number":528,"line_number":12,"text":"١","translation":{"text":"(১)","language_name":"bengali","language_id":20},"transliteration":{"text":null,"language_name":"english","language_id":38}}]},{"id":4848,"verse_number":2,"verse_key":"54:2","hizb_number":53,"rub_el_hizb_number":211,"ruku_number":465,"manzil_number":7,"sajdah_number":null,"page_number":528,"juz_number":27,"words":[{"id":1168,"position":1,"audio_url":"wbw/054_002_001.mp3","char_type_name":"word","page_number":528,"line_number":12,"text":"وَإِن","translation":{"text":"কিন্তু যদি","language_name":"bengali","language_id":20},"transliteration":{"text":"wa-in","language_name":"english","language_id":38}},{"id":1169,"position":2,"audio_url":"wbw/054_002_002.mp3","char_type_name":"word","page_number":528,"line_number":12,"text":"يَرَوْا۟","translation":{"text":"তারা দেখে","language_name":"bengali","language_id":20},"transliteration":{"text":"yaraw","language_name":"english","language_id":38}},{"id":1170,"position":3,"audio_url":"wbw/054_002_003.mp3","char_type_name":"word","page_number":528,"line_number":12,"text":"ءَايَةًۭ","translation":{"text":"কোনো নিদর্শন","language_name":"bengali","language_id":20},"transliteration":{"text":"āyatan","language_name":"english","language_id":38}},{"id":1171,"position":4,"audio_url":"wbw/054_002_004.mp3","char_type_name":"word","page_number":528,"line_number":12,"text":"يُعْرِضُوا۟","translation":{"text":"তারা মুখ ফিরিয়ে নেয়","language_name":"bengali","language_id":20},"transliteration":{"text":"yuʿ'riḍū","language_name":"english","language_id":38}},{"id":1172,"position":5,"audio_url":"wbw/054_002_005.mp3","char_type_name":"word","page_number":528,"line_number":12,"text":"وَيَقُولُوا۟","translation":{"text":"এবং তারা বলে","language_name":"bengali","language_id":20},"transliteration":{"text":"wayaqūlū","language_name":"english","language_id":38}},{"id":1173,"position":6,"audio_url":"wbw/054_002_006.mp3","char_type_name":"word","page_number":528,"line_number":13,"text":"سِحْرٌۭ","translation":{"text":"\"(এটা) জাদু","language_name":"bengali","language_id":20},"transliteration":{"text":"siḥ'run","language_name":"english","language_id":38}},{"id":1174,"position":7,"audio_url":"wbw/054_002_007.mp3","char_type_name":"word","page_number":528,"line_number":13,"text":"مُّسْتَمِرٌّۭ","translation":{"text":"চিরাচরিত\"","language_name":"bengali","language_id":20},"transliteration":{"text":"mus'tamirrun","language_name":"english","language_id":38}},{"id":1175,"position":8,"audio_url":null,"char_type_name":"end","page_number":528,"line_number":13,"text":"٢","translation":{"text":"(২)","language_name":"bengali","language_id":20},"transliteration":{"text":null,"language_name":"english","language_id":38}}]},{"id":4849,"verse_number":3,"verse_key":"54:3","hizb_number":53,"rub_el_hizb_number":211,"ruku_number":465,"manzil_number":7,"sajdah_number":null,"page_number":528,"juz_number":27,"words":[{"id":2226,"position":1,"audio_url":"wbw/054_003_001.mp3","char_type_name":"word","page_number":528,"line_number":13,"text":"وَكَذَّبُوا۟","translation":{"text":"এবং তারা মিথ্যারোপ করেছে","language_name":"bengali","language_id":20},"transliteration":{"text":"wakadhabū","language_name":"english","language_id":38}},{"id":2227,"position":2,"audio_url":"wbw/054_003_002.mp3","char_type_name":"word","page_number":528,"line_number":13,"text":"وَٱتَّبَعُوٓا۟","translation":{"text":"ও অনুসরণ করেছে","language_name":"bengali","language_id":20},"transliteration":{"text":"wa-ittabaʿū","language_name":"english","language_id":38}},{"id":2228,"position":3,"audio_url":"wbw/054_003_003.mp3","char_type_name":"word","page_number":528,"line_number":13,"text":"أَهْوَآءَهُمْ ۚ","translation":{"text":"তাদের খেয়ালখুশির","language_name":"bengali","language_id":20},"transliteration":{"text":"ahwāahum","language_name":"english","language_id":38}},{"id":2230,"position":4,"audio_url":"wbw/054_003_005.mp3","char_type_name":"word","page_number":528,"line_number":13,"text":"وَكُلُّ","translation":{"text":"এবং প্রত্যেক","language_name":"bengali","language_id":20},"transliteration":{"text":"wakullu","language_name":"english","language_id":38}},{"id":2231,"position":5,"audio_url":"wbw/054_003_006.mp3","char_type_name":"word","page_number":528,"line_number":13,"text":"أَمْرٍۢ","translation":{"text":"কাজই","language_name":"bengali","language_id":20},"transliteration":{"text":"amrin","language_name":"english","language_id":38}},{"id":2232,"position":6,"audio_url":"wbw/054_003_007.mp3","char_type_name":"word","page_number":528,"line_number":13,"text":"مُّسْتَقِرٌّۭ","translation":{"text":"লক্ষ্যে পৌঁছুবে","language_name":"bengali","language_id":20},"transliteration":{"text":"mus'taqirrun","language_name":"english","language_id":38}},{"id":2233,"position":7,"audio_url":null,"char_type_name":"end","page_number":528,"line_number":13,"text":"٣","translation":{"text":"(৩)","language_name":"bengali","language_id":20},"transliteration":{"text":null,"language_name":"english","language_id":38}}]},{"id":4850,"verse_number":4,"verse_key":"54:4","hizb_number":53,"rub_el_hizb_number":211,"ruku_number":465,"manzil_number":7,"sajdah_number":null,"page_number":528,"juz_number":27,"words":[{"id":3544,"position":1,"audio_url":"wbw/054_004_001.mp3","char_type_name":"word","page_number":528,"line_number":14,"text":"وَلَقَدْ","translation":{"text":"এবং নিশ্চয়ই","language_name":"bengali","language_id":20},"transliteration":{"text":"walaqad","language_name":"english","language_id":38}},{"id":3545,"position":2,"audio_url":"wbw/054_004_002.mp3","char_type_name":"word","page_number":528,"line_number":14,"text":"جَآءَهُم","translation":{"text":"তাদের কাছে এসেছে","language_name":"bengali","language_id":20},"transliteration":{"text":"jāahum","language_name":"english","language_id":38}},{"id":3546,"position":3,"audio_url":"wbw/054_004_003.mp3","char_type_name":"word","page_number":528,"line_number":14,"text":"مِّنَ","translation":{"text":"হতে","language_name":"bengali","language_id":20},"transliteration":{"text":"mina","language_name":"english","language_id":38}},{"id":3547,"position":4,"audio_url":"wbw/054_004_004.mp3","char_type_name":"word","page_number":528,"line_number":14,"text":"ٱلْأَنۢبَآءِ","translation":{"text":"সংবাদ গুলো(অতীত জাতিসমূহের)","language_name":"bengali","language_id":20},"transliteration":{"text":"l-anbāi","language_name":"english","language_id":38}},{"id":3548,"position":5,"audio_url":"wbw/054_004_005.mp3","char_type_name":"word","page_number":528,"line_number":14,"text":"مَا","translation":{"text":"যার","language_name":"bengali","language_id":20},"transliteration":{"text":"mā","language_name":"english","language_id":38}},{"id":3549,"position":6,"audio_url":"wbw/054_004_006.mp3","char_type_name":"word","page_number":528,"line_number":14,"text":"فِيهِ","translation":{"text":"মধ্যে আছে","language_name":"bengali","language_id":20},"transliteration":{"text":"fīhi","language_name":"english","language_id":38}},{"id":3550,"position":7,"audio_url":"wbw/054_004_007.mp3","char_type_name":"word","page_number":528,"line_number":14,"text":"مُزْدَجَرٌ","translation":{"text":"সতর্কবাণী","language_name":"bengali","language_id":20},"transliteration":{"text":"muz'dajarun","language_name":"english","language_id":38}},{"id":3551,"position":8,"audio_url":null,"char_type_name":"end","page_number":528,"line_number":14,"text":"٤","translation":{"text":"(৪)","language_name":"bengali","language_id":20},"transliteration":{"text":null,"language_name":"english","language_id":38}}]},{"id":4851,"verse_number":5,"verse_key":"54:5","hizb_number":53,"rub_el_hizb_number":211,"ruku_number":465,"manzil_number":7,"sajdah_number":null,"page_number":528,"juz_number":27,"words":[{"id":4902,"position":1,"audio_url":"wbw/054_005_001.mp3","char_type_name":"word","page_number":528,"line_number":14,"text":"حِكْمَةٌۢ","translation":{"text":"প্রজ্ঞা","language_name":"bengali","language_id":20},"transliteration":{"text":"ḥik'matun","language_name":"english","language_id":38}},{"id":4903,"position":2,"audio_url":"wbw/054_005_002.mp3","char_type_name":"word","page_number":528,"line_number":14,"text":"بَـٰلِغَةٌۭ ۖ","translation":{"text":"পরিপূর্ণ","language_name":"bengali","language_id":20},"transliteration":{"text":"bālighatun","language_name":"english","language_id":38}},{"id":4905,"position":3,"audio_url":"wbw/054_005_004.mp3","char_type_name":"word","page_number":528,"line_number":14,"text":"فَمَا","translation":{"text":"না কিন্তু","language_name":"bengali","language_id":20},"transliteration":{"text":"famā","language_name":"english","language_id":38}},{"id":4906,"position":4,"audio_url":"wbw/054_005_005.mp3","char_type_name":"word","page_number":528,"line_number":14,"text":"تُغْنِ","translation":{"text":"কাজে আসে","language_name":"bengali","language_id":20},"transliteration":{"text":"tugh'ni","language_name":"english","language_id":38}},{"id":4907,"position":5,"audio_url":"wbw/054_005_006.mp3","char_type_name":"word","page_number":528,"line_number":15,"text":"ٱلنُّذُرُ","translation":{"text":"সতর্কবাণী (তাদের জন্য)","language_name":"bengali","language_id":20},"transliteration":{"text":"l-nudhuru","language_name":"english","language_id":38}},{"id":4908,"position":6,"audio_url":null,"char_type_name":"end","page_number":528,"line_number":15,"text":"٥","translation":{"text":"(৫)","language_name":"bengali","language_id":20},"transliteration":{"text":null,"language_name":"english","language_id":38}}]},{"id":4852,"verse_number":6,"verse_key":"54:6","hizb_number":53,"rub_el_hizb_number":211,"ruku_number":465,"manzil_number":7,"sajdah_number":null,"page_number":528,"juz_number":27,"words":[{"id":6152,"position":1,"audio_url":"wbw/054_006_001.mp3","char_type_name":"word","page_number":528,"line_number":15,"text":"فَتَوَلَّ","translation":{"text":"(হে নবী) অতএব মুখ ফিরাও/ উপেক্ষা করো","language_name":"bengali","language_id":20},"transliteration":{"text":"fatawalla","language_name":"english","language_id":38}},{"id":6153,"position":2,"audio_url":"wbw/054_006_002.mp3","char_type_name":"word","page_number":528,"line_number":15,"text":"عَنْهُمْ ۘ","translation":{"text":"তাদের হতে","language_name":"bengali","language_id":20},"transliteration":{"text":"ʿanhum","language_name":"english","language_id":38}},{"id":6155,"position":3,"audio_url":"wbw/054_006_004.mp3","char_type_name":"word","page_number":528,"line_number":15,"text":"يَوْمَ","translation":{"text":"যেদিন","language_name":"bengali","language_id":20},"transliteration":{"text":"yawma","language_name":"english","language_id":38}},{"id":6156,"position":4,"audio_url":"wbw/054_006_005.mp3","char_type_name":"word","page_number":528,"line_number":15,"text":"يَدْعُ","translation":{"text":"আহ্বান করবে","language_name":"bengali","language_id":20},"transliteration":{"text":"yadʿu","language_name":"english","language_id":38}},{"id":6157,"position":5,"audio_url":"wbw/054_006_006.mp3","char_type_name":"word","page_number":528,"line_number":15,"text":"ٱلدَّاعِ","translation":{"text":"এক আহ্বানকারী","language_name":"bengali","language_id":20},"transliteration":{"text":"l-dāʿi","language_name":"english","language_id":38}},{"id":6158,"position":6,"audio_url":"wbw/054_006_007.mp3","char_type_name":"word","page_number":528,"line_number":15,"text":"إِلَىٰ","translation":{"text":"দিকে","language_name":"bengali","language_id":20},"transliteration":{"text":"ilā","language_name":"english","language_id":38}},{"id":6159,"position":7,"audio_url":"wbw/054_006_008.mp3","char_type_name":"word","page_number":528,"line_number":15,"text":"شَىْءٍۢ","translation":{"text":"একটা জিনিসের","language_name":"bengali","language_id":20},"transliteration":{"text":"shayin","language_name":"english","language_id":38}},{"id":6160,"position":8,"audio_url":"wbw/054_006_009.mp3","char_type_name":"word","page_number":528,"line_number":15,"text":"نُّكُرٍ","translation":{"text":"অপ্রীতিকর","language_name":"bengali","language_id":20},"transliteration":{"text":"nukurin","language_name":"english","language_id":38}},{"id":6161,"position":9,"audio_url":null,"char_type_name":"end","page_number":528,"line_number":15,"text":"٦","translation":{"text":"(৬)","language_name":"bengali","language_id":20},"transliteration":{"text":null,"language_name":"english","language_id":38}}]},{"id":4853,"verse_number":7,"verse_key":"54:7","hizb_number":53,"rub_el_hizb_number":211,"ruku_number":465,"manzil_number":7,"sajdah_number":null,"page_number":529,"juz_number":27,"words":[{"id":7486,"position":1,"audio_url":"wbw/054_007_001.mp3","char_type_name":"word","page_number":529,"line_number":1,"text":"خُشَّعًا","translation":{"text":"অবনমিত অবস্থায়(থাকবে)","language_name":"bengali","language_id":20},"transliteration":{"text":"khushaʿan","language_name":"english","language_id":38}},{"id":7487,"position":2,"audio_url":"wbw/054_007_002.mp3","char_type_name":"word","page_number":529,"line_number":1,"text":"أَبْصَـٰرُهُمْ","translation":{"text":"তাদের দৃষ্টি","language_name":"bengali","language_id":20},"transliteration":{"text":"abṣāruhum","language_name":"english","language_id":38}},{"id":7488,"position":3,"audio_url":"wbw/054_007_003.mp3","char_type_name":"word","page_number":529,"line_number":1,"text":"يَخْرُجُونَ","translation":{"text":"তারা বের হবে (সেদিন)","language_name":"bengali","language_id":20},"transliteration":{"text":"yakhrujūna","language_name":"english","language_id":38}},{"id":7489,"position":4,"audio_url":"wbw/054_007_004.mp3","char_type_name":"word","page_number":529,"line_number":1,"text":"مِنَ","translation":{"text":"হতে","language_name":"bengali","language_id":20},"transliteration":{"text":"mina","language_name":"english","language_id":38}},{"id":7490,"position":5,"audio_url":"wbw/054_007_005.mp3","char_type_name":"word","page_number":529,"line_number":1,"text":"ٱلْأَجْدَاثِ","translation":{"text":"কবরসমূহ","language_name":"bengali","language_id":20},"transliteration":{"text":"l-ajdāthi","language_name":"english","language_id":38}},{"id":7491,"position":6,"audio_url":"wbw/054_007_006.mp3","char_type_name":"word","page_number":529,"line_number":1,"text":"كَأَنَّهُمْ","translation":{"text":"(মনে হবে) তারা যেন","language_name":"bengali","language_id":20},"transliteration":{"text":"ka-annahum","language_name":"english","language_id":38}},{"id":7492,"position":7,"audio_url":"wbw/054_007_007.mp3","char_type_name":"word","page_number":529,"line_number":1,"text":"جَرَادٌۭ","translation":{"text":"পঙ্গপাল","language_name":"bengali","language_id":20},"transliteration":{"text":"jarādun","language_name":"english","language_id":38}},{"id":7493,"position":8,"audio_url":"wbw/054_007_008.mp3","char_type_name":"word","page_number":529,"line_number":1,"text":"مُّنتَشِرٌۭ","translation":{"text":"বিক্ষিপ্ত","language_name":"bengali","language_id":20},"transliteration":{"text":"muntashirun","language_name":"english","language_id":38}},{"id":7494,"position":9,"audio_url":null,"char_type_name":"end","page_number":529,"line_number":1,"text":"٧","translation":{"text":"(৭)","language_name":"bengali","language_id":20},"transliteration":{"text":null,"language_name":"english","language_id":38}}]},{"id":4854,"verse_number":8,"verse_key":"54:8","hizb_number":53,"rub_el_hizb_number":211,"ruku_number":465,"manzil_number":7,"sajdah_number":null,"page_number":529,"juz_number":27,"words":[{"id":8731,"position":1,"audio_url":"wbw/054_008_001.mp3","char_type_name":"word","page_number":529,"line_number":2,"text":"مُّهْطِعِينَ","translation":{"text":"তারা দৌড়াবে (ভীতবিহ্বল হয়ে)","language_name":"bengali","language_id":20},"transliteration":{"text":"muh'ṭiʿīna","language_name":"english","language_id":38}},{"id":8732,"position":2,"audio_url":"wbw/054_008_002.mp3","char_type_name":"word","page_number":529,"line_number":2,"text":"إِلَى","translation":{"text":"দিকে","language_name":"bengali","language_id":20},"transliteration":{"text":"ilā","language_name":"english","language_id":38}},{"id":8733,"position":3,"audio_url":"wbw/054_008_003.mp3","char_type_name":"word","page_number":529,"line_number":2,"text":"ٱلدَّاعِ ۖ","translation":{"text":"আহ্বানকারীর","language_name":"bengali","language_id":20},"transliteration":{"text":"l-dāʿi","language_name":"english","language_id":38}},{"id":8735,"position":4,"audio_url":"wbw/054_008_005.mp3","char_type_name":"word","page_number":529,"line_number":2,"text":"يَقُولُ","translation":{"text":"বলবে","language_name":"bengali","language_id":20},"transliteration":{"text":"yaqūlu","language_name":"english","language_id":38}},{"id":8736,"position":5,"audio_url":"wbw/054_008_006.mp3","char_type_name":"word","page_number":529,"line_number":2,"text":"ٱلْكَـٰفِرُونَ","translation":{"text":"কাফিররা","language_name":"bengali","language_id":20},"transliteration":{"text":"l-kāfirūna","language_name":"english","language_id":38}},{"id":8737,"position":6,"audio_url":"wbw/054_008_007.mp3","char_type_name":"word","page_number":529,"line_number":2,"text":"هَـٰذَا","translation":{"text":"\"এটা","language_name":"bengali","language_id":20},"transliteration":{"text":"hādhā","language_name":"english","language_id":38}},{"id":8738,"position":7,"audio_url":"wbw/054_008_008.mp3","char_type_name":"word","page_number":529,"line_number":2,"text":"يَوْمٌ","translation":{"text":"দিন","language_name":"bengali","language_id":20},"transliteration":{"text":"yawmun","language_name":"english","language_id":38}},{"id":8739,"position":8,"audio_url":"wbw/054_008_009.mp3","char_type_name":"word","page_number":529,"line_number":2,"text":"عَسِرٌۭ","translation":{"text":"কঠিন\"","language_name":"bengali","language_id":20},"transliteration":{"text":"ʿasirun","language_name":"english","language_id":38}},{"id":8740,"position":9,"audio_url":null,"char_type_name":"end","page_number":529,"line_number":2,"text":"٨","translation":{"text":"(৮)","language_name":"bengali","language_id":20},"transliteration":{"text":null,"language_name":"english","language_id":38}}]},{"id":4855,"verse_number":9,"verse_key":"54:9","hizb_number":53,"rub_el_hizb_number":212,"ruku_number":465,"manzil_number":7,"sajdah_number":null,"page_number":529,"juz_number":27,"words":[{"id":9959,"position":1,"audio_url":"wbw/054_009_002.mp3","char_type_name":"word","page_number":529,"line_number":2,"text":"۞ كَذَّبَتْ","translation":{"text":"মিথ্যারোপ করেছিল","language_name":"bengali","language_id":20},"transliteration":{"text":"kadhabat","language_name":"english","language_id":38}},{"id":9960,"position":2,"audio_url":"wbw/054_009_003.mp3","char_type_name":"word","page_number":529,"line_number":3,"text":"قَبْلَهُمْ","translation":{"text":"তাদের পূর্বে","language_name":"bengali","language_id":20},"transliteration":{"text":"qablahum","language_name":"english","language_id":38}},{"id":9961,"position":3,"audio_url":"wbw/054_009_004.mp3","char_type_name":"word","page_number":529,"line_number":3,"text":"قَوْمُ","translation":{"text":"জাতি","language_name":"bengali","language_id":20},"transliteration":{"text":"qawmu","language_name":"english","language_id":38}},{"id":9962,"position":4,"audio_url":"wbw/054_009_005.mp3","char_type_name":"word","page_number":529,"line_number":3,"text":"نُوحٍۢ","translation":{"text":"নূহের","language_name":"bengali","language_id":20},"transliteration":{"text":"nūḥin","language_name":"english","language_id":38}},{"id":9963,"position":5,"audio_url":"wbw/054_009_006.mp3","char_type_name":"word","page_number":529,"line_number":3,"text":"فَكَذَّبُوا۟","translation":{"text":"আর তারা মিথ্যা আরোপ করেছিল","language_name":"bengali","language_id":20},"transliteration":{"text":"fakadhabū","language_name":"english","language_id":38}},{"id":9964,"position":6,"audio_url":"wbw/054_009_007.mp3","char_type_name":"word","page_number":529,"line_number":3,"text":"عَبْدَنَا","translation":{"text":"আমাদের বান্দাকে/ দাসকে","language_name":"bengali","language_id":20},"transliteration":{"text":"ʿabdanā","language_name":"english","language_id":38}},{"id":9965,"position":7,"audio_url":"wbw/054_009_008.mp3","char_type_name":"word","page_number":529,"line_number":3,"text":"وَقَالُوا۟","translation":{"text":"এবং বলেছিল","language_name":"bengali","language_id":20},"transliteration":{"text":"waqālū","language_name":"english","language_id":38}},{"id":9966,"position":8,"audio_url":"wbw/054_009_009.mp3","char_type_name":"word","page_number":529,"line_number":3,"text":"مَجْنُونٌۭ","translation":{"text":"\"সে পাগল\"","language_name":"bengali","language_id":20},"transliteration":{"text":"majnūnun","language_name":"english","language_id":38}},{"id":9967,"position":9,"audio_url":"wbw/054_009_010.mp3","char_type_name":"word","page_number":529,"line_number":3,"text":"وَٱزْدُجِرَ","translation":{"text":"ও তাকে ধমকানো হয়েছিল","language_name":"bengali","language_id":20},"transliteration":{"text":"wa-uz'dujira","language_name":"english","language_id":38}},{"id":9968,"position":10,"audio_url":null,"char_type_name":"end","page_number":529,"line_number":3,"text":"٩","translation":{"text":"(৯)","language_name":"bengali","language_id":20},"transliteration":{"text":null,"language_name":"english","language_id":38}}]},{"id":4856,"verse_number":10,"verse_key":"54:10","hizb_number":53,"rub_el_hizb_number":212,"ruku_number":465,"manzil_number":7,"sajdah_number":null,"page_number":529,"juz_number":27,"words":[{"id":11161,"position":1,"audio_url":"wbw/054_010_001.mp3","char_type_name":"word","page_number":529,"line_number":3,"text":"فَدَعَا","translation":{"text":"সে তখন ডেকেছিল","language_name":"bengali","language_id":20},"transliteration":{"text":"fadaʿā","language_name":"english","language_id":38}},{"id":11162,"position":2,"audio_url":"wbw/054_010_002.mp3","char_type_name":"word","page_number":529,"line_number":4,"text":"رَبَّهُۥٓ","translation":{"text":"তার রবকে","language_name":"bengali","language_id":20},"transliteration":{"text":"rabbahu","language_name":"english","language_id":38}},{"id":11163,"position":3,"audio_url":"wbw/054_010_003.mp3","char_type_name":"word","page_number":529,"line_number":4,"text":"أَنِّى","translation":{"text":"\"যে আমি","language_name":"bengali","language_id":20},"transliteration":{"text":"annī","language_name":"english","language_id":38}},{"id":11164,"position":4,"audio_url":"wbw/054_010_004.mp3","char_type_name":"word","page_number":529,"line_number":4,"text":"مَغْلُوبٌۭ","translation":{"text":"পরাজিত","language_name":"bengali","language_id":20},"transliteration":{"text":"maghlūbun","language_name":"english","language_id":38}},{"id":11165,"position":5,"audio_url":"wbw/054_010_005.mp3","char_type_name":"word","page_number":529,"line_number":4,"text":"فَٱنتَصِرْ","translation":{"text":"অতএব তুমি প্রতিবিধান করো\"","language_name":"bengali","language_id":20},"transliteration":{"text":"fa-intaṣir","language_name":"english","language_id":38}},{"id":11166,"position":6,"audio_url":null,"char_type_name":"end","page_number":529,"line_number":4,"text":"١٠","translation":{"text":"(১০)","language_name":"bengali","language_id":20},"transliteration":{"text":null,"language_name":"english","language_id":38}}]}],"pagination":{"per_page":10,"current_page":1,"next_page":2,"total_pages":6,"total_records":55}}
