{"verses":[{"id":4877,"verse_number":31,"verse_key":"54:31","hizb_number":53,"rub_el_hizb_number":212,"ruku_number":466,"manzil_number":7,"sajdah_number":null,"page_number":530,"juz_number":27,"words":[{"id":33536,"position":1,"audio_url":"wbw/054_031_001.mp3","char_type_name":"word","page_number":530,"line_number":2,"text":"إِنَّآ","translation":{"text":"নিশ্চয়ই আমরা","language_name":"bengali","language_id":20},"transliteration":{"text":"innā","language_name":"english","language_id":38}},{"id":33537,"position":2,"audio_url":"wbw/054_031_002.mp3","char_type_name":"word","page_number":530,"line_number":2,"text":"أَرْسَلْنَا","translation":{"text":"আমরা পাঠালাম","language_name":"bengali","language_id":20},"transliteration":{"text":"arsalnā","language_name":"english","language_id":38}},{"id":33538,"position":3,"audio_url":"wbw/054_031_003.mp3","char_type_name":"word","page_number":530,"line_number":2,"text":"عَلَيْهِمْ","translation":{"text":"তাদের উপর","language_name":"bengali","language_id":20},"transliteration":{"text":"ʿalayhim","language_name":"english","language_id":38}},{"id":33539,"position":4,"audio_url":"wbw/054_031_004.mp3","char_type_name":"word","page_number":530,"line_number":3,"text":"صَيْحَةًۭ","translation":{"text":"প্রচণ্ড গর্জন","language_name":"bengali","language_id":20},"transliteration":{"text":"ṣayḥatan","language_name":"english","language_id":38}},{"id":33540,"position":5,"audio_url":"wbw/054_031_005.mp3","char_type_name":"word","page_number":530,"line_number":3,"text":"وَٰحِدَةًۭ","translation":{"text":"একটি (মাত্র)","language_name":"bengali","language_id":20},"transliteration":{"text":"wāḥidatan","language_name":"english","language_id":38}},{"id":33541,"position":6,"audio_url":"wbw/054_031_006.mp3","char_type_name":"word","page_number":530,"line_number":3,"text":"فَكَانُوا۟","translation":{"text":"ফলে তারা হয়ে গেল","language_name":"bengali","language_id":20},"transliteration":{"text":"fakānū","language_name":"english","language_id":38}},{"id":33542,"position":7,"audio_url":"wbw/054_031_007.mp3","char_type_name":"word","page_number":530,"line_number":3,"text":"كَهَشِيمِ","translation":{"text":"শুকনা খড়্রের মতো","language_name":"bengali","language_id":20},"transliteration":{"text":"kahashīmi","language_name":"english","language_id":38}},{"id":33543,"position":8,"audio_url":"wbw/054_031_008.mp3","char_type_name":"word","page_number":530,"line_number":3,"text":"ٱلْمُحْتَظِرِ","translation":{"text":"খোঁয়াড় প্রস্তুতকারীর","language_name":"bengali","language_id":20},"transliteration":{"text":"l-muḥ'taẓiri","language_name":"english","language_id":38}},{"id":33544,"position":9,"audio_url":null,"char_type_name":"end","page_number":530,"line_number":3,"text":"٣١","translation":{"text":"(৩১)","language_name":"bengali","language_id":20},"transliteration":{"text":null,"language_name":"english","language_id":38}}]},{"id":4878,"verse_number":32,"verse_key":"54:32","hizb_number":53,"rub_el_hizb_number":212,"ruku_number":466,"manzil_number":7,"sajdah_number":null,"page_number":530,"juz_number":27,"words":[{"id":34630,"position":1,"audio_url":"wbw/054_032_001.mp3","char_type_name":"word","page_number":530,"line_number":3,"text":"وَلَقَدْ","translation":{"text":"এবং নিশ্চয়ই","language_name":"bengali","language_id":20},"transliteration":{"text":"walaqad","language_name":"english","language_id":38}},{"id":34631,"position":2,"audio_url":"wbw/054_032_002.mp3","char_type_name":"word","page_number":530,"line_number":3,"text":"يَسَّرْنَا","translation":{"text":"আমরা সহজ করেছি","language_name":"bengali","language_id":20},"transliteration":{"text":"yassarnā","language_name":"english","language_id":38}},{"id":34632,"position":3,"audio_url":"wbw/054_032_003.mp3","char_type_name":"word","page_number":530,"line_number":3,"text":"ٱلْقُرْءَانَ","translation":{"text":"কুরআনকে","language_name":"bengali","language_id":20},"transliteration":{"text":"l-qur'āna","language_name":"english","language_id":38}},{"id":34633,"position":4,"audio_url":"wbw/054_032_004.mp3","char_type_name":"word","page_number":530,"line_number":4,"text":"لِلذِّكْرِ","translation":{"text":"উপদেশ গ্রহনের জন্যে","language_name":"bengali","language_id":20},"transliteration":{"text":"lildhik'ri","language_name":"english","language_id":38}},{"id":34634,"position":5,"audio_url":"wbw/054_032_005.mp3","char_type_name":"word","page_number":530,"line_number":4,"text":"فَهَلْ","translation":{"text":"কি তবে (আছে)","language_name":"bengali","language_id":20},"transliteration":{"text":"fahal","language_name":"english","language_id":38}},{"id":34635,"position":6,"audio_url":"wbw/054_032_006.mp3","char_type_name":"word","page_number":530,"line_number":4,"text":"مِن","translation":{"text":"কোনো","language_name":"bengali","language_id":20},"transliteration":{"text":"min","language_name":"english","language_id":38}},{"id":34636,"position":7,"audio_url":"wbw/054_032_007.mp3","char_type_name":"word","page_number":530,"line_number":4,"text":"مُّدَّكِرٍۢ","translation":{"text":"উপদেশ গ্রহণকারী","language_name":"bengali","language_id":20},"transliteration":{"text":"muddakirin","language_name":"english","language_id":38}},{"id":34637,"position":8,"audio_url":null,"char_type_name":"end","page_number":530,"line_number":4,"text":"٣٢","translation":{"text":"(৩২)","language_name":"bengali","language_id":20},"transliteration":{"text":null,"language_name":"english","language_id":38}}]},{"id":4879,"verse_number":33,"verse_key":"54:33","hizb_number":53,"rub_el_hizb_number":212,"ruku_number":466,"manzil_number":7,"sajdah_number":null,"page_number":530,"juz_number":27,"words":[{"id":35421,"position":1,"audio_url":"wbw/054_033_001.mp3","char_type_name":"word","page_number":530,"line_number":4,"text":"كَذَّبَتْ","translation":{"text":"মিথ্যারোপ করেছিল","language_name":"bengali","language_id":20},"transliteration":{"text":"kadhabat","language_name":"english","language_id":38}},{"id":35422,"position":2,"audio_url":"wbw/054_033_002.mp3","char_type_name":"word","page_number":530,"line_number":4,"text":"قَوْمُ","translation":{"text":"জাতি","language_name":"bengali","language_id":20},"transliteration":{"text":"qawmu","language_name":"english","language_id":38}},{"id":35423,"position":3,"audio_url":"wbw/054_033_003.mp3","char_type_name":"word","page_number":530,"line_number":4,"text":"لُوطٍۭ","translation":{"text":"লূতের","language_name":"bengali","language_id":20},"transliteration":{"text":"lūṭin","language_name":"english","language_id":38}},{"id":35424,"position":4,"audio_url":"wbw/054_033_004.mp3","char_type_name":"word","page_number":530,"line_number":4,"text":"بِٱلنُّذُرِ","translation":{"text":"সতর্কবাণীকে","language_name":"bengali","language_id":20},"transliteration":{"text":"bil-nudhuri","language_name":"english","language_id":38}},{"id":35425,"position":5,"audio_url":null,"char_type_name":"end","page_number":530,"line_number":4,"text":"٣٣","translation":{"text":"(৩৩)","language_name":"bengali","language_id":20},"transliteration":{"text":null,"language_name":"english","language_id":38}}]},{"id":4880,"verse_number":34,"verse_key":"54:34","hizb_number":53,"rub_el_hizb_number":212,"ruku_number":466,"manzil_number":7,"sajdah_number":null,"page_number":530,"juz_number":27,"words":[{"id":36451,"position":1,"audio_url":"wbw/054_034_001.mp3","char_type_name":"word","page_number":530,"line_number":4,"text":"إِنَّآ","translation":{"text":"আমরা নিশ্চয়ই","language_name":"bengali","language_id":20},"transliteration":{"text":"innā","language_name":"english","language_id":38}},{"id":36452,"position":2,"audio_url":"wbw/054_034_002.mp3","char_type_name":"word","page_number":530,"line_number":4,"text":"أَرْسَلْنَا","translation":{"text":"আমরা পাঠিয়েছি","language_name":"bengali","language_id":20},"transliteration":{"text":"arsalnā","language_name":"english","language_id":38}},{"id":36453,"position":3,"audio_url":"wbw/054_034_003.mp3","char_type_name":"word","page_number":530,"line_number":5,"text":"عَلَيْهِمْ","translation":{"text":"তাদের উপর","language_name":"bengali","language_id":20},"transliteration":{"text":"ʿalayhim","language_name":"english","language_id":38}},{"id":36454,"position":4,"audio_url":"wbw/054_034_004.mp3","char_type_name":"word","page_number":530,"line_number":5,"text":"حَاصِبًا","translation":{"text":"পাথরবর্ষণকারী ঝড়ো বাতাস","language_name":"bengali","language_id":20},"transliteration":{"text":"ḥāṣiban","language_name":"english","language_id":38}},{"id":36455,"position":5,"audio_url":"wbw/054_034_005.mp3","char_type_name":"word","page_number":530,"line_number":5,"text":"إِلَّآ","translation":{"text":"তবে","language_name":"bengali","language_id":20},"transliteration":{"text":"illā","language_name":"english","language_id":38}},{"id":36456,"position":6,"audio_url":"wbw/054_034_006.mp3","char_type_name":"word","page_number":530,"line_number":5,"text":"ءَالَ","translation":{"text":"পরিবারকে","language_name":"bengali","language_id":20},"transliteration":{"text":"āla","language_name":"english","language_id":38}},{"id":36457,"position":7,"audio_url":"wbw/054_034_007.mp3","char_type_name":"word","page_number":530,"line_number":5,"text":"لُوطٍۢ ۖ","translation":{"text":"লূতের (রক্ষা করি)","language_name":"bengali","language_id":20},"transliteration":{"text":"lūṭin","language_name":"english","language_id":38}},{"id":36459,"position":8,"audio_url":"wbw/054_034_009.mp3","char_type_name":"word","page_number":530,"line_number":5,"text":"نَّجَّيْنَـٰهُم","translation":{"text":"তাদেরকে আমরা উদ্ধার করেছিলাম","language_name":"bengali","language_id":20},"transliteration":{"text":"najjaynāhum","language_name":"english","language_id":38}},{"id":36460,"position":9,"audio_url":"wbw/054_034_010.mp3","char_type_name":"word","page_number":530,"line_number":5,"text":"بِسَحَرٍۢ","translation":{"text":"রাতের শেষে","language_name":"bengali","language_id":20},"transliteration":{"text":"bisaḥarin","language_name":"english","language_id":38}},{"id":36461,"position":10,"audio_url":null,"char_type_name":"end","page_number":530,"line_number":5,"text":"٣٤","translation":{"text":"(৩৪)","language_name":"bengali","language_id":20},"transliteration":{"text":null,"language_name":"english","language_id":38}}]},{"id":4881,"verse_number":35,"verse_key":"54:35","hizb_number":53,"rub_el_hizb_number":212,"ruku_number":466,"manzil_number":7,"sajdah_number":null,"page_number":530,"juz_number":27,"words":[{"id":37192,"position":1,"audio_url":"wbw/054_035_001.mp3","char_type_name":"word","page_number":530,"line_number":5,"text":"نِّعْمَةًۭ","translation":{"text":"অনুগ্রহে","language_name":"bengali","language_id":20},"transliteration":{"text":"niʿ'matan","language_name":"english","language_id":38}},{"id":37193,"position":2,"audio_url":"wbw/054_035_002.mp3","char_type_name":"word","page_number":530,"line_number":5,"text":"مِّنْ","translation":{"text":"হতে","language_name":"bengali","language_id":20},"transliteration":{"text":"min","language_name":"english","language_id":38}},{"id":37194,"position":3,"audio_url":"wbw/054_035_003.mp3","char_type_name":"word","page_number":530,"line_number":5,"text":"عِندِنَا ۚ","translation":{"text":"আমাদের নিকট","language_name":"bengali","language_id":20},"transliteration":{"text":"ʿindinā","language_name":"english","language_id":38}},{"id":37196,"position":4,"audio_url":"wbw/054_035_005.mp3","char_type_name":"word","page_number":530,"line_number":6,"text":"كَذَٰلِكَ","translation":{"text":"এভাবেই","language_name":"bengali","language_id":20},"transliteration":{"text":"kadhālika","language_name":"english","language_id":38}},{"id":37197,"position":5,"audio_url":"wbw/054_035_006.mp3","char_type_name":"word","page_number":530,"line_number":6,"text":"نَجْزِى","translation":{"text":"পুরস্কার দেই আমরা","language_name":"bengali","language_id":20},"transliteration":{"text":"najzī","language_name":"english","language_id":38}},{"id":37198,"position":6,"audio_url":"wbw/054_035_007.mp3","char_type_name":"word","page_number":530,"line_number":6,"text":"مَن","translation":{"text":"যে","language_name":"bengali","language_id":20},"transliteration":{"text":"man","language_name":"english","language_id":38}},{"id":37199,"position":7,"audio_url":"wbw/054_035_008.mp3","char_type_name":"word","page_number":530,"line_number":6,"text":"شَكَرَ","translation":{"text":"কৃতজ্ঞতা প্রকাশ করে","language_name":"bengali","language_id":20},"transliteration":{"text":"shakara","language_name":"english","language_id":38}},{"id":37200,"position":8,"audio_url":null,"char_type_name":"end","page_number":530,"line_number":6,"text":"٣٥","translation":{"text":"(৩৫)","language_name":"bengali","language_id":20},"transliteration":{"text":null,"language_name":"english","language_id":38}}]},{"id":4882,"verse_number":36,"verse_key":"54:36","hizb_number":53,"rub_el_hizb_number":212,"ruku_number":466,"manzil_number":7,"sajdah_number":null,"page_number":530,"juz_number":27,"words":[{"id":37972,"position":1,"audio_url":"wbw/054_036_001.mp3","char_type_name":"word","page_number":530,"line_number":6,"text":"وَلَقَدْ","translation":{"text":"এবং নিশ্চয়ই","language_name":"bengali","language_id":20},"transliteration":{"text":"walaqad","language_name":"english","language_id":38}},{"id":37973,"position":2,"audio_url":"wbw/054_036_002.mp3","char_type_name":"word","page_number":530,"line_number":6,"text":"أَنذَرَهُم","translation":{"text":"তাদেরকে সতর্ক করেছিল সে","language_name":"bengali","language_id":20},"transliteration":{"text":"andharahum","language_name":"english","language_id":38}},{"id":37974,"position":3,"audio_url":"wbw/054_036_003.mp3","char_type_name":"word","page_number":530,"line_number":6,"text":"بَطْشَتَنَا","translation":{"text":"আমাদের পাকড়াও সম্পর্কে","language_name":"bengali","language_id":20},"transliteration":{"text":"baṭshatanā","language_name":"english","language_id":38}},{"id":37975,"position":4,"audio_url":"wbw/054_036_004.mp3","char_type_name":"word","page_number":530,"line_number":6,"text":"فَتَمَارَوْا۟","translation":{"text":"তারা সন্দেহ তবে করেছিল","language_name":"bengali","language_id":20},"transliteration":{"text":"fatamāraw","language_name":"english","language_id":38}},{"id":37976,"position":5,"audio_url":"wbw/054_036_005.mp3","char_type_name":"word","page_number":530,"line_number":6,"text":"بِٱلنُّذُرِ","translation":{"text":"সতর্কবাণী সম্পর্কে","language_name":"bengali","language_id":20},"transliteration":{"text":"bil-nudhuri","language_name":"english","language_id":38}},{"id":37977,"position":6,"audio_url":null,"char_type_name":"end","page_number":530,"line_number":7,"text":"٣٦","translation":{"text":"(৩৬)","language_name":"bengali","language_id":20},"transliteration":{"text":null,"language_name":"english","language_id":38}}]},{"id":4883,"verse_number":37,"verse_key":"54:37","hizb_number":53,"rub_el_hizb_number":212,"ruku_number":466,"manzil_number":7,"sajdah_number":null,"page_number":530,"juz_number":27,"words":[{"id":38805,"position":1,"audio_url":"wbw/054_037_001.mp3","char_type_name":"word","page_number":530,"line_number":7,"text":"وَلَقَدْ","translation":{"text":"এবং নিশ্চয়ই","language_name":"bengali","language_id":20},"transliteration":{"text":"walaqad","language_name":"english","language_id":38}},{"id":38806,"position":2,"audio_url":"wbw/054_037_002.mp3","char_type_name":"word","page_number":530,"line_number":7,"text":"رَٰوَدُوهُ","translation":{"text":"তারা তাকে ফুঁসলিয়েছিল","language_name":"bengali","language_id":20},"transliteration":{"text":"rāwadūhu","language_name":"english","language_id":38}},{"id":38807,"position":3,"audio_url":"wbw/054_037_003.mp3","char_type_name":"word","page_number":530,"line_number":7,"text":"عَن","translation":{"text":"সম্পর্কে","language_name":"bengali","language_id":20},"transliteration":{"text":"ʿan","language_name":"english","language_id":38}},{"id":38808,"position":4,"audio_url":"wbw/054_037_004.mp3","char_type_name":"word","page_number":530,"line_number":7,"text":"ضَيْفِهِۦ","translation":{"text":"তার মেহমান (দের)","language_name":"bengali","language_id":20},"transliteration":{"text":"ḍayfihi","language_name":"english","language_id":38}},{"id":38809,"position":5,"audio_url":"wbw/054_037_005.mp3","char_type_name":"word","page_number":530,"line_number":7,"text":"فَطَمَسْنَآ","translation":{"text":"আমরা তখন নিষ্প্রভ করেছিলাম","language_name":"bengali","language_id":20},"transliteration":{"text":"faṭamasnā","language_name":"english","language_id":38}},{"id":38810,"position":6,"audio_url":"wbw/054_037_006.mp3","char_type_name":"word","page_number":530,"line_number":7,"text":"أَعْيُنَهُمْ","translation":{"text":"তাদের চোখগুলোকে","language_name":"bengali","language_id":20},"transliteration":{"text":"aʿyunahum","language_name":"english","language_id":38}},{"id":38811,"position":7,"audio_url":"wbw/054_037_007.mp3","char_type_name":"word","page_number":530,"line_number":7,"text":"فَذُوقُوا۟","translation":{"text":"\"তোমরা এখন স্বাদ নাও","language_name":"bengali","language_id":20},"transliteration":{"text":"fadhūqū","language_name":"english","language_id":38}},{"id":38812,"position":8,"audio_url":"wbw/054_037_008.mp3","char_type_name":"word","page_number":530,"line_number":7,"text":"عَذَابِى","translation":{"text":"আমার শাস্তির","language_name":"bengali","language_id":20},"transliteration":{"text":"ʿadhābī","language_name":"english","language_id":38}},{"id":38813,"position":9,"audio_url":"wbw/054_037_009.mp3","char_type_name":"word","page_number":530,"line_number":8,"text":"وَنُذُرِ","translation":{"text":"ও আমার সতর্কবাণীর\"","language_name":"bengali","language_id":20},"transliteration":{"text":"wanudhuri","language_name":"english","language_id":38}},{"id":38814,"position":10,"audio_url":null,"char_type_name":"end","page_number":530,"line_number":8,"text":"٣٧","translation":{"text":"(৩৭)","language_name":"bengali","language_id":20},"transliteration":{"text":null,"language_name":"english","language_id":38}}]},{"id":4884,"verse_number":38,"verse_key":"54:38","hizb_number":53,"rub_el_hizb_number":212,"ruku_number":466,"manzil_number":7,"sajdah_number":null,"page_number":530,"juz_number":27,"words":[{"id":39775,"position":1,"audio_url":"wbw/054_038_001.mp3","char_type_name":"word","page_number":530,"line_number":8,"text":"وَلَقَدْ","translation":{"text":"এবং নিশ্চয়ই","language_name":"bengali","language_id":20},"transliteration":{"text":"walaqad","language_name":"english","language_id":38}},{"id":39776,"position":2,"audio_url":"wbw/054_038_002.mp3","char_type_name":"word","page_number":530,"line_number":8,"text":"صَبَّحَهُم","translation":{"text":"তাদের উপর আপতিত হলো","language_name":"bengali","language_id":20},"transliteration":{"text":"ṣabbaḥahum","language_name":"english","language_id":38}},{"id":39777,"position":3,"audio_url":"wbw/054_038_003.mp3","char_type_name":"word","page_number":530,"line_number":8,"text":"بُكْرَةً","translation":{"text":"খুব ভোরে","language_name":"bengali","language_id":20},"transliteration":{"text":"buk'ratan","language_name":"english","language_id":38}},{"id":39778,"position":4,"audio_url":"wbw/054_038_004.mp3","char_type_name":"word","page_number":530,"line_number":8,"text":"عَذَابٌۭ","translation":{"text":"শাস্তি","language_name":"bengali","language_id":20},"transliteration":{"text":"ʿadhābun","language_name":"english","language_id":38}},{"id":39779,"position":5,"audio_url":"wbw/054_038_005.mp3","char_type_name":"word","page_number":530,"line_number":8,"text":"مُّسْتَقِرٌّۭ","translation":{"text":"বিরামহীন","language_name":"bengali","language_id":20},"transliteration":{"text":"mus'taqirrun","language_name":"english","language_id":38}},{"id":39780,"position":6,"audio_url":null,"char_type_name":"end","page_number":530,"line_number":8,"text":"٣٨","translation":{"text":"(৩৮)","language_name":"bengali","language_id":20},"transliteration":{"text":null,"language_name":"english","language_id":38}}]},{"id":4885,"verse_number":39,"verse_key":"54:39","hizb_number":53,"rub_el_hizb_number":212,"ruku_number":466,"manzil_number":7,"sajdah_number":null,"page_number":530,"juz_number":27,"words":[{"id":40518,"position":1,"audio_url":"wbw/054_039_001.mp3","char_type_name":"word","page_number":530,"line_number":8,"text":"فَذُوقُوا۟","translation":{"text":"তোমরা এখন স্বাদ নাও","language_name":"bengali","language_id":20},"transliteration":{"text":"fadhūqū","language_name":"english","language_id":38}},{"id":40519,"position":2,"audio_url":"wbw/054_039_002.mp3","char_type_name":"word","page_number":530,"line_number":9,"text":"عَذَابِى","translation":{"text":"আমার শাস্তির","language_name":"bengali","language_id":20},"transliteration":{"text":"ʿadhābī","language_name":"english","language_id":38}},{"id":40520,"position":3,"audio_url":"wbw/054_039_003.mp3","char_type_name":"word","page_number":530,"line_number":9,"text":"وَنُذُرِ","translation":{"text":"ও আমার সতর্কবাণীর","language_name":"bengali","language_id":20},"transliteration":{"text":"wanudhuri","language_name":"english","language_id":38}},{"id":40521,"position":4,"audio_url":null,"char_type_name":"end","page_number":530,"line_number":9,"text":"٣٩","translation":{"text":"(৩৯)","language_name":"bengali","language_id":20},"transliteration":{"text":null,"language_name":"english","language_id":38}}]},{"id":4886,"verse_number":40,"verse_key":"54:40","hizb_number":53,"rub_el_hizb_number":212,"ruku_number":466,"manzil_number":7,"sajdah_number":null,"page_number":530,"juz_number":27,"words":[{"id":41284,"position":1,"audio_url":"wbw/054_040_001.mp3","char_type_name":"word","page_number":530,"line_number":9,"text":"وَلَقَدْ","translation":{"text":"এবং নিশ্চয়ই","language_name":"bengali","language_id":20},"transliteration":{"text":"walaqad","language_name":"english","language_id":38}},{"id":41285,"position":2,"audio_url":"wbw/054_040_002.mp3","char_type_name":"word","page_number":530,"line_number":9,"text":"يَسَّرْنَا","translation":{"text":"আমরা সহজ করেছি","language_name":"bengali","language_id":20},"transliteration":{"text":"yassarnā","language_name":"english","language_id":38}},{"id":41286,"position":3,"audio_url":"wbw/054_040_003.mp3","char_type_name":"word","page_number":530,"line_number":9,"text":"ٱلْقُرْءَانَ","translation":{"text":"কুরআনকে","language_name":"bengali","language_id":20},"transliteration":{"text":"l-qur'āna","language_name":"english","language_id":38}},{"id":41287,"position":4,"audio_url":"wbw/054_040_004.mp3","char_type_name":"word","page_number":530,"line_number":9,"text":"لِلذِّكْرِ","translation":{"text":"উপদেশ গ্রহণের জন্য","language_name":"bengali","language_id":20},"transliteration":{"text":"lildhik'ri","language_name":"english","language_id":38}},{"id":41288,"position":5,"audio_url":"wbw/054_040_005.mp3","char_type_name":"word","page_number":530,"line_number":9,"text":"فَهَلْ","translation":{"text":"কি তবে (আছে)","language_name":"bengali","language_id":20},"transliteration":{"text":"fahal","language_name":"english","language_id":38}},{"id":41289,"position":6,"audio_url":"wbw/054_040_006.mp3","char_type_name":"word","page_number":530,"line_number":9,"text":"مِن","translation":{"text":"কোনো","language_name":"bengali","language_id":20},"transliteration":{"text":"min","language_name":"english","language_id":38}},{"id":41290,"position":7,"audio_url":"wbw/054_040_007.mp3","char_type_name":"word","page_number":530,"line_number":9,"text":"مُّدَّكِرٍۢ","translation":{"text":"উপদেশ গ্রহণকারী","language_name":"bengali","language_id":20},"transliteration":{"text":"muddakirin","language_name":"english","language_id":38}},{"id":41291,"position":8,"audio_url":null,"char_type_name":"end","page_number":530,"line_number":9,"text":"٤٠","translation":{"text":"(৪০)","language_name":"bengali","language_id":20},"transliteration":{"text":null,"language_name":"english","language_id":38}}]}],"pagination":{"per_page":10,"current_page":4,"next_page":5,"total_pages":6,"total_records":55}}
