{"verses":[{"id":4887,"verse_number":41,"verse_key":"54:41","hizb_number":53,"rub_el_hizb_number":212,"ruku_number":467,"manzil_number":7,"sajdah_number":null,"page_number":530,"juz_number":27,"words":[{"id":42080,"position":1,"audio_url":"wbw/054_041_001.mp3","char_type_name":"word","page_number":530,"line_number":10,"text":"وَلَقَدْ","translation":{"text":"এবং নিশ্চয়ই","language_name":"bengali","language_id":20},"transliteration":{"text":"walaqad","language_name":"english","language_id":38}},{"id":42081,"position":2,"audio_url":"wbw/054_041_002.mp3","char_type_name":"word","page_number":530,"line_number":10,"text":"جَآءَ","translation":{"text":"এসেছিল","language_name":"bengali","language_id":20},"transliteration":{"text":"jāa","language_name":"english","language_id":38}},{"id":42082,"position":3,"audio_url":"wbw/054_041_003.mp3","char_type_name":"word","page_number":530,"line_number":10,"text":"ءَالَ","translation":{"text":"সম্প্রদায়ের (কাছে)","language_name":"bengali","language_id":20},"transliteration":{"text":"āla","language_name":"english","language_id":38}},{"id":42083,"position":4,"audio_url":"wbw/054_041_004.mp3","char_type_name":"word","page_number":530,"line_number":10,"text":"فِرْعَوْنَ","translation":{"text":"ফিরআউনের","language_name":"bengali","language_id":20},"transliteration":{"text":"fir'ʿawna","language_name":"english","language_id":38}},{"id":42084,"position":5,"audio_url":"wbw/054_041_005.mp3","char_type_name":"word","page_number":530,"line_number":10,"text":"ٱلنُّذُرُ","translation":{"text":"সতর্ককারীরা","language_name":"bengali","language_id":20},"transliteration":{"text":"l-nudhuru","language_name":"english","language_id":38}},{"id":42085,"position":6,"audio_url":null,"char_type_name":"end","page_number":530,"line_number":10,"text":"٤١","translation":{"text":"(৪১)","language_name":"bengali","language_id":20},"transliteration":{"text":null,"language_name":"english","language_id":38}}]},{"id":4888,"verse_number":42,"verse_key":"54:42","hizb_number":53,"rub_el_hizb_number":212,"ruku_number":467,"manzil_number":7,"sajdah_number":null,"page_number":530,"juz_number":27,"words":[{"id":42977,"position":1,"audio_url":"wbw/054_042_001.mp3","char_type_name":"word","page_number":530,"line_number":10,"text":"كَذَّبُوا۟","translation":{"text":"তারা মিথ্যা বলেছিল","language_name":"bengali","language_id":20},"transliteration":{"text":"kadhabū","language_name":"english","language_id":38}},{"id":42978,"position":2,"audio_url":"wbw/054_042_002.mp3","char_type_name":"word","page_number":530,"line_number":10,"text":"بِـَٔايَـٰتِنَا","translation":{"text":"আমাদের নিদর্শনের","language_name":"bengali","language_id":20},"transliteration":{"text":"biāyātinā","language_name":"english","language_id":38}},{"id":42979,"position":3,"audio_url":"wbw/054_042_003.mp3","char_type_name":"word","page_number":530,"line_number":10,"text":"كُلِّهَا","translation":{"text":"সবগুলোকেই","language_name":"bengali","language_id":20},"transliteration":{"text":"kullihā","language_name":"english","language_id":38}},{"id":42980,"position":4,"audio_url":"wbw/054_042_004.mp3","char_type_name":"word","page_number":530,"line_number":10,"text":"فَأَخَذْنَـٰهُمْ","translation":{"text":"ফলে তাদেরকে আমরা পাকড়াও করলাম","language_name":"bengali","language_id":20},"transliteration":{"text":"fa-akhadhnāhum","language_name":"english","language_id":38}},{"id":42981,"position":5,"audio_url":"wbw/054_042_005.mp3","char_type_name":"word","page_number":530,"line_number":11,"text":"أَخْذَ","translation":{"text":"পাকড়াও","language_name":"bengali","language_id":20},"transliteration":{"text":"akhdha","language_name":"english","language_id":38}},{"id":42982,"position":6,"audio_url":"wbw/054_042_006.mp3","char_type_name":"word","page_number":530,"line_number":11,"text":"عَزِيزٍۢ","translation":{"text":"পরাক্রমশালীর","language_name":"bengali","language_id":20},"transliteration":{"text":"ʿazīzin","language_name":"english","language_id":38}},{"id":42983,"position":7,"audio_url":"wbw/054_042_007.mp3","char_type_name":"word","page_number":530,"line_number":11,"text":"مُّقْتَدِرٍ","translation":{"text":"মহাশক্তিমানের","language_name":"bengali","language_id":20},"transliteration":{"text":"muq'tadirin","language_name":"english","language_id":38}},{"id":42984,"position":8,"audio_url":null,"char_type_name":"end","page_number":530,"line_number":11,"text":"٤٢","translation":{"text":"(৪২)","language_name":"bengali","language_id":20},"transliteration":{"text":null,"language_name":"english","language_id":38}}]},{"id":4889,"verse_number":43,"verse_key":"54:43","hizb_number":53,"rub_el_hizb_number":212,"ruku_number":467,"manzil_number":7,"sajdah_number":null,"page_number":530,"juz_number":27,"words":[{"id":43608,"position":1,"audio_url":"wbw/054_043_001.mp3","char_type_name":"word","page_number":530,"line_number":11,"text":"أَكُفَّارُكُمْ","translation":{"text":"তোমাদের কাফিররা কি","language_name":"bengali","language_id":20},"transliteration":{"text":"akuffārukum","language_name":"english","language_id":38}},{"id":43609,"position":2,"audio_url":"wbw/054_043_002.mp3","char_type_name":"word","page_number":530,"line_number":11,"text":"خَيْرٌۭ","translation":{"text":"উত্তম","language_name":"bengali","language_id":20},"transliteration":{"text":"khayrun","language_name":"english","language_id":38}},{"id":43610,"position":3,"audio_url":"wbw/054_043_003.mp3","char_type_name":"word","page_number":530,"line_number":11,"text":"مِّنْ","translation":{"text":"চেয়ে","language_name":"bengali","language_id":20},"transliteration":{"text":"min","language_name":"english","language_id":38}},{"id":43611,"position":4,"audio_url":"wbw/054_043_004.mp3","char_type_name":"word","page_number":530,"line_number":11,"text":"أُو۟لَـٰٓئِكُمْ","translation":{"text":"ঐসব লোকদের","language_name":"bengali","language_id":20},"transliteration":{"text":"ulāikum","language_name":"english","language_id":38}},{"id":43612,"position":5,"audio_url":"wbw/054_043_005.mp3","char_type_name":"word","page_number":530,"line_number":11,"text":"أَمْ","translation":{"text":"কিংবা","language_name":"bengali","language_id":20},"transliteration":{"text":"am","language_name":"english","language_id":38}},{"id":43613,"position":6,"audio_url":"wbw/054_043_006.mp3","char_type_name":"word","page_number":530,"line_number":11,"text":"لَكُم","translation":{"text":"তোমাদের জন্যে আছে","language_name":"bengali","language_id":20},"transliteration":{"text":"lakum","language_name":"english","language_id":38}},{"id":43614,"position":7,"audio_url":"wbw/054_043_007.mp3","char_type_name":"word","page_number":530,"line_number":11,"text":"بَرَآءَةٌۭ","translation":{"text":"(লিখিত) মুক্তির সনদ","language_name":"bengali","language_id":20},"transliteration":{"text":"barāatun","language_name":"english","language_id":38}},{"id":43615,"position":8,"audio_url":"wbw/054_043_008.mp3","char_type_name":"word","page_number":530,"line_number":12,"text":"فِى","translation":{"text":"মধ্যে","language_name":"bengali","language_id":20},"transliteration":{"text":"fī","language_name":"english","language_id":38}},{"id":43616,"position":9,"audio_url":"wbw/054_043_009.mp3","char_type_name":"word","page_number":530,"line_number":12,"text":"ٱلزُّبُرِ","translation":{"text":"(পূর্বের) গ্রন্থসমূহের","language_name":"bengali","language_id":20},"transliteration":{"text":"l-zuburi","language_name":"english","language_id":38}},{"id":43617,"position":10,"audio_url":null,"char_type_name":"end","page_number":530,"line_number":12,"text":"٤٣","translation":{"text":"(৪৩)","language_name":"bengali","language_id":20},"transliteration":{"text":null,"language_name":"english","language_id":38}}]},{"id":4890,"verse_number":44,"verse_key":"54:44","hizb_number":53,"rub_el_hizb_number":212,"ruku_number":467,"manzil_number":7,"sajdah_number":null,"page_number":530,"juz_number":27,"words":[{"id":44384,"position":1,"audio_url":"wbw/054_044_001.mp3","char_type_name":"word","page_number":530,"line_number":12,"text":"أَمْ","translation":{"text":"অথবা (কি)","language_name":"bengali","language_id":20},"transliteration":{"text":"am","language_name":"english","language_id":38}},{"id":44385,"position":2,"audio_url":"wbw/054_044_002.mp3","char_type_name":"word","page_number":530,"line_number":12,"text":"يَقُولُونَ","translation":{"text":"তারা বলে","language_name":"bengali","language_id":20},"transliteration":{"text":"yaqūlūna","language_name":"english","language_id":38}},{"id":44386,"position":3,"audio_url":"wbw/054_044_003.mp3","char_type_name":"word","page_number":530,"line_number":12,"text":"نَحْنُ","translation":{"text":"\"আমরা","language_name":"bengali","language_id":20},"transliteration":{"text":"naḥnu","language_name":"english","language_id":38}},{"id":44387,"position":4,"audio_url":"wbw/054_044_004.mp3","char_type_name":"word","page_number":530,"line_number":12,"text":"جَمِيعٌۭ","translation":{"text":"সংঘবদ্ধ দল","language_name":"bengali","language_id":20},"transliteration":{"text":"jamīʿun","language_name":"english","language_id":38}},{"id":44388,"position":5,"audio_url":"wbw/054_044_005.mp3","char_type_name":"word","page_number":530,"line_number":12,"text":"مُّنتَصِرٌۭ","translation":{"text":"বিজয়ী\"","language_name":"bengali","language_id":20},"transliteration":{"text":"muntaṣirun","language_name":"english","language_id":38}},{"id":44389,"position":6,"audio_url":null,"char_type_name":"end","page_number":530,"line_number":12,"text":"٤٤","translation":{"text":"(৪৪)","language_name":"bengali","language_id":20},"transliteration":{"text":null,"language_name":"english","language_id":38}}]},{"id":4891,"verse_number":45,"verse_key":"54:45","hizb_number":53,"rub_el_hizb_number":212,"ruku_number":467,"manzil_number":7,"sajdah_number":null,"page_number":530,"juz_number":27,"words":[{"id":45132,"position":1,"audio_url":"wbw/054_045_001.mp3","char_type_name":"word","page_number":530,"line_number":12,"text":"سَيُهْزَمُ","translation":{"text":"শীঘ্রই পরাজিত করা হবে","language_name":"bengali","language_id":20},"transliteration":{"text":"sayuh'zamu","language_name":"english","language_id":38}},{"id":45133,"position":2,"audio_url":"wbw/054_045_002.mp3","char_type_name":"word","page_number":530,"line_number":12,"text":"ٱلْجَمْعُ","translation":{"text":"(এই) সংঘবদ্ধ দলকে","language_name":"bengali","language_id":20},"transliteration":{"text":"l-jamʿu","language_name":"english","language_id":38}},{"id":45134,"position":3,"audio_url":"wbw/054_045_003.mp3","char_type_name":"word","page_number":530,"line_number":13,"text":"وَيُوَلُّونَ","translation":{"text":"এবং তারা ফিরাবে","language_name":"bengali","language_id":20},"transliteration":{"text":"wayuwallūna","language_name":"english","language_id":38}},{"id":45135,"position":4,"audio_url":"wbw/054_045_004.mp3","char_type_name":"word","page_number":530,"line_number":13,"text":"ٱلدُّبُرَ","translation":{"text":"পিঠ","language_name":"bengali","language_id":20},"transliteration":{"text":"l-dubura","language_name":"english","language_id":38}},{"id":45136,"position":5,"audio_url":null,"char_type_name":"end","page_number":530,"line_number":13,"text":"٤٥","translation":{"text":"(৪৫)","language_name":"bengali","language_id":20},"transliteration":{"text":null,"language_name":"english","language_id":38}}]},{"id":4892,"verse_number":46,"verse_key":"54:46","hizb_number":53,"rub_el_hizb_number":212,"ruku_number":467,"manzil_number":7,"sajdah_number":null,"page_number":530,"juz_number":27,"words":[{"id":45864,"position":1,"audio_url":"wbw/054_046_001.mp3","char_type_name":"word","page_number":530,"line_number":13,"text":"بَلِ","translation":{"text":"বরং","language_name":"bengali","language_id":20},"transliteration":{"text":"bali","language_name":"english","language_id":38}},{"id":45865,"position":2,"audio_url":"wbw/054_046_002.mp3","char_type_name":"word","page_number":530,"line_number":13,"text":"ٱلسَّاعَةُ","translation":{"text":"কিয়ামত","language_name":"bengali","language_id":20},"transliteration":{"text":"l-sāʿatu","language_name":"english","language_id":38}},{"id":45866,"position":3,"audio_url":"wbw/054_046_003.mp3","char_type_name":"word","page_number":530,"line_number":13,"text":"مَوْعِدُهُمْ","translation":{"text":"তাদের নির্ধারিত সময় (বুঝাপড়ার)","language_name":"bengali","language_id":20},"transliteration":{"text":"mawʿiduhum","language_name":"english","language_id":38}},{"id":45867,"position":4,"audio_url":"wbw/054_046_004.mp3","char_type_name":"word","page_number":530,"line_number":13,"text":"وَٱلسَّاعَةُ","translation":{"text":"এবং কিয়ামত","language_name":"bengali","language_id":20},"transliteration":{"text":"wal-sāʿatu","language_name":"english","language_id":38}},{"id":45868,"position":5,"audio_url":"wbw/054_046_005.mp3","char_type_name":"word","page_number":530,"line_number":13,"text":"أَدْهَىٰ","translation":{"text":"বড়ই ভয়াবহ","language_name":"bengali","language_id":20},"transliteration":{"text":"adhā","language_name":"english","language_id":38}},{"id":45869,"position":6,"audio_url":"wbw/054_046_006.mp3","char_type_name":"word","page_number":530,"line_number":13,"text":"وَأَمَرُّ","translation":{"text":"ও বড়ই তিক্ত","language_name":"bengali","language_id":20},"transliteration":{"text":"wa-amarru","language_name":"english","language_id":38}},{"id":45870,"position":7,"audio_url":null,"char_type_name":"end","page_number":530,"line_number":13,"text":"٤٦","translation":{"text":"(৪৬)","language_name":"bengali","language_id":20},"transliteration":{"text":null,"language_name":"english","language_id":38}}]},{"id":4893,"verse_number":47,"verse_key":"54:47","hizb_number":53,"rub_el_hizb_number":212,"ruku_number":467,"manzil_number":7,"sajdah_number":null,"page_number":530,"juz_number":27,"words":[{"id":46494,"position":1,"audio_url":"wbw/054_047_001.mp3","char_type_name":"word","page_number":530,"line_number":14,"text":"إِنَّ","translation":{"text":"নিশ্চয়","language_name":"bengali","language_id":20},"transliteration":{"text":"inna","language_name":"english","language_id":38}},{"id":46495,"position":2,"audio_url":"wbw/054_047_002.mp3","char_type_name":"word","page_number":530,"line_number":14,"text":"ٱلْمُجْرِمِينَ","translation":{"text":"অপরাধীরা (রয়েছে)","language_name":"bengali","language_id":20},"transliteration":{"text":"l-muj'rimīna","language_name":"english","language_id":38}},{"id":46496,"position":3,"audio_url":"wbw/054_047_003.mp3","char_type_name":"word","page_number":530,"line_number":14,"text":"فِى","translation":{"text":"মধ্যে","language_name":"bengali","language_id":20},"transliteration":{"text":"fī","language_name":"english","language_id":38}},{"id":46497,"position":4,"audio_url":"wbw/054_047_004.mp3","char_type_name":"word","page_number":530,"line_number":14,"text":"ضَلَـٰلٍۢ","translation":{"text":"বিভ্রান্তির","language_name":"bengali","language_id":20},"transliteration":{"text":"ḍalālin","language_name":"english","language_id":38}},{"id":46498,"position":5,"audio_url":"wbw/054_047_005.mp3","char_type_name":"word","page_number":530,"line_number":14,"text":"وَسُعُرٍۢ","translation":{"text":"ও বিকৃতবুদ্ধির মধ্যে","language_name":"bengali","language_id":20},"transliteration":{"text":"wasuʿurin","language_name":"english","language_id":38}},{"id":46499,"position":6,"audio_url":null,"char_type_name":"end","page_number":530,"line_number":14,"text":"٤٧","translation":{"text":"(৪৭)","language_name":"bengali","language_id":20},"transliteration":{"text":null,"language_name":"english","language_id":38}}]},{"id":4894,"verse_number":48,"verse_key":"54:48","hizb_number":53,"rub_el_hizb_number":212,"ruku_number":467,"manzil_number":7,"sajdah_number":null,"page_number":530,"juz_number":27,"words":[{"id":47259,"position":1,"audio_url":"wbw/054_048_001.mp3","char_type_name":"word","page_number":530,"line_number":14,"text":"يَوْمَ","translation":{"text":"যেদিন","language_name":"bengali","language_id":20},"transliteration":{"text":"yawma","language_name":"english","language_id":38}},{"id":47260,"position":2,"audio_url":"wbw/054_048_002.mp3","char_type_name":"word","page_number":530,"line_number":14,"text":"يُسْحَبُونَ","translation":{"text":"(তাদেরকে) টেনে নেওয়া হবে","language_name":"bengali","language_id":20},"transliteration":{"text":"yus'ḥabūna","language_name":"english","language_id":38}},{"id":47261,"position":3,"audio_url":"wbw/054_048_003.mp3","char_type_name":"word","page_number":530,"line_number":14,"text":"فِى","translation":{"text":"মধ্যে","language_name":"bengali","language_id":20},"transliteration":{"text":"fī","language_name":"english","language_id":38}},{"id":47262,"position":4,"audio_url":"wbw/054_048_004.mp3","char_type_name":"word","page_number":530,"line_number":14,"text":"ٱلنَّارِ","translation":{"text":"আগুনের","language_name":"bengali","language_id":20},"transliteration":{"text":"l-nāri","language_name":"english","language_id":38}},{"id":47263,"position":5,"audio_url":"wbw/054_048_005.mp3","char_type_name":"word","page_number":530,"line_number":14,"text":"عَلَىٰ","translation":{"text":"উপর","language_name":"bengali","language_id":20},"transliteration":{"text":"ʿalā","language_name":"english","language_id":38}},{"id":47264,"position":6,"audio_url":"wbw/054_048_006.mp3","char_type_name":"word","page_number":530,"line_number":15,"text":"وُجُوهِهِمْ","translation":{"text":"তাদের মুখের (ভর করে)","language_name":"bengali","language_id":20},"transliteration":{"text":"wujūhihim","language_name":"english","language_id":38}},{"id":47265,"position":7,"audio_url":"wbw/054_048_007.mp3","char_type_name":"word","page_number":530,"line_number":15,"text":"ذُوقُوا۟","translation":{"text":"\"(বলা হবে) স্বাদ নাও","language_name":"bengali","language_id":20},"transliteration":{"text":"dhūqū","language_name":"english","language_id":38}},{"id":47266,"position":8,"audio_url":"wbw/054_048_008.mp3","char_type_name":"word","page_number":530,"line_number":15,"text":"مَسَّ","translation":{"text":"স্পর্শের","language_name":"bengali","language_id":20},"transliteration":{"text":"massa","language_name":"english","language_id":38}},{"id":47267,"position":9,"audio_url":"wbw/054_048_009.mp3","char_type_name":"word","page_number":530,"line_number":15,"text":"سَقَرَ","translation":{"text":"জাহান্নামের\"","language_name":"bengali","language_id":20},"transliteration":{"text":"saqara","language_name":"english","language_id":38}},{"id":47268,"position":10,"audio_url":null,"char_type_name":"end","page_number":530,"line_number":15,"text":"٤٨","translation":{"text":"(৪৮)","language_name":"bengali","language_id":20},"transliteration":{"text":null,"language_name":"english","language_id":38}}]},{"id":4895,"verse_number":49,"verse_key":"54:49","hizb_number":53,"rub_el_hizb_number":212,"ruku_number":467,"manzil_number":7,"sajdah_number":null,"page_number":530,"juz_number":27,"words":[{"id":47874,"position":1,"audio_url":"wbw/054_049_001.mp3","char_type_name":"word","page_number":530,"line_number":15,"text":"إِنَّا","translation":{"text":"নিশ্চয়ই আমরা","language_name":"bengali","language_id":20},"transliteration":{"text":"innā","language_name":"english","language_id":38}},{"id":47875,"position":2,"audio_url":"wbw/054_049_002.mp3","char_type_name":"word","page_number":530,"line_number":15,"text":"كُلَّ","translation":{"text":"প্রত্যেক","language_name":"bengali","language_id":20},"transliteration":{"text":"kulla","language_name":"english","language_id":38}},{"id":47876,"position":3,"audio_url":"wbw/054_049_003.mp3","char_type_name":"word","page_number":530,"line_number":15,"text":"شَىْءٍ","translation":{"text":"জিনিসকে","language_name":"bengali","language_id":20},"transliteration":{"text":"shayin","language_name":"english","language_id":38}},{"id":47877,"position":4,"audio_url":"wbw/054_049_004.mp3","char_type_name":"word","page_number":530,"line_number":15,"text":"خَلَقْنَـٰهُ","translation":{"text":"তা আমরা সৃষ্টি করেছি","language_name":"bengali","language_id":20},"transliteration":{"text":"khalaqnāhu","language_name":"english","language_id":38}},{"id":47878,"position":5,"audio_url":"wbw/054_049_005.mp3","char_type_name":"word","page_number":530,"line_number":15,"text":"بِقَدَرٍۢ","translation":{"text":"নির্ধারিত পরিমাণ দিয়ে","language_name":"bengali","language_id":20},"transliteration":{"text":"biqadarin","language_name":"english","language_id":38}},{"id":47879,"position":6,"audio_url":null,"char_type_name":"end","page_number":530,"line_number":15,"text":"٤٩","translation":{"text":"(৪৯)","language_name":"bengali","language_id":20},"transliteration":{"text":null,"language_name":"english","language_id":38}}]},{"id":4896,"verse_number":50,"verse_key":"54:50","hizb_number":53,"rub_el_hizb_number":212,"ruku_number":467,"manzil_number":7,"sajdah_number":null,"page_number":531,"juz_number":27,"words":[{"id":48625,"position":1,"audio_url":"wbw/054_050_001.mp3","char_type_name":"word","page_number":531,"line_number":1,"text":"وَمَآ","translation":{"text":"এবং না","language_name":"bengali","language_id":20},"transliteration":{"text":"wamā","language_name":"english","language_id":38}},{"id":48626,"position":2,"audio_url":"wbw/054_050_002.mp3","char_type_name":"word","page_number":531,"line_number":1,"text":"أَمْرُنَآ","translation":{"text":"আমাদের নির্দেশ (দেওয়া হয়)","language_name":"bengali","language_id":20},"transliteration":{"text":"amrunā","language_name":"english","language_id":38}},{"id":48627,"position":3,"audio_url":"wbw/054_050_003.mp3","char_type_name":"word","page_number":531,"line_number":1,"text":"إِلَّا","translation":{"text":"এছাড়া যে","language_name":"bengali","language_id":20},"transliteration":{"text":"illā","language_name":"english","language_id":38}},{"id":48628,"position":4,"audio_url":"wbw/054_050_004.mp3","char_type_name":"word","page_number":531,"line_number":1,"text":"وَٰحِدَةٌۭ","translation":{"text":"একবারই","language_name":"bengali","language_id":20},"transliteration":{"text":"wāḥidatun","language_name":"english","language_id":38}},{"id":48629,"position":5,"audio_url":"wbw/054_050_005.mp3","char_type_name":"word","page_number":531,"line_number":1,"text":"كَلَمْحٍۭ","translation":{"text":"পলকের মতো","language_name":"bengali","language_id":20},"transliteration":{"text":"kalamḥin","language_name":"english","language_id":38}},{"id":48630,"position":6,"audio_url":"wbw/054_050_006.mp3","char_type_name":"word","page_number":531,"line_number":1,"text":"بِٱلْبَصَرِ","translation":{"text":"চোখের (তা কার্যকর হয়)","language_name":"bengali","language_id":20},"transliteration":{"text":"bil-baṣari","language_name":"english","language_id":38}},{"id":48631,"position":7,"audio_url":null,"char_type_name":"end","page_number":531,"line_number":1,"text":"٥٠","translation":{"text":"(৫০)","language_name":"bengali","language_id":20},"transliteration":{"text":null,"language_name":"english","language_id":38}}]}],"pagination":{"per_page":10,"current_page":5,"next_page":6,"total_pages":6,"total_records":55}}
