{"verses":[{"id":4897,"verse_number":51,"verse_key":"54:51","hizb_number":53,"rub_el_hizb_number":212,"ruku_number":467,"manzil_number":7,"sajdah_number":null,"page_number":531,"juz_number":27,"words":[{"id":49183,"position":1,"audio_url":"wbw/054_051_001.mp3","char_type_name":"word","page_number":531,"line_number":1,"text":"وَلَقَدْ","translation":{"text":"এবং নিশ্চয়ই","language_name":"bengali","language_id":20},"transliteration":{"text":"walaqad","language_name":"english","language_id":38}},{"id":49184,"position":2,"audio_url":"wbw/054_051_002.mp3","char_type_name":"word","page_number":531,"line_number":1,"text":"أَهْلَكْنَآ","translation":{"text":"আমরা ধ্বংস করেছি","language_name":"bengali","language_id":20},"transliteration":{"text":"ahlaknā","language_name":"english","language_id":38}},{"id":49185,"position":3,"audio_url":"wbw/054_051_003.mp3","char_type_name":"word","page_number":531,"line_number":2,"text":"أَشْيَاعَكُمْ","translation":{"text":"তোমাদের (মত) দলগুলোকে","language_name":"bengali","language_id":20},"transliteration":{"text":"ashyāʿakum","language_name":"english","language_id":38}},{"id":49186,"position":4,"audio_url":"wbw/054_051_004.mp3","char_type_name":"word","page_number":531,"line_number":2,"text":"فَهَلْ","translation":{"text":"কি তবে (আছে)","language_name":"bengali","language_id":20},"transliteration":{"text":"fahal","language_name":"english","language_id":38}},{"id":49187,"position":5,"audio_url":"wbw/054_051_005.mp3","char_type_name":"word","page_number":531,"line_number":2,"text":"مِن","translation":{"text":"কোনো","language_name":"bengali","language_id":20},"transliteration":{"text":"min","language_name":"english","language_id":38}},{"id":49188,"position":6,"audio_url":"wbw/054_051_006.mp3","char_type_name":"word","page_number":531,"line_number":2,"text":"مُّدَّكِرٍۢ","translation":{"text":"উপদেশগ্রহণকারী (এ হতে)","language_name":"bengali","language_id":20},"transliteration":{"text":"muddakirin","language_name":"english","language_id":38}},{"id":49189,"position":7,"audio_url":null,"char_type_name":"end","page_number":531,"line_number":2,"text":"٥١","translation":{"text":"(৫১)","language_name":"bengali","language_id":20},"transliteration":{"text":null,"language_name":"english","language_id":38}}]},{"id":4898,"verse_number":52,"verse_key":"54:52","hizb_number":53,"rub_el_hizb_number":212,"ruku_number":467,"manzil_number":7,"sajdah_number":null,"page_number":531,"juz_number":27,"words":[{"id":49857,"position":1,"audio_url":"wbw/054_052_001.mp3","char_type_name":"word","page_number":531,"line_number":2,"text":"وَكُلُّ","translation":{"text":"এবং প্রত্যেক","language_name":"bengali","language_id":20},"transliteration":{"text":"wakullu","language_name":"english","language_id":38}},{"id":49858,"position":2,"audio_url":"wbw/054_052_002.mp3","char_type_name":"word","page_number":531,"line_number":2,"text":"شَىْءٍۢ","translation":{"text":"জিনিস","language_name":"bengali","language_id":20},"transliteration":{"text":"shayin","language_name":"english","language_id":38}},{"id":49859,"position":3,"audio_url":"wbw/054_052_003.mp3","char_type_name":"word","page_number":531,"line_number":2,"text":"فَعَلُوهُ","translation":{"text":"যা তারা করেছে","language_name":"bengali","language_id":20},"transliteration":{"text":"faʿalūhu","language_name":"english","language_id":38}},{"id":49860,"position":4,"audio_url":"wbw/054_052_004.mp3","char_type_name":"word","page_number":531,"line_number":2,"text":"فِى","translation":{"text":"মধ্যে আছে","language_name":"bengali","language_id":20},"transliteration":{"text":"fī","language_name":"english","language_id":38}},{"id":49861,"position":5,"audio_url":"wbw/054_052_005.mp3","char_type_name":"word","page_number":531,"line_number":2,"text":"ٱلزُّبُرِ","translation":{"text":"খাতাসমূহের (লিপিবদ্ধ)","language_name":"bengali","language_id":20},"transliteration":{"text":"l-zuburi","language_name":"english","language_id":38}},{"id":49862,"position":6,"audio_url":null,"char_type_name":"end","page_number":531,"line_number":3,"text":"٥٢","translation":{"text":"(৫২)","language_name":"bengali","language_id":20},"transliteration":{"text":null,"language_name":"english","language_id":38}}]},{"id":4899,"verse_number":53,"verse_key":"54:53","hizb_number":53,"rub_el_hizb_number":212,"ruku_number":467,"manzil_number":7,"sajdah_number":null,"page_number":531,"juz_number":27,"words":[{"id":50529,"position":1,"audio_url":"wbw/054_053_001.mp3","char_type_name":"word","page_number":531,"line_number":3,"text":"وَكُلُّ","translation":{"text":"এবং প্রত্যেক","language_name":"bengali","language_id":20},"transliteration":{"text":"wakullu","language_name":"english","language_id":38}},{"id":50530,"position":2,"audio_url":"wbw/054_053_002.mp3","char_type_name":"word","page_number":531,"line_number":3,"text":"صَغِيرٍۢ","translation":{"text":"ছোট","language_name":"bengali","language_id":20},"transliteration":{"text":"ṣaghīrin","language_name":"english","language_id":38}},{"id":50531,"position":3,"audio_url":"wbw/054_053_003.mp3","char_type_name":"word","page_number":531,"line_number":3,"text":"وَكَبِيرٍۢ","translation":{"text":"ও বড় (কথা)","language_name":"bengali","language_id":20},"transliteration":{"text":"wakabīrin","language_name":"english","language_id":38}},{"id":50532,"position":4,"audio_url":"wbw/054_053_004.mp3","char_type_name":"word","page_number":531,"line_number":3,"text":"مُّسْتَطَرٌ","translation":{"text":"লিখিত (আছে)","language_name":"bengali","language_id":20},"transliteration":{"text":"mus'taṭarun","language_name":"english","language_id":38}},{"id":50533,"position":5,"audio_url":null,"char_type_name":"end","page_number":531,"line_number":3,"text":"٥٣","translation":{"text":"(৫৩)","language_name":"bengali","language_id":20},"transliteration":{"text":null,"language_name":"english","language_id":38}}]},{"id":4900,"verse_number":54,"verse_key":"54:54","hizb_number":53,"rub_el_hizb_number":212,"ruku_number":467,"manzil_number":7,"sajdah_number":null,"page_number":531,"juz_number":27,"words":[{"id":51283,"position":1,"audio_url":"wbw/054_054_001.mp3","char_type_name":"word","page_number":531,"line_number":3,"text":"إِنَّ","translation":{"text":"নিশ্চয়ই","language_name":"bengali","language_id":20},"transliteration":{"text":"inna","language_name":"english","language_id":38}},{"id":51284,"position":2,"audio_url":"wbw/054_054_002.mp3","char_type_name":"word","page_number":531,"line_number":3,"text":"ٱلْمُتَّقِينَ","translation":{"text":"মুত্তাকীরা (হবে)","language_name":"bengali","language_id":20},"transliteration":{"text":"l-mutaqīna","language_name":"english","language_id":38}},{"id":51285,"position":3,"audio_url":"wbw/054_054_003.mp3","char_type_name":"word","page_number":531,"line_number":4,"text":"فِى","translation":{"text":"মধ্যে","language_name":"bengali","language_id":20},"transliteration":{"text":"fī","language_name":"english","language_id":38}},{"id":51286,"position":4,"audio_url":"wbw/054_054_004.mp3","char_type_name":"word","page_number":531,"line_number":4,"text":"جَنَّـٰتٍۢ","translation":{"text":"জান্নাতসমূহের","language_name":"bengali","language_id":20},"transliteration":{"text":"jannātin","language_name":"english","language_id":38}},{"id":51287,"position":5,"audio_url":"wbw/054_054_005.mp3","char_type_name":"word","page_number":531,"line_number":4,"text":"وَنَهَرٍۢ","translation":{"text":"ও ঝর্ণাসমূহে","language_name":"bengali","language_id":20},"transliteration":{"text":"wanaharin","language_name":"english","language_id":38}},{"id":51288,"position":6,"audio_url":null,"char_type_name":"end","page_number":531,"line_number":4,"text":"٥٤","translation":{"text":"(৫৪)","language_name":"bengali","language_id":20},"transliteration":{"text":null,"language_name":"english","language_id":38}}]},{"id":4901,"verse_number":55,"verse_key":"54:55","hizb_number":53,"rub_el_hizb_number":212,"ruku_number":467,"manzil_number":7,"sajdah_number":null,"page_number":531,"juz_number":27,"words":[{"id":51669,"position":1,"audio_url":"wbw/054_055_001.mp3","char_type_name":"word","page_number":531,"line_number":4,"text":"فِى","translation":{"text":"মধ্যে","language_name":"bengali","language_id":20},"transliteration":{"text":"fī","language_name":"english","language_id":38}},{"id":51670,"position":2,"audio_url":"wbw/054_055_002.mp3","char_type_name":"word","page_number":531,"line_number":4,"text":"مَقْعَدِ","translation":{"text":"আসনের","language_name":"bengali","language_id":20},"transliteration":{"text":"maqʿadi","language_name":"english","language_id":38}},{"id":51671,"position":3,"audio_url":"wbw/054_055_003.mp3","char_type_name":"word","page_number":531,"line_number":4,"text":"صِدْقٍ","translation":{"text":"যোগ্য (মর্যাদায়)","language_name":"bengali","language_id":20},"transliteration":{"text":"ṣid'qin","language_name":"english","language_id":38}},{"id":51672,"position":4,"audio_url":"wbw/054_055_004.mp3","char_type_name":"word","page_number":531,"line_number":4,"text":"عِندَ","translation":{"text":"নিকটে","language_name":"bengali","language_id":20},"transliteration":{"text":"ʿinda","language_name":"english","language_id":38}},{"id":51673,"position":5,"audio_url":"wbw/054_055_005.mp3","char_type_name":"word","page_number":531,"line_number":4,"text":"مَلِيكٍۢ","translation":{"text":"সম্রাটের","language_name":"bengali","language_id":20},"transliteration":{"text":"malīkin","language_name":"english","language_id":38}},{"id":51674,"position":6,"audio_url":"wbw/054_055_006.mp3","char_type_name":"word","page_number":531,"line_number":4,"text":"مُّقْتَدِرٍۭ","translation":{"text":"মহাশক্তিমান","language_name":"bengali","language_id":20},"transliteration":{"text":"muq'tadirin","language_name":"english","language_id":38}},{"id":51675,"position":7,"audio_url":null,"char_type_name":"end","page_number":531,"line_number":4,"text":"٥٥","translation":{"text":"(৫৫)","language_name":"bengali","language_id":20},"transliteration":{"text":null,"language_name":"english","language_id":38}}]}],"pagination":{"per_page":10,"current_page":6,"next_page":null,"total_pages":6,"total_records":55}}
