{"verses":[{"id":5673,"verse_number":1,"verse_key":"78:1","hizb_number":59,"rub_el_hizb_number":233,"ruku_number":520,"manzil_number":7,"sajdah_number":null,"page_number":582,"juz_number":30,"words":[{"id":676,"position":1,"audio_url":"wbw/078_001_001.mp3","char_type_name":"word","page_number":582,"line_number":3,"text":"عَمَّ","translation":{"text":"কি সম্পর্কে","language_name":"bengali","language_id":20},"transliteration":{"text":"ʿamma","language_name":"english","language_id":38}},{"id":677,"position":2,"audio_url":"wbw/078_001_002.mp3","char_type_name":"word","page_number":582,"line_number":3,"text":"يَتَسَآءَلُونَ","translation":{"text":"তারা পরস্পরকে জিজ্ঞাসা করছে","language_name":"bengali","language_id":20},"transliteration":{"text":"yatasāalūna","language_name":"english","language_id":38}},{"id":678,"position":3,"audio_url":null,"char_type_name":"end","page_number":582,"line_number":3,"text":"١","translation":{"text":"(১)","language_name":"bengali","language_id":20},"transliteration":{"text":null,"language_name":"english","language_id":38}}]},{"id":5674,"verse_number":2,"verse_key":"78:2","hizb_number":59,"rub_el_hizb_number":233,"ruku_number":520,"manzil_number":7,"sajdah_number":null,"page_number":582,"juz_number":30,"words":[{"id":1691,"position":1,"audio_url":"wbw/078_002_001.mp3","char_type_name":"word","page_number":582,"line_number":3,"text":"عَنِ","translation":{"text":"সম্পর্কে","language_name":"bengali","language_id":20},"transliteration":{"text":"ʿani","language_name":"english","language_id":38}},{"id":1692,"position":2,"audio_url":"wbw/078_002_002.mp3","char_type_name":"word","page_number":582,"line_number":3,"text":"ٱلنَّبَإِ","translation":{"text":"সংবাদ","language_name":"bengali","language_id":20},"transliteration":{"text":"l-naba-i","language_name":"english","language_id":38}},{"id":1693,"position":3,"audio_url":"wbw/078_002_003.mp3","char_type_name":"word","page_number":582,"line_number":3,"text":"ٱلْعَظِيمِ","translation":{"text":"মহা (অর্থাৎ কিয়ামত)","language_name":"bengali","language_id":20},"transliteration":{"text":"l-ʿaẓīmi","language_name":"english","language_id":38}},{"id":1694,"position":4,"audio_url":null,"char_type_name":"end","page_number":582,"line_number":3,"text":"٢","translation":{"text":"(২)","language_name":"bengali","language_id":20},"transliteration":{"text":null,"language_name":"english","language_id":38}}]},{"id":5675,"verse_number":3,"verse_key":"78:3","hizb_number":59,"rub_el_hizb_number":233,"ruku_number":520,"manzil_number":7,"sajdah_number":null,"page_number":582,"juz_number":30,"words":[{"id":2799,"position":1,"audio_url":"wbw/078_003_001.mp3","char_type_name":"word","page_number":582,"line_number":3,"text":"ٱلَّذِى","translation":{"text":"তা (এমন যে)","language_name":"bengali","language_id":20},"transliteration":{"text":"alladhī","language_name":"english","language_id":38}},{"id":2800,"position":2,"audio_url":"wbw/078_003_002.mp3","char_type_name":"word","page_number":582,"line_number":3,"text":"هُمْ","translation":{"text":"তারা","language_name":"bengali","language_id":20},"transliteration":{"text":"hum","language_name":"english","language_id":38}},{"id":2801,"position":3,"audio_url":"wbw/078_003_003.mp3","char_type_name":"word","page_number":582,"line_number":3,"text":"فِيهِ","translation":{"text":"সে বিষয়ে","language_name":"bengali","language_id":20},"transliteration":{"text":"fīhi","language_name":"english","language_id":38}},{"id":2802,"position":4,"audio_url":"wbw/078_003_004.mp3","char_type_name":"word","page_number":582,"line_number":3,"text":"مُخْتَلِفُونَ","translation":{"text":"(নিজেরাই) মতানৈক্যকারী","language_name":"bengali","language_id":20},"transliteration":{"text":"mukh'talifūna","language_name":"english","language_id":38}},{"id":2803,"position":5,"audio_url":null,"char_type_name":"end","page_number":582,"line_number":3,"text":"٣","translation":{"text":"(৩)","language_name":"bengali","language_id":20},"transliteration":{"text":null,"language_name":"english","language_id":38}}]},{"id":5676,"verse_number":4,"verse_key":"78:4","hizb_number":59,"rub_el_hizb_number":233,"ruku_number":520,"manzil_number":7,"sajdah_number":null,"page_number":582,"juz_number":30,"words":[{"id":4175,"position":1,"audio_url":"wbw/078_004_001.mp3","char_type_name":"word","page_number":582,"line_number":4,"text":"كَلَّا","translation":{"text":"কখনও না","language_name":"bengali","language_id":20},"transliteration":{"text":"kallā","language_name":"english","language_id":38}},{"id":4176,"position":2,"audio_url":"wbw/078_004_002.mp3","char_type_name":"word","page_number":582,"line_number":4,"text":"سَيَعْلَمُونَ","translation":{"text":"তারা শীঘ্র জানবে","language_name":"bengali","language_id":20},"transliteration":{"text":"sayaʿlamūna","language_name":"english","language_id":38}},{"id":4177,"position":3,"audio_url":null,"char_type_name":"end","page_number":582,"line_number":4,"text":"٤","translation":{"text":"(৪)","language_name":"bengali","language_id":20},"transliteration":{"text":null,"language_name":"english","language_id":38}}]},{"id":5677,"verse_number":5,"verse_key":"78:5","hizb_number":59,"rub_el_hizb_number":233,"ruku_number":520,"manzil_number":7,"sajdah_number":null,"page_number":582,"juz_number":30,"words":[{"id":5448,"position":1,"audio_url":"wbw/078_005_001.mp3","char_type_name":"word","page_number":582,"line_number":4,"text":"ثُمَّ","translation":{"text":"আবার (বলি)","language_name":"bengali","language_id":20},"transliteration":{"text":"thumma","language_name":"english","language_id":38}},{"id":5449,"position":2,"audio_url":"wbw/078_005_002.mp3","char_type_name":"word","page_number":582,"line_number":4,"text":"كَلَّا","translation":{"text":"কখনও না","language_name":"bengali","language_id":20},"transliteration":{"text":"kallā","language_name":"english","language_id":38}},{"id":5450,"position":3,"audio_url":"wbw/078_005_003.mp3","char_type_name":"word","page_number":582,"line_number":4,"text":"سَيَعْلَمُونَ","translation":{"text":"তারা শীঘ্র জানবে","language_name":"bengali","language_id":20},"transliteration":{"text":"sayaʿlamūna","language_name":"english","language_id":38}},{"id":5451,"position":4,"audio_url":null,"char_type_name":"end","page_number":582,"line_number":4,"text":"٥","translation":{"text":"(৫)","language_name":"bengali","language_id":20},"transliteration":{"text":null,"language_name":"english","language_id":38}}]},{"id":5678,"verse_number":6,"verse_key":"78:6","hizb_number":59,"rub_el_hizb_number":233,"ruku_number":520,"manzil_number":7,"sajdah_number":null,"page_number":582,"juz_number":30,"words":[{"id":6671,"position":1,"audio_url":"wbw/078_006_001.mp3","char_type_name":"word","page_number":582,"line_number":4,"text":"أَلَمْ","translation":{"text":"নি কি","language_name":"bengali","language_id":20},"transliteration":{"text":"alam","language_name":"english","language_id":38}},{"id":6672,"position":2,"audio_url":"wbw/078_006_002.mp3","char_type_name":"word","page_number":582,"line_number":4,"text":"نَجْعَلِ","translation":{"text":"আমরা বানাই","language_name":"bengali","language_id":20},"transliteration":{"text":"najʿali","language_name":"english","language_id":38}},{"id":6673,"position":3,"audio_url":"wbw/078_006_003.mp3","char_type_name":"word","page_number":582,"line_number":4,"text":"ٱلْأَرْضَ","translation":{"text":"ভূমিকে","language_name":"bengali","language_id":20},"transliteration":{"text":"l-arḍa","language_name":"english","language_id":38}},{"id":6674,"position":4,"audio_url":"wbw/078_006_004.mp3","char_type_name":"word","page_number":582,"line_number":4,"text":"مِهَـٰدًۭا","translation":{"text":"বিছানা স্বরূপ","language_name":"bengali","language_id":20},"transliteration":{"text":"mihādan","language_name":"english","language_id":38}},{"id":6675,"position":5,"audio_url":null,"char_type_name":"end","page_number":582,"line_number":4,"text":"٦","translation":{"text":"(৬)","language_name":"bengali","language_id":20},"transliteration":{"text":null,"language_name":"english","language_id":38}}]},{"id":5679,"verse_number":7,"verse_key":"78:7","hizb_number":59,"rub_el_hizb_number":233,"ruku_number":520,"manzil_number":7,"sajdah_number":null,"page_number":582,"juz_number":30,"words":[{"id":8023,"position":1,"audio_url":"wbw/078_007_001.mp3","char_type_name":"word","page_number":582,"line_number":5,"text":"وَٱلْجِبَالَ","translation":{"text":"এবং পাহাড়-পর্বতকে","language_name":"bengali","language_id":20},"transliteration":{"text":"wal-jibāla","language_name":"english","language_id":38}},{"id":8024,"position":2,"audio_url":"wbw/078_007_002.mp3","char_type_name":"word","page_number":582,"line_number":5,"text":"أَوْتَادًۭا","translation":{"text":"কীলক স্বরূপ","language_name":"bengali","language_id":20},"transliteration":{"text":"awtādan","language_name":"english","language_id":38}},{"id":8025,"position":3,"audio_url":null,"char_type_name":"end","page_number":582,"line_number":5,"text":"٧","translation":{"text":"(৭)","language_name":"bengali","language_id":20},"transliteration":{"text":null,"language_name":"english","language_id":38}}]},{"id":5680,"verse_number":8,"verse_key":"78:8","hizb_number":59,"rub_el_hizb_number":233,"ruku_number":520,"manzil_number":7,"sajdah_number":null,"page_number":582,"juz_number":30,"words":[{"id":9186,"position":1,"audio_url":"wbw/078_008_001.mp3","char_type_name":"word","page_number":582,"line_number":5,"text":"وَخَلَقْنَـٰكُمْ","translation":{"text":"এবং তোমাদেরকে  আমরা সৃষ্টি করেছি","language_name":"bengali","language_id":20},"transliteration":{"text":"wakhalaqnākum","language_name":"english","language_id":38}},{"id":9187,"position":2,"audio_url":"wbw/078_008_002.mp3","char_type_name":"word","page_number":582,"line_number":5,"text":"أَزْوَٰجًۭا","translation":{"text":"জোড়ায় জোড়ায়","language_name":"bengali","language_id":20},"transliteration":{"text":"azwājan","language_name":"english","language_id":38}},{"id":9188,"position":3,"audio_url":null,"char_type_name":"end","page_number":582,"line_number":5,"text":"٨","translation":{"text":"(৮)","language_name":"bengali","language_id":20},"transliteration":{"text":null,"language_name":"english","language_id":38}}]},{"id":5681,"verse_number":9,"verse_key":"78:9","hizb_number":59,"rub_el_hizb_number":233,"ruku_number":520,"manzil_number":7,"sajdah_number":null,"page_number":582,"juz_number":30,"words":[{"id":10397,"position":1,"audio_url":"wbw/078_009_001.mp3","char_type_name":"word","page_number":582,"line_number":5,"text":"وَجَعَلْنَا","translation":{"text":"এবং আমরা বানিয়েছি","language_name":"bengali","language_id":20},"transliteration":{"text":"wajaʿalnā","language_name":"english","language_id":38}},{"id":10398,"position":2,"audio_url":"wbw/078_009_002.mp3","char_type_name":"word","page_number":582,"line_number":5,"text":"نَوْمَكُمْ","translation":{"text":"তোমাদের ঘুমকে","language_name":"bengali","language_id":20},"transliteration":{"text":"nawmakum","language_name":"english","language_id":38}},{"id":10399,"position":3,"audio_url":"wbw/078_009_003.mp3","char_type_name":"word","page_number":582,"line_number":5,"text":"سُبَاتًۭا","translation":{"text":"বিশ্রাম (শান্তির বাহন)","language_name":"bengali","language_id":20},"transliteration":{"text":"subātan","language_name":"english","language_id":38}},{"id":10400,"position":4,"audio_url":null,"char_type_name":"end","page_number":582,"line_number":6,"text":"٩","translation":{"text":"(৯)","language_name":"bengali","language_id":20},"transliteration":{"text":null,"language_name":"english","language_id":38}}]},{"id":5682,"verse_number":10,"verse_key":"78:10","hizb_number":59,"rub_el_hizb_number":233,"ruku_number":520,"manzil_number":7,"sajdah_number":null,"page_number":582,"juz_number":30,"words":[{"id":11624,"position":1,"audio_url":"wbw/078_010_001.mp3","char_type_name":"word","page_number":582,"line_number":6,"text":"وَجَعَلْنَا","translation":{"text":"এবং আমরা বানিয়েছি","language_name":"bengali","language_id":20},"transliteration":{"text":"wajaʿalnā","language_name":"english","language_id":38}},{"id":11625,"position":2,"audio_url":"wbw/078_010_002.mp3","char_type_name":"word","page_number":582,"line_number":6,"text":"ٱلَّيْلَ","translation":{"text":"রাতকে","language_name":"bengali","language_id":20},"transliteration":{"text":"al-layla","language_name":"english","language_id":38}},{"id":11626,"position":3,"audio_url":"wbw/078_010_003.mp3","char_type_name":"word","page_number":582,"line_number":6,"text":"لِبَاسًۭا","translation":{"text":"আবরণ স্বরূপ","language_name":"bengali","language_id":20},"transliteration":{"text":"libāsan","language_name":"english","language_id":38}},{"id":11627,"position":4,"audio_url":null,"char_type_name":"end","page_number":582,"line_number":6,"text":"١٠","translation":{"text":"(১০)","language_name":"bengali","language_id":20},"transliteration":{"text":null,"language_name":"english","language_id":38}}]}],"pagination":{"per_page":10,"current_page":1,"next_page":2,"total_pages":4,"total_records":40}}
