{"verses":[{"id":5683,"verse_number":11,"verse_key":"78:11","hizb_number":59,"rub_el_hizb_number":233,"ruku_number":520,"manzil_number":7,"sajdah_number":null,"page_number":582,"juz_number":30,"words":[{"id":12975,"position":1,"audio_url":"wbw/078_011_001.mp3","char_type_name":"word","page_number":582,"line_number":6,"text":"وَجَعَلْنَا","translation":{"text":"এবং আমরা বানিয়েছি","language_name":"bengali","language_id":20},"transliteration":{"text":"wajaʿalnā","language_name":"english","language_id":38}},{"id":12976,"position":2,"audio_url":"wbw/078_011_002.mp3","char_type_name":"word","page_number":582,"line_number":6,"text":"ٱلنَّهَارَ","translation":{"text":"দিনকে","language_name":"bengali","language_id":20},"transliteration":{"text":"l-nahāra","language_name":"english","language_id":38}},{"id":12977,"position":3,"audio_url":"wbw/078_011_003.mp3","char_type_name":"word","page_number":582,"line_number":6,"text":"مَعَاشًۭا","translation":{"text":"জীবিকা অর্জনের সময়","language_name":"bengali","language_id":20},"transliteration":{"text":"maʿāshan","language_name":"english","language_id":38}},{"id":12978,"position":4,"audio_url":null,"char_type_name":"end","page_number":582,"line_number":6,"text":"١١","translation":{"text":"(১১)","language_name":"bengali","language_id":20},"transliteration":{"text":null,"language_name":"english","language_id":38}}]},{"id":5684,"verse_number":12,"verse_key":"78:12","hizb_number":59,"rub_el_hizb_number":233,"ruku_number":520,"manzil_number":7,"sajdah_number":null,"page_number":582,"juz_number":30,"words":[{"id":14242,"position":1,"audio_url":"wbw/078_012_001.mp3","char_type_name":"word","page_number":582,"line_number":6,"text":"وَبَنَيْنَا","translation":{"text":"এবং আমরা নির্মাণ করেছি","language_name":"bengali","language_id":20},"transliteration":{"text":"wabanaynā","language_name":"english","language_id":38}},{"id":14243,"position":2,"audio_url":"wbw/078_012_002.mp3","char_type_name":"word","page_number":582,"line_number":7,"text":"فَوْقَكُمْ","translation":{"text":"তোমাদের উপর","language_name":"bengali","language_id":20},"transliteration":{"text":"fawqakum","language_name":"english","language_id":38}},{"id":14244,"position":3,"audio_url":"wbw/078_012_003.mp3","char_type_name":"word","page_number":582,"line_number":7,"text":"سَبْعًۭا","translation":{"text":"সাত","language_name":"bengali","language_id":20},"transliteration":{"text":"sabʿan","language_name":"english","language_id":38}},{"id":14245,"position":4,"audio_url":"wbw/078_012_004.mp3","char_type_name":"word","page_number":582,"line_number":7,"text":"شِدَادًۭا","translation":{"text":"সুদৃঢ় (আকাশ)","language_name":"bengali","language_id":20},"transliteration":{"text":"shidādan","language_name":"english","language_id":38}},{"id":14246,"position":5,"audio_url":null,"char_type_name":"end","page_number":582,"line_number":7,"text":"١٢","translation":{"text":"(১২)","language_name":"bengali","language_id":20},"transliteration":{"text":null,"language_name":"english","language_id":38}}]},{"id":5685,"verse_number":13,"verse_key":"78:13","hizb_number":59,"rub_el_hizb_number":233,"ruku_number":520,"manzil_number":7,"sajdah_number":null,"page_number":582,"juz_number":30,"words":[{"id":14934,"position":1,"audio_url":"wbw/078_013_001.mp3","char_type_name":"word","page_number":582,"line_number":7,"text":"وَجَعَلْنَا","translation":{"text":"এবং আমরা বানিয়েছি","language_name":"bengali","language_id":20},"transliteration":{"text":"wajaʿalnā","language_name":"english","language_id":38}},{"id":14935,"position":2,"audio_url":"wbw/078_013_002.mp3","char_type_name":"word","page_number":582,"line_number":7,"text":"سِرَاجًۭا","translation":{"text":"প্রদীপ (সূর্য)","language_name":"bengali","language_id":20},"transliteration":{"text":"sirājan","language_name":"english","language_id":38}},{"id":14936,"position":3,"audio_url":"wbw/078_013_003.mp3","char_type_name":"word","page_number":582,"line_number":7,"text":"وَهَّاجًۭا","translation":{"text":"উজ্জ্বল","language_name":"bengali","language_id":20},"transliteration":{"text":"wahhājan","language_name":"english","language_id":38}},{"id":14937,"position":4,"audio_url":null,"char_type_name":"end","page_number":582,"line_number":7,"text":"١٣","translation":{"text":"(১৩)","language_name":"bengali","language_id":20},"transliteration":{"text":null,"language_name":"english","language_id":38}}]},{"id":5686,"verse_number":14,"verse_key":"78:14","hizb_number":59,"rub_el_hizb_number":233,"ruku_number":520,"manzil_number":7,"sajdah_number":null,"page_number":582,"juz_number":30,"words":[{"id":16417,"position":1,"audio_url":"wbw/078_014_001.mp3","char_type_name":"word","page_number":582,"line_number":7,"text":"وَأَنزَلْنَا","translation":{"text":"আমরা বর্ষণ করেছি","language_name":"bengali","language_id":20},"transliteration":{"text":"wa-anzalnā","language_name":"english","language_id":38}},{"id":16418,"position":2,"audio_url":"wbw/078_014_002.mp3","char_type_name":"word","page_number":582,"line_number":7,"text":"مِنَ","translation":{"text":"হতে","language_name":"bengali","language_id":20},"transliteration":{"text":"mina","language_name":"english","language_id":38}},{"id":16419,"position":3,"audio_url":"wbw/078_014_003.mp3","char_type_name":"word","page_number":582,"line_number":8,"text":"ٱلْمُعْصِرَٰتِ","translation":{"text":"মেঘমালা","language_name":"bengali","language_id":20},"transliteration":{"text":"l-muʿ'ṣirāti","language_name":"english","language_id":38}},{"id":16420,"position":4,"audio_url":"wbw/078_014_004.mp3","char_type_name":"word","page_number":582,"line_number":8,"text":"مَآءًۭ","translation":{"text":"পানি","language_name":"bengali","language_id":20},"transliteration":{"text":"māan","language_name":"english","language_id":38}},{"id":16421,"position":5,"audio_url":"wbw/078_014_005.mp3","char_type_name":"word","page_number":582,"line_number":8,"text":"ثَجَّاجًۭا","translation":{"text":"মুষলধারে","language_name":"bengali","language_id":20},"transliteration":{"text":"thajjājan","language_name":"english","language_id":38}},{"id":16422,"position":6,"audio_url":null,"char_type_name":"end","page_number":582,"line_number":8,"text":"١٤","translation":{"text":"(১৪)","language_name":"bengali","language_id":20},"transliteration":{"text":null,"language_name":"english","language_id":38}}]},{"id":5687,"verse_number":15,"verse_key":"78:15","hizb_number":59,"rub_el_hizb_number":233,"ruku_number":520,"manzil_number":7,"sajdah_number":null,"page_number":582,"juz_number":30,"words":[{"id":17571,"position":1,"audio_url":"wbw/078_015_001.mp3","char_type_name":"word","page_number":582,"line_number":8,"text":"لِّنُخْرِجَ","translation":{"text":"এজন্য যে আমরা বের করব","language_name":"bengali","language_id":20},"transliteration":{"text":"linukh'rija","language_name":"english","language_id":38}},{"id":17572,"position":2,"audio_url":"wbw/078_015_002.mp3","char_type_name":"word","page_number":582,"line_number":8,"text":"بِهِۦ","translation":{"text":"তা দিয়ে","language_name":"bengali","language_id":20},"transliteration":{"text":"bihi","language_name":"english","language_id":38}},{"id":17573,"position":3,"audio_url":"wbw/078_015_003.mp3","char_type_name":"word","page_number":582,"line_number":8,"text":"حَبًّۭا","translation":{"text":"শস্য","language_name":"bengali","language_id":20},"transliteration":{"text":"ḥabban","language_name":"english","language_id":38}},{"id":17574,"position":4,"audio_url":"wbw/078_015_004.mp3","char_type_name":"word","page_number":582,"line_number":8,"text":"وَنَبَاتًۭا","translation":{"text":"ও উদ্ভিদ","language_name":"bengali","language_id":20},"transliteration":{"text":"wanabātan","language_name":"english","language_id":38}},{"id":17575,"position":5,"audio_url":null,"char_type_name":"end","page_number":582,"line_number":8,"text":"١٥","translation":{"text":"(১৫)","language_name":"bengali","language_id":20},"transliteration":{"text":null,"language_name":"english","language_id":38}}]},{"id":5688,"verse_number":16,"verse_key":"78:16","hizb_number":59,"rub_el_hizb_number":233,"ruku_number":520,"manzil_number":7,"sajdah_number":null,"page_number":582,"juz_number":30,"words":[{"id":18606,"position":1,"audio_url":"wbw/078_016_001.mp3","char_type_name":"word","page_number":582,"line_number":8,"text":"وَجَنَّـٰتٍ","translation":{"text":"এবং বাগিচাসমূহ","language_name":"bengali","language_id":20},"transliteration":{"text":"wajannātin","language_name":"english","language_id":38}},{"id":18607,"position":2,"audio_url":"wbw/078_016_002.mp3","char_type_name":"word","page_number":582,"line_number":9,"text":"أَلْفَافًا","translation":{"text":"ঘনসন্নিবিষ্ট","language_name":"bengali","language_id":20},"transliteration":{"text":"alfāfan","language_name":"english","language_id":38}},{"id":18608,"position":3,"audio_url":null,"char_type_name":"end","page_number":582,"line_number":9,"text":"١٦","translation":{"text":"(১৬)","language_name":"bengali","language_id":20},"transliteration":{"text":null,"language_name":"english","language_id":38}}]},{"id":5689,"verse_number":17,"verse_key":"78:17","hizb_number":59,"rub_el_hizb_number":233,"ruku_number":520,"manzil_number":7,"sajdah_number":null,"page_number":582,"juz_number":30,"words":[{"id":19597,"position":1,"audio_url":"wbw/078_017_001.mp3","char_type_name":"word","page_number":582,"line_number":9,"text":"إِنَّ","translation":{"text":"নিশ্চয়ই","language_name":"bengali","language_id":20},"transliteration":{"text":"inna","language_name":"english","language_id":38}},{"id":19598,"position":2,"audio_url":"wbw/078_017_002.mp3","char_type_name":"word","page_number":582,"line_number":9,"text":"يَوْمَ","translation":{"text":"দিন","language_name":"bengali","language_id":20},"transliteration":{"text":"yawma","language_name":"english","language_id":38}},{"id":19599,"position":3,"audio_url":"wbw/078_017_003.mp3","char_type_name":"word","page_number":582,"line_number":9,"text":"ٱلْفَصْلِ","translation":{"text":"বিচারের","language_name":"bengali","language_id":20},"transliteration":{"text":"l-faṣli","language_name":"english","language_id":38}},{"id":19600,"position":4,"audio_url":"wbw/078_017_004.mp3","char_type_name":"word","page_number":582,"line_number":9,"text":"كَانَ","translation":{"text":"আছে","language_name":"bengali","language_id":20},"transliteration":{"text":"kāna","language_name":"english","language_id":38}},{"id":19601,"position":5,"audio_url":"wbw/078_017_005.mp3","char_type_name":"word","page_number":582,"line_number":9,"text":"مِيقَـٰتًۭا","translation":{"text":"নির্দিষ্ট","language_name":"bengali","language_id":20},"transliteration":{"text":"mīqātan","language_name":"english","language_id":38}},{"id":19602,"position":6,"audio_url":null,"char_type_name":"end","page_number":582,"line_number":9,"text":"١٧","translation":{"text":"(১৭)","language_name":"bengali","language_id":20},"transliteration":{"text":null,"language_name":"english","language_id":38}}]},{"id":5690,"verse_number":18,"verse_key":"78:18","hizb_number":59,"rub_el_hizb_number":233,"ruku_number":520,"manzil_number":7,"sajdah_number":null,"page_number":582,"juz_number":30,"words":[{"id":20738,"position":1,"audio_url":"wbw/078_018_001.mp3","char_type_name":"word","page_number":582,"line_number":9,"text":"يَوْمَ","translation":{"text":"সেদিন","language_name":"bengali","language_id":20},"transliteration":{"text":"yawma","language_name":"english","language_id":38}},{"id":20739,"position":2,"audio_url":"wbw/078_018_002.mp3","char_type_name":"word","page_number":582,"line_number":9,"text":"يُنفَخُ","translation":{"text":"ফুঁ দেওয়া হবে","language_name":"bengali","language_id":20},"transliteration":{"text":"yunfakhu","language_name":"english","language_id":38}},{"id":20740,"position":3,"audio_url":"wbw/078_018_003.mp3","char_type_name":"word","page_number":582,"line_number":9,"text":"فِى","translation":{"text":"মধ্যে","language_name":"bengali","language_id":20},"transliteration":{"text":"fī","language_name":"english","language_id":38}},{"id":20741,"position":4,"audio_url":"wbw/078_018_004.mp3","char_type_name":"word","page_number":582,"line_number":9,"text":"ٱلصُّورِ","translation":{"text":"শিঙ্গার","language_name":"bengali","language_id":20},"transliteration":{"text":"l-ṣūri","language_name":"english","language_id":38}},{"id":20742,"position":5,"audio_url":"wbw/078_018_005.mp3","char_type_name":"word","page_number":582,"line_number":10,"text":"فَتَأْتُونَ","translation":{"text":"অতঃপর তোমরা আসবে","language_name":"bengali","language_id":20},"transliteration":{"text":"fatatūna","language_name":"english","language_id":38}},{"id":20743,"position":6,"audio_url":"wbw/078_018_006.mp3","char_type_name":"word","page_number":582,"line_number":10,"text":"أَفْوَاجًۭا","translation":{"text":"দলে দলে","language_name":"bengali","language_id":20},"transliteration":{"text":"afwājan","language_name":"english","language_id":38}},{"id":20744,"position":7,"audio_url":null,"char_type_name":"end","page_number":582,"line_number":10,"text":"١٨","translation":{"text":"(১৮)","language_name":"bengali","language_id":20},"transliteration":{"text":null,"language_name":"english","language_id":38}}]},{"id":5691,"verse_number":19,"verse_key":"78:19","hizb_number":59,"rub_el_hizb_number":233,"ruku_number":520,"manzil_number":7,"sajdah_number":null,"page_number":582,"juz_number":30,"words":[{"id":21767,"position":1,"audio_url":"wbw/078_019_001.mp3","char_type_name":"word","page_number":582,"line_number":10,"text":"وَفُتِحَتِ","translation":{"text":"এবং সেদিন উন্মুক্ত করা হবে","language_name":"bengali","language_id":20},"transliteration":{"text":"wafutiḥati","language_name":"english","language_id":38}},{"id":21768,"position":2,"audio_url":"wbw/078_019_002.mp3","char_type_name":"word","page_number":582,"line_number":10,"text":"ٱلسَّمَآءُ","translation":{"text":"আকাশ","language_name":"bengali","language_id":20},"transliteration":{"text":"l-samāu","language_name":"english","language_id":38}},{"id":21769,"position":3,"audio_url":"wbw/078_019_003.mp3","char_type_name":"word","page_number":582,"line_number":10,"text":"فَكَانَتْ","translation":{"text":"অতঃপর তা হবে","language_name":"bengali","language_id":20},"transliteration":{"text":"fakānat","language_name":"english","language_id":38}},{"id":21770,"position":4,"audio_url":"wbw/078_019_004.mp3","char_type_name":"word","page_number":582,"line_number":10,"text":"أَبْوَٰبًۭا","translation":{"text":"অনেক দরজা","language_name":"bengali","language_id":20},"transliteration":{"text":"abwāban","language_name":"english","language_id":38}},{"id":21771,"position":5,"audio_url":null,"char_type_name":"end","page_number":582,"line_number":10,"text":"١٩","translation":{"text":"(১৯)","language_name":"bengali","language_id":20},"transliteration":{"text":null,"language_name":"english","language_id":38}}]},{"id":5692,"verse_number":20,"verse_key":"78:20","hizb_number":59,"rub_el_hizb_number":233,"ruku_number":520,"manzil_number":7,"sajdah_number":null,"page_number":582,"juz_number":30,"words":[{"id":22905,"position":1,"audio_url":"wbw/078_020_001.mp3","char_type_name":"word","page_number":582,"line_number":10,"text":"وَسُيِّرَتِ","translation":{"text":"এবং চালিয়ে দেয়া হবে","language_name":"bengali","language_id":20},"transliteration":{"text":"wasuyyirati","language_name":"english","language_id":38}},{"id":22906,"position":2,"audio_url":"wbw/078_020_002.mp3","char_type_name":"word","page_number":582,"line_number":11,"text":"ٱلْجِبَالُ","translation":{"text":"পাহাড়গুলো","language_name":"bengali","language_id":20},"transliteration":{"text":"l-jibālu","language_name":"english","language_id":38}},{"id":22907,"position":3,"audio_url":"wbw/078_020_003.mp3","char_type_name":"word","page_number":582,"line_number":11,"text":"فَكَانَتْ","translation":{"text":"অতঃপর তা হবে","language_name":"bengali","language_id":20},"transliteration":{"text":"fakānat","language_name":"english","language_id":38}},{"id":22908,"position":4,"audio_url":"wbw/078_020_004.mp3","char_type_name":"word","page_number":582,"line_number":11,"text":"سَرَابًا","translation":{"text":"মরীচিকা","language_name":"bengali","language_id":20},"transliteration":{"text":"sarāban","language_name":"english","language_id":38}},{"id":22909,"position":5,"audio_url":null,"char_type_name":"end","page_number":582,"line_number":11,"text":"٢٠","translation":{"text":"(২০)","language_name":"bengali","language_id":20},"transliteration":{"text":null,"language_name":"english","language_id":38}}]}],"pagination":{"per_page":10,"current_page":2,"next_page":3,"total_pages":4,"total_records":40}}
