{"verses":[{"id":5693,"verse_number":21,"verse_key":"78:21","hizb_number":59,"rub_el_hizb_number":233,"ruku_number":520,"manzil_number":7,"sajdah_number":null,"page_number":582,"juz_number":30,"words":[{"id":23638,"position":1,"audio_url":"wbw/078_021_001.mp3","char_type_name":"word","page_number":582,"line_number":11,"text":"إِنَّ","translation":{"text":"নিশ্চয়ই","language_name":"bengali","language_id":20},"transliteration":{"text":"inna","language_name":"english","language_id":38}},{"id":23639,"position":2,"audio_url":"wbw/078_021_002.mp3","char_type_name":"word","page_number":582,"line_number":11,"text":"جَهَنَّمَ","translation":{"text":"জাহান্নাম","language_name":"bengali","language_id":20},"transliteration":{"text":"jahannama","language_name":"english","language_id":38}},{"id":23640,"position":3,"audio_url":"wbw/078_021_003.mp3","char_type_name":"word","page_number":582,"line_number":11,"text":"كَانَتْ","translation":{"text":"হলো","language_name":"bengali","language_id":20},"transliteration":{"text":"kānat","language_name":"english","language_id":38}},{"id":23641,"position":4,"audio_url":"wbw/078_021_004.mp3","char_type_name":"word","page_number":582,"line_number":11,"text":"مِرْصَادًۭا","translation":{"text":"ঘাঁটি","language_name":"bengali","language_id":20},"transliteration":{"text":"mir'ṣādan","language_name":"english","language_id":38}},{"id":23642,"position":5,"audio_url":null,"char_type_name":"end","page_number":582,"line_number":11,"text":"٢١","translation":{"text":"(২১)","language_name":"bengali","language_id":20},"transliteration":{"text":null,"language_name":"english","language_id":38}}]},{"id":5694,"verse_number":22,"verse_key":"78:22","hizb_number":59,"rub_el_hizb_number":233,"ruku_number":520,"manzil_number":7,"sajdah_number":null,"page_number":582,"juz_number":30,"words":[{"id":24973,"position":1,"audio_url":"wbw/078_022_001.mp3","char_type_name":"word","page_number":582,"line_number":11,"text":"لِّلطَّـٰغِينَ","translation":{"text":"সীমালঙ্ঘনকারীদের জন্য","language_name":"bengali","language_id":20},"transliteration":{"text":"lilṭṭāghīna","language_name":"english","language_id":38}},{"id":24974,"position":2,"audio_url":"wbw/078_022_002.mp3","char_type_name":"word","page_number":582,"line_number":12,"text":"مَـَٔابًۭا","translation":{"text":"প্রত্যাবর্তনস্থল","language_name":"bengali","language_id":20},"transliteration":{"text":"maāban","language_name":"english","language_id":38}},{"id":24975,"position":3,"audio_url":null,"char_type_name":"end","page_number":582,"line_number":12,"text":"٢٢","translation":{"text":"(২২)","language_name":"bengali","language_id":20},"transliteration":{"text":null,"language_name":"english","language_id":38}}]},{"id":5695,"verse_number":23,"verse_key":"78:23","hizb_number":59,"rub_el_hizb_number":233,"ruku_number":520,"manzil_number":7,"sajdah_number":null,"page_number":582,"juz_number":30,"words":[{"id":25605,"position":1,"audio_url":"wbw/078_023_001.mp3","char_type_name":"word","page_number":582,"line_number":12,"text":"لَّـٰبِثِينَ","translation":{"text":"তারা অবস্থানকারী হবে","language_name":"bengali","language_id":20},"transliteration":{"text":"lābithīna","language_name":"english","language_id":38}},{"id":25606,"position":2,"audio_url":"wbw/078_023_002.mp3","char_type_name":"word","page_number":582,"line_number":12,"text":"فِيهَآ","translation":{"text":"তার মধ্যে","language_name":"bengali","language_id":20},"transliteration":{"text":"fīhā","language_name":"english","language_id":38}},{"id":25607,"position":3,"audio_url":"wbw/078_023_003.mp3","char_type_name":"word","page_number":582,"line_number":12,"text":"أَحْقَابًۭا","translation":{"text":"যুগ যুগ ধরে","language_name":"bengali","language_id":20},"transliteration":{"text":"aḥqāban","language_name":"english","language_id":38}},{"id":25608,"position":4,"audio_url":null,"char_type_name":"end","page_number":582,"line_number":12,"text":"٢٣","translation":{"text":"(২৩)","language_name":"bengali","language_id":20},"transliteration":{"text":null,"language_name":"english","language_id":38}}]},{"id":5696,"verse_number":24,"verse_key":"78:24","hizb_number":59,"rub_el_hizb_number":233,"ruku_number":520,"manzil_number":7,"sajdah_number":null,"page_number":582,"juz_number":30,"words":[{"id":27095,"position":1,"audio_url":"wbw/078_024_001.mp3","char_type_name":"word","page_number":582,"line_number":12,"text":"لَّا","translation":{"text":"না","language_name":"bengali","language_id":20},"transliteration":{"text":"lā","language_name":"english","language_id":38}},{"id":27096,"position":2,"audio_url":"wbw/078_024_002.mp3","char_type_name":"word","page_number":582,"line_number":12,"text":"يَذُوقُونَ","translation":{"text":"তারা স্বাদ গ্রহণ করবে","language_name":"bengali","language_id":20},"transliteration":{"text":"yadhūqūna","language_name":"english","language_id":38}},{"id":27097,"position":3,"audio_url":"wbw/078_024_003.mp3","char_type_name":"word","page_number":582,"line_number":12,"text":"فِيهَا","translation":{"text":"তার মধ্যে","language_name":"bengali","language_id":20},"transliteration":{"text":"fīhā","language_name":"english","language_id":38}},{"id":27098,"position":4,"audio_url":"wbw/078_024_004.mp3","char_type_name":"word","page_number":582,"line_number":12,"text":"بَرْدًۭا","translation":{"text":"ঠাণ্ডা","language_name":"bengali","language_id":20},"transliteration":{"text":"bardan","language_name":"english","language_id":38}},{"id":27099,"position":5,"audio_url":"wbw/078_024_005.mp3","char_type_name":"word","page_number":582,"line_number":12,"text":"وَلَا","translation":{"text":"আর না","language_name":"bengali","language_id":20},"transliteration":{"text":"walā","language_name":"english","language_id":38}},{"id":27100,"position":6,"audio_url":"wbw/078_024_006.mp3","char_type_name":"word","page_number":582,"line_number":12,"text":"شَرَابًا","translation":{"text":"পানীয়","language_name":"bengali","language_id":20},"transliteration":{"text":"sharāban","language_name":"english","language_id":38}},{"id":27101,"position":7,"audio_url":null,"char_type_name":"end","page_number":582,"line_number":13,"text":"٢٤","translation":{"text":"(২৪)","language_name":"bengali","language_id":20},"transliteration":{"text":null,"language_name":"english","language_id":38}}]},{"id":5697,"verse_number":25,"verse_key":"78:25","hizb_number":59,"rub_el_hizb_number":233,"ruku_number":520,"manzil_number":7,"sajdah_number":null,"page_number":582,"juz_number":30,"words":[{"id":27701,"position":1,"audio_url":"wbw/078_025_001.mp3","char_type_name":"word","page_number":582,"line_number":13,"text":"إِلَّا","translation":{"text":"এ ব্যতীত","language_name":"bengali","language_id":20},"transliteration":{"text":"illā","language_name":"english","language_id":38}},{"id":27702,"position":2,"audio_url":"wbw/078_025_002.mp3","char_type_name":"word","page_number":582,"line_number":13,"text":"حَمِيمًۭا","translation":{"text":"উত্তপ্ত পানি","language_name":"bengali","language_id":20},"transliteration":{"text":"ḥamīman","language_name":"english","language_id":38}},{"id":27703,"position":3,"audio_url":"wbw/078_025_003.mp3","char_type_name":"word","page_number":582,"line_number":13,"text":"وَغَسَّاقًۭا","translation":{"text":"ও পুঁজ","language_name":"bengali","language_id":20},"transliteration":{"text":"waghassāqan","language_name":"english","language_id":38}},{"id":27704,"position":4,"audio_url":null,"char_type_name":"end","page_number":582,"line_number":13,"text":"٢٥","translation":{"text":"(২৫)","language_name":"bengali","language_id":20},"transliteration":{"text":null,"language_name":"english","language_id":38}}]},{"id":5698,"verse_number":26,"verse_key":"78:26","hizb_number":59,"rub_el_hizb_number":233,"ruku_number":520,"manzil_number":7,"sajdah_number":null,"page_number":582,"juz_number":30,"words":[{"id":28535,"position":1,"audio_url":"wbw/078_026_001.mp3","char_type_name":"word","page_number":582,"line_number":13,"text":"جَزَآءًۭ","translation":{"text":"(এটাই তাদের) প্রতিদান","language_name":"bengali","language_id":20},"transliteration":{"text":"jazāan","language_name":"english","language_id":38}},{"id":28536,"position":2,"audio_url":"wbw/078_026_002.mp3","char_type_name":"word","page_number":582,"line_number":13,"text":"وِفَاقًا","translation":{"text":"উপযুক্ত","language_name":"bengali","language_id":20},"transliteration":{"text":"wifāqan","language_name":"english","language_id":38}},{"id":28537,"position":3,"audio_url":null,"char_type_name":"end","page_number":582,"line_number":13,"text":"٢٦","translation":{"text":"(২৬)","language_name":"bengali","language_id":20},"transliteration":{"text":null,"language_name":"english","language_id":38}}]},{"id":5699,"verse_number":27,"verse_key":"78:27","hizb_number":59,"rub_el_hizb_number":233,"ruku_number":520,"manzil_number":7,"sajdah_number":null,"page_number":582,"juz_number":30,"words":[{"id":29508,"position":1,"audio_url":"wbw/078_027_001.mp3","char_type_name":"word","page_number":582,"line_number":13,"text":"إِنَّهُمْ","translation":{"text":"তারা নিশ্চয়ই","language_name":"bengali","language_id":20},"transliteration":{"text":"innahum","language_name":"english","language_id":38}},{"id":29509,"position":2,"audio_url":"wbw/078_027_002.mp3","char_type_name":"word","page_number":582,"line_number":13,"text":"كَانُوا۟","translation":{"text":"(এমন) ছিল যে","language_name":"bengali","language_id":20},"transliteration":{"text":"kānū","language_name":"english","language_id":38}},{"id":29510,"position":3,"audio_url":"wbw/078_027_003.mp3","char_type_name":"word","page_number":582,"line_number":14,"text":"لَا","translation":{"text":"না","language_name":"bengali","language_id":20},"transliteration":{"text":"lā","language_name":"english","language_id":38}},{"id":29511,"position":4,"audio_url":"wbw/078_027_004.mp3","char_type_name":"word","page_number":582,"line_number":14,"text":"يَرْجُونَ","translation":{"text":"আশঙ্কা করতো","language_name":"bengali","language_id":20},"transliteration":{"text":"yarjūna","language_name":"english","language_id":38}},{"id":29512,"position":5,"audio_url":"wbw/078_027_005.mp3","char_type_name":"word","page_number":582,"line_number":14,"text":"حِسَابًۭا","translation":{"text":"হিসাবের","language_name":"bengali","language_id":20},"transliteration":{"text":"ḥisāban","language_name":"english","language_id":38}},{"id":29513,"position":6,"audio_url":null,"char_type_name":"end","page_number":582,"line_number":14,"text":"٢٧","translation":{"text":"(২৭)","language_name":"bengali","language_id":20},"transliteration":{"text":null,"language_name":"english","language_id":38}}]},{"id":5700,"verse_number":28,"verse_key":"78:28","hizb_number":59,"rub_el_hizb_number":233,"ruku_number":520,"manzil_number":7,"sajdah_number":null,"page_number":582,"juz_number":30,"words":[{"id":30557,"position":1,"audio_url":"wbw/078_028_001.mp3","char_type_name":"word","page_number":582,"line_number":14,"text":"وَكَذَّبُوا۟","translation":{"text":"এবং তারা মিথ্যারোপ করত","language_name":"bengali","language_id":20},"transliteration":{"text":"wakadhabū","language_name":"english","language_id":38}},{"id":30558,"position":2,"audio_url":"wbw/078_028_002.mp3","char_type_name":"word","page_number":582,"line_number":14,"text":"بِـَٔايَـٰتِنَا","translation":{"text":"আমাদের নিদর্শনগুলোকে","language_name":"bengali","language_id":20},"transliteration":{"text":"biāyātinā","language_name":"english","language_id":38}},{"id":30559,"position":3,"audio_url":"wbw/078_028_003.mp3","char_type_name":"word","page_number":582,"line_number":14,"text":"كِذَّابًۭا","translation":{"text":"(সম্পূর্ণভাবে) মিথ্যা","language_name":"bengali","language_id":20},"transliteration":{"text":"kidhāban","language_name":"english","language_id":38}},{"id":30560,"position":4,"audio_url":null,"char_type_name":"end","page_number":582,"line_number":14,"text":"٢٨","translation":{"text":"(২৮)","language_name":"bengali","language_id":20},"transliteration":{"text":null,"language_name":"english","language_id":38}}]},{"id":5701,"verse_number":29,"verse_key":"78:29","hizb_number":59,"rub_el_hizb_number":233,"ruku_number":520,"manzil_number":7,"sajdah_number":null,"page_number":582,"juz_number":30,"words":[{"id":31527,"position":1,"audio_url":"wbw/078_029_001.mp3","char_type_name":"word","page_number":582,"line_number":14,"text":"وَكُلَّ","translation":{"text":"এবং সব","language_name":"bengali","language_id":20},"transliteration":{"text":"wakulla","language_name":"english","language_id":38}},{"id":31528,"position":2,"audio_url":"wbw/078_029_002.mp3","char_type_name":"word","page_number":582,"line_number":14,"text":"شَىْءٍ","translation":{"text":"কিছু","language_name":"bengali","language_id":20},"transliteration":{"text":"shayin","language_name":"english","language_id":38}},{"id":31529,"position":3,"audio_url":"wbw/078_029_003.mp3","char_type_name":"word","page_number":582,"line_number":15,"text":"أَحْصَيْنَـٰهُ","translation":{"text":"আমরা তা গুনে রেখেছি","language_name":"bengali","language_id":20},"transliteration":{"text":"aḥṣaynāhu","language_name":"english","language_id":38}},{"id":31530,"position":4,"audio_url":"wbw/078_029_004.mp3","char_type_name":"word","page_number":582,"line_number":15,"text":"كِتَـٰبًۭا","translation":{"text":"লিখিত (আকারে)","language_name":"bengali","language_id":20},"transliteration":{"text":"kitāban","language_name":"english","language_id":38}},{"id":31531,"position":5,"audio_url":null,"char_type_name":"end","page_number":582,"line_number":15,"text":"٢٩","translation":{"text":"(২৯)","language_name":"bengali","language_id":20},"transliteration":{"text":null,"language_name":"english","language_id":38}}]},{"id":5702,"verse_number":30,"verse_key":"78:30","hizb_number":59,"rub_el_hizb_number":233,"ruku_number":520,"manzil_number":7,"sajdah_number":null,"page_number":582,"juz_number":30,"words":[{"id":32887,"position":1,"audio_url":"wbw/078_030_001.mp3","char_type_name":"word","page_number":582,"line_number":15,"text":"فَذُوقُوا۟","translation":{"text":"অতএব তোমরা স্বাদ নাও","language_name":"bengali","language_id":20},"transliteration":{"text":"fadhūqū","language_name":"english","language_id":38}},{"id":32888,"position":2,"audio_url":"wbw/078_030_002.mp3","char_type_name":"word","page_number":582,"line_number":15,"text":"فَلَن","translation":{"text":"অতঃপর কখনও না","language_name":"bengali","language_id":20},"transliteration":{"text":"falan","language_name":"english","language_id":38}},{"id":32889,"position":3,"audio_url":"wbw/078_030_003.mp3","char_type_name":"word","page_number":582,"line_number":15,"text":"نَّزِيدَكُمْ","translation":{"text":"আমরা তোমাদের বাড়াবো (অন্যকিছু)","language_name":"bengali","language_id":20},"transliteration":{"text":"nazīdakum","language_name":"english","language_id":38}},{"id":32890,"position":4,"audio_url":"wbw/078_030_004.mp3","char_type_name":"word","page_number":582,"line_number":15,"text":"إِلَّا","translation":{"text":"এ ছাড়া","language_name":"bengali","language_id":20},"transliteration":{"text":"illā","language_name":"english","language_id":38}},{"id":32891,"position":5,"audio_url":"wbw/078_030_005.mp3","char_type_name":"word","page_number":582,"line_number":15,"text":"عَذَابًا","translation":{"text":"শাস্তি","language_name":"bengali","language_id":20},"transliteration":{"text":"ʿadhāban","language_name":"english","language_id":38}},{"id":32892,"position":6,"audio_url":null,"char_type_name":"end","page_number":582,"line_number":15,"text":"٣٠","translation":{"text":"(৩০)","language_name":"bengali","language_id":20},"transliteration":{"text":null,"language_name":"english","language_id":38}}]}],"pagination":{"per_page":10,"current_page":3,"next_page":4,"total_pages":4,"total_records":40}}
