{"verses":[{"id":5703,"verse_number":31,"verse_key":"78:31","hizb_number":59,"rub_el_hizb_number":233,"ruku_number":521,"manzil_number":7,"sajdah_number":null,"page_number":583,"juz_number":30,"words":[{"id":33849,"position":1,"audio_url":"wbw/078_031_001.mp3","char_type_name":"word","page_number":583,"line_number":1,"text":"إِنَّ","translation":{"text":"নিশ্চয়ই","language_name":"bengali","language_id":20},"transliteration":{"text":"inna","language_name":"english","language_id":38}},{"id":33850,"position":2,"audio_url":"wbw/078_031_002.mp3","char_type_name":"word","page_number":583,"line_number":1,"text":"لِلْمُتَّقِينَ","translation":{"text":"মুত্তাকীদের জন্যে","language_name":"bengali","language_id":20},"transliteration":{"text":"lil'muttaqīna","language_name":"english","language_id":38}},{"id":33851,"position":3,"audio_url":"wbw/078_031_003.mp3","char_type_name":"word","page_number":583,"line_number":1,"text":"مَفَازًا","translation":{"text":"সাফল্য (রয়েছে)","language_name":"bengali","language_id":20},"transliteration":{"text":"mafāzan","language_name":"english","language_id":38}},{"id":33852,"position":4,"audio_url":null,"char_type_name":"end","page_number":583,"line_number":1,"text":"٣١","translation":{"text":"(৩১)","language_name":"bengali","language_id":20},"transliteration":{"text":null,"language_name":"english","language_id":38}}]},{"id":5704,"verse_number":32,"verse_key":"78:32","hizb_number":59,"rub_el_hizb_number":233,"ruku_number":521,"manzil_number":7,"sajdah_number":null,"page_number":583,"juz_number":30,"words":[{"id":34755,"position":1,"audio_url":"wbw/078_032_001.mp3","char_type_name":"word","page_number":583,"line_number":1,"text":"حَدَآئِقَ","translation":{"text":"বাগিচাসমূহ","language_name":"bengali","language_id":20},"transliteration":{"text":"ḥadāiqa","language_name":"english","language_id":38}},{"id":34756,"position":2,"audio_url":"wbw/078_032_002.mp3","char_type_name":"word","page_number":583,"line_number":1,"text":"وَأَعْنَـٰبًۭا","translation":{"text":"ও আঙুরসমূহ","language_name":"bengali","language_id":20},"transliteration":{"text":"wa-aʿnāban","language_name":"english","language_id":38}},{"id":34757,"position":3,"audio_url":null,"char_type_name":"end","page_number":583,"line_number":1,"text":"٣٢","translation":{"text":"(৩২)","language_name":"bengali","language_id":20},"transliteration":{"text":null,"language_name":"english","language_id":38}}]},{"id":5705,"verse_number":33,"verse_key":"78:33","hizb_number":59,"rub_el_hizb_number":233,"ruku_number":521,"manzil_number":7,"sajdah_number":null,"page_number":583,"juz_number":30,"words":[{"id":36038,"position":1,"audio_url":"wbw/078_033_001.mp3","char_type_name":"word","page_number":583,"line_number":1,"text":"وَكَوَاعِبَ","translation":{"text":"এবং নব্য যুবতীরা","language_name":"bengali","language_id":20},"transliteration":{"text":"wakawāʿiba","language_name":"english","language_id":38}},{"id":36039,"position":2,"audio_url":"wbw/078_033_002.mp3","char_type_name":"word","page_number":583,"line_number":1,"text":"أَتْرَابًۭا","translation":{"text":"সমবয়স্কা","language_name":"bengali","language_id":20},"transliteration":{"text":"atrāban","language_name":"english","language_id":38}},{"id":36040,"position":3,"audio_url":null,"char_type_name":"end","page_number":583,"line_number":1,"text":"٣٣","translation":{"text":"(৩৩)","language_name":"bengali","language_id":20},"transliteration":{"text":null,"language_name":"english","language_id":38}}]},{"id":5706,"verse_number":34,"verse_key":"78:34","hizb_number":59,"rub_el_hizb_number":233,"ruku_number":521,"manzil_number":7,"sajdah_number":null,"page_number":583,"juz_number":30,"words":[{"id":36858,"position":1,"audio_url":"wbw/078_034_001.mp3","char_type_name":"word","page_number":583,"line_number":1,"text":"وَكَأْسًۭا","translation":{"text":"এবং পানপাত্র","language_name":"bengali","language_id":20},"transliteration":{"text":"wakasan","language_name":"english","language_id":38}},{"id":36859,"position":2,"audio_url":"wbw/078_034_002.mp3","char_type_name":"word","page_number":583,"line_number":2,"text":"دِهَاقًۭا","translation":{"text":"পূর্ণ","language_name":"bengali","language_id":20},"transliteration":{"text":"dihāqan","language_name":"english","language_id":38}},{"id":36860,"position":3,"audio_url":null,"char_type_name":"end","page_number":583,"line_number":2,"text":"٣٤","translation":{"text":"(৩৪)","language_name":"bengali","language_id":20},"transliteration":{"text":null,"language_name":"english","language_id":38}}]},{"id":5707,"verse_number":35,"verse_key":"78:35","hizb_number":59,"rub_el_hizb_number":233,"ruku_number":521,"manzil_number":7,"sajdah_number":null,"page_number":583,"juz_number":30,"words":[{"id":37732,"position":1,"audio_url":"wbw/078_035_001.mp3","char_type_name":"word","page_number":583,"line_number":2,"text":"لَّا","translation":{"text":"না","language_name":"bengali","language_id":20},"transliteration":{"text":"lā","language_name":"english","language_id":38}},{"id":37733,"position":2,"audio_url":"wbw/078_035_002.mp3","char_type_name":"word","page_number":583,"line_number":2,"text":"يَسْمَعُونَ","translation":{"text":"তারা শুনবে","language_name":"bengali","language_id":20},"transliteration":{"text":"yasmaʿūna","language_name":"english","language_id":38}},{"id":37734,"position":3,"audio_url":"wbw/078_035_003.mp3","char_type_name":"word","page_number":583,"line_number":2,"text":"فِيهَا","translation":{"text":"তার মধ্যে","language_name":"bengali","language_id":20},"transliteration":{"text":"fīhā","language_name":"english","language_id":38}},{"id":37735,"position":4,"audio_url":"wbw/078_035_004.mp3","char_type_name":"word","page_number":583,"line_number":2,"text":"لَغْوًۭا","translation":{"text":"কোনো অসার কথা","language_name":"bengali","language_id":20},"transliteration":{"text":"laghwan","language_name":"english","language_id":38}},{"id":37736,"position":5,"audio_url":"wbw/078_035_005.mp3","char_type_name":"word","page_number":583,"line_number":2,"text":"وَلَا","translation":{"text":"আর  না","language_name":"bengali","language_id":20},"transliteration":{"text":"walā","language_name":"english","language_id":38}},{"id":37737,"position":6,"audio_url":"wbw/078_035_006.mp3","char_type_name":"word","page_number":583,"line_number":2,"text":"كِذَّٰبًۭا","translation":{"text":"মিথ্যা","language_name":"bengali","language_id":20},"transliteration":{"text":"kidhāban","language_name":"english","language_id":38}},{"id":37738,"position":7,"audio_url":null,"char_type_name":"end","page_number":583,"line_number":2,"text":"٣٥","translation":{"text":"(৩৫)","language_name":"bengali","language_id":20},"transliteration":{"text":null,"language_name":"english","language_id":38}}]},{"id":5708,"verse_number":36,"verse_key":"78:36","hizb_number":59,"rub_el_hizb_number":233,"ruku_number":521,"manzil_number":7,"sajdah_number":null,"page_number":583,"juz_number":30,"words":[{"id":38535,"position":1,"audio_url":"wbw/078_036_001.mp3","char_type_name":"word","page_number":583,"line_number":2,"text":"جَزَآءًۭ","translation":{"text":"পুরস্কার","language_name":"bengali","language_id":20},"transliteration":{"text":"jazāan","language_name":"english","language_id":38}},{"id":38536,"position":2,"audio_url":"wbw/078_036_002.mp3","char_type_name":"word","page_number":583,"line_number":2,"text":"مِّن","translation":{"text":"পক্ষ হতে","language_name":"bengali","language_id":20},"transliteration":{"text":"min","language_name":"english","language_id":38}},{"id":38537,"position":3,"audio_url":"wbw/078_036_003.mp3","char_type_name":"word","page_number":583,"line_number":2,"text":"رَّبِّكَ","translation":{"text":"তোমার রবের","language_name":"bengali","language_id":20},"transliteration":{"text":"rabbika","language_name":"english","language_id":38}},{"id":38538,"position":4,"audio_url":"wbw/078_036_004.mp3","char_type_name":"word","page_number":583,"line_number":2,"text":"عَطَآءً","translation":{"text":"(এ ছাড়াও) দান","language_name":"bengali","language_id":20},"transliteration":{"text":"ʿaṭāan","language_name":"english","language_id":38}},{"id":38539,"position":5,"audio_url":"wbw/078_036_005.mp3","char_type_name":"word","page_number":583,"line_number":3,"text":"حِسَابًۭا","translation":{"text":"যথোচিত","language_name":"bengali","language_id":20},"transliteration":{"text":"ḥisāban","language_name":"english","language_id":38}},{"id":38540,"position":6,"audio_url":null,"char_type_name":"end","page_number":583,"line_number":3,"text":"٣٦","translation":{"text":"(৩৬)","language_name":"bengali","language_id":20},"transliteration":{"text":null,"language_name":"english","language_id":38}}]},{"id":5709,"verse_number":37,"verse_key":"78:37","hizb_number":59,"rub_el_hizb_number":233,"ruku_number":521,"manzil_number":7,"sajdah_number":null,"page_number":583,"juz_number":30,"words":[{"id":39402,"position":1,"audio_url":"wbw/078_037_001.mp3","char_type_name":"word","page_number":583,"line_number":3,"text":"رَّبِّ","translation":{"text":"(পক্ষ হতে) রবের","language_name":"bengali","language_id":20},"transliteration":{"text":"rabbi","language_name":"english","language_id":38}},{"id":39403,"position":2,"audio_url":"wbw/078_037_002.mp3","char_type_name":"word","page_number":583,"line_number":3,"text":"ٱلسَّمَـٰوَٰتِ","translation":{"text":"আকাশসমূহের","language_name":"bengali","language_id":20},"transliteration":{"text":"l-samāwāti","language_name":"english","language_id":38}},{"id":39404,"position":3,"audio_url":"wbw/078_037_003.mp3","char_type_name":"word","page_number":583,"line_number":3,"text":"وَٱلْأَرْضِ","translation":{"text":"এবং পৃথিবীর","language_name":"bengali","language_id":20},"transliteration":{"text":"wal-arḍi","language_name":"english","language_id":38}},{"id":39405,"position":4,"audio_url":"wbw/078_037_004.mp3","char_type_name":"word","page_number":583,"line_number":3,"text":"وَمَا","translation":{"text":"এবং যা কিছু","language_name":"bengali","language_id":20},"transliteration":{"text":"wamā","language_name":"english","language_id":38}},{"id":39406,"position":5,"audio_url":"wbw/078_037_005.mp3","char_type_name":"word","page_number":583,"line_number":3,"text":"بَيْنَهُمَا","translation":{"text":"তাদের দু'য়ের মাঝে আছে","language_name":"bengali","language_id":20},"transliteration":{"text":"baynahumā","language_name":"english","language_id":38}},{"id":39407,"position":6,"audio_url":"wbw/078_037_006.mp3","char_type_name":"word","page_number":583,"line_number":3,"text":"ٱلرَّحْمَـٰنِ ۖ","translation":{"text":"অশেষ দয়াবানের (পক্ষ হতে)","language_name":"bengali","language_id":20},"transliteration":{"text":"l-raḥmāni","language_name":"english","language_id":38}},{"id":39409,"position":7,"audio_url":"wbw/078_037_008.mp3","char_type_name":"word","page_number":583,"line_number":3,"text":"لَا","translation":{"text":"না","language_name":"bengali","language_id":20},"transliteration":{"text":"lā","language_name":"english","language_id":38}},{"id":39410,"position":8,"audio_url":"wbw/078_037_009.mp3","char_type_name":"word","page_number":583,"line_number":3,"text":"يَمْلِكُونَ","translation":{"text":"তারা সক্ষম হবে","language_name":"bengali","language_id":20},"transliteration":{"text":"yamlikūna","language_name":"english","language_id":38}},{"id":39411,"position":9,"audio_url":"wbw/078_037_010.mp3","char_type_name":"word","page_number":583,"line_number":4,"text":"مِنْهُ","translation":{"text":"তাঁর সাথে","language_name":"bengali","language_id":20},"transliteration":{"text":"min'hu","language_name":"english","language_id":38}},{"id":39412,"position":10,"audio_url":"wbw/078_037_011.mp3","char_type_name":"word","page_number":583,"line_number":4,"text":"خِطَابًۭا","translation":{"text":"কথা বলতে","language_name":"bengali","language_id":20},"transliteration":{"text":"khiṭāban","language_name":"english","language_id":38}},{"id":39413,"position":11,"audio_url":null,"char_type_name":"end","page_number":583,"line_number":4,"text":"٣٧","translation":{"text":"(৩৭)","language_name":"bengali","language_id":20},"transliteration":{"text":null,"language_name":"english","language_id":38}}]},{"id":5710,"verse_number":38,"verse_key":"78:38","hizb_number":59,"rub_el_hizb_number":233,"ruku_number":521,"manzil_number":7,"sajdah_number":null,"page_number":583,"juz_number":30,"words":[{"id":40124,"position":1,"audio_url":"wbw/078_038_001.mp3","char_type_name":"word","page_number":583,"line_number":4,"text":"يَوْمَ","translation":{"text":"সেদিন","language_name":"bengali","language_id":20},"transliteration":{"text":"yawma","language_name":"english","language_id":38}},{"id":40125,"position":2,"audio_url":"wbw/078_038_002.mp3","char_type_name":"word","page_number":583,"line_number":4,"text":"يَقُومُ","translation":{"text":"দাঁড়াবে","language_name":"bengali","language_id":20},"transliteration":{"text":"yaqūmu","language_name":"english","language_id":38}},{"id":40126,"position":3,"audio_url":"wbw/078_038_003.mp3","char_type_name":"word","page_number":583,"line_number":4,"text":"ٱلرُّوحُ","translation":{"text":"রূহ (জিবরাইল)","language_name":"bengali","language_id":20},"transliteration":{"text":"l-rūḥu","language_name":"english","language_id":38}},{"id":40127,"position":4,"audio_url":"wbw/078_038_004.mp3","char_type_name":"word","page_number":583,"line_number":4,"text":"وَٱلْمَلَـٰٓئِكَةُ","translation":{"text":"ও ফেরেশতারা","language_name":"bengali","language_id":20},"transliteration":{"text":"wal-malāikatu","language_name":"english","language_id":38}},{"id":40128,"position":5,"audio_url":"wbw/078_038_005.mp3","char_type_name":"word","page_number":583,"line_number":4,"text":"صَفًّۭا ۖ","translation":{"text":"সারিবদ্ধ ভাবে","language_name":"bengali","language_id":20},"transliteration":{"text":"ṣaffan","language_name":"english","language_id":38}},{"id":40130,"position":6,"audio_url":"wbw/078_038_007.mp3","char_type_name":"word","page_number":583,"line_number":4,"text":"لَّا","translation":{"text":"না","language_name":"bengali","language_id":20},"transliteration":{"text":"lā","language_name":"english","language_id":38}},{"id":40131,"position":7,"audio_url":"wbw/078_038_008.mp3","char_type_name":"word","page_number":583,"line_number":4,"text":"يَتَكَلَّمُونَ","translation":{"text":"তারা কথা বলবে","language_name":"bengali","language_id":20},"transliteration":{"text":"yatakallamūna","language_name":"english","language_id":38}},{"id":40132,"position":8,"audio_url":"wbw/078_038_009.mp3","char_type_name":"word","page_number":583,"line_number":5,"text":"إِلَّا","translation":{"text":"(সে) ছাড়া","language_name":"bengali","language_id":20},"transliteration":{"text":"illā","language_name":"english","language_id":38}},{"id":40133,"position":9,"audio_url":"wbw/078_038_010.mp3","char_type_name":"word","page_number":583,"line_number":5,"text":"مَنْ","translation":{"text":"যাকে","language_name":"bengali","language_id":20},"transliteration":{"text":"man","language_name":"english","language_id":38}},{"id":40134,"position":10,"audio_url":"wbw/078_038_011.mp3","char_type_name":"word","page_number":583,"line_number":5,"text":"أَذِنَ","translation":{"text":"অনুমতি দেবেন","language_name":"bengali","language_id":20},"transliteration":{"text":"adhina","language_name":"english","language_id":38}},{"id":40135,"position":11,"audio_url":"wbw/078_038_012.mp3","char_type_name":"word","page_number":583,"line_number":5,"text":"لَهُ","translation":{"text":"তার জন্যে","language_name":"bengali","language_id":20},"transliteration":{"text":"lahu","language_name":"english","language_id":38}},{"id":40136,"position":12,"audio_url":"wbw/078_038_013.mp3","char_type_name":"word","page_number":583,"line_number":5,"text":"ٱلرَّحْمَـٰنُ","translation":{"text":"দয়াময়","language_name":"bengali","language_id":20},"transliteration":{"text":"l-raḥmānu","language_name":"english","language_id":38}},{"id":40137,"position":13,"audio_url":"wbw/078_038_014.mp3","char_type_name":"word","page_number":583,"line_number":5,"text":"وَقَالَ","translation":{"text":"এবং বলবে","language_name":"bengali","language_id":20},"transliteration":{"text":"waqāla","language_name":"english","language_id":38}},{"id":40138,"position":14,"audio_url":"wbw/078_038_015.mp3","char_type_name":"word","page_number":583,"line_number":5,"text":"صَوَابًۭا","translation":{"text":"যথাযথ","language_name":"bengali","language_id":20},"transliteration":{"text":"ṣawāban","language_name":"english","language_id":38}},{"id":40139,"position":15,"audio_url":null,"char_type_name":"end","page_number":583,"line_number":5,"text":"٣٨","translation":{"text":"(৩৮)","language_name":"bengali","language_id":20},"transliteration":{"text":null,"language_name":"english","language_id":38}}]},{"id":5711,"verse_number":39,"verse_key":"78:39","hizb_number":59,"rub_el_hizb_number":233,"ruku_number":521,"manzil_number":7,"sajdah_number":null,"page_number":583,"juz_number":30,"words":[{"id":40931,"position":1,"audio_url":"wbw/078_039_001.mp3","char_type_name":"word","page_number":583,"line_number":5,"text":"ذَٰلِكَ","translation":{"text":"সে-ই","language_name":"bengali","language_id":20},"transliteration":{"text":"dhālika","language_name":"english","language_id":38}},{"id":40932,"position":2,"audio_url":"wbw/078_039_002.mp3","char_type_name":"word","page_number":583,"line_number":5,"text":"ٱلْيَوْمُ","translation":{"text":"দিন","language_name":"bengali","language_id":20},"transliteration":{"text":"l-yawmu","language_name":"english","language_id":38}},{"id":40933,"position":3,"audio_url":"wbw/078_039_003.mp3","char_type_name":"word","page_number":583,"line_number":5,"text":"ٱلْحَقُّ ۖ","translation":{"text":"সুনিশ্চিত","language_name":"bengali","language_id":20},"transliteration":{"text":"l-ḥaqu","language_name":"english","language_id":38}},{"id":40935,"position":4,"audio_url":"wbw/078_039_005.mp3","char_type_name":"word","page_number":583,"line_number":5,"text":"فَمَن","translation":{"text":"অতএব যে","language_name":"bengali","language_id":20},"transliteration":{"text":"faman","language_name":"english","language_id":38}},{"id":40936,"position":5,"audio_url":"wbw/078_039_006.mp3","char_type_name":"word","page_number":583,"line_number":6,"text":"شَآءَ","translation":{"text":"চায়","language_name":"bengali","language_id":20},"transliteration":{"text":"shāa","language_name":"english","language_id":38}},{"id":40937,"position":6,"audio_url":"wbw/078_039_007.mp3","char_type_name":"word","page_number":583,"line_number":6,"text":"ٱتَّخَذَ","translation":{"text":"গ্রহণ করুক (আজ)","language_name":"bengali","language_id":20},"transliteration":{"text":"ittakhadha","language_name":"english","language_id":38}},{"id":40938,"position":7,"audio_url":"wbw/078_039_008.mp3","char_type_name":"word","page_number":583,"line_number":6,"text":"إِلَىٰ","translation":{"text":"দিকে","language_name":"bengali","language_id":20},"transliteration":{"text":"ilā","language_name":"english","language_id":38}},{"id":40939,"position":8,"audio_url":"wbw/078_039_009.mp3","char_type_name":"word","page_number":583,"line_number":6,"text":"رَبِّهِۦ","translation":{"text":"তার রবের","language_name":"bengali","language_id":20},"transliteration":{"text":"rabbihi","language_name":"english","language_id":38}},{"id":40940,"position":9,"audio_url":"wbw/078_039_010.mp3","char_type_name":"word","page_number":583,"line_number":6,"text":"مَـَٔابًا","translation":{"text":"প্রত্যাবর্তনের (পথ)","language_name":"bengali","language_id":20},"transliteration":{"text":"maāban","language_name":"english","language_id":38}},{"id":40941,"position":10,"audio_url":null,"char_type_name":"end","page_number":583,"line_number":6,"text":"٣٩","translation":{"text":"(৩৯)","language_name":"bengali","language_id":20},"transliteration":{"text":null,"language_name":"english","language_id":38}}]},{"id":5712,"verse_number":40,"verse_key":"78:40","hizb_number":59,"rub_el_hizb_number":233,"ruku_number":521,"manzil_number":7,"sajdah_number":null,"page_number":583,"juz_number":30,"words":[{"id":41863,"position":1,"audio_url":"wbw/078_040_001.mp3","char_type_name":"word","page_number":583,"line_number":6,"text":"إِنَّآ","translation":{"text":"নিশ্চয়ই আমরা","language_name":"bengali","language_id":20},"transliteration":{"text":"innā","language_name":"english","language_id":38}},{"id":41864,"position":2,"audio_url":"wbw/078_040_002.mp3","char_type_name":"word","page_number":583,"line_number":6,"text":"أَنذَرْنَـٰكُمْ","translation":{"text":"তোমাদেরকে আমরা সতর্ক করছি","language_name":"bengali","language_id":20},"transliteration":{"text":"andharnākum","language_name":"english","language_id":38}},{"id":41865,"position":3,"audio_url":"wbw/078_040_003.mp3","char_type_name":"word","page_number":583,"line_number":6,"text":"عَذَابًۭا","translation":{"text":"শাস্তির","language_name":"bengali","language_id":20},"transliteration":{"text":"ʿadhāban","language_name":"english","language_id":38}},{"id":41866,"position":4,"audio_url":"wbw/078_040_004.mp3","char_type_name":"word","page_number":583,"line_number":6,"text":"قَرِيبًۭا","translation":{"text":"আসন্ন","language_name":"bengali","language_id":20},"transliteration":{"text":"qarīban","language_name":"english","language_id":38}},{"id":41867,"position":5,"audio_url":"wbw/078_040_005.mp3","char_type_name":"word","page_number":583,"line_number":6,"text":"يَوْمَ","translation":{"text":"সেদিন","language_name":"bengali","language_id":20},"transliteration":{"text":"yawma","language_name":"english","language_id":38}},{"id":41868,"position":6,"audio_url":"wbw/078_040_006.mp3","char_type_name":"word","page_number":583,"line_number":6,"text":"يَنظُرُ","translation":{"text":"দেখবে","language_name":"bengali","language_id":20},"transliteration":{"text":"yanẓuru","language_name":"english","language_id":38}},{"id":41869,"position":7,"audio_url":"wbw/078_040_007.mp3","char_type_name":"word","page_number":583,"line_number":7,"text":"ٱلْمَرْءُ","translation":{"text":"মানুষ","language_name":"bengali","language_id":20},"transliteration":{"text":"l-maru","language_name":"english","language_id":38}},{"id":41870,"position":8,"audio_url":"wbw/078_040_008.mp3","char_type_name":"word","page_number":583,"line_number":7,"text":"مَا","translation":{"text":"যা","language_name":"bengali","language_id":20},"transliteration":{"text":"mā","language_name":"english","language_id":38}},{"id":41871,"position":9,"audio_url":"wbw/078_040_009.mp3","char_type_name":"word","page_number":583,"line_number":7,"text":"قَدَّمَتْ","translation":{"text":"আগে পাঠিয়েছে","language_name":"bengali","language_id":20},"transliteration":{"text":"qaddamat","language_name":"english","language_id":38}},{"id":41872,"position":10,"audio_url":"wbw/078_040_010.mp3","char_type_name":"word","page_number":583,"line_number":7,"text":"يَدَاهُ","translation":{"text":"তার দু'হাত","language_name":"bengali","language_id":20},"transliteration":{"text":"yadāhu","language_name":"english","language_id":38}},{"id":41873,"position":11,"audio_url":"wbw/078_040_011.mp3","char_type_name":"word","page_number":583,"line_number":7,"text":"وَيَقُولُ","translation":{"text":"এবং বলবে","language_name":"bengali","language_id":20},"transliteration":{"text":"wayaqūlu","language_name":"english","language_id":38}},{"id":41874,"position":12,"audio_url":"wbw/078_040_012.mp3","char_type_name":"word","page_number":583,"line_number":7,"text":"ٱلْكَافِرُ","translation":{"text":"কাফের","language_name":"bengali","language_id":20},"transliteration":{"text":"l-kāfiru","language_name":"english","language_id":38}},{"id":41875,"position":13,"audio_url":"wbw/078_040_013.mp3","char_type_name":"word","page_number":583,"line_number":7,"text":"يَـٰلَيْتَنِى","translation":{"text":"\"হায় আমার আফসোস","language_name":"bengali","language_id":20},"transliteration":{"text":"yālaytanī","language_name":"english","language_id":38}},{"id":41876,"position":14,"audio_url":"wbw/078_040_014.mp3","char_type_name":"word","page_number":583,"line_number":7,"text":"كُنتُ","translation":{"text":"যদি আমি হতাম","language_name":"bengali","language_id":20},"transliteration":{"text":"kuntu","language_name":"english","language_id":38}},{"id":41877,"position":15,"audio_url":"wbw/078_040_015.mp3","char_type_name":"word","page_number":583,"line_number":7,"text":"تُرَٰبًۢا","translation":{"text":"মাটি\"","language_name":"bengali","language_id":20},"transliteration":{"text":"turāban","language_name":"english","language_id":38}},{"id":41878,"position":16,"audio_url":null,"char_type_name":"end","page_number":583,"line_number":7,"text":"٤٠","translation":{"text":"(৪০)","language_name":"bengali","language_id":20},"transliteration":{"text":null,"language_name":"english","language_id":38}}]}],"pagination":{"per_page":10,"current_page":4,"next_page":null,"total_pages":4,"total_records":40}}
