{"verses":[{"id":4867,"verse_number":21,"verse_key":"54:21","hizb_number":53,"rub_el_hizb_number":212,"ruku_number":465,"manzil_number":7,"sajdah_number":null,"page_number":529,"juz_number":27,"words":[{"id":23734,"position":1,"audio_url":"wbw/054_021_001.mp3","char_type_name":"word","page_number":529,"line_number":11,"text":"فَكَيْفَ","translation":{"text":"কেমন অতএব","language_name":"bengali","language_id":20},"transliteration":{"text":"fakayfa","language_name":"english","language_id":38}},{"id":23735,"position":2,"audio_url":"wbw/054_021_002.mp3","char_type_name":"word","page_number":529,"line_number":11,"text":"كَانَ","translation":{"text":"ছিল","language_name":"bengali","language_id":20},"transliteration":{"text":"kāna","language_name":"english","language_id":38}},{"id":23736,"position":3,"audio_url":"wbw/054_021_003.mp3","char_type_name":"word","page_number":529,"line_number":11,"text":"عَذَابِى","translation":{"text":"আমার শাস্তি","language_name":"bengali","language_id":20},"transliteration":{"text":"ʿadhābī","language_name":"english","language_id":38}},{"id":23737,"position":4,"audio_url":"wbw/054_021_004.mp3","char_type_name":"word","page_number":529,"line_number":11,"text":"وَنُذُرِ","translation":{"text":"ও আমার সতর্কবাণী (লক্ষ্যকর)","language_name":"bengali","language_id":20},"transliteration":{"text":"wanudhuri","language_name":"english","language_id":38}},{"id":23738,"position":5,"audio_url":null,"char_type_name":"end","page_number":529,"line_number":11,"text":"٢١","translation":{"text":"(২১)","language_name":"bengali","language_id":20},"transliteration":{"text":null,"language_name":"english","language_id":38}}]},{"id":4868,"verse_number":22,"verse_key":"54:22","hizb_number":53,"rub_el_hizb_number":212,"ruku_number":465,"manzil_number":7,"sajdah_number":null,"page_number":529,"juz_number":27,"words":[{"id":24694,"position":1,"audio_url":"wbw/054_022_001.mp3","char_type_name":"word","page_number":529,"line_number":11,"text":"وَلَقَدْ","translation":{"text":"এবং নিশ্চয়ই","language_name":"bengali","language_id":20},"transliteration":{"text":"walaqad","language_name":"english","language_id":38}},{"id":24695,"position":2,"audio_url":"wbw/054_022_002.mp3","char_type_name":"word","page_number":529,"line_number":11,"text":"يَسَّرْنَا","translation":{"text":"আমরা সহজ করেছি","language_name":"bengali","language_id":20},"transliteration":{"text":"yassarnā","language_name":"english","language_id":38}},{"id":24696,"position":3,"audio_url":"wbw/054_022_003.mp3","char_type_name":"word","page_number":529,"line_number":11,"text":"ٱلْقُرْءَانَ","translation":{"text":"কুরআনকে","language_name":"bengali","language_id":20},"transliteration":{"text":"l-qur'āna","language_name":"english","language_id":38}},{"id":24697,"position":4,"audio_url":"wbw/054_022_004.mp3","char_type_name":"word","page_number":529,"line_number":12,"text":"لِلذِّكْرِ","translation":{"text":"উপদেশ গ্রহণের জন্যে","language_name":"bengali","language_id":20},"transliteration":{"text":"lildhik'ri","language_name":"english","language_id":38}},{"id":24698,"position":5,"audio_url":"wbw/054_022_005.mp3","char_type_name":"word","page_number":529,"line_number":12,"text":"فَهَلْ","translation":{"text":"তবে কি (আছে)","language_name":"bengali","language_id":20},"transliteration":{"text":"fahal","language_name":"english","language_id":38}},{"id":24699,"position":6,"audio_url":"wbw/054_022_006.mp3","char_type_name":"word","page_number":529,"line_number":12,"text":"مِن","translation":{"text":"কোনো","language_name":"bengali","language_id":20},"transliteration":{"text":"min","language_name":"english","language_id":38}},{"id":24700,"position":7,"audio_url":"wbw/054_022_007.mp3","char_type_name":"word","page_number":529,"line_number":12,"text":"مُّدَّكِرٍۢ","translation":{"text":"উপদেশ গ্রহণকারী","language_name":"bengali","language_id":20},"transliteration":{"text":"muddakirin","language_name":"english","language_id":38}},{"id":24701,"position":8,"audio_url":null,"char_type_name":"end","page_number":529,"line_number":12,"text":"٢٢","translation":{"text":"(২২)","language_name":"bengali","language_id":20},"transliteration":{"text":null,"language_name":"english","language_id":38}}]},{"id":4869,"verse_number":23,"verse_key":"54:23","hizb_number":53,"rub_el_hizb_number":212,"ruku_number":466,"manzil_number":7,"sajdah_number":null,"page_number":529,"juz_number":27,"words":[{"id":26023,"position":1,"audio_url":"wbw/054_023_001.mp3","char_type_name":"word","page_number":529,"line_number":12,"text":"كَذَّبَتْ","translation":{"text":"মিথ্যারোপ করেছিল","language_name":"bengali","language_id":20},"transliteration":{"text":"kadhabat","language_name":"english","language_id":38}},{"id":26024,"position":2,"audio_url":"wbw/054_023_002.mp3","char_type_name":"word","page_number":529,"line_number":12,"text":"ثَمُودُ","translation":{"text":"সামুদ'","language_name":"bengali","language_id":20},"transliteration":{"text":"thamūdu","language_name":"english","language_id":38}},{"id":26025,"position":3,"audio_url":"wbw/054_023_003.mp3","char_type_name":"word","page_number":529,"line_number":12,"text":"بِٱلنُّذُرِ","translation":{"text":"সতর্ককারীদেরকে","language_name":"bengali","language_id":20},"transliteration":{"text":"bil-nudhuri","language_name":"english","language_id":38}},{"id":26026,"position":4,"audio_url":null,"char_type_name":"end","page_number":529,"line_number":12,"text":"٢٣","translation":{"text":"(২৩)","language_name":"bengali","language_id":20},"transliteration":{"text":null,"language_name":"english","language_id":38}}]},{"id":4870,"verse_number":24,"verse_key":"54:24","hizb_number":53,"rub_el_hizb_number":212,"ruku_number":466,"manzil_number":7,"sajdah_number":null,"page_number":529,"juz_number":27,"words":[{"id":26858,"position":1,"audio_url":"wbw/054_024_001.mp3","char_type_name":"word","page_number":529,"line_number":12,"text":"فَقَالُوٓا۟","translation":{"text":"তারা তখন বলেছিল","language_name":"bengali","language_id":20},"transliteration":{"text":"faqālū","language_name":"english","language_id":38}},{"id":26859,"position":2,"audio_url":"wbw/054_024_002.mp3","char_type_name":"word","page_number":529,"line_number":12,"text":"أَبَشَرًۭا","translation":{"text":"\"মানুষ কি","language_name":"bengali","language_id":20},"transliteration":{"text":"abasharan","language_name":"english","language_id":38}},{"id":26860,"position":3,"audio_url":"wbw/054_024_003.mp3","char_type_name":"word","page_number":529,"line_number":13,"text":"مِّنَّا","translation":{"text":"আমাদের মধ্য হতে","language_name":"bengali","language_id":20},"transliteration":{"text":"minnā","language_name":"english","language_id":38}},{"id":26861,"position":4,"audio_url":"wbw/054_024_004.mp3","char_type_name":"word","page_number":529,"line_number":13,"text":"وَٰحِدًۭا","translation":{"text":"একজন","language_name":"bengali","language_id":20},"transliteration":{"text":"wāḥidan","language_name":"english","language_id":38}},{"id":26862,"position":5,"audio_url":"wbw/054_024_005.mp3","char_type_name":"word","page_number":529,"line_number":13,"text":"نَّتَّبِعُهُۥٓ","translation":{"text":"যাকে আমরা অনুসরণ করবো","language_name":"bengali","language_id":20},"transliteration":{"text":"nattabiʿuhu","language_name":"english","language_id":38}},{"id":26863,"position":6,"audio_url":"wbw/054_024_006.mp3","char_type_name":"word","page_number":529,"line_number":13,"text":"إِنَّآ","translation":{"text":"নিশ্চয়ই আমরা","language_name":"bengali","language_id":20},"transliteration":{"text":"innā","language_name":"english","language_id":38}},{"id":26864,"position":7,"audio_url":"wbw/054_024_007.mp3","char_type_name":"word","page_number":529,"line_number":13,"text":"إِذًۭا","translation":{"text":"তখন (হব)","language_name":"bengali","language_id":20},"transliteration":{"text":"idhan","language_name":"english","language_id":38}},{"id":26865,"position":8,"audio_url":"wbw/054_024_008.mp3","char_type_name":"word","page_number":529,"line_number":13,"text":"لَّفِى","translation":{"text":"অবশ্যই মধ্যে","language_name":"bengali","language_id":20},"transliteration":{"text":"lafī","language_name":"english","language_id":38}},{"id":26866,"position":9,"audio_url":"wbw/054_024_009.mp3","char_type_name":"word","page_number":529,"line_number":13,"text":"ضَلَـٰلٍۢ","translation":{"text":"ভ্রান্তির","language_name":"bengali","language_id":20},"transliteration":{"text":"ḍalālin","language_name":"english","language_id":38}},{"id":26867,"position":10,"audio_url":"wbw/054_024_010.mp3","char_type_name":"word","page_number":529,"line_number":13,"text":"وَسُعُرٍ","translation":{"text":"ও বিকৃতবুদ্ধির","language_name":"bengali","language_id":20},"transliteration":{"text":"wasuʿurin","language_name":"english","language_id":38}},{"id":26868,"position":11,"audio_url":null,"char_type_name":"end","page_number":529,"line_number":13,"text":"٢٤","translation":{"text":"(২৪)","language_name":"bengali","language_id":20},"transliteration":{"text":null,"language_name":"english","language_id":38}}]},{"id":4871,"verse_number":25,"verse_key":"54:25","hizb_number":53,"rub_el_hizb_number":212,"ruku_number":466,"manzil_number":7,"sajdah_number":null,"page_number":529,"juz_number":27,"words":[{"id":27888,"position":1,"audio_url":"wbw/054_025_001.mp3","char_type_name":"word","page_number":529,"line_number":13,"text":"أَءُلْقِىَ","translation":{"text":"অবতীর্ণ করা হয়েছে কি","language_name":"bengali","language_id":20},"transliteration":{"text":"a-ul'qiya","language_name":"english","language_id":38}},{"id":27889,"position":2,"audio_url":"wbw/054_025_002.mp3","char_type_name":"word","page_number":529,"line_number":13,"text":"ٱلذِّكْرُ","translation":{"text":"উপদেশ (আল্লাহর বিধান)","language_name":"bengali","language_id":20},"transliteration":{"text":"l-dhik'ru","language_name":"english","language_id":38}},{"id":27890,"position":3,"audio_url":"wbw/054_025_003.mp3","char_type_name":"word","page_number":529,"line_number":13,"text":"عَلَيْهِ","translation":{"text":"তার উপর","language_name":"bengali","language_id":20},"transliteration":{"text":"ʿalayhi","language_name":"english","language_id":38}},{"id":27891,"position":4,"audio_url":"wbw/054_025_004.mp3","char_type_name":"word","page_number":529,"line_number":14,"text":"مِنۢ","translation":{"text":"হতে","language_name":"bengali","language_id":20},"transliteration":{"text":"min","language_name":"english","language_id":38}},{"id":27892,"position":5,"audio_url":"wbw/054_025_005.mp3","char_type_name":"word","page_number":529,"line_number":14,"text":"بَيْنِنَا","translation":{"text":"আমাদের মাঝে","language_name":"bengali","language_id":20},"transliteration":{"text":"bayninā","language_name":"english","language_id":38}},{"id":27893,"position":6,"audio_url":"wbw/054_025_006.mp3","char_type_name":"word","page_number":529,"line_number":14,"text":"بَلْ","translation":{"text":"বরং","language_name":"bengali","language_id":20},"transliteration":{"text":"bal","language_name":"english","language_id":38}},{"id":27894,"position":7,"audio_url":"wbw/054_025_007.mp3","char_type_name":"word","page_number":529,"line_number":14,"text":"هُوَ","translation":{"text":"সে","language_name":"bengali","language_id":20},"transliteration":{"text":"huwa","language_name":"english","language_id":38}},{"id":27895,"position":8,"audio_url":"wbw/054_025_008.mp3","char_type_name":"word","page_number":529,"line_number":14,"text":"كَذَّابٌ","translation":{"text":"খুব মিথ্যাবাদী","language_name":"bengali","language_id":20},"transliteration":{"text":"kadhābun","language_name":"english","language_id":38}},{"id":27896,"position":9,"audio_url":"wbw/054_025_009.mp3","char_type_name":"word","page_number":529,"line_number":14,"text":"أَشِرٌۭ","translation":{"text":"দাম্ভিক\"","language_name":"bengali","language_id":20},"transliteration":{"text":"ashirun","language_name":"english","language_id":38}},{"id":27897,"position":10,"audio_url":null,"char_type_name":"end","page_number":529,"line_number":14,"text":"٢٥","translation":{"text":"(২৫)","language_name":"bengali","language_id":20},"transliteration":{"text":null,"language_name":"english","language_id":38}}]},{"id":4872,"verse_number":26,"verse_key":"54:26","hizb_number":53,"rub_el_hizb_number":212,"ruku_number":466,"manzil_number":7,"sajdah_number":null,"page_number":529,"juz_number":27,"words":[{"id":29053,"position":1,"audio_url":"wbw/054_026_001.mp3","char_type_name":"word","page_number":529,"line_number":14,"text":"سَيَعْلَمُونَ","translation":{"text":"(বলা হল) অচিরেই তারা জানবে","language_name":"bengali","language_id":20},"transliteration":{"text":"sayaʿlamūna","language_name":"english","language_id":38}},{"id":29054,"position":2,"audio_url":"wbw/054_026_002.mp3","char_type_name":"word","page_number":529,"line_number":14,"text":"غَدًۭا","translation":{"text":"আগামীকালই","language_name":"bengali","language_id":20},"transliteration":{"text":"ghadan","language_name":"english","language_id":38}},{"id":29055,"position":3,"audio_url":"wbw/054_026_003.mp3","char_type_name":"word","page_number":529,"line_number":14,"text":"مَّنِ","translation":{"text":"কে","language_name":"bengali","language_id":20},"transliteration":{"text":"mani","language_name":"english","language_id":38}},{"id":29056,"position":4,"audio_url":"wbw/054_026_004.mp3","char_type_name":"word","page_number":529,"line_number":14,"text":"ٱلْكَذَّابُ","translation":{"text":"খুব মিথ্যাবাদী","language_name":"bengali","language_id":20},"transliteration":{"text":"l-kadhābu","language_name":"english","language_id":38}},{"id":29057,"position":5,"audio_url":"wbw/054_026_005.mp3","char_type_name":"word","page_number":529,"line_number":14,"text":"ٱلْأَشِرُ","translation":{"text":"দাম্ভিক","language_name":"bengali","language_id":20},"transliteration":{"text":"l-ashiru","language_name":"english","language_id":38}},{"id":29058,"position":6,"audio_url":null,"char_type_name":"end","page_number":529,"line_number":15,"text":"٢٦","translation":{"text":"(২৬)","language_name":"bengali","language_id":20},"transliteration":{"text":null,"language_name":"english","language_id":38}}]},{"id":4873,"verse_number":27,"verse_key":"54:27","hizb_number":53,"rub_el_hizb_number":212,"ruku_number":466,"manzil_number":7,"sajdah_number":null,"page_number":529,"juz_number":27,"words":[{"id":29669,"position":1,"audio_url":"wbw/054_027_001.mp3","char_type_name":"word","page_number":529,"line_number":15,"text":"إِنَّا","translation":{"text":"নিশ্চয়ই আমরা","language_name":"bengali","language_id":20},"transliteration":{"text":"innā","language_name":"english","language_id":38}},{"id":29670,"position":2,"audio_url":"wbw/054_027_002.mp3","char_type_name":"word","page_number":529,"line_number":15,"text":"مُرْسِلُوا۟","translation":{"text":"প্রেরণকারী","language_name":"bengali","language_id":20},"transliteration":{"text":"mur'silū","language_name":"english","language_id":38}},{"id":29671,"position":3,"audio_url":"wbw/054_027_003.mp3","char_type_name":"word","page_number":529,"line_number":15,"text":"ٱلنَّاقَةِ","translation":{"text":"একটি উটনী","language_name":"bengali","language_id":20},"transliteration":{"text":"l-nāqati","language_name":"english","language_id":38}},{"id":29672,"position":4,"audio_url":"wbw/054_027_004.mp3","char_type_name":"word","page_number":529,"line_number":15,"text":"فِتْنَةًۭ","translation":{"text":"পরীক্ষা হিসেবে","language_name":"bengali","language_id":20},"transliteration":{"text":"fit'natan","language_name":"english","language_id":38}},{"id":29673,"position":5,"audio_url":"wbw/054_027_005.mp3","char_type_name":"word","page_number":529,"line_number":15,"text":"لَّهُمْ","translation":{"text":"তাদের জন্যে","language_name":"bengali","language_id":20},"transliteration":{"text":"lahum","language_name":"english","language_id":38}},{"id":29674,"position":6,"audio_url":"wbw/054_027_006.mp3","char_type_name":"word","page_number":529,"line_number":15,"text":"فَٱرْتَقِبْهُمْ","translation":{"text":"অতএব তুমি তাদের প্রতি লক্ষ্য রাখ","language_name":"bengali","language_id":20},"transliteration":{"text":"fa-ir'taqib'hum","language_name":"english","language_id":38}},{"id":29675,"position":7,"audio_url":"wbw/054_027_007.mp3","char_type_name":"word","page_number":529,"line_number":15,"text":"وَٱصْطَبِرْ","translation":{"text":"ও ধৈর্য ধরো","language_name":"bengali","language_id":20},"transliteration":{"text":"wa-iṣ'ṭabir","language_name":"english","language_id":38}},{"id":29676,"position":8,"audio_url":null,"char_type_name":"end","page_number":529,"line_number":15,"text":"٢٧","translation":{"text":"(২৭)","language_name":"bengali","language_id":20},"transliteration":{"text":null,"language_name":"english","language_id":38}}]},{"id":4874,"verse_number":28,"verse_key":"54:28","hizb_number":53,"rub_el_hizb_number":212,"ruku_number":466,"manzil_number":7,"sajdah_number":null,"page_number":530,"juz_number":27,"words":[{"id":30749,"position":1,"audio_url":"wbw/054_028_001.mp3","char_type_name":"word","page_number":530,"line_number":1,"text":"وَنَبِّئْهُمْ","translation":{"text":"এবং তাদের জানিয়ে দাও","language_name":"bengali","language_id":20},"transliteration":{"text":"wanabbi'hum","language_name":"english","language_id":38}},{"id":30750,"position":2,"audio_url":"wbw/054_028_002.mp3","char_type_name":"word","page_number":530,"line_number":1,"text":"أَنَّ","translation":{"text":"যে","language_name":"bengali","language_id":20},"transliteration":{"text":"anna","language_name":"english","language_id":38}},{"id":30751,"position":3,"audio_url":"wbw/054_028_003.mp3","char_type_name":"word","page_number":530,"line_number":1,"text":"ٱلْمَآءَ","translation":{"text":"পানি","language_name":"bengali","language_id":20},"transliteration":{"text":"l-māa","language_name":"english","language_id":38}},{"id":30752,"position":4,"audio_url":"wbw/054_028_004.mp3","char_type_name":"word","page_number":530,"line_number":1,"text":"قِسْمَةٌۢ","translation":{"text":"পালা করে দেওয়া হলো (হয়েছে)","language_name":"bengali","language_id":20},"transliteration":{"text":"qis'matun","language_name":"english","language_id":38}},{"id":30753,"position":5,"audio_url":"wbw/054_028_005.mp3","char_type_name":"word","page_number":530,"line_number":1,"text":"بَيْنَهُمْ ۖ","translation":{"text":"তাদের মাঝে","language_name":"bengali","language_id":20},"transliteration":{"text":"baynahum","language_name":"english","language_id":38}},{"id":30755,"position":6,"audio_url":"wbw/054_028_007.mp3","char_type_name":"word","page_number":530,"line_number":1,"text":"كُلُّ","translation":{"text":"প্রত্যেকে","language_name":"bengali","language_id":20},"transliteration":{"text":"kullu","language_name":"english","language_id":38}},{"id":30756,"position":7,"audio_url":"wbw/054_028_008.mp3","char_type_name":"word","page_number":530,"line_number":1,"text":"شِرْبٍۢ","translation":{"text":"পান করতে","language_name":"bengali","language_id":20},"transliteration":{"text":"shir'bin","language_name":"english","language_id":38}},{"id":30757,"position":8,"audio_url":"wbw/054_028_009.mp3","char_type_name":"word","page_number":530,"line_number":1,"text":"مُّحْتَضَرٌۭ","translation":{"text":"উপস্থিত হবে (পালাক্রমে)","language_name":"bengali","language_id":20},"transliteration":{"text":"muḥ'taḍarun","language_name":"english","language_id":38}},{"id":30758,"position":9,"audio_url":null,"char_type_name":"end","page_number":530,"line_number":1,"text":"٢٨","translation":{"text":"(২৮)","language_name":"bengali","language_id":20},"transliteration":{"text":null,"language_name":"english","language_id":38}}]},{"id":4875,"verse_number":29,"verse_key":"54:29","hizb_number":53,"rub_el_hizb_number":212,"ruku_number":466,"manzil_number":7,"sajdah_number":null,"page_number":530,"juz_number":27,"words":[{"id":31830,"position":1,"audio_url":"wbw/054_029_001.mp3","char_type_name":"word","page_number":530,"line_number":1,"text":"فَنَادَوْا۟","translation":{"text":"তারা অতঃপর ডাকল","language_name":"bengali","language_id":20},"transliteration":{"text":"fanādaw","language_name":"english","language_id":38}},{"id":31831,"position":2,"audio_url":"wbw/054_029_002.mp3","char_type_name":"word","page_number":530,"line_number":1,"text":"صَاحِبَهُمْ","translation":{"text":"তাদের এক সঙ্গীকে","language_name":"bengali","language_id":20},"transliteration":{"text":"ṣāḥibahum","language_name":"english","language_id":38}},{"id":31832,"position":3,"audio_url":"wbw/054_029_003.mp3","char_type_name":"word","page_number":530,"line_number":2,"text":"فَتَعَاطَىٰ","translation":{"text":"সে তখন হস্তক্ষেপ করল","language_name":"bengali","language_id":20},"transliteration":{"text":"fataʿāṭā","language_name":"english","language_id":38}},{"id":31833,"position":4,"audio_url":"wbw/054_029_004.mp3","char_type_name":"word","page_number":530,"line_number":2,"text":"فَعَقَرَ","translation":{"text":"সে অতঃপর উটনী মেরে ফেলল","language_name":"bengali","language_id":20},"transliteration":{"text":"faʿaqara","language_name":"english","language_id":38}},{"id":31834,"position":5,"audio_url":null,"char_type_name":"end","page_number":530,"line_number":2,"text":"٢٩","translation":{"text":"(২৯)","language_name":"bengali","language_id":20},"transliteration":{"text":null,"language_name":"english","language_id":38}}]},{"id":4876,"verse_number":30,"verse_key":"54:30","hizb_number":53,"rub_el_hizb_number":212,"ruku_number":466,"manzil_number":7,"sajdah_number":null,"page_number":530,"juz_number":27,"words":[{"id":32681,"position":1,"audio_url":"wbw/054_030_001.mp3","char_type_name":"word","page_number":530,"line_number":2,"text":"فَكَيْفَ","translation":{"text":"তখন কেমন","language_name":"bengali","language_id":20},"transliteration":{"text":"fakayfa","language_name":"english","language_id":38}},{"id":32682,"position":2,"audio_url":"wbw/054_030_002.mp3","char_type_name":"word","page_number":530,"line_number":2,"text":"كَانَ","translation":{"text":"ছিল","language_name":"bengali","language_id":20},"transliteration":{"text":"kāna","language_name":"english","language_id":38}},{"id":32683,"position":3,"audio_url":"wbw/054_030_003.mp3","char_type_name":"word","page_number":530,"line_number":2,"text":"عَذَابِى","translation":{"text":"আমার শাস্তি","language_name":"bengali","language_id":20},"transliteration":{"text":"ʿadhābī","language_name":"english","language_id":38}},{"id":32684,"position":4,"audio_url":"wbw/054_030_004.mp3","char_type_name":"word","page_number":530,"line_number":2,"text":"وَنُذُرِ","translation":{"text":"ও আমার সতর্কবাণী (তা লক্ষ্যকর)","language_name":"bengali","language_id":20},"transliteration":{"text":"wanudhuri","language_name":"english","language_id":38}},{"id":32685,"position":5,"audio_url":null,"char_type_name":"end","page_number":530,"line_number":2,"text":"٣٠","translation":{"text":"(৩০)","language_name":"bengali","language_id":20},"transliteration":{"text":null,"language_name":"english","language_id":38}}]}],"pagination":{"per_page":10,"current_page":3,"next_page":4,"total_pages":6,"total_records":55}}
