{"verses":[{"id":5994,"verse_number":1,"verse_key":"89:1","hizb_number":60,"rub_el_hizb_number":237,"ruku_number":533,"manzil_number":7,"sajdah_number":null,"page_number":593,"juz_number":30,"words":[{"id":729,"position":1,"audio_url":"wbw/089_001_001.mp3","verse_key":"89:1","verse_id":5994,"location":"89:1:1","text_uthmani":"وَٱلْفَجْرِ","qpc_uthmani_hafs":"وَٱلۡفَجۡرِ","char_type_name":"word","page_number":593,"line_number":5,"text":"وَٱلۡفَجۡرِ","translation":{"text":"By the dawn","language_name":"english","language_id":38},"transliteration":{"text":"wal-fajri","language_name":"english","language_id":38}},{"id":730,"position":2,"audio_url":null,"verse_key":"89:1","verse_id":5994,"location":"89:1:2","text_uthmani":"١","qpc_uthmani_hafs":"١","char_type_name":"end","page_number":593,"line_number":5,"text":"١","translation":{"text":"(1)","language_name":"english","language_id":38},"transliteration":{"text":null,"language_name":"english","language_id":38}}]},{"id":5995,"verse_number":2,"verse_key":"89:2","hizb_number":60,"rub_el_hizb_number":237,"ruku_number":533,"manzil_number":7,"sajdah_number":null,"page_number":593,"juz_number":30,"words":[{"id":1778,"position":1,"audio_url":"wbw/089_002_001.mp3","verse_key":"89:2","verse_id":5995,"location":"89:2:1","text_uthmani":"وَلَيَالٍ","qpc_uthmani_hafs":"وَلَيَالٍ","char_type_name":"word","page_number":593,"line_number":5,"text":"وَلَيَالٍ","translation":{"text":"And the nights","language_name":"english","language_id":38},"transliteration":{"text":"walayālin","language_name":"english","language_id":38}},{"id":1779,"position":2,"audio_url":"wbw/089_002_002.mp3","verse_key":"89:2","verse_id":5995,"location":"89:2:2","text_uthmani":"عَشْرٍۢ","qpc_uthmani_hafs":"عَشۡرٖ","char_type_name":"word","page_number":593,"line_number":5,"text":"عَشۡرٖ","translation":{"text":"ten","language_name":"english","language_id":38},"transliteration":{"text":"ʿashrin","language_name":"english","language_id":38}},{"id":1780,"position":3,"audio_url":null,"verse_key":"89:2","verse_id":5995,"location":"89:2:3","text_uthmani":"٢","qpc_uthmani_hafs":"٢","char_type_name":"end","page_number":593,"line_number":5,"text":"٢","translation":{"text":"(2)","language_name":"english","language_id":38},"transliteration":{"text":null,"language_name":"english","language_id":38}}]},{"id":5996,"verse_number":3,"verse_key":"89:3","hizb_number":60,"rub_el_hizb_number":237,"ruku_number":533,"manzil_number":7,"sajdah_number":null,"page_number":593,"juz_number":30,"words":[{"id":2408,"position":1,"audio_url":"wbw/089_003_001.mp3","verse_key":"89:3","verse_id":5996,"location":"89:3:1","text_uthmani":"وَٱلشَّفْعِ","qpc_uthmani_hafs":"وَٱلشَّفۡعِ","char_type_name":"word","page_number":593,"line_number":5,"text":"وَٱلشَّفۡعِ","translation":{"text":"And the even","language_name":"english","language_id":38},"transliteration":{"text":"wal-shafʿi","language_name":"english","language_id":38}},{"id":2409,"position":2,"audio_url":"wbw/089_003_002.mp3","verse_key":"89:3","verse_id":5996,"location":"89:3:2","text_uthmani":"وَٱلْوَتْرِ","qpc_uthmani_hafs":"وَٱلۡوَتۡرِ","char_type_name":"word","page_number":593,"line_number":5,"text":"وَٱلۡوَتۡرِ","translation":{"text":"and the odd","language_name":"english","language_id":38},"transliteration":{"text":"wal-watri","language_name":"english","language_id":38}},{"id":2410,"position":3,"audio_url":null,"verse_key":"89:3","verse_id":5996,"location":"89:3:3","text_uthmani":"٣","qpc_uthmani_hafs":"٣","char_type_name":"end","page_number":593,"line_number":5,"text":"٣","translation":{"text":"(3)","language_name":"english","language_id":38},"transliteration":{"text":null,"language_name":"english","language_id":38}}]},{"id":5997,"verse_number":4,"verse_key":"89:4","hizb_number":60,"rub_el_hizb_number":237,"ruku_number":533,"manzil_number":7,"sajdah_number":null,"page_number":593,"juz_number":30,"words":[{"id":3817,"position":1,"audio_url":"wbw/089_004_001.mp3","verse_key":"89:4","verse_id":5997,"location":"89:4:1","text_uthmani":"وَٱلَّيْلِ","qpc_uthmani_hafs":"وَٱلَّيۡلِ","char_type_name":"word","page_number":593,"line_number":5,"text":"وَٱلَّيۡلِ","translation":{"text":"And the night","language_name":"english","language_id":38},"transliteration":{"text":"wa-al-layli","language_name":"english","language_id":38}},{"id":3818,"position":2,"audio_url":"wbw/089_004_002.mp3","verse_key":"89:4","verse_id":5997,"location":"89:4:2","text_uthmani":"إِذَا","qpc_uthmani_hafs":"إِذَا","char_type_name":"word","page_number":593,"line_number":5,"text":"إِذَا","translation":{"text":"when","language_name":"english","language_id":38},"transliteration":{"text":"idhā","language_name":"english","language_id":38}},{"id":3819,"position":3,"audio_url":"wbw/089_004_003.mp3","verse_key":"89:4","verse_id":5997,"location":"89:4:3","text_uthmani":"يَسْرِ","qpc_uthmani_hafs":"يَسۡرِ","char_type_name":"word","page_number":593,"line_number":5,"text":"يَسۡرِ","translation":{"text":"it passes","language_name":"english","language_id":38},"transliteration":{"text":"yasri","language_name":"english","language_id":38}},{"id":3820,"position":4,"audio_url":null,"verse_key":"89:4","verse_id":5997,"location":"89:4:4","text_uthmani":"٤","qpc_uthmani_hafs":"٤","char_type_name":"end","page_number":593,"line_number":5,"text":"٤","translation":{"text":"(4)","language_name":"english","language_id":38},"transliteration":{"text":null,"language_name":"english","language_id":38}}]},{"id":5998,"verse_number":5,"verse_key":"89:5","hizb_number":60,"rub_el_hizb_number":237,"ruku_number":533,"manzil_number":7,"sajdah_number":null,"page_number":593,"juz_number":30,"words":[{"id":5125,"position":1,"audio_url":"wbw/089_005_001.mp3","verse_key":"89:5","verse_id":5998,"location":"89:5:1","text_uthmani":"هَلْ","qpc_uthmani_hafs":"هَلۡ","char_type_name":"word","page_number":593,"line_number":6,"text":"هَلۡ","translation":{"text":"Is","language_name":"english","language_id":38},"transliteration":{"text":"hal","language_name":"english","language_id":38}},{"id":5126,"position":2,"audio_url":"wbw/089_005_002.mp3","verse_key":"89:5","verse_id":5998,"location":"89:5:2","text_uthmani":"فِى","qpc_uthmani_hafs":"فِي","char_type_name":"word","page_number":593,"line_number":6,"text":"فِي","translation":{"text":"in","language_name":"english","language_id":38},"transliteration":{"text":"fī","language_name":"english","language_id":38}},{"id":5127,"position":3,"audio_url":"wbw/089_005_003.mp3","verse_key":"89:5","verse_id":5998,"location":"89:5:3","text_uthmani":"ذَٰلِكَ","qpc_uthmani_hafs":"ذَٰلِكَ","char_type_name":"word","page_number":593,"line_number":6,"text":"ذَٰلِكَ","translation":{"text":"that","language_name":"english","language_id":38},"transliteration":{"text":"dhālika","language_name":"english","language_id":38}},{"id":5128,"position":4,"audio_url":"wbw/089_005_004.mp3","verse_key":"89:5","verse_id":5998,"location":"89:5:4","text_uthmani":"قَسَمٌۭ","qpc_uthmani_hafs":"قَسَمٞ","char_type_name":"word","page_number":593,"line_number":6,"text":"قَسَمٞ","translation":{"text":"(not) an oath","language_name":"english","language_id":38},"transliteration":{"text":"qasamun","language_name":"english","language_id":38}},{"id":5129,"position":5,"audio_url":"wbw/089_005_005.mp3","verse_key":"89:5","verse_id":5998,"location":"89:5:5","text_uthmani":"لِّذِى","qpc_uthmani_hafs":"لِّذِي","char_type_name":"word","page_number":593,"line_number":6,"text":"لِّذِي","translation":{"text":"for those","language_name":"english","language_id":38},"transliteration":{"text":"lidhī","language_name":"english","language_id":38}},{"id":5130,"position":6,"audio_url":"wbw/089_005_006.mp3","verse_key":"89:5","verse_id":5998,"location":"89:5:6","text_uthmani":"حِجْرٍ","qpc_uthmani_hafs":"حِجۡرٍ","char_type_name":"word","page_number":593,"line_number":6,"text":"حِجۡرٍ","translation":{"text":"who understand","language_name":"english","language_id":38},"transliteration":{"text":"ḥij'rin","language_name":"english","language_id":38}},{"id":5131,"position":7,"audio_url":null,"verse_key":"89:5","verse_id":5998,"location":"89:5:7","text_uthmani":"٥","qpc_uthmani_hafs":"٥","char_type_name":"end","page_number":593,"line_number":6,"text":"٥","translation":{"text":"(5)","language_name":"english","language_id":38},"transliteration":{"text":null,"language_name":"english","language_id":38}}]},{"id":5999,"verse_number":6,"verse_key":"89:6","hizb_number":60,"rub_el_hizb_number":237,"ruku_number":533,"manzil_number":7,"sajdah_number":null,"page_number":593,"juz_number":30,"words":[{"id":6346,"position":1,"audio_url":"wbw/089_006_001.mp3","verse_key":"89:6","verse_id":5999,"location":"89:6:1","text_uthmani":"أَلَمْ","qpc_uthmani_hafs":"أَلَمۡ","char_type_name":"word","page_number":593,"line_number":6,"text":"أَلَمۡ","translation":{"text":"Did not","language_name":"english","language_id":38},"transliteration":{"text":"alam","language_name":"english","language_id":38}},{"id":6347,"position":2,"audio_url":"wbw/089_006_002.mp3","verse_key":"89:6","verse_id":5999,"location":"89:6:2","text_uthmani":"تَرَ","qpc_uthmani_hafs":"تَرَ","char_type_name":"word","page_number":593,"line_number":6,"text":"تَرَ","translation":{"text":"you see","language_name":"english","language_id":38},"transliteration":{"text":"tara","language_name":"english","language_id":38}},{"id":6348,"position":3,"audio_url":"wbw/089_006_003.mp3","verse_key":"89:6","verse_id":5999,"location":"89:6:3","text_uthmani":"كَيْفَ","qpc_uthmani_hafs":"كَيۡفَ","char_type_name":"word","page_number":593,"line_number":6,"text":"كَيۡفَ","translation":{"text":"how","language_name":"english","language_id":38},"transliteration":{"text":"kayfa","language_name":"english","language_id":38}},{"id":6349,"position":4,"audio_url":"wbw/089_006_004.mp3","verse_key":"89:6","verse_id":5999,"location":"89:6:4","text_uthmani":"فَعَلَ","qpc_uthmani_hafs":"فَعَلَ","char_type_name":"word","page_number":593,"line_number":6,"text":"فَعَلَ","translation":{"text":"dealt","language_name":"english","language_id":38},"transliteration":{"text":"faʿala","language_name":"english","language_id":38}},{"id":6350,"position":5,"audio_url":"wbw/089_006_005.mp3","verse_key":"89:6","verse_id":5999,"location":"89:6:5","text_uthmani":"رَبُّكَ","qpc_uthmani_hafs":"رَبُّكَ","char_type_name":"word","page_number":593,"line_number":6,"text":"رَبُّكَ","translation":{"text":"your Lord","language_name":"english","language_id":38},"transliteration":{"text":"rabbuka","language_name":"english","language_id":38}},{"id":6351,"position":6,"audio_url":"wbw/089_006_006.mp3","verse_key":"89:6","verse_id":5999,"location":"89:6:6","text_uthmani":"بِعَادٍ","qpc_uthmani_hafs":"بِعَادٍ","char_type_name":"word","page_number":593,"line_number":6,"text":"بِعَادٍ","translation":{"text":"with Aad","language_name":"english","language_id":38},"transliteration":{"text":"biʿādin","language_name":"english","language_id":38}},{"id":6352,"position":7,"audio_url":null,"verse_key":"89:6","verse_id":5999,"location":"89:6:7","text_uthmani":"٦","qpc_uthmani_hafs":"٦","char_type_name":"end","page_number":593,"line_number":6,"text":"٦","translation":{"text":"(6)","language_name":"english","language_id":38},"transliteration":{"text":null,"language_name":"english","language_id":38}}]},{"id":6000,"verse_number":7,"verse_key":"89:7","hizb_number":60,"rub_el_hizb_number":237,"ruku_number":533,"manzil_number":7,"sajdah_number":null,"page_number":593,"juz_number":30,"words":[{"id":7765,"position":1,"audio_url":"wbw/089_007_001.mp3","verse_key":"89:7","verse_id":6000,"location":"89:7:1","text_uthmani":"إِرَمَ","qpc_uthmani_hafs":"إِرَمَ","char_type_name":"word","page_number":593,"line_number":7,"text":"إِرَمَ","translation":{"text":"Iram","language_name":"english","language_id":38},"transliteration":{"text":"irama","language_name":"english","language_id":38}},{"id":7766,"position":2,"audio_url":"wbw/089_007_002.mp3","verse_key":"89:7","verse_id":6000,"location":"89:7:2","text_uthmani":"ذَاتِ","qpc_uthmani_hafs":"ذَاتِ","char_type_name":"word","page_number":593,"line_number":7,"text":"ذَاتِ","translation":{"text":"possessors (of)","language_name":"english","language_id":38},"transliteration":{"text":"dhāti","language_name":"english","language_id":38}},{"id":7767,"position":3,"audio_url":"wbw/089_007_003.mp3","verse_key":"89:7","verse_id":6000,"location":"89:7:3","text_uthmani":"ٱلْعِمَادِ","qpc_uthmani_hafs":"ٱلۡعِمَادِ","char_type_name":"word","page_number":593,"line_number":7,"text":"ٱلۡعِمَادِ","translation":{"text":"lofty pillars","language_name":"english","language_id":38},"transliteration":{"text":"l-ʿimādi","language_name":"english","language_id":38}},{"id":7768,"position":4,"audio_url":null,"verse_key":"89:7","verse_id":6000,"location":"89:7:4","text_uthmani":"٧","qpc_uthmani_hafs":"٧","char_type_name":"end","page_number":593,"line_number":7,"text":"٧","translation":{"text":"(7)","language_name":"english","language_id":38},"transliteration":{"text":null,"language_name":"english","language_id":38}}]},{"id":6001,"verse_number":8,"verse_key":"89:8","hizb_number":60,"rub_el_hizb_number":237,"ruku_number":533,"manzil_number":7,"sajdah_number":null,"page_number":593,"juz_number":30,"words":[{"id":8855,"position":1,"audio_url":"wbw/089_008_001.mp3","verse_key":"89:8","verse_id":6001,"location":"89:8:1","text_uthmani":"ٱلَّتِى","qpc_uthmani_hafs":"ٱلَّتِي","char_type_name":"word","page_number":593,"line_number":7,"text":"ٱلَّتِي","translation":{"text":"Which","language_name":"english","language_id":38},"transliteration":{"text":"allatī","language_name":"english","language_id":38}},{"id":8856,"position":2,"audio_url":"wbw/089_008_002.mp3","verse_key":"89:8","verse_id":6001,"location":"89:8:2","text_uthmani":"لَمْ","qpc_uthmani_hafs":"لَمۡ","char_type_name":"word","page_number":593,"line_number":7,"text":"لَمۡ","translation":{"text":"not","language_name":"english","language_id":38},"transliteration":{"text":"lam","language_name":"english","language_id":38}},{"id":8857,"position":3,"audio_url":"wbw/089_008_003.mp3","verse_key":"89:8","verse_id":6001,"location":"89:8:3","text_uthmani":"يُخْلَقْ","qpc_uthmani_hafs":"يُخۡلَقۡ","char_type_name":"word","page_number":593,"line_number":7,"text":"يُخۡلَقۡ","translation":{"text":"had been created","language_name":"english","language_id":38},"transliteration":{"text":"yukh'laq","language_name":"english","language_id":38}},{"id":8858,"position":4,"audio_url":"wbw/089_008_004.mp3","verse_key":"89:8","verse_id":6001,"location":"89:8:4","text_uthmani":"مِثْلُهَا","qpc_uthmani_hafs":"مِثۡلُهَا","char_type_name":"word","page_number":593,"line_number":7,"text":"مِثۡلُهَا","translation":{"text":"like them","language_name":"english","language_id":38},"transliteration":{"text":"mith'luhā","language_name":"english","language_id":38}},{"id":8859,"position":5,"audio_url":"wbw/089_008_005.mp3","verse_key":"89:8","verse_id":6001,"location":"89:8:5","text_uthmani":"فِى","qpc_uthmani_hafs":"فِي","char_type_name":"word","page_number":593,"line_number":7,"text":"فِي","translation":{"text":"in","language_name":"english","language_id":38},"transliteration":{"text":"fī","language_name":"english","language_id":38}},{"id":8860,"position":6,"audio_url":"wbw/089_008_006.mp3","verse_key":"89:8","verse_id":6001,"location":"89:8:6","text_uthmani":"ٱلْبِلَـٰدِ","qpc_uthmani_hafs":"ٱلۡبِلَٰدِ","char_type_name":"word","page_number":593,"line_number":7,"text":"ٱلۡبِلَٰدِ","translation":{"text":"the cities","language_name":"english","language_id":38},"transliteration":{"text":"l-bilādi","language_name":"english","language_id":38}},{"id":8861,"position":7,"audio_url":null,"verse_key":"89:8","verse_id":6001,"location":"89:8:7","text_uthmani":"٨","qpc_uthmani_hafs":"٨","char_type_name":"end","page_number":593,"line_number":7,"text":"٨","translation":{"text":"(8)","language_name":"english","language_id":38},"transliteration":{"text":null,"language_name":"english","language_id":38}}]},{"id":6002,"verse_number":9,"verse_key":"89:9","hizb_number":60,"rub_el_hizb_number":237,"ruku_number":533,"manzil_number":7,"sajdah_number":null,"page_number":593,"juz_number":30,"words":[{"id":10277,"position":1,"audio_url":"wbw/089_009_001.mp3","verse_key":"89:9","verse_id":6002,"location":"89:9:1","text_uthmani":"وَثَمُودَ","qpc_uthmani_hafs":"وَثَمُودَ","char_type_name":"word","page_number":593,"line_number":7,"text":"وَثَمُودَ","translation":{"text":"And Thamud","language_name":"english","language_id":38},"transliteration":{"text":"wathamūda","language_name":"english","language_id":38}},{"id":10278,"position":2,"audio_url":"wbw/089_009_002.mp3","verse_key":"89:9","verse_id":6002,"location":"89:9:2","text_uthmani":"ٱلَّذِينَ","qpc_uthmani_hafs":"ٱلَّذِينَ","char_type_name":"word","page_number":593,"line_number":7,"text":"ٱلَّذِينَ","translation":{"text":"who","language_name":"english","language_id":38},"transliteration":{"text":"alladhīna","language_name":"english","language_id":38}},{"id":10279,"position":3,"audio_url":"wbw/089_009_003.mp3","verse_key":"89:9","verse_id":6002,"location":"89:9:3","text_uthmani":"جَابُوا۟","qpc_uthmani_hafs":"جَابُواْ","char_type_name":"word","page_number":593,"line_number":8,"text":"جَابُواْ","translation":{"text":"carved out","language_name":"english","language_id":38},"transliteration":{"text":"jābū","language_name":"english","language_id":38}},{"id":10280,"position":4,"audio_url":"wbw/089_009_004.mp3","verse_key":"89:9","verse_id":6002,"location":"89:9:4","text_uthmani":"ٱلصَّخْرَ","qpc_uthmani_hafs":"ٱلصَّخۡرَ","char_type_name":"word","page_number":593,"line_number":8,"text":"ٱلصَّخۡرَ","translation":{"text":"the rocks","language_name":"english","language_id":38},"transliteration":{"text":"l-ṣakhra","language_name":"english","language_id":38}},{"id":10281,"position":5,"audio_url":"wbw/089_009_005.mp3","verse_key":"89:9","verse_id":6002,"location":"89:9:5","text_uthmani":"بِٱلْوَادِ","qpc_uthmani_hafs":"بِٱلۡوَادِ","char_type_name":"word","page_number":593,"line_number":8,"text":"بِٱلۡوَادِ","translation":{"text":"in the valley","language_name":"english","language_id":38},"transliteration":{"text":"bil-wādi","language_name":"english","language_id":38}},{"id":10282,"position":6,"audio_url":null,"verse_key":"89:9","verse_id":6002,"location":"89:9:6","text_uthmani":"٩","qpc_uthmani_hafs":"٩","char_type_name":"end","page_number":593,"line_number":8,"text":"٩","translation":{"text":"(9)","language_name":"english","language_id":38},"transliteration":{"text":null,"language_name":"english","language_id":38}}]},{"id":6003,"verse_number":10,"verse_key":"89:10","hizb_number":60,"rub_el_hizb_number":237,"ruku_number":533,"manzil_number":7,"sajdah_number":null,"page_number":593,"juz_number":30,"words":[{"id":11493,"position":1,"audio_url":"wbw/089_010_001.mp3","verse_key":"89:10","verse_id":6003,"location":"89:10:1","text_uthmani":"وَفِرْعَوْنَ","qpc_uthmani_hafs":"وَفِرۡعَوۡنَ","char_type_name":"word","page_number":593,"line_number":8,"text":"وَفِرۡعَوۡنَ","translation":{"text":"And Firaun","language_name":"english","language_id":38},"transliteration":{"text":"wafir'ʿawna","language_name":"english","language_id":38}},{"id":11494,"position":2,"audio_url":"wbw/089_010_002.mp3","verse_key":"89:10","verse_id":6003,"location":"89:10:2","text_uthmani":"ذِى","qpc_uthmani_hafs":"ذِي","char_type_name":"word","page_number":593,"line_number":8,"text":"ذِي","translation":{"text":"owner of","language_name":"english","language_id":38},"transliteration":{"text":"dhī","language_name":"english","language_id":38}},{"id":11495,"position":3,"audio_url":"wbw/089_010_003.mp3","verse_key":"89:10","verse_id":6003,"location":"89:10:3","text_uthmani":"ٱلْأَوْتَادِ","qpc_uthmani_hafs":"ٱلۡأَوۡتَادِ","char_type_name":"word","page_number":593,"line_number":8,"text":"ٱلۡأَوۡتَادِ","translation":{"text":"stakes","language_name":"english","language_id":38},"transliteration":{"text":"l-awtādi","language_name":"english","language_id":38}},{"id":11496,"position":4,"audio_url":null,"verse_key":"89:10","verse_id":6003,"location":"89:10:4","text_uthmani":"١٠","qpc_uthmani_hafs":"١٠","char_type_name":"end","page_number":593,"line_number":8,"text":"١٠","translation":{"text":"(10)","language_name":"english","language_id":38},"transliteration":{"text":null,"language_name":"english","language_id":38}}]}],"pagination":{"per_page":10,"current_page":1,"next_page":2,"total_pages":3,"total_records":30}}
