{"verses":[{"id":6014,"verse_number":21,"verse_key":"89:21","hizb_number":60,"rub_el_hizb_number":237,"ruku_number":533,"manzil_number":7,"sajdah_number":null,"page_number":593,"juz_number":30,"words":[{"id":23896,"position":1,"audio_url":"wbw/089_021_001.mp3","verse_key":"89:21","verse_id":6014,"location":"89:21:1","text_uthmani":"كَلَّآ","qpc_uthmani_hafs":"كـَلَّآۖ","char_type_name":"word","page_number":593,"line_number":14,"text":"كـَلَّآۖ","translation":{"text":"Nay","language_name":"english","language_id":38},"transliteration":{"text":"kallā","language_name":"english","language_id":38}},{"id":23897,"position":2,"audio_url":"wbw/089_021_002.mp3","verse_key":"89:21","verse_id":6014,"location":"89:21:2","text_uthmani":"إِذَا","qpc_uthmani_hafs":"إِذَا","char_type_name":"word","page_number":593,"line_number":14,"text":"إِذَا","translation":{"text":"When","language_name":"english","language_id":38},"transliteration":{"text":"idhā","language_name":"english","language_id":38}},{"id":23898,"position":3,"audio_url":"wbw/089_021_003.mp3","verse_key":"89:21","verse_id":6014,"location":"89:21:3","text_uthmani":"دُكَّتِ","qpc_uthmani_hafs":"دُكَّتِ","char_type_name":"word","page_number":593,"line_number":15,"text":"دُكَّتِ","translation":{"text":"is leveled","language_name":"english","language_id":38},"transliteration":{"text":"dukkati","language_name":"english","language_id":38}},{"id":23899,"position":4,"audio_url":"wbw/089_021_004.mp3","verse_key":"89:21","verse_id":6014,"location":"89:21:4","text_uthmani":"ٱلْأَرْضُ","qpc_uthmani_hafs":"ٱلۡأَرۡضُ","char_type_name":"word","page_number":593,"line_number":15,"text":"ٱلۡأَرۡضُ","translation":{"text":"the earth","language_name":"english","language_id":38},"transliteration":{"text":"l-arḍu","language_name":"english","language_id":38}},{"id":23900,"position":5,"audio_url":"wbw/089_021_005.mp3","verse_key":"89:21","verse_id":6014,"location":"89:21:5","text_uthmani":"دَكًّۭا","qpc_uthmani_hafs":"دَكّٗا","char_type_name":"word","page_number":593,"line_number":15,"text":"دَكّٗا","translation":{"text":"pounded","language_name":"english","language_id":38},"transliteration":{"text":"dakkan","language_name":"english","language_id":38}},{"id":23901,"position":6,"audio_url":"wbw/089_021_006.mp3","verse_key":"89:21","verse_id":6014,"location":"89:21:6","text_uthmani":"دَكًّۭا","qpc_uthmani_hafs":"دَكّٗا","char_type_name":"word","page_number":593,"line_number":15,"text":"دَكّٗا","translation":{"text":"(and) crushed","language_name":"english","language_id":38},"transliteration":{"text":"dakkan","language_name":"english","language_id":38}},{"id":23902,"position":7,"audio_url":null,"verse_key":"89:21","verse_id":6014,"location":"89:21:7","text_uthmani":"٢١","qpc_uthmani_hafs":"٢١","char_type_name":"end","page_number":593,"line_number":15,"text":"٢١","translation":{"text":"(21)","language_name":"english","language_id":38},"transliteration":{"text":null,"language_name":"english","language_id":38}}]},{"id":6015,"verse_number":22,"verse_key":"89:22","hizb_number":60,"rub_el_hizb_number":237,"ruku_number":533,"manzil_number":7,"sajdah_number":null,"page_number":593,"juz_number":30,"words":[{"id":24835,"position":1,"audio_url":"wbw/089_022_001.mp3","verse_key":"89:22","verse_id":6015,"location":"89:22:1","text_uthmani":"وَجَآءَ","qpc_uthmani_hafs":"وَجَآءَ","char_type_name":"word","page_number":593,"line_number":15,"text":"وَجَآءَ","translation":{"text":"And comes","language_name":"english","language_id":38},"transliteration":{"text":"wajāa","language_name":"english","language_id":38}},{"id":24836,"position":2,"audio_url":"wbw/089_022_002.mp3","verse_key":"89:22","verse_id":6015,"location":"89:22:2","text_uthmani":"رَبُّكَ","qpc_uthmani_hafs":"رَبُّكَ","char_type_name":"word","page_number":593,"line_number":15,"text":"رَبُّكَ","translation":{"text":"your Lord","language_name":"english","language_id":38},"transliteration":{"text":"rabbuka","language_name":"english","language_id":38}},{"id":24837,"position":3,"audio_url":"wbw/089_022_003.mp3","verse_key":"89:22","verse_id":6015,"location":"89:22:3","text_uthmani":"وَٱلْمَلَكُ","qpc_uthmani_hafs":"وَٱلۡمَلَكُ","char_type_name":"word","page_number":593,"line_number":15,"text":"وَٱلۡمَلَكُ","translation":{"text":"and the Angels","language_name":"english","language_id":38},"transliteration":{"text":"wal-malaku","language_name":"english","language_id":38}},{"id":24838,"position":4,"audio_url":"wbw/089_022_004.mp3","verse_key":"89:22","verse_id":6015,"location":"89:22:4","text_uthmani":"صَفًّۭا","qpc_uthmani_hafs":"صَفّٗا","char_type_name":"word","page_number":593,"line_number":15,"text":"صَفّٗا","translation":{"text":"rank","language_name":"english","language_id":38},"transliteration":{"text":"ṣaffan","language_name":"english","language_id":38}},{"id":24839,"position":5,"audio_url":"wbw/089_022_005.mp3","verse_key":"89:22","verse_id":6015,"location":"89:22:5","text_uthmani":"صَفًّۭا","qpc_uthmani_hafs":"صَفّٗا","char_type_name":"word","page_number":593,"line_number":15,"text":"صَفّٗا","translation":{"text":"(upon) rank","language_name":"english","language_id":38},"transliteration":{"text":"ṣaffan","language_name":"english","language_id":38}},{"id":24840,"position":6,"audio_url":null,"verse_key":"89:22","verse_id":6015,"location":"89:22:6","text_uthmani":"٢٢","qpc_uthmani_hafs":"٢٢","char_type_name":"end","page_number":593,"line_number":15,"text":"٢٢","translation":{"text":"(22)","language_name":"english","language_id":38},"transliteration":{"text":null,"language_name":"english","language_id":38}}]},{"id":6016,"verse_number":23,"verse_key":"89:23","hizb_number":60,"rub_el_hizb_number":237,"ruku_number":533,"manzil_number":7,"sajdah_number":null,"page_number":594,"juz_number":30,"words":[{"id":26012,"position":1,"audio_url":"wbw/089_023_001.mp3","verse_key":"89:23","verse_id":6016,"location":"89:23:1","text_uthmani":"وَجِا۟ىٓءَ","qpc_uthmani_hafs":"وَجِاْيٓءَ","char_type_name":"word","page_number":594,"line_number":1,"text":"وَجِاْيٓءَ","translation":{"text":"And is brought","language_name":"english","language_id":38},"transliteration":{"text":"wajīa","language_name":"english","language_id":38}},{"id":26013,"position":2,"audio_url":"wbw/089_023_002.mp3","verse_key":"89:23","verse_id":6016,"location":"89:23:2","text_uthmani":"يَوْمَئِذٍۭ","qpc_uthmani_hafs":"يَوۡمَئِذِۭ","char_type_name":"word","page_number":594,"line_number":1,"text":"يَوۡمَئِذِۭ","translation":{"text":"that Day","language_name":"english","language_id":38},"transliteration":{"text":"yawma-idhin","language_name":"english","language_id":38}},{"id":26014,"position":3,"audio_url":"wbw/089_023_003.mp3","verse_key":"89:23","verse_id":6016,"location":"89:23:3","text_uthmani":"بِجَهَنَّمَ ۚ","qpc_uthmani_hafs":"بِجَهَنَّمَۚ","char_type_name":"word","page_number":594,"line_number":1,"text":"بِجَهَنَّمَۚ","translation":{"text":"Hell","language_name":"english","language_id":38},"transliteration":{"text":"bijahannama","language_name":"english","language_id":38}},{"id":26016,"position":4,"audio_url":"wbw/089_023_005.mp3","verse_key":"89:23","verse_id":6016,"location":"89:23:4","text_uthmani":"يَوْمَئِذٍۢ","qpc_uthmani_hafs":"يَوۡمَئِذٖ","char_type_name":"word","page_number":594,"line_number":1,"text":"يَوۡمَئِذٖ","translation":{"text":"That Day","language_name":"english","language_id":38},"transliteration":{"text":"yawma-idhin","language_name":"english","language_id":38}},{"id":26017,"position":5,"audio_url":"wbw/089_023_006.mp3","verse_key":"89:23","verse_id":6016,"location":"89:23:5","text_uthmani":"يَتَذَكَّرُ","qpc_uthmani_hafs":"يَتَذَكَّرُ","char_type_name":"word","page_number":594,"line_number":1,"text":"يَتَذَكَّرُ","translation":{"text":"will remember","language_name":"english","language_id":38},"transliteration":{"text":"yatadhakkaru","language_name":"english","language_id":38}},{"id":26018,"position":6,"audio_url":"wbw/089_023_007.mp3","verse_key":"89:23","verse_id":6016,"location":"89:23:6","text_uthmani":"ٱلْإِنسَـٰنُ","qpc_uthmani_hafs":"ٱلۡإِنسَٰنُ","char_type_name":"word","page_number":594,"line_number":1,"text":"ٱلۡإِنسَٰنُ","translation":{"text":"man","language_name":"english","language_id":38},"transliteration":{"text":"l-insānu","language_name":"english","language_id":38}},{"id":26019,"position":7,"audio_url":"wbw/089_023_008.mp3","verse_key":"89:23","verse_id":6016,"location":"89:23:7","text_uthmani":"وَأَنَّىٰ","qpc_uthmani_hafs":"وَأَنَّىٰ","char_type_name":"word","page_number":594,"line_number":1,"text":"وَأَنَّىٰ","translation":{"text":"but how","language_name":"english","language_id":38},"transliteration":{"text":"wa-annā","language_name":"english","language_id":38}},{"id":26020,"position":8,"audio_url":"wbw/089_023_009.mp3","verse_key":"89:23","verse_id":6016,"location":"89:23:8","text_uthmani":"لَهُ","qpc_uthmani_hafs":"لَهُ","char_type_name":"word","page_number":594,"line_number":2,"text":"لَهُ","translation":{"text":"(will be) for him","language_name":"english","language_id":38},"transliteration":{"text":"lahu","language_name":"english","language_id":38}},{"id":26021,"position":9,"audio_url":"wbw/089_023_010.mp3","verse_key":"89:23","verse_id":6016,"location":"89:23:9","text_uthmani":"ٱلذِّكْرَىٰ","qpc_uthmani_hafs":"ٱلذِّكۡرَىٰ","char_type_name":"word","page_number":594,"line_number":2,"text":"ٱلذِّكۡرَىٰ","translation":{"text":"the remembrance","language_name":"english","language_id":38},"transliteration":{"text":"l-dhik'rā","language_name":"english","language_id":38}},{"id":26022,"position":10,"audio_url":null,"verse_key":"89:23","verse_id":6016,"location":"89:23:10","text_uthmani":"٢٣","qpc_uthmani_hafs":"٢٣","char_type_name":"end","page_number":594,"line_number":2,"text":"٢٣","translation":{"text":"(23)","language_name":"english","language_id":38},"transliteration":{"text":null,"language_name":"english","language_id":38}}]},{"id":6017,"verse_number":24,"verse_key":"89:24","hizb_number":60,"rub_el_hizb_number":237,"ruku_number":533,"manzil_number":7,"sajdah_number":null,"page_number":594,"juz_number":30,"words":[{"id":27112,"position":1,"audio_url":"wbw/089_024_001.mp3","verse_key":"89:24","verse_id":6017,"location":"89:24:1","text_uthmani":"يَقُولُ","qpc_uthmani_hafs":"يَقُولُ","char_type_name":"word","page_number":594,"line_number":2,"text":"يَقُولُ","translation":{"text":"He will say","language_name":"english","language_id":38},"transliteration":{"text":"yaqūlu","language_name":"english","language_id":38}},{"id":27113,"position":2,"audio_url":"wbw/089_024_002.mp3","verse_key":"89:24","verse_id":6017,"location":"89:24:2","text_uthmani":"يَـٰلَيْتَنِى","qpc_uthmani_hafs":"يَٰلَيۡتَنِي","char_type_name":"word","page_number":594,"line_number":2,"text":"يَٰلَيۡتَنِي","translation":{"text":"O I wish","language_name":"english","language_id":38},"transliteration":{"text":"yālaytanī","language_name":"english","language_id":38}},{"id":27114,"position":3,"audio_url":"wbw/089_024_003.mp3","verse_key":"89:24","verse_id":6017,"location":"89:24:3","text_uthmani":"قَدَّمْتُ","qpc_uthmani_hafs":"قَدَّمۡتُ","char_type_name":"word","page_number":594,"line_number":2,"text":"قَدَّمۡتُ","translation":{"text":"I had sent forth","language_name":"english","language_id":38},"transliteration":{"text":"qaddamtu","language_name":"english","language_id":38}},{"id":27115,"position":4,"audio_url":"wbw/089_024_004.mp3","verse_key":"89:24","verse_id":6017,"location":"89:24:4","text_uthmani":"لِحَيَاتِى","qpc_uthmani_hafs":"لِحَيَاتِي","char_type_name":"word","page_number":594,"line_number":2,"text":"لِحَيَاتِي","translation":{"text":"for my life","language_name":"english","language_id":38},"transliteration":{"text":"liḥayātī","language_name":"english","language_id":38}},{"id":27116,"position":5,"audio_url":null,"verse_key":"89:24","verse_id":6017,"location":"89:24:5","text_uthmani":"٢٤","qpc_uthmani_hafs":"٢٤","char_type_name":"end","page_number":594,"line_number":2,"text":"٢٤","translation":{"text":"(24)","language_name":"english","language_id":38},"transliteration":{"text":null,"language_name":"english","language_id":38}}]},{"id":6018,"verse_number":25,"verse_key":"89:25","hizb_number":60,"rub_el_hizb_number":237,"ruku_number":533,"manzil_number":7,"sajdah_number":null,"page_number":594,"juz_number":30,"words":[{"id":27903,"position":1,"audio_url":"wbw/089_025_001.mp3","verse_key":"89:25","verse_id":6018,"location":"89:25:1","text_uthmani":"فَيَوْمَئِذٍۢ","qpc_uthmani_hafs":"فَيَوۡمَئِذٖ","char_type_name":"word","page_number":594,"line_number":2,"text":"فَيَوۡمَئِذٖ","translation":{"text":"So that Day","language_name":"english","language_id":38},"transliteration":{"text":"fayawma-idhin","language_name":"english","language_id":38}},{"id":27904,"position":2,"audio_url":"wbw/089_025_002.mp3","verse_key":"89:25","verse_id":6018,"location":"89:25:2","text_uthmani":"لَّا","qpc_uthmani_hafs":"لَّا","char_type_name":"word","page_number":594,"line_number":3,"text":"لَّا","translation":{"text":"not","language_name":"english","language_id":38},"transliteration":{"text":"lā","language_name":"english","language_id":38}},{"id":27905,"position":3,"audio_url":"wbw/089_025_003.mp3","verse_key":"89:25","verse_id":6018,"location":"89:25:3","text_uthmani":"يُعَذِّبُ","qpc_uthmani_hafs":"يُعَذِّبُ","char_type_name":"word","page_number":594,"line_number":3,"text":"يُعَذِّبُ","translation":{"text":"will punish","language_name":"english","language_id":38},"transliteration":{"text":"yuʿadhibu","language_name":"english","language_id":38}},{"id":27906,"position":4,"audio_url":"wbw/089_025_004.mp3","verse_key":"89:25","verse_id":6018,"location":"89:25:4","text_uthmani":"عَذَابَهُۥٓ","qpc_uthmani_hafs":"عَذَابَهُۥٓ","char_type_name":"word","page_number":594,"line_number":3,"text":"عَذَابَهُۥٓ","translation":{"text":"(as) His punishment","language_name":"english","language_id":38},"transliteration":{"text":"ʿadhābahu","language_name":"english","language_id":38}},{"id":27907,"position":5,"audio_url":"wbw/089_025_005.mp3","verse_key":"89:25","verse_id":6018,"location":"89:25:5","text_uthmani":"أَحَدٌۭ","qpc_uthmani_hafs":"أَحَدٞ","char_type_name":"word","page_number":594,"line_number":3,"text":"أَحَدٞ","translation":{"text":"anyone","language_name":"english","language_id":38},"transliteration":{"text":"aḥadun","language_name":"english","language_id":38}},{"id":27908,"position":6,"audio_url":null,"verse_key":"89:25","verse_id":6018,"location":"89:25:6","text_uthmani":"٢٥","qpc_uthmani_hafs":"٢٥","char_type_name":"end","page_number":594,"line_number":3,"text":"٢٥","translation":{"text":"(25)","language_name":"english","language_id":38},"transliteration":{"text":null,"language_name":"english","language_id":38}}]},{"id":6019,"verse_number":26,"verse_key":"89:26","hizb_number":60,"rub_el_hizb_number":237,"ruku_number":533,"manzil_number":7,"sajdah_number":null,"page_number":594,"juz_number":30,"words":[{"id":29112,"position":1,"audio_url":"wbw/089_026_001.mp3","verse_key":"89:26","verse_id":6019,"location":"89:26:1","text_uthmani":"وَلَا","qpc_uthmani_hafs":"وَلَا","char_type_name":"word","page_number":594,"line_number":3,"text":"وَلَا","translation":{"text":"And not","language_name":"english","language_id":38},"transliteration":{"text":"walā","language_name":"english","language_id":38}},{"id":29113,"position":2,"audio_url":"wbw/089_026_002.mp3","verse_key":"89:26","verse_id":6019,"location":"89:26:2","text_uthmani":"يُوثِقُ","qpc_uthmani_hafs":"يُوثِقُ","char_type_name":"word","page_number":594,"line_number":3,"text":"يُوثِقُ","translation":{"text":"will bind","language_name":"english","language_id":38},"transliteration":{"text":"yūthiqu","language_name":"english","language_id":38}},{"id":29114,"position":3,"audio_url":"wbw/089_026_003.mp3","verse_key":"89:26","verse_id":6019,"location":"89:26:3","text_uthmani":"وَثَاقَهُۥٓ","qpc_uthmani_hafs":"وَثَاقَهُۥٓ","char_type_name":"word","page_number":594,"line_number":3,"text":"وَثَاقَهُۥٓ","translation":{"text":"(as) His binding","language_name":"english","language_id":38},"transliteration":{"text":"wathāqahu","language_name":"english","language_id":38}},{"id":29115,"position":4,"audio_url":"wbw/089_026_004.mp3","verse_key":"89:26","verse_id":6019,"location":"89:26:4","text_uthmani":"أَحَدٌۭ","qpc_uthmani_hafs":"أَحَدٞ","char_type_name":"word","page_number":594,"line_number":3,"text":"أَحَدٞ","translation":{"text":"anyone","language_name":"english","language_id":38},"transliteration":{"text":"aḥadun","language_name":"english","language_id":38}},{"id":29116,"position":5,"audio_url":null,"verse_key":"89:26","verse_id":6019,"location":"89:26:5","text_uthmani":"٢٦","qpc_uthmani_hafs":"٢٦","char_type_name":"end","page_number":594,"line_number":3,"text":"٢٦","translation":{"text":"(26)","language_name":"english","language_id":38},"transliteration":{"text":null,"language_name":"english","language_id":38}}]},{"id":6020,"verse_number":27,"verse_key":"89:27","hizb_number":60,"rub_el_hizb_number":237,"ruku_number":533,"manzil_number":7,"sajdah_number":null,"page_number":594,"juz_number":30,"words":[{"id":29759,"position":1,"audio_url":"wbw/089_027_001.mp3","verse_key":"89:27","verse_id":6020,"location":"89:27:1","text_uthmani":"يَـٰٓأَيَّتُهَا","qpc_uthmani_hafs":"يَٰٓأَيَّتُهَا","char_type_name":"word","page_number":594,"line_number":3,"text":"يَٰٓأَيَّتُهَا","translation":{"text":"O","language_name":"english","language_id":38},"transliteration":{"text":"yāayyatuhā","language_name":"english","language_id":38}},{"id":29760,"position":2,"audio_url":"wbw/089_027_002.mp3","verse_key":"89:27","verse_id":6020,"location":"89:27:2","text_uthmani":"ٱلنَّفْسُ","qpc_uthmani_hafs":"ٱلنَّفۡسُ","char_type_name":"word","page_number":594,"line_number":4,"text":"ٱلنَّفۡسُ","translation":{"text":"soul","language_name":"english","language_id":38},"transliteration":{"text":"l-nafsu","language_name":"english","language_id":38}},{"id":29761,"position":3,"audio_url":"wbw/089_027_003.mp3","verse_key":"89:27","verse_id":6020,"location":"89:27:3","text_uthmani":"ٱلْمُطْمَئِنَّةُ","qpc_uthmani_hafs":"ٱلۡمُطۡمَئِنَّةُ","char_type_name":"word","page_number":594,"line_number":4,"text":"ٱلۡمُطۡمَئِنَّةُ","translation":{"text":"who is satisfied","language_name":"english","language_id":38},"transliteration":{"text":"l-muṭ'ma-inatu","language_name":"english","language_id":38}},{"id":29762,"position":4,"audio_url":null,"verse_key":"89:27","verse_id":6020,"location":"89:27:4","text_uthmani":"٢٧","qpc_uthmani_hafs":"٢٧","char_type_name":"end","page_number":594,"line_number":4,"text":"٢٧","translation":{"text":"(27)","language_name":"english","language_id":38},"transliteration":{"text":null,"language_name":"english","language_id":38}}]},{"id":6021,"verse_number":28,"verse_key":"89:28","hizb_number":60,"rub_el_hizb_number":237,"ruku_number":533,"manzil_number":7,"sajdah_number":null,"page_number":594,"juz_number":30,"words":[{"id":31092,"position":1,"audio_url":"wbw/089_028_001.mp3","verse_key":"89:28","verse_id":6021,"location":"89:28:1","text_uthmani":"ٱرْجِعِىٓ","qpc_uthmani_hafs":"ٱرۡجِعِيٓ","char_type_name":"word","page_number":594,"line_number":4,"text":"ٱرۡجِعِيٓ","translation":{"text":"Return","language_name":"english","language_id":38},"transliteration":{"text":"ir'jiʿī","language_name":"english","language_id":38}},{"id":31093,"position":2,"audio_url":"wbw/089_028_002.mp3","verse_key":"89:28","verse_id":6021,"location":"89:28:2","text_uthmani":"إِلَىٰ","qpc_uthmani_hafs":"إِلَىٰ","char_type_name":"word","page_number":594,"line_number":4,"text":"إِلَىٰ","translation":{"text":"to","language_name":"english","language_id":38},"transliteration":{"text":"ilā","language_name":"english","language_id":38}},{"id":31094,"position":3,"audio_url":"wbw/089_028_003.mp3","verse_key":"89:28","verse_id":6021,"location":"89:28:3","text_uthmani":"رَبِّكِ","qpc_uthmani_hafs":"رَبِّكِ","char_type_name":"word","page_number":594,"line_number":4,"text":"رَبِّكِ","translation":{"text":"your Lord","language_name":"english","language_id":38},"transliteration":{"text":"rabbiki","language_name":"english","language_id":38}},{"id":31095,"position":4,"audio_url":"wbw/089_028_004.mp3","verse_key":"89:28","verse_id":6021,"location":"89:28:4","text_uthmani":"رَاضِيَةًۭ","qpc_uthmani_hafs":"رَاضِيَةٗ","char_type_name":"word","page_number":594,"line_number":4,"text":"رَاضِيَةٗ","translation":{"text":"well pleased","language_name":"english","language_id":38},"transliteration":{"text":"rāḍiyatan","language_name":"english","language_id":38}},{"id":31096,"position":5,"audio_url":"wbw/089_028_005.mp3","verse_key":"89:28","verse_id":6021,"location":"89:28:5","text_uthmani":"مَّرْضِيَّةًۭ","qpc_uthmani_hafs":"مَّرۡضِيَّةٗ","char_type_name":"word","page_number":594,"line_number":4,"text":"مَّرۡضِيَّةٗ","translation":{"text":"and pleasing","language_name":"english","language_id":38},"transliteration":{"text":"marḍiyyatan","language_name":"english","language_id":38}},{"id":31097,"position":6,"audio_url":null,"verse_key":"89:28","verse_id":6021,"location":"89:28:6","text_uthmani":"٢٨","qpc_uthmani_hafs":"٢٨","char_type_name":"end","page_number":594,"line_number":4,"text":"٢٨","translation":{"text":"(28)","language_name":"english","language_id":38},"transliteration":{"text":null,"language_name":"english","language_id":38}}]},{"id":6022,"verse_number":29,"verse_key":"89:29","hizb_number":60,"rub_el_hizb_number":237,"ruku_number":533,"manzil_number":7,"sajdah_number":null,"page_number":594,"juz_number":30,"words":[{"id":32080,"position":1,"audio_url":"wbw/089_029_001.mp3","verse_key":"89:29","verse_id":6022,"location":"89:29:1","text_uthmani":"فَٱدْخُلِى","qpc_uthmani_hafs":"فَٱدۡخُلِي","char_type_name":"word","page_number":594,"line_number":5,"text":"فَٱدۡخُلِي","translation":{"text":"So enter","language_name":"english","language_id":38},"transliteration":{"text":"fa-ud'khulī","language_name":"english","language_id":38}},{"id":32081,"position":2,"audio_url":"wbw/089_029_002.mp3","verse_key":"89:29","verse_id":6022,"location":"89:29:2","text_uthmani":"فِى","qpc_uthmani_hafs":"فِي","char_type_name":"word","page_number":594,"line_number":5,"text":"فِي","translation":{"text":"among","language_name":"english","language_id":38},"transliteration":{"text":"fī","language_name":"english","language_id":38}},{"id":32082,"position":3,"audio_url":"wbw/089_029_003.mp3","verse_key":"89:29","verse_id":6022,"location":"89:29:3","text_uthmani":"عِبَـٰدِى","qpc_uthmani_hafs":"عِبَٰدِي","char_type_name":"word","page_number":594,"line_number":5,"text":"عِبَٰدِي","translation":{"text":"My slaves","language_name":"english","language_id":38},"transliteration":{"text":"ʿibādī","language_name":"english","language_id":38}},{"id":32083,"position":4,"audio_url":null,"verse_key":"89:29","verse_id":6022,"location":"89:29:4","text_uthmani":"٢٩","qpc_uthmani_hafs":"٢٩","char_type_name":"end","page_number":594,"line_number":5,"text":"٢٩","translation":{"text":"(29)","language_name":"english","language_id":38},"transliteration":{"text":null,"language_name":"english","language_id":38}}]},{"id":6023,"verse_number":30,"verse_key":"89:30","hizb_number":60,"rub_el_hizb_number":237,"ruku_number":533,"manzil_number":7,"sajdah_number":null,"page_number":594,"juz_number":30,"words":[{"id":32625,"position":1,"audio_url":"wbw/089_030_001.mp3","verse_key":"89:30","verse_id":6023,"location":"89:30:1","text_uthmani":"وَٱدْخُلِى","qpc_uthmani_hafs":"وَٱدۡخُلِي","char_type_name":"word","page_number":594,"line_number":5,"text":"وَٱدۡخُلِي","translation":{"text":"And enter","language_name":"english","language_id":38},"transliteration":{"text":"wa-ud'khulī","language_name":"english","language_id":38}},{"id":32626,"position":2,"audio_url":"wbw/089_030_002.mp3","verse_key":"89:30","verse_id":6023,"location":"89:30:2","text_uthmani":"جَنَّتِى","qpc_uthmani_hafs":"جَنَّتِي","char_type_name":"word","page_number":594,"line_number":5,"text":"جَنَّتِي","translation":{"text":"My Paradise","language_name":"english","language_id":38},"transliteration":{"text":"jannatī","language_name":"english","language_id":38}},{"id":32627,"position":3,"audio_url":null,"verse_key":"89:30","verse_id":6023,"location":"89:30:3","text_uthmani":"٣٠","qpc_uthmani_hafs":"٣٠","char_type_name":"end","page_number":594,"line_number":5,"text":"٣٠","translation":{"text":"(30)","language_name":"english","language_id":38},"transliteration":{"text":null,"language_name":"english","language_id":38}}]}],"pagination":{"per_page":10,"current_page":3,"next_page":null,"total_pages":3,"total_records":30}}
