{"verses":[{"id":6147,"verse_number":1,"verse_key":"100:1","hizb_number":60,"rub_el_hizb_number":239,"ruku_number":544,"manzil_number":7,"sajdah_number":null,"page_number":599,"juz_number":30,"words":[{"id":13,"position":1,"audio_url":"wbw/100_001_001.mp3","char_type_name":"word","page_number":599,"line_number":14,"text":"وَٱلْعَـٰدِيَـٰتِ","translation":{"text":"শপথ ধাবমান (ঘোড়াগুলোর)","language_name":"bengali","language_id":20},"transliteration":{"text":"wal-ʿādiyāti","language_name":"english","language_id":38}},{"id":14,"position":2,"audio_url":"wbw/100_001_002.mp3","char_type_name":"word","page_number":599,"line_number":14,"text":"ضَبْحًۭا","translation":{"text":"(যারা দৌঁড়ায়) উর্ধ্বশ্বাসে","language_name":"bengali","language_id":20},"transliteration":{"text":"ḍabḥan","language_name":"english","language_id":38}},{"id":15,"position":3,"audio_url":null,"char_type_name":"end","page_number":599,"line_number":14,"text":"١","translation":{"text":"(১)","language_name":"bengali","language_id":20},"transliteration":{"text":null,"language_name":"english","language_id":38}}]},{"id":6148,"verse_number":2,"verse_key":"100:2","hizb_number":60,"rub_el_hizb_number":239,"ruku_number":544,"manzil_number":7,"sajdah_number":null,"page_number":599,"juz_number":30,"words":[{"id":1941,"position":1,"audio_url":"wbw/100_002_001.mp3","char_type_name":"word","page_number":599,"line_number":14,"text":"فَٱلْمُورِيَـٰتِ","translation":{"text":"অতঃপর যারা বিচ্ছুরিত করে","language_name":"bengali","language_id":20},"transliteration":{"text":"fal-mūriyāti","language_name":"english","language_id":38}},{"id":1942,"position":2,"audio_url":"wbw/100_002_002.mp3","char_type_name":"word","page_number":599,"line_number":14,"text":"قَدْحًۭا","translation":{"text":"(ক্ষুরাঘাতে) আগুনের ফুলকি","language_name":"bengali","language_id":20},"transliteration":{"text":"qadḥan","language_name":"english","language_id":38}},{"id":1943,"position":3,"audio_url":null,"char_type_name":"end","page_number":599,"line_number":14,"text":"٢","translation":{"text":"(২)","language_name":"bengali","language_id":20},"transliteration":{"text":null,"language_name":"english","language_id":38}}]},{"id":6149,"verse_number":3,"verse_key":"100:3","hizb_number":60,"rub_el_hizb_number":239,"ruku_number":544,"manzil_number":7,"sajdah_number":null,"page_number":599,"juz_number":30,"words":[{"id":3166,"position":1,"audio_url":"wbw/100_003_001.mp3","char_type_name":"word","page_number":599,"line_number":14,"text":"فَٱلْمُغِيرَٰتِ","translation":{"text":"অতঃপর যারা অভিযান চালায়","language_name":"bengali","language_id":20},"transliteration":{"text":"fal-mughīrāti","language_name":"english","language_id":38}},{"id":3167,"position":2,"audio_url":"wbw/100_003_002.mp3","char_type_name":"word","page_number":599,"line_number":15,"text":"صُبْحًۭا","translation":{"text":"প্রভাতে","language_name":"bengali","language_id":20},"transliteration":{"text":"ṣub'ḥan","language_name":"english","language_id":38}},{"id":3168,"position":3,"audio_url":null,"char_type_name":"end","page_number":599,"line_number":15,"text":"٣","translation":{"text":"(৩)","language_name":"bengali","language_id":20},"transliteration":{"text":null,"language_name":"english","language_id":38}}]},{"id":6150,"verse_number":4,"verse_key":"100:4","hizb_number":60,"rub_el_hizb_number":239,"ruku_number":544,"manzil_number":7,"sajdah_number":null,"page_number":599,"juz_number":30,"words":[{"id":4469,"position":1,"audio_url":"wbw/100_004_001.mp3","char_type_name":"word","page_number":599,"line_number":15,"text":"فَأَثَرْنَ","translation":{"text":"অতঃপর উড়ায়","language_name":"bengali","language_id":20},"transliteration":{"text":"fa-atharna","language_name":"english","language_id":38}},{"id":4470,"position":2,"audio_url":"wbw/100_004_002.mp3","char_type_name":"word","page_number":599,"line_number":15,"text":"بِهِۦ","translation":{"text":"এভাবে","language_name":"bengali","language_id":20},"transliteration":{"text":"bihi","language_name":"english","language_id":38}},{"id":4471,"position":3,"audio_url":"wbw/100_004_003.mp3","char_type_name":"word","page_number":599,"line_number":15,"text":"نَقْعًۭا","translation":{"text":"ধুলোবালি","language_name":"bengali","language_id":20},"transliteration":{"text":"naqʿan","language_name":"english","language_id":38}},{"id":4472,"position":4,"audio_url":null,"char_type_name":"end","page_number":599,"line_number":15,"text":"٤","translation":{"text":"(৪)","language_name":"bengali","language_id":20},"transliteration":{"text":null,"language_name":"english","language_id":38}}]},{"id":6151,"verse_number":5,"verse_key":"100:5","hizb_number":60,"rub_el_hizb_number":239,"ruku_number":544,"manzil_number":7,"sajdah_number":null,"page_number":599,"juz_number":30,"words":[{"id":5794,"position":1,"audio_url":"wbw/100_005_001.mp3","char_type_name":"word","page_number":599,"line_number":15,"text":"فَوَسَطْنَ","translation":{"text":"অতঃপর (ঢুকে পড়ে) অভ্যন্তরে","language_name":"bengali","language_id":20},"transliteration":{"text":"fawasaṭna","language_name":"english","language_id":38}},{"id":5795,"position":2,"audio_url":"wbw/100_005_002.mp3","char_type_name":"word","page_number":599,"line_number":15,"text":"بِهِۦ","translation":{"text":"এভাবে","language_name":"bengali","language_id":20},"transliteration":{"text":"bihi","language_name":"english","language_id":38}},{"id":5796,"position":3,"audio_url":"wbw/100_005_003.mp3","char_type_name":"word","page_number":599,"line_number":15,"text":"جَمْعًا","translation":{"text":"(শত্রু)দলে","language_name":"bengali","language_id":20},"transliteration":{"text":"jamʿan","language_name":"english","language_id":38}},{"id":5797,"position":4,"audio_url":null,"char_type_name":"end","page_number":599,"line_number":15,"text":"٥","translation":{"text":"(৫)","language_name":"bengali","language_id":20},"transliteration":{"text":null,"language_name":"english","language_id":38}}]},{"id":6152,"verse_number":6,"verse_key":"100:6","hizb_number":60,"rub_el_hizb_number":239,"ruku_number":544,"manzil_number":7,"sajdah_number":null,"page_number":600,"juz_number":30,"words":[{"id":7117,"position":1,"audio_url":"wbw/100_006_001.mp3","char_type_name":"word","page_number":600,"line_number":1,"text":"إِنَّ","translation":{"text":"নিশ্চয়ই","language_name":"bengali","language_id":20},"transliteration":{"text":"inna","language_name":"english","language_id":38}},{"id":7118,"position":2,"audio_url":"wbw/100_006_002.mp3","char_type_name":"word","page_number":600,"line_number":1,"text":"ٱلْإِنسَـٰنَ","translation":{"text":"মানুষ","language_name":"bengali","language_id":20},"transliteration":{"text":"l-insāna","language_name":"english","language_id":38}},{"id":7119,"position":3,"audio_url":"wbw/100_006_003.mp3","char_type_name":"word","page_number":600,"line_number":1,"text":"لِرَبِّهِۦ","translation":{"text":"তার রবের প্রতি","language_name":"bengali","language_id":20},"transliteration":{"text":"lirabbihi","language_name":"english","language_id":38}},{"id":7120,"position":4,"audio_url":"wbw/100_006_004.mp3","char_type_name":"word","page_number":600,"line_number":1,"text":"لَكَنُودٌۭ","translation":{"text":"অবশ্যই অকৃতজ্ঞ","language_name":"bengali","language_id":20},"transliteration":{"text":"lakanūdun","language_name":"english","language_id":38}},{"id":7121,"position":5,"audio_url":null,"char_type_name":"end","page_number":600,"line_number":1,"text":"٦","translation":{"text":"(৬)","language_name":"bengali","language_id":20},"transliteration":{"text":null,"language_name":"english","language_id":38}}]},{"id":6153,"verse_number":7,"verse_key":"100:7","hizb_number":60,"rub_el_hizb_number":239,"ruku_number":544,"manzil_number":7,"sajdah_number":null,"page_number":600,"juz_number":30,"words":[{"id":8429,"position":1,"audio_url":"wbw/100_007_001.mp3","char_type_name":"word","page_number":600,"line_number":1,"text":"وَإِنَّهُۥ","translation":{"text":"এবং সে নিশ্চয়ই","language_name":"bengali","language_id":20},"transliteration":{"text":"wa-innahu","language_name":"english","language_id":38}},{"id":8430,"position":2,"audio_url":"wbw/100_007_002.mp3","char_type_name":"word","page_number":600,"line_number":1,"text":"عَلَىٰ","translation":{"text":"বিষয়ে","language_name":"bengali","language_id":20},"transliteration":{"text":"ʿalā","language_name":"english","language_id":38}},{"id":8431,"position":3,"audio_url":"wbw/100_007_003.mp3","char_type_name":"word","page_number":600,"line_number":1,"text":"ذَٰلِكَ","translation":{"text":"এর","language_name":"bengali","language_id":20},"transliteration":{"text":"dhālika","language_name":"english","language_id":38}},{"id":8432,"position":4,"audio_url":"wbw/100_007_004.mp3","char_type_name":"word","page_number":600,"line_number":1,"text":"لَشَهِيدٌۭ","translation":{"text":"অবশ্যই সাক্ষী","language_name":"bengali","language_id":20},"transliteration":{"text":"lashahīdun","language_name":"english","language_id":38}},{"id":8433,"position":5,"audio_url":null,"char_type_name":"end","page_number":600,"line_number":1,"text":"٧","translation":{"text":"(৭)","language_name":"bengali","language_id":20},"transliteration":{"text":null,"language_name":"english","language_id":38}}]},{"id":6154,"verse_number":8,"verse_key":"100:8","hizb_number":60,"rub_el_hizb_number":239,"ruku_number":544,"manzil_number":7,"sajdah_number":null,"page_number":600,"juz_number":30,"words":[{"id":9582,"position":1,"audio_url":"wbw/100_008_001.mp3","char_type_name":"word","page_number":600,"line_number":1,"text":"وَإِنَّهُۥ","translation":{"text":"এবং নিশ্চয়ই সে","language_name":"bengali","language_id":20},"transliteration":{"text":"wa-innahu","language_name":"english","language_id":38}},{"id":9583,"position":2,"audio_url":"wbw/100_008_002.mp3","char_type_name":"word","page_number":600,"line_number":1,"text":"لِحُبِّ","translation":{"text":"মহব্বতের ক্ষেত্রে","language_name":"bengali","language_id":20},"transliteration":{"text":"liḥubbi","language_name":"english","language_id":38}},{"id":9584,"position":3,"audio_url":"wbw/100_008_003.mp3","char_type_name":"word","page_number":600,"line_number":2,"text":"ٱلْخَيْرِ","translation":{"text":"ধন-সম্পদের","language_name":"bengali","language_id":20},"transliteration":{"text":"l-khayri","language_name":"english","language_id":38}},{"id":9585,"position":4,"audio_url":"wbw/100_008_004.mp3","char_type_name":"word","page_number":600,"line_number":2,"text":"لَشَدِيدٌ","translation":{"text":"বড়ই প্রবল","language_name":"bengali","language_id":20},"transliteration":{"text":"lashadīdun","language_name":"english","language_id":38}},{"id":9586,"position":5,"audio_url":null,"char_type_name":"end","page_number":600,"line_number":2,"text":"٨","translation":{"text":"(৮)","language_name":"bengali","language_id":20},"transliteration":{"text":null,"language_name":"english","language_id":38}}]},{"id":6155,"verse_number":9,"verse_key":"100:9","hizb_number":60,"rub_el_hizb_number":240,"ruku_number":544,"manzil_number":7,"sajdah_number":null,"page_number":600,"juz_number":30,"words":[{"id":10714,"position":1,"audio_url":"wbw/100_009_002.mp3","char_type_name":"word","page_number":600,"line_number":2,"text":"۞ أَفَلَا","translation":{"text":"তবে কি না","language_name":"bengali","language_id":20},"transliteration":{"text":"afalā","language_name":"english","language_id":38}},{"id":10715,"position":2,"audio_url":"wbw/100_009_003.mp3","char_type_name":"word","page_number":600,"line_number":2,"text":"يَعْلَمُ","translation":{"text":"সে জানে","language_name":"bengali","language_id":20},"transliteration":{"text":"yaʿlamu","language_name":"english","language_id":38}},{"id":10716,"position":3,"audio_url":"wbw/100_009_004.mp3","char_type_name":"word","page_number":600,"line_number":2,"text":"إِذَا","translation":{"text":"যখন","language_name":"bengali","language_id":20},"transliteration":{"text":"idhā","language_name":"english","language_id":38}},{"id":10717,"position":4,"audio_url":"wbw/100_009_005.mp3","char_type_name":"word","page_number":600,"line_number":2,"text":"بُعْثِرَ","translation":{"text":"উঠানো হবে","language_name":"bengali","language_id":20},"transliteration":{"text":"buʿ'thira","language_name":"english","language_id":38}},{"id":10718,"position":5,"audio_url":"wbw/100_009_006.mp3","char_type_name":"word","page_number":600,"line_number":2,"text":"مَا","translation":{"text":"যা কিছু","language_name":"bengali","language_id":20},"transliteration":{"text":"mā","language_name":"english","language_id":38}},{"id":10719,"position":6,"audio_url":"wbw/100_009_007.mp3","char_type_name":"word","page_number":600,"line_number":2,"text":"فِى","translation":{"text":"মধ্যে আছে","language_name":"bengali","language_id":20},"transliteration":{"text":"fī","language_name":"english","language_id":38}},{"id":10720,"position":7,"audio_url":"wbw/100_009_008.mp3","char_type_name":"word","page_number":600,"line_number":2,"text":"ٱلْقُبُورِ","translation":{"text":"কবরগুলোর","language_name":"bengali","language_id":20},"transliteration":{"text":"l-qubūri","language_name":"english","language_id":38}},{"id":10721,"position":8,"audio_url":null,"char_type_name":"end","page_number":600,"line_number":2,"text":"٩","translation":{"text":"(৯)","language_name":"bengali","language_id":20},"transliteration":{"text":null,"language_name":"english","language_id":38}}]},{"id":6156,"verse_number":10,"verse_key":"100:10","hizb_number":60,"rub_el_hizb_number":240,"ruku_number":544,"manzil_number":7,"sajdah_number":null,"page_number":600,"juz_number":30,"words":[{"id":11729,"position":1,"audio_url":"wbw/100_010_001.mp3","char_type_name":"word","page_number":600,"line_number":3,"text":"وَحُصِّلَ","translation":{"text":"এবং প্রকাশ করা হবে","language_name":"bengali","language_id":20},"transliteration":{"text":"waḥuṣṣila","language_name":"english","language_id":38}},{"id":11730,"position":2,"audio_url":"wbw/100_010_002.mp3","char_type_name":"word","page_number":600,"line_number":3,"text":"مَا","translation":{"text":"যা কিছু","language_name":"bengali","language_id":20},"transliteration":{"text":"mā","language_name":"english","language_id":38}},{"id":11731,"position":3,"audio_url":"wbw/100_010_003.mp3","char_type_name":"word","page_number":600,"line_number":3,"text":"فِى","translation":{"text":"মধ্যে আছে","language_name":"bengali","language_id":20},"transliteration":{"text":"fī","language_name":"english","language_id":38}},{"id":11732,"position":4,"audio_url":"wbw/100_010_004.mp3","char_type_name":"word","page_number":600,"line_number":3,"text":"ٱلصُّدُورِ","translation":{"text":"অন্তরসমূহের","language_name":"bengali","language_id":20},"transliteration":{"text":"l-ṣudūri","language_name":"english","language_id":38}},{"id":11733,"position":5,"audio_url":null,"char_type_name":"end","page_number":600,"line_number":3,"text":"١٠","translation":{"text":"(১০)","language_name":"bengali","language_id":20},"transliteration":{"text":null,"language_name":"english","language_id":38}}]}],"pagination":{"per_page":10,"current_page":1,"next_page":2,"total_pages":2,"total_records":11}}
