{"verses":[{"id":6157,"verse_number":11,"verse_key":"100:11","hizb_number":60,"rub_el_hizb_number":240,"ruku_number":544,"manzil_number":7,"sajdah_number":null,"page_number":600,"juz_number":30,"words":[{"id":12259,"position":1,"audio_url":"wbw/100_011_001.mp3","verse_key":"100:11","verse_id":6157,"location":"100:11:1","text_uthmani":"إِنَّ","qpc_uthmani_hafs":"إِنَّ","char_type_name":"word","page_number":600,"line_number":3,"text":"إِنَّ","translation":{"text":"নিশ্চয়ই","language_name":"bengali","language_id":20},"transliteration":{"text":"inna","language_name":"english","language_id":38}},{"id":12260,"position":2,"audio_url":"wbw/100_011_002.mp3","verse_key":"100:11","verse_id":6157,"location":"100:11:2","text_uthmani":"رَبَّهُم","qpc_uthmani_hafs":"رَبَّهُم","char_type_name":"word","page_number":600,"line_number":3,"text":"رَبَّهُم","translation":{"text":"তাদের রব","language_name":"bengali","language_id":20},"transliteration":{"text":"rabbahum","language_name":"english","language_id":38}},{"id":12261,"position":3,"audio_url":"wbw/100_011_003.mp3","verse_key":"100:11","verse_id":6157,"location":"100:11:3","text_uthmani":"بِهِمْ","qpc_uthmani_hafs":"بِهِمۡ","char_type_name":"word","page_number":600,"line_number":3,"text":"بِهِمۡ","translation":{"text":"তাদের সাথে","language_name":"bengali","language_id":20},"transliteration":{"text":"bihim","language_name":"english","language_id":38}},{"id":12262,"position":4,"audio_url":"wbw/100_011_004.mp3","verse_key":"100:11","verse_id":6157,"location":"100:11:4","text_uthmani":"يَوْمَئِذٍۢ","qpc_uthmani_hafs":"يَوۡمَئِذٖ","char_type_name":"word","page_number":600,"line_number":3,"text":"يَوۡمَئِذٖ","translation":{"text":"সেদিন","language_name":"bengali","language_id":20},"transliteration":{"text":"yawma-idhin","language_name":"english","language_id":38}},{"id":12263,"position":5,"audio_url":"wbw/100_011_005.mp3","verse_key":"100:11","verse_id":6157,"location":"100:11:5","text_uthmani":"لَّخَبِيرٌۢ","qpc_uthmani_hafs":"لَّخَبِيرُۢ","char_type_name":"word","page_number":600,"line_number":3,"text":"لَّخَبِيرُۢ","translation":{"text":"অবশ্যই তা ভালো করেই জানেন","language_name":"bengali","language_id":20},"transliteration":{"text":"lakhabīrun","language_name":"english","language_id":38}},{"id":12264,"position":6,"audio_url":null,"verse_key":"100:11","verse_id":6157,"location":"100:11:6","text_uthmani":"١١","qpc_uthmani_hafs":"١١","char_type_name":"end","page_number":600,"line_number":3,"text":"١١","translation":{"text":"(১১)","language_name":"bengali","language_id":20},"transliteration":{"text":null,"language_name":"english","language_id":38}}]}],"pagination":{"per_page":10,"current_page":2,"next_page":null,"total_pages":2,"total_records":11}}
