{"verses":[{"id":6059,"verse_number":1,"verse_key":"92:1","hizb_number":60,"rub_el_hizb_number":238,"ruku_number":536,"manzil_number":7,"sajdah_number":null,"page_number":595,"juz_number":30,"words":[{"id":222,"position":1,"audio_url":"wbw/092_001_001.mp3","verse_key":"92:1","verse_id":6059,"location":"92:1:1","text_uthmani":"وَٱلَّيْلِ","qpc_uthmani_hafs":"وَٱلَّيۡلِ","char_type_name":"word","page_number":595,"line_number":13,"text":"وَٱلَّيۡلِ","translation":{"text":"By the night","language_name":"english","language_id":38},"transliteration":{"text":"wa-al-layli","language_name":"english","language_id":38}},{"id":223,"position":2,"audio_url":"wbw/092_001_002.mp3","verse_key":"92:1","verse_id":6059,"location":"92:1:2","text_uthmani":"إِذَا","qpc_uthmani_hafs":"إِذَا","char_type_name":"word","page_number":595,"line_number":13,"text":"إِذَا","translation":{"text":"when","language_name":"english","language_id":38},"transliteration":{"text":"idhā","language_name":"english","language_id":38}},{"id":224,"position":3,"audio_url":"wbw/092_001_003.mp3","verse_key":"92:1","verse_id":6059,"location":"92:1:3","text_uthmani":"يَغْشَىٰ","qpc_uthmani_hafs":"يَغۡشَىٰ","char_type_name":"word","page_number":595,"line_number":13,"text":"يَغۡشَىٰ","translation":{"text":"it covers","language_name":"english","language_id":38},"transliteration":{"text":"yaghshā","language_name":"english","language_id":38}},{"id":225,"position":4,"audio_url":null,"verse_key":"92:1","verse_id":6059,"location":"92:1:4","text_uthmani":"١","qpc_uthmani_hafs":"١","char_type_name":"end","page_number":595,"line_number":13,"text":"١","translation":{"text":"(1)","language_name":"english","language_id":38},"transliteration":{"text":null,"language_name":"english","language_id":38}}]},{"id":6060,"verse_number":2,"verse_key":"92:2","hizb_number":60,"rub_el_hizb_number":238,"ruku_number":536,"manzil_number":7,"sajdah_number":null,"page_number":595,"juz_number":30,"words":[{"id":1785,"position":1,"audio_url":"wbw/092_002_001.mp3","verse_key":"92:2","verse_id":6060,"location":"92:2:1","text_uthmani":"وَٱلنَّهَارِ","qpc_uthmani_hafs":"وَٱلنَّهَارِ","char_type_name":"word","page_number":595,"line_number":13,"text":"وَٱلنَّهَارِ","translation":{"text":"And the day","language_name":"english","language_id":38},"transliteration":{"text":"wal-nahāri","language_name":"english","language_id":38}},{"id":1786,"position":2,"audio_url":"wbw/092_002_002.mp3","verse_key":"92:2","verse_id":6060,"location":"92:2:2","text_uthmani":"إِذَا","qpc_uthmani_hafs":"إِذَا","char_type_name":"word","page_number":595,"line_number":13,"text":"إِذَا","translation":{"text":"when","language_name":"english","language_id":38},"transliteration":{"text":"idhā","language_name":"english","language_id":38}},{"id":1787,"position":3,"audio_url":"wbw/092_002_003.mp3","verse_key":"92:2","verse_id":6060,"location":"92:2:3","text_uthmani":"تَجَلَّىٰ","qpc_uthmani_hafs":"تَجَلَّىٰ","char_type_name":"word","page_number":595,"line_number":13,"text":"تَجَلَّىٰ","translation":{"text":"it shines in brightness","language_name":"english","language_id":38},"transliteration":{"text":"tajallā","language_name":"english","language_id":38}},{"id":1788,"position":4,"audio_url":null,"verse_key":"92:2","verse_id":6060,"location":"92:2:4","text_uthmani":"٢","qpc_uthmani_hafs":"٢","char_type_name":"end","page_number":595,"line_number":13,"text":"٢","translation":{"text":"(2)","language_name":"english","language_id":38},"transliteration":{"text":null,"language_name":"english","language_id":38}}]},{"id":6061,"verse_number":3,"verse_key":"92:3","hizb_number":60,"rub_el_hizb_number":238,"ruku_number":536,"manzil_number":7,"sajdah_number":null,"page_number":595,"juz_number":30,"words":[{"id":2121,"position":1,"audio_url":"wbw/092_003_001.mp3","verse_key":"92:3","verse_id":6061,"location":"92:3:1","text_uthmani":"وَمَا","qpc_uthmani_hafs":"وَمَا","char_type_name":"word","page_number":595,"line_number":13,"text":"وَمَا","translation":{"text":"And He Who","language_name":"english","language_id":38},"transliteration":{"text":"wamā","language_name":"english","language_id":38}},{"id":2122,"position":2,"audio_url":"wbw/092_003_002.mp3","verse_key":"92:3","verse_id":6061,"location":"92:3:2","text_uthmani":"خَلَقَ","qpc_uthmani_hafs":"خَلَقَ","char_type_name":"word","page_number":595,"line_number":13,"text":"خَلَقَ","translation":{"text":"created","language_name":"english","language_id":38},"transliteration":{"text":"khalaqa","language_name":"english","language_id":38}},{"id":2123,"position":3,"audio_url":"wbw/092_003_003.mp3","verse_key":"92:3","verse_id":6061,"location":"92:3:3","text_uthmani":"ٱلذَّكَرَ","qpc_uthmani_hafs":"ٱلذَّكَرَ","char_type_name":"word","page_number":595,"line_number":13,"text":"ٱلذَّكَرَ","translation":{"text":"the male","language_name":"english","language_id":38},"transliteration":{"text":"l-dhakara","language_name":"english","language_id":38}},{"id":2124,"position":4,"audio_url":"wbw/092_003_004.mp3","verse_key":"92:3","verse_id":6061,"location":"92:3:4","text_uthmani":"وَٱلْأُنثَىٰٓ","qpc_uthmani_hafs":"وَٱلۡأُنثَىٰٓ","char_type_name":"word","page_number":595,"line_number":13,"text":"وَٱلۡأُنثَىٰٓ","translation":{"text":"and the female","language_name":"english","language_id":38},"transliteration":{"text":"wal-unthā","language_name":"english","language_id":38}},{"id":2125,"position":5,"audio_url":null,"verse_key":"92:3","verse_id":6061,"location":"92:3:5","text_uthmani":"٣","qpc_uthmani_hafs":"٣","char_type_name":"end","page_number":595,"line_number":13,"text":"٣","translation":{"text":"(3)","language_name":"english","language_id":38},"transliteration":{"text":null,"language_name":"english","language_id":38}}]},{"id":6062,"verse_number":4,"verse_key":"92:4","hizb_number":60,"rub_el_hizb_number":238,"ruku_number":536,"manzil_number":7,"sajdah_number":null,"page_number":595,"juz_number":30,"words":[{"id":3404,"position":1,"audio_url":"wbw/092_004_001.mp3","verse_key":"92:4","verse_id":6062,"location":"92:4:1","text_uthmani":"إِنَّ","qpc_uthmani_hafs":"إِنَّ","char_type_name":"word","page_number":595,"line_number":14,"text":"إِنَّ","translation":{"text":"Indeed","language_name":"english","language_id":38},"transliteration":{"text":"inna","language_name":"english","language_id":38}},{"id":3405,"position":2,"audio_url":"wbw/092_004_002.mp3","verse_key":"92:4","verse_id":6062,"location":"92:4:2","text_uthmani":"سَعْيَكُمْ","qpc_uthmani_hafs":"سَعۡيَكُمۡ","char_type_name":"word","page_number":595,"line_number":14,"text":"سَعۡيَكُمۡ","translation":{"text":"your efforts","language_name":"english","language_id":38},"transliteration":{"text":"saʿyakum","language_name":"english","language_id":38}},{"id":3406,"position":3,"audio_url":"wbw/092_004_003.mp3","verse_key":"92:4","verse_id":6062,"location":"92:4:3","text_uthmani":"لَشَتَّىٰ","qpc_uthmani_hafs":"لَشَتَّىٰ","char_type_name":"word","page_number":595,"line_number":14,"text":"لَشَتَّىٰ","translation":{"text":"(are) surely diverse","language_name":"english","language_id":38},"transliteration":{"text":"lashattā","language_name":"english","language_id":38}},{"id":3407,"position":4,"audio_url":null,"verse_key":"92:4","verse_id":6062,"location":"92:4:4","text_uthmani":"٤","qpc_uthmani_hafs":"٤","char_type_name":"end","page_number":595,"line_number":14,"text":"٤","translation":{"text":"(4)","language_name":"english","language_id":38},"transliteration":{"text":null,"language_name":"english","language_id":38}}]},{"id":6063,"verse_number":5,"verse_key":"92:5","hizb_number":60,"rub_el_hizb_number":238,"ruku_number":536,"manzil_number":7,"sajdah_number":null,"page_number":595,"juz_number":30,"words":[{"id":4746,"position":1,"audio_url":"wbw/092_005_001.mp3","verse_key":"92:5","verse_id":6063,"location":"92:5:1","text_uthmani":"فَأَمَّا","qpc_uthmani_hafs":"فَأَمَّا","char_type_name":"word","page_number":595,"line_number":14,"text":"فَأَمَّا","translation":{"text":"Then as for","language_name":"english","language_id":38},"transliteration":{"text":"fa-ammā","language_name":"english","language_id":38}},{"id":4747,"position":2,"audio_url":"wbw/092_005_002.mp3","verse_key":"92:5","verse_id":6063,"location":"92:5:2","text_uthmani":"مَنْ","qpc_uthmani_hafs":"مَنۡ","char_type_name":"word","page_number":595,"line_number":14,"text":"مَنۡ","translation":{"text":"(him) who","language_name":"english","language_id":38},"transliteration":{"text":"man","language_name":"english","language_id":38}},{"id":4748,"position":3,"audio_url":"wbw/092_005_003.mp3","verse_key":"92:5","verse_id":6063,"location":"92:5:3","text_uthmani":"أَعْطَىٰ","qpc_uthmani_hafs":"أَعۡطَىٰ","char_type_name":"word","page_number":595,"line_number":14,"text":"أَعۡطَىٰ","translation":{"text":"gives","language_name":"english","language_id":38},"transliteration":{"text":"aʿṭā","language_name":"english","language_id":38}},{"id":4749,"position":4,"audio_url":"wbw/092_005_004.mp3","verse_key":"92:5","verse_id":6063,"location":"92:5:4","text_uthmani":"وَٱتَّقَىٰ","qpc_uthmani_hafs":"وَٱتَّقَىٰ","char_type_name":"word","page_number":595,"line_number":14,"text":"وَٱتَّقَىٰ","translation":{"text":"and fears","language_name":"english","language_id":38},"transliteration":{"text":"wa-ittaqā","language_name":"english","language_id":38}},{"id":4750,"position":5,"audio_url":null,"verse_key":"92:5","verse_id":6063,"location":"92:5:5","text_uthmani":"٥","qpc_uthmani_hafs":"٥","char_type_name":"end","page_number":595,"line_number":14,"text":"٥","translation":{"text":"(5)","language_name":"english","language_id":38},"transliteration":{"text":null,"language_name":"english","language_id":38}}]},{"id":6064,"verse_number":6,"verse_key":"92:6","hizb_number":60,"rub_el_hizb_number":238,"ruku_number":536,"manzil_number":7,"sajdah_number":null,"page_number":595,"juz_number":30,"words":[{"id":5977,"position":1,"audio_url":"wbw/092_006_001.mp3","verse_key":"92:6","verse_id":6064,"location":"92:6:1","text_uthmani":"وَصَدَّقَ","qpc_uthmani_hafs":"وَصَدَّقَ","char_type_name":"word","page_number":595,"line_number":14,"text":"وَصَدَّقَ","translation":{"text":"And believes","language_name":"english","language_id":38},"transliteration":{"text":"waṣaddaqa","language_name":"english","language_id":38}},{"id":5978,"position":2,"audio_url":"wbw/092_006_002.mp3","verse_key":"92:6","verse_id":6064,"location":"92:6:2","text_uthmani":"بِٱلْحُسْنَىٰ","qpc_uthmani_hafs":"بِٱلۡحُسۡنَىٰ","char_type_name":"word","page_number":595,"line_number":14,"text":"بِٱلۡحُسۡنَىٰ","translation":{"text":"in the best","language_name":"english","language_id":38},"transliteration":{"text":"bil-ḥus'nā","language_name":"english","language_id":38}},{"id":5979,"position":3,"audio_url":null,"verse_key":"92:6","verse_id":6064,"location":"92:6:3","text_uthmani":"٦","qpc_uthmani_hafs":"٦","char_type_name":"end","page_number":595,"line_number":14,"text":"٦","translation":{"text":"(6)","language_name":"english","language_id":38},"transliteration":{"text":null,"language_name":"english","language_id":38}}]},{"id":6065,"verse_number":7,"verse_key":"92:7","hizb_number":60,"rub_el_hizb_number":238,"ruku_number":536,"manzil_number":7,"sajdah_number":null,"page_number":595,"juz_number":30,"words":[{"id":7163,"position":1,"audio_url":"wbw/092_007_001.mp3","verse_key":"92:7","verse_id":6065,"location":"92:7:1","text_uthmani":"فَسَنُيَسِّرُهُۥ","qpc_uthmani_hafs":"فَسَنُيَسِّرُهُۥ","char_type_name":"word","page_number":595,"line_number":15,"text":"فَسَنُيَسِّرُهُۥ","translation":{"text":"Then We will ease him","language_name":"english","language_id":38},"transliteration":{"text":"fasanuyassiruhu","language_name":"english","language_id":38}},{"id":7164,"position":2,"audio_url":"wbw/092_007_002.mp3","verse_key":"92:7","verse_id":6065,"location":"92:7:2","text_uthmani":"لِلْيُسْرَىٰ","qpc_uthmani_hafs":"لِلۡيُسۡرَىٰ","char_type_name":"word","page_number":595,"line_number":15,"text":"لِلۡيُسۡرَىٰ","translation":{"text":"towards [the] ease","language_name":"english","language_id":38},"transliteration":{"text":"lil'yus'rā","language_name":"english","language_id":38}},{"id":7165,"position":3,"audio_url":null,"verse_key":"92:7","verse_id":6065,"location":"92:7:3","text_uthmani":"٧","qpc_uthmani_hafs":"٧","char_type_name":"end","page_number":595,"line_number":15,"text":"٧","translation":{"text":"(7)","language_name":"english","language_id":38},"transliteration":{"text":null,"language_name":"english","language_id":38}}]},{"id":6066,"verse_number":8,"verse_key":"92:8","hizb_number":60,"rub_el_hizb_number":238,"ruku_number":536,"manzil_number":7,"sajdah_number":null,"page_number":595,"juz_number":30,"words":[{"id":8667,"position":1,"audio_url":"wbw/092_008_001.mp3","verse_key":"92:8","verse_id":6066,"location":"92:8:1","text_uthmani":"وَأَمَّا","qpc_uthmani_hafs":"وَأَمَّا","char_type_name":"word","page_number":595,"line_number":15,"text":"وَأَمَّا","translation":{"text":"But as for","language_name":"english","language_id":38},"transliteration":{"text":"wa-ammā","language_name":"english","language_id":38}},{"id":8668,"position":2,"audio_url":"wbw/092_008_002.mp3","verse_key":"92:8","verse_id":6066,"location":"92:8:2","text_uthmani":"مَنۢ","qpc_uthmani_hafs":"مَنۢ","char_type_name":"word","page_number":595,"line_number":15,"text":"مَنۢ","translation":{"text":"(him) who","language_name":"english","language_id":38},"transliteration":{"text":"man","language_name":"english","language_id":38}},{"id":8669,"position":3,"audio_url":"wbw/092_008_003.mp3","verse_key":"92:8","verse_id":6066,"location":"92:8:3","text_uthmani":"بَخِلَ","qpc_uthmani_hafs":"بَخِلَ","char_type_name":"word","page_number":595,"line_number":15,"text":"بَخِلَ","translation":{"text":"withholds","language_name":"english","language_id":38},"transliteration":{"text":"bakhila","language_name":"english","language_id":38}},{"id":8670,"position":4,"audio_url":"wbw/092_008_004.mp3","verse_key":"92:8","verse_id":6066,"location":"92:8:4","text_uthmani":"وَٱسْتَغْنَىٰ","qpc_uthmani_hafs":"وَٱسۡتَغۡنَىٰ","char_type_name":"word","page_number":595,"line_number":15,"text":"وَٱسۡتَغۡنَىٰ","translation":{"text":"and considers himself free from need","language_name":"english","language_id":38},"transliteration":{"text":"wa-is'taghnā","language_name":"english","language_id":38}},{"id":8671,"position":5,"audio_url":null,"verse_key":"92:8","verse_id":6066,"location":"92:8:5","text_uthmani":"٨","qpc_uthmani_hafs":"٨","char_type_name":"end","page_number":595,"line_number":15,"text":"٨","translation":{"text":"(8)","language_name":"english","language_id":38},"transliteration":{"text":null,"language_name":"english","language_id":38}}]},{"id":6067,"verse_number":9,"verse_key":"92:9","hizb_number":60,"rub_el_hizb_number":238,"ruku_number":536,"manzil_number":7,"sajdah_number":null,"page_number":595,"juz_number":30,"words":[{"id":9922,"position":1,"audio_url":"wbw/092_009_001.mp3","verse_key":"92:9","verse_id":6067,"location":"92:9:1","text_uthmani":"وَكَذَّبَ","qpc_uthmani_hafs":"وَكَذَّبَ","char_type_name":"word","page_number":595,"line_number":15,"text":"وَكَذَّبَ","translation":{"text":"And denies","language_name":"english","language_id":38},"transliteration":{"text":"wakadhaba","language_name":"english","language_id":38}},{"id":9923,"position":2,"audio_url":"wbw/092_009_002.mp3","verse_key":"92:9","verse_id":6067,"location":"92:9:2","text_uthmani":"بِٱلْحُسْنَىٰ","qpc_uthmani_hafs":"بِٱلۡحُسۡنَىٰ","char_type_name":"word","page_number":595,"line_number":15,"text":"بِٱلۡحُسۡنَىٰ","translation":{"text":"the best","language_name":"english","language_id":38},"transliteration":{"text":"bil-ḥus'nā","language_name":"english","language_id":38}},{"id":9924,"position":3,"audio_url":null,"verse_key":"92:9","verse_id":6067,"location":"92:9:3","text_uthmani":"٩","qpc_uthmani_hafs":"٩","char_type_name":"end","page_number":595,"line_number":15,"text":"٩","translation":{"text":"(9)","language_name":"english","language_id":38},"transliteration":{"text":null,"language_name":"english","language_id":38}}]},{"id":6068,"verse_number":10,"verse_key":"92:10","hizb_number":60,"rub_el_hizb_number":238,"ruku_number":536,"manzil_number":7,"sajdah_number":null,"page_number":596,"juz_number":30,"words":[{"id":11103,"position":1,"audio_url":"wbw/092_010_001.mp3","verse_key":"92:10","verse_id":6068,"location":"92:10:1","text_uthmani":"فَسَنُيَسِّرُهُۥ","qpc_uthmani_hafs":"فَسَنُيَسِّرُهُۥ","char_type_name":"word","page_number":596,"line_number":1,"text":"فَسَنُيَسِّرُهُۥ","translation":{"text":"Then We will ease him","language_name":"english","language_id":38},"transliteration":{"text":"fasanuyassiruhu","language_name":"english","language_id":38}},{"id":11104,"position":2,"audio_url":"wbw/092_010_002.mp3","verse_key":"92:10","verse_id":6068,"location":"92:10:2","text_uthmani":"لِلْعُسْرَىٰ","qpc_uthmani_hafs":"لِلۡعُسۡرَىٰ","char_type_name":"word","page_number":596,"line_number":1,"text":"لِلۡعُسۡرَىٰ","translation":{"text":"towards [the] difficulty","language_name":"english","language_id":38},"transliteration":{"text":"lil'ʿus'rā","language_name":"english","language_id":38}},{"id":11105,"position":3,"audio_url":null,"verse_key":"92:10","verse_id":6068,"location":"92:10:3","text_uthmani":"١٠","qpc_uthmani_hafs":"١٠","char_type_name":"end","page_number":596,"line_number":1,"text":"١٠","translation":{"text":"(10)","language_name":"english","language_id":38},"transliteration":{"text":null,"language_name":"english","language_id":38}}]}],"pagination":{"per_page":10,"current_page":1,"next_page":2,"total_pages":3,"total_records":21}}
