{"verses":[{"id":6079,"verse_number":21,"verse_key":"92:21","hizb_number":60,"rub_el_hizb_number":238,"ruku_number":536,"manzil_number":7,"sajdah_number":null,"page_number":596,"juz_number":30,"words":[{"id":23749,"position":1,"audio_url":"wbw/092_021_001.mp3","verse_key":"92:21","verse_id":6079,"location":"92:21:1","text_uthmani":"وَلَسَوْفَ","qpc_uthmani_hafs":"وَلَسَوۡفَ","char_type_name":"word","page_number":596,"line_number":5,"text":"وَلَسَوۡفَ","translation":{"text":"And soon, surely","language_name":"english","language_id":38},"transliteration":{"text":"walasawfa","language_name":"english","language_id":38}},{"id":23750,"position":2,"audio_url":"wbw/092_021_002.mp3","verse_key":"92:21","verse_id":6079,"location":"92:21:2","text_uthmani":"يَرْضَىٰ","qpc_uthmani_hafs":"يَرۡضَىٰ","char_type_name":"word","page_number":596,"line_number":5,"text":"يَرۡضَىٰ","translation":{"text":"he will be pleased","language_name":"english","language_id":38},"transliteration":{"text":"yarḍā","language_name":"english","language_id":38}},{"id":23751,"position":3,"audio_url":null,"verse_key":"92:21","verse_id":6079,"location":"92:21:3","text_uthmani":"٢١","qpc_uthmani_hafs":"٢١","char_type_name":"end","page_number":596,"line_number":5,"text":"٢١","translation":{"text":"(21)","language_name":"english","language_id":38},"transliteration":{"text":null,"language_name":"english","language_id":38}}]}],"pagination":{"per_page":10,"current_page":3,"next_page":null,"total_pages":3,"total_records":21}}
