{"verses":[{"id":5602,"verse_number":11,"verse_key":"76:11","hizb_number":58,"rub_el_hizb_number":231,"ruku_number":516,"manzil_number":7,"sajdah_number":null,"page_number":579,"juz_number":29,"words":[{"id":12886,"position":1,"audio_url":"wbw/076_011_001.mp3","char_type_name":"word","page_number":579,"line_number":4,"text":"فَوَقَىٰهُمُ","translation":{"text":"তাদের বাচাবেন অতএব","language_name":"bengali","language_id":20},"transliteration":{"text":"fawaqāhumu","language_name":"english","language_id":38}},{"id":12887,"position":2,"audio_url":"wbw/076_011_002.mp3","char_type_name":"word","page_number":579,"line_number":4,"text":"ٱللَّهُ","translation":{"text":"আল্লাহ","language_name":"bengali","language_id":20},"transliteration":{"text":"l-lahu","language_name":"english","language_id":38}},{"id":12888,"position":3,"audio_url":"wbw/076_011_003.mp3","char_type_name":"word","page_number":579,"line_number":4,"text":"شَرَّ","translation":{"text":"অনিষ্ঠতা (থেকে)","language_name":"bengali","language_id":20},"transliteration":{"text":"sharra","language_name":"english","language_id":38}},{"id":12889,"position":4,"audio_url":"wbw/076_011_004.mp3","char_type_name":"word","page_number":579,"line_number":4,"text":"ذَٰلِكَ","translation":{"text":"সেই","language_name":"bengali","language_id":20},"transliteration":{"text":"dhālika","language_name":"english","language_id":38}},{"id":12890,"position":5,"audio_url":"wbw/076_011_005.mp3","char_type_name":"word","page_number":579,"line_number":5,"text":"ٱلْيَوْمِ","translation":{"text":"দিনের","language_name":"bengali","language_id":20},"transliteration":{"text":"l-yawmi","language_name":"english","language_id":38}},{"id":12891,"position":6,"audio_url":"wbw/076_011_006.mp3","char_type_name":"word","page_number":579,"line_number":5,"text":"وَلَقَّىٰهُمْ","translation":{"text":"এবং তাদের দান করবেন","language_name":"bengali","language_id":20},"transliteration":{"text":"walaqqāhum","language_name":"english","language_id":38}},{"id":12892,"position":7,"audio_url":"wbw/076_011_007.mp3","char_type_name":"word","page_number":579,"line_number":5,"text":"نَضْرَةًۭ","translation":{"text":"উৎফুল্লতা","language_name":"bengali","language_id":20},"transliteration":{"text":"naḍratan","language_name":"english","language_id":38}},{"id":12893,"position":8,"audio_url":"wbw/076_011_008.mp3","char_type_name":"word","page_number":579,"line_number":5,"text":"وَسُرُورًۭا","translation":{"text":"ও আনন্দ","language_name":"bengali","language_id":20},"transliteration":{"text":"wasurūran","language_name":"english","language_id":38}},{"id":12894,"position":9,"audio_url":null,"char_type_name":"end","page_number":579,"line_number":5,"text":"١١","translation":{"text":"(১১)","language_name":"bengali","language_id":20},"transliteration":{"text":null,"language_name":"english","language_id":38}}]},{"id":5603,"verse_number":12,"verse_key":"76:12","hizb_number":58,"rub_el_hizb_number":231,"ruku_number":516,"manzil_number":7,"sajdah_number":null,"page_number":579,"juz_number":29,"words":[{"id":14499,"position":1,"audio_url":"wbw/076_012_001.mp3","char_type_name":"word","page_number":579,"line_number":5,"text":"وَجَزَىٰهُم","translation":{"text":"এবং তাদের প্রতিদান","language_name":"bengali","language_id":20},"transliteration":{"text":"wajazāhum","language_name":"english","language_id":38}},{"id":14500,"position":2,"audio_url":"wbw/076_012_002.mp3","char_type_name":"word","page_number":579,"line_number":5,"text":"بِمَا","translation":{"text":"যা বিনিময়ে","language_name":"bengali","language_id":20},"transliteration":{"text":"bimā","language_name":"english","language_id":38}},{"id":14501,"position":3,"audio_url":"wbw/076_012_003.mp3","char_type_name":"word","page_number":579,"line_number":5,"text":"صَبَرُوا۟","translation":{"text":"তারা সবর করেছে","language_name":"bengali","language_id":20},"transliteration":{"text":"ṣabarū","language_name":"english","language_id":38}},{"id":14502,"position":4,"audio_url":"wbw/076_012_004.mp3","char_type_name":"word","page_number":579,"line_number":5,"text":"جَنَّةًۭ","translation":{"text":"জান্নাত","language_name":"bengali","language_id":20},"transliteration":{"text":"jannatan","language_name":"english","language_id":38}},{"id":14503,"position":5,"audio_url":"wbw/076_012_005.mp3","char_type_name":"word","page_number":579,"line_number":5,"text":"وَحَرِيرًۭا","translation":{"text":"এবং রেশমীপোশাক","language_name":"bengali","language_id":20},"transliteration":{"text":"waḥarīran","language_name":"english","language_id":38}},{"id":14504,"position":6,"audio_url":null,"char_type_name":"end","page_number":579,"line_number":5,"text":"١٢","translation":{"text":"(১২)","language_name":"bengali","language_id":20},"transliteration":{"text":null,"language_name":"english","language_id":38}}]},{"id":5604,"verse_number":13,"verse_key":"76:13","hizb_number":58,"rub_el_hizb_number":231,"ruku_number":516,"manzil_number":7,"sajdah_number":null,"page_number":579,"juz_number":29,"words":[{"id":15270,"position":1,"audio_url":"wbw/076_013_001.mp3","char_type_name":"word","page_number":579,"line_number":6,"text":"مُّتَّكِـِٔينَ","translation":{"text":"হেলান দিয়ে বসবে","language_name":"bengali","language_id":20},"transliteration":{"text":"muttakiīna","language_name":"english","language_id":38}},{"id":15271,"position":2,"audio_url":"wbw/076_013_002.mp3","char_type_name":"word","page_number":579,"line_number":6,"text":"فِيهَا","translation":{"text":"তার মধ্যে","language_name":"bengali","language_id":20},"transliteration":{"text":"fīhā","language_name":"english","language_id":38}},{"id":15272,"position":3,"audio_url":"wbw/076_013_003.mp3","char_type_name":"word","page_number":579,"line_number":6,"text":"عَلَى","translation":{"text":"উপর","language_name":"bengali","language_id":20},"transliteration":{"text":"ʿalā","language_name":"english","language_id":38}},{"id":15273,"position":4,"audio_url":"wbw/076_013_004.mp3","char_type_name":"word","page_number":579,"line_number":6,"text":"ٱلْأَرَآئِكِ ۖ","translation":{"text":"উচ্চাসনসমুহের","language_name":"bengali","language_id":20},"transliteration":{"text":"l-arāiki","language_name":"english","language_id":38}},{"id":15275,"position":5,"audio_url":"wbw/076_013_006.mp3","char_type_name":"word","page_number":579,"line_number":6,"text":"لَا","translation":{"text":"না","language_name":"bengali","language_id":20},"transliteration":{"text":"lā","language_name":"english","language_id":38}},{"id":15276,"position":6,"audio_url":"wbw/076_013_007.mp3","char_type_name":"word","page_number":579,"line_number":6,"text":"يَرَوْنَ","translation":{"text":"তারা দেখবে","language_name":"bengali","language_id":20},"transliteration":{"text":"yarawna","language_name":"english","language_id":38}},{"id":15277,"position":7,"audio_url":"wbw/076_013_008.mp3","char_type_name":"word","page_number":579,"line_number":6,"text":"فِيهَا","translation":{"text":"তারমধ্যে","language_name":"bengali","language_id":20},"transliteration":{"text":"fīhā","language_name":"english","language_id":38}},{"id":15278,"position":8,"audio_url":"wbw/076_013_009.mp3","char_type_name":"word","page_number":579,"line_number":6,"text":"شَمْسًۭا","translation":{"text":"রোদ্রতাপ","language_name":"bengali","language_id":20},"transliteration":{"text":"shamsan","language_name":"english","language_id":38}},{"id":15279,"position":9,"audio_url":"wbw/076_013_010.mp3","char_type_name":"word","page_number":579,"line_number":6,"text":"وَلَا","translation":{"text":"এবং না","language_name":"bengali","language_id":20},"transliteration":{"text":"walā","language_name":"english","language_id":38}},{"id":15280,"position":10,"audio_url":"wbw/076_013_011.mp3","char_type_name":"word","page_number":579,"line_number":6,"text":"زَمْهَرِيرًۭا","translation":{"text":"শীতের প্রকোপ","language_name":"bengali","language_id":20},"transliteration":{"text":"zamharīran","language_name":"english","language_id":38}},{"id":15281,"position":11,"audio_url":null,"char_type_name":"end","page_number":579,"line_number":6,"text":"١٣","translation":{"text":"(১৩)","language_name":"bengali","language_id":20},"transliteration":{"text":null,"language_name":"english","language_id":38}}]},{"id":5605,"verse_number":14,"verse_key":"76:14","hizb_number":58,"rub_el_hizb_number":231,"ruku_number":516,"manzil_number":7,"sajdah_number":null,"page_number":579,"juz_number":29,"words":[{"id":16329,"position":1,"audio_url":"wbw/076_014_001.mp3","char_type_name":"word","page_number":579,"line_number":7,"text":"وَدَانِيَةً","translation":{"text":"এবং নিকটে থাকবে","language_name":"bengali","language_id":20},"transliteration":{"text":"wadāniyatan","language_name":"english","language_id":38}},{"id":16330,"position":2,"audio_url":"wbw/076_014_002.mp3","char_type_name":"word","page_number":579,"line_number":7,"text":"عَلَيْهِمْ","translation":{"text":"তাদের উপর","language_name":"bengali","language_id":20},"transliteration":{"text":"ʿalayhim","language_name":"english","language_id":38}},{"id":16331,"position":3,"audio_url":"wbw/076_014_003.mp3","char_type_name":"word","page_number":579,"line_number":7,"text":"ظِلَـٰلُهَا","translation":{"text":"তার ছায়া","language_name":"bengali","language_id":20},"transliteration":{"text":"ẓilāluhā","language_name":"english","language_id":38}},{"id":16332,"position":4,"audio_url":"wbw/076_014_004.mp3","char_type_name":"word","page_number":579,"line_number":7,"text":"وَذُلِّلَتْ","translation":{"text":"এবং আয়ত্তাধীন করা হবে","language_name":"bengali","language_id":20},"transliteration":{"text":"wadhullilat","language_name":"english","language_id":38}},{"id":16333,"position":5,"audio_url":"wbw/076_014_005.mp3","char_type_name":"word","page_number":579,"line_number":7,"text":"قُطُوفُهَا","translation":{"text":"তার ফলসমূহ","language_name":"bengali","language_id":20},"transliteration":{"text":"quṭūfuhā","language_name":"english","language_id":38}},{"id":16334,"position":6,"audio_url":"wbw/076_014_006.mp3","char_type_name":"word","page_number":579,"line_number":7,"text":"تَذْلِيلًۭا","translation":{"text":"আয়ত্তাধীন (পূর্ণ)","language_name":"bengali","language_id":20},"transliteration":{"text":"tadhlīlan","language_name":"english","language_id":38}},{"id":16335,"position":7,"audio_url":null,"char_type_name":"end","page_number":579,"line_number":7,"text":"١٤","translation":{"text":"(১৪)","language_name":"bengali","language_id":20},"transliteration":{"text":null,"language_name":"english","language_id":38}}]},{"id":5606,"verse_number":15,"verse_key":"76:15","hizb_number":58,"rub_el_hizb_number":231,"ruku_number":516,"manzil_number":7,"sajdah_number":null,"page_number":579,"juz_number":29,"words":[{"id":17475,"position":1,"audio_url":"wbw/076_015_001.mp3","char_type_name":"word","page_number":579,"line_number":7,"text":"وَيُطَافُ","translation":{"text":"এবং আবর্তিত করানো হবে","language_name":"bengali","language_id":20},"transliteration":{"text":"wayuṭāfu","language_name":"english","language_id":38}},{"id":17476,"position":2,"audio_url":"wbw/076_015_002.mp3","char_type_name":"word","page_number":579,"line_number":7,"text":"عَلَيْهِم","translation":{"text":"তাদের উপর","language_name":"bengali","language_id":20},"transliteration":{"text":"ʿalayhim","language_name":"english","language_id":38}},{"id":17477,"position":3,"audio_url":"wbw/076_015_003.mp3","char_type_name":"word","page_number":579,"line_number":7,"text":"بِـَٔانِيَةٍۢ","translation":{"text":"পান পাত্রকে","language_name":"bengali","language_id":20},"transliteration":{"text":"biāniyatin","language_name":"english","language_id":38}},{"id":17478,"position":4,"audio_url":"wbw/076_015_004.mp3","char_type_name":"word","page_number":579,"line_number":8,"text":"مِّن","translation":{"text":"(নির্মিত)","language_name":"bengali","language_id":20},"transliteration":{"text":"min","language_name":"english","language_id":38}},{"id":17479,"position":5,"audio_url":"wbw/076_015_005.mp3","char_type_name":"word","page_number":579,"line_number":8,"text":"فِضَّةٍۢ","translation":{"text":"রোপ্যের","language_name":"bengali","language_id":20},"transliteration":{"text":"fiḍḍatin","language_name":"english","language_id":38}},{"id":17480,"position":6,"audio_url":"wbw/076_015_006.mp3","char_type_name":"word","page_number":579,"line_number":8,"text":"وَأَكْوَابٍۢ","translation":{"text":"ও পেয়ালাগুলো","language_name":"bengali","language_id":20},"transliteration":{"text":"wa-akwābin","language_name":"english","language_id":38}},{"id":17481,"position":7,"audio_url":"wbw/076_015_007.mp3","char_type_name":"word","page_number":579,"line_number":8,"text":"كَانَتْ","translation":{"text":"হবে","language_name":"bengali","language_id":20},"transliteration":{"text":"kānat","language_name":"english","language_id":38}},{"id":17482,"position":8,"audio_url":"wbw/076_015_008.mp3","char_type_name":"word","page_number":579,"line_number":8,"text":"قَوَارِيرَا۠","translation":{"text":"কাঁচের (মত)","language_name":"bengali","language_id":20},"transliteration":{"text":"qawārīrā","language_name":"english","language_id":38}},{"id":17483,"position":9,"audio_url":null,"char_type_name":"end","page_number":579,"line_number":8,"text":"١٥","translation":{"text":"(১৫)","language_name":"bengali","language_id":20},"transliteration":{"text":null,"language_name":"english","language_id":38}}]},{"id":5607,"verse_number":16,"verse_key":"76:16","hizb_number":58,"rub_el_hizb_number":231,"ruku_number":516,"manzil_number":7,"sajdah_number":null,"page_number":579,"juz_number":29,"words":[{"id":18884,"position":1,"audio_url":"wbw/076_016_001.mp3","char_type_name":"word","page_number":579,"line_number":8,"text":"قَوَارِيرَا۟","translation":{"text":"কাঁঁচ","language_name":"bengali","language_id":20},"transliteration":{"text":"qawārīrā","language_name":"english","language_id":38}},{"id":18885,"position":2,"audio_url":"wbw/076_016_002.mp3","char_type_name":"word","page_number":579,"line_number":8,"text":"مِن","translation":{"text":"(নির্মিত)","language_name":"bengali","language_id":20},"transliteration":{"text":"min","language_name":"english","language_id":38}},{"id":18886,"position":3,"audio_url":"wbw/076_016_003.mp3","char_type_name":"word","page_number":579,"line_number":8,"text":"فِضَّةٍۢ","translation":{"text":"রোপ্যের","language_name":"bengali","language_id":20},"transliteration":{"text":"fiḍḍatin","language_name":"english","language_id":38}},{"id":18887,"position":4,"audio_url":"wbw/076_016_004.mp3","char_type_name":"word","page_number":579,"line_number":8,"text":"قَدَّرُوهَا","translation":{"text":"তা তারা পরিমাণ মত ভরবে","language_name":"bengali","language_id":20},"transliteration":{"text":"qaddarūhā","language_name":"english","language_id":38}},{"id":18888,"position":5,"audio_url":"wbw/076_016_005.mp3","char_type_name":"word","page_number":579,"line_number":8,"text":"تَقْدِيرًۭا","translation":{"text":"পরিমিত পরিমানে","language_name":"bengali","language_id":20},"transliteration":{"text":"taqdīran","language_name":"english","language_id":38}},{"id":18889,"position":6,"audio_url":null,"char_type_name":"end","page_number":579,"line_number":8,"text":"١٦","translation":{"text":"(১৬)","language_name":"bengali","language_id":20},"transliteration":{"text":null,"language_name":"english","language_id":38}}]},{"id":5608,"verse_number":17,"verse_key":"76:17","hizb_number":58,"rub_el_hizb_number":231,"ruku_number":516,"manzil_number":7,"sajdah_number":null,"page_number":579,"juz_number":29,"words":[{"id":19574,"position":1,"audio_url":"wbw/076_017_001.mp3","char_type_name":"word","page_number":579,"line_number":9,"text":"وَيُسْقَوْنَ","translation":{"text":"এবং পান করানো হবে তাদের","language_name":"bengali","language_id":20},"transliteration":{"text":"wayus'qawna","language_name":"english","language_id":38}},{"id":19575,"position":2,"audio_url":"wbw/076_017_002.mp3","char_type_name":"word","page_number":579,"line_number":9,"text":"فِيهَا","translation":{"text":"তার মধ্যে","language_name":"bengali","language_id":20},"transliteration":{"text":"fīhā","language_name":"english","language_id":38}},{"id":19576,"position":3,"audio_url":"wbw/076_017_003.mp3","char_type_name":"word","page_number":579,"line_number":9,"text":"كَأْسًۭا","translation":{"text":"সূরা","language_name":"bengali","language_id":20},"transliteration":{"text":"kasan","language_name":"english","language_id":38}},{"id":19577,"position":4,"audio_url":"wbw/076_017_004.mp3","char_type_name":"word","page_number":579,"line_number":9,"text":"كَانَ","translation":{"text":"হবে","language_name":"bengali","language_id":20},"transliteration":{"text":"kāna","language_name":"english","language_id":38}},{"id":19578,"position":5,"audio_url":"wbw/076_017_005.mp3","char_type_name":"word","page_number":579,"line_number":9,"text":"مِزَاجُهَا","translation":{"text":"যার সংমিশ্রণ","language_name":"bengali","language_id":20},"transliteration":{"text":"mizājuhā","language_name":"english","language_id":38}},{"id":19579,"position":6,"audio_url":"wbw/076_017_006.mp3","char_type_name":"word","page_number":579,"line_number":9,"text":"زَنجَبِيلًا","translation":{"text":"আদার","language_name":"bengali","language_id":20},"transliteration":{"text":"zanjabīlan","language_name":"english","language_id":38}},{"id":19580,"position":7,"audio_url":null,"char_type_name":"end","page_number":579,"line_number":9,"text":"١٧","translation":{"text":"(১৭)","language_name":"bengali","language_id":20},"transliteration":{"text":null,"language_name":"english","language_id":38}}]},{"id":5609,"verse_number":18,"verse_key":"76:18","hizb_number":58,"rub_el_hizb_number":231,"ruku_number":516,"manzil_number":7,"sajdah_number":null,"page_number":579,"juz_number":29,"words":[{"id":20655,"position":1,"audio_url":"wbw/076_018_001.mp3","char_type_name":"word","page_number":579,"line_number":9,"text":"عَيْنًۭا","translation":{"text":"ঝর্ণা (এমন এক)","language_name":"bengali","language_id":20},"transliteration":{"text":"ʿaynan","language_name":"english","language_id":38}},{"id":20656,"position":2,"audio_url":"wbw/076_018_002.mp3","char_type_name":"word","page_number":579,"line_number":9,"text":"فِيهَا","translation":{"text":"তার মধ্যে","language_name":"bengali","language_id":20},"transliteration":{"text":"fīhā","language_name":"english","language_id":38}},{"id":20657,"position":3,"audio_url":"wbw/076_018_003.mp3","char_type_name":"word","page_number":579,"line_number":9,"text":"تُسَمَّىٰ","translation":{"text":"নাম দেয়া হয়েছে (যার)","language_name":"bengali","language_id":20},"transliteration":{"text":"tusammā","language_name":"english","language_id":38}},{"id":20658,"position":4,"audio_url":"wbw/076_018_004.mp3","char_type_name":"word","page_number":579,"line_number":9,"text":"سَلْسَبِيلًۭا","translation":{"text":"সালসাবীল","language_name":"bengali","language_id":20},"transliteration":{"text":"salsabīlan","language_name":"english","language_id":38}},{"id":20659,"position":5,"audio_url":null,"char_type_name":"end","page_number":579,"line_number":10,"text":"١٨","translation":{"text":"(১৮)","language_name":"bengali","language_id":20},"transliteration":{"text":null,"language_name":"english","language_id":38}}]},{"id":5610,"verse_number":19,"verse_key":"76:19","hizb_number":58,"rub_el_hizb_number":232,"ruku_number":516,"manzil_number":7,"sajdah_number":null,"page_number":579,"juz_number":29,"words":[{"id":21711,"position":1,"audio_url":"wbw/076_019_002.mp3","char_type_name":"word","page_number":579,"line_number":10,"text":"۞ وَيَطُوفُ","translation":{"text":"এবং ফিরতে থাকবে","language_name":"bengali","language_id":20},"transliteration":{"text":"wayaṭūfu","language_name":"english","language_id":38}},{"id":21712,"position":2,"audio_url":"wbw/076_019_003.mp3","char_type_name":"word","page_number":579,"line_number":10,"text":"عَلَيْهِمْ","translation":{"text":"তাদের নিকট","language_name":"bengali","language_id":20},"transliteration":{"text":"ʿalayhim","language_name":"english","language_id":38}},{"id":21713,"position":3,"audio_url":"wbw/076_019_004.mp3","char_type_name":"word","page_number":579,"line_number":10,"text":"وِلْدَٰنٌۭ","translation":{"text":"কিশোররা","language_name":"bengali","language_id":20},"transliteration":{"text":"wil'dānun","language_name":"english","language_id":38}},{"id":21714,"position":4,"audio_url":"wbw/076_019_005.mp3","char_type_name":"word","page_number":579,"line_number":10,"text":"مُّخَلَّدُونَ","translation":{"text":"চির","language_name":"bengali","language_id":20},"transliteration":{"text":"mukhalladūna","language_name":"english","language_id":38}},{"id":21715,"position":5,"audio_url":"wbw/076_019_006.mp3","char_type_name":"word","page_number":579,"line_number":10,"text":"إِذَا","translation":{"text":"যখন","language_name":"bengali","language_id":20},"transliteration":{"text":"idhā","language_name":"english","language_id":38}},{"id":21716,"position":6,"audio_url":"wbw/076_019_007.mp3","char_type_name":"word","page_number":579,"line_number":10,"text":"رَأَيْتَهُمْ","translation":{"text":"তাদের তুমি দেখবে","language_name":"bengali","language_id":20},"transliteration":{"text":"ra-aytahum","language_name":"english","language_id":38}},{"id":21717,"position":7,"audio_url":"wbw/076_019_008.mp3","char_type_name":"word","page_number":579,"line_number":10,"text":"حَسِبْتَهُمْ","translation":{"text":"তাদের তুুমি মনে করবে","language_name":"bengali","language_id":20},"transliteration":{"text":"ḥasib'tahum","language_name":"english","language_id":38}},{"id":21718,"position":8,"audio_url":"wbw/076_019_009.mp3","char_type_name":"word","page_number":579,"line_number":10,"text":"لُؤْلُؤًۭا","translation":{"text":"মুক্তা","language_name":"bengali","language_id":20},"transliteration":{"text":"lu'lu-an","language_name":"english","language_id":38}},{"id":21719,"position":9,"audio_url":"wbw/076_019_010.mp3","char_type_name":"word","page_number":579,"line_number":10,"text":"مَّنثُورًۭا","translation":{"text":"বিক্ষিপ্ত","language_name":"bengali","language_id":20},"transliteration":{"text":"manthūran","language_name":"english","language_id":38}},{"id":21720,"position":10,"audio_url":null,"char_type_name":"end","page_number":579,"line_number":11,"text":"١٩","translation":{"text":"(১৯)","language_name":"bengali","language_id":20},"transliteration":{"text":null,"language_name":"english","language_id":38}}]},{"id":5611,"verse_number":20,"verse_key":"76:20","hizb_number":58,"rub_el_hizb_number":232,"ruku_number":516,"manzil_number":7,"sajdah_number":null,"page_number":579,"juz_number":29,"words":[{"id":23150,"position":1,"audio_url":"wbw/076_020_001.mp3","char_type_name":"word","page_number":579,"line_number":11,"text":"وَإِذَا","translation":{"text":"এবং যখন","language_name":"bengali","language_id":20},"transliteration":{"text":"wa-idhā","language_name":"english","language_id":38}},{"id":23151,"position":2,"audio_url":"wbw/076_020_002.mp3","char_type_name":"word","page_number":579,"line_number":11,"text":"رَأَيْتَ","translation":{"text":"তুমি দেখবে","language_name":"bengali","language_id":20},"transliteration":{"text":"ra-ayta","language_name":"english","language_id":38}},{"id":23152,"position":3,"audio_url":"wbw/076_020_003.mp3","char_type_name":"word","page_number":579,"line_number":11,"text":"ثَمَّ","translation":{"text":"সেখানে","language_name":"bengali","language_id":20},"transliteration":{"text":"thamma","language_name":"english","language_id":38}},{"id":23153,"position":4,"audio_url":"wbw/076_020_004.mp3","char_type_name":"word","page_number":579,"line_number":11,"text":"رَأَيْتَ","translation":{"text":"দেখবে","language_name":"bengali","language_id":20},"transliteration":{"text":"ra-ayta","language_name":"english","language_id":38}},{"id":23154,"position":5,"audio_url":"wbw/076_020_005.mp3","char_type_name":"word","page_number":579,"line_number":11,"text":"نَعِيمًۭا","translation":{"text":"নিয়ামত","language_name":"bengali","language_id":20},"transliteration":{"text":"naʿīman","language_name":"english","language_id":38}},{"id":23155,"position":6,"audio_url":"wbw/076_020_006.mp3","char_type_name":"word","page_number":579,"line_number":11,"text":"وَمُلْكًۭا","translation":{"text":"এবং সম্রাজ্য","language_name":"bengali","language_id":20},"transliteration":{"text":"wamul'kan","language_name":"english","language_id":38}},{"id":23156,"position":7,"audio_url":"wbw/076_020_007.mp3","char_type_name":"word","page_number":579,"line_number":11,"text":"كَبِيرًا","translation":{"text":"বিরাট","language_name":"bengali","language_id":20},"transliteration":{"text":"kabīran","language_name":"english","language_id":38}},{"id":23157,"position":8,"audio_url":null,"char_type_name":"end","page_number":579,"line_number":11,"text":"٢٠","translation":{"text":"(২০)","language_name":"bengali","language_id":20},"transliteration":{"text":null,"language_name":"english","language_id":38}}]}],"pagination":{"per_page":10,"current_page":2,"next_page":3,"total_pages":4,"total_records":31}}
