{"verses":[{"id":6090,"verse_number":11,"verse_key":"93:11","hizb_number":60,"rub_el_hizb_number":238,"ruku_number":537,"manzil_number":7,"sajdah_number":null,"page_number":596,"juz_number":30,"words":[{"id":12598,"position":1,"audio_url":"wbw/093_011_001.mp3","char_type_name":"word","page_number":596,"line_number":12,"text":"وَأَمَّا","translation":{"text":"আর প্রসঙ্গ","language_name":"bengali","language_id":20},"transliteration":{"text":"wa-ammā","language_name":"english","language_id":38}},{"id":12599,"position":2,"audio_url":"wbw/093_011_002.mp3","char_type_name":"word","page_number":596,"line_number":12,"text":"بِنِعْمَةِ","translation":{"text":"অনুগ্রহের","language_name":"bengali","language_id":20},"transliteration":{"text":"biniʿ'mati","language_name":"english","language_id":38}},{"id":12600,"position":3,"audio_url":"wbw/093_011_003.mp3","char_type_name":"word","page_number":596,"line_number":12,"text":"رَبِّكَ","translation":{"text":"তোমার রবের","language_name":"bengali","language_id":20},"transliteration":{"text":"rabbika","language_name":"english","language_id":38}},{"id":12601,"position":4,"audio_url":"wbw/093_011_004.mp3","char_type_name":"word","page_number":596,"line_number":12,"text":"فَحَدِّثْ","translation":{"text":"অতঃপর বর্ণনা করো","language_name":"bengali","language_id":20},"transliteration":{"text":"faḥaddith","language_name":"english","language_id":38}},{"id":12602,"position":5,"audio_url":null,"char_type_name":"end","page_number":596,"line_number":12,"text":"١١","translation":{"text":"(১১)","language_name":"bengali","language_id":20},"transliteration":{"text":null,"language_name":"english","language_id":38}}]}],"pagination":{"per_page":10,"current_page":2,"next_page":null,"total_pages":2,"total_records":11}}
