{"verses":[{"id":5272,"verse_number":1,"verse_key":"68:1","hizb_number":57,"rub_el_hizb_number":226,"ruku_number":500,"manzil_number":7,"sajdah_number":null,"page_number":564,"juz_number":29,"words":[{"id":582,"position":1,"audio_url":"wbw/068_001_001.mp3","verse_key":"68:1","verse_id":5272,"location":"68:1:1","text_uthmani":"نٓ ۚ","qpc_uthmani_hafs":"نٓۚ","char_type_name":"word","page_number":564,"line_number":8,"text":"نٓۚ","translation":{"text":"নুন","language_name":"bengali","language_id":20},"transliteration":{"text":"noon","language_name":"english","language_id":38}},{"id":584,"position":2,"audio_url":"wbw/068_001_003.mp3","verse_key":"68:1","verse_id":5272,"location":"68:1:2","text_uthmani":"وَٱلْقَلَمِ","qpc_uthmani_hafs":"وَٱلۡقَلَمِ","char_type_name":"word","page_number":564,"line_number":8,"text":"وَٱلۡقَلَمِ","translation":{"text":"কলমের শপথ","language_name":"bengali","language_id":20},"transliteration":{"text":"wal-qalami","language_name":"english","language_id":38}},{"id":585,"position":3,"audio_url":"wbw/068_001_004.mp3","verse_key":"68:1","verse_id":5272,"location":"68:1:3","text_uthmani":"وَمَا","qpc_uthmani_hafs":"وَمَا","char_type_name":"word","page_number":564,"line_number":8,"text":"وَمَا","translation":{"text":"এবং যা","language_name":"bengali","language_id":20},"transliteration":{"text":"wamā","language_name":"english","language_id":38}},{"id":586,"position":4,"audio_url":"wbw/068_001_005.mp3","verse_key":"68:1","verse_id":5272,"location":"68:1:4","text_uthmani":"يَسْطُرُونَ","qpc_uthmani_hafs":"يَسۡطُرُونَ","char_type_name":"word","page_number":564,"line_number":8,"text":"يَسۡطُرُونَ","translation":{"text":"তারা লিখছে","language_name":"bengali","language_id":20},"transliteration":{"text":"yasṭurūna","language_name":"english","language_id":38}},{"id":587,"position":5,"audio_url":null,"verse_key":"68:1","verse_id":5272,"location":"68:1:5","text_uthmani":"١","qpc_uthmani_hafs":"١","char_type_name":"end","page_number":564,"line_number":8,"text":"١","translation":{"text":"(১)","language_name":"bengali","language_id":20},"transliteration":{"text":null,"language_name":"english","language_id":38}}]},{"id":5273,"verse_number":2,"verse_key":"68:2","hizb_number":57,"rub_el_hizb_number":226,"ruku_number":500,"manzil_number":7,"sajdah_number":null,"page_number":564,"juz_number":29,"words":[{"id":1475,"position":1,"audio_url":"wbw/068_002_001.mp3","verse_key":"68:2","verse_id":5273,"location":"68:2:1","text_uthmani":"مَآ","qpc_uthmani_hafs":"مَآ","char_type_name":"word","page_number":564,"line_number":8,"text":"مَآ","translation":{"text":"না","language_name":"bengali","language_id":20},"transliteration":{"text":"mā","language_name":"english","language_id":38}},{"id":1476,"position":2,"audio_url":"wbw/068_002_002.mp3","verse_key":"68:2","verse_id":5273,"location":"68:2:2","text_uthmani":"أَنتَ","qpc_uthmani_hafs":"أَنتَ","char_type_name":"word","page_number":564,"line_number":8,"text":"أَنتَ","translation":{"text":"তুমি","language_name":"bengali","language_id":20},"transliteration":{"text":"anta","language_name":"english","language_id":38}},{"id":1477,"position":3,"audio_url":"wbw/068_002_003.mp3","verse_key":"68:2","verse_id":5273,"location":"68:2:3","text_uthmani":"بِنِعْمَةِ","qpc_uthmani_hafs":"بِنِعۡمَةِ","char_type_name":"word","page_number":564,"line_number":8,"text":"بِنِعۡمَةِ","translation":{"text":"অনুগ্রহে","language_name":"bengali","language_id":20},"transliteration":{"text":"biniʿ'mati","language_name":"english","language_id":38}},{"id":1478,"position":4,"audio_url":"wbw/068_002_004.mp3","verse_key":"68:2","verse_id":5273,"location":"68:2:4","text_uthmani":"رَبِّكَ","qpc_uthmani_hafs":"رَبِّكَ","char_type_name":"word","page_number":564,"line_number":8,"text":"رَبِّكَ","translation":{"text":"তোমার রবের","language_name":"bengali","language_id":20},"transliteration":{"text":"rabbika","language_name":"english","language_id":38}},{"id":1479,"position":5,"audio_url":"wbw/068_002_005.mp3","verse_key":"68:2","verse_id":5273,"location":"68:2:5","text_uthmani":"بِمَجْنُونٍۢ","qpc_uthmani_hafs":"بِمَجۡنُونٖ","char_type_name":"word","page_number":564,"line_number":8,"text":"بِمَجۡنُونٖ","translation":{"text":"পাগল","language_name":"bengali","language_id":20},"transliteration":{"text":"bimajnūnin","language_name":"english","language_id":38}},{"id":1480,"position":6,"audio_url":null,"verse_key":"68:2","verse_id":5273,"location":"68:2:6","text_uthmani":"٢","qpc_uthmani_hafs":"٢","char_type_name":"end","page_number":564,"line_number":8,"text":"٢","translation":{"text":"(২)","language_name":"bengali","language_id":20},"transliteration":{"text":null,"language_name":"english","language_id":38}}]},{"id":5274,"verse_number":3,"verse_key":"68:3","hizb_number":57,"rub_el_hizb_number":226,"ruku_number":500,"manzil_number":7,"sajdah_number":null,"page_number":564,"juz_number":29,"words":[{"id":2550,"position":1,"audio_url":"wbw/068_003_001.mp3","verse_key":"68:3","verse_id":5274,"location":"68:3:1","text_uthmani":"وَإِنَّ","qpc_uthmani_hafs":"وَإِنَّ","char_type_name":"word","page_number":564,"line_number":8,"text":"وَإِنَّ","translation":{"text":"এবং নিশ্চয়","language_name":"bengali","language_id":20},"transliteration":{"text":"wa-inna","language_name":"english","language_id":38}},{"id":2551,"position":2,"audio_url":"wbw/068_003_002.mp3","verse_key":"68:3","verse_id":5274,"location":"68:3:2","text_uthmani":"لَكَ","qpc_uthmani_hafs":"لَكَ","char_type_name":"word","page_number":564,"line_number":9,"text":"لَكَ","translation":{"text":"তোমার জন্য","language_name":"bengali","language_id":20},"transliteration":{"text":"laka","language_name":"english","language_id":38}},{"id":2552,"position":3,"audio_url":"wbw/068_003_003.mp3","verse_key":"68:3","verse_id":5274,"location":"68:3:3","text_uthmani":"لَأَجْرًا","qpc_uthmani_hafs":"لَأَجۡرًا","char_type_name":"word","page_number":564,"line_number":9,"text":"لَأَجۡرًا","translation":{"text":"অবশ্যই(আছে) পুরস্কার","language_name":"bengali","language_id":20},"transliteration":{"text":"la-ajran","language_name":"english","language_id":38}},{"id":2553,"position":4,"audio_url":"wbw/068_003_004.mp3","verse_key":"68:3","verse_id":5274,"location":"68:3:4","text_uthmani":"غَيْرَ","qpc_uthmani_hafs":"غَيۡرَ","char_type_name":"word","page_number":564,"line_number":9,"text":"غَيۡرَ","translation":{"text":"ছাড়া","language_name":"bengali","language_id":20},"transliteration":{"text":"ghayra","language_name":"english","language_id":38}},{"id":2554,"position":5,"audio_url":"wbw/068_003_005.mp3","verse_key":"68:3","verse_id":5274,"location":"68:3:5","text_uthmani":"مَمْنُونٍۢ","qpc_uthmani_hafs":"مَمۡنُونٖ","char_type_name":"word","page_number":564,"line_number":9,"text":"مَمۡنُونٖ","translation":{"text":"শেষ","language_name":"bengali","language_id":20},"transliteration":{"text":"mamnūnin","language_name":"english","language_id":38}},{"id":2555,"position":6,"audio_url":null,"verse_key":"68:3","verse_id":5274,"location":"68:3:6","text_uthmani":"٣","qpc_uthmani_hafs":"٣","char_type_name":"end","page_number":564,"line_number":9,"text":"٣","translation":{"text":"(৩)","language_name":"bengali","language_id":20},"transliteration":{"text":null,"language_name":"english","language_id":38}}]},{"id":5275,"verse_number":4,"verse_key":"68:4","hizb_number":57,"rub_el_hizb_number":226,"ruku_number":500,"manzil_number":7,"sajdah_number":null,"page_number":564,"juz_number":29,"words":[{"id":3965,"position":1,"audio_url":"wbw/068_004_001.mp3","verse_key":"68:4","verse_id":5275,"location":"68:4:1","text_uthmani":"وَإِنَّكَ","qpc_uthmani_hafs":"وَإِنَّكَ","char_type_name":"word","page_number":564,"line_number":9,"text":"وَإِنَّكَ","translation":{"text":"এবং তুমি নিশ্চয়","language_name":"bengali","language_id":20},"transliteration":{"text":"wa-innaka","language_name":"english","language_id":38}},{"id":3966,"position":2,"audio_url":"wbw/068_004_002.mp3","verse_key":"68:4","verse_id":5275,"location":"68:4:2","text_uthmani":"لَعَلَىٰ","qpc_uthmani_hafs":"لَعَلَىٰ","char_type_name":"word","page_number":564,"line_number":9,"text":"لَعَلَىٰ","translation":{"text":"উপর অবশ্যই(অথিষ্ঠিত)","language_name":"bengali","language_id":20},"transliteration":{"text":"laʿalā","language_name":"english","language_id":38}},{"id":3967,"position":3,"audio_url":"wbw/068_004_003.mp3","verse_key":"68:4","verse_id":5275,"location":"68:4:3","text_uthmani":"خُلُقٍ","qpc_uthmani_hafs":"خُلُقٍ","char_type_name":"word","page_number":564,"line_number":9,"text":"خُلُقٍ","translation":{"text":"চরিত্রের","language_name":"bengali","language_id":20},"transliteration":{"text":"khuluqin","language_name":"english","language_id":38}},{"id":3968,"position":4,"audio_url":"wbw/068_004_004.mp3","verse_key":"68:4","verse_id":5275,"location":"68:4:4","text_uthmani":"عَظِيمٍۢ","qpc_uthmani_hafs":"عَظِيمٖ","char_type_name":"word","page_number":564,"line_number":9,"text":"عَظِيمٖ","translation":{"text":"মহান","language_name":"bengali","language_id":20},"transliteration":{"text":"ʿaẓīmin","language_name":"english","language_id":38}},{"id":3969,"position":5,"audio_url":null,"verse_key":"68:4","verse_id":5275,"location":"68:4:5","text_uthmani":"٤","qpc_uthmani_hafs":"٤","char_type_name":"end","page_number":564,"line_number":9,"text":"٤","translation":{"text":"(৪)","language_name":"bengali","language_id":20},"transliteration":{"text":null,"language_name":"english","language_id":38}}]},{"id":5276,"verse_number":5,"verse_key":"68:5","hizb_number":57,"rub_el_hizb_number":226,"ruku_number":500,"manzil_number":7,"sajdah_number":null,"page_number":564,"juz_number":29,"words":[{"id":5261,"position":1,"audio_url":"wbw/068_005_001.mp3","verse_key":"68:5","verse_id":5276,"location":"68:5:1","text_uthmani":"فَسَتُبْصِرُ","qpc_uthmani_hafs":"فَسَتُبۡصِرُ","char_type_name":"word","page_number":564,"line_number":9,"text":"فَسَتُبۡصِرُ","translation":{"text":"অতএব তুমি শীঘ্রই দেখবে","language_name":"bengali","language_id":20},"transliteration":{"text":"fasatub'ṣiru","language_name":"english","language_id":38}},{"id":5262,"position":2,"audio_url":"wbw/068_005_002.mp3","verse_key":"68:5","verse_id":5276,"location":"68:5:2","text_uthmani":"وَيُبْصِرُونَ","qpc_uthmani_hafs":"وَيُبۡصِرُونَ","char_type_name":"word","page_number":564,"line_number":10,"text":"وَيُبۡصِرُونَ","translation":{"text":"এবং তারা দেখবে,","language_name":"bengali","language_id":20},"transliteration":{"text":"wayub'ṣirūna","language_name":"english","language_id":38}},{"id":5263,"position":3,"audio_url":null,"verse_key":"68:5","verse_id":5276,"location":"68:5:3","text_uthmani":"٥","qpc_uthmani_hafs":"٥","char_type_name":"end","page_number":564,"line_number":10,"text":"٥","translation":{"text":"(৫)","language_name":"bengali","language_id":20},"transliteration":{"text":null,"language_name":"english","language_id":38}}]},{"id":5277,"verse_number":6,"verse_key":"68:6","hizb_number":57,"rub_el_hizb_number":226,"ruku_number":500,"manzil_number":7,"sajdah_number":null,"page_number":564,"juz_number":29,"words":[{"id":6484,"position":1,"audio_url":"wbw/068_006_001.mp3","verse_key":"68:6","verse_id":5277,"location":"68:6:1","text_uthmani":"بِأَييِّكُمُ","qpc_uthmani_hafs":"بِأَييِّكُمُ","char_type_name":"word","page_number":564,"line_number":10,"text":"بِأَييِّكُمُ","translation":{"text":"তোমাদের মধ্যে কে","language_name":"bengali","language_id":20},"transliteration":{"text":"bi-ayyikumu","language_name":"english","language_id":38}},{"id":6485,"position":2,"audio_url":"wbw/068_006_002.mp3","verse_key":"68:6","verse_id":5277,"location":"68:6:2","text_uthmani":"ٱلْمَفْتُونُ","qpc_uthmani_hafs":"ٱلۡمَفۡتُونُ","char_type_name":"word","page_number":564,"line_number":10,"text":"ٱلۡمَفۡتُونُ","translation":{"text":"বিকারগ্রস্ত","language_name":"bengali","language_id":20},"transliteration":{"text":"l-maftūnu","language_name":"english","language_id":38}},{"id":6486,"position":3,"audio_url":null,"verse_key":"68:6","verse_id":5277,"location":"68:6:3","text_uthmani":"٦","qpc_uthmani_hafs":"٦","char_type_name":"end","page_number":564,"line_number":10,"text":"٦","translation":{"text":"(৬)","language_name":"bengali","language_id":20},"transliteration":{"text":null,"language_name":"english","language_id":38}}]},{"id":5278,"verse_number":7,"verse_key":"68:7","hizb_number":57,"rub_el_hizb_number":226,"ruku_number":500,"manzil_number":7,"sajdah_number":null,"page_number":564,"juz_number":29,"words":[{"id":7876,"position":1,"audio_url":"wbw/068_007_001.mp3","verse_key":"68:7","verse_id":5278,"location":"68:7:1","text_uthmani":"إِنَّ","qpc_uthmani_hafs":"إِنَّ","char_type_name":"word","page_number":564,"line_number":10,"text":"إِنَّ","translation":{"text":"নিশ্চয়","language_name":"bengali","language_id":20},"transliteration":{"text":"inna","language_name":"english","language_id":38}},{"id":7877,"position":2,"audio_url":"wbw/068_007_002.mp3","verse_key":"68:7","verse_id":5278,"location":"68:7:2","text_uthmani":"رَبَّكَ","qpc_uthmani_hafs":"رَبَّكَ","char_type_name":"word","page_number":564,"line_number":10,"text":"رَبَّكَ","translation":{"text":"তোমার রব,","language_name":"bengali","language_id":20},"transliteration":{"text":"rabbaka","language_name":"english","language_id":38}},{"id":7878,"position":3,"audio_url":"wbw/068_007_003.mp3","verse_key":"68:7","verse_id":5278,"location":"68:7:3","text_uthmani":"هُوَ","qpc_uthmani_hafs":"هُوَ","char_type_name":"word","page_number":564,"line_number":10,"text":"هُوَ","translation":{"text":"তিনিই","language_name":"bengali","language_id":20},"transliteration":{"text":"huwa","language_name":"english","language_id":38}},{"id":7879,"position":4,"audio_url":"wbw/068_007_004.mp3","verse_key":"68:7","verse_id":5278,"location":"68:7:4","text_uthmani":"أَعْلَمُ","qpc_uthmani_hafs":"أَعۡلَمُ","char_type_name":"word","page_number":564,"line_number":10,"text":"أَعۡلَمُ","translation":{"text":"সব জানেন","language_name":"bengali","language_id":20},"transliteration":{"text":"aʿlamu","language_name":"english","language_id":38}},{"id":7880,"position":5,"audio_url":"wbw/068_007_005.mp3","verse_key":"68:7","verse_id":5278,"location":"68:7:5","text_uthmani":"بِمَن","qpc_uthmani_hafs":"بِمَن","char_type_name":"word","page_number":564,"line_number":10,"text":"بِمَن","translation":{"text":"কে","language_name":"bengali","language_id":20},"transliteration":{"text":"biman","language_name":"english","language_id":38}},{"id":7881,"position":6,"audio_url":"wbw/068_007_006.mp3","verse_key":"68:7","verse_id":5278,"location":"68:7:6","text_uthmani":"ضَلَّ","qpc_uthmani_hafs":"ضَلَّ","char_type_name":"word","page_number":564,"line_number":10,"text":"ضَلَّ","translation":{"text":"ভ্রষ্ট হয়েছে","language_name":"bengali","language_id":20},"transliteration":{"text":"ḍalla","language_name":"english","language_id":38}},{"id":7882,"position":7,"audio_url":"wbw/068_007_007.mp3","verse_key":"68:7","verse_id":5278,"location":"68:7:7","text_uthmani":"عَن","qpc_uthmani_hafs":"عَن","char_type_name":"word","page_number":564,"line_number":11,"text":"عَن","translation":{"text":"থেকে","language_name":"bengali","language_id":20},"transliteration":{"text":"ʿan","language_name":"english","language_id":38}},{"id":7883,"position":8,"audio_url":"wbw/068_007_008.mp3","verse_key":"68:7","verse_id":5278,"location":"68:7:8","text_uthmani":"سَبِيلِهِۦ","qpc_uthmani_hafs":"سَبِيلِهِۦ","char_type_name":"word","page_number":564,"line_number":11,"text":"سَبِيلِهِۦ","translation":{"text":"তার পথ,","language_name":"bengali","language_id":20},"transliteration":{"text":"sabīlihi","language_name":"english","language_id":38}},{"id":7884,"position":9,"audio_url":"wbw/068_007_009.mp3","verse_key":"68:7","verse_id":5278,"location":"68:7:9","text_uthmani":"وَهُوَ","qpc_uthmani_hafs":"وَهُوَ","char_type_name":"word","page_number":564,"line_number":11,"text":"وَهُوَ","translation":{"text":"এবং তিনিই","language_name":"bengali","language_id":20},"transliteration":{"text":"wahuwa","language_name":"english","language_id":38}},{"id":7885,"position":10,"audio_url":"wbw/068_007_010.mp3","verse_key":"68:7","verse_id":5278,"location":"68:7:10","text_uthmani":"أَعْلَمُ","qpc_uthmani_hafs":"أَعۡلَمُ","char_type_name":"word","page_number":564,"line_number":11,"text":"أَعۡلَمُ","translation":{"text":"সব জানেন","language_name":"bengali","language_id":20},"transliteration":{"text":"aʿlamu","language_name":"english","language_id":38}},{"id":7886,"position":11,"audio_url":"wbw/068_007_011.mp3","verse_key":"68:7","verse_id":5278,"location":"68:7:11","text_uthmani":"بِٱلْمُهْتَدِينَ","qpc_uthmani_hafs":"بِٱلۡمُهۡتَدِينَ","char_type_name":"word","page_number":564,"line_number":11,"text":"بِٱلۡمُهۡتَدِينَ","translation":{"text":"পথ প্রাপ্তদেরকে","language_name":"bengali","language_id":20},"transliteration":{"text":"bil-muh'tadīna","language_name":"english","language_id":38}},{"id":7887,"position":12,"audio_url":null,"verse_key":"68:7","verse_id":5278,"location":"68:7:12","text_uthmani":"٧","qpc_uthmani_hafs":"٧","char_type_name":"end","page_number":564,"line_number":11,"text":"٧","translation":{"text":"(৭)","language_name":"bengali","language_id":20},"transliteration":{"text":null,"language_name":"english","language_id":38}}]},{"id":5279,"verse_number":8,"verse_key":"68:8","hizb_number":57,"rub_el_hizb_number":226,"ruku_number":500,"manzil_number":7,"sajdah_number":null,"page_number":564,"juz_number":29,"words":[{"id":9067,"position":1,"audio_url":"wbw/068_008_001.mp3","verse_key":"68:8","verse_id":5279,"location":"68:8:1","text_uthmani":"فَلَا","qpc_uthmani_hafs":"فَلَا","char_type_name":"word","page_number":564,"line_number":11,"text":"فَلَا","translation":{"text":"না অতএব","language_name":"bengali","language_id":20},"transliteration":{"text":"falā","language_name":"english","language_id":38}},{"id":9068,"position":2,"audio_url":"wbw/068_008_002.mp3","verse_key":"68:8","verse_id":5279,"location":"68:8:2","text_uthmani":"تُطِعِ","qpc_uthmani_hafs":"تُطِعِ","char_type_name":"word","page_number":564,"line_number":11,"text":"تُطِعِ","translation":{"text":"মেনো","language_name":"bengali","language_id":20},"transliteration":{"text":"tuṭiʿi","language_name":"english","language_id":38}},{"id":9069,"position":3,"audio_url":"wbw/068_008_003.mp3","verse_key":"68:8","verse_id":5279,"location":"68:8:3","text_uthmani":"ٱلْمُكَذِّبِينَ","qpc_uthmani_hafs":"ٱلۡمُكَذِّبِينَ","char_type_name":"word","page_number":564,"line_number":11,"text":"ٱلۡمُكَذِّبِينَ","translation":{"text":"মিথ্যারোপকারীদের।","language_name":"bengali","language_id":20},"transliteration":{"text":"l-mukadhibīna","language_name":"english","language_id":38}},{"id":9070,"position":4,"audio_url":null,"verse_key":"68:8","verse_id":5279,"location":"68:8:4","text_uthmani":"٨","qpc_uthmani_hafs":"٨","char_type_name":"end","page_number":564,"line_number":12,"text":"٨","translation":{"text":"(৮)","language_name":"bengali","language_id":20},"transliteration":{"text":null,"language_name":"english","language_id":38}}]},{"id":5280,"verse_number":9,"verse_key":"68:9","hizb_number":57,"rub_el_hizb_number":226,"ruku_number":500,"manzil_number":7,"sajdah_number":null,"page_number":564,"juz_number":29,"words":[{"id":10283,"position":1,"audio_url":"wbw/068_009_001.mp3","verse_key":"68:9","verse_id":5280,"location":"68:9:1","text_uthmani":"وَدُّوا۟","qpc_uthmani_hafs":"وَدُّواْ","char_type_name":"word","page_number":564,"line_number":12,"text":"وَدُّواْ","translation":{"text":"তারা চাই","language_name":"bengali","language_id":20},"transliteration":{"text":"waddū","language_name":"english","language_id":38}},{"id":10284,"position":2,"audio_url":"wbw/068_009_002.mp3","verse_key":"68:9","verse_id":5280,"location":"68:9:2","text_uthmani":"لَوْ","qpc_uthmani_hafs":"لَوۡ","char_type_name":"word","page_number":564,"line_number":12,"text":"لَوۡ","translation":{"text":"যদি","language_name":"bengali","language_id":20},"transliteration":{"text":"law","language_name":"english","language_id":38}},{"id":10285,"position":3,"audio_url":"wbw/068_009_003.mp3","verse_key":"68:9","verse_id":5280,"location":"68:9:3","text_uthmani":"تُدْهِنُ","qpc_uthmani_hafs":"تُدۡهِنُ","char_type_name":"word","page_number":564,"line_number":12,"text":"تُدۡهِنُ","translation":{"text":"তুমি নমনীয় হও","language_name":"bengali","language_id":20},"transliteration":{"text":"tud'hinu","language_name":"english","language_id":38}},{"id":10286,"position":4,"audio_url":"wbw/068_009_004.mp3","verse_key":"68:9","verse_id":5280,"location":"68:9:4","text_uthmani":"فَيُدْهِنُونَ","qpc_uthmani_hafs":"فَيُدۡهِنُونَ","char_type_name":"word","page_number":564,"line_number":12,"text":"فَيُدۡهِنُونَ","translation":{"text":"তবে তারা নমনীয় হবে","language_name":"bengali","language_id":20},"transliteration":{"text":"fayud'hinūna","language_name":"english","language_id":38}},{"id":10287,"position":5,"audio_url":null,"verse_key":"68:9","verse_id":5280,"location":"68:9:5","text_uthmani":"٩","qpc_uthmani_hafs":"٩","char_type_name":"end","page_number":564,"line_number":12,"text":"٩","translation":{"text":"(৯)","language_name":"bengali","language_id":20},"transliteration":{"text":null,"language_name":"english","language_id":38}}]},{"id":5281,"verse_number":10,"verse_key":"68:10","hizb_number":57,"rub_el_hizb_number":226,"ruku_number":500,"manzil_number":7,"sajdah_number":null,"page_number":564,"juz_number":29,"words":[{"id":11458,"position":1,"audio_url":"wbw/068_010_001.mp3","verse_key":"68:10","verse_id":5281,"location":"68:10:1","text_uthmani":"وَلَا","qpc_uthmani_hafs":"وَلَا","char_type_name":"word","page_number":564,"line_number":12,"text":"وَلَا","translation":{"text":"এবং না","language_name":"bengali","language_id":20},"transliteration":{"text":"walā","language_name":"english","language_id":38}},{"id":11459,"position":2,"audio_url":"wbw/068_010_002.mp3","verse_key":"68:10","verse_id":5281,"location":"68:10:2","text_uthmani":"تُطِعْ","qpc_uthmani_hafs":"تُطِعۡ","char_type_name":"word","page_number":564,"line_number":12,"text":"تُطِعۡ","translation":{"text":"অনুসরণ করে!","language_name":"bengali","language_id":20},"transliteration":{"text":"tuṭiʿ","language_name":"english","language_id":38}},{"id":11460,"position":3,"audio_url":"wbw/068_010_003.mp3","verse_key":"68:10","verse_id":5281,"location":"68:10:3","text_uthmani":"كُلَّ","qpc_uthmani_hafs":"كُلَّ","char_type_name":"word","page_number":564,"line_number":12,"text":"كُلَّ","translation":{"text":"প্রত্যেক","language_name":"bengali","language_id":20},"transliteration":{"text":"kulla","language_name":"english","language_id":38}},{"id":11461,"position":4,"audio_url":"wbw/068_010_004.mp3","verse_key":"68:10","verse_id":5281,"location":"68:10:4","text_uthmani":"حَلَّافٍۢ","qpc_uthmani_hafs":"حَلَّافٖ","char_type_name":"word","page_number":564,"line_number":12,"text":"حَلَّافٖ","translation":{"text":"অত্যাধিক শপথকারী","language_name":"bengali","language_id":20},"transliteration":{"text":"ḥallāfin","language_name":"english","language_id":38}},{"id":11462,"position":5,"audio_url":"wbw/068_010_005.mp3","verse_key":"68:10","verse_id":5281,"location":"68:10:5","text_uthmani":"مَّهِينٍ","qpc_uthmani_hafs":"مَّهِينٍ","char_type_name":"word","page_number":564,"line_number":12,"text":"مَّهِينٍ","translation":{"text":"গুরুত্বহীন(ব্যক্তির)","language_name":"bengali","language_id":20},"transliteration":{"text":"mahīnin","language_name":"english","language_id":38}},{"id":11463,"position":6,"audio_url":null,"verse_key":"68:10","verse_id":5281,"location":"68:10:6","text_uthmani":"١٠","qpc_uthmani_hafs":"١٠","char_type_name":"end","page_number":564,"line_number":13,"text":"١٠","translation":{"text":"(১০)","language_name":"bengali","language_id":20},"transliteration":{"text":null,"language_name":"english","language_id":38}}]}],"pagination":{"per_page":10,"current_page":1,"next_page":2,"total_pages":6,"total_records":52}}
