{"verses":[{"id":5282,"verse_number":11,"verse_key":"68:11","hizb_number":57,"rub_el_hizb_number":226,"ruku_number":500,"manzil_number":7,"sajdah_number":null,"page_number":564,"juz_number":29,"words":[{"id":13076,"position":1,"audio_url":"wbw/068_011_001.mp3","verse_key":"68:11","verse_id":5282,"location":"68:11:1","text_uthmani":"هَمَّازٍۢ","qpc_uthmani_hafs":"هَمَّازٖ","char_type_name":"word","page_number":564,"line_number":13,"text":"هَمَّازٖ","translation":{"text":"নিন্দাকারী","language_name":"bengali","language_id":20},"transliteration":{"text":"hammāzin","language_name":"english","language_id":38}},{"id":13077,"position":2,"audio_url":"wbw/068_011_002.mp3","verse_key":"68:11","verse_id":5282,"location":"68:11:2","text_uthmani":"مَّشَّآءٍۭ","qpc_uthmani_hafs":"مَّشَّآءِۭ","char_type_name":"word","page_number":564,"line_number":13,"text":"مَّشَّآءِۭ","translation":{"text":"ঘুরে বেড়াই","language_name":"bengali","language_id":20},"transliteration":{"text":"mashāin","language_name":"english","language_id":38}},{"id":13078,"position":3,"audio_url":"wbw/068_011_003.mp3","verse_key":"68:11","verse_id":5282,"location":"68:11:3","text_uthmani":"بِنَمِيمٍۢ","qpc_uthmani_hafs":"بِنَمِيمٖ","char_type_name":"word","page_number":564,"line_number":13,"text":"بِنَمِيمٖ","translation":{"text":"চোগলখুরীসহ","language_name":"bengali","language_id":20},"transliteration":{"text":"binamīmin","language_name":"english","language_id":38}},{"id":13079,"position":4,"audio_url":null,"verse_key":"68:11","verse_id":5282,"location":"68:11:4","text_uthmani":"١١","qpc_uthmani_hafs":"١١","char_type_name":"end","page_number":564,"line_number":13,"text":"١١","translation":{"text":"(১১)","language_name":"bengali","language_id":20},"transliteration":{"text":null,"language_name":"english","language_id":38}}]},{"id":5283,"verse_number":12,"verse_key":"68:12","hizb_number":57,"rub_el_hizb_number":226,"ruku_number":500,"manzil_number":7,"sajdah_number":null,"page_number":564,"juz_number":29,"words":[{"id":13892,"position":1,"audio_url":"wbw/068_012_001.mp3","verse_key":"68:12","verse_id":5283,"location":"68:12:1","text_uthmani":"مَّنَّاعٍۢ","qpc_uthmani_hafs":"مَّنَّاعٖ","char_type_name":"word","page_number":564,"line_number":13,"text":"مَّنَّاعٖ","translation":{"text":"প্রতিবন্ধক,","language_name":"bengali","language_id":20},"transliteration":{"text":"mannāʿin","language_name":"english","language_id":38}},{"id":13893,"position":2,"audio_url":"wbw/068_012_002.mp3","verse_key":"68:12","verse_id":5283,"location":"68:12:2","text_uthmani":"لِّلْخَيْرِ","qpc_uthmani_hafs":"لِّلۡخَيۡرِ","char_type_name":"word","page_number":564,"line_number":13,"text":"لِّلۡخَيۡرِ","translation":{"text":"কল্যানের জন্য","language_name":"bengali","language_id":20},"transliteration":{"text":"lil'khayri","language_name":"english","language_id":38}},{"id":13894,"position":3,"audio_url":"wbw/068_012_003.mp3","verse_key":"68:12","verse_id":5283,"location":"68:12:3","text_uthmani":"مُعْتَدٍ","qpc_uthmani_hafs":"مُعۡتَدٍ","char_type_name":"word","page_number":564,"line_number":13,"text":"مُعۡتَدٍ","translation":{"text":"সীমালংঘণকারী,","language_name":"bengali","language_id":20},"transliteration":{"text":"muʿ'tadin","language_name":"english","language_id":38}},{"id":13895,"position":4,"audio_url":"wbw/068_012_004.mp3","verse_key":"68:12","verse_id":5283,"location":"68:12:4","text_uthmani":"أَثِيمٍ","qpc_uthmani_hafs":"أَثِيمٍ","char_type_name":"word","page_number":564,"line_number":13,"text":"أَثِيمٍ","translation":{"text":"পাপিষ্ঠ","language_name":"bengali","language_id":20},"transliteration":{"text":"athīmin","language_name":"english","language_id":38}},{"id":13896,"position":5,"audio_url":null,"verse_key":"68:12","verse_id":5283,"location":"68:12:5","text_uthmani":"١٢","qpc_uthmani_hafs":"١٢","char_type_name":"end","page_number":564,"line_number":13,"text":"١٢","translation":{"text":"(১২)","language_name":"bengali","language_id":20},"transliteration":{"text":null,"language_name":"english","language_id":38}}]},{"id":5284,"verse_number":13,"verse_key":"68:13","hizb_number":57,"rub_el_hizb_number":226,"ruku_number":500,"manzil_number":7,"sajdah_number":null,"page_number":564,"juz_number":29,"words":[{"id":15068,"position":1,"audio_url":"wbw/068_013_001.mp3","verse_key":"68:13","verse_id":5284,"location":"68:13:1","text_uthmani":"عُتُلٍّۭ","qpc_uthmani_hafs":"عُتُلِّۭ","char_type_name":"word","page_number":564,"line_number":14,"text":"عُتُلِّۭ","translation":{"text":"নিষ্ঠুর,","language_name":"bengali","language_id":20},"transliteration":{"text":"ʿutullin","language_name":"english","language_id":38}},{"id":15069,"position":2,"audio_url":"wbw/068_013_002.mp3","verse_key":"68:13","verse_id":5284,"location":"68:13:2","text_uthmani":"بَعْدَ","qpc_uthmani_hafs":"بَعۡدَ","char_type_name":"word","page_number":564,"line_number":14,"text":"بَعۡدَ","translation":{"text":"পরে","language_name":"bengali","language_id":20},"transliteration":{"text":"baʿda","language_name":"english","language_id":38}},{"id":15070,"position":3,"audio_url":"wbw/068_013_003.mp3","verse_key":"68:13","verse_id":5284,"location":"68:13:3","text_uthmani":"ذَٰلِكَ","qpc_uthmani_hafs":"ذَٰلِكَ","char_type_name":"word","page_number":564,"line_number":14,"text":"ذَٰلِكَ","translation":{"text":"এর","language_name":"bengali","language_id":20},"transliteration":{"text":"dhālika","language_name":"english","language_id":38}},{"id":15071,"position":4,"audio_url":"wbw/068_013_004.mp3","verse_key":"68:13","verse_id":5284,"location":"68:13:4","text_uthmani":"زَنِيمٍ","qpc_uthmani_hafs":"زَنِيمٍ","char_type_name":"word","page_number":564,"line_number":14,"text":"زَنِيمٍ","translation":{"text":"(এ কারণে) বদজাতও","language_name":"bengali","language_id":20},"transliteration":{"text":"zanīmin","language_name":"english","language_id":38}},{"id":15072,"position":5,"audio_url":null,"verse_key":"68:13","verse_id":5284,"location":"68:13:5","text_uthmani":"١٣","qpc_uthmani_hafs":"١٣","char_type_name":"end","page_number":564,"line_number":14,"text":"١٣","translation":{"text":"(১৩)","language_name":"bengali","language_id":20},"transliteration":{"text":null,"language_name":"english","language_id":38}}]},{"id":5285,"verse_number":14,"verse_key":"68:14","hizb_number":57,"rub_el_hizb_number":226,"ruku_number":500,"manzil_number":7,"sajdah_number":null,"page_number":564,"juz_number":29,"words":[{"id":16157,"position":1,"audio_url":"wbw/068_014_001.mp3","verse_key":"68:14","verse_id":5285,"location":"68:14:1","text_uthmani":"أَن","qpc_uthmani_hafs":"أَن","char_type_name":"word","page_number":564,"line_number":14,"text":"أَن","translation":{"text":"যে","language_name":"bengali","language_id":20},"transliteration":{"text":"an","language_name":"english","language_id":38}},{"id":16158,"position":2,"audio_url":"wbw/068_014_002.mp3","verse_key":"68:14","verse_id":5285,"location":"68:14:2","text_uthmani":"كَانَ","qpc_uthmani_hafs":"كَانَ","char_type_name":"word","page_number":564,"line_number":14,"text":"كَانَ","translation":{"text":"সেছিলো","language_name":"bengali","language_id":20},"transliteration":{"text":"kāna","language_name":"english","language_id":38}},{"id":16159,"position":3,"audio_url":"wbw/068_014_003.mp3","verse_key":"68:14","verse_id":5285,"location":"68:14:3","text_uthmani":"ذَا","qpc_uthmani_hafs":"ذَا","char_type_name":"word","page_number":564,"line_number":14,"text":"ذَا","translation":{"text":"অধিকারী","language_name":"bengali","language_id":20},"transliteration":{"text":"dhā","language_name":"english","language_id":38}},{"id":16160,"position":4,"audio_url":"wbw/068_014_004.mp3","verse_key":"68:14","verse_id":5285,"location":"68:14:4","text_uthmani":"مَالٍۢ","qpc_uthmani_hafs":"مَالٖ","char_type_name":"word","page_number":564,"line_number":14,"text":"مَالٖ","translation":{"text":"মালের(ধন-সম্পদের)","language_name":"bengali","language_id":20},"transliteration":{"text":"mālin","language_name":"english","language_id":38}},{"id":16161,"position":5,"audio_url":"wbw/068_014_005.mp3","verse_key":"68:14","verse_id":5285,"location":"68:14:5","text_uthmani":"وَبَنِينَ","qpc_uthmani_hafs":"وَبَنِينَ","char_type_name":"word","page_number":564,"line_number":14,"text":"وَبَنِينَ","translation":{"text":"এবং সন্তানসন্ততির","language_name":"bengali","language_id":20},"transliteration":{"text":"wabanīna","language_name":"english","language_id":38}},{"id":16162,"position":6,"audio_url":null,"verse_key":"68:14","verse_id":5285,"location":"68:14:6","text_uthmani":"١٤","qpc_uthmani_hafs":"١٤","char_type_name":"end","page_number":564,"line_number":14,"text":"١٤","translation":{"text":"(১৪)","language_name":"bengali","language_id":20},"transliteration":{"text":null,"language_name":"english","language_id":38}}]},{"id":5286,"verse_number":15,"verse_key":"68:15","hizb_number":57,"rub_el_hizb_number":226,"ruku_number":500,"manzil_number":7,"sajdah_number":null,"page_number":564,"juz_number":29,"words":[{"id":17428,"position":1,"audio_url":"wbw/068_015_001.mp3","verse_key":"68:15","verse_id":5286,"location":"68:15:1","text_uthmani":"إِذَا","qpc_uthmani_hafs":"إِذَا","char_type_name":"word","page_number":564,"line_number":14,"text":"إِذَا","translation":{"text":"যখন","language_name":"bengali","language_id":20},"transliteration":{"text":"idhā","language_name":"english","language_id":38}},{"id":17429,"position":2,"audio_url":"wbw/068_015_002.mp3","verse_key":"68:15","verse_id":5286,"location":"68:15:2","text_uthmani":"تُتْلَىٰ","qpc_uthmani_hafs":"تُتۡلَىٰ","char_type_name":"word","page_number":564,"line_number":14,"text":"تُتۡلَىٰ","translation":{"text":"আবৃত্তি করা হয়","language_name":"bengali","language_id":20},"transliteration":{"text":"tut'lā","language_name":"english","language_id":38}},{"id":17430,"position":3,"audio_url":"wbw/068_015_003.mp3","verse_key":"68:15","verse_id":5286,"location":"68:15:3","text_uthmani":"عَلَيْهِ","qpc_uthmani_hafs":"عَلَيۡهِ","char_type_name":"word","page_number":564,"line_number":14,"text":"عَلَيۡهِ","translation":{"text":"তার নিকট","language_name":"bengali","language_id":20},"transliteration":{"text":"ʿalayhi","language_name":"english","language_id":38}},{"id":17431,"position":4,"audio_url":"wbw/068_015_004.mp3","verse_key":"68:15","verse_id":5286,"location":"68:15:4","text_uthmani":"ءَايَـٰتُنَا","qpc_uthmani_hafs":"ءَايَٰتُنَا","char_type_name":"word","page_number":564,"line_number":15,"text":"ءَايَٰتُنَا","translation":{"text":"আমাদের আয়াতগুলো,","language_name":"bengali","language_id":20},"transliteration":{"text":"āyātunā","language_name":"english","language_id":38}},{"id":17432,"position":5,"audio_url":"wbw/068_015_005.mp3","verse_key":"68:15","verse_id":5286,"location":"68:15:5","text_uthmani":"قَالَ","qpc_uthmani_hafs":"قَالَ","char_type_name":"word","page_number":564,"line_number":15,"text":"قَالَ","translation":{"text":"সে বলে,","language_name":"bengali","language_id":20},"transliteration":{"text":"qāla","language_name":"english","language_id":38}},{"id":17433,"position":6,"audio_url":"wbw/068_015_006.mp3","verse_key":"68:15","verse_id":5286,"location":"68:15:6","text_uthmani":"أَسَـٰطِيرُ","qpc_uthmani_hafs":"أَسَٰطِيرُ","char_type_name":"word","page_number":564,"line_number":15,"text":"أَسَٰطِيرُ","translation":{"text":"\"গল্পকাহিনী সমুহ","language_name":"bengali","language_id":20},"transliteration":{"text":"asāṭīru","language_name":"english","language_id":38}},{"id":17434,"position":7,"audio_url":"wbw/068_015_007.mp3","verse_key":"68:15","verse_id":5286,"location":"68:15:7","text_uthmani":"ٱلْأَوَّلِينَ","qpc_uthmani_hafs":"ٱلۡأَوَّلِينَ","char_type_name":"word","page_number":564,"line_number":15,"text":"ٱلۡأَوَّلِينَ","translation":{"text":"আগেরকালের(লোকদের)\"","language_name":"bengali","language_id":20},"transliteration":{"text":"l-awalīna","language_name":"english","language_id":38}},{"id":17435,"position":8,"audio_url":null,"verse_key":"68:15","verse_id":5286,"location":"68:15:8","text_uthmani":"١٥","qpc_uthmani_hafs":"١٥","char_type_name":"end","page_number":564,"line_number":15,"text":"١٥","translation":{"text":"(১৫)","language_name":"bengali","language_id":20},"transliteration":{"text":null,"language_name":"english","language_id":38}}]},{"id":5287,"verse_number":16,"verse_key":"68:16","hizb_number":57,"rub_el_hizb_number":226,"ruku_number":500,"manzil_number":7,"sajdah_number":null,"page_number":564,"juz_number":29,"words":[{"id":18491,"position":1,"audio_url":"wbw/068_016_001.mp3","verse_key":"68:16","verse_id":5287,"location":"68:16:1","text_uthmani":"سَنَسِمُهُۥ","qpc_uthmani_hafs":"سَنَسِمُهُۥ","char_type_name":"word","page_number":564,"line_number":15,"text":"سَنَسِمُهُۥ","translation":{"text":"তাকে দাগাব শিঘ্র","language_name":"bengali","language_id":20},"transliteration":{"text":"sanasimuhu","language_name":"english","language_id":38}},{"id":18492,"position":2,"audio_url":"wbw/068_016_002.mp3","verse_key":"68:16","verse_id":5287,"location":"68:16:2","text_uthmani":"عَلَى","qpc_uthmani_hafs":"عَلَى","char_type_name":"word","page_number":564,"line_number":15,"text":"عَلَى","translation":{"text":"উপর","language_name":"bengali","language_id":20},"transliteration":{"text":"ʿalā","language_name":"english","language_id":38}},{"id":18493,"position":3,"audio_url":"wbw/068_016_003.mp3","verse_key":"68:16","verse_id":5287,"location":"68:16:3","text_uthmani":"ٱلْخُرْطُومِ","qpc_uthmani_hafs":"ٱلۡخُرۡطُومِ","char_type_name":"word","page_number":564,"line_number":15,"text":"ٱلۡخُرۡطُومِ","translation":{"text":"শুড়ের","language_name":"bengali","language_id":20},"transliteration":{"text":"l-khur'ṭūmi","language_name":"english","language_id":38}},{"id":18494,"position":4,"audio_url":null,"verse_key":"68:16","verse_id":5287,"location":"68:16:4","text_uthmani":"١٦","qpc_uthmani_hafs":"١٦","char_type_name":"end","page_number":564,"line_number":15,"text":"١٦","translation":{"text":"(১৬)","language_name":"bengali","language_id":20},"transliteration":{"text":null,"language_name":"english","language_id":38}}]},{"id":5288,"verse_number":17,"verse_key":"68:17","hizb_number":57,"rub_el_hizb_number":226,"ruku_number":500,"manzil_number":7,"sajdah_number":null,"page_number":565,"juz_number":29,"words":[{"id":19055,"position":1,"audio_url":"wbw/068_017_001.mp3","verse_key":"68:17","verse_id":5288,"location":"68:17:1","text_uthmani":"إِنَّا","qpc_uthmani_hafs":"إِنَّا","char_type_name":"word","page_number":565,"line_number":1,"text":"إِنَّا","translation":{"text":"নিশ্চয়,আমরা","language_name":"bengali","language_id":20},"transliteration":{"text":"innā","language_name":"english","language_id":38}},{"id":19056,"position":2,"audio_url":"wbw/068_017_002.mp3","verse_key":"68:17","verse_id":5288,"location":"68:17:2","text_uthmani":"بَلَوْنَـٰهُمْ","qpc_uthmani_hafs":"بَلَوۡنَٰهُمۡ","char_type_name":"word","page_number":565,"line_number":1,"text":"بَلَوۡنَٰهُمۡ","translation":{"text":"তাদের পরীক্ষায় ফেলেছি","language_name":"bengali","language_id":20},"transliteration":{"text":"balawnāhum","language_name":"english","language_id":38}},{"id":19057,"position":3,"audio_url":"wbw/068_017_003.mp3","verse_key":"68:17","verse_id":5288,"location":"68:17:3","text_uthmani":"كَمَا","qpc_uthmani_hafs":"كَمَا","char_type_name":"word","page_number":565,"line_number":1,"text":"كَمَا","translation":{"text":"যেমন","language_name":"bengali","language_id":20},"transliteration":{"text":"kamā","language_name":"english","language_id":38}},{"id":19058,"position":4,"audio_url":"wbw/068_017_004.mp3","verse_key":"68:17","verse_id":5288,"location":"68:17:4","text_uthmani":"بَلَوْنَآ","qpc_uthmani_hafs":"بَلَوۡنَآ","char_type_name":"word","page_number":565,"line_number":1,"text":"بَلَوۡنَآ","translation":{"text":"আমরা পরীক্ষা করেছিলাম","language_name":"bengali","language_id":20},"transliteration":{"text":"balawnā","language_name":"english","language_id":38}},{"id":19059,"position":5,"audio_url":"wbw/068_017_005.mp3","verse_key":"68:17","verse_id":5288,"location":"68:17:5","text_uthmani":"أَصْحَـٰبَ","qpc_uthmani_hafs":"أَصۡحَٰبَ","char_type_name":"word","page_number":565,"line_number":1,"text":"أَصۡحَٰبَ","translation":{"text":"মালিকদের","language_name":"bengali","language_id":20},"transliteration":{"text":"aṣḥāba","language_name":"english","language_id":38}},{"id":19060,"position":6,"audio_url":"wbw/068_017_006.mp3","verse_key":"68:17","verse_id":5288,"location":"68:17:6","text_uthmani":"ٱلْجَنَّةِ","qpc_uthmani_hafs":"ٱلۡجَنَّةِ","char_type_name":"word","page_number":565,"line_number":1,"text":"ٱلۡجَنَّةِ","translation":{"text":"বাগানটির","language_name":"bengali","language_id":20},"transliteration":{"text":"l-janati","language_name":"english","language_id":38}},{"id":19061,"position":7,"audio_url":"wbw/068_017_007.mp3","verse_key":"68:17","verse_id":5288,"location":"68:17:7","text_uthmani":"إِذْ","qpc_uthmani_hafs":"إِذۡ","char_type_name":"word","page_number":565,"line_number":1,"text":"إِذۡ","translation":{"text":"যখন","language_name":"bengali","language_id":20},"transliteration":{"text":"idh","language_name":"english","language_id":38}},{"id":19062,"position":8,"audio_url":"wbw/068_017_008.mp3","verse_key":"68:17","verse_id":5288,"location":"68:17:8","text_uthmani":"أَقْسَمُوا۟","qpc_uthmani_hafs":"أَقۡسَمُواْ","char_type_name":"word","page_number":565,"line_number":1,"text":"أَقۡسَمُواْ","translation":{"text":"তারা শপথ করেছিল","language_name":"bengali","language_id":20},"transliteration":{"text":"aqsamū","language_name":"english","language_id":38}},{"id":19063,"position":9,"audio_url":"wbw/068_017_009.mp3","verse_key":"68:17","verse_id":5288,"location":"68:17:9","text_uthmani":"لَيَصْرِمُنَّهَا","qpc_uthmani_hafs":"لَيَصۡرِمُنَّهَا","char_type_name":"word","page_number":565,"line_number":1,"text":"لَيَصۡرِمُنَّهَا","translation":{"text":"তারা অবশ্যই তা কাটবে(পাড়িবে)","language_name":"bengali","language_id":20},"transliteration":{"text":"layaṣrimunnahā","language_name":"english","language_id":38}},{"id":19064,"position":10,"audio_url":"wbw/068_017_010.mp3","verse_key":"68:17","verse_id":5288,"location":"68:17:10","text_uthmani":"مُصْبِحِينَ","qpc_uthmani_hafs":"مُصۡبِحِينَ","char_type_name":"word","page_number":565,"line_number":1,"text":"مُصۡبِحِينَ","translation":{"text":"সকাল(হতে)","language_name":"bengali","language_id":20},"transliteration":{"text":"muṣ'biḥīna","language_name":"english","language_id":38}},{"id":19065,"position":11,"audio_url":null,"verse_key":"68:17","verse_id":5288,"location":"68:17:11","text_uthmani":"١٧","qpc_uthmani_hafs":"١٧","char_type_name":"end","page_number":565,"line_number":1,"text":"١٧","translation":{"text":"(১৭)","language_name":"bengali","language_id":20},"transliteration":{"text":null,"language_name":"english","language_id":38}}]},{"id":5289,"verse_number":18,"verse_key":"68:18","hizb_number":57,"rub_el_hizb_number":226,"ruku_number":500,"manzil_number":7,"sajdah_number":null,"page_number":565,"juz_number":29,"words":[{"id":20548,"position":1,"audio_url":"wbw/068_018_001.mp3","verse_key":"68:18","verse_id":5289,"location":"68:18:1","text_uthmani":"وَلَا","qpc_uthmani_hafs":"وَلَا","char_type_name":"word","page_number":565,"line_number":1,"text":"وَلَا","translation":{"text":"এবং না","language_name":"bengali","language_id":20},"transliteration":{"text":"walā","language_name":"english","language_id":38}},{"id":20549,"position":2,"audio_url":"wbw/068_018_002.mp3","verse_key":"68:18","verse_id":5289,"location":"68:18:2","text_uthmani":"يَسْتَثْنُونَ","qpc_uthmani_hafs":"يَسۡتَثۡنُونَ","char_type_name":"word","page_number":565,"line_number":2,"text":"يَسۡتَثۡنُونَ","translation":{"text":"তারা ব্যাতিক্রম রাখলো","language_name":"bengali","language_id":20},"transliteration":{"text":"yastathnūna","language_name":"english","language_id":38}},{"id":20550,"position":3,"audio_url":null,"verse_key":"68:18","verse_id":5289,"location":"68:18:3","text_uthmani":"١٨","qpc_uthmani_hafs":"١٨","char_type_name":"end","page_number":565,"line_number":2,"text":"١٨","translation":{"text":"(১৮)","language_name":"bengali","language_id":20},"transliteration":{"text":null,"language_name":"english","language_id":38}}]},{"id":5290,"verse_number":19,"verse_key":"68:19","hizb_number":57,"rub_el_hizb_number":226,"ruku_number":500,"manzil_number":7,"sajdah_number":null,"page_number":565,"juz_number":29,"words":[{"id":22185,"position":1,"audio_url":"wbw/068_019_001.mp3","verse_key":"68:19","verse_id":5290,"location":"68:19:1","text_uthmani":"فَطَافَ","qpc_uthmani_hafs":"فَطَافَ","char_type_name":"word","page_number":565,"line_number":2,"text":"فَطَافَ","translation":{"text":"অতএব বিপদ আসলো","language_name":"bengali","language_id":20},"transliteration":{"text":"faṭāfa","language_name":"english","language_id":38}},{"id":22186,"position":2,"audio_url":"wbw/068_019_002.mp3","verse_key":"68:19","verse_id":5290,"location":"68:19:2","text_uthmani":"عَلَيْهَا","qpc_uthmani_hafs":"عَلَيۡهَا","char_type_name":"word","page_number":565,"line_number":2,"text":"عَلَيۡهَا","translation":{"text":"তার উপর","language_name":"bengali","language_id":20},"transliteration":{"text":"ʿalayhā","language_name":"english","language_id":38}},{"id":22187,"position":3,"audio_url":"wbw/068_019_003.mp3","verse_key":"68:19","verse_id":5290,"location":"68:19:3","text_uthmani":"طَآئِفٌۭ","qpc_uthmani_hafs":"طَآئِفٞ","char_type_name":"word","page_number":565,"line_number":2,"text":"طَآئِفٞ","translation":{"text":"বিপদ","language_name":"bengali","language_id":20},"transliteration":{"text":"ṭāifun","language_name":"english","language_id":38}},{"id":22188,"position":4,"audio_url":"wbw/068_019_004.mp3","verse_key":"68:19","verse_id":5290,"location":"68:19:4","text_uthmani":"مِّن","qpc_uthmani_hafs":"مِّن","char_type_name":"word","page_number":565,"line_number":2,"text":"مِّن","translation":{"text":"থেকে","language_name":"bengali","language_id":20},"transliteration":{"text":"min","language_name":"english","language_id":38}},{"id":22189,"position":5,"audio_url":"wbw/068_019_005.mp3","verse_key":"68:19","verse_id":5290,"location":"68:19:5","text_uthmani":"رَّبِّكَ","qpc_uthmani_hafs":"رَّبِّكَ","char_type_name":"word","page_number":565,"line_number":2,"text":"رَّبِّكَ","translation":{"text":"তোমার রবের,","language_name":"bengali","language_id":20},"transliteration":{"text":"rabbika","language_name":"english","language_id":38}},{"id":22190,"position":6,"audio_url":"wbw/068_019_006.mp3","verse_key":"68:19","verse_id":5290,"location":"68:19:6","text_uthmani":"وَهُمْ","qpc_uthmani_hafs":"وَهُمۡ","char_type_name":"word","page_number":565,"line_number":2,"text":"وَهُمۡ","translation":{"text":"এবং তারা(ছিল)","language_name":"bengali","language_id":20},"transliteration":{"text":"wahum","language_name":"english","language_id":38}},{"id":22191,"position":7,"audio_url":"wbw/068_019_007.mp3","verse_key":"68:19","verse_id":5290,"location":"68:19:7","text_uthmani":"نَآئِمُونَ","qpc_uthmani_hafs":"نَآئِمُونَ","char_type_name":"word","page_number":565,"line_number":2,"text":"نَآئِمُونَ","translation":{"text":"ঘুমন্ত অবস্থায়","language_name":"bengali","language_id":20},"transliteration":{"text":"nāimūna","language_name":"english","language_id":38}},{"id":22192,"position":8,"audio_url":null,"verse_key":"68:19","verse_id":5290,"location":"68:19:8","text_uthmani":"١٩","qpc_uthmani_hafs":"١٩","char_type_name":"end","page_number":565,"line_number":2,"text":"١٩","translation":{"text":"(১৯)","language_name":"bengali","language_id":20},"transliteration":{"text":null,"language_name":"english","language_id":38}}]},{"id":5291,"verse_number":20,"verse_key":"68:20","hizb_number":57,"rub_el_hizb_number":226,"ruku_number":500,"manzil_number":7,"sajdah_number":null,"page_number":565,"juz_number":29,"words":[{"id":23281,"position":1,"audio_url":"wbw/068_020_001.mp3","verse_key":"68:20","verse_id":5291,"location":"68:20:1","text_uthmani":"فَأَصْبَحَتْ","qpc_uthmani_hafs":"فَأَصۡبَحَتۡ","char_type_name":"word","page_number":565,"line_number":2,"text":"فَأَصۡبَحَتۡ","translation":{"text":"ফলে হয়ে গেল","language_name":"bengali","language_id":20},"transliteration":{"text":"fa-aṣbaḥat","language_name":"english","language_id":38}},{"id":23282,"position":2,"audio_url":"wbw/068_020_002.mp3","verse_key":"68:20","verse_id":5291,"location":"68:20:2","text_uthmani":"كَٱلصَّرِيمِ","qpc_uthmani_hafs":"كَٱلصَّرِيمِ","char_type_name":"word","page_number":565,"line_number":3,"text":"كَٱلصَّرِيمِ","translation":{"text":"কর্তিত ফসলের মত","language_name":"bengali","language_id":20},"transliteration":{"text":"kal-ṣarīmi","language_name":"english","language_id":38}},{"id":23283,"position":3,"audio_url":null,"verse_key":"68:20","verse_id":5291,"location":"68:20:3","text_uthmani":"٢٠","qpc_uthmani_hafs":"٢٠","char_type_name":"end","page_number":565,"line_number":3,"text":"٢٠","translation":{"text":"(২০)","language_name":"bengali","language_id":20},"transliteration":{"text":null,"language_name":"english","language_id":38}}]}],"pagination":{"per_page":10,"current_page":2,"next_page":3,"total_pages":6,"total_records":52}}
