{"verses":[{"id":5292,"verse_number":21,"verse_key":"68:21","hizb_number":57,"rub_el_hizb_number":226,"ruku_number":500,"manzil_number":7,"sajdah_number":null,"page_number":565,"juz_number":29,"words":[{"id":24346,"position":1,"audio_url":"wbw/068_021_001.mp3","verse_key":"68:21","verse_id":5292,"location":"68:21:1","text_uthmani":"فَتَنَادَوْا۟","qpc_uthmani_hafs":"فَتَنَادَوۡاْ","char_type_name":"word","page_number":565,"line_number":3,"text":"فَتَنَادَوۡاْ","translation":{"text":"অতঃপর পরস্পরে ডাকলো","language_name":"bengali","language_id":20},"transliteration":{"text":"fatanādaw","language_name":"english","language_id":38}},{"id":24347,"position":2,"audio_url":"wbw/068_021_002.mp3","verse_key":"68:21","verse_id":5292,"location":"68:21:2","text_uthmani":"مُصْبِحِينَ","qpc_uthmani_hafs":"مُصۡبِحِينَ","char_type_name":"word","page_number":565,"line_number":3,"text":"مُصۡبِحِينَ","translation":{"text":"সকাল(হতে)","language_name":"bengali","language_id":20},"transliteration":{"text":"muṣ'biḥīna","language_name":"english","language_id":38}},{"id":24348,"position":3,"audio_url":null,"verse_key":"68:21","verse_id":5292,"location":"68:21:3","text_uthmani":"٢١","qpc_uthmani_hafs":"٢١","char_type_name":"end","page_number":565,"line_number":3,"text":"٢١","translation":{"text":"(২১)","language_name":"bengali","language_id":20},"transliteration":{"text":null,"language_name":"english","language_id":38}}]},{"id":5293,"verse_number":22,"verse_key":"68:22","hizb_number":57,"rub_el_hizb_number":226,"ruku_number":500,"manzil_number":7,"sajdah_number":null,"page_number":565,"juz_number":29,"words":[{"id":24880,"position":1,"audio_url":"wbw/068_022_001.mp3","verse_key":"68:22","verse_id":5293,"location":"68:22:1","text_uthmani":"أَنِ","qpc_uthmani_hafs":"أَنِ","char_type_name":"word","page_number":565,"line_number":3,"text":"أَنِ","translation":{"text":"যে","language_name":"bengali","language_id":20},"transliteration":{"text":"ani","language_name":"english","language_id":38}},{"id":24881,"position":2,"audio_url":"wbw/068_022_002.mp3","verse_key":"68:22","verse_id":5293,"location":"68:22:2","text_uthmani":"ٱغْدُوا۟","qpc_uthmani_hafs":"ٱغۡدُواْ","char_type_name":"word","page_number":565,"line_number":3,"text":"ٱغۡدُواْ","translation":{"text":"\"সকালে চলো","language_name":"bengali","language_id":20},"transliteration":{"text":"igh'dū","language_name":"english","language_id":38}},{"id":24882,"position":3,"audio_url":"wbw/068_022_003.mp3","verse_key":"68:22","verse_id":5293,"location":"68:22:3","text_uthmani":"عَلَىٰ","qpc_uthmani_hafs":"عَلَىٰ","char_type_name":"word","page_number":565,"line_number":3,"text":"عَلَىٰ","translation":{"text":"দিকে","language_name":"bengali","language_id":20},"transliteration":{"text":"ʿalā","language_name":"english","language_id":38}},{"id":24883,"position":4,"audio_url":"wbw/068_022_004.mp3","verse_key":"68:22","verse_id":5293,"location":"68:22:4","text_uthmani":"حَرْثِكُمْ","qpc_uthmani_hafs":"حَرۡثِكُمۡ","char_type_name":"word","page_number":565,"line_number":3,"text":"حَرۡثِكُمۡ","translation":{"text":"তোমাদের ক্ষেতের","language_name":"bengali","language_id":20},"transliteration":{"text":"ḥarthikum","language_name":"english","language_id":38}},{"id":24884,"position":5,"audio_url":"wbw/068_022_005.mp3","verse_key":"68:22","verse_id":5293,"location":"68:22:5","text_uthmani":"إِن","qpc_uthmani_hafs":"إِن","char_type_name":"word","page_number":565,"line_number":3,"text":"إِن","translation":{"text":"যদি","language_name":"bengali","language_id":20},"transliteration":{"text":"in","language_name":"english","language_id":38}},{"id":24885,"position":6,"audio_url":"wbw/068_022_006.mp3","verse_key":"68:22","verse_id":5293,"location":"68:22:6","text_uthmani":"كُنتُمْ","qpc_uthmani_hafs":"كُنتُمۡ","char_type_name":"word","page_number":565,"line_number":3,"text":"كُنتُمۡ","translation":{"text":"তোমরা হও","language_name":"bengali","language_id":20},"transliteration":{"text":"kuntum","language_name":"english","language_id":38}},{"id":24886,"position":7,"audio_url":"wbw/068_022_007.mp3","verse_key":"68:22","verse_id":5293,"location":"68:22:7","text_uthmani":"صَـٰرِمِينَ","qpc_uthmani_hafs":"صَٰرِمِينَ","char_type_name":"word","page_number":565,"line_number":4,"text":"صَٰرِمِينَ","translation":{"text":"ফসল কর্তনকারী\"","language_name":"bengali","language_id":20},"transliteration":{"text":"ṣārimīna","language_name":"english","language_id":38}},{"id":24887,"position":8,"audio_url":null,"verse_key":"68:22","verse_id":5293,"location":"68:22:8","text_uthmani":"٢٢","qpc_uthmani_hafs":"٢٢","char_type_name":"end","page_number":565,"line_number":4,"text":"٢٢","translation":{"text":"(২২)","language_name":"bengali","language_id":20},"transliteration":{"text":null,"language_name":"english","language_id":38}}]},{"id":5294,"verse_number":23,"verse_key":"68:23","hizb_number":57,"rub_el_hizb_number":226,"ruku_number":500,"manzil_number":7,"sajdah_number":null,"page_number":565,"juz_number":29,"words":[{"id":25942,"position":1,"audio_url":"wbw/068_023_001.mp3","verse_key":"68:23","verse_id":5294,"location":"68:23:1","text_uthmani":"فَٱنطَلَقُوا۟","qpc_uthmani_hafs":"فَٱنطَلَقُواْ","char_type_name":"word","page_number":565,"line_number":4,"text":"فَٱنطَلَقُواْ","translation":{"text":"অতঃপর তারা চললো","language_name":"bengali","language_id":20},"transliteration":{"text":"fa-inṭalaqū","language_name":"english","language_id":38}},{"id":25943,"position":2,"audio_url":"wbw/068_023_002.mp3","verse_key":"68:23","verse_id":5294,"location":"68:23:2","text_uthmani":"وَهُمْ","qpc_uthmani_hafs":"وَهُمۡ","char_type_name":"word","page_number":565,"line_number":4,"text":"وَهُمۡ","translation":{"text":"এবং তারা","language_name":"bengali","language_id":20},"transliteration":{"text":"wahum","language_name":"english","language_id":38}},{"id":25944,"position":3,"audio_url":"wbw/068_023_003.mp3","verse_key":"68:23","verse_id":5294,"location":"68:23:3","text_uthmani":"يَتَخَـٰفَتُونَ","qpc_uthmani_hafs":"يَتَخَٰفَتُونَ","char_type_name":"word","page_number":565,"line_number":4,"text":"يَتَخَٰفَتُونَ","translation":{"text":"নিচু স্বরে বলছিল","language_name":"bengali","language_id":20},"transliteration":{"text":"yatakhāfatūna","language_name":"english","language_id":38}},{"id":25945,"position":4,"audio_url":null,"verse_key":"68:23","verse_id":5294,"location":"68:23:4","text_uthmani":"٢٣","qpc_uthmani_hafs":"٢٣","char_type_name":"end","page_number":565,"line_number":4,"text":"٢٣","translation":{"text":"(২৩)","language_name":"bengali","language_id":20},"transliteration":{"text":null,"language_name":"english","language_id":38}}]},{"id":5295,"verse_number":24,"verse_key":"68:24","hizb_number":57,"rub_el_hizb_number":226,"ruku_number":500,"manzil_number":7,"sajdah_number":null,"page_number":565,"juz_number":29,"words":[{"id":26995,"position":1,"audio_url":"wbw/068_024_001.mp3","verse_key":"68:24","verse_id":5295,"location":"68:24:1","text_uthmani":"أَن","qpc_uthmani_hafs":"أَن","char_type_name":"word","page_number":565,"line_number":4,"text":"أَن","translation":{"text":"যে","language_name":"bengali","language_id":20},"transliteration":{"text":"an","language_name":"english","language_id":38}},{"id":26996,"position":2,"audio_url":"wbw/068_024_002.mp3","verse_key":"68:24","verse_id":5295,"location":"68:24:2","text_uthmani":"لَّا","qpc_uthmani_hafs":"لَّا","char_type_name":"word","page_number":565,"line_number":4,"text":"لَّا","translation":{"text":"\"না","language_name":"bengali","language_id":20},"transliteration":{"text":"lā","language_name":"english","language_id":38}},{"id":26997,"position":3,"audio_url":"wbw/068_024_003.mp3","verse_key":"68:24","verse_id":5295,"location":"68:24:3","text_uthmani":"يَدْخُلَنَّهَا","qpc_uthmani_hafs":"يَدۡخُلَنَّهَا","char_type_name":"word","page_number":565,"line_number":4,"text":"يَدۡخُلَنَّهَا","translation":{"text":"এতে নিশ্চয়ই প্রবেশ করবে","language_name":"bengali","language_id":20},"transliteration":{"text":"yadkhulannahā","language_name":"english","language_id":38}},{"id":26998,"position":4,"audio_url":"wbw/068_024_004.mp3","verse_key":"68:24","verse_id":5295,"location":"68:24:4","text_uthmani":"ٱلْيَوْمَ","qpc_uthmani_hafs":"ٱلۡيَوۡمَ","char_type_name":"word","page_number":565,"line_number":4,"text":"ٱلۡيَوۡمَ","translation":{"text":"আজ","language_name":"bengali","language_id":20},"transliteration":{"text":"l-yawma","language_name":"english","language_id":38}},{"id":26999,"position":5,"audio_url":"wbw/068_024_005.mp3","verse_key":"68:24","verse_id":5295,"location":"68:24:5","text_uthmani":"عَلَيْكُم","qpc_uthmani_hafs":"عَلَيۡكُم","char_type_name":"word","page_number":565,"line_number":4,"text":"عَلَيۡكُم","translation":{"text":"তোমাদের কাছে","language_name":"bengali","language_id":20},"transliteration":{"text":"ʿalaykum","language_name":"english","language_id":38}},{"id":27000,"position":6,"audio_url":"wbw/068_024_006.mp3","verse_key":"68:24","verse_id":5295,"location":"68:24:6","text_uthmani":"مِّسْكِينٌۭ","qpc_uthmani_hafs":"مِّسۡكِينٞ","char_type_name":"word","page_number":565,"line_number":5,"text":"مِّسۡكِينٞ","translation":{"text":"ভিখারী\"","language_name":"bengali","language_id":20},"transliteration":{"text":"mis'kīnun","language_name":"english","language_id":38}},{"id":27001,"position":7,"audio_url":null,"verse_key":"68:24","verse_id":5295,"location":"68:24:7","text_uthmani":"٢٤","qpc_uthmani_hafs":"٢٤","char_type_name":"end","page_number":565,"line_number":5,"text":"٢٤","translation":{"text":"(২৪)","language_name":"bengali","language_id":20},"transliteration":{"text":null,"language_name":"english","language_id":38}}]},{"id":5296,"verse_number":25,"verse_key":"68:25","hizb_number":57,"rub_el_hizb_number":226,"ruku_number":500,"manzil_number":7,"sajdah_number":null,"page_number":565,"juz_number":29,"words":[{"id":28445,"position":1,"audio_url":"wbw/068_025_001.mp3","verse_key":"68:25","verse_id":5296,"location":"68:25:1","text_uthmani":"وَغَدَوْا۟","qpc_uthmani_hafs":"وَغَدَوۡاْ","char_type_name":"word","page_number":565,"line_number":5,"text":"وَغَدَوۡاْ","translation":{"text":"এবং তারা চললো","language_name":"bengali","language_id":20},"transliteration":{"text":"waghadaw","language_name":"english","language_id":38}},{"id":28446,"position":2,"audio_url":"wbw/068_025_002.mp3","verse_key":"68:25","verse_id":5296,"location":"68:25:2","text_uthmani":"عَلَىٰ","qpc_uthmani_hafs":"عَلَىٰ","char_type_name":"word","page_number":565,"line_number":5,"text":"عَلَىٰ","translation":{"text":"ব্যাপারে(যেন)","language_name":"bengali","language_id":20},"transliteration":{"text":"ʿalā","language_name":"english","language_id":38}},{"id":28447,"position":3,"audio_url":"wbw/068_025_003.mp3","verse_key":"68:25","verse_id":5296,"location":"68:25:3","text_uthmani":"حَرْدٍۢ","qpc_uthmani_hafs":"حَرۡدٖ","char_type_name":"word","page_number":565,"line_number":5,"text":"حَرۡدٖ","translation":{"text":"নিবৃত্ত করার","language_name":"bengali","language_id":20},"transliteration":{"text":"ḥardin","language_name":"english","language_id":38}},{"id":28448,"position":4,"audio_url":"wbw/068_025_004.mp3","verse_key":"68:25","verse_id":5296,"location":"68:25:4","text_uthmani":"قَـٰدِرِينَ","qpc_uthmani_hafs":"قَٰدِرِينَ","char_type_name":"word","page_number":565,"line_number":5,"text":"قَٰدِرِينَ","translation":{"text":"সক্ষম","language_name":"bengali","language_id":20},"transliteration":{"text":"qādirīna","language_name":"english","language_id":38}},{"id":28449,"position":5,"audio_url":null,"verse_key":"68:25","verse_id":5296,"location":"68:25:5","text_uthmani":"٢٥","qpc_uthmani_hafs":"٢٥","char_type_name":"end","page_number":565,"line_number":5,"text":"٢٥","translation":{"text":"(২৫)","language_name":"bengali","language_id":20},"transliteration":{"text":null,"language_name":"english","language_id":38}}]},{"id":5297,"verse_number":26,"verse_key":"68:26","hizb_number":57,"rub_el_hizb_number":226,"ruku_number":500,"manzil_number":7,"sajdah_number":null,"page_number":565,"juz_number":29,"words":[{"id":28914,"position":1,"audio_url":"wbw/068_026_001.mp3","verse_key":"68:26","verse_id":5297,"location":"68:26:1","text_uthmani":"فَلَمَّا","qpc_uthmani_hafs":"فَلَمَّا","char_type_name":"word","page_number":565,"line_number":5,"text":"فَلَمَّا","translation":{"text":"কিন্তু যখন","language_name":"bengali","language_id":20},"transliteration":{"text":"falammā","language_name":"english","language_id":38}},{"id":28915,"position":2,"audio_url":"wbw/068_026_002.mp3","verse_key":"68:26","verse_id":5297,"location":"68:26:2","text_uthmani":"رَأَوْهَا","qpc_uthmani_hafs":"رَأَوۡهَا","char_type_name":"word","page_number":565,"line_number":5,"text":"رَأَوۡهَا","translation":{"text":"তারা তা দেখলো","language_name":"bengali","language_id":20},"transliteration":{"text":"ra-awhā","language_name":"english","language_id":38}},{"id":28916,"position":3,"audio_url":"wbw/068_026_003.mp3","verse_key":"68:26","verse_id":5297,"location":"68:26:3","text_uthmani":"قَالُوٓا۟","qpc_uthmani_hafs":"قَالُوٓاْ","char_type_name":"word","page_number":565,"line_number":5,"text":"قَالُوٓاْ","translation":{"text":"তারা বলল,","language_name":"bengali","language_id":20},"transliteration":{"text":"qālū","language_name":"english","language_id":38}},{"id":28917,"position":4,"audio_url":"wbw/068_026_004.mp3","verse_key":"68:26","verse_id":5297,"location":"68:26:4","text_uthmani":"إِنَّا","qpc_uthmani_hafs":"إِنَّا","char_type_name":"word","page_number":565,"line_number":5,"text":"إِنَّا","translation":{"text":"\"নিশ্চয় আমরা","language_name":"bengali","language_id":20},"transliteration":{"text":"innā","language_name":"english","language_id":38}},{"id":28918,"position":5,"audio_url":"wbw/068_026_005.mp3","verse_key":"68:26","verse_id":5297,"location":"68:26:5","text_uthmani":"لَضَآلُّونَ","qpc_uthmani_hafs":"لَضَآلُّونَ","char_type_name":"word","page_number":565,"line_number":5,"text":"لَضَآلُّونَ","translation":{"text":"অবশ্যই পথভ্রষ্ট","language_name":"bengali","language_id":20},"transliteration":{"text":"laḍāllūna","language_name":"english","language_id":38}},{"id":28919,"position":6,"audio_url":null,"verse_key":"68:26","verse_id":5297,"location":"68:26:6","text_uthmani":"٢٦","qpc_uthmani_hafs":"٢٦","char_type_name":"end","page_number":565,"line_number":6,"text":"٢٦","translation":{"text":"(২৬)","language_name":"bengali","language_id":20},"transliteration":{"text":null,"language_name":"english","language_id":38}}]},{"id":5298,"verse_number":27,"verse_key":"68:27","hizb_number":57,"rub_el_hizb_number":226,"ruku_number":500,"manzil_number":7,"sajdah_number":null,"page_number":565,"juz_number":29,"words":[{"id":30379,"position":1,"audio_url":"wbw/068_027_001.mp3","verse_key":"68:27","verse_id":5298,"location":"68:27:1","text_uthmani":"بَلْ","qpc_uthmani_hafs":"بَلۡ","char_type_name":"word","page_number":565,"line_number":6,"text":"بَلۡ","translation":{"text":"বরং","language_name":"bengali","language_id":20},"transliteration":{"text":"bal","language_name":"english","language_id":38}},{"id":30380,"position":2,"audio_url":"wbw/068_027_002.mp3","verse_key":"68:27","verse_id":5298,"location":"68:27:2","text_uthmani":"نَحْنُ","qpc_uthmani_hafs":"نَحۡنُ","char_type_name":"word","page_number":565,"line_number":6,"text":"نَحۡنُ","translation":{"text":"আমরা","language_name":"bengali","language_id":20},"transliteration":{"text":"naḥnu","language_name":"english","language_id":38}},{"id":30381,"position":3,"audio_url":"wbw/068_027_003.mp3","verse_key":"68:27","verse_id":5298,"location":"68:27:3","text_uthmani":"مَحْرُومُونَ","qpc_uthmani_hafs":"مَحۡرُومُونَ","char_type_name":"word","page_number":565,"line_number":6,"text":"مَحۡرُومُونَ","translation":{"text":"বঞ্চিত\"","language_name":"bengali","language_id":20},"transliteration":{"text":"maḥrūmūna","language_name":"english","language_id":38}},{"id":30382,"position":4,"audio_url":null,"verse_key":"68:27","verse_id":5298,"location":"68:27:4","text_uthmani":"٢٧","qpc_uthmani_hafs":"٢٧","char_type_name":"end","page_number":565,"line_number":6,"text":"٢٧","translation":{"text":"(২৭)","language_name":"bengali","language_id":20},"transliteration":{"text":null,"language_name":"english","language_id":38}}]},{"id":5299,"verse_number":28,"verse_key":"68:28","hizb_number":57,"rub_el_hizb_number":226,"ruku_number":500,"manzil_number":7,"sajdah_number":null,"page_number":565,"juz_number":29,"words":[{"id":30905,"position":1,"audio_url":"wbw/068_028_001.mp3","verse_key":"68:28","verse_id":5299,"location":"68:28:1","text_uthmani":"قَالَ","qpc_uthmani_hafs":"قَالَ","char_type_name":"word","page_number":565,"line_number":6,"text":"قَالَ","translation":{"text":"বললো","language_name":"bengali","language_id":20},"transliteration":{"text":"qāla","language_name":"english","language_id":38}},{"id":30906,"position":2,"audio_url":"wbw/068_028_002.mp3","verse_key":"68:28","verse_id":5299,"location":"68:28:2","text_uthmani":"أَوْسَطُهُمْ","qpc_uthmani_hafs":"أَوۡسَطُهُمۡ","char_type_name":"word","page_number":565,"line_number":6,"text":"أَوۡسَطُهُمۡ","translation":{"text":"তাদের শ্রেষ্ঠ ব্যাক্তি","language_name":"bengali","language_id":20},"transliteration":{"text":"awsaṭuhum","language_name":"english","language_id":38}},{"id":30907,"position":3,"audio_url":"wbw/068_028_003.mp3","verse_key":"68:28","verse_id":5299,"location":"68:28:3","text_uthmani":"أَلَمْ","qpc_uthmani_hafs":"أَلَمۡ","char_type_name":"word","page_number":565,"line_number":6,"text":"أَلَمۡ","translation":{"text":"\"নাই কি","language_name":"bengali","language_id":20},"transliteration":{"text":"alam","language_name":"english","language_id":38}},{"id":30908,"position":4,"audio_url":"wbw/068_028_004.mp3","verse_key":"68:28","verse_id":5299,"location":"68:28:4","text_uthmani":"أَقُل","qpc_uthmani_hafs":"أَقُل","char_type_name":"word","page_number":565,"line_number":6,"text":"أَقُل","translation":{"text":"আমি বলি","language_name":"bengali","language_id":20},"transliteration":{"text":"aqul","language_name":"english","language_id":38}},{"id":30909,"position":5,"audio_url":"wbw/068_028_005.mp3","verse_key":"68:28","verse_id":5299,"location":"68:28:5","text_uthmani":"لَّكُمْ","qpc_uthmani_hafs":"لَّكُمۡ","char_type_name":"word","page_number":565,"line_number":6,"text":"لَّكُمۡ","translation":{"text":"তোমাদেরকে","language_name":"bengali","language_id":20},"transliteration":{"text":"lakum","language_name":"english","language_id":38}},{"id":30910,"position":6,"audio_url":"wbw/068_028_006.mp3","verse_key":"68:28","verse_id":5299,"location":"68:28:6","text_uthmani":"لَوْلَا","qpc_uthmani_hafs":"لَوۡلَا","char_type_name":"word","page_number":565,"line_number":6,"text":"لَوۡلَا","translation":{"text":"না কেন","language_name":"bengali","language_id":20},"transliteration":{"text":"lawlā","language_name":"english","language_id":38}},{"id":30911,"position":7,"audio_url":"wbw/068_028_007.mp3","verse_key":"68:28","verse_id":5299,"location":"68:28:7","text_uthmani":"تُسَبِّحُونَ","qpc_uthmani_hafs":"تُسَبِّحُونَ","char_type_name":"word","page_number":565,"line_number":6,"text":"تُسَبِّحُونَ","translation":{"text":"তোমরা তসবিহ করো","language_name":"bengali","language_id":20},"transliteration":{"text":"tusabbiḥūna","language_name":"english","language_id":38}},{"id":30912,"position":8,"audio_url":null,"verse_key":"68:28","verse_id":5299,"location":"68:28:8","text_uthmani":"٢٨","qpc_uthmani_hafs":"٢٨","char_type_name":"end","page_number":565,"line_number":7,"text":"٢٨","translation":{"text":"(২৮)","language_name":"bengali","language_id":20},"transliteration":{"text":null,"language_name":"english","language_id":38}}]},{"id":5300,"verse_number":29,"verse_key":"68:29","hizb_number":57,"rub_el_hizb_number":226,"ruku_number":500,"manzil_number":7,"sajdah_number":null,"page_number":565,"juz_number":29,"words":[{"id":32292,"position":1,"audio_url":"wbw/068_029_001.mp3","verse_key":"68:29","verse_id":5300,"location":"68:29:1","text_uthmani":"قَالُوا۟","qpc_uthmani_hafs":"قَالُواْ","char_type_name":"word","page_number":565,"line_number":7,"text":"قَالُواْ","translation":{"text":"তারা বললো","language_name":"bengali","language_id":20},"transliteration":{"text":"qālū","language_name":"english","language_id":38}},{"id":32293,"position":2,"audio_url":"wbw/068_029_002.mp3","verse_key":"68:29","verse_id":5300,"location":"68:29:2","text_uthmani":"سُبْحَـٰنَ","qpc_uthmani_hafs":"سُبۡحَٰنَ","char_type_name":"word","page_number":565,"line_number":7,"text":"سُبۡحَٰنَ","translation":{"text":"\"পবিত্র","language_name":"bengali","language_id":20},"transliteration":{"text":"sub'ḥāna","language_name":"english","language_id":38}},{"id":32294,"position":3,"audio_url":"wbw/068_029_003.mp3","verse_key":"68:29","verse_id":5300,"location":"68:29:3","text_uthmani":"رَبِّنَآ","qpc_uthmani_hafs":"رَبِّنَآ","char_type_name":"word","page_number":565,"line_number":7,"text":"رَبِّنَآ","translation":{"text":"আমাদের রব","language_name":"bengali","language_id":20},"transliteration":{"text":"rabbinā","language_name":"english","language_id":38}},{"id":32295,"position":4,"audio_url":"wbw/068_029_004.mp3","verse_key":"68:29","verse_id":5300,"location":"68:29:4","text_uthmani":"إِنَّا","qpc_uthmani_hafs":"إِنَّا","char_type_name":"word","page_number":565,"line_number":7,"text":"إِنَّا","translation":{"text":"নিশ্চিত","language_name":"bengali","language_id":20},"transliteration":{"text":"innā","language_name":"english","language_id":38}},{"id":32296,"position":5,"audio_url":"wbw/068_029_005.mp3","verse_key":"68:29","verse_id":5300,"location":"68:29:5","text_uthmani":"كُنَّا","qpc_uthmani_hafs":"كُنَّا","char_type_name":"word","page_number":565,"line_number":7,"text":"كُنَّا","translation":{"text":"(আমরা)ছিলাম","language_name":"bengali","language_id":20},"transliteration":{"text":"kunnā","language_name":"english","language_id":38}},{"id":32297,"position":6,"audio_url":"wbw/068_029_006.mp3","verse_key":"68:29","verse_id":5300,"location":"68:29:6","text_uthmani":"ظَـٰلِمِينَ","qpc_uthmani_hafs":"ظَٰلِمِينَ","char_type_name":"word","page_number":565,"line_number":7,"text":"ظَٰلِمِينَ","translation":{"text":"যালেম\"","language_name":"bengali","language_id":20},"transliteration":{"text":"ẓālimīna","language_name":"english","language_id":38}},{"id":32298,"position":7,"audio_url":null,"verse_key":"68:29","verse_id":5300,"location":"68:29:7","text_uthmani":"٢٩","qpc_uthmani_hafs":"٢٩","char_type_name":"end","page_number":565,"line_number":7,"text":"٢٩","translation":{"text":"(২৯)","language_name":"bengali","language_id":20},"transliteration":{"text":null,"language_name":"english","language_id":38}}]},{"id":5301,"verse_number":30,"verse_key":"68:30","hizb_number":57,"rub_el_hizb_number":226,"ruku_number":500,"manzil_number":7,"sajdah_number":null,"page_number":565,"juz_number":29,"words":[{"id":32779,"position":1,"audio_url":"wbw/068_030_001.mp3","verse_key":"68:30","verse_id":5301,"location":"68:30:1","text_uthmani":"فَأَقْبَلَ","qpc_uthmani_hafs":"فَأَقۡبَلَ","char_type_name":"word","page_number":565,"line_number":7,"text":"فَأَقۡبَلَ","translation":{"text":"অতএব তারা মুখোমুখি হলো","language_name":"bengali","language_id":20},"transliteration":{"text":"fa-aqbala","language_name":"english","language_id":38}},{"id":32780,"position":2,"audio_url":"wbw/068_030_002.mp3","verse_key":"68:30","verse_id":5301,"location":"68:30:2","text_uthmani":"بَعْضُهُمْ","qpc_uthmani_hafs":"بَعۡضُهُمۡ","char_type_name":"word","page_number":565,"line_number":7,"text":"بَعۡضُهُمۡ","translation":{"text":"তাদের একে","language_name":"bengali","language_id":20},"transliteration":{"text":"baʿḍuhum","language_name":"english","language_id":38}},{"id":32781,"position":3,"audio_url":"wbw/068_030_003.mp3","verse_key":"68:30","verse_id":5301,"location":"68:30:3","text_uthmani":"عَلَىٰ","qpc_uthmani_hafs":"عَلَىٰ","char_type_name":"word","page_number":565,"line_number":7,"text":"عَلَىٰ","translation":{"text":"প্রতি","language_name":"bengali","language_id":20},"transliteration":{"text":"ʿalā","language_name":"english","language_id":38}},{"id":32782,"position":4,"audio_url":"wbw/068_030_004.mp3","verse_key":"68:30","verse_id":5301,"location":"68:30:4","text_uthmani":"بَعْضٍۢ","qpc_uthmani_hafs":"بَعۡضٖ","char_type_name":"word","page_number":565,"line_number":7,"text":"بَعۡضٖ","translation":{"text":"অপরের","language_name":"bengali","language_id":20},"transliteration":{"text":"baʿḍin","language_name":"english","language_id":38}},{"id":32783,"position":5,"audio_url":"wbw/068_030_005.mp3","verse_key":"68:30","verse_id":5301,"location":"68:30:5","text_uthmani":"يَتَلَـٰوَمُونَ","qpc_uthmani_hafs":"يَتَلَٰوَمُونَ","char_type_name":"word","page_number":565,"line_number":8,"text":"يَتَلَٰوَمُونَ","translation":{"text":"তিরস্কার করতে লাগলো","language_name":"bengali","language_id":20},"transliteration":{"text":"yatalāwamūna","language_name":"english","language_id":38}},{"id":32784,"position":6,"audio_url":null,"verse_key":"68:30","verse_id":5301,"location":"68:30:6","text_uthmani":"٣٠","qpc_uthmani_hafs":"٣٠","char_type_name":"end","page_number":565,"line_number":8,"text":"٣٠","translation":{"text":"(৩০)","language_name":"bengali","language_id":20},"transliteration":{"text":null,"language_name":"english","language_id":38}}]}],"pagination":{"per_page":10,"current_page":3,"next_page":4,"total_pages":6,"total_records":52}}
