{"verses":[{"id":5322,"verse_number":51,"verse_key":"68:51","hizb_number":57,"rub_el_hizb_number":226,"ruku_number":501,"manzil_number":7,"sajdah_number":null,"page_number":566,"juz_number":29,"words":[{"id":49285,"position":1,"audio_url":"wbw/068_051_001.mp3","char_type_name":"word","page_number":566,"line_number":8,"text":"وَإِن","translation":{"text":"এবং যেন","language_name":"bengali","language_id":20},"transliteration":{"text":"wa-in","language_name":"english","language_id":38}},{"id":49286,"position":2,"audio_url":"wbw/068_051_002.mp3","char_type_name":"word","page_number":566,"line_number":8,"text":"يَكَادُ","translation":{"text":"মনে হয়","language_name":"bengali","language_id":20},"transliteration":{"text":"yakādu","language_name":"english","language_id":38}},{"id":49287,"position":3,"audio_url":"wbw/068_051_003.mp3","char_type_name":"word","page_number":566,"line_number":8,"text":"ٱلَّذِينَ","translation":{"text":"যারা","language_name":"bengali","language_id":20},"transliteration":{"text":"alladhīna","language_name":"english","language_id":38}},{"id":49288,"position":4,"audio_url":"wbw/068_051_004.mp3","char_type_name":"word","page_number":566,"line_number":8,"text":"كَفَرُوا۟","translation":{"text":"অস্বীকার করেছে","language_name":"bengali","language_id":20},"transliteration":{"text":"kafarū","language_name":"english","language_id":38}},{"id":49289,"position":5,"audio_url":"wbw/068_051_005.mp3","char_type_name":"word","page_number":566,"line_number":8,"text":"لَيُزْلِقُونَكَ","translation":{"text":"অবশ্যই তোমাকে পদংখলন করাবে","language_name":"bengali","language_id":20},"transliteration":{"text":"layuz'liqūnaka","language_name":"english","language_id":38}},{"id":49290,"position":6,"audio_url":"wbw/068_051_006.mp3","char_type_name":"word","page_number":566,"line_number":8,"text":"بِأَبْصَـٰرِهِمْ","translation":{"text":"তাদের দৃষ্টিগুলো দিয়ে","language_name":"bengali","language_id":20},"transliteration":{"text":"bi-abṣārihim","language_name":"english","language_id":38}},{"id":49291,"position":7,"audio_url":"wbw/068_051_007.mp3","char_type_name":"word","page_number":566,"line_number":8,"text":"لَمَّا","translation":{"text":"যখন","language_name":"bengali","language_id":20},"transliteration":{"text":"lammā","language_name":"english","language_id":38}},{"id":49292,"position":8,"audio_url":"wbw/068_051_008.mp3","char_type_name":"word","page_number":566,"line_number":8,"text":"سَمِعُوا۟","translation":{"text":"তারা শুনে","language_name":"bengali","language_id":20},"transliteration":{"text":"samiʿū","language_name":"english","language_id":38}},{"id":49293,"position":9,"audio_url":"wbw/068_051_009.mp3","char_type_name":"word","page_number":566,"line_number":9,"text":"ٱلذِّكْرَ","translation":{"text":"উপদেশ(কুরআন)","language_name":"bengali","language_id":20},"transliteration":{"text":"l-dhik'ra","language_name":"english","language_id":38}},{"id":49294,"position":10,"audio_url":"wbw/068_051_010.mp3","char_type_name":"word","page_number":566,"line_number":9,"text":"وَيَقُولُونَ","translation":{"text":"এবং তারা বলে","language_name":"bengali","language_id":20},"transliteration":{"text":"wayaqūlūna","language_name":"english","language_id":38}},{"id":49295,"position":11,"audio_url":"wbw/068_051_011.mp3","char_type_name":"word","page_number":566,"line_number":9,"text":"إِنَّهُۥ","translation":{"text":"\"সেনিশ্চয়","language_name":"bengali","language_id":20},"transliteration":{"text":"innahu","language_name":"english","language_id":38}},{"id":49296,"position":12,"audio_url":"wbw/068_051_012.mp3","char_type_name":"word","page_number":566,"line_number":9,"text":"لَمَجْنُونٌۭ","translation":{"text":"অবশ্যই পাগল\"","language_name":"bengali","language_id":20},"transliteration":{"text":"lamajnūnun","language_name":"english","language_id":38}},{"id":49297,"position":13,"audio_url":null,"char_type_name":"end","page_number":566,"line_number":9,"text":"٥١","translation":{"text":"(৫১)","language_name":"bengali","language_id":20},"transliteration":{"text":null,"language_name":"english","language_id":38}}]},{"id":5323,"verse_number":52,"verse_key":"68:52","hizb_number":57,"rub_el_hizb_number":226,"ruku_number":501,"manzil_number":7,"sajdah_number":null,"page_number":566,"juz_number":29,"words":[{"id":50003,"position":1,"audio_url":"wbw/068_052_001.mp3","char_type_name":"word","page_number":566,"line_number":9,"text":"وَمَا","translation":{"text":"এবং নয়","language_name":"bengali","language_id":20},"transliteration":{"text":"wamā","language_name":"english","language_id":38}},{"id":50004,"position":2,"audio_url":"wbw/068_052_002.mp3","char_type_name":"word","page_number":566,"line_number":9,"text":"هُوَ","translation":{"text":"তা","language_name":"bengali","language_id":20},"transliteration":{"text":"huwa","language_name":"english","language_id":38}},{"id":50005,"position":3,"audio_url":"wbw/068_052_003.mp3","char_type_name":"word","page_number":566,"line_number":9,"text":"إِلَّا","translation":{"text":"ছাড়া","language_name":"bengali","language_id":20},"transliteration":{"text":"illā","language_name":"english","language_id":38}},{"id":50006,"position":4,"audio_url":"wbw/068_052_004.mp3","char_type_name":"word","page_number":566,"line_number":9,"text":"ذِكْرٌۭ","translation":{"text":"উপদেশ","language_name":"bengali","language_id":20},"transliteration":{"text":"dhik'run","language_name":"english","language_id":38}},{"id":50007,"position":5,"audio_url":"wbw/068_052_005.mp3","char_type_name":"word","page_number":566,"line_number":9,"text":"لِّلْعَـٰلَمِينَ","translation":{"text":"সারা বিশের জন্যে","language_name":"bengali","language_id":20},"transliteration":{"text":"lil'ʿālamīna","language_name":"english","language_id":38}},{"id":50008,"position":6,"audio_url":null,"char_type_name":"end","page_number":566,"line_number":9,"text":"٥٢","translation":{"text":"(৫২)","language_name":"bengali","language_id":20},"transliteration":{"text":null,"language_name":"english","language_id":38}}]}],"pagination":{"per_page":10,"current_page":6,"next_page":null,"total_pages":6,"total_records":52}}
