{"verses":[{"id":5830,"verse_number":1,"verse_key":"82:1","hizb_number":59,"rub_el_hizb_number":235,"ruku_number":526,"manzil_number":7,"sajdah_number":null,"page_number":587,"juz_number":30,"words":[{"id":699,"position":1,"audio_url":"wbw/082_001_001.mp3","verse_key":"82:1","verse_id":5830,"location":"82:1:1","text_uthmani":"إِذَا","qpc_uthmani_hafs":"إِذَا","char_type_name":"word","page_number":587,"line_number":3,"text":"إِذَا","translation":{"text":"যখন","language_name":"bengali","language_id":20},"transliteration":{"text":"idhā","language_name":"english","language_id":38}},{"id":700,"position":2,"audio_url":"wbw/082_001_002.mp3","verse_key":"82:1","verse_id":5830,"location":"82:1:2","text_uthmani":"ٱلسَّمَآءُ","qpc_uthmani_hafs":"ٱلسَّمَآءُ","char_type_name":"word","page_number":587,"line_number":3,"text":"ٱلسَّمَآءُ","translation":{"text":"আকাশ","language_name":"bengali","language_id":20},"transliteration":{"text":"l-samāu","language_name":"english","language_id":38}},{"id":701,"position":3,"audio_url":"wbw/082_001_003.mp3","verse_key":"82:1","verse_id":5830,"location":"82:1:3","text_uthmani":"ٱنفَطَرَتْ","qpc_uthmani_hafs":"ٱنفَطَرَتۡ","char_type_name":"word","page_number":587,"line_number":3,"text":"ٱنفَطَرَتۡ","translation":{"text":"ফেটে যাবে","language_name":"bengali","language_id":20},"transliteration":{"text":"infaṭarat","language_name":"english","language_id":38}},{"id":702,"position":4,"audio_url":null,"verse_key":"82:1","verse_id":5830,"location":"82:1:4","text_uthmani":"١","qpc_uthmani_hafs":"١","char_type_name":"end","page_number":587,"line_number":3,"text":"١","translation":{"text":"(১)","language_name":"bengali","language_id":20},"transliteration":{"text":null,"language_name":"english","language_id":38}}]},{"id":5831,"verse_number":2,"verse_key":"82:2","hizb_number":59,"rub_el_hizb_number":235,"ruku_number":526,"manzil_number":7,"sajdah_number":null,"page_number":587,"juz_number":30,"words":[{"id":1726,"position":1,"audio_url":"wbw/082_002_001.mp3","verse_key":"82:2","verse_id":5831,"location":"82:2:1","text_uthmani":"وَإِذَا","qpc_uthmani_hafs":"وَإِذَا","char_type_name":"word","page_number":587,"line_number":3,"text":"وَإِذَا","translation":{"text":"এবং যখন","language_name":"bengali","language_id":20},"transliteration":{"text":"wa-idhā","language_name":"english","language_id":38}},{"id":1727,"position":2,"audio_url":"wbw/082_002_002.mp3","verse_key":"82:2","verse_id":5831,"location":"82:2:2","text_uthmani":"ٱلْكَوَاكِبُ","qpc_uthmani_hafs":"ٱلۡكَوَاكِبُ","char_type_name":"word","page_number":587,"line_number":3,"text":"ٱلۡكَوَاكِبُ","translation":{"text":"তারাগুলো","language_name":"bengali","language_id":20},"transliteration":{"text":"l-kawākibu","language_name":"english","language_id":38}},{"id":1728,"position":3,"audio_url":"wbw/082_002_003.mp3","verse_key":"82:2","verse_id":5831,"location":"82:2:3","text_uthmani":"ٱنتَثَرَتْ","qpc_uthmani_hafs":"ٱنتَثَرَتۡ","char_type_name":"word","page_number":587,"line_number":3,"text":"ٱنتَثَرَتۡ","translation":{"text":"বিক্ষিপ্ত হবে","language_name":"bengali","language_id":20},"transliteration":{"text":"intatharat","language_name":"english","language_id":38}},{"id":1729,"position":4,"audio_url":null,"verse_key":"82:2","verse_id":5831,"location":"82:2:4","text_uthmani":"٢","qpc_uthmani_hafs":"٢","char_type_name":"end","page_number":587,"line_number":3,"text":"٢","translation":{"text":"(২)","language_name":"bengali","language_id":20},"transliteration":{"text":null,"language_name":"english","language_id":38}}]},{"id":5832,"verse_number":3,"verse_key":"82:3","hizb_number":59,"rub_el_hizb_number":235,"ruku_number":526,"manzil_number":7,"sajdah_number":null,"page_number":587,"juz_number":30,"words":[{"id":2849,"position":1,"audio_url":"wbw/082_003_001.mp3","verse_key":"82:3","verse_id":5832,"location":"82:3:1","text_uthmani":"وَإِذَا","qpc_uthmani_hafs":"وَإِذَا","char_type_name":"word","page_number":587,"line_number":3,"text":"وَإِذَا","translation":{"text":"এবং যখন","language_name":"bengali","language_id":20},"transliteration":{"text":"wa-idhā","language_name":"english","language_id":38}},{"id":2850,"position":2,"audio_url":"wbw/082_003_002.mp3","verse_key":"82:3","verse_id":5832,"location":"82:3:2","text_uthmani":"ٱلْبِحَارُ","qpc_uthmani_hafs":"ٱلۡبِحَارُ","char_type_name":"word","page_number":587,"line_number":3,"text":"ٱلۡبِحَارُ","translation":{"text":"সাগরগুলো","language_name":"bengali","language_id":20},"transliteration":{"text":"l-biḥāru","language_name":"english","language_id":38}},{"id":2851,"position":3,"audio_url":"wbw/082_003_003.mp3","verse_key":"82:3","verse_id":5832,"location":"82:3:3","text_uthmani":"فُجِّرَتْ","qpc_uthmani_hafs":"فُجِّرَتۡ","char_type_name":"word","page_number":587,"line_number":4,"text":"فُجِّرَتۡ","translation":{"text":"উথলে উঠবে","language_name":"bengali","language_id":20},"transliteration":{"text":"fujjirat","language_name":"english","language_id":38}},{"id":2852,"position":4,"audio_url":null,"verse_key":"82:3","verse_id":5832,"location":"82:3:4","text_uthmani":"٣","qpc_uthmani_hafs":"٣","char_type_name":"end","page_number":587,"line_number":4,"text":"٣","translation":{"text":"(৩)","language_name":"bengali","language_id":20},"transliteration":{"text":null,"language_name":"english","language_id":38}}]},{"id":5833,"verse_number":4,"verse_key":"82:4","hizb_number":59,"rub_el_hizb_number":235,"ruku_number":526,"manzil_number":7,"sajdah_number":null,"page_number":587,"juz_number":30,"words":[{"id":4214,"position":1,"audio_url":"wbw/082_004_001.mp3","verse_key":"82:4","verse_id":5833,"location":"82:4:1","text_uthmani":"وَإِذَا","qpc_uthmani_hafs":"وَإِذَا","char_type_name":"word","page_number":587,"line_number":4,"text":"وَإِذَا","translation":{"text":"এবং যখন","language_name":"bengali","language_id":20},"transliteration":{"text":"wa-idhā","language_name":"english","language_id":38}},{"id":4215,"position":2,"audio_url":"wbw/082_004_002.mp3","verse_key":"82:4","verse_id":5833,"location":"82:4:2","text_uthmani":"ٱلْقُبُورُ","qpc_uthmani_hafs":"ٱلۡقُبُورُ","char_type_name":"word","page_number":587,"line_number":4,"text":"ٱلۡقُبُورُ","translation":{"text":"কবরগুলো","language_name":"bengali","language_id":20},"transliteration":{"text":"l-qubūru","language_name":"english","language_id":38}},{"id":4216,"position":3,"audio_url":"wbw/082_004_003.mp3","verse_key":"82:4","verse_id":5833,"location":"82:4:3","text_uthmani":"بُعْثِرَتْ","qpc_uthmani_hafs":"بُعۡثِرَتۡ","char_type_name":"word","page_number":587,"line_number":4,"text":"بُعۡثِرَتۡ","translation":{"text":"উন্মোচিত হবে","language_name":"bengali","language_id":20},"transliteration":{"text":"buʿ'thirat","language_name":"english","language_id":38}},{"id":4217,"position":4,"audio_url":null,"verse_key":"82:4","verse_id":5833,"location":"82:4:4","text_uthmani":"٤","qpc_uthmani_hafs":"٤","char_type_name":"end","page_number":587,"line_number":4,"text":"٤","translation":{"text":"(৪)","language_name":"bengali","language_id":20},"transliteration":{"text":null,"language_name":"english","language_id":38}}]},{"id":5834,"verse_number":5,"verse_key":"82:5","hizb_number":59,"rub_el_hizb_number":235,"ruku_number":526,"manzil_number":7,"sajdah_number":null,"page_number":587,"juz_number":30,"words":[{"id":5479,"position":1,"audio_url":"wbw/082_005_001.mp3","verse_key":"82:5","verse_id":5834,"location":"82:5:1","text_uthmani":"عَلِمَتْ","qpc_uthmani_hafs":"عَلِمَتۡ","char_type_name":"word","page_number":587,"line_number":4,"text":"عَلِمَتۡ","translation":{"text":"জানবে","language_name":"bengali","language_id":20},"transliteration":{"text":"ʿalimat","language_name":"english","language_id":38}},{"id":5480,"position":2,"audio_url":"wbw/082_005_002.mp3","verse_key":"82:5","verse_id":5834,"location":"82:5:2","text_uthmani":"نَفْسٌۭ","qpc_uthmani_hafs":"نَفۡسٞ","char_type_name":"word","page_number":587,"line_number":4,"text":"نَفۡسٞ","translation":{"text":"প্রত্যেক ব্যক্তি","language_name":"bengali","language_id":20},"transliteration":{"text":"nafsun","language_name":"english","language_id":38}},{"id":5481,"position":3,"audio_url":"wbw/082_005_003.mp3","verse_key":"82:5","verse_id":5834,"location":"82:5:3","text_uthmani":"مَّا","qpc_uthmani_hafs":"مَّا","char_type_name":"word","page_number":587,"line_number":4,"text":"مَّا","translation":{"text":"যা","language_name":"bengali","language_id":20},"transliteration":{"text":"mā","language_name":"english","language_id":38}},{"id":5482,"position":4,"audio_url":"wbw/082_005_004.mp3","verse_key":"82:5","verse_id":5834,"location":"82:5:4","text_uthmani":"قَدَّمَتْ","qpc_uthmani_hafs":"قَدَّمَتۡ","char_type_name":"word","page_number":587,"line_number":4,"text":"قَدَّمَتۡ","translation":{"text":"সে আগে পাঠিয়েছে","language_name":"bengali","language_id":20},"transliteration":{"text":"qaddamat","language_name":"english","language_id":38}},{"id":5483,"position":5,"audio_url":"wbw/082_005_005.mp3","verse_key":"82:5","verse_id":5834,"location":"82:5:5","text_uthmani":"وَأَخَّرَتْ","qpc_uthmani_hafs":"وَأَخَّرَتۡ","char_type_name":"word","page_number":587,"line_number":5,"text":"وَأَخَّرَتۡ","translation":{"text":"এবং পিছনে ছেড়েছে","language_name":"bengali","language_id":20},"transliteration":{"text":"wa-akharat","language_name":"english","language_id":38}},{"id":5484,"position":6,"audio_url":null,"verse_key":"82:5","verse_id":5834,"location":"82:5:6","text_uthmani":"٥","qpc_uthmani_hafs":"٥","char_type_name":"end","page_number":587,"line_number":5,"text":"٥","translation":{"text":"(৫)","language_name":"bengali","language_id":20},"transliteration":{"text":null,"language_name":"english","language_id":38}}]},{"id":5835,"verse_number":6,"verse_key":"82:6","hizb_number":59,"rub_el_hizb_number":235,"ruku_number":526,"manzil_number":7,"sajdah_number":null,"page_number":587,"juz_number":30,"words":[{"id":6707,"position":1,"audio_url":"wbw/082_006_001.mp3","verse_key":"82:6","verse_id":5835,"location":"82:6:1","text_uthmani":"يَـٰٓأَيُّهَا","qpc_uthmani_hafs":"يَٰٓأَيُّهَا","char_type_name":"word","page_number":587,"line_number":5,"text":"يَٰٓأَيُّهَا","translation":{"text":"হে","language_name":"bengali","language_id":20},"transliteration":{"text":"yāayyuhā","language_name":"english","language_id":38}},{"id":6708,"position":2,"audio_url":"wbw/082_006_002.mp3","verse_key":"82:6","verse_id":5835,"location":"82:6:2","text_uthmani":"ٱلْإِنسَـٰنُ","qpc_uthmani_hafs":"ٱلۡإِنسَٰنُ","char_type_name":"word","page_number":587,"line_number":5,"text":"ٱلۡإِنسَٰنُ","translation":{"text":"মানুষ","language_name":"bengali","language_id":20},"transliteration":{"text":"l-insānu","language_name":"english","language_id":38}},{"id":6709,"position":3,"audio_url":"wbw/082_006_003.mp3","verse_key":"82:6","verse_id":5835,"location":"82:6:3","text_uthmani":"مَا","qpc_uthmani_hafs":"مَا","char_type_name":"word","page_number":587,"line_number":5,"text":"مَا","translation":{"text":"কিসে","language_name":"bengali","language_id":20},"transliteration":{"text":"mā","language_name":"english","language_id":38}},{"id":6710,"position":4,"audio_url":"wbw/082_006_004.mp3","verse_key":"82:6","verse_id":5835,"location":"82:6:4","text_uthmani":"غَرَّكَ","qpc_uthmani_hafs":"غَرَّكَ","char_type_name":"word","page_number":587,"line_number":5,"text":"غَرَّكَ","translation":{"text":"তোমাকে ধোঁকা দিয়েছে","language_name":"bengali","language_id":20},"transliteration":{"text":"gharraka","language_name":"english","language_id":38}},{"id":6711,"position":5,"audio_url":"wbw/082_006_005.mp3","verse_key":"82:6","verse_id":5835,"location":"82:6:5","text_uthmani":"بِرَبِّكَ","qpc_uthmani_hafs":"بِرَبِّكَ","char_type_name":"word","page_number":587,"line_number":5,"text":"بِرَبِّكَ","translation":{"text":"তোমার রবের ব্যাপারে","language_name":"bengali","language_id":20},"transliteration":{"text":"birabbika","language_name":"english","language_id":38}},{"id":6712,"position":6,"audio_url":"wbw/082_006_006.mp3","verse_key":"82:6","verse_id":5835,"location":"82:6:6","text_uthmani":"ٱلْكَرِيمِ","qpc_uthmani_hafs":"ٱلۡكَرِيمِ","char_type_name":"word","page_number":587,"line_number":5,"text":"ٱلۡكَرِيمِ","translation":{"text":"মহান","language_name":"bengali","language_id":20},"transliteration":{"text":"l-karīmi","language_name":"english","language_id":38}},{"id":6713,"position":7,"audio_url":null,"verse_key":"82:6","verse_id":5835,"location":"82:6:7","text_uthmani":"٦","qpc_uthmani_hafs":"٦","char_type_name":"end","page_number":587,"line_number":5,"text":"٦","translation":{"text":"(৬)","language_name":"bengali","language_id":20},"transliteration":{"text":null,"language_name":"english","language_id":38}}]},{"id":5836,"verse_number":7,"verse_key":"82:7","hizb_number":59,"rub_el_hizb_number":235,"ruku_number":526,"manzil_number":7,"sajdah_number":null,"page_number":587,"juz_number":30,"words":[{"id":8056,"position":1,"audio_url":"wbw/082_007_001.mp3","verse_key":"82:7","verse_id":5836,"location":"82:7:1","text_uthmani":"ٱلَّذِى","qpc_uthmani_hafs":"ٱلَّذِي","char_type_name":"word","page_number":587,"line_number":5,"text":"ٱلَّذِي","translation":{"text":"যিনি","language_name":"bengali","language_id":20},"transliteration":{"text":"alladhī","language_name":"english","language_id":38}},{"id":8057,"position":2,"audio_url":"wbw/082_007_002.mp3","verse_key":"82:7","verse_id":5836,"location":"82:7:2","text_uthmani":"خَلَقَكَ","qpc_uthmani_hafs":"خَلَقَكَ","char_type_name":"word","page_number":587,"line_number":6,"text":"خَلَقَكَ","translation":{"text":"তোমাকে সৃষ্টি করেছেন","language_name":"bengali","language_id":20},"transliteration":{"text":"khalaqaka","language_name":"english","language_id":38}},{"id":8058,"position":3,"audio_url":"wbw/082_007_003.mp3","verse_key":"82:7","verse_id":5836,"location":"82:7:3","text_uthmani":"فَسَوَّىٰكَ","qpc_uthmani_hafs":"فَسَوَّىٰكَ","char_type_name":"word","page_number":587,"line_number":6,"text":"فَسَوَّىٰكَ","translation":{"text":"অতঃপর তোমাকে সুঠাম করেছেন","language_name":"bengali","language_id":20},"transliteration":{"text":"fasawwāka","language_name":"english","language_id":38}},{"id":8059,"position":4,"audio_url":"wbw/082_007_004.mp3","verse_key":"82:7","verse_id":5836,"location":"82:7:4","text_uthmani":"فَعَدَلَكَ","qpc_uthmani_hafs":"فَعَدَلَكَ","char_type_name":"word","page_number":587,"line_number":6,"text":"فَعَدَلَكَ","translation":{"text":"অতঃপর তোমাকে  সুসামঞ্জস্য করেছেন","language_name":"bengali","language_id":20},"transliteration":{"text":"faʿadalaka","language_name":"english","language_id":38}},{"id":8060,"position":5,"audio_url":null,"verse_key":"82:7","verse_id":5836,"location":"82:7:5","text_uthmani":"٧","qpc_uthmani_hafs":"٧","char_type_name":"end","page_number":587,"line_number":6,"text":"٧","translation":{"text":"(৭)","language_name":"bengali","language_id":20},"transliteration":{"text":null,"language_name":"english","language_id":38}}]},{"id":5837,"verse_number":8,"verse_key":"82:8","hizb_number":59,"rub_el_hizb_number":235,"ruku_number":526,"manzil_number":7,"sajdah_number":null,"page_number":587,"juz_number":30,"words":[{"id":9226,"position":1,"audio_url":"wbw/082_008_001.mp3","verse_key":"82:8","verse_id":5837,"location":"82:8:1","text_uthmani":"فِىٓ","qpc_uthmani_hafs":"فِيٓ","char_type_name":"word","page_number":587,"line_number":6,"text":"فِيٓ","translation":{"text":"মধ্যে","language_name":"bengali","language_id":20},"transliteration":{"text":"fī","language_name":"english","language_id":38}},{"id":9227,"position":2,"audio_url":"wbw/082_008_002.mp3","verse_key":"82:8","verse_id":5837,"location":"82:8:2","text_uthmani":"أَىِّ","qpc_uthmani_hafs":"أَيِّ","char_type_name":"word","page_number":587,"line_number":6,"text":"أَيِّ","translation":{"text":"যে","language_name":"bengali","language_id":20},"transliteration":{"text":"ayyi","language_name":"english","language_id":38}},{"id":9228,"position":3,"audio_url":"wbw/082_008_003.mp3","verse_key":"82:8","verse_id":5837,"location":"82:8:3","text_uthmani":"صُورَةٍۢ","qpc_uthmani_hafs":"صُورَةٖ","char_type_name":"word","page_number":587,"line_number":6,"text":"صُورَةٖ","translation":{"text":"আকৃতিতে","language_name":"bengali","language_id":20},"transliteration":{"text":"ṣūratin","language_name":"english","language_id":38}},{"id":9229,"position":4,"audio_url":"wbw/082_008_004.mp3","verse_key":"82:8","verse_id":5837,"location":"82:8:4","text_uthmani":"مَّا","qpc_uthmani_hafs":"مَّا","char_type_name":"word","page_number":587,"line_number":6,"text":"مَّا","translation":{"text":"(যা) যেমন","language_name":"bengali","language_id":20},"transliteration":{"text":"mā","language_name":"english","language_id":38}},{"id":9230,"position":5,"audio_url":"wbw/082_008_005.mp3","verse_key":"82:8","verse_id":5837,"location":"82:8:5","text_uthmani":"شَآءَ","qpc_uthmani_hafs":"شَآءَ","char_type_name":"word","page_number":587,"line_number":6,"text":"شَآءَ","translation":{"text":"তিনি চেয়েছেন","language_name":"bengali","language_id":20},"transliteration":{"text":"shāa","language_name":"english","language_id":38}},{"id":9231,"position":6,"audio_url":"wbw/082_008_006.mp3","verse_key":"82:8","verse_id":5837,"location":"82:8:6","text_uthmani":"رَكَّبَكَ","qpc_uthmani_hafs":"رَكَّبَكَ","char_type_name":"word","page_number":587,"line_number":6,"text":"رَكَّبَكَ","translation":{"text":"তোমাকে গঠন করেছেন","language_name":"bengali","language_id":20},"transliteration":{"text":"rakkabaka","language_name":"english","language_id":38}},{"id":9232,"position":7,"audio_url":null,"verse_key":"82:8","verse_id":5837,"location":"82:8:7","text_uthmani":"٨","qpc_uthmani_hafs":"٨","char_type_name":"end","page_number":587,"line_number":6,"text":"٨","translation":{"text":"(৮)","language_name":"bengali","language_id":20},"transliteration":{"text":null,"language_name":"english","language_id":38}}]},{"id":5838,"verse_number":9,"verse_key":"82:9","hizb_number":59,"rub_el_hizb_number":235,"ruku_number":526,"manzil_number":7,"sajdah_number":null,"page_number":587,"juz_number":30,"words":[{"id":10425,"position":1,"audio_url":"wbw/082_009_001.mp3","verse_key":"82:9","verse_id":5838,"location":"82:9:1","text_uthmani":"كَلَّا","qpc_uthmani_hafs":"كـَلَّا","char_type_name":"word","page_number":587,"line_number":7,"text":"كـَلَّا","translation":{"text":"কখনও নয়","language_name":"bengali","language_id":20},"transliteration":{"text":"kallā","language_name":"english","language_id":38}},{"id":10426,"position":2,"audio_url":"wbw/082_009_002.mp3","verse_key":"82:9","verse_id":5838,"location":"82:9:2","text_uthmani":"بَلْ","qpc_uthmani_hafs":"بَلۡ","char_type_name":"word","page_number":587,"line_number":7,"text":"بَلۡ","translation":{"text":"বরং","language_name":"bengali","language_id":20},"transliteration":{"text":"bal","language_name":"english","language_id":38}},{"id":10427,"position":3,"audio_url":"wbw/082_009_003.mp3","verse_key":"82:9","verse_id":5838,"location":"82:9:3","text_uthmani":"تُكَذِّبُونَ","qpc_uthmani_hafs":"تُكَذِّبُونَ","char_type_name":"word","page_number":587,"line_number":7,"text":"تُكَذِّبُونَ","translation":{"text":"তোমারা মিথ্যা মনে করছ","language_name":"bengali","language_id":20},"transliteration":{"text":"tukadhibūna","language_name":"english","language_id":38}},{"id":10428,"position":4,"audio_url":"wbw/082_009_004.mp3","verse_key":"82:9","verse_id":5838,"location":"82:9:4","text_uthmani":"بِٱلدِّينِ","qpc_uthmani_hafs":"بِٱلدِّينِ","char_type_name":"word","page_number":587,"line_number":7,"text":"بِٱلدِّينِ","translation":{"text":"শেষ বিচারকে","language_name":"bengali","language_id":20},"transliteration":{"text":"bil-dīni","language_name":"english","language_id":38}},{"id":10429,"position":5,"audio_url":null,"verse_key":"82:9","verse_id":5838,"location":"82:9:5","text_uthmani":"٩","qpc_uthmani_hafs":"٩","char_type_name":"end","page_number":587,"line_number":7,"text":"٩","translation":{"text":"(৯)","language_name":"bengali","language_id":20},"transliteration":{"text":null,"language_name":"english","language_id":38}}]},{"id":5839,"verse_number":10,"verse_key":"82:10","hizb_number":59,"rub_el_hizb_number":235,"ruku_number":526,"manzil_number":7,"sajdah_number":null,"page_number":587,"juz_number":30,"words":[{"id":11831,"position":1,"audio_url":"wbw/082_010_001.mp3","verse_key":"82:10","verse_id":5839,"location":"82:10:1","text_uthmani":"وَإِنَّ","qpc_uthmani_hafs":"وَإِنَّ","char_type_name":"word","page_number":587,"line_number":7,"text":"وَإِنَّ","translation":{"text":"এবং নিশ্চয়ই","language_name":"bengali","language_id":20},"transliteration":{"text":"wa-inna","language_name":"english","language_id":38}},{"id":11832,"position":2,"audio_url":"wbw/082_010_002.mp3","verse_key":"82:10","verse_id":5839,"location":"82:10:2","text_uthmani":"عَلَيْكُمْ","qpc_uthmani_hafs":"عَلَيۡكُمۡ","char_type_name":"word","page_number":587,"line_number":7,"text":"عَلَيۡكُمۡ","translation":{"text":"তোমাদের উপর","language_name":"bengali","language_id":20},"transliteration":{"text":"ʿalaykum","language_name":"english","language_id":38}},{"id":11833,"position":3,"audio_url":"wbw/082_010_003.mp3","verse_key":"82:10","verse_id":5839,"location":"82:10:3","text_uthmani":"لَحَـٰفِظِينَ","qpc_uthmani_hafs":"لَحَٰفِظِينَ","char_type_name":"word","page_number":587,"line_number":7,"text":"لَحَٰفِظِينَ","translation":{"text":"সংরক্ষক দল অবশ্যই (আছে)","language_name":"bengali","language_id":20},"transliteration":{"text":"laḥāfiẓīna","language_name":"english","language_id":38}},{"id":11834,"position":4,"audio_url":null,"verse_key":"82:10","verse_id":5839,"location":"82:10:4","text_uthmani":"١٠","qpc_uthmani_hafs":"١٠","char_type_name":"end","page_number":587,"line_number":7,"text":"١٠","translation":{"text":"(১০)","language_name":"bengali","language_id":20},"transliteration":{"text":null,"language_name":"english","language_id":38}}]}],"pagination":{"per_page":10,"current_page":1,"next_page":2,"total_pages":2,"total_records":19}}
