{"verses":[{"id":4671,"verse_number":41,"verse_key":"50:41","hizb_number":52,"rub_el_hizb_number":208,"ruku_number":456,"manzil_number":7,"sajdah_number":null,"page_number":520,"juz_number":26,"words":[{"id":42055,"position":1,"audio_url":"wbw/050_041_001.mp3","char_type_name":"word","page_number":520,"line_number":7,"text":"وَٱسْتَمِعْ","translation":{"text":"এবং শোনো","language_name":"bengali","language_id":20},"transliteration":{"text":"wa-is'tamiʿ","language_name":"english","language_id":38}},{"id":42056,"position":2,"audio_url":"wbw/050_041_002.mp3","char_type_name":"word","page_number":520,"line_number":7,"text":"يَوْمَ","translation":{"text":"যে দিন","language_name":"bengali","language_id":20},"transliteration":{"text":"yawma","language_name":"english","language_id":38}},{"id":42057,"position":3,"audio_url":"wbw/050_041_003.mp3","char_type_name":"word","page_number":520,"line_number":7,"text":"يُنَادِ","translation":{"text":"ডাকবে","language_name":"bengali","language_id":20},"transliteration":{"text":"yunādi","language_name":"english","language_id":38}},{"id":42058,"position":4,"audio_url":"wbw/050_041_004.mp3","char_type_name":"word","page_number":520,"line_number":7,"text":"ٱلْمُنَادِ","translation":{"text":"একজন ঘোষণাকারী","language_name":"bengali","language_id":20},"transliteration":{"text":"l-munādi","language_name":"english","language_id":38}},{"id":42059,"position":5,"audio_url":"wbw/050_041_005.mp3","char_type_name":"word","page_number":520,"line_number":7,"text":"مِن","translation":{"text":"হতে","language_name":"bengali","language_id":20},"transliteration":{"text":"min","language_name":"english","language_id":38}},{"id":42060,"position":6,"audio_url":"wbw/050_041_006.mp3","char_type_name":"word","page_number":520,"line_number":7,"text":"مَّكَانٍۢ","translation":{"text":"স্থান","language_name":"bengali","language_id":20},"transliteration":{"text":"makānin","language_name":"english","language_id":38}},{"id":42061,"position":7,"audio_url":"wbw/050_041_007.mp3","char_type_name":"word","page_number":520,"line_number":7,"text":"قَرِيبٍۢ","translation":{"text":"নিকটবর্তী","language_name":"bengali","language_id":20},"transliteration":{"text":"qarībin","language_name":"english","language_id":38}},{"id":42062,"position":8,"audio_url":null,"char_type_name":"end","page_number":520,"line_number":8,"text":"٤١","translation":{"text":"(৪১)","language_name":"bengali","language_id":20},"transliteration":{"text":null,"language_name":"english","language_id":38}}]},{"id":4672,"verse_number":42,"verse_key":"50:42","hizb_number":52,"rub_el_hizb_number":208,"ruku_number":456,"manzil_number":7,"sajdah_number":null,"page_number":520,"juz_number":26,"words":[{"id":42796,"position":1,"audio_url":"wbw/050_042_001.mp3","char_type_name":"word","page_number":520,"line_number":8,"text":"يَوْمَ","translation":{"text":"সেদিন","language_name":"bengali","language_id":20},"transliteration":{"text":"yawma","language_name":"english","language_id":38}},{"id":42797,"position":2,"audio_url":"wbw/050_042_002.mp3","char_type_name":"word","page_number":520,"line_number":8,"text":"يَسْمَعُونَ","translation":{"text":"তারা শুনতে পারবে","language_name":"bengali","language_id":20},"transliteration":{"text":"yasmaʿūna","language_name":"english","language_id":38}},{"id":42798,"position":3,"audio_url":"wbw/050_042_003.mp3","char_type_name":"word","page_number":520,"line_number":8,"text":"ٱلصَّيْحَةَ","translation":{"text":"মহাগর্জন","language_name":"bengali","language_id":20},"transliteration":{"text":"l-ṣayḥata","language_name":"english","language_id":38}},{"id":42799,"position":4,"audio_url":"wbw/050_042_004.mp3","char_type_name":"word","page_number":520,"line_number":8,"text":"بِٱلْحَقِّ ۚ","translation":{"text":"যথাযথভাবে","language_name":"bengali","language_id":20},"transliteration":{"text":"bil-ḥaqi","language_name":"english","language_id":38}},{"id":42801,"position":5,"audio_url":"wbw/050_042_006.mp3","char_type_name":"word","page_number":520,"line_number":8,"text":"ذَٰلِكَ","translation":{"text":"এটা","language_name":"bengali","language_id":20},"transliteration":{"text":"dhālika","language_name":"english","language_id":38}},{"id":42802,"position":6,"audio_url":"wbw/050_042_007.mp3","char_type_name":"word","page_number":520,"line_number":8,"text":"يَوْمُ","translation":{"text":"দিন","language_name":"bengali","language_id":20},"transliteration":{"text":"yawmu","language_name":"english","language_id":38}},{"id":42803,"position":7,"audio_url":"wbw/050_042_008.mp3","char_type_name":"word","page_number":520,"line_number":8,"text":"ٱلْخُرُوجِ","translation":{"text":"(কবর হতে) বের হওয়ার","language_name":"bengali","language_id":20},"transliteration":{"text":"l-khurūji","language_name":"english","language_id":38}},{"id":42804,"position":8,"audio_url":null,"char_type_name":"end","page_number":520,"line_number":8,"text":"٤٢","translation":{"text":"(৪২)","language_name":"bengali","language_id":20},"transliteration":{"text":null,"language_name":"english","language_id":38}}]},{"id":4673,"verse_number":43,"verse_key":"50:43","hizb_number":52,"rub_el_hizb_number":208,"ruku_number":456,"manzil_number":7,"sajdah_number":null,"page_number":520,"juz_number":26,"words":[{"id":43572,"position":1,"audio_url":"wbw/050_043_001.mp3","char_type_name":"word","page_number":520,"line_number":8,"text":"إِنَّا","translation":{"text":"নিশ্চয়ই আমরা","language_name":"bengali","language_id":20},"transliteration":{"text":"innā","language_name":"english","language_id":38}},{"id":43573,"position":2,"audio_url":"wbw/050_043_002.mp3","char_type_name":"word","page_number":520,"line_number":9,"text":"نَحْنُ","translation":{"text":"আমরাই","language_name":"bengali","language_id":20},"transliteration":{"text":"naḥnu","language_name":"english","language_id":38}},{"id":43574,"position":3,"audio_url":"wbw/050_043_003.mp3","char_type_name":"word","page_number":520,"line_number":9,"text":"نُحْىِۦ","translation":{"text":"জীবন দিই","language_name":"bengali","language_id":20},"transliteration":{"text":"nuḥ'yī","language_name":"english","language_id":38}},{"id":43575,"position":4,"audio_url":"wbw/050_043_004.mp3","char_type_name":"word","page_number":520,"line_number":9,"text":"وَنُمِيتُ","translation":{"text":"এবং মৃত্যু দিই আমরাই","language_name":"bengali","language_id":20},"transliteration":{"text":"wanumītu","language_name":"english","language_id":38}},{"id":43576,"position":5,"audio_url":"wbw/050_043_005.mp3","char_type_name":"word","page_number":520,"line_number":9,"text":"وَإِلَيْنَا","translation":{"text":"এবং আমাদের দিকেই","language_name":"bengali","language_id":20},"transliteration":{"text":"wa-ilaynā","language_name":"english","language_id":38}},{"id":43577,"position":6,"audio_url":"wbw/050_043_006.mp3","char_type_name":"word","page_number":520,"line_number":9,"text":"ٱلْمَصِيرُ","translation":{"text":"প্রত্যাবর্তনস্থল","language_name":"bengali","language_id":20},"transliteration":{"text":"l-maṣīru","language_name":"english","language_id":38}},{"id":43578,"position":7,"audio_url":null,"char_type_name":"end","page_number":520,"line_number":9,"text":"٤٣","translation":{"text":"(৪৩)","language_name":"bengali","language_id":20},"transliteration":{"text":null,"language_name":"english","language_id":38}}]},{"id":4674,"verse_number":44,"verse_key":"50:44","hizb_number":52,"rub_el_hizb_number":208,"ruku_number":456,"manzil_number":7,"sajdah_number":null,"page_number":520,"juz_number":26,"words":[{"id":44693,"position":1,"audio_url":"wbw/050_044_001.mp3","char_type_name":"word","page_number":520,"line_number":9,"text":"يَوْمَ","translation":{"text":"যেদিন","language_name":"bengali","language_id":20},"transliteration":{"text":"yawma","language_name":"english","language_id":38}},{"id":44694,"position":2,"audio_url":"wbw/050_044_002.mp3","char_type_name":"word","page_number":520,"line_number":9,"text":"تَشَقَّقُ","translation":{"text":"বিদীর্ণ হবে","language_name":"bengali","language_id":20},"transliteration":{"text":"tashaqqaqu","language_name":"english","language_id":38}},{"id":44695,"position":3,"audio_url":"wbw/050_044_003.mp3","char_type_name":"word","page_number":520,"line_number":9,"text":"ٱلْأَرْضُ","translation":{"text":"পৃথিবী","language_name":"bengali","language_id":20},"transliteration":{"text":"l-arḍu","language_name":"english","language_id":38}},{"id":44696,"position":4,"audio_url":"wbw/050_044_004.mp3","char_type_name":"word","page_number":520,"line_number":10,"text":"عَنْهُمْ","translation":{"text":"তাদের ভিতর হতে","language_name":"bengali","language_id":20},"transliteration":{"text":"ʿanhum","language_name":"english","language_id":38}},{"id":44697,"position":5,"audio_url":"wbw/050_044_005.mp3","char_type_name":"word","page_number":520,"line_number":10,"text":"سِرَاعًۭا ۚ","translation":{"text":"ত্রস্তব্যস্ত","language_name":"bengali","language_id":20},"transliteration":{"text":"sirāʿan","language_name":"english","language_id":38}},{"id":44699,"position":6,"audio_url":"wbw/050_044_007.mp3","char_type_name":"word","page_number":520,"line_number":10,"text":"ذَٰلِكَ","translation":{"text":"এই","language_name":"bengali","language_id":20},"transliteration":{"text":"dhālika","language_name":"english","language_id":38}},{"id":44700,"position":7,"audio_url":"wbw/050_044_008.mp3","char_type_name":"word","page_number":520,"line_number":10,"text":"حَشْرٌ","translation":{"text":"সমবেত করা","language_name":"bengali","language_id":20},"transliteration":{"text":"ḥashrun","language_name":"english","language_id":38}},{"id":44701,"position":8,"audio_url":"wbw/050_044_009.mp3","char_type_name":"word","page_number":520,"line_number":10,"text":"عَلَيْنَا","translation":{"text":"আমাদের উপর","language_name":"bengali","language_id":20},"transliteration":{"text":"ʿalaynā","language_name":"english","language_id":38}},{"id":44702,"position":9,"audio_url":"wbw/050_044_010.mp3","char_type_name":"word","page_number":520,"line_number":10,"text":"يَسِيرٌۭ","translation":{"text":"খুবই সহজ","language_name":"bengali","language_id":20},"transliteration":{"text":"yasīrun","language_name":"english","language_id":38}},{"id":44703,"position":10,"audio_url":null,"char_type_name":"end","page_number":520,"line_number":10,"text":"٤٤","translation":{"text":"(৪৪)","language_name":"bengali","language_id":20},"transliteration":{"text":null,"language_name":"english","language_id":38}}]},{"id":4675,"verse_number":45,"verse_key":"50:45","hizb_number":52,"rub_el_hizb_number":208,"ruku_number":456,"manzil_number":7,"sajdah_number":null,"page_number":520,"juz_number":26,"words":[{"id":45089,"position":1,"audio_url":"wbw/050_045_001.mp3","char_type_name":"word","page_number":520,"line_number":10,"text":"نَّحْنُ","translation":{"text":"(হে নবী) আমরা","language_name":"bengali","language_id":20},"transliteration":{"text":"naḥnu","language_name":"english","language_id":38}},{"id":45090,"position":2,"audio_url":"wbw/050_045_002.mp3","char_type_name":"word","page_number":520,"line_number":10,"text":"أَعْلَمُ","translation":{"text":"খুব জানি","language_name":"bengali","language_id":20},"transliteration":{"text":"aʿlamu","language_name":"english","language_id":38}},{"id":45091,"position":3,"audio_url":"wbw/050_045_003.mp3","char_type_name":"word","page_number":520,"line_number":10,"text":"بِمَا","translation":{"text":"ঐ বিষয়ে যা","language_name":"bengali","language_id":20},"transliteration":{"text":"bimā","language_name":"english","language_id":38}},{"id":45092,"position":4,"audio_url":"wbw/050_045_004.mp3","char_type_name":"word","page_number":520,"line_number":10,"text":"يَقُولُونَ ۖ","translation":{"text":"তারা বলেছে","language_name":"bengali","language_id":20},"transliteration":{"text":"yaqūlūna","language_name":"english","language_id":38}},{"id":45094,"position":5,"audio_url":"wbw/050_045_006.mp3","char_type_name":"word","page_number":520,"line_number":11,"text":"وَمَآ","translation":{"text":"এবং না","language_name":"bengali","language_id":20},"transliteration":{"text":"wamā","language_name":"english","language_id":38}},{"id":45095,"position":6,"audio_url":"wbw/050_045_007.mp3","char_type_name":"word","page_number":520,"line_number":11,"text":"أَنتَ","translation":{"text":"তুমি","language_name":"bengali","language_id":20},"transliteration":{"text":"anta","language_name":"english","language_id":38}},{"id":45096,"position":7,"audio_url":"wbw/050_045_008.mp3","char_type_name":"word","page_number":520,"line_number":11,"text":"عَلَيْهِم","translation":{"text":"তাদের উপর","language_name":"bengali","language_id":20},"transliteration":{"text":"ʿalayhim","language_name":"english","language_id":38}},{"id":45097,"position":8,"audio_url":"wbw/050_045_009.mp3","char_type_name":"word","page_number":520,"line_number":11,"text":"بِجَبَّارٍۢ ۖ","translation":{"text":"জবরদস্তিকারী","language_name":"bengali","language_id":20},"transliteration":{"text":"bijabbārin","language_name":"english","language_id":38}},{"id":45099,"position":9,"audio_url":"wbw/050_045_011.mp3","char_type_name":"word","page_number":520,"line_number":11,"text":"فَذَكِّرْ","translation":{"text":"সুতরাং উপদেশ দাও","language_name":"bengali","language_id":20},"transliteration":{"text":"fadhakkir","language_name":"english","language_id":38}},{"id":45100,"position":10,"audio_url":"wbw/050_045_012.mp3","char_type_name":"word","page_number":520,"line_number":11,"text":"بِٱلْقُرْءَانِ","translation":{"text":"কুরআনের সাহায্যে","language_name":"bengali","language_id":20},"transliteration":{"text":"bil-qur'āni","language_name":"english","language_id":38}},{"id":45101,"position":11,"audio_url":"wbw/050_045_013.mp3","char_type_name":"word","page_number":520,"line_number":11,"text":"مَن","translation":{"text":"(তাকে) যে","language_name":"bengali","language_id":20},"transliteration":{"text":"man","language_name":"english","language_id":38}},{"id":45102,"position":12,"audio_url":"wbw/050_045_014.mp3","char_type_name":"word","page_number":520,"line_number":11,"text":"يَخَافُ","translation":{"text":"ভয় করে","language_name":"bengali","language_id":20},"transliteration":{"text":"yakhāfu","language_name":"english","language_id":38}},{"id":45103,"position":13,"audio_url":"wbw/050_045_015.mp3","char_type_name":"word","page_number":520,"line_number":11,"text":"وَعِيدِ","translation":{"text":"আমার সতর্কীকরণকে","language_name":"bengali","language_id":20},"transliteration":{"text":"waʿīdi","language_name":"english","language_id":38}},{"id":45104,"position":14,"audio_url":null,"char_type_name":"end","page_number":520,"line_number":11,"text":"٤٥","translation":{"text":"(৪৫)","language_name":"bengali","language_id":20},"transliteration":{"text":null,"language_name":"english","language_id":38}}]}],"pagination":{"per_page":10,"current_page":5,"next_page":null,"total_pages":5,"total_records":45}}
