{"verses":[{"id":1594,"verse_number":121,"verse_key":"11:121","hizb_number":24,"rub_el_hizb_number":94,"ruku_number":192,"manzil_number":3,"sajdah_number":null,"page_number":235,"juz_number":12,"words":[{"id":76610,"position":1,"audio_url":"wbw/011_121_001.mp3","char_type_name":"word","page_number":235,"line_number":5,"text":"وَقُل","translation":{"text":"এবং বলো","language_name":"bengali","language_id":20},"transliteration":{"text":"waqul","language_name":"english","language_id":38}},{"id":76611,"position":2,"audio_url":"wbw/011_121_002.mp3","char_type_name":"word","page_number":235,"line_number":5,"text":"لِّلَّذِينَ","translation":{"text":"(তাদের জন্যে) যারা","language_name":"bengali","language_id":20},"transliteration":{"text":"lilladhīna","language_name":"english","language_id":38}},{"id":76612,"position":3,"audio_url":"wbw/011_121_003.mp3","char_type_name":"word","page_number":235,"line_number":5,"text":"لَا","translation":{"text":"না","language_name":"bengali","language_id":20},"transliteration":{"text":"lā","language_name":"english","language_id":38}},{"id":76613,"position":4,"audio_url":"wbw/011_121_004.mp3","char_type_name":"word","page_number":235,"line_number":5,"text":"يُؤْمِنُونَ","translation":{"text":"ঈমান আনে","language_name":"bengali","language_id":20},"transliteration":{"text":"yu'minūna","language_name":"english","language_id":38}},{"id":76614,"position":5,"audio_url":"wbw/011_121_005.mp3","char_type_name":"word","page_number":235,"line_number":6,"text":"ٱعْمَلُوا۟","translation":{"text":"\"তোমরা কাজ করো","language_name":"bengali","language_id":20},"transliteration":{"text":"iʿ'malū","language_name":"english","language_id":38}},{"id":76615,"position":6,"audio_url":"wbw/011_121_006.mp3","char_type_name":"word","page_number":235,"line_number":6,"text":"عَلَىٰ","translation":{"text":"উপর","language_name":"bengali","language_id":20},"transliteration":{"text":"ʿalā","language_name":"english","language_id":38}},{"id":76616,"position":7,"audio_url":"wbw/011_121_007.mp3","char_type_name":"word","page_number":235,"line_number":6,"text":"مَكَانَتِكُمْ","translation":{"text":"তোমদের জায়গার","language_name":"bengali","language_id":20},"transliteration":{"text":"makānatikum","language_name":"english","language_id":38}},{"id":76617,"position":8,"audio_url":"wbw/011_121_008.mp3","char_type_name":"word","page_number":235,"line_number":6,"text":"إِنَّا","translation":{"text":"নিশ্চয়ই আমরাও","language_name":"bengali","language_id":20},"transliteration":{"text":"innā","language_name":"english","language_id":38}},{"id":76618,"position":9,"audio_url":"wbw/011_121_009.mp3","char_type_name":"word","page_number":235,"line_number":6,"text":"عَـٰمِلُونَ","translation":{"text":"কাজ করে যাচ্ছি","language_name":"bengali","language_id":20},"transliteration":{"text":"ʿāmilūna","language_name":"english","language_id":38}},{"id":76619,"position":10,"audio_url":null,"char_type_name":"end","page_number":235,"line_number":6,"text":"١٢١","translation":{"text":"(১২১)","language_name":"bengali","language_id":20},"transliteration":{"text":null,"language_name":"english","language_id":38}}]},{"id":1595,"verse_number":122,"verse_key":"11:122","hizb_number":24,"rub_el_hizb_number":94,"ruku_number":192,"manzil_number":3,"sajdah_number":null,"page_number":235,"juz_number":12,"words":[{"id":76728,"position":1,"audio_url":"wbw/011_122_001.mp3","char_type_name":"word","page_number":235,"line_number":6,"text":"وَٱنتَظِرُوٓا۟","translation":{"text":"এবং তোমরা অপেক্ষা করো","language_name":"bengali","language_id":20},"transliteration":{"text":"wa-intaẓirū","language_name":"english","language_id":38}},{"id":76729,"position":2,"audio_url":"wbw/011_122_002.mp3","char_type_name":"word","page_number":235,"line_number":6,"text":"إِنَّا","translation":{"text":"নিশ্চয়ই আমরাও","language_name":"bengali","language_id":20},"transliteration":{"text":"innā","language_name":"english","language_id":38}},{"id":76730,"position":3,"audio_url":"wbw/011_122_003.mp3","char_type_name":"word","page_number":235,"line_number":6,"text":"مُنتَظِرُونَ","translation":{"text":"প্রতীক্ষাকারী\"","language_name":"bengali","language_id":20},"transliteration":{"text":"muntaẓirūna","language_name":"english","language_id":38}},{"id":76731,"position":4,"audio_url":null,"char_type_name":"end","page_number":235,"line_number":7,"text":"١٢٢","translation":{"text":"(১২২)","language_name":"bengali","language_id":20},"transliteration":{"text":null,"language_name":"english","language_id":38}}]},{"id":1596,"verse_number":123,"verse_key":"11:123","hizb_number":24,"rub_el_hizb_number":94,"ruku_number":192,"manzil_number":3,"sajdah_number":null,"page_number":235,"juz_number":12,"words":[{"id":76919,"position":1,"audio_url":"wbw/011_123_001.mp3","char_type_name":"word","page_number":235,"line_number":7,"text":"وَلِلَّهِ","translation":{"text":"এবং আল্লাহর (আছে জ্ঞান)","language_name":"bengali","language_id":20},"transliteration":{"text":"walillahi","language_name":"english","language_id":38}},{"id":76920,"position":2,"audio_url":"wbw/011_123_002.mp3","char_type_name":"word","page_number":235,"line_number":7,"text":"غَيْبُ","translation":{"text":"অদৃশ্যের","language_name":"bengali","language_id":20},"transliteration":{"text":"ghaybu","language_name":"english","language_id":38}},{"id":76921,"position":3,"audio_url":"wbw/011_123_003.mp3","char_type_name":"word","page_number":235,"line_number":7,"text":"ٱلسَّمَـٰوَٰتِ","translation":{"text":"আকাশসমূহের","language_name":"bengali","language_id":20},"transliteration":{"text":"l-samāwāti","language_name":"english","language_id":38}},{"id":76922,"position":4,"audio_url":"wbw/011_123_004.mp3","char_type_name":"word","page_number":235,"line_number":7,"text":"وَٱلْأَرْضِ","translation":{"text":"ও পৃথিবীর","language_name":"bengali","language_id":20},"transliteration":{"text":"wal-arḍi","language_name":"english","language_id":38}},{"id":76923,"position":5,"audio_url":"wbw/011_123_005.mp3","char_type_name":"word","page_number":235,"line_number":7,"text":"وَإِلَيْهِ","translation":{"text":"এবং তাঁরই দিকে","language_name":"bengali","language_id":20},"transliteration":{"text":"wa-ilayhi","language_name":"english","language_id":38}},{"id":76924,"position":6,"audio_url":"wbw/011_123_006.mp3","char_type_name":"word","page_number":235,"line_number":7,"text":"يُرْجَعُ","translation":{"text":"ফিরিয়ে আনা হবে","language_name":"bengali","language_id":20},"transliteration":{"text":"yur'jaʿu","language_name":"english","language_id":38}},{"id":76925,"position":7,"audio_url":"wbw/011_123_007.mp3","char_type_name":"word","page_number":235,"line_number":7,"text":"ٱلْأَمْرُ","translation":{"text":"ব্যাপার","language_name":"bengali","language_id":20},"transliteration":{"text":"l-amru","language_name":"english","language_id":38}},{"id":76926,"position":8,"audio_url":"wbw/011_123_008.mp3","char_type_name":"word","page_number":235,"line_number":7,"text":"كُلُّهُۥ","translation":{"text":"সবই","language_name":"bengali","language_id":20},"transliteration":{"text":"kulluhu","language_name":"english","language_id":38}},{"id":76927,"position":9,"audio_url":"wbw/011_123_009.mp3","char_type_name":"word","page_number":235,"line_number":8,"text":"فَٱعْبُدْهُ","translation":{"text":"অতএব তাঁরই ইবাদত করো","language_name":"bengali","language_id":20},"transliteration":{"text":"fa-uʿ'bud'hu","language_name":"english","language_id":38}},{"id":76928,"position":10,"audio_url":"wbw/011_123_010.mp3","char_type_name":"word","page_number":235,"line_number":8,"text":"وَتَوَكَّلْ","translation":{"text":"ভরসা করো","language_name":"bengali","language_id":20},"transliteration":{"text":"watawakkal","language_name":"english","language_id":38}},{"id":76929,"position":11,"audio_url":"wbw/011_123_011.mp3","char_type_name":"word","page_number":235,"line_number":8,"text":"عَلَيْهِ ۚ","translation":{"text":"তাঁরই উপর","language_name":"bengali","language_id":20},"transliteration":{"text":"ʿalayhi","language_name":"english","language_id":38}},{"id":76931,"position":12,"audio_url":"wbw/011_123_013.mp3","char_type_name":"word","page_number":235,"line_number":8,"text":"وَمَا","translation":{"text":"এবং নন","language_name":"bengali","language_id":20},"transliteration":{"text":"wamā","language_name":"english","language_id":38}},{"id":76932,"position":13,"audio_url":"wbw/011_123_014.mp3","char_type_name":"word","page_number":235,"line_number":8,"text":"رَبُّكَ","translation":{"text":"তোমার রব","language_name":"bengali","language_id":20},"transliteration":{"text":"rabbuka","language_name":"english","language_id":38}},{"id":76933,"position":14,"audio_url":"wbw/011_123_015.mp3","char_type_name":"word","page_number":235,"line_number":8,"text":"بِغَـٰفِلٍ","translation":{"text":"অনবহিত","language_name":"bengali","language_id":20},"transliteration":{"text":"bighāfilin","language_name":"english","language_id":38}},{"id":76934,"position":15,"audio_url":"wbw/011_123_016.mp3","char_type_name":"word","page_number":235,"line_number":8,"text":"عَمَّا","translation":{"text":"তা হ'তে যা","language_name":"bengali","language_id":20},"transliteration":{"text":"ʿammā","language_name":"english","language_id":38}},{"id":76935,"position":16,"audio_url":"wbw/011_123_017.mp3","char_type_name":"word","page_number":235,"line_number":8,"text":"تَعْمَلُونَ","translation":{"text":"তোমরা কাজ করছো","language_name":"bengali","language_id":20},"transliteration":{"text":"taʿmalūna","language_name":"english","language_id":38}},{"id":76936,"position":17,"audio_url":null,"char_type_name":"end","page_number":235,"line_number":8,"text":"١٢٣","translation":{"text":"(১২৩)","language_name":"bengali","language_id":20},"transliteration":{"text":null,"language_name":"english","language_id":38}}]}],"pagination":{"per_page":10,"current_page":13,"next_page":null,"total_pages":13,"total_records":123}}
