{"verses":[{"id":4922,"verse_number":21,"verse_key":"55:21","hizb_number":54,"rub_el_hizb_number":213,"ruku_number":468,"manzil_number":7,"sajdah_number":null,"page_number":532,"juz_number":27,"words":[{"id":23744,"position":1,"audio_url":"wbw/055_021_001.mp3","verse_key":"55:21","verse_id":4922,"location":"55:21:1","text_uthmani":"فَبِأَىِّ","qpc_uthmani_hafs":"فَبِأَيِّ","char_type_name":"word","page_number":532,"line_number":1,"text":"فَبِأَيِّ","translation":{"text":"So which","language_name":"english","language_id":38},"transliteration":{"text":"fabi-ayyi","language_name":"english","language_id":38}},{"id":23745,"position":2,"audio_url":"wbw/055_021_002.mp3","verse_key":"55:21","verse_id":4922,"location":"55:21:2","text_uthmani":"ءَالَآءِ","qpc_uthmani_hafs":"ءَالَآءِ","char_type_name":"word","page_number":532,"line_number":1,"text":"ءَالَآءِ","translation":{"text":"(of the) favors","language_name":"english","language_id":38},"transliteration":{"text":"ālāi","language_name":"english","language_id":38}},{"id":23746,"position":3,"audio_url":"wbw/055_021_003.mp3","verse_key":"55:21","verse_id":4922,"location":"55:21:3","text_uthmani":"رَبِّكُمَا","qpc_uthmani_hafs":"رَبِّكُمَا","char_type_name":"word","page_number":532,"line_number":2,"text":"رَبِّكُمَا","translation":{"text":"(of) your Lord","language_name":"english","language_id":38},"transliteration":{"text":"rabbikumā","language_name":"english","language_id":38}},{"id":23747,"position":4,"audio_url":"wbw/055_021_004.mp3","verse_key":"55:21","verse_id":4922,"location":"55:21:4","text_uthmani":"تُكَذِّبَانِ","qpc_uthmani_hafs":"تُكَذِّبَانِ","char_type_name":"word","page_number":532,"line_number":2,"text":"تُكَذِّبَانِ","translation":{"text":"will you both deny","language_name":"english","language_id":38},"transliteration":{"text":"tukadhibāni","language_name":"english","language_id":38}},{"id":23748,"position":5,"audio_url":null,"verse_key":"55:21","verse_id":4922,"location":"55:21:5","text_uthmani":"٢١","qpc_uthmani_hafs":"٢١","char_type_name":"end","page_number":532,"line_number":2,"text":"٢١","translation":{"text":"(21)","language_name":"english","language_id":38},"transliteration":{"text":null,"language_name":"english","language_id":38}}]},{"id":4923,"verse_number":22,"verse_key":"55:22","hizb_number":54,"rub_el_hizb_number":213,"ruku_number":468,"manzil_number":7,"sajdah_number":null,"page_number":532,"juz_number":27,"words":[{"id":24746,"position":1,"audio_url":"wbw/055_022_001.mp3","verse_key":"55:22","verse_id":4923,"location":"55:22:1","text_uthmani":"يَخْرُجُ","qpc_uthmani_hafs":"يَخۡرُجُ","char_type_name":"word","page_number":532,"line_number":2,"text":"يَخۡرُجُ","translation":{"text":"Come forth","language_name":"english","language_id":38},"transliteration":{"text":"yakhruju","language_name":"english","language_id":38}},{"id":24747,"position":2,"audio_url":"wbw/055_022_002.mp3","verse_key":"55:22","verse_id":4923,"location":"55:22:2","text_uthmani":"مِنْهُمَا","qpc_uthmani_hafs":"مِنۡهُمَا","char_type_name":"word","page_number":532,"line_number":2,"text":"مِنۡهُمَا","translation":{"text":"from both of them","language_name":"english","language_id":38},"transliteration":{"text":"min'humā","language_name":"english","language_id":38}},{"id":24748,"position":3,"audio_url":"wbw/055_022_003.mp3","verse_key":"55:22","verse_id":4923,"location":"55:22:3","text_uthmani":"ٱللُّؤْلُؤُ","qpc_uthmani_hafs":"ٱللُّؤۡلُؤُ","char_type_name":"word","page_number":532,"line_number":2,"text":"ٱللُّؤۡلُؤُ","translation":{"text":"the pearl","language_name":"english","language_id":38},"transliteration":{"text":"l-lu'lu-u","language_name":"english","language_id":38}},{"id":24749,"position":4,"audio_url":"wbw/055_022_004.mp3","verse_key":"55:22","verse_id":4923,"location":"55:22:4","text_uthmani":"وَٱلْمَرْجَانُ","qpc_uthmani_hafs":"وَٱلۡمَرۡجَانُ","char_type_name":"word","page_number":532,"line_number":2,"text":"وَٱلۡمَرۡجَانُ","translation":{"text":"and the coral","language_name":"english","language_id":38},"transliteration":{"text":"wal-marjānu","language_name":"english","language_id":38}},{"id":24750,"position":5,"audio_url":null,"verse_key":"55:22","verse_id":4923,"location":"55:22:5","text_uthmani":"٢٢","qpc_uthmani_hafs":"٢٢","char_type_name":"end","page_number":532,"line_number":2,"text":"٢٢","translation":{"text":"(22)","language_name":"english","language_id":38},"transliteration":{"text":null,"language_name":"english","language_id":38}}]},{"id":4924,"verse_number":23,"verse_key":"55:23","hizb_number":54,"rub_el_hizb_number":213,"ruku_number":468,"manzil_number":7,"sajdah_number":null,"page_number":532,"juz_number":27,"words":[{"id":26447,"position":1,"audio_url":"wbw/055_023_001.mp3","verse_key":"55:23","verse_id":4924,"location":"55:23:1","text_uthmani":"فَبِأَىِّ","qpc_uthmani_hafs":"فَبِأَيِّ","char_type_name":"word","page_number":532,"line_number":2,"text":"فَبِأَيِّ","translation":{"text":"So which","language_name":"english","language_id":38},"transliteration":{"text":"fabi-ayyi","language_name":"english","language_id":38}},{"id":26448,"position":2,"audio_url":"wbw/055_023_002.mp3","verse_key":"55:23","verse_id":4924,"location":"55:23:2","text_uthmani":"ءَالَآءِ","qpc_uthmani_hafs":"ءَالَآءِ","char_type_name":"word","page_number":532,"line_number":2,"text":"ءَالَآءِ","translation":{"text":"(of the) favors","language_name":"english","language_id":38},"transliteration":{"text":"ālāi","language_name":"english","language_id":38}},{"id":26449,"position":3,"audio_url":"wbw/055_023_003.mp3","verse_key":"55:23","verse_id":4924,"location":"55:23:3","text_uthmani":"رَبِّكُمَا","qpc_uthmani_hafs":"رَبِّكُمَا","char_type_name":"word","page_number":532,"line_number":3,"text":"رَبِّكُمَا","translation":{"text":"(of) your Lord","language_name":"english","language_id":38},"transliteration":{"text":"rabbikumā","language_name":"english","language_id":38}},{"id":26450,"position":4,"audio_url":"wbw/055_023_004.mp3","verse_key":"55:23","verse_id":4924,"location":"55:23:4","text_uthmani":"تُكَذِّبَانِ","qpc_uthmani_hafs":"تُكَذِّبَانِ","char_type_name":"word","page_number":532,"line_number":3,"text":"تُكَذِّبَانِ","translation":{"text":"will you both deny","language_name":"english","language_id":38},"transliteration":{"text":"tukadhibāni","language_name":"english","language_id":38}},{"id":26451,"position":5,"audio_url":null,"verse_key":"55:23","verse_id":4924,"location":"55:23:5","text_uthmani":"٢٣","qpc_uthmani_hafs":"٢٣","char_type_name":"end","page_number":532,"line_number":3,"text":"٢٣","translation":{"text":"(23)","language_name":"english","language_id":38},"transliteration":{"text":null,"language_name":"english","language_id":38}}]},{"id":4925,"verse_number":24,"verse_key":"55:24","hizb_number":54,"rub_el_hizb_number":213,"ruku_number":468,"manzil_number":7,"sajdah_number":null,"page_number":532,"juz_number":27,"words":[{"id":26869,"position":1,"audio_url":"wbw/055_024_001.mp3","verse_key":"55:24","verse_id":4925,"location":"55:24:1","text_uthmani":"وَلَهُ","qpc_uthmani_hafs":"وَلَهُ","char_type_name":"word","page_number":532,"line_number":3,"text":"وَلَهُ","translation":{"text":"And for Him","language_name":"english","language_id":38},"transliteration":{"text":"walahu","language_name":"english","language_id":38}},{"id":26870,"position":2,"audio_url":"wbw/055_024_002.mp3","verse_key":"55:24","verse_id":4925,"location":"55:24:2","text_uthmani":"ٱلْجَوَارِ","qpc_uthmani_hafs":"ٱلۡجَوَارِ","char_type_name":"word","page_number":532,"line_number":3,"text":"ٱلۡجَوَارِ","translation":{"text":"(are) the ships","language_name":"english","language_id":38},"transliteration":{"text":"l-jawāri","language_name":"english","language_id":38}},{"id":26871,"position":3,"audio_url":"wbw/055_024_003.mp3","verse_key":"55:24","verse_id":4925,"location":"55:24:3","text_uthmani":"ٱلْمُنشَـَٔاتُ","qpc_uthmani_hafs":"ٱلۡمُنشَـَٔاتُ","char_type_name":"word","page_number":532,"line_number":3,"text":"ٱلۡمُنشَـَٔاتُ","translation":{"text":"elevated","language_name":"english","language_id":38},"transliteration":{"text":"l-munshaātu","language_name":"english","language_id":38}},{"id":26872,"position":4,"audio_url":"wbw/055_024_004.mp3","verse_key":"55:24","verse_id":4925,"location":"55:24:4","text_uthmani":"فِى","qpc_uthmani_hafs":"فِي","char_type_name":"word","page_number":532,"line_number":3,"text":"فِي","translation":{"text":"in","language_name":"english","language_id":38},"transliteration":{"text":"fī","language_name":"english","language_id":38}},{"id":26873,"position":5,"audio_url":"wbw/055_024_005.mp3","verse_key":"55:24","verse_id":4925,"location":"55:24:5","text_uthmani":"ٱلْبَحْرِ","qpc_uthmani_hafs":"ٱلۡبَحۡرِ","char_type_name":"word","page_number":532,"line_number":3,"text":"ٱلۡبَحۡرِ","translation":{"text":"the sea","language_name":"english","language_id":38},"transliteration":{"text":"l-baḥri","language_name":"english","language_id":38}},{"id":26874,"position":6,"audio_url":"wbw/055_024_006.mp3","verse_key":"55:24","verse_id":4925,"location":"55:24:6","text_uthmani":"كَٱلْأَعْلَـٰمِ","qpc_uthmani_hafs":"كَٱلۡأَعۡلَٰمِ","char_type_name":"word","page_number":532,"line_number":3,"text":"كَٱلۡأَعۡلَٰمِ","translation":{"text":"like mountains","language_name":"english","language_id":38},"transliteration":{"text":"kal-aʿlāmi","language_name":"english","language_id":38}},{"id":26875,"position":7,"audio_url":null,"verse_key":"55:24","verse_id":4925,"location":"55:24:7","text_uthmani":"٢٤","qpc_uthmani_hafs":"٢٤","char_type_name":"end","page_number":532,"line_number":3,"text":"٢٤","translation":{"text":"(24)","language_name":"english","language_id":38},"transliteration":{"text":null,"language_name":"english","language_id":38}}]},{"id":4926,"verse_number":25,"verse_key":"55:25","hizb_number":54,"rub_el_hizb_number":213,"ruku_number":468,"manzil_number":7,"sajdah_number":null,"page_number":532,"juz_number":27,"words":[{"id":27898,"position":1,"audio_url":"wbw/055_025_001.mp3","verse_key":"55:25","verse_id":4926,"location":"55:25:1","text_uthmani":"فَبِأَىِّ","qpc_uthmani_hafs":"فَبِأَيِّ","char_type_name":"word","page_number":532,"line_number":4,"text":"فَبِأَيِّ","translation":{"text":"So which","language_name":"english","language_id":38},"transliteration":{"text":"fabi-ayyi","language_name":"english","language_id":38}},{"id":27899,"position":2,"audio_url":"wbw/055_025_002.mp3","verse_key":"55:25","verse_id":4926,"location":"55:25:2","text_uthmani":"ءَالَآءِ","qpc_uthmani_hafs":"ءَالَآءِ","char_type_name":"word","page_number":532,"line_number":4,"text":"ءَالَآءِ","translation":{"text":"(of the) favors","language_name":"english","language_id":38},"transliteration":{"text":"ālāi","language_name":"english","language_id":38}},{"id":27900,"position":3,"audio_url":"wbw/055_025_003.mp3","verse_key":"55:25","verse_id":4926,"location":"55:25:3","text_uthmani":"رَبِّكُمَا","qpc_uthmani_hafs":"رَبِّكُمَا","char_type_name":"word","page_number":532,"line_number":4,"text":"رَبِّكُمَا","translation":{"text":"(of) your Lord","language_name":"english","language_id":38},"transliteration":{"text":"rabbikumā","language_name":"english","language_id":38}},{"id":27901,"position":4,"audio_url":"wbw/055_025_004.mp3","verse_key":"55:25","verse_id":4926,"location":"55:25:4","text_uthmani":"تُكَذِّبَانِ","qpc_uthmani_hafs":"تُكَذِّبَانِ","char_type_name":"word","page_number":532,"line_number":4,"text":"تُكَذِّبَانِ","translation":{"text":"will you both deny","language_name":"english","language_id":38},"transliteration":{"text":"tukadhibāni","language_name":"english","language_id":38}},{"id":27902,"position":5,"audio_url":null,"verse_key":"55:25","verse_id":4926,"location":"55:25:5","text_uthmani":"٢٥","qpc_uthmani_hafs":"٢٥","char_type_name":"end","page_number":532,"line_number":4,"text":"٢٥","translation":{"text":"(25)","language_name":"english","language_id":38},"transliteration":{"text":null,"language_name":"english","language_id":38}}]},{"id":4927,"verse_number":26,"verse_key":"55:26","hizb_number":54,"rub_el_hizb_number":213,"ruku_number":469,"manzil_number":7,"sajdah_number":null,"page_number":532,"juz_number":27,"words":[{"id":28868,"position":1,"audio_url":"wbw/055_026_001.mp3","verse_key":"55:26","verse_id":4927,"location":"55:26:1","text_uthmani":"كُلُّ","qpc_uthmani_hafs":"كُلُّ","char_type_name":"word","page_number":532,"line_number":4,"text":"كُلُّ","translation":{"text":"Everyone","language_name":"english","language_id":38},"transliteration":{"text":"kullu","language_name":"english","language_id":38}},{"id":28869,"position":2,"audio_url":"wbw/055_026_002.mp3","verse_key":"55:26","verse_id":4927,"location":"55:26:2","text_uthmani":"مَنْ","qpc_uthmani_hafs":"مَنۡ","char_type_name":"word","page_number":532,"line_number":4,"text":"مَنۡ","translation":{"text":"who","language_name":"english","language_id":38},"transliteration":{"text":"man","language_name":"english","language_id":38}},{"id":28870,"position":3,"audio_url":"wbw/055_026_003.mp3","verse_key":"55:26","verse_id":4927,"location":"55:26:3","text_uthmani":"عَلَيْهَا","qpc_uthmani_hafs":"عَلَيۡهَا","char_type_name":"word","page_number":532,"line_number":4,"text":"عَلَيۡهَا","translation":{"text":"(is) on it","language_name":"english","language_id":38},"transliteration":{"text":"ʿalayhā","language_name":"english","language_id":38}},{"id":28871,"position":4,"audio_url":"wbw/055_026_004.mp3","verse_key":"55:26","verse_id":4927,"location":"55:26:4","text_uthmani":"فَانٍۢ","qpc_uthmani_hafs":"فَانٖ","char_type_name":"word","page_number":532,"line_number":4,"text":"فَانٖ","translation":{"text":"(will) perish","language_name":"english","language_id":38},"transliteration":{"text":"fānin","language_name":"english","language_id":38}},{"id":28872,"position":5,"audio_url":null,"verse_key":"55:26","verse_id":4927,"location":"55:26:5","text_uthmani":"٢٦","qpc_uthmani_hafs":"٢٦","char_type_name":"end","page_number":532,"line_number":4,"text":"٢٦","translation":{"text":"(26)","language_name":"english","language_id":38},"transliteration":{"text":null,"language_name":"english","language_id":38}}]},{"id":4928,"verse_number":27,"verse_key":"55:27","hizb_number":54,"rub_el_hizb_number":213,"ruku_number":469,"manzil_number":7,"sajdah_number":null,"page_number":532,"juz_number":27,"words":[{"id":29677,"position":1,"audio_url":"wbw/055_027_001.mp3","verse_key":"55:27","verse_id":4928,"location":"55:27:1","text_uthmani":"وَيَبْقَىٰ","qpc_uthmani_hafs":"وَيَبۡقَىٰ","char_type_name":"word","page_number":532,"line_number":4,"text":"وَيَبۡقَىٰ","translation":{"text":"But will remain","language_name":"english","language_id":38},"transliteration":{"text":"wayabqā","language_name":"english","language_id":38}},{"id":29678,"position":2,"audio_url":"wbw/055_027_002.mp3","verse_key":"55:27","verse_id":4928,"location":"55:27:2","text_uthmani":"وَجْهُ","qpc_uthmani_hafs":"وَجۡهُ","char_type_name":"word","page_number":532,"line_number":4,"text":"وَجۡهُ","translation":{"text":"(the) Face","language_name":"english","language_id":38},"transliteration":{"text":"wajhu","language_name":"english","language_id":38}},{"id":29679,"position":3,"audio_url":"wbw/055_027_003.mp3","verse_key":"55:27","verse_id":4928,"location":"55:27:3","text_uthmani":"رَبِّكَ","qpc_uthmani_hafs":"رَبِّكَ","char_type_name":"word","page_number":532,"line_number":5,"text":"رَبِّكَ","translation":{"text":"(of) your Lord","language_name":"english","language_id":38},"transliteration":{"text":"rabbika","language_name":"english","language_id":38}},{"id":29680,"position":4,"audio_url":"wbw/055_027_004.mp3","verse_key":"55:27","verse_id":4928,"location":"55:27:4","text_uthmani":"ذُو","qpc_uthmani_hafs":"ذُو","char_type_name":"word","page_number":532,"line_number":5,"text":"ذُو","translation":{"text":"(the) Owner","language_name":"english","language_id":38},"transliteration":{"text":"dhū","language_name":"english","language_id":38}},{"id":29681,"position":5,"audio_url":"wbw/055_027_005.mp3","verse_key":"55:27","verse_id":4928,"location":"55:27:5","text_uthmani":"ٱلْجَلَـٰلِ","qpc_uthmani_hafs":"ٱلۡجَلَٰلِ","char_type_name":"word","page_number":532,"line_number":5,"text":"ٱلۡجَلَٰلِ","translation":{"text":"(of) Majesty","language_name":"english","language_id":38},"transliteration":{"text":"l-jalāli","language_name":"english","language_id":38}},{"id":29682,"position":6,"audio_url":"wbw/055_027_006.mp3","verse_key":"55:27","verse_id":4928,"location":"55:27:6","text_uthmani":"وَٱلْإِكْرَامِ","qpc_uthmani_hafs":"وَٱلۡإِكۡرَامِ","char_type_name":"word","page_number":532,"line_number":5,"text":"وَٱلۡإِكۡرَامِ","translation":{"text":"and Honor","language_name":"english","language_id":38},"transliteration":{"text":"wal-ik'rāmi","language_name":"english","language_id":38}},{"id":29683,"position":7,"audio_url":null,"verse_key":"55:27","verse_id":4928,"location":"55:27:7","text_uthmani":"٢٧","qpc_uthmani_hafs":"٢٧","char_type_name":"end","page_number":532,"line_number":5,"text":"٢٧","translation":{"text":"(27)","language_name":"english","language_id":38},"transliteration":{"text":null,"language_name":"english","language_id":38}}]},{"id":4929,"verse_number":28,"verse_key":"55:28","hizb_number":54,"rub_el_hizb_number":213,"ruku_number":469,"manzil_number":7,"sajdah_number":null,"page_number":532,"juz_number":27,"words":[{"id":30759,"position":1,"audio_url":"wbw/055_028_001.mp3","verse_key":"55:28","verse_id":4929,"location":"55:28:1","text_uthmani":"فَبِأَىِّ","qpc_uthmani_hafs":"فَبِأَيِّ","char_type_name":"word","page_number":532,"line_number":5,"text":"فَبِأَيِّ","translation":{"text":"So which","language_name":"english","language_id":38},"transliteration":{"text":"fabi-ayyi","language_name":"english","language_id":38}},{"id":30760,"position":2,"audio_url":"wbw/055_028_002.mp3","verse_key":"55:28","verse_id":4929,"location":"55:28:2","text_uthmani":"ءَالَآءِ","qpc_uthmani_hafs":"ءَالَآءِ","char_type_name":"word","page_number":532,"line_number":5,"text":"ءَالَآءِ","translation":{"text":"(of the) favors","language_name":"english","language_id":38},"transliteration":{"text":"ālāi","language_name":"english","language_id":38}},{"id":30761,"position":3,"audio_url":"wbw/055_028_003.mp3","verse_key":"55:28","verse_id":4929,"location":"55:28:3","text_uthmani":"رَبِّكُمَا","qpc_uthmani_hafs":"رَبِّكُمَا","char_type_name":"word","page_number":532,"line_number":5,"text":"رَبِّكُمَا","translation":{"text":"(of) your Lord","language_name":"english","language_id":38},"transliteration":{"text":"rabbikumā","language_name":"english","language_id":38}},{"id":30762,"position":4,"audio_url":"wbw/055_028_004.mp3","verse_key":"55:28","verse_id":4929,"location":"55:28:4","text_uthmani":"تُكَذِّبَانِ","qpc_uthmani_hafs":"تُكَذِّبَانِ","char_type_name":"word","page_number":532,"line_number":5,"text":"تُكَذِّبَانِ","translation":{"text":"will you both deny","language_name":"english","language_id":38},"transliteration":{"text":"tukadhibāni","language_name":"english","language_id":38}},{"id":30763,"position":5,"audio_url":null,"verse_key":"55:28","verse_id":4929,"location":"55:28:5","text_uthmani":"٢٨","qpc_uthmani_hafs":"٢٨","char_type_name":"end","page_number":532,"line_number":5,"text":"٢٨","translation":{"text":"(28)","language_name":"english","language_id":38},"transliteration":{"text":null,"language_name":"english","language_id":38}}]},{"id":4930,"verse_number":29,"verse_key":"55:29","hizb_number":54,"rub_el_hizb_number":213,"ruku_number":469,"manzil_number":7,"sajdah_number":null,"page_number":532,"juz_number":27,"words":[{"id":31835,"position":1,"audio_url":"wbw/055_029_001.mp3","verse_key":"55:29","verse_id":4930,"location":"55:29:1","text_uthmani":"يَسْـَٔلُهُۥ","qpc_uthmani_hafs":"يَسۡـَٔلُهُۥ","char_type_name":"word","page_number":532,"line_number":6,"text":"يَسۡـَٔلُهُۥ","translation":{"text":"Asks Him","language_name":"english","language_id":38},"transliteration":{"text":"yasaluhu","language_name":"english","language_id":38}},{"id":31836,"position":2,"audio_url":"wbw/055_029_002.mp3","verse_key":"55:29","verse_id":4930,"location":"55:29:2","text_uthmani":"مَن","qpc_uthmani_hafs":"مَن","char_type_name":"word","page_number":532,"line_number":6,"text":"مَن","translation":{"text":"whoever","language_name":"english","language_id":38},"transliteration":{"text":"man","language_name":"english","language_id":38}},{"id":31837,"position":3,"audio_url":"wbw/055_029_003.mp3","verse_key":"55:29","verse_id":4930,"location":"55:29:3","text_uthmani":"فِى","qpc_uthmani_hafs":"فِي","char_type_name":"word","page_number":532,"line_number":6,"text":"فِي","translation":{"text":"(is) in","language_name":"english","language_id":38},"transliteration":{"text":"fī","language_name":"english","language_id":38}},{"id":31838,"position":4,"audio_url":"wbw/055_029_004.mp3","verse_key":"55:29","verse_id":4930,"location":"55:29:4","text_uthmani":"ٱلسَّمَـٰوَٰتِ","qpc_uthmani_hafs":"ٱلسَّمَٰوَٰتِ","char_type_name":"word","page_number":532,"line_number":6,"text":"ٱلسَّمَٰوَٰتِ","translation":{"text":"the heavens","language_name":"english","language_id":38},"transliteration":{"text":"l-samāwāti","language_name":"english","language_id":38}},{"id":31839,"position":5,"audio_url":"wbw/055_029_005.mp3","verse_key":"55:29","verse_id":4930,"location":"55:29:5","text_uthmani":"وَٱلْأَرْضِ ۚ","qpc_uthmani_hafs":"وَٱلۡأَرۡضِۚ","char_type_name":"word","page_number":532,"line_number":6,"text":"وَٱلۡأَرۡضِۚ","translation":{"text":"and the earth","language_name":"english","language_id":38},"transliteration":{"text":"wal-arḍi","language_name":"english","language_id":38}},{"id":31841,"position":6,"audio_url":"wbw/055_029_007.mp3","verse_key":"55:29","verse_id":4930,"location":"55:29:6","text_uthmani":"كُلَّ","qpc_uthmani_hafs":"كُلَّ","char_type_name":"word","page_number":532,"line_number":6,"text":"كُلَّ","translation":{"text":"Every","language_name":"english","language_id":38},"transliteration":{"text":"kulla","language_name":"english","language_id":38}},{"id":31842,"position":7,"audio_url":"wbw/055_029_008.mp3","verse_key":"55:29","verse_id":4930,"location":"55:29:7","text_uthmani":"يَوْمٍ","qpc_uthmani_hafs":"يَوۡمٍ","char_type_name":"word","page_number":532,"line_number":6,"text":"يَوۡمٍ","translation":{"text":"day","language_name":"english","language_id":38},"transliteration":{"text":"yawmin","language_name":"english","language_id":38}},{"id":31843,"position":8,"audio_url":"wbw/055_029_009.mp3","verse_key":"55:29","verse_id":4930,"location":"55:29:8","text_uthmani":"هُوَ","qpc_uthmani_hafs":"هُوَ","char_type_name":"word","page_number":532,"line_number":6,"text":"هُوَ","translation":{"text":"He","language_name":"english","language_id":38},"transliteration":{"text":"huwa","language_name":"english","language_id":38}},{"id":31844,"position":9,"audio_url":"wbw/055_029_010.mp3","verse_key":"55:29","verse_id":4930,"location":"55:29:9","text_uthmani":"فِى","qpc_uthmani_hafs":"فِي","char_type_name":"word","page_number":532,"line_number":6,"text":"فِي","translation":{"text":"(is) in","language_name":"english","language_id":38},"transliteration":{"text":"fī","language_name":"english","language_id":38}},{"id":31845,"position":10,"audio_url":"wbw/055_029_011.mp3","verse_key":"55:29","verse_id":4930,"location":"55:29:10","text_uthmani":"شَأْنٍۢ","qpc_uthmani_hafs":"شَأۡنٖ","char_type_name":"word","page_number":532,"line_number":6,"text":"شَأۡنٖ","translation":{"text":"a matter","language_name":"english","language_id":38},"transliteration":{"text":"shanin","language_name":"english","language_id":38}},{"id":31846,"position":11,"audio_url":null,"verse_key":"55:29","verse_id":4930,"location":"55:29:11","text_uthmani":"٢٩","qpc_uthmani_hafs":"٢٩","char_type_name":"end","page_number":532,"line_number":6,"text":"٢٩","translation":{"text":"(29)","language_name":"english","language_id":38},"transliteration":{"text":null,"language_name":"english","language_id":38}}]},{"id":4931,"verse_number":30,"verse_key":"55:30","hizb_number":54,"rub_el_hizb_number":213,"ruku_number":469,"manzil_number":7,"sajdah_number":null,"page_number":532,"juz_number":27,"words":[{"id":32686,"position":1,"audio_url":"wbw/055_030_001.mp3","verse_key":"55:30","verse_id":4931,"location":"55:30:1","text_uthmani":"فَبِأَىِّ","qpc_uthmani_hafs":"فَبِأَيِّ","char_type_name":"word","page_number":532,"line_number":6,"text":"فَبِأَيِّ","translation":{"text":"So which","language_name":"english","language_id":38},"transliteration":{"text":"fabi-ayyi","language_name":"english","language_id":38}},{"id":32687,"position":2,"audio_url":"wbw/055_030_002.mp3","verse_key":"55:30","verse_id":4931,"location":"55:30:2","text_uthmani":"ءَالَآءِ","qpc_uthmani_hafs":"ءَالَآءِ","char_type_name":"word","page_number":532,"line_number":7,"text":"ءَالَآءِ","translation":{"text":"(of the) favors","language_name":"english","language_id":38},"transliteration":{"text":"ālāi","language_name":"english","language_id":38}},{"id":32688,"position":3,"audio_url":"wbw/055_030_003.mp3","verse_key":"55:30","verse_id":4931,"location":"55:30:3","text_uthmani":"رَبِّكُمَا","qpc_uthmani_hafs":"رَبِّكُمَا","char_type_name":"word","page_number":532,"line_number":7,"text":"رَبِّكُمَا","translation":{"text":"(of) your Lord","language_name":"english","language_id":38},"transliteration":{"text":"rabbikumā","language_name":"english","language_id":38}},{"id":32689,"position":4,"audio_url":"wbw/055_030_004.mp3","verse_key":"55:30","verse_id":4931,"location":"55:30:4","text_uthmani":"تُكَذِّبَانِ","qpc_uthmani_hafs":"تُكَذِّبَانِ","char_type_name":"word","page_number":532,"line_number":7,"text":"تُكَذِّبَانِ","translation":{"text":"will you both deny","language_name":"english","language_id":38},"transliteration":{"text":"tukadhibāni","language_name":"english","language_id":38}},{"id":32690,"position":5,"audio_url":null,"verse_key":"55:30","verse_id":4931,"location":"55:30:5","text_uthmani":"٣٠","qpc_uthmani_hafs":"٣٠","char_type_name":"end","page_number":532,"line_number":7,"text":"٣٠","translation":{"text":"(30)","language_name":"english","language_id":38},"transliteration":{"text":null,"language_name":"english","language_id":38}}]}],"pagination":{"per_page":10,"current_page":3,"next_page":4,"total_pages":8,"total_records":78}}
