{"verses":[{"id":4952,"verse_number":51,"verse_key":"55:51","hizb_number":54,"rub_el_hizb_number":213,"ruku_number":470,"manzil_number":7,"sajdah_number":null,"page_number":533,"juz_number":27,"words":[{"id":49319,"position":1,"audio_url":"wbw/055_051_001.mp3","verse_key":"55:51","verse_id":4952,"location":"55:51:1","text_uthmani":"فَبِأَىِّ","qpc_uthmani_hafs":"فَبِأَيِّ","char_type_name":"word","page_number":533,"line_number":5,"text":"فَبِأَيِّ","translation":{"text":"So which","language_name":"english","language_id":38},"transliteration":{"text":"fabi-ayyi","language_name":"english","language_id":38}},{"id":49320,"position":2,"audio_url":"wbw/055_051_002.mp3","verse_key":"55:51","verse_id":4952,"location":"55:51:2","text_uthmani":"ءَالَآءِ","qpc_uthmani_hafs":"ءَالَآءِ","char_type_name":"word","page_number":533,"line_number":5,"text":"ءَالَآءِ","translation":{"text":"(of the) favors","language_name":"english","language_id":38},"transliteration":{"text":"ālāi","language_name":"english","language_id":38}},{"id":49321,"position":3,"audio_url":"wbw/055_051_003.mp3","verse_key":"55:51","verse_id":4952,"location":"55:51:3","text_uthmani":"رَبِّكُمَا","qpc_uthmani_hafs":"رَبِّكُمَا","char_type_name":"word","page_number":533,"line_number":5,"text":"رَبِّكُمَا","translation":{"text":"(of) your Lord","language_name":"english","language_id":38},"transliteration":{"text":"rabbikumā","language_name":"english","language_id":38}},{"id":49322,"position":4,"audio_url":"wbw/055_051_004.mp3","verse_key":"55:51","verse_id":4952,"location":"55:51:4","text_uthmani":"تُكَذِّبَانِ","qpc_uthmani_hafs":"تُكَذِّبَانِ","char_type_name":"word","page_number":533,"line_number":5,"text":"تُكَذِّبَانِ","translation":{"text":"will you both deny","language_name":"english","language_id":38},"transliteration":{"text":"tukadhibāni","language_name":"english","language_id":38}},{"id":49323,"position":5,"audio_url":null,"verse_key":"55:51","verse_id":4952,"location":"55:51:5","text_uthmani":"٥١","qpc_uthmani_hafs":"٥١","char_type_name":"end","page_number":533,"line_number":6,"text":"٥١","translation":{"text":"(51)","language_name":"english","language_id":38},"transliteration":{"text":null,"language_name":"english","language_id":38}}]},{"id":4953,"verse_number":52,"verse_key":"55:52","hizb_number":54,"rub_el_hizb_number":213,"ruku_number":470,"manzil_number":7,"sajdah_number":null,"page_number":533,"juz_number":27,"words":[{"id":49884,"position":1,"audio_url":"wbw/055_052_001.mp3","verse_key":"55:52","verse_id":4953,"location":"55:52:1","text_uthmani":"فِيهِمَا","qpc_uthmani_hafs":"فِيهِمَا","char_type_name":"word","page_number":533,"line_number":6,"text":"فِيهِمَا","translation":{"text":"In both of them","language_name":"english","language_id":38},"transliteration":{"text":"fīhimā","language_name":"english","language_id":38}},{"id":49885,"position":2,"audio_url":"wbw/055_052_002.mp3","verse_key":"55:52","verse_id":4953,"location":"55:52:2","text_uthmani":"مِن","qpc_uthmani_hafs":"مِن","char_type_name":"word","page_number":533,"line_number":6,"text":"مِن","translation":{"text":"[of]","language_name":"english","language_id":38},"transliteration":{"text":"min","language_name":"english","language_id":38}},{"id":49886,"position":3,"audio_url":"wbw/055_052_003.mp3","verse_key":"55:52","verse_id":4953,"location":"55:52:3","text_uthmani":"كُلِّ","qpc_uthmani_hafs":"كُلِّ","char_type_name":"word","page_number":533,"line_number":6,"text":"كُلِّ","translation":{"text":"(are) every","language_name":"english","language_id":38},"transliteration":{"text":"kulli","language_name":"english","language_id":38}},{"id":49887,"position":4,"audio_url":"wbw/055_052_004.mp3","verse_key":"55:52","verse_id":4953,"location":"55:52:4","text_uthmani":"فَـٰكِهَةٍۢ","qpc_uthmani_hafs":"فَٰكِهَةٖ","char_type_name":"word","page_number":533,"line_number":6,"text":"فَٰكِهَةٖ","translation":{"text":"fruits","language_name":"english","language_id":38},"transliteration":{"text":"fākihatin","language_name":"english","language_id":38}},{"id":49888,"position":5,"audio_url":"wbw/055_052_005.mp3","verse_key":"55:52","verse_id":4953,"location":"55:52:5","text_uthmani":"زَوْجَانِ","qpc_uthmani_hafs":"زَوۡجَانِ","char_type_name":"word","page_number":533,"line_number":6,"text":"زَوۡجَانِ","translation":{"text":"(in) pairs","language_name":"english","language_id":38},"transliteration":{"text":"zawjāni","language_name":"english","language_id":38}},{"id":49889,"position":6,"audio_url":null,"verse_key":"55:52","verse_id":4953,"location":"55:52:6","text_uthmani":"٥٢","qpc_uthmani_hafs":"٥٢","char_type_name":"end","page_number":533,"line_number":6,"text":"٥٢","translation":{"text":"(52)","language_name":"english","language_id":38},"transliteration":{"text":null,"language_name":"english","language_id":38}}]},{"id":4954,"verse_number":53,"verse_key":"55:53","hizb_number":54,"rub_el_hizb_number":213,"ruku_number":470,"manzil_number":7,"sajdah_number":null,"page_number":533,"juz_number":27,"words":[{"id":50593,"position":1,"audio_url":"wbw/055_053_001.mp3","verse_key":"55:53","verse_id":4954,"location":"55:53:1","text_uthmani":"فَبِأَىِّ","qpc_uthmani_hafs":"فَبِأَيِّ","char_type_name":"word","page_number":533,"line_number":6,"text":"فَبِأَيِّ","translation":{"text":"So which","language_name":"english","language_id":38},"transliteration":{"text":"fabi-ayyi","language_name":"english","language_id":38}},{"id":50594,"position":2,"audio_url":"wbw/055_053_002.mp3","verse_key":"55:53","verse_id":4954,"location":"55:53:2","text_uthmani":"ءَالَآءِ","qpc_uthmani_hafs":"ءَالَآءِ","char_type_name":"word","page_number":533,"line_number":6,"text":"ءَالَآءِ","translation":{"text":"(of the) favors","language_name":"english","language_id":38},"transliteration":{"text":"ālāi","language_name":"english","language_id":38}},{"id":50595,"position":3,"audio_url":"wbw/055_053_003.mp3","verse_key":"55:53","verse_id":4954,"location":"55:53:3","text_uthmani":"رَبِّكُمَا","qpc_uthmani_hafs":"رَبِّكُمَا","char_type_name":"word","page_number":533,"line_number":6,"text":"رَبِّكُمَا","translation":{"text":"(of) your Lord","language_name":"english","language_id":38},"transliteration":{"text":"rabbikumā","language_name":"english","language_id":38}},{"id":50596,"position":4,"audio_url":"wbw/055_053_004.mp3","verse_key":"55:53","verse_id":4954,"location":"55:53:4","text_uthmani":"تُكَذِّبَانِ","qpc_uthmani_hafs":"تُكَذِّبَانِ","char_type_name":"word","page_number":533,"line_number":6,"text":"تُكَذِّبَانِ","translation":{"text":"will you both deny","language_name":"english","language_id":38},"transliteration":{"text":"tukadhibāni","language_name":"english","language_id":38}},{"id":50597,"position":5,"audio_url":null,"verse_key":"55:53","verse_id":4954,"location":"55:53:5","text_uthmani":"٥٣","qpc_uthmani_hafs":"٥٣","char_type_name":"end","page_number":533,"line_number":7,"text":"٥٣","translation":{"text":"(53)","language_name":"english","language_id":38},"transliteration":{"text":null,"language_name":"english","language_id":38}}]},{"id":4955,"verse_number":54,"verse_key":"55:54","hizb_number":54,"rub_el_hizb_number":213,"ruku_number":470,"manzil_number":7,"sajdah_number":null,"page_number":533,"juz_number":27,"words":[{"id":51153,"position":1,"audio_url":"wbw/055_054_001.mp3","verse_key":"55:54","verse_id":4955,"location":"55:54:1","text_uthmani":"مُتَّكِـِٔينَ","qpc_uthmani_hafs":"مُتَّكِـِٔينَ","char_type_name":"word","page_number":533,"line_number":7,"text":"مُتَّكِـِٔينَ","translation":{"text":"Reclining","language_name":"english","language_id":38},"transliteration":{"text":"muttakiīna","language_name":"english","language_id":38}},{"id":51154,"position":2,"audio_url":"wbw/055_054_002.mp3","verse_key":"55:54","verse_id":4955,"location":"55:54:2","text_uthmani":"عَلَىٰ","qpc_uthmani_hafs":"عَلَىٰ","char_type_name":"word","page_number":533,"line_number":7,"text":"عَلَىٰ","translation":{"text":"on","language_name":"english","language_id":38},"transliteration":{"text":"ʿalā","language_name":"english","language_id":38}},{"id":51155,"position":3,"audio_url":"wbw/055_054_003.mp3","verse_key":"55:54","verse_id":4955,"location":"55:54:3","text_uthmani":"فُرُشٍۭ","qpc_uthmani_hafs":"فُرُشِۭ","char_type_name":"word","page_number":533,"line_number":7,"text":"فُرُشِۭ","translation":{"text":"couches","language_name":"english","language_id":38},"transliteration":{"text":"furushin","language_name":"english","language_id":38}},{"id":51156,"position":4,"audio_url":"wbw/055_054_004.mp3","verse_key":"55:54","verse_id":4955,"location":"55:54:4","text_uthmani":"بَطَآئِنُهَا","qpc_uthmani_hafs":"بَطَآئِنُهَا","char_type_name":"word","page_number":533,"line_number":7,"text":"بَطَآئِنُهَا","translation":{"text":"(whose) inner linings","language_name":"english","language_id":38},"transliteration":{"text":"baṭāinuhā","language_name":"english","language_id":38}},{"id":51157,"position":5,"audio_url":"wbw/055_054_005.mp3","verse_key":"55:54","verse_id":4955,"location":"55:54:5","text_uthmani":"مِنْ","qpc_uthmani_hafs":"مِنۡ","char_type_name":"word","page_number":533,"line_number":7,"text":"مِنۡ","translation":{"text":"(are) of","language_name":"english","language_id":38},"transliteration":{"text":"min","language_name":"english","language_id":38}},{"id":51158,"position":6,"audio_url":"wbw/055_054_006.mp3","verse_key":"55:54","verse_id":4955,"location":"55:54:6","text_uthmani":"إِسْتَبْرَقٍۢ ۚ","qpc_uthmani_hafs":"إِسۡتَبۡرَقٖۚ","char_type_name":"word","page_number":533,"line_number":7,"text":"إِسۡتَبۡرَقٖۚ","translation":{"text":"brocade","language_name":"english","language_id":38},"transliteration":{"text":"is'tabraqin","language_name":"english","language_id":38}},{"id":51160,"position":7,"audio_url":"wbw/055_054_008.mp3","verse_key":"55:54","verse_id":4955,"location":"55:54:7","text_uthmani":"وَجَنَى","qpc_uthmani_hafs":"وَجَنَى","char_type_name":"word","page_number":533,"line_number":7,"text":"وَجَنَى","translation":{"text":"and (the) fruit","language_name":"english","language_id":38},"transliteration":{"text":"wajanā","language_name":"english","language_id":38}},{"id":51161,"position":8,"audio_url":"wbw/055_054_009.mp3","verse_key":"55:54","verse_id":4955,"location":"55:54:8","text_uthmani":"ٱلْجَنَّتَيْنِ","qpc_uthmani_hafs":"ٱلۡجَنَّتَيۡنِ","char_type_name":"word","page_number":533,"line_number":7,"text":"ٱلۡجَنَّتَيۡنِ","translation":{"text":"(of) both the gardens","language_name":"english","language_id":38},"transliteration":{"text":"l-janatayni","language_name":"english","language_id":38}},{"id":51162,"position":9,"audio_url":"wbw/055_054_010.mp3","verse_key":"55:54","verse_id":4955,"location":"55:54:9","text_uthmani":"دَانٍۢ","qpc_uthmani_hafs":"دَانٖ","char_type_name":"word","page_number":533,"line_number":7,"text":"دَانٖ","translation":{"text":"(is) near","language_name":"english","language_id":38},"transliteration":{"text":"dānin","language_name":"english","language_id":38}},{"id":51163,"position":10,"audio_url":null,"verse_key":"55:54","verse_id":4955,"location":"55:54:10","text_uthmani":"٥٤","qpc_uthmani_hafs":"٥٤","char_type_name":"end","page_number":533,"line_number":8,"text":"٥٤","translation":{"text":"(54)","language_name":"english","language_id":38},"transliteration":{"text":null,"language_name":"english","language_id":38}}]},{"id":4956,"verse_number":55,"verse_key":"55:55","hizb_number":54,"rub_el_hizb_number":213,"ruku_number":470,"manzil_number":7,"sajdah_number":null,"page_number":533,"juz_number":27,"words":[{"id":51790,"position":1,"audio_url":"wbw/055_055_001.mp3","verse_key":"55:55","verse_id":4956,"location":"55:55:1","text_uthmani":"فَبِأَىِّ","qpc_uthmani_hafs":"فَبِأَيِّ","char_type_name":"word","page_number":533,"line_number":8,"text":"فَبِأَيِّ","translation":{"text":"So which","language_name":"english","language_id":38},"transliteration":{"text":"fabi-ayyi","language_name":"english","language_id":38}},{"id":51791,"position":2,"audio_url":"wbw/055_055_002.mp3","verse_key":"55:55","verse_id":4956,"location":"55:55:2","text_uthmani":"ءَالَآءِ","qpc_uthmani_hafs":"ءَالَآءِ","char_type_name":"word","page_number":533,"line_number":8,"text":"ءَالَآءِ","translation":{"text":"(of the) favors","language_name":"english","language_id":38},"transliteration":{"text":"ālāi","language_name":"english","language_id":38}},{"id":51792,"position":3,"audio_url":"wbw/055_055_003.mp3","verse_key":"55:55","verse_id":4956,"location":"55:55:3","text_uthmani":"رَبِّكُمَا","qpc_uthmani_hafs":"رَبِّكُمَا","char_type_name":"word","page_number":533,"line_number":8,"text":"رَبِّكُمَا","translation":{"text":"(of) your Lord","language_name":"english","language_id":38},"transliteration":{"text":"rabbikumā","language_name":"english","language_id":38}},{"id":51793,"position":4,"audio_url":"wbw/055_055_004.mp3","verse_key":"55:55","verse_id":4956,"location":"55:55:4","text_uthmani":"تُكَذِّبَانِ","qpc_uthmani_hafs":"تُكَذِّبَانِ","char_type_name":"word","page_number":533,"line_number":8,"text":"تُكَذِّبَانِ","translation":{"text":"will you both deny","language_name":"english","language_id":38},"transliteration":{"text":"tukadhibāni","language_name":"english","language_id":38}},{"id":51794,"position":5,"audio_url":null,"verse_key":"55:55","verse_id":4956,"location":"55:55:5","text_uthmani":"٥٥","qpc_uthmani_hafs":"٥٥","char_type_name":"end","page_number":533,"line_number":8,"text":"٥٥","translation":{"text":"(55)","language_name":"english","language_id":38},"transliteration":{"text":null,"language_name":"english","language_id":38}}]},{"id":4957,"verse_number":56,"verse_key":"55:56","hizb_number":54,"rub_el_hizb_number":213,"ruku_number":470,"manzil_number":7,"sajdah_number":null,"page_number":533,"juz_number":27,"words":[{"id":52188,"position":1,"audio_url":"wbw/055_056_001.mp3","verse_key":"55:56","verse_id":4957,"location":"55:56:1","text_uthmani":"فِيهِنَّ","qpc_uthmani_hafs":"فِيهِنَّ","char_type_name":"word","page_number":533,"line_number":8,"text":"فِيهِنَّ","translation":{"text":"In them","language_name":"english","language_id":38},"transliteration":{"text":"fīhinna","language_name":"english","language_id":38}},{"id":52189,"position":2,"audio_url":"wbw/055_056_002.mp3","verse_key":"55:56","verse_id":4957,"location":"55:56:2","text_uthmani":"قَـٰصِرَٰتُ","qpc_uthmani_hafs":"قَٰصِرَٰتُ","char_type_name":"word","page_number":533,"line_number":8,"text":"قَٰصِرَٰتُ","translation":{"text":"(will be) companions of modest gaze","language_name":"english","language_id":38},"transliteration":{"text":"qāṣirātu","language_name":"english","language_id":38}},{"id":52190,"position":3,"audio_url":"wbw/055_056_003.mp3","verse_key":"55:56","verse_id":4957,"location":"55:56:3","text_uthmani":"ٱلطَّرْفِ","qpc_uthmani_hafs":"ٱلطَّرۡفِ","char_type_name":"word","page_number":533,"line_number":8,"text":"ٱلطَّرۡفِ","translation":{"text":"(will be) companions of modest gaze","language_name":"english","language_id":38},"transliteration":{"text":"l-ṭarfi","language_name":"english","language_id":38}},{"id":52191,"position":4,"audio_url":"wbw/055_056_004.mp3","verse_key":"55:56","verse_id":4957,"location":"55:56:4","text_uthmani":"لَمْ","qpc_uthmani_hafs":"لَمۡ","char_type_name":"word","page_number":533,"line_number":9,"text":"لَمۡ","translation":{"text":"not","language_name":"english","language_id":38},"transliteration":{"text":"lam","language_name":"english","language_id":38}},{"id":52192,"position":5,"audio_url":"wbw/055_056_005.mp3","verse_key":"55:56","verse_id":4957,"location":"55:56:5","text_uthmani":"يَطْمِثْهُنَّ","qpc_uthmani_hafs":"يَطۡمِثۡهُنَّ","char_type_name":"word","page_number":533,"line_number":9,"text":"يَطۡمِثۡهُنَّ","translation":{"text":"has touched them","language_name":"english","language_id":38},"transliteration":{"text":"yaṭmith'hunna","language_name":"english","language_id":38}},{"id":52193,"position":6,"audio_url":"wbw/055_056_006.mp3","verse_key":"55:56","verse_id":4957,"location":"55:56:6","text_uthmani":"إِنسٌۭ","qpc_uthmani_hafs":"إِنسٞ","char_type_name":"word","page_number":533,"line_number":9,"text":"إِنسٞ","translation":{"text":"any man","language_name":"english","language_id":38},"transliteration":{"text":"insun","language_name":"english","language_id":38}},{"id":52194,"position":7,"audio_url":"wbw/055_056_007.mp3","verse_key":"55:56","verse_id":4957,"location":"55:56:7","text_uthmani":"قَبْلَهُمْ","qpc_uthmani_hafs":"قَبۡلَهُمۡ","char_type_name":"word","page_number":533,"line_number":9,"text":"قَبۡلَهُمۡ","translation":{"text":"before them","language_name":"english","language_id":38},"transliteration":{"text":"qablahum","language_name":"english","language_id":38}},{"id":52195,"position":8,"audio_url":"wbw/055_056_008.mp3","verse_key":"55:56","verse_id":4957,"location":"55:56:8","text_uthmani":"وَلَا","qpc_uthmani_hafs":"وَلَا","char_type_name":"word","page_number":533,"line_number":9,"text":"وَلَا","translation":{"text":"and not","language_name":"english","language_id":38},"transliteration":{"text":"walā","language_name":"english","language_id":38}},{"id":52196,"position":9,"audio_url":"wbw/055_056_009.mp3","verse_key":"55:56","verse_id":4957,"location":"55:56:9","text_uthmani":"جَآنٌّۭ","qpc_uthmani_hafs":"جَآنّٞ","char_type_name":"word","page_number":533,"line_number":9,"text":"جَآنّٞ","translation":{"text":"any jinn","language_name":"english","language_id":38},"transliteration":{"text":"jānnun","language_name":"english","language_id":38}},{"id":52197,"position":10,"audio_url":null,"verse_key":"55:56","verse_id":4957,"location":"55:56:10","text_uthmani":"٥٦","qpc_uthmani_hafs":"٥٦","char_type_name":"end","page_number":533,"line_number":9,"text":"٥٦","translation":{"text":"(56)","language_name":"english","language_id":38},"transliteration":{"text":null,"language_name":"english","language_id":38}}]},{"id":4958,"verse_number":57,"verse_key":"55:57","hizb_number":54,"rub_el_hizb_number":213,"ruku_number":470,"manzil_number":7,"sajdah_number":null,"page_number":533,"juz_number":27,"words":[{"id":52806,"position":1,"audio_url":"wbw/055_057_001.mp3","verse_key":"55:57","verse_id":4958,"location":"55:57:1","text_uthmani":"فَبِأَىِّ","qpc_uthmani_hafs":"فَبِأَيِّ","char_type_name":"word","page_number":533,"line_number":9,"text":"فَبِأَيِّ","translation":{"text":"So which","language_name":"english","language_id":38},"transliteration":{"text":"fabi-ayyi","language_name":"english","language_id":38}},{"id":52807,"position":2,"audio_url":"wbw/055_057_002.mp3","verse_key":"55:57","verse_id":4958,"location":"55:57:2","text_uthmani":"ءَالَآءِ","qpc_uthmani_hafs":"ءَالَآءِ","char_type_name":"word","page_number":533,"line_number":9,"text":"ءَالَآءِ","translation":{"text":"(of the) favors","language_name":"english","language_id":38},"transliteration":{"text":"ālāi","language_name":"english","language_id":38}},{"id":52808,"position":3,"audio_url":"wbw/055_057_003.mp3","verse_key":"55:57","verse_id":4958,"location":"55:57:3","text_uthmani":"رَبِّكُمَا","qpc_uthmani_hafs":"رَبِّكُمَا","char_type_name":"word","page_number":533,"line_number":9,"text":"رَبِّكُمَا","translation":{"text":"(of) your Lord","language_name":"english","language_id":38},"transliteration":{"text":"rabbikumā","language_name":"english","language_id":38}},{"id":52809,"position":4,"audio_url":"wbw/055_057_004.mp3","verse_key":"55:57","verse_id":4958,"location":"55:57:4","text_uthmani":"تُكَذِّبَانِ","qpc_uthmani_hafs":"تُكَذِّبَانِ","char_type_name":"word","page_number":533,"line_number":9,"text":"تُكَذِّبَانِ","translation":{"text":"will you both deny","language_name":"english","language_id":38},"transliteration":{"text":"tukadhibāni","language_name":"english","language_id":38}},{"id":52810,"position":5,"audio_url":null,"verse_key":"55:57","verse_id":4958,"location":"55:57:5","text_uthmani":"٥٧","qpc_uthmani_hafs":"٥٧","char_type_name":"end","page_number":533,"line_number":10,"text":"٥٧","translation":{"text":"(57)","language_name":"english","language_id":38},"transliteration":{"text":null,"language_name":"english","language_id":38}}]},{"id":4959,"verse_number":58,"verse_key":"55:58","hizb_number":54,"rub_el_hizb_number":213,"ruku_number":470,"manzil_number":7,"sajdah_number":null,"page_number":533,"juz_number":27,"words":[{"id":53397,"position":1,"audio_url":"wbw/055_058_001.mp3","verse_key":"55:58","verse_id":4959,"location":"55:58:1","text_uthmani":"كَأَنَّهُنَّ","qpc_uthmani_hafs":"كَأَنَّهُنَّ","char_type_name":"word","page_number":533,"line_number":10,"text":"كَأَنَّهُنَّ","translation":{"text":"As if they were","language_name":"english","language_id":38},"transliteration":{"text":"ka-annahunna","language_name":"english","language_id":38}},{"id":53398,"position":2,"audio_url":"wbw/055_058_002.mp3","verse_key":"55:58","verse_id":4959,"location":"55:58:2","text_uthmani":"ٱلْيَاقُوتُ","qpc_uthmani_hafs":"ٱلۡيَاقُوتُ","char_type_name":"word","page_number":533,"line_number":10,"text":"ٱلۡيَاقُوتُ","translation":{"text":"rubies","language_name":"english","language_id":38},"transliteration":{"text":"l-yāqūtu","language_name":"english","language_id":38}},{"id":53399,"position":3,"audio_url":"wbw/055_058_003.mp3","verse_key":"55:58","verse_id":4959,"location":"55:58:3","text_uthmani":"وَٱلْمَرْجَانُ","qpc_uthmani_hafs":"وَٱلۡمَرۡجَانُ","char_type_name":"word","page_number":533,"line_number":10,"text":"وَٱلۡمَرۡجَانُ","translation":{"text":"and coral","language_name":"english","language_id":38},"transliteration":{"text":"wal-marjānu","language_name":"english","language_id":38}},{"id":53400,"position":4,"audio_url":null,"verse_key":"55:58","verse_id":4959,"location":"55:58:4","text_uthmani":"٥٨","qpc_uthmani_hafs":"٥٨","char_type_name":"end","page_number":533,"line_number":10,"text":"٥٨","translation":{"text":"(58)","language_name":"english","language_id":38},"transliteration":{"text":null,"language_name":"english","language_id":38}}]},{"id":4960,"verse_number":59,"verse_key":"55:59","hizb_number":54,"rub_el_hizb_number":213,"ruku_number":470,"manzil_number":7,"sajdah_number":null,"page_number":533,"juz_number":27,"words":[{"id":53852,"position":1,"audio_url":"wbw/055_059_001.mp3","verse_key":"55:59","verse_id":4960,"location":"55:59:1","text_uthmani":"فَبِأَىِّ","qpc_uthmani_hafs":"فَبِأَيِّ","char_type_name":"word","page_number":533,"line_number":10,"text":"فَبِأَيِّ","translation":{"text":"So which","language_name":"english","language_id":38},"transliteration":{"text":"fabi-ayyi","language_name":"english","language_id":38}},{"id":53853,"position":2,"audio_url":"wbw/055_059_002.mp3","verse_key":"55:59","verse_id":4960,"location":"55:59:2","text_uthmani":"ءَالَآءِ","qpc_uthmani_hafs":"ءَالَآءِ","char_type_name":"word","page_number":533,"line_number":10,"text":"ءَالَآءِ","translation":{"text":"(of the) favors","language_name":"english","language_id":38},"transliteration":{"text":"ālāi","language_name":"english","language_id":38}},{"id":53854,"position":3,"audio_url":"wbw/055_059_003.mp3","verse_key":"55:59","verse_id":4960,"location":"55:59:3","text_uthmani":"رَبِّكُمَا","qpc_uthmani_hafs":"رَبِّكُمَا","char_type_name":"word","page_number":533,"line_number":10,"text":"رَبِّكُمَا","translation":{"text":"(of) your Lord","language_name":"english","language_id":38},"transliteration":{"text":"rabbikumā","language_name":"english","language_id":38}},{"id":53855,"position":4,"audio_url":"wbw/055_059_004.mp3","verse_key":"55:59","verse_id":4960,"location":"55:59:4","text_uthmani":"تُكَذِّبَانِ","qpc_uthmani_hafs":"تُكَذِّبَانِ","char_type_name":"word","page_number":533,"line_number":10,"text":"تُكَذِّبَانِ","translation":{"text":"will you both deny","language_name":"english","language_id":38},"transliteration":{"text":"tukadhibāni","language_name":"english","language_id":38}},{"id":53856,"position":5,"audio_url":null,"verse_key":"55:59","verse_id":4960,"location":"55:59:5","text_uthmani":"٥٩","qpc_uthmani_hafs":"٥٩","char_type_name":"end","page_number":533,"line_number":11,"text":"٥٩","translation":{"text":"(59)","language_name":"english","language_id":38},"transliteration":{"text":null,"language_name":"english","language_id":38}}]},{"id":4961,"verse_number":60,"verse_key":"55:60","hizb_number":54,"rub_el_hizb_number":213,"ruku_number":470,"manzil_number":7,"sajdah_number":null,"page_number":533,"juz_number":27,"words":[{"id":54424,"position":1,"audio_url":"wbw/055_060_001.mp3","verse_key":"55:60","verse_id":4961,"location":"55:60:1","text_uthmani":"هَلْ","qpc_uthmani_hafs":"هَلۡ","char_type_name":"word","page_number":533,"line_number":11,"text":"هَلۡ","translation":{"text":"Is","language_name":"english","language_id":38},"transliteration":{"text":"hal","language_name":"english","language_id":38}},{"id":54425,"position":2,"audio_url":"wbw/055_060_002.mp3","verse_key":"55:60","verse_id":4961,"location":"55:60:2","text_uthmani":"جَزَآءُ","qpc_uthmani_hafs":"جَزَآءُ","char_type_name":"word","page_number":533,"line_number":11,"text":"جَزَآءُ","translation":{"text":"(the) reward","language_name":"english","language_id":38},"transliteration":{"text":"jazāu","language_name":"english","language_id":38}},{"id":54426,"position":3,"audio_url":"wbw/055_060_003.mp3","verse_key":"55:60","verse_id":4961,"location":"55:60:3","text_uthmani":"ٱلْإِحْسَـٰنِ","qpc_uthmani_hafs":"ٱلۡإِحۡسَٰنِ","char_type_name":"word","page_number":533,"line_number":11,"text":"ٱلۡإِحۡسَٰنِ","translation":{"text":"for the good","language_name":"english","language_id":38},"transliteration":{"text":"l-iḥ'sāni","language_name":"english","language_id":38}},{"id":54427,"position":4,"audio_url":"wbw/055_060_004.mp3","verse_key":"55:60","verse_id":4961,"location":"55:60:4","text_uthmani":"إِلَّا","qpc_uthmani_hafs":"إِلَّا","char_type_name":"word","page_number":533,"line_number":11,"text":"إِلَّا","translation":{"text":"but","language_name":"english","language_id":38},"transliteration":{"text":"illā","language_name":"english","language_id":38}},{"id":54428,"position":5,"audio_url":"wbw/055_060_005.mp3","verse_key":"55:60","verse_id":4961,"location":"55:60:5","text_uthmani":"ٱلْإِحْسَـٰنُ","qpc_uthmani_hafs":"ٱلۡإِحۡسَٰنُ","char_type_name":"word","page_number":533,"line_number":11,"text":"ٱلۡإِحۡسَٰنُ","translation":{"text":"good","language_name":"english","language_id":38},"transliteration":{"text":"l-iḥ'sānu","language_name":"english","language_id":38}},{"id":54429,"position":6,"audio_url":null,"verse_key":"55:60","verse_id":4961,"location":"55:60:6","text_uthmani":"٦٠","qpc_uthmani_hafs":"٦٠","char_type_name":"end","page_number":533,"line_number":11,"text":"٦٠","translation":{"text":"(60)","language_name":"english","language_id":38},"transliteration":{"text":null,"language_name":"english","language_id":38}}]}],"pagination":{"per_page":10,"current_page":6,"next_page":7,"total_pages":8,"total_records":78}}
