{"verses":[{"id":4972,"verse_number":71,"verse_key":"55:71","hizb_number":54,"rub_el_hizb_number":213,"ruku_number":470,"manzil_number":7,"sajdah_number":null,"page_number":534,"juz_number":27,"words":[{"id":60058,"position":1,"audio_url":"wbw/055_071_001.mp3","verse_key":"55:71","verse_id":4972,"location":"55:71:1","text_uthmani":"فَبِأَىِّ","qpc_uthmani_hafs":"فَبِأَيِّ","char_type_name":"word","page_number":534,"line_number":1,"text":"فَبِأَيِّ","translation":{"text":"So which","language_name":"english","language_id":38},"transliteration":{"text":"fabi-ayyi","language_name":"english","language_id":38}},{"id":60059,"position":2,"audio_url":"wbw/055_071_002.mp3","verse_key":"55:71","verse_id":4972,"location":"55:71:2","text_uthmani":"ءَالَآءِ","qpc_uthmani_hafs":"ءَالَآءِ","char_type_name":"word","page_number":534,"line_number":1,"text":"ءَالَآءِ","translation":{"text":"(of the) favors","language_name":"english","language_id":38},"transliteration":{"text":"ālāi","language_name":"english","language_id":38}},{"id":60060,"position":3,"audio_url":"wbw/055_071_003.mp3","verse_key":"55:71","verse_id":4972,"location":"55:71:3","text_uthmani":"رَبِّكُمَا","qpc_uthmani_hafs":"رَبِّكُمَا","char_type_name":"word","page_number":534,"line_number":1,"text":"رَبِّكُمَا","translation":{"text":"(of) your Lord","language_name":"english","language_id":38},"transliteration":{"text":"rabbikumā","language_name":"english","language_id":38}},{"id":60061,"position":4,"audio_url":"wbw/055_071_004.mp3","verse_key":"55:71","verse_id":4972,"location":"55:71:4","text_uthmani":"تُكَذِّبَانِ","qpc_uthmani_hafs":"تُكَذِّبَانِ","char_type_name":"word","page_number":534,"line_number":1,"text":"تُكَذِّبَانِ","translation":{"text":"will you both deny","language_name":"english","language_id":38},"transliteration":{"text":"tukadhibāni","language_name":"english","language_id":38}},{"id":60062,"position":5,"audio_url":null,"verse_key":"55:71","verse_id":4972,"location":"55:71:5","text_uthmani":"٧١","qpc_uthmani_hafs":"٧١","char_type_name":"end","page_number":534,"line_number":2,"text":"٧١","translation":{"text":"(71)","language_name":"english","language_id":38},"transliteration":{"text":null,"language_name":"english","language_id":38}}]},{"id":4973,"verse_number":72,"verse_key":"55:72","hizb_number":54,"rub_el_hizb_number":213,"ruku_number":470,"manzil_number":7,"sajdah_number":null,"page_number":534,"juz_number":27,"words":[{"id":60462,"position":1,"audio_url":"wbw/055_072_001.mp3","verse_key":"55:72","verse_id":4973,"location":"55:72:1","text_uthmani":"حُورٌۭ","qpc_uthmani_hafs":"حُورٞ","char_type_name":"word","page_number":534,"line_number":2,"text":"حُورٞ","translation":{"text":"Fair ones","language_name":"english","language_id":38},"transliteration":{"text":"ḥūrun","language_name":"english","language_id":38}},{"id":60463,"position":2,"audio_url":"wbw/055_072_002.mp3","verse_key":"55:72","verse_id":4973,"location":"55:72:2","text_uthmani":"مَّقْصُورَٰتٌۭ","qpc_uthmani_hafs":"مَّقۡصُورَٰتٞ","char_type_name":"word","page_number":534,"line_number":2,"text":"مَّقۡصُورَٰتٞ","translation":{"text":"restrained","language_name":"english","language_id":38},"transliteration":{"text":"maqṣūrātun","language_name":"english","language_id":38}},{"id":60464,"position":3,"audio_url":"wbw/055_072_003.mp3","verse_key":"55:72","verse_id":4973,"location":"55:72:3","text_uthmani":"فِى","qpc_uthmani_hafs":"فِي","char_type_name":"word","page_number":534,"line_number":2,"text":"فِي","translation":{"text":"in","language_name":"english","language_id":38},"transliteration":{"text":"fī","language_name":"english","language_id":38}},{"id":60465,"position":4,"audio_url":"wbw/055_072_004.mp3","verse_key":"55:72","verse_id":4973,"location":"55:72:4","text_uthmani":"ٱلْخِيَامِ","qpc_uthmani_hafs":"ٱلۡخِيَامِ","char_type_name":"word","page_number":534,"line_number":2,"text":"ٱلۡخِيَامِ","translation":{"text":"the pavilions","language_name":"english","language_id":38},"transliteration":{"text":"l-khiyāmi","language_name":"english","language_id":38}},{"id":60466,"position":5,"audio_url":null,"verse_key":"55:72","verse_id":4973,"location":"55:72:5","text_uthmani":"٧٢","qpc_uthmani_hafs":"٧٢","char_type_name":"end","page_number":534,"line_number":2,"text":"٧٢","translation":{"text":"(72)","language_name":"english","language_id":38},"transliteration":{"text":null,"language_name":"english","language_id":38}}]},{"id":4974,"verse_number":73,"verse_key":"55:73","hizb_number":54,"rub_el_hizb_number":213,"ruku_number":470,"manzil_number":7,"sajdah_number":null,"page_number":534,"juz_number":27,"words":[{"id":61062,"position":1,"audio_url":"wbw/055_073_001.mp3","verse_key":"55:73","verse_id":4974,"location":"55:73:1","text_uthmani":"فَبِأَىِّ","qpc_uthmani_hafs":"فَبِأَيِّ","char_type_name":"word","page_number":534,"line_number":2,"text":"فَبِأَيِّ","translation":{"text":"So which","language_name":"english","language_id":38},"transliteration":{"text":"fabi-ayyi","language_name":"english","language_id":38}},{"id":61063,"position":2,"audio_url":"wbw/055_073_002.mp3","verse_key":"55:73","verse_id":4974,"location":"55:73:2","text_uthmani":"ءَالَآءِ","qpc_uthmani_hafs":"ءَالَآءِ","char_type_name":"word","page_number":534,"line_number":2,"text":"ءَالَآءِ","translation":{"text":"(of the) favors","language_name":"english","language_id":38},"transliteration":{"text":"ālāi","language_name":"english","language_id":38}},{"id":61064,"position":3,"audio_url":"wbw/055_073_003.mp3","verse_key":"55:73","verse_id":4974,"location":"55:73:3","text_uthmani":"رَبِّكُمَا","qpc_uthmani_hafs":"رَبِّكُمَا","char_type_name":"word","page_number":534,"line_number":2,"text":"رَبِّكُمَا","translation":{"text":"(of) your Lord","language_name":"english","language_id":38},"transliteration":{"text":"rabbikumā","language_name":"english","language_id":38}},{"id":61065,"position":4,"audio_url":"wbw/055_073_004.mp3","verse_key":"55:73","verse_id":4974,"location":"55:73:4","text_uthmani":"تُكَذِّبَانِ","qpc_uthmani_hafs":"تُكَذِّبَانِ","char_type_name":"word","page_number":534,"line_number":3,"text":"تُكَذِّبَانِ","translation":{"text":"will you both deny","language_name":"english","language_id":38},"transliteration":{"text":"tukadhibāni","language_name":"english","language_id":38}},{"id":61066,"position":5,"audio_url":null,"verse_key":"55:73","verse_id":4974,"location":"55:73:5","text_uthmani":"٧٣","qpc_uthmani_hafs":"٧٣","char_type_name":"end","page_number":534,"line_number":3,"text":"٧٣","translation":{"text":"(73)","language_name":"english","language_id":38},"transliteration":{"text":null,"language_name":"english","language_id":38}}]},{"id":4975,"verse_number":74,"verse_key":"55:74","hizb_number":54,"rub_el_hizb_number":213,"ruku_number":470,"manzil_number":7,"sajdah_number":null,"page_number":534,"juz_number":27,"words":[{"id":61472,"position":1,"audio_url":"wbw/055_074_001.mp3","verse_key":"55:74","verse_id":4975,"location":"55:74:1","text_uthmani":"لَمْ","qpc_uthmani_hafs":"لَمۡ","char_type_name":"word","page_number":534,"line_number":3,"text":"لَمۡ","translation":{"text":"Not","language_name":"english","language_id":38},"transliteration":{"text":"lam","language_name":"english","language_id":38}},{"id":61473,"position":2,"audio_url":"wbw/055_074_002.mp3","verse_key":"55:74","verse_id":4975,"location":"55:74:2","text_uthmani":"يَطْمِثْهُنَّ","qpc_uthmani_hafs":"يَطۡمِثۡهُنَّ","char_type_name":"word","page_number":534,"line_number":3,"text":"يَطۡمِثۡهُنَّ","translation":{"text":"has touched them","language_name":"english","language_id":38},"transliteration":{"text":"yaṭmith'hunna","language_name":"english","language_id":38}},{"id":61474,"position":3,"audio_url":"wbw/055_074_003.mp3","verse_key":"55:74","verse_id":4975,"location":"55:74:3","text_uthmani":"إِنسٌۭ","qpc_uthmani_hafs":"إِنسٞ","char_type_name":"word","page_number":534,"line_number":3,"text":"إِنسٞ","translation":{"text":"any man","language_name":"english","language_id":38},"transliteration":{"text":"insun","language_name":"english","language_id":38}},{"id":61475,"position":4,"audio_url":"wbw/055_074_004.mp3","verse_key":"55:74","verse_id":4975,"location":"55:74:4","text_uthmani":"قَبْلَهُمْ","qpc_uthmani_hafs":"قَبۡلَهُمۡ","char_type_name":"word","page_number":534,"line_number":3,"text":"قَبۡلَهُمۡ","translation":{"text":"before them","language_name":"english","language_id":38},"transliteration":{"text":"qablahum","language_name":"english","language_id":38}},{"id":61476,"position":5,"audio_url":"wbw/055_074_005.mp3","verse_key":"55:74","verse_id":4975,"location":"55:74:5","text_uthmani":"وَلَا","qpc_uthmani_hafs":"وَلَا","char_type_name":"word","page_number":534,"line_number":3,"text":"وَلَا","translation":{"text":"and not","language_name":"english","language_id":38},"transliteration":{"text":"walā","language_name":"english","language_id":38}},{"id":61477,"position":6,"audio_url":"wbw/055_074_006.mp3","verse_key":"55:74","verse_id":4975,"location":"55:74:6","text_uthmani":"جَآنٌّۭ","qpc_uthmani_hafs":"جَآنّٞ","char_type_name":"word","page_number":534,"line_number":3,"text":"جَآنّٞ","translation":{"text":"any jinn","language_name":"english","language_id":38},"transliteration":{"text":"jānnun","language_name":"english","language_id":38}},{"id":61478,"position":7,"audio_url":null,"verse_key":"55:74","verse_id":4975,"location":"55:74:7","text_uthmani":"٧٤","qpc_uthmani_hafs":"٧٤","char_type_name":"end","page_number":534,"line_number":3,"text":"٧٤","translation":{"text":"(74)","language_name":"english","language_id":38},"transliteration":{"text":null,"language_name":"english","language_id":38}}]},{"id":4976,"verse_number":75,"verse_key":"55:75","hizb_number":54,"rub_el_hizb_number":213,"ruku_number":470,"manzil_number":7,"sajdah_number":null,"page_number":534,"juz_number":27,"words":[{"id":61984,"position":1,"audio_url":"wbw/055_075_001.mp3","verse_key":"55:75","verse_id":4976,"location":"55:75:1","text_uthmani":"فَبِأَىِّ","qpc_uthmani_hafs":"فَبِأَيِّ","char_type_name":"word","page_number":534,"line_number":3,"text":"فَبِأَيِّ","translation":{"text":"So which","language_name":"english","language_id":38},"transliteration":{"text":"fabi-ayyi","language_name":"english","language_id":38}},{"id":61985,"position":2,"audio_url":"wbw/055_075_002.mp3","verse_key":"55:75","verse_id":4976,"location":"55:75:2","text_uthmani":"ءَالَآءِ","qpc_uthmani_hafs":"ءَالَآءِ","char_type_name":"word","page_number":534,"line_number":4,"text":"ءَالَآءِ","translation":{"text":"(of the) favors","language_name":"english","language_id":38},"transliteration":{"text":"ālāi","language_name":"english","language_id":38}},{"id":61986,"position":3,"audio_url":"wbw/055_075_003.mp3","verse_key":"55:75","verse_id":4976,"location":"55:75:3","text_uthmani":"رَبِّكُمَا","qpc_uthmani_hafs":"رَبِّكُمَا","char_type_name":"word","page_number":534,"line_number":4,"text":"رَبِّكُمَا","translation":{"text":"(of) your Lord","language_name":"english","language_id":38},"transliteration":{"text":"rabbikumā","language_name":"english","language_id":38}},{"id":61987,"position":4,"audio_url":"wbw/055_075_004.mp3","verse_key":"55:75","verse_id":4976,"location":"55:75:4","text_uthmani":"تُكَذِّبَانِ","qpc_uthmani_hafs":"تُكَذِّبَانِ","char_type_name":"word","page_number":534,"line_number":4,"text":"تُكَذِّبَانِ","translation":{"text":"will you both deny","language_name":"english","language_id":38},"transliteration":{"text":"tukadhibāni","language_name":"english","language_id":38}},{"id":61988,"position":5,"audio_url":null,"verse_key":"55:75","verse_id":4976,"location":"55:75:5","text_uthmani":"٧٥","qpc_uthmani_hafs":"٧٥","char_type_name":"end","page_number":534,"line_number":4,"text":"٧٥","translation":{"text":"(75)","language_name":"english","language_id":38},"transliteration":{"text":null,"language_name":"english","language_id":38}}]},{"id":4977,"verse_number":76,"verse_key":"55:76","hizb_number":54,"rub_el_hizb_number":213,"ruku_number":470,"manzil_number":7,"sajdah_number":null,"page_number":534,"juz_number":27,"words":[{"id":62450,"position":1,"audio_url":"wbw/055_076_001.mp3","verse_key":"55:76","verse_id":4977,"location":"55:76:1","text_uthmani":"مُتَّكِـِٔينَ","qpc_uthmani_hafs":"مُتَّكِـِٔينَ","char_type_name":"word","page_number":534,"line_number":4,"text":"مُتَّكِـِٔينَ","translation":{"text":"Reclining","language_name":"english","language_id":38},"transliteration":{"text":"muttakiīna","language_name":"english","language_id":38}},{"id":62451,"position":2,"audio_url":"wbw/055_076_002.mp3","verse_key":"55:76","verse_id":4977,"location":"55:76:2","text_uthmani":"عَلَىٰ","qpc_uthmani_hafs":"عَلَىٰ","char_type_name":"word","page_number":534,"line_number":4,"text":"عَلَىٰ","translation":{"text":"on","language_name":"english","language_id":38},"transliteration":{"text":"ʿalā","language_name":"english","language_id":38}},{"id":62452,"position":3,"audio_url":"wbw/055_076_003.mp3","verse_key":"55:76","verse_id":4977,"location":"55:76:3","text_uthmani":"رَفْرَفٍ","qpc_uthmani_hafs":"رَفۡرَفٍ","char_type_name":"word","page_number":534,"line_number":4,"text":"رَفۡرَفٍ","translation":{"text":"cushions","language_name":"english","language_id":38},"transliteration":{"text":"rafrafin","language_name":"english","language_id":38}},{"id":62453,"position":4,"audio_url":"wbw/055_076_004.mp3","verse_key":"55:76","verse_id":4977,"location":"55:76:4","text_uthmani":"خُضْرٍۢ","qpc_uthmani_hafs":"خُضۡرٖ","char_type_name":"word","page_number":534,"line_number":4,"text":"خُضۡرٖ","translation":{"text":"green","language_name":"english","language_id":38},"transliteration":{"text":"khuḍ'rin","language_name":"english","language_id":38}},{"id":62454,"position":5,"audio_url":"wbw/055_076_005.mp3","verse_key":"55:76","verse_id":4977,"location":"55:76:5","text_uthmani":"وَعَبْقَرِىٍّ","qpc_uthmani_hafs":"وَعَبۡقَرِيٍّ","char_type_name":"word","page_number":534,"line_number":5,"text":"وَعَبۡقَرِيٍّ","translation":{"text":"and carpets","language_name":"english","language_id":38},"transliteration":{"text":"waʿabqariyyin","language_name":"english","language_id":38}},{"id":62455,"position":6,"audio_url":"wbw/055_076_006.mp3","verse_key":"55:76","verse_id":4977,"location":"55:76:6","text_uthmani":"حِسَانٍۢ","qpc_uthmani_hafs":"حِسَانٖ","char_type_name":"word","page_number":534,"line_number":5,"text":"حِسَانٖ","translation":{"text":"beautiful","language_name":"english","language_id":38},"transliteration":{"text":"ḥisānin","language_name":"english","language_id":38}},{"id":62456,"position":7,"audio_url":null,"verse_key":"55:76","verse_id":4977,"location":"55:76:7","text_uthmani":"٧٦","qpc_uthmani_hafs":"٧٦","char_type_name":"end","page_number":534,"line_number":5,"text":"٧٦","translation":{"text":"(76)","language_name":"english","language_id":38},"transliteration":{"text":null,"language_name":"english","language_id":38}}]},{"id":4978,"verse_number":77,"verse_key":"55:77","hizb_number":54,"rub_el_hizb_number":213,"ruku_number":470,"manzil_number":7,"sajdah_number":null,"page_number":534,"juz_number":27,"words":[{"id":62938,"position":1,"audio_url":"wbw/055_077_001.mp3","verse_key":"55:77","verse_id":4978,"location":"55:77:1","text_uthmani":"فَبِأَىِّ","qpc_uthmani_hafs":"فَبِأَيِّ","char_type_name":"word","page_number":534,"line_number":5,"text":"فَبِأَيِّ","translation":{"text":"So which","language_name":"english","language_id":38},"transliteration":{"text":"fabi-ayyi","language_name":"english","language_id":38}},{"id":62939,"position":2,"audio_url":"wbw/055_077_002.mp3","verse_key":"55:77","verse_id":4978,"location":"55:77:2","text_uthmani":"ءَالَآءِ","qpc_uthmani_hafs":"ءَالَآءِ","char_type_name":"word","page_number":534,"line_number":5,"text":"ءَالَآءِ","translation":{"text":"(of the) favors","language_name":"english","language_id":38},"transliteration":{"text":"ālāi","language_name":"english","language_id":38}},{"id":62940,"position":3,"audio_url":"wbw/055_077_003.mp3","verse_key":"55:77","verse_id":4978,"location":"55:77:3","text_uthmani":"رَبِّكُمَا","qpc_uthmani_hafs":"رَبِّكُمَا","char_type_name":"word","page_number":534,"line_number":5,"text":"رَبِّكُمَا","translation":{"text":"(of) your Lord","language_name":"english","language_id":38},"transliteration":{"text":"rabbikumā","language_name":"english","language_id":38}},{"id":62941,"position":4,"audio_url":"wbw/055_077_004.mp3","verse_key":"55:77","verse_id":4978,"location":"55:77:4","text_uthmani":"تُكَذِّبَانِ","qpc_uthmani_hafs":"تُكَذِّبَانِ","char_type_name":"word","page_number":534,"line_number":5,"text":"تُكَذِّبَانِ","translation":{"text":"will you both deny","language_name":"english","language_id":38},"transliteration":{"text":"tukadhibāni","language_name":"english","language_id":38}},{"id":62942,"position":5,"audio_url":null,"verse_key":"55:77","verse_id":4978,"location":"55:77:5","text_uthmani":"٧٧","qpc_uthmani_hafs":"٧٧","char_type_name":"end","page_number":534,"line_number":5,"text":"٧٧","translation":{"text":"(77)","language_name":"english","language_id":38},"transliteration":{"text":null,"language_name":"english","language_id":38}}]},{"id":4979,"verse_number":78,"verse_key":"55:78","hizb_number":54,"rub_el_hizb_number":213,"ruku_number":470,"manzil_number":7,"sajdah_number":null,"page_number":534,"juz_number":27,"words":[{"id":63260,"position":1,"audio_url":"wbw/055_078_001.mp3","verse_key":"55:78","verse_id":4979,"location":"55:78:1","text_uthmani":"تَبَـٰرَكَ","qpc_uthmani_hafs":"تَبَٰرَكَ","char_type_name":"word","page_number":534,"line_number":6,"text":"تَبَٰرَكَ","translation":{"text":"Blessed is","language_name":"english","language_id":38},"transliteration":{"text":"tabāraka","language_name":"english","language_id":38}},{"id":63261,"position":2,"audio_url":"wbw/055_078_002.mp3","verse_key":"55:78","verse_id":4979,"location":"55:78:2","text_uthmani":"ٱسْمُ","qpc_uthmani_hafs":"ٱسۡمُ","char_type_name":"word","page_number":534,"line_number":6,"text":"ٱسۡمُ","translation":{"text":"(the) name","language_name":"english","language_id":38},"transliteration":{"text":"us'mu","language_name":"english","language_id":38}},{"id":63262,"position":3,"audio_url":"wbw/055_078_003.mp3","verse_key":"55:78","verse_id":4979,"location":"55:78:3","text_uthmani":"رَبِّكَ","qpc_uthmani_hafs":"رَبِّكَ","char_type_name":"word","page_number":534,"line_number":6,"text":"رَبِّكَ","translation":{"text":"(of) your Lord","language_name":"english","language_id":38},"transliteration":{"text":"rabbika","language_name":"english","language_id":38}},{"id":63263,"position":4,"audio_url":"wbw/055_078_004.mp3","verse_key":"55:78","verse_id":4979,"location":"55:78:4","text_uthmani":"ذِى","qpc_uthmani_hafs":"ذِي","char_type_name":"word","page_number":534,"line_number":6,"text":"ذِي","translation":{"text":"Owner","language_name":"english","language_id":38},"transliteration":{"text":"dhī","language_name":"english","language_id":38}},{"id":63264,"position":5,"audio_url":"wbw/055_078_005.mp3","verse_key":"55:78","verse_id":4979,"location":"55:78:5","text_uthmani":"ٱلْجَلَـٰلِ","qpc_uthmani_hafs":"ٱلۡجَلَٰلِ","char_type_name":"word","page_number":534,"line_number":6,"text":"ٱلۡجَلَٰلِ","translation":{"text":"(of) Majesty","language_name":"english","language_id":38},"transliteration":{"text":"l-jalāli","language_name":"english","language_id":38}},{"id":63265,"position":6,"audio_url":"wbw/055_078_006.mp3","verse_key":"55:78","verse_id":4979,"location":"55:78:6","text_uthmani":"وَٱلْإِكْرَامِ","qpc_uthmani_hafs":"وَٱلۡإِكۡرَامِ","char_type_name":"word","page_number":534,"line_number":6,"text":"وَٱلۡإِكۡرَامِ","translation":{"text":"and Honor","language_name":"english","language_id":38},"transliteration":{"text":"wal-ik'rāmi","language_name":"english","language_id":38}},{"id":63266,"position":7,"audio_url":null,"verse_key":"55:78","verse_id":4979,"location":"55:78:7","text_uthmani":"٧٨","qpc_uthmani_hafs":"٧٨","char_type_name":"end","page_number":534,"line_number":6,"text":"٧٨","translation":{"text":"(78)","language_name":"english","language_id":38},"transliteration":{"text":null,"language_name":"english","language_id":38}}]}],"pagination":{"per_page":10,"current_page":8,"next_page":null,"total_pages":8,"total_records":78}}
