{"verses":[{"id":5988,"verse_number":21,"verse_key":"88:21","hizb_number":60,"rub_el_hizb_number":237,"ruku_number":532,"manzil_number":7,"sajdah_number":null,"page_number":592,"juz_number":30,"words":[{"id":23739,"position":1,"audio_url":"wbw/088_021_001.mp3","verse_key":"88:21","verse_id":5988,"location":"88:21:1","text_uthmani":"فَذَكِّرْ","qpc_uthmani_hafs":"فَذَكِّرۡ","char_type_name":"word","page_number":592,"line_number":15,"text":"فَذَكِّرۡ","translation":{"text":"So remind","language_name":"english","language_id":38},"transliteration":{"text":"fadhakkir","language_name":"english","language_id":38}},{"id":23740,"position":2,"audio_url":"wbw/088_021_002.mp3","verse_key":"88:21","verse_id":5988,"location":"88:21:2","text_uthmani":"إِنَّمَآ","qpc_uthmani_hafs":"إِنَّمَآ","char_type_name":"word","page_number":592,"line_number":15,"text":"إِنَّمَآ","translation":{"text":"only","language_name":"english","language_id":38},"transliteration":{"text":"innamā","language_name":"english","language_id":38}},{"id":23741,"position":3,"audio_url":"wbw/088_021_003.mp3","verse_key":"88:21","verse_id":5988,"location":"88:21:3","text_uthmani":"أَنتَ","qpc_uthmani_hafs":"أَنتَ","char_type_name":"word","page_number":592,"line_number":15,"text":"أَنتَ","translation":{"text":"you","language_name":"english","language_id":38},"transliteration":{"text":"anta","language_name":"english","language_id":38}},{"id":23742,"position":4,"audio_url":"wbw/088_021_004.mp3","verse_key":"88:21","verse_id":5988,"location":"88:21:4","text_uthmani":"مُذَكِّرٌۭ","qpc_uthmani_hafs":"مُذَكِّرٞ","char_type_name":"word","page_number":592,"line_number":15,"text":"مُذَكِّرٞ","translation":{"text":"(are) a reminder","language_name":"english","language_id":38},"transliteration":{"text":"mudhakkirun","language_name":"english","language_id":38}},{"id":23743,"position":5,"audio_url":null,"verse_key":"88:21","verse_id":5988,"location":"88:21:5","text_uthmani":"٢١","qpc_uthmani_hafs":"٢١","char_type_name":"end","page_number":592,"line_number":15,"text":"٢١","translation":{"text":"(21)","language_name":"english","language_id":38},"transliteration":{"text":null,"language_name":"english","language_id":38}}]},{"id":5989,"verse_number":22,"verse_key":"88:22","hizb_number":60,"rub_el_hizb_number":237,"ruku_number":532,"manzil_number":7,"sajdah_number":null,"page_number":592,"juz_number":30,"words":[{"id":24774,"position":1,"audio_url":"wbw/088_022_001.mp3","verse_key":"88:22","verse_id":5989,"location":"88:22:1","text_uthmani":"لَّسْتَ","qpc_uthmani_hafs":"لَّسۡتَ","char_type_name":"word","page_number":592,"line_number":15,"text":"لَّسۡتَ","translation":{"text":"You are not","language_name":"english","language_id":38},"transliteration":{"text":"lasta","language_name":"english","language_id":38}},{"id":24775,"position":2,"audio_url":"wbw/088_022_002.mp3","verse_key":"88:22","verse_id":5989,"location":"88:22:2","text_uthmani":"عَلَيْهِم","qpc_uthmani_hafs":"عَلَيۡهِم","char_type_name":"word","page_number":592,"line_number":15,"text":"عَلَيۡهِم","translation":{"text":"over them","language_name":"english","language_id":38},"transliteration":{"text":"ʿalayhim","language_name":"english","language_id":38}},{"id":24776,"position":3,"audio_url":"wbw/088_022_003.mp3","verse_key":"88:22","verse_id":5989,"location":"88:22:3","text_uthmani":"بِمُصَيْطِرٍ","qpc_uthmani_hafs":"بِمُصَيۡطِرٍ","char_type_name":"word","page_number":592,"line_number":15,"text":"بِمُصَيۡطِرٍ","translation":{"text":"a controller","language_name":"english","language_id":38},"transliteration":{"text":"bimuṣayṭirin","language_name":"english","language_id":38}},{"id":24777,"position":4,"audio_url":null,"verse_key":"88:22","verse_id":5989,"location":"88:22:4","text_uthmani":"٢٢","qpc_uthmani_hafs":"٢٢","char_type_name":"end","page_number":592,"line_number":15,"text":"٢٢","translation":{"text":"(22)","language_name":"english","language_id":38},"transliteration":{"text":null,"language_name":"english","language_id":38}}]},{"id":5990,"verse_number":23,"verse_key":"88:23","hizb_number":60,"rub_el_hizb_number":237,"ruku_number":532,"manzil_number":7,"sajdah_number":null,"page_number":593,"juz_number":30,"words":[{"id":25796,"position":1,"audio_url":"wbw/088_023_001.mp3","verse_key":"88:23","verse_id":5990,"location":"88:23:1","text_uthmani":"إِلَّا","qpc_uthmani_hafs":"إِلَّا","char_type_name":"word","page_number":593,"line_number":1,"text":"إِلَّا","translation":{"text":"But","language_name":"english","language_id":38},"transliteration":{"text":"illā","language_name":"english","language_id":38}},{"id":25797,"position":2,"audio_url":"wbw/088_023_002.mp3","verse_key":"88:23","verse_id":5990,"location":"88:23:2","text_uthmani":"مَن","qpc_uthmani_hafs":"مَن","char_type_name":"word","page_number":593,"line_number":1,"text":"مَن","translation":{"text":"whoever","language_name":"english","language_id":38},"transliteration":{"text":"man","language_name":"english","language_id":38}},{"id":25798,"position":3,"audio_url":"wbw/088_023_003.mp3","verse_key":"88:23","verse_id":5990,"location":"88:23:3","text_uthmani":"تَوَلَّىٰ","qpc_uthmani_hafs":"تَوَلَّىٰ","char_type_name":"word","page_number":593,"line_number":1,"text":"تَوَلَّىٰ","translation":{"text":"turns away","language_name":"english","language_id":38},"transliteration":{"text":"tawallā","language_name":"english","language_id":38}},{"id":25799,"position":4,"audio_url":"wbw/088_023_004.mp3","verse_key":"88:23","verse_id":5990,"location":"88:23:4","text_uthmani":"وَكَفَرَ","qpc_uthmani_hafs":"وَكَفَرَ","char_type_name":"word","page_number":593,"line_number":1,"text":"وَكَفَرَ","translation":{"text":"and disbelieves","language_name":"english","language_id":38},"transliteration":{"text":"wakafara","language_name":"english","language_id":38}},{"id":25800,"position":5,"audio_url":null,"verse_key":"88:23","verse_id":5990,"location":"88:23:5","text_uthmani":"٢٣","qpc_uthmani_hafs":"٢٣","char_type_name":"end","page_number":593,"line_number":1,"text":"٢٣","translation":{"text":"(23)","language_name":"english","language_id":38},"transliteration":{"text":null,"language_name":"english","language_id":38}}]},{"id":5991,"verse_number":24,"verse_key":"88:24","hizb_number":60,"rub_el_hizb_number":237,"ruku_number":532,"manzil_number":7,"sajdah_number":null,"page_number":593,"juz_number":30,"words":[{"id":26853,"position":1,"audio_url":"wbw/088_024_001.mp3","verse_key":"88:24","verse_id":5991,"location":"88:24:1","text_uthmani":"فَيُعَذِّبُهُ","qpc_uthmani_hafs":"فَيُعَذِّبُهُ","char_type_name":"word","page_number":593,"line_number":1,"text":"فَيُعَذِّبُهُ","translation":{"text":"Then will punish him","language_name":"english","language_id":38},"transliteration":{"text":"fayuʿadhibuhu","language_name":"english","language_id":38}},{"id":26854,"position":2,"audio_url":"wbw/088_024_002.mp3","verse_key":"88:24","verse_id":5991,"location":"88:24:2","text_uthmani":"ٱللَّهُ","qpc_uthmani_hafs":"ٱللَّهُ","char_type_name":"word","page_number":593,"line_number":1,"text":"ٱللَّهُ","translation":{"text":"Allah","language_name":"english","language_id":38},"transliteration":{"text":"l-lahu","language_name":"english","language_id":38}},{"id":26855,"position":3,"audio_url":"wbw/088_024_003.mp3","verse_key":"88:24","verse_id":5991,"location":"88:24:3","text_uthmani":"ٱلْعَذَابَ","qpc_uthmani_hafs":"ٱلۡعَذَابَ","char_type_name":"word","page_number":593,"line_number":1,"text":"ٱلۡعَذَابَ","translation":{"text":"(with) the punishment","language_name":"english","language_id":38},"transliteration":{"text":"l-ʿadhāba","language_name":"english","language_id":38}},{"id":26856,"position":4,"audio_url":"wbw/088_024_004.mp3","verse_key":"88:24","verse_id":5991,"location":"88:24:4","text_uthmani":"ٱلْأَكْبَرَ","qpc_uthmani_hafs":"ٱلۡأَكۡبَرَ","char_type_name":"word","page_number":593,"line_number":1,"text":"ٱلۡأَكۡبَرَ","translation":{"text":"greatest","language_name":"english","language_id":38},"transliteration":{"text":"l-akbara","language_name":"english","language_id":38}},{"id":26857,"position":5,"audio_url":null,"verse_key":"88:24","verse_id":5991,"location":"88:24:5","text_uthmani":"٢٤","qpc_uthmani_hafs":"٢٤","char_type_name":"end","page_number":593,"line_number":1,"text":"٢٤","translation":{"text":"(24)","language_name":"english","language_id":38},"transliteration":{"text":null,"language_name":"english","language_id":38}}]},{"id":5992,"verse_number":25,"verse_key":"88:25","hizb_number":60,"rub_el_hizb_number":237,"ruku_number":532,"manzil_number":7,"sajdah_number":null,"page_number":593,"juz_number":30,"words":[{"id":27843,"position":1,"audio_url":"wbw/088_025_001.mp3","verse_key":"88:25","verse_id":5992,"location":"88:25:1","text_uthmani":"إِنَّ","qpc_uthmani_hafs":"إِنَّ","char_type_name":"word","page_number":593,"line_number":2,"text":"إِنَّ","translation":{"text":"Indeed","language_name":"english","language_id":38},"transliteration":{"text":"inna","language_name":"english","language_id":38}},{"id":27844,"position":2,"audio_url":"wbw/088_025_002.mp3","verse_key":"88:25","verse_id":5992,"location":"88:25:2","text_uthmani":"إِلَيْنَآ","qpc_uthmani_hafs":"إِلَيۡنَآ","char_type_name":"word","page_number":593,"line_number":2,"text":"إِلَيۡنَآ","translation":{"text":"to Us","language_name":"english","language_id":38},"transliteration":{"text":"ilaynā","language_name":"english","language_id":38}},{"id":27845,"position":3,"audio_url":"wbw/088_025_003.mp3","verse_key":"88:25","verse_id":5992,"location":"88:25:3","text_uthmani":"إِيَابَهُمْ","qpc_uthmani_hafs":"إِيَابَهُمۡ","char_type_name":"word","page_number":593,"line_number":2,"text":"إِيَابَهُمۡ","translation":{"text":"(will be) their return","language_name":"english","language_id":38},"transliteration":{"text":"iyābahum","language_name":"english","language_id":38}},{"id":27846,"position":4,"audio_url":null,"verse_key":"88:25","verse_id":5992,"location":"88:25:4","text_uthmani":"٢٥","qpc_uthmani_hafs":"٢٥","char_type_name":"end","page_number":593,"line_number":2,"text":"٢٥","translation":{"text":"(25)","language_name":"english","language_id":38},"transliteration":{"text":null,"language_name":"english","language_id":38}}]},{"id":5993,"verse_number":26,"verse_key":"88:26","hizb_number":60,"rub_el_hizb_number":237,"ruku_number":532,"manzil_number":7,"sajdah_number":null,"page_number":593,"juz_number":30,"words":[{"id":28569,"position":1,"audio_url":"wbw/088_026_001.mp3","verse_key":"88:26","verse_id":5993,"location":"88:26:1","text_uthmani":"ثُمَّ","qpc_uthmani_hafs":"ثُمَّ","char_type_name":"word","page_number":593,"line_number":2,"text":"ثُمَّ","translation":{"text":"Then","language_name":"english","language_id":38},"transliteration":{"text":"thumma","language_name":"english","language_id":38}},{"id":28570,"position":2,"audio_url":"wbw/088_026_002.mp3","verse_key":"88:26","verse_id":5993,"location":"88:26:2","text_uthmani":"إِنَّ","qpc_uthmani_hafs":"إِنَّ","char_type_name":"word","page_number":593,"line_number":2,"text":"إِنَّ","translation":{"text":"indeed","language_name":"english","language_id":38},"transliteration":{"text":"inna","language_name":"english","language_id":38}},{"id":28571,"position":3,"audio_url":"wbw/088_026_003.mp3","verse_key":"88:26","verse_id":5993,"location":"88:26:3","text_uthmani":"عَلَيْنَا","qpc_uthmani_hafs":"عَلَيۡنَا","char_type_name":"word","page_number":593,"line_number":2,"text":"عَلَيۡنَا","translation":{"text":"upon Us","language_name":"english","language_id":38},"transliteration":{"text":"ʿalaynā","language_name":"english","language_id":38}},{"id":28572,"position":4,"audio_url":"wbw/088_026_004.mp3","verse_key":"88:26","verse_id":5993,"location":"88:26:4","text_uthmani":"حِسَابَهُم","qpc_uthmani_hafs":"حِسَابَهُم","char_type_name":"word","page_number":593,"line_number":2,"text":"حِسَابَهُم","translation":{"text":"(is) their account","language_name":"english","language_id":38},"transliteration":{"text":"ḥisābahum","language_name":"english","language_id":38}},{"id":28573,"position":5,"audio_url":null,"verse_key":"88:26","verse_id":5993,"location":"88:26:5","text_uthmani":"٢٦","qpc_uthmani_hafs":"٢٦","char_type_name":"end","page_number":593,"line_number":2,"text":"٢٦","translation":{"text":"(26)","language_name":"english","language_id":38},"transliteration":{"text":null,"language_name":"english","language_id":38}}]}],"pagination":{"per_page":10,"current_page":3,"next_page":null,"total_pages":3,"total_records":26}}
