{"verses":[{"id":6024,"verse_number":1,"verse_key":"90:1","hizb_number":60,"rub_el_hizb_number":238,"ruku_number":534,"manzil_number":7,"sajdah_number":null,"page_number":594,"juz_number":30,"words":[{"id":731,"position":1,"audio_url":"wbw/090_001_001.mp3","verse_key":"90:1","verse_id":6024,"location":"90:1:1","text_uthmani":"لَآ","qpc_uthmani_hafs":"لَآ","char_type_name":"word","page_number":594,"line_number":8,"text":"لَآ","translation":{"text":"Nay","language_name":"english","language_id":38},"transliteration":{"text":"lā","language_name":"english","language_id":38}},{"id":732,"position":2,"audio_url":"wbw/090_001_002.mp3","verse_key":"90:1","verse_id":6024,"location":"90:1:2","text_uthmani":"أُقْسِمُ","qpc_uthmani_hafs":"أُقۡسِمُ","char_type_name":"word","page_number":594,"line_number":8,"text":"أُقۡسِمُ","translation":{"text":"I swear","language_name":"english","language_id":38},"transliteration":{"text":"uq'simu","language_name":"english","language_id":38}},{"id":733,"position":3,"audio_url":"wbw/090_001_003.mp3","verse_key":"90:1","verse_id":6024,"location":"90:1:3","text_uthmani":"بِهَـٰذَا","qpc_uthmani_hafs":"بِهَٰذَا","char_type_name":"word","page_number":594,"line_number":8,"text":"بِهَٰذَا","translation":{"text":"by this","language_name":"english","language_id":38},"transliteration":{"text":"bihādhā","language_name":"english","language_id":38}},{"id":734,"position":4,"audio_url":"wbw/090_001_004.mp3","verse_key":"90:1","verse_id":6024,"location":"90:1:4","text_uthmani":"ٱلْبَلَدِ","qpc_uthmani_hafs":"ٱلۡبَلَدِ","char_type_name":"word","page_number":594,"line_number":8,"text":"ٱلۡبَلَدِ","translation":{"text":"city","language_name":"english","language_id":38},"transliteration":{"text":"l-baladi","language_name":"english","language_id":38}},{"id":735,"position":5,"audio_url":null,"verse_key":"90:1","verse_id":6024,"location":"90:1:5","text_uthmani":"١","qpc_uthmani_hafs":"١","char_type_name":"end","page_number":594,"line_number":8,"text":"١","translation":{"text":"(1)","language_name":"english","language_id":38},"transliteration":{"text":null,"language_name":"english","language_id":38}}]},{"id":6025,"verse_number":2,"verse_key":"90:2","hizb_number":60,"rub_el_hizb_number":238,"ruku_number":534,"manzil_number":7,"sajdah_number":null,"page_number":594,"juz_number":30,"words":[{"id":1741,"position":1,"audio_url":"wbw/090_002_001.mp3","verse_key":"90:2","verse_id":6025,"location":"90:2:1","text_uthmani":"وَأَنتَ","qpc_uthmani_hafs":"وَأَنتَ","char_type_name":"word","page_number":594,"line_number":8,"text":"وَأَنتَ","translation":{"text":"And you","language_name":"english","language_id":38},"transliteration":{"text":"wa-anta","language_name":"english","language_id":38}},{"id":1742,"position":2,"audio_url":"wbw/090_002_002.mp3","verse_key":"90:2","verse_id":6025,"location":"90:2:2","text_uthmani":"حِلٌّۢ","qpc_uthmani_hafs":"حِلُّۢ","char_type_name":"word","page_number":594,"line_number":8,"text":"حِلُّۢ","translation":{"text":"(are) free (to dwell)","language_name":"english","language_id":38},"transliteration":{"text":"ḥillun","language_name":"english","language_id":38}},{"id":1743,"position":3,"audio_url":"wbw/090_002_003.mp3","verse_key":"90:2","verse_id":6025,"location":"90:2:3","text_uthmani":"بِهَـٰذَا","qpc_uthmani_hafs":"بِهَٰذَا","char_type_name":"word","page_number":594,"line_number":8,"text":"بِهَٰذَا","translation":{"text":"in this","language_name":"english","language_id":38},"transliteration":{"text":"bihādhā","language_name":"english","language_id":38}},{"id":1744,"position":4,"audio_url":"wbw/090_002_004.mp3","verse_key":"90:2","verse_id":6025,"location":"90:2:4","text_uthmani":"ٱلْبَلَدِ","qpc_uthmani_hafs":"ٱلۡبَلَدِ","char_type_name":"word","page_number":594,"line_number":8,"text":"ٱلۡبَلَدِ","translation":{"text":"city","language_name":"english","language_id":38},"transliteration":{"text":"l-baladi","language_name":"english","language_id":38}},{"id":1745,"position":5,"audio_url":null,"verse_key":"90:2","verse_id":6025,"location":"90:2:5","text_uthmani":"٢","qpc_uthmani_hafs":"٢","char_type_name":"end","page_number":594,"line_number":8,"text":"٢","translation":{"text":"(2)","language_name":"english","language_id":38},"transliteration":{"text":null,"language_name":"english","language_id":38}}]},{"id":6026,"verse_number":3,"verse_key":"90:3","hizb_number":60,"rub_el_hizb_number":238,"ruku_number":534,"manzil_number":7,"sajdah_number":null,"page_number":594,"juz_number":30,"words":[{"id":2893,"position":1,"audio_url":"wbw/090_003_001.mp3","verse_key":"90:3","verse_id":6026,"location":"90:3:1","text_uthmani":"وَوَالِدٍۢ","qpc_uthmani_hafs":"وَوَالِدٖ","char_type_name":"word","page_number":594,"line_number":8,"text":"وَوَالِدٖ","translation":{"text":"And the begetter","language_name":"english","language_id":38},"transliteration":{"text":"wawālidin","language_name":"english","language_id":38}},{"id":2894,"position":2,"audio_url":"wbw/090_003_002.mp3","verse_key":"90:3","verse_id":6026,"location":"90:3:2","text_uthmani":"وَمَا","qpc_uthmani_hafs":"وَمَا","char_type_name":"word","page_number":594,"line_number":8,"text":"وَمَا","translation":{"text":"and what","language_name":"english","language_id":38},"transliteration":{"text":"wamā","language_name":"english","language_id":38}},{"id":2895,"position":3,"audio_url":"wbw/090_003_003.mp3","verse_key":"90:3","verse_id":6026,"location":"90:3:3","text_uthmani":"وَلَدَ","qpc_uthmani_hafs":"وَلَدَ","char_type_name":"word","page_number":594,"line_number":8,"text":"وَلَدَ","translation":{"text":"he begot","language_name":"english","language_id":38},"transliteration":{"text":"walada","language_name":"english","language_id":38}},{"id":2896,"position":4,"audio_url":null,"verse_key":"90:3","verse_id":6026,"location":"90:3:4","text_uthmani":"٣","qpc_uthmani_hafs":"٣","char_type_name":"end","page_number":594,"line_number":9,"text":"٣","translation":{"text":"(3)","language_name":"english","language_id":38},"transliteration":{"text":null,"language_name":"english","language_id":38}}]},{"id":6027,"verse_number":4,"verse_key":"90:4","hizb_number":60,"rub_el_hizb_number":238,"ruku_number":534,"manzil_number":7,"sajdah_number":null,"page_number":594,"juz_number":30,"words":[{"id":4229,"position":1,"audio_url":"wbw/090_004_001.mp3","verse_key":"90:4","verse_id":6027,"location":"90:4:1","text_uthmani":"لَقَدْ","qpc_uthmani_hafs":"لَقَدۡ","char_type_name":"word","page_number":594,"line_number":9,"text":"لَقَدۡ","translation":{"text":"Certainly","language_name":"english","language_id":38},"transliteration":{"text":"laqad","language_name":"english","language_id":38}},{"id":4230,"position":2,"audio_url":"wbw/090_004_002.mp3","verse_key":"90:4","verse_id":6027,"location":"90:4:2","text_uthmani":"خَلَقْنَا","qpc_uthmani_hafs":"خَلَقۡنَا","char_type_name":"word","page_number":594,"line_number":9,"text":"خَلَقۡنَا","translation":{"text":"We have created","language_name":"english","language_id":38},"transliteration":{"text":"khalaqnā","language_name":"english","language_id":38}},{"id":4231,"position":3,"audio_url":"wbw/090_004_003.mp3","verse_key":"90:4","verse_id":6027,"location":"90:4:3","text_uthmani":"ٱلْإِنسَـٰنَ","qpc_uthmani_hafs":"ٱلۡإِنسَٰنَ","char_type_name":"word","page_number":594,"line_number":9,"text":"ٱلۡإِنسَٰنَ","translation":{"text":"man","language_name":"english","language_id":38},"transliteration":{"text":"l-insāna","language_name":"english","language_id":38}},{"id":4232,"position":4,"audio_url":"wbw/090_004_004.mp3","verse_key":"90:4","verse_id":6027,"location":"90:4:4","text_uthmani":"فِى","qpc_uthmani_hafs":"فِي","char_type_name":"word","page_number":594,"line_number":9,"text":"فِي","translation":{"text":"(to be) in","language_name":"english","language_id":38},"transliteration":{"text":"fī","language_name":"english","language_id":38}},{"id":4233,"position":5,"audio_url":"wbw/090_004_005.mp3","verse_key":"90:4","verse_id":6027,"location":"90:4:5","text_uthmani":"كَبَدٍ","qpc_uthmani_hafs":"كَبَدٍ","char_type_name":"word","page_number":594,"line_number":9,"text":"كَبَدٍ","translation":{"text":"hardship","language_name":"english","language_id":38},"transliteration":{"text":"kabadin","language_name":"english","language_id":38}},{"id":4234,"position":6,"audio_url":null,"verse_key":"90:4","verse_id":6027,"location":"90:4:6","text_uthmani":"٤","qpc_uthmani_hafs":"٤","char_type_name":"end","page_number":594,"line_number":9,"text":"٤","translation":{"text":"(4)","language_name":"english","language_id":38},"transliteration":{"text":null,"language_name":"english","language_id":38}}]},{"id":6028,"verse_number":5,"verse_key":"90:5","hizb_number":60,"rub_el_hizb_number":238,"ruku_number":534,"manzil_number":7,"sajdah_number":null,"page_number":594,"juz_number":30,"words":[{"id":5746,"position":1,"audio_url":"wbw/090_005_001.mp3","verse_key":"90:5","verse_id":6028,"location":"90:5:1","text_uthmani":"أَيَحْسَبُ","qpc_uthmani_hafs":"أَيَحۡسَبُ","char_type_name":"word","page_number":594,"line_number":9,"text":"أَيَحۡسَبُ","translation":{"text":"Does he think","language_name":"english","language_id":38},"transliteration":{"text":"ayaḥsabu","language_name":"english","language_id":38}},{"id":5747,"position":2,"audio_url":"wbw/090_005_002.mp3","verse_key":"90:5","verse_id":6028,"location":"90:5:2","text_uthmani":"أَن","qpc_uthmani_hafs":"أَن","char_type_name":"word","page_number":594,"line_number":9,"text":"أَن","translation":{"text":"that","language_name":"english","language_id":38},"transliteration":{"text":"an","language_name":"english","language_id":38}},{"id":5748,"position":3,"audio_url":"wbw/090_005_003.mp3","verse_key":"90:5","verse_id":6028,"location":"90:5:3","text_uthmani":"لَّن","qpc_uthmani_hafs":"لَّن","char_type_name":"word","page_number":594,"line_number":9,"text":"لَّن","translation":{"text":"not","language_name":"english","language_id":38},"transliteration":{"text":"lan","language_name":"english","language_id":38}},{"id":5749,"position":4,"audio_url":"wbw/090_005_004.mp3","verse_key":"90:5","verse_id":6028,"location":"90:5:4","text_uthmani":"يَقْدِرَ","qpc_uthmani_hafs":"يَقۡدِرَ","char_type_name":"word","page_number":594,"line_number":9,"text":"يَقۡدِرَ","translation":{"text":"has power","language_name":"english","language_id":38},"transliteration":{"text":"yaqdira","language_name":"english","language_id":38}},{"id":5750,"position":5,"audio_url":"wbw/090_005_005.mp3","verse_key":"90:5","verse_id":6028,"location":"90:5:5","text_uthmani":"عَلَيْهِ","qpc_uthmani_hafs":"عَلَيۡهِ","char_type_name":"word","page_number":594,"line_number":9,"text":"عَلَيۡهِ","translation":{"text":"over him","language_name":"english","language_id":38},"transliteration":{"text":"ʿalayhi","language_name":"english","language_id":38}},{"id":5751,"position":6,"audio_url":"wbw/090_005_006.mp3","verse_key":"90:5","verse_id":6028,"location":"90:5:6","text_uthmani":"أَحَدٌۭ","qpc_uthmani_hafs":"أَحَدٞ","char_type_name":"word","page_number":594,"line_number":10,"text":"أَحَدٞ","translation":{"text":"anyone","language_name":"english","language_id":38},"transliteration":{"text":"aḥadun","language_name":"english","language_id":38}},{"id":5752,"position":7,"audio_url":null,"verse_key":"90:5","verse_id":6028,"location":"90:5:7","text_uthmani":"٥","qpc_uthmani_hafs":"٥","char_type_name":"end","page_number":594,"line_number":10,"text":"٥","translation":{"text":"(5)","language_name":"english","language_id":38},"transliteration":{"text":null,"language_name":"english","language_id":38}}]},{"id":6029,"verse_number":6,"verse_key":"90:6","hizb_number":60,"rub_el_hizb_number":238,"ruku_number":534,"manzil_number":7,"sajdah_number":null,"page_number":594,"juz_number":30,"words":[{"id":6784,"position":1,"audio_url":"wbw/090_006_001.mp3","verse_key":"90:6","verse_id":6029,"location":"90:6:1","text_uthmani":"يَقُولُ","qpc_uthmani_hafs":"يَقُولُ","char_type_name":"word","page_number":594,"line_number":10,"text":"يَقُولُ","translation":{"text":"He will say","language_name":"english","language_id":38},"transliteration":{"text":"yaqūlu","language_name":"english","language_id":38}},{"id":6785,"position":2,"audio_url":"wbw/090_006_002.mp3","verse_key":"90:6","verse_id":6029,"location":"90:6:2","text_uthmani":"أَهْلَكْتُ","qpc_uthmani_hafs":"أَهۡلَكۡتُ","char_type_name":"word","page_number":594,"line_number":10,"text":"أَهۡلَكۡتُ","translation":{"text":"I have squandered","language_name":"english","language_id":38},"transliteration":{"text":"ahlaktu","language_name":"english","language_id":38}},{"id":6786,"position":3,"audio_url":"wbw/090_006_003.mp3","verse_key":"90:6","verse_id":6029,"location":"90:6:3","text_uthmani":"مَالًۭا","qpc_uthmani_hafs":"مَالٗا","char_type_name":"word","page_number":594,"line_number":10,"text":"مَالٗا","translation":{"text":"wealth","language_name":"english","language_id":38},"transliteration":{"text":"mālan","language_name":"english","language_id":38}},{"id":6787,"position":4,"audio_url":"wbw/090_006_004.mp3","verse_key":"90:6","verse_id":6029,"location":"90:6:4","text_uthmani":"لُّبَدًا","qpc_uthmani_hafs":"لُّبَدًا","char_type_name":"word","page_number":594,"line_number":10,"text":"لُّبَدًا","translation":{"text":"abundant","language_name":"english","language_id":38},"transliteration":{"text":"lubadan","language_name":"english","language_id":38}},{"id":6788,"position":5,"audio_url":null,"verse_key":"90:6","verse_id":6029,"location":"90:6:5","text_uthmani":"٦","qpc_uthmani_hafs":"٦","char_type_name":"end","page_number":594,"line_number":10,"text":"٦","translation":{"text":"(6)","language_name":"english","language_id":38},"transliteration":{"text":null,"language_name":"english","language_id":38}}]},{"id":6030,"verse_number":7,"verse_key":"90:7","hizb_number":60,"rub_el_hizb_number":238,"ruku_number":534,"manzil_number":7,"sajdah_number":null,"page_number":594,"juz_number":30,"words":[{"id":7286,"position":1,"audio_url":"wbw/090_007_001.mp3","verse_key":"90:7","verse_id":6030,"location":"90:7:1","text_uthmani":"أَيَحْسَبُ","qpc_uthmani_hafs":"أَيَحۡسَبُ","char_type_name":"word","page_number":594,"line_number":10,"text":"أَيَحۡسَبُ","translation":{"text":"Does he think","language_name":"english","language_id":38},"transliteration":{"text":"ayaḥsabu","language_name":"english","language_id":38}},{"id":7287,"position":2,"audio_url":"wbw/090_007_002.mp3","verse_key":"90:7","verse_id":6030,"location":"90:7:2","text_uthmani":"أَن","qpc_uthmani_hafs":"أَن","char_type_name":"word","page_number":594,"line_number":10,"text":"أَن","translation":{"text":"that","language_name":"english","language_id":38},"transliteration":{"text":"an","language_name":"english","language_id":38}},{"id":7288,"position":3,"audio_url":"wbw/090_007_003.mp3","verse_key":"90:7","verse_id":6030,"location":"90:7:3","text_uthmani":"لَّمْ","qpc_uthmani_hafs":"لَّمۡ","char_type_name":"word","page_number":594,"line_number":10,"text":"لَّمۡ","translation":{"text":"not","language_name":"english","language_id":38},"transliteration":{"text":"lam","language_name":"english","language_id":38}},{"id":7289,"position":4,"audio_url":"wbw/090_007_004.mp3","verse_key":"90:7","verse_id":6030,"location":"90:7:4","text_uthmani":"يَرَهُۥٓ","qpc_uthmani_hafs":"يَرَهُۥٓ","char_type_name":"word","page_number":594,"line_number":10,"text":"يَرَهُۥٓ","translation":{"text":"sees him","language_name":"english","language_id":38},"transliteration":{"text":"yarahu","language_name":"english","language_id":38}},{"id":7290,"position":5,"audio_url":"wbw/090_007_005.mp3","verse_key":"90:7","verse_id":6030,"location":"90:7:5","text_uthmani":"أَحَدٌ","qpc_uthmani_hafs":"أَحَدٌ","char_type_name":"word","page_number":594,"line_number":10,"text":"أَحَدٌ","translation":{"text":"anyone","language_name":"english","language_id":38},"transliteration":{"text":"aḥadun","language_name":"english","language_id":38}},{"id":7291,"position":6,"audio_url":null,"verse_key":"90:7","verse_id":6030,"location":"90:7:6","text_uthmani":"٧","qpc_uthmani_hafs":"٧","char_type_name":"end","page_number":594,"line_number":11,"text":"٧","translation":{"text":"(7)","language_name":"english","language_id":38},"transliteration":{"text":null,"language_name":"english","language_id":38}}]},{"id":6031,"verse_number":8,"verse_key":"90:8","hizb_number":60,"rub_el_hizb_number":238,"ruku_number":534,"manzil_number":7,"sajdah_number":null,"page_number":594,"juz_number":30,"words":[{"id":9258,"position":1,"audio_url":"wbw/090_008_001.mp3","verse_key":"90:8","verse_id":6031,"location":"90:8:1","text_uthmani":"أَلَمْ","qpc_uthmani_hafs":"أَلَمۡ","char_type_name":"word","page_number":594,"line_number":11,"text":"أَلَمۡ","translation":{"text":"Have not","language_name":"english","language_id":38},"transliteration":{"text":"alam","language_name":"english","language_id":38}},{"id":9259,"position":2,"audio_url":"wbw/090_008_002.mp3","verse_key":"90:8","verse_id":6031,"location":"90:8:2","text_uthmani":"نَجْعَل","qpc_uthmani_hafs":"نَجۡعَل","char_type_name":"word","page_number":594,"line_number":11,"text":"نَجۡعَل","translation":{"text":"We made","language_name":"english","language_id":38},"transliteration":{"text":"najʿal","language_name":"english","language_id":38}},{"id":9260,"position":3,"audio_url":"wbw/090_008_003.mp3","verse_key":"90:8","verse_id":6031,"location":"90:8:3","text_uthmani":"لَّهُۥ","qpc_uthmani_hafs":"لَّهُۥ","char_type_name":"word","page_number":594,"line_number":11,"text":"لَّهُۥ","translation":{"text":"for him","language_name":"english","language_id":38},"transliteration":{"text":"lahu","language_name":"english","language_id":38}},{"id":9261,"position":4,"audio_url":"wbw/090_008_004.mp3","verse_key":"90:8","verse_id":6031,"location":"90:8:4","text_uthmani":"عَيْنَيْنِ","qpc_uthmani_hafs":"عَيۡنَيۡنِ","char_type_name":"word","page_number":594,"line_number":11,"text":"عَيۡنَيۡنِ","translation":{"text":"two eyes","language_name":"english","language_id":38},"transliteration":{"text":"ʿaynayni","language_name":"english","language_id":38}},{"id":9262,"position":5,"audio_url":null,"verse_key":"90:8","verse_id":6031,"location":"90:8:5","text_uthmani":"٨","qpc_uthmani_hafs":"٨","char_type_name":"end","page_number":594,"line_number":11,"text":"٨","translation":{"text":"(8)","language_name":"english","language_id":38},"transliteration":{"text":null,"language_name":"english","language_id":38}}]},{"id":6032,"verse_number":9,"verse_key":"90:9","hizb_number":60,"rub_el_hizb_number":238,"ruku_number":534,"manzil_number":7,"sajdah_number":null,"page_number":594,"juz_number":30,"words":[{"id":10454,"position":1,"audio_url":"wbw/090_009_001.mp3","verse_key":"90:9","verse_id":6032,"location":"90:9:1","text_uthmani":"وَلِسَانًۭا","qpc_uthmani_hafs":"وَلِسَانٗا","char_type_name":"word","page_number":594,"line_number":11,"text":"وَلِسَانٗا","translation":{"text":"And a tongue","language_name":"english","language_id":38},"transliteration":{"text":"walisānan","language_name":"english","language_id":38}},{"id":10455,"position":2,"audio_url":"wbw/090_009_002.mp3","verse_key":"90:9","verse_id":6032,"location":"90:9:2","text_uthmani":"وَشَفَتَيْنِ","qpc_uthmani_hafs":"وَشَفَتَيۡنِ","char_type_name":"word","page_number":594,"line_number":11,"text":"وَشَفَتَيۡنِ","translation":{"text":"and two lips","language_name":"english","language_id":38},"transliteration":{"text":"washafatayni","language_name":"english","language_id":38}},{"id":10456,"position":3,"audio_url":null,"verse_key":"90:9","verse_id":6032,"location":"90:9:3","text_uthmani":"٩","qpc_uthmani_hafs":"٩","char_type_name":"end","page_number":594,"line_number":11,"text":"٩","translation":{"text":"(9)","language_name":"english","language_id":38},"transliteration":{"text":null,"language_name":"english","language_id":38}}]},{"id":6033,"verse_number":10,"verse_key":"90:10","hizb_number":60,"rub_el_hizb_number":238,"ruku_number":534,"manzil_number":7,"sajdah_number":null,"page_number":594,"juz_number":30,"words":[{"id":11621,"position":1,"audio_url":"wbw/090_010_001.mp3","verse_key":"90:10","verse_id":6033,"location":"90:10:1","text_uthmani":"وَهَدَيْنَـٰهُ","qpc_uthmani_hafs":"وَهَدَيۡنَٰهُ","char_type_name":"word","page_number":594,"line_number":11,"text":"وَهَدَيۡنَٰهُ","translation":{"text":"And shown him","language_name":"english","language_id":38},"transliteration":{"text":"wahadaynāhu","language_name":"english","language_id":38}},{"id":11622,"position":2,"audio_url":"wbw/090_010_002.mp3","verse_key":"90:10","verse_id":6033,"location":"90:10:2","text_uthmani":"ٱلنَّجْدَيْنِ","qpc_uthmani_hafs":"ٱلنَّجۡدَيۡنِ","char_type_name":"word","page_number":594,"line_number":12,"text":"ٱلنَّجۡدَيۡنِ","translation":{"text":"the two ways","language_name":"english","language_id":38},"transliteration":{"text":"l-najdayni","language_name":"english","language_id":38}},{"id":11623,"position":3,"audio_url":null,"verse_key":"90:10","verse_id":6033,"location":"90:10:3","text_uthmani":"١٠","qpc_uthmani_hafs":"١٠","char_type_name":"end","page_number":594,"line_number":12,"text":"١٠","translation":{"text":"(10)","language_name":"english","language_id":38},"transliteration":{"text":null,"language_name":"english","language_id":38}}]}],"pagination":{"per_page":10,"current_page":1,"next_page":2,"total_pages":2,"total_records":20}}
