{"verses":[{"id":3023,"verse_number":91,"verse_key":"26:91","hizb_number":37,"rub_el_hizb_number":148,"ruku_number":320,"manzil_number":5,"sajdah_number":null,"page_number":371,"juz_number":19,"words":[{"id":68480,"position":1,"audio_url":"wbw/026_091_001.mp3","verse_key":"26:91","verse_id":3023,"location":"26:91:1","text_uthmani":"وَبُرِّزَتِ","qpc_uthmani_hafs":"وَبُرِّزَتِ","char_type_name":"word","page_number":371,"line_number":4,"text":"وَبُرِّزَتِ","translation":{"text":"এবং খোলা হবে","language_name":"bengali","language_id":20},"transliteration":{"text":"waburrizati","language_name":"english","language_id":38}},{"id":68481,"position":2,"audio_url":"wbw/026_091_002.mp3","verse_key":"26:91","verse_id":3023,"location":"26:91:2","text_uthmani":"ٱلْجَحِيمُ","qpc_uthmani_hafs":"ٱلۡجَحِيمُ","char_type_name":"word","page_number":371,"line_number":4,"text":"ٱلۡجَحِيمُ","translation":{"text":"জাহান্নাম","language_name":"bengali","language_id":20},"transliteration":{"text":"l-jaḥīmu","language_name":"english","language_id":38}},{"id":68482,"position":3,"audio_url":"wbw/026_091_003.mp3","verse_key":"26:91","verse_id":3023,"location":"26:91:3","text_uthmani":"لِلْغَاوِينَ","qpc_uthmani_hafs":"لِلۡغَاوِينَ","char_type_name":"word","page_number":371,"line_number":4,"text":"لِلۡغَاوِينَ","translation":{"text":"জন্যে বিভ্রান্ত লোকদের","language_name":"bengali","language_id":20},"transliteration":{"text":"lil'ghāwīna","language_name":"english","language_id":38}},{"id":68483,"position":4,"audio_url":null,"verse_key":"26:91","verse_id":3023,"location":"26:91:4","text_uthmani":"٩١","qpc_uthmani_hafs":"٩١","char_type_name":"end","page_number":371,"line_number":5,"text":"٩١","translation":{"text":"(৯১)","language_name":"bengali","language_id":20},"transliteration":{"text":null,"language_name":"english","language_id":38}}]},{"id":3024,"verse_number":92,"verse_key":"26:92","hizb_number":37,"rub_el_hizb_number":148,"ruku_number":320,"manzil_number":5,"sajdah_number":null,"page_number":371,"juz_number":19,"words":[{"id":68606,"position":1,"audio_url":"wbw/026_092_001.mp3","verse_key":"26:92","verse_id":3024,"location":"26:92:1","text_uthmani":"وَقِيلَ","qpc_uthmani_hafs":"وَقِيلَ","char_type_name":"word","page_number":371,"line_number":5,"text":"وَقِيلَ","translation":{"text":"এবং বলা হবে","language_name":"bengali","language_id":20},"transliteration":{"text":"waqīla","language_name":"english","language_id":38}},{"id":68607,"position":2,"audio_url":"wbw/026_092_002.mp3","verse_key":"26:92","verse_id":3024,"location":"26:92:2","text_uthmani":"لَهُمْ","qpc_uthmani_hafs":"لَهُمۡ","char_type_name":"word","page_number":371,"line_number":5,"text":"لَهُمۡ","translation":{"text":"উদ্দেশ্যে তাদের","language_name":"bengali","language_id":20},"transliteration":{"text":"lahum","language_name":"english","language_id":38}},{"id":68608,"position":3,"audio_url":"wbw/026_092_003.mp3","verse_key":"26:92","verse_id":3024,"location":"26:92:3","text_uthmani":"أَيْنَ","qpc_uthmani_hafs":"أَيۡنَ","char_type_name":"word","page_number":371,"line_number":5,"text":"أَيۡنَ","translation":{"text":"\"কোথায়","language_name":"bengali","language_id":20},"transliteration":{"text":"ayna","language_name":"english","language_id":38}},{"id":68609,"position":4,"audio_url":"wbw/026_092_004.mp3","verse_key":"26:92","verse_id":3024,"location":"26:92:4","text_uthmani":"مَا","qpc_uthmani_hafs":"مَا","char_type_name":"word","page_number":371,"line_number":5,"text":"مَا","translation":{"text":"যা","language_name":"bengali","language_id":20},"transliteration":{"text":"mā","language_name":"english","language_id":38}},{"id":68610,"position":5,"audio_url":"wbw/026_092_005.mp3","verse_key":"26:92","verse_id":3024,"location":"26:92:5","text_uthmani":"كُنتُمْ","qpc_uthmani_hafs":"كُنتُمۡ","char_type_name":"word","page_number":371,"line_number":5,"text":"كُنتُمۡ","translation":{"text":"তোমরা ছিলে","language_name":"bengali","language_id":20},"transliteration":{"text":"kuntum","language_name":"english","language_id":38}},{"id":68611,"position":6,"audio_url":"wbw/026_092_006.mp3","verse_key":"26:92","verse_id":3024,"location":"26:92:6","text_uthmani":"تَعْبُدُونَ","qpc_uthmani_hafs":"تَعۡبُدُونَ","char_type_name":"word","page_number":371,"line_number":5,"text":"تَعۡبُدُونَ","translation":{"text":"তোমরা উপাসনা করো","language_name":"bengali","language_id":20},"transliteration":{"text":"taʿbudūna","language_name":"english","language_id":38}},{"id":68612,"position":7,"audio_url":null,"verse_key":"26:92","verse_id":3024,"location":"26:92:7","text_uthmani":"٩٢","qpc_uthmani_hafs":"٩٢","char_type_name":"end","page_number":371,"line_number":5,"text":"٩٢","translation":{"text":"(৯২)","language_name":"bengali","language_id":20},"transliteration":{"text":null,"language_name":"english","language_id":38}}]},{"id":3025,"verse_number":93,"verse_key":"26:93","hizb_number":37,"rub_el_hizb_number":148,"ruku_number":320,"manzil_number":5,"sajdah_number":null,"page_number":371,"juz_number":19,"words":[{"id":69273,"position":1,"audio_url":"wbw/026_093_001.mp3","verse_key":"26:93","verse_id":3025,"location":"26:93:1","text_uthmani":"مِن","qpc_uthmani_hafs":"مِن","char_type_name":"word","page_number":371,"line_number":5,"text":"مِن","translation":{"text":"থেকে","language_name":"bengali","language_id":20},"transliteration":{"text":"min","language_name":"english","language_id":38}},{"id":69274,"position":2,"audio_url":"wbw/026_093_002.mp3","verse_key":"26:93","verse_id":3025,"location":"26:93:2","text_uthmani":"دُونِ","qpc_uthmani_hafs":"دُونِ","char_type_name":"word","page_number":371,"line_number":5,"text":"دُونِ","translation":{"text":"পরিবর্তে","language_name":"bengali","language_id":20},"transliteration":{"text":"dūni","language_name":"english","language_id":38}},{"id":69275,"position":3,"audio_url":"wbw/026_093_003.mp3","verse_key":"26:93","verse_id":3025,"location":"26:93:3","text_uthmani":"ٱللَّهِ","qpc_uthmani_hafs":"ٱللَّهِ","char_type_name":"word","page_number":371,"line_number":5,"text":"ٱللَّهِ","translation":{"text":"আল্লাহর","language_name":"bengali","language_id":20},"transliteration":{"text":"l-lahi","language_name":"english","language_id":38}},{"id":69276,"position":4,"audio_url":"wbw/026_093_004.mp3","verse_key":"26:93","verse_id":3025,"location":"26:93:4","text_uthmani":"هَلْ","qpc_uthmani_hafs":"هَلۡ","char_type_name":"word","page_number":371,"line_number":5,"text":"هَلۡ","translation":{"text":"কি","language_name":"bengali","language_id":20},"transliteration":{"text":"hal","language_name":"english","language_id":38}},{"id":69277,"position":5,"audio_url":"wbw/026_093_005.mp3","verse_key":"26:93","verse_id":3025,"location":"26:93:5","text_uthmani":"يَنصُرُونَكُمْ","qpc_uthmani_hafs":"يَنصُرُونَكُمۡ","char_type_name":"word","page_number":371,"line_number":5,"text":"يَنصُرُونَكُمۡ","translation":{"text":"তারা সাহায্য করতে পারে তোমাদেরকে","language_name":"bengali","language_id":20},"transliteration":{"text":"yanṣurūnakum","language_name":"english","language_id":38}},{"id":69278,"position":6,"audio_url":"wbw/026_093_006.mp3","verse_key":"26:93","verse_id":3025,"location":"26:93:6","text_uthmani":"أَوْ","qpc_uthmani_hafs":"أَوۡ","char_type_name":"word","page_number":371,"line_number":6,"text":"أَوۡ","translation":{"text":"অথবা","language_name":"bengali","language_id":20},"transliteration":{"text":"aw","language_name":"english","language_id":38}},{"id":69279,"position":7,"audio_url":"wbw/026_093_007.mp3","verse_key":"26:93","verse_id":3025,"location":"26:93:7","text_uthmani":"يَنتَصِرُونَ","qpc_uthmani_hafs":"يَنتَصِرُونَ","char_type_name":"word","page_number":371,"line_number":6,"text":"يَنتَصِرُونَ","translation":{"text":"আত্মরক্ষা করতে পারে (কি)\"","language_name":"bengali","language_id":20},"transliteration":{"text":"yantaṣirūna","language_name":"english","language_id":38}},{"id":69280,"position":8,"audio_url":null,"verse_key":"26:93","verse_id":3025,"location":"26:93:8","text_uthmani":"٩٣","qpc_uthmani_hafs":"٩٣","char_type_name":"end","page_number":371,"line_number":6,"text":"٩٣","translation":{"text":"(৯৩)","language_name":"bengali","language_id":20},"transliteration":{"text":null,"language_name":"english","language_id":38}}]},{"id":3026,"verse_number":94,"verse_key":"26:94","hizb_number":37,"rub_el_hizb_number":148,"ruku_number":320,"manzil_number":5,"sajdah_number":null,"page_number":371,"juz_number":19,"words":[{"id":69617,"position":1,"audio_url":"wbw/026_094_001.mp3","verse_key":"26:94","verse_id":3026,"location":"26:94:1","text_uthmani":"فَكُبْكِبُوا۟","qpc_uthmani_hafs":"فَكُبۡكِبُواْ","char_type_name":"word","page_number":371,"line_number":6,"text":"فَكُبۡكِبُواْ","translation":{"text":"অতঃপর মুখ নিচু করে ফেলা হবে তাদেরকে","language_name":"bengali","language_id":20},"transliteration":{"text":"fakub'kibū","language_name":"english","language_id":38}},{"id":69618,"position":2,"audio_url":"wbw/026_094_002.mp3","verse_key":"26:94","verse_id":3026,"location":"26:94:2","text_uthmani":"فِيهَا","qpc_uthmani_hafs":"فِيهَا","char_type_name":"word","page_number":371,"line_number":6,"text":"فِيهَا","translation":{"text":"মধ্যে তার","language_name":"bengali","language_id":20},"transliteration":{"text":"fīhā","language_name":"english","language_id":38}},{"id":69619,"position":3,"audio_url":"wbw/026_094_003.mp3","verse_key":"26:94","verse_id":3026,"location":"26:94:3","text_uthmani":"هُمْ","qpc_uthmani_hafs":"هُمۡ","char_type_name":"word","page_number":371,"line_number":6,"text":"هُمۡ","translation":{"text":"তাদেরকে","language_name":"bengali","language_id":20},"transliteration":{"text":"hum","language_name":"english","language_id":38}},{"id":69620,"position":4,"audio_url":"wbw/026_094_004.mp3","verse_key":"26:94","verse_id":3026,"location":"26:94:4","text_uthmani":"وَٱلْغَاوُۥنَ","qpc_uthmani_hafs":"وَٱلۡغَاوُۥنَ","char_type_name":"word","page_number":371,"line_number":6,"text":"وَٱلۡغَاوُۥنَ","translation":{"text":"ও বিভ্রান্তদেরকে","language_name":"bengali","language_id":20},"transliteration":{"text":"wal-ghāwūna","language_name":"english","language_id":38}},{"id":69621,"position":5,"audio_url":null,"verse_key":"26:94","verse_id":3026,"location":"26:94:5","text_uthmani":"٩٤","qpc_uthmani_hafs":"٩٤","char_type_name":"end","page_number":371,"line_number":6,"text":"٩٤","translation":{"text":"(৯৪)","language_name":"bengali","language_id":20},"transliteration":{"text":null,"language_name":"english","language_id":38}}]},{"id":3027,"verse_number":95,"verse_key":"26:95","hizb_number":37,"rub_el_hizb_number":148,"ruku_number":320,"manzil_number":5,"sajdah_number":null,"page_number":371,"juz_number":19,"words":[{"id":69954,"position":1,"audio_url":"wbw/026_095_001.mp3","verse_key":"26:95","verse_id":3027,"location":"26:95:1","text_uthmani":"وَجُنُودُ","qpc_uthmani_hafs":"وَجُنُودُ","char_type_name":"word","page_number":371,"line_number":6,"text":"وَجُنُودُ","translation":{"text":"ও সৈন্যসামন্তদেরকে","language_name":"bengali","language_id":20},"transliteration":{"text":"wajunūdu","language_name":"english","language_id":38}},{"id":69955,"position":2,"audio_url":"wbw/026_095_002.mp3","verse_key":"26:95","verse_id":3027,"location":"26:95:2","text_uthmani":"إِبْلِيسَ","qpc_uthmani_hafs":"إِبۡلِيسَ","char_type_name":"word","page_number":371,"line_number":6,"text":"إِبۡلِيسَ","translation":{"text":"ইবলীসের","language_name":"bengali","language_id":20},"transliteration":{"text":"ib'līsa","language_name":"english","language_id":38}},{"id":69956,"position":3,"audio_url":"wbw/026_095_003.mp3","verse_key":"26:95","verse_id":3027,"location":"26:95:3","text_uthmani":"أَجْمَعُونَ","qpc_uthmani_hafs":"أَجۡمَعُونَ","char_type_name":"word","page_number":371,"line_number":7,"text":"أَجۡمَعُونَ","translation":{"text":"সবাইকে","language_name":"bengali","language_id":20},"transliteration":{"text":"ajmaʿūna","language_name":"english","language_id":38}},{"id":69957,"position":4,"audio_url":null,"verse_key":"26:95","verse_id":3027,"location":"26:95:4","text_uthmani":"٩٥","qpc_uthmani_hafs":"٩٥","char_type_name":"end","page_number":371,"line_number":7,"text":"٩٥","translation":{"text":"(৯৫)","language_name":"bengali","language_id":20},"transliteration":{"text":null,"language_name":"english","language_id":38}}]},{"id":3028,"verse_number":96,"verse_key":"26:96","hizb_number":37,"rub_el_hizb_number":148,"ruku_number":320,"manzil_number":5,"sajdah_number":null,"page_number":371,"juz_number":19,"words":[{"id":70054,"position":1,"audio_url":"wbw/026_096_001.mp3","verse_key":"26:96","verse_id":3028,"location":"26:96:1","text_uthmani":"قَالُوا۟","qpc_uthmani_hafs":"قَالُواْ","char_type_name":"word","page_number":371,"line_number":7,"text":"قَالُواْ","translation":{"text":"তারা বলবে","language_name":"bengali","language_id":20},"transliteration":{"text":"qālū","language_name":"english","language_id":38}},{"id":70055,"position":2,"audio_url":"wbw/026_096_002.mp3","verse_key":"26:96","verse_id":3028,"location":"26:96:2","text_uthmani":"وَهُمْ","qpc_uthmani_hafs":"وَهُمۡ","char_type_name":"word","page_number":371,"line_number":7,"text":"وَهُمۡ","translation":{"text":"এমতাবস্হায় যে তারা","language_name":"bengali","language_id":20},"transliteration":{"text":"wahum","language_name":"english","language_id":38}},{"id":70056,"position":3,"audio_url":"wbw/026_096_003.mp3","verse_key":"26:96","verse_id":3028,"location":"26:96:3","text_uthmani":"فِيهَا","qpc_uthmani_hafs":"فِيهَا","char_type_name":"word","page_number":371,"line_number":7,"text":"فِيهَا","translation":{"text":"মধ্যে তার","language_name":"bengali","language_id":20},"transliteration":{"text":"fīhā","language_name":"english","language_id":38}},{"id":70057,"position":4,"audio_url":"wbw/026_096_004.mp3","verse_key":"26:96","verse_id":3028,"location":"26:96:4","text_uthmani":"يَخْتَصِمُونَ","qpc_uthmani_hafs":"يَخۡتَصِمُونَ","char_type_name":"word","page_number":371,"line_number":7,"text":"يَخۡتَصِمُونَ","translation":{"text":"ঝগড়া করতে থাকবে","language_name":"bengali","language_id":20},"transliteration":{"text":"yakhtaṣimūna","language_name":"english","language_id":38}},{"id":70058,"position":5,"audio_url":null,"verse_key":"26:96","verse_id":3028,"location":"26:96:5","text_uthmani":"٩٦","qpc_uthmani_hafs":"٩٦","char_type_name":"end","page_number":371,"line_number":7,"text":"٩٦","translation":{"text":"(৯৬)","language_name":"bengali","language_id":20},"transliteration":{"text":null,"language_name":"english","language_id":38}}]},{"id":3029,"verse_number":97,"verse_key":"26:97","hizb_number":37,"rub_el_hizb_number":148,"ruku_number":320,"manzil_number":5,"sajdah_number":null,"page_number":371,"juz_number":19,"words":[{"id":70275,"position":1,"audio_url":"wbw/026_097_001.mp3","verse_key":"26:97","verse_id":3029,"location":"26:97:1","text_uthmani":"تَٱللَّهِ","qpc_uthmani_hafs":"تَٱللَّهِ","char_type_name":"word","page_number":371,"line_number":7,"text":"تَٱللَّهِ","translation":{"text":"\"শপথ আল্লাহর","language_name":"bengali","language_id":20},"transliteration":{"text":"tal-lahi","language_name":"english","language_id":38}},{"id":70276,"position":2,"audio_url":"wbw/026_097_002.mp3","verse_key":"26:97","verse_id":3029,"location":"26:97:2","text_uthmani":"إِن","qpc_uthmani_hafs":"إِن","char_type_name":"word","page_number":371,"line_number":7,"text":"إِن","translation":{"text":"নিশ্চয়ই","language_name":"bengali","language_id":20},"transliteration":{"text":"in","language_name":"english","language_id":38}},{"id":70277,"position":3,"audio_url":"wbw/026_097_003.mp3","verse_key":"26:97","verse_id":3029,"location":"26:97:3","text_uthmani":"كُنَّا","qpc_uthmani_hafs":"كُنَّا","char_type_name":"word","page_number":371,"line_number":7,"text":"كُنَّا","translation":{"text":"আমরা ছিলাম","language_name":"bengali","language_id":20},"transliteration":{"text":"kunnā","language_name":"english","language_id":38}},{"id":70278,"position":4,"audio_url":"wbw/026_097_004.mp3","verse_key":"26:97","verse_id":3029,"location":"26:97:4","text_uthmani":"لَفِى","qpc_uthmani_hafs":"لَفِي","char_type_name":"word","page_number":371,"line_number":7,"text":"لَفِي","translation":{"text":"অবশ্যই মধ্যে","language_name":"bengali","language_id":20},"transliteration":{"text":"lafī","language_name":"english","language_id":38}},{"id":70279,"position":5,"audio_url":"wbw/026_097_005.mp3","verse_key":"26:97","verse_id":3029,"location":"26:97:5","text_uthmani":"ضَلَـٰلٍۢ","qpc_uthmani_hafs":"ضَلَٰلٖ","char_type_name":"word","page_number":371,"line_number":8,"text":"ضَلَٰلٖ","translation":{"text":"বিভ্রান্তির","language_name":"bengali","language_id":20},"transliteration":{"text":"ḍalālin","language_name":"english","language_id":38}},{"id":70280,"position":6,"audio_url":"wbw/026_097_006.mp3","verse_key":"26:97","verse_id":3029,"location":"26:97:6","text_uthmani":"مُّبِينٍ","qpc_uthmani_hafs":"مُّبِينٍ","char_type_name":"word","page_number":371,"line_number":8,"text":"مُّبِينٍ","translation":{"text":"সুস্পষ্ট","language_name":"bengali","language_id":20},"transliteration":{"text":"mubīnin","language_name":"english","language_id":38}},{"id":70281,"position":7,"audio_url":null,"verse_key":"26:97","verse_id":3029,"location":"26:97:7","text_uthmani":"٩٧","qpc_uthmani_hafs":"٩٧","char_type_name":"end","page_number":371,"line_number":8,"text":"٩٧","translation":{"text":"(৯৭)","language_name":"bengali","language_id":20},"transliteration":{"text":null,"language_name":"english","language_id":38}}]},{"id":3030,"verse_number":98,"verse_key":"26:98","hizb_number":37,"rub_el_hizb_number":148,"ruku_number":320,"manzil_number":5,"sajdah_number":null,"page_number":371,"juz_number":19,"words":[{"id":70720,"position":1,"audio_url":"wbw/026_098_001.mp3","verse_key":"26:98","verse_id":3030,"location":"26:98:1","text_uthmani":"إِذْ","qpc_uthmani_hafs":"إِذۡ","char_type_name":"word","page_number":371,"line_number":8,"text":"إِذۡ","translation":{"text":"যখন","language_name":"bengali","language_id":20},"transliteration":{"text":"idh","language_name":"english","language_id":38}},{"id":70721,"position":2,"audio_url":"wbw/026_098_002.mp3","verse_key":"26:98","verse_id":3030,"location":"26:98:2","text_uthmani":"نُسَوِّيكُم","qpc_uthmani_hafs":"نُسَوِّيكُم","char_type_name":"word","page_number":371,"line_number":8,"text":"نُسَوِّيكُم","translation":{"text":"সমকক্ষ মনে করতাম আমরা তোমাদেরকে","language_name":"bengali","language_id":20},"transliteration":{"text":"nusawwīkum","language_name":"english","language_id":38}},{"id":70722,"position":3,"audio_url":"wbw/026_098_003.mp3","verse_key":"26:98","verse_id":3030,"location":"26:98:3","text_uthmani":"بِرَبِّ","qpc_uthmani_hafs":"بِرَبِّ","char_type_name":"word","page_number":371,"line_number":8,"text":"بِرَبِّ","translation":{"text":"সাথে রবের","language_name":"bengali","language_id":20},"transliteration":{"text":"birabbi","language_name":"english","language_id":38}},{"id":70723,"position":4,"audio_url":"wbw/026_098_004.mp3","verse_key":"26:98","verse_id":3030,"location":"26:98:4","text_uthmani":"ٱلْعَـٰلَمِينَ","qpc_uthmani_hafs":"ٱلۡعَٰلَمِينَ","char_type_name":"word","page_number":371,"line_number":8,"text":"ٱلۡعَٰلَمِينَ","translation":{"text":"বিশ্বজগতের","language_name":"bengali","language_id":20},"transliteration":{"text":"l-ʿālamīna","language_name":"english","language_id":38}},{"id":70724,"position":5,"audio_url":null,"verse_key":"26:98","verse_id":3030,"location":"26:98:5","text_uthmani":"٩٨","qpc_uthmani_hafs":"٩٨","char_type_name":"end","page_number":371,"line_number":8,"text":"٩٨","translation":{"text":"(৯৮)","language_name":"bengali","language_id":20},"transliteration":{"text":null,"language_name":"english","language_id":38}}]},{"id":3031,"verse_number":99,"verse_key":"26:99","hizb_number":37,"rub_el_hizb_number":148,"ruku_number":320,"manzil_number":5,"sajdah_number":null,"page_number":371,"juz_number":19,"words":[{"id":70976,"position":1,"audio_url":"wbw/026_099_001.mp3","verse_key":"26:99","verse_id":3031,"location":"26:99:1","text_uthmani":"وَمَآ","qpc_uthmani_hafs":"وَمَآ","char_type_name":"word","page_number":371,"line_number":8,"text":"وَمَآ","translation":{"text":"এবং না","language_name":"bengali","language_id":20},"transliteration":{"text":"wamā","language_name":"english","language_id":38}},{"id":70977,"position":2,"audio_url":"wbw/026_099_002.mp3","verse_key":"26:99","verse_id":3031,"location":"26:99:2","text_uthmani":"أَضَلَّنَآ","qpc_uthmani_hafs":"أَضَلَّنَآ","char_type_name":"word","page_number":371,"line_number":8,"text":"أَضَلَّنَآ","translation":{"text":"পথ ভ্রষ্ট করেছে আমাদেরকে","language_name":"bengali","language_id":20},"transliteration":{"text":"aḍallanā","language_name":"english","language_id":38}},{"id":70978,"position":3,"audio_url":"wbw/026_099_003.mp3","verse_key":"26:99","verse_id":3031,"location":"26:99:3","text_uthmani":"إِلَّا","qpc_uthmani_hafs":"إِلَّا","char_type_name":"word","page_number":371,"line_number":8,"text":"إِلَّا","translation":{"text":"(অন্য কেউ) এ ছাড়া","language_name":"bengali","language_id":20},"transliteration":{"text":"illā","language_name":"english","language_id":38}},{"id":70979,"position":4,"audio_url":"wbw/026_099_004.mp3","verse_key":"26:99","verse_id":3031,"location":"26:99:4","text_uthmani":"ٱلْمُجْرِمُونَ","qpc_uthmani_hafs":"ٱلۡمُجۡرِمُونَ","char_type_name":"word","page_number":371,"line_number":9,"text":"ٱلۡمُجۡرِمُونَ","translation":{"text":"অপরাধীরা","language_name":"bengali","language_id":20},"transliteration":{"text":"l-muj'rimūna","language_name":"english","language_id":38}},{"id":70980,"position":5,"audio_url":null,"verse_key":"26:99","verse_id":3031,"location":"26:99:5","text_uthmani":"٩٩","qpc_uthmani_hafs":"٩٩","char_type_name":"end","page_number":371,"line_number":9,"text":"٩٩","translation":{"text":"(৯৯)","language_name":"bengali","language_id":20},"transliteration":{"text":null,"language_name":"english","language_id":38}}]},{"id":3032,"verse_number":100,"verse_key":"26:100","hizb_number":37,"rub_el_hizb_number":148,"ruku_number":320,"manzil_number":5,"sajdah_number":null,"page_number":371,"juz_number":19,"words":[{"id":71216,"position":1,"audio_url":"wbw/026_100_001.mp3","verse_key":"26:100","verse_id":3032,"location":"26:100:1","text_uthmani":"فَمَا","qpc_uthmani_hafs":"فَمَا","char_type_name":"word","page_number":371,"line_number":9,"text":"فَمَا","translation":{"text":"সুতরাং (আজ) নেই","language_name":"bengali","language_id":20},"transliteration":{"text":"famā","language_name":"english","language_id":38}},{"id":71217,"position":2,"audio_url":"wbw/026_100_002.mp3","verse_key":"26:100","verse_id":3032,"location":"26:100:2","text_uthmani":"لَنَا","qpc_uthmani_hafs":"لَنَا","char_type_name":"word","page_number":371,"line_number":9,"text":"لَنَا","translation":{"text":"জন্যে আমাদের","language_name":"bengali","language_id":20},"transliteration":{"text":"lanā","language_name":"english","language_id":38}},{"id":71218,"position":3,"audio_url":"wbw/026_100_003.mp3","verse_key":"26:100","verse_id":3032,"location":"26:100:3","text_uthmani":"مِن","qpc_uthmani_hafs":"مِن","char_type_name":"word","page_number":371,"line_number":9,"text":"مِن","translation":{"text":"(কেউ) মধ্যে হ'তে","language_name":"bengali","language_id":20},"transliteration":{"text":"min","language_name":"english","language_id":38}},{"id":71219,"position":4,"audio_url":"wbw/026_100_004.mp3","verse_key":"26:100","verse_id":3032,"location":"26:100:4","text_uthmani":"شَـٰفِعِينَ","qpc_uthmani_hafs":"شَٰفِعِينَ","char_type_name":"word","page_number":371,"line_number":9,"text":"شَٰفِعِينَ","translation":{"text":"সুপারিশকারীদের","language_name":"bengali","language_id":20},"transliteration":{"text":"shāfiʿīna","language_name":"english","language_id":38}},{"id":71220,"position":5,"audio_url":null,"verse_key":"26:100","verse_id":3032,"location":"26:100:5","text_uthmani":"١٠٠","qpc_uthmani_hafs":"١٠٠","char_type_name":"end","page_number":371,"line_number":9,"text":"١٠٠","translation":{"text":"(১০০)","language_name":"bengali","language_id":20},"transliteration":{"text":null,"language_name":"english","language_id":38}}]}],"pagination":{"per_page":10,"current_page":10,"next_page":11,"total_pages":23,"total_records":227}}
