{"verses":[{"id":3033,"verse_number":101,"verse_key":"26:101","hizb_number":37,"rub_el_hizb_number":148,"ruku_number":320,"manzil_number":5,"sajdah_number":null,"page_number":371,"juz_number":19,"words":[{"id":71469,"position":1,"audio_url":"wbw/026_101_001.mp3","char_type_name":"word","page_number":371,"line_number":9,"text":"وَلَا","translation":{"text":"আর না (আছে)","language_name":"bengali","language_id":20},"transliteration":{"text":"walā","language_name":"english","language_id":38}},{"id":71470,"position":2,"audio_url":"wbw/026_101_002.mp3","char_type_name":"word","page_number":371,"line_number":9,"text":"صَدِيقٍ","translation":{"text":"কোনো বন্ধু","language_name":"bengali","language_id":20},"transliteration":{"text":"ṣadīqin","language_name":"english","language_id":38}},{"id":71471,"position":3,"audio_url":"wbw/026_101_003.mp3","char_type_name":"word","page_number":371,"line_number":9,"text":"حَمِيمٍۢ","translation":{"text":"সহৃদয়","language_name":"bengali","language_id":20},"transliteration":{"text":"ḥamīmin","language_name":"english","language_id":38}},{"id":71472,"position":4,"audio_url":null,"char_type_name":"end","page_number":371,"line_number":9,"text":"١٠١","translation":{"text":"(১০১)","language_name":"bengali","language_id":20},"transliteration":{"text":null,"language_name":"english","language_id":38}}]},{"id":3034,"verse_number":102,"verse_key":"26:102","hizb_number":37,"rub_el_hizb_number":148,"ruku_number":320,"manzil_number":5,"sajdah_number":null,"page_number":371,"juz_number":19,"words":[{"id":71853,"position":1,"audio_url":"wbw/026_102_001.mp3","char_type_name":"word","page_number":371,"line_number":9,"text":"فَلَوْ","translation":{"text":"অতএব যদি (থাকতো)","language_name":"bengali","language_id":20},"transliteration":{"text":"falaw","language_name":"english","language_id":38}},{"id":71854,"position":2,"audio_url":"wbw/026_102_002.mp3","char_type_name":"word","page_number":371,"line_number":10,"text":"أَنَّ","translation":{"text":"নিশ্চিত","language_name":"bengali","language_id":20},"transliteration":{"text":"anna","language_name":"english","language_id":38}},{"id":71855,"position":3,"audio_url":"wbw/026_102_003.mp3","char_type_name":"word","page_number":371,"line_number":10,"text":"لَنَا","translation":{"text":"জন্যে আমাদের (সম্ভব হতো)","language_name":"bengali","language_id":20},"transliteration":{"text":"lanā","language_name":"english","language_id":38}},{"id":71856,"position":4,"audio_url":"wbw/026_102_004.mp3","char_type_name":"word","page_number":371,"line_number":10,"text":"كَرَّةًۭ","translation":{"text":"একবার (ফিরে যাওয়া)","language_name":"bengali","language_id":20},"transliteration":{"text":"karratan","language_name":"english","language_id":38}},{"id":71857,"position":5,"audio_url":"wbw/026_102_005.mp3","char_type_name":"word","page_number":371,"line_number":10,"text":"فَنَكُونَ","translation":{"text":"তবে আমরা হতাম","language_name":"bengali","language_id":20},"transliteration":{"text":"fanakūna","language_name":"english","language_id":38}},{"id":71858,"position":6,"audio_url":"wbw/026_102_006.mp3","char_type_name":"word","page_number":371,"line_number":10,"text":"مِنَ","translation":{"text":"অন্তর্ভুক্ত","language_name":"bengali","language_id":20},"transliteration":{"text":"mina","language_name":"english","language_id":38}},{"id":71859,"position":7,"audio_url":"wbw/026_102_007.mp3","char_type_name":"word","page_number":371,"line_number":10,"text":"ٱلْمُؤْمِنِينَ","translation":{"text":"মু'মিনদের\"","language_name":"bengali","language_id":20},"transliteration":{"text":"l-mu'minīna","language_name":"english","language_id":38}},{"id":71860,"position":8,"audio_url":null,"char_type_name":"end","page_number":371,"line_number":10,"text":"١٠٢","translation":{"text":"(১০২)","language_name":"bengali","language_id":20},"transliteration":{"text":null,"language_name":"english","language_id":38}}]},{"id":3035,"verse_number":103,"verse_key":"26:103","hizb_number":37,"rub_el_hizb_number":148,"ruku_number":320,"manzil_number":5,"sajdah_number":null,"page_number":371,"juz_number":19,"words":[{"id":72261,"position":1,"audio_url":"wbw/026_103_001.mp3","char_type_name":"word","page_number":371,"line_number":10,"text":"إِنَّ","translation":{"text":"নিশ্চয়ই","language_name":"bengali","language_id":20},"transliteration":{"text":"inna","language_name":"english","language_id":38}},{"id":72262,"position":2,"audio_url":"wbw/026_103_002.mp3","char_type_name":"word","page_number":371,"line_number":10,"text":"فِى","translation":{"text":"মধ্যে (আছে)","language_name":"bengali","language_id":20},"transliteration":{"text":"fī","language_name":"english","language_id":38}},{"id":72263,"position":3,"audio_url":"wbw/026_103_003.mp3","char_type_name":"word","page_number":371,"line_number":10,"text":"ذَٰلِكَ","translation":{"text":"এর","language_name":"bengali","language_id":20},"transliteration":{"text":"dhālika","language_name":"english","language_id":38}},{"id":72264,"position":4,"audio_url":"wbw/026_103_004.mp3","char_type_name":"word","page_number":371,"line_number":10,"text":"لَـَٔايَةًۭ ۖ","translation":{"text":"অবশ্যই নিদর্শন","language_name":"bengali","language_id":20},"transliteration":{"text":"laāyatan","language_name":"english","language_id":38}},{"id":72266,"position":5,"audio_url":"wbw/026_103_006.mp3","char_type_name":"word","page_number":371,"line_number":10,"text":"وَمَا","translation":{"text":"কিন্তু না","language_name":"bengali","language_id":20},"transliteration":{"text":"wamā","language_name":"english","language_id":38}},{"id":72267,"position":6,"audio_url":"wbw/026_103_007.mp3","char_type_name":"word","page_number":371,"line_number":10,"text":"كَانَ","translation":{"text":"ছিলো","language_name":"bengali","language_id":20},"transliteration":{"text":"kāna","language_name":"english","language_id":38}},{"id":72268,"position":7,"audio_url":"wbw/026_103_008.mp3","char_type_name":"word","page_number":371,"line_number":11,"text":"أَكْثَرُهُم","translation":{"text":"অধিকাংশ তাদের","language_name":"bengali","language_id":20},"transliteration":{"text":"aktharuhum","language_name":"english","language_id":38}},{"id":72269,"position":8,"audio_url":"wbw/026_103_009.mp3","char_type_name":"word","page_number":371,"line_number":11,"text":"مُّؤْمِنِينَ","translation":{"text":"মু'মিন","language_name":"bengali","language_id":20},"transliteration":{"text":"mu'minīna","language_name":"english","language_id":38}},{"id":72270,"position":9,"audio_url":null,"char_type_name":"end","page_number":371,"line_number":11,"text":"١٠٣","translation":{"text":"(১০৩)","language_name":"bengali","language_id":20},"transliteration":{"text":null,"language_name":"english","language_id":38}}]},{"id":3036,"verse_number":104,"verse_key":"26:104","hizb_number":37,"rub_el_hizb_number":148,"ruku_number":320,"manzil_number":5,"sajdah_number":null,"page_number":371,"juz_number":19,"words":[{"id":72552,"position":1,"audio_url":"wbw/026_104_001.mp3","char_type_name":"word","page_number":371,"line_number":11,"text":"وَإِنَّ","translation":{"text":"এবং নিশ্চয়ই","language_name":"bengali","language_id":20},"transliteration":{"text":"wa-inna","language_name":"english","language_id":38}},{"id":72553,"position":2,"audio_url":"wbw/026_104_002.mp3","char_type_name":"word","page_number":371,"line_number":11,"text":"رَبَّكَ","translation":{"text":"তোমার রব","language_name":"bengali","language_id":20},"transliteration":{"text":"rabbaka","language_name":"english","language_id":38}},{"id":72554,"position":3,"audio_url":"wbw/026_104_003.mp3","char_type_name":"word","page_number":371,"line_number":11,"text":"لَهُوَ","translation":{"text":"অবশ্যই তিনি","language_name":"bengali","language_id":20},"transliteration":{"text":"lahuwa","language_name":"english","language_id":38}},{"id":72555,"position":4,"audio_url":"wbw/026_104_004.mp3","char_type_name":"word","page_number":371,"line_number":11,"text":"ٱلْعَزِيزُ","translation":{"text":"পরাক্রমশালী","language_name":"bengali","language_id":20},"transliteration":{"text":"l-ʿazīzu","language_name":"english","language_id":38}},{"id":72556,"position":5,"audio_url":"wbw/026_104_005.mp3","char_type_name":"word","page_number":371,"line_number":11,"text":"ٱلرَّحِيمُ","translation":{"text":"পরম দয়ালু","language_name":"bengali","language_id":20},"transliteration":{"text":"l-raḥīmu","language_name":"english","language_id":38}},{"id":72557,"position":6,"audio_url":null,"char_type_name":"end","page_number":371,"line_number":11,"text":"١٠٤","translation":{"text":"(১০৪)","language_name":"bengali","language_id":20},"transliteration":{"text":null,"language_name":"english","language_id":38}}]},{"id":3037,"verse_number":105,"verse_key":"26:105","hizb_number":37,"rub_el_hizb_number":148,"ruku_number":321,"manzil_number":5,"sajdah_number":null,"page_number":371,"juz_number":19,"words":[{"id":72689,"position":1,"audio_url":"wbw/026_105_001.mp3","char_type_name":"word","page_number":371,"line_number":11,"text":"كَذَّبَتْ","translation":{"text":"মিথ্যারোপ করেছিলো","language_name":"bengali","language_id":20},"transliteration":{"text":"kadhabat","language_name":"english","language_id":38}},{"id":72690,"position":2,"audio_url":"wbw/026_105_002.mp3","char_type_name":"word","page_number":371,"line_number":12,"text":"قَوْمُ","translation":{"text":"জাতি","language_name":"bengali","language_id":20},"transliteration":{"text":"qawmu","language_name":"english","language_id":38}},{"id":72691,"position":3,"audio_url":"wbw/026_105_003.mp3","char_type_name":"word","page_number":371,"line_number":12,"text":"نُوحٍ","translation":{"text":"নূহের","language_name":"bengali","language_id":20},"transliteration":{"text":"nūḥin","language_name":"english","language_id":38}},{"id":72692,"position":4,"audio_url":"wbw/026_105_004.mp3","char_type_name":"word","page_number":371,"line_number":12,"text":"ٱلْمُرْسَلِينَ","translation":{"text":"রাসূলদেরকে","language_name":"bengali","language_id":20},"transliteration":{"text":"l-mur'salīna","language_name":"english","language_id":38}},{"id":72693,"position":5,"audio_url":null,"char_type_name":"end","page_number":371,"line_number":12,"text":"١٠٥","translation":{"text":"(১০৫)","language_name":"bengali","language_id":20},"transliteration":{"text":null,"language_name":"english","language_id":38}}]},{"id":3038,"verse_number":106,"verse_key":"26:106","hizb_number":37,"rub_el_hizb_number":148,"ruku_number":321,"manzil_number":5,"sajdah_number":null,"page_number":371,"juz_number":19,"words":[{"id":73058,"position":1,"audio_url":"wbw/026_106_001.mp3","char_type_name":"word","page_number":371,"line_number":12,"text":"إِذْ","translation":{"text":"(স্মরণ করো) যখন","language_name":"bengali","language_id":20},"transliteration":{"text":"idh","language_name":"english","language_id":38}},{"id":73059,"position":2,"audio_url":"wbw/026_106_002.mp3","char_type_name":"word","page_number":371,"line_number":12,"text":"قَالَ","translation":{"text":"বলেছিলো","language_name":"bengali","language_id":20},"transliteration":{"text":"qāla","language_name":"english","language_id":38}},{"id":73060,"position":3,"audio_url":"wbw/026_106_003.mp3","char_type_name":"word","page_number":371,"line_number":12,"text":"لَهُمْ","translation":{"text":"উদ্দেশ্যে তাদের","language_name":"bengali","language_id":20},"transliteration":{"text":"lahum","language_name":"english","language_id":38}},{"id":73061,"position":4,"audio_url":"wbw/026_106_004.mp3","char_type_name":"word","page_number":371,"line_number":12,"text":"أَخُوهُمْ","translation":{"text":"ভাই তাদের","language_name":"bengali","language_id":20},"transliteration":{"text":"akhūhum","language_name":"english","language_id":38}},{"id":73062,"position":5,"audio_url":"wbw/026_106_005.mp3","char_type_name":"word","page_number":371,"line_number":12,"text":"نُوحٌ","translation":{"text":"নূহ","language_name":"bengali","language_id":20},"transliteration":{"text":"nūḥun","language_name":"english","language_id":38}},{"id":73063,"position":6,"audio_url":"wbw/026_106_006.mp3","char_type_name":"word","page_number":371,"line_number":12,"text":"أَلَا","translation":{"text":"\"কি না","language_name":"bengali","language_id":20},"transliteration":{"text":"alā","language_name":"english","language_id":38}},{"id":73064,"position":7,"audio_url":"wbw/026_106_007.mp3","char_type_name":"word","page_number":371,"line_number":12,"text":"تَتَّقُونَ","translation":{"text":"তোমরা ভয় করো","language_name":"bengali","language_id":20},"transliteration":{"text":"tattaqūna","language_name":"english","language_id":38}},{"id":73065,"position":8,"audio_url":null,"char_type_name":"end","page_number":371,"line_number":12,"text":"١٠٦","translation":{"text":"(১০৬)","language_name":"bengali","language_id":20},"transliteration":{"text":null,"language_name":"english","language_id":38}}]},{"id":3039,"verse_number":107,"verse_key":"26:107","hizb_number":37,"rub_el_hizb_number":148,"ruku_number":321,"manzil_number":5,"sajdah_number":null,"page_number":371,"juz_number":19,"words":[{"id":73283,"position":1,"audio_url":"wbw/026_107_001.mp3","char_type_name":"word","page_number":371,"line_number":13,"text":"إِنِّى","translation":{"text":"নিশ্চয়ই আমি","language_name":"bengali","language_id":20},"transliteration":{"text":"innī","language_name":"english","language_id":38}},{"id":73284,"position":2,"audio_url":"wbw/026_107_002.mp3","char_type_name":"word","page_number":371,"line_number":13,"text":"لَكُمْ","translation":{"text":"জন্যে তোমাদের","language_name":"bengali","language_id":20},"transliteration":{"text":"lakum","language_name":"english","language_id":38}},{"id":73285,"position":3,"audio_url":"wbw/026_107_003.mp3","char_type_name":"word","page_number":371,"line_number":13,"text":"رَسُولٌ","translation":{"text":"একজন রাসূল","language_name":"bengali","language_id":20},"transliteration":{"text":"rasūlun","language_name":"english","language_id":38}},{"id":73286,"position":4,"audio_url":"wbw/026_107_004.mp3","char_type_name":"word","page_number":371,"line_number":13,"text":"أَمِينٌۭ","translation":{"text":"বিশ্বস্ত","language_name":"bengali","language_id":20},"transliteration":{"text":"amīnun","language_name":"english","language_id":38}},{"id":73287,"position":5,"audio_url":null,"char_type_name":"end","page_number":371,"line_number":13,"text":"١٠٧","translation":{"text":"(১০৭)","language_name":"bengali","language_id":20},"transliteration":{"text":null,"language_name":"english","language_id":38}}]},{"id":3040,"verse_number":108,"verse_key":"26:108","hizb_number":37,"rub_el_hizb_number":148,"ruku_number":321,"manzil_number":5,"sajdah_number":null,"page_number":371,"juz_number":19,"words":[{"id":73652,"position":1,"audio_url":"wbw/026_108_001.mp3","char_type_name":"word","page_number":371,"line_number":13,"text":"فَٱتَّقُوا۟","translation":{"text":"অতএব তোমরা ভয় করো","language_name":"bengali","language_id":20},"transliteration":{"text":"fa-ittaqū","language_name":"english","language_id":38}},{"id":73653,"position":2,"audio_url":"wbw/026_108_002.mp3","char_type_name":"word","page_number":371,"line_number":13,"text":"ٱللَّهَ","translation":{"text":"আল্লাহকে","language_name":"bengali","language_id":20},"transliteration":{"text":"l-laha","language_name":"english","language_id":38}},{"id":73654,"position":3,"audio_url":"wbw/026_108_003.mp3","char_type_name":"word","page_number":371,"line_number":13,"text":"وَأَطِيعُونِ","translation":{"text":"ও আমার আনুগত্য করো","language_name":"bengali","language_id":20},"transliteration":{"text":"wa-aṭīʿūni","language_name":"english","language_id":38}},{"id":73655,"position":4,"audio_url":null,"char_type_name":"end","page_number":371,"line_number":13,"text":"١٠٨","translation":{"text":"(১০৮)","language_name":"bengali","language_id":20},"transliteration":{"text":null,"language_name":"english","language_id":38}}]},{"id":3041,"verse_number":109,"verse_key":"26:109","hizb_number":37,"rub_el_hizb_number":148,"ruku_number":321,"manzil_number":5,"sajdah_number":null,"page_number":371,"juz_number":19,"words":[{"id":73996,"position":1,"audio_url":"wbw/026_109_001.mp3","char_type_name":"word","page_number":371,"line_number":13,"text":"وَمَآ","translation":{"text":"আর না","language_name":"bengali","language_id":20},"transliteration":{"text":"wamā","language_name":"english","language_id":38}},{"id":73997,"position":2,"audio_url":"wbw/026_109_002.mp3","char_type_name":"word","page_number":371,"line_number":13,"text":"أَسْـَٔلُكُمْ","translation":{"text":"আমি চাচ্ছি তোমাদের (নিকট)","language_name":"bengali","language_id":20},"transliteration":{"text":"asalukum","language_name":"english","language_id":38}},{"id":73998,"position":3,"audio_url":"wbw/026_109_003.mp3","char_type_name":"word","page_number":371,"line_number":14,"text":"عَلَيْهِ","translation":{"text":"জন্যে এর","language_name":"bengali","language_id":20},"transliteration":{"text":"ʿalayhi","language_name":"english","language_id":38}},{"id":73999,"position":4,"audio_url":"wbw/026_109_004.mp3","char_type_name":"word","page_number":371,"line_number":14,"text":"مِنْ","translation":{"text":"কোনো","language_name":"bengali","language_id":20},"transliteration":{"text":"min","language_name":"english","language_id":38}},{"id":74000,"position":5,"audio_url":"wbw/026_109_005.mp3","char_type_name":"word","page_number":371,"line_number":14,"text":"أَجْرٍ ۖ","translation":{"text":"প্রতিদান","language_name":"bengali","language_id":20},"transliteration":{"text":"ajrin","language_name":"english","language_id":38}},{"id":74002,"position":6,"audio_url":"wbw/026_109_007.mp3","char_type_name":"word","page_number":371,"line_number":14,"text":"إِنْ","translation":{"text":"নেই","language_name":"bengali","language_id":20},"transliteration":{"text":"in","language_name":"english","language_id":38}},{"id":74003,"position":7,"audio_url":"wbw/026_109_008.mp3","char_type_name":"word","page_number":371,"line_number":14,"text":"أَجْرِىَ","translation":{"text":"আমার প্রতিদান (অন্য কারো নিকট)","language_name":"bengali","language_id":20},"transliteration":{"text":"ajriya","language_name":"english","language_id":38}},{"id":74004,"position":8,"audio_url":"wbw/026_109_009.mp3","char_type_name":"word","page_number":371,"line_number":14,"text":"إِلَّا","translation":{"text":"এ ছাড়া","language_name":"bengali","language_id":20},"transliteration":{"text":"illā","language_name":"english","language_id":38}},{"id":74005,"position":9,"audio_url":"wbw/026_109_010.mp3","char_type_name":"word","page_number":371,"line_number":14,"text":"عَلَىٰ","translation":{"text":"নিকট","language_name":"bengali","language_id":20},"transliteration":{"text":"ʿalā","language_name":"english","language_id":38}},{"id":74006,"position":10,"audio_url":"wbw/026_109_011.mp3","char_type_name":"word","page_number":371,"line_number":14,"text":"رَبِّ","translation":{"text":"রবের","language_name":"bengali","language_id":20},"transliteration":{"text":"rabbi","language_name":"english","language_id":38}},{"id":74007,"position":11,"audio_url":"wbw/026_109_012.mp3","char_type_name":"word","page_number":371,"line_number":14,"text":"ٱلْعَـٰلَمِينَ","translation":{"text":"বিশ্বজগতের","language_name":"bengali","language_id":20},"transliteration":{"text":"l-ʿālamīna","language_name":"english","language_id":38}},{"id":74008,"position":12,"audio_url":null,"char_type_name":"end","page_number":371,"line_number":14,"text":"١٠٩","translation":{"text":"(১০৯)","language_name":"bengali","language_id":20},"transliteration":{"text":null,"language_name":"english","language_id":38}}]},{"id":3042,"verse_number":110,"verse_key":"26:110","hizb_number":37,"rub_el_hizb_number":148,"ruku_number":321,"manzil_number":5,"sajdah_number":null,"page_number":371,"juz_number":19,"words":[{"id":74197,"position":1,"audio_url":"wbw/026_110_001.mp3","char_type_name":"word","page_number":371,"line_number":14,"text":"فَٱتَّقُوا۟","translation":{"text":"সুতরাং তোমরা ভয় করো","language_name":"bengali","language_id":20},"transliteration":{"text":"fa-ittaqū","language_name":"english","language_id":38}},{"id":74198,"position":2,"audio_url":"wbw/026_110_002.mp3","char_type_name":"word","page_number":371,"line_number":14,"text":"ٱللَّهَ","translation":{"text":"আল্লাহকে","language_name":"bengali","language_id":20},"transliteration":{"text":"l-laha","language_name":"english","language_id":38}},{"id":74199,"position":3,"audio_url":"wbw/026_110_003.mp3","char_type_name":"word","page_number":371,"line_number":15,"text":"وَأَطِيعُونِ","translation":{"text":"ও তোমরা আমার আনুগত্য করো\"","language_name":"bengali","language_id":20},"transliteration":{"text":"wa-aṭīʿūni","language_name":"english","language_id":38}},{"id":74200,"position":4,"audio_url":null,"char_type_name":"end","page_number":371,"line_number":15,"text":"١١٠","translation":{"text":"(১১০)","language_name":"bengali","language_id":20},"transliteration":{"text":null,"language_name":"english","language_id":38}}]}],"pagination":{"per_page":10,"current_page":11,"next_page":12,"total_pages":23,"total_records":227}}
