{"verses":[{"id":3043,"verse_number":111,"verse_key":"26:111","hizb_number":38,"rub_el_hizb_number":149,"ruku_number":321,"manzil_number":5,"sajdah_number":null,"page_number":371,"juz_number":19,"words":[{"id":74386,"position":1,"audio_url":"wbw/026_111_002.mp3","char_type_name":"word","page_number":371,"line_number":15,"text":"۞ قَالُوٓا۟","translation":{"text":"তারা বললো","language_name":"bengali","language_id":20},"transliteration":{"text":"qālū","language_name":"english","language_id":38}},{"id":74387,"position":2,"audio_url":"wbw/026_111_003.mp3","char_type_name":"word","page_number":371,"line_number":15,"text":"أَنُؤْمِنُ","translation":{"text":"\"কি আমরা ঈমান আনবো","language_name":"bengali","language_id":20},"transliteration":{"text":"anu'minu","language_name":"english","language_id":38}},{"id":74388,"position":3,"audio_url":"wbw/026_111_004.mp3","char_type_name":"word","page_number":371,"line_number":15,"text":"لَكَ","translation":{"text":"প্রতি তোমার","language_name":"bengali","language_id":20},"transliteration":{"text":"laka","language_name":"english","language_id":38}},{"id":74389,"position":4,"audio_url":"wbw/026_111_005.mp3","char_type_name":"word","page_number":371,"line_number":15,"text":"وَٱتَّبَعَكَ","translation":{"text":"অথচ তোমাকে অনুসরণ করেছে","language_name":"bengali","language_id":20},"transliteration":{"text":"wa-ittabaʿaka","language_name":"english","language_id":38}},{"id":74390,"position":5,"audio_url":"wbw/026_111_006.mp3","char_type_name":"word","page_number":371,"line_number":15,"text":"ٱلْأَرْذَلُونَ","translation":{"text":"নিকৃষ্টতম লোকেরা\"","language_name":"bengali","language_id":20},"transliteration":{"text":"l-ardhalūna","language_name":"english","language_id":38}},{"id":74391,"position":6,"audio_url":null,"char_type_name":"end","page_number":371,"line_number":15,"text":"١١١","translation":{"text":"(১১১)","language_name":"bengali","language_id":20},"transliteration":{"text":null,"language_name":"english","language_id":38}}]},{"id":3044,"verse_number":112,"verse_key":"26:112","hizb_number":38,"rub_el_hizb_number":149,"ruku_number":321,"manzil_number":5,"sajdah_number":null,"page_number":372,"juz_number":19,"words":[{"id":74737,"position":1,"audio_url":"wbw/026_112_001.mp3","char_type_name":"word","page_number":372,"line_number":1,"text":"قَالَ","translation":{"text":"(নূহ) বললো","language_name":"bengali","language_id":20},"transliteration":{"text":"qāla","language_name":"english","language_id":38}},{"id":74738,"position":2,"audio_url":"wbw/026_112_002.mp3","char_type_name":"word","page_number":372,"line_number":1,"text":"وَمَا","translation":{"text":"\"আর নেই","language_name":"bengali","language_id":20},"transliteration":{"text":"wamā","language_name":"english","language_id":38}},{"id":74739,"position":3,"audio_url":"wbw/026_112_003.mp3","char_type_name":"word","page_number":372,"line_number":1,"text":"عِلْمِى","translation":{"text":"আমার জানা","language_name":"bengali","language_id":20},"transliteration":{"text":"ʿil'mī","language_name":"english","language_id":38}},{"id":74740,"position":4,"audio_url":"wbw/026_112_004.mp3","char_type_name":"word","page_number":372,"line_number":1,"text":"بِمَا","translation":{"text":"ঐ বিষয়ে যা","language_name":"bengali","language_id":20},"transliteration":{"text":"bimā","language_name":"english","language_id":38}},{"id":74741,"position":5,"audio_url":"wbw/026_112_005.mp3","char_type_name":"word","page_number":372,"line_number":1,"text":"كَانُوا۟","translation":{"text":"তারা ছিলো","language_name":"bengali","language_id":20},"transliteration":{"text":"kānū","language_name":"english","language_id":38}},{"id":74742,"position":6,"audio_url":"wbw/026_112_006.mp3","char_type_name":"word","page_number":372,"line_number":1,"text":"يَعْمَلُونَ","translation":{"text":"তারা কাজ করে","language_name":"bengali","language_id":20},"transliteration":{"text":"yaʿmalūna","language_name":"english","language_id":38}},{"id":74743,"position":7,"audio_url":null,"char_type_name":"end","page_number":372,"line_number":1,"text":"١١٢","translation":{"text":"(১১২)","language_name":"bengali","language_id":20},"transliteration":{"text":null,"language_name":"english","language_id":38}}]},{"id":3045,"verse_number":113,"verse_key":"26:113","hizb_number":38,"rub_el_hizb_number":149,"ruku_number":321,"manzil_number":5,"sajdah_number":null,"page_number":372,"juz_number":19,"words":[{"id":74833,"position":1,"audio_url":"wbw/026_113_001.mp3","char_type_name":"word","page_number":372,"line_number":1,"text":"إِنْ","translation":{"text":"নয়","language_name":"bengali","language_id":20},"transliteration":{"text":"in","language_name":"english","language_id":38}},{"id":74834,"position":2,"audio_url":"wbw/026_113_002.mp3","char_type_name":"word","page_number":372,"line_number":1,"text":"حِسَابُهُمْ","translation":{"text":"তাদের হিসাব (অন্য কারো নিকট)","language_name":"bengali","language_id":20},"transliteration":{"text":"ḥisābuhum","language_name":"english","language_id":38}},{"id":74835,"position":3,"audio_url":"wbw/026_113_003.mp3","char_type_name":"word","page_number":372,"line_number":1,"text":"إِلَّا","translation":{"text":"এ ছাড়া","language_name":"bengali","language_id":20},"transliteration":{"text":"illā","language_name":"english","language_id":38}},{"id":74836,"position":4,"audio_url":"wbw/026_113_004.mp3","char_type_name":"word","page_number":372,"line_number":1,"text":"عَلَىٰ","translation":{"text":"উপর (দায়িত্ব)","language_name":"bengali","language_id":20},"transliteration":{"text":"ʿalā","language_name":"english","language_id":38}},{"id":74837,"position":5,"audio_url":"wbw/026_113_005.mp3","char_type_name":"word","page_number":372,"line_number":1,"text":"رَبِّى ۖ","translation":{"text":"আমার রবের","language_name":"bengali","language_id":20},"transliteration":{"text":"rabbī","language_name":"english","language_id":38}},{"id":74839,"position":6,"audio_url":"wbw/026_113_007.mp3","char_type_name":"word","page_number":372,"line_number":2,"text":"لَوْ","translation":{"text":"যদি","language_name":"bengali","language_id":20},"transliteration":{"text":"law","language_name":"english","language_id":38}},{"id":74840,"position":7,"audio_url":"wbw/026_113_008.mp3","char_type_name":"word","page_number":372,"line_number":2,"text":"تَشْعُرُونَ","translation":{"text":"তোমরা অনুভব করো","language_name":"bengali","language_id":20},"transliteration":{"text":"tashʿurūna","language_name":"english","language_id":38}},{"id":74841,"position":8,"audio_url":null,"char_type_name":"end","page_number":372,"line_number":2,"text":"١١٣","translation":{"text":"(১১৩)","language_name":"bengali","language_id":20},"transliteration":{"text":null,"language_name":"english","language_id":38}}]},{"id":3046,"verse_number":114,"verse_key":"26:114","hizb_number":38,"rub_el_hizb_number":149,"ruku_number":321,"manzil_number":5,"sajdah_number":null,"page_number":372,"juz_number":19,"words":[{"id":75111,"position":1,"audio_url":"wbw/026_114_001.mp3","char_type_name":"word","page_number":372,"line_number":2,"text":"وَمَآ","translation":{"text":"আর না","language_name":"bengali","language_id":20},"transliteration":{"text":"wamā","language_name":"english","language_id":38}},{"id":75112,"position":2,"audio_url":"wbw/026_114_002.mp3","char_type_name":"word","page_number":372,"line_number":2,"text":"أَنَا۠","translation":{"text":"আমি (হ'তে পারি)","language_name":"bengali","language_id":20},"transliteration":{"text":"anā","language_name":"english","language_id":38}},{"id":75113,"position":3,"audio_url":"wbw/026_114_003.mp3","char_type_name":"word","page_number":372,"line_number":2,"text":"بِطَارِدِ","translation":{"text":"বিতাড়নকারী","language_name":"bengali","language_id":20},"transliteration":{"text":"biṭāridi","language_name":"english","language_id":38}},{"id":75114,"position":4,"audio_url":"wbw/026_114_004.mp3","char_type_name":"word","page_number":372,"line_number":2,"text":"ٱلْمُؤْمِنِينَ","translation":{"text":"মু'মিনদেরকে","language_name":"bengali","language_id":20},"transliteration":{"text":"l-mu'minīna","language_name":"english","language_id":38}},{"id":75115,"position":5,"audio_url":null,"char_type_name":"end","page_number":372,"line_number":2,"text":"١١٤","translation":{"text":"(১১৪)","language_name":"bengali","language_id":20},"transliteration":{"text":null,"language_name":"english","language_id":38}}]},{"id":3047,"verse_number":115,"verse_key":"26:115","hizb_number":38,"rub_el_hizb_number":149,"ruku_number":321,"manzil_number":5,"sajdah_number":null,"page_number":372,"juz_number":19,"words":[{"id":75309,"position":1,"audio_url":"wbw/026_115_001.mp3","char_type_name":"word","page_number":372,"line_number":2,"text":"إِنْ","translation":{"text":"নই","language_name":"bengali","language_id":20},"transliteration":{"text":"in","language_name":"english","language_id":38}},{"id":75310,"position":2,"audio_url":"wbw/026_115_002.mp3","char_type_name":"word","page_number":372,"line_number":2,"text":"أَنَا۠","translation":{"text":"আমি","language_name":"bengali","language_id":20},"transliteration":{"text":"anā","language_name":"english","language_id":38}},{"id":75311,"position":3,"audio_url":"wbw/026_115_003.mp3","char_type_name":"word","page_number":372,"line_number":2,"text":"إِلَّا","translation":{"text":"এ ছাড়া","language_name":"bengali","language_id":20},"transliteration":{"text":"illā","language_name":"english","language_id":38}},{"id":75312,"position":4,"audio_url":"wbw/026_115_004.mp3","char_type_name":"word","page_number":372,"line_number":2,"text":"نَذِيرٌۭ","translation":{"text":"সতর্ককারী (মাত্র)","language_name":"bengali","language_id":20},"transliteration":{"text":"nadhīrun","language_name":"english","language_id":38}},{"id":75313,"position":5,"audio_url":"wbw/026_115_005.mp3","char_type_name":"word","page_number":372,"line_number":2,"text":"مُّبِينٌۭ","translation":{"text":"সুস্পষ্ট\"","language_name":"bengali","language_id":20},"transliteration":{"text":"mubīnun","language_name":"english","language_id":38}},{"id":75314,"position":6,"audio_url":null,"char_type_name":"end","page_number":372,"line_number":3,"text":"١١٥","translation":{"text":"(১১৫)","language_name":"bengali","language_id":20},"transliteration":{"text":null,"language_name":"english","language_id":38}}]},{"id":3048,"verse_number":116,"verse_key":"26:116","hizb_number":38,"rub_el_hizb_number":149,"ruku_number":321,"manzil_number":5,"sajdah_number":null,"page_number":372,"juz_number":19,"words":[{"id":75595,"position":1,"audio_url":"wbw/026_116_001.mp3","char_type_name":"word","page_number":372,"line_number":3,"text":"قَالُوا۟","translation":{"text":"তারা বললো","language_name":"bengali","language_id":20},"transliteration":{"text":"qālū","language_name":"english","language_id":38}},{"id":75596,"position":2,"audio_url":"wbw/026_116_002.mp3","char_type_name":"word","page_number":372,"line_number":3,"text":"لَئِن","translation":{"text":"\"অবশ্যই যদি","language_name":"bengali","language_id":20},"transliteration":{"text":"la-in","language_name":"english","language_id":38}},{"id":75597,"position":3,"audio_url":"wbw/026_116_003.mp3","char_type_name":"word","page_number":372,"line_number":3,"text":"لَّمْ","translation":{"text":"না","language_name":"bengali","language_id":20},"transliteration":{"text":"lam","language_name":"english","language_id":38}},{"id":75598,"position":4,"audio_url":"wbw/026_116_004.mp3","char_type_name":"word","page_number":372,"line_number":3,"text":"تَنتَهِ","translation":{"text":"বিরত হও","language_name":"bengali","language_id":20},"transliteration":{"text":"tantahi","language_name":"english","language_id":38}},{"id":75599,"position":5,"audio_url":"wbw/026_116_005.mp3","char_type_name":"word","page_number":372,"line_number":3,"text":"يَـٰنُوحُ","translation":{"text":"হে নূহ","language_name":"bengali","language_id":20},"transliteration":{"text":"yānūḥu","language_name":"english","language_id":38}},{"id":75600,"position":6,"audio_url":"wbw/026_116_006.mp3","char_type_name":"word","page_number":372,"line_number":3,"text":"لَتَكُونَنَّ","translation":{"text":"অবশ্যই তুমি হবেই","language_name":"bengali","language_id":20},"transliteration":{"text":"latakūnanna","language_name":"english","language_id":38}},{"id":75601,"position":7,"audio_url":"wbw/026_116_007.mp3","char_type_name":"word","page_number":372,"line_number":3,"text":"مِنَ","translation":{"text":"অন্তর্ভুক্ত","language_name":"bengali","language_id":20},"transliteration":{"text":"mina","language_name":"english","language_id":38}},{"id":75602,"position":8,"audio_url":"wbw/026_116_008.mp3","char_type_name":"word","page_number":372,"line_number":3,"text":"ٱلْمَرْجُومِينَ","translation":{"text":"পাথরের আঘাতে নিহতদের","language_name":"bengali","language_id":20},"transliteration":{"text":"l-marjūmīna","language_name":"english","language_id":38}},{"id":75603,"position":9,"audio_url":null,"char_type_name":"end","page_number":372,"line_number":3,"text":"١١٦","translation":{"text":"(১১৬)","language_name":"bengali","language_id":20},"transliteration":{"text":null,"language_name":"english","language_id":38}}]},{"id":3049,"verse_number":117,"verse_key":"26:117","hizb_number":38,"rub_el_hizb_number":149,"ruku_number":321,"manzil_number":5,"sajdah_number":null,"page_number":372,"juz_number":19,"words":[{"id":75735,"position":1,"audio_url":"wbw/026_117_001.mp3","char_type_name":"word","page_number":372,"line_number":3,"text":"قَالَ","translation":{"text":"(নূহ) বললো","language_name":"bengali","language_id":20},"transliteration":{"text":"qāla","language_name":"english","language_id":38}},{"id":75736,"position":2,"audio_url":"wbw/026_117_002.mp3","char_type_name":"word","page_number":372,"line_number":4,"text":"رَبِّ","translation":{"text":"\"হে আমার রব","language_name":"bengali","language_id":20},"transliteration":{"text":"rabbi","language_name":"english","language_id":38}},{"id":75737,"position":3,"audio_url":"wbw/026_117_003.mp3","char_type_name":"word","page_number":372,"line_number":4,"text":"إِنَّ","translation":{"text":"নিশ্চয়ই","language_name":"bengali","language_id":20},"transliteration":{"text":"inna","language_name":"english","language_id":38}},{"id":75738,"position":4,"audio_url":"wbw/026_117_004.mp3","char_type_name":"word","page_number":372,"line_number":4,"text":"قَوْمِى","translation":{"text":"আমার জাতি","language_name":"bengali","language_id":20},"transliteration":{"text":"qawmī","language_name":"english","language_id":38}},{"id":75739,"position":5,"audio_url":"wbw/026_117_005.mp3","char_type_name":"word","page_number":372,"line_number":4,"text":"كَذَّبُونِ","translation":{"text":"আমাকে মিথ্যাবাদী বলেছে","language_name":"bengali","language_id":20},"transliteration":{"text":"kadhabūni","language_name":"english","language_id":38}},{"id":75740,"position":6,"audio_url":null,"char_type_name":"end","page_number":372,"line_number":4,"text":"١١٧","translation":{"text":"(১১৭)","language_name":"bengali","language_id":20},"transliteration":{"text":null,"language_name":"english","language_id":38}}]},{"id":3050,"verse_number":118,"verse_key":"26:118","hizb_number":38,"rub_el_hizb_number":149,"ruku_number":321,"manzil_number":5,"sajdah_number":null,"page_number":372,"juz_number":19,"words":[{"id":75945,"position":1,"audio_url":"wbw/026_118_001.mp3","char_type_name":"word","page_number":372,"line_number":4,"text":"فَٱفْتَحْ","translation":{"text":"সুতরাং মীমাংসা করো","language_name":"bengali","language_id":20},"transliteration":{"text":"fa-if'taḥ","language_name":"english","language_id":38}},{"id":75946,"position":2,"audio_url":"wbw/026_118_002.mp3","char_type_name":"word","page_number":372,"line_number":4,"text":"بَيْنِى","translation":{"text":"মাঝে আমার","language_name":"bengali","language_id":20},"transliteration":{"text":"baynī","language_name":"english","language_id":38}},{"id":75947,"position":3,"audio_url":"wbw/026_118_003.mp3","char_type_name":"word","page_number":372,"line_number":4,"text":"وَبَيْنَهُمْ","translation":{"text":"ও মাঝে তাদের","language_name":"bengali","language_id":20},"transliteration":{"text":"wabaynahum","language_name":"english","language_id":38}},{"id":75948,"position":4,"audio_url":"wbw/026_118_004.mp3","char_type_name":"word","page_number":372,"line_number":4,"text":"فَتْحًۭا","translation":{"text":"(চূড়ান্ত) মীমাংসা","language_name":"bengali","language_id":20},"transliteration":{"text":"fatḥan","language_name":"english","language_id":38}},{"id":75949,"position":5,"audio_url":"wbw/026_118_005.mp3","char_type_name":"word","page_number":372,"line_number":4,"text":"وَنَجِّنِى","translation":{"text":"এবং আমাকে রক্ষা করো","language_name":"bengali","language_id":20},"transliteration":{"text":"wanajjinī","language_name":"english","language_id":38}},{"id":75950,"position":6,"audio_url":"wbw/026_118_006.mp3","char_type_name":"word","page_number":372,"line_number":4,"text":"وَمَن","translation":{"text":"ও যারা (আছে)","language_name":"bengali","language_id":20},"transliteration":{"text":"waman","language_name":"english","language_id":38}},{"id":75951,"position":7,"audio_url":"wbw/026_118_007.mp3","char_type_name":"word","page_number":372,"line_number":5,"text":"مَّعِىَ","translation":{"text":"আমার সাথে","language_name":"bengali","language_id":20},"transliteration":{"text":"maʿiya","language_name":"english","language_id":38}},{"id":75952,"position":8,"audio_url":"wbw/026_118_008.mp3","char_type_name":"word","page_number":372,"line_number":5,"text":"مِنَ","translation":{"text":"(অর্থাৎ ) মধ্য থেকে","language_name":"bengali","language_id":20},"transliteration":{"text":"mina","language_name":"english","language_id":38}},{"id":75953,"position":9,"audio_url":"wbw/026_118_009.mp3","char_type_name":"word","page_number":372,"line_number":5,"text":"ٱلْمُؤْمِنِينَ","translation":{"text":"মু'মিন\"","language_name":"bengali","language_id":20},"transliteration":{"text":"l-mu'minīna","language_name":"english","language_id":38}},{"id":75954,"position":10,"audio_url":null,"char_type_name":"end","page_number":372,"line_number":5,"text":"١١٨","translation":{"text":"(১১৮)","language_name":"bengali","language_id":20},"transliteration":{"text":null,"language_name":"english","language_id":38}}]},{"id":3051,"verse_number":119,"verse_key":"26:119","hizb_number":38,"rub_el_hizb_number":149,"ruku_number":321,"manzil_number":5,"sajdah_number":null,"page_number":372,"juz_number":19,"words":[{"id":76220,"position":1,"audio_url":"wbw/026_119_001.mp3","char_type_name":"word","page_number":372,"line_number":5,"text":"فَأَنجَيْنَـٰهُ","translation":{"text":"অতঃপর আমরা তাকে রক্ষা করলাম","language_name":"bengali","language_id":20},"transliteration":{"text":"fa-anjaynāhu","language_name":"english","language_id":38}},{"id":76221,"position":2,"audio_url":"wbw/026_119_002.mp3","char_type_name":"word","page_number":372,"line_number":5,"text":"وَمَن","translation":{"text":"ও যারা (ছিলো)","language_name":"bengali","language_id":20},"transliteration":{"text":"waman","language_name":"english","language_id":38}},{"id":76222,"position":3,"audio_url":"wbw/026_119_003.mp3","char_type_name":"word","page_number":372,"line_number":5,"text":"مَّعَهُۥ","translation":{"text":"তাঁর সাথে","language_name":"bengali","language_id":20},"transliteration":{"text":"maʿahu","language_name":"english","language_id":38}},{"id":76223,"position":4,"audio_url":"wbw/026_119_004.mp3","char_type_name":"word","page_number":372,"line_number":5,"text":"فِى","translation":{"text":"মধ্যে","language_name":"bengali","language_id":20},"transliteration":{"text":"fī","language_name":"english","language_id":38}},{"id":76224,"position":5,"audio_url":"wbw/026_119_005.mp3","char_type_name":"word","page_number":372,"line_number":5,"text":"ٱلْفُلْكِ","translation":{"text":"নৌযানের","language_name":"bengali","language_id":20},"transliteration":{"text":"l-ful'ki","language_name":"english","language_id":38}},{"id":76225,"position":6,"audio_url":"wbw/026_119_006.mp3","char_type_name":"word","page_number":372,"line_number":5,"text":"ٱلْمَشْحُونِ","translation":{"text":"বোঝাই করা","language_name":"bengali","language_id":20},"transliteration":{"text":"l-mashḥūni","language_name":"english","language_id":38}},{"id":76226,"position":7,"audio_url":null,"char_type_name":"end","page_number":372,"line_number":6,"text":"١١٩","translation":{"text":"(১১৯)","language_name":"bengali","language_id":20},"transliteration":{"text":null,"language_name":"english","language_id":38}}]},{"id":3052,"verse_number":120,"verse_key":"26:120","hizb_number":38,"rub_el_hizb_number":149,"ruku_number":321,"manzil_number":5,"sajdah_number":null,"page_number":372,"juz_number":19,"words":[{"id":76351,"position":1,"audio_url":"wbw/026_120_001.mp3","char_type_name":"word","page_number":372,"line_number":6,"text":"ثُمَّ","translation":{"text":"এরপর","language_name":"bengali","language_id":20},"transliteration":{"text":"thumma","language_name":"english","language_id":38}},{"id":76352,"position":2,"audio_url":"wbw/026_120_002.mp3","char_type_name":"word","page_number":372,"line_number":6,"text":"أَغْرَقْنَا","translation":{"text":"আমরা ডুবিয়ে দিলাম","language_name":"bengali","language_id":20},"transliteration":{"text":"aghraqnā","language_name":"english","language_id":38}},{"id":76353,"position":3,"audio_url":"wbw/026_120_003.mp3","char_type_name":"word","page_number":372,"line_number":6,"text":"بَعْدُ","translation":{"text":"পরে (রক্ষা করার)","language_name":"bengali","language_id":20},"transliteration":{"text":"baʿdu","language_name":"english","language_id":38}},{"id":76354,"position":4,"audio_url":"wbw/026_120_004.mp3","char_type_name":"word","page_number":372,"line_number":6,"text":"ٱلْبَاقِينَ","translation":{"text":"অবশিষ্টদেরকে","language_name":"bengali","language_id":20},"transliteration":{"text":"l-bāqīna","language_name":"english","language_id":38}},{"id":76355,"position":5,"audio_url":null,"char_type_name":"end","page_number":372,"line_number":6,"text":"١٢٠","translation":{"text":"(১২০)","language_name":"bengali","language_id":20},"transliteration":{"text":null,"language_name":"english","language_id":38}}]}],"pagination":{"per_page":10,"current_page":12,"next_page":13,"total_pages":23,"total_records":227}}
