{"verses":[{"id":3063,"verse_number":131,"verse_key":"26:131","hizb_number":38,"rub_el_hizb_number":149,"ruku_number":322,"manzil_number":5,"sajdah_number":null,"page_number":372,"juz_number":19,"words":[{"id":78065,"position":1,"audio_url":"wbw/026_131_001.mp3","char_type_name":"word","page_number":372,"line_number":12,"text":"فَٱتَّقُوا۟","translation":{"text":"অতএব তোমরা ভয় করো","language_name":"bengali","language_id":20},"transliteration":{"text":"fa-ittaqū","language_name":"english","language_id":38}},{"id":78066,"position":2,"audio_url":"wbw/026_131_002.mp3","char_type_name":"word","page_number":372,"line_number":12,"text":"ٱللَّهَ","translation":{"text":"আল্লাহকে","language_name":"bengali","language_id":20},"transliteration":{"text":"l-laha","language_name":"english","language_id":38}},{"id":78067,"position":3,"audio_url":"wbw/026_131_003.mp3","char_type_name":"word","page_number":372,"line_number":12,"text":"وَأَطِيعُونِ","translation":{"text":"এবং তোমরা আমার আনুগত্য করো","language_name":"bengali","language_id":20},"transliteration":{"text":"wa-aṭīʿūni","language_name":"english","language_id":38}},{"id":78068,"position":4,"audio_url":null,"char_type_name":"end","page_number":372,"line_number":12,"text":"١٣١","translation":{"text":"(১৩১)","language_name":"bengali","language_id":20},"transliteration":{"text":null,"language_name":"english","language_id":38}}]},{"id":3064,"verse_number":132,"verse_key":"26:132","hizb_number":38,"rub_el_hizb_number":149,"ruku_number":322,"manzil_number":5,"sajdah_number":null,"page_number":372,"juz_number":19,"words":[{"id":78214,"position":1,"audio_url":"wbw/026_132_001.mp3","char_type_name":"word","page_number":372,"line_number":13,"text":"وَٱتَّقُوا۟","translation":{"text":"এবং তোমরা ভয় করো","language_name":"bengali","language_id":20},"transliteration":{"text":"wa-ittaqū","language_name":"english","language_id":38}},{"id":78215,"position":2,"audio_url":"wbw/026_132_002.mp3","char_type_name":"word","page_number":372,"line_number":13,"text":"ٱلَّذِىٓ","translation":{"text":"(তাকে) যিনি","language_name":"bengali","language_id":20},"transliteration":{"text":"alladhī","language_name":"english","language_id":38}},{"id":78216,"position":3,"audio_url":"wbw/026_132_003.mp3","char_type_name":"word","page_number":372,"line_number":13,"text":"أَمَدَّكُم","translation":{"text":"সাহায্য করেছেন তোমাদেরকে","language_name":"bengali","language_id":20},"transliteration":{"text":"amaddakum","language_name":"english","language_id":38}},{"id":78217,"position":4,"audio_url":"wbw/026_132_004.mp3","char_type_name":"word","page_number":372,"line_number":13,"text":"بِمَا","translation":{"text":"যা কিছু(তা)","language_name":"bengali","language_id":20},"transliteration":{"text":"bimā","language_name":"english","language_id":38}},{"id":78218,"position":5,"audio_url":"wbw/026_132_005.mp3","char_type_name":"word","page_number":372,"line_number":13,"text":"تَعْلَمُونَ","translation":{"text":"তোমরা জানো","language_name":"bengali","language_id":20},"transliteration":{"text":"taʿlamūna","language_name":"english","language_id":38}},{"id":78219,"position":6,"audio_url":null,"char_type_name":"end","page_number":372,"line_number":13,"text":"١٣٢","translation":{"text":"(১৩২)","language_name":"bengali","language_id":20},"transliteration":{"text":null,"language_name":"english","language_id":38}}]},{"id":3065,"verse_number":133,"verse_key":"26:133","hizb_number":38,"rub_el_hizb_number":149,"ruku_number":322,"manzil_number":5,"sajdah_number":null,"page_number":372,"juz_number":19,"words":[{"id":78280,"position":1,"audio_url":"wbw/026_133_001.mp3","char_type_name":"word","page_number":372,"line_number":13,"text":"أَمَدَّكُم","translation":{"text":"সাহায্য করেছেন তোমাদেরকে","language_name":"bengali","language_id":20},"transliteration":{"text":"amaddakum","language_name":"english","language_id":38}},{"id":78281,"position":2,"audio_url":"wbw/026_133_002.mp3","char_type_name":"word","page_number":372,"line_number":13,"text":"بِأَنْعَـٰمٍۢ","translation":{"text":"দিয়ে গবাদিপশু","language_name":"bengali","language_id":20},"transliteration":{"text":"bi-anʿāmin","language_name":"english","language_id":38}},{"id":78282,"position":3,"audio_url":"wbw/026_133_003.mp3","char_type_name":"word","page_number":372,"line_number":13,"text":"وَبَنِينَ","translation":{"text":"ও সন্তান সন্তুতি","language_name":"bengali","language_id":20},"transliteration":{"text":"wabanīna","language_name":"english","language_id":38}},{"id":78283,"position":4,"audio_url":null,"char_type_name":"end","page_number":372,"line_number":14,"text":"١٣٣","translation":{"text":"(১৩৩)","language_name":"bengali","language_id":20},"transliteration":{"text":null,"language_name":"english","language_id":38}}]},{"id":3066,"verse_number":134,"verse_key":"26:134","hizb_number":38,"rub_el_hizb_number":149,"ruku_number":322,"manzil_number":5,"sajdah_number":null,"page_number":372,"juz_number":19,"words":[{"id":78391,"position":1,"audio_url":"wbw/026_134_001.mp3","char_type_name":"word","page_number":372,"line_number":14,"text":"وَجَنَّـٰتٍۢ","translation":{"text":"এবং বাগান","language_name":"bengali","language_id":20},"transliteration":{"text":"wajannātin","language_name":"english","language_id":38}},{"id":78392,"position":2,"audio_url":"wbw/026_134_002.mp3","char_type_name":"word","page_number":372,"line_number":14,"text":"وَعُيُونٍ","translation":{"text":"ও ঝর্ণাসমূহ (দিয়ে)","language_name":"bengali","language_id":20},"transliteration":{"text":"waʿuyūnin","language_name":"english","language_id":38}},{"id":78393,"position":3,"audio_url":null,"char_type_name":"end","page_number":372,"line_number":14,"text":"١٣٤","translation":{"text":"(১৩৪)","language_name":"bengali","language_id":20},"transliteration":{"text":null,"language_name":"english","language_id":38}}]},{"id":3067,"verse_number":135,"verse_key":"26:135","hizb_number":38,"rub_el_hizb_number":149,"ruku_number":322,"manzil_number":5,"sajdah_number":null,"page_number":372,"juz_number":19,"words":[{"id":78591,"position":1,"audio_url":"wbw/026_135_001.mp3","char_type_name":"word","page_number":372,"line_number":14,"text":"إِنِّىٓ","translation":{"text":"নিশ্চয়ই আমি","language_name":"bengali","language_id":20},"transliteration":{"text":"innī","language_name":"english","language_id":38}},{"id":78592,"position":2,"audio_url":"wbw/026_135_002.mp3","char_type_name":"word","page_number":372,"line_number":14,"text":"أَخَافُ","translation":{"text":"আশংকা করছি","language_name":"bengali","language_id":20},"transliteration":{"text":"akhāfu","language_name":"english","language_id":38}},{"id":78593,"position":3,"audio_url":"wbw/026_135_003.mp3","char_type_name":"word","page_number":372,"line_number":14,"text":"عَلَيْكُمْ","translation":{"text":"উপর তোমাদের","language_name":"bengali","language_id":20},"transliteration":{"text":"ʿalaykum","language_name":"english","language_id":38}},{"id":78594,"position":4,"audio_url":"wbw/026_135_004.mp3","char_type_name":"word","page_number":372,"line_number":14,"text":"عَذَابَ","translation":{"text":"শাস্তির","language_name":"bengali","language_id":20},"transliteration":{"text":"ʿadhāba","language_name":"english","language_id":38}},{"id":78595,"position":5,"audio_url":"wbw/026_135_005.mp3","char_type_name":"word","page_number":372,"line_number":14,"text":"يَوْمٍ","translation":{"text":"দিনের","language_name":"bengali","language_id":20},"transliteration":{"text":"yawmin","language_name":"english","language_id":38}},{"id":78596,"position":6,"audio_url":"wbw/026_135_006.mp3","char_type_name":"word","page_number":372,"line_number":14,"text":"عَظِيمٍۢ","translation":{"text":"মহা\"","language_name":"bengali","language_id":20},"transliteration":{"text":"ʿaẓīmin","language_name":"english","language_id":38}},{"id":78597,"position":7,"audio_url":null,"char_type_name":"end","page_number":372,"line_number":15,"text":"١٣٥","translation":{"text":"(১৩৫)","language_name":"bengali","language_id":20},"transliteration":{"text":null,"language_name":"english","language_id":38}}]},{"id":3068,"verse_number":136,"verse_key":"26:136","hizb_number":38,"rub_el_hizb_number":149,"ruku_number":322,"manzil_number":5,"sajdah_number":null,"page_number":372,"juz_number":19,"words":[{"id":78693,"position":1,"audio_url":"wbw/026_136_001.mp3","char_type_name":"word","page_number":372,"line_number":15,"text":"قَالُوا۟","translation":{"text":"তারা বললো","language_name":"bengali","language_id":20},"transliteration":{"text":"qālū","language_name":"english","language_id":38}},{"id":78694,"position":2,"audio_url":"wbw/026_136_002.mp3","char_type_name":"word","page_number":372,"line_number":15,"text":"سَوَآءٌ","translation":{"text":"\"সমান","language_name":"bengali","language_id":20},"transliteration":{"text":"sawāon","language_name":"english","language_id":38}},{"id":78695,"position":3,"audio_url":"wbw/026_136_003.mp3","char_type_name":"word","page_number":372,"line_number":15,"text":"عَلَيْنَآ","translation":{"text":"জন্যে আমাদের","language_name":"bengali","language_id":20},"transliteration":{"text":"ʿalaynā","language_name":"english","language_id":38}},{"id":78696,"position":4,"audio_url":"wbw/026_136_004.mp3","char_type_name":"word","page_number":372,"line_number":15,"text":"أَوَعَظْتَ","translation":{"text":"কি তুমি উপদেশ দাও","language_name":"bengali","language_id":20},"transliteration":{"text":"awaʿaẓta","language_name":"english","language_id":38}},{"id":78697,"position":5,"audio_url":"wbw/026_136_005.mp3","char_type_name":"word","page_number":372,"line_number":15,"text":"أَمْ","translation":{"text":"অথবা","language_name":"bengali","language_id":20},"transliteration":{"text":"am","language_name":"english","language_id":38}},{"id":78698,"position":6,"audio_url":"wbw/026_136_006.mp3","char_type_name":"word","page_number":372,"line_number":15,"text":"لَمْ","translation":{"text":"না-ই","language_name":"bengali","language_id":20},"transliteration":{"text":"lam","language_name":"english","language_id":38}},{"id":78699,"position":7,"audio_url":"wbw/026_136_007.mp3","char_type_name":"word","page_number":372,"line_number":15,"text":"تَكُن","translation":{"text":"তুমি হও","language_name":"bengali","language_id":20},"transliteration":{"text":"takun","language_name":"english","language_id":38}},{"id":78700,"position":8,"audio_url":"wbw/026_136_008.mp3","char_type_name":"word","page_number":372,"line_number":15,"text":"مِّنَ","translation":{"text":"অন্তর্ভুক্ত","language_name":"bengali","language_id":20},"transliteration":{"text":"mina","language_name":"english","language_id":38}},{"id":78701,"position":9,"audio_url":"wbw/026_136_009.mp3","char_type_name":"word","page_number":372,"line_number":15,"text":"ٱلْوَٰعِظِينَ","translation":{"text":"উপদেশকারীদের","language_name":"bengali","language_id":20},"transliteration":{"text":"l-wāʿiẓīna","language_name":"english","language_id":38}},{"id":78702,"position":10,"audio_url":null,"char_type_name":"end","page_number":372,"line_number":15,"text":"١٣٦","translation":{"text":"(১৩৬)","language_name":"bengali","language_id":20},"transliteration":{"text":null,"language_name":"english","language_id":38}}]},{"id":3069,"verse_number":137,"verse_key":"26:137","hizb_number":38,"rub_el_hizb_number":149,"ruku_number":322,"manzil_number":5,"sajdah_number":null,"page_number":373,"juz_number":19,"words":[{"id":78793,"position":1,"audio_url":"wbw/026_137_001.mp3","char_type_name":"word","page_number":373,"line_number":1,"text":"إِنْ","translation":{"text":"নয়","language_name":"bengali","language_id":20},"transliteration":{"text":"in","language_name":"english","language_id":38}},{"id":78794,"position":2,"audio_url":"wbw/026_137_002.mp3","char_type_name":"word","page_number":373,"line_number":1,"text":"هَـٰذَآ","translation":{"text":"এটা","language_name":"bengali","language_id":20},"transliteration":{"text":"hādhā","language_name":"english","language_id":38}},{"id":78795,"position":3,"audio_url":"wbw/026_137_003.mp3","char_type_name":"word","page_number":373,"line_number":1,"text":"إِلَّا","translation":{"text":"এ ছাড়া যে","language_name":"bengali","language_id":20},"transliteration":{"text":"illā","language_name":"english","language_id":38}},{"id":78796,"position":4,"audio_url":"wbw/026_137_004.mp3","char_type_name":"word","page_number":373,"line_number":1,"text":"خُلُقُ","translation":{"text":"স্বভাব","language_name":"bengali","language_id":20},"transliteration":{"text":"khuluqu","language_name":"english","language_id":38}},{"id":78797,"position":5,"audio_url":"wbw/026_137_005.mp3","char_type_name":"word","page_number":373,"line_number":1,"text":"ٱلْأَوَّلِينَ","translation":{"text":"পুর্ববর্তীদের","language_name":"bengali","language_id":20},"transliteration":{"text":"l-awalīna","language_name":"english","language_id":38}},{"id":78798,"position":6,"audio_url":null,"char_type_name":"end","page_number":373,"line_number":1,"text":"١٣٧","translation":{"text":"(১৩৭)","language_name":"bengali","language_id":20},"transliteration":{"text":null,"language_name":"english","language_id":38}}]},{"id":3070,"verse_number":138,"verse_key":"26:138","hizb_number":38,"rub_el_hizb_number":149,"ruku_number":322,"manzil_number":5,"sajdah_number":null,"page_number":373,"juz_number":19,"words":[{"id":78888,"position":1,"audio_url":"wbw/026_138_001.mp3","char_type_name":"word","page_number":373,"line_number":1,"text":"وَمَا","translation":{"text":"আর না","language_name":"bengali","language_id":20},"transliteration":{"text":"wamā","language_name":"english","language_id":38}},{"id":78889,"position":2,"audio_url":"wbw/026_138_002.mp3","char_type_name":"word","page_number":373,"line_number":1,"text":"نَحْنُ","translation":{"text":"আমরা","language_name":"bengali","language_id":20},"transliteration":{"text":"naḥnu","language_name":"english","language_id":38}},{"id":78890,"position":3,"audio_url":"wbw/026_138_003.mp3","char_type_name":"word","page_number":373,"line_number":1,"text":"بِمُعَذَّبِينَ","translation":{"text":"শাস্তিপ্রাপ্ত হবো\"","language_name":"bengali","language_id":20},"transliteration":{"text":"bimuʿadhabīna","language_name":"english","language_id":38}},{"id":78891,"position":4,"audio_url":null,"char_type_name":"end","page_number":373,"line_number":1,"text":"١٣٨","translation":{"text":"(১৩৮)","language_name":"bengali","language_id":20},"transliteration":{"text":null,"language_name":"english","language_id":38}}]},{"id":3071,"verse_number":139,"verse_key":"26:139","hizb_number":38,"rub_el_hizb_number":149,"ruku_number":322,"manzil_number":5,"sajdah_number":null,"page_number":373,"juz_number":19,"words":[{"id":78994,"position":1,"audio_url":"wbw/026_139_001.mp3","char_type_name":"word","page_number":373,"line_number":1,"text":"فَكَذَّبُوهُ","translation":{"text":"তারা তাকে মিথ্যা সাব্যস্ত করলো","language_name":"bengali","language_id":20},"transliteration":{"text":"fakadhabūhu","language_name":"english","language_id":38}},{"id":78995,"position":2,"audio_url":"wbw/026_139_002.mp3","char_type_name":"word","page_number":373,"line_number":2,"text":"فَأَهْلَكْنَـٰهُمْ ۗ","translation":{"text":"তখন আমরা ধ্বংস করলাম তাদেরকে","language_name":"bengali","language_id":20},"transliteration":{"text":"fa-ahlaknāhum","language_name":"english","language_id":38}},{"id":78997,"position":3,"audio_url":"wbw/026_139_004.mp3","char_type_name":"word","page_number":373,"line_number":2,"text":"إِنَّ","translation":{"text":"নিশ্চয়ই","language_name":"bengali","language_id":20},"transliteration":{"text":"inna","language_name":"english","language_id":38}},{"id":78998,"position":4,"audio_url":"wbw/026_139_005.mp3","char_type_name":"word","page_number":373,"line_number":2,"text":"فِى","translation":{"text":"মধ্যে (আছে)","language_name":"bengali","language_id":20},"transliteration":{"text":"fī","language_name":"english","language_id":38}},{"id":78999,"position":5,"audio_url":"wbw/026_139_006.mp3","char_type_name":"word","page_number":373,"line_number":2,"text":"ذَٰلِكَ","translation":{"text":"এর","language_name":"bengali","language_id":20},"transliteration":{"text":"dhālika","language_name":"english","language_id":38}},{"id":79000,"position":6,"audio_url":"wbw/026_139_007.mp3","char_type_name":"word","page_number":373,"line_number":2,"text":"لَـَٔايَةًۭ ۖ","translation":{"text":"অবশ্যই নিদর্শন","language_name":"bengali","language_id":20},"transliteration":{"text":"laāyatan","language_name":"english","language_id":38}},{"id":79002,"position":7,"audio_url":"wbw/026_139_009.mp3","char_type_name":"word","page_number":373,"line_number":2,"text":"وَمَا","translation":{"text":"কিন্তু না","language_name":"bengali","language_id":20},"transliteration":{"text":"wamā","language_name":"english","language_id":38}},{"id":79003,"position":8,"audio_url":"wbw/026_139_010.mp3","char_type_name":"word","page_number":373,"line_number":2,"text":"كَانَ","translation":{"text":"ছিলো","language_name":"bengali","language_id":20},"transliteration":{"text":"kāna","language_name":"english","language_id":38}},{"id":79004,"position":9,"audio_url":"wbw/026_139_011.mp3","char_type_name":"word","page_number":373,"line_number":2,"text":"أَكْثَرُهُم","translation":{"text":"অধিকাংশ তাদের","language_name":"bengali","language_id":20},"transliteration":{"text":"aktharuhum","language_name":"english","language_id":38}},{"id":79005,"position":10,"audio_url":"wbw/026_139_012.mp3","char_type_name":"word","page_number":373,"line_number":2,"text":"مُّؤْمِنِينَ","translation":{"text":"মু'মিন","language_name":"bengali","language_id":20},"transliteration":{"text":"mu'minīna","language_name":"english","language_id":38}},{"id":79006,"position":11,"audio_url":null,"char_type_name":"end","page_number":373,"line_number":2,"text":"١٣٩","translation":{"text":"(১৩৯)","language_name":"bengali","language_id":20},"transliteration":{"text":null,"language_name":"english","language_id":38}}]},{"id":3072,"verse_number":140,"verse_key":"26:140","hizb_number":38,"rub_el_hizb_number":149,"ruku_number":322,"manzil_number":5,"sajdah_number":null,"page_number":373,"juz_number":19,"words":[{"id":79082,"position":1,"audio_url":"wbw/026_140_001.mp3","char_type_name":"word","page_number":373,"line_number":3,"text":"وَإِنَّ","translation":{"text":"আর নিশ্চয়ই","language_name":"bengali","language_id":20},"transliteration":{"text":"wa-inna","language_name":"english","language_id":38}},{"id":79083,"position":2,"audio_url":"wbw/026_140_002.mp3","char_type_name":"word","page_number":373,"line_number":3,"text":"رَبَّكَ","translation":{"text":"তোমার রব","language_name":"bengali","language_id":20},"transliteration":{"text":"rabbaka","language_name":"english","language_id":38}},{"id":79084,"position":3,"audio_url":"wbw/026_140_003.mp3","char_type_name":"word","page_number":373,"line_number":3,"text":"لَهُوَ","translation":{"text":"অবশ্যই তিনি","language_name":"bengali","language_id":20},"transliteration":{"text":"lahuwa","language_name":"english","language_id":38}},{"id":79085,"position":4,"audio_url":"wbw/026_140_004.mp3","char_type_name":"word","page_number":373,"line_number":3,"text":"ٱلْعَزِيزُ","translation":{"text":"পরাক্রমশালী","language_name":"bengali","language_id":20},"transliteration":{"text":"l-ʿazīzu","language_name":"english","language_id":38}},{"id":79086,"position":5,"audio_url":"wbw/026_140_005.mp3","char_type_name":"word","page_number":373,"line_number":3,"text":"ٱلرَّحِيمُ","translation":{"text":"পরম দয়ালু","language_name":"bengali","language_id":20},"transliteration":{"text":"l-raḥīmu","language_name":"english","language_id":38}},{"id":79087,"position":6,"audio_url":null,"char_type_name":"end","page_number":373,"line_number":3,"text":"١٤٠","translation":{"text":"(১৪০)","language_name":"bengali","language_id":20},"transliteration":{"text":null,"language_name":"english","language_id":38}}]}],"pagination":{"per_page":10,"current_page":14,"next_page":15,"total_pages":23,"total_records":227}}
