{"verses":[{"id":3073,"verse_number":141,"verse_key":"26:141","hizb_number":38,"rub_el_hizb_number":149,"ruku_number":323,"manzil_number":5,"sajdah_number":null,"page_number":373,"juz_number":19,"words":[{"id":79189,"position":1,"audio_url":"wbw/026_141_001.mp3","char_type_name":"word","page_number":373,"line_number":3,"text":"كَذَّبَتْ","translation":{"text":"মিথ্যারোপ করেছিলো","language_name":"bengali","language_id":20},"transliteration":{"text":"kadhabat","language_name":"english","language_id":38}},{"id":79190,"position":2,"audio_url":"wbw/026_141_002.mp3","char_type_name":"word","page_number":373,"line_number":3,"text":"ثَمُودُ","translation":{"text":"সামূদ জাতি","language_name":"bengali","language_id":20},"transliteration":{"text":"thamūdu","language_name":"english","language_id":38}},{"id":79191,"position":3,"audio_url":"wbw/026_141_003.mp3","char_type_name":"word","page_number":373,"line_number":3,"text":"ٱلْمُرْسَلِينَ","translation":{"text":"রাসূলদেরকে","language_name":"bengali","language_id":20},"transliteration":{"text":"l-mur'salīna","language_name":"english","language_id":38}},{"id":79192,"position":4,"audio_url":null,"char_type_name":"end","page_number":373,"line_number":3,"text":"١٤١","translation":{"text":"(১৪১)","language_name":"bengali","language_id":20},"transliteration":{"text":null,"language_name":"english","language_id":38}}]},{"id":3074,"verse_number":142,"verse_key":"26:142","hizb_number":38,"rub_el_hizb_number":149,"ruku_number":323,"manzil_number":5,"sajdah_number":null,"page_number":373,"juz_number":19,"words":[{"id":79359,"position":1,"audio_url":"wbw/026_142_001.mp3","char_type_name":"word","page_number":373,"line_number":3,"text":"إِذْ","translation":{"text":"(স্মরণ করো) যখন","language_name":"bengali","language_id":20},"transliteration":{"text":"idh","language_name":"english","language_id":38}},{"id":79360,"position":2,"audio_url":"wbw/026_142_002.mp3","char_type_name":"word","page_number":373,"line_number":4,"text":"قَالَ","translation":{"text":"বলেছিলো","language_name":"bengali","language_id":20},"transliteration":{"text":"qāla","language_name":"english","language_id":38}},{"id":79361,"position":3,"audio_url":"wbw/026_142_003.mp3","char_type_name":"word","page_number":373,"line_number":4,"text":"لَهُمْ","translation":{"text":"উদ্দেশ্যে তাদের","language_name":"bengali","language_id":20},"transliteration":{"text":"lahum","language_name":"english","language_id":38}},{"id":79362,"position":4,"audio_url":"wbw/026_142_004.mp3","char_type_name":"word","page_number":373,"line_number":4,"text":"أَخُوهُمْ","translation":{"text":"ভাই তাদের","language_name":"bengali","language_id":20},"transliteration":{"text":"akhūhum","language_name":"english","language_id":38}},{"id":79363,"position":5,"audio_url":"wbw/026_142_005.mp3","char_type_name":"word","page_number":373,"line_number":4,"text":"صَـٰلِحٌ","translation":{"text":"সালেহ","language_name":"bengali","language_id":20},"transliteration":{"text":"ṣāliḥun","language_name":"english","language_id":38}},{"id":79364,"position":6,"audio_url":"wbw/026_142_006.mp3","char_type_name":"word","page_number":373,"line_number":4,"text":"أَلَا","translation":{"text":"\"কি না","language_name":"bengali","language_id":20},"transliteration":{"text":"alā","language_name":"english","language_id":38}},{"id":79365,"position":7,"audio_url":"wbw/026_142_007.mp3","char_type_name":"word","page_number":373,"line_number":4,"text":"تَتَّقُونَ","translation":{"text":"তোমরা করবে ভয়","language_name":"bengali","language_id":20},"transliteration":{"text":"tattaqūna","language_name":"english","language_id":38}},{"id":79366,"position":8,"audio_url":null,"char_type_name":"end","page_number":373,"line_number":4,"text":"١٤٢","translation":{"text":"(১৪২)","language_name":"bengali","language_id":20},"transliteration":{"text":null,"language_name":"english","language_id":38}}]},{"id":3075,"verse_number":143,"verse_key":"26:143","hizb_number":38,"rub_el_hizb_number":149,"ruku_number":323,"manzil_number":5,"sajdah_number":null,"page_number":373,"juz_number":19,"words":[{"id":79454,"position":1,"audio_url":"wbw/026_143_001.mp3","char_type_name":"word","page_number":373,"line_number":4,"text":"إِنِّى","translation":{"text":"নিশ্চয়ই আমি","language_name":"bengali","language_id":20},"transliteration":{"text":"innī","language_name":"english","language_id":38}},{"id":79455,"position":2,"audio_url":"wbw/026_143_002.mp3","char_type_name":"word","page_number":373,"line_number":4,"text":"لَكُمْ","translation":{"text":"জন্যে তোমাদের","language_name":"bengali","language_id":20},"transliteration":{"text":"lakum","language_name":"english","language_id":38}},{"id":79456,"position":3,"audio_url":"wbw/026_143_003.mp3","char_type_name":"word","page_number":373,"line_number":4,"text":"رَسُولٌ","translation":{"text":"রাসূল","language_name":"bengali","language_id":20},"transliteration":{"text":"rasūlun","language_name":"english","language_id":38}},{"id":79457,"position":4,"audio_url":"wbw/026_143_004.mp3","char_type_name":"word","page_number":373,"line_number":4,"text":"أَمِينٌۭ","translation":{"text":"বিশ্বস্ত","language_name":"bengali","language_id":20},"transliteration":{"text":"amīnun","language_name":"english","language_id":38}},{"id":79458,"position":5,"audio_url":null,"char_type_name":"end","page_number":373,"line_number":4,"text":"١٤٣","translation":{"text":"(১৪৩)","language_name":"bengali","language_id":20},"transliteration":{"text":null,"language_name":"english","language_id":38}}]},{"id":3076,"verse_number":144,"verse_key":"26:144","hizb_number":38,"rub_el_hizb_number":149,"ruku_number":323,"manzil_number":5,"sajdah_number":null,"page_number":373,"juz_number":19,"words":[{"id":79702,"position":1,"audio_url":"wbw/026_144_001.mp3","char_type_name":"word","page_number":373,"line_number":5,"text":"فَٱتَّقُوا۟","translation":{"text":"অতএব তোমরা ভয় করো","language_name":"bengali","language_id":20},"transliteration":{"text":"fa-ittaqū","language_name":"english","language_id":38}},{"id":79703,"position":2,"audio_url":"wbw/026_144_002.mp3","char_type_name":"word","page_number":373,"line_number":5,"text":"ٱللَّهَ","translation":{"text":"আল্লাহকে","language_name":"bengali","language_id":20},"transliteration":{"text":"l-laha","language_name":"english","language_id":38}},{"id":79704,"position":3,"audio_url":"wbw/026_144_003.mp3","char_type_name":"word","page_number":373,"line_number":5,"text":"وَأَطِيعُونِ","translation":{"text":"আর তোমরা আমার আনুগত্য করো","language_name":"bengali","language_id":20},"transliteration":{"text":"wa-aṭīʿūni","language_name":"english","language_id":38}},{"id":79705,"position":4,"audio_url":null,"char_type_name":"end","page_number":373,"line_number":5,"text":"١٤٤","translation":{"text":"(১৪৪)","language_name":"bengali","language_id":20},"transliteration":{"text":null,"language_name":"english","language_id":38}}]},{"id":3077,"verse_number":145,"verse_key":"26:145","hizb_number":38,"rub_el_hizb_number":149,"ruku_number":323,"manzil_number":5,"sajdah_number":null,"page_number":373,"juz_number":19,"words":[{"id":79767,"position":1,"audio_url":"wbw/026_145_001.mp3","char_type_name":"word","page_number":373,"line_number":5,"text":"وَمَآ","translation":{"text":"এবং না","language_name":"bengali","language_id":20},"transliteration":{"text":"wamā","language_name":"english","language_id":38}},{"id":79768,"position":2,"audio_url":"wbw/026_145_002.mp3","char_type_name":"word","page_number":373,"line_number":5,"text":"أَسْـَٔلُكُمْ","translation":{"text":"তোমাদের (নিকট) আমি চাচ্ছি","language_name":"bengali","language_id":20},"transliteration":{"text":"asalukum","language_name":"english","language_id":38}},{"id":79769,"position":3,"audio_url":"wbw/026_145_003.mp3","char_type_name":"word","page_number":373,"line_number":5,"text":"عَلَيْهِ","translation":{"text":"জন্যে এর","language_name":"bengali","language_id":20},"transliteration":{"text":"ʿalayhi","language_name":"english","language_id":38}},{"id":79770,"position":4,"audio_url":"wbw/026_145_004.mp3","char_type_name":"word","page_number":373,"line_number":5,"text":"مِنْ","translation":{"text":"কোনো","language_name":"bengali","language_id":20},"transliteration":{"text":"min","language_name":"english","language_id":38}},{"id":79771,"position":5,"audio_url":"wbw/026_145_005.mp3","char_type_name":"word","page_number":373,"line_number":5,"text":"أَجْرٍ ۖ","translation":{"text":"প্রতিদান","language_name":"bengali","language_id":20},"transliteration":{"text":"ajrin","language_name":"english","language_id":38}},{"id":79773,"position":6,"audio_url":"wbw/026_145_007.mp3","char_type_name":"word","page_number":373,"line_number":5,"text":"إِنْ","translation":{"text":"নয়","language_name":"bengali","language_id":20},"transliteration":{"text":"in","language_name":"english","language_id":38}},{"id":79774,"position":7,"audio_url":"wbw/026_145_008.mp3","char_type_name":"word","page_number":373,"line_number":5,"text":"أَجْرِىَ","translation":{"text":"আমার প্রতিদান (অন্য কারো নিকট)","language_name":"bengali","language_id":20},"transliteration":{"text":"ajriya","language_name":"english","language_id":38}},{"id":79775,"position":8,"audio_url":"wbw/026_145_009.mp3","char_type_name":"word","page_number":373,"line_number":6,"text":"إِلَّا","translation":{"text":"এ ছাড়া","language_name":"bengali","language_id":20},"transliteration":{"text":"illā","language_name":"english","language_id":38}},{"id":79776,"position":9,"audio_url":"wbw/026_145_010.mp3","char_type_name":"word","page_number":373,"line_number":6,"text":"عَلَىٰ","translation":{"text":"নিকট","language_name":"bengali","language_id":20},"transliteration":{"text":"ʿalā","language_name":"english","language_id":38}},{"id":79777,"position":10,"audio_url":"wbw/026_145_011.mp3","char_type_name":"word","page_number":373,"line_number":6,"text":"رَبِّ","translation":{"text":"রবের","language_name":"bengali","language_id":20},"transliteration":{"text":"rabbi","language_name":"english","language_id":38}},{"id":79778,"position":11,"audio_url":"wbw/026_145_012.mp3","char_type_name":"word","page_number":373,"line_number":6,"text":"ٱلْعَـٰلَمِينَ","translation":{"text":"বিশ্বজগতের","language_name":"bengali","language_id":20},"transliteration":{"text":"l-ʿālamīna","language_name":"english","language_id":38}},{"id":79779,"position":12,"audio_url":null,"char_type_name":"end","page_number":373,"line_number":6,"text":"١٤٥","translation":{"text":"(১৪৫)","language_name":"bengali","language_id":20},"transliteration":{"text":null,"language_name":"english","language_id":38}}]},{"id":3078,"verse_number":146,"verse_key":"26:146","hizb_number":38,"rub_el_hizb_number":149,"ruku_number":323,"manzil_number":5,"sajdah_number":null,"page_number":373,"juz_number":19,"words":[{"id":79919,"position":1,"audio_url":"wbw/026_146_001.mp3","char_type_name":"word","page_number":373,"line_number":6,"text":"أَتُتْرَكُونَ","translation":{"text":"কি তোমাদেরক ছেড়ে দেয়া হবে","language_name":"bengali","language_id":20},"transliteration":{"text":"atut'rakūna","language_name":"english","language_id":38}},{"id":79920,"position":2,"audio_url":"wbw/026_146_002.mp3","char_type_name":"word","page_number":373,"line_number":6,"text":"فِى","translation":{"text":"(তা সবের) মধ্যে","language_name":"bengali","language_id":20},"transliteration":{"text":"fī","language_name":"english","language_id":38}},{"id":79921,"position":3,"audio_url":"wbw/026_146_003.mp3","char_type_name":"word","page_number":373,"line_number":6,"text":"مَا","translation":{"text":"যা কিছু","language_name":"bengali","language_id":20},"transliteration":{"text":"mā","language_name":"english","language_id":38}},{"id":79922,"position":4,"audio_url":"wbw/026_146_004.mp3","char_type_name":"word","page_number":373,"line_number":6,"text":"هَـٰهُنَآ","translation":{"text":"এখানে (আছে)","language_name":"bengali","language_id":20},"transliteration":{"text":"hāhunā","language_name":"english","language_id":38}},{"id":79923,"position":5,"audio_url":"wbw/026_146_005.mp3","char_type_name":"word","page_number":373,"line_number":6,"text":"ءَامِنِينَ","translation":{"text":"নিরাপদে","language_name":"bengali","language_id":20},"transliteration":{"text":"āminīna","language_name":"english","language_id":38}},{"id":79924,"position":6,"audio_url":null,"char_type_name":"end","page_number":373,"line_number":6,"text":"١٤٦","translation":{"text":"(১৪৬)","language_name":"bengali","language_id":20},"transliteration":{"text":null,"language_name":"english","language_id":38}}]},{"id":3079,"verse_number":147,"verse_key":"26:147","hizb_number":38,"rub_el_hizb_number":149,"ruku_number":323,"manzil_number":5,"sajdah_number":null,"page_number":373,"juz_number":19,"words":[{"id":80108,"position":1,"audio_url":"wbw/026_147_001.mp3","char_type_name":"word","page_number":373,"line_number":7,"text":"فِى","translation":{"text":"মধ্যে","language_name":"bengali","language_id":20},"transliteration":{"text":"fī","language_name":"english","language_id":38}},{"id":80109,"position":2,"audio_url":"wbw/026_147_002.mp3","char_type_name":"word","page_number":373,"line_number":7,"text":"جَنَّـٰتٍۢ","translation":{"text":"বাগানের","language_name":"bengali","language_id":20},"transliteration":{"text":"jannātin","language_name":"english","language_id":38}},{"id":80110,"position":3,"audio_url":"wbw/026_147_003.mp3","char_type_name":"word","page_number":373,"line_number":7,"text":"وَعُيُونٍۢ","translation":{"text":"ও ঝর্ণাসমূহের","language_name":"bengali","language_id":20},"transliteration":{"text":"waʿuyūnin","language_name":"english","language_id":38}},{"id":80111,"position":4,"audio_url":null,"char_type_name":"end","page_number":373,"line_number":7,"text":"١٤٧","translation":{"text":"(১৪৭)","language_name":"bengali","language_id":20},"transliteration":{"text":null,"language_name":"english","language_id":38}}]},{"id":3080,"verse_number":148,"verse_key":"26:148","hizb_number":38,"rub_el_hizb_number":149,"ruku_number":323,"manzil_number":5,"sajdah_number":null,"page_number":373,"juz_number":19,"words":[{"id":80242,"position":1,"audio_url":"wbw/026_148_001.mp3","char_type_name":"word","page_number":373,"line_number":7,"text":"وَزُرُوعٍۢ","translation":{"text":"এবং ফসলের ক্ষেত","language_name":"bengali","language_id":20},"transliteration":{"text":"wazurūʿin","language_name":"english","language_id":38}},{"id":80243,"position":2,"audio_url":"wbw/026_148_002.mp3","char_type_name":"word","page_number":373,"line_number":7,"text":"وَنَخْلٍۢ","translation":{"text":"ও খেজুর বাগানের","language_name":"bengali","language_id":20},"transliteration":{"text":"wanakhlin","language_name":"english","language_id":38}},{"id":80244,"position":3,"audio_url":"wbw/026_148_003.mp3","char_type_name":"word","page_number":373,"line_number":7,"text":"طَلْعُهَا","translation":{"text":"ছড়াগুলো তার","language_name":"bengali","language_id":20},"transliteration":{"text":"ṭalʿuhā","language_name":"english","language_id":38}},{"id":80245,"position":4,"audio_url":"wbw/026_148_004.mp3","char_type_name":"word","page_number":373,"line_number":7,"text":"هَضِيمٌۭ","translation":{"text":"সুকোমল রসে ভরা","language_name":"bengali","language_id":20},"transliteration":{"text":"haḍīmun","language_name":"english","language_id":38}},{"id":80246,"position":5,"audio_url":null,"char_type_name":"end","page_number":373,"line_number":7,"text":"١٤٨","translation":{"text":"(১৪৮)","language_name":"bengali","language_id":20},"transliteration":{"text":null,"language_name":"english","language_id":38}}]},{"id":3081,"verse_number":149,"verse_key":"26:149","hizb_number":38,"rub_el_hizb_number":149,"ruku_number":323,"manzil_number":5,"sajdah_number":null,"page_number":373,"juz_number":19,"words":[{"id":80353,"position":1,"audio_url":"wbw/026_149_001.mp3","char_type_name":"word","page_number":373,"line_number":8,"text":"وَتَنْحِتُونَ","translation":{"text":"এবং তোমরা খোদাই করে নির্মান করেছো","language_name":"bengali","language_id":20},"transliteration":{"text":"watanḥitūna","language_name":"english","language_id":38}},{"id":80354,"position":2,"audio_url":"wbw/026_149_002.mp3","char_type_name":"word","page_number":373,"line_number":8,"text":"مِنَ","translation":{"text":"মধ্যে","language_name":"bengali","language_id":20},"transliteration":{"text":"mina","language_name":"english","language_id":38}},{"id":80355,"position":3,"audio_url":"wbw/026_149_003.mp3","char_type_name":"word","page_number":373,"line_number":8,"text":"ٱلْجِبَالِ","translation":{"text":"পাহাড়সমূহের","language_name":"bengali","language_id":20},"transliteration":{"text":"l-jibāli","language_name":"english","language_id":38}},{"id":80356,"position":4,"audio_url":"wbw/026_149_004.mp3","char_type_name":"word","page_number":373,"line_number":8,"text":"بُيُوتًۭا","translation":{"text":"ঘরসমূহ","language_name":"bengali","language_id":20},"transliteration":{"text":"buyūtan","language_name":"english","language_id":38}},{"id":80357,"position":5,"audio_url":"wbw/026_149_005.mp3","char_type_name":"word","page_number":373,"line_number":8,"text":"فَـٰرِهِينَ","translation":{"text":"সাথে নৈপুণ্যের","language_name":"bengali","language_id":20},"transliteration":{"text":"fārihīna","language_name":"english","language_id":38}},{"id":80358,"position":6,"audio_url":null,"char_type_name":"end","page_number":373,"line_number":8,"text":"١٤٩","translation":{"text":"(১৪৯)","language_name":"bengali","language_id":20},"transliteration":{"text":null,"language_name":"english","language_id":38}}]},{"id":3082,"verse_number":150,"verse_key":"26:150","hizb_number":38,"rub_el_hizb_number":149,"ruku_number":323,"manzil_number":5,"sajdah_number":null,"page_number":373,"juz_number":19,"words":[{"id":80359,"position":1,"audio_url":"wbw/026_150_001.mp3","char_type_name":"word","page_number":373,"line_number":8,"text":"فَٱتَّقُوا۟","translation":{"text":"তাই তোমরা ভয় করো","language_name":"bengali","language_id":20},"transliteration":{"text":"fa-ittaqū","language_name":"english","language_id":38}},{"id":80360,"position":2,"audio_url":"wbw/026_150_002.mp3","char_type_name":"word","page_number":373,"line_number":8,"text":"ٱللَّهَ","translation":{"text":"আল্লাহকে","language_name":"bengali","language_id":20},"transliteration":{"text":"l-laha","language_name":"english","language_id":38}},{"id":80361,"position":3,"audio_url":"wbw/026_150_003.mp3","char_type_name":"word","page_number":373,"line_number":8,"text":"وَأَطِيعُونِ","translation":{"text":"ও আমার আনুগত্য করো","language_name":"bengali","language_id":20},"transliteration":{"text":"wa-aṭīʿūni","language_name":"english","language_id":38}},{"id":80362,"position":4,"audio_url":null,"char_type_name":"end","page_number":373,"line_number":9,"text":"١٥٠","translation":{"text":"(১৫০)","language_name":"bengali","language_id":20},"transliteration":{"text":null,"language_name":"english","language_id":38}}]}],"pagination":{"per_page":10,"current_page":15,"next_page":16,"total_pages":23,"total_records":227}}
