{"verses":[{"id":3083,"verse_number":151,"verse_key":"26:151","hizb_number":38,"rub_el_hizb_number":149,"ruku_number":323,"manzil_number":5,"sajdah_number":null,"page_number":373,"juz_number":19,"words":[{"id":80627,"position":1,"audio_url":"wbw/026_151_001.mp3","char_type_name":"word","page_number":373,"line_number":9,"text":"وَلَا","translation":{"text":"আর না","language_name":"bengali","language_id":20},"transliteration":{"text":"walā","language_name":"english","language_id":38}},{"id":80628,"position":2,"audio_url":"wbw/026_151_002.mp3","char_type_name":"word","page_number":373,"line_number":9,"text":"تُطِيعُوٓا۟","translation":{"text":"আনুগত্য করো","language_name":"bengali","language_id":20},"transliteration":{"text":"tuṭīʿū","language_name":"english","language_id":38}},{"id":80629,"position":3,"audio_url":"wbw/026_151_003.mp3","char_type_name":"word","page_number":373,"line_number":9,"text":"أَمْرَ","translation":{"text":"আদেশের","language_name":"bengali","language_id":20},"transliteration":{"text":"amra","language_name":"english","language_id":38}},{"id":80630,"position":4,"audio_url":"wbw/026_151_004.mp3","char_type_name":"word","page_number":373,"line_number":9,"text":"ٱلْمُسْرِفِينَ","translation":{"text":"সীমালঙ্ঘনকারীদের","language_name":"bengali","language_id":20},"transliteration":{"text":"l-mus'rifīna","language_name":"english","language_id":38}},{"id":80631,"position":5,"audio_url":null,"char_type_name":"end","page_number":373,"line_number":9,"text":"١٥١","translation":{"text":"(১৫১)","language_name":"bengali","language_id":20},"transliteration":{"text":null,"language_name":"english","language_id":38}}]},{"id":3084,"verse_number":152,"verse_key":"26:152","hizb_number":38,"rub_el_hizb_number":149,"ruku_number":323,"manzil_number":5,"sajdah_number":null,"page_number":373,"juz_number":19,"words":[{"id":80632,"position":1,"audio_url":"wbw/026_152_001.mp3","char_type_name":"word","page_number":373,"line_number":9,"text":"ٱلَّذِينَ","translation":{"text":"যারা","language_name":"bengali","language_id":20},"transliteration":{"text":"alladhīna","language_name":"english","language_id":38}},{"id":80633,"position":2,"audio_url":"wbw/026_152_002.mp3","char_type_name":"word","page_number":373,"line_number":9,"text":"يُفْسِدُونَ","translation":{"text":"বিপর্যয় সৃষ্টি করে","language_name":"bengali","language_id":20},"transliteration":{"text":"yuf'sidūna","language_name":"english","language_id":38}},{"id":80634,"position":3,"audio_url":"wbw/026_152_003.mp3","char_type_name":"word","page_number":373,"line_number":9,"text":"فِى","translation":{"text":"মধ্যে","language_name":"bengali","language_id":20},"transliteration":{"text":"fī","language_name":"english","language_id":38}},{"id":80635,"position":4,"audio_url":"wbw/026_152_004.mp3","char_type_name":"word","page_number":373,"line_number":9,"text":"ٱلْأَرْضِ","translation":{"text":"পৃথিবীর","language_name":"bengali","language_id":20},"transliteration":{"text":"l-arḍi","language_name":"english","language_id":38}},{"id":80636,"position":5,"audio_url":"wbw/026_152_005.mp3","char_type_name":"word","page_number":373,"line_number":10,"text":"وَلَا","translation":{"text":"আর না","language_name":"bengali","language_id":20},"transliteration":{"text":"walā","language_name":"english","language_id":38}},{"id":80637,"position":6,"audio_url":"wbw/026_152_006.mp3","char_type_name":"word","page_number":373,"line_number":10,"text":"يُصْلِحُونَ","translation":{"text":"সংশোধনের কাজ করে\"","language_name":"bengali","language_id":20},"transliteration":{"text":"yuṣ'liḥūna","language_name":"english","language_id":38}},{"id":80638,"position":7,"audio_url":null,"char_type_name":"end","page_number":373,"line_number":10,"text":"١٥٢","translation":{"text":"(১৫২)","language_name":"bengali","language_id":20},"transliteration":{"text":null,"language_name":"english","language_id":38}}]},{"id":3085,"verse_number":153,"verse_key":"26:153","hizb_number":38,"rub_el_hizb_number":149,"ruku_number":323,"manzil_number":5,"sajdah_number":null,"page_number":373,"juz_number":19,"words":[{"id":80809,"position":1,"audio_url":"wbw/026_153_001.mp3","char_type_name":"word","page_number":373,"line_number":10,"text":"قَالُوٓا۟","translation":{"text":"তারা বললো","language_name":"bengali","language_id":20},"transliteration":{"text":"qālū","language_name":"english","language_id":38}},{"id":80810,"position":2,"audio_url":"wbw/026_153_002.mp3","char_type_name":"word","page_number":373,"line_number":10,"text":"إِنَّمَآ","translation":{"text":"\"মূলতঃ","language_name":"bengali","language_id":20},"transliteration":{"text":"innamā","language_name":"english","language_id":38}},{"id":80811,"position":3,"audio_url":"wbw/026_153_003.mp3","char_type_name":"word","page_number":373,"line_number":10,"text":"أَنتَ","translation":{"text":"তুমি","language_name":"bengali","language_id":20},"transliteration":{"text":"anta","language_name":"english","language_id":38}},{"id":80812,"position":4,"audio_url":"wbw/026_153_004.mp3","char_type_name":"word","page_number":373,"line_number":10,"text":"مِنَ","translation":{"text":"অন্তর্ভুক্ত","language_name":"bengali","language_id":20},"transliteration":{"text":"mina","language_name":"english","language_id":38}},{"id":80813,"position":5,"audio_url":"wbw/026_153_005.mp3","char_type_name":"word","page_number":373,"line_number":10,"text":"ٱلْمُسَحَّرِينَ","translation":{"text":"জাদুগ্রস্তদের","language_name":"bengali","language_id":20},"transliteration":{"text":"l-musaḥarīna","language_name":"english","language_id":38}},{"id":80814,"position":6,"audio_url":null,"char_type_name":"end","page_number":373,"line_number":10,"text":"١٥٣","translation":{"text":"(১৫৩)","language_name":"bengali","language_id":20},"transliteration":{"text":null,"language_name":"english","language_id":38}}]},{"id":3086,"verse_number":154,"verse_key":"26:154","hizb_number":38,"rub_el_hizb_number":149,"ruku_number":323,"manzil_number":5,"sajdah_number":null,"page_number":373,"juz_number":19,"words":[{"id":80919,"position":1,"audio_url":"wbw/026_154_001.mp3","char_type_name":"word","page_number":373,"line_number":10,"text":"مَآ","translation":{"text":"নও","language_name":"bengali","language_id":20},"transliteration":{"text":"mā","language_name":"english","language_id":38}},{"id":80920,"position":2,"audio_url":"wbw/026_154_002.mp3","char_type_name":"word","page_number":373,"line_number":10,"text":"أَنتَ","translation":{"text":"তুমি","language_name":"bengali","language_id":20},"transliteration":{"text":"anta","language_name":"english","language_id":38}},{"id":80921,"position":3,"audio_url":"wbw/026_154_003.mp3","char_type_name":"word","page_number":373,"line_number":11,"text":"إِلَّا","translation":{"text":"এ ছাড়া","language_name":"bengali","language_id":20},"transliteration":{"text":"illā","language_name":"english","language_id":38}},{"id":80922,"position":4,"audio_url":"wbw/026_154_004.mp3","char_type_name":"word","page_number":373,"line_number":11,"text":"بَشَرٌۭ","translation":{"text":"একজন মানুষ","language_name":"bengali","language_id":20},"transliteration":{"text":"basharun","language_name":"english","language_id":38}},{"id":80923,"position":5,"audio_url":"wbw/026_154_005.mp3","char_type_name":"word","page_number":373,"line_number":11,"text":"مِّثْلُنَا","translation":{"text":"মতো আমাদেরই","language_name":"bengali","language_id":20},"transliteration":{"text":"mith'lunā","language_name":"english","language_id":38}},{"id":80924,"position":6,"audio_url":"wbw/026_154_006.mp3","char_type_name":"word","page_number":373,"line_number":11,"text":"فَأْتِ","translation":{"text":"কাজেই আসো","language_name":"bengali","language_id":20},"transliteration":{"text":"fati","language_name":"english","language_id":38}},{"id":80925,"position":7,"audio_url":"wbw/026_154_007.mp3","char_type_name":"word","page_number":373,"line_number":11,"text":"بِـَٔايَةٍ","translation":{"text":"নিয়ে একটি নিদর্শন","language_name":"bengali","language_id":20},"transliteration":{"text":"biāyatin","language_name":"english","language_id":38}},{"id":80926,"position":8,"audio_url":"wbw/026_154_008.mp3","char_type_name":"word","page_number":373,"line_number":11,"text":"إِن","translation":{"text":"যদি","language_name":"bengali","language_id":20},"transliteration":{"text":"in","language_name":"english","language_id":38}},{"id":80927,"position":9,"audio_url":"wbw/026_154_009.mp3","char_type_name":"word","page_number":373,"line_number":11,"text":"كُنتَ","translation":{"text":"তুমি হও","language_name":"bengali","language_id":20},"transliteration":{"text":"kunta","language_name":"english","language_id":38}},{"id":80928,"position":10,"audio_url":"wbw/026_154_010.mp3","char_type_name":"word","page_number":373,"line_number":11,"text":"مِنَ","translation":{"text":"অন্তর্ভুক্ত","language_name":"bengali","language_id":20},"transliteration":{"text":"mina","language_name":"english","language_id":38}},{"id":80929,"position":11,"audio_url":"wbw/026_154_011.mp3","char_type_name":"word","page_number":373,"line_number":11,"text":"ٱلصَّـٰدِقِينَ","translation":{"text":"সত্যবাদীদের\"","language_name":"bengali","language_id":20},"transliteration":{"text":"l-ṣādiqīna","language_name":"english","language_id":38}},{"id":80930,"position":12,"audio_url":null,"char_type_name":"end","page_number":373,"line_number":11,"text":"١٥٤","translation":{"text":"(১৫৪)","language_name":"bengali","language_id":20},"transliteration":{"text":null,"language_name":"english","language_id":38}}]},{"id":3087,"verse_number":155,"verse_key":"26:155","hizb_number":38,"rub_el_hizb_number":149,"ruku_number":323,"manzil_number":5,"sajdah_number":null,"page_number":373,"juz_number":19,"words":[{"id":81119,"position":1,"audio_url":"wbw/026_155_001.mp3","char_type_name":"word","page_number":373,"line_number":11,"text":"قَالَ","translation":{"text":"(সালেহ) বললো","language_name":"bengali","language_id":20},"transliteration":{"text":"qāla","language_name":"english","language_id":38}},{"id":81120,"position":2,"audio_url":"wbw/026_155_002.mp3","char_type_name":"word","page_number":373,"line_number":12,"text":"هَـٰذِهِۦ","translation":{"text":"\"এই","language_name":"bengali","language_id":20},"transliteration":{"text":"hādhihi","language_name":"english","language_id":38}},{"id":81121,"position":3,"audio_url":"wbw/026_155_003.mp3","char_type_name":"word","page_number":373,"line_number":12,"text":"نَاقَةٌۭ","translation":{"text":"একটি মাদি উট","language_name":"bengali","language_id":20},"transliteration":{"text":"nāqatun","language_name":"english","language_id":38}},{"id":81122,"position":4,"audio_url":"wbw/026_155_004.mp3","char_type_name":"word","page_number":373,"line_number":12,"text":"لَّهَا","translation":{"text":"জন্যে তার (রয়েছে)","language_name":"bengali","language_id":20},"transliteration":{"text":"lahā","language_name":"english","language_id":38}},{"id":81123,"position":5,"audio_url":"wbw/026_155_005.mp3","char_type_name":"word","page_number":373,"line_number":12,"text":"شِرْبٌۭ","translation":{"text":"পানি পান করার পালা","language_name":"bengali","language_id":20},"transliteration":{"text":"shir'bun","language_name":"english","language_id":38}},{"id":81124,"position":6,"audio_url":"wbw/026_155_006.mp3","char_type_name":"word","page_number":373,"line_number":12,"text":"وَلَكُمْ","translation":{"text":"এবং জন্যে তোমাদের","language_name":"bengali","language_id":20},"transliteration":{"text":"walakum","language_name":"english","language_id":38}},{"id":81125,"position":7,"audio_url":"wbw/026_155_007.mp3","char_type_name":"word","page_number":373,"line_number":12,"text":"شِرْبُ","translation":{"text":"পানি পান করার পালা","language_name":"bengali","language_id":20},"transliteration":{"text":"shir'bu","language_name":"english","language_id":38}},{"id":81126,"position":8,"audio_url":"wbw/026_155_008.mp3","char_type_name":"word","page_number":373,"line_number":12,"text":"يَوْمٍۢ","translation":{"text":"দিন","language_name":"bengali","language_id":20},"transliteration":{"text":"yawmin","language_name":"english","language_id":38}},{"id":81127,"position":9,"audio_url":"wbw/026_155_009.mp3","char_type_name":"word","page_number":373,"line_number":12,"text":"مَّعْلُومٍۢ","translation":{"text":"নির্দিষ্ট","language_name":"bengali","language_id":20},"transliteration":{"text":"maʿlūmin","language_name":"english","language_id":38}},{"id":81128,"position":10,"audio_url":null,"char_type_name":"end","page_number":373,"line_number":12,"text":"١٥٥","translation":{"text":"(১৫৫)","language_name":"bengali","language_id":20},"transliteration":{"text":null,"language_name":"english","language_id":38}}]},{"id":3088,"verse_number":156,"verse_key":"26:156","hizb_number":38,"rub_el_hizb_number":149,"ruku_number":323,"manzil_number":5,"sajdah_number":null,"page_number":373,"juz_number":19,"words":[{"id":81226,"position":1,"audio_url":"wbw/026_156_001.mp3","char_type_name":"word","page_number":373,"line_number":12,"text":"وَلَا","translation":{"text":"আর না","language_name":"bengali","language_id":20},"transliteration":{"text":"walā","language_name":"english","language_id":38}},{"id":81227,"position":2,"audio_url":"wbw/026_156_002.mp3","char_type_name":"word","page_number":373,"line_number":12,"text":"تَمَسُّوهَا","translation":{"text":"স্পর্শ করো তাকে","language_name":"bengali","language_id":20},"transliteration":{"text":"tamassūhā","language_name":"english","language_id":38}},{"id":81228,"position":3,"audio_url":"wbw/026_156_003.mp3","char_type_name":"word","page_number":373,"line_number":13,"text":"بِسُوٓءٍۢ","translation":{"text":"মন্দভাবে","language_name":"bengali","language_id":20},"transliteration":{"text":"bisūin","language_name":"english","language_id":38}},{"id":81229,"position":4,"audio_url":"wbw/026_156_004.mp3","char_type_name":"word","page_number":373,"line_number":13,"text":"فَيَأْخُذَكُمْ","translation":{"text":"তাহলে ধরবে তোমাদেরকে","language_name":"bengali","language_id":20},"transliteration":{"text":"fayakhudhakum","language_name":"english","language_id":38}},{"id":81230,"position":5,"audio_url":"wbw/026_156_005.mp3","char_type_name":"word","page_number":373,"line_number":13,"text":"عَذَابُ","translation":{"text":"শাস্তি","language_name":"bengali","language_id":20},"transliteration":{"text":"ʿadhābu","language_name":"english","language_id":38}},{"id":81231,"position":6,"audio_url":"wbw/026_156_006.mp3","char_type_name":"word","page_number":373,"line_number":13,"text":"يَوْمٍ","translation":{"text":"দিনের","language_name":"bengali","language_id":20},"transliteration":{"text":"yawmin","language_name":"english","language_id":38}},{"id":81232,"position":7,"audio_url":"wbw/026_156_007.mp3","char_type_name":"word","page_number":373,"line_number":13,"text":"عَظِيمٍۢ","translation":{"text":"কঠিন\"","language_name":"bengali","language_id":20},"transliteration":{"text":"ʿaẓīmin","language_name":"english","language_id":38}},{"id":81233,"position":8,"audio_url":null,"char_type_name":"end","page_number":373,"line_number":13,"text":"١٥٦","translation":{"text":"(১৫৬)","language_name":"bengali","language_id":20},"transliteration":{"text":null,"language_name":"english","language_id":38}}]},{"id":3089,"verse_number":157,"verse_key":"26:157","hizb_number":38,"rub_el_hizb_number":149,"ruku_number":323,"manzil_number":5,"sajdah_number":null,"page_number":373,"juz_number":19,"words":[{"id":81388,"position":1,"audio_url":"wbw/026_157_001.mp3","char_type_name":"word","page_number":373,"line_number":13,"text":"فَعَقَرُوهَا","translation":{"text":"কিন্তু তার পায়ের রগ কেটে দিয়ে হত্যা করলো","language_name":"bengali","language_id":20},"transliteration":{"text":"faʿaqarūhā","language_name":"english","language_id":38}},{"id":81389,"position":2,"audio_url":"wbw/026_157_002.mp3","char_type_name":"word","page_number":373,"line_number":13,"text":"فَأَصْبَحُوا۟","translation":{"text":"পরিণামে তারা হলো","language_name":"bengali","language_id":20},"transliteration":{"text":"fa-aṣbaḥū","language_name":"english","language_id":38}},{"id":81390,"position":3,"audio_url":"wbw/026_157_003.mp3","char_type_name":"word","page_number":373,"line_number":14,"text":"نَـٰدِمِينَ","translation":{"text":"অনুতপ্ত","language_name":"bengali","language_id":20},"transliteration":{"text":"nādimīna","language_name":"english","language_id":38}},{"id":81391,"position":4,"audio_url":null,"char_type_name":"end","page_number":373,"line_number":14,"text":"١٥٧","translation":{"text":"(১৫৭)","language_name":"bengali","language_id":20},"transliteration":{"text":null,"language_name":"english","language_id":38}}]},{"id":3090,"verse_number":158,"verse_key":"26:158","hizb_number":38,"rub_el_hizb_number":149,"ruku_number":323,"manzil_number":5,"sajdah_number":null,"page_number":373,"juz_number":19,"words":[{"id":81516,"position":1,"audio_url":"wbw/026_158_001.mp3","char_type_name":"word","page_number":373,"line_number":14,"text":"فَأَخَذَهُمُ","translation":{"text":"অতঃপর গ্রাস করলো তাদেরকে","language_name":"bengali","language_id":20},"transliteration":{"text":"fa-akhadhahumu","language_name":"english","language_id":38}},{"id":81517,"position":2,"audio_url":"wbw/026_158_002.mp3","char_type_name":"word","page_number":373,"line_number":14,"text":"ٱلْعَذَابُ ۗ","translation":{"text":"শাস্তি","language_name":"bengali","language_id":20},"transliteration":{"text":"l-ʿadhābu","language_name":"english","language_id":38}},{"id":81519,"position":3,"audio_url":"wbw/026_158_004.mp3","char_type_name":"word","page_number":373,"line_number":14,"text":"إِنَّ","translation":{"text":"নিশ্চয়ই","language_name":"bengali","language_id":20},"transliteration":{"text":"inna","language_name":"english","language_id":38}},{"id":81520,"position":4,"audio_url":"wbw/026_158_005.mp3","char_type_name":"word","page_number":373,"line_number":14,"text":"فِى","translation":{"text":"মধ্যে (আছে)","language_name":"bengali","language_id":20},"transliteration":{"text":"fī","language_name":"english","language_id":38}},{"id":81521,"position":5,"audio_url":"wbw/026_158_006.mp3","char_type_name":"word","page_number":373,"line_number":14,"text":"ذَٰلِكَ","translation":{"text":"এর","language_name":"bengali","language_id":20},"transliteration":{"text":"dhālika","language_name":"english","language_id":38}},{"id":81522,"position":6,"audio_url":"wbw/026_158_007.mp3","char_type_name":"word","page_number":373,"line_number":14,"text":"لَـَٔايَةًۭ ۖ","translation":{"text":"অবশ্যই নিদর্শন","language_name":"bengali","language_id":20},"transliteration":{"text":"laāyatan","language_name":"english","language_id":38}},{"id":81524,"position":7,"audio_url":"wbw/026_158_009.mp3","char_type_name":"word","page_number":373,"line_number":14,"text":"وَمَا","translation":{"text":"আর না","language_name":"bengali","language_id":20},"transliteration":{"text":"wamā","language_name":"english","language_id":38}},{"id":81525,"position":8,"audio_url":"wbw/026_158_010.mp3","char_type_name":"word","page_number":373,"line_number":14,"text":"كَانَ","translation":{"text":"ছিলো","language_name":"bengali","language_id":20},"transliteration":{"text":"kāna","language_name":"english","language_id":38}},{"id":81526,"position":9,"audio_url":"wbw/026_158_011.mp3","char_type_name":"word","page_number":373,"line_number":15,"text":"أَكْثَرُهُم","translation":{"text":"অধিকাংশ তাদের","language_name":"bengali","language_id":20},"transliteration":{"text":"aktharuhum","language_name":"english","language_id":38}},{"id":81527,"position":10,"audio_url":"wbw/026_158_012.mp3","char_type_name":"word","page_number":373,"line_number":15,"text":"مُّؤْمِنِينَ","translation":{"text":"মু'মিন","language_name":"bengali","language_id":20},"transliteration":{"text":"mu'minīna","language_name":"english","language_id":38}},{"id":81528,"position":11,"audio_url":null,"char_type_name":"end","page_number":373,"line_number":15,"text":"١٥٨","translation":{"text":"(১৫৮)","language_name":"bengali","language_id":20},"transliteration":{"text":null,"language_name":"english","language_id":38}}]},{"id":3091,"verse_number":159,"verse_key":"26:159","hizb_number":38,"rub_el_hizb_number":149,"ruku_number":323,"manzil_number":5,"sajdah_number":null,"page_number":373,"juz_number":19,"words":[{"id":81679,"position":1,"audio_url":"wbw/026_159_001.mp3","char_type_name":"word","page_number":373,"line_number":15,"text":"وَإِنَّ","translation":{"text":"অথচ নিশ্চয়ই","language_name":"bengali","language_id":20},"transliteration":{"text":"wa-inna","language_name":"english","language_id":38}},{"id":81680,"position":2,"audio_url":"wbw/026_159_002.mp3","char_type_name":"word","page_number":373,"line_number":15,"text":"رَبَّكَ","translation":{"text":"তোমার রব","language_name":"bengali","language_id":20},"transliteration":{"text":"rabbaka","language_name":"english","language_id":38}},{"id":81681,"position":3,"audio_url":"wbw/026_159_003.mp3","char_type_name":"word","page_number":373,"line_number":15,"text":"لَهُوَ","translation":{"text":"অবশ্যই তিনি","language_name":"bengali","language_id":20},"transliteration":{"text":"lahuwa","language_name":"english","language_id":38}},{"id":81682,"position":4,"audio_url":"wbw/026_159_004.mp3","char_type_name":"word","page_number":373,"line_number":15,"text":"ٱلْعَزِيزُ","translation":{"text":"পরাক্রমশালী","language_name":"bengali","language_id":20},"transliteration":{"text":"l-ʿazīzu","language_name":"english","language_id":38}},{"id":81683,"position":5,"audio_url":"wbw/026_159_005.mp3","char_type_name":"word","page_number":373,"line_number":15,"text":"ٱلرَّحِيمُ","translation":{"text":"পরম দয়ালু","language_name":"bengali","language_id":20},"transliteration":{"text":"l-raḥīmu","language_name":"english","language_id":38}},{"id":81684,"position":6,"audio_url":null,"char_type_name":"end","page_number":373,"line_number":15,"text":"١٥٩","translation":{"text":"(১৫৯)","language_name":"bengali","language_id":20},"transliteration":{"text":null,"language_name":"english","language_id":38}}]},{"id":3092,"verse_number":160,"verse_key":"26:160","hizb_number":38,"rub_el_hizb_number":149,"ruku_number":324,"manzil_number":5,"sajdah_number":null,"page_number":374,"juz_number":19,"words":[{"id":81848,"position":1,"audio_url":"wbw/026_160_001.mp3","char_type_name":"word","page_number":374,"line_number":1,"text":"كَذَّبَتْ","translation":{"text":"মিথ্যারোপ করেছিলো","language_name":"bengali","language_id":20},"transliteration":{"text":"kadhabat","language_name":"english","language_id":38}},{"id":81849,"position":2,"audio_url":"wbw/026_160_002.mp3","char_type_name":"word","page_number":374,"line_number":1,"text":"قَوْمُ","translation":{"text":"জাতি","language_name":"bengali","language_id":20},"transliteration":{"text":"qawmu","language_name":"english","language_id":38}},{"id":81850,"position":3,"audio_url":"wbw/026_160_003.mp3","char_type_name":"word","page_number":374,"line_number":1,"text":"لُوطٍ","translation":{"text":"লুতের","language_name":"bengali","language_id":20},"transliteration":{"text":"lūṭin","language_name":"english","language_id":38}},{"id":81851,"position":4,"audio_url":"wbw/026_160_004.mp3","char_type_name":"word","page_number":374,"line_number":1,"text":"ٱلْمُرْسَلِينَ","translation":{"text":"রাসূলদেরকে","language_name":"bengali","language_id":20},"transliteration":{"text":"l-mur'salīna","language_name":"english","language_id":38}},{"id":81852,"position":5,"audio_url":null,"char_type_name":"end","page_number":374,"line_number":1,"text":"١٦٠","translation":{"text":"(১৬০)","language_name":"bengali","language_id":20},"transliteration":{"text":null,"language_name":"english","language_id":38}}]}],"pagination":{"per_page":10,"current_page":16,"next_page":17,"total_pages":23,"total_records":227}}
