{"verses":[{"id":3113,"verse_number":181,"verse_key":"26:181","hizb_number":38,"rub_el_hizb_number":150,"ruku_number":325,"manzil_number":5,"sajdah_number":null,"page_number":374,"juz_number":19,"words":[{"id":83914,"position":1,"audio_url":"wbw/026_181_002.mp3","char_type_name":"word","page_number":374,"line_number":13,"text":"۞ أَوْفُوا۟","translation":{"text":"তোমরা পূর্ণ দাও","language_name":"bengali","language_id":20},"transliteration":{"text":"awfū","language_name":"english","language_id":38}},{"id":83915,"position":2,"audio_url":"wbw/026_181_003.mp3","char_type_name":"word","page_number":374,"line_number":13,"text":"ٱلْكَيْلَ","translation":{"text":"মাপ","language_name":"bengali","language_id":20},"transliteration":{"text":"l-kayla","language_name":"english","language_id":38}},{"id":83916,"position":3,"audio_url":"wbw/026_181_004.mp3","char_type_name":"word","page_number":374,"line_number":13,"text":"وَلَا","translation":{"text":"ও না","language_name":"bengali","language_id":20},"transliteration":{"text":"walā","language_name":"english","language_id":38}},{"id":83917,"position":4,"audio_url":"wbw/026_181_005.mp3","char_type_name":"word","page_number":374,"line_number":14,"text":"تَكُونُوا۟","translation":{"text":"তোমরা হয়ো","language_name":"bengali","language_id":20},"transliteration":{"text":"takūnū","language_name":"english","language_id":38}},{"id":83918,"position":5,"audio_url":"wbw/026_181_006.mp3","char_type_name":"word","page_number":374,"line_number":14,"text":"مِنَ","translation":{"text":"অন্তর্ভুক্ত","language_name":"bengali","language_id":20},"transliteration":{"text":"mina","language_name":"english","language_id":38}},{"id":83919,"position":6,"audio_url":"wbw/026_181_007.mp3","char_type_name":"word","page_number":374,"line_number":14,"text":"ٱلْمُخْسِرِينَ","translation":{"text":"মাপে কমদানকারীদের","language_name":"bengali","language_id":20},"transliteration":{"text":"l-mukh'sirīna","language_name":"english","language_id":38}},{"id":83920,"position":7,"audio_url":null,"char_type_name":"end","page_number":374,"line_number":14,"text":"١٨١","translation":{"text":"(১৮১)","language_name":"bengali","language_id":20},"transliteration":{"text":null,"language_name":"english","language_id":38}}]},{"id":3114,"verse_number":182,"verse_key":"26:182","hizb_number":38,"rub_el_hizb_number":150,"ruku_number":325,"manzil_number":5,"sajdah_number":null,"page_number":374,"juz_number":19,"words":[{"id":83943,"position":1,"audio_url":"wbw/026_182_001.mp3","char_type_name":"word","page_number":374,"line_number":14,"text":"وَزِنُوا۟","translation":{"text":"এবং তোমরা ওজন করবে","language_name":"bengali","language_id":20},"transliteration":{"text":"wazinū","language_name":"english","language_id":38}},{"id":83944,"position":2,"audio_url":"wbw/026_182_002.mp3","char_type_name":"word","page_number":374,"line_number":14,"text":"بِٱلْقِسْطَاسِ","translation":{"text":"দিয়ে দাঁড়িপাল্লা","language_name":"bengali","language_id":20},"transliteration":{"text":"bil-qis'ṭāsi","language_name":"english","language_id":38}},{"id":83945,"position":3,"audio_url":"wbw/026_182_003.mp3","char_type_name":"word","page_number":374,"line_number":14,"text":"ٱلْمُسْتَقِيمِ","translation":{"text":"সঠিক","language_name":"bengali","language_id":20},"transliteration":{"text":"l-mus'taqīmi","language_name":"english","language_id":38}},{"id":83946,"position":4,"audio_url":null,"char_type_name":"end","page_number":374,"line_number":14,"text":"١٨٢","translation":{"text":"(১৮২)","language_name":"bengali","language_id":20},"transliteration":{"text":null,"language_name":"english","language_id":38}}]},{"id":3115,"verse_number":183,"verse_key":"26:183","hizb_number":38,"rub_el_hizb_number":150,"ruku_number":325,"manzil_number":5,"sajdah_number":null,"page_number":374,"juz_number":19,"words":[{"id":84016,"position":1,"audio_url":"wbw/026_183_001.mp3","char_type_name":"word","page_number":374,"line_number":15,"text":"وَلَا","translation":{"text":"আর না","language_name":"bengali","language_id":20},"transliteration":{"text":"walā","language_name":"english","language_id":38}},{"id":84017,"position":2,"audio_url":"wbw/026_183_002.mp3","char_type_name":"word","page_number":374,"line_number":15,"text":"تَبْخَسُوا۟","translation":{"text":"তোমরা কম দিবে","language_name":"bengali","language_id":20},"transliteration":{"text":"tabkhasū","language_name":"english","language_id":38}},{"id":84018,"position":3,"audio_url":"wbw/026_183_003.mp3","char_type_name":"word","page_number":374,"line_number":15,"text":"ٱلنَّاسَ","translation":{"text":"মানুষকে","language_name":"bengali","language_id":20},"transliteration":{"text":"l-nāsa","language_name":"english","language_id":38}},{"id":84019,"position":4,"audio_url":"wbw/026_183_004.mp3","char_type_name":"word","page_number":374,"line_number":15,"text":"أَشْيَآءَهُمْ","translation":{"text":"জিনিসগুলোকে তাদের","language_name":"bengali","language_id":20},"transliteration":{"text":"ashyāahum","language_name":"english","language_id":38}},{"id":84020,"position":5,"audio_url":"wbw/026_183_005.mp3","char_type_name":"word","page_number":374,"line_number":15,"text":"وَلَا","translation":{"text":"আর না","language_name":"bengali","language_id":20},"transliteration":{"text":"walā","language_name":"english","language_id":38}},{"id":84021,"position":6,"audio_url":"wbw/026_183_006.mp3","char_type_name":"word","page_number":374,"line_number":15,"text":"تَعْثَوْا۟","translation":{"text":"গোলযোগ সৃষ্টি করো","language_name":"bengali","language_id":20},"transliteration":{"text":"taʿthaw","language_name":"english","language_id":38}},{"id":84022,"position":7,"audio_url":"wbw/026_183_007.mp3","char_type_name":"word","page_number":374,"line_number":15,"text":"فِى","translation":{"text":"মধ্যে","language_name":"bengali","language_id":20},"transliteration":{"text":"fī","language_name":"english","language_id":38}},{"id":84023,"position":8,"audio_url":"wbw/026_183_008.mp3","char_type_name":"word","page_number":374,"line_number":15,"text":"ٱلْأَرْضِ","translation":{"text":"পৃথিবীর","language_name":"bengali","language_id":20},"transliteration":{"text":"l-arḍi","language_name":"english","language_id":38}},{"id":84024,"position":9,"audio_url":"wbw/026_183_009.mp3","char_type_name":"word","page_number":374,"line_number":15,"text":"مُفْسِدِينَ","translation":{"text":"বিপর্যয় সৃষ্টিকারী হিসেবে","language_name":"bengali","language_id":20},"transliteration":{"text":"muf'sidīna","language_name":"english","language_id":38}},{"id":84025,"position":10,"audio_url":null,"char_type_name":"end","page_number":374,"line_number":15,"text":"١٨٣","translation":{"text":"(১৮৩)","language_name":"bengali","language_id":20},"transliteration":{"text":null,"language_name":"english","language_id":38}}]},{"id":3116,"verse_number":184,"verse_key":"26:184","hizb_number":38,"rub_el_hizb_number":150,"ruku_number":325,"manzil_number":5,"sajdah_number":null,"page_number":375,"juz_number":19,"words":[{"id":84033,"position":1,"audio_url":"wbw/026_184_001.mp3","char_type_name":"word","page_number":375,"line_number":1,"text":"وَٱتَّقُوا۟","translation":{"text":"এবং তোমরা ভয় করো","language_name":"bengali","language_id":20},"transliteration":{"text":"wa-ittaqū","language_name":"english","language_id":38}},{"id":84034,"position":2,"audio_url":"wbw/026_184_002.mp3","char_type_name":"word","page_number":375,"line_number":1,"text":"ٱلَّذِى","translation":{"text":"(তাঁকে) যিনি","language_name":"bengali","language_id":20},"transliteration":{"text":"alladhī","language_name":"english","language_id":38}},{"id":84035,"position":3,"audio_url":"wbw/026_184_003.mp3","char_type_name":"word","page_number":375,"line_number":1,"text":"خَلَقَكُمْ","translation":{"text":"সৃষ্টি করেছেন তোমাদেরকে","language_name":"bengali","language_id":20},"transliteration":{"text":"khalaqakum","language_name":"english","language_id":38}},{"id":84036,"position":4,"audio_url":"wbw/026_184_004.mp3","char_type_name":"word","page_number":375,"line_number":1,"text":"وَٱلْجِبِلَّةَ","translation":{"text":"জনগোষ্ঠীকেও","language_name":"bengali","language_id":20},"transliteration":{"text":"wal-jibilata","language_name":"english","language_id":38}},{"id":84037,"position":5,"audio_url":"wbw/026_184_005.mp3","char_type_name":"word","page_number":375,"line_number":1,"text":"ٱلْأَوَّلِينَ","translation":{"text":"পুর্ববর্তী\"","language_name":"bengali","language_id":20},"transliteration":{"text":"l-awalīna","language_name":"english","language_id":38}},{"id":84038,"position":6,"audio_url":null,"char_type_name":"end","page_number":375,"line_number":1,"text":"١٨٤","translation":{"text":"(১৮৪)","language_name":"bengali","language_id":20},"transliteration":{"text":null,"language_name":"english","language_id":38}}]},{"id":3117,"verse_number":185,"verse_key":"26:185","hizb_number":38,"rub_el_hizb_number":150,"ruku_number":325,"manzil_number":5,"sajdah_number":null,"page_number":375,"juz_number":19,"words":[{"id":84179,"position":1,"audio_url":"wbw/026_185_001.mp3","char_type_name":"word","page_number":375,"line_number":1,"text":"قَالُوٓا۟","translation":{"text":"তারা বলেছিলো","language_name":"bengali","language_id":20},"transliteration":{"text":"qālū","language_name":"english","language_id":38}},{"id":84180,"position":2,"audio_url":"wbw/026_185_002.mp3","char_type_name":"word","page_number":375,"line_number":1,"text":"إِنَّمَآ","translation":{"text":"\"মূলতঃ","language_name":"bengali","language_id":20},"transliteration":{"text":"innamā","language_name":"english","language_id":38}},{"id":84181,"position":3,"audio_url":"wbw/026_185_003.mp3","char_type_name":"word","page_number":375,"line_number":1,"text":"أَنتَ","translation":{"text":"তুমি","language_name":"bengali","language_id":20},"transliteration":{"text":"anta","language_name":"english","language_id":38}},{"id":84182,"position":4,"audio_url":"wbw/026_185_004.mp3","char_type_name":"word","page_number":375,"line_number":1,"text":"مِنَ","translation":{"text":"অন্তর্ভুক্ত","language_name":"bengali","language_id":20},"transliteration":{"text":"mina","language_name":"english","language_id":38}},{"id":84183,"position":5,"audio_url":"wbw/026_185_005.mp3","char_type_name":"word","page_number":375,"line_number":2,"text":"ٱلْمُسَحَّرِينَ","translation":{"text":"জাদুগ্রস্তদের","language_name":"bengali","language_id":20},"transliteration":{"text":"l-musaḥarīna","language_name":"english","language_id":38}},{"id":84184,"position":6,"audio_url":null,"char_type_name":"end","page_number":375,"line_number":2,"text":"١٨٥","translation":{"text":"(১৮৫)","language_name":"bengali","language_id":20},"transliteration":{"text":null,"language_name":"english","language_id":38}}]},{"id":3118,"verse_number":186,"verse_key":"26:186","hizb_number":38,"rub_el_hizb_number":150,"ruku_number":325,"manzil_number":5,"sajdah_number":null,"page_number":375,"juz_number":19,"words":[{"id":84236,"position":1,"audio_url":"wbw/026_186_001.mp3","char_type_name":"word","page_number":375,"line_number":2,"text":"وَمَآ","translation":{"text":"আর না","language_name":"bengali","language_id":20},"transliteration":{"text":"wamā","language_name":"english","language_id":38}},{"id":84237,"position":2,"audio_url":"wbw/026_186_002.mp3","char_type_name":"word","page_number":375,"line_number":2,"text":"أَنتَ","translation":{"text":"তুমি","language_name":"bengali","language_id":20},"transliteration":{"text":"anta","language_name":"english","language_id":38}},{"id":84238,"position":3,"audio_url":"wbw/026_186_003.mp3","char_type_name":"word","page_number":375,"line_number":2,"text":"إِلَّا","translation":{"text":"এ ছাড়া","language_name":"bengali","language_id":20},"transliteration":{"text":"illā","language_name":"english","language_id":38}},{"id":84239,"position":4,"audio_url":"wbw/026_186_004.mp3","char_type_name":"word","page_number":375,"line_number":2,"text":"بَشَرٌۭ","translation":{"text":"একজন মানুষ","language_name":"bengali","language_id":20},"transliteration":{"text":"basharun","language_name":"english","language_id":38}},{"id":84240,"position":5,"audio_url":"wbw/026_186_005.mp3","char_type_name":"word","page_number":375,"line_number":2,"text":"مِّثْلُنَا","translation":{"text":"মতো আমাদেরই","language_name":"bengali","language_id":20},"transliteration":{"text":"mith'lunā","language_name":"english","language_id":38}},{"id":84241,"position":6,"audio_url":"wbw/026_186_006.mp3","char_type_name":"word","page_number":375,"line_number":2,"text":"وَإِن","translation":{"text":"আর নিশ্চয়ই","language_name":"bengali","language_id":20},"transliteration":{"text":"wa-in","language_name":"english","language_id":38}},{"id":84242,"position":7,"audio_url":"wbw/026_186_007.mp3","char_type_name":"word","page_number":375,"line_number":2,"text":"نَّظُنُّكَ","translation":{"text":"তোমাকে আমরা মনেকরি","language_name":"bengali","language_id":20},"transliteration":{"text":"naẓunnuka","language_name":"english","language_id":38}},{"id":84243,"position":8,"audio_url":"wbw/026_186_008.mp3","char_type_name":"word","page_number":375,"line_number":2,"text":"لَمِنَ","translation":{"text":"অবশ্যই অন্তর্ভুক্ত","language_name":"bengali","language_id":20},"transliteration":{"text":"lamina","language_name":"english","language_id":38}},{"id":84244,"position":9,"audio_url":"wbw/026_186_009.mp3","char_type_name":"word","page_number":375,"line_number":3,"text":"ٱلْكَـٰذِبِينَ","translation":{"text":"মিথ্যাবাদীদের","language_name":"bengali","language_id":20},"transliteration":{"text":"l-kādhibīna","language_name":"english","language_id":38}},{"id":84245,"position":10,"audio_url":null,"char_type_name":"end","page_number":375,"line_number":3,"text":"١٨٦","translation":{"text":"(১৮৬)","language_name":"bengali","language_id":20},"transliteration":{"text":null,"language_name":"english","language_id":38}}]},{"id":3119,"verse_number":187,"verse_key":"26:187","hizb_number":38,"rub_el_hizb_number":150,"ruku_number":325,"manzil_number":5,"sajdah_number":null,"page_number":375,"juz_number":19,"words":[{"id":84278,"position":1,"audio_url":"wbw/026_187_001.mp3","char_type_name":"word","page_number":375,"line_number":3,"text":"فَأَسْقِطْ","translation":{"text":"অতএব ফেলে দাও","language_name":"bengali","language_id":20},"transliteration":{"text":"fa-asqiṭ","language_name":"english","language_id":38}},{"id":84279,"position":2,"audio_url":"wbw/026_187_002.mp3","char_type_name":"word","page_number":375,"line_number":3,"text":"عَلَيْنَا","translation":{"text":"উপর আমাদের","language_name":"bengali","language_id":20},"transliteration":{"text":"ʿalaynā","language_name":"english","language_id":38}},{"id":84280,"position":3,"audio_url":"wbw/026_187_003.mp3","char_type_name":"word","page_number":375,"line_number":3,"text":"كِسَفًۭا","translation":{"text":"এক টুকরো","language_name":"bengali","language_id":20},"transliteration":{"text":"kisafan","language_name":"english","language_id":38}},{"id":84281,"position":4,"audio_url":"wbw/026_187_004.mp3","char_type_name":"word","page_number":375,"line_number":3,"text":"مِّنَ","translation":{"text":"থেকে","language_name":"bengali","language_id":20},"transliteration":{"text":"mina","language_name":"english","language_id":38}},{"id":84282,"position":5,"audio_url":"wbw/026_187_005.mp3","char_type_name":"word","page_number":375,"line_number":3,"text":"ٱلسَّمَآءِ","translation":{"text":"আকাশের","language_name":"bengali","language_id":20},"transliteration":{"text":"l-samāi","language_name":"english","language_id":38}},{"id":84283,"position":6,"audio_url":"wbw/026_187_006.mp3","char_type_name":"word","page_number":375,"line_number":3,"text":"إِن","translation":{"text":"যদি","language_name":"bengali","language_id":20},"transliteration":{"text":"in","language_name":"english","language_id":38}},{"id":84284,"position":7,"audio_url":"wbw/026_187_007.mp3","char_type_name":"word","page_number":375,"line_number":3,"text":"كُنتَ","translation":{"text":"তুমি হও","language_name":"bengali","language_id":20},"transliteration":{"text":"kunta","language_name":"english","language_id":38}},{"id":84285,"position":8,"audio_url":"wbw/026_187_008.mp3","char_type_name":"word","page_number":375,"line_number":4,"text":"مِنَ","translation":{"text":"অন্তর্ভুক্ত","language_name":"bengali","language_id":20},"transliteration":{"text":"mina","language_name":"english","language_id":38}},{"id":84286,"position":9,"audio_url":"wbw/026_187_009.mp3","char_type_name":"word","page_number":375,"line_number":4,"text":"ٱلصَّـٰدِقِينَ","translation":{"text":"সত্যবাদীদের\"","language_name":"bengali","language_id":20},"transliteration":{"text":"l-ṣādiqīna","language_name":"english","language_id":38}},{"id":84287,"position":10,"audio_url":null,"char_type_name":"end","page_number":375,"line_number":4,"text":"١٨٧","translation":{"text":"(১৮৭)","language_name":"bengali","language_id":20},"transliteration":{"text":null,"language_name":"english","language_id":38}}]},{"id":3120,"verse_number":188,"verse_key":"26:188","hizb_number":38,"rub_el_hizb_number":150,"ruku_number":325,"manzil_number":5,"sajdah_number":null,"page_number":375,"juz_number":19,"words":[{"id":84469,"position":1,"audio_url":"wbw/026_188_001.mp3","char_type_name":"word","page_number":375,"line_number":4,"text":"قَالَ","translation":{"text":"(শু'আইব) বললো","language_name":"bengali","language_id":20},"transliteration":{"text":"qāla","language_name":"english","language_id":38}},{"id":84470,"position":2,"audio_url":"wbw/026_188_002.mp3","char_type_name":"word","page_number":375,"line_number":4,"text":"رَبِّىٓ","translation":{"text":"\"আমার রব","language_name":"bengali","language_id":20},"transliteration":{"text":"rabbī","language_name":"english","language_id":38}},{"id":84471,"position":3,"audio_url":"wbw/026_188_003.mp3","char_type_name":"word","page_number":375,"line_number":4,"text":"أَعْلَمُ","translation":{"text":"খুব জানেন","language_name":"bengali","language_id":20},"transliteration":{"text":"aʿlamu","language_name":"english","language_id":38}},{"id":84472,"position":4,"audio_url":"wbw/026_188_004.mp3","char_type_name":"word","page_number":375,"line_number":4,"text":"بِمَا","translation":{"text":"ঐ বিষয়ে যা","language_name":"bengali","language_id":20},"transliteration":{"text":"bimā","language_name":"english","language_id":38}},{"id":84473,"position":5,"audio_url":"wbw/026_188_005.mp3","char_type_name":"word","page_number":375,"line_number":4,"text":"تَعْمَلُونَ","translation":{"text":"তোমরা করছো\"","language_name":"bengali","language_id":20},"transliteration":{"text":"taʿmalūna","language_name":"english","language_id":38}},{"id":84474,"position":6,"audio_url":null,"char_type_name":"end","page_number":375,"line_number":4,"text":"١٨٨","translation":{"text":"(১৮৮)","language_name":"bengali","language_id":20},"transliteration":{"text":null,"language_name":"english","language_id":38}}]},{"id":3121,"verse_number":189,"verse_key":"26:189","hizb_number":38,"rub_el_hizb_number":150,"ruku_number":325,"manzil_number":5,"sajdah_number":null,"page_number":375,"juz_number":19,"words":[{"id":84583,"position":1,"audio_url":"wbw/026_189_001.mp3","char_type_name":"word","page_number":375,"line_number":4,"text":"فَكَذَّبُوهُ","translation":{"text":"অতঃপর তারা তাকে মিথ্যা সাব্যস্ত করলো","language_name":"bengali","language_id":20},"transliteration":{"text":"fakadhabūhu","language_name":"english","language_id":38}},{"id":84584,"position":2,"audio_url":"wbw/026_189_002.mp3","char_type_name":"word","page_number":375,"line_number":5,"text":"فَأَخَذَهُمْ","translation":{"text":"তখন ধরলো তাদেরকে","language_name":"bengali","language_id":20},"transliteration":{"text":"fa-akhadhahum","language_name":"english","language_id":38}},{"id":84585,"position":3,"audio_url":"wbw/026_189_003.mp3","char_type_name":"word","page_number":375,"line_number":5,"text":"عَذَابُ","translation":{"text":"শাস্তি","language_name":"bengali","language_id":20},"transliteration":{"text":"ʿadhābu","language_name":"english","language_id":38}},{"id":84586,"position":4,"audio_url":"wbw/026_189_004.mp3","char_type_name":"word","page_number":375,"line_number":5,"text":"يَوْمِ","translation":{"text":"দিনের","language_name":"bengali","language_id":20},"transliteration":{"text":"yawmi","language_name":"english","language_id":38}},{"id":84587,"position":5,"audio_url":"wbw/026_189_005.mp3","char_type_name":"word","page_number":375,"line_number":5,"text":"ٱلظُّلَّةِ ۚ","translation":{"text":"(ছায়াওয়ালা) মেঘাচ্ছন্ন","language_name":"bengali","language_id":20},"transliteration":{"text":"l-ẓulati","language_name":"english","language_id":38}},{"id":84589,"position":6,"audio_url":"wbw/026_189_007.mp3","char_type_name":"word","page_number":375,"line_number":5,"text":"إِنَّهُۥ","translation":{"text":"নিশ্চয়ই তা","language_name":"bengali","language_id":20},"transliteration":{"text":"innahu","language_name":"english","language_id":38}},{"id":84590,"position":7,"audio_url":"wbw/026_189_008.mp3","char_type_name":"word","page_number":375,"line_number":5,"text":"كَانَ","translation":{"text":"ছিলো","language_name":"bengali","language_id":20},"transliteration":{"text":"kāna","language_name":"english","language_id":38}},{"id":84591,"position":8,"audio_url":"wbw/026_189_009.mp3","char_type_name":"word","page_number":375,"line_number":5,"text":"عَذَابَ","translation":{"text":"শাস্তি","language_name":"bengali","language_id":20},"transliteration":{"text":"ʿadhāba","language_name":"english","language_id":38}},{"id":84592,"position":9,"audio_url":"wbw/026_189_010.mp3","char_type_name":"word","page_number":375,"line_number":5,"text":"يَوْمٍ","translation":{"text":"দিনের","language_name":"bengali","language_id":20},"transliteration":{"text":"yawmin","language_name":"english","language_id":38}},{"id":84593,"position":10,"audio_url":"wbw/026_189_011.mp3","char_type_name":"word","page_number":375,"line_number":5,"text":"عَظِيمٍ","translation":{"text":"ভয়াবহ","language_name":"bengali","language_id":20},"transliteration":{"text":"ʿaẓīmin","language_name":"english","language_id":38}},{"id":84594,"position":11,"audio_url":null,"char_type_name":"end","page_number":375,"line_number":5,"text":"١٨٩","translation":{"text":"(১৮৯)","language_name":"bengali","language_id":20},"transliteration":{"text":null,"language_name":"english","language_id":38}}]},{"id":3122,"verse_number":190,"verse_key":"26:190","hizb_number":38,"rub_el_hizb_number":150,"ruku_number":325,"manzil_number":5,"sajdah_number":null,"page_number":375,"juz_number":19,"words":[{"id":84621,"position":1,"audio_url":"wbw/026_190_001.mp3","char_type_name":"word","page_number":375,"line_number":6,"text":"إِنَّ","translation":{"text":"নিশ্চয়ই","language_name":"bengali","language_id":20},"transliteration":{"text":"inna","language_name":"english","language_id":38}},{"id":84622,"position":2,"audio_url":"wbw/026_190_002.mp3","char_type_name":"word","page_number":375,"line_number":6,"text":"فِى","translation":{"text":"মধ্যে (আছে)","language_name":"bengali","language_id":20},"transliteration":{"text":"fī","language_name":"english","language_id":38}},{"id":84623,"position":3,"audio_url":"wbw/026_190_003.mp3","char_type_name":"word","page_number":375,"line_number":6,"text":"ذَٰلِكَ","translation":{"text":"এর","language_name":"bengali","language_id":20},"transliteration":{"text":"dhālika","language_name":"english","language_id":38}},{"id":84624,"position":4,"audio_url":"wbw/026_190_004.mp3","char_type_name":"word","page_number":375,"line_number":6,"text":"لَـَٔايَةًۭ ۖ","translation":{"text":"অবশ্যই নিদর্শন","language_name":"bengali","language_id":20},"transliteration":{"text":"laāyatan","language_name":"english","language_id":38}},{"id":84626,"position":5,"audio_url":"wbw/026_190_006.mp3","char_type_name":"word","page_number":375,"line_number":6,"text":"وَمَا","translation":{"text":"কিন্তু না","language_name":"bengali","language_id":20},"transliteration":{"text":"wamā","language_name":"english","language_id":38}},{"id":84627,"position":6,"audio_url":"wbw/026_190_007.mp3","char_type_name":"word","page_number":375,"line_number":6,"text":"كَانَ","translation":{"text":"ছিলো","language_name":"bengali","language_id":20},"transliteration":{"text":"kāna","language_name":"english","language_id":38}},{"id":84628,"position":7,"audio_url":"wbw/026_190_008.mp3","char_type_name":"word","page_number":375,"line_number":6,"text":"أَكْثَرُهُم","translation":{"text":"অধিকাংশ তাদের","language_name":"bengali","language_id":20},"transliteration":{"text":"aktharuhum","language_name":"english","language_id":38}},{"id":84629,"position":8,"audio_url":"wbw/026_190_009.mp3","char_type_name":"word","page_number":375,"line_number":6,"text":"مُّؤْمِنِينَ","translation":{"text":"মু'মিন","language_name":"bengali","language_id":20},"transliteration":{"text":"mu'minīna","language_name":"english","language_id":38}},{"id":84630,"position":9,"audio_url":null,"char_type_name":"end","page_number":375,"line_number":6,"text":"١٩٠","translation":{"text":"(১৯০)","language_name":"bengali","language_id":20},"transliteration":{"text":null,"language_name":"english","language_id":38}}]}],"pagination":{"per_page":10,"current_page":19,"next_page":20,"total_pages":23,"total_records":227}}
