{"verses":[{"id":3123,"verse_number":191,"verse_key":"26:191","hizb_number":38,"rub_el_hizb_number":150,"ruku_number":325,"manzil_number":5,"sajdah_number":null,"page_number":375,"juz_number":19,"words":[{"id":84698,"position":1,"audio_url":"wbw/026_191_001.mp3","verse_key":"26:191","verse_id":3123,"location":"26:191:1","text_uthmani":"وَإِنَّ","qpc_uthmani_hafs":"وَإِنَّ","char_type_name":"word","page_number":375,"line_number":6,"text":"وَإِنَّ","translation":{"text":"আর নিশ্চয়ই","language_name":"bengali","language_id":20},"transliteration":{"text":"wa-inna","language_name":"english","language_id":38}},{"id":84699,"position":2,"audio_url":"wbw/026_191_002.mp3","verse_key":"26:191","verse_id":3123,"location":"26:191:2","text_uthmani":"رَبَّكَ","qpc_uthmani_hafs":"رَبَّكَ","char_type_name":"word","page_number":375,"line_number":6,"text":"رَبَّكَ","translation":{"text":"তোমার রব","language_name":"bengali","language_id":20},"transliteration":{"text":"rabbaka","language_name":"english","language_id":38}},{"id":84700,"position":3,"audio_url":"wbw/026_191_003.mp3","verse_key":"26:191","verse_id":3123,"location":"26:191:3","text_uthmani":"لَهُوَ","qpc_uthmani_hafs":"لَهُوَ","char_type_name":"word","page_number":375,"line_number":7,"text":"لَهُوَ","translation":{"text":"অবশ্যই তিনি","language_name":"bengali","language_id":20},"transliteration":{"text":"lahuwa","language_name":"english","language_id":38}},{"id":84701,"position":4,"audio_url":"wbw/026_191_004.mp3","verse_key":"26:191","verse_id":3123,"location":"26:191:4","text_uthmani":"ٱلْعَزِيزُ","qpc_uthmani_hafs":"ٱلۡعَزِيزُ","char_type_name":"word","page_number":375,"line_number":7,"text":"ٱلۡعَزِيزُ","translation":{"text":"পরাক্রমশালী","language_name":"bengali","language_id":20},"transliteration":{"text":"l-ʿazīzu","language_name":"english","language_id":38}},{"id":84702,"position":5,"audio_url":"wbw/026_191_005.mp3","verse_key":"26:191","verse_id":3123,"location":"26:191:5","text_uthmani":"ٱلرَّحِيمُ","qpc_uthmani_hafs":"ٱلرَّحِيمُ","char_type_name":"word","page_number":375,"line_number":7,"text":"ٱلرَّحِيمُ","translation":{"text":"পরম দয়ালু","language_name":"bengali","language_id":20},"transliteration":{"text":"l-raḥīmu","language_name":"english","language_id":38}},{"id":84703,"position":6,"audio_url":null,"verse_key":"26:191","verse_id":3123,"location":"26:191:6","text_uthmani":"١٩١","qpc_uthmani_hafs":"١٩١","char_type_name":"end","page_number":375,"line_number":7,"text":"١٩١","translation":{"text":"(১৯১)","language_name":"bengali","language_id":20},"transliteration":{"text":null,"language_name":"english","language_id":38}}]},{"id":3124,"verse_number":192,"verse_key":"26:192","hizb_number":38,"rub_el_hizb_number":150,"ruku_number":326,"manzil_number":5,"sajdah_number":null,"page_number":375,"juz_number":19,"words":[{"id":84732,"position":1,"audio_url":"wbw/026_192_001.mp3","verse_key":"26:192","verse_id":3124,"location":"26:192:1","text_uthmani":"وَإِنَّهُۥ","qpc_uthmani_hafs":"وَإِنَّهُۥ","char_type_name":"word","page_number":375,"line_number":7,"text":"وَإِنَّهُۥ","translation":{"text":"এবং নিশ্চয়ই তা","language_name":"bengali","language_id":20},"transliteration":{"text":"wa-innahu","language_name":"english","language_id":38}},{"id":84733,"position":2,"audio_url":"wbw/026_192_002.mp3","verse_key":"26:192","verse_id":3124,"location":"26:192:2","text_uthmani":"لَتَنزِيلُ","qpc_uthmani_hafs":"لَتَنزِيلُ","char_type_name":"word","page_number":375,"line_number":7,"text":"لَتَنزِيلُ","translation":{"text":"অবশ্যই অবতীর্ণ","language_name":"bengali","language_id":20},"transliteration":{"text":"latanzīlu","language_name":"english","language_id":38}},{"id":84734,"position":3,"audio_url":"wbw/026_192_003.mp3","verse_key":"26:192","verse_id":3124,"location":"26:192:3","text_uthmani":"رَبِّ","qpc_uthmani_hafs":"رَبِّ","char_type_name":"word","page_number":375,"line_number":7,"text":"رَبِّ","translation":{"text":"রবের (পক্ষ হ'তে)","language_name":"bengali","language_id":20},"transliteration":{"text":"rabbi","language_name":"english","language_id":38}},{"id":84735,"position":4,"audio_url":"wbw/026_192_004.mp3","verse_key":"26:192","verse_id":3124,"location":"26:192:4","text_uthmani":"ٱلْعَـٰلَمِينَ","qpc_uthmani_hafs":"ٱلۡعَٰلَمِينَ","char_type_name":"word","page_number":375,"line_number":7,"text":"ٱلۡعَٰلَمِينَ","translation":{"text":"বিশ্বজগতের","language_name":"bengali","language_id":20},"transliteration":{"text":"l-ʿālamīna","language_name":"english","language_id":38}},{"id":84736,"position":5,"audio_url":null,"verse_key":"26:192","verse_id":3124,"location":"26:192:5","text_uthmani":"١٩٢","qpc_uthmani_hafs":"١٩٢","char_type_name":"end","page_number":375,"line_number":7,"text":"١٩٢","translation":{"text":"(১৯২)","language_name":"bengali","language_id":20},"transliteration":{"text":null,"language_name":"english","language_id":38}}]},{"id":3125,"verse_number":193,"verse_key":"26:193","hizb_number":38,"rub_el_hizb_number":150,"ruku_number":326,"manzil_number":5,"sajdah_number":null,"page_number":375,"juz_number":19,"words":[{"id":84745,"position":1,"audio_url":"wbw/026_193_001.mp3","verse_key":"26:193","verse_id":3125,"location":"26:193:1","text_uthmani":"نَزَلَ","qpc_uthmani_hafs":"نَزَلَ","char_type_name":"word","page_number":375,"line_number":7,"text":"نَزَلَ","translation":{"text":"অবতরণ করেছে","language_name":"bengali","language_id":20},"transliteration":{"text":"nazala","language_name":"english","language_id":38}},{"id":84746,"position":2,"audio_url":"wbw/026_193_002.mp3","verse_key":"26:193","verse_id":3125,"location":"26:193:2","text_uthmani":"بِهِ","qpc_uthmani_hafs":"بِهِ","char_type_name":"word","page_number":375,"line_number":7,"text":"بِهِ","translation":{"text":"নিয়ে তা","language_name":"bengali","language_id":20},"transliteration":{"text":"bihi","language_name":"english","language_id":38}},{"id":84747,"position":3,"audio_url":"wbw/026_193_003.mp3","verse_key":"26:193","verse_id":3125,"location":"26:193:3","text_uthmani":"ٱلرُّوحُ","qpc_uthmani_hafs":"ٱلرُّوحُ","char_type_name":"word","page_number":375,"line_number":8,"text":"ٱلرُّوحُ","translation":{"text":"রূহ (জিবরাঈল)","language_name":"bengali","language_id":20},"transliteration":{"text":"l-rūḥu","language_name":"english","language_id":38}},{"id":84748,"position":4,"audio_url":"wbw/026_193_004.mp3","verse_key":"26:193","verse_id":3125,"location":"26:193:4","text_uthmani":"ٱلْأَمِينُ","qpc_uthmani_hafs":"ٱلۡأَمِينُ","char_type_name":"word","page_number":375,"line_number":8,"text":"ٱلۡأَمِينُ","translation":{"text":"বিশ্বস্ত","language_name":"bengali","language_id":20},"transliteration":{"text":"l-amīnu","language_name":"english","language_id":38}},{"id":84749,"position":5,"audio_url":null,"verse_key":"26:193","verse_id":3125,"location":"26:193:5","text_uthmani":"١٩٣","qpc_uthmani_hafs":"١٩٣","char_type_name":"end","page_number":375,"line_number":8,"text":"١٩٣","translation":{"text":"(১৯৩)","language_name":"bengali","language_id":20},"transliteration":{"text":null,"language_name":"english","language_id":38}}]},{"id":3126,"verse_number":194,"verse_key":"26:194","hizb_number":38,"rub_el_hizb_number":150,"ruku_number":326,"manzil_number":5,"sajdah_number":null,"page_number":375,"juz_number":19,"words":[{"id":84803,"position":1,"audio_url":"wbw/026_194_001.mp3","verse_key":"26:194","verse_id":3126,"location":"26:194:1","text_uthmani":"عَلَىٰ","qpc_uthmani_hafs":"عَلَىٰ","char_type_name":"word","page_number":375,"line_number":8,"text":"عَلَىٰ","translation":{"text":"উপর","language_name":"bengali","language_id":20},"transliteration":{"text":"ʿalā","language_name":"english","language_id":38}},{"id":84804,"position":2,"audio_url":"wbw/026_194_002.mp3","verse_key":"26:194","verse_id":3126,"location":"26:194:2","text_uthmani":"قَلْبِكَ","qpc_uthmani_hafs":"قَلۡبِكَ","char_type_name":"word","page_number":375,"line_number":8,"text":"قَلۡبِكَ","translation":{"text":"তোমার অন্তরের","language_name":"bengali","language_id":20},"transliteration":{"text":"qalbika","language_name":"english","language_id":38}},{"id":84805,"position":3,"audio_url":"wbw/026_194_003.mp3","verse_key":"26:194","verse_id":3126,"location":"26:194:3","text_uthmani":"لِتَكُونَ","qpc_uthmani_hafs":"لِتَكُونَ","char_type_name":"word","page_number":375,"line_number":8,"text":"لِتَكُونَ","translation":{"text":"যেন তুমি হও","language_name":"bengali","language_id":20},"transliteration":{"text":"litakūna","language_name":"english","language_id":38}},{"id":84806,"position":4,"audio_url":"wbw/026_194_004.mp3","verse_key":"26:194","verse_id":3126,"location":"26:194:4","text_uthmani":"مِنَ","qpc_uthmani_hafs":"مِنَ","char_type_name":"word","page_number":375,"line_number":8,"text":"مِنَ","translation":{"text":"অন্তর্ভুক্ত","language_name":"bengali","language_id":20},"transliteration":{"text":"mina","language_name":"english","language_id":38}},{"id":84807,"position":5,"audio_url":"wbw/026_194_005.mp3","verse_key":"26:194","verse_id":3126,"location":"26:194:5","text_uthmani":"ٱلْمُنذِرِينَ","qpc_uthmani_hafs":"ٱلۡمُنذِرِينَ","char_type_name":"word","page_number":375,"line_number":8,"text":"ٱلۡمُنذِرِينَ","translation":{"text":"সতর্ককারীদের","language_name":"bengali","language_id":20},"transliteration":{"text":"l-mundhirīna","language_name":"english","language_id":38}},{"id":84808,"position":6,"audio_url":null,"verse_key":"26:194","verse_id":3126,"location":"26:194:6","text_uthmani":"١٩٤","qpc_uthmani_hafs":"١٩٤","char_type_name":"end","page_number":375,"line_number":8,"text":"١٩٤","translation":{"text":"(১৯৪)","language_name":"bengali","language_id":20},"transliteration":{"text":null,"language_name":"english","language_id":38}}]},{"id":3127,"verse_number":195,"verse_key":"26:195","hizb_number":38,"rub_el_hizb_number":150,"ruku_number":326,"manzil_number":5,"sajdah_number":null,"page_number":375,"juz_number":19,"words":[{"id":84961,"position":1,"audio_url":"wbw/026_195_001.mp3","verse_key":"26:195","verse_id":3127,"location":"26:195:1","text_uthmani":"بِلِسَانٍ","qpc_uthmani_hafs":"بِلِسَانٍ","char_type_name":"word","page_number":375,"line_number":8,"text":"بِلِسَانٍ","translation":{"text":"মাধ্যমে ভাষায়","language_name":"bengali","language_id":20},"transliteration":{"text":"bilisānin","language_name":"english","language_id":38}},{"id":84962,"position":2,"audio_url":"wbw/026_195_002.mp3","verse_key":"26:195","verse_id":3127,"location":"26:195:2","text_uthmani":"عَرَبِىٍّۢ","qpc_uthmani_hafs":"عَرَبِيّٖ","char_type_name":"word","page_number":375,"line_number":9,"text":"عَرَبِيّٖ","translation":{"text":"আরবী","language_name":"bengali","language_id":20},"transliteration":{"text":"ʿarabiyyin","language_name":"english","language_id":38}},{"id":84963,"position":3,"audio_url":"wbw/026_195_003.mp3","verse_key":"26:195","verse_id":3127,"location":"26:195:3","text_uthmani":"مُّبِينٍۢ","qpc_uthmani_hafs":"مُّبِينٖ","char_type_name":"word","page_number":375,"line_number":9,"text":"مُّبِينٖ","translation":{"text":"সুস্পষ্ট","language_name":"bengali","language_id":20},"transliteration":{"text":"mubīnin","language_name":"english","language_id":38}},{"id":84964,"position":4,"audio_url":null,"verse_key":"26:195","verse_id":3127,"location":"26:195:4","text_uthmani":"١٩٥","qpc_uthmani_hafs":"١٩٥","char_type_name":"end","page_number":375,"line_number":9,"text":"١٩٥","translation":{"text":"(১৯৫)","language_name":"bengali","language_id":20},"transliteration":{"text":null,"language_name":"english","language_id":38}}]},{"id":3128,"verse_number":196,"verse_key":"26:196","hizb_number":38,"rub_el_hizb_number":150,"ruku_number":326,"manzil_number":5,"sajdah_number":null,"page_number":375,"juz_number":19,"words":[{"id":84965,"position":1,"audio_url":"wbw/026_196_001.mp3","verse_key":"26:196","verse_id":3128,"location":"26:196:1","text_uthmani":"وَإِنَّهُۥ","qpc_uthmani_hafs":"وَإِنَّهُۥ","char_type_name":"word","page_number":375,"line_number":9,"text":"وَإِنَّهُۥ","translation":{"text":"এবং নিশ্চয়ই তা","language_name":"bengali","language_id":20},"transliteration":{"text":"wa-innahu","language_name":"english","language_id":38}},{"id":84966,"position":2,"audio_url":"wbw/026_196_002.mp3","verse_key":"26:196","verse_id":3128,"location":"26:196:2","text_uthmani":"لَفِى","qpc_uthmani_hafs":"لَفِي","char_type_name":"word","page_number":375,"line_number":9,"text":"لَفِي","translation":{"text":"অবশ্যই মধ্যে (আছে)","language_name":"bengali","language_id":20},"transliteration":{"text":"lafī","language_name":"english","language_id":38}},{"id":84967,"position":3,"audio_url":"wbw/026_196_003.mp3","verse_key":"26:196","verse_id":3128,"location":"26:196:3","text_uthmani":"زُبُرِ","qpc_uthmani_hafs":"زُبُرِ","char_type_name":"word","page_number":375,"line_number":9,"text":"زُبُرِ","translation":{"text":"কিতাবসমূহের","language_name":"bengali","language_id":20},"transliteration":{"text":"zuburi","language_name":"english","language_id":38}},{"id":84968,"position":4,"audio_url":"wbw/026_196_004.mp3","verse_key":"26:196","verse_id":3128,"location":"26:196:4","text_uthmani":"ٱلْأَوَّلِينَ","qpc_uthmani_hafs":"ٱلۡأَوَّلِينَ","char_type_name":"word","page_number":375,"line_number":9,"text":"ٱلۡأَوَّلِينَ","translation":{"text":"পুর্ববর্তী","language_name":"bengali","language_id":20},"transliteration":{"text":"l-awalīna","language_name":"english","language_id":38}},{"id":84969,"position":5,"audio_url":null,"verse_key":"26:196","verse_id":3128,"location":"26:196:5","text_uthmani":"١٩٦","qpc_uthmani_hafs":"١٩٦","char_type_name":"end","page_number":375,"line_number":9,"text":"١٩٦","translation":{"text":"(১৯৬)","language_name":"bengali","language_id":20},"transliteration":{"text":null,"language_name":"english","language_id":38}}]},{"id":3129,"verse_number":197,"verse_key":"26:197","hizb_number":38,"rub_el_hizb_number":150,"ruku_number":326,"manzil_number":5,"sajdah_number":null,"page_number":375,"juz_number":19,"words":[{"id":85116,"position":1,"audio_url":"wbw/026_197_001.mp3","verse_key":"26:197","verse_id":3129,"location":"26:197:1","text_uthmani":"أَوَلَمْ","qpc_uthmani_hafs":"أَوَلَمۡ","char_type_name":"word","page_number":375,"line_number":9,"text":"أَوَلَمۡ","translation":{"text":"কি নি","language_name":"bengali","language_id":20},"transliteration":{"text":"awalam","language_name":"english","language_id":38}},{"id":85117,"position":2,"audio_url":"wbw/026_197_002.mp3","verse_key":"26:197","verse_id":3129,"location":"26:197:2","text_uthmani":"يَكُن","qpc_uthmani_hafs":"يَكُن","char_type_name":"word","page_number":375,"line_number":9,"text":"يَكُن","translation":{"text":"হয়","language_name":"bengali","language_id":20},"transliteration":{"text":"yakun","language_name":"english","language_id":38}},{"id":85118,"position":3,"audio_url":"wbw/026_197_003.mp3","verse_key":"26:197","verse_id":3129,"location":"26:197:3","text_uthmani":"لَّهُمْ","qpc_uthmani_hafs":"لَّهُمۡ","char_type_name":"word","page_number":375,"line_number":9,"text":"لَّهُمۡ","translation":{"text":"জন্যে তাদের","language_name":"bengali","language_id":20},"transliteration":{"text":"lahum","language_name":"english","language_id":38}},{"id":85119,"position":4,"audio_url":"wbw/026_197_004.mp3","verse_key":"26:197","verse_id":3129,"location":"26:197:4","text_uthmani":"ءَايَةً","qpc_uthmani_hafs":"ءَايَةً","char_type_name":"word","page_number":375,"line_number":9,"text":"ءَايَةً","translation":{"text":"একটি নিদর্শন","language_name":"bengali","language_id":20},"transliteration":{"text":"āyatan","language_name":"english","language_id":38}},{"id":85120,"position":5,"audio_url":"wbw/026_197_005.mp3","verse_key":"26:197","verse_id":3129,"location":"26:197:5","text_uthmani":"أَن","qpc_uthmani_hafs":"أَن","char_type_name":"word","page_number":375,"line_number":10,"text":"أَن","translation":{"text":"যে","language_name":"bengali","language_id":20},"transliteration":{"text":"an","language_name":"english","language_id":38}},{"id":85121,"position":6,"audio_url":"wbw/026_197_006.mp3","verse_key":"26:197","verse_id":3129,"location":"26:197:6","text_uthmani":"يَعْلَمَهُۥ","qpc_uthmani_hafs":"يَعۡلَمَهُۥ","char_type_name":"word","page_number":375,"line_number":10,"text":"يَعۡلَمَهُۥ","translation":{"text":"তা জানে","language_name":"bengali","language_id":20},"transliteration":{"text":"yaʿlamahu","language_name":"english","language_id":38}},{"id":85122,"position":7,"audio_url":"wbw/026_197_007.mp3","verse_key":"26:197","verse_id":3129,"location":"26:197:7","text_uthmani":"عُلَمَـٰٓؤُا۟","qpc_uthmani_hafs":"عُلَمَٰٓؤُاْ","char_type_name":"word","page_number":375,"line_number":10,"text":"عُلَمَٰٓؤُاْ","translation":{"text":"পন্ডিতরা","language_name":"bengali","language_id":20},"transliteration":{"text":"ʿulamāu","language_name":"english","language_id":38}},{"id":85123,"position":8,"audio_url":"wbw/026_197_008.mp3","verse_key":"26:197","verse_id":3129,"location":"26:197:8","text_uthmani":"بَنِىٓ","qpc_uthmani_hafs":"بَنِيٓ","char_type_name":"word","page_number":375,"line_number":10,"text":"بَنِيٓ","translation":{"text":"বনী","language_name":"bengali","language_id":20},"transliteration":{"text":"banī","language_name":"english","language_id":38}},{"id":85124,"position":9,"audio_url":"wbw/026_197_009.mp3","verse_key":"26:197","verse_id":3129,"location":"26:197:9","text_uthmani":"إِسْرَٰٓءِيلَ","qpc_uthmani_hafs":"إِسۡرَٰٓءِيلَ","char_type_name":"word","page_number":375,"line_number":10,"text":"إِسۡرَٰٓءِيلَ","translation":{"text":"ইসরাঈলের","language_name":"bengali","language_id":20},"transliteration":{"text":"is'rāīla","language_name":"english","language_id":38}},{"id":85125,"position":10,"audio_url":null,"verse_key":"26:197","verse_id":3129,"location":"26:197:10","text_uthmani":"١٩٧","qpc_uthmani_hafs":"١٩٧","char_type_name":"end","page_number":375,"line_number":10,"text":"١٩٧","translation":{"text":"(১৯৭)","language_name":"bengali","language_id":20},"transliteration":{"text":null,"language_name":"english","language_id":38}}]},{"id":3130,"verse_number":198,"verse_key":"26:198","hizb_number":38,"rub_el_hizb_number":150,"ruku_number":326,"manzil_number":5,"sajdah_number":null,"page_number":375,"juz_number":19,"words":[{"id":85187,"position":1,"audio_url":"wbw/026_198_001.mp3","verse_key":"26:198","verse_id":3130,"location":"26:198:1","text_uthmani":"وَلَوْ","qpc_uthmani_hafs":"وَلَوۡ","char_type_name":"word","page_number":375,"line_number":10,"text":"وَلَوۡ","translation":{"text":"আর যদি","language_name":"bengali","language_id":20},"transliteration":{"text":"walaw","language_name":"english","language_id":38}},{"id":85188,"position":2,"audio_url":"wbw/026_198_002.mp3","verse_key":"26:198","verse_id":3130,"location":"26:198:2","text_uthmani":"نَزَّلْنَـٰهُ","qpc_uthmani_hafs":"نَزَّلۡنَٰهُ","char_type_name":"word","page_number":375,"line_number":10,"text":"نَزَّلۡنَٰهُ","translation":{"text":"তা আমরা অবতীর্ণ করতাম","language_name":"bengali","language_id":20},"transliteration":{"text":"nazzalnāhu","language_name":"english","language_id":38}},{"id":85189,"position":3,"audio_url":"wbw/026_198_003.mp3","verse_key":"26:198","verse_id":3130,"location":"26:198:3","text_uthmani":"عَلَىٰ","qpc_uthmani_hafs":"عَلَىٰ","char_type_name":"word","page_number":375,"line_number":10,"text":"عَلَىٰ","translation":{"text":"উপর","language_name":"bengali","language_id":20},"transliteration":{"text":"ʿalā","language_name":"english","language_id":38}},{"id":85190,"position":4,"audio_url":"wbw/026_198_004.mp3","verse_key":"26:198","verse_id":3130,"location":"26:198:4","text_uthmani":"بَعْضِ","qpc_uthmani_hafs":"بَعۡضِ","char_type_name":"word","page_number":375,"line_number":10,"text":"بَعۡضِ","translation":{"text":"কারোও","language_name":"bengali","language_id":20},"transliteration":{"text":"baʿḍi","language_name":"english","language_id":38}},{"id":85191,"position":5,"audio_url":"wbw/026_198_005.mp3","verse_key":"26:198","verse_id":3130,"location":"26:198:5","text_uthmani":"ٱلْأَعْجَمِينَ","qpc_uthmani_hafs":"ٱلۡأَعۡجَمِينَ","char_type_name":"word","page_number":375,"line_number":10,"text":"ٱلۡأَعۡجَمِينَ","translation":{"text":"অনারবদের","language_name":"bengali","language_id":20},"transliteration":{"text":"l-aʿjamīna","language_name":"english","language_id":38}},{"id":85192,"position":6,"audio_url":null,"verse_key":"26:198","verse_id":3130,"location":"26:198:6","text_uthmani":"١٩٨","qpc_uthmani_hafs":"١٩٨","char_type_name":"end","page_number":375,"line_number":11,"text":"١٩٨","translation":{"text":"(১৯৮)","language_name":"bengali","language_id":20},"transliteration":{"text":null,"language_name":"english","language_id":38}}]},{"id":3131,"verse_number":199,"verse_key":"26:199","hizb_number":38,"rub_el_hizb_number":150,"ruku_number":326,"manzil_number":5,"sajdah_number":null,"page_number":375,"juz_number":19,"words":[{"id":85262,"position":1,"audio_url":"wbw/026_199_001.mp3","verse_key":"26:199","verse_id":3131,"location":"26:199:1","text_uthmani":"فَقَرَأَهُۥ","qpc_uthmani_hafs":"فَقَرَأَهُۥ","char_type_name":"word","page_number":375,"line_number":11,"text":"فَقَرَأَهُۥ","translation":{"text":"অতঃপর পাঠ করতো তা","language_name":"bengali","language_id":20},"transliteration":{"text":"faqara-ahu","language_name":"english","language_id":38}},{"id":85263,"position":2,"audio_url":"wbw/026_199_002.mp3","verse_key":"26:199","verse_id":3131,"location":"26:199:2","text_uthmani":"عَلَيْهِم","qpc_uthmani_hafs":"عَلَيۡهِم","char_type_name":"word","page_number":375,"line_number":11,"text":"عَلَيۡهِم","translation":{"text":"কাছে তাদের","language_name":"bengali","language_id":20},"transliteration":{"text":"ʿalayhim","language_name":"english","language_id":38}},{"id":85264,"position":3,"audio_url":"wbw/026_199_003.mp3","verse_key":"26:199","verse_id":3131,"location":"26:199:3","text_uthmani":"مَّا","qpc_uthmani_hafs":"مَّا","char_type_name":"word","page_number":375,"line_number":11,"text":"مَّا","translation":{"text":"না","language_name":"bengali","language_id":20},"transliteration":{"text":"mā","language_name":"english","language_id":38}},{"id":85265,"position":4,"audio_url":"wbw/026_199_004.mp3","verse_key":"26:199","verse_id":3131,"location":"26:199:4","text_uthmani":"كَانُوا۟","qpc_uthmani_hafs":"كَانُواْ","char_type_name":"word","page_number":375,"line_number":11,"text":"كَانُواْ","translation":{"text":"তারা হতো","language_name":"bengali","language_id":20},"transliteration":{"text":"kānū","language_name":"english","language_id":38}},{"id":85266,"position":5,"audio_url":"wbw/026_199_005.mp3","verse_key":"26:199","verse_id":3131,"location":"26:199:5","text_uthmani":"بِهِۦ","qpc_uthmani_hafs":"بِهِۦ","char_type_name":"word","page_number":375,"line_number":11,"text":"بِهِۦ","translation":{"text":"প্রতি তার","language_name":"bengali","language_id":20},"transliteration":{"text":"bihi","language_name":"english","language_id":38}},{"id":85267,"position":6,"audio_url":"wbw/026_199_006.mp3","verse_key":"26:199","verse_id":3131,"location":"26:199:6","text_uthmani":"مُؤْمِنِينَ","qpc_uthmani_hafs":"مُؤۡمِنِينَ","char_type_name":"word","page_number":375,"line_number":11,"text":"مُؤۡمِنِينَ","translation":{"text":"মু'মিন","language_name":"bengali","language_id":20},"transliteration":{"text":"mu'minīna","language_name":"english","language_id":38}},{"id":85268,"position":7,"audio_url":null,"verse_key":"26:199","verse_id":3131,"location":"26:199:7","text_uthmani":"١٩٩","qpc_uthmani_hafs":"١٩٩","char_type_name":"end","page_number":375,"line_number":11,"text":"١٩٩","translation":{"text":"(১৯৯)","language_name":"bengali","language_id":20},"transliteration":{"text":null,"language_name":"english","language_id":38}}]},{"id":3132,"verse_number":200,"verse_key":"26:200","hizb_number":38,"rub_el_hizb_number":150,"ruku_number":326,"manzil_number":5,"sajdah_number":null,"page_number":375,"juz_number":19,"words":[{"id":85269,"position":1,"audio_url":"wbw/026_200_001.mp3","verse_key":"26:200","verse_id":3132,"location":"26:200:1","text_uthmani":"كَذَٰلِكَ","qpc_uthmani_hafs":"كَذَٰلِكَ","char_type_name":"word","page_number":375,"line_number":11,"text":"كَذَٰلِكَ","translation":{"text":"এরূপেই","language_name":"bengali","language_id":20},"transliteration":{"text":"kadhālika","language_name":"english","language_id":38}},{"id":85270,"position":2,"audio_url":"wbw/026_200_002.mp3","verse_key":"26:200","verse_id":3132,"location":"26:200:2","text_uthmani":"سَلَكْنَـٰهُ","qpc_uthmani_hafs":"سَلَكۡنَٰهُ","char_type_name":"word","page_number":375,"line_number":11,"text":"سَلَكۡنَٰهُ","translation":{"text":"তা আমরা সঞ্চার করেছি","language_name":"bengali","language_id":20},"transliteration":{"text":"salaknāhu","language_name":"english","language_id":38}},{"id":85271,"position":3,"audio_url":"wbw/026_200_003.mp3","verse_key":"26:200","verse_id":3132,"location":"26:200:3","text_uthmani":"فِى","qpc_uthmani_hafs":"فِي","char_type_name":"word","page_number":375,"line_number":12,"text":"فِي","translation":{"text":"মধ্যে","language_name":"bengali","language_id":20},"transliteration":{"text":"fī","language_name":"english","language_id":38}},{"id":85272,"position":4,"audio_url":"wbw/026_200_004.mp3","verse_key":"26:200","verse_id":3132,"location":"26:200:4","text_uthmani":"قُلُوبِ","qpc_uthmani_hafs":"قُلُوبِ","char_type_name":"word","page_number":375,"line_number":12,"text":"قُلُوبِ","translation":{"text":"অন্তরসমূহের","language_name":"bengali","language_id":20},"transliteration":{"text":"qulūbi","language_name":"english","language_id":38}},{"id":85273,"position":5,"audio_url":"wbw/026_200_005.mp3","verse_key":"26:200","verse_id":3132,"location":"26:200:5","text_uthmani":"ٱلْمُجْرِمِينَ","qpc_uthmani_hafs":"ٱلۡمُجۡرِمِينَ","char_type_name":"word","page_number":375,"line_number":12,"text":"ٱلۡمُجۡرِمِينَ","translation":{"text":"অপরাধীদের","language_name":"bengali","language_id":20},"transliteration":{"text":"l-muj'rimīna","language_name":"english","language_id":38}},{"id":85274,"position":6,"audio_url":null,"verse_key":"26:200","verse_id":3132,"location":"26:200:6","text_uthmani":"٢٠٠","qpc_uthmani_hafs":"٢٠٠","char_type_name":"end","page_number":375,"line_number":12,"text":"٢٠٠","translation":{"text":"(২০০)","language_name":"bengali","language_id":20},"transliteration":{"text":null,"language_name":"english","language_id":38}}]}],"pagination":{"per_page":10,"current_page":20,"next_page":21,"total_pages":23,"total_records":227}}
