{"verses":[{"id":3133,"verse_number":201,"verse_key":"26:201","hizb_number":38,"rub_el_hizb_number":150,"ruku_number":326,"manzil_number":5,"sajdah_number":null,"page_number":375,"juz_number":19,"words":[{"id":85352,"position":1,"audio_url":"wbw/026_201_001.mp3","char_type_name":"word","page_number":375,"line_number":12,"text":"لَا","translation":{"text":"না","language_name":"bengali","language_id":20},"transliteration":{"text":"lā","language_name":"english","language_id":38}},{"id":85353,"position":2,"audio_url":"wbw/026_201_002.mp3","char_type_name":"word","page_number":375,"line_number":12,"text":"يُؤْمِنُونَ","translation":{"text":"তারা ঈমান আনবে","language_name":"bengali","language_id":20},"transliteration":{"text":"yu'minūna","language_name":"english","language_id":38}},{"id":85354,"position":3,"audio_url":"wbw/026_201_003.mp3","char_type_name":"word","page_number":375,"line_number":12,"text":"بِهِۦ","translation":{"text":"প্রতি তার","language_name":"bengali","language_id":20},"transliteration":{"text":"bihi","language_name":"english","language_id":38}},{"id":85355,"position":4,"audio_url":"wbw/026_201_004.mp3","char_type_name":"word","page_number":375,"line_number":12,"text":"حَتَّىٰ","translation":{"text":"যতক্ষণ না","language_name":"bengali","language_id":20},"transliteration":{"text":"ḥattā","language_name":"english","language_id":38}},{"id":85356,"position":5,"audio_url":"wbw/026_201_005.mp3","char_type_name":"word","page_number":375,"line_number":12,"text":"يَرَوُا۟","translation":{"text":"তারা দেখবে","language_name":"bengali","language_id":20},"transliteration":{"text":"yarawū","language_name":"english","language_id":38}},{"id":85357,"position":6,"audio_url":"wbw/026_201_006.mp3","char_type_name":"word","page_number":375,"line_number":12,"text":"ٱلْعَذَابَ","translation":{"text":"শাস্তি","language_name":"bengali","language_id":20},"transliteration":{"text":"l-ʿadhāba","language_name":"english","language_id":38}},{"id":85358,"position":7,"audio_url":"wbw/026_201_007.mp3","char_type_name":"word","page_number":375,"line_number":13,"text":"ٱلْأَلِيمَ","translation":{"text":"নিদারুণ","language_name":"bengali","language_id":20},"transliteration":{"text":"l-alīma","language_name":"english","language_id":38}},{"id":85359,"position":8,"audio_url":null,"char_type_name":"end","page_number":375,"line_number":13,"text":"٢٠١","translation":{"text":"(২০১)","language_name":"bengali","language_id":20},"transliteration":{"text":null,"language_name":"english","language_id":38}}]},{"id":3134,"verse_number":202,"verse_key":"26:202","hizb_number":38,"rub_el_hizb_number":150,"ruku_number":326,"manzil_number":5,"sajdah_number":null,"page_number":375,"juz_number":19,"words":[{"id":85370,"position":1,"audio_url":"wbw/026_202_001.mp3","char_type_name":"word","page_number":375,"line_number":13,"text":"فَيَأْتِيَهُم","translation":{"text":"অতঃপর তাদের (উপর) এসে পড়বে","language_name":"bengali","language_id":20},"transliteration":{"text":"fayatiyahum","language_name":"english","language_id":38}},{"id":85371,"position":2,"audio_url":"wbw/026_202_002.mp3","char_type_name":"word","page_number":375,"line_number":13,"text":"بَغْتَةًۭ","translation":{"text":"হঠাৎ করে","language_name":"bengali","language_id":20},"transliteration":{"text":"baghtatan","language_name":"english","language_id":38}},{"id":85372,"position":3,"audio_url":"wbw/026_202_003.mp3","char_type_name":"word","page_number":375,"line_number":13,"text":"وَهُمْ","translation":{"text":"এমতাবস্হায় যে তারা","language_name":"bengali","language_id":20},"transliteration":{"text":"wahum","language_name":"english","language_id":38}},{"id":85373,"position":4,"audio_url":"wbw/026_202_004.mp3","char_type_name":"word","page_number":375,"line_number":13,"text":"لَا","translation":{"text":"না","language_name":"bengali","language_id":20},"transliteration":{"text":"lā","language_name":"english","language_id":38}},{"id":85374,"position":5,"audio_url":"wbw/026_202_005.mp3","char_type_name":"word","page_number":375,"line_number":13,"text":"يَشْعُرُونَ","translation":{"text":"অনুভবও করবে","language_name":"bengali","language_id":20},"transliteration":{"text":"yashʿurūna","language_name":"english","language_id":38}},{"id":85375,"position":6,"audio_url":null,"char_type_name":"end","page_number":375,"line_number":13,"text":"٢٠٢","translation":{"text":"(২০২)","language_name":"bengali","language_id":20},"transliteration":{"text":null,"language_name":"english","language_id":38}}]},{"id":3135,"verse_number":203,"verse_key":"26:203","hizb_number":38,"rub_el_hizb_number":150,"ruku_number":326,"manzil_number":5,"sajdah_number":null,"page_number":375,"juz_number":19,"words":[{"id":85440,"position":1,"audio_url":"wbw/026_203_001.mp3","char_type_name":"word","page_number":375,"line_number":13,"text":"فَيَقُولُوا۟","translation":{"text":"তখন তারা বলবে","language_name":"bengali","language_id":20},"transliteration":{"text":"fayaqūlū","language_name":"english","language_id":38}},{"id":85441,"position":2,"audio_url":"wbw/026_203_002.mp3","char_type_name":"word","page_number":375,"line_number":14,"text":"هَلْ","translation":{"text":"\"কি","language_name":"bengali","language_id":20},"transliteration":{"text":"hal","language_name":"english","language_id":38}},{"id":85442,"position":3,"audio_url":"wbw/026_203_003.mp3","char_type_name":"word","page_number":375,"line_number":14,"text":"نَحْنُ","translation":{"text":"আমরা","language_name":"bengali","language_id":20},"transliteration":{"text":"naḥnu","language_name":"english","language_id":38}},{"id":85443,"position":4,"audio_url":"wbw/026_203_004.mp3","char_type_name":"word","page_number":375,"line_number":14,"text":"مُنظَرُونَ","translation":{"text":"অবকাশপ্রাপ্ত\"","language_name":"bengali","language_id":20},"transliteration":{"text":"munẓarūna","language_name":"english","language_id":38}},{"id":85444,"position":5,"audio_url":null,"char_type_name":"end","page_number":375,"line_number":14,"text":"٢٠٣","translation":{"text":"(২০৩)","language_name":"bengali","language_id":20},"transliteration":{"text":null,"language_name":"english","language_id":38}}]},{"id":3136,"verse_number":204,"verse_key":"26:204","hizb_number":38,"rub_el_hizb_number":150,"ruku_number":326,"manzil_number":5,"sajdah_number":null,"page_number":375,"juz_number":19,"words":[{"id":85463,"position":1,"audio_url":"wbw/026_204_001.mp3","char_type_name":"word","page_number":375,"line_number":14,"text":"أَفَبِعَذَابِنَا","translation":{"text":"কি তবে শাস্তি সম্পর্কে আমাদের","language_name":"bengali","language_id":20},"transliteration":{"text":"afabiʿadhābinā","language_name":"english","language_id":38}},{"id":85464,"position":2,"audio_url":"wbw/026_204_002.mp3","char_type_name":"word","page_number":375,"line_number":14,"text":"يَسْتَعْجِلُونَ","translation":{"text":"তারা তাড়াহুড়া করছে","language_name":"bengali","language_id":20},"transliteration":{"text":"yastaʿjilūna","language_name":"english","language_id":38}},{"id":85465,"position":3,"audio_url":null,"char_type_name":"end","page_number":375,"line_number":14,"text":"٢٠٤","translation":{"text":"(২০৪)","language_name":"bengali","language_id":20},"transliteration":{"text":null,"language_name":"english","language_id":38}}]},{"id":3137,"verse_number":205,"verse_key":"26:205","hizb_number":38,"rub_el_hizb_number":150,"ruku_number":326,"manzil_number":5,"sajdah_number":null,"page_number":375,"juz_number":19,"words":[{"id":85475,"position":1,"audio_url":"wbw/026_205_001.mp3","char_type_name":"word","page_number":375,"line_number":14,"text":"أَفَرَءَيْتَ","translation":{"text":"কি তবে তুমি ভেবে দেখেছো","language_name":"bengali","language_id":20},"transliteration":{"text":"afara-ayta","language_name":"english","language_id":38}},{"id":85476,"position":2,"audio_url":"wbw/026_205_002.mp3","char_type_name":"word","page_number":375,"line_number":15,"text":"إِن","translation":{"text":"যদি","language_name":"bengali","language_id":20},"transliteration":{"text":"in","language_name":"english","language_id":38}},{"id":85477,"position":3,"audio_url":"wbw/026_205_003.mp3","char_type_name":"word","page_number":375,"line_number":15,"text":"مَّتَّعْنَـٰهُمْ","translation":{"text":"আমরা ভোগবিলাস করতে দিই তাদেরকে","language_name":"bengali","language_id":20},"transliteration":{"text":"mattaʿnāhum","language_name":"english","language_id":38}},{"id":85478,"position":4,"audio_url":"wbw/026_205_004.mp3","char_type_name":"word","page_number":375,"line_number":15,"text":"سِنِينَ","translation":{"text":"(বহু) বছর","language_name":"bengali","language_id":20},"transliteration":{"text":"sinīna","language_name":"english","language_id":38}},{"id":85479,"position":5,"audio_url":null,"char_type_name":"end","page_number":375,"line_number":15,"text":"٢٠٥","translation":{"text":"(২০৫)","language_name":"bengali","language_id":20},"transliteration":{"text":null,"language_name":"english","language_id":38}}]},{"id":3138,"verse_number":206,"verse_key":"26:206","hizb_number":38,"rub_el_hizb_number":150,"ruku_number":326,"manzil_number":5,"sajdah_number":null,"page_number":375,"juz_number":19,"words":[{"id":85513,"position":1,"audio_url":"wbw/026_206_001.mp3","char_type_name":"word","page_number":375,"line_number":15,"text":"ثُمَّ","translation":{"text":"এরপরও","language_name":"bengali","language_id":20},"transliteration":{"text":"thumma","language_name":"english","language_id":38}},{"id":85514,"position":2,"audio_url":"wbw/026_206_002.mp3","char_type_name":"word","page_number":375,"line_number":15,"text":"جَآءَهُم","translation":{"text":"আসে তাদের (নিকট)","language_name":"bengali","language_id":20},"transliteration":{"text":"jāahum","language_name":"english","language_id":38}},{"id":85515,"position":3,"audio_url":"wbw/026_206_003.mp3","char_type_name":"word","page_number":375,"line_number":15,"text":"مَّا","translation":{"text":"যা","language_name":"bengali","language_id":20},"transliteration":{"text":"mā","language_name":"english","language_id":38}},{"id":85516,"position":4,"audio_url":"wbw/026_206_004.mp3","char_type_name":"word","page_number":375,"line_number":15,"text":"كَانُوا۟","translation":{"text":"তারা ছিলো","language_name":"bengali","language_id":20},"transliteration":{"text":"kānū","language_name":"english","language_id":38}},{"id":85517,"position":5,"audio_url":"wbw/026_206_005.mp3","char_type_name":"word","page_number":375,"line_number":15,"text":"يُوعَدُونَ","translation":{"text":"তাদেরকে সতর্ক করা হচ্ছে","language_name":"bengali","language_id":20},"transliteration":{"text":"yūʿadūna","language_name":"english","language_id":38}},{"id":85518,"position":6,"audio_url":null,"char_type_name":"end","page_number":375,"line_number":15,"text":"٢٠٦","translation":{"text":"(২০৬)","language_name":"bengali","language_id":20},"transliteration":{"text":null,"language_name":"english","language_id":38}}]},{"id":3139,"verse_number":207,"verse_key":"26:207","hizb_number":38,"rub_el_hizb_number":150,"ruku_number":326,"manzil_number":5,"sajdah_number":null,"page_number":376,"juz_number":19,"words":[{"id":85547,"position":1,"audio_url":"wbw/026_207_001.mp3","char_type_name":"word","page_number":376,"line_number":1,"text":"مَآ","translation":{"text":"(তাহ'লেও) কি","language_name":"bengali","language_id":20},"transliteration":{"text":"mā","language_name":"english","language_id":38}},{"id":85548,"position":2,"audio_url":"wbw/026_207_002.mp3","char_type_name":"word","page_number":376,"line_number":1,"text":"أَغْنَىٰ","translation":{"text":"উপকারে আসবে","language_name":"bengali","language_id":20},"transliteration":{"text":"aghnā","language_name":"english","language_id":38}},{"id":85549,"position":3,"audio_url":"wbw/026_207_003.mp3","char_type_name":"word","page_number":376,"line_number":1,"text":"عَنْهُم","translation":{"text":"জন্যে তাদের","language_name":"bengali","language_id":20},"transliteration":{"text":"ʿanhum","language_name":"english","language_id":38}},{"id":85550,"position":4,"audio_url":"wbw/026_207_004.mp3","char_type_name":"word","page_number":376,"line_number":1,"text":"مَّا","translation":{"text":"যা কিছু","language_name":"bengali","language_id":20},"transliteration":{"text":"mā","language_name":"english","language_id":38}},{"id":85551,"position":5,"audio_url":"wbw/026_207_005.mp3","char_type_name":"word","page_number":376,"line_number":1,"text":"كَانُوا۟","translation":{"text":"তারা ছিলো","language_name":"bengali","language_id":20},"transliteration":{"text":"kānū","language_name":"english","language_id":38}},{"id":85552,"position":6,"audio_url":"wbw/026_207_006.mp3","char_type_name":"word","page_number":376,"line_number":1,"text":"يُمَتَّعُونَ","translation":{"text":"তারা উপভোগ করে","language_name":"bengali","language_id":20},"transliteration":{"text":"yumattaʿūna","language_name":"english","language_id":38}},{"id":85553,"position":7,"audio_url":null,"char_type_name":"end","page_number":376,"line_number":1,"text":"٢٠٧","translation":{"text":"(২০৭)","language_name":"bengali","language_id":20},"transliteration":{"text":null,"language_name":"english","language_id":38}}]},{"id":3140,"verse_number":208,"verse_key":"26:208","hizb_number":38,"rub_el_hizb_number":150,"ruku_number":326,"manzil_number":5,"sajdah_number":null,"page_number":376,"juz_number":19,"words":[{"id":85584,"position":1,"audio_url":"wbw/026_208_001.mp3","char_type_name":"word","page_number":376,"line_number":1,"text":"وَمَآ","translation":{"text":"আর না","language_name":"bengali","language_id":20},"transliteration":{"text":"wamā","language_name":"english","language_id":38}},{"id":85585,"position":2,"audio_url":"wbw/026_208_002.mp3","char_type_name":"word","page_number":376,"line_number":1,"text":"أَهْلَكْنَا","translation":{"text":"আমরা ধ্বংস করেছি","language_name":"bengali","language_id":20},"transliteration":{"text":"ahlaknā","language_name":"english","language_id":38}},{"id":85586,"position":3,"audio_url":"wbw/026_208_003.mp3","char_type_name":"word","page_number":376,"line_number":1,"text":"مِن","translation":{"text":"কোনো","language_name":"bengali","language_id":20},"transliteration":{"text":"min","language_name":"english","language_id":38}},{"id":85587,"position":4,"audio_url":"wbw/026_208_004.mp3","char_type_name":"word","page_number":376,"line_number":1,"text":"قَرْيَةٍ","translation":{"text":"জনপদ","language_name":"bengali","language_id":20},"transliteration":{"text":"qaryatin","language_name":"english","language_id":38}},{"id":85588,"position":5,"audio_url":"wbw/026_208_005.mp3","char_type_name":"word","page_number":376,"line_number":1,"text":"إِلَّا","translation":{"text":"এ ছাড়া (যে)","language_name":"bengali","language_id":20},"transliteration":{"text":"illā","language_name":"english","language_id":38}},{"id":85589,"position":6,"audio_url":"wbw/026_208_006.mp3","char_type_name":"word","page_number":376,"line_number":2,"text":"لَهَا","translation":{"text":"জন্যে তার (এসেছে)","language_name":"bengali","language_id":20},"transliteration":{"text":"lahā","language_name":"english","language_id":38}},{"id":85590,"position":7,"audio_url":"wbw/026_208_007.mp3","char_type_name":"word","page_number":376,"line_number":2,"text":"مُنذِرُونَ","translation":{"text":"সতর্ককারীরা","language_name":"bengali","language_id":20},"transliteration":{"text":"mundhirūna","language_name":"english","language_id":38}},{"id":85591,"position":8,"audio_url":null,"char_type_name":"end","page_number":376,"line_number":2,"text":"٢٠٨","translation":{"text":"(২০৮)","language_name":"bengali","language_id":20},"transliteration":{"text":null,"language_name":"english","language_id":38}}]},{"id":3141,"verse_number":209,"verse_key":"26:209","hizb_number":38,"rub_el_hizb_number":150,"ruku_number":326,"manzil_number":5,"sajdah_number":null,"page_number":376,"juz_number":19,"words":[{"id":85605,"position":1,"audio_url":"wbw/026_209_001.mp3","char_type_name":"word","page_number":376,"line_number":2,"text":"ذِكْرَىٰ","translation":{"text":"উপদেশস্বরূপ","language_name":"bengali","language_id":20},"transliteration":{"text":"dhik'rā","language_name":"english","language_id":38}},{"id":85606,"position":2,"audio_url":"wbw/026_209_002.mp3","char_type_name":"word","page_number":376,"line_number":2,"text":"وَمَا","translation":{"text":"আর না","language_name":"bengali","language_id":20},"transliteration":{"text":"wamā","language_name":"english","language_id":38}},{"id":85607,"position":3,"audio_url":"wbw/026_209_003.mp3","char_type_name":"word","page_number":376,"line_number":2,"text":"كُنَّا","translation":{"text":"আমরা ছিলাম","language_name":"bengali","language_id":20},"transliteration":{"text":"kunnā","language_name":"english","language_id":38}},{"id":85608,"position":4,"audio_url":"wbw/026_209_004.mp3","char_type_name":"word","page_number":376,"line_number":2,"text":"ظَـٰلِمِينَ","translation":{"text":"সীমালঙ্ঘনকারী","language_name":"bengali","language_id":20},"transliteration":{"text":"ẓālimīna","language_name":"english","language_id":38}},{"id":85609,"position":5,"audio_url":null,"char_type_name":"end","page_number":376,"line_number":2,"text":"٢٠٩","translation":{"text":"(২০৯)","language_name":"bengali","language_id":20},"transliteration":{"text":null,"language_name":"english","language_id":38}}]},{"id":3142,"verse_number":210,"verse_key":"26:210","hizb_number":38,"rub_el_hizb_number":150,"ruku_number":326,"manzil_number":5,"sajdah_number":null,"page_number":376,"juz_number":19,"words":[{"id":85629,"position":1,"audio_url":"wbw/026_210_001.mp3","char_type_name":"word","page_number":376,"line_number":2,"text":"وَمَا","translation":{"text":"এবং না","language_name":"bengali","language_id":20},"transliteration":{"text":"wamā","language_name":"english","language_id":38}},{"id":85630,"position":2,"audio_url":"wbw/026_210_002.mp3","char_type_name":"word","page_number":376,"line_number":2,"text":"تَنَزَّلَتْ","translation":{"text":"অবতীর্ণ করেছে","language_name":"bengali","language_id":20},"transliteration":{"text":"tanazzalat","language_name":"english","language_id":38}},{"id":85631,"position":3,"audio_url":"wbw/026_210_003.mp3","char_type_name":"word","page_number":376,"line_number":2,"text":"بِهِ","translation":{"text":"নিয়ে তা","language_name":"bengali","language_id":20},"transliteration":{"text":"bihi","language_name":"english","language_id":38}},{"id":85632,"position":4,"audio_url":"wbw/026_210_004.mp3","char_type_name":"word","page_number":376,"line_number":3,"text":"ٱلشَّيَـٰطِينُ","translation":{"text":"শয়তানরা","language_name":"bengali","language_id":20},"transliteration":{"text":"l-shayāṭīnu","language_name":"english","language_id":38}},{"id":85633,"position":5,"audio_url":null,"char_type_name":"end","page_number":376,"line_number":3,"text":"٢١٠","translation":{"text":"(২১০)","language_name":"bengali","language_id":20},"transliteration":{"text":null,"language_name":"english","language_id":38}}]}],"pagination":{"per_page":10,"current_page":21,"next_page":22,"total_pages":23,"total_records":227}}
