{"verses":[{"id":3143,"verse_number":211,"verse_key":"26:211","hizb_number":38,"rub_el_hizb_number":150,"ruku_number":326,"manzil_number":5,"sajdah_number":null,"page_number":376,"juz_number":19,"words":[{"id":85656,"position":1,"audio_url":"wbw/026_211_001.mp3","char_type_name":"word","page_number":376,"line_number":3,"text":"وَمَا","translation":{"text":"আর না","language_name":"bengali","language_id":20},"transliteration":{"text":"wamā","language_name":"english","language_id":38}},{"id":85657,"position":2,"audio_url":"wbw/026_211_002.mp3","char_type_name":"word","page_number":376,"line_number":3,"text":"يَنۢبَغِى","translation":{"text":"উচিত","language_name":"bengali","language_id":20},"transliteration":{"text":"yanbaghī","language_name":"english","language_id":38}},{"id":85658,"position":3,"audio_url":"wbw/026_211_003.mp3","char_type_name":"word","page_number":376,"line_number":3,"text":"لَهُمْ","translation":{"text":"জন্যে তাদের","language_name":"bengali","language_id":20},"transliteration":{"text":"lahum","language_name":"english","language_id":38}},{"id":85659,"position":4,"audio_url":"wbw/026_211_004.mp3","char_type_name":"word","page_number":376,"line_number":3,"text":"وَمَا","translation":{"text":"আর না","language_name":"bengali","language_id":20},"transliteration":{"text":"wamā","language_name":"english","language_id":38}},{"id":85660,"position":5,"audio_url":"wbw/026_211_005.mp3","char_type_name":"word","page_number":376,"line_number":3,"text":"يَسْتَطِيعُونَ","translation":{"text":"তারা সামর্থ্য রাখে","language_name":"bengali","language_id":20},"transliteration":{"text":"yastaṭīʿūna","language_name":"english","language_id":38}},{"id":85661,"position":6,"audio_url":null,"char_type_name":"end","page_number":376,"line_number":3,"text":"٢١١","translation":{"text":"(২১১)","language_name":"bengali","language_id":20},"transliteration":{"text":null,"language_name":"english","language_id":38}}]},{"id":3144,"verse_number":212,"verse_key":"26:212","hizb_number":38,"rub_el_hizb_number":150,"ruku_number":326,"manzil_number":5,"sajdah_number":null,"page_number":376,"juz_number":19,"words":[{"id":85662,"position":1,"audio_url":"wbw/026_212_001.mp3","char_type_name":"word","page_number":376,"line_number":3,"text":"إِنَّهُمْ","translation":{"text":"নিশ্চয়ই তাদেরকে","language_name":"bengali","language_id":20},"transliteration":{"text":"innahum","language_name":"english","language_id":38}},{"id":85663,"position":2,"audio_url":"wbw/026_212_002.mp3","char_type_name":"word","page_number":376,"line_number":3,"text":"عَنِ","translation":{"text":"হ'তে","language_name":"bengali","language_id":20},"transliteration":{"text":"ʿani","language_name":"english","language_id":38}},{"id":85664,"position":3,"audio_url":"wbw/026_212_003.mp3","char_type_name":"word","page_number":376,"line_number":4,"text":"ٱلسَّمْعِ","translation":{"text":"শোনা","language_name":"bengali","language_id":20},"transliteration":{"text":"l-samʿi","language_name":"english","language_id":38}},{"id":85665,"position":4,"audio_url":"wbw/026_212_004.mp3","char_type_name":"word","page_number":376,"line_number":4,"text":"لَمَعْزُولُونَ","translation":{"text":"অবশ্যই দূরে রাখা হয়েছে","language_name":"bengali","language_id":20},"transliteration":{"text":"lamaʿzūlūna","language_name":"english","language_id":38}},{"id":85666,"position":5,"audio_url":null,"char_type_name":"end","page_number":376,"line_number":4,"text":"٢١٢","translation":{"text":"(২১২)","language_name":"bengali","language_id":20},"transliteration":{"text":null,"language_name":"english","language_id":38}}]},{"id":3145,"verse_number":213,"verse_key":"26:213","hizb_number":38,"rub_el_hizb_number":150,"ruku_number":326,"manzil_number":5,"sajdah_number":null,"page_number":376,"juz_number":19,"words":[{"id":85743,"position":1,"audio_url":"wbw/026_213_001.mp3","char_type_name":"word","page_number":376,"line_number":4,"text":"فَلَا","translation":{"text":"অতএব না","language_name":"bengali","language_id":20},"transliteration":{"text":"falā","language_name":"english","language_id":38}},{"id":85744,"position":2,"audio_url":"wbw/026_213_002.mp3","char_type_name":"word","page_number":376,"line_number":4,"text":"تَدْعُ","translation":{"text":"তুমি ডেকো","language_name":"bengali","language_id":20},"transliteration":{"text":"tadʿu","language_name":"english","language_id":38}},{"id":85745,"position":3,"audio_url":"wbw/026_213_003.mp3","char_type_name":"word","page_number":376,"line_number":4,"text":"مَعَ","translation":{"text":"সাথে","language_name":"bengali","language_id":20},"transliteration":{"text":"maʿa","language_name":"english","language_id":38}},{"id":85746,"position":4,"audio_url":"wbw/026_213_004.mp3","char_type_name":"word","page_number":376,"line_number":4,"text":"ٱللَّهِ","translation":{"text":"আল্লাহর","language_name":"bengali","language_id":20},"transliteration":{"text":"l-lahi","language_name":"english","language_id":38}},{"id":85747,"position":5,"audio_url":"wbw/026_213_005.mp3","char_type_name":"word","page_number":376,"line_number":4,"text":"إِلَـٰهًا","translation":{"text":"কোনো ইলাহ","language_name":"bengali","language_id":20},"transliteration":{"text":"ilāhan","language_name":"english","language_id":38}},{"id":85748,"position":6,"audio_url":"wbw/026_213_006.mp3","char_type_name":"word","page_number":376,"line_number":4,"text":"ءَاخَرَ","translation":{"text":"অন্য","language_name":"bengali","language_id":20},"transliteration":{"text":"ākhara","language_name":"english","language_id":38}},{"id":85749,"position":7,"audio_url":"wbw/026_213_007.mp3","char_type_name":"word","page_number":376,"line_number":4,"text":"فَتَكُونَ","translation":{"text":"তাহ'লে তুমি হবে","language_name":"bengali","language_id":20},"transliteration":{"text":"fatakūna","language_name":"english","language_id":38}},{"id":85750,"position":8,"audio_url":"wbw/026_213_008.mp3","char_type_name":"word","page_number":376,"line_number":5,"text":"مِنَ","translation":{"text":"অন্তর্ভুক্ত","language_name":"bengali","language_id":20},"transliteration":{"text":"mina","language_name":"english","language_id":38}},{"id":85751,"position":9,"audio_url":"wbw/026_213_009.mp3","char_type_name":"word","page_number":376,"line_number":5,"text":"ٱلْمُعَذَّبِينَ","translation":{"text":"শাস্তিপ্রাপ্তদের","language_name":"bengali","language_id":20},"transliteration":{"text":"l-muʿadhabīna","language_name":"english","language_id":38}},{"id":85752,"position":10,"audio_url":null,"char_type_name":"end","page_number":376,"line_number":5,"text":"٢١٣","translation":{"text":"(২১৩)","language_name":"bengali","language_id":20},"transliteration":{"text":null,"language_name":"english","language_id":38}}]},{"id":3146,"verse_number":214,"verse_key":"26:214","hizb_number":38,"rub_el_hizb_number":150,"ruku_number":326,"manzil_number":5,"sajdah_number":null,"page_number":376,"juz_number":19,"words":[{"id":85753,"position":1,"audio_url":"wbw/026_214_001.mp3","char_type_name":"word","page_number":376,"line_number":5,"text":"وَأَنذِرْ","translation":{"text":"এবং সতর্ক করো","language_name":"bengali","language_id":20},"transliteration":{"text":"wa-andhir","language_name":"english","language_id":38}},{"id":85754,"position":2,"audio_url":"wbw/026_214_002.mp3","char_type_name":"word","page_number":376,"line_number":5,"text":"عَشِيرَتَكَ","translation":{"text":"তোমার আত্মীয় স্বজনদেরকে","language_name":"bengali","language_id":20},"transliteration":{"text":"ʿashīrataka","language_name":"english","language_id":38}},{"id":85755,"position":3,"audio_url":"wbw/026_214_003.mp3","char_type_name":"word","page_number":376,"line_number":5,"text":"ٱلْأَقْرَبِينَ","translation":{"text":"নিকটতম","language_name":"bengali","language_id":20},"transliteration":{"text":"l-aqrabīna","language_name":"english","language_id":38}},{"id":85756,"position":4,"audio_url":null,"char_type_name":"end","page_number":376,"line_number":5,"text":"٢١٤","translation":{"text":"(২১৪)","language_name":"bengali","language_id":20},"transliteration":{"text":null,"language_name":"english","language_id":38}}]},{"id":3147,"verse_number":215,"verse_key":"26:215","hizb_number":38,"rub_el_hizb_number":150,"ruku_number":326,"manzil_number":5,"sajdah_number":null,"page_number":376,"juz_number":19,"words":[{"id":85790,"position":1,"audio_url":"wbw/026_215_001.mp3","char_type_name":"word","page_number":376,"line_number":5,"text":"وَٱخْفِضْ","translation":{"text":"আর অবনত করো (অর্থাৎ বিনয়ী হও)","language_name":"bengali","language_id":20},"transliteration":{"text":"wa-ikh'fiḍ","language_name":"english","language_id":38}},{"id":85791,"position":2,"audio_url":"wbw/026_215_002.mp3","char_type_name":"word","page_number":376,"line_number":6,"text":"جَنَاحَكَ","translation":{"text":"তোমার বাহু","language_name":"bengali","language_id":20},"transliteration":{"text":"janāḥaka","language_name":"english","language_id":38}},{"id":85792,"position":3,"audio_url":"wbw/026_215_003.mp3","char_type_name":"word","page_number":376,"line_number":6,"text":"لِمَنِ","translation":{"text":"জন্যে তাদের (যারা)","language_name":"bengali","language_id":20},"transliteration":{"text":"limani","language_name":"english","language_id":38}},{"id":85793,"position":4,"audio_url":"wbw/026_215_004.mp3","char_type_name":"word","page_number":376,"line_number":6,"text":"ٱتَّبَعَكَ","translation":{"text":"তোমার অনুসরন করে","language_name":"bengali","language_id":20},"transliteration":{"text":"ittabaʿaka","language_name":"english","language_id":38}},{"id":85794,"position":5,"audio_url":"wbw/026_215_005.mp3","char_type_name":"word","page_number":376,"line_number":6,"text":"مِنَ","translation":{"text":"মধ্য হ'তে","language_name":"bengali","language_id":20},"transliteration":{"text":"mina","language_name":"english","language_id":38}},{"id":85795,"position":6,"audio_url":"wbw/026_215_006.mp3","char_type_name":"word","page_number":376,"line_number":6,"text":"ٱلْمُؤْمِنِينَ","translation":{"text":"মু'মিনদের","language_name":"bengali","language_id":20},"transliteration":{"text":"l-mu'minīna","language_name":"english","language_id":38}},{"id":85796,"position":7,"audio_url":null,"char_type_name":"end","page_number":376,"line_number":6,"text":"٢١٥","translation":{"text":"(২১৫)","language_name":"bengali","language_id":20},"transliteration":{"text":null,"language_name":"english","language_id":38}}]},{"id":3148,"verse_number":216,"verse_key":"26:216","hizb_number":38,"rub_el_hizb_number":150,"ruku_number":326,"manzil_number":5,"sajdah_number":null,"page_number":376,"juz_number":19,"words":[{"id":85851,"position":1,"audio_url":"wbw/026_216_001.mp3","char_type_name":"word","page_number":376,"line_number":6,"text":"فَإِنْ","translation":{"text":"কিন্তু যদি","language_name":"bengali","language_id":20},"transliteration":{"text":"fa-in","language_name":"english","language_id":38}},{"id":85852,"position":2,"audio_url":"wbw/026_216_002.mp3","char_type_name":"word","page_number":376,"line_number":6,"text":"عَصَوْكَ","translation":{"text":"তোমার তারা অবাধ্য হয়","language_name":"bengali","language_id":20},"transliteration":{"text":"ʿaṣawka","language_name":"english","language_id":38}},{"id":85853,"position":3,"audio_url":"wbw/026_216_003.mp3","char_type_name":"word","page_number":376,"line_number":6,"text":"فَقُلْ","translation":{"text":"তবে বলো","language_name":"bengali","language_id":20},"transliteration":{"text":"faqul","language_name":"english","language_id":38}},{"id":85854,"position":4,"audio_url":"wbw/026_216_004.mp3","char_type_name":"word","page_number":376,"line_number":6,"text":"إِنِّى","translation":{"text":"\"নিশ্চয়ই আমি","language_name":"bengali","language_id":20},"transliteration":{"text":"innī","language_name":"english","language_id":38}},{"id":85855,"position":5,"audio_url":"wbw/026_216_005.mp3","char_type_name":"word","page_number":376,"line_number":7,"text":"بَرِىٓءٌۭ","translation":{"text":"দায়মুক্ত","language_name":"bengali","language_id":20},"transliteration":{"text":"barīon","language_name":"english","language_id":38}},{"id":85856,"position":6,"audio_url":"wbw/026_216_006.mp3","char_type_name":"word","page_number":376,"line_number":7,"text":"مِّمَّا","translation":{"text":"(তা) হ'তে যা","language_name":"bengali","language_id":20},"transliteration":{"text":"mimmā","language_name":"english","language_id":38}},{"id":85857,"position":7,"audio_url":"wbw/026_216_007.mp3","char_type_name":"word","page_number":376,"line_number":7,"text":"تَعْمَلُونَ","translation":{"text":"তোমরা কাজ করছো\"","language_name":"bengali","language_id":20},"transliteration":{"text":"taʿmalūna","language_name":"english","language_id":38}},{"id":85858,"position":8,"audio_url":null,"char_type_name":"end","page_number":376,"line_number":7,"text":"٢١٦","translation":{"text":"(২১৬)","language_name":"bengali","language_id":20},"transliteration":{"text":null,"language_name":"english","language_id":38}}]},{"id":3149,"verse_number":217,"verse_key":"26:217","hizb_number":38,"rub_el_hizb_number":150,"ruku_number":326,"manzil_number":5,"sajdah_number":null,"page_number":376,"juz_number":19,"words":[{"id":85924,"position":1,"audio_url":"wbw/026_217_001.mp3","char_type_name":"word","page_number":376,"line_number":7,"text":"وَتَوَكَّلْ","translation":{"text":"এবং নির্ভর করো","language_name":"bengali","language_id":20},"transliteration":{"text":"watawakkal","language_name":"english","language_id":38}},{"id":85925,"position":2,"audio_url":"wbw/026_217_002.mp3","char_type_name":"word","page_number":376,"line_number":7,"text":"عَلَى","translation":{"text":"(আল্লাহর) উপর","language_name":"bengali","language_id":20},"transliteration":{"text":"ʿalā","language_name":"english","language_id":38}},{"id":85926,"position":3,"audio_url":"wbw/026_217_003.mp3","char_type_name":"word","page_number":376,"line_number":7,"text":"ٱلْعَزِيزِ","translation":{"text":"(যিনি) পরাক্রমশালী","language_name":"bengali","language_id":20},"transliteration":{"text":"l-ʿazīzi","language_name":"english","language_id":38}},{"id":85927,"position":4,"audio_url":"wbw/026_217_004.mp3","char_type_name":"word","page_number":376,"line_number":7,"text":"ٱلرَّحِيمِ","translation":{"text":"পরম দয়ালু","language_name":"bengali","language_id":20},"transliteration":{"text":"l-raḥīmi","language_name":"english","language_id":38}},{"id":85928,"position":5,"audio_url":null,"char_type_name":"end","page_number":376,"line_number":7,"text":"٢١٧","translation":{"text":"(২১৭)","language_name":"bengali","language_id":20},"transliteration":{"text":null,"language_name":"english","language_id":38}}]},{"id":3150,"verse_number":218,"verse_key":"26:218","hizb_number":38,"rub_el_hizb_number":150,"ruku_number":326,"manzil_number":5,"sajdah_number":null,"page_number":376,"juz_number":19,"words":[{"id":85929,"position":1,"audio_url":"wbw/026_218_001.mp3","char_type_name":"word","page_number":376,"line_number":7,"text":"ٱلَّذِى","translation":{"text":"যিনি","language_name":"bengali","language_id":20},"transliteration":{"text":"alladhī","language_name":"english","language_id":38}},{"id":85930,"position":2,"audio_url":"wbw/026_218_002.mp3","char_type_name":"word","page_number":376,"line_number":8,"text":"يَرَىٰكَ","translation":{"text":"তোমাকে দেখছেন","language_name":"bengali","language_id":20},"transliteration":{"text":"yarāka","language_name":"english","language_id":38}},{"id":85931,"position":3,"audio_url":"wbw/026_218_003.mp3","char_type_name":"word","page_number":376,"line_number":8,"text":"حِينَ","translation":{"text":"যখন","language_name":"bengali","language_id":20},"transliteration":{"text":"ḥīna","language_name":"english","language_id":38}},{"id":85932,"position":4,"audio_url":"wbw/026_218_004.mp3","char_type_name":"word","page_number":376,"line_number":8,"text":"تَقُومُ","translation":{"text":"তুমি দাঁড়াও","language_name":"bengali","language_id":20},"transliteration":{"text":"taqūmu","language_name":"english","language_id":38}},{"id":85933,"position":5,"audio_url":null,"char_type_name":"end","page_number":376,"line_number":8,"text":"٢١٨","translation":{"text":"(২১৮)","language_name":"bengali","language_id":20},"transliteration":{"text":null,"language_name":"english","language_id":38}}]},{"id":3151,"verse_number":219,"verse_key":"26:219","hizb_number":38,"rub_el_hizb_number":150,"ruku_number":326,"manzil_number":5,"sajdah_number":null,"page_number":376,"juz_number":19,"words":[{"id":85952,"position":1,"audio_url":"wbw/026_219_001.mp3","char_type_name":"word","page_number":376,"line_number":8,"text":"وَتَقَلُّبَكَ","translation":{"text":"তোমার গতিবিধি","language_name":"bengali","language_id":20},"transliteration":{"text":"wataqallubaka","language_name":"english","language_id":38}},{"id":85953,"position":2,"audio_url":"wbw/026_219_002.mp3","char_type_name":"word","page_number":376,"line_number":8,"text":"فِى","translation":{"text":"মধ্যে","language_name":"bengali","language_id":20},"transliteration":{"text":"fī","language_name":"english","language_id":38}},{"id":85954,"position":3,"audio_url":"wbw/026_219_003.mp3","char_type_name":"word","page_number":376,"line_number":8,"text":"ٱلسَّـٰجِدِينَ","translation":{"text":"সিজদাকারীদের","language_name":"bengali","language_id":20},"transliteration":{"text":"l-sājidīna","language_name":"english","language_id":38}},{"id":85955,"position":4,"audio_url":null,"char_type_name":"end","page_number":376,"line_number":8,"text":"٢١٩","translation":{"text":"(২১৯)","language_name":"bengali","language_id":20},"transliteration":{"text":null,"language_name":"english","language_id":38}}]},{"id":3152,"verse_number":220,"verse_key":"26:220","hizb_number":38,"rub_el_hizb_number":150,"ruku_number":326,"manzil_number":5,"sajdah_number":null,"page_number":376,"juz_number":19,"words":[{"id":85987,"position":1,"audio_url":"wbw/026_220_001.mp3","char_type_name":"word","page_number":376,"line_number":8,"text":"إِنَّهُۥ","translation":{"text":"নিশ্চয়ই তিনি","language_name":"bengali","language_id":20},"transliteration":{"text":"innahu","language_name":"english","language_id":38}},{"id":85988,"position":2,"audio_url":"wbw/026_220_002.mp3","char_type_name":"word","page_number":376,"line_number":8,"text":"هُوَ","translation":{"text":"তিনিই","language_name":"bengali","language_id":20},"transliteration":{"text":"huwa","language_name":"english","language_id":38}},{"id":85989,"position":3,"audio_url":"wbw/026_220_003.mp3","char_type_name":"word","page_number":376,"line_number":8,"text":"ٱلسَّمِيعُ","translation":{"text":"সবকিছু শুনেন","language_name":"bengali","language_id":20},"transliteration":{"text":"l-samīʿu","language_name":"english","language_id":38}},{"id":85990,"position":4,"audio_url":"wbw/026_220_004.mp3","char_type_name":"word","page_number":376,"line_number":9,"text":"ٱلْعَلِيمُ","translation":{"text":"সবকিছু জানেন","language_name":"bengali","language_id":20},"transliteration":{"text":"l-ʿalīmu","language_name":"english","language_id":38}},{"id":85991,"position":5,"audio_url":null,"char_type_name":"end","page_number":376,"line_number":9,"text":"٢٢٠","translation":{"text":"(২২০)","language_name":"bengali","language_id":20},"transliteration":{"text":null,"language_name":"english","language_id":38}}]}],"pagination":{"per_page":10,"current_page":22,"next_page":23,"total_pages":23,"total_records":227}}
