{"verses":[{"id":3153,"verse_number":221,"verse_key":"26:221","hizb_number":38,"rub_el_hizb_number":150,"ruku_number":326,"manzil_number":5,"sajdah_number":null,"page_number":376,"juz_number":19,"words":[{"id":86071,"position":1,"audio_url":"wbw/026_221_001.mp3","char_type_name":"word","page_number":376,"line_number":9,"text":"هَلْ","translation":{"text":"কি","language_name":"bengali","language_id":20},"transliteration":{"text":"hal","language_name":"english","language_id":38}},{"id":86072,"position":2,"audio_url":"wbw/026_221_002.mp3","char_type_name":"word","page_number":376,"line_number":9,"text":"أُنَبِّئُكُمْ","translation":{"text":"জানাবো তোমাদেরকে","language_name":"bengali","language_id":20},"transliteration":{"text":"unabbi-ukum","language_name":"english","language_id":38}},{"id":86073,"position":3,"audio_url":"wbw/026_221_003.mp3","char_type_name":"word","page_number":376,"line_number":9,"text":"عَلَىٰ","translation":{"text":"উপর","language_name":"bengali","language_id":20},"transliteration":{"text":"ʿalā","language_name":"english","language_id":38}},{"id":86074,"position":4,"audio_url":"wbw/026_221_004.mp3","char_type_name":"word","page_number":376,"line_number":9,"text":"مَن","translation":{"text":"কার","language_name":"bengali","language_id":20},"transliteration":{"text":"man","language_name":"english","language_id":38}},{"id":86075,"position":5,"audio_url":"wbw/026_221_005.mp3","char_type_name":"word","page_number":376,"line_number":9,"text":"تَنَزَّلُ","translation":{"text":"অবতীর্ণ হয়","language_name":"bengali","language_id":20},"transliteration":{"text":"tanazzalu","language_name":"english","language_id":38}},{"id":86076,"position":6,"audio_url":"wbw/026_221_006.mp3","char_type_name":"word","page_number":376,"line_number":9,"text":"ٱلشَّيَـٰطِينُ","translation":{"text":"শয়তানরা","language_name":"bengali","language_id":20},"transliteration":{"text":"l-shayāṭīnu","language_name":"english","language_id":38}},{"id":86077,"position":7,"audio_url":null,"char_type_name":"end","page_number":376,"line_number":9,"text":"٢٢١","translation":{"text":"(২২১)","language_name":"bengali","language_id":20},"transliteration":{"text":null,"language_name":"english","language_id":38}}]},{"id":3154,"verse_number":222,"verse_key":"26:222","hizb_number":38,"rub_el_hizb_number":150,"ruku_number":326,"manzil_number":5,"sajdah_number":null,"page_number":376,"juz_number":19,"words":[{"id":86110,"position":1,"audio_url":"wbw/026_222_001.mp3","char_type_name":"word","page_number":376,"line_number":9,"text":"تَنَزَّلُ","translation":{"text":"অবতীর্ণ হয়","language_name":"bengali","language_id":20},"transliteration":{"text":"tanazzalu","language_name":"english","language_id":38}},{"id":86111,"position":2,"audio_url":"wbw/026_222_002.mp3","char_type_name":"word","page_number":376,"line_number":9,"text":"عَلَىٰ","translation":{"text":"উপর","language_name":"bengali","language_id":20},"transliteration":{"text":"ʿalā","language_name":"english","language_id":38}},{"id":86112,"position":3,"audio_url":"wbw/026_222_003.mp3","char_type_name":"word","page_number":376,"line_number":10,"text":"كُلِّ","translation":{"text":"প্রত্যেক","language_name":"bengali","language_id":20},"transliteration":{"text":"kulli","language_name":"english","language_id":38}},{"id":86113,"position":4,"audio_url":"wbw/026_222_004.mp3","char_type_name":"word","page_number":376,"line_number":10,"text":"أَفَّاكٍ","translation":{"text":"ঘোর মিথ্যাবাদী","language_name":"bengali","language_id":20},"transliteration":{"text":"affākin","language_name":"english","language_id":38}},{"id":86114,"position":5,"audio_url":"wbw/026_222_005.mp3","char_type_name":"word","page_number":376,"line_number":10,"text":"أَثِيمٍۢ","translation":{"text":"পাপীর","language_name":"bengali","language_id":20},"transliteration":{"text":"athīmin","language_name":"english","language_id":38}},{"id":86115,"position":6,"audio_url":null,"char_type_name":"end","page_number":376,"line_number":10,"text":"٢٢٢","translation":{"text":"(২২২)","language_name":"bengali","language_id":20},"transliteration":{"text":null,"language_name":"english","language_id":38}}]},{"id":3155,"verse_number":223,"verse_key":"26:223","hizb_number":38,"rub_el_hizb_number":150,"ruku_number":326,"manzil_number":5,"sajdah_number":null,"page_number":376,"juz_number":19,"words":[{"id":86116,"position":1,"audio_url":"wbw/026_223_001.mp3","char_type_name":"word","page_number":376,"line_number":10,"text":"يُلْقُونَ","translation":{"text":"(যারা) পেতে রাখে","language_name":"bengali","language_id":20},"transliteration":{"text":"yul'qūna","language_name":"english","language_id":38}},{"id":86117,"position":2,"audio_url":"wbw/026_223_002.mp3","char_type_name":"word","page_number":376,"line_number":10,"text":"ٱلسَّمْعَ","translation":{"text":"কান (শয়তানের কথায়)","language_name":"bengali","language_id":20},"transliteration":{"text":"l-samʿa","language_name":"english","language_id":38}},{"id":86118,"position":3,"audio_url":"wbw/026_223_003.mp3","char_type_name":"word","page_number":376,"line_number":10,"text":"وَأَكْثَرُهُمْ","translation":{"text":"আর অধিকাংশ তাদের","language_name":"bengali","language_id":20},"transliteration":{"text":"wa-aktharuhum","language_name":"english","language_id":38}},{"id":86119,"position":4,"audio_url":"wbw/026_223_004.mp3","char_type_name":"word","page_number":376,"line_number":10,"text":"كَـٰذِبُونَ","translation":{"text":"মিথ্যাবাদী","language_name":"bengali","language_id":20},"transliteration":{"text":"kādhibūna","language_name":"english","language_id":38}},{"id":86120,"position":5,"audio_url":null,"char_type_name":"end","page_number":376,"line_number":10,"text":"٢٢٣","translation":{"text":"(২২৩)","language_name":"bengali","language_id":20},"transliteration":{"text":null,"language_name":"english","language_id":38}}]},{"id":3156,"verse_number":224,"verse_key":"26:224","hizb_number":38,"rub_el_hizb_number":150,"ruku_number":326,"manzil_number":5,"sajdah_number":null,"page_number":376,"juz_number":19,"words":[{"id":86141,"position":1,"audio_url":"wbw/026_224_001.mp3","char_type_name":"word","page_number":376,"line_number":11,"text":"وَٱلشُّعَرَآءُ","translation":{"text":"এবং কবিদের (কথা)","language_name":"bengali","language_id":20},"transliteration":{"text":"wal-shuʿarāu","language_name":"english","language_id":38}},{"id":86142,"position":2,"audio_url":"wbw/026_224_002.mp3","char_type_name":"word","page_number":376,"line_number":11,"text":"يَتَّبِعُهُمُ","translation":{"text":"অনুসরণ করে তাদেরকে","language_name":"bengali","language_id":20},"transliteration":{"text":"yattabiʿuhumu","language_name":"english","language_id":38}},{"id":86143,"position":3,"audio_url":"wbw/026_224_003.mp3","char_type_name":"word","page_number":376,"line_number":11,"text":"ٱلْغَاوُۥنَ","translation":{"text":"বিভ্রান্তলোকেরা","language_name":"bengali","language_id":20},"transliteration":{"text":"l-ghāwūna","language_name":"english","language_id":38}},{"id":86144,"position":4,"audio_url":null,"char_type_name":"end","page_number":376,"line_number":11,"text":"٢٢٤","translation":{"text":"(২২৪)","language_name":"bengali","language_id":20},"transliteration":{"text":null,"language_name":"english","language_id":38}}]},{"id":3157,"verse_number":225,"verse_key":"26:225","hizb_number":38,"rub_el_hizb_number":150,"ruku_number":326,"manzil_number":5,"sajdah_number":null,"page_number":376,"juz_number":19,"words":[{"id":86177,"position":1,"audio_url":"wbw/026_225_001.mp3","char_type_name":"word","page_number":376,"line_number":11,"text":"أَلَمْ","translation":{"text":"কি নি","language_name":"bengali","language_id":20},"transliteration":{"text":"alam","language_name":"english","language_id":38}},{"id":86178,"position":2,"audio_url":"wbw/026_225_002.mp3","char_type_name":"word","page_number":376,"line_number":11,"text":"تَرَ","translation":{"text":"তুমি দেখো","language_name":"bengali","language_id":20},"transliteration":{"text":"tara","language_name":"english","language_id":38}},{"id":86179,"position":3,"audio_url":"wbw/026_225_003.mp3","char_type_name":"word","page_number":376,"line_number":11,"text":"أَنَّهُمْ","translation":{"text":"যে তারা","language_name":"bengali","language_id":20},"transliteration":{"text":"annahum","language_name":"english","language_id":38}},{"id":86180,"position":4,"audio_url":"wbw/026_225_004.mp3","char_type_name":"word","page_number":376,"line_number":11,"text":"فِى","translation":{"text":"মধ্যে","language_name":"bengali","language_id":20},"transliteration":{"text":"fī","language_name":"english","language_id":38}},{"id":86181,"position":5,"audio_url":"wbw/026_225_005.mp3","char_type_name":"word","page_number":376,"line_number":11,"text":"كُلِّ","translation":{"text":"প্রত্যেক","language_name":"bengali","language_id":20},"transliteration":{"text":"kulli","language_name":"english","language_id":38}},{"id":86182,"position":6,"audio_url":"wbw/026_225_006.mp3","char_type_name":"word","page_number":376,"line_number":11,"text":"وَادٍۢ","translation":{"text":"উপত্যকার","language_name":"bengali","language_id":20},"transliteration":{"text":"wādin","language_name":"english","language_id":38}},{"id":86183,"position":7,"audio_url":"wbw/026_225_007.mp3","char_type_name":"word","page_number":376,"line_number":12,"text":"يَهِيمُونَ","translation":{"text":"উদভ্রান্ত হয়ে ঘুরছে","language_name":"bengali","language_id":20},"transliteration":{"text":"yahīmūna","language_name":"english","language_id":38}},{"id":86184,"position":8,"audio_url":null,"char_type_name":"end","page_number":376,"line_number":12,"text":"٢٢٥","translation":{"text":"(২২৫)","language_name":"bengali","language_id":20},"transliteration":{"text":null,"language_name":"english","language_id":38}}]},{"id":3158,"verse_number":226,"verse_key":"26:226","hizb_number":38,"rub_el_hizb_number":150,"ruku_number":326,"manzil_number":5,"sajdah_number":null,"page_number":376,"juz_number":19,"words":[{"id":86200,"position":1,"audio_url":"wbw/026_226_001.mp3","char_type_name":"word","page_number":376,"line_number":12,"text":"وَأَنَّهُمْ","translation":{"text":"এবং (এও) যে তারা","language_name":"bengali","language_id":20},"transliteration":{"text":"wa-annahum","language_name":"english","language_id":38}},{"id":86201,"position":2,"audio_url":"wbw/026_226_002.mp3","char_type_name":"word","page_number":376,"line_number":12,"text":"يَقُولُونَ","translation":{"text":"বলে (এমন কথা)","language_name":"bengali","language_id":20},"transliteration":{"text":"yaqūlūna","language_name":"english","language_id":38}},{"id":86202,"position":3,"audio_url":"wbw/026_226_003.mp3","char_type_name":"word","page_number":376,"line_number":12,"text":"مَا","translation":{"text":"যা","language_name":"bengali","language_id":20},"transliteration":{"text":"mā","language_name":"english","language_id":38}},{"id":86203,"position":4,"audio_url":"wbw/026_226_004.mp3","char_type_name":"word","page_number":376,"line_number":12,"text":"لَا","translation":{"text":"না","language_name":"bengali","language_id":20},"transliteration":{"text":"lā","language_name":"english","language_id":38}},{"id":86204,"position":5,"audio_url":"wbw/026_226_005.mp3","char_type_name":"word","page_number":376,"line_number":12,"text":"يَفْعَلُونَ","translation":{"text":"(নিজেরা) তারা করে","language_name":"bengali","language_id":20},"transliteration":{"text":"yafʿalūna","language_name":"english","language_id":38}},{"id":86205,"position":6,"audio_url":null,"char_type_name":"end","page_number":376,"line_number":12,"text":"٢٢٦","translation":{"text":"(২২৬)","language_name":"bengali","language_id":20},"transliteration":{"text":null,"language_name":"english","language_id":38}}]},{"id":3159,"verse_number":227,"verse_key":"26:227","hizb_number":38,"rub_el_hizb_number":150,"ruku_number":326,"manzil_number":5,"sajdah_number":null,"page_number":376,"juz_number":19,"words":[{"id":86214,"position":1,"audio_url":"wbw/026_227_001.mp3","char_type_name":"word","page_number":376,"line_number":12,"text":"إِلَّا","translation":{"text":"তবে (ব্যতিক্রম)","language_name":"bengali","language_id":20},"transliteration":{"text":"illā","language_name":"english","language_id":38}},{"id":86215,"position":2,"audio_url":"wbw/026_227_002.mp3","char_type_name":"word","page_number":376,"line_number":12,"text":"ٱلَّذِينَ","translation":{"text":"(তারা) যারা","language_name":"bengali","language_id":20},"transliteration":{"text":"alladhīna","language_name":"english","language_id":38}},{"id":86216,"position":3,"audio_url":"wbw/026_227_003.mp3","char_type_name":"word","page_number":376,"line_number":13,"text":"ءَامَنُوا۟","translation":{"text":"ঈমান আনে","language_name":"bengali","language_id":20},"transliteration":{"text":"āmanū","language_name":"english","language_id":38}},{"id":86217,"position":4,"audio_url":"wbw/026_227_004.mp3","char_type_name":"word","page_number":376,"line_number":13,"text":"وَعَمِلُوا۟","translation":{"text":"ও কাজ করে","language_name":"bengali","language_id":20},"transliteration":{"text":"waʿamilū","language_name":"english","language_id":38}},{"id":86218,"position":5,"audio_url":"wbw/026_227_005.mp3","char_type_name":"word","page_number":376,"line_number":13,"text":"ٱلصَّـٰلِحَـٰتِ","translation":{"text":"সৎ","language_name":"bengali","language_id":20},"transliteration":{"text":"l-ṣāliḥāti","language_name":"english","language_id":38}},{"id":86219,"position":6,"audio_url":"wbw/026_227_006.mp3","char_type_name":"word","page_number":376,"line_number":13,"text":"وَذَكَرُوا۟","translation":{"text":"এবং স্মরণ করে","language_name":"bengali","language_id":20},"transliteration":{"text":"wadhakarū","language_name":"english","language_id":38}},{"id":86220,"position":7,"audio_url":"wbw/026_227_007.mp3","char_type_name":"word","page_number":376,"line_number":13,"text":"ٱللَّهَ","translation":{"text":"আল্লাহকে","language_name":"bengali","language_id":20},"transliteration":{"text":"l-laha","language_name":"english","language_id":38}},{"id":86221,"position":8,"audio_url":"wbw/026_227_008.mp3","char_type_name":"word","page_number":376,"line_number":13,"text":"كَثِيرًۭا","translation":{"text":"বেশী বেশী","language_name":"bengali","language_id":20},"transliteration":{"text":"kathīran","language_name":"english","language_id":38}},{"id":86222,"position":9,"audio_url":"wbw/026_227_009.mp3","char_type_name":"word","page_number":376,"line_number":13,"text":"وَٱنتَصَرُوا۟","translation":{"text":"এবং প্রতিশোধ নেয়","language_name":"bengali","language_id":20},"transliteration":{"text":"wa-intaṣarū","language_name":"english","language_id":38}},{"id":86223,"position":10,"audio_url":"wbw/026_227_010.mp3","char_type_name":"word","page_number":376,"line_number":13,"text":"مِنۢ","translation":{"text":"থেকে","language_name":"bengali","language_id":20},"transliteration":{"text":"min","language_name":"english","language_id":38}},{"id":86224,"position":11,"audio_url":"wbw/026_227_011.mp3","char_type_name":"word","page_number":376,"line_number":14,"text":"بَعْدِ","translation":{"text":"পর","language_name":"bengali","language_id":20},"transliteration":{"text":"baʿdi","language_name":"english","language_id":38}},{"id":86225,"position":12,"audio_url":"wbw/026_227_012.mp3","char_type_name":"word","page_number":376,"line_number":14,"text":"مَا","translation":{"text":"যা","language_name":"bengali","language_id":20},"transliteration":{"text":"mā","language_name":"english","language_id":38}},{"id":86226,"position":13,"audio_url":"wbw/026_227_013.mp3","char_type_name":"word","page_number":376,"line_number":14,"text":"ظُلِمُوا۟ ۗ","translation":{"text":"তারা নির্যাতিত হ'লে","language_name":"bengali","language_id":20},"transliteration":{"text":"ẓulimū","language_name":"english","language_id":38}},{"id":86228,"position":14,"audio_url":"wbw/026_227_015.mp3","char_type_name":"word","page_number":376,"line_number":14,"text":"وَسَيَعْلَمُ","translation":{"text":"এবং শীঘ্রই জানবে","language_name":"bengali","language_id":20},"transliteration":{"text":"wasayaʿlamu","language_name":"english","language_id":38}},{"id":86229,"position":15,"audio_url":"wbw/026_227_016.mp3","char_type_name":"word","page_number":376,"line_number":14,"text":"ٱلَّذِينَ","translation":{"text":"যারা","language_name":"bengali","language_id":20},"transliteration":{"text":"alladhīna","language_name":"english","language_id":38}},{"id":86230,"position":16,"audio_url":"wbw/026_227_017.mp3","char_type_name":"word","page_number":376,"line_number":14,"text":"ظَلَمُوٓا۟","translation":{"text":"নির্যাতন করেছে","language_name":"bengali","language_id":20},"transliteration":{"text":"ẓalamū","language_name":"english","language_id":38}},{"id":86231,"position":17,"audio_url":"wbw/026_227_018.mp3","char_type_name":"word","page_number":376,"line_number":14,"text":"أَىَّ","translation":{"text":"কোনো","language_name":"bengali","language_id":20},"transliteration":{"text":"ayya","language_name":"english","language_id":38}},{"id":86232,"position":18,"audio_url":"wbw/026_227_019.mp3","char_type_name":"word","page_number":376,"line_number":14,"text":"مُنقَلَبٍۢ","translation":{"text":"প্রত্যাবর্তনস্থলে","language_name":"bengali","language_id":20},"transliteration":{"text":"munqalabin","language_name":"english","language_id":38}},{"id":86233,"position":19,"audio_url":"wbw/026_227_020.mp3","char_type_name":"word","page_number":376,"line_number":14,"text":"يَنقَلِبُونَ","translation":{"text":"তারা প্রত্যাবর্তন করছে","language_name":"bengali","language_id":20},"transliteration":{"text":"yanqalibūna","language_name":"english","language_id":38}},{"id":86234,"position":20,"audio_url":null,"char_type_name":"end","page_number":376,"line_number":14,"text":"٢٢٧","translation":{"text":"(২২৭)","language_name":"bengali","language_id":20},"transliteration":{"text":null,"language_name":"english","language_id":38}}]}],"pagination":{"per_page":10,"current_page":23,"next_page":null,"total_pages":23,"total_records":227}}
