{"verses":[{"id":2973,"verse_number":41,"verse_key":"26:41","hizb_number":37,"rub_el_hizb_number":147,"ruku_number":318,"manzil_number":5,"sajdah_number":null,"page_number":369,"juz_number":19,"words":[{"id":42411,"position":1,"audio_url":"wbw/026_041_001.mp3","char_type_name":"word","page_number":369,"line_number":1,"text":"فَلَمَّا","translation":{"text":"অতঃপর যখন","language_name":"bengali","language_id":20},"transliteration":{"text":"falammā","language_name":"english","language_id":38}},{"id":42412,"position":2,"audio_url":"wbw/026_041_002.mp3","char_type_name":"word","page_number":369,"line_number":1,"text":"جَآءَ","translation":{"text":"আসলো (ময়দানে)","language_name":"bengali","language_id":20},"transliteration":{"text":"jāa","language_name":"english","language_id":38}},{"id":42413,"position":3,"audio_url":"wbw/026_041_003.mp3","char_type_name":"word","page_number":369,"line_number":1,"text":"ٱلسَّحَرَةُ","translation":{"text":"জাদুকররা","language_name":"bengali","language_id":20},"transliteration":{"text":"l-saḥaratu","language_name":"english","language_id":38}},{"id":42414,"position":4,"audio_url":"wbw/026_041_004.mp3","char_type_name":"word","page_number":369,"line_number":2,"text":"قَالُوا۟","translation":{"text":"তারা বললো","language_name":"bengali","language_id":20},"transliteration":{"text":"qālū","language_name":"english","language_id":38}},{"id":42415,"position":5,"audio_url":"wbw/026_041_005.mp3","char_type_name":"word","page_number":369,"line_number":2,"text":"لِفِرْعَوْنَ","translation":{"text":"উদ্দেশ্যে ফিরআউনের","language_name":"bengali","language_id":20},"transliteration":{"text":"lifir'ʿawna","language_name":"english","language_id":38}},{"id":42416,"position":6,"audio_url":"wbw/026_041_006.mp3","char_type_name":"word","page_number":369,"line_number":2,"text":"أَئِنَّ","translation":{"text":"\"কি নিশ্চয়ই (আছে)","language_name":"bengali","language_id":20},"transliteration":{"text":"a-inna","language_name":"english","language_id":38}},{"id":42417,"position":7,"audio_url":"wbw/026_041_007.mp3","char_type_name":"word","page_number":369,"line_number":2,"text":"لَنَا","translation":{"text":"জন্যে আমাদের","language_name":"bengali","language_id":20},"transliteration":{"text":"lanā","language_name":"english","language_id":38}},{"id":42418,"position":8,"audio_url":"wbw/026_041_008.mp3","char_type_name":"word","page_number":369,"line_number":2,"text":"لَأَجْرًا","translation":{"text":"অবশ্যই পুরস্কার","language_name":"bengali","language_id":20},"transliteration":{"text":"la-ajran","language_name":"english","language_id":38}},{"id":42419,"position":9,"audio_url":"wbw/026_041_009.mp3","char_type_name":"word","page_number":369,"line_number":2,"text":"إِن","translation":{"text":"যদি","language_name":"bengali","language_id":20},"transliteration":{"text":"in","language_name":"english","language_id":38}},{"id":42420,"position":10,"audio_url":"wbw/026_041_010.mp3","char_type_name":"word","page_number":369,"line_number":2,"text":"كُنَّا","translation":{"text":"আমরা হই","language_name":"bengali","language_id":20},"transliteration":{"text":"kunnā","language_name":"english","language_id":38}},{"id":42421,"position":11,"audio_url":"wbw/026_041_011.mp3","char_type_name":"word","page_number":369,"line_number":2,"text":"نَحْنُ","translation":{"text":"আমরা","language_name":"bengali","language_id":20},"transliteration":{"text":"naḥnu","language_name":"english","language_id":38}},{"id":42422,"position":12,"audio_url":"wbw/026_041_012.mp3","char_type_name":"word","page_number":369,"line_number":2,"text":"ٱلْغَـٰلِبِينَ","translation":{"text":"বিজয়ী\"","language_name":"bengali","language_id":20},"transliteration":{"text":"l-ghālibīna","language_name":"english","language_id":38}},{"id":42423,"position":13,"audio_url":null,"char_type_name":"end","page_number":369,"line_number":2,"text":"٤١","translation":{"text":"(৪১)","language_name":"bengali","language_id":20},"transliteration":{"text":null,"language_name":"english","language_id":38}}]},{"id":2974,"verse_number":42,"verse_key":"26:42","hizb_number":37,"rub_el_hizb_number":147,"ruku_number":318,"manzil_number":5,"sajdah_number":null,"page_number":369,"juz_number":19,"words":[{"id":43106,"position":1,"audio_url":"wbw/026_042_001.mp3","char_type_name":"word","page_number":369,"line_number":2,"text":"قَالَ","translation":{"text":"(ফিরআউন) বললো","language_name":"bengali","language_id":20},"transliteration":{"text":"qāla","language_name":"english","language_id":38}},{"id":43107,"position":2,"audio_url":"wbw/026_042_002.mp3","char_type_name":"word","page_number":369,"line_number":2,"text":"نَعَمْ","translation":{"text":"\"হ্যাঁ","language_name":"bengali","language_id":20},"transliteration":{"text":"naʿam","language_name":"english","language_id":38}},{"id":43108,"position":3,"audio_url":"wbw/026_042_003.mp3","char_type_name":"word","page_number":369,"line_number":3,"text":"وَإِنَّكُمْ","translation":{"text":"এবং নিশ্চয়ই তোমরা","language_name":"bengali","language_id":20},"transliteration":{"text":"wa-innakum","language_name":"english","language_id":38}},{"id":43109,"position":4,"audio_url":"wbw/026_042_004.mp3","char_type_name":"word","page_number":369,"line_number":3,"text":"إِذًۭا","translation":{"text":"তখন","language_name":"bengali","language_id":20},"transliteration":{"text":"idhan","language_name":"english","language_id":38}},{"id":43110,"position":5,"audio_url":"wbw/026_042_005.mp3","char_type_name":"word","page_number":369,"line_number":3,"text":"لَّمِنَ","translation":{"text":"অবশ্যই অন্তর্ভূক্ত (হবে)","language_name":"bengali","language_id":20},"transliteration":{"text":"lamina","language_name":"english","language_id":38}},{"id":43111,"position":6,"audio_url":"wbw/026_042_006.mp3","char_type_name":"word","page_number":369,"line_number":3,"text":"ٱلْمُقَرَّبِينَ","translation":{"text":"(আমার) ঘনিষ্ঠদের\"","language_name":"bengali","language_id":20},"transliteration":{"text":"l-muqarabīna","language_name":"english","language_id":38}},{"id":43112,"position":7,"audio_url":null,"char_type_name":"end","page_number":369,"line_number":3,"text":"٤٢","translation":{"text":"(৪২)","language_name":"bengali","language_id":20},"transliteration":{"text":null,"language_name":"english","language_id":38}}]},{"id":2975,"verse_number":43,"verse_key":"26:43","hizb_number":37,"rub_el_hizb_number":147,"ruku_number":318,"manzil_number":5,"sajdah_number":null,"page_number":369,"juz_number":19,"words":[{"id":43785,"position":1,"audio_url":"wbw/026_043_001.mp3","char_type_name":"word","page_number":369,"line_number":3,"text":"قَالَ","translation":{"text":"বললো","language_name":"bengali","language_id":20},"transliteration":{"text":"qāla","language_name":"english","language_id":38}},{"id":43786,"position":2,"audio_url":"wbw/026_043_002.mp3","char_type_name":"word","page_number":369,"line_number":3,"text":"لَهُم","translation":{"text":"উদ্দশ্যে তাদের","language_name":"bengali","language_id":20},"transliteration":{"text":"lahum","language_name":"english","language_id":38}},{"id":43787,"position":3,"audio_url":"wbw/026_043_003.mp3","char_type_name":"word","page_number":369,"line_number":3,"text":"مُّوسَىٰٓ","translation":{"text":"মূসা","language_name":"bengali","language_id":20},"transliteration":{"text":"mūsā","language_name":"english","language_id":38}},{"id":43788,"position":4,"audio_url":"wbw/026_043_004.mp3","char_type_name":"word","page_number":369,"line_number":3,"text":"أَلْقُوا۟","translation":{"text":"\"তোমরা ছোড়ো","language_name":"bengali","language_id":20},"transliteration":{"text":"alqū","language_name":"english","language_id":38}},{"id":43789,"position":5,"audio_url":"wbw/026_043_005.mp3","char_type_name":"word","page_number":369,"line_number":3,"text":"مَآ","translation":{"text":"যা কিছু","language_name":"bengali","language_id":20},"transliteration":{"text":"mā","language_name":"english","language_id":38}},{"id":43790,"position":6,"audio_url":"wbw/026_043_006.mp3","char_type_name":"word","page_number":369,"line_number":3,"text":"أَنتُم","translation":{"text":"তোমরা","language_name":"bengali","language_id":20},"transliteration":{"text":"antum","language_name":"english","language_id":38}},{"id":43791,"position":7,"audio_url":"wbw/026_043_007.mp3","char_type_name":"word","page_number":369,"line_number":3,"text":"مُّلْقُونَ","translation":{"text":"নিক্ষেপকারী\"","language_name":"bengali","language_id":20},"transliteration":{"text":"mul'qūna","language_name":"english","language_id":38}},{"id":43792,"position":8,"audio_url":null,"char_type_name":"end","page_number":369,"line_number":4,"text":"٤٣","translation":{"text":"(৪৩)","language_name":"bengali","language_id":20},"transliteration":{"text":null,"language_name":"english","language_id":38}}]},{"id":2976,"verse_number":44,"verse_key":"26:44","hizb_number":37,"rub_el_hizb_number":147,"ruku_number":318,"manzil_number":5,"sajdah_number":null,"page_number":369,"juz_number":19,"words":[{"id":44585,"position":1,"audio_url":"wbw/026_044_001.mp3","char_type_name":"word","page_number":369,"line_number":4,"text":"فَأَلْقَوْا۟","translation":{"text":"অতঃপর তারা ছুঁড়লো","language_name":"bengali","language_id":20},"transliteration":{"text":"fa-alqaw","language_name":"english","language_id":38}},{"id":44586,"position":2,"audio_url":"wbw/026_044_002.mp3","char_type_name":"word","page_number":369,"line_number":4,"text":"حِبَالَهُمْ","translation":{"text":"দড়িদড়া তাদের","language_name":"bengali","language_id":20},"transliteration":{"text":"ḥibālahum","language_name":"english","language_id":38}},{"id":44587,"position":3,"audio_url":"wbw/026_044_003.mp3","char_type_name":"word","page_number":369,"line_number":4,"text":"وَعِصِيَّهُمْ","translation":{"text":"ও লাঠিসোটা তাদের","language_name":"bengali","language_id":20},"transliteration":{"text":"waʿiṣiyyahum","language_name":"english","language_id":38}},{"id":44588,"position":4,"audio_url":"wbw/026_044_004.mp3","char_type_name":"word","page_number":369,"line_number":4,"text":"وَقَالُوا۟","translation":{"text":"এবং বললো","language_name":"bengali","language_id":20},"transliteration":{"text":"waqālū","language_name":"english","language_id":38}},{"id":44589,"position":5,"audio_url":"wbw/026_044_005.mp3","char_type_name":"word","page_number":369,"line_number":4,"text":"بِعِزَّةِ","translation":{"text":"\"শপথ মর্যাদার","language_name":"bengali","language_id":20},"transliteration":{"text":"biʿizzati","language_name":"english","language_id":38}},{"id":44590,"position":6,"audio_url":"wbw/026_044_006.mp3","char_type_name":"word","page_number":369,"line_number":4,"text":"فِرْعَوْنَ","translation":{"text":"ফিরআউনের","language_name":"bengali","language_id":20},"transliteration":{"text":"fir'ʿawna","language_name":"english","language_id":38}},{"id":44591,"position":7,"audio_url":"wbw/026_044_007.mp3","char_type_name":"word","page_number":369,"line_number":4,"text":"إِنَّا","translation":{"text":"নিশ্চয়ই","language_name":"bengali","language_id":20},"transliteration":{"text":"innā","language_name":"english","language_id":38}},{"id":44592,"position":8,"audio_url":"wbw/026_044_008.mp3","char_type_name":"word","page_number":369,"line_number":4,"text":"لَنَحْنُ","translation":{"text":"অবশ্যই আমরাই","language_name":"bengali","language_id":20},"transliteration":{"text":"lanaḥnu","language_name":"english","language_id":38}},{"id":44593,"position":9,"audio_url":"wbw/026_044_009.mp3","char_type_name":"word","page_number":369,"line_number":5,"text":"ٱلْغَـٰلِبُونَ","translation":{"text":"বিজয়ী (হবো)\"","language_name":"bengali","language_id":20},"transliteration":{"text":"l-ghālibūna","language_name":"english","language_id":38}},{"id":44594,"position":10,"audio_url":null,"char_type_name":"end","page_number":369,"line_number":5,"text":"٤٤","translation":{"text":"(৪৪)","language_name":"bengali","language_id":20},"transliteration":{"text":null,"language_name":"english","language_id":38}}]},{"id":2977,"verse_number":45,"verse_key":"26:45","hizb_number":37,"rub_el_hizb_number":147,"ruku_number":318,"manzil_number":5,"sajdah_number":null,"page_number":369,"juz_number":19,"words":[{"id":45289,"position":1,"audio_url":"wbw/026_045_001.mp3","char_type_name":"word","page_number":369,"line_number":5,"text":"فَأَلْقَىٰ","translation":{"text":"অতঃপর ছুঁড়লো","language_name":"bengali","language_id":20},"transliteration":{"text":"fa-alqā","language_name":"english","language_id":38}},{"id":45290,"position":2,"audio_url":"wbw/026_045_002.mp3","char_type_name":"word","page_number":369,"line_number":5,"text":"مُوسَىٰ","translation":{"text":"মূসা","language_name":"bengali","language_id":20},"transliteration":{"text":"mūsā","language_name":"english","language_id":38}},{"id":45291,"position":3,"audio_url":"wbw/026_045_003.mp3","char_type_name":"word","page_number":369,"line_number":5,"text":"عَصَاهُ","translation":{"text":"তাঁর লাঠি","language_name":"bengali","language_id":20},"transliteration":{"text":"ʿaṣāhu","language_name":"english","language_id":38}},{"id":45292,"position":4,"audio_url":"wbw/026_045_004.mp3","char_type_name":"word","page_number":369,"line_number":5,"text":"فَإِذَا","translation":{"text":"তখনই","language_name":"bengali","language_id":20},"transliteration":{"text":"fa-idhā","language_name":"english","language_id":38}},{"id":45293,"position":5,"audio_url":"wbw/026_045_005.mp3","char_type_name":"word","page_number":369,"line_number":5,"text":"هِىَ","translation":{"text":"তা","language_name":"bengali","language_id":20},"transliteration":{"text":"hiya","language_name":"english","language_id":38}},{"id":45294,"position":6,"audio_url":"wbw/026_045_006.mp3","char_type_name":"word","page_number":369,"line_number":5,"text":"تَلْقَفُ","translation":{"text":"গিলে ফেলতে লাগলো","language_name":"bengali","language_id":20},"transliteration":{"text":"talqafu","language_name":"english","language_id":38}},{"id":45295,"position":7,"audio_url":"wbw/026_045_007.mp3","char_type_name":"word","page_number":369,"line_number":5,"text":"مَا","translation":{"text":"যা কিছু","language_name":"bengali","language_id":20},"transliteration":{"text":"mā","language_name":"english","language_id":38}},{"id":45296,"position":8,"audio_url":"wbw/026_045_008.mp3","char_type_name":"word","page_number":369,"line_number":5,"text":"يَأْفِكُونَ","translation":{"text":"তারা মিথ্যা সৃষ্টি করে","language_name":"bengali","language_id":20},"transliteration":{"text":"yafikūna","language_name":"english","language_id":38}},{"id":45297,"position":9,"audio_url":null,"char_type_name":"end","page_number":369,"line_number":6,"text":"٤٥","translation":{"text":"(৪৫)","language_name":"bengali","language_id":20},"transliteration":{"text":null,"language_name":"english","language_id":38}}]},{"id":2978,"verse_number":46,"verse_key":"26:46","hizb_number":37,"rub_el_hizb_number":147,"ruku_number":318,"manzil_number":5,"sajdah_number":null,"page_number":369,"juz_number":19,"words":[{"id":46025,"position":1,"audio_url":"wbw/026_046_001.mp3","char_type_name":"word","page_number":369,"line_number":6,"text":"فَأُلْقِىَ","translation":{"text":"তখন পড়ে গেলো","language_name":"bengali","language_id":20},"transliteration":{"text":"fa-ul'qiya","language_name":"english","language_id":38}},{"id":46026,"position":2,"audio_url":"wbw/026_046_002.mp3","char_type_name":"word","page_number":369,"line_number":6,"text":"ٱلسَّحَرَةُ","translation":{"text":"জাদুকররা","language_name":"bengali","language_id":20},"transliteration":{"text":"l-saḥaratu","language_name":"english","language_id":38}},{"id":46027,"position":3,"audio_url":"wbw/026_046_003.mp3","char_type_name":"word","page_number":369,"line_number":6,"text":"سَـٰجِدِينَ","translation":{"text":"সিজদাকারী হিসেবে","language_name":"bengali","language_id":20},"transliteration":{"text":"sājidīna","language_name":"english","language_id":38}},{"id":46028,"position":4,"audio_url":null,"char_type_name":"end","page_number":369,"line_number":6,"text":"٤٦","translation":{"text":"(৪৬)","language_name":"bengali","language_id":20},"transliteration":{"text":null,"language_name":"english","language_id":38}}]},{"id":2979,"verse_number":47,"verse_key":"26:47","hizb_number":37,"rub_el_hizb_number":147,"ruku_number":318,"manzil_number":5,"sajdah_number":null,"page_number":369,"juz_number":19,"words":[{"id":46645,"position":1,"audio_url":"wbw/026_047_001.mp3","char_type_name":"word","page_number":369,"line_number":6,"text":"قَالُوٓا۟","translation":{"text":"তারা বললো","language_name":"bengali","language_id":20},"transliteration":{"text":"qālū","language_name":"english","language_id":38}},{"id":46646,"position":2,"audio_url":"wbw/026_047_002.mp3","char_type_name":"word","page_number":369,"line_number":6,"text":"ءَامَنَّا","translation":{"text":"\"আমরা ঈমান এনেছি","language_name":"bengali","language_id":20},"transliteration":{"text":"āmannā","language_name":"english","language_id":38}},{"id":46647,"position":3,"audio_url":"wbw/026_047_003.mp3","char_type_name":"word","page_number":369,"line_number":6,"text":"بِرَبِّ","translation":{"text":"উপর রবের","language_name":"bengali","language_id":20},"transliteration":{"text":"birabbi","language_name":"english","language_id":38}},{"id":46648,"position":4,"audio_url":"wbw/026_047_004.mp3","char_type_name":"word","page_number":369,"line_number":6,"text":"ٱلْعَـٰلَمِينَ","translation":{"text":"বিশ্ব্বজগতের","language_name":"bengali","language_id":20},"transliteration":{"text":"l-ʿālamīna","language_name":"english","language_id":38}},{"id":46649,"position":5,"audio_url":null,"char_type_name":"end","page_number":369,"line_number":6,"text":"٤٧","translation":{"text":"(৪৭)","language_name":"bengali","language_id":20},"transliteration":{"text":null,"language_name":"english","language_id":38}}]},{"id":2980,"verse_number":48,"verse_key":"26:48","hizb_number":37,"rub_el_hizb_number":147,"ruku_number":318,"manzil_number":5,"sajdah_number":null,"page_number":369,"juz_number":19,"words":[{"id":47092,"position":1,"audio_url":"wbw/026_048_001.mp3","char_type_name":"word","page_number":369,"line_number":7,"text":"رَبِّ","translation":{"text":"(যিনি) রব","language_name":"bengali","language_id":20},"transliteration":{"text":"rabbi","language_name":"english","language_id":38}},{"id":47093,"position":2,"audio_url":"wbw/026_048_002.mp3","char_type_name":"word","page_number":369,"line_number":7,"text":"مُوسَىٰ","translation":{"text":"মূসার","language_name":"bengali","language_id":20},"transliteration":{"text":"mūsā","language_name":"english","language_id":38}},{"id":47094,"position":3,"audio_url":"wbw/026_048_003.mp3","char_type_name":"word","page_number":369,"line_number":7,"text":"وَهَـٰرُونَ","translation":{"text":"ও হারুনের\"","language_name":"bengali","language_id":20},"transliteration":{"text":"wahārūna","language_name":"english","language_id":38}},{"id":47095,"position":4,"audio_url":null,"char_type_name":"end","page_number":369,"line_number":7,"text":"٤٨","translation":{"text":"(৪৮)","language_name":"bengali","language_id":20},"transliteration":{"text":null,"language_name":"english","language_id":38}}]},{"id":2981,"verse_number":49,"verse_key":"26:49","hizb_number":37,"rub_el_hizb_number":147,"ruku_number":318,"manzil_number":5,"sajdah_number":null,"page_number":369,"juz_number":19,"words":[{"id":48095,"position":1,"audio_url":"wbw/026_049_001.mp3","char_type_name":"word","page_number":369,"line_number":7,"text":"قَالَ","translation":{"text":"(ফিরআউন) বললো","language_name":"bengali","language_id":20},"transliteration":{"text":"qāla","language_name":"english","language_id":38}},{"id":48096,"position":2,"audio_url":"wbw/026_049_002.mp3","char_type_name":"word","page_number":369,"line_number":7,"text":"ءَامَنتُمْ","translation":{"text":"\"কি তোমরা ঈমান আনলে","language_name":"bengali","language_id":20},"transliteration":{"text":"āmantum","language_name":"english","language_id":38}},{"id":48097,"position":3,"audio_url":"wbw/026_049_003.mp3","char_type_name":"word","page_number":369,"line_number":7,"text":"لَهُۥ","translation":{"text":"প্রতি তাঁর","language_name":"bengali","language_id":20},"transliteration":{"text":"lahu","language_name":"english","language_id":38}},{"id":48098,"position":4,"audio_url":"wbw/026_049_004.mp3","char_type_name":"word","page_number":369,"line_number":7,"text":"قَبْلَ","translation":{"text":"এর পূর্বেই","language_name":"bengali","language_id":20},"transliteration":{"text":"qabla","language_name":"english","language_id":38}},{"id":48099,"position":5,"audio_url":"wbw/026_049_005.mp3","char_type_name":"word","page_number":369,"line_number":7,"text":"أَنْ","translation":{"text":"যে","language_name":"bengali","language_id":20},"transliteration":{"text":"an","language_name":"english","language_id":38}},{"id":48100,"position":6,"audio_url":"wbw/026_049_006.mp3","char_type_name":"word","page_number":369,"line_number":7,"text":"ءَاذَنَ","translation":{"text":"আমি দিবো অনুমতি","language_name":"bengali","language_id":20},"transliteration":{"text":"ādhana","language_name":"english","language_id":38}},{"id":48101,"position":7,"audio_url":"wbw/026_049_007.mp3","char_type_name":"word","page_number":369,"line_number":7,"text":"لَكُمْ ۖ","translation":{"text":"জন্যে তোমাদের","language_name":"bengali","language_id":20},"transliteration":{"text":"lakum","language_name":"english","language_id":38}},{"id":48103,"position":8,"audio_url":"wbw/026_049_009.mp3","char_type_name":"word","page_number":369,"line_number":7,"text":"إِنَّهُۥ","translation":{"text":"নিশ্চয়ই সে","language_name":"bengali","language_id":20},"transliteration":{"text":"innahu","language_name":"english","language_id":38}},{"id":48104,"position":9,"audio_url":"wbw/026_049_010.mp3","char_type_name":"word","page_number":369,"line_number":8,"text":"لَكَبِيرُكُمُ","translation":{"text":"অবশ্যই প্রধান (নেতা) তোমাদের","language_name":"bengali","language_id":20},"transliteration":{"text":"lakabīrukumu","language_name":"english","language_id":38}},{"id":48105,"position":10,"audio_url":"wbw/026_049_011.mp3","char_type_name":"word","page_number":369,"line_number":8,"text":"ٱلَّذِى","translation":{"text":"যে","language_name":"bengali","language_id":20},"transliteration":{"text":"alladhī","language_name":"english","language_id":38}},{"id":48106,"position":11,"audio_url":"wbw/026_049_012.mp3","char_type_name":"word","page_number":369,"line_number":8,"text":"عَلَّمَكُمُ","translation":{"text":"তোমাদেরকে শিখিয়েছে","language_name":"bengali","language_id":20},"transliteration":{"text":"ʿallamakumu","language_name":"english","language_id":38}},{"id":48107,"position":12,"audio_url":"wbw/026_049_013.mp3","char_type_name":"word","page_number":369,"line_number":8,"text":"ٱلسِّحْرَ","translation":{"text":"জাদু","language_name":"bengali","language_id":20},"transliteration":{"text":"l-siḥ'ra","language_name":"english","language_id":38}},{"id":48108,"position":13,"audio_url":"wbw/026_049_014.mp3","char_type_name":"word","page_number":369,"line_number":8,"text":"فَلَسَوْفَ","translation":{"text":"অতএব শীঘ্রই","language_name":"bengali","language_id":20},"transliteration":{"text":"falasawfa","language_name":"english","language_id":38}},{"id":48109,"position":14,"audio_url":"wbw/026_049_015.mp3","char_type_name":"word","page_number":369,"line_number":8,"text":"تَعْلَمُونَ ۚ","translation":{"text":"তোমরা জানতে পারবে (পরিণাম)","language_name":"bengali","language_id":20},"transliteration":{"text":"taʿlamūna","language_name":"english","language_id":38}},{"id":48111,"position":15,"audio_url":"wbw/026_049_017.mp3","char_type_name":"word","page_number":369,"line_number":8,"text":"لَأُقَطِّعَنَّ","translation":{"text":"অবশ্যই আমি কাটবোই","language_name":"bengali","language_id":20},"transliteration":{"text":"la-uqaṭṭiʿanna","language_name":"english","language_id":38}},{"id":48112,"position":16,"audio_url":"wbw/026_049_018.mp3","char_type_name":"word","page_number":369,"line_number":8,"text":"أَيْدِيَكُمْ","translation":{"text":"হাতগুলোকে তোমাদের","language_name":"bengali","language_id":20},"transliteration":{"text":"aydiyakum","language_name":"english","language_id":38}},{"id":48113,"position":17,"audio_url":"wbw/026_049_019.mp3","char_type_name":"word","page_number":369,"line_number":9,"text":"وَأَرْجُلَكُم","translation":{"text":"ও পাগুলোকে তোমাদের","language_name":"bengali","language_id":20},"transliteration":{"text":"wa-arjulakum","language_name":"english","language_id":38}},{"id":48114,"position":18,"audio_url":"wbw/026_049_020.mp3","char_type_name":"word","page_number":369,"line_number":9,"text":"مِّنْ","translation":{"text":"হ'তে","language_name":"bengali","language_id":20},"transliteration":{"text":"min","language_name":"english","language_id":38}},{"id":48115,"position":19,"audio_url":"wbw/026_049_021.mp3","char_type_name":"word","page_number":369,"line_number":9,"text":"خِلَـٰفٍۢ","translation":{"text":"বিপরীত দিক","language_name":"bengali","language_id":20},"transliteration":{"text":"khilāfin","language_name":"english","language_id":38}},{"id":48116,"position":20,"audio_url":"wbw/026_049_022.mp3","char_type_name":"word","page_number":369,"line_number":9,"text":"وَلَأُصَلِّبَنَّكُمْ","translation":{"text":"আর অবশ্যই তোমাদেরকে শূলে চড়াবো","language_name":"bengali","language_id":20},"transliteration":{"text":"wala-uṣallibannakum","language_name":"english","language_id":38}},{"id":48117,"position":21,"audio_url":"wbw/026_049_023.mp3","char_type_name":"word","page_number":369,"line_number":9,"text":"أَجْمَعِينَ","translation":{"text":"সবাইকে\"","language_name":"bengali","language_id":20},"transliteration":{"text":"ajmaʿīna","language_name":"english","language_id":38}},{"id":48118,"position":22,"audio_url":null,"char_type_name":"end","page_number":369,"line_number":9,"text":"٤٩","translation":{"text":"(৪৯)","language_name":"bengali","language_id":20},"transliteration":{"text":null,"language_name":"english","language_id":38}}]},{"id":2982,"verse_number":50,"verse_key":"26:50","hizb_number":37,"rub_el_hizb_number":147,"ruku_number":318,"manzil_number":5,"sajdah_number":null,"page_number":369,"juz_number":19,"words":[{"id":48788,"position":1,"audio_url":"wbw/026_050_001.mp3","char_type_name":"word","page_number":369,"line_number":9,"text":"قَالُوا۟","translation":{"text":"তারা বললো","language_name":"bengali","language_id":20},"transliteration":{"text":"qālū","language_name":"english","language_id":38}},{"id":48789,"position":2,"audio_url":"wbw/026_050_002.mp3","char_type_name":"word","page_number":369,"line_number":9,"text":"لَا","translation":{"text":"\"নেই","language_name":"bengali","language_id":20},"transliteration":{"text":"lā","language_name":"english","language_id":38}},{"id":48790,"position":3,"audio_url":"wbw/026_050_003.mp3","char_type_name":"word","page_number":369,"line_number":9,"text":"ضَيْرَ ۖ","translation":{"text":"কোনো ক্ষতি","language_name":"bengali","language_id":20},"transliteration":{"text":"ḍayra","language_name":"english","language_id":38}},{"id":48792,"position":4,"audio_url":"wbw/026_050_005.mp3","char_type_name":"word","page_number":369,"line_number":9,"text":"إِنَّآ","translation":{"text":"নিশ্চয়ই আমরা","language_name":"bengali","language_id":20},"transliteration":{"text":"innā","language_name":"english","language_id":38}},{"id":48793,"position":5,"audio_url":"wbw/026_050_006.mp3","char_type_name":"word","page_number":369,"line_number":10,"text":"إِلَىٰ","translation":{"text":"দিকে","language_name":"bengali","language_id":20},"transliteration":{"text":"ilā","language_name":"english","language_id":38}},{"id":48794,"position":6,"audio_url":"wbw/026_050_007.mp3","char_type_name":"word","page_number":369,"line_number":10,"text":"رَبِّنَا","translation":{"text":"আমাদের রবের","language_name":"bengali","language_id":20},"transliteration":{"text":"rabbinā","language_name":"english","language_id":38}},{"id":48795,"position":7,"audio_url":"wbw/026_050_008.mp3","char_type_name":"word","page_number":369,"line_number":10,"text":"مُنقَلِبُونَ","translation":{"text":"প্রত্যাবর্তনকারী","language_name":"bengali","language_id":20},"transliteration":{"text":"munqalibūna","language_name":"english","language_id":38}},{"id":48796,"position":8,"audio_url":null,"char_type_name":"end","page_number":369,"line_number":10,"text":"٥٠","translation":{"text":"(৫০)","language_name":"bengali","language_id":20},"transliteration":{"text":null,"language_name":"english","language_id":38}}]}],"pagination":{"per_page":10,"current_page":5,"next_page":6,"total_pages":23,"total_records":227}}
