{"verses":[{"id":2993,"verse_number":61,"verse_key":"26:61","hizb_number":37,"rub_el_hizb_number":148,"ruku_number":319,"manzil_number":5,"sajdah_number":null,"page_number":370,"juz_number":19,"words":[{"id":55194,"position":1,"audio_url":"wbw/026_061_001.mp3","char_type_name":"word","page_number":370,"line_number":1,"text":"فَلَمَّا","translation":{"text":"অতঃপর যখন","language_name":"bengali","language_id":20},"transliteration":{"text":"falammā","language_name":"english","language_id":38}},{"id":55195,"position":2,"audio_url":"wbw/026_061_002.mp3","char_type_name":"word","page_number":370,"line_number":1,"text":"تَرَٰٓءَا","translation":{"text":"পরস্পরকে দেখলো","language_name":"bengali","language_id":20},"transliteration":{"text":"tarāā","language_name":"english","language_id":38}},{"id":55196,"position":3,"audio_url":"wbw/026_061_003.mp3","char_type_name":"word","page_number":370,"line_number":1,"text":"ٱلْجَمْعَانِ","translation":{"text":"দল দু'টো","language_name":"bengali","language_id":20},"transliteration":{"text":"l-jamʿāni","language_name":"english","language_id":38}},{"id":55197,"position":4,"audio_url":"wbw/026_061_004.mp3","char_type_name":"word","page_number":370,"line_number":1,"text":"قَالَ","translation":{"text":"বললো","language_name":"bengali","language_id":20},"transliteration":{"text":"qāla","language_name":"english","language_id":38}},{"id":55198,"position":5,"audio_url":"wbw/026_061_005.mp3","char_type_name":"word","page_number":370,"line_number":1,"text":"أَصْحَـٰبُ","translation":{"text":"সাথীরা","language_name":"bengali","language_id":20},"transliteration":{"text":"aṣḥābu","language_name":"english","language_id":38}},{"id":55199,"position":6,"audio_url":"wbw/026_061_006.mp3","char_type_name":"word","page_number":370,"line_number":1,"text":"مُوسَىٰٓ","translation":{"text":"মূসার","language_name":"bengali","language_id":20},"transliteration":{"text":"mūsā","language_name":"english","language_id":38}},{"id":55200,"position":7,"audio_url":"wbw/026_061_007.mp3","char_type_name":"word","page_number":370,"line_number":1,"text":"إِنَّا","translation":{"text":"\"নিশ্চয়ই আমরা","language_name":"bengali","language_id":20},"transliteration":{"text":"innā","language_name":"english","language_id":38}},{"id":55201,"position":8,"audio_url":"wbw/026_061_008.mp3","char_type_name":"word","page_number":370,"line_number":1,"text":"لَمُدْرَكُونَ","translation":{"text":"অবশ্যই ধরা পড়ে গেলাম\"","language_name":"bengali","language_id":20},"transliteration":{"text":"lamud'rakūna","language_name":"english","language_id":38}},{"id":55202,"position":9,"audio_url":null,"char_type_name":"end","page_number":370,"line_number":1,"text":"٦١","translation":{"text":"(৬১)","language_name":"bengali","language_id":20},"transliteration":{"text":null,"language_name":"english","language_id":38}}]},{"id":2994,"verse_number":62,"verse_key":"26:62","hizb_number":37,"rub_el_hizb_number":148,"ruku_number":319,"manzil_number":5,"sajdah_number":null,"page_number":370,"juz_number":19,"words":[{"id":55785,"position":1,"audio_url":"wbw/026_062_001.mp3","char_type_name":"word","page_number":370,"line_number":2,"text":"قَالَ","translation":{"text":"(মূসা) বললো","language_name":"bengali","language_id":20},"transliteration":{"text":"qāla","language_name":"english","language_id":38}},{"id":55786,"position":2,"audio_url":"wbw/026_062_002.mp3","char_type_name":"word","page_number":370,"line_number":2,"text":"كَلَّآ ۖ","translation":{"text":"\"কখনও না","language_name":"bengali","language_id":20},"transliteration":{"text":"kallā","language_name":"english","language_id":38}},{"id":55788,"position":3,"audio_url":"wbw/026_062_004.mp3","char_type_name":"word","page_number":370,"line_number":2,"text":"إِنَّ","translation":{"text":"নিশ্চয়ই","language_name":"bengali","language_id":20},"transliteration":{"text":"inna","language_name":"english","language_id":38}},{"id":55789,"position":4,"audio_url":"wbw/026_062_005.mp3","char_type_name":"word","page_number":370,"line_number":2,"text":"مَعِىَ","translation":{"text":"আমার সাথে (আছেন)","language_name":"bengali","language_id":20},"transliteration":{"text":"maʿiya","language_name":"english","language_id":38}},{"id":55790,"position":5,"audio_url":"wbw/026_062_006.mp3","char_type_name":"word","page_number":370,"line_number":2,"text":"رَبِّى","translation":{"text":"আমার রব","language_name":"bengali","language_id":20},"transliteration":{"text":"rabbī","language_name":"english","language_id":38}},{"id":55791,"position":6,"audio_url":"wbw/026_062_007.mp3","char_type_name":"word","page_number":370,"line_number":2,"text":"سَيَهْدِينِ","translation":{"text":"শীঘ্রই তিনি আমাকে পথ দেখাবেন\"","language_name":"bengali","language_id":20},"transliteration":{"text":"sayahdīni","language_name":"english","language_id":38}},{"id":55792,"position":7,"audio_url":null,"char_type_name":"end","page_number":370,"line_number":2,"text":"٦٢","translation":{"text":"(৬২)","language_name":"bengali","language_id":20},"transliteration":{"text":null,"language_name":"english","language_id":38}}]},{"id":2995,"verse_number":63,"verse_key":"26:63","hizb_number":37,"rub_el_hizb_number":148,"ruku_number":319,"manzil_number":5,"sajdah_number":null,"page_number":370,"juz_number":19,"words":[{"id":56210,"position":1,"audio_url":"wbw/026_063_001.mp3","char_type_name":"word","page_number":370,"line_number":2,"text":"فَأَوْحَيْنَآ","translation":{"text":"অতঃপর আমরা ওহী পাঠালাম","language_name":"bengali","language_id":20},"transliteration":{"text":"fa-awḥaynā","language_name":"english","language_id":38}},{"id":56211,"position":2,"audio_url":"wbw/026_063_002.mp3","char_type_name":"word","page_number":370,"line_number":2,"text":"إِلَىٰ","translation":{"text":"প্রতি","language_name":"bengali","language_id":20},"transliteration":{"text":"ilā","language_name":"english","language_id":38}},{"id":56212,"position":3,"audio_url":"wbw/026_063_003.mp3","char_type_name":"word","page_number":370,"line_number":2,"text":"مُوسَىٰٓ","translation":{"text":"মূসার","language_name":"bengali","language_id":20},"transliteration":{"text":"mūsā","language_name":"english","language_id":38}},{"id":56213,"position":4,"audio_url":"wbw/026_063_004.mp3","char_type_name":"word","page_number":370,"line_number":2,"text":"أَنِ","translation":{"text":"যে","language_name":"bengali","language_id":20},"transliteration":{"text":"ani","language_name":"english","language_id":38}},{"id":56214,"position":5,"audio_url":"wbw/026_063_005.mp3","char_type_name":"word","page_number":370,"line_number":3,"text":"ٱضْرِب","translation":{"text":"\"আঘাত করো","language_name":"bengali","language_id":20},"transliteration":{"text":"iḍ'rib","language_name":"english","language_id":38}},{"id":56215,"position":6,"audio_url":"wbw/026_063_006.mp3","char_type_name":"word","page_number":370,"line_number":3,"text":"بِّعَصَاكَ","translation":{"text":"দিয়ে তোমার লাঠি","language_name":"bengali","language_id":20},"transliteration":{"text":"biʿaṣāka","language_name":"english","language_id":38}},{"id":56216,"position":7,"audio_url":"wbw/026_063_007.mp3","char_type_name":"word","page_number":370,"line_number":3,"text":"ٱلْبَحْرَ ۖ","translation":{"text":"সমূদ্রকে\"","language_name":"bengali","language_id":20},"transliteration":{"text":"l-baḥra","language_name":"english","language_id":38}},{"id":56218,"position":8,"audio_url":"wbw/026_063_009.mp3","char_type_name":"word","page_number":370,"line_number":3,"text":"فَٱنفَلَقَ","translation":{"text":"ফলে ফেটে গেল (সমুদ্র)","language_name":"bengali","language_id":20},"transliteration":{"text":"fa-infalaqa","language_name":"english","language_id":38}},{"id":56219,"position":9,"audio_url":"wbw/026_063_010.mp3","char_type_name":"word","page_number":370,"line_number":3,"text":"فَكَانَ","translation":{"text":"অতঃপর হলো","language_name":"bengali","language_id":20},"transliteration":{"text":"fakāna","language_name":"english","language_id":38}},{"id":56220,"position":10,"audio_url":"wbw/026_063_011.mp3","char_type_name":"word","page_number":370,"line_number":3,"text":"كُلُّ","translation":{"text":"প্রত্যেক","language_name":"bengali","language_id":20},"transliteration":{"text":"kullu","language_name":"english","language_id":38}},{"id":56221,"position":11,"audio_url":"wbw/026_063_012.mp3","char_type_name":"word","page_number":370,"line_number":3,"text":"فِرْقٍۢ","translation":{"text":"ভাগ","language_name":"bengali","language_id":20},"transliteration":{"text":"fir'qin","language_name":"english","language_id":38}},{"id":56222,"position":12,"audio_url":"wbw/026_063_013.mp3","char_type_name":"word","page_number":370,"line_number":3,"text":"كَٱلطَّوْدِ","translation":{"text":"মতো পর্বতের","language_name":"bengali","language_id":20},"transliteration":{"text":"kal-ṭawdi","language_name":"english","language_id":38}},{"id":56223,"position":13,"audio_url":"wbw/026_063_014.mp3","char_type_name":"word","page_number":370,"line_number":3,"text":"ٱلْعَظِيمِ","translation":{"text":"বিশাল","language_name":"bengali","language_id":20},"transliteration":{"text":"l-ʿaẓīmi","language_name":"english","language_id":38}},{"id":56224,"position":14,"audio_url":null,"char_type_name":"end","page_number":370,"line_number":4,"text":"٦٣","translation":{"text":"(৬৩)","language_name":"bengali","language_id":20},"transliteration":{"text":null,"language_name":"english","language_id":38}}]},{"id":2996,"verse_number":64,"verse_key":"26:64","hizb_number":37,"rub_el_hizb_number":148,"ruku_number":319,"manzil_number":5,"sajdah_number":null,"page_number":370,"juz_number":19,"words":[{"id":56682,"position":1,"audio_url":"wbw/026_064_001.mp3","char_type_name":"word","page_number":370,"line_number":4,"text":"وَأَزْلَفْنَا","translation":{"text":"এবং আমরা নিকটে আনলাম","language_name":"bengali","language_id":20},"transliteration":{"text":"wa-azlafnā","language_name":"english","language_id":38}},{"id":56683,"position":2,"audio_url":"wbw/026_064_002.mp3","char_type_name":"word","page_number":370,"line_number":4,"text":"ثَمَّ","translation":{"text":"সেখানেই","language_name":"bengali","language_id":20},"transliteration":{"text":"thamma","language_name":"english","language_id":38}},{"id":56684,"position":3,"audio_url":"wbw/026_064_003.mp3","char_type_name":"word","page_number":370,"line_number":4,"text":"ٱلْـَٔاخَرِينَ","translation":{"text":"অন্যান্যদেরকে (অপর দলকে)","language_name":"bengali","language_id":20},"transliteration":{"text":"l-ākharīna","language_name":"english","language_id":38}},{"id":56685,"position":4,"audio_url":null,"char_type_name":"end","page_number":370,"line_number":4,"text":"٦٤","translation":{"text":"(৬৪)","language_name":"bengali","language_id":20},"transliteration":{"text":null,"language_name":"english","language_id":38}}]},{"id":2997,"verse_number":65,"verse_key":"26:65","hizb_number":37,"rub_el_hizb_number":148,"ruku_number":319,"manzil_number":5,"sajdah_number":null,"page_number":370,"juz_number":19,"words":[{"id":57244,"position":1,"audio_url":"wbw/026_065_001.mp3","char_type_name":"word","page_number":370,"line_number":4,"text":"وَأَنجَيْنَا","translation":{"text":"এবং আমরা উদ্ধার করলাম","language_name":"bengali","language_id":20},"transliteration":{"text":"wa-anjaynā","language_name":"english","language_id":38}},{"id":57245,"position":2,"audio_url":"wbw/026_065_002.mp3","char_type_name":"word","page_number":370,"line_number":4,"text":"مُوسَىٰ","translation":{"text":"মূসাকে","language_name":"bengali","language_id":20},"transliteration":{"text":"mūsā","language_name":"english","language_id":38}},{"id":57246,"position":3,"audio_url":"wbw/026_065_003.mp3","char_type_name":"word","page_number":370,"line_number":4,"text":"وَمَن","translation":{"text":"ও যারা (ছিলো)","language_name":"bengali","language_id":20},"transliteration":{"text":"waman","language_name":"english","language_id":38}},{"id":57247,"position":4,"audio_url":"wbw/026_065_004.mp3","char_type_name":"word","page_number":370,"line_number":4,"text":"مَّعَهُۥٓ","translation":{"text":"তাঁর সাথে","language_name":"bengali","language_id":20},"transliteration":{"text":"maʿahu","language_name":"english","language_id":38}},{"id":57248,"position":5,"audio_url":"wbw/026_065_005.mp3","char_type_name":"word","page_number":370,"line_number":4,"text":"أَجْمَعِينَ","translation":{"text":"সবাইকে","language_name":"bengali","language_id":20},"transliteration":{"text":"ajmaʿīna","language_name":"english","language_id":38}},{"id":57249,"position":6,"audio_url":null,"char_type_name":"end","page_number":370,"line_number":5,"text":"٦٥","translation":{"text":"(৬৫)","language_name":"bengali","language_id":20},"transliteration":{"text":null,"language_name":"english","language_id":38}}]},{"id":2998,"verse_number":66,"verse_key":"26:66","hizb_number":37,"rub_el_hizb_number":148,"ruku_number":319,"manzil_number":5,"sajdah_number":null,"page_number":370,"juz_number":19,"words":[{"id":57797,"position":1,"audio_url":"wbw/026_066_001.mp3","char_type_name":"word","page_number":370,"line_number":5,"text":"ثُمَّ","translation":{"text":"এরপর","language_name":"bengali","language_id":20},"transliteration":{"text":"thumma","language_name":"english","language_id":38}},{"id":57798,"position":2,"audio_url":"wbw/026_066_002.mp3","char_type_name":"word","page_number":370,"line_number":5,"text":"أَغْرَقْنَا","translation":{"text":"আমরা ডুবিয়ে দিলাম","language_name":"bengali","language_id":20},"transliteration":{"text":"aghraqnā","language_name":"english","language_id":38}},{"id":57799,"position":3,"audio_url":"wbw/026_066_003.mp3","char_type_name":"word","page_number":370,"line_number":5,"text":"ٱلْـَٔاخَرِينَ","translation":{"text":"অন্যান্যদেরকে","language_name":"bengali","language_id":20},"transliteration":{"text":"l-ākharīna","language_name":"english","language_id":38}},{"id":57800,"position":4,"audio_url":null,"char_type_name":"end","page_number":370,"line_number":5,"text":"٦٦","translation":{"text":"(৬৬)","language_name":"bengali","language_id":20},"transliteration":{"text":null,"language_name":"english","language_id":38}}]},{"id":2999,"verse_number":67,"verse_key":"26:67","hizb_number":37,"rub_el_hizb_number":148,"ruku_number":319,"manzil_number":5,"sajdah_number":null,"page_number":370,"juz_number":19,"words":[{"id":58252,"position":1,"audio_url":"wbw/026_067_001.mp3","char_type_name":"word","page_number":370,"line_number":5,"text":"إِنَّ","translation":{"text":"নিশ্চয়ই","language_name":"bengali","language_id":20},"transliteration":{"text":"inna","language_name":"english","language_id":38}},{"id":58253,"position":2,"audio_url":"wbw/026_067_002.mp3","char_type_name":"word","page_number":370,"line_number":5,"text":"فِى","translation":{"text":"মধ্যে (আছে)","language_name":"bengali","language_id":20},"transliteration":{"text":"fī","language_name":"english","language_id":38}},{"id":58254,"position":3,"audio_url":"wbw/026_067_003.mp3","char_type_name":"word","page_number":370,"line_number":5,"text":"ذَٰلِكَ","translation":{"text":"এর","language_name":"bengali","language_id":20},"transliteration":{"text":"dhālika","language_name":"english","language_id":38}},{"id":58255,"position":4,"audio_url":"wbw/026_067_004.mp3","char_type_name":"word","page_number":370,"line_number":5,"text":"لَـَٔايَةًۭ ۖ","translation":{"text":"অবশ্যই একটি নিদর্শন","language_name":"bengali","language_id":20},"transliteration":{"text":"laāyatan","language_name":"english","language_id":38}},{"id":58257,"position":5,"audio_url":"wbw/026_067_006.mp3","char_type_name":"word","page_number":370,"line_number":5,"text":"وَمَا","translation":{"text":"কিন্তু না","language_name":"bengali","language_id":20},"transliteration":{"text":"wamā","language_name":"english","language_id":38}},{"id":58258,"position":6,"audio_url":"wbw/026_067_007.mp3","char_type_name":"word","page_number":370,"line_number":5,"text":"كَانَ","translation":{"text":"ছিলো","language_name":"bengali","language_id":20},"transliteration":{"text":"kāna","language_name":"english","language_id":38}},{"id":58259,"position":7,"audio_url":"wbw/026_067_008.mp3","char_type_name":"word","page_number":370,"line_number":6,"text":"أَكْثَرُهُم","translation":{"text":"অধিকাংশই তাদের","language_name":"bengali","language_id":20},"transliteration":{"text":"aktharuhum","language_name":"english","language_id":38}},{"id":58260,"position":8,"audio_url":"wbw/026_067_009.mp3","char_type_name":"word","page_number":370,"line_number":6,"text":"مُّؤْمِنِينَ","translation":{"text":"বিশ্বাসী","language_name":"bengali","language_id":20},"transliteration":{"text":"mu'minīna","language_name":"english","language_id":38}},{"id":58261,"position":9,"audio_url":null,"char_type_name":"end","page_number":370,"line_number":6,"text":"٦٧","translation":{"text":"(৬৭)","language_name":"bengali","language_id":20},"transliteration":{"text":null,"language_name":"english","language_id":38}}]},{"id":3000,"verse_number":68,"verse_key":"26:68","hizb_number":37,"rub_el_hizb_number":148,"ruku_number":319,"manzil_number":5,"sajdah_number":null,"page_number":370,"juz_number":19,"words":[{"id":58459,"position":1,"audio_url":"wbw/026_068_001.mp3","char_type_name":"word","page_number":370,"line_number":6,"text":"وَإِنَّ","translation":{"text":"এবং নিশ্চয়ই","language_name":"bengali","language_id":20},"transliteration":{"text":"wa-inna","language_name":"english","language_id":38}},{"id":58460,"position":2,"audio_url":"wbw/026_068_002.mp3","char_type_name":"word","page_number":370,"line_number":6,"text":"رَبَّكَ","translation":{"text":"তোমার রব","language_name":"bengali","language_id":20},"transliteration":{"text":"rabbaka","language_name":"english","language_id":38}},{"id":58461,"position":3,"audio_url":"wbw/026_068_003.mp3","char_type_name":"word","page_number":370,"line_number":6,"text":"لَهُوَ","translation":{"text":"অবশ্যই তিনিই","language_name":"bengali","language_id":20},"transliteration":{"text":"lahuwa","language_name":"english","language_id":38}},{"id":58462,"position":4,"audio_url":"wbw/026_068_004.mp3","char_type_name":"word","page_number":370,"line_number":6,"text":"ٱلْعَزِيزُ","translation":{"text":"পরাক্রমশালী","language_name":"bengali","language_id":20},"transliteration":{"text":"l-ʿazīzu","language_name":"english","language_id":38}},{"id":58463,"position":5,"audio_url":"wbw/026_068_005.mp3","char_type_name":"word","page_number":370,"line_number":6,"text":"ٱلرَّحِيمُ","translation":{"text":"পরম দয়ালু","language_name":"bengali","language_id":20},"transliteration":{"text":"l-raḥīmu","language_name":"english","language_id":38}},{"id":58464,"position":6,"audio_url":null,"char_type_name":"end","page_number":370,"line_number":6,"text":"٦٨","translation":{"text":"(৬৮)","language_name":"bengali","language_id":20},"transliteration":{"text":null,"language_name":"english","language_id":38}}]},{"id":3001,"verse_number":69,"verse_key":"26:69","hizb_number":37,"rub_el_hizb_number":148,"ruku_number":320,"manzil_number":5,"sajdah_number":null,"page_number":370,"juz_number":19,"words":[{"id":59187,"position":1,"audio_url":"wbw/026_069_001.mp3","char_type_name":"word","page_number":370,"line_number":7,"text":"وَٱتْلُ","translation":{"text":"আর পাঠ করে শুনাও","language_name":"bengali","language_id":20},"transliteration":{"text":"wa-ut'lu","language_name":"english","language_id":38}},{"id":59188,"position":2,"audio_url":"wbw/026_069_002.mp3","char_type_name":"word","page_number":370,"line_number":7,"text":"عَلَيْهِمْ","translation":{"text":"কাছে তাদের","language_name":"bengali","language_id":20},"transliteration":{"text":"ʿalayhim","language_name":"english","language_id":38}},{"id":59189,"position":3,"audio_url":"wbw/026_069_003.mp3","char_type_name":"word","page_number":370,"line_number":7,"text":"نَبَأَ","translation":{"text":"সংবাদ","language_name":"bengali","language_id":20},"transliteration":{"text":"naba-a","language_name":"english","language_id":38}},{"id":59190,"position":4,"audio_url":"wbw/026_069_004.mp3","char_type_name":"word","page_number":370,"line_number":7,"text":"إِبْرَٰهِيمَ","translation":{"text":"ইবরাহীমের","language_name":"bengali","language_id":20},"transliteration":{"text":"ib'rāhīma","language_name":"english","language_id":38}},{"id":59191,"position":5,"audio_url":null,"char_type_name":"end","page_number":370,"line_number":7,"text":"٦٩","translation":{"text":"(৬৯)","language_name":"bengali","language_id":20},"transliteration":{"text":null,"language_name":"english","language_id":38}}]},{"id":3002,"verse_number":70,"verse_key":"26:70","hizb_number":37,"rub_el_hizb_number":148,"ruku_number":320,"manzil_number":5,"sajdah_number":null,"page_number":370,"juz_number":19,"words":[{"id":59588,"position":1,"audio_url":"wbw/026_070_001.mp3","char_type_name":"word","page_number":370,"line_number":7,"text":"إِذْ","translation":{"text":"যখন","language_name":"bengali","language_id":20},"transliteration":{"text":"idh","language_name":"english","language_id":38}},{"id":59589,"position":2,"audio_url":"wbw/026_070_002.mp3","char_type_name":"word","page_number":370,"line_number":7,"text":"قَالَ","translation":{"text":"সে বলেছিলো","language_name":"bengali","language_id":20},"transliteration":{"text":"qāla","language_name":"english","language_id":38}},{"id":59590,"position":3,"audio_url":"wbw/026_070_003.mp3","char_type_name":"word","page_number":370,"line_number":7,"text":"لِأَبِيهِ","translation":{"text":"উদ্দেশ্যে তার পিতার","language_name":"bengali","language_id":20},"transliteration":{"text":"li-abīhi","language_name":"english","language_id":38}},{"id":59591,"position":4,"audio_url":"wbw/026_070_004.mp3","char_type_name":"word","page_number":370,"line_number":7,"text":"وَقَوْمِهِۦ","translation":{"text":"ও তার জাতির","language_name":"bengali","language_id":20},"transliteration":{"text":"waqawmihi","language_name":"english","language_id":38}},{"id":59592,"position":5,"audio_url":"wbw/026_070_005.mp3","char_type_name":"word","page_number":370,"line_number":7,"text":"مَا","translation":{"text":"\"কিসের","language_name":"bengali","language_id":20},"transliteration":{"text":"mā","language_name":"english","language_id":38}},{"id":59593,"position":6,"audio_url":"wbw/026_070_006.mp3","char_type_name":"word","page_number":370,"line_number":7,"text":"تَعْبُدُونَ","translation":{"text":"তোমরা পূজা করছো\"","language_name":"bengali","language_id":20},"transliteration":{"text":"taʿbudūna","language_name":"english","language_id":38}},{"id":59594,"position":7,"audio_url":null,"char_type_name":"end","page_number":370,"line_number":8,"text":"٧٠","translation":{"text":"(৭০)","language_name":"bengali","language_id":20},"transliteration":{"text":null,"language_name":"english","language_id":38}}]}],"pagination":{"per_page":10,"current_page":7,"next_page":8,"total_pages":23,"total_records":227}}
