{"verses":[{"id":3003,"verse_number":71,"verse_key":"26:71","hizb_number":37,"rub_el_hizb_number":148,"ruku_number":320,"manzil_number":5,"sajdah_number":null,"page_number":370,"juz_number":19,"words":[{"id":60161,"position":1,"audio_url":"wbw/026_071_001.mp3","verse_key":"26:71","verse_id":3003,"location":"26:71:1","text_uthmani":"قَالُوا۟","qpc_uthmani_hafs":"قَالُواْ","char_type_name":"word","page_number":370,"line_number":8,"text":"قَالُواْ","translation":{"text":"তারা বলেছিলো","language_name":"bengali","language_id":20},"transliteration":{"text":"qālū","language_name":"english","language_id":38}},{"id":60162,"position":2,"audio_url":"wbw/026_071_002.mp3","verse_key":"26:71","verse_id":3003,"location":"26:71:2","text_uthmani":"نَعْبُدُ","qpc_uthmani_hafs":"نَعۡبُدُ","char_type_name":"word","page_number":370,"line_number":8,"text":"نَعۡبُدُ","translation":{"text":"\"আমরা পূজা করি","language_name":"bengali","language_id":20},"transliteration":{"text":"naʿbudu","language_name":"english","language_id":38}},{"id":60163,"position":3,"audio_url":"wbw/026_071_003.mp3","verse_key":"26:71","verse_id":3003,"location":"26:71:3","text_uthmani":"أَصْنَامًۭا","qpc_uthmani_hafs":"أَصۡنَامٗا","char_type_name":"word","page_number":370,"line_number":8,"text":"أَصۡنَامٗا","translation":{"text":"(কিছু) মূর্তির","language_name":"bengali","language_id":20},"transliteration":{"text":"aṣnāman","language_name":"english","language_id":38}},{"id":60164,"position":4,"audio_url":"wbw/026_071_004.mp3","verse_key":"26:71","verse_id":3003,"location":"26:71:4","text_uthmani":"فَنَظَلُّ","qpc_uthmani_hafs":"فَنَظَلُّ","char_type_name":"word","page_number":370,"line_number":8,"text":"فَنَظَلُّ","translation":{"text":"অতঃপর আমরা লেগে থাকি","language_name":"bengali","language_id":20},"transliteration":{"text":"fanaẓallu","language_name":"english","language_id":38}},{"id":60165,"position":5,"audio_url":"wbw/026_071_005.mp3","verse_key":"26:71","verse_id":3003,"location":"26:71:5","text_uthmani":"لَهَا","qpc_uthmani_hafs":"لَهَا","char_type_name":"word","page_number":370,"line_number":8,"text":"لَهَا","translation":{"text":"জন্যে তাদের","language_name":"bengali","language_id":20},"transliteration":{"text":"lahā","language_name":"english","language_id":38}},{"id":60166,"position":6,"audio_url":"wbw/026_071_006.mp3","verse_key":"26:71","verse_id":3003,"location":"26:71:6","text_uthmani":"عَـٰكِفِينَ","qpc_uthmani_hafs":"عَٰكِفِينَ","char_type_name":"word","page_number":370,"line_number":8,"text":"عَٰكِفِينَ","translation":{"text":"নিষ্ঠাবান হয়ে\"","language_name":"bengali","language_id":20},"transliteration":{"text":"ʿākifīna","language_name":"english","language_id":38}},{"id":60167,"position":7,"audio_url":null,"verse_key":"26:71","verse_id":3003,"location":"26:71:7","text_uthmani":"٧١","qpc_uthmani_hafs":"٧١","char_type_name":"end","page_number":370,"line_number":8,"text":"٧١","translation":{"text":"(৭১)","language_name":"bengali","language_id":20},"transliteration":{"text":null,"language_name":"english","language_id":38}}]},{"id":3004,"verse_number":72,"verse_key":"26:72","hizb_number":37,"rub_el_hizb_number":148,"ruku_number":320,"manzil_number":5,"sajdah_number":null,"page_number":370,"juz_number":19,"words":[{"id":60690,"position":1,"audio_url":"wbw/026_072_001.mp3","verse_key":"26:72","verse_id":3004,"location":"26:72:1","text_uthmani":"قَالَ","qpc_uthmani_hafs":"قَالَ","char_type_name":"word","page_number":370,"line_number":8,"text":"قَالَ","translation":{"text":"(ইবরাহীম) বললো","language_name":"bengali","language_id":20},"transliteration":{"text":"qāla","language_name":"english","language_id":38}},{"id":60691,"position":2,"audio_url":"wbw/026_072_002.mp3","verse_key":"26:72","verse_id":3004,"location":"26:72:2","text_uthmani":"هَلْ","qpc_uthmani_hafs":"هَلۡ","char_type_name":"word","page_number":370,"line_number":8,"text":"هَلۡ","translation":{"text":"\"কি","language_name":"bengali","language_id":20},"transliteration":{"text":"hal","language_name":"english","language_id":38}},{"id":60692,"position":3,"audio_url":"wbw/026_072_003.mp3","verse_key":"26:72","verse_id":3004,"location":"26:72:3","text_uthmani":"يَسْمَعُونَكُمْ","qpc_uthmani_hafs":"يَسۡمَعُونَكُمۡ","char_type_name":"word","page_number":370,"line_number":9,"text":"يَسۡمَعُونَكُمۡ","translation":{"text":"তারা শুনতে পায় তোমাদেরকে","language_name":"bengali","language_id":20},"transliteration":{"text":"yasmaʿūnakum","language_name":"english","language_id":38}},{"id":60693,"position":4,"audio_url":"wbw/026_072_004.mp3","verse_key":"26:72","verse_id":3004,"location":"26:72:4","text_uthmani":"إِذْ","qpc_uthmani_hafs":"إِذۡ","char_type_name":"word","page_number":370,"line_number":9,"text":"إِذۡ","translation":{"text":"যখন","language_name":"bengali","language_id":20},"transliteration":{"text":"idh","language_name":"english","language_id":38}},{"id":60694,"position":5,"audio_url":"wbw/026_072_005.mp3","verse_key":"26:72","verse_id":3004,"location":"26:72:5","text_uthmani":"تَدْعُونَ","qpc_uthmani_hafs":"تَدۡعُونَ","char_type_name":"word","page_number":370,"line_number":9,"text":"تَدۡعُونَ","translation":{"text":"তোমরা ডাকো","language_name":"bengali","language_id":20},"transliteration":{"text":"tadʿūna","language_name":"english","language_id":38}},{"id":60695,"position":6,"audio_url":null,"verse_key":"26:72","verse_id":3004,"location":"26:72:6","text_uthmani":"٧٢","qpc_uthmani_hafs":"٧٢","char_type_name":"end","page_number":370,"line_number":9,"text":"٧٢","translation":{"text":"(৭২)","language_name":"bengali","language_id":20},"transliteration":{"text":null,"language_name":"english","language_id":38}}]},{"id":3005,"verse_number":73,"verse_key":"26:73","hizb_number":37,"rub_el_hizb_number":148,"ruku_number":320,"manzil_number":5,"sajdah_number":null,"page_number":370,"juz_number":19,"words":[{"id":61096,"position":1,"audio_url":"wbw/026_073_001.mp3","verse_key":"26:73","verse_id":3005,"location":"26:73:1","text_uthmani":"أَوْ","qpc_uthmani_hafs":"أَوۡ","char_type_name":"word","page_number":370,"line_number":9,"text":"أَوۡ","translation":{"text":"অথবা","language_name":"bengali","language_id":20},"transliteration":{"text":"aw","language_name":"english","language_id":38}},{"id":61097,"position":2,"audio_url":"wbw/026_073_002.mp3","verse_key":"26:73","verse_id":3005,"location":"26:73:2","text_uthmani":"يَنفَعُونَكُمْ","qpc_uthmani_hafs":"يَنفَعُونَكُمۡ","char_type_name":"word","page_number":370,"line_number":9,"text":"يَنفَعُونَكُمۡ","translation":{"text":"উপকার করতে পারে তোমাদেরকে","language_name":"bengali","language_id":20},"transliteration":{"text":"yanfaʿūnakum","language_name":"english","language_id":38}},{"id":61098,"position":3,"audio_url":"wbw/026_073_003.mp3","verse_key":"26:73","verse_id":3005,"location":"26:73:3","text_uthmani":"أَوْ","qpc_uthmani_hafs":"أَوۡ","char_type_name":"word","page_number":370,"line_number":9,"text":"أَوۡ","translation":{"text":"অথবা","language_name":"bengali","language_id":20},"transliteration":{"text":"aw","language_name":"english","language_id":38}},{"id":61099,"position":4,"audio_url":"wbw/026_073_004.mp3","verse_key":"26:73","verse_id":3005,"location":"26:73:4","text_uthmani":"يَضُرُّونَ","qpc_uthmani_hafs":"يَضُرُّونَ","char_type_name":"word","page_number":370,"line_number":9,"text":"يَضُرُّونَ","translation":{"text":"ক্ষতি করতে পারে\"","language_name":"bengali","language_id":20},"transliteration":{"text":"yaḍurrūna","language_name":"english","language_id":38}},{"id":61100,"position":5,"audio_url":null,"verse_key":"26:73","verse_id":3005,"location":"26:73:5","text_uthmani":"٧٣","qpc_uthmani_hafs":"٧٣","char_type_name":"end","page_number":370,"line_number":9,"text":"٧٣","translation":{"text":"(৭৩)","language_name":"bengali","language_id":20},"transliteration":{"text":null,"language_name":"english","language_id":38}}]},{"id":3006,"verse_number":74,"verse_key":"26:74","hizb_number":37,"rub_el_hizb_number":148,"ruku_number":320,"manzil_number":5,"sajdah_number":null,"page_number":370,"juz_number":19,"words":[{"id":61559,"position":1,"audio_url":"wbw/026_074_001.mp3","verse_key":"26:74","verse_id":3006,"location":"26:74:1","text_uthmani":"قَالُوا۟","qpc_uthmani_hafs":"قَالُواْ","char_type_name":"word","page_number":370,"line_number":9,"text":"قَالُواْ","translation":{"text":"তারা বললো","language_name":"bengali","language_id":20},"transliteration":{"text":"qālū","language_name":"english","language_id":38}},{"id":61560,"position":2,"audio_url":"wbw/026_074_002.mp3","verse_key":"26:74","verse_id":3006,"location":"26:74:2","text_uthmani":"بَلْ","qpc_uthmani_hafs":"بَلۡ","char_type_name":"word","page_number":370,"line_number":10,"text":"بَلۡ","translation":{"text":"\"(না) বরং","language_name":"bengali","language_id":20},"transliteration":{"text":"bal","language_name":"english","language_id":38}},{"id":61561,"position":3,"audio_url":"wbw/026_074_003.mp3","verse_key":"26:74","verse_id":3006,"location":"26:74:3","text_uthmani":"وَجَدْنَآ","qpc_uthmani_hafs":"وَجَدۡنَآ","char_type_name":"word","page_number":370,"line_number":10,"text":"وَجَدۡنَآ","translation":{"text":"আমরা পেয়েছি","language_name":"bengali","language_id":20},"transliteration":{"text":"wajadnā","language_name":"english","language_id":38}},{"id":61562,"position":4,"audio_url":"wbw/026_074_004.mp3","verse_key":"26:74","verse_id":3006,"location":"26:74:4","text_uthmani":"ءَابَآءَنَا","qpc_uthmani_hafs":"ءَابَآءَنَا","char_type_name":"word","page_number":370,"line_number":10,"text":"ءَابَآءَنَا","translation":{"text":"আমাদের বাপ দাদাদেরকে","language_name":"bengali","language_id":20},"transliteration":{"text":"ābāanā","language_name":"english","language_id":38}},{"id":61563,"position":5,"audio_url":"wbw/026_074_005.mp3","verse_key":"26:74","verse_id":3006,"location":"26:74:5","text_uthmani":"كَذَٰلِكَ","qpc_uthmani_hafs":"كَذَٰلِكَ","char_type_name":"word","page_number":370,"line_number":10,"text":"كَذَٰلِكَ","translation":{"text":"এরূপই","language_name":"bengali","language_id":20},"transliteration":{"text":"kadhālika","language_name":"english","language_id":38}},{"id":61564,"position":6,"audio_url":"wbw/026_074_006.mp3","verse_key":"26:74","verse_id":3006,"location":"26:74:6","text_uthmani":"يَفْعَلُونَ","qpc_uthmani_hafs":"يَفۡعَلُونَ","char_type_name":"word","page_number":370,"line_number":10,"text":"يَفۡعَلُونَ","translation":{"text":"তারা করতেন\"","language_name":"bengali","language_id":20},"transliteration":{"text":"yafʿalūna","language_name":"english","language_id":38}},{"id":61565,"position":7,"audio_url":null,"verse_key":"26:74","verse_id":3006,"location":"26:74:7","text_uthmani":"٧٤","qpc_uthmani_hafs":"٧٤","char_type_name":"end","page_number":370,"line_number":10,"text":"٧٤","translation":{"text":"(৭৪)","language_name":"bengali","language_id":20},"transliteration":{"text":null,"language_name":"english","language_id":38}}]},{"id":3007,"verse_number":75,"verse_key":"26:75","hizb_number":37,"rub_el_hizb_number":148,"ruku_number":320,"manzil_number":5,"sajdah_number":null,"page_number":370,"juz_number":19,"words":[{"id":62192,"position":1,"audio_url":"wbw/026_075_001.mp3","verse_key":"26:75","verse_id":3007,"location":"26:75:1","text_uthmani":"قَالَ","qpc_uthmani_hafs":"قَالَ","char_type_name":"word","page_number":370,"line_number":10,"text":"قَالَ","translation":{"text":"সে বললো","language_name":"bengali","language_id":20},"transliteration":{"text":"qāla","language_name":"english","language_id":38}},{"id":62193,"position":2,"audio_url":"wbw/026_075_002.mp3","verse_key":"26:75","verse_id":3007,"location":"26:75:2","text_uthmani":"أَفَرَءَيْتُم","qpc_uthmani_hafs":"أَفَرَءَيۡتُم","char_type_name":"word","page_number":370,"line_number":10,"text":"أَفَرَءَيۡتُم","translation":{"text":"\"কি তবে (ভেবে) দেখেছো তোমরা","language_name":"bengali","language_id":20},"transliteration":{"text":"afara-aytum","language_name":"english","language_id":38}},{"id":62194,"position":3,"audio_url":"wbw/026_075_003.mp3","verse_key":"26:75","verse_id":3007,"location":"26:75:3","text_uthmani":"مَّا","qpc_uthmani_hafs":"مَّا","char_type_name":"word","page_number":370,"line_number":10,"text":"مَّا","translation":{"text":"(ঐগুলোকে) যার","language_name":"bengali","language_id":20},"transliteration":{"text":"mā","language_name":"english","language_id":38}},{"id":62195,"position":4,"audio_url":"wbw/026_075_004.mp3","verse_key":"26:75","verse_id":3007,"location":"26:75:4","text_uthmani":"كُنتُمْ","qpc_uthmani_hafs":"كُنتُمۡ","char_type_name":"word","page_number":370,"line_number":10,"text":"كُنتُمۡ","translation":{"text":"তোমরা ছিলে","language_name":"bengali","language_id":20},"transliteration":{"text":"kuntum","language_name":"english","language_id":38}},{"id":62196,"position":5,"audio_url":"wbw/026_075_005.mp3","verse_key":"26:75","verse_id":3007,"location":"26:75:5","text_uthmani":"تَعْبُدُونَ","qpc_uthmani_hafs":"تَعۡبُدُونَ","char_type_name":"word","page_number":370,"line_number":11,"text":"تَعۡبُدُونَ","translation":{"text":"তোমরা পূজা করো","language_name":"bengali","language_id":20},"transliteration":{"text":"taʿbudūna","language_name":"english","language_id":38}},{"id":62197,"position":6,"audio_url":null,"verse_key":"26:75","verse_id":3007,"location":"26:75:6","text_uthmani":"٧٥","qpc_uthmani_hafs":"٧٥","char_type_name":"end","page_number":370,"line_number":11,"text":"٧٥","translation":{"text":"(৭৫)","language_name":"bengali","language_id":20},"transliteration":{"text":null,"language_name":"english","language_id":38}}]},{"id":3008,"verse_number":76,"verse_key":"26:76","hizb_number":37,"rub_el_hizb_number":148,"ruku_number":320,"manzil_number":5,"sajdah_number":null,"page_number":370,"juz_number":19,"words":[{"id":62695,"position":1,"audio_url":"wbw/026_076_001.mp3","verse_key":"26:76","verse_id":3008,"location":"26:76:1","text_uthmani":"أَنتُمْ","qpc_uthmani_hafs":"أَنتُمۡ","char_type_name":"word","page_number":370,"line_number":11,"text":"أَنتُمۡ","translation":{"text":"তোমরা","language_name":"bengali","language_id":20},"transliteration":{"text":"antum","language_name":"english","language_id":38}},{"id":62696,"position":2,"audio_url":"wbw/026_076_002.mp3","verse_key":"26:76","verse_id":3008,"location":"26:76:2","text_uthmani":"وَءَابَآؤُكُمُ","qpc_uthmani_hafs":"وَءَابَآؤُكُمُ","char_type_name":"word","page_number":370,"line_number":11,"text":"وَءَابَآؤُكُمُ","translation":{"text":"ও পিতৃ-পুরুষেরা তোমাদের","language_name":"bengali","language_id":20},"transliteration":{"text":"waābāukumu","language_name":"english","language_id":38}},{"id":62697,"position":3,"audio_url":"wbw/026_076_003.mp3","verse_key":"26:76","verse_id":3008,"location":"26:76:3","text_uthmani":"ٱلْأَقْدَمُونَ","qpc_uthmani_hafs":"ٱلۡأَقۡدَمُونَ","char_type_name":"word","page_number":370,"line_number":11,"text":"ٱلۡأَقۡدَمُونَ","translation":{"text":"(যারা) অতীত হয়েছে","language_name":"bengali","language_id":20},"transliteration":{"text":"l-aqdamūna","language_name":"english","language_id":38}},{"id":62698,"position":4,"audio_url":null,"verse_key":"26:76","verse_id":3008,"location":"26:76:4","text_uthmani":"٧٦","qpc_uthmani_hafs":"٧٦","char_type_name":"end","page_number":370,"line_number":11,"text":"٧٦","translation":{"text":"(৭৬)","language_name":"bengali","language_id":20},"transliteration":{"text":null,"language_name":"english","language_id":38}}]},{"id":3009,"verse_number":77,"verse_key":"26:77","hizb_number":37,"rub_el_hizb_number":148,"ruku_number":320,"manzil_number":5,"sajdah_number":null,"page_number":370,"juz_number":19,"words":[{"id":63036,"position":1,"audio_url":"wbw/026_077_001.mp3","verse_key":"26:77","verse_id":3009,"location":"26:77:1","text_uthmani":"فَإِنَّهُمْ","qpc_uthmani_hafs":"فَإِنَّهُمۡ","char_type_name":"word","page_number":370,"line_number":11,"text":"فَإِنَّهُمۡ","translation":{"text":"সুতরাং নিশ্চয়ই তারা","language_name":"bengali","language_id":20},"transliteration":{"text":"fa-innahum","language_name":"english","language_id":38}},{"id":63037,"position":2,"audio_url":"wbw/026_077_002.mp3","verse_key":"26:77","verse_id":3009,"location":"26:77:2","text_uthmani":"عَدُوٌّۭ","qpc_uthmani_hafs":"عَدُوّٞ","char_type_name":"word","page_number":370,"line_number":11,"text":"عَدُوّٞ","translation":{"text":"শত্রু","language_name":"bengali","language_id":20},"transliteration":{"text":"ʿaduwwun","language_name":"english","language_id":38}},{"id":63038,"position":3,"audio_url":"wbw/026_077_003.mp3","verse_key":"26:77","verse_id":3009,"location":"26:77:3","text_uthmani":"لِّىٓ","qpc_uthmani_hafs":"لِّيٓ","char_type_name":"word","page_number":370,"line_number":11,"text":"لِّيٓ","translation":{"text":"আমার","language_name":"bengali","language_id":20},"transliteration":{"text":"lī","language_name":"english","language_id":38}},{"id":63039,"position":4,"audio_url":"wbw/026_077_004.mp3","verse_key":"26:77","verse_id":3009,"location":"26:77:4","text_uthmani":"إِلَّا","qpc_uthmani_hafs":"إِلَّا","char_type_name":"word","page_number":370,"line_number":12,"text":"إِلَّا","translation":{"text":"ছাড়া","language_name":"bengali","language_id":20},"transliteration":{"text":"illā","language_name":"english","language_id":38}},{"id":63040,"position":5,"audio_url":"wbw/026_077_005.mp3","verse_key":"26:77","verse_id":3009,"location":"26:77:5","text_uthmani":"رَبَّ","qpc_uthmani_hafs":"رَبَّ","char_type_name":"word","page_number":370,"line_number":12,"text":"رَبَّ","translation":{"text":"রব","language_name":"bengali","language_id":20},"transliteration":{"text":"rabba","language_name":"english","language_id":38}},{"id":63041,"position":6,"audio_url":"wbw/026_077_006.mp3","verse_key":"26:77","verse_id":3009,"location":"26:77:6","text_uthmani":"ٱلْعَـٰلَمِينَ","qpc_uthmani_hafs":"ٱلۡعَٰلَمِينَ","char_type_name":"word","page_number":370,"line_number":12,"text":"ٱلۡعَٰلَمِينَ","translation":{"text":"বিশ্বজগতের","language_name":"bengali","language_id":20},"transliteration":{"text":"l-ʿālamīna","language_name":"english","language_id":38}},{"id":63042,"position":7,"audio_url":null,"verse_key":"26:77","verse_id":3009,"location":"26:77:7","text_uthmani":"٧٧","qpc_uthmani_hafs":"٧٧","char_type_name":"end","page_number":370,"line_number":12,"text":"٧٧","translation":{"text":"(৭৭)","language_name":"bengali","language_id":20},"transliteration":{"text":null,"language_name":"english","language_id":38}}]},{"id":3010,"verse_number":78,"verse_key":"26:78","hizb_number":37,"rub_el_hizb_number":148,"ruku_number":320,"manzil_number":5,"sajdah_number":null,"page_number":370,"juz_number":19,"words":[{"id":63482,"position":1,"audio_url":"wbw/026_078_001.mp3","verse_key":"26:78","verse_id":3010,"location":"26:78:1","text_uthmani":"ٱلَّذِى","qpc_uthmani_hafs":"ٱلَّذِي","char_type_name":"word","page_number":370,"line_number":12,"text":"ٱلَّذِي","translation":{"text":"যিনি","language_name":"bengali","language_id":20},"transliteration":{"text":"alladhī","language_name":"english","language_id":38}},{"id":63483,"position":2,"audio_url":"wbw/026_078_002.mp3","verse_key":"26:78","verse_id":3010,"location":"26:78:2","text_uthmani":"خَلَقَنِى","qpc_uthmani_hafs":"خَلَقَنِي","char_type_name":"word","page_number":370,"line_number":12,"text":"خَلَقَنِي","translation":{"text":"আমাকে সৃষ্টি করেছেন","language_name":"bengali","language_id":20},"transliteration":{"text":"khalaqanī","language_name":"english","language_id":38}},{"id":63484,"position":3,"audio_url":"wbw/026_078_003.mp3","verse_key":"26:78","verse_id":3010,"location":"26:78:3","text_uthmani":"فَهُوَ","qpc_uthmani_hafs":"فَهُوَ","char_type_name":"word","page_number":370,"line_number":12,"text":"فَهُوَ","translation":{"text":"অতঃপর তিনিই","language_name":"bengali","language_id":20},"transliteration":{"text":"fahuwa","language_name":"english","language_id":38}},{"id":63485,"position":4,"audio_url":"wbw/026_078_004.mp3","verse_key":"26:78","verse_id":3010,"location":"26:78:4","text_uthmani":"يَهْدِينِ","qpc_uthmani_hafs":"يَهۡدِينِ","char_type_name":"word","page_number":370,"line_number":12,"text":"يَهۡدِينِ","translation":{"text":"আমাকে পথ দেখান","language_name":"bengali","language_id":20},"transliteration":{"text":"yahdīni","language_name":"english","language_id":38}},{"id":63486,"position":5,"audio_url":null,"verse_key":"26:78","verse_id":3010,"location":"26:78:5","text_uthmani":"٧٨","qpc_uthmani_hafs":"٧٨","char_type_name":"end","page_number":370,"line_number":12,"text":"٧٨","translation":{"text":"(৭৮)","language_name":"bengali","language_id":20},"transliteration":{"text":null,"language_name":"english","language_id":38}}]},{"id":3011,"verse_number":79,"verse_key":"26:79","hizb_number":37,"rub_el_hizb_number":148,"ruku_number":320,"manzil_number":5,"sajdah_number":null,"page_number":370,"juz_number":19,"words":[{"id":63944,"position":1,"audio_url":"wbw/026_079_001.mp3","verse_key":"26:79","verse_id":3011,"location":"26:79:1","text_uthmani":"وَٱلَّذِى","qpc_uthmani_hafs":"وَٱلَّذِي","char_type_name":"word","page_number":370,"line_number":12,"text":"وَٱلَّذِي","translation":{"text":"এবং তিনিই","language_name":"bengali","language_id":20},"transliteration":{"text":"wa-alladhī","language_name":"english","language_id":38}},{"id":63945,"position":2,"audio_url":"wbw/026_079_002.mp3","verse_key":"26:79","verse_id":3011,"location":"26:79:2","text_uthmani":"هُوَ","qpc_uthmani_hafs":"هُوَ","char_type_name":"word","page_number":370,"line_number":12,"text":"هُوَ","translation":{"text":"যিনি","language_name":"bengali","language_id":20},"transliteration":{"text":"huwa","language_name":"english","language_id":38}},{"id":63946,"position":3,"audio_url":"wbw/026_079_003.mp3","verse_key":"26:79","verse_id":3011,"location":"26:79:3","text_uthmani":"يُطْعِمُنِى","qpc_uthmani_hafs":"يُطۡعِمُنِي","char_type_name":"word","page_number":370,"line_number":13,"text":"يُطۡعِمُنِي","translation":{"text":"আমাকে খাওয়ান","language_name":"bengali","language_id":20},"transliteration":{"text":"yuṭ'ʿimunī","language_name":"english","language_id":38}},{"id":63947,"position":4,"audio_url":"wbw/026_079_004.mp3","verse_key":"26:79","verse_id":3011,"location":"26:79:4","text_uthmani":"وَيَسْقِينِ","qpc_uthmani_hafs":"وَيَسۡقِينِ","char_type_name":"word","page_number":370,"line_number":13,"text":"وَيَسۡقِينِ","translation":{"text":"ও আমাকে পান করান","language_name":"bengali","language_id":20},"transliteration":{"text":"wayasqīni","language_name":"english","language_id":38}},{"id":63948,"position":5,"audio_url":null,"verse_key":"26:79","verse_id":3011,"location":"26:79:5","text_uthmani":"٧٩","qpc_uthmani_hafs":"٧٩","char_type_name":"end","page_number":370,"line_number":13,"text":"٧٩","translation":{"text":"(৭৯)","language_name":"bengali","language_id":20},"transliteration":{"text":null,"language_name":"english","language_id":38}}]},{"id":3012,"verse_number":80,"verse_key":"26:80","hizb_number":37,"rub_el_hizb_number":148,"ruku_number":320,"manzil_number":5,"sajdah_number":null,"page_number":370,"juz_number":19,"words":[{"id":64222,"position":1,"audio_url":"wbw/026_080_001.mp3","verse_key":"26:80","verse_id":3012,"location":"26:80:1","text_uthmani":"وَإِذَا","qpc_uthmani_hafs":"وَإِذَا","char_type_name":"word","page_number":370,"line_number":13,"text":"وَإِذَا","translation":{"text":"এবং যখন","language_name":"bengali","language_id":20},"transliteration":{"text":"wa-idhā","language_name":"english","language_id":38}},{"id":64223,"position":2,"audio_url":"wbw/026_080_002.mp3","verse_key":"26:80","verse_id":3012,"location":"26:80:2","text_uthmani":"مَرِضْتُ","qpc_uthmani_hafs":"مَرِضۡتُ","char_type_name":"word","page_number":370,"line_number":13,"text":"مَرِضۡتُ","translation":{"text":"আমি অসুস্থ হই","language_name":"bengali","language_id":20},"transliteration":{"text":"mariḍ'tu","language_name":"english","language_id":38}},{"id":64224,"position":3,"audio_url":"wbw/026_080_003.mp3","verse_key":"26:80","verse_id":3012,"location":"26:80:3","text_uthmani":"فَهُوَ","qpc_uthmani_hafs":"فَهُوَ","char_type_name":"word","page_number":370,"line_number":13,"text":"فَهُوَ","translation":{"text":"তখন তিনিই","language_name":"bengali","language_id":20},"transliteration":{"text":"fahuwa","language_name":"english","language_id":38}},{"id":64225,"position":4,"audio_url":"wbw/026_080_004.mp3","verse_key":"26:80","verse_id":3012,"location":"26:80:4","text_uthmani":"يَشْفِينِ","qpc_uthmani_hafs":"يَشۡفِينِ","char_type_name":"word","page_number":370,"line_number":13,"text":"يَشۡفِينِ","translation":{"text":"আমাকে আরোগ্য দান করেন","language_name":"bengali","language_id":20},"transliteration":{"text":"yashfīni","language_name":"english","language_id":38}},{"id":64226,"position":5,"audio_url":null,"verse_key":"26:80","verse_id":3012,"location":"26:80:5","text_uthmani":"٨٠","qpc_uthmani_hafs":"٨٠","char_type_name":"end","page_number":370,"line_number":13,"text":"٨٠","translation":{"text":"(৮০)","language_name":"bengali","language_id":20},"transliteration":{"text":null,"language_name":"english","language_id":38}}]}],"pagination":{"per_page":10,"current_page":8,"next_page":9,"total_pages":23,"total_records":227}}
