{"verses":[{"id":3013,"verse_number":81,"verse_key":"26:81","hizb_number":37,"rub_el_hizb_number":148,"ruku_number":320,"manzil_number":5,"sajdah_number":null,"page_number":370,"juz_number":19,"words":[{"id":64536,"position":1,"audio_url":"wbw/026_081_001.mp3","verse_key":"26:81","verse_id":3013,"location":"26:81:1","text_uthmani":"وَٱلَّذِى","qpc_uthmani_hafs":"وَٱلَّذِي","char_type_name":"word","page_number":370,"line_number":13,"text":"وَٱلَّذِي","translation":{"text":"এবং (তিনিই) যিনি","language_name":"bengali","language_id":20},"transliteration":{"text":"wa-alladhī","language_name":"english","language_id":38}},{"id":64537,"position":2,"audio_url":"wbw/026_081_002.mp3","verse_key":"26:81","verse_id":3013,"location":"26:81:2","text_uthmani":"يُمِيتُنِى","qpc_uthmani_hafs":"يُمِيتُنِي","char_type_name":"word","page_number":370,"line_number":14,"text":"يُمِيتُنِي","translation":{"text":"আমাকে মৃত্যু দিবেন","language_name":"bengali","language_id":20},"transliteration":{"text":"yumītunī","language_name":"english","language_id":38}},{"id":64538,"position":3,"audio_url":"wbw/026_081_003.mp3","verse_key":"26:81","verse_id":3013,"location":"26:81:3","text_uthmani":"ثُمَّ","qpc_uthmani_hafs":"ثُمَّ","char_type_name":"word","page_number":370,"line_number":14,"text":"ثُمَّ","translation":{"text":"এরপর","language_name":"bengali","language_id":20},"transliteration":{"text":"thumma","language_name":"english","language_id":38}},{"id":64539,"position":4,"audio_url":"wbw/026_081_004.mp3","verse_key":"26:81","verse_id":3013,"location":"26:81:4","text_uthmani":"يُحْيِينِ","qpc_uthmani_hafs":"يُحۡيِينِ","char_type_name":"word","page_number":370,"line_number":14,"text":"يُحۡيِينِ","translation":{"text":"জীবিত করবেন","language_name":"bengali","language_id":20},"transliteration":{"text":"yuḥ'yīni","language_name":"english","language_id":38}},{"id":64540,"position":5,"audio_url":null,"verse_key":"26:81","verse_id":3013,"location":"26:81:5","text_uthmani":"٨١","qpc_uthmani_hafs":"٨١","char_type_name":"end","page_number":370,"line_number":14,"text":"٨١","translation":{"text":"(৮১)","language_name":"bengali","language_id":20},"transliteration":{"text":null,"language_name":"english","language_id":38}}]},{"id":3014,"verse_number":82,"verse_key":"26:82","hizb_number":37,"rub_el_hizb_number":148,"ruku_number":320,"manzil_number":5,"sajdah_number":null,"page_number":370,"juz_number":19,"words":[{"id":65097,"position":1,"audio_url":"wbw/026_082_001.mp3","verse_key":"26:82","verse_id":3014,"location":"26:82:1","text_uthmani":"وَٱلَّذِىٓ","qpc_uthmani_hafs":"وَٱلَّذِيٓ","char_type_name":"word","page_number":370,"line_number":14,"text":"وَٱلَّذِيٓ","translation":{"text":"(তিনিই) যার (নিকট)","language_name":"bengali","language_id":20},"transliteration":{"text":"wa-alladhī","language_name":"english","language_id":38}},{"id":65098,"position":2,"audio_url":"wbw/026_082_002.mp3","verse_key":"26:82","verse_id":3014,"location":"26:82:2","text_uthmani":"أَطْمَعُ","qpc_uthmani_hafs":"أَطۡمَعُ","char_type_name":"word","page_number":370,"line_number":14,"text":"أَطۡمَعُ","translation":{"text":"আশা করি আমি","language_name":"bengali","language_id":20},"transliteration":{"text":"aṭmaʿu","language_name":"english","language_id":38}},{"id":65099,"position":3,"audio_url":"wbw/026_082_003.mp3","verse_key":"26:82","verse_id":3014,"location":"26:82:3","text_uthmani":"أَن","qpc_uthmani_hafs":"أَن","char_type_name":"word","page_number":370,"line_number":14,"text":"أَن","translation":{"text":"যে","language_name":"bengali","language_id":20},"transliteration":{"text":"an","language_name":"english","language_id":38}},{"id":65100,"position":4,"audio_url":"wbw/026_082_004.mp3","verse_key":"26:82","verse_id":3014,"location":"26:82:4","text_uthmani":"يَغْفِرَ","qpc_uthmani_hafs":"يَغۡفِرَ","char_type_name":"word","page_number":370,"line_number":14,"text":"يَغۡفِرَ","translation":{"text":"ক্ষমা করবেন","language_name":"bengali","language_id":20},"transliteration":{"text":"yaghfira","language_name":"english","language_id":38}},{"id":65101,"position":5,"audio_url":"wbw/026_082_005.mp3","verse_key":"26:82","verse_id":3014,"location":"26:82:5","text_uthmani":"لِى","qpc_uthmani_hafs":"لِي","char_type_name":"word","page_number":370,"line_number":14,"text":"لِي","translation":{"text":"আমাকে","language_name":"bengali","language_id":20},"transliteration":{"text":"lī","language_name":"english","language_id":38}},{"id":65102,"position":6,"audio_url":"wbw/026_082_006.mp3","verse_key":"26:82","verse_id":3014,"location":"26:82:6","text_uthmani":"خَطِيٓـَٔتِى","qpc_uthmani_hafs":"خَطِيٓـَٔتِي","char_type_name":"word","page_number":370,"line_number":14,"text":"خَطِيٓـَٔتِي","translation":{"text":"আমার ভুলত্রুটি","language_name":"bengali","language_id":20},"transliteration":{"text":"khaṭīatī","language_name":"english","language_id":38}},{"id":65103,"position":7,"audio_url":"wbw/026_082_007.mp3","verse_key":"26:82","verse_id":3014,"location":"26:82:7","text_uthmani":"يَوْمَ","qpc_uthmani_hafs":"يَوۡمَ","char_type_name":"word","page_number":370,"line_number":15,"text":"يَوۡمَ","translation":{"text":"দিনে","language_name":"bengali","language_id":20},"transliteration":{"text":"yawma","language_name":"english","language_id":38}},{"id":65104,"position":8,"audio_url":"wbw/026_082_008.mp3","verse_key":"26:82","verse_id":3014,"location":"26:82:8","text_uthmani":"ٱلدِّينِ","qpc_uthmani_hafs":"ٱلدِّينِ","char_type_name":"word","page_number":370,"line_number":15,"text":"ٱلدِّينِ","translation":{"text":"বিচারের","language_name":"bengali","language_id":20},"transliteration":{"text":"l-dīni","language_name":"english","language_id":38}},{"id":65105,"position":9,"audio_url":null,"verse_key":"26:82","verse_id":3014,"location":"26:82:9","text_uthmani":"٨٢","qpc_uthmani_hafs":"٨٢","char_type_name":"end","page_number":370,"line_number":15,"text":"٨٢","translation":{"text":"(৮২)","language_name":"bengali","language_id":20},"transliteration":{"text":null,"language_name":"english","language_id":38}}]},{"id":3015,"verse_number":83,"verse_key":"26:83","hizb_number":37,"rub_el_hizb_number":148,"ruku_number":320,"manzil_number":5,"sajdah_number":null,"page_number":370,"juz_number":19,"words":[{"id":65425,"position":1,"audio_url":"wbw/026_083_001.mp3","verse_key":"26:83","verse_id":3015,"location":"26:83:1","text_uthmani":"رَبِّ","qpc_uthmani_hafs":"رَبِّ","char_type_name":"word","page_number":370,"line_number":15,"text":"رَبِّ","translation":{"text":"(পরে বললেন) হে আমার রব","language_name":"bengali","language_id":20},"transliteration":{"text":"rabbi","language_name":"english","language_id":38}},{"id":65426,"position":2,"audio_url":"wbw/026_083_002.mp3","verse_key":"26:83","verse_id":3015,"location":"26:83:2","text_uthmani":"هَبْ","qpc_uthmani_hafs":"هَبۡ","char_type_name":"word","page_number":370,"line_number":15,"text":"هَبۡ","translation":{"text":"দান করো","language_name":"bengali","language_id":20},"transliteration":{"text":"hab","language_name":"english","language_id":38}},{"id":65427,"position":3,"audio_url":"wbw/026_083_003.mp3","verse_key":"26:83","verse_id":3015,"location":"26:83:3","text_uthmani":"لِى","qpc_uthmani_hafs":"لِي","char_type_name":"word","page_number":370,"line_number":15,"text":"لِي","translation":{"text":"জন্যে আমার","language_name":"bengali","language_id":20},"transliteration":{"text":"lī","language_name":"english","language_id":38}},{"id":65428,"position":4,"audio_url":"wbw/026_083_004.mp3","verse_key":"26:83","verse_id":3015,"location":"26:83:4","text_uthmani":"حُكْمًۭا","qpc_uthmani_hafs":"حُكۡمٗا","char_type_name":"word","page_number":370,"line_number":15,"text":"حُكۡمٗا","translation":{"text":"প্রজ্ঞা","language_name":"bengali","language_id":20},"transliteration":{"text":"ḥuk'man","language_name":"english","language_id":38}},{"id":65429,"position":5,"audio_url":"wbw/026_083_005.mp3","verse_key":"26:83","verse_id":3015,"location":"26:83:5","text_uthmani":"وَأَلْحِقْنِى","qpc_uthmani_hafs":"وَأَلۡحِقۡنِي","char_type_name":"word","page_number":370,"line_number":15,"text":"وَأَلۡحِقۡنِي","translation":{"text":"ও মিলিত করো","language_name":"bengali","language_id":20},"transliteration":{"text":"wa-alḥiq'nī","language_name":"english","language_id":38}},{"id":65430,"position":6,"audio_url":"wbw/026_083_006.mp3","verse_key":"26:83","verse_id":3015,"location":"26:83:6","text_uthmani":"بِٱلصَّـٰلِحِينَ","qpc_uthmani_hafs":"بِٱلصَّٰلِحِينَ","char_type_name":"word","page_number":370,"line_number":15,"text":"بِٱلصَّٰلِحِينَ","translation":{"text":"সাথে সৎকর্মশীলদের","language_name":"bengali","language_id":20},"transliteration":{"text":"bil-ṣāliḥīna","language_name":"english","language_id":38}},{"id":65431,"position":7,"audio_url":null,"verse_key":"26:83","verse_id":3015,"location":"26:83:7","text_uthmani":"٨٣","qpc_uthmani_hafs":"٨٣","char_type_name":"end","page_number":370,"line_number":15,"text":"٨٣","translation":{"text":"(৮৩)","language_name":"bengali","language_id":20},"transliteration":{"text":null,"language_name":"english","language_id":38}}]},{"id":3016,"verse_number":84,"verse_key":"26:84","hizb_number":37,"rub_el_hizb_number":148,"ruku_number":320,"manzil_number":5,"sajdah_number":null,"page_number":371,"juz_number":19,"words":[{"id":65939,"position":1,"audio_url":"wbw/026_084_001.mp3","verse_key":"26:84","verse_id":3016,"location":"26:84:1","text_uthmani":"وَٱجْعَل","qpc_uthmani_hafs":"وَٱجۡعَل","char_type_name":"word","page_number":371,"line_number":1,"text":"وَٱجۡعَل","translation":{"text":"এবং দাও","language_name":"bengali","language_id":20},"transliteration":{"text":"wa-ij'ʿal","language_name":"english","language_id":38}},{"id":65940,"position":2,"audio_url":"wbw/026_084_002.mp3","verse_key":"26:84","verse_id":3016,"location":"26:84:2","text_uthmani":"لِّى","qpc_uthmani_hafs":"لِّي","char_type_name":"word","page_number":371,"line_number":1,"text":"لِّي","translation":{"text":"জন্যে আমার","language_name":"bengali","language_id":20},"transliteration":{"text":"lī","language_name":"english","language_id":38}},{"id":65941,"position":3,"audio_url":"wbw/026_084_003.mp3","verse_key":"26:84","verse_id":3016,"location":"26:84:3","text_uthmani":"لِسَانَ","qpc_uthmani_hafs":"لِسَانَ","char_type_name":"word","page_number":371,"line_number":1,"text":"لِسَانَ","translation":{"text":"জিহবা (খ্যাতি)","language_name":"bengali","language_id":20},"transliteration":{"text":"lisāna","language_name":"english","language_id":38}},{"id":65942,"position":4,"audio_url":"wbw/026_084_004.mp3","verse_key":"26:84","verse_id":3016,"location":"26:84:4","text_uthmani":"صِدْقٍۢ","qpc_uthmani_hafs":"صِدۡقٖ","char_type_name":"word","page_number":371,"line_number":1,"text":"صِدۡقٖ","translation":{"text":"সত্যিকার","language_name":"bengali","language_id":20},"transliteration":{"text":"ṣid'qin","language_name":"english","language_id":38}},{"id":65943,"position":5,"audio_url":"wbw/026_084_005.mp3","verse_key":"26:84","verse_id":3016,"location":"26:84:5","text_uthmani":"فِى","qpc_uthmani_hafs":"فِي","char_type_name":"word","page_number":371,"line_number":1,"text":"فِي","translation":{"text":"মধ্যে","language_name":"bengali","language_id":20},"transliteration":{"text":"fī","language_name":"english","language_id":38}},{"id":65944,"position":6,"audio_url":"wbw/026_084_006.mp3","verse_key":"26:84","verse_id":3016,"location":"26:84:6","text_uthmani":"ٱلْـَٔاخِرِينَ","qpc_uthmani_hafs":"ٱلۡأٓخِرِينَ","char_type_name":"word","page_number":371,"line_number":1,"text":"ٱلۡأٓخِرِينَ","translation":{"text":"পরবর্তীদের","language_name":"bengali","language_id":20},"transliteration":{"text":"l-ākhirīna","language_name":"english","language_id":38}},{"id":65945,"position":7,"audio_url":null,"verse_key":"26:84","verse_id":3016,"location":"26:84:7","text_uthmani":"٨٤","qpc_uthmani_hafs":"٨٤","char_type_name":"end","page_number":371,"line_number":1,"text":"٨٤","translation":{"text":"(৮৪)","language_name":"bengali","language_id":20},"transliteration":{"text":null,"language_name":"english","language_id":38}}]},{"id":3017,"verse_number":85,"verse_key":"26:85","hizb_number":37,"rub_el_hizb_number":148,"ruku_number":320,"manzil_number":5,"sajdah_number":null,"page_number":371,"juz_number":19,"words":[{"id":66304,"position":1,"audio_url":"wbw/026_085_001.mp3","verse_key":"26:85","verse_id":3017,"location":"26:85:1","text_uthmani":"وَٱجْعَلْنِى","qpc_uthmani_hafs":"وَٱجۡعَلۡنِي","char_type_name":"word","page_number":371,"line_number":1,"text":"وَٱجۡعَلۡنِي","translation":{"text":"এবং আমাকে করো","language_name":"bengali","language_id":20},"transliteration":{"text":"wa-ij'ʿalnī","language_name":"english","language_id":38}},{"id":66305,"position":2,"audio_url":"wbw/026_085_002.mp3","verse_key":"26:85","verse_id":3017,"location":"26:85:2","text_uthmani":"مِن","qpc_uthmani_hafs":"مِن","char_type_name":"word","page_number":371,"line_number":1,"text":"مِن","translation":{"text":"অন্তর্ভূক্ত","language_name":"bengali","language_id":20},"transliteration":{"text":"min","language_name":"english","language_id":38}},{"id":66306,"position":3,"audio_url":"wbw/026_085_003.mp3","verse_key":"26:85","verse_id":3017,"location":"26:85:3","text_uthmani":"وَرَثَةِ","qpc_uthmani_hafs":"وَرَثَةِ","char_type_name":"word","page_number":371,"line_number":1,"text":"وَرَثَةِ","translation":{"text":"উত্তরাধিকারীদের","language_name":"bengali","language_id":20},"transliteration":{"text":"warathati","language_name":"english","language_id":38}},{"id":66307,"position":4,"audio_url":"wbw/026_085_004.mp3","verse_key":"26:85","verse_id":3017,"location":"26:85:4","text_uthmani":"جَنَّةِ","qpc_uthmani_hafs":"جَنَّةِ","char_type_name":"word","page_number":371,"line_number":1,"text":"جَنَّةِ","translation":{"text":"জান্নাতের","language_name":"bengali","language_id":20},"transliteration":{"text":"jannati","language_name":"english","language_id":38}},{"id":66308,"position":5,"audio_url":"wbw/026_085_005.mp3","verse_key":"26:85","verse_id":3017,"location":"26:85:5","text_uthmani":"ٱلنَّعِيمِ","qpc_uthmani_hafs":"ٱلنَّعِيمِ","char_type_name":"word","page_number":371,"line_number":2,"text":"ٱلنَّعِيمِ","translation":{"text":"সুখকর","language_name":"bengali","language_id":20},"transliteration":{"text":"l-naʿīmi","language_name":"english","language_id":38}},{"id":66309,"position":6,"audio_url":null,"verse_key":"26:85","verse_id":3017,"location":"26:85:6","text_uthmani":"٨٥","qpc_uthmani_hafs":"٨٥","char_type_name":"end","page_number":371,"line_number":2,"text":"٨٥","translation":{"text":"(৮৫)","language_name":"bengali","language_id":20},"transliteration":{"text":null,"language_name":"english","language_id":38}}]},{"id":3018,"verse_number":86,"verse_key":"26:86","hizb_number":37,"rub_el_hizb_number":148,"ruku_number":320,"manzil_number":5,"sajdah_number":null,"page_number":371,"juz_number":19,"words":[{"id":66657,"position":1,"audio_url":"wbw/026_086_001.mp3","verse_key":"26:86","verse_id":3018,"location":"26:86:1","text_uthmani":"وَٱغْفِرْ","qpc_uthmani_hafs":"وَٱغۡفِرۡ","char_type_name":"word","page_number":371,"line_number":2,"text":"وَٱغۡفِرۡ","translation":{"text":"এবং ক্ষমা করো","language_name":"bengali","language_id":20},"transliteration":{"text":"wa-igh'fir","language_name":"english","language_id":38}},{"id":66658,"position":2,"audio_url":"wbw/026_086_002.mp3","verse_key":"26:86","verse_id":3018,"location":"26:86:2","text_uthmani":"لِأَبِىٓ","qpc_uthmani_hafs":"لِأَبِيٓ","char_type_name":"word","page_number":371,"line_number":2,"text":"لِأَبِيٓ","translation":{"text":"আমার পিতাকে","language_name":"bengali","language_id":20},"transliteration":{"text":"li-abī","language_name":"english","language_id":38}},{"id":66659,"position":3,"audio_url":"wbw/026_086_003.mp3","verse_key":"26:86","verse_id":3018,"location":"26:86:3","text_uthmani":"إِنَّهُۥ","qpc_uthmani_hafs":"إِنَّهُۥ","char_type_name":"word","page_number":371,"line_number":2,"text":"إِنَّهُۥ","translation":{"text":"নিশ্চয়ই তিনি","language_name":"bengali","language_id":20},"transliteration":{"text":"innahu","language_name":"english","language_id":38}},{"id":66660,"position":4,"audio_url":"wbw/026_086_004.mp3","verse_key":"26:86","verse_id":3018,"location":"26:86:4","text_uthmani":"كَانَ","qpc_uthmani_hafs":"كَانَ","char_type_name":"word","page_number":371,"line_number":2,"text":"كَانَ","translation":{"text":"ছিলেন","language_name":"bengali","language_id":20},"transliteration":{"text":"kāna","language_name":"english","language_id":38}},{"id":66661,"position":5,"audio_url":"wbw/026_086_005.mp3","verse_key":"26:86","verse_id":3018,"location":"26:86:5","text_uthmani":"مِنَ","qpc_uthmani_hafs":"مِنَ","char_type_name":"word","page_number":371,"line_number":2,"text":"مِنَ","translation":{"text":"অর্ন্তভূক্ত","language_name":"bengali","language_id":20},"transliteration":{"text":"mina","language_name":"english","language_id":38}},{"id":66662,"position":6,"audio_url":"wbw/026_086_006.mp3","verse_key":"26:86","verse_id":3018,"location":"26:86:6","text_uthmani":"ٱلضَّآلِّينَ","qpc_uthmani_hafs":"ٱلضَّآلِّينَ","char_type_name":"word","page_number":371,"line_number":2,"text":"ٱلضَّآلِّينَ","translation":{"text":"পথভ্রষ্ঠদের","language_name":"bengali","language_id":20},"transliteration":{"text":"l-ḍālīna","language_name":"english","language_id":38}},{"id":66663,"position":7,"audio_url":null,"verse_key":"26:86","verse_id":3018,"location":"26:86:7","text_uthmani":"٨٦","qpc_uthmani_hafs":"٨٦","char_type_name":"end","page_number":371,"line_number":2,"text":"٨٦","translation":{"text":"(৮৬)","language_name":"bengali","language_id":20},"transliteration":{"text":null,"language_name":"english","language_id":38}}]},{"id":3019,"verse_number":87,"verse_key":"26:87","hizb_number":37,"rub_el_hizb_number":148,"ruku_number":320,"manzil_number":5,"sajdah_number":null,"page_number":371,"juz_number":19,"words":[{"id":66823,"position":1,"audio_url":"wbw/026_087_001.mp3","verse_key":"26:87","verse_id":3019,"location":"26:87:1","text_uthmani":"وَلَا","qpc_uthmani_hafs":"وَلَا","char_type_name":"word","page_number":371,"line_number":2,"text":"وَلَا","translation":{"text":"আর না","language_name":"bengali","language_id":20},"transliteration":{"text":"walā","language_name":"english","language_id":38}},{"id":66824,"position":2,"audio_url":"wbw/026_087_002.mp3","verse_key":"26:87","verse_id":3019,"location":"26:87:2","text_uthmani":"تُخْزِنِى","qpc_uthmani_hafs":"تُخۡزِنِي","char_type_name":"word","page_number":371,"line_number":2,"text":"تُخۡزِنِي","translation":{"text":"আমাকে লাঞ্চিত করো","language_name":"bengali","language_id":20},"transliteration":{"text":"tukh'zinī","language_name":"english","language_id":38}},{"id":66825,"position":3,"audio_url":"wbw/026_087_003.mp3","verse_key":"26:87","verse_id":3019,"location":"26:87:3","text_uthmani":"يَوْمَ","qpc_uthmani_hafs":"يَوۡمَ","char_type_name":"word","page_number":371,"line_number":2,"text":"يَوۡمَ","translation":{"text":"দিনে","language_name":"bengali","language_id":20},"transliteration":{"text":"yawma","language_name":"english","language_id":38}},{"id":66826,"position":4,"audio_url":"wbw/026_087_004.mp3","verse_key":"26:87","verse_id":3019,"location":"26:87:4","text_uthmani":"يُبْعَثُونَ","qpc_uthmani_hafs":"يُبۡعَثُونَ","char_type_name":"word","page_number":371,"line_number":3,"text":"يُبۡعَثُونَ","translation":{"text":"উত্থানের","language_name":"bengali","language_id":20},"transliteration":{"text":"yub'ʿathūna","language_name":"english","language_id":38}},{"id":66827,"position":5,"audio_url":null,"verse_key":"26:87","verse_id":3019,"location":"26:87:5","text_uthmani":"٨٧","qpc_uthmani_hafs":"٨٧","char_type_name":"end","page_number":371,"line_number":3,"text":"٨٧","translation":{"text":"(৮৭)","language_name":"bengali","language_id":20},"transliteration":{"text":null,"language_name":"english","language_id":38}}]},{"id":3020,"verse_number":88,"verse_key":"26:88","hizb_number":37,"rub_el_hizb_number":148,"ruku_number":320,"manzil_number":5,"sajdah_number":null,"page_number":371,"juz_number":19,"words":[{"id":67086,"position":1,"audio_url":"wbw/026_088_001.mp3","verse_key":"26:88","verse_id":3020,"location":"26:88:1","text_uthmani":"يَوْمَ","qpc_uthmani_hafs":"يَوۡمَ","char_type_name":"word","page_number":371,"line_number":3,"text":"يَوۡمَ","translation":{"text":"সেদিন","language_name":"bengali","language_id":20},"transliteration":{"text":"yawma","language_name":"english","language_id":38}},{"id":67087,"position":2,"audio_url":"wbw/026_088_002.mp3","verse_key":"26:88","verse_id":3020,"location":"26:88:2","text_uthmani":"لَا","qpc_uthmani_hafs":"لَا","char_type_name":"word","page_number":371,"line_number":3,"text":"لَا","translation":{"text":"না","language_name":"bengali","language_id":20},"transliteration":{"text":"lā","language_name":"english","language_id":38}},{"id":67088,"position":3,"audio_url":"wbw/026_088_003.mp3","verse_key":"26:88","verse_id":3020,"location":"26:88:3","text_uthmani":"يَنفَعُ","qpc_uthmani_hafs":"يَنفَعُ","char_type_name":"word","page_number":371,"line_number":3,"text":"يَنفَعُ","translation":{"text":"উপকারে আসবে","language_name":"bengali","language_id":20},"transliteration":{"text":"yanfaʿu","language_name":"english","language_id":38}},{"id":67089,"position":4,"audio_url":"wbw/026_088_004.mp3","verse_key":"26:88","verse_id":3020,"location":"26:88:4","text_uthmani":"مَالٌۭ","qpc_uthmani_hafs":"مَالٞ","char_type_name":"word","page_number":371,"line_number":3,"text":"مَالٞ","translation":{"text":"ধন-সম্পদ","language_name":"bengali","language_id":20},"transliteration":{"text":"mālun","language_name":"english","language_id":38}},{"id":67090,"position":5,"audio_url":"wbw/026_088_005.mp3","verse_key":"26:88","verse_id":3020,"location":"26:88:5","text_uthmani":"وَلَا","qpc_uthmani_hafs":"وَلَا","char_type_name":"word","page_number":371,"line_number":3,"text":"وَلَا","translation":{"text":"আর না","language_name":"bengali","language_id":20},"transliteration":{"text":"walā","language_name":"english","language_id":38}},{"id":67091,"position":6,"audio_url":"wbw/026_088_006.mp3","verse_key":"26:88","verse_id":3020,"location":"26:88:6","text_uthmani":"بَنُونَ","qpc_uthmani_hafs":"بَنُونَ","char_type_name":"word","page_number":371,"line_number":3,"text":"بَنُونَ","translation":{"text":"সন্তান-সন্ততি","language_name":"bengali","language_id":20},"transliteration":{"text":"banūna","language_name":"english","language_id":38}},{"id":67092,"position":7,"audio_url":null,"verse_key":"26:88","verse_id":3020,"location":"26:88:7","text_uthmani":"٨٨","qpc_uthmani_hafs":"٨٨","char_type_name":"end","page_number":371,"line_number":3,"text":"٨٨","translation":{"text":"(৮৮)","language_name":"bengali","language_id":20},"transliteration":{"text":null,"language_name":"english","language_id":38}}]},{"id":3021,"verse_number":89,"verse_key":"26:89","hizb_number":37,"rub_el_hizb_number":148,"ruku_number":320,"manzil_number":5,"sajdah_number":null,"page_number":371,"juz_number":19,"words":[{"id":67816,"position":1,"audio_url":"wbw/026_089_001.mp3","verse_key":"26:89","verse_id":3021,"location":"26:89:1","text_uthmani":"إِلَّا","qpc_uthmani_hafs":"إِلَّا","char_type_name":"word","page_number":371,"line_number":3,"text":"إِلَّا","translation":{"text":"তবে","language_name":"bengali","language_id":20},"transliteration":{"text":"illā","language_name":"english","language_id":38}},{"id":67817,"position":2,"audio_url":"wbw/026_089_002.mp3","verse_key":"26:89","verse_id":3021,"location":"26:89:2","text_uthmani":"مَنْ","qpc_uthmani_hafs":"مَنۡ","char_type_name":"word","page_number":371,"line_number":3,"text":"مَنۡ","translation":{"text":"(তাকে) যে","language_name":"bengali","language_id":20},"transliteration":{"text":"man","language_name":"english","language_id":38}},{"id":67818,"position":3,"audio_url":"wbw/026_089_003.mp3","verse_key":"26:89","verse_id":3021,"location":"26:89:3","text_uthmani":"أَتَى","qpc_uthmani_hafs":"أَتَى","char_type_name":"word","page_number":371,"line_number":3,"text":"أَتَى","translation":{"text":"আসবে","language_name":"bengali","language_id":20},"transliteration":{"text":"atā","language_name":"english","language_id":38}},{"id":67819,"position":4,"audio_url":"wbw/026_089_004.mp3","verse_key":"26:89","verse_id":3021,"location":"26:89:4","text_uthmani":"ٱللَّهَ","qpc_uthmani_hafs":"ٱللَّهَ","char_type_name":"word","page_number":371,"line_number":3,"text":"ٱللَّهَ","translation":{"text":"আল্লাহর নিকট","language_name":"bengali","language_id":20},"transliteration":{"text":"l-laha","language_name":"english","language_id":38}},{"id":67820,"position":5,"audio_url":"wbw/026_089_005.mp3","verse_key":"26:89","verse_id":3021,"location":"26:89:5","text_uthmani":"بِقَلْبٍۢ","qpc_uthmani_hafs":"بِقَلۡبٖ","char_type_name":"word","page_number":371,"line_number":3,"text":"بِقَلۡبٖ","translation":{"text":"সহ অন্তর","language_name":"bengali","language_id":20},"transliteration":{"text":"biqalbin","language_name":"english","language_id":38}},{"id":67821,"position":6,"audio_url":"wbw/026_089_006.mp3","verse_key":"26:89","verse_id":3021,"location":"26:89:6","text_uthmani":"سَلِيمٍۢ","qpc_uthmani_hafs":"سَلِيمٖ","char_type_name":"word","page_number":371,"line_number":4,"text":"سَلِيمٖ","translation":{"text":"প্রশান্ত (বিশুদ্ধ)\"","language_name":"bengali","language_id":20},"transliteration":{"text":"salīmin","language_name":"english","language_id":38}},{"id":67822,"position":7,"audio_url":null,"verse_key":"26:89","verse_id":3021,"location":"26:89:7","text_uthmani":"٨٩","qpc_uthmani_hafs":"٨٩","char_type_name":"end","page_number":371,"line_number":4,"text":"٨٩","translation":{"text":"(৮৯)","language_name":"bengali","language_id":20},"transliteration":{"text":null,"language_name":"english","language_id":38}}]},{"id":3022,"verse_number":90,"verse_key":"26:90","hizb_number":37,"rub_el_hizb_number":148,"ruku_number":320,"manzil_number":5,"sajdah_number":null,"page_number":371,"juz_number":19,"words":[{"id":68017,"position":1,"audio_url":"wbw/026_090_001.mp3","verse_key":"26:90","verse_id":3022,"location":"26:90:1","text_uthmani":"وَأُزْلِفَتِ","qpc_uthmani_hafs":"وَأُزۡلِفَتِ","char_type_name":"word","page_number":371,"line_number":4,"text":"وَأُزۡلِفَتِ","translation":{"text":"এবং নিকটে আনা হবে","language_name":"bengali","language_id":20},"transliteration":{"text":"wa-uz'lifati","language_name":"english","language_id":38}},{"id":68018,"position":2,"audio_url":"wbw/026_090_002.mp3","verse_key":"26:90","verse_id":3022,"location":"26:90:2","text_uthmani":"ٱلْجَنَّةُ","qpc_uthmani_hafs":"ٱلۡجَنَّةُ","char_type_name":"word","page_number":371,"line_number":4,"text":"ٱلۡجَنَّةُ","translation":{"text":"জান্নাত","language_name":"bengali","language_id":20},"transliteration":{"text":"l-janatu","language_name":"english","language_id":38}},{"id":68019,"position":3,"audio_url":"wbw/026_090_003.mp3","verse_key":"26:90","verse_id":3022,"location":"26:90:3","text_uthmani":"لِلْمُتَّقِينَ","qpc_uthmani_hafs":"لِلۡمُتَّقِينَ","char_type_name":"word","page_number":371,"line_number":4,"text":"لِلۡمُتَّقِينَ","translation":{"text":"জন্যে মুত্তাকীদের","language_name":"bengali","language_id":20},"transliteration":{"text":"lil'muttaqīna","language_name":"english","language_id":38}},{"id":68020,"position":4,"audio_url":null,"verse_key":"26:90","verse_id":3022,"location":"26:90:4","text_uthmani":"٩٠","qpc_uthmani_hafs":"٩٠","char_type_name":"end","page_number":371,"line_number":4,"text":"٩٠","translation":{"text":"(৯০)","language_name":"bengali","language_id":20},"transliteration":{"text":null,"language_name":"english","language_id":38}}]}],"pagination":{"per_page":10,"current_page":9,"next_page":10,"total_pages":23,"total_records":227}}
