{"verses":[{"id":3706,"verse_number":1,"verse_key":"36:1","hizb_number":44,"rub_el_hizb_number":176,"ruku_number":383,"manzil_number":5,"sajdah_number":null,"page_number":440,"juz_number":22,"words":[{"id":887,"position":1,"audio_url":"wbw/036_001_001.mp3","char_type_name":"word","page_number":440,"line_number":6,"text":"يسٓ","translation":{"text":"ইয়া-সীন।","language_name":"bengali","language_id":20},"transliteration":{"text":"ya-seen","language_name":"english","language_id":38}},{"id":888,"position":2,"audio_url":null,"char_type_name":"end","page_number":440,"line_number":6,"text":"١","translation":{"text":"(১)","language_name":"bengali","language_id":20},"transliteration":{"text":null,"language_name":"english","language_id":38}}]},{"id":3707,"verse_number":2,"verse_key":"36:2","hizb_number":44,"rub_el_hizb_number":176,"ruku_number":383,"manzil_number":5,"sajdah_number":null,"page_number":440,"juz_number":22,"words":[{"id":1974,"position":1,"audio_url":"wbw/036_002_001.mp3","char_type_name":"word","page_number":440,"line_number":6,"text":"وَٱلْقُرْءَانِ","translation":{"text":"শপথ কুরআনের (যা)","language_name":"bengali","language_id":20},"transliteration":{"text":"wal-qur'āni","language_name":"english","language_id":38}},{"id":1975,"position":2,"audio_url":"wbw/036_002_002.mp3","char_type_name":"word","page_number":440,"line_number":6,"text":"ٱلْحَكِيمِ","translation":{"text":"জ্ঞানময়  (বিজ্ঞানময়)।","language_name":"bengali","language_id":20},"transliteration":{"text":"l-ḥakīmi","language_name":"english","language_id":38}},{"id":1976,"position":3,"audio_url":null,"char_type_name":"end","page_number":440,"line_number":6,"text":"٢","translation":{"text":"(২)","language_name":"bengali","language_id":20},"transliteration":{"text":null,"language_name":"english","language_id":38}}]},{"id":3708,"verse_number":3,"verse_key":"36:3","hizb_number":44,"rub_el_hizb_number":176,"ruku_number":383,"manzil_number":5,"sajdah_number":null,"page_number":440,"juz_number":22,"words":[{"id":3169,"position":1,"audio_url":"wbw/036_003_001.mp3","char_type_name":"word","page_number":440,"line_number":6,"text":"إِنَّكَ","translation":{"text":"তুমি নিশ্চয়ই","language_name":"bengali","language_id":20},"transliteration":{"text":"innaka","language_name":"english","language_id":38}},{"id":3170,"position":2,"audio_url":"wbw/036_003_002.mp3","char_type_name":"word","page_number":440,"line_number":6,"text":"لَمِنَ","translation":{"text":"অন্তর্ভুক্ত অবশ্যই","language_name":"bengali","language_id":20},"transliteration":{"text":"lamina","language_name":"english","language_id":38}},{"id":3171,"position":3,"audio_url":"wbw/036_003_003.mp3","char_type_name":"word","page_number":440,"line_number":6,"text":"ٱلْمُرْسَلِينَ","translation":{"text":"রাসূলদের।","language_name":"bengali","language_id":20},"transliteration":{"text":"l-mur'salīna","language_name":"english","language_id":38}},{"id":3172,"position":4,"audio_url":null,"char_type_name":"end","page_number":440,"line_number":6,"text":"٣","translation":{"text":"(৩)","language_name":"bengali","language_id":20},"transliteration":{"text":null,"language_name":"english","language_id":38}}]},{"id":3709,"verse_number":4,"verse_key":"36:4","hizb_number":44,"rub_el_hizb_number":176,"ruku_number":383,"manzil_number":5,"sajdah_number":null,"page_number":440,"juz_number":22,"words":[{"id":4524,"position":1,"audio_url":"wbw/036_004_001.mp3","char_type_name":"word","page_number":440,"line_number":6,"text":"عَلَىٰ","translation":{"text":"(তুমি প্রতিষ্ঠিত) উপর","language_name":"bengali","language_id":20},"transliteration":{"text":"ʿalā","language_name":"english","language_id":38}},{"id":4525,"position":2,"audio_url":"wbw/036_004_002.mp3","char_type_name":"word","page_number":440,"line_number":7,"text":"صِرَٰطٍۢ","translation":{"text":"পথের","language_name":"bengali","language_id":20},"transliteration":{"text":"ṣirāṭin","language_name":"english","language_id":38}},{"id":4526,"position":3,"audio_url":"wbw/036_004_003.mp3","char_type_name":"word","page_number":440,"line_number":7,"text":"مُّسْتَقِيمٍۢ","translation":{"text":"সরল সঠিক","language_name":"bengali","language_id":20},"transliteration":{"text":"mus'taqīmin","language_name":"english","language_id":38}},{"id":4527,"position":4,"audio_url":null,"char_type_name":"end","page_number":440,"line_number":7,"text":"٤","translation":{"text":"(৪)","language_name":"bengali","language_id":20},"transliteration":{"text":null,"language_name":"english","language_id":38}}]},{"id":3710,"verse_number":5,"verse_key":"36:5","hizb_number":44,"rub_el_hizb_number":176,"ruku_number":383,"manzil_number":5,"sajdah_number":null,"page_number":440,"juz_number":22,"words":[{"id":5782,"position":1,"audio_url":"wbw/036_005_001.mp3","char_type_name":"word","page_number":440,"line_number":7,"text":"تَنزِيلَ","translation":{"text":"(এই কোরআন) অবতীর্ণ করা","language_name":"bengali","language_id":20},"transliteration":{"text":"tanzīla","language_name":"english","language_id":38}},{"id":5783,"position":2,"audio_url":"wbw/036_005_002.mp3","char_type_name":"word","page_number":440,"line_number":7,"text":"ٱلْعَزِيزِ","translation":{"text":"পরাক্রমশালীর (পক্ষ হ'তে)","language_name":"bengali","language_id":20},"transliteration":{"text":"l-ʿazīzi","language_name":"english","language_id":38}},{"id":5784,"position":3,"audio_url":"wbw/036_005_003.mp3","char_type_name":"word","page_number":440,"line_number":7,"text":"ٱلرَّحِيمِ","translation":{"text":"(যিনি) পরম দয়ালু","language_name":"bengali","language_id":20},"transliteration":{"text":"l-raḥīmi","language_name":"english","language_id":38}},{"id":5785,"position":4,"audio_url":null,"char_type_name":"end","page_number":440,"line_number":7,"text":"٥","translation":{"text":"(৫)","language_name":"bengali","language_id":20},"transliteration":{"text":null,"language_name":"english","language_id":38}}]},{"id":3711,"verse_number":6,"verse_key":"36:6","hizb_number":44,"rub_el_hizb_number":176,"ruku_number":383,"manzil_number":5,"sajdah_number":null,"page_number":440,"juz_number":22,"words":[{"id":7069,"position":1,"audio_url":"wbw/036_006_001.mp3","char_type_name":"word","page_number":440,"line_number":7,"text":"لِتُنذِرَ","translation":{"text":"সতর্ক করো তুমি যেন","language_name":"bengali","language_id":20},"transliteration":{"text":"litundhira","language_name":"english","language_id":38}},{"id":7070,"position":2,"audio_url":"wbw/036_006_002.mp3","char_type_name":"word","page_number":440,"line_number":7,"text":"قَوْمًۭا","translation":{"text":"(এমন) জাতিকে","language_name":"bengali","language_id":20},"transliteration":{"text":"qawman","language_name":"english","language_id":38}},{"id":7071,"position":3,"audio_url":"wbw/036_006_003.mp3","char_type_name":"word","page_number":440,"line_number":8,"text":"مَّآ","translation":{"text":"না","language_name":"bengali","language_id":20},"transliteration":{"text":"mā","language_name":"english","language_id":38}},{"id":7072,"position":4,"audio_url":"wbw/036_006_004.mp3","char_type_name":"word","page_number":440,"line_number":8,"text":"أُنذِرَ","translation":{"text":"সতর্ক করা হয়েছে","language_name":"bengali","language_id":20},"transliteration":{"text":"undhira","language_name":"english","language_id":38}},{"id":7073,"position":5,"audio_url":"wbw/036_006_005.mp3","char_type_name":"word","page_number":440,"line_number":8,"text":"ءَابَآؤُهُمْ","translation":{"text":"তাদের পিতৃ-পুরুষদেরকে","language_name":"bengali","language_id":20},"transliteration":{"text":"ābāuhum","language_name":"english","language_id":38}},{"id":7074,"position":6,"audio_url":"wbw/036_006_006.mp3","char_type_name":"word","page_number":440,"line_number":8,"text":"فَهُمْ","translation":{"text":"অতএব তারা","language_name":"bengali","language_id":20},"transliteration":{"text":"fahum","language_name":"english","language_id":38}},{"id":7075,"position":7,"audio_url":"wbw/036_006_007.mp3","char_type_name":"word","page_number":440,"line_number":8,"text":"غَـٰفِلُونَ","translation":{"text":"উদাসীন (হয়ে আছে)","language_name":"bengali","language_id":20},"transliteration":{"text":"ghāfilūna","language_name":"english","language_id":38}},{"id":7076,"position":8,"audio_url":null,"char_type_name":"end","page_number":440,"line_number":8,"text":"٦","translation":{"text":"(৬)","language_name":"bengali","language_id":20},"transliteration":{"text":null,"language_name":"english","language_id":38}}]},{"id":3712,"verse_number":7,"verse_key":"36:7","hizb_number":44,"rub_el_hizb_number":176,"ruku_number":383,"manzil_number":5,"sajdah_number":null,"page_number":440,"juz_number":22,"words":[{"id":8380,"position":1,"audio_url":"wbw/036_007_001.mp3","char_type_name":"word","page_number":440,"line_number":8,"text":"لَقَدْ","translation":{"text":"নিশ্চয়ই","language_name":"bengali","language_id":20},"transliteration":{"text":"laqad","language_name":"english","language_id":38}},{"id":8381,"position":2,"audio_url":"wbw/036_007_002.mp3","char_type_name":"word","page_number":440,"line_number":8,"text":"حَقَّ","translation":{"text":"অবধারিত হয়েছে","language_name":"bengali","language_id":20},"transliteration":{"text":"ḥaqqa","language_name":"english","language_id":38}},{"id":8382,"position":3,"audio_url":"wbw/036_007_003.mp3","char_type_name":"word","page_number":440,"line_number":8,"text":"ٱلْقَوْلُ","translation":{"text":"(শান্তির) বাণী","language_name":"bengali","language_id":20},"transliteration":{"text":"l-qawlu","language_name":"english","language_id":38}},{"id":8383,"position":4,"audio_url":"wbw/036_007_004.mp3","char_type_name":"word","page_number":440,"line_number":8,"text":"عَلَىٰٓ","translation":{"text":"উপর","language_name":"bengali","language_id":20},"transliteration":{"text":"ʿalā","language_name":"english","language_id":38}},{"id":8384,"position":5,"audio_url":"wbw/036_007_005.mp3","char_type_name":"word","page_number":440,"line_number":8,"text":"أَكْثَرِهِمْ","translation":{"text":"তাদের অধিক অংশের","language_name":"bengali","language_id":20},"transliteration":{"text":"aktharihim","language_name":"english","language_id":38}},{"id":8385,"position":6,"audio_url":"wbw/036_007_006.mp3","char_type_name":"word","page_number":440,"line_number":9,"text":"فَهُمْ","translation":{"text":"সুতরাং তারা","language_name":"bengali","language_id":20},"transliteration":{"text":"fahum","language_name":"english","language_id":38}},{"id":8386,"position":7,"audio_url":"wbw/036_007_007.mp3","char_type_name":"word","page_number":440,"line_number":9,"text":"لَا","translation":{"text":"না","language_name":"bengali","language_id":20},"transliteration":{"text":"lā","language_name":"english","language_id":38}},{"id":8387,"position":8,"audio_url":"wbw/036_007_008.mp3","char_type_name":"word","page_number":440,"line_number":9,"text":"يُؤْمِنُونَ","translation":{"text":"ঈমান আনবে","language_name":"bengali","language_id":20},"transliteration":{"text":"yu'minūna","language_name":"english","language_id":38}},{"id":8388,"position":9,"audio_url":null,"char_type_name":"end","page_number":440,"line_number":9,"text":"٧","translation":{"text":"(৭)","language_name":"bengali","language_id":20},"transliteration":{"text":null,"language_name":"english","language_id":38}}]},{"id":3713,"verse_number":8,"verse_key":"36:8","hizb_number":44,"rub_el_hizb_number":176,"ruku_number":383,"manzil_number":5,"sajdah_number":null,"page_number":440,"juz_number":22,"words":[{"id":9561,"position":1,"audio_url":"wbw/036_008_001.mp3","char_type_name":"word","page_number":440,"line_number":9,"text":"إِنَّا","translation":{"text":"নিশ্চয়ই আমরা","language_name":"bengali","language_id":20},"transliteration":{"text":"innā","language_name":"english","language_id":38}},{"id":9562,"position":2,"audio_url":"wbw/036_008_002.mp3","char_type_name":"word","page_number":440,"line_number":9,"text":"جَعَلْنَا","translation":{"text":"আমরা লাগিয়েছি","language_name":"bengali","language_id":20},"transliteration":{"text":"jaʿalnā","language_name":"english","language_id":38}},{"id":9563,"position":3,"audio_url":"wbw/036_008_003.mp3","char_type_name":"word","page_number":440,"line_number":9,"text":"فِىٓ","translation":{"text":"উপর","language_name":"bengali","language_id":20},"transliteration":{"text":"fī","language_name":"english","language_id":38}},{"id":9564,"position":4,"audio_url":"wbw/036_008_004.mp3","char_type_name":"word","page_number":440,"line_number":9,"text":"أَعْنَـٰقِهِمْ","translation":{"text":"তাদের গলায়","language_name":"bengali","language_id":20},"transliteration":{"text":"aʿnāqihim","language_name":"english","language_id":38}},{"id":9565,"position":5,"audio_url":"wbw/036_008_005.mp3","char_type_name":"word","page_number":440,"line_number":9,"text":"أَغْلَـٰلًۭا","translation":{"text":"বেড়িসমূহ","language_name":"bengali","language_id":20},"transliteration":{"text":"aghlālan","language_name":"english","language_id":38}},{"id":9566,"position":6,"audio_url":"wbw/036_008_006.mp3","char_type_name":"word","page_number":440,"line_number":9,"text":"فَهِىَ","translation":{"text":"তা তাই","language_name":"bengali","language_id":20},"transliteration":{"text":"fahiya","language_name":"english","language_id":38}},{"id":9567,"position":7,"audio_url":"wbw/036_008_007.mp3","char_type_name":"word","page_number":440,"line_number":9,"text":"إِلَى","translation":{"text":"(রয়েছে) পর্যন্ত","language_name":"bengali","language_id":20},"transliteration":{"text":"ilā","language_name":"english","language_id":38}},{"id":9568,"position":8,"audio_url":"wbw/036_008_008.mp3","char_type_name":"word","page_number":440,"line_number":10,"text":"ٱلْأَذْقَانِ","translation":{"text":"চিবুকগুলো (শৃঙ্খলিত হয়ে)","language_name":"bengali","language_id":20},"transliteration":{"text":"l-adhqāni","language_name":"english","language_id":38}},{"id":9569,"position":9,"audio_url":"wbw/036_008_009.mp3","char_type_name":"word","page_number":440,"line_number":10,"text":"فَهُم","translation":{"text":"তারা এজন্য","language_name":"bengali","language_id":20},"transliteration":{"text":"fahum","language_name":"english","language_id":38}},{"id":9570,"position":10,"audio_url":"wbw/036_008_010.mp3","char_type_name":"word","page_number":440,"line_number":10,"text":"مُّقْمَحُونَ","translation":{"text":"ঊর্ধ্বমুখী (হয়ে আছে)","language_name":"bengali","language_id":20},"transliteration":{"text":"muq'maḥūna","language_name":"english","language_id":38}},{"id":9571,"position":11,"audio_url":null,"char_type_name":"end","page_number":440,"line_number":10,"text":"٨","translation":{"text":"(৮)","language_name":"bengali","language_id":20},"transliteration":{"text":null,"language_name":"english","language_id":38}}]},{"id":3714,"verse_number":9,"verse_key":"36:9","hizb_number":44,"rub_el_hizb_number":176,"ruku_number":383,"manzil_number":5,"sajdah_number":null,"page_number":440,"juz_number":22,"words":[{"id":10741,"position":1,"audio_url":"wbw/036_009_001.mp3","char_type_name":"word","page_number":440,"line_number":10,"text":"وَجَعَلْنَا","translation":{"text":"এবং আমরা খাড়া করেছি","language_name":"bengali","language_id":20},"transliteration":{"text":"wajaʿalnā","language_name":"english","language_id":38}},{"id":10742,"position":2,"audio_url":"wbw/036_009_002.mp3","char_type_name":"word","page_number":440,"line_number":10,"text":"مِنۢ","translation":{"text":"থেকে","language_name":"bengali","language_id":20},"transliteration":{"text":"min","language_name":"english","language_id":38}},{"id":10743,"position":3,"audio_url":"wbw/036_009_003.mp3","char_type_name":"word","page_number":440,"line_number":10,"text":"بَيْنِ","translation":{"text":"সামনে","language_name":"bengali","language_id":20},"transliteration":{"text":"bayni","language_name":"english","language_id":38}},{"id":10744,"position":4,"audio_url":"wbw/036_009_004.mp3","char_type_name":"word","page_number":440,"line_number":10,"text":"أَيْدِيهِمْ","translation":{"text":"তাদের","language_name":"bengali","language_id":20},"transliteration":{"text":"aydīhim","language_name":"english","language_id":38}},{"id":10745,"position":5,"audio_url":"wbw/036_009_005.mp3","char_type_name":"word","page_number":440,"line_number":10,"text":"سَدًّۭا","translation":{"text":"প্রাচীর","language_name":"bengali","language_id":20},"transliteration":{"text":"saddan","language_name":"english","language_id":38}},{"id":10746,"position":6,"audio_url":"wbw/036_009_006.mp3","char_type_name":"word","page_number":440,"line_number":11,"text":"وَمِنْ","translation":{"text":"ও থেকে","language_name":"bengali","language_id":20},"transliteration":{"text":"wamin","language_name":"english","language_id":38}},{"id":10747,"position":7,"audio_url":"wbw/036_009_007.mp3","char_type_name":"word","page_number":440,"line_number":11,"text":"خَلْفِهِمْ","translation":{"text":"তাদের পিছন","language_name":"bengali","language_id":20},"transliteration":{"text":"khalfihim","language_name":"english","language_id":38}},{"id":10748,"position":8,"audio_url":"wbw/036_009_008.mp3","char_type_name":"word","page_number":440,"line_number":11,"text":"سَدًّۭا","translation":{"text":"প্রাচীর","language_name":"bengali","language_id":20},"transliteration":{"text":"saddan","language_name":"english","language_id":38}},{"id":10749,"position":9,"audio_url":"wbw/036_009_009.mp3","char_type_name":"word","page_number":440,"line_number":11,"text":"فَأَغْشَيْنَـٰهُمْ","translation":{"text":"তাদেরকে আমরা এভাবে ঢেকে দিয়েছি","language_name":"bengali","language_id":20},"transliteration":{"text":"fa-aghshaynāhum","language_name":"english","language_id":38}},{"id":10750,"position":10,"audio_url":"wbw/036_009_010.mp3","char_type_name":"word","page_number":440,"line_number":11,"text":"فَهُمْ","translation":{"text":"তারা অতএব","language_name":"bengali","language_id":20},"transliteration":{"text":"fahum","language_name":"english","language_id":38}},{"id":10751,"position":11,"audio_url":"wbw/036_009_011.mp3","char_type_name":"word","page_number":440,"line_number":11,"text":"لَا","translation":{"text":"না","language_name":"bengali","language_id":20},"transliteration":{"text":"lā","language_name":"english","language_id":38}},{"id":10752,"position":12,"audio_url":"wbw/036_009_012.mp3","char_type_name":"word","page_number":440,"line_number":11,"text":"يُبْصِرُونَ","translation":{"text":"দেখতে পায়","language_name":"bengali","language_id":20},"transliteration":{"text":"yub'ṣirūna","language_name":"english","language_id":38}},{"id":10753,"position":13,"audio_url":null,"char_type_name":"end","page_number":440,"line_number":11,"text":"٩","translation":{"text":"(৯)","language_name":"bengali","language_id":20},"transliteration":{"text":null,"language_name":"english","language_id":38}}]},{"id":3715,"verse_number":10,"verse_key":"36:10","hizb_number":44,"rub_el_hizb_number":176,"ruku_number":383,"manzil_number":5,"sajdah_number":null,"page_number":440,"juz_number":22,"words":[{"id":11994,"position":1,"audio_url":"wbw/036_010_001.mp3","char_type_name":"word","page_number":440,"line_number":11,"text":"وَسَوَآءٌ","translation":{"text":"এবং সমান","language_name":"bengali","language_id":20},"transliteration":{"text":"wasawāon","language_name":"english","language_id":38}},{"id":11995,"position":2,"audio_url":"wbw/036_010_002.mp3","char_type_name":"word","page_number":440,"line_number":12,"text":"عَلَيْهِمْ","translation":{"text":"তাদের পক্ষে","language_name":"bengali","language_id":20},"transliteration":{"text":"ʿalayhim","language_name":"english","language_id":38}},{"id":11996,"position":3,"audio_url":"wbw/036_010_003.mp3","char_type_name":"word","page_number":440,"line_number":12,"text":"ءَأَنذَرْتَهُمْ","translation":{"text":"তাদের তুমি সতর্ক করো কি","language_name":"bengali","language_id":20},"transliteration":{"text":"a-andhartahum","language_name":"english","language_id":38}},{"id":11997,"position":4,"audio_url":"wbw/036_010_004.mp3","char_type_name":"word","page_number":440,"line_number":12,"text":"أَمْ","translation":{"text":"বা","language_name":"bengali","language_id":20},"transliteration":{"text":"am","language_name":"english","language_id":38}},{"id":11998,"position":5,"audio_url":"wbw/036_010_005.mp3","char_type_name":"word","page_number":440,"line_number":12,"text":"لَمْ","translation":{"text":"নি","language_name":"bengali","language_id":20},"transliteration":{"text":"lam","language_name":"english","language_id":38}},{"id":11999,"position":6,"audio_url":"wbw/036_010_006.mp3","char_type_name":"word","page_number":440,"line_number":12,"text":"تُنذِرْهُمْ","translation":{"text":"তাদের সতর্ক করো তুমি","language_name":"bengali","language_id":20},"transliteration":{"text":"tundhir'hum","language_name":"english","language_id":38}},{"id":12000,"position":7,"audio_url":"wbw/036_010_007.mp3","char_type_name":"word","page_number":440,"line_number":12,"text":"لَا","translation":{"text":"না","language_name":"bengali","language_id":20},"transliteration":{"text":"lā","language_name":"english","language_id":38}},{"id":12001,"position":8,"audio_url":"wbw/036_010_008.mp3","char_type_name":"word","page_number":440,"line_number":12,"text":"يُؤْمِنُونَ","translation":{"text":"তারা ঈমান আনবে","language_name":"bengali","language_id":20},"transliteration":{"text":"yu'minūna","language_name":"english","language_id":38}},{"id":12002,"position":9,"audio_url":null,"char_type_name":"end","page_number":440,"line_number":12,"text":"١٠","translation":{"text":"(১০)","language_name":"bengali","language_id":20},"transliteration":{"text":null,"language_name":"english","language_id":38}}]}],"pagination":{"per_page":10,"current_page":1,"next_page":2,"total_pages":9,"total_records":83}}
