{"verses":[{"id":3726,"verse_number":21,"verse_key":"36:21","hizb_number":44,"rub_el_hizb_number":176,"ruku_number":384,"manzil_number":5,"sajdah_number":null,"page_number":441,"juz_number":22,"words":[{"id":24321,"position":1,"audio_url":"wbw/036_021_001.mp3","char_type_name":"word","page_number":441,"line_number":9,"text":"ٱتَّبِعُوا۟","translation":{"text":"তোমরা অনুসরণ করো","language_name":"bengali","language_id":20},"transliteration":{"text":"ittabiʿū","language_name":"english","language_id":38}},{"id":24322,"position":2,"audio_url":"wbw/036_021_002.mp3","char_type_name":"word","page_number":441,"line_number":10,"text":"مَن","translation":{"text":"(তার) যে","language_name":"bengali","language_id":20},"transliteration":{"text":"man","language_name":"english","language_id":38}},{"id":24323,"position":3,"audio_url":"wbw/036_021_003.mp3","char_type_name":"word","page_number":441,"line_number":10,"text":"لَّا","translation":{"text":"না","language_name":"bengali","language_id":20},"transliteration":{"text":"lā","language_name":"english","language_id":38}},{"id":24324,"position":4,"audio_url":"wbw/036_021_004.mp3","char_type_name":"word","page_number":441,"line_number":10,"text":"يَسْـَٔلُكُمْ","translation":{"text":"তোমাদের কাছে চায়","language_name":"bengali","language_id":20},"transliteration":{"text":"yasalukum","language_name":"english","language_id":38}},{"id":24325,"position":5,"audio_url":"wbw/036_021_005.mp3","char_type_name":"word","page_number":441,"line_number":10,"text":"أَجْرًۭا","translation":{"text":"কোনো বিনিময়","language_name":"bengali","language_id":20},"transliteration":{"text":"ajran","language_name":"english","language_id":38}},{"id":24326,"position":6,"audio_url":"wbw/036_021_006.mp3","char_type_name":"word","page_number":441,"line_number":10,"text":"وَهُم","translation":{"text":"এবং তারা","language_name":"bengali","language_id":20},"transliteration":{"text":"wahum","language_name":"english","language_id":38}},{"id":24327,"position":7,"audio_url":"wbw/036_021_007.mp3","char_type_name":"word","page_number":441,"line_number":10,"text":"مُّهْتَدُونَ","translation":{"text":"সৎপথপ্রাপ্ত","language_name":"bengali","language_id":20},"transliteration":{"text":"muh'tadūna","language_name":"english","language_id":38}},{"id":24328,"position":8,"audio_url":null,"char_type_name":"end","page_number":441,"line_number":10,"text":"٢١","translation":{"text":"(২১)","language_name":"bengali","language_id":20},"transliteration":{"text":null,"language_name":"english","language_id":38}}]},{"id":3727,"verse_number":22,"verse_key":"36:22","hizb_number":44,"rub_el_hizb_number":176,"ruku_number":384,"manzil_number":5,"sajdah_number":null,"page_number":441,"juz_number":22,"words":[{"id":25346,"position":1,"audio_url":"wbw/036_022_001.mp3","char_type_name":"word","page_number":441,"line_number":10,"text":"وَمَا","translation":{"text":"এবং কি","language_name":"bengali","language_id":20},"transliteration":{"text":"wamā","language_name":"english","language_id":38}},{"id":25347,"position":2,"audio_url":"wbw/036_022_002.mp3","char_type_name":"word","page_number":441,"line_number":10,"text":"لِىَ","translation":{"text":"আমার জন্য (যুক্তি আছে যে)","language_name":"bengali","language_id":20},"transliteration":{"text":"liya","language_name":"english","language_id":38}},{"id":25348,"position":3,"audio_url":"wbw/036_022_003.mp3","char_type_name":"word","page_number":441,"line_number":10,"text":"لَآ","translation":{"text":"না","language_name":"bengali","language_id":20},"transliteration":{"text":"lā","language_name":"english","language_id":38}},{"id":25349,"position":4,"audio_url":"wbw/036_022_004.mp3","char_type_name":"word","page_number":441,"line_number":10,"text":"أَعْبُدُ","translation":{"text":"ইবাদত করবো আমি","language_name":"bengali","language_id":20},"transliteration":{"text":"aʿbudu","language_name":"english","language_id":38}},{"id":25350,"position":5,"audio_url":"wbw/036_022_005.mp3","char_type_name":"word","page_number":441,"line_number":11,"text":"ٱلَّذِى","translation":{"text":"(তাঁর) যিনি","language_name":"bengali","language_id":20},"transliteration":{"text":"alladhī","language_name":"english","language_id":38}},{"id":25351,"position":6,"audio_url":"wbw/036_022_006.mp3","char_type_name":"word","page_number":441,"line_number":11,"text":"فَطَرَنِى","translation":{"text":"আমাকে সৃষ্টি করেছেন","language_name":"bengali","language_id":20},"transliteration":{"text":"faṭaranī","language_name":"english","language_id":38}},{"id":25352,"position":7,"audio_url":"wbw/036_022_007.mp3","char_type_name":"word","page_number":441,"line_number":11,"text":"وَإِلَيْهِ","translation":{"text":"ও তাঁরই দিকে","language_name":"bengali","language_id":20},"transliteration":{"text":"wa-ilayhi","language_name":"english","language_id":38}},{"id":25353,"position":8,"audio_url":"wbw/036_022_008.mp3","char_type_name":"word","page_number":441,"line_number":11,"text":"تُرْجَعُونَ","translation":{"text":"তোমাদেরকে ফিরিয়ে নেয়া হবে","language_name":"bengali","language_id":20},"transliteration":{"text":"tur'jaʿūna","language_name":"english","language_id":38}},{"id":25354,"position":9,"audio_url":"","char_type_name":"end","page_number":441,"line_number":11,"text":"٢٢","translation":{"text":"(২২)","language_name":"bengali","language_id":20},"transliteration":{"text":"","language_name":"english","language_id":38}}]},{"id":3728,"verse_number":23,"verse_key":"36:23","hizb_number":44,"rub_el_hizb_number":176,"ruku_number":384,"manzil_number":5,"sajdah_number":null,"page_number":441,"juz_number":22,"words":[{"id":26387,"position":1,"audio_url":"wbw/036_023_001.mp3","char_type_name":"word","page_number":441,"line_number":11,"text":"ءَأَتَّخِذُ","translation":{"text":"গ্রহণ করবো আমি কি","language_name":"bengali","language_id":20},"transliteration":{"text":"a-attakhidhu","language_name":"english","language_id":38}},{"id":26388,"position":2,"audio_url":"wbw/036_023_002.mp3","char_type_name":"word","page_number":441,"line_number":11,"text":"مِن","translation":{"text":"ছাড়া","language_name":"bengali","language_id":20},"transliteration":{"text":"min","language_name":"english","language_id":38}},{"id":26389,"position":3,"audio_url":"wbw/036_023_003.mp3","char_type_name":"word","page_number":441,"line_number":11,"text":"دُونِهِۦٓ","translation":{"text":"তাঁকে","language_name":"bengali","language_id":20},"transliteration":{"text":"dūnihi","language_name":"english","language_id":38}},{"id":26390,"position":4,"audio_url":"wbw/036_023_004.mp3","char_type_name":"word","page_number":441,"line_number":11,"text":"ءَالِهَةً","translation":{"text":"উপাস্য (অন্য কাউকে)","language_name":"bengali","language_id":20},"transliteration":{"text":"ālihatan","language_name":"english","language_id":38}},{"id":26391,"position":5,"audio_url":"wbw/036_023_005.mp3","char_type_name":"word","page_number":441,"line_number":12,"text":"إِن","translation":{"text":"(অথচ) যদি","language_name":"bengali","language_id":20},"transliteration":{"text":"in","language_name":"english","language_id":38}},{"id":26392,"position":6,"audio_url":"wbw/036_023_006.mp3","char_type_name":"word","page_number":441,"line_number":12,"text":"يُرِدْنِ","translation":{"text":"আমাকে চান","language_name":"bengali","language_id":20},"transliteration":{"text":"yurid'ni","language_name":"english","language_id":38}},{"id":26393,"position":7,"audio_url":"wbw/036_023_007.mp3","char_type_name":"word","page_number":441,"line_number":12,"text":"ٱلرَّحْمَـٰنُ","translation":{"text":"দয়াময়","language_name":"bengali","language_id":20},"transliteration":{"text":"l-raḥmānu","language_name":"english","language_id":38}},{"id":26394,"position":8,"audio_url":"wbw/036_023_008.mp3","char_type_name":"word","page_number":441,"line_number":12,"text":"بِضُرٍّۢ","translation":{"text":"কোনো ক্ষতি করতে","language_name":"bengali","language_id":20},"transliteration":{"text":"biḍurrin","language_name":"english","language_id":38}},{"id":26395,"position":9,"audio_url":"wbw/036_023_009.mp3","char_type_name":"word","page_number":441,"line_number":12,"text":"لَّا","translation":{"text":"না","language_name":"bengali","language_id":20},"transliteration":{"text":"lā","language_name":"english","language_id":38}},{"id":26396,"position":10,"audio_url":"wbw/036_023_010.mp3","char_type_name":"word","page_number":441,"line_number":12,"text":"تُغْنِ","translation":{"text":"কাজে আসবে","language_name":"bengali","language_id":20},"transliteration":{"text":"tugh'ni","language_name":"english","language_id":38}},{"id":26397,"position":11,"audio_url":"wbw/036_023_011.mp3","char_type_name":"word","page_number":441,"line_number":12,"text":"عَنِّى","translation":{"text":"আমার জন্যে","language_name":"bengali","language_id":20},"transliteration":{"text":"ʿannī","language_name":"english","language_id":38}},{"id":26398,"position":12,"audio_url":"wbw/036_023_012.mp3","char_type_name":"word","page_number":441,"line_number":12,"text":"شَفَـٰعَتُهُمْ","translation":{"text":"তাদের সুপারিশ","language_name":"bengali","language_id":20},"transliteration":{"text":"shafāʿatuhum","language_name":"english","language_id":38}},{"id":26399,"position":13,"audio_url":"wbw/036_023_013.mp3","char_type_name":"word","page_number":441,"line_number":12,"text":"شَيْـًۭٔا","translation":{"text":"কিছু মাত্র","language_name":"bengali","language_id":20},"transliteration":{"text":"shayan","language_name":"english","language_id":38}},{"id":26400,"position":14,"audio_url":"wbw/036_023_014.mp3","char_type_name":"word","page_number":441,"line_number":13,"text":"وَلَا","translation":{"text":"আর না","language_name":"bengali","language_id":20},"transliteration":{"text":"walā","language_name":"english","language_id":38}},{"id":26401,"position":15,"audio_url":"wbw/036_023_015.mp3","char_type_name":"word","page_number":441,"line_number":13,"text":"يُنقِذُونِ","translation":{"text":"আমাকে তারা উদ্ধার করতে পারবে","language_name":"bengali","language_id":20},"transliteration":{"text":"yunqidhūni","language_name":"english","language_id":38}},{"id":26402,"position":16,"audio_url":null,"char_type_name":"end","page_number":441,"line_number":13,"text":"٢٣","translation":{"text":"(২৩)","language_name":"bengali","language_id":20},"transliteration":{"text":null,"language_name":"english","language_id":38}}]},{"id":3729,"verse_number":24,"verse_key":"36:24","hizb_number":44,"rub_el_hizb_number":176,"ruku_number":384,"manzil_number":5,"sajdah_number":null,"page_number":441,"juz_number":22,"words":[{"id":27408,"position":1,"audio_url":"wbw/036_024_001.mp3","char_type_name":"word","page_number":441,"line_number":13,"text":"إِنِّىٓ","translation":{"text":"নিশ্চয়ই আমি","language_name":"bengali","language_id":20},"transliteration":{"text":"innī","language_name":"english","language_id":38}},{"id":27409,"position":2,"audio_url":"wbw/036_024_002.mp3","char_type_name":"word","page_number":441,"line_number":13,"text":"إِذًۭا","translation":{"text":"তাহ'লে","language_name":"bengali","language_id":20},"transliteration":{"text":"idhan","language_name":"english","language_id":38}},{"id":27410,"position":3,"audio_url":"wbw/036_024_003.mp3","char_type_name":"word","page_number":441,"line_number":13,"text":"لَّفِى","translation":{"text":"অবশ্যই মধ্যে হব","language_name":"bengali","language_id":20},"transliteration":{"text":"lafī","language_name":"english","language_id":38}},{"id":27411,"position":4,"audio_url":"wbw/036_024_004.mp3","char_type_name":"word","page_number":441,"line_number":13,"text":"ضَلَـٰلٍۢ","translation":{"text":"বিভ্রান্তির","language_name":"bengali","language_id":20},"transliteration":{"text":"ḍalālin","language_name":"english","language_id":38}},{"id":27412,"position":5,"audio_url":"wbw/036_024_005.mp3","char_type_name":"word","page_number":441,"line_number":13,"text":"مُّبِينٍ","translation":{"text":"সুস্পষ্ট","language_name":"bengali","language_id":20},"transliteration":{"text":"mubīnin","language_name":"english","language_id":38}},{"id":27413,"position":6,"audio_url":null,"char_type_name":"end","page_number":441,"line_number":13,"text":"٢٤","translation":{"text":"(২৪)","language_name":"bengali","language_id":20},"transliteration":{"text":null,"language_name":"english","language_id":38}}]},{"id":3730,"verse_number":25,"verse_key":"36:25","hizb_number":44,"rub_el_hizb_number":176,"ruku_number":384,"manzil_number":5,"sajdah_number":null,"page_number":441,"juz_number":22,"words":[{"id":28473,"position":1,"audio_url":"wbw/036_025_001.mp3","char_type_name":"word","page_number":441,"line_number":13,"text":"إِنِّىٓ","translation":{"text":"নিশ্চযই় আমি","language_name":"bengali","language_id":20},"transliteration":{"text":"innī","language_name":"english","language_id":38}},{"id":28474,"position":2,"audio_url":"wbw/036_025_002.mp3","char_type_name":"word","page_number":441,"line_number":13,"text":"ءَامَنتُ","translation":{"text":"আমি ঈমান এনেছি","language_name":"bengali","language_id":20},"transliteration":{"text":"āmantu","language_name":"english","language_id":38}},{"id":28475,"position":3,"audio_url":"wbw/036_025_003.mp3","char_type_name":"word","page_number":441,"line_number":14,"text":"بِرَبِّكُمْ","translation":{"text":"প্রতি তোমাদের রবের","language_name":"bengali","language_id":20},"transliteration":{"text":"birabbikum","language_name":"english","language_id":38}},{"id":28476,"position":4,"audio_url":"wbw/036_025_004.mp3","char_type_name":"word","page_number":441,"line_number":14,"text":"فَٱسْمَعُونِ","translation":{"text":"সুতরা তোমরা আমার কথা শোনো (ও মানো)\"","language_name":"bengali","language_id":20},"transliteration":{"text":"fa-is'maʿūni","language_name":"english","language_id":38}},{"id":28477,"position":5,"audio_url":null,"char_type_name":"end","page_number":441,"line_number":14,"text":"٢٥","translation":{"text":"(২৫)","language_name":"bengali","language_id":20},"transliteration":{"text":null,"language_name":"english","language_id":38}}]},{"id":3731,"verse_number":26,"verse_key":"36:26","hizb_number":44,"rub_el_hizb_number":176,"ruku_number":384,"manzil_number":5,"sajdah_number":null,"page_number":441,"juz_number":22,"words":[{"id":29381,"position":1,"audio_url":"wbw/036_026_001.mp3","char_type_name":"word","page_number":441,"line_number":14,"text":"قِيلَ","translation":{"text":"(তাকে তারা হত্যা করলো এবং তাকে) বলা হলো","language_name":"bengali","language_id":20},"transliteration":{"text":"qīla","language_name":"english","language_id":38}},{"id":29382,"position":2,"audio_url":"wbw/036_026_002.mp3","char_type_name":"word","page_number":441,"line_number":14,"text":"ٱدْخُلِ","translation":{"text":"\"প্রবেশ করো","language_name":"bengali","language_id":20},"transliteration":{"text":"ud'khuli","language_name":"english","language_id":38}},{"id":29383,"position":3,"audio_url":"wbw/036_026_003.mp3","char_type_name":"word","page_number":441,"line_number":14,"text":"ٱلْجَنَّةَ ۖ","translation":{"text":"জান্নাতে\"","language_name":"bengali","language_id":20},"transliteration":{"text":"l-janata","language_name":"english","language_id":38}},{"id":29385,"position":4,"audio_url":"wbw/036_026_005.mp3","char_type_name":"word","page_number":441,"line_number":14,"text":"قَالَ","translation":{"text":"সে বললো","language_name":"bengali","language_id":20},"transliteration":{"text":"qāla","language_name":"english","language_id":38}},{"id":29386,"position":5,"audio_url":"wbw/036_026_006.mp3","char_type_name":"word","page_number":441,"line_number":14,"text":"يَـٰلَيْتَ","translation":{"text":"\"হায় আফসোস্‌","language_name":"bengali","language_id":20},"transliteration":{"text":"yālayta","language_name":"english","language_id":38}},{"id":29387,"position":6,"audio_url":"wbw/036_026_007.mp3","char_type_name":"word","page_number":441,"line_number":14,"text":"قَوْمِى","translation":{"text":"আমার জাতি","language_name":"bengali","language_id":20},"transliteration":{"text":"qawmī","language_name":"english","language_id":38}},{"id":29388,"position":7,"audio_url":"wbw/036_026_008.mp3","char_type_name":"word","page_number":441,"line_number":15,"text":"يَعْلَمُونَ","translation":{"text":"(যদি) জানতো","language_name":"bengali","language_id":20},"transliteration":{"text":"yaʿlamūna","language_name":"english","language_id":38}},{"id":29389,"position":8,"audio_url":null,"char_type_name":"end","page_number":441,"line_number":15,"text":"٢٦","translation":{"text":"(২৬)","language_name":"bengali","language_id":20},"transliteration":{"text":null,"language_name":"english","language_id":38}}]},{"id":3732,"verse_number":27,"verse_key":"36:27","hizb_number":44,"rub_el_hizb_number":176,"ruku_number":384,"manzil_number":5,"sajdah_number":null,"page_number":441,"juz_number":22,"words":[{"id":30371,"position":1,"audio_url":"wbw/036_027_001.mp3","char_type_name":"word","page_number":441,"line_number":15,"text":"بِمَا","translation":{"text":"যে কারণে","language_name":"bengali","language_id":20},"transliteration":{"text":"bimā","language_name":"english","language_id":38}},{"id":30372,"position":2,"audio_url":"wbw/036_027_002.mp3","char_type_name":"word","page_number":441,"line_number":15,"text":"غَفَرَ","translation":{"text":"ক্ষমা করেছেন","language_name":"bengali","language_id":20},"transliteration":{"text":"ghafara","language_name":"english","language_id":38}},{"id":30373,"position":3,"audio_url":"wbw/036_027_003.mp3","char_type_name":"word","page_number":441,"line_number":15,"text":"لِى","translation":{"text":"আমাকে","language_name":"bengali","language_id":20},"transliteration":{"text":"lī","language_name":"english","language_id":38}},{"id":30374,"position":4,"audio_url":"wbw/036_027_004.mp3","char_type_name":"word","page_number":441,"line_number":15,"text":"رَبِّى","translation":{"text":"আমার রব্‌","language_name":"bengali","language_id":20},"transliteration":{"text":"rabbī","language_name":"english","language_id":38}},{"id":30375,"position":5,"audio_url":"wbw/036_027_005.mp3","char_type_name":"word","page_number":441,"line_number":15,"text":"وَجَعَلَنِى","translation":{"text":"ও আমাকে করেছেন","language_name":"bengali","language_id":20},"transliteration":{"text":"wajaʿalanī","language_name":"english","language_id":38}},{"id":30376,"position":6,"audio_url":"wbw/036_027_006.mp3","char_type_name":"word","page_number":441,"line_number":15,"text":"مِنَ","translation":{"text":"অন্তর্ভুক্ত","language_name":"bengali","language_id":20},"transliteration":{"text":"mina","language_name":"english","language_id":38}},{"id":30377,"position":7,"audio_url":"wbw/036_027_007.mp3","char_type_name":"word","page_number":441,"line_number":15,"text":"ٱلْمُكْرَمِينَ","translation":{"text":"সম্মানিতদের\"","language_name":"bengali","language_id":20},"transliteration":{"text":"l-muk'ramīna","language_name":"english","language_id":38}},{"id":30378,"position":8,"audio_url":null,"char_type_name":"end","page_number":441,"line_number":15,"text":"٢٧","translation":{"text":"(২৭)","language_name":"bengali","language_id":20},"transliteration":{"text":null,"language_name":"english","language_id":38}}]},{"id":3733,"verse_number":28,"verse_key":"36:28","hizb_number":45,"rub_el_hizb_number":177,"ruku_number":384,"manzil_number":5,"sajdah_number":null,"page_number":442,"juz_number":23,"words":[{"id":31381,"position":1,"audio_url":"wbw/036_028_002.mp3","char_type_name":"word","page_number":442,"line_number":1,"text":"۞ وَمَآ","translation":{"text":"এবং না","language_name":"bengali","language_id":20},"transliteration":{"text":"wamā","language_name":"english","language_id":38}},{"id":31382,"position":2,"audio_url":"wbw/036_028_003.mp3","char_type_name":"word","page_number":442,"line_number":1,"text":"أَنزَلْنَا","translation":{"text":"আমরা অবতীর্ণ করেছি","language_name":"bengali","language_id":20},"transliteration":{"text":"anzalnā","language_name":"english","language_id":38}},{"id":31383,"position":3,"audio_url":"wbw/036_028_004.mp3","char_type_name":"word","page_number":442,"line_number":1,"text":"عَلَىٰ","translation":{"text":"বিরুদ্ধে","language_name":"bengali","language_id":20},"transliteration":{"text":"ʿalā","language_name":"english","language_id":38}},{"id":31384,"position":4,"audio_url":"wbw/036_028_005.mp3","char_type_name":"word","page_number":442,"line_number":1,"text":"قَوْمِهِۦ","translation":{"text":"তার জাতির","language_name":"bengali","language_id":20},"transliteration":{"text":"qawmihi","language_name":"english","language_id":38}},{"id":31385,"position":5,"audio_url":"wbw/036_028_006.mp3","char_type_name":"word","page_number":442,"line_number":1,"text":"مِنۢ","translation":{"text":"পরে","language_name":"bengali","language_id":20},"transliteration":{"text":"min","language_name":"english","language_id":38}},{"id":31386,"position":6,"audio_url":"wbw/036_028_007.mp3","char_type_name":"word","page_number":442,"line_number":1,"text":"بَعْدِهِۦ","translation":{"text":"তার","language_name":"bengali","language_id":20},"transliteration":{"text":"baʿdihi","language_name":"english","language_id":38}},{"id":31387,"position":7,"audio_url":"wbw/036_028_008.mp3","char_type_name":"word","page_number":442,"line_number":1,"text":"مِن","translation":{"text":"কোনো","language_name":"bengali","language_id":20},"transliteration":{"text":"min","language_name":"english","language_id":38}},{"id":31388,"position":8,"audio_url":"wbw/036_028_009.mp3","char_type_name":"word","page_number":442,"line_number":1,"text":"جُندٍۢ","translation":{"text":"সৈন্য","language_name":"bengali","language_id":20},"transliteration":{"text":"jundin","language_name":"english","language_id":38}},{"id":31389,"position":9,"audio_url":"wbw/036_028_010.mp3","char_type_name":"word","page_number":442,"line_number":1,"text":"مِّنَ","translation":{"text":"থেকে","language_name":"bengali","language_id":20},"transliteration":{"text":"mina","language_name":"english","language_id":38}},{"id":31390,"position":10,"audio_url":"wbw/036_028_011.mp3","char_type_name":"word","page_number":442,"line_number":1,"text":"ٱلسَّمَآءِ","translation":{"text":"আকাশ","language_name":"bengali","language_id":20},"transliteration":{"text":"l-samāi","language_name":"english","language_id":38}},{"id":31391,"position":11,"audio_url":"wbw/036_028_012.mp3","char_type_name":"word","page_number":442,"line_number":1,"text":"وَمَا","translation":{"text":"আর না","language_name":"bengali","language_id":20},"transliteration":{"text":"wamā","language_name":"english","language_id":38}},{"id":31392,"position":12,"audio_url":"wbw/036_028_013.mp3","char_type_name":"word","page_number":442,"line_number":2,"text":"كُنَّا","translation":{"text":"আমরা ছিলাম","language_name":"bengali","language_id":20},"transliteration":{"text":"kunnā","language_name":"english","language_id":38}},{"id":31393,"position":13,"audio_url":"wbw/036_028_014.mp3","char_type_name":"word","page_number":442,"line_number":2,"text":"مُنزِلِينَ","translation":{"text":"অবতীর্ণকারী","language_name":"bengali","language_id":20},"transliteration":{"text":"munzilīna","language_name":"english","language_id":38}},{"id":31394,"position":14,"audio_url":null,"char_type_name":"end","page_number":442,"line_number":2,"text":"٢٨","translation":{"text":"(২৮)","language_name":"bengali","language_id":20},"transliteration":{"text":null,"language_name":"english","language_id":38}}]},{"id":3734,"verse_number":29,"verse_key":"36:29","hizb_number":45,"rub_el_hizb_number":177,"ruku_number":384,"manzil_number":5,"sajdah_number":null,"page_number":442,"juz_number":23,"words":[{"id":32334,"position":1,"audio_url":"wbw/036_029_001.mp3","char_type_name":"word","page_number":442,"line_number":2,"text":"إِن","translation":{"text":"না","language_name":"bengali","language_id":20},"transliteration":{"text":"in","language_name":"english","language_id":38}},{"id":32335,"position":2,"audio_url":"wbw/036_029_002.mp3","char_type_name":"word","page_number":442,"line_number":2,"text":"كَانَتْ","translation":{"text":"ছিলো","language_name":"bengali","language_id":20},"transliteration":{"text":"kānat","language_name":"english","language_id":38}},{"id":32336,"position":3,"audio_url":"wbw/036_029_003.mp3","char_type_name":"word","page_number":442,"line_number":2,"text":"إِلَّا","translation":{"text":"এছাড়া","language_name":"bengali","language_id":20},"transliteration":{"text":"illā","language_name":"english","language_id":38}},{"id":32337,"position":4,"audio_url":"wbw/036_029_004.mp3","char_type_name":"word","page_number":442,"line_number":2,"text":"صَيْحَةًۭ","translation":{"text":"মহাগর্জন","language_name":"bengali","language_id":20},"transliteration":{"text":"ṣayḥatan","language_name":"english","language_id":38}},{"id":32338,"position":5,"audio_url":"wbw/036_029_005.mp3","char_type_name":"word","page_number":442,"line_number":2,"text":"وَٰحِدَةًۭ","translation":{"text":"একটি মাত্র","language_name":"bengali","language_id":20},"transliteration":{"text":"wāḥidatan","language_name":"english","language_id":38}},{"id":32339,"position":6,"audio_url":"wbw/036_029_006.mp3","char_type_name":"word","page_number":442,"line_number":2,"text":"فَإِذَا","translation":{"text":"তখন","language_name":"bengali","language_id":20},"transliteration":{"text":"fa-idhā","language_name":"english","language_id":38}},{"id":32340,"position":7,"audio_url":"wbw/036_029_007.mp3","char_type_name":"word","page_number":442,"line_number":2,"text":"هُمْ","translation":{"text":"তারা","language_name":"bengali","language_id":20},"transliteration":{"text":"hum","language_name":"english","language_id":38}},{"id":32341,"position":8,"audio_url":"wbw/036_029_008.mp3","char_type_name":"word","page_number":442,"line_number":2,"text":"خَـٰمِدُونَ","translation":{"text":"নিথর নিস্তব্ধ হয়ে গেলো","language_name":"bengali","language_id":20},"transliteration":{"text":"khāmidūna","language_name":"english","language_id":38}},{"id":32342,"position":9,"audio_url":null,"char_type_name":"end","page_number":442,"line_number":3,"text":"٢٩","translation":{"text":"(২৯)","language_name":"bengali","language_id":20},"transliteration":{"text":null,"language_name":"english","language_id":38}}]},{"id":3735,"verse_number":30,"verse_key":"36:30","hizb_number":45,"rub_el_hizb_number":177,"ruku_number":384,"manzil_number":5,"sajdah_number":null,"page_number":442,"juz_number":23,"words":[{"id":33190,"position":1,"audio_url":"wbw/036_030_001.mp3","char_type_name":"word","page_number":442,"line_number":3,"text":"يَـٰحَسْرَةً","translation":{"text":"হায় পরিতাপ","language_name":"bengali","language_id":20},"transliteration":{"text":"yāḥasratan","language_name":"english","language_id":38}},{"id":33191,"position":2,"audio_url":"wbw/036_030_002.mp3","char_type_name":"word","page_number":442,"line_number":3,"text":"عَلَى","translation":{"text":"জন্য","language_name":"bengali","language_id":20},"transliteration":{"text":"ʿalā","language_name":"english","language_id":38}},{"id":33192,"position":3,"audio_url":"wbw/036_030_003.mp3","char_type_name":"word","page_number":442,"line_number":3,"text":"ٱلْعِبَادِ ۚ","translation":{"text":"দাসদের","language_name":"bengali","language_id":20},"transliteration":{"text":"l-ʿibādi","language_name":"english","language_id":38}},{"id":33194,"position":4,"audio_url":"wbw/036_030_005.mp3","char_type_name":"word","page_number":442,"line_number":3,"text":"مَا","translation":{"text":"না","language_name":"bengali","language_id":20},"transliteration":{"text":"mā","language_name":"english","language_id":38}},{"id":33195,"position":5,"audio_url":"wbw/036_030_006.mp3","char_type_name":"word","page_number":442,"line_number":3,"text":"يَأْتِيهِم","translation":{"text":"তাদেরর কাছে এসেছে","language_name":"bengali","language_id":20},"transliteration":{"text":"yatīhim","language_name":"english","language_id":38}},{"id":33196,"position":6,"audio_url":"wbw/036_030_007.mp3","char_type_name":"word","page_number":442,"line_number":3,"text":"مِّن","translation":{"text":"(এমন) কোন","language_name":"bengali","language_id":20},"transliteration":{"text":"min","language_name":"english","language_id":38}},{"id":33197,"position":7,"audio_url":"wbw/036_030_008.mp3","char_type_name":"word","page_number":442,"line_number":3,"text":"رَّسُولٍ","translation":{"text":"রাসূল","language_name":"bengali","language_id":20},"transliteration":{"text":"rasūlin","language_name":"english","language_id":38}},{"id":33198,"position":8,"audio_url":"wbw/036_030_009.mp3","char_type_name":"word","page_number":442,"line_number":3,"text":"إِلَّا","translation":{"text":"এ ব্যতীত যে","language_name":"bengali","language_id":20},"transliteration":{"text":"illā","language_name":"english","language_id":38}},{"id":33199,"position":9,"audio_url":"wbw/036_030_010.mp3","char_type_name":"word","page_number":442,"line_number":3,"text":"كَانُوا۟","translation":{"text":"তারা ছিলো","language_name":"bengali","language_id":20},"transliteration":{"text":"kānū","language_name":"english","language_id":38}},{"id":33200,"position":10,"audio_url":"wbw/036_030_011.mp3","char_type_name":"word","page_number":442,"line_number":3,"text":"بِهِۦ","translation":{"text":"তাঁর সাথে","language_name":"bengali","language_id":20},"transliteration":{"text":"bihi","language_name":"english","language_id":38}},{"id":33201,"position":11,"audio_url":"wbw/036_030_012.mp3","char_type_name":"word","page_number":442,"line_number":4,"text":"يَسْتَهْزِءُونَ","translation":{"text":"ঠাট্টা বিদ্রূপ করতো","language_name":"bengali","language_id":20},"transliteration":{"text":"yastahziūna","language_name":"english","language_id":38}},{"id":33202,"position":12,"audio_url":null,"char_type_name":"end","page_number":442,"line_number":4,"text":"٣٠","translation":{"text":"(৩০)","language_name":"bengali","language_id":20},"transliteration":{"text":null,"language_name":"english","language_id":38}}]}],"pagination":{"per_page":10,"current_page":3,"next_page":4,"total_pages":9,"total_records":83}}
