{"verses":[{"id":3766,"verse_number":61,"verse_key":"36:61","hizb_number":45,"rub_el_hizb_number":178,"ruku_number":386,"manzil_number":5,"sajdah_number":null,"page_number":444,"juz_number":23,"words":[{"id":55338,"position":1,"audio_url":"wbw/036_061_001.mp3","char_type_name":"word","page_number":444,"line_number":5,"text":"وَأَنِ","translation":{"text":"এবং (এও) যে","language_name":"bengali","language_id":20},"transliteration":{"text":"wa-ani","language_name":"english","language_id":38}},{"id":55339,"position":2,"audio_url":"wbw/036_061_002.mp3","char_type_name":"word","page_number":444,"line_number":6,"text":"ٱعْبُدُونِى ۚ","translation":{"text":"আমারই তোমরা ইবাদত করো","language_name":"bengali","language_id":20},"transliteration":{"text":"uʿ'budūnī","language_name":"english","language_id":38}},{"id":55341,"position":3,"audio_url":"wbw/036_061_004.mp3","char_type_name":"word","page_number":444,"line_number":6,"text":"هَـٰذَا","translation":{"text":"এটাই","language_name":"bengali","language_id":20},"transliteration":{"text":"hādhā","language_name":"english","language_id":38}},{"id":55342,"position":4,"audio_url":"wbw/036_061_005.mp3","char_type_name":"word","page_number":444,"line_number":6,"text":"صِرَٰطٌۭ","translation":{"text":"পথ","language_name":"bengali","language_id":20},"transliteration":{"text":"ṣirāṭun","language_name":"english","language_id":38}},{"id":55343,"position":5,"audio_url":"wbw/036_061_006.mp3","char_type_name":"word","page_number":444,"line_number":6,"text":"مُّسْتَقِيمٌۭ","translation":{"text":"সরল সঠিক","language_name":"bengali","language_id":20},"transliteration":{"text":"mus'taqīmun","language_name":"english","language_id":38}},{"id":55344,"position":6,"audio_url":null,"char_type_name":"end","page_number":444,"line_number":6,"text":"٦١","translation":{"text":"(৬১)","language_name":"bengali","language_id":20},"transliteration":{"text":null,"language_name":"english","language_id":38}}]},{"id":3767,"verse_number":62,"verse_key":"36:62","hizb_number":45,"rub_el_hizb_number":178,"ruku_number":386,"manzil_number":5,"sajdah_number":null,"page_number":444,"juz_number":23,"words":[{"id":55858,"position":1,"audio_url":"wbw/036_062_001.mp3","char_type_name":"word","page_number":444,"line_number":6,"text":"وَلَقَدْ","translation":{"text":"এবং (এ সত্ত্বেও) নিশ্চয়ই","language_name":"bengali","language_id":20},"transliteration":{"text":"walaqad","language_name":"english","language_id":38}},{"id":55859,"position":2,"audio_url":"wbw/036_062_002.mp3","char_type_name":"word","page_number":444,"line_number":6,"text":"أَضَلَّ","translation":{"text":"সে পথ ভ্রষ্ট করেছে","language_name":"bengali","language_id":20},"transliteration":{"text":"aḍalla","language_name":"english","language_id":38}},{"id":55860,"position":3,"audio_url":"wbw/036_062_003.mp3","char_type_name":"word","page_number":444,"line_number":6,"text":"مِنكُمْ","translation":{"text":"তোমাদের মধ্য হ'তে","language_name":"bengali","language_id":20},"transliteration":{"text":"minkum","language_name":"english","language_id":38}},{"id":55861,"position":4,"audio_url":"wbw/036_062_004.mp3","char_type_name":"word","page_number":444,"line_number":7,"text":"جِبِلًّۭا","translation":{"text":"বড় দলকে","language_name":"bengali","language_id":20},"transliteration":{"text":"jibillan","language_name":"english","language_id":38}},{"id":55862,"position":5,"audio_url":"wbw/036_062_005.mp3","char_type_name":"word","page_number":444,"line_number":7,"text":"كَثِيرًا ۖ","translation":{"text":"অনেক","language_name":"bengali","language_id":20},"transliteration":{"text":"kathīran","language_name":"english","language_id":38}},{"id":55864,"position":6,"audio_url":"wbw/036_062_007.mp3","char_type_name":"word","page_number":444,"line_number":7,"text":"أَفَلَمْ","translation":{"text":"তবুও কি না","language_name":"bengali","language_id":20},"transliteration":{"text":"afalam","language_name":"english","language_id":38}},{"id":55865,"position":7,"audio_url":"wbw/036_062_008.mp3","char_type_name":"word","page_number":444,"line_number":7,"text":"تَكُونُوا۟","translation":{"text":"হবে","language_name":"bengali","language_id":20},"transliteration":{"text":"takūnū","language_name":"english","language_id":38}},{"id":55866,"position":8,"audio_url":"wbw/036_062_009.mp3","char_type_name":"word","page_number":444,"line_number":7,"text":"تَعْقِلُونَ","translation":{"text":"তোমরা বুঝতে","language_name":"bengali","language_id":20},"transliteration":{"text":"taʿqilūna","language_name":"english","language_id":38}},{"id":55867,"position":9,"audio_url":null,"char_type_name":"end","page_number":444,"line_number":7,"text":"٦٢","translation":{"text":"(৬২)","language_name":"bengali","language_id":20},"transliteration":{"text":null,"language_name":"english","language_id":38}}]},{"id":3768,"verse_number":63,"verse_key":"36:63","hizb_number":45,"rub_el_hizb_number":178,"ruku_number":386,"manzil_number":5,"sajdah_number":null,"page_number":444,"juz_number":23,"words":[{"id":56417,"position":1,"audio_url":"wbw/036_063_001.mp3","char_type_name":"word","page_number":444,"line_number":7,"text":"هَـٰذِهِۦ","translation":{"text":"এই সেই","language_name":"bengali","language_id":20},"transliteration":{"text":"hādhihi","language_name":"english","language_id":38}},{"id":56418,"position":2,"audio_url":"wbw/036_063_002.mp3","char_type_name":"word","page_number":444,"line_number":7,"text":"جَهَنَّمُ","translation":{"text":"জাহান্নাম","language_name":"bengali","language_id":20},"transliteration":{"text":"jahannamu","language_name":"english","language_id":38}},{"id":56419,"position":3,"audio_url":"wbw/036_063_003.mp3","char_type_name":"word","page_number":444,"line_number":7,"text":"ٱلَّتِى","translation":{"text":"যার","language_name":"bengali","language_id":20},"transliteration":{"text":"allatī","language_name":"english","language_id":38}},{"id":56420,"position":4,"audio_url":"wbw/036_063_004.mp3","char_type_name":"word","page_number":444,"line_number":8,"text":"كُنتُمْ","translation":{"text":"তোমাদের","language_name":"bengali","language_id":20},"transliteration":{"text":"kuntum","language_name":"english","language_id":38}},{"id":56421,"position":5,"audio_url":"wbw/036_063_005.mp3","char_type_name":"word","page_number":444,"line_number":8,"text":"تُوعَدُونَ","translation":{"text":"প্রতিশ্রুতি দেয়া হয়েছিলো","language_name":"bengali","language_id":20},"transliteration":{"text":"tūʿadūna","language_name":"english","language_id":38}},{"id":56422,"position":6,"audio_url":null,"char_type_name":"end","page_number":444,"line_number":8,"text":"٦٣","translation":{"text":"(৬৩)","language_name":"bengali","language_id":20},"transliteration":{"text":null,"language_name":"english","language_id":38}}]},{"id":3769,"verse_number":64,"verse_key":"36:64","hizb_number":45,"rub_el_hizb_number":178,"ruku_number":386,"manzil_number":5,"sajdah_number":null,"page_number":444,"juz_number":23,"words":[{"id":56645,"position":1,"audio_url":"wbw/036_064_001.mp3","char_type_name":"word","page_number":444,"line_number":8,"text":"ٱصْلَوْهَا","translation":{"text":"তাতে তোমরা প্রবেশ করো","language_name":"bengali","language_id":20},"transliteration":{"text":"iṣ'lawhā","language_name":"english","language_id":38}},{"id":56646,"position":2,"audio_url":"wbw/036_064_002.mp3","char_type_name":"word","page_number":444,"line_number":8,"text":"ٱلْيَوْمَ","translation":{"text":"আজ","language_name":"bengali","language_id":20},"transliteration":{"text":"l-yawma","language_name":"english","language_id":38}},{"id":56647,"position":3,"audio_url":"wbw/036_064_003.mp3","char_type_name":"word","page_number":444,"line_number":8,"text":"بِمَا","translation":{"text":"বিনিময়ে যা","language_name":"bengali","language_id":20},"transliteration":{"text":"bimā","language_name":"english","language_id":38}},{"id":56648,"position":4,"audio_url":"wbw/036_064_004.mp3","char_type_name":"word","page_number":444,"line_number":8,"text":"كُنتُمْ","translation":{"text":"তোমরা","language_name":"bengali","language_id":20},"transliteration":{"text":"kuntum","language_name":"english","language_id":38}},{"id":56649,"position":5,"audio_url":"wbw/036_064_005.mp3","char_type_name":"word","page_number":444,"line_number":8,"text":"تَكْفُرُونَ","translation":{"text":"অস্বীকার করছিলে\"","language_name":"bengali","language_id":20},"transliteration":{"text":"takfurūna","language_name":"english","language_id":38}},{"id":56650,"position":6,"audio_url":null,"char_type_name":"end","page_number":444,"line_number":8,"text":"٦٤","translation":{"text":"(৬৪)","language_name":"bengali","language_id":20},"transliteration":{"text":null,"language_name":"english","language_id":38}}]},{"id":3770,"verse_number":65,"verse_key":"36:65","hizb_number":45,"rub_el_hizb_number":178,"ruku_number":386,"manzil_number":5,"sajdah_number":null,"page_number":444,"juz_number":23,"words":[{"id":57166,"position":1,"audio_url":"wbw/036_065_001.mp3","char_type_name":"word","page_number":444,"line_number":9,"text":"ٱلْيَوْمَ","translation":{"text":"আজ","language_name":"bengali","language_id":20},"transliteration":{"text":"al-yawma","language_name":"english","language_id":38}},{"id":57167,"position":2,"audio_url":"wbw/036_065_002.mp3","char_type_name":"word","page_number":444,"line_number":9,"text":"نَخْتِمُ","translation":{"text":"সীল করে দিবো আমরা","language_name":"bengali","language_id":20},"transliteration":{"text":"nakhtimu","language_name":"english","language_id":38}},{"id":57168,"position":3,"audio_url":"wbw/036_065_003.mp3","char_type_name":"word","page_number":444,"line_number":9,"text":"عَلَىٰٓ","translation":{"text":"উপর","language_name":"bengali","language_id":20},"transliteration":{"text":"ʿalā","language_name":"english","language_id":38}},{"id":57169,"position":4,"audio_url":"wbw/036_065_004.mp3","char_type_name":"word","page_number":444,"line_number":9,"text":"أَفْوَٰهِهِمْ","translation":{"text":"তাদের মুখগুলোর","language_name":"bengali","language_id":20},"transliteration":{"text":"afwāhihim","language_name":"english","language_id":38}},{"id":57170,"position":5,"audio_url":"wbw/036_065_005.mp3","char_type_name":"word","page_number":444,"line_number":9,"text":"وَتُكَلِّمُنَآ","translation":{"text":"এবং আমাদের সাথে কথা বলবে","language_name":"bengali","language_id":20},"transliteration":{"text":"watukallimunā","language_name":"english","language_id":38}},{"id":57171,"position":6,"audio_url":"wbw/036_065_006.mp3","char_type_name":"word","page_number":444,"line_number":9,"text":"أَيْدِيهِمْ","translation":{"text":"তাদের হাতগুলো","language_name":"bengali","language_id":20},"transliteration":{"text":"aydīhim","language_name":"english","language_id":38}},{"id":57172,"position":7,"audio_url":"wbw/036_065_007.mp3","char_type_name":"word","page_number":444,"line_number":9,"text":"وَتَشْهَدُ","translation":{"text":"এবং সাক্ষ্য দিবে","language_name":"bengali","language_id":20},"transliteration":{"text":"watashhadu","language_name":"english","language_id":38}},{"id":57173,"position":8,"audio_url":"wbw/036_065_008.mp3","char_type_name":"word","page_number":444,"line_number":9,"text":"أَرْجُلُهُم","translation":{"text":"তাদের পাগুলো","language_name":"bengali","language_id":20},"transliteration":{"text":"arjuluhum","language_name":"english","language_id":38}},{"id":57174,"position":9,"audio_url":"wbw/036_065_009.mp3","char_type_name":"word","page_number":444,"line_number":10,"text":"بِمَا","translation":{"text":"ঐ বিষয়ে যা","language_name":"bengali","language_id":20},"transliteration":{"text":"bimā","language_name":"english","language_id":38}},{"id":57175,"position":10,"audio_url":"wbw/036_065_010.mp3","char_type_name":"word","page_number":444,"line_number":10,"text":"كَانُوا۟","translation":{"text":"করেছিলো","language_name":"bengali","language_id":20},"transliteration":{"text":"kānū","language_name":"english","language_id":38}},{"id":57176,"position":11,"audio_url":"wbw/036_065_011.mp3","char_type_name":"word","page_number":444,"line_number":10,"text":"يَكْسِبُونَ","translation":{"text":"তারা কামাই","language_name":"bengali","language_id":20},"transliteration":{"text":"yaksibūna","language_name":"english","language_id":38}},{"id":57177,"position":12,"audio_url":null,"char_type_name":"end","page_number":444,"line_number":10,"text":"٦٥","translation":{"text":"(৬৫)","language_name":"bengali","language_id":20},"transliteration":{"text":null,"language_name":"english","language_id":38}}]},{"id":3771,"verse_number":66,"verse_key":"36:66","hizb_number":45,"rub_el_hizb_number":178,"ruku_number":386,"manzil_number":5,"sajdah_number":null,"page_number":444,"juz_number":23,"words":[{"id":57692,"position":1,"audio_url":"wbw/036_066_001.mp3","char_type_name":"word","page_number":444,"line_number":10,"text":"وَلَوْ","translation":{"text":"এবং যদি","language_name":"bengali","language_id":20},"transliteration":{"text":"walaw","language_name":"english","language_id":38}},{"id":57693,"position":2,"audio_url":"wbw/036_066_002.mp3","char_type_name":"word","page_number":444,"line_number":10,"text":"نَشَآءُ","translation":{"text":"চাই আমরা","language_name":"bengali","language_id":20},"transliteration":{"text":"nashāu","language_name":"english","language_id":38}},{"id":57694,"position":3,"audio_url":"wbw/036_066_003.mp3","char_type_name":"word","page_number":444,"line_number":10,"text":"لَطَمَسْنَا","translation":{"text":"দিতে পারি অবশ্যই","language_name":"bengali","language_id":20},"transliteration":{"text":"laṭamasnā","language_name":"english","language_id":38}},{"id":57695,"position":4,"audio_url":"wbw/036_066_004.mp3","char_type_name":"word","page_number":444,"line_number":10,"text":"عَلَىٰٓ","translation":{"text":"আমরা আলো নিভিয়ে","language_name":"bengali","language_id":20},"transliteration":{"text":"ʿalā","language_name":"english","language_id":38}},{"id":57696,"position":5,"audio_url":"wbw/036_066_005.mp3","char_type_name":"word","page_number":444,"line_number":10,"text":"أَعْيُنِهِمْ","translation":{"text":"তাদের চোখের","language_name":"bengali","language_id":20},"transliteration":{"text":"aʿyunihim","language_name":"english","language_id":38}},{"id":57697,"position":6,"audio_url":"wbw/036_066_006.mp3","char_type_name":"word","page_number":444,"line_number":11,"text":"فَٱسْتَبَقُوا۟","translation":{"text":"তারা অতঃপর চলতে চাইতো","language_name":"bengali","language_id":20},"transliteration":{"text":"fa-is'tabaqū","language_name":"english","language_id":38}},{"id":57698,"position":7,"audio_url":"wbw/036_066_007.mp3","char_type_name":"word","page_number":444,"line_number":11,"text":"ٱلصِّرَٰطَ","translation":{"text":"পথে","language_name":"bengali","language_id":20},"transliteration":{"text":"l-ṣirāṭa","language_name":"english","language_id":38}},{"id":57699,"position":8,"audio_url":"wbw/036_066_008.mp3","char_type_name":"word","page_number":444,"line_number":11,"text":"فَأَنَّىٰ","translation":{"text":"তখন কেমন করে","language_name":"bengali","language_id":20},"transliteration":{"text":"fa-annā","language_name":"english","language_id":38}},{"id":57700,"position":9,"audio_url":"wbw/036_066_009.mp3","char_type_name":"word","page_number":444,"line_number":11,"text":"يُبْصِرُونَ","translation":{"text":"তারা দেখতে পাবে","language_name":"bengali","language_id":20},"transliteration":{"text":"yub'ṣirūna","language_name":"english","language_id":38}},{"id":57701,"position":10,"audio_url":null,"char_type_name":"end","page_number":444,"line_number":11,"text":"٦٦","translation":{"text":"(৬৬)","language_name":"bengali","language_id":20},"transliteration":{"text":null,"language_name":"english","language_id":38}}]},{"id":3772,"verse_number":67,"verse_key":"36:67","hizb_number":45,"rub_el_hizb_number":178,"ruku_number":386,"manzil_number":5,"sajdah_number":null,"page_number":444,"juz_number":23,"words":[{"id":58055,"position":1,"audio_url":"wbw/036_067_001.mp3","char_type_name":"word","page_number":444,"line_number":11,"text":"وَلَوْ","translation":{"text":"এবং যদি","language_name":"bengali","language_id":20},"transliteration":{"text":"walaw","language_name":"english","language_id":38}},{"id":58056,"position":2,"audio_url":"wbw/036_067_002.mp3","char_type_name":"word","page_number":444,"line_number":11,"text":"نَشَآءُ","translation":{"text":"চাই আমরা","language_name":"bengali","language_id":20},"transliteration":{"text":"nashāu","language_name":"english","language_id":38}},{"id":58057,"position":3,"audio_url":"wbw/036_067_003.mp3","char_type_name":"word","page_number":444,"line_number":11,"text":"لَمَسَخْنَـٰهُمْ","translation":{"text":"তাদেরকে আমরা অবশ্যই বিকৃত করে দিতে পারি","language_name":"bengali","language_id":20},"transliteration":{"text":"lamasakhnāhum","language_name":"english","language_id":38}},{"id":58058,"position":4,"audio_url":"wbw/036_067_004.mp3","char_type_name":"word","page_number":444,"line_number":12,"text":"عَلَىٰ","translation":{"text":"উপর","language_name":"bengali","language_id":20},"transliteration":{"text":"ʿalā","language_name":"english","language_id":38}},{"id":58059,"position":5,"audio_url":"wbw/036_067_005.mp3","char_type_name":"word","page_number":444,"line_number":12,"text":"مَكَانَتِهِمْ","translation":{"text":"তাদের (নিজ নিজ) অবস্থানেই","language_name":"bengali","language_id":20},"transliteration":{"text":"makānatihim","language_name":"english","language_id":38}},{"id":58060,"position":6,"audio_url":"wbw/036_067_006.mp3","char_type_name":"word","page_number":444,"line_number":12,"text":"فَمَا","translation":{"text":"অতঃপর না","language_name":"bengali","language_id":20},"transliteration":{"text":"famā","language_name":"english","language_id":38}},{"id":58061,"position":7,"audio_url":"wbw/036_067_007.mp3","char_type_name":"word","page_number":444,"line_number":12,"text":"ٱسْتَطَـٰعُوا۟","translation":{"text":"তারা সমর্থ হবে","language_name":"bengali","language_id":20},"transliteration":{"text":"is'taṭāʿū","language_name":"english","language_id":38}},{"id":58062,"position":8,"audio_url":"wbw/036_067_008.mp3","char_type_name":"word","page_number":444,"line_number":12,"text":"مُضِيًّۭا","translation":{"text":"আগে যেতে","language_name":"bengali","language_id":20},"transliteration":{"text":"muḍiyyan","language_name":"english","language_id":38}},{"id":58063,"position":9,"audio_url":"wbw/036_067_009.mp3","char_type_name":"word","page_number":444,"line_number":12,"text":"وَلَا","translation":{"text":"আর না","language_name":"bengali","language_id":20},"transliteration":{"text":"walā","language_name":"english","language_id":38}},{"id":58064,"position":10,"audio_url":"wbw/036_067_010.mp3","char_type_name":"word","page_number":444,"line_number":12,"text":"يَرْجِعُونَ","translation":{"text":"পিছনে ফিরতে","language_name":"bengali","language_id":20},"transliteration":{"text":"yarjiʿūna","language_name":"english","language_id":38}},{"id":58065,"position":11,"audio_url":null,"char_type_name":"end","page_number":444,"line_number":13,"text":"٦٧","translation":{"text":"(৬৭)","language_name":"bengali","language_id":20},"transliteration":{"text":null,"language_name":"english","language_id":38}}]},{"id":3773,"verse_number":68,"verse_key":"36:68","hizb_number":45,"rub_el_hizb_number":178,"ruku_number":387,"manzil_number":5,"sajdah_number":null,"page_number":444,"juz_number":23,"words":[{"id":58816,"position":1,"audio_url":"wbw/036_068_001.mp3","char_type_name":"word","page_number":444,"line_number":13,"text":"وَمَن","translation":{"text":"এবং কোনো ব্যক্তি","language_name":"bengali","language_id":20},"transliteration":{"text":"waman","language_name":"english","language_id":38}},{"id":58817,"position":2,"audio_url":"wbw/036_068_002.mp3","char_type_name":"word","page_number":444,"line_number":13,"text":"نُّعَمِّرْهُ","translation":{"text":"যাকে দীর্ঘায়ু দিই আমরা","language_name":"bengali","language_id":20},"transliteration":{"text":"nuʿammir'hu","language_name":"english","language_id":38}},{"id":58818,"position":3,"audio_url":"wbw/036_068_003.mp3","char_type_name":"word","page_number":444,"line_number":13,"text":"نُنَكِّسْهُ","translation":{"text":"উল্টিয়ে দিই আমরা তার","language_name":"bengali","language_id":20},"transliteration":{"text":"nunakkis'hu","language_name":"english","language_id":38}},{"id":58819,"position":4,"audio_url":"wbw/036_068_004.mp3","char_type_name":"word","page_number":444,"line_number":13,"text":"فِى","translation":{"text":"মধ্যে","language_name":"bengali","language_id":20},"transliteration":{"text":"fī","language_name":"english","language_id":38}},{"id":58820,"position":5,"audio_url":"wbw/036_068_005.mp3","char_type_name":"word","page_number":444,"line_number":13,"text":"ٱلْخَلْقِ ۖ","translation":{"text":"আকৃতি-প্রকৃতির (বুদ্ধি ও যোগ্যতার)","language_name":"bengali","language_id":20},"transliteration":{"text":"l-khalqi","language_name":"english","language_id":38}},{"id":58822,"position":6,"audio_url":"wbw/036_068_007.mp3","char_type_name":"word","page_number":444,"line_number":13,"text":"أَفَلَا","translation":{"text":"তবুও কি না","language_name":"bengali","language_id":20},"transliteration":{"text":"afalā","language_name":"english","language_id":38}},{"id":58823,"position":7,"audio_url":"wbw/036_068_008.mp3","char_type_name":"word","page_number":444,"line_number":13,"text":"يَعْقِلُونَ","translation":{"text":"তারা জ্ঞানবুদ্ধি কাজে লাগায়","language_name":"bengali","language_id":20},"transliteration":{"text":"yaʿqilūna","language_name":"english","language_id":38}},{"id":58824,"position":8,"audio_url":null,"char_type_name":"end","page_number":444,"line_number":13,"text":"٦٨","translation":{"text":"(৬৮)","language_name":"bengali","language_id":20},"transliteration":{"text":null,"language_name":"english","language_id":38}}]},{"id":3774,"verse_number":69,"verse_key":"36:69","hizb_number":45,"rub_el_hizb_number":178,"ruku_number":387,"manzil_number":5,"sajdah_number":null,"page_number":444,"juz_number":23,"words":[{"id":59315,"position":1,"audio_url":"wbw/036_069_001.mp3","char_type_name":"word","page_number":444,"line_number":14,"text":"وَمَا","translation":{"text":"এবং না","language_name":"bengali","language_id":20},"transliteration":{"text":"wamā","language_name":"english","language_id":38}},{"id":59316,"position":2,"audio_url":"wbw/036_069_002.mp3","char_type_name":"word","page_number":444,"line_number":14,"text":"عَلَّمْنَـٰهُ","translation":{"text":"তাকে আমরা শিখিয়েছি","language_name":"bengali","language_id":20},"transliteration":{"text":"ʿallamnāhu","language_name":"english","language_id":38}},{"id":59317,"position":3,"audio_url":"wbw/036_069_003.mp3","char_type_name":"word","page_number":444,"line_number":14,"text":"ٱلشِّعْرَ","translation":{"text":"কবিতা","language_name":"bengali","language_id":20},"transliteration":{"text":"l-shiʿ'ra","language_name":"english","language_id":38}},{"id":59318,"position":4,"audio_url":"wbw/036_069_004.mp3","char_type_name":"word","page_number":444,"line_number":14,"text":"وَمَا","translation":{"text":"আর না","language_name":"bengali","language_id":20},"transliteration":{"text":"wamā","language_name":"english","language_id":38}},{"id":59319,"position":5,"audio_url":"wbw/036_069_005.mp3","char_type_name":"word","page_number":444,"line_number":14,"text":"يَنۢبَغِى","translation":{"text":"শোভা পায় (এটা)","language_name":"bengali","language_id":20},"transliteration":{"text":"yanbaghī","language_name":"english","language_id":38}},{"id":59320,"position":6,"audio_url":"wbw/036_069_006.mp3","char_type_name":"word","page_number":444,"line_number":14,"text":"لَهُۥٓ ۚ","translation":{"text":"তার জন্যে","language_name":"bengali","language_id":20},"transliteration":{"text":"lahu","language_name":"english","language_id":38}},{"id":59322,"position":7,"audio_url":"wbw/036_069_008.mp3","char_type_name":"word","page_number":444,"line_number":14,"text":"إِنْ","translation":{"text":"না","language_name":"bengali","language_id":20},"transliteration":{"text":"in","language_name":"english","language_id":38}},{"id":59323,"position":8,"audio_url":"wbw/036_069_009.mp3","char_type_name":"word","page_number":444,"line_number":14,"text":"هُوَ","translation":{"text":"তা","language_name":"bengali","language_id":20},"transliteration":{"text":"huwa","language_name":"english","language_id":38}},{"id":59324,"position":9,"audio_url":"wbw/036_069_010.mp3","char_type_name":"word","page_number":444,"line_number":14,"text":"إِلَّا","translation":{"text":"এছাড়া","language_name":"bengali","language_id":20},"transliteration":{"text":"illā","language_name":"english","language_id":38}},{"id":59325,"position":10,"audio_url":"wbw/036_069_011.mp3","char_type_name":"word","page_number":444,"line_number":14,"text":"ذِكْرٌۭ","translation":{"text":"উপদেশ","language_name":"bengali","language_id":20},"transliteration":{"text":"dhik'run","language_name":"english","language_id":38}},{"id":59326,"position":11,"audio_url":"wbw/036_069_012.mp3","char_type_name":"word","page_number":444,"line_number":14,"text":"وَقُرْءَانٌۭ","translation":{"text":"ও (পাঠযোগ্য কিতাব) কোরআন","language_name":"bengali","language_id":20},"transliteration":{"text":"waqur'ānun","language_name":"english","language_id":38}},{"id":59327,"position":12,"audio_url":"wbw/036_069_013.mp3","char_type_name":"word","page_number":444,"line_number":14,"text":"مُّبِينٌۭ","translation":{"text":"সুস্পষ্ট","language_name":"bengali","language_id":20},"transliteration":{"text":"mubīnun","language_name":"english","language_id":38}},{"id":59328,"position":13,"audio_url":null,"char_type_name":"end","page_number":444,"line_number":15,"text":"٦٩","translation":{"text":"(৬৯)","language_name":"bengali","language_id":20},"transliteration":{"text":null,"language_name":"english","language_id":38}}]},{"id":3775,"verse_number":70,"verse_key":"36:70","hizb_number":45,"rub_el_hizb_number":178,"ruku_number":387,"manzil_number":5,"sajdah_number":null,"page_number":444,"juz_number":23,"words":[{"id":59753,"position":1,"audio_url":"wbw/036_070_001.mp3","char_type_name":"word","page_number":444,"line_number":15,"text":"لِّيُنذِرَ","translation":{"text":"সতর্ক করে যেন","language_name":"bengali","language_id":20},"transliteration":{"text":"liyundhira","language_name":"english","language_id":38}},{"id":59754,"position":2,"audio_url":"wbw/036_070_002.mp3","char_type_name":"word","page_number":444,"line_number":15,"text":"مَن","translation":{"text":"(এমন প্রত্যেককে) যে","language_name":"bengali","language_id":20},"transliteration":{"text":"man","language_name":"english","language_id":38}},{"id":59755,"position":3,"audio_url":"wbw/036_070_003.mp3","char_type_name":"word","page_number":444,"line_number":15,"text":"كَانَ","translation":{"text":"হলো","language_name":"bengali","language_id":20},"transliteration":{"text":"kāna","language_name":"english","language_id":38}},{"id":59756,"position":4,"audio_url":"wbw/036_070_004.mp3","char_type_name":"word","page_number":444,"line_number":15,"text":"حَيًّۭا","translation":{"text":"জীবিত","language_name":"bengali","language_id":20},"transliteration":{"text":"ḥayyan","language_name":"english","language_id":38}},{"id":59757,"position":5,"audio_url":"wbw/036_070_005.mp3","char_type_name":"word","page_number":444,"line_number":15,"text":"وَيَحِقَّ","translation":{"text":"এবং প্রতিষ্ঠিত হতে পারে (যেন)","language_name":"bengali","language_id":20},"transliteration":{"text":"wayaḥiqqa","language_name":"english","language_id":38}},{"id":59758,"position":6,"audio_url":"wbw/036_070_006.mp3","char_type_name":"word","page_number":444,"line_number":15,"text":"ٱلْقَوْلُ","translation":{"text":"(শাস্তির) বাণী","language_name":"bengali","language_id":20},"transliteration":{"text":"l-qawlu","language_name":"english","language_id":38}},{"id":59759,"position":7,"audio_url":"wbw/036_070_007.mp3","char_type_name":"word","page_number":444,"line_number":15,"text":"عَلَى","translation":{"text":"বিরুদ্ধে","language_name":"bengali","language_id":20},"transliteration":{"text":"ʿalā","language_name":"english","language_id":38}},{"id":59760,"position":8,"audio_url":"wbw/036_070_008.mp3","char_type_name":"word","page_number":444,"line_number":15,"text":"ٱلْكَـٰفِرِينَ","translation":{"text":"কাফিরদের","language_name":"bengali","language_id":20},"transliteration":{"text":"l-kāfirīna","language_name":"english","language_id":38}},{"id":59761,"position":9,"audio_url":null,"char_type_name":"end","page_number":444,"line_number":15,"text":"٧٠","translation":{"text":"(৭০)","language_name":"bengali","language_id":20},"transliteration":{"text":null,"language_name":"english","language_id":38}}]}],"pagination":{"per_page":10,"current_page":7,"next_page":8,"total_pages":9,"total_records":83}}
