{"verses":[{"id":3786,"verse_number":81,"verse_key":"36:81","hizb_number":45,"rub_el_hizb_number":178,"ruku_number":387,"manzil_number":5,"sajdah_number":null,"page_number":445,"juz_number":23,"words":[{"id":64623,"position":1,"audio_url":"wbw/036_081_001.mp3","char_type_name":"word","page_number":445,"line_number":11,"text":"أَوَلَيْسَ","translation":{"text":"নন কি (সেই আল্লাহ)","language_name":"bengali","language_id":20},"transliteration":{"text":"awalaysa","language_name":"english","language_id":38}},{"id":64624,"position":2,"audio_url":"wbw/036_081_002.mp3","char_type_name":"word","page_number":445,"line_number":11,"text":"ٱلَّذِى","translation":{"text":"যিনি","language_name":"bengali","language_id":20},"transliteration":{"text":"alladhī","language_name":"english","language_id":38}},{"id":64625,"position":3,"audio_url":"wbw/036_081_003.mp3","char_type_name":"word","page_number":445,"line_number":11,"text":"خَلَقَ","translation":{"text":"সৃষ্টি করেছেন","language_name":"bengali","language_id":20},"transliteration":{"text":"khalaqa","language_name":"english","language_id":38}},{"id":64626,"position":4,"audio_url":"wbw/036_081_004.mp3","char_type_name":"word","page_number":445,"line_number":11,"text":"ٱلسَّمَـٰوَٰتِ","translation":{"text":"আকাশ সমূহ","language_name":"bengali","language_id":20},"transliteration":{"text":"l-samāwāti","language_name":"english","language_id":38}},{"id":64627,"position":5,"audio_url":"wbw/036_081_005.mp3","char_type_name":"word","page_number":445,"line_number":11,"text":"وَٱلْأَرْضَ","translation":{"text":"ও পৃথিবীকে","language_name":"bengali","language_id":20},"transliteration":{"text":"wal-arḍa","language_name":"english","language_id":38}},{"id":64628,"position":6,"audio_url":"wbw/036_081_006.mp3","char_type_name":"word","page_number":445,"line_number":12,"text":"بِقَـٰدِرٍ","translation":{"text":"সক্ষম","language_name":"bengali","language_id":20},"transliteration":{"text":"biqādirin","language_name":"english","language_id":38}},{"id":64629,"position":7,"audio_url":"wbw/036_081_007.mp3","char_type_name":"word","page_number":445,"line_number":12,"text":"عَلَىٰٓ","translation":{"text":"এক্ষেত্রে","language_name":"bengali","language_id":20},"transliteration":{"text":"ʿalā","language_name":"english","language_id":38}},{"id":64630,"position":8,"audio_url":"wbw/036_081_008.mp3","char_type_name":"word","page_number":445,"line_number":12,"text":"أَن","translation":{"text":"যে","language_name":"bengali","language_id":20},"transliteration":{"text":"an","language_name":"english","language_id":38}},{"id":64631,"position":9,"audio_url":"wbw/036_081_009.mp3","char_type_name":"word","page_number":445,"line_number":12,"text":"يَخْلُقَ","translation":{"text":"সৃষ্টি করবেন","language_name":"bengali","language_id":20},"transliteration":{"text":"yakhluqa","language_name":"english","language_id":38}},{"id":64632,"position":10,"audio_url":"wbw/036_081_010.mp3","char_type_name":"word","page_number":445,"line_number":12,"text":"مِثْلَهُم ۚ","translation":{"text":"তাদের মতো","language_name":"bengali","language_id":20},"transliteration":{"text":"mith'lahum","language_name":"english","language_id":38}},{"id":64634,"position":11,"audio_url":"wbw/036_081_012.mp3","char_type_name":"word","page_number":445,"line_number":12,"text":"بَلَىٰ","translation":{"text":"হ্যাঁ নিশ্চয়ই","language_name":"bengali","language_id":20},"transliteration":{"text":"balā","language_name":"english","language_id":38}},{"id":64635,"position":12,"audio_url":"wbw/036_081_013.mp3","char_type_name":"word","page_number":445,"line_number":12,"text":"وَهُوَ","translation":{"text":"এবং তিনিই","language_name":"bengali","language_id":20},"transliteration":{"text":"wahuwa","language_name":"english","language_id":38}},{"id":64636,"position":13,"audio_url":"wbw/036_081_014.mp3","char_type_name":"word","page_number":445,"line_number":12,"text":"ٱلْخَلَّـٰقُ","translation":{"text":"মহাস্রষ্টা","language_name":"bengali","language_id":20},"transliteration":{"text":"l-khalāqu","language_name":"english","language_id":38}},{"id":64637,"position":14,"audio_url":"wbw/036_081_015.mp3","char_type_name":"word","page_number":445,"line_number":12,"text":"ٱلْعَلِيمُ","translation":{"text":"সর্বজ্ঞ","language_name":"bengali","language_id":20},"transliteration":{"text":"l-ʿalīmu","language_name":"english","language_id":38}},{"id":64638,"position":15,"audio_url":null,"char_type_name":"end","page_number":445,"line_number":12,"text":"٨١","translation":{"text":"(৮১)","language_name":"bengali","language_id":20},"transliteration":{"text":null,"language_name":"english","language_id":38}}]},{"id":3787,"verse_number":82,"verse_key":"36:82","hizb_number":45,"rub_el_hizb_number":178,"ruku_number":387,"manzil_number":5,"sajdah_number":null,"page_number":445,"juz_number":23,"words":[{"id":65041,"position":1,"audio_url":"wbw/036_082_001.mp3","char_type_name":"word","page_number":445,"line_number":13,"text":"إِنَّمَآ","translation":{"text":"কেবল","language_name":"bengali","language_id":20},"transliteration":{"text":"innamā","language_name":"english","language_id":38}},{"id":65042,"position":2,"audio_url":"wbw/036_082_002.mp3","char_type_name":"word","page_number":445,"line_number":13,"text":"أَمْرُهُۥٓ","translation":{"text":"তাঁর নির্দেশ হয়","language_name":"bengali","language_id":20},"transliteration":{"text":"amruhu","language_name":"english","language_id":38}},{"id":65043,"position":3,"audio_url":"wbw/036_082_003.mp3","char_type_name":"word","page_number":445,"line_number":13,"text":"إِذَآ","translation":{"text":"যখন","language_name":"bengali","language_id":20},"transliteration":{"text":"idhā","language_name":"english","language_id":38}},{"id":65044,"position":4,"audio_url":"wbw/036_082_004.mp3","char_type_name":"word","page_number":445,"line_number":13,"text":"أَرَادَ","translation":{"text":"ইচ্ছে করেন","language_name":"bengali","language_id":20},"transliteration":{"text":"arāda","language_name":"english","language_id":38}},{"id":65045,"position":5,"audio_url":"wbw/036_082_005.mp3","char_type_name":"word","page_number":445,"line_number":13,"text":"شَيْـًٔا","translation":{"text":"কিছু (করতে)","language_name":"bengali","language_id":20},"transliteration":{"text":"shayan","language_name":"english","language_id":38}},{"id":65046,"position":6,"audio_url":"wbw/036_082_006.mp3","char_type_name":"word","page_number":445,"line_number":13,"text":"أَن","translation":{"text":"যে","language_name":"bengali","language_id":20},"transliteration":{"text":"an","language_name":"english","language_id":38}},{"id":65047,"position":7,"audio_url":"wbw/036_082_007.mp3","char_type_name":"word","page_number":445,"line_number":13,"text":"يَقُولَ","translation":{"text":"বলেন","language_name":"bengali","language_id":20},"transliteration":{"text":"yaqūla","language_name":"english","language_id":38}},{"id":65048,"position":8,"audio_url":"wbw/036_082_008.mp3","char_type_name":"word","page_number":445,"line_number":13,"text":"لَهُۥ","translation":{"text":"তাকে","language_name":"bengali","language_id":20},"transliteration":{"text":"lahu","language_name":"english","language_id":38}},{"id":65049,"position":9,"audio_url":"wbw/036_082_009.mp3","char_type_name":"word","page_number":445,"line_number":13,"text":"كُن","translation":{"text":"\"হও\"","language_name":"bengali","language_id":20},"transliteration":{"text":"kun","language_name":"english","language_id":38}},{"id":65050,"position":10,"audio_url":"wbw/036_082_010.mp3","char_type_name":"word","page_number":445,"line_number":13,"text":"فَيَكُونُ","translation":{"text":"তখনই হয়ে যায়","language_name":"bengali","language_id":20},"transliteration":{"text":"fayakūnu","language_name":"english","language_id":38}},{"id":65051,"position":11,"audio_url":null,"char_type_name":"end","page_number":445,"line_number":13,"text":"٨٢","translation":{"text":"(৮২)","language_name":"bengali","language_id":20},"transliteration":{"text":null,"language_name":"english","language_id":38}}]},{"id":3788,"verse_number":83,"verse_key":"36:83","hizb_number":45,"rub_el_hizb_number":178,"ruku_number":387,"manzil_number":5,"sajdah_number":null,"page_number":445,"juz_number":23,"words":[{"id":65312,"position":1,"audio_url":"wbw/036_083_001.mp3","char_type_name":"word","page_number":445,"line_number":14,"text":"فَسُبْحَـٰنَ","translation":{"text":"অতএব মহান পবিত্র","language_name":"bengali","language_id":20},"transliteration":{"text":"fasub'ḥāna","language_name":"english","language_id":38}},{"id":65313,"position":2,"audio_url":"wbw/036_083_002.mp3","char_type_name":"word","page_number":445,"line_number":14,"text":"ٱلَّذِى","translation":{"text":"(সেই সত্ত্বা) তিনিই","language_name":"bengali","language_id":20},"transliteration":{"text":"alladhī","language_name":"english","language_id":38}},{"id":65314,"position":3,"audio_url":"wbw/036_083_003.mp3","char_type_name":"word","page_number":445,"line_number":14,"text":"بِيَدِهِۦ","translation":{"text":"যার হাতে (আছে)","language_name":"bengali","language_id":20},"transliteration":{"text":"biyadihi","language_name":"english","language_id":38}},{"id":65315,"position":4,"audio_url":"wbw/036_083_004.mp3","char_type_name":"word","page_number":445,"line_number":14,"text":"مَلَكُوتُ","translation":{"text":"সার্বভৌম ক্ষমতা","language_name":"bengali","language_id":20},"transliteration":{"text":"malakūtu","language_name":"english","language_id":38}},{"id":65316,"position":5,"audio_url":"wbw/036_083_005.mp3","char_type_name":"word","page_number":445,"line_number":14,"text":"كُلِّ","translation":{"text":"সব","language_name":"bengali","language_id":20},"transliteration":{"text":"kulli","language_name":"english","language_id":38}},{"id":65317,"position":6,"audio_url":"wbw/036_083_006.mp3","char_type_name":"word","page_number":445,"line_number":14,"text":"شَىْءٍۢ","translation":{"text":"জিনিসের","language_name":"bengali","language_id":20},"transliteration":{"text":"shayin","language_name":"english","language_id":38}},{"id":65318,"position":7,"audio_url":"wbw/036_083_007.mp3","char_type_name":"word","page_number":445,"line_number":14,"text":"وَإِلَيْهِ","translation":{"text":"এবং তাঁরই দিকে","language_name":"bengali","language_id":20},"transliteration":{"text":"wa-ilayhi","language_name":"english","language_id":38}},{"id":65319,"position":8,"audio_url":"wbw/036_083_008.mp3","char_type_name":"word","page_number":445,"line_number":14,"text":"تُرْجَعُونَ","translation":{"text":"তোমাদেরকে ফিরিয়ে নেয়া হবে","language_name":"bengali","language_id":20},"transliteration":{"text":"tur'jaʿūna","language_name":"english","language_id":38}},{"id":65320,"position":9,"audio_url":null,"char_type_name":"end","page_number":445,"line_number":14,"text":"٨٣","translation":{"text":"(৮৩)","language_name":"bengali","language_id":20},"transliteration":{"text":null,"language_name":"english","language_id":38}}]}],"pagination":{"per_page":10,"current_page":9,"next_page":null,"total_pages":9,"total_records":83}}
