{"verses":[{"id":5859,"verse_number":11,"verse_key":"83:11","hizb_number":59,"rub_el_hizb_number":235,"ruku_number":527,"manzil_number":7,"sajdah_number":null,"page_number":588,"juz_number":30,"words":[{"id":13009,"position":1,"audio_url":"wbw/083_011_001.mp3","char_type_name":"word","page_number":588,"line_number":3,"text":"ٱلَّذِينَ","translation":{"text":"যারা","language_name":"bengali","language_id":20},"transliteration":{"text":"alladhīna","language_name":"english","language_id":38}},{"id":13010,"position":2,"audio_url":"wbw/083_011_002.mp3","char_type_name":"word","page_number":588,"line_number":3,"text":"يُكَذِّبُونَ","translation":{"text":"মিথ্যারোপ করে","language_name":"bengali","language_id":20},"transliteration":{"text":"yukadhibūna","language_name":"english","language_id":38}},{"id":13011,"position":3,"audio_url":"wbw/083_011_003.mp3","char_type_name":"word","page_number":588,"line_number":3,"text":"بِيَوْمِ","translation":{"text":"দিন সম্পর্কে","language_name":"bengali","language_id":20},"transliteration":{"text":"biyawmi","language_name":"english","language_id":38}},{"id":13012,"position":4,"audio_url":"wbw/083_011_004.mp3","char_type_name":"word","page_number":588,"line_number":3,"text":"ٱلدِّينِ","translation":{"text":"বিচারের","language_name":"bengali","language_id":20},"transliteration":{"text":"l-dīni","language_name":"english","language_id":38}},{"id":13013,"position":5,"audio_url":null,"char_type_name":"end","page_number":588,"line_number":3,"text":"١١","translation":{"text":"(১১)","language_name":"bengali","language_id":20},"transliteration":{"text":null,"language_name":"english","language_id":38}}]},{"id":5860,"verse_number":12,"verse_key":"83:12","hizb_number":59,"rub_el_hizb_number":235,"ruku_number":527,"manzil_number":7,"sajdah_number":null,"page_number":588,"juz_number":30,"words":[{"id":14271,"position":1,"audio_url":"wbw/083_012_001.mp3","char_type_name":"word","page_number":588,"line_number":3,"text":"وَمَا","translation":{"text":"এবং না","language_name":"bengali","language_id":20},"transliteration":{"text":"wamā","language_name":"english","language_id":38}},{"id":14272,"position":2,"audio_url":"wbw/083_012_002.mp3","char_type_name":"word","page_number":588,"line_number":3,"text":"يُكَذِّبُ","translation":{"text":"মিথ্যারোপ করে","language_name":"bengali","language_id":20},"transliteration":{"text":"yukadhibu","language_name":"english","language_id":38}},{"id":14273,"position":3,"audio_url":"wbw/083_012_003.mp3","char_type_name":"word","page_number":588,"line_number":4,"text":"بِهِۦٓ","translation":{"text":"এতে","language_name":"bengali","language_id":20},"transliteration":{"text":"bihi","language_name":"english","language_id":38}},{"id":14274,"position":4,"audio_url":"wbw/083_012_004.mp3","char_type_name":"word","page_number":588,"line_number":4,"text":"إِلَّا","translation":{"text":"এ ছাড়া","language_name":"bengali","language_id":20},"transliteration":{"text":"illā","language_name":"english","language_id":38}},{"id":14275,"position":5,"audio_url":"wbw/083_012_005.mp3","char_type_name":"word","page_number":588,"line_number":4,"text":"كُلُّ","translation":{"text":"প্রত্যেক","language_name":"bengali","language_id":20},"transliteration":{"text":"kullu","language_name":"english","language_id":38}},{"id":14276,"position":6,"audio_url":"wbw/083_012_006.mp3","char_type_name":"word","page_number":588,"line_number":4,"text":"مُعْتَدٍ","translation":{"text":"সীমালঙ্ঘনকারী","language_name":"bengali","language_id":20},"transliteration":{"text":"muʿ'tadin","language_name":"english","language_id":38}},{"id":14277,"position":7,"audio_url":"wbw/083_012_007.mp3","char_type_name":"word","page_number":588,"line_number":4,"text":"أَثِيمٍ","translation":{"text":"পাপী","language_name":"bengali","language_id":20},"transliteration":{"text":"athīmin","language_name":"english","language_id":38}},{"id":14278,"position":8,"audio_url":null,"char_type_name":"end","page_number":588,"line_number":4,"text":"١٢","translation":{"text":"(১২)","language_name":"bengali","language_id":20},"transliteration":{"text":null,"language_name":"english","language_id":38}}]},{"id":5861,"verse_number":13,"verse_key":"83:13","hizb_number":59,"rub_el_hizb_number":235,"ruku_number":527,"manzil_number":7,"sajdah_number":null,"page_number":588,"juz_number":30,"words":[{"id":15383,"position":1,"audio_url":"wbw/083_013_001.mp3","char_type_name":"word","page_number":588,"line_number":4,"text":"إِذَا","translation":{"text":"যখন","language_name":"bengali","language_id":20},"transliteration":{"text":"idhā","language_name":"english","language_id":38}},{"id":15384,"position":2,"audio_url":"wbw/083_013_002.mp3","char_type_name":"word","page_number":588,"line_number":4,"text":"تُتْلَىٰ","translation":{"text":"পাঠ করা হয়","language_name":"bengali","language_id":20},"transliteration":{"text":"tut'lā","language_name":"english","language_id":38}},{"id":15385,"position":3,"audio_url":"wbw/083_013_003.mp3","char_type_name":"word","page_number":588,"line_number":4,"text":"عَلَيْهِ","translation":{"text":"তার উপর","language_name":"bengali","language_id":20},"transliteration":{"text":"ʿalayhi","language_name":"english","language_id":38}},{"id":15386,"position":4,"audio_url":"wbw/083_013_004.mp3","char_type_name":"word","page_number":588,"line_number":4,"text":"ءَايَـٰتُنَا","translation":{"text":"আমাদের আয়াতসমূহ","language_name":"bengali","language_id":20},"transliteration":{"text":"āyātunā","language_name":"english","language_id":38}},{"id":15387,"position":5,"audio_url":"wbw/083_013_005.mp3","char_type_name":"word","page_number":588,"line_number":4,"text":"قَالَ","translation":{"text":"সে বলে","language_name":"bengali","language_id":20},"transliteration":{"text":"qāla","language_name":"english","language_id":38}},{"id":15388,"position":6,"audio_url":"wbw/083_013_006.mp3","char_type_name":"word","page_number":588,"line_number":4,"text":"أَسَـٰطِيرُ","translation":{"text":"\"(এসব) উপকথা","language_name":"bengali","language_id":20},"transliteration":{"text":"asāṭīru","language_name":"english","language_id":38}},{"id":15389,"position":7,"audio_url":"wbw/083_013_007.mp3","char_type_name":"word","page_number":588,"line_number":4,"text":"ٱلْأَوَّلِينَ","translation":{"text":"পূর্ববর্তীদের\"","language_name":"bengali","language_id":20},"transliteration":{"text":"l-awalīna","language_name":"english","language_id":38}},{"id":15390,"position":8,"audio_url":null,"char_type_name":"end","page_number":588,"line_number":5,"text":"١٣","translation":{"text":"(১৩)","language_name":"bengali","language_id":20},"transliteration":{"text":null,"language_name":"english","language_id":38}}]},{"id":5862,"verse_number":14,"verse_key":"83:14","hizb_number":59,"rub_el_hizb_number":235,"ruku_number":527,"manzil_number":7,"sajdah_number":null,"page_number":588,"juz_number":30,"words":[{"id":16386,"position":1,"audio_url":"wbw/083_014_001.mp3","char_type_name":"word","page_number":588,"line_number":5,"text":"كَلَّا ۖ","translation":{"text":"কখনও না","language_name":"bengali","language_id":20},"transliteration":{"text":"kallā","language_name":"english","language_id":38}},{"id":16388,"position":2,"audio_url":"wbw/083_014_003.mp3","char_type_name":"word","page_number":588,"line_number":5,"text":"بَلْ ۜ","translation":{"text":"বরং","language_name":"bengali","language_id":20},"transliteration":{"text":"bal","language_name":"english","language_id":38}},{"id":16390,"position":3,"audio_url":"wbw/083_014_005.mp3","char_type_name":"word","page_number":588,"line_number":5,"text":"رَانَ","translation":{"text":"মরচে ধরিয়েছে","language_name":"bengali","language_id":20},"transliteration":{"text":"rāna","language_name":"english","language_id":38}},{"id":16391,"position":4,"audio_url":"wbw/083_014_006.mp3","char_type_name":"word","page_number":588,"line_number":5,"text":"عَلَىٰ","translation":{"text":"উপর","language_name":"bengali","language_id":20},"transliteration":{"text":"ʿalā","language_name":"english","language_id":38}},{"id":16392,"position":5,"audio_url":"wbw/083_014_007.mp3","char_type_name":"word","page_number":588,"line_number":5,"text":"قُلُوبِهِم","translation":{"text":"তাদের অন্তরগুলোর","language_name":"bengali","language_id":20},"transliteration":{"text":"qulūbihim","language_name":"english","language_id":38}},{"id":16393,"position":6,"audio_url":"wbw/083_014_008.mp3","char_type_name":"word","page_number":588,"line_number":5,"text":"مَّا","translation":{"text":"যা","language_name":"bengali","language_id":20},"transliteration":{"text":"mā","language_name":"english","language_id":38}},{"id":16394,"position":7,"audio_url":"wbw/083_014_009.mp3","char_type_name":"word","page_number":588,"line_number":5,"text":"كَانُوا۟","translation":{"text":"করছিল","language_name":"bengali","language_id":20},"transliteration":{"text":"kānū","language_name":"english","language_id":38}},{"id":16395,"position":8,"audio_url":"wbw/083_014_010.mp3","char_type_name":"word","page_number":588,"line_number":5,"text":"يَكْسِبُونَ","translation":{"text":"তারা অর্জন","language_name":"bengali","language_id":20},"transliteration":{"text":"yaksibūna","language_name":"english","language_id":38}},{"id":16396,"position":9,"audio_url":null,"char_type_name":"end","page_number":588,"line_number":5,"text":"١٤","translation":{"text":"(১৪)","language_name":"bengali","language_id":20},"transliteration":{"text":null,"language_name":"english","language_id":38}}]},{"id":5863,"verse_number":15,"verse_key":"83:15","hizb_number":59,"rub_el_hizb_number":235,"ruku_number":527,"manzil_number":7,"sajdah_number":null,"page_number":588,"juz_number":30,"words":[{"id":17589,"position":1,"audio_url":"wbw/083_015_001.mp3","char_type_name":"word","page_number":588,"line_number":5,"text":"كَلَّآ","translation":{"text":"কখনও না","language_name":"bengali","language_id":20},"transliteration":{"text":"kallā","language_name":"english","language_id":38}},{"id":17590,"position":2,"audio_url":"wbw/083_015_002.mp3","char_type_name":"word","page_number":588,"line_number":5,"text":"إِنَّهُمْ","translation":{"text":"নিশ্চয়ই তারা","language_name":"bengali","language_id":20},"transliteration":{"text":"innahum","language_name":"english","language_id":38}},{"id":17591,"position":3,"audio_url":"wbw/083_015_003.mp3","char_type_name":"word","page_number":588,"line_number":5,"text":"عَن","translation":{"text":"থেকে","language_name":"bengali","language_id":20},"transliteration":{"text":"ʿan","language_name":"english","language_id":38}},{"id":17592,"position":4,"audio_url":"wbw/083_015_004.mp3","char_type_name":"word","page_number":588,"line_number":5,"text":"رَّبِّهِمْ","translation":{"text":"তাদের রবের","language_name":"bengali","language_id":20},"transliteration":{"text":"rabbihim","language_name":"english","language_id":38}},{"id":17593,"position":5,"audio_url":"wbw/083_015_005.mp3","char_type_name":"word","page_number":588,"line_number":6,"text":"يَوْمَئِذٍۢ","translation":{"text":"সেদিন","language_name":"bengali","language_id":20},"transliteration":{"text":"yawma-idhin","language_name":"english","language_id":38}},{"id":17594,"position":6,"audio_url":"wbw/083_015_006.mp3","char_type_name":"word","page_number":588,"line_number":6,"text":"لَّمَحْجُوبُونَ","translation":{"text":"তারা দর্শন বঞ্চিত হবেই","language_name":"bengali","language_id":20},"transliteration":{"text":"lamaḥjūbūna","language_name":"english","language_id":38}},{"id":17595,"position":7,"audio_url":null,"char_type_name":"end","page_number":588,"line_number":6,"text":"١٥","translation":{"text":"(১৫)","language_name":"bengali","language_id":20},"transliteration":{"text":null,"language_name":"english","language_id":38}}]},{"id":5864,"verse_number":16,"verse_key":"83:16","hizb_number":59,"rub_el_hizb_number":235,"ruku_number":527,"manzil_number":7,"sajdah_number":null,"page_number":588,"juz_number":30,"words":[{"id":18633,"position":1,"audio_url":"wbw/083_016_001.mp3","char_type_name":"word","page_number":588,"line_number":6,"text":"ثُمَّ","translation":{"text":"অতঃপর","language_name":"bengali","language_id":20},"transliteration":{"text":"thumma","language_name":"english","language_id":38}},{"id":18634,"position":2,"audio_url":"wbw/083_016_002.mp3","char_type_name":"word","page_number":588,"line_number":6,"text":"إِنَّهُمْ","translation":{"text":"নিশ্চয়ই তারা","language_name":"bengali","language_id":20},"transliteration":{"text":"innahum","language_name":"english","language_id":38}},{"id":18635,"position":3,"audio_url":"wbw/083_016_003.mp3","char_type_name":"word","page_number":588,"line_number":6,"text":"لَصَالُوا۟","translation":{"text":"অবশ্যই প্রবেশ করবে","language_name":"bengali","language_id":20},"transliteration":{"text":"laṣālū","language_name":"english","language_id":38}},{"id":18636,"position":4,"audio_url":"wbw/083_016_004.mp3","char_type_name":"word","page_number":588,"line_number":6,"text":"ٱلْجَحِيمِ","translation":{"text":"জাহান্নামে","language_name":"bengali","language_id":20},"transliteration":{"text":"l-jaḥīmi","language_name":"english","language_id":38}},{"id":18637,"position":5,"audio_url":null,"char_type_name":"end","page_number":588,"line_number":6,"text":"١٦","translation":{"text":"(১৬)","language_name":"bengali","language_id":20},"transliteration":{"text":null,"language_name":"english","language_id":38}}]},{"id":5865,"verse_number":17,"verse_key":"83:17","hizb_number":59,"rub_el_hizb_number":235,"ruku_number":527,"manzil_number":7,"sajdah_number":null,"page_number":588,"juz_number":30,"words":[{"id":19687,"position":1,"audio_url":"wbw/083_017_001.mp3","char_type_name":"word","page_number":588,"line_number":6,"text":"ثُمَّ","translation":{"text":"অতঃপর","language_name":"bengali","language_id":20},"transliteration":{"text":"thumma","language_name":"english","language_id":38}},{"id":19688,"position":2,"audio_url":"wbw/083_017_002.mp3","char_type_name":"word","page_number":588,"line_number":6,"text":"يُقَالُ","translation":{"text":"(তাদেরকে) বলা হবে","language_name":"bengali","language_id":20},"transliteration":{"text":"yuqālu","language_name":"english","language_id":38}},{"id":19689,"position":3,"audio_url":"wbw/083_017_003.mp3","char_type_name":"word","page_number":588,"line_number":6,"text":"هَـٰذَا","translation":{"text":"\"এই","language_name":"bengali","language_id":20},"transliteration":{"text":"hādhā","language_name":"english","language_id":38}},{"id":19690,"position":4,"audio_url":"wbw/083_017_004.mp3","char_type_name":"word","page_number":588,"line_number":7,"text":"ٱلَّذِى","translation":{"text":"সেই (দিন)","language_name":"bengali","language_id":20},"transliteration":{"text":"alladhī","language_name":"english","language_id":38}},{"id":19691,"position":5,"audio_url":"wbw/083_017_005.mp3","char_type_name":"word","page_number":588,"line_number":7,"text":"كُنتُم","translation":{"text":"তোমরা ছিলে","language_name":"bengali","language_id":20},"transliteration":{"text":"kuntum","language_name":"english","language_id":38}},{"id":19692,"position":6,"audio_url":"wbw/083_017_006.mp3","char_type_name":"word","page_number":588,"line_number":7,"text":"بِهِۦ","translation":{"text":"যে ব্যাপারে","language_name":"bengali","language_id":20},"transliteration":{"text":"bihi","language_name":"english","language_id":38}},{"id":19693,"position":7,"audio_url":"wbw/083_017_007.mp3","char_type_name":"word","page_number":588,"line_number":7,"text":"تُكَذِّبُونَ","translation":{"text":"মিথ্যারোপ করতে\"","language_name":"bengali","language_id":20},"transliteration":{"text":"tukadhibūna","language_name":"english","language_id":38}},{"id":19694,"position":8,"audio_url":null,"char_type_name":"end","page_number":588,"line_number":7,"text":"١٧","translation":{"text":"(১৭)","language_name":"bengali","language_id":20},"transliteration":{"text":null,"language_name":"english","language_id":38}}]},{"id":5866,"verse_number":18,"verse_key":"83:18","hizb_number":59,"rub_el_hizb_number":235,"ruku_number":527,"manzil_number":7,"sajdah_number":null,"page_number":588,"juz_number":30,"words":[{"id":20633,"position":1,"audio_url":"wbw/083_018_001.mp3","char_type_name":"word","page_number":588,"line_number":7,"text":"كَلَّآ","translation":{"text":"কখনও না","language_name":"bengali","language_id":20},"transliteration":{"text":"kallā","language_name":"english","language_id":38}},{"id":20634,"position":2,"audio_url":"wbw/083_018_002.mp3","char_type_name":"word","page_number":588,"line_number":7,"text":"إِنَّ","translation":{"text":"নিশ্চয়ই","language_name":"bengali","language_id":20},"transliteration":{"text":"inna","language_name":"english","language_id":38}},{"id":20635,"position":3,"audio_url":"wbw/083_018_003.mp3","char_type_name":"word","page_number":588,"line_number":7,"text":"كِتَـٰبَ","translation":{"text":"আমলনামা","language_name":"bengali","language_id":20},"transliteration":{"text":"kitāba","language_name":"english","language_id":38}},{"id":20636,"position":4,"audio_url":"wbw/083_018_004.mp3","char_type_name":"word","page_number":588,"line_number":7,"text":"ٱلْأَبْرَارِ","translation":{"text":"সৎ লোকদের","language_name":"bengali","language_id":20},"transliteration":{"text":"l-abrāri","language_name":"english","language_id":38}},{"id":20637,"position":5,"audio_url":"wbw/083_018_005.mp3","char_type_name":"word","page_number":588,"line_number":7,"text":"لَفِى","translation":{"text":"অবশ্যই মধ্যে","language_name":"bengali","language_id":20},"transliteration":{"text":"lafī","language_name":"english","language_id":38}},{"id":20638,"position":6,"audio_url":"wbw/083_018_006.mp3","char_type_name":"word","page_number":588,"line_number":7,"text":"عِلِّيِّينَ","translation":{"text":"উচ্চ মর্যাদাসম্পন্ন (দফতরে)","language_name":"bengali","language_id":20},"transliteration":{"text":"ʿilliyyīna","language_name":"english","language_id":38}},{"id":20639,"position":7,"audio_url":null,"char_type_name":"end","page_number":588,"line_number":7,"text":"١٨","translation":{"text":"(১৮)","language_name":"bengali","language_id":20},"transliteration":{"text":null,"language_name":"english","language_id":38}}]},{"id":5867,"verse_number":19,"verse_key":"83:19","hizb_number":59,"rub_el_hizb_number":235,"ruku_number":527,"manzil_number":7,"sajdah_number":null,"page_number":588,"juz_number":30,"words":[{"id":21824,"position":1,"audio_url":"wbw/083_019_001.mp3","char_type_name":"word","page_number":588,"line_number":8,"text":"وَمَآ","translation":{"text":"এবং কিসে","language_name":"bengali","language_id":20},"transliteration":{"text":"wamā","language_name":"english","language_id":38}},{"id":21825,"position":2,"audio_url":"wbw/083_019_002.mp3","char_type_name":"word","page_number":588,"line_number":8,"text":"أَدْرَىٰكَ","translation":{"text":"তোমাকে বুঝাবে","language_name":"bengali","language_id":20},"transliteration":{"text":"adrāka","language_name":"english","language_id":38}},{"id":21826,"position":3,"audio_url":"wbw/083_019_003.mp3","char_type_name":"word","page_number":588,"line_number":8,"text":"مَا","translation":{"text":"কি সেই","language_name":"bengali","language_id":20},"transliteration":{"text":"mā","language_name":"english","language_id":38}},{"id":21827,"position":4,"audio_url":"wbw/083_019_004.mp3","char_type_name":"word","page_number":588,"line_number":8,"text":"عِلِّيُّونَ","translation":{"text":"উচ্চ মর্যাদাসম্পন্ন (দফতর)","language_name":"bengali","language_id":20},"transliteration":{"text":"ʿilliyyūna","language_name":"english","language_id":38}},{"id":21828,"position":5,"audio_url":null,"char_type_name":"end","page_number":588,"line_number":8,"text":"١٩","translation":{"text":"(১৯)","language_name":"bengali","language_id":20},"transliteration":{"text":null,"language_name":"english","language_id":38}}]},{"id":5868,"verse_number":20,"verse_key":"83:20","hizb_number":59,"rub_el_hizb_number":235,"ruku_number":527,"manzil_number":7,"sajdah_number":null,"page_number":588,"juz_number":30,"words":[{"id":22964,"position":1,"audio_url":"wbw/083_020_001.mp3","char_type_name":"word","page_number":588,"line_number":8,"text":"كِتَـٰبٌۭ","translation":{"text":"খাতা/ আমলনামা","language_name":"bengali","language_id":20},"transliteration":{"text":"kitābun","language_name":"english","language_id":38}},{"id":22965,"position":2,"audio_url":"wbw/083_020_002.mp3","char_type_name":"word","page_number":588,"line_number":8,"text":"مَّرْقُومٌۭ","translation":{"text":"চিহ্নিত","language_name":"bengali","language_id":20},"transliteration":{"text":"marqūmun","language_name":"english","language_id":38}},{"id":22966,"position":3,"audio_url":null,"char_type_name":"end","page_number":588,"line_number":8,"text":"٢٠","translation":{"text":"(২০)","language_name":"bengali","language_id":20},"transliteration":{"text":null,"language_name":"english","language_id":38}}]}],"pagination":{"per_page":10,"current_page":2,"next_page":3,"total_pages":4,"total_records":36}}
