{"verses":[{"id":5879,"verse_number":31,"verse_key":"83:31","hizb_number":59,"rub_el_hizb_number":235,"ruku_number":527,"manzil_number":7,"sajdah_number":null,"page_number":588,"juz_number":30,"words":[{"id":33800,"position":1,"audio_url":"wbw/083_031_001.mp3","char_type_name":"word","page_number":588,"line_number":14,"text":"وَإِذَا","translation":{"text":"এবং যখন","language_name":"bengali","language_id":20},"transliteration":{"text":"wa-idhā","language_name":"english","language_id":38}},{"id":33801,"position":2,"audio_url":"wbw/083_031_002.mp3","char_type_name":"word","page_number":588,"line_number":14,"text":"ٱنقَلَبُوٓا۟","translation":{"text":"ফিরে যেতো","language_name":"bengali","language_id":20},"transliteration":{"text":"inqalabū","language_name":"english","language_id":38}},{"id":33802,"position":3,"audio_url":"wbw/083_031_003.mp3","char_type_name":"word","page_number":588,"line_number":14,"text":"إِلَىٰٓ","translation":{"text":"কাছে","language_name":"bengali","language_id":20},"transliteration":{"text":"ilā","language_name":"english","language_id":38}},{"id":33803,"position":4,"audio_url":"wbw/083_031_004.mp3","char_type_name":"word","page_number":588,"line_number":14,"text":"أَهْلِهِمُ","translation":{"text":"তাদের পরিজনের","language_name":"bengali","language_id":20},"transliteration":{"text":"ahlihimu","language_name":"english","language_id":38}},{"id":33804,"position":5,"audio_url":"wbw/083_031_005.mp3","char_type_name":"word","page_number":588,"line_number":14,"text":"ٱنقَلَبُوا۟","translation":{"text":"তারা ফিরে যেতো","language_name":"bengali","language_id":20},"transliteration":{"text":"inqalabū","language_name":"english","language_id":38}},{"id":33805,"position":6,"audio_url":"wbw/083_031_006.mp3","char_type_name":"word","page_number":588,"line_number":14,"text":"فَكِهِينَ","translation":{"text":"উৎফুল্ল হয়ে","language_name":"bengali","language_id":20},"transliteration":{"text":"fakihīna","language_name":"english","language_id":38}},{"id":33806,"position":7,"audio_url":null,"char_type_name":"end","page_number":588,"line_number":14,"text":"٣١","translation":{"text":"(৩১)","language_name":"bengali","language_id":20},"transliteration":{"text":null,"language_name":"english","language_id":38}}]},{"id":5880,"verse_number":32,"verse_key":"83:32","hizb_number":59,"rub_el_hizb_number":235,"ruku_number":527,"manzil_number":7,"sajdah_number":null,"page_number":588,"juz_number":30,"words":[{"id":34781,"position":1,"audio_url":"wbw/083_032_001.mp3","char_type_name":"word","page_number":588,"line_number":14,"text":"وَإِذَا","translation":{"text":"এবং যখন","language_name":"bengali","language_id":20},"transliteration":{"text":"wa-idhā","language_name":"english","language_id":38}},{"id":34782,"position":2,"audio_url":"wbw/083_032_002.mp3","char_type_name":"word","page_number":588,"line_number":14,"text":"رَأَوْهُمْ","translation":{"text":"তাদেরকে দেখত","language_name":"bengali","language_id":20},"transliteration":{"text":"ra-awhum","language_name":"english","language_id":38}},{"id":34783,"position":3,"audio_url":"wbw/083_032_003.mp3","char_type_name":"word","page_number":588,"line_number":14,"text":"قَالُوٓا۟","translation":{"text":"তারা বলত","language_name":"bengali","language_id":20},"transliteration":{"text":"qālū","language_name":"english","language_id":38}},{"id":34784,"position":4,"audio_url":"wbw/083_032_004.mp3","char_type_name":"word","page_number":588,"line_number":15,"text":"إِنَّ","translation":{"text":"\"নিশ্চয়ই","language_name":"bengali","language_id":20},"transliteration":{"text":"inna","language_name":"english","language_id":38}},{"id":34785,"position":5,"audio_url":"wbw/083_032_005.mp3","char_type_name":"word","page_number":588,"line_number":15,"text":"هَـٰٓؤُلَآءِ","translation":{"text":"এসব লোক","language_name":"bengali","language_id":20},"transliteration":{"text":"hāulāi","language_name":"english","language_id":38}},{"id":34786,"position":6,"audio_url":"wbw/083_032_006.mp3","char_type_name":"word","page_number":588,"line_number":15,"text":"لَضَآلُّونَ","translation":{"text":"অবশ্যই বিভ্রান্ত\"","language_name":"bengali","language_id":20},"transliteration":{"text":"laḍāllūna","language_name":"english","language_id":38}},{"id":34787,"position":7,"audio_url":null,"char_type_name":"end","page_number":588,"line_number":15,"text":"٣٢","translation":{"text":"(৩২)","language_name":"bengali","language_id":20},"transliteration":{"text":null,"language_name":"english","language_id":38}}]},{"id":5881,"verse_number":33,"verse_key":"83:33","hizb_number":59,"rub_el_hizb_number":235,"ruku_number":527,"manzil_number":7,"sajdah_number":null,"page_number":588,"juz_number":30,"words":[{"id":35603,"position":1,"audio_url":"wbw/083_033_001.mp3","char_type_name":"word","page_number":588,"line_number":15,"text":"وَمَآ","translation":{"text":"এবং না","language_name":"bengali","language_id":20},"transliteration":{"text":"wamā","language_name":"english","language_id":38}},{"id":35604,"position":2,"audio_url":"wbw/083_033_002.mp3","char_type_name":"word","page_number":588,"line_number":15,"text":"أُرْسِلُوا۟","translation":{"text":"পাঠানো হয়েছে (কাফেরদেরকে)","language_name":"bengali","language_id":20},"transliteration":{"text":"ur'silū","language_name":"english","language_id":38}},{"id":35605,"position":3,"audio_url":"wbw/083_033_003.mp3","char_type_name":"word","page_number":588,"line_number":15,"text":"عَلَيْهِمْ","translation":{"text":"তাদের উপর","language_name":"bengali","language_id":20},"transliteration":{"text":"ʿalayhim","language_name":"english","language_id":38}},{"id":35606,"position":4,"audio_url":"wbw/083_033_004.mp3","char_type_name":"word","page_number":588,"line_number":15,"text":"حَـٰفِظِينَ","translation":{"text":"তত্ত্বাবধায়ক রূপে","language_name":"bengali","language_id":20},"transliteration":{"text":"ḥāfiẓīna","language_name":"english","language_id":38}},{"id":35607,"position":5,"audio_url":null,"char_type_name":"end","page_number":588,"line_number":15,"text":"٣٣","translation":{"text":"(৩৩)","language_name":"bengali","language_id":20},"transliteration":{"text":null,"language_name":"english","language_id":38}}]},{"id":5882,"verse_number":34,"verse_key":"83:34","hizb_number":59,"rub_el_hizb_number":235,"ruku_number":527,"manzil_number":7,"sajdah_number":null,"page_number":589,"juz_number":30,"words":[{"id":36431,"position":1,"audio_url":"wbw/083_034_001.mp3","char_type_name":"word","page_number":589,"line_number":1,"text":"فَٱلْيَوْمَ","translation":{"text":"অতএব আজ","language_name":"bengali","language_id":20},"transliteration":{"text":"fal-yawma","language_name":"english","language_id":38}},{"id":36432,"position":2,"audio_url":"wbw/083_034_002.mp3","char_type_name":"word","page_number":589,"line_number":1,"text":"ٱلَّذِينَ","translation":{"text":"(সেদিন) যারা","language_name":"bengali","language_id":20},"transliteration":{"text":"alladhīna","language_name":"english","language_id":38}},{"id":36433,"position":3,"audio_url":"wbw/083_034_003.mp3","char_type_name":"word","page_number":589,"line_number":1,"text":"ءَامَنُوا۟","translation":{"text":"ঈমান এনেছিলো","language_name":"bengali","language_id":20},"transliteration":{"text":"āmanū","language_name":"english","language_id":38}},{"id":36434,"position":4,"audio_url":"wbw/083_034_004.mp3","char_type_name":"word","page_number":589,"line_number":1,"text":"مِنَ","translation":{"text":"সাথে","language_name":"bengali","language_id":20},"transliteration":{"text":"mina","language_name":"english","language_id":38}},{"id":36435,"position":5,"audio_url":"wbw/083_034_005.mp3","char_type_name":"word","page_number":589,"line_number":1,"text":"ٱلْكُفَّارِ","translation":{"text":"কাফেরদের","language_name":"bengali","language_id":20},"transliteration":{"text":"l-kufāri","language_name":"english","language_id":38}},{"id":36436,"position":6,"audio_url":"wbw/083_034_006.mp3","char_type_name":"word","page_number":589,"line_number":1,"text":"يَضْحَكُونَ","translation":{"text":"উপহাস করবে","language_name":"bengali","language_id":20},"transliteration":{"text":"yaḍḥakūna","language_name":"english","language_id":38}},{"id":36437,"position":7,"audio_url":null,"char_type_name":"end","page_number":589,"line_number":1,"text":"٣٤","translation":{"text":"(৩৪)","language_name":"bengali","language_id":20},"transliteration":{"text":null,"language_name":"english","language_id":38}}]},{"id":5883,"verse_number":35,"verse_key":"83:35","hizb_number":59,"rub_el_hizb_number":235,"ruku_number":527,"manzil_number":7,"sajdah_number":null,"page_number":589,"juz_number":30,"words":[{"id":37297,"position":1,"audio_url":"wbw/083_035_001.mp3","char_type_name":"word","page_number":589,"line_number":1,"text":"عَلَى","translation":{"text":"উপর","language_name":"bengali","language_id":20},"transliteration":{"text":"ʿalā","language_name":"english","language_id":38}},{"id":37298,"position":2,"audio_url":"wbw/083_035_002.mp3","char_type_name":"word","page_number":589,"line_number":2,"text":"ٱلْأَرَآئِكِ","translation":{"text":"সুসজ্জিত আসন সমূহের (বসে)","language_name":"bengali","language_id":20},"transliteration":{"text":"l-arāiki","language_name":"english","language_id":38}},{"id":37299,"position":3,"audio_url":"wbw/083_035_003.mp3","char_type_name":"word","page_number":589,"line_number":2,"text":"يَنظُرُونَ","translation":{"text":"তারা দেখবে","language_name":"bengali","language_id":20},"transliteration":{"text":"yanẓurūna","language_name":"english","language_id":38}},{"id":37300,"position":4,"audio_url":null,"char_type_name":"end","page_number":589,"line_number":2,"text":"٣٥","translation":{"text":"(৩৫)","language_name":"bengali","language_id":20},"transliteration":{"text":null,"language_name":"english","language_id":38}}]},{"id":5884,"verse_number":36,"verse_key":"83:36","hizb_number":59,"rub_el_hizb_number":235,"ruku_number":527,"manzil_number":7,"sajdah_number":null,"page_number":589,"juz_number":30,"words":[{"id":38227,"position":1,"audio_url":"wbw/083_036_001.mp3","char_type_name":"word","page_number":589,"line_number":2,"text":"هَلْ","translation":{"text":"কি","language_name":"bengali","language_id":20},"transliteration":{"text":"hal","language_name":"english","language_id":38}},{"id":38228,"position":2,"audio_url":"wbw/083_036_002.mp3","char_type_name":"word","page_number":589,"line_number":2,"text":"ثُوِّبَ","translation":{"text":"ফল দেয়া হলো","language_name":"bengali","language_id":20},"transliteration":{"text":"thuwwiba","language_name":"english","language_id":38}},{"id":38229,"position":3,"audio_url":"wbw/083_036_003.mp3","char_type_name":"word","page_number":589,"line_number":2,"text":"ٱلْكُفَّارُ","translation":{"text":"কাফেরদের","language_name":"bengali","language_id":20},"transliteration":{"text":"l-kufāru","language_name":"english","language_id":38}},{"id":38230,"position":4,"audio_url":"wbw/083_036_004.mp3","char_type_name":"word","page_number":589,"line_number":2,"text":"مَا","translation":{"text":"যা","language_name":"bengali","language_id":20},"transliteration":{"text":"mā","language_name":"english","language_id":38}},{"id":38231,"position":5,"audio_url":"wbw/083_036_005.mp3","char_type_name":"word","page_number":589,"line_number":2,"text":"كَانُوا۟","translation":{"text":"(ছিল)","language_name":"bengali","language_id":20},"transliteration":{"text":"kānū","language_name":"english","language_id":38}},{"id":38232,"position":6,"audio_url":"wbw/083_036_006.mp3","char_type_name":"word","page_number":589,"line_number":2,"text":"يَفْعَلُونَ","translation":{"text":"তারা করছিল","language_name":"bengali","language_id":20},"transliteration":{"text":"yafʿalūna","language_name":"english","language_id":38}},{"id":38233,"position":7,"audio_url":null,"char_type_name":"end","page_number":589,"line_number":2,"text":"٣٦","translation":{"text":"(৩৬)","language_name":"bengali","language_id":20},"transliteration":{"text":null,"language_name":"english","language_id":38}}]}],"pagination":{"per_page":10,"current_page":4,"next_page":null,"total_pages":4,"total_records":36}}
