{"verses":[{"id":6117,"verse_number":11,"verse_key":"96:11","hizb_number":60,"rub_el_hizb_number":239,"ruku_number":540,"manzil_number":7,"sajdah_number":null,"page_number":597,"juz_number":30,"words":[{"id":13014,"position":1,"audio_url":"wbw/096_011_001.mp3","verse_key":"96:11","verse_id":6117,"location":"96:11:1","text_uthmani":"أَرَءَيْتَ","qpc_uthmani_hafs":"أَرَءَيۡتَ","char_type_name":"word","page_number":597,"line_number":15,"text":"أَرَءَيۡتَ","translation":{"text":"Have you seen","language_name":"english","language_id":38},"transliteration":{"text":"ara-ayta","language_name":"english","language_id":38}},{"id":13015,"position":2,"audio_url":"wbw/096_011_002.mp3","verse_key":"96:11","verse_id":6117,"location":"96:11:2","text_uthmani":"إِن","qpc_uthmani_hafs":"إِن","char_type_name":"word","page_number":597,"line_number":15,"text":"إِن","translation":{"text":"if","language_name":"english","language_id":38},"transliteration":{"text":"in","language_name":"english","language_id":38}},{"id":13016,"position":3,"audio_url":"wbw/096_011_003.mp3","verse_key":"96:11","verse_id":6117,"location":"96:11:3","text_uthmani":"كَانَ","qpc_uthmani_hafs":"كَانَ","char_type_name":"word","page_number":597,"line_number":15,"text":"كَانَ","translation":{"text":"he is","language_name":"english","language_id":38},"transliteration":{"text":"kāna","language_name":"english","language_id":38}},{"id":13017,"position":4,"audio_url":"wbw/096_011_004.mp3","verse_key":"96:11","verse_id":6117,"location":"96:11:4","text_uthmani":"عَلَى","qpc_uthmani_hafs":"عَلَى","char_type_name":"word","page_number":597,"line_number":15,"text":"عَلَى","translation":{"text":"upon","language_name":"english","language_id":38},"transliteration":{"text":"ʿalā","language_name":"english","language_id":38}},{"id":13018,"position":5,"audio_url":"wbw/096_011_005.mp3","verse_key":"96:11","verse_id":6117,"location":"96:11:5","text_uthmani":"ٱلْهُدَىٰٓ","qpc_uthmani_hafs":"ٱلۡهُدَىٰٓ","char_type_name":"word","page_number":597,"line_number":15,"text":"ٱلۡهُدَىٰٓ","translation":{"text":"[the] guidance","language_name":"english","language_id":38},"transliteration":{"text":"l-hudā","language_name":"english","language_id":38}},{"id":13019,"position":6,"audio_url":null,"verse_key":"96:11","verse_id":6117,"location":"96:11:6","text_uthmani":"١١","qpc_uthmani_hafs":"١١","char_type_name":"end","page_number":597,"line_number":15,"text":"١١","translation":{"text":"(11)","language_name":"english","language_id":38},"transliteration":{"text":null,"language_name":"english","language_id":38}}]},{"id":6118,"verse_number":12,"verse_key":"96:12","hizb_number":60,"rub_el_hizb_number":239,"ruku_number":540,"manzil_number":7,"sajdah_number":null,"page_number":597,"juz_number":30,"words":[{"id":14267,"position":1,"audio_url":"wbw/096_012_001.mp3","verse_key":"96:12","verse_id":6118,"location":"96:12:1","text_uthmani":"أَوْ","qpc_uthmani_hafs":"أَوۡ","char_type_name":"word","page_number":597,"line_number":15,"text":"أَوۡ","translation":{"text":"Or","language_name":"english","language_id":38},"transliteration":{"text":"aw","language_name":"english","language_id":38}},{"id":14268,"position":2,"audio_url":"wbw/096_012_002.mp3","verse_key":"96:12","verse_id":6118,"location":"96:12:2","text_uthmani":"أَمَرَ","qpc_uthmani_hafs":"أَمَرَ","char_type_name":"word","page_number":597,"line_number":15,"text":"أَمَرَ","translation":{"text":"he enjoins","language_name":"english","language_id":38},"transliteration":{"text":"amara","language_name":"english","language_id":38}},{"id":14269,"position":3,"audio_url":"wbw/096_012_003.mp3","verse_key":"96:12","verse_id":6118,"location":"96:12:3","text_uthmani":"بِٱلتَّقْوَىٰٓ","qpc_uthmani_hafs":"بِٱلتَّقۡوَىٰٓ","char_type_name":"word","page_number":597,"line_number":15,"text":"بِٱلتَّقۡوَىٰٓ","translation":{"text":"[of the] righteousness","language_name":"english","language_id":38},"transliteration":{"text":"bil-taqwā","language_name":"english","language_id":38}},{"id":14270,"position":4,"audio_url":null,"verse_key":"96:12","verse_id":6118,"location":"96:12:4","text_uthmani":"١٢","qpc_uthmani_hafs":"١٢","char_type_name":"end","page_number":597,"line_number":15,"text":"١٢","translation":{"text":"(12)","language_name":"english","language_id":38},"transliteration":{"text":null,"language_name":"english","language_id":38}}]},{"id":6119,"verse_number":13,"verse_key":"96:13","hizb_number":60,"rub_el_hizb_number":239,"ruku_number":540,"manzil_number":7,"sajdah_number":null,"page_number":598,"juz_number":30,"words":[{"id":15356,"position":1,"audio_url":"wbw/096_013_001.mp3","verse_key":"96:13","verse_id":6119,"location":"96:13:1","text_uthmani":"أَرَءَيْتَ","qpc_uthmani_hafs":"أَرَءَيۡتَ","char_type_name":"word","page_number":598,"line_number":1,"text":"أَرَءَيۡتَ","translation":{"text":"Have you seen","language_name":"english","language_id":38},"transliteration":{"text":"ara-ayta","language_name":"english","language_id":38}},{"id":15357,"position":2,"audio_url":"wbw/096_013_002.mp3","verse_key":"96:13","verse_id":6119,"location":"96:13:2","text_uthmani":"إِن","qpc_uthmani_hafs":"إِن","char_type_name":"word","page_number":598,"line_number":1,"text":"إِن","translation":{"text":"if","language_name":"english","language_id":38},"transliteration":{"text":"in","language_name":"english","language_id":38}},{"id":15358,"position":3,"audio_url":"wbw/096_013_003.mp3","verse_key":"96:13","verse_id":6119,"location":"96:13:3","text_uthmani":"كَذَّبَ","qpc_uthmani_hafs":"كَذَّبَ","char_type_name":"word","page_number":598,"line_number":1,"text":"كَذَّبَ","translation":{"text":"he denies","language_name":"english","language_id":38},"transliteration":{"text":"kadhaba","language_name":"english","language_id":38}},{"id":15359,"position":4,"audio_url":"wbw/096_013_004.mp3","verse_key":"96:13","verse_id":6119,"location":"96:13:4","text_uthmani":"وَتَوَلَّىٰٓ","qpc_uthmani_hafs":"وَتَوَلَّىٰٓ","char_type_name":"word","page_number":598,"line_number":1,"text":"وَتَوَلَّىٰٓ","translation":{"text":"and turns away","language_name":"english","language_id":38},"transliteration":{"text":"watawallā","language_name":"english","language_id":38}},{"id":15360,"position":5,"audio_url":null,"verse_key":"96:13","verse_id":6119,"location":"96:13:5","text_uthmani":"١٣","qpc_uthmani_hafs":"١٣","char_type_name":"end","page_number":598,"line_number":1,"text":"١٣","translation":{"text":"(13)","language_name":"english","language_id":38},"transliteration":{"text":null,"language_name":"english","language_id":38}}]},{"id":6120,"verse_number":14,"verse_key":"96:14","hizb_number":60,"rub_el_hizb_number":239,"ruku_number":540,"manzil_number":7,"sajdah_number":null,"page_number":598,"juz_number":30,"words":[{"id":16380,"position":1,"audio_url":"wbw/096_014_001.mp3","verse_key":"96:14","verse_id":6120,"location":"96:14:1","text_uthmani":"أَلَمْ","qpc_uthmani_hafs":"أَلَمۡ","char_type_name":"word","page_number":598,"line_number":1,"text":"أَلَمۡ","translation":{"text":"Does not","language_name":"english","language_id":38},"transliteration":{"text":"alam","language_name":"english","language_id":38}},{"id":16381,"position":2,"audio_url":"wbw/096_014_002.mp3","verse_key":"96:14","verse_id":6120,"location":"96:14:2","text_uthmani":"يَعْلَم","qpc_uthmani_hafs":"يَعۡلَم","char_type_name":"word","page_number":598,"line_number":1,"text":"يَعۡلَم","translation":{"text":"he know","language_name":"english","language_id":38},"transliteration":{"text":"yaʿlam","language_name":"english","language_id":38}},{"id":16382,"position":3,"audio_url":"wbw/096_014_003.mp3","verse_key":"96:14","verse_id":6120,"location":"96:14:3","text_uthmani":"بِأَنَّ","qpc_uthmani_hafs":"بِأَنَّ","char_type_name":"word","page_number":598,"line_number":1,"text":"بِأَنَّ","translation":{"text":"that","language_name":"english","language_id":38},"transliteration":{"text":"bi-anna","language_name":"english","language_id":38}},{"id":16383,"position":4,"audio_url":"wbw/096_014_004.mp3","verse_key":"96:14","verse_id":6120,"location":"96:14:4","text_uthmani":"ٱللَّهَ","qpc_uthmani_hafs":"ٱللَّهَ","char_type_name":"word","page_number":598,"line_number":1,"text":"ٱللَّهَ","translation":{"text":"Allah","language_name":"english","language_id":38},"transliteration":{"text":"l-laha","language_name":"english","language_id":38}},{"id":16384,"position":5,"audio_url":"wbw/096_014_005.mp3","verse_key":"96:14","verse_id":6120,"location":"96:14:5","text_uthmani":"يَرَىٰ","qpc_uthmani_hafs":"يَرَىٰ","char_type_name":"word","page_number":598,"line_number":1,"text":"يَرَىٰ","translation":{"text":"sees","language_name":"english","language_id":38},"transliteration":{"text":"yarā","language_name":"english","language_id":38}},{"id":16385,"position":6,"audio_url":null,"verse_key":"96:14","verse_id":6120,"location":"96:14:6","text_uthmani":"١٤","qpc_uthmani_hafs":"١٤","char_type_name":"end","page_number":598,"line_number":1,"text":"١٤","translation":{"text":"(14)","language_name":"english","language_id":38},"transliteration":{"text":null,"language_name":"english","language_id":38}}]},{"id":6121,"verse_number":15,"verse_key":"96:15","hizb_number":60,"rub_el_hizb_number":239,"ruku_number":540,"manzil_number":7,"sajdah_number":null,"page_number":598,"juz_number":30,"words":[{"id":17600,"position":1,"audio_url":"wbw/096_015_001.mp3","verse_key":"96:15","verse_id":6121,"location":"96:15:1","text_uthmani":"كَلَّا","qpc_uthmani_hafs":"كـَلَّا","char_type_name":"word","page_number":598,"line_number":1,"text":"كـَلَّا","translation":{"text":"Nay","language_name":"english","language_id":38},"transliteration":{"text":"kallā","language_name":"english","language_id":38}},{"id":17601,"position":2,"audio_url":"wbw/096_015_002.mp3","verse_key":"96:15","verse_id":6121,"location":"96:15:2","text_uthmani":"لَئِن","qpc_uthmani_hafs":"لَئِن","char_type_name":"word","page_number":598,"line_number":1,"text":"لَئِن","translation":{"text":"If","language_name":"english","language_id":38},"transliteration":{"text":"la-in","language_name":"english","language_id":38}},{"id":17602,"position":3,"audio_url":"wbw/096_015_003.mp3","verse_key":"96:15","verse_id":6121,"location":"96:15:3","text_uthmani":"لَّمْ","qpc_uthmani_hafs":"لَّمۡ","char_type_name":"word","page_number":598,"line_number":1,"text":"لَّمۡ","translation":{"text":"not","language_name":"english","language_id":38},"transliteration":{"text":"lam","language_name":"english","language_id":38}},{"id":17603,"position":4,"audio_url":"wbw/096_015_004.mp3","verse_key":"96:15","verse_id":6121,"location":"96:15:4","text_uthmani":"يَنتَهِ","qpc_uthmani_hafs":"يَنتَهِ","char_type_name":"word","page_number":598,"line_number":1,"text":"يَنتَهِ","translation":{"text":"he desists","language_name":"english","language_id":38},"transliteration":{"text":"yantahi","language_name":"english","language_id":38}},{"id":17604,"position":5,"audio_url":"wbw/096_015_005.mp3","verse_key":"96:15","verse_id":6121,"location":"96:15:5","text_uthmani":"لَنَسْفَعًۢا","qpc_uthmani_hafs":"لَنَسۡفَعَۢا","char_type_name":"word","page_number":598,"line_number":2,"text":"لَنَسۡفَعَۢا","translation":{"text":"surely We will drag him","language_name":"english","language_id":38},"transliteration":{"text":"lanasfaʿan","language_name":"english","language_id":38}},{"id":17605,"position":6,"audio_url":"wbw/096_015_006.mp3","verse_key":"96:15","verse_id":6121,"location":"96:15:6","text_uthmani":"بِٱلنَّاصِيَةِ","qpc_uthmani_hafs":"بِٱلنَّاصِيَةِ","char_type_name":"word","page_number":598,"line_number":2,"text":"بِٱلنَّاصِيَةِ","translation":{"text":"by the forelock","language_name":"english","language_id":38},"transliteration":{"text":"bil-nāṣiyati","language_name":"english","language_id":38}},{"id":17606,"position":7,"audio_url":null,"verse_key":"96:15","verse_id":6121,"location":"96:15:7","text_uthmani":"١٥","qpc_uthmani_hafs":"١٥","char_type_name":"end","page_number":598,"line_number":2,"text":"١٥","translation":{"text":"(15)","language_name":"english","language_id":38},"transliteration":{"text":null,"language_name":"english","language_id":38}}]},{"id":6122,"verse_number":16,"verse_key":"96:16","hizb_number":60,"rub_el_hizb_number":239,"ruku_number":540,"manzil_number":7,"sajdah_number":null,"page_number":598,"juz_number":30,"words":[{"id":18642,"position":1,"audio_url":"wbw/096_016_001.mp3","verse_key":"96:16","verse_id":6122,"location":"96:16:1","text_uthmani":"نَاصِيَةٍۢ","qpc_uthmani_hafs":"نَاصِيَةٖ","char_type_name":"word","page_number":598,"line_number":2,"text":"نَاصِيَةٖ","translation":{"text":"A forelock","language_name":"english","language_id":38},"transliteration":{"text":"nāṣiyatin","language_name":"english","language_id":38}},{"id":18643,"position":2,"audio_url":"wbw/096_016_002.mp3","verse_key":"96:16","verse_id":6122,"location":"96:16:2","text_uthmani":"كَـٰذِبَةٍ","qpc_uthmani_hafs":"كَٰذِبَةٍ","char_type_name":"word","page_number":598,"line_number":2,"text":"كَٰذِبَةٍ","translation":{"text":"lying","language_name":"english","language_id":38},"transliteration":{"text":"kādhibatin","language_name":"english","language_id":38}},{"id":18644,"position":3,"audio_url":"wbw/096_016_003.mp3","verse_key":"96:16","verse_id":6122,"location":"96:16:3","text_uthmani":"خَاطِئَةٍۢ","qpc_uthmani_hafs":"خَاطِئَةٖ","char_type_name":"word","page_number":598,"line_number":2,"text":"خَاطِئَةٖ","translation":{"text":"sinful","language_name":"english","language_id":38},"transliteration":{"text":"khāṭi-atin","language_name":"english","language_id":38}},{"id":18645,"position":4,"audio_url":null,"verse_key":"96:16","verse_id":6122,"location":"96:16:4","text_uthmani":"١٦","qpc_uthmani_hafs":"١٦","char_type_name":"end","page_number":598,"line_number":2,"text":"١٦","translation":{"text":"(16)","language_name":"english","language_id":38},"transliteration":{"text":null,"language_name":"english","language_id":38}}]},{"id":6123,"verse_number":17,"verse_key":"96:17","hizb_number":60,"rub_el_hizb_number":239,"ruku_number":540,"manzil_number":7,"sajdah_number":null,"page_number":598,"juz_number":30,"words":[{"id":19699,"position":1,"audio_url":"wbw/096_017_001.mp3","verse_key":"96:17","verse_id":6123,"location":"96:17:1","text_uthmani":"فَلْيَدْعُ","qpc_uthmani_hafs":"فَلۡيَدۡعُ","char_type_name":"word","page_number":598,"line_number":2,"text":"فَلۡيَدۡعُ","translation":{"text":"Then let him call","language_name":"english","language_id":38},"transliteration":{"text":"falyadʿu","language_name":"english","language_id":38}},{"id":19700,"position":2,"audio_url":"wbw/096_017_002.mp3","verse_key":"96:17","verse_id":6123,"location":"96:17:2","text_uthmani":"نَادِيَهُۥ","qpc_uthmani_hafs":"نَادِيَهُۥ","char_type_name":"word","page_number":598,"line_number":2,"text":"نَادِيَهُۥ","translation":{"text":"his associates","language_name":"english","language_id":38},"transliteration":{"text":"nādiyahu","language_name":"english","language_id":38}},{"id":19701,"position":3,"audio_url":null,"verse_key":"96:17","verse_id":6123,"location":"96:17:3","text_uthmani":"١٧","qpc_uthmani_hafs":"١٧","char_type_name":"end","page_number":598,"line_number":2,"text":"١٧","translation":{"text":"(17)","language_name":"english","language_id":38},"transliteration":{"text":null,"language_name":"english","language_id":38}}]},{"id":6124,"verse_number":18,"verse_key":"96:18","hizb_number":60,"rub_el_hizb_number":239,"ruku_number":540,"manzil_number":7,"sajdah_number":null,"page_number":598,"juz_number":30,"words":[{"id":20790,"position":1,"audio_url":"wbw/096_018_001.mp3","verse_key":"96:18","verse_id":6124,"location":"96:18:1","text_uthmani":"سَنَدْعُ","qpc_uthmani_hafs":"سَنَدۡعُ","char_type_name":"word","page_number":598,"line_number":3,"text":"سَنَدۡعُ","translation":{"text":"We will call","language_name":"english","language_id":38},"transliteration":{"text":"sanadʿu","language_name":"english","language_id":38}},{"id":20791,"position":2,"audio_url":"wbw/096_018_002.mp3","verse_key":"96:18","verse_id":6124,"location":"96:18:2","text_uthmani":"ٱلزَّبَانِيَةَ","qpc_uthmani_hafs":"ٱلزَّبَانِيَةَ","char_type_name":"word","page_number":598,"line_number":3,"text":"ٱلزَّبَانِيَةَ","translation":{"text":"the Angels of Hell","language_name":"english","language_id":38},"transliteration":{"text":"l-zabāniyata","language_name":"english","language_id":38}},{"id":20792,"position":3,"audio_url":null,"verse_key":"96:18","verse_id":6124,"location":"96:18:3","text_uthmani":"١٨","qpc_uthmani_hafs":"١٨","char_type_name":"end","page_number":598,"line_number":3,"text":"١٨","translation":{"text":"(18)","language_name":"english","language_id":38},"transliteration":{"text":null,"language_name":"english","language_id":38}}]},{"id":6125,"verse_number":19,"verse_key":"96:19","hizb_number":60,"rub_el_hizb_number":239,"ruku_number":540,"manzil_number":7,"sajdah_number":14,"page_number":598,"juz_number":30,"words":[{"id":21853,"position":1,"audio_url":"wbw/096_019_001.mp3","verse_key":"96:19","verse_id":6125,"location":"96:19:1","text_uthmani":"كَلَّا","qpc_uthmani_hafs":"كـَلَّا","char_type_name":"word","page_number":598,"line_number":3,"text":"كـَلَّا","translation":{"text":"Nay","language_name":"english","language_id":38},"transliteration":{"text":"kallā","language_name":"english","language_id":38}},{"id":21854,"position":2,"audio_url":"wbw/096_019_002.mp3","verse_key":"96:19","verse_id":6125,"location":"96:19:2","text_uthmani":"لَا","qpc_uthmani_hafs":"لَا","char_type_name":"word","page_number":598,"line_number":3,"text":"لَا","translation":{"text":"(Do) not","language_name":"english","language_id":38},"transliteration":{"text":"lā","language_name":"english","language_id":38}},{"id":21855,"position":3,"audio_url":"wbw/096_019_003.mp3","verse_key":"96:19","verse_id":6125,"location":"96:19:3","text_uthmani":"تُطِعْهُ","qpc_uthmani_hafs":"تُطِعۡهُ","char_type_name":"word","page_number":598,"line_number":3,"text":"تُطِعۡهُ","translation":{"text":"obey him","language_name":"english","language_id":38},"transliteration":{"text":"tuṭiʿ'hu","language_name":"english","language_id":38}},{"id":21856,"position":4,"audio_url":"wbw/096_019_004.mp3","verse_key":"96:19","verse_id":6125,"location":"96:19:4","text_uthmani":"وَٱسْجُدْ","qpc_uthmani_hafs":"وَٱسۡجُدۡۤ","char_type_name":"word","page_number":598,"line_number":3,"text":"وَٱسۡجُدۡۤ","translation":{"text":"But prostrate","language_name":"english","language_id":38},"transliteration":{"text":"wa-us'jud","language_name":"english","language_id":38}},{"id":21857,"position":5,"audio_url":"wbw/096_019_005.mp3","verse_key":"96:19","verse_id":6125,"location":"96:19:5","text_uthmani":"وَٱقْتَرِب ۩","qpc_uthmani_hafs":"وَٱقۡتَرِب۩","char_type_name":"word","page_number":598,"line_number":3,"text":"وَٱقۡتَرِب۩","translation":{"text":"and draw near (to Allah)","language_name":"english","language_id":38},"transliteration":{"text":"wa-iq'tarib","language_name":"english","language_id":38}},{"id":21859,"position":6,"audio_url":"","verse_key":"96:19","verse_id":6125,"location":"96:19:6","text_uthmani":"١٩","qpc_uthmani_hafs":"١٩","char_type_name":"end","page_number":598,"line_number":3,"text":"١٩","translation":{"text":"(19)","language_name":"english","language_id":38},"transliteration":{"text":"","language_name":"english","language_id":38}}]}],"pagination":{"per_page":10,"current_page":2,"next_page":null,"total_pages":2,"total_records":19}}
