{"verses":[{"id":5885,"verse_number":1,"verse_key":"84:1","hizb_number":59,"rub_el_hizb_number":236,"ruku_number":528,"manzil_number":7,"sajdah_number":null,"page_number":589,"juz_number":30,"words":[{"id":706,"position":1,"audio_url":"wbw/084_001_001.mp3","verse_key":"84:1","verse_id":5885,"location":"84:1:1","text_uthmani":"إِذَا","qpc_uthmani_hafs":"إِذَا","char_type_name":"word","page_number":589,"line_number":5,"text":"إِذَا","translation":{"text":"When","language_name":"english","language_id":38},"transliteration":{"text":"idhā","language_name":"english","language_id":38}},{"id":707,"position":2,"audio_url":"wbw/084_001_002.mp3","verse_key":"84:1","verse_id":5885,"location":"84:1:2","text_uthmani":"ٱلسَّمَآءُ","qpc_uthmani_hafs":"ٱلسَّمَآءُ","char_type_name":"word","page_number":589,"line_number":5,"text":"ٱلسَّمَآءُ","translation":{"text":"the sky","language_name":"english","language_id":38},"transliteration":{"text":"l-samāu","language_name":"english","language_id":38}},{"id":708,"position":3,"audio_url":"wbw/084_001_003.mp3","verse_key":"84:1","verse_id":5885,"location":"84:1:3","text_uthmani":"ٱنشَقَّتْ","qpc_uthmani_hafs":"ٱنشَقَّتۡ","char_type_name":"word","page_number":589,"line_number":5,"text":"ٱنشَقَّتۡ","translation":{"text":"is split asunder","language_name":"english","language_id":38},"transliteration":{"text":"inshaqqat","language_name":"english","language_id":38}},{"id":709,"position":4,"audio_url":null,"verse_key":"84:1","verse_id":5885,"location":"84:1:4","text_uthmani":"١","qpc_uthmani_hafs":"١","char_type_name":"end","page_number":589,"line_number":5,"text":"١","translation":{"text":"(1)","language_name":"english","language_id":38},"transliteration":{"text":null,"language_name":"english","language_id":38}}]},{"id":5886,"verse_number":2,"verse_key":"84:2","hizb_number":59,"rub_el_hizb_number":236,"ruku_number":528,"manzil_number":7,"sajdah_number":null,"page_number":589,"juz_number":30,"words":[{"id":1737,"position":1,"audio_url":"wbw/084_002_001.mp3","verse_key":"84:2","verse_id":5886,"location":"84:2:1","text_uthmani":"وَأَذِنَتْ","qpc_uthmani_hafs":"وَأَذِنَتۡ","char_type_name":"word","page_number":589,"line_number":5,"text":"وَأَذِنَتۡ","translation":{"text":"And has listened","language_name":"english","language_id":38},"transliteration":{"text":"wa-adhinat","language_name":"english","language_id":38}},{"id":1738,"position":2,"audio_url":"wbw/084_002_002.mp3","verse_key":"84:2","verse_id":5886,"location":"84:2:2","text_uthmani":"لِرَبِّهَا","qpc_uthmani_hafs":"لِرَبِّهَا","char_type_name":"word","page_number":589,"line_number":5,"text":"لِرَبِّهَا","translation":{"text":"to its Lord","language_name":"english","language_id":38},"transliteration":{"text":"lirabbihā","language_name":"english","language_id":38}},{"id":1739,"position":3,"audio_url":"wbw/084_002_003.mp3","verse_key":"84:2","verse_id":5886,"location":"84:2:3","text_uthmani":"وَحُقَّتْ","qpc_uthmani_hafs":"وَحُقَّتۡ","char_type_name":"word","page_number":589,"line_number":5,"text":"وَحُقَّتۡ","translation":{"text":"and was obligated","language_name":"english","language_id":38},"transliteration":{"text":"waḥuqqat","language_name":"english","language_id":38}},{"id":1740,"position":4,"audio_url":null,"verse_key":"84:2","verse_id":5886,"location":"84:2:4","text_uthmani":"٢","qpc_uthmani_hafs":"٢","char_type_name":"end","page_number":589,"line_number":5,"text":"٢","translation":{"text":"(2)","language_name":"english","language_id":38},"transliteration":{"text":null,"language_name":"english","language_id":38}}]},{"id":5887,"verse_number":3,"verse_key":"84:3","hizb_number":59,"rub_el_hizb_number":236,"ruku_number":528,"manzil_number":7,"sajdah_number":null,"page_number":589,"juz_number":30,"words":[{"id":2889,"position":1,"audio_url":"wbw/084_003_001.mp3","verse_key":"84:3","verse_id":5887,"location":"84:3:1","text_uthmani":"وَإِذَا","qpc_uthmani_hafs":"وَإِذَا","char_type_name":"word","page_number":589,"line_number":5,"text":"وَإِذَا","translation":{"text":"And when","language_name":"english","language_id":38},"transliteration":{"text":"wa-idhā","language_name":"english","language_id":38}},{"id":2890,"position":2,"audio_url":"wbw/084_003_002.mp3","verse_key":"84:3","verse_id":5887,"location":"84:3:2","text_uthmani":"ٱلْأَرْضُ","qpc_uthmani_hafs":"ٱلۡأَرۡضُ","char_type_name":"word","page_number":589,"line_number":5,"text":"ٱلۡأَرۡضُ","translation":{"text":"the earth","language_name":"english","language_id":38},"transliteration":{"text":"l-arḍu","language_name":"english","language_id":38}},{"id":2891,"position":3,"audio_url":"wbw/084_003_003.mp3","verse_key":"84:3","verse_id":5887,"location":"84:3:3","text_uthmani":"مُدَّتْ","qpc_uthmani_hafs":"مُدَّتۡ","char_type_name":"word","page_number":589,"line_number":5,"text":"مُدَّتۡ","translation":{"text":"is spread","language_name":"english","language_id":38},"transliteration":{"text":"muddat","language_name":"english","language_id":38}},{"id":2892,"position":4,"audio_url":null,"verse_key":"84:3","verse_id":5887,"location":"84:3:4","text_uthmani":"٣","qpc_uthmani_hafs":"٣","char_type_name":"end","page_number":589,"line_number":6,"text":"٣","translation":{"text":"(3)","language_name":"english","language_id":38},"transliteration":{"text":null,"language_name":"english","language_id":38}}]},{"id":5888,"verse_number":4,"verse_key":"84:4","hizb_number":59,"rub_el_hizb_number":236,"ruku_number":528,"manzil_number":7,"sajdah_number":null,"page_number":589,"juz_number":30,"words":[{"id":4224,"position":1,"audio_url":"wbw/084_004_001.mp3","verse_key":"84:4","verse_id":5888,"location":"84:4:1","text_uthmani":"وَأَلْقَتْ","qpc_uthmani_hafs":"وَأَلۡقَتۡ","char_type_name":"word","page_number":589,"line_number":6,"text":"وَأَلۡقَتۡ","translation":{"text":"And has cast out","language_name":"english","language_id":38},"transliteration":{"text":"wa-alqat","language_name":"english","language_id":38}},{"id":4225,"position":2,"audio_url":"wbw/084_004_002.mp3","verse_key":"84:4","verse_id":5888,"location":"84:4:2","text_uthmani":"مَا","qpc_uthmani_hafs":"مَا","char_type_name":"word","page_number":589,"line_number":6,"text":"مَا","translation":{"text":"what","language_name":"english","language_id":38},"transliteration":{"text":"mā","language_name":"english","language_id":38}},{"id":4226,"position":3,"audio_url":"wbw/084_004_003.mp3","verse_key":"84:4","verse_id":5888,"location":"84:4:3","text_uthmani":"فِيهَا","qpc_uthmani_hafs":"فِيهَا","char_type_name":"word","page_number":589,"line_number":6,"text":"فِيهَا","translation":{"text":"(is) in it","language_name":"english","language_id":38},"transliteration":{"text":"fīhā","language_name":"english","language_id":38}},{"id":4227,"position":4,"audio_url":"wbw/084_004_004.mp3","verse_key":"84:4","verse_id":5888,"location":"84:4:4","text_uthmani":"وَتَخَلَّتْ","qpc_uthmani_hafs":"وَتَخَلَّتۡ","char_type_name":"word","page_number":589,"line_number":6,"text":"وَتَخَلَّتۡ","translation":{"text":"and becomes empty","language_name":"english","language_id":38},"transliteration":{"text":"watakhallat","language_name":"english","language_id":38}},{"id":4228,"position":5,"audio_url":null,"verse_key":"84:4","verse_id":5888,"location":"84:4:5","text_uthmani":"٤","qpc_uthmani_hafs":"٤","char_type_name":"end","page_number":589,"line_number":6,"text":"٤","translation":{"text":"(4)","language_name":"english","language_id":38},"transliteration":{"text":null,"language_name":"english","language_id":38}}]},{"id":5889,"verse_number":5,"verse_key":"84:5","hizb_number":59,"rub_el_hizb_number":236,"ruku_number":528,"manzil_number":7,"sajdah_number":null,"page_number":589,"juz_number":30,"words":[{"id":5488,"position":1,"audio_url":"wbw/084_005_001.mp3","verse_key":"84:5","verse_id":5889,"location":"84:5:1","text_uthmani":"وَأَذِنَتْ","qpc_uthmani_hafs":"وَأَذِنَتۡ","char_type_name":"word","page_number":589,"line_number":6,"text":"وَأَذِنَتۡ","translation":{"text":"And has listened","language_name":"english","language_id":38},"transliteration":{"text":"wa-adhinat","language_name":"english","language_id":38}},{"id":5489,"position":2,"audio_url":"wbw/084_005_002.mp3","verse_key":"84:5","verse_id":5889,"location":"84:5:2","text_uthmani":"لِرَبِّهَا","qpc_uthmani_hafs":"لِرَبِّهَا","char_type_name":"word","page_number":589,"line_number":6,"text":"لِرَبِّهَا","translation":{"text":"to its Lord","language_name":"english","language_id":38},"transliteration":{"text":"lirabbihā","language_name":"english","language_id":38}},{"id":5490,"position":3,"audio_url":"wbw/084_005_003.mp3","verse_key":"84:5","verse_id":5889,"location":"84:5:3","text_uthmani":"وَحُقَّتْ","qpc_uthmani_hafs":"وَحُقَّتۡ","char_type_name":"word","page_number":589,"line_number":6,"text":"وَحُقَّتۡ","translation":{"text":"and was obligated","language_name":"english","language_id":38},"transliteration":{"text":"waḥuqqat","language_name":"english","language_id":38}},{"id":5491,"position":4,"audio_url":null,"verse_key":"84:5","verse_id":5889,"location":"84:5:4","text_uthmani":"٥","qpc_uthmani_hafs":"٥","char_type_name":"end","page_number":589,"line_number":6,"text":"٥","translation":{"text":"(5)","language_name":"english","language_id":38},"transliteration":{"text":null,"language_name":"english","language_id":38}}]},{"id":5890,"verse_number":6,"verse_key":"84:6","hizb_number":59,"rub_el_hizb_number":236,"ruku_number":528,"manzil_number":7,"sajdah_number":null,"page_number":589,"juz_number":30,"words":[{"id":6720,"position":1,"audio_url":"wbw/084_006_001.mp3","verse_key":"84:6","verse_id":5890,"location":"84:6:1","text_uthmani":"يَـٰٓأَيُّهَا","qpc_uthmani_hafs":"يَٰٓأَيُّهَا","char_type_name":"word","page_number":589,"line_number":6,"text":"يَٰٓأَيُّهَا","translation":{"text":"O","language_name":"english","language_id":38},"transliteration":{"text":"yāayyuhā","language_name":"english","language_id":38}},{"id":6721,"position":2,"audio_url":"wbw/084_006_002.mp3","verse_key":"84:6","verse_id":5890,"location":"84:6:2","text_uthmani":"ٱلْإِنسَـٰنُ","qpc_uthmani_hafs":"ٱلۡإِنسَٰنُ","char_type_name":"word","page_number":589,"line_number":7,"text":"ٱلۡإِنسَٰنُ","translation":{"text":"mankind","language_name":"english","language_id":38},"transliteration":{"text":"l-insānu","language_name":"english","language_id":38}},{"id":6722,"position":3,"audio_url":"wbw/084_006_003.mp3","verse_key":"84:6","verse_id":5890,"location":"84:6:3","text_uthmani":"إِنَّكَ","qpc_uthmani_hafs":"إِنَّكَ","char_type_name":"word","page_number":589,"line_number":7,"text":"إِنَّكَ","translation":{"text":"Indeed, you","language_name":"english","language_id":38},"transliteration":{"text":"innaka","language_name":"english","language_id":38}},{"id":6723,"position":4,"audio_url":"wbw/084_006_004.mp3","verse_key":"84:6","verse_id":5890,"location":"84:6:4","text_uthmani":"كَادِحٌ","qpc_uthmani_hafs":"كَادِحٌ","char_type_name":"word","page_number":589,"line_number":7,"text":"كَادِحٌ","translation":{"text":"(are) laboring","language_name":"english","language_id":38},"transliteration":{"text":"kādiḥun","language_name":"english","language_id":38}},{"id":6724,"position":5,"audio_url":"wbw/084_006_005.mp3","verse_key":"84:6","verse_id":5890,"location":"84:6:5","text_uthmani":"إِلَىٰ","qpc_uthmani_hafs":"إِلَىٰ","char_type_name":"word","page_number":589,"line_number":7,"text":"إِلَىٰ","translation":{"text":"to","language_name":"english","language_id":38},"transliteration":{"text":"ilā","language_name":"english","language_id":38}},{"id":6725,"position":6,"audio_url":"wbw/084_006_006.mp3","verse_key":"84:6","verse_id":5890,"location":"84:6:6","text_uthmani":"رَبِّكَ","qpc_uthmani_hafs":"رَبِّكَ","char_type_name":"word","page_number":589,"line_number":7,"text":"رَبِّكَ","translation":{"text":"your Lord","language_name":"english","language_id":38},"transliteration":{"text":"rabbika","language_name":"english","language_id":38}},{"id":6726,"position":7,"audio_url":"wbw/084_006_007.mp3","verse_key":"84:6","verse_id":5890,"location":"84:6:7","text_uthmani":"كَدْحًۭا","qpc_uthmani_hafs":"كَدۡحٗا","char_type_name":"word","page_number":589,"line_number":7,"text":"كَدۡحٗا","translation":{"text":"(with) exertion","language_name":"english","language_id":38},"transliteration":{"text":"kadḥan","language_name":"english","language_id":38}},{"id":6727,"position":8,"audio_url":"wbw/084_006_008.mp3","verse_key":"84:6","verse_id":5890,"location":"84:6:8","text_uthmani":"فَمُلَـٰقِيهِ","qpc_uthmani_hafs":"فَمُلَٰقِيهِ","char_type_name":"word","page_number":589,"line_number":7,"text":"فَمُلَٰقِيهِ","translation":{"text":"and you (will) meet Him","language_name":"english","language_id":38},"transliteration":{"text":"famulāqīhi","language_name":"english","language_id":38}},{"id":6728,"position":9,"audio_url":null,"verse_key":"84:6","verse_id":5890,"location":"84:6:9","text_uthmani":"٦","qpc_uthmani_hafs":"٦","char_type_name":"end","page_number":589,"line_number":7,"text":"٦","translation":{"text":"(6)","language_name":"english","language_id":38},"transliteration":{"text":null,"language_name":"english","language_id":38}}]},{"id":5891,"verse_number":7,"verse_key":"84:7","hizb_number":59,"rub_el_hizb_number":236,"ruku_number":528,"manzil_number":7,"sajdah_number":null,"page_number":589,"juz_number":30,"words":[{"id":8068,"position":1,"audio_url":"wbw/084_007_001.mp3","verse_key":"84:7","verse_id":5891,"location":"84:7:1","text_uthmani":"فَأَمَّا","qpc_uthmani_hafs":"فَأَمَّا","char_type_name":"word","page_number":589,"line_number":7,"text":"فَأَمَّا","translation":{"text":"Then as for","language_name":"english","language_id":38},"transliteration":{"text":"fa-ammā","language_name":"english","language_id":38}},{"id":8069,"position":2,"audio_url":"wbw/084_007_002.mp3","verse_key":"84:7","verse_id":5891,"location":"84:7:2","text_uthmani":"مَنْ","qpc_uthmani_hafs":"مَنۡ","char_type_name":"word","page_number":589,"line_number":7,"text":"مَنۡ","translation":{"text":"(him) who","language_name":"english","language_id":38},"transliteration":{"text":"man","language_name":"english","language_id":38}},{"id":8070,"position":3,"audio_url":"wbw/084_007_003.mp3","verse_key":"84:7","verse_id":5891,"location":"84:7:3","text_uthmani":"أُوتِىَ","qpc_uthmani_hafs":"أُوتِيَ","char_type_name":"word","page_number":589,"line_number":7,"text":"أُوتِيَ","translation":{"text":"is given","language_name":"english","language_id":38},"transliteration":{"text":"ūtiya","language_name":"english","language_id":38}},{"id":8071,"position":4,"audio_url":"wbw/084_007_004.mp3","verse_key":"84:7","verse_id":5891,"location":"84:7:4","text_uthmani":"كِتَـٰبَهُۥ","qpc_uthmani_hafs":"كِتَٰبَهُۥ","char_type_name":"word","page_number":589,"line_number":8,"text":"كِتَٰبَهُۥ","translation":{"text":"his record","language_name":"english","language_id":38},"transliteration":{"text":"kitābahu","language_name":"english","language_id":38}},{"id":8072,"position":5,"audio_url":"wbw/084_007_005.mp3","verse_key":"84:7","verse_id":5891,"location":"84:7:5","text_uthmani":"بِيَمِينِهِۦ","qpc_uthmani_hafs":"بِيَمِينِهِۦ","char_type_name":"word","page_number":589,"line_number":8,"text":"بِيَمِينِهِۦ","translation":{"text":"in his right (hand)","language_name":"english","language_id":38},"transliteration":{"text":"biyamīnihi","language_name":"english","language_id":38}},{"id":8073,"position":6,"audio_url":null,"verse_key":"84:7","verse_id":5891,"location":"84:7:6","text_uthmani":"٧","qpc_uthmani_hafs":"٧","char_type_name":"end","page_number":589,"line_number":8,"text":"٧","translation":{"text":"(7)","language_name":"english","language_id":38},"transliteration":{"text":null,"language_name":"english","language_id":38}}]},{"id":5892,"verse_number":8,"verse_key":"84:8","hizb_number":59,"rub_el_hizb_number":236,"ruku_number":528,"manzil_number":7,"sajdah_number":null,"page_number":589,"juz_number":30,"words":[{"id":9238,"position":1,"audio_url":"wbw/084_008_001.mp3","verse_key":"84:8","verse_id":5892,"location":"84:8:1","text_uthmani":"فَسَوْفَ","qpc_uthmani_hafs":"فَسَوۡفَ","char_type_name":"word","page_number":589,"line_number":8,"text":"فَسَوۡفَ","translation":{"text":"Then soon","language_name":"english","language_id":38},"transliteration":{"text":"fasawfa","language_name":"english","language_id":38}},{"id":9239,"position":2,"audio_url":"wbw/084_008_002.mp3","verse_key":"84:8","verse_id":5892,"location":"84:8:2","text_uthmani":"يُحَاسَبُ","qpc_uthmani_hafs":"يُحَاسَبُ","char_type_name":"word","page_number":589,"line_number":8,"text":"يُحَاسَبُ","translation":{"text":"his account will be taken","language_name":"english","language_id":38},"transliteration":{"text":"yuḥāsabu","language_name":"english","language_id":38}},{"id":9240,"position":3,"audio_url":"wbw/084_008_003.mp3","verse_key":"84:8","verse_id":5892,"location":"84:8:3","text_uthmani":"حِسَابًۭا","qpc_uthmani_hafs":"حِسَابٗا","char_type_name":"word","page_number":589,"line_number":8,"text":"حِسَابٗا","translation":{"text":"an account","language_name":"english","language_id":38},"transliteration":{"text":"ḥisāban","language_name":"english","language_id":38}},{"id":9241,"position":4,"audio_url":"wbw/084_008_004.mp3","verse_key":"84:8","verse_id":5892,"location":"84:8:4","text_uthmani":"يَسِيرًۭا","qpc_uthmani_hafs":"يَسِيرٗا","char_type_name":"word","page_number":589,"line_number":8,"text":"يَسِيرٗا","translation":{"text":"easy","language_name":"english","language_id":38},"transliteration":{"text":"yasīran","language_name":"english","language_id":38}},{"id":9242,"position":5,"audio_url":null,"verse_key":"84:8","verse_id":5892,"location":"84:8:5","text_uthmani":"٨","qpc_uthmani_hafs":"٨","char_type_name":"end","page_number":589,"line_number":8,"text":"٨","translation":{"text":"(8)","language_name":"english","language_id":38},"transliteration":{"text":null,"language_name":"english","language_id":38}}]},{"id":5893,"verse_number":9,"verse_key":"84:9","hizb_number":59,"rub_el_hizb_number":236,"ruku_number":528,"manzil_number":7,"sajdah_number":null,"page_number":589,"juz_number":30,"words":[{"id":10433,"position":1,"audio_url":"wbw/084_009_001.mp3","verse_key":"84:9","verse_id":5893,"location":"84:9:1","text_uthmani":"وَيَنقَلِبُ","qpc_uthmani_hafs":"وَيَنقَلِبُ","char_type_name":"word","page_number":589,"line_number":8,"text":"وَيَنقَلِبُ","translation":{"text":"And he will return","language_name":"english","language_id":38},"transliteration":{"text":"wayanqalibu","language_name":"english","language_id":38}},{"id":10434,"position":2,"audio_url":"wbw/084_009_002.mp3","verse_key":"84:9","verse_id":5893,"location":"84:9:2","text_uthmani":"إِلَىٰٓ","qpc_uthmani_hafs":"إِلَىٰٓ","char_type_name":"word","page_number":589,"line_number":9,"text":"إِلَىٰٓ","translation":{"text":"to","language_name":"english","language_id":38},"transliteration":{"text":"ilā","language_name":"english","language_id":38}},{"id":10435,"position":3,"audio_url":"wbw/084_009_003.mp3","verse_key":"84:9","verse_id":5893,"location":"84:9:3","text_uthmani":"أَهْلِهِۦ","qpc_uthmani_hafs":"أَهۡلِهِۦ","char_type_name":"word","page_number":589,"line_number":9,"text":"أَهۡلِهِۦ","translation":{"text":"his people","language_name":"english","language_id":38},"transliteration":{"text":"ahlihi","language_name":"english","language_id":38}},{"id":10436,"position":4,"audio_url":"wbw/084_009_004.mp3","verse_key":"84:9","verse_id":5893,"location":"84:9:4","text_uthmani":"مَسْرُورًۭا","qpc_uthmani_hafs":"مَسۡرُورٗا","char_type_name":"word","page_number":589,"line_number":9,"text":"مَسۡرُورٗا","translation":{"text":"happily","language_name":"english","language_id":38},"transliteration":{"text":"masrūran","language_name":"english","language_id":38}},{"id":10437,"position":5,"audio_url":null,"verse_key":"84:9","verse_id":5893,"location":"84:9:5","text_uthmani":"٩","qpc_uthmani_hafs":"٩","char_type_name":"end","page_number":589,"line_number":9,"text":"٩","translation":{"text":"(9)","language_name":"english","language_id":38},"transliteration":{"text":null,"language_name":"english","language_id":38}}]},{"id":5894,"verse_number":10,"verse_key":"84:10","hizb_number":59,"rub_el_hizb_number":236,"ruku_number":528,"manzil_number":7,"sajdah_number":null,"page_number":589,"juz_number":30,"words":[{"id":11397,"position":1,"audio_url":"wbw/084_010_001.mp3","verse_key":"84:10","verse_id":5894,"location":"84:10:1","text_uthmani":"وَأَمَّا","qpc_uthmani_hafs":"وَأَمَّا","char_type_name":"word","page_number":589,"line_number":9,"text":"وَأَمَّا","translation":{"text":"But as for","language_name":"english","language_id":38},"transliteration":{"text":"wa-ammā","language_name":"english","language_id":38}},{"id":11398,"position":2,"audio_url":"wbw/084_010_002.mp3","verse_key":"84:10","verse_id":5894,"location":"84:10:2","text_uthmani":"مَنْ","qpc_uthmani_hafs":"مَنۡ","char_type_name":"word","page_number":589,"line_number":9,"text":"مَنۡ","translation":{"text":"(him) who","language_name":"english","language_id":38},"transliteration":{"text":"man","language_name":"english","language_id":38}},{"id":11399,"position":3,"audio_url":"wbw/084_010_003.mp3","verse_key":"84:10","verse_id":5894,"location":"84:10:3","text_uthmani":"أُوتِىَ","qpc_uthmani_hafs":"أُوتِيَ","char_type_name":"word","page_number":589,"line_number":9,"text":"أُوتِيَ","translation":{"text":"is given","language_name":"english","language_id":38},"transliteration":{"text":"ūtiya","language_name":"english","language_id":38}},{"id":11400,"position":4,"audio_url":"wbw/084_010_004.mp3","verse_key":"84:10","verse_id":5894,"location":"84:10:4","text_uthmani":"كِتَـٰبَهُۥ","qpc_uthmani_hafs":"كِتَٰبَهُۥ","char_type_name":"word","page_number":589,"line_number":9,"text":"كِتَٰبَهُۥ","translation":{"text":"his record","language_name":"english","language_id":38},"transliteration":{"text":"kitābahu","language_name":"english","language_id":38}},{"id":11401,"position":5,"audio_url":"wbw/084_010_005.mp3","verse_key":"84:10","verse_id":5894,"location":"84:10:5","text_uthmani":"وَرَآءَ","qpc_uthmani_hafs":"وَرَآءَ","char_type_name":"word","page_number":589,"line_number":9,"text":"وَرَآءَ","translation":{"text":"behind","language_name":"english","language_id":38},"transliteration":{"text":"warāa","language_name":"english","language_id":38}},{"id":11402,"position":6,"audio_url":"wbw/084_010_006.mp3","verse_key":"84:10","verse_id":5894,"location":"84:10:6","text_uthmani":"ظَهْرِهِۦ","qpc_uthmani_hafs":"ظَهۡرِهِۦ","char_type_name":"word","page_number":589,"line_number":9,"text":"ظَهۡرِهِۦ","translation":{"text":"his back","language_name":"english","language_id":38},"transliteration":{"text":"ẓahrihi","language_name":"english","language_id":38}},{"id":11403,"position":7,"audio_url":null,"verse_key":"84:10","verse_id":5894,"location":"84:10:7","text_uthmani":"١٠","qpc_uthmani_hafs":"١٠","char_type_name":"end","page_number":589,"line_number":9,"text":"١٠","translation":{"text":"(10)","language_name":"english","language_id":38},"transliteration":{"text":null,"language_name":"english","language_id":38}}]}],"pagination":{"per_page":10,"current_page":1,"next_page":2,"total_pages":3,"total_records":25}}
