{"verses":[{"id":5905,"verse_number":21,"verse_key":"84:21","hizb_number":59,"rub_el_hizb_number":236,"ruku_number":528,"manzil_number":7,"sajdah_number":13,"page_number":589,"juz_number":30,"words":[{"id":23990,"position":1,"audio_url":"wbw/084_021_001.mp3","verse_key":"84:21","verse_id":5905,"location":"84:21:1","text_uthmani":"وَإِذَا","qpc_uthmani_hafs":"وَإِذَا","char_type_name":"word","page_number":589,"line_number":13,"text":"وَإِذَا","translation":{"text":"And when","language_name":"english","language_id":38},"transliteration":{"text":"wa-idhā","language_name":"english","language_id":38}},{"id":23991,"position":2,"audio_url":"wbw/084_021_002.mp3","verse_key":"84:21","verse_id":5905,"location":"84:21:2","text_uthmani":"قُرِئَ","qpc_uthmani_hafs":"قُرِئَ","char_type_name":"word","page_number":589,"line_number":13,"text":"قُرِئَ","translation":{"text":"is recited","language_name":"english","language_id":38},"transliteration":{"text":"quri-a","language_name":"english","language_id":38}},{"id":23992,"position":3,"audio_url":"wbw/084_021_003.mp3","verse_key":"84:21","verse_id":5905,"location":"84:21:3","text_uthmani":"عَلَيْهِمُ","qpc_uthmani_hafs":"عَلَيۡهِمُ","char_type_name":"word","page_number":589,"line_number":14,"text":"عَلَيۡهِمُ","translation":{"text":"to them","language_name":"english","language_id":38},"transliteration":{"text":"ʿalayhimu","language_name":"english","language_id":38}},{"id":23993,"position":4,"audio_url":"wbw/084_021_004.mp3","verse_key":"84:21","verse_id":5905,"location":"84:21:4","text_uthmani":"ٱلْقُرْءَانُ","qpc_uthmani_hafs":"ٱلۡقُرۡءَانُ","char_type_name":"word","page_number":589,"line_number":14,"text":"ٱلۡقُرۡءَانُ","translation":{"text":"the Quran","language_name":"english","language_id":38},"transliteration":{"text":"l-qur'ānu","language_name":"english","language_id":38}},{"id":23994,"position":5,"audio_url":"wbw/084_021_005.mp3","verse_key":"84:21","verse_id":5905,"location":"84:21:5","text_uthmani":"لَا","qpc_uthmani_hafs":"لَا","char_type_name":"word","page_number":589,"line_number":14,"text":"لَا","translation":{"text":"not","language_name":"english","language_id":38},"transliteration":{"text":"lā","language_name":"english","language_id":38}},{"id":23995,"position":6,"audio_url":"wbw/084_021_006.mp3","verse_key":"84:21","verse_id":5905,"location":"84:21:6","text_uthmani":"يَسْجُدُونَ ۩","qpc_uthmani_hafs":"يَسۡجُدُونَۤ ۩","char_type_name":"word","page_number":589,"line_number":14,"text":"يَسۡجُدُونَۤ ۩","translation":{"text":"they prostrate","language_name":"english","language_id":38},"transliteration":{"text":"yasjudūna","language_name":"english","language_id":38}},{"id":23997,"position":7,"audio_url":"","verse_key":"84:21","verse_id":5905,"location":"84:21:7","text_uthmani":"٢١","qpc_uthmani_hafs":"٢١","char_type_name":"end","page_number":589,"line_number":14,"text":"٢١","translation":{"text":"(21)","language_name":"english","language_id":38},"transliteration":{"text":"","language_name":"english","language_id":38}}]},{"id":5906,"verse_number":22,"verse_key":"84:22","hizb_number":59,"rub_el_hizb_number":236,"ruku_number":528,"manzil_number":7,"sajdah_number":null,"page_number":589,"juz_number":30,"words":[{"id":25018,"position":1,"audio_url":"wbw/084_022_001.mp3","verse_key":"84:22","verse_id":5906,"location":"84:22:1","text_uthmani":"بَلِ","qpc_uthmani_hafs":"بَلِ","char_type_name":"word","page_number":589,"line_number":14,"text":"بَلِ","translation":{"text":"Nay","language_name":"english","language_id":38},"transliteration":{"text":"bali","language_name":"english","language_id":38}},{"id":25019,"position":2,"audio_url":"wbw/084_022_002.mp3","verse_key":"84:22","verse_id":5906,"location":"84:22:2","text_uthmani":"ٱلَّذِينَ","qpc_uthmani_hafs":"ٱلَّذِينَ","char_type_name":"word","page_number":589,"line_number":14,"text":"ٱلَّذِينَ","translation":{"text":"Those who","language_name":"english","language_id":38},"transliteration":{"text":"alladhīna","language_name":"english","language_id":38}},{"id":25020,"position":3,"audio_url":"wbw/084_022_003.mp3","verse_key":"84:22","verse_id":5906,"location":"84:22:3","text_uthmani":"كَفَرُوا۟","qpc_uthmani_hafs":"كَفَرُواْ","char_type_name":"word","page_number":589,"line_number":14,"text":"كَفَرُواْ","translation":{"text":"disbelieved","language_name":"english","language_id":38},"transliteration":{"text":"kafarū","language_name":"english","language_id":38}},{"id":25021,"position":4,"audio_url":"wbw/084_022_004.mp3","verse_key":"84:22","verse_id":5906,"location":"84:22:4","text_uthmani":"يُكَذِّبُونَ","qpc_uthmani_hafs":"يُكَذِّبُونَ","char_type_name":"word","page_number":589,"line_number":14,"text":"يُكَذِّبُونَ","translation":{"text":"deny","language_name":"english","language_id":38},"transliteration":{"text":"yukadhibūna","language_name":"english","language_id":38}},{"id":25022,"position":5,"audio_url":null,"verse_key":"84:22","verse_id":5906,"location":"84:22:5","text_uthmani":"٢٢","qpc_uthmani_hafs":"٢٢","char_type_name":"end","page_number":589,"line_number":15,"text":"٢٢","translation":{"text":"(22)","language_name":"english","language_id":38},"transliteration":{"text":null,"language_name":"english","language_id":38}}]},{"id":5907,"verse_number":23,"verse_key":"84:23","hizb_number":59,"rub_el_hizb_number":236,"ruku_number":528,"manzil_number":7,"sajdah_number":null,"page_number":589,"juz_number":30,"words":[{"id":26088,"position":1,"audio_url":"wbw/084_023_001.mp3","verse_key":"84:23","verse_id":5907,"location":"84:23:1","text_uthmani":"وَٱللَّهُ","qpc_uthmani_hafs":"وَٱللَّهُ","char_type_name":"word","page_number":589,"line_number":15,"text":"وَٱللَّهُ","translation":{"text":"And Allah","language_name":"english","language_id":38},"transliteration":{"text":"wal-lahu","language_name":"english","language_id":38}},{"id":26089,"position":2,"audio_url":"wbw/084_023_002.mp3","verse_key":"84:23","verse_id":5907,"location":"84:23:2","text_uthmani":"أَعْلَمُ","qpc_uthmani_hafs":"أَعۡلَمُ","char_type_name":"word","page_number":589,"line_number":15,"text":"أَعۡلَمُ","translation":{"text":"(is) most knowing","language_name":"english","language_id":38},"transliteration":{"text":"aʿlamu","language_name":"english","language_id":38}},{"id":26090,"position":3,"audio_url":"wbw/084_023_003.mp3","verse_key":"84:23","verse_id":5907,"location":"84:23:3","text_uthmani":"بِمَا","qpc_uthmani_hafs":"بِمَا","char_type_name":"word","page_number":589,"line_number":15,"text":"بِمَا","translation":{"text":"of what","language_name":"english","language_id":38},"transliteration":{"text":"bimā","language_name":"english","language_id":38}},{"id":26091,"position":4,"audio_url":"wbw/084_023_004.mp3","verse_key":"84:23","verse_id":5907,"location":"84:23:4","text_uthmani":"يُوعُونَ","qpc_uthmani_hafs":"يُوعُونَ","char_type_name":"word","page_number":589,"line_number":15,"text":"يُوعُونَ","translation":{"text":"they keep within themselves","language_name":"english","language_id":38},"transliteration":{"text":"yūʿūna","language_name":"english","language_id":38}},{"id":26092,"position":5,"audio_url":null,"verse_key":"84:23","verse_id":5907,"location":"84:23:5","text_uthmani":"٢٣","qpc_uthmani_hafs":"٢٣","char_type_name":"end","page_number":589,"line_number":15,"text":"٢٣","translation":{"text":"(23)","language_name":"english","language_id":38},"transliteration":{"text":null,"language_name":"english","language_id":38}}]},{"id":5908,"verse_number":24,"verse_key":"84:24","hizb_number":59,"rub_el_hizb_number":236,"ruku_number":528,"manzil_number":7,"sajdah_number":null,"page_number":589,"juz_number":30,"words":[{"id":26816,"position":1,"audio_url":"wbw/084_024_001.mp3","verse_key":"84:24","verse_id":5908,"location":"84:24:1","text_uthmani":"فَبَشِّرْهُم","qpc_uthmani_hafs":"فَبَشِّرۡهُم","char_type_name":"word","page_number":589,"line_number":15,"text":"فَبَشِّرۡهُم","translation":{"text":"so give them tidings","language_name":"english","language_id":38},"transliteration":{"text":"fabashir'hum","language_name":"english","language_id":38}},{"id":26817,"position":2,"audio_url":"wbw/084_024_002.mp3","verse_key":"84:24","verse_id":5908,"location":"84:24:2","text_uthmani":"بِعَذَابٍ","qpc_uthmani_hafs":"بِعَذَابٍ","char_type_name":"word","page_number":589,"line_number":15,"text":"بِعَذَابٍ","translation":{"text":"of a punishment","language_name":"english","language_id":38},"transliteration":{"text":"biʿadhābin","language_name":"english","language_id":38}},{"id":26818,"position":3,"audio_url":"wbw/084_024_003.mp3","verse_key":"84:24","verse_id":5908,"location":"84:24:3","text_uthmani":"أَلِيمٍ","qpc_uthmani_hafs":"أَلِيمٍ","char_type_name":"word","page_number":589,"line_number":15,"text":"أَلِيمٍ","translation":{"text":"painful","language_name":"english","language_id":38},"transliteration":{"text":"alīmin","language_name":"english","language_id":38}},{"id":26819,"position":4,"audio_url":null,"verse_key":"84:24","verse_id":5908,"location":"84:24:4","text_uthmani":"٢٤","qpc_uthmani_hafs":"٢٤","char_type_name":"end","page_number":589,"line_number":15,"text":"٢٤","translation":{"text":"(24)","language_name":"english","language_id":38},"transliteration":{"text":null,"language_name":"english","language_id":38}}]},{"id":5909,"verse_number":25,"verse_key":"84:25","hizb_number":59,"rub_el_hizb_number":236,"ruku_number":528,"manzil_number":7,"sajdah_number":null,"page_number":590,"juz_number":30,"words":[{"id":28164,"position":1,"audio_url":"wbw/084_025_001.mp3","verse_key":"84:25","verse_id":5909,"location":"84:25:1","text_uthmani":"إِلَّا","qpc_uthmani_hafs":"إِلَّا","char_type_name":"word","page_number":590,"line_number":1,"text":"إِلَّا","translation":{"text":"Except","language_name":"english","language_id":38},"transliteration":{"text":"illā","language_name":"english","language_id":38}},{"id":28165,"position":2,"audio_url":"wbw/084_025_002.mp3","verse_key":"84:25","verse_id":5909,"location":"84:25:2","text_uthmani":"ٱلَّذِينَ","qpc_uthmani_hafs":"ٱلَّذِينَ","char_type_name":"word","page_number":590,"line_number":1,"text":"ٱلَّذِينَ","translation":{"text":"those who","language_name":"english","language_id":38},"transliteration":{"text":"alladhīna","language_name":"english","language_id":38}},{"id":28166,"position":3,"audio_url":"wbw/084_025_003.mp3","verse_key":"84:25","verse_id":5909,"location":"84:25:3","text_uthmani":"ءَامَنُوا۟","qpc_uthmani_hafs":"ءَامَنُواْ","char_type_name":"word","page_number":590,"line_number":1,"text":"ءَامَنُواْ","translation":{"text":"believe","language_name":"english","language_id":38},"transliteration":{"text":"āmanū","language_name":"english","language_id":38}},{"id":28167,"position":4,"audio_url":"wbw/084_025_004.mp3","verse_key":"84:25","verse_id":5909,"location":"84:25:4","text_uthmani":"وَعَمِلُوا۟","qpc_uthmani_hafs":"وَعَمِلُواْ","char_type_name":"word","page_number":590,"line_number":1,"text":"وَعَمِلُواْ","translation":{"text":"and do","language_name":"english","language_id":38},"transliteration":{"text":"waʿamilū","language_name":"english","language_id":38}},{"id":28168,"position":5,"audio_url":"wbw/084_025_005.mp3","verse_key":"84:25","verse_id":5909,"location":"84:25:5","text_uthmani":"ٱلصَّـٰلِحَـٰتِ","qpc_uthmani_hafs":"ٱلصَّٰلِحَٰتِ","char_type_name":"word","page_number":590,"line_number":1,"text":"ٱلصَّٰلِحَٰتِ","translation":{"text":"righteous deeds","language_name":"english","language_id":38},"transliteration":{"text":"l-ṣāliḥāti","language_name":"english","language_id":38}},{"id":28169,"position":6,"audio_url":"wbw/084_025_006.mp3","verse_key":"84:25","verse_id":5909,"location":"84:25:6","text_uthmani":"لَهُمْ","qpc_uthmani_hafs":"لَهُمۡ","char_type_name":"word","page_number":590,"line_number":1,"text":"لَهُمۡ","translation":{"text":"For them","language_name":"english","language_id":38},"transliteration":{"text":"lahum","language_name":"english","language_id":38}},{"id":28170,"position":7,"audio_url":"wbw/084_025_007.mp3","verse_key":"84:25","verse_id":5909,"location":"84:25:7","text_uthmani":"أَجْرٌ","qpc_uthmani_hafs":"أَجۡرٌ","char_type_name":"word","page_number":590,"line_number":1,"text":"أَجۡرٌ","translation":{"text":"(is) a reward","language_name":"english","language_id":38},"transliteration":{"text":"ajrun","language_name":"english","language_id":38}},{"id":28171,"position":8,"audio_url":"wbw/084_025_008.mp3","verse_key":"84:25","verse_id":5909,"location":"84:25:8","text_uthmani":"غَيْرُ","qpc_uthmani_hafs":"غَيۡرُ","char_type_name":"word","page_number":590,"line_number":1,"text":"غَيۡرُ","translation":{"text":"never","language_name":"english","language_id":38},"transliteration":{"text":"ghayru","language_name":"english","language_id":38}},{"id":28172,"position":9,"audio_url":"wbw/084_025_009.mp3","verse_key":"84:25","verse_id":5909,"location":"84:25:9","text_uthmani":"مَمْنُونٍۭ","qpc_uthmani_hafs":"مَمۡنُونِۭ","char_type_name":"word","page_number":590,"line_number":1,"text":"مَمۡنُونِۭ","translation":{"text":"ending","language_name":"english","language_id":38},"transliteration":{"text":"mamnūnin","language_name":"english","language_id":38}},{"id":28173,"position":10,"audio_url":null,"verse_key":"84:25","verse_id":5909,"location":"84:25:10","text_uthmani":"٢٥","qpc_uthmani_hafs":"٢٥","char_type_name":"end","page_number":590,"line_number":1,"text":"٢٥","translation":{"text":"(25)","language_name":"english","language_id":38},"transliteration":{"text":null,"language_name":"english","language_id":38}}]}],"pagination":{"per_page":10,"current_page":3,"next_page":null,"total_pages":3,"total_records":25}}
