{"verses":[{"id":1803,"verse_number":1,"verse_key":"15:1","hizb_number":27,"rub_el_hizb_number":105,"ruku_number":218,"manzil_number":3,"sajdah_number":null,"page_number":262,"juz_number":14,"words":[{"id":833,"position":1,"audio_url":"wbw/015_001_001.mp3","char_type_name":"word","page_number":262,"line_number":3,"text":"الٓر ۚ","translation":{"text":"আলিফ লা-ম রা-","language_name":"bengali","language_id":20},"transliteration":{"text":"alif-lam-ra","language_name":"english","language_id":38}},{"id":835,"position":2,"audio_url":"wbw/015_001_003.mp3","char_type_name":"word","page_number":262,"line_number":3,"text":"تِلْكَ","translation":{"text":"এগুলো","language_name":"bengali","language_id":20},"transliteration":{"text":"til'ka","language_name":"english","language_id":38}},{"id":836,"position":3,"audio_url":"wbw/015_001_004.mp3","char_type_name":"word","page_number":262,"line_number":3,"text":"ءَايَـٰتُ","translation":{"text":"আয়াত","language_name":"bengali","language_id":20},"transliteration":{"text":"āyātu","language_name":"english","language_id":38}},{"id":837,"position":4,"audio_url":"wbw/015_001_005.mp3","char_type_name":"word","page_number":262,"line_number":3,"text":"ٱلْكِتَـٰبِ","translation":{"text":"কিতাবের","language_name":"bengali","language_id":20},"transliteration":{"text":"l-kitābi","language_name":"english","language_id":38}},{"id":838,"position":5,"audio_url":"wbw/015_001_006.mp3","char_type_name":"word","page_number":262,"line_number":3,"text":"وَقُرْءَانٍۢ","translation":{"text":"এবং কুরআনের","language_name":"bengali","language_id":20},"transliteration":{"text":"waqur'ānin","language_name":"english","language_id":38}},{"id":839,"position":6,"audio_url":"wbw/015_001_007.mp3","char_type_name":"word","page_number":262,"line_number":3,"text":"مُّبِينٍۢ","translation":{"text":"(যা) সুষ্পষ্ট","language_name":"bengali","language_id":20},"transliteration":{"text":"mubīnin","language_name":"english","language_id":38}},{"id":840,"position":7,"audio_url":null,"char_type_name":"end","page_number":262,"line_number":3,"text":"١","translation":{"text":"(১)","language_name":"bengali","language_id":20},"transliteration":{"text":null,"language_name":"english","language_id":38}}]},{"id":1804,"verse_number":2,"verse_key":"15:2","hizb_number":27,"rub_el_hizb_number":105,"ruku_number":218,"manzil_number":3,"sajdah_number":null,"page_number":262,"juz_number":14,"words":[{"id":1944,"position":1,"audio_url":"wbw/015_002_001.mp3","char_type_name":"word","page_number":262,"line_number":3,"text":"رُّبَمَا","translation":{"text":"কখনও কখনও","language_name":"bengali","language_id":20},"transliteration":{"text":"rubamā","language_name":"english","language_id":38}},{"id":1945,"position":2,"audio_url":"wbw/015_002_002.mp3","char_type_name":"word","page_number":262,"line_number":3,"text":"يَوَدُّ","translation":{"text":"আকাঙ্ক্ষা করবে","language_name":"bengali","language_id":20},"transliteration":{"text":"yawaddu","language_name":"english","language_id":38}},{"id":1946,"position":3,"audio_url":"wbw/015_002_003.mp3","char_type_name":"word","page_number":262,"line_number":4,"text":"ٱلَّذِينَ","translation":{"text":"যারা","language_name":"bengali","language_id":20},"transliteration":{"text":"alladhīna","language_name":"english","language_id":38}},{"id":1947,"position":4,"audio_url":"wbw/015_002_004.mp3","char_type_name":"word","page_number":262,"line_number":4,"text":"كَفَرُوا۟","translation":{"text":"অস্বীকার করেছে","language_name":"bengali","language_id":20},"transliteration":{"text":"kafarū","language_name":"english","language_id":38}},{"id":1948,"position":5,"audio_url":"wbw/015_002_005.mp3","char_type_name":"word","page_number":262,"line_number":4,"text":"لَوْ","translation":{"text":"যদি","language_name":"bengali","language_id":20},"transliteration":{"text":"law","language_name":"english","language_id":38}},{"id":1949,"position":6,"audio_url":"wbw/015_002_006.mp3","char_type_name":"word","page_number":262,"line_number":4,"text":"كَانُوا۟","translation":{"text":"তারা হতো","language_name":"bengali","language_id":20},"transliteration":{"text":"kānū","language_name":"english","language_id":38}},{"id":1950,"position":7,"audio_url":"wbw/015_002_007.mp3","char_type_name":"word","page_number":262,"line_number":4,"text":"مُسْلِمِينَ","translation":{"text":"(আত্মসমর্পণকারী) মুসলমান","language_name":"bengali","language_id":20},"transliteration":{"text":"mus'limīna","language_name":"english","language_id":38}},{"id":1951,"position":8,"audio_url":null,"char_type_name":"end","page_number":262,"line_number":4,"text":"٢","translation":{"text":"(২)","language_name":"bengali","language_id":20},"transliteration":{"text":null,"language_name":"english","language_id":38}}]},{"id":1805,"verse_number":3,"verse_key":"15:3","hizb_number":27,"rub_el_hizb_number":105,"ruku_number":218,"manzil_number":3,"sajdah_number":null,"page_number":262,"juz_number":14,"words":[{"id":3132,"position":1,"audio_url":"wbw/015_003_001.mp3","char_type_name":"word","page_number":262,"line_number":4,"text":"ذَرْهُمْ","translation":{"text":"তাদেরকে ছেড়ে দাও","language_name":"bengali","language_id":20},"transliteration":{"text":"dharhum","language_name":"english","language_id":38}},{"id":3133,"position":2,"audio_url":"wbw/015_003_002.mp3","char_type_name":"word","page_number":262,"line_number":4,"text":"يَأْكُلُوا۟","translation":{"text":"তারা খেতে থাকুক","language_name":"bengali","language_id":20},"transliteration":{"text":"yakulū","language_name":"english","language_id":38}},{"id":3134,"position":3,"audio_url":"wbw/015_003_003.mp3","char_type_name":"word","page_number":262,"line_number":5,"text":"وَيَتَمَتَّعُوا۟","translation":{"text":"ও তারা ভোগ করুক","language_name":"bengali","language_id":20},"transliteration":{"text":"wayatamattaʿū","language_name":"english","language_id":38}},{"id":3135,"position":4,"audio_url":"wbw/015_003_004.mp3","char_type_name":"word","page_number":262,"line_number":5,"text":"وَيُلْهِهِمُ","translation":{"text":"এবং তাদেরকে মোহাচ্ছন্ন রাখুক","language_name":"bengali","language_id":20},"transliteration":{"text":"wayul'hihimu","language_name":"english","language_id":38}},{"id":3136,"position":5,"audio_url":"wbw/015_003_005.mp3","char_type_name":"word","page_number":262,"line_number":5,"text":"ٱلْأَمَلُ ۖ","translation":{"text":"আশা আকাঙ্ক্ষা","language_name":"bengali","language_id":20},"transliteration":{"text":"l-amalu","language_name":"english","language_id":38}},{"id":3138,"position":6,"audio_url":"wbw/015_003_007.mp3","char_type_name":"word","page_number":262,"line_number":5,"text":"فَسَوْفَ","translation":{"text":"অতঃপর শীঘ্রই","language_name":"bengali","language_id":20},"transliteration":{"text":"fasawfa","language_name":"english","language_id":38}},{"id":3139,"position":7,"audio_url":"wbw/015_003_008.mp3","char_type_name":"word","page_number":262,"line_number":5,"text":"يَعْلَمُونَ","translation":{"text":"তারা জানবে","language_name":"bengali","language_id":20},"transliteration":{"text":"yaʿlamūna","language_name":"english","language_id":38}},{"id":3140,"position":8,"audio_url":null,"char_type_name":"end","page_number":262,"line_number":5,"text":"٣","translation":{"text":"(৩)","language_name":"bengali","language_id":20},"transliteration":{"text":null,"language_name":"english","language_id":38}}]},{"id":1806,"verse_number":4,"verse_key":"15:4","hizb_number":27,"rub_el_hizb_number":105,"ruku_number":218,"manzil_number":3,"sajdah_number":null,"page_number":262,"juz_number":14,"words":[{"id":3605,"position":1,"audio_url":"wbw/015_004_001.mp3","char_type_name":"word","page_number":262,"line_number":5,"text":"وَمَآ","translation":{"text":"এবং না","language_name":"bengali","language_id":20},"transliteration":{"text":"wamā","language_name":"english","language_id":38}},{"id":3606,"position":2,"audio_url":"wbw/015_004_002.mp3","char_type_name":"word","page_number":262,"line_number":5,"text":"أَهْلَكْنَا","translation":{"text":"আমরা ধ্বংস করি","language_name":"bengali","language_id":20},"transliteration":{"text":"ahlaknā","language_name":"english","language_id":38}},{"id":3607,"position":3,"audio_url":"wbw/015_004_003.mp3","char_type_name":"word","page_number":262,"line_number":6,"text":"مِن","translation":{"text":"কোনো","language_name":"bengali","language_id":20},"transliteration":{"text":"min","language_name":"english","language_id":38}},{"id":3608,"position":4,"audio_url":"wbw/015_004_004.mp3","char_type_name":"word","page_number":262,"line_number":6,"text":"قَرْيَةٍ","translation":{"text":"জনবসতিকে","language_name":"bengali","language_id":20},"transliteration":{"text":"qaryatin","language_name":"english","language_id":38}},{"id":3609,"position":5,"audio_url":"wbw/015_004_005.mp3","char_type_name":"word","page_number":262,"line_number":6,"text":"إِلَّا","translation":{"text":"এ ছাড়া যে","language_name":"bengali","language_id":20},"transliteration":{"text":"illā","language_name":"english","language_id":38}},{"id":3610,"position":6,"audio_url":"wbw/015_004_006.mp3","char_type_name":"word","page_number":262,"line_number":6,"text":"وَلَهَا","translation":{"text":"এবং তার জন্যে ছিলো","language_name":"bengali","language_id":20},"transliteration":{"text":"walahā","language_name":"english","language_id":38}},{"id":3611,"position":7,"audio_url":"wbw/015_004_007.mp3","char_type_name":"word","page_number":262,"line_number":6,"text":"كِتَابٌۭ","translation":{"text":"লিখিত মেয়াদ","language_name":"bengali","language_id":20},"transliteration":{"text":"kitābun","language_name":"english","language_id":38}},{"id":3612,"position":8,"audio_url":"wbw/015_004_008.mp3","char_type_name":"word","page_number":262,"line_number":6,"text":"مَّعْلُومٌۭ","translation":{"text":"নির্দিষ্ট","language_name":"bengali","language_id":20},"transliteration":{"text":"maʿlūmun","language_name":"english","language_id":38}},{"id":3613,"position":9,"audio_url":null,"char_type_name":"end","page_number":262,"line_number":6,"text":"٤","translation":{"text":"(৪)","language_name":"bengali","language_id":20},"transliteration":{"text":null,"language_name":"english","language_id":38}}]},{"id":1807,"verse_number":5,"verse_key":"15:5","hizb_number":27,"rub_el_hizb_number":105,"ruku_number":218,"manzil_number":3,"sajdah_number":null,"page_number":262,"juz_number":14,"words":[{"id":5180,"position":1,"audio_url":"wbw/015_005_001.mp3","char_type_name":"word","page_number":262,"line_number":6,"text":"مَّا","translation":{"text":"না","language_name":"bengali","language_id":20},"transliteration":{"text":"mā","language_name":"english","language_id":38}},{"id":5181,"position":2,"audio_url":"wbw/015_005_002.mp3","char_type_name":"word","page_number":262,"line_number":6,"text":"تَسْبِقُ","translation":{"text":"এগিয়ে আনতে পারে","language_name":"bengali","language_id":20},"transliteration":{"text":"tasbiqu","language_name":"english","language_id":38}},{"id":5182,"position":3,"audio_url":"wbw/015_005_003.mp3","char_type_name":"word","page_number":262,"line_number":6,"text":"مِنْ","translation":{"text":"কোনো","language_name":"bengali","language_id":20},"transliteration":{"text":"min","language_name":"english","language_id":38}},{"id":5183,"position":4,"audio_url":"wbw/015_005_004.mp3","char_type_name":"word","page_number":262,"line_number":6,"text":"أُمَّةٍ","translation":{"text":"জাতি","language_name":"bengali","language_id":20},"transliteration":{"text":"ummatin","language_name":"english","language_id":38}},{"id":5184,"position":5,"audio_url":"wbw/015_005_005.mp3","char_type_name":"word","page_number":262,"line_number":7,"text":"أَجَلَهَا","translation":{"text":"তার কালকে","language_name":"bengali","language_id":20},"transliteration":{"text":"ajalahā","language_name":"english","language_id":38}},{"id":5185,"position":6,"audio_url":"wbw/015_005_006.mp3","char_type_name":"word","page_number":262,"line_number":7,"text":"وَمَا","translation":{"text":"আর না","language_name":"bengali","language_id":20},"transliteration":{"text":"wamā","language_name":"english","language_id":38}},{"id":5186,"position":7,"audio_url":"wbw/015_005_007.mp3","char_type_name":"word","page_number":262,"line_number":7,"text":"يَسْتَـْٔخِرُونَ","translation":{"text":"দেরি করতে পারে","language_name":"bengali","language_id":20},"transliteration":{"text":"yastakhirūna","language_name":"english","language_id":38}},{"id":5187,"position":8,"audio_url":null,"char_type_name":"end","page_number":262,"line_number":7,"text":"٥","translation":{"text":"(৫)","language_name":"bengali","language_id":20},"transliteration":{"text":null,"language_name":"english","language_id":38}}]},{"id":1808,"verse_number":6,"verse_key":"15:6","hizb_number":27,"rub_el_hizb_number":105,"ruku_number":218,"manzil_number":3,"sajdah_number":null,"page_number":262,"juz_number":14,"words":[{"id":6937,"position":1,"audio_url":"wbw/015_006_001.mp3","char_type_name":"word","page_number":262,"line_number":7,"text":"وَقَالُوا۟","translation":{"text":"এবং তারা বলে","language_name":"bengali","language_id":20},"transliteration":{"text":"waqālū","language_name":"english","language_id":38}},{"id":6938,"position":2,"audio_url":"wbw/015_006_002.mp3","char_type_name":"word","page_number":262,"line_number":7,"text":"يَـٰٓأَيُّهَا","translation":{"text":"\"হে","language_name":"bengali","language_id":20},"transliteration":{"text":"yāayyuhā","language_name":"english","language_id":38}},{"id":6939,"position":3,"audio_url":"wbw/015_006_003.mp3","char_type_name":"word","page_number":262,"line_number":7,"text":"ٱلَّذِى","translation":{"text":"যে","language_name":"bengali","language_id":20},"transliteration":{"text":"alladhī","language_name":"english","language_id":38}},{"id":6940,"position":4,"audio_url":"wbw/015_006_004.mp3","char_type_name":"word","page_number":262,"line_number":7,"text":"نُزِّلَ","translation":{"text":"অবতীর্ণ হয়েছে","language_name":"bengali","language_id":20},"transliteration":{"text":"nuzzila","language_name":"english","language_id":38}},{"id":6941,"position":5,"audio_url":"wbw/015_006_005.mp3","char_type_name":"word","page_number":262,"line_number":7,"text":"عَلَيْهِ","translation":{"text":"তার উপর","language_name":"bengali","language_id":20},"transliteration":{"text":"ʿalayhi","language_name":"english","language_id":38}},{"id":6942,"position":6,"audio_url":"wbw/015_006_006.mp3","char_type_name":"word","page_number":262,"line_number":8,"text":"ٱلذِّكْرُ","translation":{"text":"উপদেশ বাণী(কুরআন)","language_name":"bengali","language_id":20},"transliteration":{"text":"l-dhik'ru","language_name":"english","language_id":38}},{"id":6943,"position":7,"audio_url":"wbw/015_006_007.mp3","char_type_name":"word","page_number":262,"line_number":8,"text":"إِنَّكَ","translation":{"text":"নিশ্চয়ই তুমি","language_name":"bengali","language_id":20},"transliteration":{"text":"innaka","language_name":"english","language_id":38}},{"id":6944,"position":8,"audio_url":"wbw/015_006_008.mp3","char_type_name":"word","page_number":262,"line_number":8,"text":"لَمَجْنُونٌۭ","translation":{"text":"অবশ্যই পাগল","language_name":"bengali","language_id":20},"transliteration":{"text":"lamajnūnun","language_name":"english","language_id":38}},{"id":6945,"position":9,"audio_url":null,"char_type_name":"end","page_number":262,"line_number":8,"text":"٦","translation":{"text":"(৬)","language_name":"bengali","language_id":20},"transliteration":{"text":null,"language_name":"english","language_id":38}}]},{"id":1809,"verse_number":7,"verse_key":"15:7","hizb_number":27,"rub_el_hizb_number":105,"ruku_number":218,"manzil_number":3,"sajdah_number":null,"page_number":262,"juz_number":14,"words":[{"id":8233,"position":1,"audio_url":"wbw/015_007_001.mp3","char_type_name":"word","page_number":262,"line_number":8,"text":"لَّوْ","translation":{"text":"কেন","language_name":"bengali","language_id":20},"transliteration":{"text":"law","language_name":"english","language_id":38}},{"id":8234,"position":2,"audio_url":"wbw/015_007_002.mp3","char_type_name":"word","page_number":262,"line_number":8,"text":"مَا","translation":{"text":"না","language_name":"bengali","language_id":20},"transliteration":{"text":"mā","language_name":"english","language_id":38}},{"id":8235,"position":3,"audio_url":"wbw/015_007_003.mp3","char_type_name":"word","page_number":262,"line_number":8,"text":"تَأْتِينَا","translation":{"text":"আমাদের কাছে আসো","language_name":"bengali","language_id":20},"transliteration":{"text":"tatīnā","language_name":"english","language_id":38}},{"id":8236,"position":4,"audio_url":"wbw/015_007_004.mp3","char_type_name":"word","page_number":262,"line_number":8,"text":"بِٱلْمَلَـٰٓئِكَةِ","translation":{"text":"নিয়ে ফেরেশতাদের","language_name":"bengali","language_id":20},"transliteration":{"text":"bil-malāikati","language_name":"english","language_id":38}},{"id":8237,"position":5,"audio_url":"wbw/015_007_005.mp3","char_type_name":"word","page_number":262,"line_number":8,"text":"إِن","translation":{"text":"যদি","language_name":"bengali","language_id":20},"transliteration":{"text":"in","language_name":"english","language_id":38}},{"id":8238,"position":6,"audio_url":"wbw/015_007_006.mp3","char_type_name":"word","page_number":262,"line_number":8,"text":"كُنتَ","translation":{"text":"তুমি হয়ে থাকো","language_name":"bengali","language_id":20},"transliteration":{"text":"kunta","language_name":"english","language_id":38}},{"id":8239,"position":7,"audio_url":"wbw/015_007_007.mp3","char_type_name":"word","page_number":262,"line_number":9,"text":"مِنَ","translation":{"text":"অন্তর্ভুক্ত","language_name":"bengali","language_id":20},"transliteration":{"text":"mina","language_name":"english","language_id":38}},{"id":8240,"position":8,"audio_url":"wbw/015_007_008.mp3","char_type_name":"word","page_number":262,"line_number":9,"text":"ٱلصَّـٰدِقِينَ","translation":{"text":"সত্যবাদীদের\"","language_name":"bengali","language_id":20},"transliteration":{"text":"l-ṣādiqīna","language_name":"english","language_id":38}},{"id":8241,"position":9,"audio_url":"","char_type_name":"end","page_number":262,"line_number":9,"text":"٧","translation":{"text":"(৭)","language_name":"bengali","language_id":20},"transliteration":{"text":"","language_name":"english","language_id":38}}]},{"id":1810,"verse_number":8,"verse_key":"15:8","hizb_number":27,"rub_el_hizb_number":105,"ruku_number":218,"manzil_number":3,"sajdah_number":null,"page_number":262,"juz_number":14,"words":[{"id":9493,"position":1,"audio_url":"wbw/015_008_001.mp3","char_type_name":"word","page_number":262,"line_number":9,"text":"مَا","translation":{"text":"না","language_name":"bengali","language_id":20},"transliteration":{"text":"mā","language_name":"english","language_id":38}},{"id":9494,"position":2,"audio_url":"wbw/015_008_002.mp3","char_type_name":"word","page_number":262,"line_number":9,"text":"نُنَزِّلُ","translation":{"text":"আমরা অবতীর্ণ করি","language_name":"bengali","language_id":20},"transliteration":{"text":"nunazzilu","language_name":"english","language_id":38}},{"id":9495,"position":3,"audio_url":"wbw/015_008_003.mp3","char_type_name":"word","page_number":262,"line_number":9,"text":"ٱلْمَلَـٰٓئِكَةَ","translation":{"text":"ফেরেশতাদেরকে","language_name":"bengali","language_id":20},"transliteration":{"text":"l-malāikata","language_name":"english","language_id":38}},{"id":9496,"position":4,"audio_url":"wbw/015_008_004.mp3","char_type_name":"word","page_number":262,"line_number":9,"text":"إِلَّا","translation":{"text":"ছাড়া","language_name":"bengali","language_id":20},"transliteration":{"text":"illā","language_name":"english","language_id":38}},{"id":9497,"position":5,"audio_url":"wbw/015_008_005.mp3","char_type_name":"word","page_number":262,"line_number":9,"text":"بِٱلْحَقِّ","translation":{"text":"দিয়ে সত্য","language_name":"bengali","language_id":20},"transliteration":{"text":"bil-ḥaqi","language_name":"english","language_id":38}},{"id":9498,"position":6,"audio_url":"wbw/015_008_006.mp3","char_type_name":"word","page_number":262,"line_number":9,"text":"وَمَا","translation":{"text":"এবং না","language_name":"bengali","language_id":20},"transliteration":{"text":"wamā","language_name":"english","language_id":38}},{"id":9499,"position":7,"audio_url":"wbw/015_008_007.mp3","char_type_name":"word","page_number":262,"line_number":9,"text":"كَانُوٓا۟","translation":{"text":"তারা হবে","language_name":"bengali","language_id":20},"transliteration":{"text":"kānū","language_name":"english","language_id":38}},{"id":9500,"position":8,"audio_url":"wbw/015_008_008.mp3","char_type_name":"word","page_number":262,"line_number":10,"text":"إِذًۭا","translation":{"text":"তখন","language_name":"bengali","language_id":20},"transliteration":{"text":"idhan","language_name":"english","language_id":38}},{"id":9501,"position":9,"audio_url":"wbw/015_008_009.mp3","char_type_name":"word","page_number":262,"line_number":10,"text":"مُّنظَرِينَ","translation":{"text":"অবকাশপ্রাপ্ত","language_name":"bengali","language_id":20},"transliteration":{"text":"munẓarīna","language_name":"english","language_id":38}},{"id":9502,"position":10,"audio_url":null,"char_type_name":"end","page_number":262,"line_number":10,"text":"٨","translation":{"text":"(৮)","language_name":"bengali","language_id":20},"transliteration":{"text":null,"language_name":"english","language_id":38}}]},{"id":1811,"verse_number":9,"verse_key":"15:9","hizb_number":27,"rub_el_hizb_number":105,"ruku_number":218,"manzil_number":3,"sajdah_number":null,"page_number":262,"juz_number":14,"words":[{"id":10575,"position":1,"audio_url":"wbw/015_009_001.mp3","char_type_name":"word","page_number":262,"line_number":10,"text":"إِنَّا","translation":{"text":"নিশ্চয়ই","language_name":"bengali","language_id":20},"transliteration":{"text":"innā","language_name":"english","language_id":38}},{"id":10576,"position":2,"audio_url":"wbw/015_009_002.mp3","char_type_name":"word","page_number":262,"line_number":10,"text":"نَحْنُ","translation":{"text":"আমরা","language_name":"bengali","language_id":20},"transliteration":{"text":"naḥnu","language_name":"english","language_id":38}},{"id":10577,"position":3,"audio_url":"wbw/015_009_003.mp3","char_type_name":"word","page_number":262,"line_number":10,"text":"نَزَّلْنَا","translation":{"text":"আমরা অবতীর্ণ করেছি","language_name":"bengali","language_id":20},"transliteration":{"text":"nazzalnā","language_name":"english","language_id":38}},{"id":10578,"position":4,"audio_url":"wbw/015_009_004.mp3","char_type_name":"word","page_number":262,"line_number":10,"text":"ٱلذِّكْرَ","translation":{"text":"উপদেশ বাণী (কুরআন)","language_name":"bengali","language_id":20},"transliteration":{"text":"l-dhik'ra","language_name":"english","language_id":38}},{"id":10579,"position":5,"audio_url":"wbw/015_009_005.mp3","char_type_name":"word","page_number":262,"line_number":10,"text":"وَإِنَّا","translation":{"text":"এবং নিশ্চয়ই আমরা","language_name":"bengali","language_id":20},"transliteration":{"text":"wa-innā","language_name":"english","language_id":38}},{"id":10580,"position":6,"audio_url":"wbw/015_009_006.mp3","char_type_name":"word","page_number":262,"line_number":10,"text":"لَهُۥ","translation":{"text":"জন্যে তার","language_name":"bengali","language_id":20},"transliteration":{"text":"lahu","language_name":"english","language_id":38}},{"id":10581,"position":7,"audio_url":"wbw/015_009_007.mp3","char_type_name":"word","page_number":262,"line_number":10,"text":"لَحَـٰفِظُونَ","translation":{"text":"অবশ্যই সংরক্ষক","language_name":"bengali","language_id":20},"transliteration":{"text":"laḥāfiẓūna","language_name":"english","language_id":38}},{"id":10582,"position":8,"audio_url":null,"char_type_name":"end","page_number":262,"line_number":10,"text":"٩","translation":{"text":"(৯)","language_name":"bengali","language_id":20},"transliteration":{"text":null,"language_name":"english","language_id":38}}]},{"id":1812,"verse_number":10,"verse_key":"15:10","hizb_number":27,"rub_el_hizb_number":105,"ruku_number":218,"manzil_number":3,"sajdah_number":null,"page_number":262,"juz_number":14,"words":[{"id":11721,"position":1,"audio_url":"wbw/015_010_001.mp3","char_type_name":"word","page_number":262,"line_number":11,"text":"وَلَقَدْ","translation":{"text":"এবং নিশ্চয়ই","language_name":"bengali","language_id":20},"transliteration":{"text":"walaqad","language_name":"english","language_id":38}},{"id":11722,"position":2,"audio_url":"wbw/015_010_002.mp3","char_type_name":"word","page_number":262,"line_number":11,"text":"أَرْسَلْنَا","translation":{"text":"আমরা পাঠিয়েছি","language_name":"bengali","language_id":20},"transliteration":{"text":"arsalnā","language_name":"english","language_id":38}},{"id":11723,"position":3,"audio_url":"wbw/015_010_003.mp3","char_type_name":"word","page_number":262,"line_number":11,"text":"مِن","translation":{"text":"থেকে","language_name":"bengali","language_id":20},"transliteration":{"text":"min","language_name":"english","language_id":38}},{"id":11724,"position":4,"audio_url":"wbw/015_010_004.mp3","char_type_name":"word","page_number":262,"line_number":11,"text":"قَبْلِكَ","translation":{"text":"তোমার পূর্ব","language_name":"bengali","language_id":20},"transliteration":{"text":"qablika","language_name":"english","language_id":38}},{"id":11725,"position":5,"audio_url":"wbw/015_010_005.mp3","char_type_name":"word","page_number":262,"line_number":11,"text":"فِى","translation":{"text":"কাছে (রাসূলদেরকে)","language_name":"bengali","language_id":20},"transliteration":{"text":"fī","language_name":"english","language_id":38}},{"id":11726,"position":6,"audio_url":"wbw/015_010_006.mp3","char_type_name":"word","page_number":262,"line_number":11,"text":"شِيَعِ","translation":{"text":"জাতিগুলোর","language_name":"bengali","language_id":20},"transliteration":{"text":"shiyaʿi","language_name":"english","language_id":38}},{"id":11727,"position":7,"audio_url":"wbw/015_010_007.mp3","char_type_name":"word","page_number":262,"line_number":11,"text":"ٱلْأَوَّلِينَ","translation":{"text":"পূর্ববর্তী","language_name":"bengali","language_id":20},"transliteration":{"text":"l-awalīna","language_name":"english","language_id":38}},{"id":11728,"position":8,"audio_url":null,"char_type_name":"end","page_number":262,"line_number":11,"text":"١٠","translation":{"text":"(১০)","language_name":"bengali","language_id":20},"transliteration":{"text":null,"language_name":"english","language_id":38}}]}],"pagination":{"per_page":10,"current_page":1,"next_page":2,"total_pages":10,"total_records":99}}
