{"verses":[{"id":1893,"verse_number":91,"verse_key":"15:91","hizb_number":27,"rub_el_hizb_number":106,"ruku_number":223,"manzil_number":3,"sajdah_number":null,"page_number":267,"juz_number":14,"words":[{"id":68582,"position":1,"audio_url":"wbw/015_091_001.mp3","char_type_name":"word","page_number":267,"line_number":1,"text":"ٱلَّذِينَ","translation":{"text":"যারা","language_name":"bengali","language_id":20},"transliteration":{"text":"alladhīna","language_name":"english","language_id":38}},{"id":68583,"position":2,"audio_url":"wbw/015_091_002.mp3","char_type_name":"word","page_number":267,"line_number":1,"text":"جَعَلُوا۟","translation":{"text":"করেছে","language_name":"bengali","language_id":20},"transliteration":{"text":"jaʿalū","language_name":"english","language_id":38}},{"id":68584,"position":3,"audio_url":"wbw/015_091_003.mp3","char_type_name":"word","page_number":267,"line_number":1,"text":"ٱلْقُرْءَانَ","translation":{"text":"কুরআনকে","language_name":"bengali","language_id":20},"transliteration":{"text":"l-qur'āna","language_name":"english","language_id":38}},{"id":68585,"position":4,"audio_url":"wbw/015_091_004.mp3","char_type_name":"word","page_number":267,"line_number":1,"text":"عِضِينَ","translation":{"text":"টুকরো টুকরো","language_name":"bengali","language_id":20},"transliteration":{"text":"ʿiḍīna","language_name":"english","language_id":38}},{"id":68586,"position":5,"audio_url":null,"char_type_name":"end","page_number":267,"line_number":1,"text":"٩١","translation":{"text":"(৯১)","language_name":"bengali","language_id":20},"transliteration":{"text":null,"language_name":"english","language_id":38}}]},{"id":1894,"verse_number":92,"verse_key":"15:92","hizb_number":27,"rub_el_hizb_number":106,"ruku_number":223,"manzil_number":3,"sajdah_number":null,"page_number":267,"juz_number":14,"words":[{"id":68618,"position":1,"audio_url":"wbw/015_092_001.mp3","char_type_name":"word","page_number":267,"line_number":1,"text":"فَوَرَبِّكَ","translation":{"text":"সুতরাং তোমার রবের শপথ","language_name":"bengali","language_id":20},"transliteration":{"text":"fawarabbika","language_name":"english","language_id":38}},{"id":68619,"position":2,"audio_url":"wbw/015_092_002.mp3","char_type_name":"word","page_number":267,"line_number":1,"text":"لَنَسْـَٔلَنَّهُمْ","translation":{"text":"অবশ্যই আমরা জিজ্ঞাসা করবো তাদের","language_name":"bengali","language_id":20},"transliteration":{"text":"lanasalannahum","language_name":"english","language_id":38}},{"id":68620,"position":3,"audio_url":"wbw/015_092_003.mp3","char_type_name":"word","page_number":267,"line_number":2,"text":"أَجْمَعِينَ","translation":{"text":"সকলকে","language_name":"bengali","language_id":20},"transliteration":{"text":"ajmaʿīna","language_name":"english","language_id":38}},{"id":68621,"position":4,"audio_url":null,"char_type_name":"end","page_number":267,"line_number":2,"text":"٩٢","translation":{"text":"(৯২)","language_name":"bengali","language_id":20},"transliteration":{"text":null,"language_name":"english","language_id":38}}]},{"id":1895,"verse_number":93,"verse_key":"15:93","hizb_number":27,"rub_el_hizb_number":106,"ruku_number":223,"manzil_number":3,"sajdah_number":null,"page_number":267,"juz_number":14,"words":[{"id":69141,"position":1,"audio_url":"wbw/015_093_001.mp3","char_type_name":"word","page_number":267,"line_number":2,"text":"عَمَّا","translation":{"text":"যা থেকে","language_name":"bengali","language_id":20},"transliteration":{"text":"ʿammā","language_name":"english","language_id":38}},{"id":69142,"position":2,"audio_url":"wbw/015_093_002.mp3","char_type_name":"word","page_number":267,"line_number":2,"text":"كَانُوا۟","translation":{"text":"তারা ছিলো","language_name":"bengali","language_id":20},"transliteration":{"text":"kānū","language_name":"english","language_id":38}},{"id":69143,"position":3,"audio_url":"wbw/015_093_003.mp3","char_type_name":"word","page_number":267,"line_number":2,"text":"يَعْمَلُونَ","translation":{"text":"তারা  কাজ করতো","language_name":"bengali","language_id":20},"transliteration":{"text":"yaʿmalūna","language_name":"english","language_id":38}},{"id":69144,"position":4,"audio_url":null,"char_type_name":"end","page_number":267,"line_number":2,"text":"٩٣","translation":{"text":"(৯৩)","language_name":"bengali","language_id":20},"transliteration":{"text":null,"language_name":"english","language_id":38}}]},{"id":1896,"verse_number":94,"verse_key":"15:94","hizb_number":27,"rub_el_hizb_number":106,"ruku_number":223,"manzil_number":3,"sajdah_number":null,"page_number":267,"juz_number":14,"words":[{"id":69653,"position":1,"audio_url":"wbw/015_094_001.mp3","char_type_name":"word","page_number":267,"line_number":2,"text":"فَٱصْدَعْ","translation":{"text":"সুতরাং প্রকাশ্যে প্রচার করো","language_name":"bengali","language_id":20},"transliteration":{"text":"fa-iṣ'daʿ","language_name":"english","language_id":38}},{"id":69654,"position":2,"audio_url":"wbw/015_094_002.mp3","char_type_name":"word","page_number":267,"line_number":2,"text":"بِمَا","translation":{"text":"ঐ বিষয়ে যা","language_name":"bengali","language_id":20},"transliteration":{"text":"bimā","language_name":"english","language_id":38}},{"id":69655,"position":3,"audio_url":"wbw/015_094_003.mp3","char_type_name":"word","page_number":267,"line_number":2,"text":"تُؤْمَرُ","translation":{"text":"তোমাকে আদেশ করা হয়েছে","language_name":"bengali","language_id":20},"transliteration":{"text":"tu'maru","language_name":"english","language_id":38}},{"id":69656,"position":4,"audio_url":"wbw/015_094_004.mp3","char_type_name":"word","page_number":267,"line_number":2,"text":"وَأَعْرِضْ","translation":{"text":"ও উপেক্ষা করো","language_name":"bengali","language_id":20},"transliteration":{"text":"wa-aʿriḍ","language_name":"english","language_id":38}},{"id":69657,"position":5,"audio_url":"wbw/015_094_005.mp3","char_type_name":"word","page_number":267,"line_number":3,"text":"عَنِ","translation":{"text":"থেকে","language_name":"bengali","language_id":20},"transliteration":{"text":"ʿani","language_name":"english","language_id":38}},{"id":69658,"position":6,"audio_url":"wbw/015_094_006.mp3","char_type_name":"word","page_number":267,"line_number":3,"text":"ٱلْمُشْرِكِينَ","translation":{"text":"মুশরিকদের","language_name":"bengali","language_id":20},"transliteration":{"text":"l-mush'rikīna","language_name":"english","language_id":38}},{"id":69659,"position":7,"audio_url":null,"char_type_name":"end","page_number":267,"line_number":3,"text":"٩٤","translation":{"text":"(৯৪)","language_name":"bengali","language_id":20},"transliteration":{"text":null,"language_name":"english","language_id":38}}]},{"id":1897,"verse_number":95,"verse_key":"15:95","hizb_number":27,"rub_el_hizb_number":106,"ruku_number":223,"manzil_number":3,"sajdah_number":null,"page_number":267,"juz_number":14,"words":[{"id":69693,"position":1,"audio_url":"wbw/015_095_001.mp3","char_type_name":"word","page_number":267,"line_number":3,"text":"إِنَّا","translation":{"text":"নিশ্চয়ই আমরা","language_name":"bengali","language_id":20},"transliteration":{"text":"innā","language_name":"english","language_id":38}},{"id":69694,"position":2,"audio_url":"wbw/015_095_002.mp3","char_type_name":"word","page_number":267,"line_number":3,"text":"كَفَيْنَـٰكَ","translation":{"text":"তোমার জন্যে আমরাই যথেষ্ট","language_name":"bengali","language_id":20},"transliteration":{"text":"kafaynāka","language_name":"english","language_id":38}},{"id":69695,"position":3,"audio_url":"wbw/015_095_003.mp3","char_type_name":"word","page_number":267,"line_number":3,"text":"ٱلْمُسْتَهْزِءِينَ","translation":{"text":"বিদ্রুপকারীদের (বিরুদ্ধে)","language_name":"bengali","language_id":20},"transliteration":{"text":"l-mus'tahziīna","language_name":"english","language_id":38}},{"id":69696,"position":4,"audio_url":null,"char_type_name":"end","page_number":267,"line_number":3,"text":"٩٥","translation":{"text":"(৯৫)","language_name":"bengali","language_id":20},"transliteration":{"text":null,"language_name":"english","language_id":38}}]},{"id":1898,"verse_number":96,"verse_key":"15:96","hizb_number":27,"rub_el_hizb_number":106,"ruku_number":223,"manzil_number":3,"sajdah_number":null,"page_number":267,"juz_number":14,"words":[{"id":70137,"position":1,"audio_url":"wbw/015_096_001.mp3","char_type_name":"word","page_number":267,"line_number":3,"text":"ٱلَّذِينَ","translation":{"text":"যারা","language_name":"bengali","language_id":20},"transliteration":{"text":"alladhīna","language_name":"english","language_id":38}},{"id":70138,"position":2,"audio_url":"wbw/015_096_002.mp3","char_type_name":"word","page_number":267,"line_number":4,"text":"يَجْعَلُونَ","translation":{"text":"বানিয়েছে","language_name":"bengali","language_id":20},"transliteration":{"text":"yajʿalūna","language_name":"english","language_id":38}},{"id":70139,"position":3,"audio_url":"wbw/015_096_003.mp3","char_type_name":"word","page_number":267,"line_number":4,"text":"مَعَ","translation":{"text":"সাথে","language_name":"bengali","language_id":20},"transliteration":{"text":"maʿa","language_name":"english","language_id":38}},{"id":70140,"position":4,"audio_url":"wbw/015_096_004.mp3","char_type_name":"word","page_number":267,"line_number":4,"text":"ٱللَّهِ","translation":{"text":"আল্লাহর","language_name":"bengali","language_id":20},"transliteration":{"text":"l-lahi","language_name":"english","language_id":38}},{"id":70141,"position":5,"audio_url":"wbw/015_096_005.mp3","char_type_name":"word","page_number":267,"line_number":4,"text":"إِلَـٰهًا","translation":{"text":"ইলাহ","language_name":"bengali","language_id":20},"transliteration":{"text":"ilāhan","language_name":"english","language_id":38}},{"id":70142,"position":6,"audio_url":"wbw/015_096_006.mp3","char_type_name":"word","page_number":267,"line_number":4,"text":"ءَاخَرَ ۚ","translation":{"text":"অন্যকে","language_name":"bengali","language_id":20},"transliteration":{"text":"ākhara","language_name":"english","language_id":38}},{"id":70144,"position":7,"audio_url":"wbw/015_096_008.mp3","char_type_name":"word","page_number":267,"line_number":4,"text":"فَسَوْفَ","translation":{"text":"অতঃপর শীঘ্রই","language_name":"bengali","language_id":20},"transliteration":{"text":"fasawfa","language_name":"english","language_id":38}},{"id":70145,"position":8,"audio_url":"wbw/015_096_009.mp3","char_type_name":"word","page_number":267,"line_number":4,"text":"يَعْلَمُونَ","translation":{"text":"তারা জানবে","language_name":"bengali","language_id":20},"transliteration":{"text":"yaʿlamūna","language_name":"english","language_id":38}},{"id":70146,"position":9,"audio_url":null,"char_type_name":"end","page_number":267,"line_number":4,"text":"٩٦","translation":{"text":"(৯৬)","language_name":"bengali","language_id":20},"transliteration":{"text":null,"language_name":"english","language_id":38}}]},{"id":1899,"verse_number":97,"verse_key":"15:97","hizb_number":27,"rub_el_hizb_number":106,"ruku_number":223,"manzil_number":3,"sajdah_number":null,"page_number":267,"juz_number":14,"words":[{"id":70391,"position":1,"audio_url":"wbw/015_097_001.mp3","char_type_name":"word","page_number":267,"line_number":4,"text":"وَلَقَدْ","translation":{"text":"এবং নিশ্চয়ই","language_name":"bengali","language_id":20},"transliteration":{"text":"walaqad","language_name":"english","language_id":38}},{"id":70392,"position":2,"audio_url":"wbw/015_097_002.mp3","char_type_name":"word","page_number":267,"line_number":4,"text":"نَعْلَمُ","translation":{"text":"আমরা জানি","language_name":"bengali","language_id":20},"transliteration":{"text":"naʿlamu","language_name":"english","language_id":38}},{"id":70393,"position":3,"audio_url":"wbw/015_097_003.mp3","char_type_name":"word","page_number":267,"line_number":5,"text":"أَنَّكَ","translation":{"text":"তুমি যে","language_name":"bengali","language_id":20},"transliteration":{"text":"annaka","language_name":"english","language_id":38}},{"id":70394,"position":4,"audio_url":"wbw/015_097_004.mp3","char_type_name":"word","page_number":267,"line_number":5,"text":"يَضِيقُ","translation":{"text":"সংকুচিত হয়","language_name":"bengali","language_id":20},"transliteration":{"text":"yaḍīqu","language_name":"english","language_id":38}},{"id":70395,"position":5,"audio_url":"wbw/015_097_005.mp3","char_type_name":"word","page_number":267,"line_number":5,"text":"صَدْرُكَ","translation":{"text":"তোমার অন্তর","language_name":"bengali","language_id":20},"transliteration":{"text":"ṣadruka","language_name":"english","language_id":38}},{"id":70396,"position":6,"audio_url":"wbw/015_097_006.mp3","char_type_name":"word","page_number":267,"line_number":5,"text":"بِمَا","translation":{"text":"এ কারণে যা","language_name":"bengali","language_id":20},"transliteration":{"text":"bimā","language_name":"english","language_id":38}},{"id":70397,"position":7,"audio_url":"wbw/015_097_007.mp3","char_type_name":"word","page_number":267,"line_number":5,"text":"يَقُولُونَ","translation":{"text":"তারা বলে","language_name":"bengali","language_id":20},"transliteration":{"text":"yaqūlūna","language_name":"english","language_id":38}},{"id":70398,"position":8,"audio_url":null,"char_type_name":"end","page_number":267,"line_number":5,"text":"٩٧","translation":{"text":"(৯৭)","language_name":"bengali","language_id":20},"transliteration":{"text":null,"language_name":"english","language_id":38}}]},{"id":1900,"verse_number":98,"verse_key":"15:98","hizb_number":27,"rub_el_hizb_number":106,"ruku_number":223,"manzil_number":3,"sajdah_number":null,"page_number":267,"juz_number":14,"words":[{"id":70814,"position":1,"audio_url":"wbw/015_098_001.mp3","char_type_name":"word","page_number":267,"line_number":5,"text":"فَسَبِّحْ","translation":{"text":"সুতরাং পবিত্রতা ঘোষণা করো","language_name":"bengali","language_id":20},"transliteration":{"text":"fasabbiḥ","language_name":"english","language_id":38}},{"id":70815,"position":2,"audio_url":"wbw/015_098_002.mp3","char_type_name":"word","page_number":267,"line_number":5,"text":"بِحَمْدِ","translation":{"text":"সহ প্রশংসা","language_name":"bengali","language_id":20},"transliteration":{"text":"biḥamdi","language_name":"english","language_id":38}},{"id":70816,"position":3,"audio_url":"wbw/015_098_003.mp3","char_type_name":"word","page_number":267,"line_number":5,"text":"رَبِّكَ","translation":{"text":"তোমার রবের","language_name":"bengali","language_id":20},"transliteration":{"text":"rabbika","language_name":"english","language_id":38}},{"id":70817,"position":4,"audio_url":"wbw/015_098_004.mp3","char_type_name":"word","page_number":267,"line_number":5,"text":"وَكُن","translation":{"text":"এবং হও","language_name":"bengali","language_id":20},"transliteration":{"text":"wakun","language_name":"english","language_id":38}},{"id":70818,"position":5,"audio_url":"wbw/015_098_005.mp3","char_type_name":"word","page_number":267,"line_number":6,"text":"مِّنَ","translation":{"text":"অন্তর্ভুক্ত","language_name":"bengali","language_id":20},"transliteration":{"text":"mina","language_name":"english","language_id":38}},{"id":70819,"position":6,"audio_url":"wbw/015_098_006.mp3","char_type_name":"word","page_number":267,"line_number":6,"text":"ٱلسَّـٰجِدِينَ","translation":{"text":"সিজদাকারীদের","language_name":"bengali","language_id":20},"transliteration":{"text":"l-sājidīna","language_name":"english","language_id":38}},{"id":70820,"position":7,"audio_url":null,"char_type_name":"end","page_number":267,"line_number":6,"text":"٩٨","translation":{"text":"(৯৮)","language_name":"bengali","language_id":20},"transliteration":{"text":null,"language_name":"english","language_id":38}}]},{"id":1901,"verse_number":99,"verse_key":"15:99","hizb_number":27,"rub_el_hizb_number":106,"ruku_number":223,"manzil_number":3,"sajdah_number":null,"page_number":267,"juz_number":14,"words":[{"id":70959,"position":1,"audio_url":"wbw/015_099_001.mp3","char_type_name":"word","page_number":267,"line_number":6,"text":"وَٱعْبُدْ","translation":{"text":"ও ইবাদত করো","language_name":"bengali","language_id":20},"transliteration":{"text":"wa-uʿ'bud","language_name":"english","language_id":38}},{"id":70960,"position":2,"audio_url":"wbw/015_099_002.mp3","char_type_name":"word","page_number":267,"line_number":6,"text":"رَبَّكَ","translation":{"text":"তোমার রবের","language_name":"bengali","language_id":20},"transliteration":{"text":"rabbaka","language_name":"english","language_id":38}},{"id":70961,"position":3,"audio_url":"wbw/015_099_003.mp3","char_type_name":"word","page_number":267,"line_number":6,"text":"حَتَّىٰ","translation":{"text":"যতক্ষণ না","language_name":"bengali","language_id":20},"transliteration":{"text":"ḥattā","language_name":"english","language_id":38}},{"id":70962,"position":4,"audio_url":"wbw/015_099_004.mp3","char_type_name":"word","page_number":267,"line_number":6,"text":"يَأْتِيَكَ","translation":{"text":"তোমার কাছে আসে","language_name":"bengali","language_id":20},"transliteration":{"text":"yatiyaka","language_name":"english","language_id":38}},{"id":70963,"position":5,"audio_url":"wbw/015_099_005.mp3","char_type_name":"word","page_number":267,"line_number":6,"text":"ٱلْيَقِينُ","translation":{"text":"মৃত্যু","language_name":"bengali","language_id":20},"transliteration":{"text":"l-yaqīnu","language_name":"english","language_id":38}},{"id":70964,"position":6,"audio_url":null,"char_type_name":"end","page_number":267,"line_number":6,"text":"٩٩","translation":{"text":"(৯৯)","language_name":"bengali","language_id":20},"transliteration":{"text":null,"language_name":"english","language_id":38}}]}],"pagination":{"per_page":10,"current_page":10,"next_page":null,"total_pages":10,"total_records":99}}
