{"verses":[{"id":1813,"verse_number":11,"verse_key":"15:11","hizb_number":27,"rub_el_hizb_number":105,"ruku_number":218,"manzil_number":3,"sajdah_number":null,"page_number":262,"juz_number":14,"words":[{"id":13206,"position":1,"audio_url":"wbw/015_011_001.mp3","char_type_name":"word","page_number":262,"line_number":11,"text":"وَمَا","translation":{"text":"এবং নি","language_name":"bengali","language_id":20},"transliteration":{"text":"wamā","language_name":"english","language_id":38}},{"id":13207,"position":2,"audio_url":"wbw/015_011_002.mp3","char_type_name":"word","page_number":262,"line_number":11,"text":"يَأْتِيهِم","translation":{"text":"তাদের কাছে আসে","language_name":"bengali","language_id":20},"transliteration":{"text":"yatīhim","language_name":"english","language_id":38}},{"id":13208,"position":3,"audio_url":"wbw/015_011_003.mp3","char_type_name":"word","page_number":262,"line_number":12,"text":"مِّن","translation":{"text":"কোনো","language_name":"bengali","language_id":20},"transliteration":{"text":"min","language_name":"english","language_id":38}},{"id":13209,"position":4,"audio_url":"wbw/015_011_004.mp3","char_type_name":"word","page_number":262,"line_number":12,"text":"رَّسُولٍ","translation":{"text":"রাসূল","language_name":"bengali","language_id":20},"transliteration":{"text":"rasūlin","language_name":"english","language_id":38}},{"id":13210,"position":5,"audio_url":"wbw/015_011_005.mp3","char_type_name":"word","page_number":262,"line_number":12,"text":"إِلَّا","translation":{"text":"এ ছাড়া যে","language_name":"bengali","language_id":20},"transliteration":{"text":"illā","language_name":"english","language_id":38}},{"id":13211,"position":6,"audio_url":"wbw/015_011_006.mp3","char_type_name":"word","page_number":262,"line_number":12,"text":"كَانُوا۟","translation":{"text":"তারা ছিলো","language_name":"bengali","language_id":20},"transliteration":{"text":"kānū","language_name":"english","language_id":38}},{"id":13212,"position":7,"audio_url":"wbw/015_011_007.mp3","char_type_name":"word","page_number":262,"line_number":12,"text":"بِهِۦ","translation":{"text":"সাথে তার","language_name":"bengali","language_id":20},"transliteration":{"text":"bihi","language_name":"english","language_id":38}},{"id":13213,"position":8,"audio_url":"wbw/015_011_008.mp3","char_type_name":"word","page_number":262,"line_number":12,"text":"يَسْتَهْزِءُونَ","translation":{"text":"তারা বিদ্রুপ করতো","language_name":"bengali","language_id":20},"transliteration":{"text":"yastahziūna","language_name":"english","language_id":38}},{"id":13214,"position":9,"audio_url":null,"char_type_name":"end","page_number":262,"line_number":12,"text":"١١","translation":{"text":"(১১)","language_name":"bengali","language_id":20},"transliteration":{"text":null,"language_name":"english","language_id":38}}]},{"id":1814,"verse_number":12,"verse_key":"15:12","hizb_number":27,"rub_el_hizb_number":105,"ruku_number":218,"manzil_number":3,"sajdah_number":null,"page_number":262,"juz_number":14,"words":[{"id":13537,"position":1,"audio_url":"wbw/015_012_001.mp3","char_type_name":"word","page_number":262,"line_number":12,"text":"كَذَٰلِكَ","translation":{"text":"এভাবে","language_name":"bengali","language_id":20},"transliteration":{"text":"kadhālika","language_name":"english","language_id":38}},{"id":13538,"position":2,"audio_url":"wbw/015_012_002.mp3","char_type_name":"word","page_number":262,"line_number":12,"text":"نَسْلُكُهُۥ","translation":{"text":"তা প্রবেশ করাই আমরা","language_name":"bengali","language_id":20},"transliteration":{"text":"naslukuhu","language_name":"english","language_id":38}},{"id":13539,"position":3,"audio_url":"wbw/015_012_003.mp3","char_type_name":"word","page_number":262,"line_number":13,"text":"فِى","translation":{"text":"মধ্যে","language_name":"bengali","language_id":20},"transliteration":{"text":"fī","language_name":"english","language_id":38}},{"id":13540,"position":4,"audio_url":"wbw/015_012_004.mp3","char_type_name":"word","page_number":262,"line_number":13,"text":"قُلُوبِ","translation":{"text":"অন্তরসমূহের","language_name":"bengali","language_id":20},"transliteration":{"text":"qulūbi","language_name":"english","language_id":38}},{"id":13541,"position":5,"audio_url":"wbw/015_012_005.mp3","char_type_name":"word","page_number":262,"line_number":13,"text":"ٱلْمُجْرِمِينَ","translation":{"text":"অপরাধীদের","language_name":"bengali","language_id":20},"transliteration":{"text":"l-muj'rimīna","language_name":"english","language_id":38}},{"id":13542,"position":6,"audio_url":null,"char_type_name":"end","page_number":262,"line_number":13,"text":"١٢","translation":{"text":"(১২)","language_name":"bengali","language_id":20},"transliteration":{"text":null,"language_name":"english","language_id":38}}]},{"id":1815,"verse_number":13,"verse_key":"15:13","hizb_number":27,"rub_el_hizb_number":105,"ruku_number":218,"manzil_number":3,"sajdah_number":null,"page_number":262,"juz_number":14,"words":[{"id":14925,"position":1,"audio_url":"wbw/015_013_001.mp3","char_type_name":"word","page_number":262,"line_number":13,"text":"لَا","translation":{"text":"না","language_name":"bengali","language_id":20},"transliteration":{"text":"lā","language_name":"english","language_id":38}},{"id":14926,"position":2,"audio_url":"wbw/015_013_002.mp3","char_type_name":"word","page_number":262,"line_number":13,"text":"يُؤْمِنُونَ","translation":{"text":"তারা ঈমান আনে","language_name":"bengali","language_id":20},"transliteration":{"text":"yu'minūna","language_name":"english","language_id":38}},{"id":14927,"position":3,"audio_url":"wbw/015_013_003.mp3","char_type_name":"word","page_number":262,"line_number":13,"text":"بِهِۦ ۖ","translation":{"text":"উপর তার","language_name":"bengali","language_id":20},"transliteration":{"text":"bihi","language_name":"english","language_id":38}},{"id":14929,"position":4,"audio_url":"wbw/015_013_005.mp3","char_type_name":"word","page_number":262,"line_number":13,"text":"وَقَدْ","translation":{"text":"এবং নিশ্চয়ই","language_name":"bengali","language_id":20},"transliteration":{"text":"waqad","language_name":"english","language_id":38}},{"id":14930,"position":5,"audio_url":"wbw/015_013_006.mp3","char_type_name":"word","page_number":262,"line_number":13,"text":"خَلَتْ","translation":{"text":"চলে গেছে","language_name":"bengali","language_id":20},"transliteration":{"text":"khalat","language_name":"english","language_id":38}},{"id":14931,"position":6,"audio_url":"wbw/015_013_007.mp3","char_type_name":"word","page_number":262,"line_number":13,"text":"سُنَّةُ","translation":{"text":"রীতি","language_name":"bengali","language_id":20},"transliteration":{"text":"sunnatu","language_name":"english","language_id":38}},{"id":14932,"position":7,"audio_url":"wbw/015_013_008.mp3","char_type_name":"word","page_number":262,"line_number":13,"text":"ٱلْأَوَّلِينَ","translation":{"text":"পূর্ববর্তীদের","language_name":"bengali","language_id":20},"transliteration":{"text":"l-awalīna","language_name":"english","language_id":38}},{"id":14933,"position":8,"audio_url":null,"char_type_name":"end","page_number":262,"line_number":14,"text":"١٣","translation":{"text":"(১৩)","language_name":"bengali","language_id":20},"transliteration":{"text":null,"language_name":"english","language_id":38}}]},{"id":1816,"verse_number":14,"verse_key":"15:14","hizb_number":27,"rub_el_hizb_number":105,"ruku_number":218,"manzil_number":3,"sajdah_number":null,"page_number":262,"juz_number":14,"words":[{"id":16703,"position":1,"audio_url":"wbw/015_014_001.mp3","char_type_name":"word","page_number":262,"line_number":14,"text":"وَلَوْ","translation":{"text":"এবং যদি","language_name":"bengali","language_id":20},"transliteration":{"text":"walaw","language_name":"english","language_id":38}},{"id":16704,"position":2,"audio_url":"wbw/015_014_002.mp3","char_type_name":"word","page_number":262,"line_number":14,"text":"فَتَحْنَا","translation":{"text":"আমরা খুলে দিই","language_name":"bengali","language_id":20},"transliteration":{"text":"fataḥnā","language_name":"english","language_id":38}},{"id":16705,"position":3,"audio_url":"wbw/015_014_003.mp3","char_type_name":"word","page_number":262,"line_number":14,"text":"عَلَيْهِم","translation":{"text":"তাদের উপর","language_name":"bengali","language_id":20},"transliteration":{"text":"ʿalayhim","language_name":"english","language_id":38}},{"id":16706,"position":4,"audio_url":"wbw/015_014_004.mp3","char_type_name":"word","page_number":262,"line_number":14,"text":"بَابًۭا","translation":{"text":"কোনো দরজা","language_name":"bengali","language_id":20},"transliteration":{"text":"bāban","language_name":"english","language_id":38}},{"id":16707,"position":5,"audio_url":"wbw/015_014_005.mp3","char_type_name":"word","page_number":262,"line_number":14,"text":"مِّنَ","translation":{"text":"থেকে","language_name":"bengali","language_id":20},"transliteration":{"text":"mina","language_name":"english","language_id":38}},{"id":16708,"position":6,"audio_url":"wbw/015_014_006.mp3","char_type_name":"word","page_number":262,"line_number":14,"text":"ٱلسَّمَآءِ","translation":{"text":"আকাশ","language_name":"bengali","language_id":20},"transliteration":{"text":"l-samāi","language_name":"english","language_id":38}},{"id":16709,"position":7,"audio_url":"wbw/015_014_007.mp3","char_type_name":"word","page_number":262,"line_number":14,"text":"فَظَلُّوا۟","translation":{"text":"অতঃপর তারা থাকতো","language_name":"bengali","language_id":20},"transliteration":{"text":"faẓallū","language_name":"english","language_id":38}},{"id":16710,"position":8,"audio_url":"wbw/015_014_008.mp3","char_type_name":"word","page_number":262,"line_number":14,"text":"فِيهِ","translation":{"text":"তার মধ্যে","language_name":"bengali","language_id":20},"transliteration":{"text":"fīhi","language_name":"english","language_id":38}},{"id":16711,"position":9,"audio_url":"wbw/015_014_009.mp3","char_type_name":"word","page_number":262,"line_number":14,"text":"يَعْرُجُونَ","translation":{"text":"চড়তে","language_name":"bengali","language_id":20},"transliteration":{"text":"yaʿrujūna","language_name":"english","language_id":38}},{"id":16712,"position":10,"audio_url":null,"char_type_name":"end","page_number":262,"line_number":14,"text":"١٤","translation":{"text":"(১৪)","language_name":"bengali","language_id":20},"transliteration":{"text":null,"language_name":"english","language_id":38}}]},{"id":1817,"verse_number":15,"verse_key":"15:15","hizb_number":27,"rub_el_hizb_number":105,"ruku_number":218,"manzil_number":3,"sajdah_number":null,"page_number":262,"juz_number":14,"words":[{"id":17885,"position":1,"audio_url":"wbw/015_015_001.mp3","char_type_name":"word","page_number":262,"line_number":15,"text":"لَقَالُوٓا۟","translation":{"text":"অবশ্যই তারা বলতো","language_name":"bengali","language_id":20},"transliteration":{"text":"laqālū","language_name":"english","language_id":38}},{"id":17886,"position":2,"audio_url":"wbw/015_015_002.mp3","char_type_name":"word","page_number":262,"line_number":15,"text":"إِنَّمَا","translation":{"text":"\"প্রকৃতপক্ষে","language_name":"bengali","language_id":20},"transliteration":{"text":"innamā","language_name":"english","language_id":38}},{"id":17887,"position":3,"audio_url":"wbw/015_015_003.mp3","char_type_name":"word","page_number":262,"line_number":15,"text":"سُكِّرَتْ","translation":{"text":"সম্মোহিত করা হয়েছে","language_name":"bengali","language_id":20},"transliteration":{"text":"sukkirat","language_name":"english","language_id":38}},{"id":17888,"position":4,"audio_url":"wbw/015_015_004.mp3","char_type_name":"word","page_number":262,"line_number":15,"text":"أَبْصَـٰرُنَا","translation":{"text":"আমাদের দৃষ্টিগুলো","language_name":"bengali","language_id":20},"transliteration":{"text":"abṣārunā","language_name":"english","language_id":38}},{"id":17889,"position":5,"audio_url":"wbw/015_015_005.mp3","char_type_name":"word","page_number":262,"line_number":15,"text":"بَلْ","translation":{"text":"বরং","language_name":"bengali","language_id":20},"transliteration":{"text":"bal","language_name":"english","language_id":38}},{"id":17890,"position":6,"audio_url":"wbw/015_015_006.mp3","char_type_name":"word","page_number":262,"line_number":15,"text":"نَحْنُ","translation":{"text":"আমরা","language_name":"bengali","language_id":20},"transliteration":{"text":"naḥnu","language_name":"english","language_id":38}},{"id":17891,"position":7,"audio_url":"wbw/015_015_007.mp3","char_type_name":"word","page_number":262,"line_number":15,"text":"قَوْمٌۭ","translation":{"text":"সম্প্রদায়","language_name":"bengali","language_id":20},"transliteration":{"text":"qawmun","language_name":"english","language_id":38}},{"id":17892,"position":8,"audio_url":"wbw/015_015_008.mp3","char_type_name":"word","page_number":262,"line_number":15,"text":"مَّسْحُورُونَ","translation":{"text":"জাদুগ্রস্ত\"","language_name":"bengali","language_id":20},"transliteration":{"text":"masḥūrūna","language_name":"english","language_id":38}},{"id":17893,"position":9,"audio_url":null,"char_type_name":"end","page_number":262,"line_number":15,"text":"١٥","translation":{"text":"(১৫)","language_name":"bengali","language_id":20},"transliteration":{"text":null,"language_name":"english","language_id":38}}]},{"id":1818,"verse_number":16,"verse_key":"15:16","hizb_number":27,"rub_el_hizb_number":105,"ruku_number":219,"manzil_number":3,"sajdah_number":null,"page_number":263,"juz_number":14,"words":[{"id":18922,"position":1,"audio_url":"wbw/015_016_001.mp3","char_type_name":"word","page_number":263,"line_number":1,"text":"وَلَقَدْ","translation":{"text":"এবং নিশ্চয়ই","language_name":"bengali","language_id":20},"transliteration":{"text":"walaqad","language_name":"english","language_id":38}},{"id":18923,"position":2,"audio_url":"wbw/015_016_002.mp3","char_type_name":"word","page_number":263,"line_number":1,"text":"جَعَلْنَا","translation":{"text":"আমরা বানিয়েছি","language_name":"bengali","language_id":20},"transliteration":{"text":"jaʿalnā","language_name":"english","language_id":38}},{"id":18924,"position":3,"audio_url":"wbw/015_016_003.mp3","char_type_name":"word","page_number":263,"line_number":1,"text":"فِى","translation":{"text":"মধ্যে","language_name":"bengali","language_id":20},"transliteration":{"text":"fī","language_name":"english","language_id":38}},{"id":18925,"position":4,"audio_url":"wbw/015_016_004.mp3","char_type_name":"word","page_number":263,"line_number":1,"text":"ٱلسَّمَآءِ","translation":{"text":"আকাশের","language_name":"bengali","language_id":20},"transliteration":{"text":"l-samāi","language_name":"english","language_id":38}},{"id":18926,"position":5,"audio_url":"wbw/015_016_005.mp3","char_type_name":"word","page_number":263,"line_number":1,"text":"بُرُوجًۭا","translation":{"text":"গ্রহনক্ষত্র","language_name":"bengali","language_id":20},"transliteration":{"text":"burūjan","language_name":"english","language_id":38}},{"id":18927,"position":6,"audio_url":"wbw/015_016_006.mp3","char_type_name":"word","page_number":263,"line_number":1,"text":"وَزَيَّنَّـٰهَا","translation":{"text":"ও তা আমরা সুশোভিত করেছি","language_name":"bengali","language_id":20},"transliteration":{"text":"wazayyannāhā","language_name":"english","language_id":38}},{"id":18928,"position":7,"audio_url":"wbw/015_016_007.mp3","char_type_name":"word","page_number":263,"line_number":1,"text":"لِلنَّـٰظِرِينَ","translation":{"text":"দর্শকদের জন্যে","language_name":"bengali","language_id":20},"transliteration":{"text":"lilnnāẓirīna","language_name":"english","language_id":38}},{"id":18929,"position":8,"audio_url":null,"char_type_name":"end","page_number":263,"line_number":1,"text":"١٦","translation":{"text":"(১৬)","language_name":"bengali","language_id":20},"transliteration":{"text":null,"language_name":"english","language_id":38}}]},{"id":1819,"verse_number":17,"verse_key":"15:17","hizb_number":27,"rub_el_hizb_number":105,"ruku_number":219,"manzil_number":3,"sajdah_number":null,"page_number":263,"juz_number":14,"words":[{"id":20031,"position":1,"audio_url":"wbw/015_017_001.mp3","char_type_name":"word","page_number":263,"line_number":2,"text":"وَحَفِظْنَـٰهَا","translation":{"text":"এবং আমরা রক্ষা করেছি তা","language_name":"bengali","language_id":20},"transliteration":{"text":"waḥafiẓ'nāhā","language_name":"english","language_id":38}},{"id":20032,"position":2,"audio_url":"wbw/015_017_002.mp3","char_type_name":"word","page_number":263,"line_number":2,"text":"مِن","translation":{"text":"থেকে","language_name":"bengali","language_id":20},"transliteration":{"text":"min","language_name":"english","language_id":38}},{"id":20033,"position":3,"audio_url":"wbw/015_017_003.mp3","char_type_name":"word","page_number":263,"line_number":2,"text":"كُلِّ","translation":{"text":"প্রত্যেক","language_name":"bengali","language_id":20},"transliteration":{"text":"kulli","language_name":"english","language_id":38}},{"id":20034,"position":4,"audio_url":"wbw/015_017_004.mp3","char_type_name":"word","page_number":263,"line_number":2,"text":"شَيْطَـٰنٍۢ","translation":{"text":"শয়তান","language_name":"bengali","language_id":20},"transliteration":{"text":"shayṭānin","language_name":"english","language_id":38}},{"id":20035,"position":5,"audio_url":"wbw/015_017_005.mp3","char_type_name":"word","page_number":263,"line_number":2,"text":"رَّجِيمٍ","translation":{"text":"অভিশপ্ত","language_name":"bengali","language_id":20},"transliteration":{"text":"rajīmin","language_name":"english","language_id":38}},{"id":20036,"position":6,"audio_url":null,"char_type_name":"end","page_number":263,"line_number":2,"text":"١٧","translation":{"text":"(১৭)","language_name":"bengali","language_id":20},"transliteration":{"text":null,"language_name":"english","language_id":38}}]},{"id":1820,"verse_number":18,"verse_key":"15:18","hizb_number":27,"rub_el_hizb_number":105,"ruku_number":219,"manzil_number":3,"sajdah_number":null,"page_number":263,"juz_number":14,"words":[{"id":21100,"position":1,"audio_url":"wbw/015_018_001.mp3","char_type_name":"word","page_number":263,"line_number":2,"text":"إِلَّا","translation":{"text":"কিন্তু","language_name":"bengali","language_id":20},"transliteration":{"text":"illā","language_name":"english","language_id":38}},{"id":21101,"position":2,"audio_url":"wbw/015_018_002.mp3","char_type_name":"word","page_number":263,"line_number":2,"text":"مَنِ","translation":{"text":"যে","language_name":"bengali","language_id":20},"transliteration":{"text":"mani","language_name":"english","language_id":38}},{"id":21102,"position":3,"audio_url":"wbw/015_018_003.mp3","char_type_name":"word","page_number":263,"line_number":2,"text":"ٱسْتَرَقَ","translation":{"text":"চুরি করে","language_name":"bengali","language_id":20},"transliteration":{"text":"is'taraqa","language_name":"english","language_id":38}},{"id":21103,"position":4,"audio_url":"wbw/015_018_004.mp3","char_type_name":"word","page_number":263,"line_number":2,"text":"ٱلسَّمْعَ","translation":{"text":"শুনতে চায়","language_name":"bengali","language_id":20},"transliteration":{"text":"l-samʿa","language_name":"english","language_id":38}},{"id":21104,"position":5,"audio_url":"wbw/015_018_005.mp3","char_type_name":"word","page_number":263,"line_number":3,"text":"فَأَتْبَعَهُۥ","translation":{"text":"তখন তার পিছু ধাওয়া করে","language_name":"bengali","language_id":20},"transliteration":{"text":"fa-atbaʿahu","language_name":"english","language_id":38}},{"id":21105,"position":6,"audio_url":"wbw/015_018_006.mp3","char_type_name":"word","page_number":263,"line_number":3,"text":"شِهَابٌۭ","translation":{"text":"অগ্নি শিখা","language_name":"bengali","language_id":20},"transliteration":{"text":"shihābun","language_name":"english","language_id":38}},{"id":21106,"position":7,"audio_url":"wbw/015_018_007.mp3","char_type_name":"word","page_number":263,"line_number":3,"text":"مُّبِينٌۭ","translation":{"text":"উজ্জ্বল","language_name":"bengali","language_id":20},"transliteration":{"text":"mubīnun","language_name":"english","language_id":38}},{"id":21107,"position":8,"audio_url":null,"char_type_name":"end","page_number":263,"line_number":3,"text":"١٨","translation":{"text":"(১৮)","language_name":"bengali","language_id":20},"transliteration":{"text":null,"language_name":"english","language_id":38}}]},{"id":1821,"verse_number":19,"verse_key":"15:19","hizb_number":27,"rub_el_hizb_number":105,"ruku_number":219,"manzil_number":3,"sajdah_number":null,"page_number":263,"juz_number":14,"words":[{"id":22214,"position":1,"audio_url":"wbw/015_019_001.mp3","char_type_name":"word","page_number":263,"line_number":3,"text":"وَٱلْأَرْضَ","translation":{"text":"এবং জমিনকে","language_name":"bengali","language_id":20},"transliteration":{"text":"wal-arḍa","language_name":"english","language_id":38}},{"id":22215,"position":2,"audio_url":"wbw/015_019_002.mp3","char_type_name":"word","page_number":263,"line_number":3,"text":"مَدَدْنَـٰهَا","translation":{"text":"আমরা বিস্তৃত করেছি তা","language_name":"bengali","language_id":20},"transliteration":{"text":"madadnāhā","language_name":"english","language_id":38}},{"id":22216,"position":3,"audio_url":"wbw/015_019_003.mp3","char_type_name":"word","page_number":263,"line_number":3,"text":"وَأَلْقَيْنَا","translation":{"text":"ও আমরা স্থাপন করেছি","language_name":"bengali","language_id":20},"transliteration":{"text":"wa-alqaynā","language_name":"english","language_id":38}},{"id":22217,"position":4,"audio_url":"wbw/015_019_004.mp3","char_type_name":"word","page_number":263,"line_number":3,"text":"فِيهَا","translation":{"text":"তার মধ্যে","language_name":"bengali","language_id":20},"transliteration":{"text":"fīhā","language_name":"english","language_id":38}},{"id":22218,"position":5,"audio_url":"wbw/015_019_005.mp3","char_type_name":"word","page_number":263,"line_number":4,"text":"رَوَٰسِىَ","translation":{"text":"পর্বতমালা","language_name":"bengali","language_id":20},"transliteration":{"text":"rawāsiya","language_name":"english","language_id":38}},{"id":22219,"position":6,"audio_url":"wbw/015_019_006.mp3","char_type_name":"word","page_number":263,"line_number":4,"text":"وَأَنۢبَتْنَا","translation":{"text":"এবং আমরা উদগত করেছি","language_name":"bengali","language_id":20},"transliteration":{"text":"wa-anbatnā","language_name":"english","language_id":38}},{"id":22220,"position":7,"audio_url":"wbw/015_019_007.mp3","char_type_name":"word","page_number":263,"line_number":4,"text":"فِيهَا","translation":{"text":"তার মধ্যে","language_name":"bengali","language_id":20},"transliteration":{"text":"fīhā","language_name":"english","language_id":38}},{"id":22221,"position":8,"audio_url":"wbw/015_019_008.mp3","char_type_name":"word","page_number":263,"line_number":4,"text":"مِن","translation":{"text":"থেকে","language_name":"bengali","language_id":20},"transliteration":{"text":"min","language_name":"english","language_id":38}},{"id":22222,"position":9,"audio_url":"wbw/015_019_009.mp3","char_type_name":"word","page_number":263,"line_number":4,"text":"كُلِّ","translation":{"text":"প্রত্যেক","language_name":"bengali","language_id":20},"transliteration":{"text":"kulli","language_name":"english","language_id":38}},{"id":22223,"position":10,"audio_url":"wbw/015_019_010.mp3","char_type_name":"word","page_number":263,"line_number":4,"text":"شَىْءٍۢ","translation":{"text":"বস্তু","language_name":"bengali","language_id":20},"transliteration":{"text":"shayin","language_name":"english","language_id":38}},{"id":22224,"position":11,"audio_url":"wbw/015_019_011.mp3","char_type_name":"word","page_number":263,"line_number":4,"text":"مَّوْزُونٍۢ","translation":{"text":"সুপরিমিত","language_name":"bengali","language_id":20},"transliteration":{"text":"mawzūnin","language_name":"english","language_id":38}},{"id":22225,"position":12,"audio_url":null,"char_type_name":"end","page_number":263,"line_number":4,"text":"١٩","translation":{"text":"(১৯)","language_name":"bengali","language_id":20},"transliteration":{"text":null,"language_name":"english","language_id":38}}]},{"id":1822,"verse_number":20,"verse_key":"15:20","hizb_number":27,"rub_el_hizb_number":105,"ruku_number":219,"manzil_number":3,"sajdah_number":null,"page_number":263,"juz_number":14,"words":[{"id":23244,"position":1,"audio_url":"wbw/015_020_001.mp3","char_type_name":"word","page_number":263,"line_number":4,"text":"وَجَعَلْنَا","translation":{"text":"এবং আমরা ব্যবস্হা করেছি","language_name":"bengali","language_id":20},"transliteration":{"text":"wajaʿalnā","language_name":"english","language_id":38}},{"id":23245,"position":2,"audio_url":"wbw/015_020_002.mp3","char_type_name":"word","page_number":263,"line_number":4,"text":"لَكُمْ","translation":{"text":"তোমাদের জন্যে","language_name":"bengali","language_id":20},"transliteration":{"text":"lakum","language_name":"english","language_id":38}},{"id":23246,"position":3,"audio_url":"wbw/015_020_003.mp3","char_type_name":"word","page_number":263,"line_number":5,"text":"فِيهَا","translation":{"text":"তার মধ্যে","language_name":"bengali","language_id":20},"transliteration":{"text":"fīhā","language_name":"english","language_id":38}},{"id":23247,"position":4,"audio_url":"wbw/015_020_004.mp3","char_type_name":"word","page_number":263,"line_number":5,"text":"مَعَـٰيِشَ","translation":{"text":"জীবিকার উপকরণসমূহ","language_name":"bengali","language_id":20},"transliteration":{"text":"maʿāyisha","language_name":"english","language_id":38}},{"id":23248,"position":5,"audio_url":"wbw/015_020_005.mp3","char_type_name":"word","page_number":263,"line_number":5,"text":"وَمَن","translation":{"text":"এবং যাকে","language_name":"bengali","language_id":20},"transliteration":{"text":"waman","language_name":"english","language_id":38}},{"id":23249,"position":6,"audio_url":"wbw/015_020_006.mp3","char_type_name":"word","page_number":263,"line_number":5,"text":"لَّسْتُمْ","translation":{"text":"তোমরা নও","language_name":"bengali","language_id":20},"transliteration":{"text":"lastum","language_name":"english","language_id":38}},{"id":23250,"position":7,"audio_url":"wbw/015_020_007.mp3","char_type_name":"word","page_number":263,"line_number":5,"text":"لَهُۥ","translation":{"text":"জন্যে তার","language_name":"bengali","language_id":20},"transliteration":{"text":"lahu","language_name":"english","language_id":38}},{"id":23251,"position":8,"audio_url":"wbw/015_020_008.mp3","char_type_name":"word","page_number":263,"line_number":5,"text":"بِرَٰزِقِينَ","translation":{"text":"জীবিকাদাতা","language_name":"bengali","language_id":20},"transliteration":{"text":"birāziqīna","language_name":"english","language_id":38}},{"id":23252,"position":9,"audio_url":null,"char_type_name":"end","page_number":263,"line_number":5,"text":"٢٠","translation":{"text":"(২০)","language_name":"bengali","language_id":20},"transliteration":{"text":null,"language_name":"english","language_id":38}}]}],"pagination":{"per_page":10,"current_page":2,"next_page":3,"total_pages":10,"total_records":99}}
