{"verses":[{"id":1823,"verse_number":21,"verse_key":"15:21","hizb_number":27,"rub_el_hizb_number":105,"ruku_number":219,"manzil_number":3,"sajdah_number":null,"page_number":263,"juz_number":14,"words":[{"id":24309,"position":1,"audio_url":"wbw/015_021_001.mp3","char_type_name":"word","page_number":263,"line_number":5,"text":"وَإِن","translation":{"text":"এবং নেই","language_name":"bengali","language_id":20},"transliteration":{"text":"wa-in","language_name":"english","language_id":38}},{"id":24310,"position":2,"audio_url":"wbw/015_021_002.mp3","char_type_name":"word","page_number":263,"line_number":5,"text":"مِّن","translation":{"text":"কোনো","language_name":"bengali","language_id":20},"transliteration":{"text":"min","language_name":"english","language_id":38}},{"id":24311,"position":3,"audio_url":"wbw/015_021_003.mp3","char_type_name":"word","page_number":263,"line_number":5,"text":"شَىْءٍ","translation":{"text":"জিনিস","language_name":"bengali","language_id":20},"transliteration":{"text":"shayin","language_name":"english","language_id":38}},{"id":24312,"position":4,"audio_url":"wbw/015_021_004.mp3","char_type_name":"word","page_number":263,"line_number":5,"text":"إِلَّا","translation":{"text":"এ ছাড়া যে","language_name":"bengali","language_id":20},"transliteration":{"text":"illā","language_name":"english","language_id":38}},{"id":24313,"position":5,"audio_url":"wbw/015_021_005.mp3","char_type_name":"word","page_number":263,"line_number":6,"text":"عِندَنَا","translation":{"text":"আমাদের কাছে আছে","language_name":"bengali","language_id":20},"transliteration":{"text":"ʿindanā","language_name":"english","language_id":38}},{"id":24314,"position":6,"audio_url":"wbw/015_021_006.mp3","char_type_name":"word","page_number":263,"line_number":6,"text":"خَزَآئِنُهُۥ","translation":{"text":"তার ভান্ডারসমূহ","language_name":"bengali","language_id":20},"transliteration":{"text":"khazāinuhu","language_name":"english","language_id":38}},{"id":24315,"position":7,"audio_url":"wbw/015_021_007.mp3","char_type_name":"word","page_number":263,"line_number":6,"text":"وَمَا","translation":{"text":"(","language_name":"bengali","language_id":20},"transliteration":{"text":"wamā","language_name":"english","language_id":38}},{"id":24316,"position":8,"audio_url":"wbw/015_021_008.mp3","char_type_name":"word","page_number":263,"line_number":6,"text":"نُنَزِّلُهُۥٓ","translation":{"text":"আমরা অবতরণ করি তা","language_name":"bengali","language_id":20},"transliteration":{"text":"nunazziluhu","language_name":"english","language_id":38}},{"id":24317,"position":9,"audio_url":"wbw/015_021_009.mp3","char_type_name":"word","page_number":263,"line_number":6,"text":"إِلَّا","translation":{"text":"এ ছাড়া যে","language_name":"bengali","language_id":20},"transliteration":{"text":"illā","language_name":"english","language_id":38}},{"id":24318,"position":10,"audio_url":"wbw/015_021_010.mp3","char_type_name":"word","page_number":263,"line_number":6,"text":"بِقَدَرٍۢ","translation":{"text":"সহ পরিমাণ","language_name":"bengali","language_id":20},"transliteration":{"text":"biqadarin","language_name":"english","language_id":38}},{"id":24319,"position":11,"audio_url":"wbw/015_021_011.mp3","char_type_name":"word","page_number":263,"line_number":6,"text":"مَّعْلُومٍۢ","translation":{"text":"নির্দিষ্ট","language_name":"bengali","language_id":20},"transliteration":{"text":"maʿlūmin","language_name":"english","language_id":38}},{"id":24320,"position":12,"audio_url":null,"char_type_name":"end","page_number":263,"line_number":6,"text":"٢١","translation":{"text":"(২১)","language_name":"bengali","language_id":20},"transliteration":{"text":null,"language_name":"english","language_id":38}}]},{"id":1824,"verse_number":22,"verse_key":"15:22","hizb_number":27,"rub_el_hizb_number":105,"ruku_number":219,"manzil_number":3,"sajdah_number":null,"page_number":263,"juz_number":14,"words":[{"id":25333,"position":1,"audio_url":"wbw/015_022_001.mp3","char_type_name":"word","page_number":263,"line_number":6,"text":"وَأَرْسَلْنَا","translation":{"text":"এবং আমরা পাঠাই","language_name":"bengali","language_id":20},"transliteration":{"text":"wa-arsalnā","language_name":"english","language_id":38}},{"id":25334,"position":2,"audio_url":"wbw/015_022_002.mp3","char_type_name":"word","page_number":263,"line_number":7,"text":"ٱلرِّيَـٰحَ","translation":{"text":"বাতাস","language_name":"bengali","language_id":20},"transliteration":{"text":"l-riyāḥa","language_name":"english","language_id":38}},{"id":25335,"position":3,"audio_url":"wbw/015_022_003.mp3","char_type_name":"word","page_number":263,"line_number":7,"text":"لَوَٰقِحَ","translation":{"text":"বৃষ্টিবাহী","language_name":"bengali","language_id":20},"transliteration":{"text":"lawāqiḥa","language_name":"english","language_id":38}},{"id":25336,"position":4,"audio_url":"wbw/015_022_004.mp3","char_type_name":"word","page_number":263,"line_number":7,"text":"فَأَنزَلْنَا","translation":{"text":"অতপর আমরা বর্ষণ করি","language_name":"bengali","language_id":20},"transliteration":{"text":"fa-anzalnā","language_name":"english","language_id":38}},{"id":25337,"position":5,"audio_url":"wbw/015_022_005.mp3","char_type_name":"word","page_number":263,"line_number":7,"text":"مِنَ","translation":{"text":"থেকে","language_name":"bengali","language_id":20},"transliteration":{"text":"mina","language_name":"english","language_id":38}},{"id":25338,"position":6,"audio_url":"wbw/015_022_006.mp3","char_type_name":"word","page_number":263,"line_number":7,"text":"ٱلسَّمَآءِ","translation":{"text":"আকাশ","language_name":"bengali","language_id":20},"transliteration":{"text":"l-samāi","language_name":"english","language_id":38}},{"id":25339,"position":7,"audio_url":"wbw/015_022_007.mp3","char_type_name":"word","page_number":263,"line_number":7,"text":"مَآءًۭ","translation":{"text":"পানি","language_name":"bengali","language_id":20},"transliteration":{"text":"māan","language_name":"english","language_id":38}},{"id":25340,"position":8,"audio_url":"wbw/015_022_008.mp3","char_type_name":"word","page_number":263,"line_number":7,"text":"فَأَسْقَيْنَـٰكُمُوهُ","translation":{"text":"অতঃপর পান করাই তা আমরা তোমাদের","language_name":"bengali","language_id":20},"transliteration":{"text":"fa-asqaynākumūhu","language_name":"english","language_id":38}},{"id":25341,"position":9,"audio_url":"wbw/015_022_009.mp3","char_type_name":"word","page_number":263,"line_number":7,"text":"وَمَآ","translation":{"text":"এবং নও","language_name":"bengali","language_id":20},"transliteration":{"text":"wamā","language_name":"english","language_id":38}},{"id":25342,"position":10,"audio_url":"wbw/015_022_010.mp3","char_type_name":"word","page_number":263,"line_number":7,"text":"أَنتُمْ","translation":{"text":"তোমরা","language_name":"bengali","language_id":20},"transliteration":{"text":"antum","language_name":"english","language_id":38}},{"id":25343,"position":11,"audio_url":"wbw/015_022_011.mp3","char_type_name":"word","page_number":263,"line_number":8,"text":"لَهُۥ","translation":{"text":"তার জন্যে","language_name":"bengali","language_id":20},"transliteration":{"text":"lahu","language_name":"english","language_id":38}},{"id":25344,"position":12,"audio_url":"wbw/015_022_012.mp3","char_type_name":"word","page_number":263,"line_number":8,"text":"بِخَـٰزِنِينَ","translation":{"text":"ভান্ডার রক্ষাকারী","language_name":"bengali","language_id":20},"transliteration":{"text":"bikhāzinīna","language_name":"english","language_id":38}},{"id":25345,"position":13,"audio_url":null,"char_type_name":"end","page_number":263,"line_number":8,"text":"٢٢","translation":{"text":"(২২)","language_name":"bengali","language_id":20},"transliteration":{"text":null,"language_name":"english","language_id":38}}]},{"id":1825,"verse_number":23,"verse_key":"15:23","hizb_number":27,"rub_el_hizb_number":105,"ruku_number":219,"manzil_number":3,"sajdah_number":null,"page_number":263,"juz_number":14,"words":[{"id":26380,"position":1,"audio_url":"wbw/015_023_001.mp3","char_type_name":"word","page_number":263,"line_number":8,"text":"وَإِنَّا","translation":{"text":"এবং নিশ্চয়ই আমরা","language_name":"bengali","language_id":20},"transliteration":{"text":"wa-innā","language_name":"english","language_id":38}},{"id":26381,"position":2,"audio_url":"wbw/015_023_002.mp3","char_type_name":"word","page_number":263,"line_number":8,"text":"لَنَحْنُ","translation":{"text":"অবশ্যই আমরা","language_name":"bengali","language_id":20},"transliteration":{"text":"lanaḥnu","language_name":"english","language_id":38}},{"id":26382,"position":3,"audio_url":"wbw/015_023_003.mp3","char_type_name":"word","page_number":263,"line_number":8,"text":"نُحْىِۦ","translation":{"text":"আমরা জীবন দিই","language_name":"bengali","language_id":20},"transliteration":{"text":"nuḥ'yī","language_name":"english","language_id":38}},{"id":26383,"position":4,"audio_url":"wbw/015_023_004.mp3","char_type_name":"word","page_number":263,"line_number":8,"text":"وَنُمِيتُ","translation":{"text":"ও আমরা মৃত্যু দিই","language_name":"bengali","language_id":20},"transliteration":{"text":"wanumītu","language_name":"english","language_id":38}},{"id":26384,"position":5,"audio_url":"wbw/015_023_005.mp3","char_type_name":"word","page_number":263,"line_number":8,"text":"وَنَحْنُ","translation":{"text":"এবং আমরাই","language_name":"bengali","language_id":20},"transliteration":{"text":"wanaḥnu","language_name":"english","language_id":38}},{"id":26385,"position":6,"audio_url":"wbw/015_023_006.mp3","char_type_name":"word","page_number":263,"line_number":8,"text":"ٱلْوَٰرِثُونَ","translation":{"text":"উত্তরাধিকারী (সকলেরই)","language_name":"bengali","language_id":20},"transliteration":{"text":"l-wārithūna","language_name":"english","language_id":38}},{"id":26386,"position":7,"audio_url":null,"char_type_name":"end","page_number":263,"line_number":8,"text":"٢٣","translation":{"text":"(২৩)","language_name":"bengali","language_id":20},"transliteration":{"text":null,"language_name":"english","language_id":38}}]},{"id":1826,"verse_number":24,"verse_key":"15:24","hizb_number":27,"rub_el_hizb_number":105,"ruku_number":219,"manzil_number":3,"sajdah_number":null,"page_number":263,"juz_number":14,"words":[{"id":27400,"position":1,"audio_url":"wbw/015_024_001.mp3","char_type_name":"word","page_number":263,"line_number":9,"text":"وَلَقَدْ","translation":{"text":"এবং নিশ্চয়ই","language_name":"bengali","language_id":20},"transliteration":{"text":"walaqad","language_name":"english","language_id":38}},{"id":27401,"position":2,"audio_url":"wbw/015_024_002.mp3","char_type_name":"word","page_number":263,"line_number":9,"text":"عَلِمْنَا","translation":{"text":"আমরা জানি","language_name":"bengali","language_id":20},"transliteration":{"text":"ʿalim'nā","language_name":"english","language_id":38}},{"id":27402,"position":3,"audio_url":"wbw/015_024_003.mp3","char_type_name":"word","page_number":263,"line_number":9,"text":"ٱلْمُسْتَقْدِمِينَ","translation":{"text":"অগ্রগামীদেরকে","language_name":"bengali","language_id":20},"transliteration":{"text":"l-mus'taqdimīna","language_name":"english","language_id":38}},{"id":27403,"position":4,"audio_url":"wbw/015_024_004.mp3","char_type_name":"word","page_number":263,"line_number":9,"text":"مِنكُمْ","translation":{"text":"তোমাদের মধ্য থেকে","language_name":"bengali","language_id":20},"transliteration":{"text":"minkum","language_name":"english","language_id":38}},{"id":27404,"position":5,"audio_url":"wbw/015_024_005.mp3","char_type_name":"word","page_number":263,"line_number":9,"text":"وَلَقَدْ","translation":{"text":"ও নিশ্চয়ই","language_name":"bengali","language_id":20},"transliteration":{"text":"walaqad","language_name":"english","language_id":38}},{"id":27405,"position":6,"audio_url":"wbw/015_024_006.mp3","char_type_name":"word","page_number":263,"line_number":9,"text":"عَلِمْنَا","translation":{"text":"আমরা জানি","language_name":"bengali","language_id":20},"transliteration":{"text":"ʿalim'nā","language_name":"english","language_id":38}},{"id":27406,"position":7,"audio_url":"wbw/015_024_007.mp3","char_type_name":"word","page_number":263,"line_number":9,"text":"ٱلْمُسْتَـْٔخِرِينَ","translation":{"text":"পরে আগমনকারীদেরকে","language_name":"bengali","language_id":20},"transliteration":{"text":"l-mus'takhirīna","language_name":"english","language_id":38}},{"id":27407,"position":8,"audio_url":null,"char_type_name":"end","page_number":263,"line_number":10,"text":"٢٤","translation":{"text":"(২৪)","language_name":"bengali","language_id":20},"transliteration":{"text":null,"language_name":"english","language_id":38}}]},{"id":1827,"verse_number":25,"verse_key":"15:25","hizb_number":27,"rub_el_hizb_number":105,"ruku_number":219,"manzil_number":3,"sajdah_number":null,"page_number":263,"juz_number":14,"words":[{"id":28464,"position":1,"audio_url":"wbw/015_025_001.mp3","char_type_name":"word","page_number":263,"line_number":10,"text":"وَإِنَّ","translation":{"text":"এবং নিশ্চয়ই","language_name":"bengali","language_id":20},"transliteration":{"text":"wa-inna","language_name":"english","language_id":38}},{"id":28465,"position":2,"audio_url":"wbw/015_025_002.mp3","char_type_name":"word","page_number":263,"line_number":10,"text":"رَبَّكَ","translation":{"text":"তোমার রব","language_name":"bengali","language_id":20},"transliteration":{"text":"rabbaka","language_name":"english","language_id":38}},{"id":28466,"position":3,"audio_url":"wbw/015_025_003.mp3","char_type_name":"word","page_number":263,"line_number":10,"text":"هُوَ","translation":{"text":"তিনিই","language_name":"bengali","language_id":20},"transliteration":{"text":"huwa","language_name":"english","language_id":38}},{"id":28467,"position":4,"audio_url":"wbw/015_025_004.mp3","char_type_name":"word","page_number":263,"line_number":10,"text":"يَحْشُرُهُمْ ۚ","translation":{"text":"তাদের একত্র করবেন","language_name":"bengali","language_id":20},"transliteration":{"text":"yaḥshuruhum","language_name":"english","language_id":38}},{"id":28469,"position":5,"audio_url":"wbw/015_025_006.mp3","char_type_name":"word","page_number":263,"line_number":10,"text":"إِنَّهُۥ","translation":{"text":"নিশ্চয়ই তিনি","language_name":"bengali","language_id":20},"transliteration":{"text":"innahu","language_name":"english","language_id":38}},{"id":28470,"position":6,"audio_url":"wbw/015_025_007.mp3","char_type_name":"word","page_number":263,"line_number":10,"text":"حَكِيمٌ","translation":{"text":"প্রজ্ঞাময়","language_name":"bengali","language_id":20},"transliteration":{"text":"ḥakīmun","language_name":"english","language_id":38}},{"id":28471,"position":7,"audio_url":"wbw/015_025_008.mp3","char_type_name":"word","page_number":263,"line_number":10,"text":"عَلِيمٌۭ","translation":{"text":"জ্ঞানময়","language_name":"bengali","language_id":20},"transliteration":{"text":"ʿalīmun","language_name":"english","language_id":38}},{"id":28472,"position":8,"audio_url":null,"char_type_name":"end","page_number":263,"line_number":10,"text":"٢٥","translation":{"text":"(২৫)","language_name":"bengali","language_id":20},"transliteration":{"text":null,"language_name":"english","language_id":38}}]},{"id":1828,"verse_number":26,"verse_key":"15:26","hizb_number":27,"rub_el_hizb_number":105,"ruku_number":220,"manzil_number":3,"sajdah_number":null,"page_number":263,"juz_number":14,"words":[{"id":29372,"position":1,"audio_url":"wbw/015_026_001.mp3","char_type_name":"word","page_number":263,"line_number":10,"text":"وَلَقَدْ","translation":{"text":"এবং নিশ্চয়ই","language_name":"bengali","language_id":20},"transliteration":{"text":"walaqad","language_name":"english","language_id":38}},{"id":29373,"position":2,"audio_url":"wbw/015_026_002.mp3","char_type_name":"word","page_number":263,"line_number":10,"text":"خَلَقْنَا","translation":{"text":"আমরা সৃষ্টি করেছি","language_name":"bengali","language_id":20},"transliteration":{"text":"khalaqnā","language_name":"english","language_id":38}},{"id":29374,"position":3,"audio_url":"wbw/015_026_003.mp3","char_type_name":"word","page_number":263,"line_number":11,"text":"ٱلْإِنسَـٰنَ","translation":{"text":"মানুষকে","language_name":"bengali","language_id":20},"transliteration":{"text":"l-insāna","language_name":"english","language_id":38}},{"id":29375,"position":4,"audio_url":"wbw/015_026_004.mp3","char_type_name":"word","page_number":263,"line_number":11,"text":"مِن","translation":{"text":"থেকে","language_name":"bengali","language_id":20},"transliteration":{"text":"min","language_name":"english","language_id":38}},{"id":29376,"position":5,"audio_url":"wbw/015_026_005.mp3","char_type_name":"word","page_number":263,"line_number":11,"text":"صَلْصَـٰلٍۢ","translation":{"text":"শুকনো ঠনঠনে মাটি","language_name":"bengali","language_id":20},"transliteration":{"text":"ṣalṣālin","language_name":"english","language_id":38}},{"id":29377,"position":6,"audio_url":"wbw/015_026_006.mp3","char_type_name":"word","page_number":263,"line_number":11,"text":"مِّنْ","translation":{"text":"(তৈরী) থেকে","language_name":"bengali","language_id":20},"transliteration":{"text":"min","language_name":"english","language_id":38}},{"id":29378,"position":7,"audio_url":"wbw/015_026_007.mp3","char_type_name":"word","page_number":263,"line_number":11,"text":"حَمَإٍۢ","translation":{"text":"কাদা","language_name":"bengali","language_id":20},"transliteration":{"text":"ḥama-in","language_name":"english","language_id":38}},{"id":29379,"position":8,"audio_url":"wbw/015_026_008.mp3","char_type_name":"word","page_number":263,"line_number":11,"text":"مَّسْنُونٍۢ","translation":{"text":"দুর্গন্ধযুক্ত","language_name":"bengali","language_id":20},"transliteration":{"text":"masnūnin","language_name":"english","language_id":38}},{"id":29380,"position":9,"audio_url":null,"char_type_name":"end","page_number":263,"line_number":11,"text":"٢٦","translation":{"text":"(২৬)","language_name":"bengali","language_id":20},"transliteration":{"text":null,"language_name":"english","language_id":38}}]},{"id":1829,"verse_number":27,"verse_key":"15:27","hizb_number":27,"rub_el_hizb_number":105,"ruku_number":220,"manzil_number":3,"sajdah_number":null,"page_number":263,"juz_number":14,"words":[{"id":30363,"position":1,"audio_url":"wbw/015_027_001.mp3","char_type_name":"word","page_number":263,"line_number":11,"text":"وَٱلْجَآنَّ","translation":{"text":"এবং জিন","language_name":"bengali","language_id":20},"transliteration":{"text":"wal-jāna","language_name":"english","language_id":38}},{"id":30364,"position":2,"audio_url":"wbw/015_027_002.mp3","char_type_name":"word","page_number":263,"line_number":11,"text":"خَلَقْنَـٰهُ","translation":{"text":"আমরা সৃষ্টি করেছি তাকে","language_name":"bengali","language_id":20},"transliteration":{"text":"khalaqnāhu","language_name":"english","language_id":38}},{"id":30365,"position":3,"audio_url":"wbw/015_027_003.mp3","char_type_name":"word","page_number":263,"line_number":11,"text":"مِن","translation":{"text":"থেকে","language_name":"bengali","language_id":20},"transliteration":{"text":"min","language_name":"english","language_id":38}},{"id":30366,"position":4,"audio_url":"wbw/015_027_004.mp3","char_type_name":"word","page_number":263,"line_number":12,"text":"قَبْلُ","translation":{"text":"পূর্ব","language_name":"bengali","language_id":20},"transliteration":{"text":"qablu","language_name":"english","language_id":38}},{"id":30367,"position":5,"audio_url":"wbw/015_027_005.mp3","char_type_name":"word","page_number":263,"line_number":12,"text":"مِن","translation":{"text":"থেকে","language_name":"bengali","language_id":20},"transliteration":{"text":"min","language_name":"english","language_id":38}},{"id":30368,"position":6,"audio_url":"wbw/015_027_006.mp3","char_type_name":"word","page_number":263,"line_number":12,"text":"نَّارِ","translation":{"text":"আগুন","language_name":"bengali","language_id":20},"transliteration":{"text":"nāri","language_name":"english","language_id":38}},{"id":30369,"position":7,"audio_url":"wbw/015_027_007.mp3","char_type_name":"word","page_number":263,"line_number":12,"text":"ٱلسَّمُومِ","translation":{"text":"অতি উত্তপ্ত","language_name":"bengali","language_id":20},"transliteration":{"text":"l-samūmi","language_name":"english","language_id":38}},{"id":30370,"position":8,"audio_url":null,"char_type_name":"end","page_number":263,"line_number":12,"text":"٢٧","translation":{"text":"(২৭)","language_name":"bengali","language_id":20},"transliteration":{"text":null,"language_name":"english","language_id":38}}]},{"id":1830,"verse_number":28,"verse_key":"15:28","hizb_number":27,"rub_el_hizb_number":105,"ruku_number":220,"manzil_number":3,"sajdah_number":null,"page_number":263,"juz_number":14,"words":[{"id":31367,"position":1,"audio_url":"wbw/015_028_001.mp3","char_type_name":"word","page_number":263,"line_number":12,"text":"وَإِذْ","translation":{"text":"এবং (স্মরণ করো) যখন","language_name":"bengali","language_id":20},"transliteration":{"text":"wa-idh","language_name":"english","language_id":38}},{"id":31368,"position":2,"audio_url":"wbw/015_028_002.mp3","char_type_name":"word","page_number":263,"line_number":12,"text":"قَالَ","translation":{"text":"বলেছিলেন","language_name":"bengali","language_id":20},"transliteration":{"text":"qāla","language_name":"english","language_id":38}},{"id":31369,"position":3,"audio_url":"wbw/015_028_003.mp3","char_type_name":"word","page_number":263,"line_number":12,"text":"رَبُّكَ","translation":{"text":"তোমার রব","language_name":"bengali","language_id":20},"transliteration":{"text":"rabbuka","language_name":"english","language_id":38}},{"id":31370,"position":4,"audio_url":"wbw/015_028_004.mp3","char_type_name":"word","page_number":263,"line_number":12,"text":"لِلْمَلَـٰٓئِكَةِ","translation":{"text":"ফেরেশতাদেরকে","language_name":"bengali","language_id":20},"transliteration":{"text":"lil'malāikati","language_name":"english","language_id":38}},{"id":31371,"position":5,"audio_url":"wbw/015_028_005.mp3","char_type_name":"word","page_number":263,"line_number":12,"text":"إِنِّى","translation":{"text":"\"নিশ্চয়ই আমি","language_name":"bengali","language_id":20},"transliteration":{"text":"innī","language_name":"english","language_id":38}},{"id":31372,"position":6,"audio_url":"wbw/015_028_006.mp3","char_type_name":"word","page_number":263,"line_number":12,"text":"خَـٰلِقٌۢ","translation":{"text":"(শীঘ্র) সৃষ্টিকারী","language_name":"bengali","language_id":20},"transliteration":{"text":"khāliqun","language_name":"english","language_id":38}},{"id":31373,"position":7,"audio_url":"wbw/015_028_007.mp3","char_type_name":"word","page_number":263,"line_number":12,"text":"بَشَرًۭا","translation":{"text":"মানুষ","language_name":"bengali","language_id":20},"transliteration":{"text":"basharan","language_name":"english","language_id":38}},{"id":31374,"position":8,"audio_url":"wbw/015_028_008.mp3","char_type_name":"word","page_number":263,"line_number":13,"text":"مِّن","translation":{"text":"থেকে","language_name":"bengali","language_id":20},"transliteration":{"text":"min","language_name":"english","language_id":38}},{"id":31375,"position":9,"audio_url":"wbw/015_028_009.mp3","char_type_name":"word","page_number":263,"line_number":13,"text":"صَلْصَـٰلٍۢ","translation":{"text":"শুকনো ঠনঠনে মাটি","language_name":"bengali","language_id":20},"transliteration":{"text":"ṣalṣālin","language_name":"english","language_id":38}},{"id":31376,"position":10,"audio_url":"wbw/015_028_010.mp3","char_type_name":"word","page_number":263,"line_number":13,"text":"مِّنْ","translation":{"text":"থেকে (তৈরী)","language_name":"bengali","language_id":20},"transliteration":{"text":"min","language_name":"english","language_id":38}},{"id":31377,"position":11,"audio_url":"wbw/015_028_011.mp3","char_type_name":"word","page_number":263,"line_number":13,"text":"حَمَإٍۢ","translation":{"text":"কাদা","language_name":"bengali","language_id":20},"transliteration":{"text":"ḥama-in","language_name":"english","language_id":38}},{"id":31378,"position":12,"audio_url":"wbw/015_028_012.mp3","char_type_name":"word","page_number":263,"line_number":13,"text":"مَّسْنُونٍۢ","translation":{"text":"দুর্গন্ধযুক্ত","language_name":"bengali","language_id":20},"transliteration":{"text":"masnūnin","language_name":"english","language_id":38}},{"id":31379,"position":13,"audio_url":null,"char_type_name":"end","page_number":263,"line_number":13,"text":"٢٨","translation":{"text":"(২৮)","language_name":"bengali","language_id":20},"transliteration":{"text":null,"language_name":"english","language_id":38}}]},{"id":1831,"verse_number":29,"verse_key":"15:29","hizb_number":27,"rub_el_hizb_number":105,"ruku_number":220,"manzil_number":3,"sajdah_number":null,"page_number":263,"juz_number":14,"words":[{"id":32324,"position":1,"audio_url":"wbw/015_029_001.mp3","char_type_name":"word","page_number":263,"line_number":13,"text":"فَإِذَا","translation":{"text":"অতঃপর যখন","language_name":"bengali","language_id":20},"transliteration":{"text":"fa-idhā","language_name":"english","language_id":38}},{"id":32325,"position":2,"audio_url":"wbw/015_029_002.mp3","char_type_name":"word","page_number":263,"line_number":13,"text":"سَوَّيْتُهُۥ","translation":{"text":"আমি সুঠাম করবো তাকে","language_name":"bengali","language_id":20},"transliteration":{"text":"sawwaytuhu","language_name":"english","language_id":38}},{"id":32326,"position":3,"audio_url":"wbw/015_029_003.mp3","char_type_name":"word","page_number":263,"line_number":13,"text":"وَنَفَخْتُ","translation":{"text":"ও আমি ফুঁকে দিবো","language_name":"bengali","language_id":20},"transliteration":{"text":"wanafakhtu","language_name":"english","language_id":38}},{"id":32327,"position":4,"audio_url":"wbw/015_029_004.mp3","char_type_name":"word","page_number":263,"line_number":13,"text":"فِيهِ","translation":{"text":"তার মধ্যে","language_name":"bengali","language_id":20},"transliteration":{"text":"fīhi","language_name":"english","language_id":38}},{"id":32328,"position":5,"audio_url":"wbw/015_029_005.mp3","char_type_name":"word","page_number":263,"line_number":14,"text":"مِن","translation":{"text":"থেকে কিছু","language_name":"bengali","language_id":20},"transliteration":{"text":"min","language_name":"english","language_id":38}},{"id":32329,"position":6,"audio_url":"wbw/015_029_006.mp3","char_type_name":"word","page_number":263,"line_number":14,"text":"رُّوحِى","translation":{"text":"আমার রুহ","language_name":"bengali","language_id":20},"transliteration":{"text":"rūḥī","language_name":"english","language_id":38}},{"id":32330,"position":7,"audio_url":"wbw/015_029_007.mp3","char_type_name":"word","page_number":263,"line_number":14,"text":"فَقَعُوا۟","translation":{"text":"তোমার তখন হয়ে পড়ো","language_name":"bengali","language_id":20},"transliteration":{"text":"faqaʿū","language_name":"english","language_id":38}},{"id":32331,"position":8,"audio_url":"wbw/015_029_008.mp3","char_type_name":"word","page_number":263,"line_number":14,"text":"لَهُۥ","translation":{"text":"তার জন্যে","language_name":"bengali","language_id":20},"transliteration":{"text":"lahu","language_name":"english","language_id":38}},{"id":32332,"position":9,"audio_url":"wbw/015_029_009.mp3","char_type_name":"word","page_number":263,"line_number":14,"text":"سَـٰجِدِينَ","translation":{"text":"সিজদাকারী\"","language_name":"bengali","language_id":20},"transliteration":{"text":"sājidīna","language_name":"english","language_id":38}},{"id":32333,"position":10,"audio_url":null,"char_type_name":"end","page_number":263,"line_number":14,"text":"٢٩","translation":{"text":"(২৯)","language_name":"bengali","language_id":20},"transliteration":{"text":null,"language_name":"english","language_id":38}}]},{"id":1832,"verse_number":30,"verse_key":"15:30","hizb_number":27,"rub_el_hizb_number":105,"ruku_number":220,"manzil_number":3,"sajdah_number":null,"page_number":263,"juz_number":14,"words":[{"id":33185,"position":1,"audio_url":"wbw/015_030_001.mp3","char_type_name":"word","page_number":263,"line_number":14,"text":"فَسَجَدَ","translation":{"text":"অতঃপর সিজদা করলো","language_name":"bengali","language_id":20},"transliteration":{"text":"fasajada","language_name":"english","language_id":38}},{"id":33186,"position":2,"audio_url":"wbw/015_030_002.mp3","char_type_name":"word","page_number":263,"line_number":14,"text":"ٱلْمَلَـٰٓئِكَةُ","translation":{"text":"ফেরেশতারা","language_name":"bengali","language_id":20},"transliteration":{"text":"l-malāikatu","language_name":"english","language_id":38}},{"id":33187,"position":3,"audio_url":"wbw/015_030_003.mp3","char_type_name":"word","page_number":263,"line_number":14,"text":"كُلُّهُمْ","translation":{"text":"তাদের সবাই","language_name":"bengali","language_id":20},"transliteration":{"text":"kulluhum","language_name":"english","language_id":38}},{"id":33188,"position":4,"audio_url":"wbw/015_030_004.mp3","char_type_name":"word","page_number":263,"line_number":15,"text":"أَجْمَعُونَ","translation":{"text":"একত্রে","language_name":"bengali","language_id":20},"transliteration":{"text":"ajmaʿūna","language_name":"english","language_id":38}},{"id":33189,"position":5,"audio_url":null,"char_type_name":"end","page_number":263,"line_number":15,"text":"٣٠","translation":{"text":"(৩০)","language_name":"bengali","language_id":20},"transliteration":{"text":null,"language_name":"english","language_id":38}}]}],"pagination":{"per_page":10,"current_page":3,"next_page":4,"total_pages":10,"total_records":99}}
