{"verses":[{"id":1863,"verse_number":61,"verse_key":"15:61","hizb_number":27,"rub_el_hizb_number":106,"ruku_number":222,"manzil_number":3,"sajdah_number":null,"page_number":265,"juz_number":14,"words":[{"id":55345,"position":1,"audio_url":"wbw/015_061_001.mp3","char_type_name":"word","page_number":265,"line_number":8,"text":"فَلَمَّا","translation":{"text":"অতঃপর যখন","language_name":"bengali","language_id":20},"transliteration":{"text":"falammā","language_name":"english","language_id":38}},{"id":55346,"position":2,"audio_url":"wbw/015_061_002.mp3","char_type_name":"word","page_number":265,"line_number":8,"text":"جَآءَ","translation":{"text":"আসলো","language_name":"bengali","language_id":20},"transliteration":{"text":"jāa","language_name":"english","language_id":38}},{"id":55347,"position":3,"audio_url":"wbw/015_061_003.mp3","char_type_name":"word","page_number":265,"line_number":8,"text":"ءَالَ","translation":{"text":"পরিবারের কাছে","language_name":"bengali","language_id":20},"transliteration":{"text":"āla","language_name":"english","language_id":38}},{"id":55348,"position":4,"audio_url":"wbw/015_061_004.mp3","char_type_name":"word","page_number":265,"line_number":8,"text":"لُوطٍ","translation":{"text":"লূতের","language_name":"bengali","language_id":20},"transliteration":{"text":"lūṭin","language_name":"english","language_id":38}},{"id":55349,"position":5,"audio_url":"wbw/015_061_005.mp3","char_type_name":"word","page_number":265,"line_number":8,"text":"ٱلْمُرْسَلُونَ","translation":{"text":"প্রেরিত (ফেরেশতারা)","language_name":"bengali","language_id":20},"transliteration":{"text":"l-mur'salūna","language_name":"english","language_id":38}},{"id":55350,"position":6,"audio_url":null,"char_type_name":"end","page_number":265,"line_number":8,"text":"٦١","translation":{"text":"(৬১)","language_name":"bengali","language_id":20},"transliteration":{"text":null,"language_name":"english","language_id":38}}]},{"id":1864,"verse_number":62,"verse_key":"15:62","hizb_number":27,"rub_el_hizb_number":106,"ruku_number":222,"manzil_number":3,"sajdah_number":null,"page_number":265,"juz_number":14,"words":[{"id":55853,"position":1,"audio_url":"wbw/015_062_001.mp3","char_type_name":"word","page_number":265,"line_number":8,"text":"قَالَ","translation":{"text":"সে বললো","language_name":"bengali","language_id":20},"transliteration":{"text":"qāla","language_name":"english","language_id":38}},{"id":55854,"position":2,"audio_url":"wbw/015_062_002.mp3","char_type_name":"word","page_number":265,"line_number":9,"text":"إِنَّكُمْ","translation":{"text":"\"নিশ্চয়ই তোমরা","language_name":"bengali","language_id":20},"transliteration":{"text":"innakum","language_name":"english","language_id":38}},{"id":55855,"position":3,"audio_url":"wbw/015_062_003.mp3","char_type_name":"word","page_number":265,"line_number":9,"text":"قَوْمٌۭ","translation":{"text":"লোক","language_name":"bengali","language_id":20},"transliteration":{"text":"qawmun","language_name":"english","language_id":38}},{"id":55856,"position":4,"audio_url":"wbw/015_062_004.mp3","char_type_name":"word","page_number":265,"line_number":9,"text":"مُّنكَرُونَ","translation":{"text":"অপরিচিত\"","language_name":"bengali","language_id":20},"transliteration":{"text":"munkarūna","language_name":"english","language_id":38}},{"id":55857,"position":5,"audio_url":null,"char_type_name":"end","page_number":265,"line_number":9,"text":"٦٢","translation":{"text":"(৬২)","language_name":"bengali","language_id":20},"transliteration":{"text":null,"language_name":"english","language_id":38}}]},{"id":1865,"verse_number":63,"verse_key":"15:63","hizb_number":27,"rub_el_hizb_number":106,"ruku_number":222,"manzil_number":3,"sajdah_number":null,"page_number":265,"juz_number":14,"words":[{"id":56423,"position":1,"audio_url":"wbw/015_063_001.mp3","char_type_name":"word","page_number":265,"line_number":9,"text":"قَالُوا۟","translation":{"text":"তারা বললো","language_name":"bengali","language_id":20},"transliteration":{"text":"qālū","language_name":"english","language_id":38}},{"id":56424,"position":2,"audio_url":"wbw/015_063_002.mp3","char_type_name":"word","page_number":265,"line_number":9,"text":"بَلْ","translation":{"text":"\"বরং","language_name":"bengali","language_id":20},"transliteration":{"text":"bal","language_name":"english","language_id":38}},{"id":56425,"position":3,"audio_url":"wbw/015_063_003.mp3","char_type_name":"word","page_number":265,"line_number":9,"text":"جِئْنَـٰكَ","translation":{"text":"তোমার কাছে আমরা এসেছি","language_name":"bengali","language_id":20},"transliteration":{"text":"ji'nāka","language_name":"english","language_id":38}},{"id":56426,"position":4,"audio_url":"wbw/015_063_004.mp3","char_type_name":"word","page_number":265,"line_number":9,"text":"بِمَا","translation":{"text":"ঐ বিষয় নিয়ে যা","language_name":"bengali","language_id":20},"transliteration":{"text":"bimā","language_name":"english","language_id":38}},{"id":56427,"position":5,"audio_url":"wbw/015_063_005.mp3","char_type_name":"word","page_number":265,"line_number":9,"text":"كَانُوا۟","translation":{"text":"তারা ছিলো","language_name":"bengali","language_id":20},"transliteration":{"text":"kānū","language_name":"english","language_id":38}},{"id":56428,"position":6,"audio_url":"wbw/015_063_006.mp3","char_type_name":"word","page_number":265,"line_number":9,"text":"فِيهِ","translation":{"text":"সে ব্যাপারে","language_name":"bengali","language_id":20},"transliteration":{"text":"fīhi","language_name":"english","language_id":38}},{"id":56429,"position":7,"audio_url":"wbw/015_063_007.mp3","char_type_name":"word","page_number":265,"line_number":10,"text":"يَمْتَرُونَ","translation":{"text":"সন্দেহ করতো","language_name":"bengali","language_id":20},"transliteration":{"text":"yamtarūna","language_name":"english","language_id":38}},{"id":56430,"position":8,"audio_url":null,"char_type_name":"end","page_number":265,"line_number":10,"text":"٦٣","translation":{"text":"(৬৩)","language_name":"bengali","language_id":20},"transliteration":{"text":null,"language_name":"english","language_id":38}}]},{"id":1866,"verse_number":64,"verse_key":"15:64","hizb_number":27,"rub_el_hizb_number":106,"ruku_number":222,"manzil_number":3,"sajdah_number":null,"page_number":265,"juz_number":14,"words":[{"id":56940,"position":1,"audio_url":"wbw/015_064_001.mp3","char_type_name":"word","page_number":265,"line_number":10,"text":"وَأَتَيْنَـٰكَ","translation":{"text":"এবং তোমার কাছে আমরা এসেছি","language_name":"bengali","language_id":20},"transliteration":{"text":"wa-ataynāka","language_name":"english","language_id":38}},{"id":56941,"position":2,"audio_url":"wbw/015_064_002.mp3","char_type_name":"word","page_number":265,"line_number":10,"text":"بِٱلْحَقِّ","translation":{"text":"নিয়ে সত্য","language_name":"bengali","language_id":20},"transliteration":{"text":"bil-ḥaqi","language_name":"english","language_id":38}},{"id":56942,"position":3,"audio_url":"wbw/015_064_003.mp3","char_type_name":"word","page_number":265,"line_number":10,"text":"وَإِنَّا","translation":{"text":"এবং নিশ্চয়ই আমরা","language_name":"bengali","language_id":20},"transliteration":{"text":"wa-innā","language_name":"english","language_id":38}},{"id":56943,"position":4,"audio_url":"wbw/015_064_004.mp3","char_type_name":"word","page_number":265,"line_number":10,"text":"لَصَـٰدِقُونَ","translation":{"text":"অবশ্যই সত্যবাদী","language_name":"bengali","language_id":20},"transliteration":{"text":"laṣādiqūna","language_name":"english","language_id":38}},{"id":56944,"position":5,"audio_url":null,"char_type_name":"end","page_number":265,"line_number":10,"text":"٦٤","translation":{"text":"(৬৪)","language_name":"bengali","language_id":20},"transliteration":{"text":null,"language_name":"english","language_id":38}}]},{"id":1867,"verse_number":65,"verse_key":"15:65","hizb_number":27,"rub_el_hizb_number":106,"ruku_number":222,"manzil_number":3,"sajdah_number":null,"page_number":265,"juz_number":14,"words":[{"id":57388,"position":1,"audio_url":"wbw/015_065_001.mp3","char_type_name":"word","page_number":265,"line_number":10,"text":"فَأَسْرِ","translation":{"text":"সুতরাং চলে যাও","language_name":"bengali","language_id":20},"transliteration":{"text":"fa-asri","language_name":"english","language_id":38}},{"id":57389,"position":2,"audio_url":"wbw/015_065_002.mp3","char_type_name":"word","page_number":265,"line_number":11,"text":"بِأَهْلِكَ","translation":{"text":"নিয়ে তোমার পরিবার","language_name":"bengali","language_id":20},"transliteration":{"text":"bi-ahlika","language_name":"english","language_id":38}},{"id":57390,"position":3,"audio_url":"wbw/015_065_003.mp3","char_type_name":"word","page_number":265,"line_number":11,"text":"بِقِطْعٍۢ","translation":{"text":"অংশে","language_name":"bengali","language_id":20},"transliteration":{"text":"biqiṭ'ʿin","language_name":"english","language_id":38}},{"id":57391,"position":4,"audio_url":"wbw/015_065_004.mp3","char_type_name":"word","page_number":265,"line_number":11,"text":"مِّنَ","translation":{"text":"কিছু","language_name":"bengali","language_id":20},"transliteration":{"text":"mina","language_name":"english","language_id":38}},{"id":57392,"position":5,"audio_url":"wbw/015_065_005.mp3","char_type_name":"word","page_number":265,"line_number":11,"text":"ٱلَّيْلِ","translation":{"text":"রাতের","language_name":"bengali","language_id":20},"transliteration":{"text":"al-layli","language_name":"english","language_id":38}},{"id":57393,"position":6,"audio_url":"wbw/015_065_006.mp3","char_type_name":"word","page_number":265,"line_number":11,"text":"وَٱتَّبِعْ","translation":{"text":"এবং তুমি চলবে","language_name":"bengali","language_id":20},"transliteration":{"text":"wa-ittabiʿ","language_name":"english","language_id":38}},{"id":57394,"position":7,"audio_url":"wbw/015_065_007.mp3","char_type_name":"word","page_number":265,"line_number":11,"text":"أَدْبَـٰرَهُمْ","translation":{"text":"তাদের পিছনে পিছনে","language_name":"bengali","language_id":20},"transliteration":{"text":"adbārahum","language_name":"english","language_id":38}},{"id":57395,"position":8,"audio_url":"wbw/015_065_008.mp3","char_type_name":"word","page_number":265,"line_number":11,"text":"وَلَا","translation":{"text":"এবং না","language_name":"bengali","language_id":20},"transliteration":{"text":"walā","language_name":"english","language_id":38}},{"id":57396,"position":9,"audio_url":"wbw/015_065_009.mp3","char_type_name":"word","page_number":265,"line_number":11,"text":"يَلْتَفِتْ","translation":{"text":"তাকাবে (পিছনে)","language_name":"bengali","language_id":20},"transliteration":{"text":"yaltafit","language_name":"english","language_id":38}},{"id":57397,"position":10,"audio_url":"wbw/015_065_010.mp3","char_type_name":"word","page_number":265,"line_number":11,"text":"مِنكُمْ","translation":{"text":"তোমাদের মধ্য থেকে","language_name":"bengali","language_id":20},"transliteration":{"text":"minkum","language_name":"english","language_id":38}},{"id":57398,"position":11,"audio_url":"wbw/015_065_011.mp3","char_type_name":"word","page_number":265,"line_number":11,"text":"أَحَدٌۭ","translation":{"text":"কেউ","language_name":"bengali","language_id":20},"transliteration":{"text":"aḥadun","language_name":"english","language_id":38}},{"id":57399,"position":12,"audio_url":"wbw/015_065_012.mp3","char_type_name":"word","page_number":265,"line_number":12,"text":"وَٱمْضُوا۟","translation":{"text":"এবং তোমরা চলে যাও","language_name":"bengali","language_id":20},"transliteration":{"text":"wa-im'ḍū","language_name":"english","language_id":38}},{"id":57400,"position":13,"audio_url":"wbw/015_065_013.mp3","char_type_name":"word","page_number":265,"line_number":12,"text":"حَيْثُ","translation":{"text":"যেখানে","language_name":"bengali","language_id":20},"transliteration":{"text":"ḥaythu","language_name":"english","language_id":38}},{"id":57401,"position":14,"audio_url":"wbw/015_065_014.mp3","char_type_name":"word","page_number":265,"line_number":12,"text":"تُؤْمَرُونَ","translation":{"text":"তোমাদের নির্দেশ দেয়া হয়েছে\"","language_name":"bengali","language_id":20},"transliteration":{"text":"tu'marūna","language_name":"english","language_id":38}},{"id":57402,"position":15,"audio_url":null,"char_type_name":"end","page_number":265,"line_number":12,"text":"٦٥","translation":{"text":"(৬৫)","language_name":"bengali","language_id":20},"transliteration":{"text":null,"language_name":"english","language_id":38}}]},{"id":1868,"verse_number":66,"verse_key":"15:66","hizb_number":27,"rub_el_hizb_number":106,"ruku_number":222,"manzil_number":3,"sajdah_number":null,"page_number":265,"juz_number":14,"words":[{"id":57884,"position":1,"audio_url":"wbw/015_066_001.mp3","char_type_name":"word","page_number":265,"line_number":12,"text":"وَقَضَيْنَآ","translation":{"text":"এবং আমরা জানিয়ে দিয়েছিলাম","language_name":"bengali","language_id":20},"transliteration":{"text":"waqaḍaynā","language_name":"english","language_id":38}},{"id":57885,"position":2,"audio_url":"wbw/015_066_002.mp3","char_type_name":"word","page_number":265,"line_number":12,"text":"إِلَيْهِ","translation":{"text":"তার প্রতি","language_name":"bengali","language_id":20},"transliteration":{"text":"ilayhi","language_name":"english","language_id":38}},{"id":57886,"position":3,"audio_url":"wbw/015_066_003.mp3","char_type_name":"word","page_number":265,"line_number":12,"text":"ذَٰلِكَ","translation":{"text":"এই","language_name":"bengali","language_id":20},"transliteration":{"text":"dhālika","language_name":"english","language_id":38}},{"id":57887,"position":4,"audio_url":"wbw/015_066_004.mp3","char_type_name":"word","page_number":265,"line_number":12,"text":"ٱلْأَمْرَ","translation":{"text":"বিষয়ের","language_name":"bengali","language_id":20},"transliteration":{"text":"l-amra","language_name":"english","language_id":38}},{"id":57888,"position":5,"audio_url":"wbw/015_066_005.mp3","char_type_name":"word","page_number":265,"line_number":12,"text":"أَنَّ","translation":{"text":"যে","language_name":"bengali","language_id":20},"transliteration":{"text":"anna","language_name":"english","language_id":38}},{"id":57889,"position":6,"audio_url":"wbw/015_066_006.mp3","char_type_name":"word","page_number":265,"line_number":13,"text":"دَابِرَ","translation":{"text":"মূল","language_name":"bengali","language_id":20},"transliteration":{"text":"dābira","language_name":"english","language_id":38}},{"id":57890,"position":7,"audio_url":"wbw/015_066_007.mp3","char_type_name":"word","page_number":265,"line_number":13,"text":"هَـٰٓؤُلَآءِ","translation":{"text":"ঐসব লোকদের","language_name":"bengali","language_id":20},"transliteration":{"text":"hāulāi","language_name":"english","language_id":38}},{"id":57891,"position":8,"audio_url":"wbw/015_066_008.mp3","char_type_name":"word","page_number":265,"line_number":13,"text":"مَقْطُوعٌۭ","translation":{"text":"কেটে ফেলা হবে","language_name":"bengali","language_id":20},"transliteration":{"text":"maqṭūʿun","language_name":"english","language_id":38}},{"id":57892,"position":9,"audio_url":"wbw/015_066_009.mp3","char_type_name":"word","page_number":265,"line_number":13,"text":"مُّصْبِحِينَ","translation":{"text":"সকাল না হতেই","language_name":"bengali","language_id":20},"transliteration":{"text":"muṣ'biḥīna","language_name":"english","language_id":38}},{"id":57893,"position":10,"audio_url":null,"char_type_name":"end","page_number":265,"line_number":13,"text":"٦٦","translation":{"text":"(৬৬)","language_name":"bengali","language_id":20},"transliteration":{"text":null,"language_name":"english","language_id":38}}]},{"id":1869,"verse_number":67,"verse_key":"15:67","hizb_number":27,"rub_el_hizb_number":106,"ruku_number":222,"manzil_number":3,"sajdah_number":null,"page_number":265,"juz_number":14,"words":[{"id":58345,"position":1,"audio_url":"wbw/015_067_001.mp3","char_type_name":"word","page_number":265,"line_number":13,"text":"وَجَآءَ","translation":{"text":"এবং আসলো","language_name":"bengali","language_id":20},"transliteration":{"text":"wajāa","language_name":"english","language_id":38}},{"id":58346,"position":2,"audio_url":"wbw/015_067_002.mp3","char_type_name":"word","page_number":265,"line_number":13,"text":"أَهْلُ","translation":{"text":"অধিবাসীরা","language_name":"bengali","language_id":20},"transliteration":{"text":"ahlu","language_name":"english","language_id":38}},{"id":58347,"position":3,"audio_url":"wbw/015_067_003.mp3","char_type_name":"word","page_number":265,"line_number":13,"text":"ٱلْمَدِينَةِ","translation":{"text":"শহরের","language_name":"bengali","language_id":20},"transliteration":{"text":"l-madīnati","language_name":"english","language_id":38}},{"id":58348,"position":4,"audio_url":"wbw/015_067_004.mp3","char_type_name":"word","page_number":265,"line_number":14,"text":"يَسْتَبْشِرُونَ","translation":{"text":"উল্লসিত","language_name":"bengali","language_id":20},"transliteration":{"text":"yastabshirūna","language_name":"english","language_id":38}},{"id":58349,"position":5,"audio_url":null,"char_type_name":"end","page_number":265,"line_number":14,"text":"٦٧","translation":{"text":"(৬৭)","language_name":"bengali","language_id":20},"transliteration":{"text":null,"language_name":"english","language_id":38}}]},{"id":1870,"verse_number":68,"verse_key":"15:68","hizb_number":27,"rub_el_hizb_number":106,"ruku_number":222,"manzil_number":3,"sajdah_number":null,"page_number":265,"juz_number":14,"words":[{"id":58825,"position":1,"audio_url":"wbw/015_068_001.mp3","char_type_name":"word","page_number":265,"line_number":14,"text":"قَالَ","translation":{"text":"(লূত) বললো","language_name":"bengali","language_id":20},"transliteration":{"text":"qāla","language_name":"english","language_id":38}},{"id":58826,"position":2,"audio_url":"wbw/015_068_002.mp3","char_type_name":"word","page_number":265,"line_number":14,"text":"إِنَّ","translation":{"text":"\"নিশ্চয়ই","language_name":"bengali","language_id":20},"transliteration":{"text":"inna","language_name":"english","language_id":38}},{"id":58827,"position":3,"audio_url":"wbw/015_068_003.mp3","char_type_name":"word","page_number":265,"line_number":14,"text":"هَـٰٓؤُلَآءِ","translation":{"text":"ঐসব লোক","language_name":"bengali","language_id":20},"transliteration":{"text":"hāulāi","language_name":"english","language_id":38}},{"id":58828,"position":4,"audio_url":"wbw/015_068_004.mp3","char_type_name":"word","page_number":265,"line_number":14,"text":"ضَيْفِى","translation":{"text":"আমার অতিথি","language_name":"bengali","language_id":20},"transliteration":{"text":"ḍayfī","language_name":"english","language_id":38}},{"id":58829,"position":5,"audio_url":"wbw/015_068_005.mp3","char_type_name":"word","page_number":265,"line_number":14,"text":"فَلَا","translation":{"text":"অতএব না","language_name":"bengali","language_id":20},"transliteration":{"text":"falā","language_name":"english","language_id":38}},{"id":58830,"position":6,"audio_url":"wbw/015_068_006.mp3","char_type_name":"word","page_number":265,"line_number":14,"text":"تَفْضَحُونِ","translation":{"text":"আমাকে তোমরা অপমান করো","language_name":"bengali","language_id":20},"transliteration":{"text":"tafḍaḥūni","language_name":"english","language_id":38}},{"id":58831,"position":7,"audio_url":null,"char_type_name":"end","page_number":265,"line_number":14,"text":"٦٨","translation":{"text":"(৬৮)","language_name":"bengali","language_id":20},"transliteration":{"text":null,"language_name":"english","language_id":38}}]},{"id":1871,"verse_number":69,"verse_key":"15:69","hizb_number":27,"rub_el_hizb_number":106,"ruku_number":222,"manzil_number":3,"sajdah_number":null,"page_number":265,"juz_number":14,"words":[{"id":59329,"position":1,"audio_url":"wbw/015_069_001.mp3","char_type_name":"word","page_number":265,"line_number":15,"text":"وَٱتَّقُوا۟","translation":{"text":"এবং তোমরা ভয় করো","language_name":"bengali","language_id":20},"transliteration":{"text":"wa-ittaqū","language_name":"english","language_id":38}},{"id":59330,"position":2,"audio_url":"wbw/015_069_002.mp3","char_type_name":"word","page_number":265,"line_number":15,"text":"ٱللَّهَ","translation":{"text":"আল্লাহকে","language_name":"bengali","language_id":20},"transliteration":{"text":"l-laha","language_name":"english","language_id":38}},{"id":59331,"position":3,"audio_url":"wbw/015_069_003.mp3","char_type_name":"word","page_number":265,"line_number":15,"text":"وَلَا","translation":{"text":"এবং না","language_name":"bengali","language_id":20},"transliteration":{"text":"walā","language_name":"english","language_id":38}},{"id":59332,"position":4,"audio_url":"wbw/015_069_004.mp3","char_type_name":"word","page_number":265,"line_number":15,"text":"تُخْزُونِ","translation":{"text":"আমাকে তোমরা লাঞ্ছিত করো\"","language_name":"bengali","language_id":20},"transliteration":{"text":"tukh'zūni","language_name":"english","language_id":38}},{"id":59333,"position":5,"audio_url":null,"char_type_name":"end","page_number":265,"line_number":15,"text":"٦٩","translation":{"text":"(৬৯)","language_name":"bengali","language_id":20},"transliteration":{"text":null,"language_name":"english","language_id":38}}]},{"id":1872,"verse_number":70,"verse_key":"15:70","hizb_number":27,"rub_el_hizb_number":106,"ruku_number":222,"manzil_number":3,"sajdah_number":null,"page_number":265,"juz_number":14,"words":[{"id":59762,"position":1,"audio_url":"wbw/015_070_001.mp3","char_type_name":"word","page_number":265,"line_number":15,"text":"قَالُوٓا۟","translation":{"text":"তারা বললো","language_name":"bengali","language_id":20},"transliteration":{"text":"qālū","language_name":"english","language_id":38}},{"id":59763,"position":2,"audio_url":"wbw/015_070_002.mp3","char_type_name":"word","page_number":265,"line_number":15,"text":"أَوَلَمْ","translation":{"text":"\"কি নি","language_name":"bengali","language_id":20},"transliteration":{"text":"awalam","language_name":"english","language_id":38}},{"id":59764,"position":3,"audio_url":"wbw/015_070_003.mp3","char_type_name":"word","page_number":265,"line_number":15,"text":"نَنْهَكَ","translation":{"text":"তোমাকে আমরা নিষেধ করি","language_name":"bengali","language_id":20},"transliteration":{"text":"nanhaka","language_name":"english","language_id":38}},{"id":59765,"position":4,"audio_url":"wbw/015_070_004.mp3","char_type_name":"word","page_number":265,"line_number":15,"text":"عَنِ","translation":{"text":"সম্পর্কে","language_name":"bengali","language_id":20},"transliteration":{"text":"ʿani","language_name":"english","language_id":38}},{"id":59766,"position":5,"audio_url":"wbw/015_070_005.mp3","char_type_name":"word","page_number":265,"line_number":15,"text":"ٱلْعَـٰلَمِينَ","translation":{"text":"সারা দুনিয়ার (দায়িত্ব নেয়া)\"","language_name":"bengali","language_id":20},"transliteration":{"text":"l-ʿālamīna","language_name":"english","language_id":38}},{"id":59767,"position":6,"audio_url":null,"char_type_name":"end","page_number":265,"line_number":15,"text":"٧٠","translation":{"text":"(৭০)","language_name":"bengali","language_id":20},"transliteration":{"text":null,"language_name":"english","language_id":38}}]}],"pagination":{"per_page":10,"current_page":7,"next_page":8,"total_pages":10,"total_records":99}}
