{"verses":[{"id":1883,"verse_number":81,"verse_key":"15:81","hizb_number":27,"rub_el_hizb_number":106,"ruku_number":223,"manzil_number":3,"sajdah_number":null,"page_number":266,"juz_number":14,"words":[{"id":64455,"position":1,"audio_url":"wbw/015_081_001.mp3","char_type_name":"word","page_number":266,"line_number":7,"text":"وَءَاتَيْنَـٰهُمْ","translation":{"text":"এবং তাদের আমরা দিয়েছিলাম","language_name":"bengali","language_id":20},"transliteration":{"text":"waātaynāhum","language_name":"english","language_id":38}},{"id":64456,"position":2,"audio_url":"wbw/015_081_002.mp3","char_type_name":"word","page_number":266,"line_number":7,"text":"ءَايَـٰتِنَا","translation":{"text":"আমাদের নিদর্শনাবলী","language_name":"bengali","language_id":20},"transliteration":{"text":"āyātinā","language_name":"english","language_id":38}},{"id":64457,"position":3,"audio_url":"wbw/015_081_003.mp3","char_type_name":"word","page_number":266,"line_number":7,"text":"فَكَانُوا۟","translation":{"text":"তবুও তারা ছিলো","language_name":"bengali","language_id":20},"transliteration":{"text":"fakānū","language_name":"english","language_id":38}},{"id":64458,"position":4,"audio_url":"wbw/015_081_004.mp3","char_type_name":"word","page_number":266,"line_number":7,"text":"عَنْهَا","translation":{"text":"তা সম্পর্কে","language_name":"bengali","language_id":20},"transliteration":{"text":"ʿanhā","language_name":"english","language_id":38}},{"id":64459,"position":5,"audio_url":"wbw/015_081_005.mp3","char_type_name":"word","page_number":266,"line_number":7,"text":"مُعْرِضِينَ","translation":{"text":"উপেক্ষাকারী","language_name":"bengali","language_id":20},"transliteration":{"text":"muʿ'riḍīna","language_name":"english","language_id":38}},{"id":64460,"position":6,"audio_url":null,"char_type_name":"end","page_number":266,"line_number":8,"text":"٨١","translation":{"text":"(৮১)","language_name":"bengali","language_id":20},"transliteration":{"text":null,"language_name":"english","language_id":38}}]},{"id":1884,"verse_number":82,"verse_key":"15:82","hizb_number":27,"rub_el_hizb_number":106,"ruku_number":223,"manzil_number":3,"sajdah_number":null,"page_number":266,"juz_number":14,"words":[{"id":65222,"position":1,"audio_url":"wbw/015_082_001.mp3","char_type_name":"word","page_number":266,"line_number":8,"text":"وَكَانُوا۟","translation":{"text":"এবং তারা ছিলো","language_name":"bengali","language_id":20},"transliteration":{"text":"wakānū","language_name":"english","language_id":38}},{"id":65223,"position":2,"audio_url":"wbw/015_082_002.mp3","char_type_name":"word","page_number":266,"line_number":8,"text":"يَنْحِتُونَ","translation":{"text":"তারা খোদাই করতো","language_name":"bengali","language_id":20},"transliteration":{"text":"yanḥitūna","language_name":"english","language_id":38}},{"id":65224,"position":3,"audio_url":"wbw/015_082_003.mp3","char_type_name":"word","page_number":266,"line_number":8,"text":"مِنَ","translation":{"text":"থেকে","language_name":"bengali","language_id":20},"transliteration":{"text":"mina","language_name":"english","language_id":38}},{"id":65225,"position":4,"audio_url":"wbw/015_082_004.mp3","char_type_name":"word","page_number":266,"line_number":8,"text":"ٱلْجِبَالِ","translation":{"text":"পাহাড়সমূহ","language_name":"bengali","language_id":20},"transliteration":{"text":"l-jibāli","language_name":"english","language_id":38}},{"id":65226,"position":5,"audio_url":"wbw/015_082_005.mp3","char_type_name":"word","page_number":266,"line_number":8,"text":"بُيُوتًا","translation":{"text":"ঘরসমূহ (বানাতে)","language_name":"bengali","language_id":20},"transliteration":{"text":"buyūtan","language_name":"english","language_id":38}},{"id":65227,"position":6,"audio_url":"wbw/015_082_006.mp3","char_type_name":"word","page_number":266,"line_number":8,"text":"ءَامِنِينَ","translation":{"text":"নিরাপদে","language_name":"bengali","language_id":20},"transliteration":{"text":"āminīna","language_name":"english","language_id":38}},{"id":65228,"position":7,"audio_url":null,"char_type_name":"end","page_number":266,"line_number":8,"text":"٨٢","translation":{"text":"(৮২)","language_name":"bengali","language_id":20},"transliteration":{"text":null,"language_name":"english","language_id":38}}]},{"id":1885,"verse_number":83,"verse_key":"15:83","hizb_number":27,"rub_el_hizb_number":106,"ruku_number":223,"manzil_number":3,"sajdah_number":null,"page_number":266,"juz_number":14,"words":[{"id":65399,"position":1,"audio_url":"wbw/015_083_001.mp3","char_type_name":"word","page_number":266,"line_number":8,"text":"فَأَخَذَتْهُمُ","translation":{"text":"অতঃপর তাদের আঘাত করলো","language_name":"bengali","language_id":20},"transliteration":{"text":"fa-akhadhathumu","language_name":"english","language_id":38}},{"id":65400,"position":2,"audio_url":"wbw/015_083_002.mp3","char_type_name":"word","page_number":266,"line_number":9,"text":"ٱلصَّيْحَةُ","translation":{"text":"বিকট শব্দে","language_name":"bengali","language_id":20},"transliteration":{"text":"l-ṣayḥatu","language_name":"english","language_id":38}},{"id":65401,"position":3,"audio_url":"wbw/015_083_003.mp3","char_type_name":"word","page_number":266,"line_number":9,"text":"مُصْبِحِينَ","translation":{"text":"সকাল হ'তে না হ'তেই","language_name":"bengali","language_id":20},"transliteration":{"text":"muṣ'biḥīna","language_name":"english","language_id":38}},{"id":65402,"position":4,"audio_url":null,"char_type_name":"end","page_number":266,"line_number":9,"text":"٨٣","translation":{"text":"(৮৩)","language_name":"bengali","language_id":20},"transliteration":{"text":null,"language_name":"english","language_id":38}}]},{"id":1886,"verse_number":84,"verse_key":"15:84","hizb_number":27,"rub_el_hizb_number":106,"ruku_number":223,"manzil_number":3,"sajdah_number":null,"page_number":266,"juz_number":14,"words":[{"id":65649,"position":1,"audio_url":"wbw/015_084_001.mp3","char_type_name":"word","page_number":266,"line_number":9,"text":"فَمَآ","translation":{"text":"অতঃপর না","language_name":"bengali","language_id":20},"transliteration":{"text":"famā","language_name":"english","language_id":38}},{"id":65650,"position":2,"audio_url":"wbw/015_084_002.mp3","char_type_name":"word","page_number":266,"line_number":9,"text":"أَغْنَىٰ","translation":{"text":"কাজে আসলো","language_name":"bengali","language_id":20},"transliteration":{"text":"aghnā","language_name":"english","language_id":38}},{"id":65651,"position":3,"audio_url":"wbw/015_084_003.mp3","char_type_name":"word","page_number":266,"line_number":9,"text":"عَنْهُم","translation":{"text":"জন্যে তাদের","language_name":"bengali","language_id":20},"transliteration":{"text":"ʿanhum","language_name":"english","language_id":38}},{"id":65652,"position":4,"audio_url":"wbw/015_084_004.mp3","char_type_name":"word","page_number":266,"line_number":9,"text":"مَّا","translation":{"text":"যা","language_name":"bengali","language_id":20},"transliteration":{"text":"mā","language_name":"english","language_id":38}},{"id":65653,"position":5,"audio_url":"wbw/015_084_005.mp3","char_type_name":"word","page_number":266,"line_number":9,"text":"كَانُوا۟","translation":{"text":"তারা ছিলো","language_name":"bengali","language_id":20},"transliteration":{"text":"kānū","language_name":"english","language_id":38}},{"id":65654,"position":6,"audio_url":"wbw/015_084_006.mp3","char_type_name":"word","page_number":266,"line_number":9,"text":"يَكْسِبُونَ","translation":{"text":"তারা উপার্জন করে","language_name":"bengali","language_id":20},"transliteration":{"text":"yaksibūna","language_name":"english","language_id":38}},{"id":65655,"position":7,"audio_url":null,"char_type_name":"end","page_number":266,"line_number":9,"text":"٨٤","translation":{"text":"(৮৪)","language_name":"bengali","language_id":20},"transliteration":{"text":null,"language_name":"english","language_id":38}}]},{"id":1887,"verse_number":85,"verse_key":"15:85","hizb_number":27,"rub_el_hizb_number":106,"ruku_number":223,"manzil_number":3,"sajdah_number":null,"page_number":266,"juz_number":14,"words":[{"id":66318,"position":1,"audio_url":"wbw/015_085_001.mp3","char_type_name":"word","page_number":266,"line_number":10,"text":"وَمَا","translation":{"text":"এবং নি","language_name":"bengali","language_id":20},"transliteration":{"text":"wamā","language_name":"english","language_id":38}},{"id":66319,"position":2,"audio_url":"wbw/015_085_002.mp3","char_type_name":"word","page_number":266,"line_number":10,"text":"خَلَقْنَا","translation":{"text":"আমরা সৃষ্টি করেছি","language_name":"bengali","language_id":20},"transliteration":{"text":"khalaqnā","language_name":"english","language_id":38}},{"id":66320,"position":3,"audio_url":"wbw/015_085_003.mp3","char_type_name":"word","page_number":266,"line_number":10,"text":"ٱلسَّمَـٰوَٰتِ","translation":{"text":"আকাশ মন্ডলী","language_name":"bengali","language_id":20},"transliteration":{"text":"l-samāwāti","language_name":"english","language_id":38}},{"id":66321,"position":4,"audio_url":"wbw/015_085_004.mp3","char_type_name":"word","page_number":266,"line_number":10,"text":"وَٱلْأَرْضَ","translation":{"text":"এবং পৃথিবী","language_name":"bengali","language_id":20},"transliteration":{"text":"wal-arḍa","language_name":"english","language_id":38}},{"id":66322,"position":5,"audio_url":"wbw/015_085_005.mp3","char_type_name":"word","page_number":266,"line_number":10,"text":"وَمَا","translation":{"text":"এবং যা (আছে)","language_name":"bengali","language_id":20},"transliteration":{"text":"wamā","language_name":"english","language_id":38}},{"id":66323,"position":6,"audio_url":"wbw/015_085_006.mp3","char_type_name":"word","page_number":266,"line_number":10,"text":"بَيْنَهُمَآ","translation":{"text":"উভয়ের মাঝে","language_name":"bengali","language_id":20},"transliteration":{"text":"baynahumā","language_name":"english","language_id":38}},{"id":66324,"position":7,"audio_url":"wbw/015_085_007.mp3","char_type_name":"word","page_number":266,"line_number":10,"text":"إِلَّا","translation":{"text":"এ ছাড়া","language_name":"bengali","language_id":20},"transliteration":{"text":"illā","language_name":"english","language_id":38}},{"id":66325,"position":8,"audio_url":"wbw/015_085_008.mp3","char_type_name":"word","page_number":266,"line_number":10,"text":"بِٱلْحَقِّ ۗ","translation":{"text":"মহাসত্যসহকারে","language_name":"bengali","language_id":20},"transliteration":{"text":"bil-ḥaqi","language_name":"english","language_id":38}},{"id":66327,"position":9,"audio_url":"wbw/015_085_010.mp3","char_type_name":"word","page_number":266,"line_number":10,"text":"وَإِنَّ","translation":{"text":"এবং নিশ্চয়ই","language_name":"bengali","language_id":20},"transliteration":{"text":"wa-inna","language_name":"english","language_id":38}},{"id":66328,"position":10,"audio_url":"wbw/015_085_011.mp3","char_type_name":"word","page_number":266,"line_number":11,"text":"ٱلسَّاعَةَ","translation":{"text":"ক্বিয়ামাত","language_name":"bengali","language_id":20},"transliteration":{"text":"l-sāʿata","language_name":"english","language_id":38}},{"id":66329,"position":11,"audio_url":"wbw/015_085_012.mp3","char_type_name":"word","page_number":266,"line_number":11,"text":"لَـَٔاتِيَةٌۭ ۖ","translation":{"text":"অবশ্যই আসবে","language_name":"bengali","language_id":20},"transliteration":{"text":"laātiyatun","language_name":"english","language_id":38}},{"id":66331,"position":12,"audio_url":"wbw/015_085_014.mp3","char_type_name":"word","page_number":266,"line_number":11,"text":"فَٱصْفَحِ","translation":{"text":"সুতরাং ক্ষমা করো","language_name":"bengali","language_id":20},"transliteration":{"text":"fa-iṣ'faḥi","language_name":"english","language_id":38}},{"id":66332,"position":13,"audio_url":"wbw/015_085_015.mp3","char_type_name":"word","page_number":266,"line_number":11,"text":"ٱلصَّفْحَ","translation":{"text":"সৌজন্যে","language_name":"bengali","language_id":20},"transliteration":{"text":"l-ṣafḥa","language_name":"english","language_id":38}},{"id":66333,"position":14,"audio_url":"wbw/015_085_016.mp3","char_type_name":"word","page_number":266,"line_number":11,"text":"ٱلْجَمِيلَ","translation":{"text":"পরম","language_name":"bengali","language_id":20},"transliteration":{"text":"l-jamīla","language_name":"english","language_id":38}},{"id":66334,"position":15,"audio_url":null,"char_type_name":"end","page_number":266,"line_number":11,"text":"٨٥","translation":{"text":"(৮৫)","language_name":"bengali","language_id":20},"transliteration":{"text":null,"language_name":"english","language_id":38}}]},{"id":1888,"verse_number":86,"verse_key":"15:86","hizb_number":27,"rub_el_hizb_number":106,"ruku_number":223,"manzil_number":3,"sajdah_number":null,"page_number":266,"juz_number":14,"words":[{"id":66681,"position":1,"audio_url":"wbw/015_086_001.mp3","char_type_name":"word","page_number":266,"line_number":11,"text":"إِنَّ","translation":{"text":"নিশ্চয়ই","language_name":"bengali","language_id":20},"transliteration":{"text":"inna","language_name":"english","language_id":38}},{"id":66682,"position":2,"audio_url":"wbw/015_086_002.mp3","char_type_name":"word","page_number":266,"line_number":11,"text":"رَبَّكَ","translation":{"text":"তোমার রব","language_name":"bengali","language_id":20},"transliteration":{"text":"rabbaka","language_name":"english","language_id":38}},{"id":66683,"position":3,"audio_url":"wbw/015_086_003.mp3","char_type_name":"word","page_number":266,"line_number":11,"text":"هُوَ","translation":{"text":"তিনিই","language_name":"bengali","language_id":20},"transliteration":{"text":"huwa","language_name":"english","language_id":38}},{"id":66684,"position":4,"audio_url":"wbw/015_086_004.mp3","char_type_name":"word","page_number":266,"line_number":12,"text":"ٱلْخَلَّـٰقُ","translation":{"text":"মহাস্রষ্টা","language_name":"bengali","language_id":20},"transliteration":{"text":"l-khalāqu","language_name":"english","language_id":38}},{"id":66685,"position":5,"audio_url":"wbw/015_086_005.mp3","char_type_name":"word","page_number":266,"line_number":12,"text":"ٱلْعَلِيمُ","translation":{"text":"মহাজ্ঞানী","language_name":"bengali","language_id":20},"transliteration":{"text":"l-ʿalīmu","language_name":"english","language_id":38}},{"id":66686,"position":6,"audio_url":null,"char_type_name":"end","page_number":266,"line_number":12,"text":"٨٦","translation":{"text":"(৮৬)","language_name":"bengali","language_id":20},"transliteration":{"text":null,"language_name":"english","language_id":38}}]},{"id":1889,"verse_number":87,"verse_key":"15:87","hizb_number":27,"rub_el_hizb_number":106,"ruku_number":223,"manzil_number":3,"sajdah_number":null,"page_number":266,"juz_number":14,"words":[{"id":67007,"position":1,"audio_url":"wbw/015_087_001.mp3","char_type_name":"word","page_number":266,"line_number":12,"text":"وَلَقَدْ","translation":{"text":"এবং নিশ্চয়ই","language_name":"bengali","language_id":20},"transliteration":{"text":"walaqad","language_name":"english","language_id":38}},{"id":67008,"position":2,"audio_url":"wbw/015_087_002.mp3","char_type_name":"word","page_number":266,"line_number":12,"text":"ءَاتَيْنَـٰكَ","translation":{"text":"তোমাকে দিয়েছি","language_name":"bengali","language_id":20},"transliteration":{"text":"ātaynāka","language_name":"english","language_id":38}},{"id":67009,"position":3,"audio_url":"wbw/015_087_003.mp3","char_type_name":"word","page_number":266,"line_number":12,"text":"سَبْعًۭا","translation":{"text":"সাত (আয়াত)","language_name":"bengali","language_id":20},"transliteration":{"text":"sabʿan","language_name":"english","language_id":38}},{"id":67010,"position":4,"audio_url":"wbw/015_087_004.mp3","char_type_name":"word","page_number":266,"line_number":12,"text":"مِّنَ","translation":{"text":"থেকে","language_name":"bengali","language_id":20},"transliteration":{"text":"mina","language_name":"english","language_id":38}},{"id":67011,"position":5,"audio_url":"wbw/015_087_005.mp3","char_type_name":"word","page_number":266,"line_number":12,"text":"ٱلْمَثَانِى","translation":{"text":"বারবার আবৃত্তিযোগ্য","language_name":"bengali","language_id":20},"transliteration":{"text":"l-mathānī","language_name":"english","language_id":38}},{"id":67012,"position":6,"audio_url":"wbw/015_087_006.mp3","char_type_name":"word","page_number":266,"line_number":13,"text":"وَٱلْقُرْءَانَ","translation":{"text":"ও কুরআন","language_name":"bengali","language_id":20},"transliteration":{"text":"wal-qur'āna","language_name":"english","language_id":38}},{"id":67013,"position":7,"audio_url":"wbw/015_087_007.mp3","char_type_name":"word","page_number":266,"line_number":13,"text":"ٱلْعَظِيمَ","translation":{"text":"মহান","language_name":"bengali","language_id":20},"transliteration":{"text":"l-ʿaẓīma","language_name":"english","language_id":38}},{"id":67014,"position":8,"audio_url":null,"char_type_name":"end","page_number":266,"line_number":13,"text":"٨٧","translation":{"text":"(৮৭)","language_name":"bengali","language_id":20},"transliteration":{"text":null,"language_name":"english","language_id":38}}]},{"id":1890,"verse_number":88,"verse_key":"15:88","hizb_number":27,"rub_el_hizb_number":106,"ruku_number":223,"manzil_number":3,"sajdah_number":null,"page_number":266,"juz_number":14,"words":[{"id":67438,"position":1,"audio_url":"wbw/015_088_001.mp3","char_type_name":"word","page_number":266,"line_number":13,"text":"لَا","translation":{"text":"না","language_name":"bengali","language_id":20},"transliteration":{"text":"lā","language_name":"english","language_id":38}},{"id":67439,"position":2,"audio_url":"wbw/015_088_002.mp3","char_type_name":"word","page_number":266,"line_number":13,"text":"تَمُدَّنَّ","translation":{"text":"কখনও প্রসারিত করো তুমি","language_name":"bengali","language_id":20},"transliteration":{"text":"tamuddanna","language_name":"english","language_id":38}},{"id":67440,"position":3,"audio_url":"wbw/015_088_003.mp3","char_type_name":"word","page_number":266,"line_number":13,"text":"عَيْنَيْكَ","translation":{"text":"তোমার দু'চোখ","language_name":"bengali","language_id":20},"transliteration":{"text":"ʿaynayka","language_name":"english","language_id":38}},{"id":67441,"position":4,"audio_url":"wbw/015_088_004.mp3","char_type_name":"word","page_number":266,"line_number":13,"text":"إِلَىٰ","translation":{"text":"প্রতি","language_name":"bengali","language_id":20},"transliteration":{"text":"ilā","language_name":"english","language_id":38}},{"id":67442,"position":5,"audio_url":"wbw/015_088_005.mp3","char_type_name":"word","page_number":266,"line_number":13,"text":"مَا","translation":{"text":"যা","language_name":"bengali","language_id":20},"transliteration":{"text":"mā","language_name":"english","language_id":38}},{"id":67443,"position":6,"audio_url":"wbw/015_088_006.mp3","char_type_name":"word","page_number":266,"line_number":13,"text":"مَتَّعْنَا","translation":{"text":"আমরা ভোগ বিলাস দিয়েছি","language_name":"bengali","language_id":20},"transliteration":{"text":"mattaʿnā","language_name":"english","language_id":38}},{"id":67444,"position":7,"audio_url":"wbw/015_088_007.mp3","char_type_name":"word","page_number":266,"line_number":13,"text":"بِهِۦٓ","translation":{"text":"দিয়ে তা","language_name":"bengali","language_id":20},"transliteration":{"text":"bihi","language_name":"english","language_id":38}},{"id":67445,"position":8,"audio_url":"wbw/015_088_008.mp3","char_type_name":"word","page_number":266,"line_number":13,"text":"أَزْوَٰجًۭا","translation":{"text":"বিভিন্ন শ্রেণীতে","language_name":"bengali","language_id":20},"transliteration":{"text":"azwājan","language_name":"english","language_id":38}},{"id":67446,"position":9,"audio_url":"wbw/015_088_009.mp3","char_type_name":"word","page_number":266,"line_number":14,"text":"مِّنْهُمْ","translation":{"text":"তাদের মধ্যকার","language_name":"bengali","language_id":20},"transliteration":{"text":"min'hum","language_name":"english","language_id":38}},{"id":67447,"position":10,"audio_url":"wbw/015_088_010.mp3","char_type_name":"word","page_number":266,"line_number":14,"text":"وَلَا","translation":{"text":"ও না","language_name":"bengali","language_id":20},"transliteration":{"text":"walā","language_name":"english","language_id":38}},{"id":67448,"position":11,"audio_url":"wbw/015_088_011.mp3","char_type_name":"word","page_number":266,"line_number":14,"text":"تَحْزَنْ","translation":{"text":"চিন্তা করো","language_name":"bengali","language_id":20},"transliteration":{"text":"taḥzan","language_name":"english","language_id":38}},{"id":67449,"position":12,"audio_url":"wbw/015_088_012.mp3","char_type_name":"word","page_number":266,"line_number":14,"text":"عَلَيْهِمْ","translation":{"text":"তাদের সম্বন্ধে","language_name":"bengali","language_id":20},"transliteration":{"text":"ʿalayhim","language_name":"english","language_id":38}},{"id":67450,"position":13,"audio_url":"wbw/015_088_013.mp3","char_type_name":"word","page_number":266,"line_number":14,"text":"وَٱخْفِضْ","translation":{"text":"অবনমিত করো","language_name":"bengali","language_id":20},"transliteration":{"text":"wa-ikh'fiḍ","language_name":"english","language_id":38}},{"id":67451,"position":14,"audio_url":"wbw/015_088_014.mp3","char_type_name":"word","page_number":266,"line_number":14,"text":"جَنَاحَكَ","translation":{"text":"তোমার বাহু","language_name":"bengali","language_id":20},"transliteration":{"text":"janāḥaka","language_name":"english","language_id":38}},{"id":67452,"position":15,"audio_url":"wbw/015_088_015.mp3","char_type_name":"word","page_number":266,"line_number":14,"text":"لِلْمُؤْمِنِينَ","translation":{"text":"মু'মিনদের জন্যে","language_name":"bengali","language_id":20},"transliteration":{"text":"lil'mu'minīna","language_name":"english","language_id":38}},{"id":67453,"position":16,"audio_url":null,"char_type_name":"end","page_number":266,"line_number":14,"text":"٨٨","translation":{"text":"(৮৮)","language_name":"bengali","language_id":20},"transliteration":{"text":null,"language_name":"english","language_id":38}}]},{"id":1891,"verse_number":89,"verse_key":"15:89","hizb_number":27,"rub_el_hizb_number":106,"ruku_number":223,"manzil_number":3,"sajdah_number":null,"page_number":266,"juz_number":14,"words":[{"id":67846,"position":1,"audio_url":"wbw/015_089_001.mp3","char_type_name":"word","page_number":266,"line_number":14,"text":"وَقُلْ","translation":{"text":"এবং বলো","language_name":"bengali","language_id":20},"transliteration":{"text":"waqul","language_name":"english","language_id":38}},{"id":67847,"position":2,"audio_url":"wbw/015_089_002.mp3","char_type_name":"word","page_number":266,"line_number":15,"text":"إِنِّىٓ","translation":{"text":"\"নিশ্চয়ই আমি","language_name":"bengali","language_id":20},"transliteration":{"text":"innī","language_name":"english","language_id":38}},{"id":67848,"position":3,"audio_url":"wbw/015_089_003.mp3","char_type_name":"word","page_number":266,"line_number":15,"text":"أَنَا","translation":{"text":"আমিই","language_name":"bengali","language_id":20},"transliteration":{"text":"anā","language_name":"english","language_id":38}},{"id":67849,"position":4,"audio_url":"wbw/015_089_004.mp3","char_type_name":"word","page_number":266,"line_number":15,"text":"ٱلنَّذِيرُ","translation":{"text":"সতর্ককারী","language_name":"bengali","language_id":20},"transliteration":{"text":"l-nadhīru","language_name":"english","language_id":38}},{"id":67850,"position":5,"audio_url":"wbw/015_089_005.mp3","char_type_name":"word","page_number":266,"line_number":15,"text":"ٱلْمُبِينُ","translation":{"text":"সুস্পষ্ট\"","language_name":"bengali","language_id":20},"transliteration":{"text":"l-mubīnu","language_name":"english","language_id":38}},{"id":67851,"position":6,"audio_url":null,"char_type_name":"end","page_number":266,"line_number":15,"text":"٨٩","translation":{"text":"(৮৯)","language_name":"bengali","language_id":20},"transliteration":{"text":null,"language_name":"english","language_id":38}}]},{"id":1892,"verse_number":90,"verse_key":"15:90","hizb_number":27,"rub_el_hizb_number":106,"ruku_number":223,"manzil_number":3,"sajdah_number":null,"page_number":266,"juz_number":14,"words":[{"id":68021,"position":1,"audio_url":"wbw/015_090_001.mp3","char_type_name":"word","page_number":266,"line_number":15,"text":"كَمَآ","translation":{"text":"যেমন","language_name":"bengali","language_id":20},"transliteration":{"text":"kamā","language_name":"english","language_id":38}},{"id":68022,"position":2,"audio_url":"wbw/015_090_002.mp3","char_type_name":"word","page_number":266,"line_number":15,"text":"أَنزَلْنَا","translation":{"text":"আমরা অবতীর্ণ করেছিলাম","language_name":"bengali","language_id":20},"transliteration":{"text":"anzalnā","language_name":"english","language_id":38}},{"id":68023,"position":3,"audio_url":"wbw/015_090_003.mp3","char_type_name":"word","page_number":266,"line_number":15,"text":"عَلَى","translation":{"text":"উপর","language_name":"bengali","language_id":20},"transliteration":{"text":"ʿalā","language_name":"english","language_id":38}},{"id":68024,"position":4,"audio_url":"wbw/015_090_004.mp3","char_type_name":"word","page_number":266,"line_number":15,"text":"ٱلْمُقْتَسِمِينَ","translation":{"text":"বিভক্তকারীদের","language_name":"bengali","language_id":20},"transliteration":{"text":"l-muq'tasimīna","language_name":"english","language_id":38}},{"id":68025,"position":5,"audio_url":null,"char_type_name":"end","page_number":266,"line_number":15,"text":"٩٠","translation":{"text":"(৯০)","language_name":"bengali","language_id":20},"transliteration":{"text":null,"language_name":"english","language_id":38}}]}],"pagination":{"per_page":10,"current_page":9,"next_page":10,"total_pages":10,"total_records":99}}
