{"verses":[{"id":5723,"verse_number":11,"verse_key":"79:11","hizb_number":59,"rub_el_hizb_number":233,"ruku_number":522,"manzil_number":7,"sajdah_number":null,"page_number":583,"juz_number":30,"words":[{"id":12979,"position":1,"audio_url":"wbw/079_011_001.mp3","verse_key":"79:11","verse_id":5723,"location":"79:11:1","text_uthmani":"أَءِذَا","qpc_uthmani_hafs":"أَءِذَا","char_type_name":"word","page_number":583,"line_number":13,"text":"أَءِذَا","translation":{"text":"যখন কি","language_name":"bengali","language_id":20},"transliteration":{"text":"a-idhā","language_name":"english","language_id":38}},{"id":12980,"position":2,"audio_url":"wbw/079_011_002.mp3","verse_key":"79:11","verse_id":5723,"location":"79:11:2","text_uthmani":"كُنَّا","qpc_uthmani_hafs":"كُنَّا","char_type_name":"word","page_number":583,"line_number":13,"text":"كُنَّا","translation":{"text":"আমরা হবো (পরিণত)","language_name":"bengali","language_id":20},"transliteration":{"text":"kunnā","language_name":"english","language_id":38}},{"id":12981,"position":3,"audio_url":"wbw/079_011_003.mp3","verse_key":"79:11","verse_id":5723,"location":"79:11:3","text_uthmani":"عِظَـٰمًۭا","qpc_uthmani_hafs":"عِظَٰمٗا","char_type_name":"word","page_number":583,"line_number":13,"text":"عِظَٰمٗا","translation":{"text":"হাড়গুলোয়","language_name":"bengali","language_id":20},"transliteration":{"text":"ʿiẓāman","language_name":"english","language_id":38}},{"id":12982,"position":4,"audio_url":"wbw/079_011_004.mp3","verse_key":"79:11","verse_id":5723,"location":"79:11:4","text_uthmani":"نَّخِرَةًۭ","qpc_uthmani_hafs":"نَّخِرَةٗ","char_type_name":"word","page_number":583,"line_number":13,"text":"نَّخِرَةٗ","translation":{"text":"গলিত\"","language_name":"bengali","language_id":20},"transliteration":{"text":"nakhiratan","language_name":"english","language_id":38}},{"id":12983,"position":5,"audio_url":null,"verse_key":"79:11","verse_id":5723,"location":"79:11:5","text_uthmani":"١١","qpc_uthmani_hafs":"١١","char_type_name":"end","page_number":583,"line_number":13,"text":"١١","translation":{"text":"(১১)","language_name":"bengali","language_id":20},"transliteration":{"text":null,"language_name":"english","language_id":38}}]},{"id":5724,"verse_number":12,"verse_key":"79:12","hizb_number":59,"rub_el_hizb_number":233,"ruku_number":522,"manzil_number":7,"sajdah_number":null,"page_number":583,"juz_number":30,"words":[{"id":14247,"position":1,"audio_url":"wbw/079_012_001.mp3","verse_key":"79:12","verse_id":5724,"location":"79:12:1","text_uthmani":"قَالُوا۟","qpc_uthmani_hafs":"قَالُواْ","char_type_name":"word","page_number":583,"line_number":13,"text":"قَالُواْ","translation":{"text":"তারা বলল","language_name":"bengali","language_id":20},"transliteration":{"text":"qālū","language_name":"english","language_id":38}},{"id":14248,"position":2,"audio_url":"wbw/079_012_002.mp3","verse_key":"79:12","verse_id":5724,"location":"79:12:2","text_uthmani":"تِلْكَ","qpc_uthmani_hafs":"تِلۡكَ","char_type_name":"word","page_number":583,"line_number":14,"text":"تِلۡكَ","translation":{"text":"\"এটা","language_name":"bengali","language_id":20},"transliteration":{"text":"til'ka","language_name":"english","language_id":38}},{"id":14249,"position":3,"audio_url":"wbw/079_012_003.mp3","verse_key":"79:12","verse_id":5724,"location":"79:12:3","text_uthmani":"إِذًۭا","qpc_uthmani_hafs":"إِذٗا","char_type_name":"word","page_number":583,"line_number":14,"text":"إِذٗا","translation":{"text":"তা হলে","language_name":"bengali","language_id":20},"transliteration":{"text":"idhan","language_name":"english","language_id":38}},{"id":14250,"position":4,"audio_url":"wbw/079_012_004.mp3","verse_key":"79:12","verse_id":5724,"location":"79:12:4","text_uthmani":"كَرَّةٌ","qpc_uthmani_hafs":"كَرَّةٌ","char_type_name":"word","page_number":583,"line_number":14,"text":"كَرَّةٌ","translation":{"text":"প্রত্যাবর্তন","language_name":"bengali","language_id":20},"transliteration":{"text":"karratun","language_name":"english","language_id":38}},{"id":14251,"position":5,"audio_url":"wbw/079_012_005.mp3","verse_key":"79:12","verse_id":5724,"location":"79:12:5","text_uthmani":"خَاسِرَةٌۭ","qpc_uthmani_hafs":"خَاسِرَةٞ","char_type_name":"word","page_number":583,"line_number":14,"text":"خَاسِرَةٞ","translation":{"text":"বড়ই ক্ষতিকর (হবে)\"","language_name":"bengali","language_id":20},"transliteration":{"text":"khāsiratun","language_name":"english","language_id":38}},{"id":14252,"position":6,"audio_url":null,"verse_key":"79:12","verse_id":5724,"location":"79:12:6","text_uthmani":"١٢","qpc_uthmani_hafs":"١٢","char_type_name":"end","page_number":583,"line_number":14,"text":"١٢","translation":{"text":"(১২)","language_name":"bengali","language_id":20},"transliteration":{"text":null,"language_name":"english","language_id":38}}]},{"id":5725,"verse_number":13,"verse_key":"79:13","hizb_number":59,"rub_el_hizb_number":233,"ruku_number":522,"manzil_number":7,"sajdah_number":null,"page_number":583,"juz_number":30,"words":[{"id":15480,"position":1,"audio_url":"wbw/079_013_001.mp3","verse_key":"79:13","verse_id":5725,"location":"79:13:1","text_uthmani":"فَإِنَّمَا","qpc_uthmani_hafs":"فَإِنَّمَا","char_type_name":"word","page_number":583,"line_number":14,"text":"فَإِنَّمَا","translation":{"text":"প্রকৃতপক্ষে","language_name":"bengali","language_id":20},"transliteration":{"text":"fa-innamā","language_name":"english","language_id":38}},{"id":15481,"position":2,"audio_url":"wbw/079_013_002.mp3","verse_key":"79:13","verse_id":5725,"location":"79:13:2","text_uthmani":"هِىَ","qpc_uthmani_hafs":"هِيَ","char_type_name":"word","page_number":583,"line_number":14,"text":"هِيَ","translation":{"text":"তা","language_name":"bengali","language_id":20},"transliteration":{"text":"hiya","language_name":"english","language_id":38}},{"id":15482,"position":3,"audio_url":"wbw/079_013_003.mp3","verse_key":"79:13","verse_id":5725,"location":"79:13:3","text_uthmani":"زَجْرَةٌۭ","qpc_uthmani_hafs":"زَجۡرَةٞ","char_type_name":"word","page_number":583,"line_number":14,"text":"زَجۡرَةٞ","translation":{"text":"বিকট আওয়াজ","language_name":"bengali","language_id":20},"transliteration":{"text":"zajratun","language_name":"english","language_id":38}},{"id":15483,"position":4,"audio_url":"wbw/079_013_004.mp3","verse_key":"79:13","verse_id":5725,"location":"79:13:4","text_uthmani":"وَٰحِدَةٌۭ","qpc_uthmani_hafs":"وَٰحِدَةٞ","char_type_name":"word","page_number":583,"line_number":14,"text":"وَٰحِدَةٞ","translation":{"text":"একটি মাত্র","language_name":"bengali","language_id":20},"transliteration":{"text":"wāḥidatun","language_name":"english","language_id":38}},{"id":15484,"position":5,"audio_url":null,"verse_key":"79:13","verse_id":5725,"location":"79:13:5","text_uthmani":"١٣","qpc_uthmani_hafs":"١٣","char_type_name":"end","page_number":583,"line_number":14,"text":"١٣","translation":{"text":"(১৩)","language_name":"bengali","language_id":20},"transliteration":{"text":null,"language_name":"english","language_id":38}}]},{"id":5726,"verse_number":14,"verse_key":"79:14","hizb_number":59,"rub_el_hizb_number":233,"ruku_number":522,"manzil_number":7,"sajdah_number":null,"page_number":583,"juz_number":30,"words":[{"id":16413,"position":1,"audio_url":"wbw/079_014_001.mp3","verse_key":"79:14","verse_id":5726,"location":"79:14:1","text_uthmani":"فَإِذَا","qpc_uthmani_hafs":"فَإِذَا","char_type_name":"word","page_number":583,"line_number":14,"text":"فَإِذَا","translation":{"text":"অতঃপর তখনই","language_name":"bengali","language_id":20},"transliteration":{"text":"fa-idhā","language_name":"english","language_id":38}},{"id":16414,"position":2,"audio_url":"wbw/079_014_002.mp3","verse_key":"79:14","verse_id":5726,"location":"79:14:2","text_uthmani":"هُم","qpc_uthmani_hafs":"هُم","char_type_name":"word","page_number":583,"line_number":14,"text":"هُم","translation":{"text":"তারা","language_name":"bengali","language_id":20},"transliteration":{"text":"hum","language_name":"english","language_id":38}},{"id":16415,"position":3,"audio_url":"wbw/079_014_003.mp3","verse_key":"79:14","verse_id":5726,"location":"79:14:3","text_uthmani":"بِٱلسَّاهِرَةِ","qpc_uthmani_hafs":"بِٱلسَّاهِرَةِ","char_type_name":"word","page_number":583,"line_number":14,"text":"بِٱلسَّاهِرَةِ","translation":{"text":"খোলা ময়দানে (হবে)","language_name":"bengali","language_id":20},"transliteration":{"text":"bil-sāhirati","language_name":"english","language_id":38}},{"id":16416,"position":4,"audio_url":null,"verse_key":"79:14","verse_id":5726,"location":"79:14:4","text_uthmani":"١٤","qpc_uthmani_hafs":"١٤","char_type_name":"end","page_number":583,"line_number":15,"text":"١٤","translation":{"text":"(১৪)","language_name":"bengali","language_id":20},"transliteration":{"text":null,"language_name":"english","language_id":38}}]},{"id":5727,"verse_number":15,"verse_key":"79:15","hizb_number":59,"rub_el_hizb_number":233,"ruku_number":522,"manzil_number":7,"sajdah_number":null,"page_number":583,"juz_number":30,"words":[{"id":17576,"position":1,"audio_url":"wbw/079_015_001.mp3","verse_key":"79:15","verse_id":5727,"location":"79:15:1","text_uthmani":"هَلْ","qpc_uthmani_hafs":"هَلۡ","char_type_name":"word","page_number":583,"line_number":15,"text":"هَلۡ","translation":{"text":"কি","language_name":"bengali","language_id":20},"transliteration":{"text":"hal","language_name":"english","language_id":38}},{"id":17577,"position":2,"audio_url":"wbw/079_015_002.mp3","verse_key":"79:15","verse_id":5727,"location":"79:15:2","text_uthmani":"أَتَىٰكَ","qpc_uthmani_hafs":"أَتَىٰكَ","char_type_name":"word","page_number":583,"line_number":15,"text":"أَتَىٰكَ","translation":{"text":"তোমার কাছে এসেছে","language_name":"bengali","language_id":20},"transliteration":{"text":"atāka","language_name":"english","language_id":38}},{"id":17578,"position":3,"audio_url":"wbw/079_015_003.mp3","verse_key":"79:15","verse_id":5727,"location":"79:15:3","text_uthmani":"حَدِيثُ","qpc_uthmani_hafs":"حَدِيثُ","char_type_name":"word","page_number":583,"line_number":15,"text":"حَدِيثُ","translation":{"text":"বৃত্তান্ত","language_name":"bengali","language_id":20},"transliteration":{"text":"ḥadīthu","language_name":"english","language_id":38}},{"id":17579,"position":4,"audio_url":"wbw/079_015_004.mp3","verse_key":"79:15","verse_id":5727,"location":"79:15:4","text_uthmani":"مُوسَىٰٓ","qpc_uthmani_hafs":"مُوسَىٰٓ","char_type_name":"word","page_number":583,"line_number":15,"text":"مُوسَىٰٓ","translation":{"text":"মূসার","language_name":"bengali","language_id":20},"transliteration":{"text":"mūsā","language_name":"english","language_id":38}},{"id":17580,"position":5,"audio_url":null,"verse_key":"79:15","verse_id":5727,"location":"79:15:5","text_uthmani":"١٥","qpc_uthmani_hafs":"١٥","char_type_name":"end","page_number":583,"line_number":15,"text":"١٥","translation":{"text":"(১৫)","language_name":"bengali","language_id":20},"transliteration":{"text":null,"language_name":"english","language_id":38}}]},{"id":5728,"verse_number":16,"verse_key":"79:16","hizb_number":59,"rub_el_hizb_number":233,"ruku_number":522,"manzil_number":7,"sajdah_number":null,"page_number":583,"juz_number":30,"words":[{"id":18609,"position":1,"audio_url":"wbw/079_016_001.mp3","verse_key":"79:16","verse_id":5728,"location":"79:16:1","text_uthmani":"إِذْ","qpc_uthmani_hafs":"إِذۡ","char_type_name":"word","page_number":583,"line_number":15,"text":"إِذۡ","translation":{"text":"যখন","language_name":"bengali","language_id":20},"transliteration":{"text":"idh","language_name":"english","language_id":38}},{"id":18610,"position":2,"audio_url":"wbw/079_016_002.mp3","verse_key":"79:16","verse_id":5728,"location":"79:16:2","text_uthmani":"نَادَىٰهُ","qpc_uthmani_hafs":"نَادَىٰهُ","char_type_name":"word","page_number":583,"line_number":15,"text":"نَادَىٰهُ","translation":{"text":"তাকে ডেকেছিলেন","language_name":"bengali","language_id":20},"transliteration":{"text":"nādāhu","language_name":"english","language_id":38}},{"id":18611,"position":3,"audio_url":"wbw/079_016_003.mp3","verse_key":"79:16","verse_id":5728,"location":"79:16:3","text_uthmani":"رَبُّهُۥ","qpc_uthmani_hafs":"رَبُّهُۥ","char_type_name":"word","page_number":583,"line_number":15,"text":"رَبُّهُۥ","translation":{"text":"তার রব","language_name":"bengali","language_id":20},"transliteration":{"text":"rabbuhu","language_name":"english","language_id":38}},{"id":18612,"position":4,"audio_url":"wbw/079_016_004.mp3","verse_key":"79:16","verse_id":5728,"location":"79:16:4","text_uthmani":"بِٱلْوَادِ","qpc_uthmani_hafs":"بِٱلۡوَادِ","char_type_name":"word","page_number":583,"line_number":15,"text":"بِٱلۡوَادِ","translation":{"text":"উপত্যকায়","language_name":"bengali","language_id":20},"transliteration":{"text":"bil-wādi","language_name":"english","language_id":38}},{"id":18613,"position":5,"audio_url":"wbw/079_016_005.mp3","verse_key":"79:16","verse_id":5728,"location":"79:16:5","text_uthmani":"ٱلْمُقَدَّسِ","qpc_uthmani_hafs":"ٱلۡمُقَدَّسِ","char_type_name":"word","page_number":583,"line_number":15,"text":"ٱلۡمُقَدَّسِ","translation":{"text":"পবিত্র","language_name":"bengali","language_id":20},"transliteration":{"text":"l-muqadasi","language_name":"english","language_id":38}},{"id":18614,"position":6,"audio_url":"wbw/079_016_006.mp3","verse_key":"79:16","verse_id":5728,"location":"79:16:6","text_uthmani":"طُوًى","qpc_uthmani_hafs":"طُوًى","char_type_name":"word","page_number":583,"line_number":15,"text":"طُوًى","translation":{"text":"তুয়ার","language_name":"bengali","language_id":20},"transliteration":{"text":"ṭuwan","language_name":"english","language_id":38}},{"id":18615,"position":7,"audio_url":null,"verse_key":"79:16","verse_id":5728,"location":"79:16:7","text_uthmani":"١٦","qpc_uthmani_hafs":"١٦","char_type_name":"end","page_number":583,"line_number":15,"text":"١٦","translation":{"text":"(১৬)","language_name":"bengali","language_id":20},"transliteration":{"text":null,"language_name":"english","language_id":38}}]},{"id":5729,"verse_number":17,"verse_key":"79:17","hizb_number":59,"rub_el_hizb_number":233,"ruku_number":522,"manzil_number":7,"sajdah_number":null,"page_number":584,"juz_number":30,"words":[{"id":19654,"position":1,"audio_url":"wbw/079_017_001.mp3","verse_key":"79:17","verse_id":5729,"location":"79:17:1","text_uthmani":"ٱذْهَبْ","qpc_uthmani_hafs":"ٱذۡهَبۡ","char_type_name":"word","page_number":584,"line_number":1,"text":"ٱذۡهَبۡ","translation":{"text":"\"(আল্লাহ বললেন তাকে) যাও","language_name":"bengali","language_id":20},"transliteration":{"text":"idh'hab","language_name":"english","language_id":38}},{"id":19655,"position":2,"audio_url":"wbw/079_017_002.mp3","verse_key":"79:17","verse_id":5729,"location":"79:17:2","text_uthmani":"إِلَىٰ","qpc_uthmani_hafs":"إِلَىٰ","char_type_name":"word","page_number":584,"line_number":1,"text":"إِلَىٰ","translation":{"text":"নিকট","language_name":"bengali","language_id":20},"transliteration":{"text":"ilā","language_name":"english","language_id":38}},{"id":19656,"position":3,"audio_url":"wbw/079_017_003.mp3","verse_key":"79:17","verse_id":5729,"location":"79:17:3","text_uthmani":"فِرْعَوْنَ","qpc_uthmani_hafs":"فِرۡعَوۡنَ","char_type_name":"word","page_number":584,"line_number":1,"text":"فِرۡعَوۡنَ","translation":{"text":"ফিরআউনের","language_name":"bengali","language_id":20},"transliteration":{"text":"fir'ʿawna","language_name":"english","language_id":38}},{"id":19657,"position":4,"audio_url":"wbw/079_017_004.mp3","verse_key":"79:17","verse_id":5729,"location":"79:17:4","text_uthmani":"إِنَّهُۥ","qpc_uthmani_hafs":"إِنَّهُۥ","char_type_name":"word","page_number":584,"line_number":1,"text":"إِنَّهُۥ","translation":{"text":"সে নিশ্চয়ই","language_name":"bengali","language_id":20},"transliteration":{"text":"innahu","language_name":"english","language_id":38}},{"id":19658,"position":5,"audio_url":"wbw/079_017_005.mp3","verse_key":"79:17","verse_id":5729,"location":"79:17:5","text_uthmani":"طَغَىٰ","qpc_uthmani_hafs":"طَغَىٰ","char_type_name":"word","page_number":584,"line_number":1,"text":"طَغَىٰ","translation":{"text":"সীমালঙ্ঘন করেছে","language_name":"bengali","language_id":20},"transliteration":{"text":"ṭaghā","language_name":"english","language_id":38}},{"id":19659,"position":6,"audio_url":null,"verse_key":"79:17","verse_id":5729,"location":"79:17:6","text_uthmani":"١٧","qpc_uthmani_hafs":"١٧","char_type_name":"end","page_number":584,"line_number":1,"text":"١٧","translation":{"text":"(১৭)","language_name":"bengali","language_id":20},"transliteration":{"text":null,"language_name":"english","language_id":38}}]},{"id":5730,"verse_number":18,"verse_key":"79:18","hizb_number":59,"rub_el_hizb_number":233,"ruku_number":522,"manzil_number":7,"sajdah_number":null,"page_number":584,"juz_number":30,"words":[{"id":20745,"position":1,"audio_url":"wbw/079_018_001.mp3","verse_key":"79:18","verse_id":5730,"location":"79:18:1","text_uthmani":"فَقُلْ","qpc_uthmani_hafs":"فَقُلۡ","char_type_name":"word","page_number":584,"line_number":1,"text":"فَقُلۡ","translation":{"text":"অতঃপর বল","language_name":"bengali","language_id":20},"transliteration":{"text":"faqul","language_name":"english","language_id":38}},{"id":20746,"position":2,"audio_url":"wbw/079_018_002.mp3","verse_key":"79:18","verse_id":5730,"location":"79:18:2","text_uthmani":"هَل","qpc_uthmani_hafs":"هَل","char_type_name":"word","page_number":584,"line_number":1,"text":"هَل","translation":{"text":"\"(আছে) কি","language_name":"bengali","language_id":20},"transliteration":{"text":"hal","language_name":"english","language_id":38}},{"id":20747,"position":3,"audio_url":"wbw/079_018_003.mp3","verse_key":"79:18","verse_id":5730,"location":"79:18:3","text_uthmani":"لَّكَ","qpc_uthmani_hafs":"لَّكَ","char_type_name":"word","page_number":584,"line_number":1,"text":"لَّكَ","translation":{"text":"তোমার (আগ্রহ)","language_name":"bengali","language_id":20},"transliteration":{"text":"laka","language_name":"english","language_id":38}},{"id":20748,"position":4,"audio_url":"wbw/079_018_004.mp3","verse_key":"79:18","verse_id":5730,"location":"79:18:4","text_uthmani":"إِلَىٰٓ","qpc_uthmani_hafs":"إِلَىٰٓ","char_type_name":"word","page_number":584,"line_number":1,"text":"إِلَىٰٓ","translation":{"text":"(এর) প্রতি","language_name":"bengali","language_id":20},"transliteration":{"text":"ilā","language_name":"english","language_id":38}},{"id":20749,"position":5,"audio_url":"wbw/079_018_005.mp3","verse_key":"79:18","verse_id":5730,"location":"79:18:5","text_uthmani":"أَن","qpc_uthmani_hafs":"أَن","char_type_name":"word","page_number":584,"line_number":1,"text":"أَن","translation":{"text":"যে","language_name":"bengali","language_id":20},"transliteration":{"text":"an","language_name":"english","language_id":38}},{"id":20750,"position":6,"audio_url":"wbw/079_018_006.mp3","verse_key":"79:18","verse_id":5730,"location":"79:18:6","text_uthmani":"تَزَكَّىٰ","qpc_uthmani_hafs":"تَزَكَّىٰ","char_type_name":"word","page_number":584,"line_number":1,"text":"تَزَكَّىٰ","translation":{"text":"তুমি পবিত্র হবে","language_name":"bengali","language_id":20},"transliteration":{"text":"tazakkā","language_name":"english","language_id":38}},{"id":20751,"position":7,"audio_url":null,"verse_key":"79:18","verse_id":5730,"location":"79:18:7","text_uthmani":"١٨","qpc_uthmani_hafs":"١٨","char_type_name":"end","page_number":584,"line_number":1,"text":"١٨","translation":{"text":"(১৮)","language_name":"bengali","language_id":20},"transliteration":{"text":null,"language_name":"english","language_id":38}}]},{"id":5731,"verse_number":19,"verse_key":"79:19","hizb_number":59,"rub_el_hizb_number":233,"ruku_number":522,"manzil_number":7,"sajdah_number":null,"page_number":584,"juz_number":30,"words":[{"id":21721,"position":1,"audio_url":"wbw/079_019_001.mp3","verse_key":"79:19","verse_id":5731,"location":"79:19:1","text_uthmani":"وَأَهْدِيَكَ","qpc_uthmani_hafs":"وَأَهۡدِيَكَ","char_type_name":"word","page_number":584,"line_number":1,"text":"وَأَهۡدِيَكَ","translation":{"text":"এবং তোমাকে আমি পথ দেখাবো","language_name":"bengali","language_id":20},"transliteration":{"text":"wa-ahdiyaka","language_name":"english","language_id":38}},{"id":21722,"position":2,"audio_url":"wbw/079_019_002.mp3","verse_key":"79:19","verse_id":5731,"location":"79:19:2","text_uthmani":"إِلَىٰ","qpc_uthmani_hafs":"إِلَىٰ","char_type_name":"word","page_number":584,"line_number":2,"text":"إِلَىٰ","translation":{"text":"দিকে","language_name":"bengali","language_id":20},"transliteration":{"text":"ilā","language_name":"english","language_id":38}},{"id":21723,"position":3,"audio_url":"wbw/079_019_003.mp3","verse_key":"79:19","verse_id":5731,"location":"79:19:3","text_uthmani":"رَبِّكَ","qpc_uthmani_hafs":"رَبِّكَ","char_type_name":"word","page_number":584,"line_number":2,"text":"رَبِّكَ","translation":{"text":"তোমার রবের","language_name":"bengali","language_id":20},"transliteration":{"text":"rabbika","language_name":"english","language_id":38}},{"id":21724,"position":4,"audio_url":"wbw/079_019_004.mp3","verse_key":"79:19","verse_id":5731,"location":"79:19:4","text_uthmani":"فَتَخْشَىٰ","qpc_uthmani_hafs":"فَتَخۡشَىٰ","char_type_name":"word","page_number":584,"line_number":2,"text":"فَتَخۡشَىٰ","translation":{"text":"তুমি যেন ভয় করো\"","language_name":"bengali","language_id":20},"transliteration":{"text":"fatakhshā","language_name":"english","language_id":38}},{"id":21725,"position":5,"audio_url":null,"verse_key":"79:19","verse_id":5731,"location":"79:19:5","text_uthmani":"١٩","qpc_uthmani_hafs":"١٩","char_type_name":"end","page_number":584,"line_number":2,"text":"١٩","translation":{"text":"(১৯)","language_name":"bengali","language_id":20},"transliteration":{"text":null,"language_name":"english","language_id":38}}]},{"id":5732,"verse_number":20,"verse_key":"79:20","hizb_number":59,"rub_el_hizb_number":233,"ruku_number":522,"manzil_number":7,"sajdah_number":null,"page_number":584,"juz_number":30,"words":[{"id":22933,"position":1,"audio_url":"wbw/079_020_001.mp3","verse_key":"79:20","verse_id":5732,"location":"79:20:1","text_uthmani":"فَأَرَىٰهُ","qpc_uthmani_hafs":"فَأَرَىٰهُ","char_type_name":"word","page_number":584,"line_number":2,"text":"فَأَرَىٰهُ","translation":{"text":"অতঃপর  সে তাকে দেখালো","language_name":"bengali","language_id":20},"transliteration":{"text":"fa-arāhu","language_name":"english","language_id":38}},{"id":22934,"position":2,"audio_url":"wbw/079_020_002.mp3","verse_key":"79:20","verse_id":5732,"location":"79:20:2","text_uthmani":"ٱلْـَٔايَةَ","qpc_uthmani_hafs":"ٱلۡأٓيَةَ","char_type_name":"word","page_number":584,"line_number":2,"text":"ٱلۡأٓيَةَ","translation":{"text":"একটি নিদর্শন","language_name":"bengali","language_id":20},"transliteration":{"text":"l-āyata","language_name":"english","language_id":38}},{"id":22935,"position":3,"audio_url":"wbw/079_020_003.mp3","verse_key":"79:20","verse_id":5732,"location":"79:20:3","text_uthmani":"ٱلْكُبْرَىٰ","qpc_uthmani_hafs":"ٱلۡكُبۡرَىٰ","char_type_name":"word","page_number":584,"line_number":2,"text":"ٱلۡكُبۡرَىٰ","translation":{"text":"বড়","language_name":"bengali","language_id":20},"transliteration":{"text":"l-kub'rā","language_name":"english","language_id":38}},{"id":22936,"position":4,"audio_url":null,"verse_key":"79:20","verse_id":5732,"location":"79:20:4","text_uthmani":"٢٠","qpc_uthmani_hafs":"٢٠","char_type_name":"end","page_number":584,"line_number":2,"text":"٢٠","translation":{"text":"(২০)","language_name":"bengali","language_id":20},"transliteration":{"text":null,"language_name":"english","language_id":38}}]}],"pagination":{"per_page":10,"current_page":2,"next_page":3,"total_pages":5,"total_records":46}}
