{"verses":[{"id":5733,"verse_number":21,"verse_key":"79:21","hizb_number":59,"rub_el_hizb_number":233,"ruku_number":522,"manzil_number":7,"sajdah_number":null,"page_number":584,"juz_number":30,"words":[{"id":23980,"position":1,"audio_url":"wbw/079_021_001.mp3","char_type_name":"word","page_number":584,"line_number":2,"text":"فَكَذَّبَ","translation":{"text":"কিন্তু সে মিথ্যারোপ করলো","language_name":"bengali","language_id":20},"transliteration":{"text":"fakadhaba","language_name":"english","language_id":38}},{"id":23981,"position":2,"audio_url":"wbw/079_021_002.mp3","char_type_name":"word","page_number":584,"line_number":2,"text":"وَعَصَىٰ","translation":{"text":"এবং অবাধ্য হলো","language_name":"bengali","language_id":20},"transliteration":{"text":"waʿaṣā","language_name":"english","language_id":38}},{"id":23982,"position":3,"audio_url":null,"char_type_name":"end","page_number":584,"line_number":2,"text":"٢١","translation":{"text":"(২১)","language_name":"bengali","language_id":20},"transliteration":{"text":null,"language_name":"english","language_id":38}}]},{"id":5734,"verse_number":22,"verse_key":"79:22","hizb_number":59,"rub_el_hizb_number":233,"ruku_number":522,"manzil_number":7,"sajdah_number":null,"page_number":584,"juz_number":30,"words":[{"id":24994,"position":1,"audio_url":"wbw/079_022_001.mp3","char_type_name":"word","page_number":584,"line_number":2,"text":"ثُمَّ","translation":{"text":"এর পরে","language_name":"bengali","language_id":20},"transliteration":{"text":"thumma","language_name":"english","language_id":38}},{"id":24995,"position":2,"audio_url":"wbw/079_022_002.mp3","char_type_name":"word","page_number":584,"line_number":3,"text":"أَدْبَرَ","translation":{"text":"পিঠ ফিরালো","language_name":"bengali","language_id":20},"transliteration":{"text":"adbara","language_name":"english","language_id":38}},{"id":24996,"position":3,"audio_url":"wbw/079_022_003.mp3","char_type_name":"word","page_number":584,"line_number":3,"text":"يَسْعَىٰ","translation":{"text":"(প্রতিকারে) সচেষ্ট হলো","language_name":"bengali","language_id":20},"transliteration":{"text":"yasʿā","language_name":"english","language_id":38}},{"id":24997,"position":4,"audio_url":null,"char_type_name":"end","page_number":584,"line_number":3,"text":"٢٢","translation":{"text":"(২২)","language_name":"bengali","language_id":20},"transliteration":{"text":null,"language_name":"english","language_id":38}}]},{"id":5735,"verse_number":23,"verse_key":"79:23","hizb_number":59,"rub_el_hizb_number":233,"ruku_number":522,"manzil_number":7,"sajdah_number":null,"page_number":584,"juz_number":30,"words":[{"id":26093,"position":1,"audio_url":"wbw/079_023_001.mp3","char_type_name":"word","page_number":584,"line_number":3,"text":"فَحَشَرَ","translation":{"text":"পরে সমবেত করল","language_name":"bengali","language_id":20},"transliteration":{"text":"faḥashara","language_name":"english","language_id":38}},{"id":26094,"position":2,"audio_url":"wbw/079_023_002.mp3","char_type_name":"word","page_number":584,"line_number":3,"text":"فَنَادَىٰ","translation":{"text":"আর ঘোষণা করল","language_name":"bengali","language_id":20},"transliteration":{"text":"fanādā","language_name":"english","language_id":38}},{"id":26095,"position":3,"audio_url":null,"char_type_name":"end","page_number":584,"line_number":3,"text":"٢٣","translation":{"text":"(২৩)","language_name":"bengali","language_id":20},"transliteration":{"text":null,"language_name":"english","language_id":38}}]},{"id":5736,"verse_number":24,"verse_key":"79:24","hizb_number":59,"rub_el_hizb_number":233,"ruku_number":522,"manzil_number":7,"sajdah_number":null,"page_number":584,"juz_number":30,"words":[{"id":27117,"position":1,"audio_url":"wbw/079_024_001.mp3","char_type_name":"word","page_number":584,"line_number":3,"text":"فَقَالَ","translation":{"text":"অতঃপর বললো","language_name":"bengali","language_id":20},"transliteration":{"text":"faqāla","language_name":"english","language_id":38}},{"id":27118,"position":2,"audio_url":"wbw/079_024_002.mp3","char_type_name":"word","page_number":584,"line_number":3,"text":"أَنَا۠","translation":{"text":"\"আমি","language_name":"bengali","language_id":20},"transliteration":{"text":"anā","language_name":"english","language_id":38}},{"id":27119,"position":3,"audio_url":"wbw/079_024_003.mp3","char_type_name":"word","page_number":584,"line_number":3,"text":"رَبُّكُمُ","translation":{"text":"তোমাদের রব","language_name":"bengali","language_id":20},"transliteration":{"text":"rabbukumu","language_name":"english","language_id":38}},{"id":27120,"position":4,"audio_url":"wbw/079_024_004.mp3","char_type_name":"word","page_number":584,"line_number":3,"text":"ٱلْأَعْلَىٰ","translation":{"text":"সর্বশ্রেষ্ঠ\"","language_name":"bengali","language_id":20},"transliteration":{"text":"l-aʿlā","language_name":"english","language_id":38}},{"id":27121,"position":5,"audio_url":null,"char_type_name":"end","page_number":584,"line_number":3,"text":"٢٤","translation":{"text":"(২৪)","language_name":"bengali","language_id":20},"transliteration":{"text":null,"language_name":"english","language_id":38}}]},{"id":5737,"verse_number":25,"verse_key":"79:25","hizb_number":59,"rub_el_hizb_number":233,"ruku_number":522,"manzil_number":7,"sajdah_number":null,"page_number":584,"juz_number":30,"words":[{"id":28127,"position":1,"audio_url":"wbw/079_025_001.mp3","char_type_name":"word","page_number":584,"line_number":3,"text":"فَأَخَذَهُ","translation":{"text":"তখন তাকে ধরলেন","language_name":"bengali","language_id":20},"transliteration":{"text":"fa-akhadhahu","language_name":"english","language_id":38}},{"id":28128,"position":2,"audio_url":"wbw/079_025_002.mp3","char_type_name":"word","page_number":584,"line_number":4,"text":"ٱللَّهُ","translation":{"text":"আল্লাহ","language_name":"bengali","language_id":20},"transliteration":{"text":"l-lahu","language_name":"english","language_id":38}},{"id":28129,"position":3,"audio_url":"wbw/079_025_003.mp3","char_type_name":"word","page_number":584,"line_number":4,"text":"نَكَالَ","translation":{"text":"শাস্তি (দিয়ে)","language_name":"bengali","language_id":20},"transliteration":{"text":"nakāla","language_name":"english","language_id":38}},{"id":28130,"position":4,"audio_url":"wbw/079_025_004.mp3","char_type_name":"word","page_number":584,"line_number":4,"text":"ٱلْـَٔاخِرَةِ","translation":{"text":"আখেরাতের","language_name":"bengali","language_id":20},"transliteration":{"text":"l-ākhirati","language_name":"english","language_id":38}},{"id":28131,"position":5,"audio_url":"wbw/079_025_005.mp3","char_type_name":"word","page_number":584,"line_number":4,"text":"وَٱلْأُولَىٰٓ","translation":{"text":"ও দুনিয়ার","language_name":"bengali","language_id":20},"transliteration":{"text":"wal-ūlā","language_name":"english","language_id":38}},{"id":28132,"position":6,"audio_url":null,"char_type_name":"end","page_number":584,"line_number":4,"text":"٢٥","translation":{"text":"(২৫)","language_name":"bengali","language_id":20},"transliteration":{"text":null,"language_name":"english","language_id":38}}]},{"id":5738,"verse_number":26,"verse_key":"79:26","hizb_number":59,"rub_el_hizb_number":233,"ruku_number":522,"manzil_number":7,"sajdah_number":null,"page_number":584,"juz_number":30,"words":[{"id":29100,"position":1,"audio_url":"wbw/079_026_001.mp3","char_type_name":"word","page_number":584,"line_number":4,"text":"إِنَّ","translation":{"text":"নিশ্চয়ই","language_name":"bengali","language_id":20},"transliteration":{"text":"inna","language_name":"english","language_id":38}},{"id":29101,"position":2,"audio_url":"wbw/079_026_002.mp3","char_type_name":"word","page_number":584,"line_number":4,"text":"فِى","translation":{"text":"মধ্যে আছে","language_name":"bengali","language_id":20},"transliteration":{"text":"fī","language_name":"english","language_id":38}},{"id":29102,"position":3,"audio_url":"wbw/079_026_003.mp3","char_type_name":"word","page_number":584,"line_number":4,"text":"ذَٰلِكَ","translation":{"text":"এর","language_name":"bengali","language_id":20},"transliteration":{"text":"dhālika","language_name":"english","language_id":38}},{"id":29103,"position":4,"audio_url":"wbw/079_026_004.mp3","char_type_name":"word","page_number":584,"line_number":4,"text":"لَعِبْرَةًۭ","translation":{"text":"অবশ্যই শিক্ষা","language_name":"bengali","language_id":20},"transliteration":{"text":"laʿib'ratan","language_name":"english","language_id":38}},{"id":29104,"position":5,"audio_url":"wbw/079_026_005.mp3","char_type_name":"word","page_number":584,"line_number":4,"text":"لِّمَن","translation":{"text":"তার জন্যে যে","language_name":"bengali","language_id":20},"transliteration":{"text":"liman","language_name":"english","language_id":38}},{"id":29105,"position":6,"audio_url":"wbw/079_026_006.mp3","char_type_name":"word","page_number":584,"line_number":4,"text":"يَخْشَىٰٓ","translation":{"text":"ভয় করে","language_name":"bengali","language_id":20},"transliteration":{"text":"yakhshā","language_name":"english","language_id":38}},{"id":29106,"position":7,"audio_url":null,"char_type_name":"end","page_number":584,"line_number":4,"text":"٢٦","translation":{"text":"(২৬)","language_name":"bengali","language_id":20},"transliteration":{"text":null,"language_name":"english","language_id":38}}]},{"id":5739,"verse_number":27,"verse_key":"79:27","hizb_number":59,"rub_el_hizb_number":233,"ruku_number":523,"manzil_number":7,"sajdah_number":null,"page_number":584,"juz_number":30,"words":[{"id":29998,"position":1,"audio_url":"wbw/079_027_001.mp3","char_type_name":"word","page_number":584,"line_number":5,"text":"ءَأَنتُمْ","translation":{"text":"তোমরা কি","language_name":"bengali","language_id":20},"transliteration":{"text":"a-antum","language_name":"english","language_id":38}},{"id":29999,"position":2,"audio_url":"wbw/079_027_002.mp3","char_type_name":"word","page_number":584,"line_number":5,"text":"أَشَدُّ","translation":{"text":"কঠিনতর","language_name":"bengali","language_id":20},"transliteration":{"text":"ashaddu","language_name":"english","language_id":38}},{"id":30000,"position":3,"audio_url":"wbw/079_027_003.mp3","char_type_name":"word","page_number":584,"line_number":5,"text":"خَلْقًا","translation":{"text":"সৃষ্টি","language_name":"bengali","language_id":20},"transliteration":{"text":"khalqan","language_name":"english","language_id":38}},{"id":30001,"position":4,"audio_url":"wbw/079_027_004.mp3","char_type_name":"word","page_number":584,"line_number":5,"text":"أَمِ","translation":{"text":"নাকি","language_name":"bengali","language_id":20},"transliteration":{"text":"ami","language_name":"english","language_id":38}},{"id":30002,"position":5,"audio_url":"wbw/079_027_005.mp3","char_type_name":"word","page_number":584,"line_number":5,"text":"ٱلسَّمَآءُ ۚ","translation":{"text":"আকাশ","language_name":"bengali","language_id":20},"transliteration":{"text":"l-samāu","language_name":"english","language_id":38}},{"id":30004,"position":6,"audio_url":"wbw/079_027_007.mp3","char_type_name":"word","page_number":584,"line_number":5,"text":"بَنَىٰهَا","translation":{"text":"তা তিনি নির্মাণ করেছেন","language_name":"bengali","language_id":20},"transliteration":{"text":"banāhā","language_name":"english","language_id":38}},{"id":30005,"position":7,"audio_url":null,"char_type_name":"end","page_number":584,"line_number":5,"text":"٢٧","translation":{"text":"(২৭)","language_name":"bengali","language_id":20},"transliteration":{"text":null,"language_name":"english","language_id":38}}]},{"id":5740,"verse_number":28,"verse_key":"79:28","hizb_number":59,"rub_el_hizb_number":233,"ruku_number":523,"manzil_number":7,"sajdah_number":null,"page_number":584,"juz_number":30,"words":[{"id":31058,"position":1,"audio_url":"wbw/079_028_001.mp3","char_type_name":"word","page_number":584,"line_number":5,"text":"رَفَعَ","translation":{"text":"তিনি উঁচু করেছেন","language_name":"bengali","language_id":20},"transliteration":{"text":"rafaʿa","language_name":"english","language_id":38}},{"id":31059,"position":2,"audio_url":"wbw/079_028_002.mp3","char_type_name":"word","page_number":584,"line_number":5,"text":"سَمْكَهَا","translation":{"text":"তার উচ্চতর স্তরকে (ছাদ)","language_name":"bengali","language_id":20},"transliteration":{"text":"samkahā","language_name":"english","language_id":38}},{"id":31060,"position":3,"audio_url":"wbw/079_028_003.mp3","char_type_name":"word","page_number":584,"line_number":5,"text":"فَسَوَّىٰهَا","translation":{"text":"অতঃপর তিনি তা সুবিন্যস্ত করেছেন","language_name":"bengali","language_id":20},"transliteration":{"text":"fasawwāhā","language_name":"english","language_id":38}},{"id":31061,"position":4,"audio_url":null,"char_type_name":"end","page_number":584,"line_number":5,"text":"٢٨","translation":{"text":"(২৮)","language_name":"bengali","language_id":20},"transliteration":{"text":null,"language_name":"english","language_id":38}}]},{"id":5741,"verse_number":29,"verse_key":"79:29","hizb_number":59,"rub_el_hizb_number":233,"ruku_number":523,"manzil_number":7,"sajdah_number":null,"page_number":584,"juz_number":30,"words":[{"id":32026,"position":1,"audio_url":"wbw/079_029_001.mp3","char_type_name":"word","page_number":584,"line_number":6,"text":"وَأَغْطَشَ","translation":{"text":"এবং অন্ধকারাচ্ছন্ন করেছেন","language_name":"bengali","language_id":20},"transliteration":{"text":"wa-aghṭasha","language_name":"english","language_id":38}},{"id":32027,"position":2,"audio_url":"wbw/079_029_002.mp3","char_type_name":"word","page_number":584,"line_number":6,"text":"لَيْلَهَا","translation":{"text":"তার রাতকে","language_name":"bengali","language_id":20},"transliteration":{"text":"laylahā","language_name":"english","language_id":38}},{"id":32028,"position":3,"audio_url":"wbw/079_029_003.mp3","char_type_name":"word","page_number":584,"line_number":6,"text":"وَأَخْرَجَ","translation":{"text":"এবং বের করেছেন","language_name":"bengali","language_id":20},"transliteration":{"text":"wa-akhraja","language_name":"english","language_id":38}},{"id":32029,"position":4,"audio_url":"wbw/079_029_004.mp3","char_type_name":"word","page_number":584,"line_number":6,"text":"ضُحَىٰهَا","translation":{"text":"তার সূর্যের আলো","language_name":"bengali","language_id":20},"transliteration":{"text":"ḍuḥāhā","language_name":"english","language_id":38}},{"id":32030,"position":5,"audio_url":null,"char_type_name":"end","page_number":584,"line_number":6,"text":"٢٩","translation":{"text":"(২৯)","language_name":"bengali","language_id":20},"transliteration":{"text":null,"language_name":"english","language_id":38}}]},{"id":5742,"verse_number":30,"verse_key":"79:30","hizb_number":59,"rub_el_hizb_number":233,"ruku_number":523,"manzil_number":7,"sajdah_number":null,"page_number":584,"juz_number":30,"words":[{"id":32912,"position":1,"audio_url":"wbw/079_030_001.mp3","char_type_name":"word","page_number":584,"line_number":6,"text":"وَٱلْأَرْضَ","translation":{"text":"এবং পৃথিবীকে","language_name":"bengali","language_id":20},"transliteration":{"text":"wal-arḍa","language_name":"english","language_id":38}},{"id":32913,"position":2,"audio_url":"wbw/079_030_002.mp3","char_type_name":"word","page_number":584,"line_number":6,"text":"بَعْدَ","translation":{"text":"পরে","language_name":"bengali","language_id":20},"transliteration":{"text":"baʿda","language_name":"english","language_id":38}},{"id":32914,"position":3,"audio_url":"wbw/079_030_003.mp3","char_type_name":"word","page_number":584,"line_number":6,"text":"ذَٰلِكَ","translation":{"text":"এর","language_name":"bengali","language_id":20},"transliteration":{"text":"dhālika","language_name":"english","language_id":38}},{"id":32915,"position":4,"audio_url":"wbw/079_030_004.mp3","char_type_name":"word","page_number":584,"line_number":6,"text":"دَحَىٰهَآ","translation":{"text":"তা বিস্তৃত করেছেন","language_name":"bengali","language_id":20},"transliteration":{"text":"daḥāhā","language_name":"english","language_id":38}},{"id":32916,"position":5,"audio_url":null,"char_type_name":"end","page_number":584,"line_number":6,"text":"٣٠","translation":{"text":"(৩০)","language_name":"bengali","language_id":20},"transliteration":{"text":null,"language_name":"english","language_id":38}}]}],"pagination":{"per_page":10,"current_page":3,"next_page":4,"total_pages":5,"total_records":46}}
