{"verses":[{"id":5753,"verse_number":41,"verse_key":"79:41","hizb_number":59,"rub_el_hizb_number":233,"ruku_number":523,"manzil_number":7,"sajdah_number":null,"page_number":584,"juz_number":30,"words":[{"id":42280,"position":1,"audio_url":"wbw/079_041_001.mp3","verse_key":"79:41","verse_id":5753,"location":"79:41:1","text_uthmani":"فَإِنَّ","qpc_uthmani_hafs":"فَإِنَّ","char_type_name":"word","page_number":584,"line_number":11,"text":"فَإِنَّ","translation":{"text":"অতঃপর নিশ্চয়ই","language_name":"bengali","language_id":20},"transliteration":{"text":"fa-inna","language_name":"english","language_id":38}},{"id":42281,"position":2,"audio_url":"wbw/079_041_002.mp3","verse_key":"79:41","verse_id":5753,"location":"79:41:2","text_uthmani":"ٱلْجَنَّةَ","qpc_uthmani_hafs":"ٱلۡجَنَّةَ","char_type_name":"word","page_number":584,"line_number":11,"text":"ٱلۡجَنَّةَ","translation":{"text":"জান্নাত (হবে)","language_name":"bengali","language_id":20},"transliteration":{"text":"l-janata","language_name":"english","language_id":38}},{"id":42282,"position":3,"audio_url":"wbw/079_041_003.mp3","verse_key":"79:41","verse_id":5753,"location":"79:41:3","text_uthmani":"هِىَ","qpc_uthmani_hafs":"هِيَ","char_type_name":"word","page_number":584,"line_number":11,"text":"هِيَ","translation":{"text":"তাই","language_name":"bengali","language_id":20},"transliteration":{"text":"hiya","language_name":"english","language_id":38}},{"id":42283,"position":4,"audio_url":"wbw/079_041_004.mp3","verse_key":"79:41","verse_id":5753,"location":"79:41:4","text_uthmani":"ٱلْمَأْوَىٰ","qpc_uthmani_hafs":"ٱلۡمَأۡوَىٰ","char_type_name":"word","page_number":584,"line_number":11,"text":"ٱلۡمَأۡوَىٰ","translation":{"text":"(তার) বাসস্থান","language_name":"bengali","language_id":20},"transliteration":{"text":"l-mawā","language_name":"english","language_id":38}},{"id":42284,"position":5,"audio_url":null,"verse_key":"79:41","verse_id":5753,"location":"79:41:5","text_uthmani":"٤١","qpc_uthmani_hafs":"٤١","char_type_name":"end","page_number":584,"line_number":12,"text":"٤١","translation":{"text":"(৪১)","language_name":"bengali","language_id":20},"transliteration":{"text":null,"language_name":"english","language_id":38}}]},{"id":5754,"verse_number":42,"verse_key":"79:42","hizb_number":59,"rub_el_hizb_number":233,"ruku_number":523,"manzil_number":7,"sajdah_number":null,"page_number":584,"juz_number":30,"words":[{"id":43053,"position":1,"audio_url":"wbw/079_042_001.mp3","verse_key":"79:42","verse_id":5754,"location":"79:42:1","text_uthmani":"يَسْـَٔلُونَكَ","qpc_uthmani_hafs":"يَسۡـَٔلُونَكَ","char_type_name":"word","page_number":584,"line_number":12,"text":"يَسۡـَٔلُونَكَ","translation":{"text":"তারা তোমাকে জিজ্ঞাসা করে","language_name":"bengali","language_id":20},"transliteration":{"text":"yasalūnaka","language_name":"english","language_id":38}},{"id":43054,"position":2,"audio_url":"wbw/079_042_002.mp3","verse_key":"79:42","verse_id":5754,"location":"79:42:2","text_uthmani":"عَنِ","qpc_uthmani_hafs":"عَنِ","char_type_name":"word","page_number":584,"line_number":12,"text":"عَنِ","translation":{"text":"সম্পর্কে","language_name":"bengali","language_id":20},"transliteration":{"text":"ʿani","language_name":"english","language_id":38}},{"id":43055,"position":3,"audio_url":"wbw/079_042_003.mp3","verse_key":"79:42","verse_id":5754,"location":"79:42:3","text_uthmani":"ٱلسَّاعَةِ","qpc_uthmani_hafs":"ٱلسَّاعَةِ","char_type_name":"word","page_number":584,"line_number":12,"text":"ٱلسَّاعَةِ","translation":{"text":"কিয়ামত","language_name":"bengali","language_id":20},"transliteration":{"text":"l-sāʿati","language_name":"english","language_id":38}},{"id":43056,"position":4,"audio_url":"wbw/079_042_004.mp3","verse_key":"79:42","verse_id":5754,"location":"79:42:4","text_uthmani":"أَيَّانَ","qpc_uthmani_hafs":"أَيَّانَ","char_type_name":"word","page_number":584,"line_number":12,"text":"أَيَّانَ","translation":{"text":"কখন","language_name":"bengali","language_id":20},"transliteration":{"text":"ayyāna","language_name":"english","language_id":38}},{"id":43057,"position":5,"audio_url":"wbw/079_042_005.mp3","verse_key":"79:42","verse_id":5754,"location":"79:42:5","text_uthmani":"مُرْسَىٰهَا","qpc_uthmani_hafs":"مُرۡسَىٰهَا","char_type_name":"word","page_number":584,"line_number":12,"text":"مُرۡسَىٰهَا","translation":{"text":"তা ঘটবে","language_name":"bengali","language_id":20},"transliteration":{"text":"mur'sāhā","language_name":"english","language_id":38}},{"id":43058,"position":6,"audio_url":null,"verse_key":"79:42","verse_id":5754,"location":"79:42:6","text_uthmani":"٤٢","qpc_uthmani_hafs":"٤٢","char_type_name":"end","page_number":584,"line_number":12,"text":"٤٢","translation":{"text":"(৪২)","language_name":"bengali","language_id":20},"transliteration":{"text":null,"language_name":"english","language_id":38}}]},{"id":5755,"verse_number":43,"verse_key":"79:43","hizb_number":59,"rub_el_hizb_number":233,"ruku_number":523,"manzil_number":7,"sajdah_number":null,"page_number":584,"juz_number":30,"words":[{"id":43729,"position":1,"audio_url":"wbw/079_043_001.mp3","verse_key":"79:43","verse_id":5755,"location":"79:43:1","text_uthmani":"فِيمَ","qpc_uthmani_hafs":"فِيمَ","char_type_name":"word","page_number":584,"line_number":12,"text":"فِيمَ","translation":{"text":"সে ব্যাপারে","language_name":"bengali","language_id":20},"transliteration":{"text":"fīma","language_name":"english","language_id":38}},{"id":43730,"position":2,"audio_url":"wbw/079_043_002.mp3","verse_key":"79:43","verse_id":5755,"location":"79:43:2","text_uthmani":"أَنتَ","qpc_uthmani_hafs":"أَنتَ","char_type_name":"word","page_number":584,"line_number":12,"text":"أَنتَ","translation":{"text":"তোমার (কী সম্পর্ক)","language_name":"bengali","language_id":20},"transliteration":{"text":"anta","language_name":"english","language_id":38}},{"id":43731,"position":3,"audio_url":"wbw/079_043_003.mp3","verse_key":"79:43","verse_id":5755,"location":"79:43:3","text_uthmani":"مِن","qpc_uthmani_hafs":"مِن","char_type_name":"word","page_number":584,"line_number":12,"text":"مِن","translation":{"text":"সঙ্গে","language_name":"bengali","language_id":20},"transliteration":{"text":"min","language_name":"english","language_id":38}},{"id":43732,"position":4,"audio_url":"wbw/079_043_004.mp3","verse_key":"79:43","verse_id":5755,"location":"79:43:4","text_uthmani":"ذِكْرَىٰهَآ","qpc_uthmani_hafs":"ذِكۡرَىٰهَآ","char_type_name":"word","page_number":584,"line_number":13,"text":"ذِكۡرَىٰهَآ","translation":{"text":"তার উল্লেখ করার","language_name":"bengali","language_id":20},"transliteration":{"text":"dhik'rāhā","language_name":"english","language_id":38}},{"id":43733,"position":5,"audio_url":null,"verse_key":"79:43","verse_id":5755,"location":"79:43:5","text_uthmani":"٤٣","qpc_uthmani_hafs":"٤٣","char_type_name":"end","page_number":584,"line_number":13,"text":"٤٣","translation":{"text":"(৪৩)","language_name":"bengali","language_id":20},"transliteration":{"text":null,"language_name":"english","language_id":38}}]},{"id":5756,"verse_number":44,"verse_key":"79:44","hizb_number":59,"rub_el_hizb_number":233,"ruku_number":523,"manzil_number":7,"sajdah_number":null,"page_number":584,"juz_number":30,"words":[{"id":44494,"position":1,"audio_url":"wbw/079_044_001.mp3","verse_key":"79:44","verse_id":5756,"location":"79:44:1","text_uthmani":"إِلَىٰ","qpc_uthmani_hafs":"إِلَىٰ","char_type_name":"word","page_number":584,"line_number":13,"text":"إِلَىٰ","translation":{"text":"নিকট","language_name":"bengali","language_id":20},"transliteration":{"text":"ilā","language_name":"english","language_id":38}},{"id":44495,"position":2,"audio_url":"wbw/079_044_002.mp3","verse_key":"79:44","verse_id":5756,"location":"79:44:2","text_uthmani":"رَبِّكَ","qpc_uthmani_hafs":"رَبِّكَ","char_type_name":"word","page_number":584,"line_number":13,"text":"رَبِّكَ","translation":{"text":"তোমার রবের","language_name":"bengali","language_id":20},"transliteration":{"text":"rabbika","language_name":"english","language_id":38}},{"id":44496,"position":3,"audio_url":"wbw/079_044_003.mp3","verse_key":"79:44","verse_id":5756,"location":"79:44:3","text_uthmani":"مُنتَهَىٰهَآ","qpc_uthmani_hafs":"مُنتَهَىٰهَآ","char_type_name":"word","page_number":584,"line_number":13,"text":"مُنتَهَىٰهَآ","translation":{"text":"তার চূড়ান্ত (জ্ঞান)","language_name":"bengali","language_id":20},"transliteration":{"text":"muntahāhā","language_name":"english","language_id":38}},{"id":44497,"position":4,"audio_url":null,"verse_key":"79:44","verse_id":5756,"location":"79:44:4","text_uthmani":"٤٤","qpc_uthmani_hafs":"٤٤","char_type_name":"end","page_number":584,"line_number":13,"text":"٤٤","translation":{"text":"(৪৪)","language_name":"bengali","language_id":20},"transliteration":{"text":null,"language_name":"english","language_id":38}}]},{"id":5757,"verse_number":45,"verse_key":"79:45","hizb_number":59,"rub_el_hizb_number":233,"ruku_number":523,"manzil_number":7,"sajdah_number":null,"page_number":584,"juz_number":30,"words":[{"id":45276,"position":1,"audio_url":"wbw/079_045_001.mp3","verse_key":"79:45","verse_id":5757,"location":"79:45:1","text_uthmani":"إِنَّمَآ","qpc_uthmani_hafs":"إِنَّمَآ","char_type_name":"word","page_number":584,"line_number":13,"text":"إِنَّمَآ","translation":{"text":"কেবল","language_name":"bengali","language_id":20},"transliteration":{"text":"innamā","language_name":"english","language_id":38}},{"id":45277,"position":2,"audio_url":"wbw/079_045_002.mp3","verse_key":"79:45","verse_id":5757,"location":"79:45:2","text_uthmani":"أَنتَ","qpc_uthmani_hafs":"أَنتَ","char_type_name":"word","page_number":584,"line_number":13,"text":"أَنتَ","translation":{"text":"তুমি","language_name":"bengali","language_id":20},"transliteration":{"text":"anta","language_name":"english","language_id":38}},{"id":45278,"position":3,"audio_url":"wbw/079_045_003.mp3","verse_key":"79:45","verse_id":5757,"location":"79:45:3","text_uthmani":"مُنذِرُ","qpc_uthmani_hafs":"مُنذِرُ","char_type_name":"word","page_number":584,"line_number":13,"text":"مُنذِرُ","translation":{"text":"সতর্ককারী (মাত্র)","language_name":"bengali","language_id":20},"transliteration":{"text":"mundhiru","language_name":"english","language_id":38}},{"id":45279,"position":4,"audio_url":"wbw/079_045_004.mp3","verse_key":"79:45","verse_id":5757,"location":"79:45:4","text_uthmani":"مَن","qpc_uthmani_hafs":"مَن","char_type_name":"word","page_number":584,"line_number":13,"text":"مَن","translation":{"text":"যে","language_name":"bengali","language_id":20},"transliteration":{"text":"man","language_name":"english","language_id":38}},{"id":45280,"position":5,"audio_url":"wbw/079_045_005.mp3","verse_key":"79:45","verse_id":5757,"location":"79:45:5","text_uthmani":"يَخْشَىٰهَا","qpc_uthmani_hafs":"يَخۡشَىٰهَا","char_type_name":"word","page_number":584,"line_number":13,"text":"يَخۡشَىٰهَا","translation":{"text":"তা ভয় করে","language_name":"bengali","language_id":20},"transliteration":{"text":"yakhshāhā","language_name":"english","language_id":38}},{"id":45281,"position":6,"audio_url":null,"verse_key":"79:45","verse_id":5757,"location":"79:45:6","text_uthmani":"٤٥","qpc_uthmani_hafs":"٤٥","char_type_name":"end","page_number":584,"line_number":14,"text":"٤٥","translation":{"text":"(৪৫)","language_name":"bengali","language_id":20},"transliteration":{"text":null,"language_name":"english","language_id":38}}]},{"id":5758,"verse_number":46,"verse_key":"79:46","hizb_number":59,"rub_el_hizb_number":233,"ruku_number":523,"manzil_number":7,"sajdah_number":null,"page_number":584,"juz_number":30,"words":[{"id":45814,"position":1,"audio_url":"wbw/079_046_001.mp3","verse_key":"79:46","verse_id":5758,"location":"79:46:1","text_uthmani":"كَأَنَّهُمْ","qpc_uthmani_hafs":"كَأَنَّهُمۡ","char_type_name":"word","page_number":584,"line_number":14,"text":"كَأَنَّهُمۡ","translation":{"text":"তারা যেন","language_name":"bengali","language_id":20},"transliteration":{"text":"ka-annahum","language_name":"english","language_id":38}},{"id":45815,"position":2,"audio_url":"wbw/079_046_002.mp3","verse_key":"79:46","verse_id":5758,"location":"79:46:2","text_uthmani":"يَوْمَ","qpc_uthmani_hafs":"يَوۡمَ","char_type_name":"word","page_number":584,"line_number":14,"text":"يَوۡمَ","translation":{"text":"যেদিন","language_name":"bengali","language_id":20},"transliteration":{"text":"yawma","language_name":"english","language_id":38}},{"id":45816,"position":3,"audio_url":"wbw/079_046_003.mp3","verse_key":"79:46","verse_id":5758,"location":"79:46:3","text_uthmani":"يَرَوْنَهَا","qpc_uthmani_hafs":"يَرَوۡنَهَا","char_type_name":"word","page_number":584,"line_number":14,"text":"يَرَوۡنَهَا","translation":{"text":"তা দেখবে (মনে করবে)","language_name":"bengali","language_id":20},"transliteration":{"text":"yarawnahā","language_name":"english","language_id":38}},{"id":45817,"position":4,"audio_url":"wbw/079_046_004.mp3","verse_key":"79:46","verse_id":5758,"location":"79:46:4","text_uthmani":"لَمْ","qpc_uthmani_hafs":"لَمۡ","char_type_name":"word","page_number":584,"line_number":14,"text":"لَمۡ","translation":{"text":"করে নি","language_name":"bengali","language_id":20},"transliteration":{"text":"lam","language_name":"english","language_id":38}},{"id":45818,"position":5,"audio_url":"wbw/079_046_005.mp3","verse_key":"79:46","verse_id":5758,"location":"79:46:5","text_uthmani":"يَلْبَثُوٓا۟","qpc_uthmani_hafs":"يَلۡبَثُوٓاْ","char_type_name":"word","page_number":584,"line_number":14,"text":"يَلۡبَثُوٓاْ","translation":{"text":"তারা অবস্থান","language_name":"bengali","language_id":20},"transliteration":{"text":"yalbathū","language_name":"english","language_id":38}},{"id":45819,"position":6,"audio_url":"wbw/079_046_006.mp3","verse_key":"79:46","verse_id":5758,"location":"79:46:6","text_uthmani":"إِلَّا","qpc_uthmani_hafs":"إِلَّا","char_type_name":"word","page_number":584,"line_number":14,"text":"إِلَّا","translation":{"text":"এ ছাড়া","language_name":"bengali","language_id":20},"transliteration":{"text":"illā","language_name":"english","language_id":38}},{"id":45820,"position":7,"audio_url":"wbw/079_046_007.mp3","verse_key":"79:46","verse_id":5758,"location":"79:46:7","text_uthmani":"عَشِيَّةً","qpc_uthmani_hafs":"عَشِيَّةً","char_type_name":"word","page_number":584,"line_number":14,"text":"عَشِيَّةً","translation":{"text":"এক সন্ধ্যা","language_name":"bengali","language_id":20},"transliteration":{"text":"ʿashiyyatan","language_name":"english","language_id":38}},{"id":45821,"position":8,"audio_url":"wbw/079_046_008.mp3","verse_key":"79:46","verse_id":5758,"location":"79:46:8","text_uthmani":"أَوْ","qpc_uthmani_hafs":"أَوۡ","char_type_name":"word","page_number":584,"line_number":14,"text":"أَوۡ","translation":{"text":"অথবা","language_name":"bengali","language_id":20},"transliteration":{"text":"aw","language_name":"english","language_id":38}},{"id":45822,"position":9,"audio_url":"wbw/079_046_009.mp3","verse_key":"79:46","verse_id":5758,"location":"79:46:9","text_uthmani":"ضُحَىٰهَا","qpc_uthmani_hafs":"ضُحَىٰهَا","char_type_name":"word","page_number":584,"line_number":14,"text":"ضُحَىٰهَا","translation":{"text":"তার এক সকাল","language_name":"bengali","language_id":20},"transliteration":{"text":"ḍuḥāhā","language_name":"english","language_id":38}},{"id":45823,"position":10,"audio_url":null,"verse_key":"79:46","verse_id":5758,"location":"79:46:10","text_uthmani":"٤٦","qpc_uthmani_hafs":"٤٦","char_type_name":"end","page_number":584,"line_number":14,"text":"٤٦","translation":{"text":"(৪৬)","language_name":"bengali","language_id":20},"transliteration":{"text":null,"language_name":"english","language_id":38}}]}],"pagination":{"per_page":10,"current_page":5,"next_page":null,"total_pages":5,"total_records":46}}
