{"verses":[{"id":1748,"verse_number":41,"verse_key":"13:41","hizb_number":26,"rub_el_hizb_number":102,"ruku_number":210,"manzil_number":3,"sajdah_number":null,"page_number":254,"juz_number":13,"words":[{"id":42533,"position":1,"audio_url":"wbw/013_041_001.mp3","verse_key":"13:41","verse_id":1748,"location":"13:41:1","text_uthmani":"أَوَلَمْ","qpc_uthmani_hafs":"أَوَلَمۡ","char_type_name":"word","page_number":254,"line_number":12,"text":"أَوَلَمۡ","translation":{"text":"Did not","language_name":"english","language_id":38},"transliteration":{"text":"awalam","language_name":"english","language_id":38}},{"id":42534,"position":2,"audio_url":"wbw/013_041_002.mp3","verse_key":"13:41","verse_id":1748,"location":"13:41:2","text_uthmani":"يَرَوْا۟","qpc_uthmani_hafs":"يَرَوۡاْ","char_type_name":"word","page_number":254,"line_number":12,"text":"يَرَوۡاْ","translation":{"text":"they see","language_name":"english","language_id":38},"transliteration":{"text":"yaraw","language_name":"english","language_id":38}},{"id":42535,"position":3,"audio_url":"wbw/013_041_003.mp3","verse_key":"13:41","verse_id":1748,"location":"13:41:3","text_uthmani":"أَنَّا","qpc_uthmani_hafs":"أَنَّا","char_type_name":"word","page_number":254,"line_number":12,"text":"أَنَّا","translation":{"text":"that We","language_name":"english","language_id":38},"transliteration":{"text":"annā","language_name":"english","language_id":38}},{"id":42536,"position":4,"audio_url":"wbw/013_041_004.mp3","verse_key":"13:41","verse_id":1748,"location":"13:41:4","text_uthmani":"نَأْتِى","qpc_uthmani_hafs":"نَأۡتِي","char_type_name":"word","page_number":254,"line_number":12,"text":"نَأۡتِي","translation":{"text":"come","language_name":"english","language_id":38},"transliteration":{"text":"natī","language_name":"english","language_id":38}},{"id":42537,"position":5,"audio_url":"wbw/013_041_005.mp3","verse_key":"13:41","verse_id":1748,"location":"13:41:5","text_uthmani":"ٱلْأَرْضَ","qpc_uthmani_hafs":"ٱلۡأَرۡضَ","char_type_name":"word","page_number":254,"line_number":12,"text":"ٱلۡأَرۡضَ","translation":{"text":"(to) the land","language_name":"english","language_id":38},"transliteration":{"text":"l-arḍa","language_name":"english","language_id":38}},{"id":42538,"position":6,"audio_url":"wbw/013_041_006.mp3","verse_key":"13:41","verse_id":1748,"location":"13:41:6","text_uthmani":"نَنقُصُهَا","qpc_uthmani_hafs":"نَنقُصُهَا","char_type_name":"word","page_number":254,"line_number":12,"text":"نَنقُصُهَا","translation":{"text":"reducing it","language_name":"english","language_id":38},"transliteration":{"text":"nanquṣuhā","language_name":"english","language_id":38}},{"id":42539,"position":7,"audio_url":"wbw/013_041_007.mp3","verse_key":"13:41","verse_id":1748,"location":"13:41:7","text_uthmani":"مِنْ","qpc_uthmani_hafs":"مِنۡ","char_type_name":"word","page_number":254,"line_number":13,"text":"مِنۡ","translation":{"text":"from","language_name":"english","language_id":38},"transliteration":{"text":"min","language_name":"english","language_id":38}},{"id":42540,"position":8,"audio_url":"wbw/013_041_008.mp3","verse_key":"13:41","verse_id":1748,"location":"13:41:8","text_uthmani":"أَطْرَافِهَا ۚ","qpc_uthmani_hafs":"أَطۡرَافِهَاۚ","char_type_name":"word","page_number":254,"line_number":13,"text":"أَطۡرَافِهَاۚ","translation":{"text":"its borders","language_name":"english","language_id":38},"transliteration":{"text":"aṭrāfihā","language_name":"english","language_id":38}},{"id":42542,"position":9,"audio_url":"wbw/013_041_010.mp3","verse_key":"13:41","verse_id":1748,"location":"13:41:9","text_uthmani":"وَٱللَّهُ","qpc_uthmani_hafs":"وَٱللَّهُ","char_type_name":"word","page_number":254,"line_number":13,"text":"وَٱللَّهُ","translation":{"text":"And Allah","language_name":"english","language_id":38},"transliteration":{"text":"wal-lahu","language_name":"english","language_id":38}},{"id":42543,"position":10,"audio_url":"wbw/013_041_011.mp3","verse_key":"13:41","verse_id":1748,"location":"13:41:10","text_uthmani":"يَحْكُمُ","qpc_uthmani_hafs":"يَحۡكُمُ","char_type_name":"word","page_number":254,"line_number":13,"text":"يَحۡكُمُ","translation":{"text":"judges","language_name":"english","language_id":38},"transliteration":{"text":"yaḥkumu","language_name":"english","language_id":38}},{"id":42544,"position":11,"audio_url":"wbw/013_041_012.mp3","verse_key":"13:41","verse_id":1748,"location":"13:41:11","text_uthmani":"لَا","qpc_uthmani_hafs":"لَا","char_type_name":"word","page_number":254,"line_number":13,"text":"لَا","translation":{"text":"(there is) no","language_name":"english","language_id":38},"transliteration":{"text":"lā","language_name":"english","language_id":38}},{"id":42545,"position":12,"audio_url":"wbw/013_041_013.mp3","verse_key":"13:41","verse_id":1748,"location":"13:41:12","text_uthmani":"مُعَقِّبَ","qpc_uthmani_hafs":"مُعَقِّبَ","char_type_name":"word","page_number":254,"line_number":13,"text":"مُعَقِّبَ","translation":{"text":"adjuster","language_name":"english","language_id":38},"transliteration":{"text":"muʿaqqiba","language_name":"english","language_id":38}},{"id":42546,"position":13,"audio_url":"wbw/013_041_014.mp3","verse_key":"13:41","verse_id":1748,"location":"13:41:13","text_uthmani":"لِحُكْمِهِۦ ۚ","qpc_uthmani_hafs":"لِحُكۡمِهِۦۚ","char_type_name":"word","page_number":254,"line_number":13,"text":"لِحُكۡمِهِۦۚ","translation":{"text":"(of) His Judgment","language_name":"english","language_id":38},"transliteration":{"text":"liḥuk'mihi","language_name":"english","language_id":38}},{"id":42548,"position":14,"audio_url":"wbw/013_041_016.mp3","verse_key":"13:41","verse_id":1748,"location":"13:41:14","text_uthmani":"وَهُوَ","qpc_uthmani_hafs":"وَهُوَ","char_type_name":"word","page_number":254,"line_number":13,"text":"وَهُوَ","translation":{"text":"And He","language_name":"english","language_id":38},"transliteration":{"text":"wahuwa","language_name":"english","language_id":38}},{"id":42549,"position":15,"audio_url":"wbw/013_041_017.mp3","verse_key":"13:41","verse_id":1748,"location":"13:41:15","text_uthmani":"سَرِيعُ","qpc_uthmani_hafs":"سَرِيعُ","char_type_name":"word","page_number":254,"line_number":13,"text":"سَرِيعُ","translation":{"text":"(is) Swift","language_name":"english","language_id":38},"transliteration":{"text":"sarīʿu","language_name":"english","language_id":38}},{"id":42550,"position":16,"audio_url":"wbw/013_041_018.mp3","verse_key":"13:41","verse_id":1748,"location":"13:41:16","text_uthmani":"ٱلْحِسَابِ","qpc_uthmani_hafs":"ٱلۡحِسَابِ","char_type_name":"word","page_number":254,"line_number":14,"text":"ٱلۡحِسَابِ","translation":{"text":"(in) the reckoning","language_name":"english","language_id":38},"transliteration":{"text":"l-ḥisābi","language_name":"english","language_id":38}},{"id":42551,"position":17,"audio_url":null,"verse_key":"13:41","verse_id":1748,"location":"13:41:17","text_uthmani":"٤١","qpc_uthmani_hafs":"٤١","char_type_name":"end","page_number":254,"line_number":14,"text":"٤١","translation":{"text":"(41)","language_name":"english","language_id":38},"transliteration":{"text":null,"language_name":"english","language_id":38}}]},{"id":1749,"verse_number":42,"verse_key":"13:42","hizb_number":26,"rub_el_hizb_number":102,"ruku_number":210,"manzil_number":3,"sajdah_number":null,"page_number":254,"juz_number":13,"words":[{"id":43232,"position":1,"audio_url":"wbw/013_042_001.mp3","verse_key":"13:42","verse_id":1749,"location":"13:42:1","text_uthmani":"وَقَدْ","qpc_uthmani_hafs":"وَقَدۡ","char_type_name":"word","page_number":254,"line_number":14,"text":"وَقَدۡ","translation":{"text":"And certainly","language_name":"english","language_id":38},"transliteration":{"text":"waqad","language_name":"english","language_id":38}},{"id":43233,"position":2,"audio_url":"wbw/013_042_002.mp3","verse_key":"13:42","verse_id":1749,"location":"13:42:2","text_uthmani":"مَكَرَ","qpc_uthmani_hafs":"مَكَرَ","char_type_name":"word","page_number":254,"line_number":14,"text":"مَكَرَ","translation":{"text":"plotted","language_name":"english","language_id":38},"transliteration":{"text":"makara","language_name":"english","language_id":38}},{"id":43234,"position":3,"audio_url":"wbw/013_042_003.mp3","verse_key":"13:42","verse_id":1749,"location":"13:42:3","text_uthmani":"ٱلَّذِينَ","qpc_uthmani_hafs":"ٱلَّذِينَ","char_type_name":"word","page_number":254,"line_number":14,"text":"ٱلَّذِينَ","translation":{"text":"those who","language_name":"english","language_id":38},"transliteration":{"text":"alladhīna","language_name":"english","language_id":38}},{"id":43235,"position":4,"audio_url":"wbw/013_042_004.mp3","verse_key":"13:42","verse_id":1749,"location":"13:42:4","text_uthmani":"مِن","qpc_uthmani_hafs":"مِن","char_type_name":"word","page_number":254,"line_number":14,"text":"مِن","translation":{"text":"(were) from","language_name":"english","language_id":38},"transliteration":{"text":"min","language_name":"english","language_id":38}},{"id":43236,"position":5,"audio_url":"wbw/013_042_005.mp3","verse_key":"13:42","verse_id":1749,"location":"13:42:5","text_uthmani":"قَبْلِهِمْ","qpc_uthmani_hafs":"قَبۡلِهِمۡ","char_type_name":"word","page_number":254,"line_number":14,"text":"قَبۡلِهِمۡ","translation":{"text":"before them","language_name":"english","language_id":38},"transliteration":{"text":"qablihim","language_name":"english","language_id":38}},{"id":43237,"position":6,"audio_url":"wbw/013_042_006.mp3","verse_key":"13:42","verse_id":1749,"location":"13:42:6","text_uthmani":"فَلِلَّهِ","qpc_uthmani_hafs":"فَلِلَّهِ","char_type_name":"word","page_number":254,"line_number":14,"text":"فَلِلَّهِ","translation":{"text":"but for Allah","language_name":"english","language_id":38},"transliteration":{"text":"falillahi","language_name":"english","language_id":38}},{"id":43238,"position":7,"audio_url":"wbw/013_042_007.mp3","verse_key":"13:42","verse_id":1749,"location":"13:42:7","text_uthmani":"ٱلْمَكْرُ","qpc_uthmani_hafs":"ٱلۡمَكۡرُ","char_type_name":"word","page_number":254,"line_number":14,"text":"ٱلۡمَكۡرُ","translation":{"text":"(is) the plot","language_name":"english","language_id":38},"transliteration":{"text":"l-makru","language_name":"english","language_id":38}},{"id":43239,"position":8,"audio_url":"wbw/013_042_008.mp3","verse_key":"13:42","verse_id":1749,"location":"13:42:8","text_uthmani":"جَمِيعًۭا ۖ","qpc_uthmani_hafs":"جَمِيعٗاۖ","char_type_name":"word","page_number":254,"line_number":14,"text":"جَمِيعٗاۖ","translation":{"text":"all","language_name":"english","language_id":38},"transliteration":{"text":"jamīʿan","language_name":"english","language_id":38}},{"id":43241,"position":9,"audio_url":"wbw/013_042_010.mp3","verse_key":"13:42","verse_id":1749,"location":"13:42:9","text_uthmani":"يَعْلَمُ","qpc_uthmani_hafs":"يَعۡلَمُ","char_type_name":"word","page_number":254,"line_number":15,"text":"يَعۡلَمُ","translation":{"text":"He knows","language_name":"english","language_id":38},"transliteration":{"text":"yaʿlamu","language_name":"english","language_id":38}},{"id":43242,"position":10,"audio_url":"wbw/013_042_011.mp3","verse_key":"13:42","verse_id":1749,"location":"13:42:10","text_uthmani":"مَا","qpc_uthmani_hafs":"مَا","char_type_name":"word","page_number":254,"line_number":15,"text":"مَا","translation":{"text":"what","language_name":"english","language_id":38},"transliteration":{"text":"mā","language_name":"english","language_id":38}},{"id":43243,"position":11,"audio_url":"wbw/013_042_012.mp3","verse_key":"13:42","verse_id":1749,"location":"13:42:11","text_uthmani":"تَكْسِبُ","qpc_uthmani_hafs":"تَكۡسِبُ","char_type_name":"word","page_number":254,"line_number":15,"text":"تَكۡسِبُ","translation":{"text":"earns","language_name":"english","language_id":38},"transliteration":{"text":"taksibu","language_name":"english","language_id":38}},{"id":43244,"position":12,"audio_url":"wbw/013_042_013.mp3","verse_key":"13:42","verse_id":1749,"location":"13:42:12","text_uthmani":"كُلُّ","qpc_uthmani_hafs":"كُلُّ","char_type_name":"word","page_number":254,"line_number":15,"text":"كُلُّ","translation":{"text":"every","language_name":"english","language_id":38},"transliteration":{"text":"kullu","language_name":"english","language_id":38}},{"id":43245,"position":13,"audio_url":"wbw/013_042_014.mp3","verse_key":"13:42","verse_id":1749,"location":"13:42:13","text_uthmani":"نَفْسٍۢ ۗ","qpc_uthmani_hafs":"نَفۡسٖۗ","char_type_name":"word","page_number":254,"line_number":15,"text":"نَفۡسٖۗ","translation":{"text":"soul","language_name":"english","language_id":38},"transliteration":{"text":"nafsin","language_name":"english","language_id":38}},{"id":43247,"position":14,"audio_url":"wbw/013_042_016.mp3","verse_key":"13:42","verse_id":1749,"location":"13:42:14","text_uthmani":"وَسَيَعْلَمُ","qpc_uthmani_hafs":"وَسَيَعۡلَمُ","char_type_name":"word","page_number":254,"line_number":15,"text":"وَسَيَعۡلَمُ","translation":{"text":"and will know","language_name":"english","language_id":38},"transliteration":{"text":"wasayaʿlamu","language_name":"english","language_id":38}},{"id":43248,"position":15,"audio_url":"wbw/013_042_017.mp3","verse_key":"13:42","verse_id":1749,"location":"13:42:15","text_uthmani":"ٱلْكُفَّـٰرُ","qpc_uthmani_hafs":"ٱلۡكُفَّٰرُ","char_type_name":"word","page_number":254,"line_number":15,"text":"ٱلۡكُفَّٰرُ","translation":{"text":"the disbelievers","language_name":"english","language_id":38},"transliteration":{"text":"l-kufāru","language_name":"english","language_id":38}},{"id":43249,"position":16,"audio_url":"wbw/013_042_018.mp3","verse_key":"13:42","verse_id":1749,"location":"13:42:16","text_uthmani":"لِمَنْ","qpc_uthmani_hafs":"لِمَنۡ","char_type_name":"word","page_number":254,"line_number":15,"text":"لِمَنۡ","translation":{"text":"for whom","language_name":"english","language_id":38},"transliteration":{"text":"liman","language_name":"english","language_id":38}},{"id":43250,"position":17,"audio_url":"wbw/013_042_019.mp3","verse_key":"13:42","verse_id":1749,"location":"13:42:17","text_uthmani":"عُقْبَى","qpc_uthmani_hafs":"عُقۡبَى","char_type_name":"word","page_number":254,"line_number":15,"text":"عُقۡبَى","translation":{"text":"(is) the final","language_name":"english","language_id":38},"transliteration":{"text":"ʿuq'bā","language_name":"english","language_id":38}},{"id":43251,"position":18,"audio_url":"wbw/013_042_020.mp3","verse_key":"13:42","verse_id":1749,"location":"13:42:18","text_uthmani":"ٱلدَّارِ","qpc_uthmani_hafs":"ٱلدَّارِ","char_type_name":"word","page_number":254,"line_number":15,"text":"ٱلدَّارِ","translation":{"text":"the home","language_name":"english","language_id":38},"transliteration":{"text":"l-dāri","language_name":"english","language_id":38}},{"id":43252,"position":19,"audio_url":null,"verse_key":"13:42","verse_id":1749,"location":"13:42:19","text_uthmani":"٤٢","qpc_uthmani_hafs":"٤٢","char_type_name":"end","page_number":254,"line_number":15,"text":"٤٢","translation":{"text":"(42)","language_name":"english","language_id":38},"transliteration":{"text":null,"language_name":"english","language_id":38}}]},{"id":1750,"verse_number":43,"verse_key":"13:43","hizb_number":26,"rub_el_hizb_number":102,"ruku_number":210,"manzil_number":3,"sajdah_number":null,"page_number":255,"juz_number":13,"words":[{"id":43974,"position":1,"audio_url":"wbw/013_043_001.mp3","verse_key":"13:43","verse_id":1750,"location":"13:43:1","text_uthmani":"وَيَقُولُ","qpc_uthmani_hafs":"وَيَقُولُ","char_type_name":"word","page_number":255,"line_number":1,"text":"وَيَقُولُ","translation":{"text":"And say","language_name":"english","language_id":38},"transliteration":{"text":"wayaqūlu","language_name":"english","language_id":38}},{"id":43975,"position":2,"audio_url":"wbw/013_043_002.mp3","verse_key":"13:43","verse_id":1750,"location":"13:43:2","text_uthmani":"ٱلَّذِينَ","qpc_uthmani_hafs":"ٱلَّذِينَ","char_type_name":"word","page_number":255,"line_number":1,"text":"ٱلَّذِينَ","translation":{"text":"those who","language_name":"english","language_id":38},"transliteration":{"text":"alladhīna","language_name":"english","language_id":38}},{"id":43976,"position":3,"audio_url":"wbw/013_043_003.mp3","verse_key":"13:43","verse_id":1750,"location":"13:43:3","text_uthmani":"كَفَرُوا۟","qpc_uthmani_hafs":"كَفَرُواْ","char_type_name":"word","page_number":255,"line_number":1,"text":"كَفَرُواْ","translation":{"text":"disbelieve","language_name":"english","language_id":38},"transliteration":{"text":"kafarū","language_name":"english","language_id":38}},{"id":43977,"position":4,"audio_url":"wbw/013_043_004.mp3","verse_key":"13:43","verse_id":1750,"location":"13:43:4","text_uthmani":"لَسْتَ","qpc_uthmani_hafs":"لَسۡتَ","char_type_name":"word","page_number":255,"line_number":1,"text":"لَسۡتَ","translation":{"text":"You are not","language_name":"english","language_id":38},"transliteration":{"text":"lasta","language_name":"english","language_id":38}},{"id":43978,"position":5,"audio_url":"wbw/013_043_005.mp3","verse_key":"13:43","verse_id":1750,"location":"13:43:5","text_uthmani":"مُرْسَلًۭا ۚ","qpc_uthmani_hafs":"مُرۡسَلٗاۚ","char_type_name":"word","page_number":255,"line_number":1,"text":"مُرۡسَلٗاۚ","translation":{"text":"a Messenger","language_name":"english","language_id":38},"transliteration":{"text":"mur'salan","language_name":"english","language_id":38}},{"id":43980,"position":6,"audio_url":"wbw/013_043_007.mp3","verse_key":"13:43","verse_id":1750,"location":"13:43:6","text_uthmani":"قُلْ","qpc_uthmani_hafs":"قُلۡ","char_type_name":"word","page_number":255,"line_number":1,"text":"قُلۡ","translation":{"text":"Say","language_name":"english","language_id":38},"transliteration":{"text":"qul","language_name":"english","language_id":38}},{"id":43981,"position":7,"audio_url":"wbw/013_043_008.mp3","verse_key":"13:43","verse_id":1750,"location":"13:43:7","text_uthmani":"كَفَىٰ","qpc_uthmani_hafs":"كَفَىٰ","char_type_name":"word","page_number":255,"line_number":1,"text":"كَفَىٰ","translation":{"text":"Sufficient","language_name":"english","language_id":38},"transliteration":{"text":"kafā","language_name":"english","language_id":38}},{"id":43982,"position":8,"audio_url":"wbw/013_043_009.mp3","verse_key":"13:43","verse_id":1750,"location":"13:43:8","text_uthmani":"بِٱللَّهِ","qpc_uthmani_hafs":"بِٱللَّهِ","char_type_name":"word","page_number":255,"line_number":1,"text":"بِٱللَّهِ","translation":{"text":"(is) Allah","language_name":"english","language_id":38},"transliteration":{"text":"bil-lahi","language_name":"english","language_id":38}},{"id":43983,"position":9,"audio_url":"wbw/013_043_010.mp3","verse_key":"13:43","verse_id":1750,"location":"13:43:9","text_uthmani":"شَهِيدًۢا","qpc_uthmani_hafs":"شَهِيدَۢا","char_type_name":"word","page_number":255,"line_number":1,"text":"شَهِيدَۢا","translation":{"text":"(as) a Witness","language_name":"english","language_id":38},"transliteration":{"text":"shahīdan","language_name":"english","language_id":38}},{"id":43984,"position":10,"audio_url":"wbw/013_043_011.mp3","verse_key":"13:43","verse_id":1750,"location":"13:43:10","text_uthmani":"بَيْنِى","qpc_uthmani_hafs":"بَيۡنِي","char_type_name":"word","page_number":255,"line_number":2,"text":"بَيۡنِي","translation":{"text":"between me","language_name":"english","language_id":38},"transliteration":{"text":"baynī","language_name":"english","language_id":38}},{"id":43985,"position":11,"audio_url":"wbw/013_043_012.mp3","verse_key":"13:43","verse_id":1750,"location":"13:43:11","text_uthmani":"وَبَيْنَكُمْ","qpc_uthmani_hafs":"وَبَيۡنَكُمۡ","char_type_name":"word","page_number":255,"line_number":2,"text":"وَبَيۡنَكُمۡ","translation":{"text":"and between you","language_name":"english","language_id":38},"transliteration":{"text":"wabaynakum","language_name":"english","language_id":38}},{"id":43986,"position":12,"audio_url":"wbw/013_043_013.mp3","verse_key":"13:43","verse_id":1750,"location":"13:43:12","text_uthmani":"وَمَنْ","qpc_uthmani_hafs":"وَمَنۡ","char_type_name":"word","page_number":255,"line_number":2,"text":"وَمَنۡ","translation":{"text":"and whoever","language_name":"english","language_id":38},"transliteration":{"text":"waman","language_name":"english","language_id":38}},{"id":43987,"position":13,"audio_url":"wbw/013_043_014.mp3","verse_key":"13:43","verse_id":1750,"location":"13:43:13","text_uthmani":"عِندَهُۥ","qpc_uthmani_hafs":"عِندَهُۥ","char_type_name":"word","page_number":255,"line_number":2,"text":"عِندَهُۥ","translation":{"text":"[he] has","language_name":"english","language_id":38},"transliteration":{"text":"ʿindahu","language_name":"english","language_id":38}},{"id":43988,"position":14,"audio_url":"wbw/013_043_015.mp3","verse_key":"13:43","verse_id":1750,"location":"13:43:14","text_uthmani":"عِلْمُ","qpc_uthmani_hafs":"عِلۡمُ","char_type_name":"word","page_number":255,"line_number":2,"text":"عِلۡمُ","translation":{"text":"knowledge","language_name":"english","language_id":38},"transliteration":{"text":"ʿil'mu","language_name":"english","language_id":38}},{"id":43989,"position":15,"audio_url":"wbw/013_043_016.mp3","verse_key":"13:43","verse_id":1750,"location":"13:43:15","text_uthmani":"ٱلْكِتَـٰبِ","qpc_uthmani_hafs":"ٱلۡكِتَٰبِ","char_type_name":"word","page_number":255,"line_number":2,"text":"ٱلۡكِتَٰبِ","translation":{"text":"(of) the Book","language_name":"english","language_id":38},"transliteration":{"text":"l-kitābi","language_name":"english","language_id":38}},{"id":43990,"position":16,"audio_url":null,"verse_key":"13:43","verse_id":1750,"location":"13:43:16","text_uthmani":"٤٣","qpc_uthmani_hafs":"٤٣","char_type_name":"end","page_number":255,"line_number":2,"text":"٤٣","translation":{"text":"(43)","language_name":"english","language_id":38},"transliteration":{"text":null,"language_name":"english","language_id":38}}]}],"pagination":{"per_page":10,"current_page":5,"next_page":null,"total_pages":5,"total_records":43}}
