{"verses":[{"id":5895,"verse_number":11,"verse_key":"84:11","hizb_number":59,"rub_el_hizb_number":236,"ruku_number":528,"manzil_number":7,"sajdah_number":null,"page_number":589,"juz_number":30,"words":[{"id":13020,"position":1,"audio_url":"wbw/084_011_001.mp3","verse_key":"84:11","verse_id":5895,"location":"84:11:1","text_uthmani":"فَسَوْفَ","qpc_uthmani_hafs":"فَسَوۡفَ","char_type_name":"word","page_number":589,"line_number":9,"text":"فَسَوۡفَ","translation":{"text":"শীঘ্র অতঃপর","language_name":"bengali","language_id":20},"transliteration":{"text":"fasawfa","language_name":"english","language_id":38}},{"id":13021,"position":2,"audio_url":"wbw/084_011_002.mp3","verse_key":"84:11","verse_id":5895,"location":"84:11:2","text_uthmani":"يَدْعُوا۟","qpc_uthmani_hafs":"يَدۡعُواْ","char_type_name":"word","page_number":589,"line_number":10,"text":"يَدۡعُواْ","translation":{"text":"সে ডাকবে","language_name":"bengali","language_id":20},"transliteration":{"text":"yadʿū","language_name":"english","language_id":38}},{"id":13022,"position":3,"audio_url":"wbw/084_011_003.mp3","verse_key":"84:11","verse_id":5895,"location":"84:11:3","text_uthmani":"ثُبُورًۭا","qpc_uthmani_hafs":"ثُبُورٗا","char_type_name":"word","page_number":589,"line_number":10,"text":"ثُبُورٗا","translation":{"text":"ধ্বংস (মৃত্যু)","language_name":"bengali","language_id":20},"transliteration":{"text":"thubūran","language_name":"english","language_id":38}},{"id":13023,"position":4,"audio_url":null,"verse_key":"84:11","verse_id":5895,"location":"84:11:4","text_uthmani":"١١","qpc_uthmani_hafs":"١١","char_type_name":"end","page_number":589,"line_number":10,"text":"١١","translation":{"text":"(১১)","language_name":"bengali","language_id":20},"transliteration":{"text":null,"language_name":"english","language_id":38}}]},{"id":5896,"verse_number":12,"verse_key":"84:12","hizb_number":59,"rub_el_hizb_number":236,"ruku_number":528,"manzil_number":7,"sajdah_number":null,"page_number":589,"juz_number":30,"words":[{"id":14279,"position":1,"audio_url":"wbw/084_012_001.mp3","verse_key":"84:12","verse_id":5896,"location":"84:12:1","text_uthmani":"وَيَصْلَىٰ","qpc_uthmani_hafs":"وَيَصۡلَىٰ","char_type_name":"word","page_number":589,"line_number":10,"text":"وَيَصۡلَىٰ","translation":{"text":"এবং প্রবেশ করবে","language_name":"bengali","language_id":20},"transliteration":{"text":"wayaṣlā","language_name":"english","language_id":38}},{"id":14280,"position":2,"audio_url":"wbw/084_012_002.mp3","verse_key":"84:12","verse_id":5896,"location":"84:12:2","text_uthmani":"سَعِيرًا","qpc_uthmani_hafs":"سَعِيرًا","char_type_name":"word","page_number":589,"line_number":10,"text":"سَعِيرًا","translation":{"text":"জ্বলন্ত আগুনে","language_name":"bengali","language_id":20},"transliteration":{"text":"saʿīran","language_name":"english","language_id":38}},{"id":14281,"position":3,"audio_url":null,"verse_key":"84:12","verse_id":5896,"location":"84:12:3","text_uthmani":"١٢","qpc_uthmani_hafs":"١٢","char_type_name":"end","page_number":589,"line_number":10,"text":"١٢","translation":{"text":"(১২)","language_name":"bengali","language_id":20},"transliteration":{"text":null,"language_name":"english","language_id":38}}]},{"id":5897,"verse_number":13,"verse_key":"84:13","hizb_number":59,"rub_el_hizb_number":236,"ruku_number":528,"manzil_number":7,"sajdah_number":null,"page_number":589,"juz_number":30,"words":[{"id":15391,"position":1,"audio_url":"wbw/084_013_001.mp3","verse_key":"84:13","verse_id":5897,"location":"84:13:1","text_uthmani":"إِنَّهُۥ","qpc_uthmani_hafs":"إِنَّهُۥ","char_type_name":"word","page_number":589,"line_number":10,"text":"إِنَّهُۥ","translation":{"text":"নিশ্চয়ই সে","language_name":"bengali","language_id":20},"transliteration":{"text":"innahu","language_name":"english","language_id":38}},{"id":15392,"position":2,"audio_url":"wbw/084_013_002.mp3","verse_key":"84:13","verse_id":5897,"location":"84:13:2","text_uthmani":"كَانَ","qpc_uthmani_hafs":"كَانَ","char_type_name":"word","page_number":589,"line_number":10,"text":"كَانَ","translation":{"text":"ছিল","language_name":"bengali","language_id":20},"transliteration":{"text":"kāna","language_name":"english","language_id":38}},{"id":15393,"position":3,"audio_url":"wbw/084_013_003.mp3","verse_key":"84:13","verse_id":5897,"location":"84:13:3","text_uthmani":"فِىٓ","qpc_uthmani_hafs":"فِيٓ","char_type_name":"word","page_number":589,"line_number":10,"text":"فِيٓ","translation":{"text":"মধ্যে","language_name":"bengali","language_id":20},"transliteration":{"text":"fī","language_name":"english","language_id":38}},{"id":15394,"position":4,"audio_url":"wbw/084_013_004.mp3","verse_key":"84:13","verse_id":5897,"location":"84:13:4","text_uthmani":"أَهْلِهِۦ","qpc_uthmani_hafs":"أَهۡلِهِۦ","char_type_name":"word","page_number":589,"line_number":10,"text":"أَهۡلِهِۦ","translation":{"text":"তার স্বজনদের","language_name":"bengali","language_id":20},"transliteration":{"text":"ahlihi","language_name":"english","language_id":38}},{"id":15395,"position":5,"audio_url":"wbw/084_013_005.mp3","verse_key":"84:13","verse_id":5897,"location":"84:13:5","text_uthmani":"مَسْرُورًا","qpc_uthmani_hafs":"مَسۡرُورًا","char_type_name":"word","page_number":589,"line_number":10,"text":"مَسۡرُورًا","translation":{"text":"আনন্দে","language_name":"bengali","language_id":20},"transliteration":{"text":"masrūran","language_name":"english","language_id":38}},{"id":15396,"position":6,"audio_url":null,"verse_key":"84:13","verse_id":5897,"location":"84:13:6","text_uthmani":"١٣","qpc_uthmani_hafs":"١٣","char_type_name":"end","page_number":589,"line_number":10,"text":"١٣","translation":{"text":"(১৩)","language_name":"bengali","language_id":20},"transliteration":{"text":null,"language_name":"english","language_id":38}}]},{"id":5898,"verse_number":14,"verse_key":"84:14","hizb_number":59,"rub_el_hizb_number":236,"ruku_number":528,"manzil_number":7,"sajdah_number":null,"page_number":589,"juz_number":30,"words":[{"id":16437,"position":1,"audio_url":"wbw/084_014_001.mp3","verse_key":"84:14","verse_id":5898,"location":"84:14:1","text_uthmani":"إِنَّهُۥ","qpc_uthmani_hafs":"إِنَّهُۥ","char_type_name":"word","page_number":589,"line_number":11,"text":"إِنَّهُۥ","translation":{"text":"নিশ্চয়ই সে","language_name":"bengali","language_id":20},"transliteration":{"text":"innahu","language_name":"english","language_id":38}},{"id":16438,"position":2,"audio_url":"wbw/084_014_002.mp3","verse_key":"84:14","verse_id":5898,"location":"84:14:2","text_uthmani":"ظَنَّ","qpc_uthmani_hafs":"ظَنَّ","char_type_name":"word","page_number":589,"line_number":11,"text":"ظَنَّ","translation":{"text":"মনে করেছিল","language_name":"bengali","language_id":20},"transliteration":{"text":"ẓanna","language_name":"english","language_id":38}},{"id":16439,"position":3,"audio_url":"wbw/084_014_003.mp3","verse_key":"84:14","verse_id":5898,"location":"84:14:3","text_uthmani":"أَن","qpc_uthmani_hafs":"أَن","char_type_name":"word","page_number":589,"line_number":11,"text":"أَن","translation":{"text":"যে","language_name":"bengali","language_id":20},"transliteration":{"text":"an","language_name":"english","language_id":38}},{"id":16440,"position":4,"audio_url":"wbw/084_014_004.mp3","verse_key":"84:14","verse_id":5898,"location":"84:14:4","text_uthmani":"لَّن","qpc_uthmani_hafs":"لَّن","char_type_name":"word","page_number":589,"line_number":11,"text":"لَّن","translation":{"text":"কখনও না","language_name":"bengali","language_id":20},"transliteration":{"text":"lan","language_name":"english","language_id":38}},{"id":16441,"position":5,"audio_url":"wbw/084_014_005.mp3","verse_key":"84:14","verse_id":5898,"location":"84:14:5","text_uthmani":"يَحُورَ","qpc_uthmani_hafs":"يَحُورَ","char_type_name":"word","page_number":589,"line_number":11,"text":"يَحُورَ","translation":{"text":"ফিরবে","language_name":"bengali","language_id":20},"transliteration":{"text":"yaḥūra","language_name":"english","language_id":38}},{"id":16442,"position":6,"audio_url":null,"verse_key":"84:14","verse_id":5898,"location":"84:14:6","text_uthmani":"١٤","qpc_uthmani_hafs":"١٤","char_type_name":"end","page_number":589,"line_number":11,"text":"١٤","translation":{"text":"(১৪)","language_name":"bengali","language_id":20},"transliteration":{"text":null,"language_name":"english","language_id":38}}]},{"id":5899,"verse_number":15,"verse_key":"84:15","hizb_number":59,"rub_el_hizb_number":236,"ruku_number":528,"manzil_number":7,"sajdah_number":null,"page_number":589,"juz_number":30,"words":[{"id":17305,"position":1,"audio_url":"wbw/084_015_001.mp3","verse_key":"84:15","verse_id":5899,"location":"84:15:1","text_uthmani":"بَلَىٰٓ","qpc_uthmani_hafs":"بَلَىٰٓۚ","char_type_name":"word","page_number":589,"line_number":11,"text":"بَلَىٰٓۚ","translation":{"text":"হ্যাঁ","language_name":"bengali","language_id":20},"transliteration":{"text":"balā","language_name":"english","language_id":38}},{"id":17306,"position":2,"audio_url":"wbw/084_015_002.mp3","verse_key":"84:15","verse_id":5899,"location":"84:15:2","text_uthmani":"إِنَّ","qpc_uthmani_hafs":"إِنَّ","char_type_name":"word","page_number":589,"line_number":11,"text":"إِنَّ","translation":{"text":"নিশ্চয়ই","language_name":"bengali","language_id":20},"transliteration":{"text":"inna","language_name":"english","language_id":38}},{"id":17307,"position":3,"audio_url":"wbw/084_015_003.mp3","verse_key":"84:15","verse_id":5899,"location":"84:15:3","text_uthmani":"رَبَّهُۥ","qpc_uthmani_hafs":"رَبَّهُۥ","char_type_name":"word","page_number":589,"line_number":11,"text":"رَبَّهُۥ","translation":{"text":"তার রব","language_name":"bengali","language_id":20},"transliteration":{"text":"rabbahu","language_name":"english","language_id":38}},{"id":17308,"position":4,"audio_url":"wbw/084_015_004.mp3","verse_key":"84:15","verse_id":5899,"location":"84:15:4","text_uthmani":"كَانَ","qpc_uthmani_hafs":"كَانَ","char_type_name":"word","page_number":589,"line_number":11,"text":"كَانَ","translation":{"text":"ছিলেন","language_name":"bengali","language_id":20},"transliteration":{"text":"kāna","language_name":"english","language_id":38}},{"id":17309,"position":5,"audio_url":"wbw/084_015_005.mp3","verse_key":"84:15","verse_id":5899,"location":"84:15:5","text_uthmani":"بِهِۦ","qpc_uthmani_hafs":"بِهِۦ","char_type_name":"word","page_number":589,"line_number":11,"text":"بِهِۦ","translation":{"text":"তার উপর","language_name":"bengali","language_id":20},"transliteration":{"text":"bihi","language_name":"english","language_id":38}},{"id":17310,"position":6,"audio_url":"wbw/084_015_006.mp3","verse_key":"84:15","verse_id":5899,"location":"84:15:6","text_uthmani":"بَصِيرًۭا","qpc_uthmani_hafs":"بَصِيرٗا","char_type_name":"word","page_number":589,"line_number":11,"text":"بَصِيرٗا","translation":{"text":"দৃষ্টিবান","language_name":"bengali","language_id":20},"transliteration":{"text":"baṣīran","language_name":"english","language_id":38}},{"id":17311,"position":7,"audio_url":null,"verse_key":"84:15","verse_id":5899,"location":"84:15:7","text_uthmani":"١٥","qpc_uthmani_hafs":"١٥","char_type_name":"end","page_number":589,"line_number":11,"text":"١٥","translation":{"text":"(১৫)","language_name":"bengali","language_id":20},"transliteration":{"text":null,"language_name":"english","language_id":38}}]},{"id":5900,"verse_number":16,"verse_key":"84:16","hizb_number":59,"rub_el_hizb_number":236,"ruku_number":528,"manzil_number":7,"sajdah_number":null,"page_number":589,"juz_number":30,"words":[{"id":18638,"position":1,"audio_url":"wbw/084_016_001.mp3","verse_key":"84:16","verse_id":5900,"location":"84:16:1","text_uthmani":"فَلَآ","qpc_uthmani_hafs":"فَلَآ","char_type_name":"word","page_number":589,"line_number":11,"text":"فَلَآ","translation":{"text":"অতএব না","language_name":"bengali","language_id":20},"transliteration":{"text":"falā","language_name":"english","language_id":38}},{"id":18639,"position":2,"audio_url":"wbw/084_016_002.mp3","verse_key":"84:16","verse_id":5900,"location":"84:16:2","text_uthmani":"أُقْسِمُ","qpc_uthmani_hafs":"أُقۡسِمُ","char_type_name":"word","page_number":589,"line_number":11,"text":"أُقۡسِمُ","translation":{"text":"আমি শপথ করছি","language_name":"bengali","language_id":20},"transliteration":{"text":"uq'simu","language_name":"english","language_id":38}},{"id":18640,"position":3,"audio_url":"wbw/084_016_003.mp3","verse_key":"84:16","verse_id":5900,"location":"84:16:3","text_uthmani":"بِٱلشَّفَقِ","qpc_uthmani_hafs":"بِٱلشَّفَقِ","char_type_name":"word","page_number":589,"line_number":12,"text":"بِٱلشَّفَقِ","translation":{"text":"পশ্চিম দিগন্তের সান্ধ্য লালিমার","language_name":"bengali","language_id":20},"transliteration":{"text":"bil-shafaqi","language_name":"english","language_id":38}},{"id":18641,"position":4,"audio_url":null,"verse_key":"84:16","verse_id":5900,"location":"84:16:4","text_uthmani":"١٦","qpc_uthmani_hafs":"١٦","char_type_name":"end","page_number":589,"line_number":12,"text":"١٦","translation":{"text":"(১৬)","language_name":"bengali","language_id":20},"transliteration":{"text":null,"language_name":"english","language_id":38}}]},{"id":5901,"verse_number":17,"verse_key":"84:17","hizb_number":59,"rub_el_hizb_number":236,"ruku_number":528,"manzil_number":7,"sajdah_number":null,"page_number":589,"juz_number":30,"words":[{"id":19695,"position":1,"audio_url":"wbw/084_017_001.mp3","verse_key":"84:17","verse_id":5901,"location":"84:17:1","text_uthmani":"وَٱلَّيْلِ","qpc_uthmani_hafs":"وَٱلَّيۡلِ","char_type_name":"word","page_number":589,"line_number":12,"text":"وَٱلَّيۡلِ","translation":{"text":"এবং শপথ রাতের","language_name":"bengali","language_id":20},"transliteration":{"text":"wa-al-layli","language_name":"english","language_id":38}},{"id":19696,"position":2,"audio_url":"wbw/084_017_002.mp3","verse_key":"84:17","verse_id":5901,"location":"84:17:2","text_uthmani":"وَمَا","qpc_uthmani_hafs":"وَمَا","char_type_name":"word","page_number":589,"line_number":12,"text":"وَمَا","translation":{"text":"ও যা","language_name":"bengali","language_id":20},"transliteration":{"text":"wamā","language_name":"english","language_id":38}},{"id":19697,"position":3,"audio_url":"wbw/084_017_003.mp3","verse_key":"84:17","verse_id":5901,"location":"84:17:3","text_uthmani":"وَسَقَ","qpc_uthmani_hafs":"وَسَقَ","char_type_name":"word","page_number":589,"line_number":12,"text":"وَسَقَ","translation":{"text":"সমাবেশ ঘটায়","language_name":"bengali","language_id":20},"transliteration":{"text":"wasaqa","language_name":"english","language_id":38}},{"id":19698,"position":4,"audio_url":null,"verse_key":"84:17","verse_id":5901,"location":"84:17:4","text_uthmani":"١٧","qpc_uthmani_hafs":"١٧","char_type_name":"end","page_number":589,"line_number":12,"text":"١٧","translation":{"text":"(১৭)","language_name":"bengali","language_id":20},"transliteration":{"text":null,"language_name":"english","language_id":38}}]},{"id":5902,"verse_number":18,"verse_key":"84:18","hizb_number":59,"rub_el_hizb_number":236,"ruku_number":528,"manzil_number":7,"sajdah_number":null,"page_number":589,"juz_number":30,"words":[{"id":20779,"position":1,"audio_url":"wbw/084_018_001.mp3","verse_key":"84:18","verse_id":5902,"location":"84:18:1","text_uthmani":"وَٱلْقَمَرِ","qpc_uthmani_hafs":"وَٱلۡقَمَرِ","char_type_name":"word","page_number":589,"line_number":12,"text":"وَٱلۡقَمَرِ","translation":{"text":"এবং শপথ চাঁদের","language_name":"bengali","language_id":20},"transliteration":{"text":"wal-qamari","language_name":"english","language_id":38}},{"id":20780,"position":2,"audio_url":"wbw/084_018_002.mp3","verse_key":"84:18","verse_id":5902,"location":"84:18:2","text_uthmani":"إِذَا","qpc_uthmani_hafs":"إِذَا","char_type_name":"word","page_number":589,"line_number":12,"text":"إِذَا","translation":{"text":"যখন","language_name":"bengali","language_id":20},"transliteration":{"text":"idhā","language_name":"english","language_id":38}},{"id":20781,"position":3,"audio_url":"wbw/084_018_003.mp3","verse_key":"84:18","verse_id":5902,"location":"84:18:3","text_uthmani":"ٱتَّسَقَ","qpc_uthmani_hafs":"ٱتَّسَقَ","char_type_name":"word","page_number":589,"line_number":12,"text":"ٱتَّسَقَ","translation":{"text":"পূর্ণ হয়","language_name":"bengali","language_id":20},"transliteration":{"text":"ittasaqa","language_name":"english","language_id":38}},{"id":20782,"position":4,"audio_url":null,"verse_key":"84:18","verse_id":5902,"location":"84:18:4","text_uthmani":"١٨","qpc_uthmani_hafs":"١٨","char_type_name":"end","page_number":589,"line_number":12,"text":"١٨","translation":{"text":"(১৮)","language_name":"bengali","language_id":20},"transliteration":{"text":null,"language_name":"english","language_id":38}}]},{"id":5903,"verse_number":19,"verse_key":"84:19","hizb_number":59,"rub_el_hizb_number":236,"ruku_number":528,"manzil_number":7,"sajdah_number":null,"page_number":589,"juz_number":30,"words":[{"id":21524,"position":1,"audio_url":"wbw/084_019_001.mp3","verse_key":"84:19","verse_id":5903,"location":"84:19:1","text_uthmani":"لَتَرْكَبُنَّ","qpc_uthmani_hafs":"لَتَرۡكَبُنَّ","char_type_name":"word","page_number":589,"line_number":13,"text":"لَتَرۡكَبُنَّ","translation":{"text":"তোমরা অবশ্যই আরোহণ করবে","language_name":"bengali","language_id":20},"transliteration":{"text":"latarkabunna","language_name":"english","language_id":38}},{"id":21525,"position":2,"audio_url":"wbw/084_019_002.mp3","verse_key":"84:19","verse_id":5903,"location":"84:19:2","text_uthmani":"طَبَقًا","qpc_uthmani_hafs":"طَبَقًا","char_type_name":"word","page_number":589,"line_number":13,"text":"طَبَقًا","translation":{"text":"স্তর","language_name":"bengali","language_id":20},"transliteration":{"text":"ṭabaqan","language_name":"english","language_id":38}},{"id":21526,"position":3,"audio_url":"wbw/084_019_003.mp3","verse_key":"84:19","verse_id":5903,"location":"84:19:3","text_uthmani":"عَن","qpc_uthmani_hafs":"عَن","char_type_name":"word","page_number":589,"line_number":13,"text":"عَن","translation":{"text":"থেকে","language_name":"bengali","language_id":20},"transliteration":{"text":"ʿan","language_name":"english","language_id":38}},{"id":21527,"position":4,"audio_url":"wbw/084_019_004.mp3","verse_key":"84:19","verse_id":5903,"location":"84:19:4","text_uthmani":"طَبَقٍۢ","qpc_uthmani_hafs":"طَبَقٖ","char_type_name":"word","page_number":589,"line_number":13,"text":"طَبَقٖ","translation":{"text":"স্তরে","language_name":"bengali","language_id":20},"transliteration":{"text":"ṭabaqin","language_name":"english","language_id":38}},{"id":21528,"position":5,"audio_url":null,"verse_key":"84:19","verse_id":5903,"location":"84:19:5","text_uthmani":"١٩","qpc_uthmani_hafs":"١٩","char_type_name":"end","page_number":589,"line_number":13,"text":"١٩","translation":{"text":"(১৯)","language_name":"bengali","language_id":20},"transliteration":{"text":null,"language_name":"english","language_id":38}}]},{"id":5904,"verse_number":20,"verse_key":"84:20","hizb_number":59,"rub_el_hizb_number":236,"ruku_number":528,"manzil_number":7,"sajdah_number":null,"page_number":589,"juz_number":30,"words":[{"id":22967,"position":1,"audio_url":"wbw/084_020_001.mp3","verse_key":"84:20","verse_id":5904,"location":"84:20:1","text_uthmani":"فَمَا","qpc_uthmani_hafs":"فَمَا","char_type_name":"word","page_number":589,"line_number":13,"text":"فَمَا","translation":{"text":"অতএব হলো কি","language_name":"bengali","language_id":20},"transliteration":{"text":"famā","language_name":"english","language_id":38}},{"id":22968,"position":2,"audio_url":"wbw/084_020_002.mp3","verse_key":"84:20","verse_id":5904,"location":"84:20:2","text_uthmani":"لَهُمْ","qpc_uthmani_hafs":"لَهُمۡ","char_type_name":"word","page_number":589,"line_number":13,"text":"لَهُمۡ","translation":{"text":"তাদের","language_name":"bengali","language_id":20},"transliteration":{"text":"lahum","language_name":"english","language_id":38}},{"id":22969,"position":3,"audio_url":"wbw/084_020_003.mp3","verse_key":"84:20","verse_id":5904,"location":"84:20:3","text_uthmani":"لَا","qpc_uthmani_hafs":"لَا","char_type_name":"word","page_number":589,"line_number":13,"text":"لَا","translation":{"text":"না","language_name":"bengali","language_id":20},"transliteration":{"text":"lā","language_name":"english","language_id":38}},{"id":22970,"position":4,"audio_url":"wbw/084_020_004.mp3","verse_key":"84:20","verse_id":5904,"location":"84:20:4","text_uthmani":"يُؤْمِنُونَ","qpc_uthmani_hafs":"يُؤۡمِنُونَ","char_type_name":"word","page_number":589,"line_number":13,"text":"يُؤۡمِنُونَ","translation":{"text":"তারা ঈমান আনে","language_name":"bengali","language_id":20},"transliteration":{"text":"yu'minūna","language_name":"english","language_id":38}},{"id":22971,"position":5,"audio_url":null,"verse_key":"84:20","verse_id":5904,"location":"84:20:5","text_uthmani":"٢٠","qpc_uthmani_hafs":"٢٠","char_type_name":"end","page_number":589,"line_number":13,"text":"٢٠","translation":{"text":"(২০)","language_name":"bengali","language_id":20},"transliteration":{"text":null,"language_name":"english","language_id":38}}]}],"pagination":{"per_page":10,"current_page":2,"next_page":3,"total_pages":3,"total_records":25}}
