{"verses":[{"id":5905,"verse_number":21,"verse_key":"84:21","hizb_number":59,"rub_el_hizb_number":236,"ruku_number":528,"manzil_number":7,"sajdah_number":13,"page_number":589,"juz_number":30,"words":[{"id":23990,"position":1,"audio_url":"wbw/084_021_001.mp3","char_type_name":"word","page_number":589,"line_number":13,"text":"وَإِذَا","translation":{"text":"এবং যখন","language_name":"bengali","language_id":20},"transliteration":{"text":"wa-idhā","language_name":"english","language_id":38}},{"id":23991,"position":2,"audio_url":"wbw/084_021_002.mp3","char_type_name":"word","page_number":589,"line_number":13,"text":"قُرِئَ","translation":{"text":"পাঠ করা হয়","language_name":"bengali","language_id":20},"transliteration":{"text":"quri-a","language_name":"english","language_id":38}},{"id":23992,"position":3,"audio_url":"wbw/084_021_003.mp3","char_type_name":"word","page_number":589,"line_number":14,"text":"عَلَيْهِمُ","translation":{"text":"তাদের কাছে","language_name":"bengali","language_id":20},"transliteration":{"text":"ʿalayhimu","language_name":"english","language_id":38}},{"id":23993,"position":4,"audio_url":"wbw/084_021_004.mp3","char_type_name":"word","page_number":589,"line_number":14,"text":"ٱلْقُرْءَانُ","translation":{"text":"কুর'আন","language_name":"bengali","language_id":20},"transliteration":{"text":"l-qur'ānu","language_name":"english","language_id":38}},{"id":23994,"position":5,"audio_url":"wbw/084_021_005.mp3","char_type_name":"word","page_number":589,"line_number":14,"text":"لَا","translation":{"text":"না","language_name":"bengali","language_id":20},"transliteration":{"text":"lā","language_name":"english","language_id":38}},{"id":23995,"position":6,"audio_url":"wbw/084_021_006.mp3","char_type_name":"word","page_number":589,"line_number":14,"text":"يَسْجُدُونَ ۩","translation":{"text":"তারা সিজদা করে","language_name":"bengali","language_id":20},"transliteration":{"text":"yasjudūna","language_name":"english","language_id":38}},{"id":23997,"position":7,"audio_url":"","char_type_name":"end","page_number":589,"line_number":13,"text":"٢١","translation":{"text":"(২১)","language_name":"bengali","language_id":20},"transliteration":{"text":"","language_name":"english","language_id":38}}]},{"id":5906,"verse_number":22,"verse_key":"84:22","hizb_number":59,"rub_el_hizb_number":236,"ruku_number":528,"manzil_number":7,"sajdah_number":null,"page_number":589,"juz_number":30,"words":[{"id":25018,"position":1,"audio_url":"wbw/084_022_001.mp3","char_type_name":"word","page_number":589,"line_number":14,"text":"بَلِ","translation":{"text":"বরং","language_name":"bengali","language_id":20},"transliteration":{"text":"bali","language_name":"english","language_id":38}},{"id":25019,"position":2,"audio_url":"wbw/084_022_002.mp3","char_type_name":"word","page_number":589,"line_number":14,"text":"ٱلَّذِينَ","translation":{"text":"যারা","language_name":"bengali","language_id":20},"transliteration":{"text":"alladhīna","language_name":"english","language_id":38}},{"id":25020,"position":3,"audio_url":"wbw/084_022_003.mp3","char_type_name":"word","page_number":589,"line_number":14,"text":"كَفَرُوا۟","translation":{"text":"কুফরি করেছে","language_name":"bengali","language_id":20},"transliteration":{"text":"kafarū","language_name":"english","language_id":38}},{"id":25021,"position":4,"audio_url":"wbw/084_022_004.mp3","char_type_name":"word","page_number":589,"line_number":14,"text":"يُكَذِّبُونَ","translation":{"text":"মিথ্যারোপ করছে","language_name":"bengali","language_id":20},"transliteration":{"text":"yukadhibūna","language_name":"english","language_id":38}},{"id":25022,"position":5,"audio_url":null,"char_type_name":"end","page_number":589,"line_number":15,"text":"٢٢","translation":{"text":"(২২)","language_name":"bengali","language_id":20},"transliteration":{"text":null,"language_name":"english","language_id":38}}]},{"id":5907,"verse_number":23,"verse_key":"84:23","hizb_number":59,"rub_el_hizb_number":236,"ruku_number":528,"manzil_number":7,"sajdah_number":null,"page_number":589,"juz_number":30,"words":[{"id":26088,"position":1,"audio_url":"wbw/084_023_001.mp3","char_type_name":"word","page_number":589,"line_number":15,"text":"وَٱللَّهُ","translation":{"text":"এবং আল্লাহ","language_name":"bengali","language_id":20},"transliteration":{"text":"wal-lahu","language_name":"english","language_id":38}},{"id":26089,"position":2,"audio_url":"wbw/084_023_002.mp3","char_type_name":"word","page_number":589,"line_number":15,"text":"أَعْلَمُ","translation":{"text":"ভালো জানেন","language_name":"bengali","language_id":20},"transliteration":{"text":"aʿlamu","language_name":"english","language_id":38}},{"id":26090,"position":3,"audio_url":"wbw/084_023_003.mp3","char_type_name":"word","page_number":589,"line_number":15,"text":"بِمَا","translation":{"text":"ঐ বিষয়ে যা","language_name":"bengali","language_id":20},"transliteration":{"text":"bimā","language_name":"english","language_id":38}},{"id":26091,"position":4,"audio_url":"wbw/084_023_004.mp3","char_type_name":"word","page_number":589,"line_number":15,"text":"يُوعُونَ","translation":{"text":"তারা পোষণ করছে","language_name":"bengali","language_id":20},"transliteration":{"text":"yūʿūna","language_name":"english","language_id":38}},{"id":26092,"position":5,"audio_url":null,"char_type_name":"end","page_number":589,"line_number":15,"text":"٢٣","translation":{"text":"(২৩)","language_name":"bengali","language_id":20},"transliteration":{"text":null,"language_name":"english","language_id":38}}]},{"id":5908,"verse_number":24,"verse_key":"84:24","hizb_number":59,"rub_el_hizb_number":236,"ruku_number":528,"manzil_number":7,"sajdah_number":null,"page_number":589,"juz_number":30,"words":[{"id":26816,"position":1,"audio_url":"wbw/084_024_001.mp3","char_type_name":"word","page_number":589,"line_number":15,"text":"فَبَشِّرْهُم","translation":{"text":"কাজেই তাদের সুসংবাদ দাও","language_name":"bengali","language_id":20},"transliteration":{"text":"fabashir'hum","language_name":"english","language_id":38}},{"id":26817,"position":2,"audio_url":"wbw/084_024_002.mp3","char_type_name":"word","page_number":589,"line_number":15,"text":"بِعَذَابٍ","translation":{"text":"শাস্তির","language_name":"bengali","language_id":20},"transliteration":{"text":"biʿadhābin","language_name":"english","language_id":38}},{"id":26818,"position":3,"audio_url":"wbw/084_024_003.mp3","char_type_name":"word","page_number":589,"line_number":15,"text":"أَلِيمٍ","translation":{"text":"যন্ত্রণাদায়ক","language_name":"bengali","language_id":20},"transliteration":{"text":"alīmin","language_name":"english","language_id":38}},{"id":26819,"position":4,"audio_url":null,"char_type_name":"end","page_number":589,"line_number":15,"text":"٢٤","translation":{"text":"(২৪)","language_name":"bengali","language_id":20},"transliteration":{"text":null,"language_name":"english","language_id":38}}]},{"id":5909,"verse_number":25,"verse_key":"84:25","hizb_number":59,"rub_el_hizb_number":236,"ruku_number":528,"manzil_number":7,"sajdah_number":null,"page_number":590,"juz_number":30,"words":[{"id":28164,"position":1,"audio_url":"wbw/084_025_001.mp3","char_type_name":"word","page_number":590,"line_number":1,"text":"إِلَّا","translation":{"text":"তার ব্যতিক্রম","language_name":"bengali","language_id":20},"transliteration":{"text":"illā","language_name":"english","language_id":38}},{"id":28165,"position":2,"audio_url":"wbw/084_025_002.mp3","char_type_name":"word","page_number":590,"line_number":1,"text":"ٱلَّذِينَ","translation":{"text":"(ঐসব লোক) যারা","language_name":"bengali","language_id":20},"transliteration":{"text":"alladhīna","language_name":"english","language_id":38}},{"id":28166,"position":3,"audio_url":"wbw/084_025_003.mp3","char_type_name":"word","page_number":590,"line_number":1,"text":"ءَامَنُوا۟","translation":{"text":"ঈমান এনেছে","language_name":"bengali","language_id":20},"transliteration":{"text":"āmanū","language_name":"english","language_id":38}},{"id":28167,"position":4,"audio_url":"wbw/084_025_004.mp3","char_type_name":"word","page_number":590,"line_number":1,"text":"وَعَمِلُوا۟","translation":{"text":"ও করেছে","language_name":"bengali","language_id":20},"transliteration":{"text":"waʿamilū","language_name":"english","language_id":38}},{"id":28168,"position":5,"audio_url":"wbw/084_025_005.mp3","char_type_name":"word","page_number":590,"line_number":1,"text":"ٱلصَّـٰلِحَـٰتِ","translation":{"text":"সৎকর্ম","language_name":"bengali","language_id":20},"transliteration":{"text":"l-ṣāliḥāti","language_name":"english","language_id":38}},{"id":28169,"position":6,"audio_url":"wbw/084_025_006.mp3","char_type_name":"word","page_number":590,"line_number":1,"text":"لَهُمْ","translation":{"text":"তাদের জন্য রয়েছে","language_name":"bengali","language_id":20},"transliteration":{"text":"lahum","language_name":"english","language_id":38}},{"id":28170,"position":7,"audio_url":"wbw/084_025_007.mp3","char_type_name":"word","page_number":590,"line_number":1,"text":"أَجْرٌ","translation":{"text":"পুরস্কার","language_name":"bengali","language_id":20},"transliteration":{"text":"ajrun","language_name":"english","language_id":38}},{"id":28171,"position":8,"audio_url":"wbw/084_025_008.mp3","char_type_name":"word","page_number":590,"line_number":1,"text":"غَيْرُ","translation":{"text":"অশেষ","language_name":"bengali","language_id":20},"transliteration":{"text":"ghayru","language_name":"english","language_id":38}},{"id":28172,"position":9,"audio_url":"wbw/084_025_009.mp3","char_type_name":"word","page_number":590,"line_number":1,"text":"مَمْنُونٍۭ","translation":{"text":"অশেষ","language_name":"bengali","language_id":20},"transliteration":{"text":"mamnūnin","language_name":"english","language_id":38}},{"id":28173,"position":10,"audio_url":null,"char_type_name":"end","page_number":590,"line_number":1,"text":"٢٥","translation":{"text":"(২৫)","language_name":"bengali","language_id":20},"transliteration":{"text":null,"language_name":"english","language_id":38}}]}],"pagination":{"per_page":10,"current_page":3,"next_page":null,"total_pages":3,"total_records":25}}
