{"verses":[{"id":6054,"verse_number":11,"verse_key":"91:11","hizb_number":60,"rub_el_hizb_number":238,"ruku_number":535,"manzil_number":7,"sajdah_number":null,"page_number":595,"juz_number":30,"words":[{"id":13328,"position":1,"audio_url":"wbw/091_011_001.mp3","char_type_name":"word","page_number":595,"line_number":8,"text":"كَذَّبَتْ","translation":{"text":"মিথ্যারোপ করেছিল","language_name":"bengali","language_id":20},"transliteration":{"text":"kadhabat","language_name":"english","language_id":38}},{"id":13329,"position":2,"audio_url":"wbw/091_011_002.mp3","char_type_name":"word","page_number":595,"line_number":8,"text":"ثَمُودُ","translation":{"text":"সামূদ জাতি","language_name":"bengali","language_id":20},"transliteration":{"text":"thamūdu","language_name":"english","language_id":38}},{"id":13330,"position":3,"audio_url":"wbw/091_011_003.mp3","char_type_name":"word","page_number":595,"line_number":8,"text":"بِطَغْوَىٰهَآ","translation":{"text":"তার অবাধ্যতাবশতঃ","language_name":"bengali","language_id":20},"transliteration":{"text":"biṭaghwāhā","language_name":"english","language_id":38}},{"id":13331,"position":4,"audio_url":null,"char_type_name":"end","page_number":595,"line_number":8,"text":"١١","translation":{"text":"(১১)","language_name":"bengali","language_id":20},"transliteration":{"text":null,"language_name":"english","language_id":38}}]},{"id":6055,"verse_number":12,"verse_key":"91:12","hizb_number":60,"rub_el_hizb_number":238,"ruku_number":535,"manzil_number":7,"sajdah_number":null,"page_number":595,"juz_number":30,"words":[{"id":14556,"position":1,"audio_url":"wbw/091_012_001.mp3","char_type_name":"word","page_number":595,"line_number":8,"text":"إِذِ","translation":{"text":"যখন","language_name":"bengali","language_id":20},"transliteration":{"text":"idhi","language_name":"english","language_id":38}},{"id":14557,"position":2,"audio_url":"wbw/091_012_002.mp3","char_type_name":"word","page_number":595,"line_number":8,"text":"ٱنۢبَعَثَ","translation":{"text":"(তৎপর হয়ে)উঠলো","language_name":"bengali","language_id":20},"transliteration":{"text":"inbaʿatha","language_name":"english","language_id":38}},{"id":14558,"position":3,"audio_url":"wbw/091_012_003.mp3","char_type_name":"word","page_number":595,"line_number":8,"text":"أَشْقَىٰهَا","translation":{"text":"তার সবচেয়ে হতভাগা ব্যক্তি","language_name":"bengali","language_id":20},"transliteration":{"text":"ashqāhā","language_name":"english","language_id":38}},{"id":14559,"position":4,"audio_url":null,"char_type_name":"end","page_number":595,"line_number":8,"text":"١٢","translation":{"text":"(১২)","language_name":"bengali","language_id":20},"transliteration":{"text":null,"language_name":"english","language_id":38}}]},{"id":6056,"verse_number":13,"verse_key":"91:13","hizb_number":60,"rub_el_hizb_number":238,"ruku_number":535,"manzil_number":7,"sajdah_number":null,"page_number":595,"juz_number":30,"words":[{"id":15451,"position":1,"audio_url":"wbw/091_013_001.mp3","char_type_name":"word","page_number":595,"line_number":8,"text":"فَقَالَ","translation":{"text":"অতঃপর বললো","language_name":"bengali","language_id":20},"transliteration":{"text":"faqāla","language_name":"english","language_id":38}},{"id":15452,"position":2,"audio_url":"wbw/091_013_002.mp3","char_type_name":"word","page_number":595,"line_number":8,"text":"لَهُمْ","translation":{"text":"তাদেরকে","language_name":"bengali","language_id":20},"transliteration":{"text":"lahum","language_name":"english","language_id":38}},{"id":15453,"position":3,"audio_url":"wbw/091_013_003.mp3","char_type_name":"word","page_number":595,"line_number":9,"text":"رَسُولُ","translation":{"text":"রাসূল","language_name":"bengali","language_id":20},"transliteration":{"text":"rasūlu","language_name":"english","language_id":38}},{"id":15454,"position":4,"audio_url":"wbw/091_013_004.mp3","char_type_name":"word","page_number":595,"line_number":9,"text":"ٱللَّهِ","translation":{"text":"আল্লাহর","language_name":"bengali","language_id":20},"transliteration":{"text":"l-lahi","language_name":"english","language_id":38}},{"id":15455,"position":5,"audio_url":"wbw/091_013_005.mp3","char_type_name":"word","page_number":595,"line_number":9,"text":"نَاقَةَ","translation":{"text":"\"(সাবধান)উষ্ট্রীকে","language_name":"bengali","language_id":20},"transliteration":{"text":"nāqata","language_name":"english","language_id":38}},{"id":15456,"position":6,"audio_url":"wbw/091_013_006.mp3","char_type_name":"word","page_number":595,"line_number":9,"text":"ٱللَّهِ","translation":{"text":"আল্লাহর (স্পর্শ করো না)","language_name":"bengali","language_id":20},"transliteration":{"text":"l-lahi","language_name":"english","language_id":38}},{"id":15457,"position":7,"audio_url":"wbw/091_013_007.mp3","char_type_name":"word","page_number":595,"line_number":9,"text":"وَسُقْيَـٰهَا","translation":{"text":"ও তার পানি পান করায় (বাধা দিও না)\"","language_name":"bengali","language_id":20},"transliteration":{"text":"wasuq'yāhā","language_name":"english","language_id":38}},{"id":15458,"position":8,"audio_url":null,"char_type_name":"end","page_number":595,"line_number":9,"text":"١٣","translation":{"text":"(১৩)","language_name":"bengali","language_id":20},"transliteration":{"text":null,"language_name":"english","language_id":38}}]},{"id":6057,"verse_number":14,"verse_key":"91:14","hizb_number":60,"rub_el_hizb_number":238,"ruku_number":535,"manzil_number":7,"sajdah_number":null,"page_number":595,"juz_number":30,"words":[{"id":15841,"position":1,"audio_url":"wbw/091_014_001.mp3","char_type_name":"word","page_number":595,"line_number":9,"text":"فَكَذَّبُوهُ","translation":{"text":"কিন্তু তারা তাকে  মিথ্যা ভাবলো","language_name":"bengali","language_id":20},"transliteration":{"text":"fakadhabūhu","language_name":"english","language_id":38}},{"id":15842,"position":2,"audio_url":"wbw/091_014_002.mp3","char_type_name":"word","page_number":595,"line_number":9,"text":"فَعَقَرُوهَا","translation":{"text":"অতঃপর তারা তাকে  হত্যা করলো","language_name":"bengali","language_id":20},"transliteration":{"text":"faʿaqarūhā","language_name":"english","language_id":38}},{"id":15843,"position":3,"audio_url":"wbw/091_014_003.mp3","char_type_name":"word","page_number":595,"line_number":9,"text":"فَدَمْدَمَ","translation":{"text":"ফলে ধ্বংস করে দিলেন","language_name":"bengali","language_id":20},"transliteration":{"text":"fadamdama","language_name":"english","language_id":38}},{"id":15844,"position":4,"audio_url":"wbw/091_014_004.mp3","char_type_name":"word","page_number":595,"line_number":10,"text":"عَلَيْهِمْ","translation":{"text":"তাদেরকে","language_name":"bengali","language_id":20},"transliteration":{"text":"ʿalayhim","language_name":"english","language_id":38}},{"id":15845,"position":5,"audio_url":"wbw/091_014_005.mp3","char_type_name":"word","page_number":595,"line_number":10,"text":"رَبُّهُم","translation":{"text":"তাদের রব","language_name":"bengali","language_id":20},"transliteration":{"text":"rabbuhum","language_name":"english","language_id":38}},{"id":15846,"position":6,"audio_url":"wbw/091_014_006.mp3","char_type_name":"word","page_number":595,"line_number":10,"text":"بِذَنۢبِهِمْ","translation":{"text":"তাদের পাপের জন্য","language_name":"bengali","language_id":20},"transliteration":{"text":"bidhanbihim","language_name":"english","language_id":38}},{"id":15847,"position":7,"audio_url":"wbw/091_014_007.mp3","char_type_name":"word","page_number":595,"line_number":10,"text":"فَسَوَّىٰهَا","translation":{"text":"অতঃপর তাদেরকে (মাটি) সমান করে দিলেন","language_name":"bengali","language_id":20},"transliteration":{"text":"fasawwāhā","language_name":"english","language_id":38}},{"id":15848,"position":8,"audio_url":null,"char_type_name":"end","page_number":595,"line_number":10,"text":"١٤","translation":{"text":"(১৪)","language_name":"bengali","language_id":20},"transliteration":{"text":null,"language_name":"english","language_id":38}}]},{"id":6058,"verse_number":15,"verse_key":"91:15","hizb_number":60,"rub_el_hizb_number":238,"ruku_number":535,"manzil_number":7,"sajdah_number":null,"page_number":595,"juz_number":30,"words":[{"id":16868,"position":1,"audio_url":"wbw/091_015_001.mp3","char_type_name":"word","page_number":595,"line_number":10,"text":"وَلَا","translation":{"text":"এবং না","language_name":"bengali","language_id":20},"transliteration":{"text":"walā","language_name":"english","language_id":38}},{"id":16869,"position":2,"audio_url":"wbw/091_015_002.mp3","char_type_name":"word","page_number":595,"line_number":10,"text":"يَخَافُ","translation":{"text":"ভয় করেন তিনি","language_name":"bengali","language_id":20},"transliteration":{"text":"yakhāfu","language_name":"english","language_id":38}},{"id":16870,"position":3,"audio_url":"wbw/091_015_003.mp3","char_type_name":"word","page_number":595,"line_number":10,"text":"عُقْبَـٰهَا","translation":{"text":"তাঁর (কাজের) পরিণতির","language_name":"bengali","language_id":20},"transliteration":{"text":"ʿuq'bāhā","language_name":"english","language_id":38}},{"id":16871,"position":4,"audio_url":null,"char_type_name":"end","page_number":595,"line_number":10,"text":"١٥","translation":{"text":"(১৫)","language_name":"bengali","language_id":20},"transliteration":{"text":null,"language_name":"english","language_id":38}}]}],"pagination":{"per_page":10,"current_page":2,"next_page":null,"total_pages":2,"total_records":15}}
