{"verses":[{"id":4912,"verse_number":11,"verse_key":"55:11","hizb_number":54,"rub_el_hizb_number":213,"ruku_number":468,"manzil_number":7,"sajdah_number":null,"page_number":531,"juz_number":27,"words":[{"id":12493,"position":1,"audio_url":"wbw/055_011_001.mp3","verse_key":"55:11","verse_id":4912,"location":"55:11:1","text_uthmani":"فِيهَا","qpc_uthmani_hafs":"فِيهَا","char_type_name":"word","page_number":531,"line_number":11,"text":"فِيهَا","translation":{"text":"তার মধ্যে (আছে)","language_name":"bengali","language_id":20},"transliteration":{"text":"fīhā","language_name":"english","language_id":38}},{"id":12494,"position":2,"audio_url":"wbw/055_011_002.mp3","verse_key":"55:11","verse_id":4912,"location":"55:11:2","text_uthmani":"فَـٰكِهَةٌۭ","qpc_uthmani_hafs":"فَٰكِهَةٞ","char_type_name":"word","page_number":531,"line_number":11,"text":"فَٰكِهَةٞ","translation":{"text":"ফলমূল","language_name":"bengali","language_id":20},"transliteration":{"text":"fākihatun","language_name":"english","language_id":38}},{"id":12495,"position":3,"audio_url":"wbw/055_011_003.mp3","verse_key":"55:11","verse_id":4912,"location":"55:11:3","text_uthmani":"وَٱلنَّخْلُ","qpc_uthmani_hafs":"وَٱلنَّخۡلُ","char_type_name":"word","page_number":531,"line_number":11,"text":"وَٱلنَّخۡلُ","translation":{"text":"ও খেজুর গাছ","language_name":"bengali","language_id":20},"transliteration":{"text":"wal-nakhlu","language_name":"english","language_id":38}},{"id":12496,"position":4,"audio_url":"wbw/055_011_004.mp3","verse_key":"55:11","verse_id":4912,"location":"55:11:4","text_uthmani":"ذَاتُ","qpc_uthmani_hafs":"ذَاتُ","char_type_name":"word","page_number":531,"line_number":11,"text":"ذَاتُ","translation":{"text":"আছে","language_name":"bengali","language_id":20},"transliteration":{"text":"dhātu","language_name":"english","language_id":38}},{"id":12497,"position":5,"audio_url":"wbw/055_011_005.mp3","verse_key":"55:11","verse_id":4912,"location":"55:11:5","text_uthmani":"ٱلْأَكْمَامِ","qpc_uthmani_hafs":"ٱلۡأَكۡمَامِ","char_type_name":"word","page_number":531,"line_number":11,"text":"ٱلۡأَكۡمَامِ","translation":{"text":"আবরণ বিশিষ্ট (যার ফল)","language_name":"bengali","language_id":20},"transliteration":{"text":"l-akmāmi","language_name":"english","language_id":38}},{"id":12498,"position":6,"audio_url":null,"verse_key":"55:11","verse_id":4912,"location":"55:11:6","text_uthmani":"١١","qpc_uthmani_hafs":"١١","char_type_name":"end","page_number":531,"line_number":11,"text":"١١","translation":{"text":"(১১)","language_name":"bengali","language_id":20},"transliteration":{"text":null,"language_name":"english","language_id":38}}]},{"id":4913,"verse_number":12,"verse_key":"55:12","hizb_number":54,"rub_el_hizb_number":213,"ruku_number":468,"manzil_number":7,"sajdah_number":null,"page_number":531,"juz_number":27,"words":[{"id":13820,"position":1,"audio_url":"wbw/055_012_001.mp3","verse_key":"55:12","verse_id":4913,"location":"55:12:1","text_uthmani":"وَٱلْحَبُّ","qpc_uthmani_hafs":"وَٱلۡحَبُّ","char_type_name":"word","page_number":531,"line_number":12,"text":"وَٱلۡحَبُّ","translation":{"text":"এবং শস্য","language_name":"bengali","language_id":20},"transliteration":{"text":"wal-ḥabu","language_name":"english","language_id":38}},{"id":13821,"position":2,"audio_url":"wbw/055_012_002.mp3","verse_key":"55:12","verse_id":4913,"location":"55:12:2","text_uthmani":"ذُو","qpc_uthmani_hafs":"ذُو","char_type_name":"word","page_number":531,"line_number":12,"text":"ذُو","translation":{"text":"আছে","language_name":"bengali","language_id":20},"transliteration":{"text":"dhū","language_name":"english","language_id":38}},{"id":13822,"position":3,"audio_url":"wbw/055_012_003.mp3","verse_key":"55:12","verse_id":4913,"location":"55:12:3","text_uthmani":"ٱلْعَصْفِ","qpc_uthmani_hafs":"ٱلۡعَصۡفِ","char_type_name":"word","page_number":531,"line_number":12,"text":"ٱلۡعَصۡفِ","translation":{"text":"ভুসি বিশিষ্ট (দানা)","language_name":"bengali","language_id":20},"transliteration":{"text":"l-ʿaṣfi","language_name":"english","language_id":38}},{"id":13823,"position":4,"audio_url":"wbw/055_012_004.mp3","verse_key":"55:12","verse_id":4913,"location":"55:12:4","text_uthmani":"وَٱلرَّيْحَانُ","qpc_uthmani_hafs":"وَٱلرَّيۡحَانُ","char_type_name":"word","page_number":531,"line_number":12,"text":"وَٱلرَّيۡحَانُ","translation":{"text":"ও সুগন্ধ (বিশিষ্ট উদ্ভিদ)","language_name":"bengali","language_id":20},"transliteration":{"text":"wal-rayḥānu","language_name":"english","language_id":38}},{"id":13824,"position":5,"audio_url":null,"verse_key":"55:12","verse_id":4913,"location":"55:12:5","text_uthmani":"١٢","qpc_uthmani_hafs":"١٢","char_type_name":"end","page_number":531,"line_number":12,"text":"١٢","translation":{"text":"(১২)","language_name":"bengali","language_id":20},"transliteration":{"text":null,"language_name":"english","language_id":38}}]},{"id":4914,"verse_number":13,"verse_key":"55:13","hizb_number":54,"rub_el_hizb_number":213,"ruku_number":468,"manzil_number":7,"sajdah_number":null,"page_number":531,"juz_number":27,"words":[{"id":14970,"position":1,"audio_url":"wbw/055_013_001.mp3","verse_key":"55:13","verse_id":4914,"location":"55:13:1","text_uthmani":"فَبِأَىِّ","qpc_uthmani_hafs":"فَبِأَيِّ","char_type_name":"word","page_number":531,"line_number":12,"text":"فَبِأَيِّ","translation":{"text":"অতএব কোন কোন","language_name":"bengali","language_id":20},"transliteration":{"text":"fabi-ayyi","language_name":"english","language_id":38}},{"id":14971,"position":2,"audio_url":"wbw/055_013_002.mp3","verse_key":"55:13","verse_id":4914,"location":"55:13:2","text_uthmani":"ءَالَآءِ","qpc_uthmani_hafs":"ءَالَآءِ","char_type_name":"word","page_number":531,"line_number":12,"text":"ءَالَآءِ","translation":{"text":"অনুগ্রহ সমূহকে","language_name":"bengali","language_id":20},"transliteration":{"text":"ālāi","language_name":"english","language_id":38}},{"id":14972,"position":3,"audio_url":"wbw/055_013_003.mp3","verse_key":"55:13","verse_id":4914,"location":"55:13:3","text_uthmani":"رَبِّكُمَا","qpc_uthmani_hafs":"رَبِّكُمَا","char_type_name":"word","page_number":531,"line_number":12,"text":"رَبِّكُمَا","translation":{"text":"তোমাদের উভয়ের রবের","language_name":"bengali","language_id":20},"transliteration":{"text":"rabbikumā","language_name":"english","language_id":38}},{"id":14973,"position":4,"audio_url":"wbw/055_013_004.mp3","verse_key":"55:13","verse_id":4914,"location":"55:13:4","text_uthmani":"تُكَذِّبَانِ","qpc_uthmani_hafs":"تُكَذِّبَانِ","char_type_name":"word","page_number":531,"line_number":12,"text":"تُكَذِّبَانِ","translation":{"text":"উভয়ে অস্বীকার করবে","language_name":"bengali","language_id":20},"transliteration":{"text":"tukadhibāni","language_name":"english","language_id":38}},{"id":14974,"position":5,"audio_url":null,"verse_key":"55:13","verse_id":4914,"location":"55:13:5","text_uthmani":"١٣","qpc_uthmani_hafs":"١٣","char_type_name":"end","page_number":531,"line_number":13,"text":"١٣","translation":{"text":"(১৩)","language_name":"bengali","language_id":20},"transliteration":{"text":null,"language_name":"english","language_id":38}}]},{"id":4915,"verse_number":14,"verse_key":"55:14","hizb_number":54,"rub_el_hizb_number":213,"ruku_number":468,"manzil_number":7,"sajdah_number":null,"page_number":531,"juz_number":27,"words":[{"id":16038,"position":1,"audio_url":"wbw/055_014_001.mp3","verse_key":"55:14","verse_id":4915,"location":"55:14:1","text_uthmani":"خَلَقَ","qpc_uthmani_hafs":"خَلَقَ","char_type_name":"word","page_number":531,"line_number":13,"text":"خَلَقَ","translation":{"text":"তিনি সৃষ্টি করেছেন","language_name":"bengali","language_id":20},"transliteration":{"text":"khalaqa","language_name":"english","language_id":38}},{"id":16039,"position":2,"audio_url":"wbw/055_014_002.mp3","verse_key":"55:14","verse_id":4915,"location":"55:14:2","text_uthmani":"ٱلْإِنسَـٰنَ","qpc_uthmani_hafs":"ٱلۡإِنسَٰنَ","char_type_name":"word","page_number":531,"line_number":13,"text":"ٱلۡإِنسَٰنَ","translation":{"text":"মানুষকে","language_name":"bengali","language_id":20},"transliteration":{"text":"l-insāna","language_name":"english","language_id":38}},{"id":16040,"position":3,"audio_url":"wbw/055_014_003.mp3","verse_key":"55:14","verse_id":4915,"location":"55:14:3","text_uthmani":"مِن","qpc_uthmani_hafs":"مِن","char_type_name":"word","page_number":531,"line_number":13,"text":"مِن","translation":{"text":"থেকে","language_name":"bengali","language_id":20},"transliteration":{"text":"min","language_name":"english","language_id":38}},{"id":16041,"position":4,"audio_url":"wbw/055_014_004.mp3","verse_key":"55:14","verse_id":4915,"location":"55:14:4","text_uthmani":"صَلْصَـٰلٍۢ","qpc_uthmani_hafs":"صَلۡصَٰلٖ","char_type_name":"word","page_number":531,"line_number":13,"text":"صَلۡصَٰلٖ","translation":{"text":"শুকনো ঠনঠনে মাটি","language_name":"bengali","language_id":20},"transliteration":{"text":"ṣalṣālin","language_name":"english","language_id":38}},{"id":16042,"position":5,"audio_url":"wbw/055_014_005.mp3","verse_key":"55:14","verse_id":4915,"location":"55:14:5","text_uthmani":"كَٱلْفَخَّارِ","qpc_uthmani_hafs":"كَٱلۡفَخَّارِ","char_type_name":"word","page_number":531,"line_number":13,"text":"كَٱلۡفَخَّارِ","translation":{"text":"(যা) পোড়া মাটির মতো","language_name":"bengali","language_id":20},"transliteration":{"text":"kal-fakhāri","language_name":"english","language_id":38}},{"id":16043,"position":6,"audio_url":null,"verse_key":"55:14","verse_id":4915,"location":"55:14:6","text_uthmani":"١٤","qpc_uthmani_hafs":"١٤","char_type_name":"end","page_number":531,"line_number":13,"text":"١٤","translation":{"text":"(১৪)","language_name":"bengali","language_id":20},"transliteration":{"text":null,"language_name":"english","language_id":38}}]},{"id":4916,"verse_number":15,"verse_key":"55:15","hizb_number":54,"rub_el_hizb_number":213,"ruku_number":468,"manzil_number":7,"sajdah_number":null,"page_number":531,"juz_number":27,"words":[{"id":17285,"position":1,"audio_url":"wbw/055_015_001.mp3","verse_key":"55:15","verse_id":4916,"location":"55:15:1","text_uthmani":"وَخَلَقَ","qpc_uthmani_hafs":"وَخَلَقَ","char_type_name":"word","page_number":531,"line_number":13,"text":"وَخَلَقَ","translation":{"text":"এবং সৃষ্টি করেছেন","language_name":"bengali","language_id":20},"transliteration":{"text":"wakhalaqa","language_name":"english","language_id":38}},{"id":17286,"position":2,"audio_url":"wbw/055_015_002.mp3","verse_key":"55:15","verse_id":4916,"location":"55:15:2","text_uthmani":"ٱلْجَآنَّ","qpc_uthmani_hafs":"ٱلۡجَآنَّ","char_type_name":"word","page_number":531,"line_number":13,"text":"ٱلۡجَآنَّ","translation":{"text":"জিনকে","language_name":"bengali","language_id":20},"transliteration":{"text":"l-jāna","language_name":"english","language_id":38}},{"id":17287,"position":3,"audio_url":"wbw/055_015_003.mp3","verse_key":"55:15","verse_id":4916,"location":"55:15:3","text_uthmani":"مِن","qpc_uthmani_hafs":"مِن","char_type_name":"word","page_number":531,"line_number":13,"text":"مِن","translation":{"text":"থেকে","language_name":"bengali","language_id":20},"transliteration":{"text":"min","language_name":"english","language_id":38}},{"id":17288,"position":4,"audio_url":"wbw/055_015_004.mp3","verse_key":"55:15","verse_id":4916,"location":"55:15:4","text_uthmani":"مَّارِجٍۢ","qpc_uthmani_hafs":"مَّارِجٖ","char_type_name":"word","page_number":531,"line_number":14,"text":"مَّارِجٖ","translation":{"text":"শিখা","language_name":"bengali","language_id":20},"transliteration":{"text":"mārijin","language_name":"english","language_id":38}},{"id":17289,"position":5,"audio_url":"wbw/055_015_005.mp3","verse_key":"55:15","verse_id":4916,"location":"55:15:5","text_uthmani":"مِّن","qpc_uthmani_hafs":"مِّن","char_type_name":"word","page_number":531,"line_number":14,"text":"مِّن","translation":{"text":"থেকে","language_name":"bengali","language_id":20},"transliteration":{"text":"min","language_name":"english","language_id":38}},{"id":17290,"position":6,"audio_url":"wbw/055_015_006.mp3","verse_key":"55:15","verse_id":4916,"location":"55:15:6","text_uthmani":"نَّارٍۢ","qpc_uthmani_hafs":"نَّارٖ","char_type_name":"word","page_number":531,"line_number":14,"text":"نَّارٖ","translation":{"text":"আগুনের","language_name":"bengali","language_id":20},"transliteration":{"text":"nārin","language_name":"english","language_id":38}},{"id":17291,"position":7,"audio_url":null,"verse_key":"55:15","verse_id":4916,"location":"55:15:7","text_uthmani":"١٥","qpc_uthmani_hafs":"١٥","char_type_name":"end","page_number":531,"line_number":14,"text":"١٥","translation":{"text":"(১৫)","language_name":"bengali","language_id":20},"transliteration":{"text":null,"language_name":"english","language_id":38}}]},{"id":4917,"verse_number":16,"verse_key":"55:16","hizb_number":54,"rub_el_hizb_number":213,"ruku_number":468,"manzil_number":7,"sajdah_number":null,"page_number":531,"juz_number":27,"words":[{"id":18340,"position":1,"audio_url":"wbw/055_016_001.mp3","verse_key":"55:16","verse_id":4917,"location":"55:16:1","text_uthmani":"فَبِأَىِّ","qpc_uthmani_hafs":"فَبِأَيِّ","char_type_name":"word","page_number":531,"line_number":14,"text":"فَبِأَيِّ","translation":{"text":"অতএব","language_name":"bengali","language_id":20},"transliteration":{"text":"fabi-ayyi","language_name":"english","language_id":38}},{"id":18341,"position":2,"audio_url":"wbw/055_016_002.mp3","verse_key":"55:16","verse_id":4917,"location":"55:16:2","text_uthmani":"ءَالَآءِ","qpc_uthmani_hafs":"ءَالَآءِ","char_type_name":"word","page_number":531,"line_number":14,"text":"ءَالَآءِ","translation":{"text":"অনুগ্রহকে","language_name":"bengali","language_id":20},"transliteration":{"text":"ālāi","language_name":"english","language_id":38}},{"id":18342,"position":3,"audio_url":"wbw/055_016_003.mp3","verse_key":"55:16","verse_id":4917,"location":"55:16:3","text_uthmani":"رَبِّكُمَا","qpc_uthmani_hafs":"رَبِّكُمَا","char_type_name":"word","page_number":531,"line_number":14,"text":"رَبِّكُمَا","translation":{"text":"তোমাদের উভয়ের রবের","language_name":"bengali","language_id":20},"transliteration":{"text":"rabbikumā","language_name":"english","language_id":38}},{"id":18343,"position":4,"audio_url":"wbw/055_016_004.mp3","verse_key":"55:16","verse_id":4917,"location":"55:16:4","text_uthmani":"تُكَذِّبَانِ","qpc_uthmani_hafs":"تُكَذِّبَانِ","char_type_name":"word","page_number":531,"line_number":14,"text":"تُكَذِّبَانِ","translation":{"text":"উভয়ে অস্বীকার করবে","language_name":"bengali","language_id":20},"transliteration":{"text":"tukadhibāni","language_name":"english","language_id":38}},{"id":18344,"position":5,"audio_url":null,"verse_key":"55:16","verse_id":4917,"location":"55:16:5","text_uthmani":"١٦","qpc_uthmani_hafs":"١٦","char_type_name":"end","page_number":531,"line_number":14,"text":"١٦","translation":{"text":"(১৬)","language_name":"bengali","language_id":20},"transliteration":{"text":null,"language_name":"english","language_id":38}}]},{"id":4918,"verse_number":17,"verse_key":"55:17","hizb_number":54,"rub_el_hizb_number":213,"ruku_number":468,"manzil_number":7,"sajdah_number":null,"page_number":531,"juz_number":27,"words":[{"id":19356,"position":1,"audio_url":"wbw/055_017_001.mp3","verse_key":"55:17","verse_id":4918,"location":"55:17:1","text_uthmani":"رَبُّ","qpc_uthmani_hafs":"رَبُّ","char_type_name":"word","page_number":531,"line_number":14,"text":"رَبُّ","translation":{"text":"(তিনিই) মালিক","language_name":"bengali","language_id":20},"transliteration":{"text":"rabbu","language_name":"english","language_id":38}},{"id":19357,"position":2,"audio_url":"wbw/055_017_002.mp3","verse_key":"55:17","verse_id":4918,"location":"55:17:2","text_uthmani":"ٱلْمَشْرِقَيْنِ","qpc_uthmani_hafs":"ٱلۡمَشۡرِقَيۡنِ","char_type_name":"word","page_number":531,"line_number":15,"text":"ٱلۡمَشۡرِقَيۡنِ","translation":{"text":"দুই উদয়াচলের","language_name":"bengali","language_id":20},"transliteration":{"text":"l-mashriqayni","language_name":"english","language_id":38}},{"id":19358,"position":3,"audio_url":"wbw/055_017_003.mp3","verse_key":"55:17","verse_id":4918,"location":"55:17:3","text_uthmani":"وَرَبُّ","qpc_uthmani_hafs":"وَرَبُّ","char_type_name":"word","page_number":531,"line_number":15,"text":"وَرَبُّ","translation":{"text":"ও মালিক","language_name":"bengali","language_id":20},"transliteration":{"text":"warabbu","language_name":"english","language_id":38}},{"id":19359,"position":4,"audio_url":"wbw/055_017_004.mp3","verse_key":"55:17","verse_id":4918,"location":"55:17:4","text_uthmani":"ٱلْمَغْرِبَيْنِ","qpc_uthmani_hafs":"ٱلۡمَغۡرِبَيۡنِ","char_type_name":"word","page_number":531,"line_number":15,"text":"ٱلۡمَغۡرِبَيۡنِ","translation":{"text":"দুই অস্তাচলের","language_name":"bengali","language_id":20},"transliteration":{"text":"l-maghribayni","language_name":"english","language_id":38}},{"id":19360,"position":5,"audio_url":null,"verse_key":"55:17","verse_id":4918,"location":"55:17:5","text_uthmani":"١٧","qpc_uthmani_hafs":"١٧","char_type_name":"end","page_number":531,"line_number":15,"text":"١٧","translation":{"text":"(১৭)","language_name":"bengali","language_id":20},"transliteration":{"text":null,"language_name":"english","language_id":38}}]},{"id":4919,"verse_number":18,"verse_key":"55:18","hizb_number":54,"rub_el_hizb_number":213,"ruku_number":468,"manzil_number":7,"sajdah_number":null,"page_number":531,"juz_number":27,"words":[{"id":20415,"position":1,"audio_url":"wbw/055_018_001.mp3","verse_key":"55:18","verse_id":4919,"location":"55:18:1","text_uthmani":"فَبِأَىِّ","qpc_uthmani_hafs":"فَبِأَيِّ","char_type_name":"word","page_number":531,"line_number":15,"text":"فَبِأَيِّ","translation":{"text":"অতএব কোন কোন","language_name":"bengali","language_id":20},"transliteration":{"text":"fabi-ayyi","language_name":"english","language_id":38}},{"id":20416,"position":2,"audio_url":"wbw/055_018_002.mp3","verse_key":"55:18","verse_id":4919,"location":"55:18:2","text_uthmani":"ءَالَآءِ","qpc_uthmani_hafs":"ءَالَآءِ","char_type_name":"word","page_number":531,"line_number":15,"text":"ءَالَآءِ","translation":{"text":"অনুগ্রহকে","language_name":"bengali","language_id":20},"transliteration":{"text":"ālāi","language_name":"english","language_id":38}},{"id":20417,"position":3,"audio_url":"wbw/055_018_003.mp3","verse_key":"55:18","verse_id":4919,"location":"55:18:3","text_uthmani":"رَبِّكُمَا","qpc_uthmani_hafs":"رَبِّكُمَا","char_type_name":"word","page_number":531,"line_number":15,"text":"رَبِّكُمَا","translation":{"text":"তোমাদের উভয়ের রবের","language_name":"bengali","language_id":20},"transliteration":{"text":"rabbikumā","language_name":"english","language_id":38}},{"id":20418,"position":4,"audio_url":"wbw/055_018_004.mp3","verse_key":"55:18","verse_id":4919,"location":"55:18:4","text_uthmani":"تُكَذِّبَانِ","qpc_uthmani_hafs":"تُكَذِّبَانِ","char_type_name":"word","page_number":531,"line_number":15,"text":"تُكَذِّبَانِ","translation":{"text":"উভয়ে অস্বীকার করবে","language_name":"bengali","language_id":20},"transliteration":{"text":"tukadhibāni","language_name":"english","language_id":38}},{"id":20419,"position":5,"audio_url":null,"verse_key":"55:18","verse_id":4919,"location":"55:18:5","text_uthmani":"١٨","qpc_uthmani_hafs":"١٨","char_type_name":"end","page_number":531,"line_number":15,"text":"١٨","translation":{"text":"(১৮)","language_name":"bengali","language_id":20},"transliteration":{"text":null,"language_name":"english","language_id":38}}]},{"id":4920,"verse_number":19,"verse_key":"55:19","hizb_number":54,"rub_el_hizb_number":213,"ruku_number":468,"manzil_number":7,"sajdah_number":null,"page_number":532,"juz_number":27,"words":[{"id":21507,"position":1,"audio_url":"wbw/055_019_001.mp3","verse_key":"55:19","verse_id":4920,"location":"55:19:1","text_uthmani":"مَرَجَ","qpc_uthmani_hafs":"مَرَجَ","char_type_name":"word","page_number":532,"line_number":1,"text":"مَرَجَ","translation":{"text":"প্রবাহিত করেছেন","language_name":"bengali","language_id":20},"transliteration":{"text":"maraja","language_name":"english","language_id":38}},{"id":21508,"position":2,"audio_url":"wbw/055_019_002.mp3","verse_key":"55:19","verse_id":4920,"location":"55:19:2","text_uthmani":"ٱلْبَحْرَيْنِ","qpc_uthmani_hafs":"ٱلۡبَحۡرَيۡنِ","char_type_name":"word","page_number":532,"line_number":1,"text":"ٱلۡبَحۡرَيۡنِ","translation":{"text":"দুই সমুদ্রকে","language_name":"bengali","language_id":20},"transliteration":{"text":"l-baḥrayni","language_name":"english","language_id":38}},{"id":21509,"position":3,"audio_url":"wbw/055_019_003.mp3","verse_key":"55:19","verse_id":4920,"location":"55:19:3","text_uthmani":"يَلْتَقِيَانِ","qpc_uthmani_hafs":"يَلۡتَقِيَانِ","char_type_name":"word","page_number":532,"line_number":1,"text":"يَلۡتَقِيَانِ","translation":{"text":"পরস্পরে মিলিত হয়","language_name":"bengali","language_id":20},"transliteration":{"text":"yaltaqiyāni","language_name":"english","language_id":38}},{"id":21510,"position":4,"audio_url":null,"verse_key":"55:19","verse_id":4920,"location":"55:19:4","text_uthmani":"١٩","qpc_uthmani_hafs":"١٩","char_type_name":"end","page_number":532,"line_number":1,"text":"١٩","translation":{"text":"(১৯)","language_name":"bengali","language_id":20},"transliteration":{"text":null,"language_name":"english","language_id":38}}]},{"id":4921,"verse_number":20,"verse_key":"55:20","hizb_number":54,"rub_el_hizb_number":213,"ruku_number":468,"manzil_number":7,"sajdah_number":null,"page_number":532,"juz_number":27,"words":[{"id":22582,"position":1,"audio_url":"wbw/055_020_001.mp3","verse_key":"55:20","verse_id":4921,"location":"55:20:1","text_uthmani":"بَيْنَهُمَا","qpc_uthmani_hafs":"بَيۡنَهُمَا","char_type_name":"word","page_number":532,"line_number":1,"text":"بَيۡنَهُمَا","translation":{"text":"তাদের উভয়ের মাঝে (তবুও)","language_name":"bengali","language_id":20},"transliteration":{"text":"baynahumā","language_name":"english","language_id":38}},{"id":22583,"position":2,"audio_url":"wbw/055_020_002.mp3","verse_key":"55:20","verse_id":4921,"location":"55:20:2","text_uthmani":"بَرْزَخٌۭ","qpc_uthmani_hafs":"بَرۡزَخٞ","char_type_name":"word","page_number":532,"line_number":1,"text":"بَرۡزَخٞ","translation":{"text":"অন্তরাল (আছে)","language_name":"bengali","language_id":20},"transliteration":{"text":"barzakhun","language_name":"english","language_id":38}},{"id":22584,"position":3,"audio_url":"wbw/055_020_003.mp3","verse_key":"55:20","verse_id":4921,"location":"55:20:3","text_uthmani":"لَّا","qpc_uthmani_hafs":"لَّا","char_type_name":"word","page_number":532,"line_number":1,"text":"لَّا","translation":{"text":"(যার) না","language_name":"bengali","language_id":20},"transliteration":{"text":"lā","language_name":"english","language_id":38}},{"id":22585,"position":4,"audio_url":"wbw/055_020_004.mp3","verse_key":"55:20","verse_id":4921,"location":"55:20:4","text_uthmani":"يَبْغِيَانِ","qpc_uthmani_hafs":"يَبۡغِيَانِ","char_type_name":"word","page_number":532,"line_number":1,"text":"يَبۡغِيَانِ","translation":{"text":"উভয়ে সীমা অতিক্রম করে","language_name":"bengali","language_id":20},"transliteration":{"text":"yabghiyāni","language_name":"english","language_id":38}},{"id":22586,"position":5,"audio_url":null,"verse_key":"55:20","verse_id":4921,"location":"55:20:5","text_uthmani":"٢٠","qpc_uthmani_hafs":"٢٠","char_type_name":"end","page_number":532,"line_number":1,"text":"٢٠","translation":{"text":"(২০)","language_name":"bengali","language_id":20},"transliteration":{"text":null,"language_name":"english","language_id":38}}]}],"pagination":{"per_page":10,"current_page":2,"next_page":3,"total_pages":8,"total_records":78}}
