{"verses":[{"id":4932,"verse_number":31,"verse_key":"55:31","hizb_number":54,"rub_el_hizb_number":213,"ruku_number":469,"manzil_number":7,"sajdah_number":null,"page_number":532,"juz_number":27,"words":[{"id":33861,"position":1,"audio_url":"wbw/055_031_001.mp3","char_type_name":"word","page_number":532,"line_number":7,"text":"سَنَفْرُغُ","translation":{"text":"অবসর হব আমরা শীঘ্রই","language_name":"bengali","language_id":20},"transliteration":{"text":"sanafrughu","language_name":"english","language_id":38}},{"id":33862,"position":2,"audio_url":"wbw/055_031_002.mp3","char_type_name":"word","page_number":532,"line_number":7,"text":"لَكُمْ","translation":{"text":"তোমাদের জন্যে","language_name":"bengali","language_id":20},"transliteration":{"text":"lakum","language_name":"english","language_id":38}},{"id":33863,"position":3,"audio_url":"wbw/055_031_003.mp3","char_type_name":"word","page_number":532,"line_number":7,"text":"أَيُّهَ","translation":{"text":"হে","language_name":"bengali","language_id":20},"transliteration":{"text":"ayyuha","language_name":"english","language_id":38}},{"id":33864,"position":4,"audio_url":"wbw/055_031_004.mp3","char_type_name":"word","page_number":532,"line_number":7,"text":"ٱلثَّقَلَانِ","translation":{"text":"দুই ভার (জিন ও মানব)","language_name":"bengali","language_id":20},"transliteration":{"text":"l-thaqalāni","language_name":"english","language_id":38}},{"id":33865,"position":5,"audio_url":null,"char_type_name":"end","page_number":532,"line_number":7,"text":"٣١","translation":{"text":"(৩১)","language_name":"bengali","language_id":20},"transliteration":{"text":null,"language_name":"english","language_id":38}}]},{"id":4933,"verse_number":32,"verse_key":"55:32","hizb_number":54,"rub_el_hizb_number":213,"ruku_number":469,"manzil_number":7,"sajdah_number":null,"page_number":532,"juz_number":27,"words":[{"id":34638,"position":1,"audio_url":"wbw/055_032_001.mp3","char_type_name":"word","page_number":532,"line_number":7,"text":"فَبِأَىِّ","translation":{"text":"সুতরাং কোন কোন","language_name":"bengali","language_id":20},"transliteration":{"text":"fabi-ayyi","language_name":"english","language_id":38}},{"id":34639,"position":2,"audio_url":"wbw/055_032_002.mp3","char_type_name":"word","page_number":532,"line_number":8,"text":"ءَالَآءِ","translation":{"text":"দয়া অনুগ্রহকে","language_name":"bengali","language_id":20},"transliteration":{"text":"ālāi","language_name":"english","language_id":38}},{"id":34640,"position":3,"audio_url":"wbw/055_032_003.mp3","char_type_name":"word","page_number":532,"line_number":8,"text":"رَبِّكُمَا","translation":{"text":"তোমাদের উভয়ের রবের","language_name":"bengali","language_id":20},"transliteration":{"text":"rabbikumā","language_name":"english","language_id":38}},{"id":34641,"position":4,"audio_url":"wbw/055_032_004.mp3","char_type_name":"word","page_number":532,"line_number":8,"text":"تُكَذِّبَانِ","translation":{"text":"উভয়ে অস্বীকার করবে","language_name":"bengali","language_id":20},"transliteration":{"text":"tukadhibāni","language_name":"english","language_id":38}},{"id":34642,"position":5,"audio_url":null,"char_type_name":"end","page_number":532,"line_number":8,"text":"٣٢","translation":{"text":"(৩২)","language_name":"bengali","language_id":20},"transliteration":{"text":null,"language_name":"english","language_id":38}}]},{"id":4934,"verse_number":33,"verse_key":"55:33","hizb_number":54,"rub_el_hizb_number":213,"ruku_number":469,"manzil_number":7,"sajdah_number":null,"page_number":532,"juz_number":27,"words":[{"id":35426,"position":1,"audio_url":"wbw/055_033_001.mp3","char_type_name":"word","page_number":532,"line_number":8,"text":"يَـٰمَعْشَرَ","translation":{"text":"হে সম্প্রদায়","language_name":"bengali","language_id":20},"transliteration":{"text":"yāmaʿshara","language_name":"english","language_id":38}},{"id":35427,"position":2,"audio_url":"wbw/055_033_002.mp3","char_type_name":"word","page_number":532,"line_number":8,"text":"ٱلْجِنِّ","translation":{"text":"জিনের","language_name":"bengali","language_id":20},"transliteration":{"text":"l-jini","language_name":"english","language_id":38}},{"id":35428,"position":3,"audio_url":"wbw/055_033_003.mp3","char_type_name":"word","page_number":532,"line_number":8,"text":"وَٱلْإِنسِ","translation":{"text":"ও মানবের","language_name":"bengali","language_id":20},"transliteration":{"text":"wal-insi","language_name":"english","language_id":38}},{"id":35429,"position":4,"audio_url":"wbw/055_033_004.mp3","char_type_name":"word","page_number":532,"line_number":8,"text":"إِنِ","translation":{"text":"যদি","language_name":"bengali","language_id":20},"transliteration":{"text":"ini","language_name":"english","language_id":38}},{"id":35430,"position":5,"audio_url":"wbw/055_033_005.mp3","char_type_name":"word","page_number":532,"line_number":8,"text":"ٱسْتَطَعْتُمْ","translation":{"text":"তোমরা পার","language_name":"bengali","language_id":20},"transliteration":{"text":"is'taṭaʿtum","language_name":"english","language_id":38}},{"id":35431,"position":6,"audio_url":"wbw/055_033_006.mp3","char_type_name":"word","page_number":532,"line_number":9,"text":"أَن","translation":{"text":"যে","language_name":"bengali","language_id":20},"transliteration":{"text":"an","language_name":"english","language_id":38}},{"id":35432,"position":7,"audio_url":"wbw/055_033_007.mp3","char_type_name":"word","page_number":532,"line_number":9,"text":"تَنفُذُوا۟","translation":{"text":"তোমরা অতিক্রম করে পালাও","language_name":"bengali","language_id":20},"transliteration":{"text":"tanfudhū","language_name":"english","language_id":38}},{"id":35433,"position":8,"audio_url":"wbw/055_033_008.mp3","char_type_name":"word","page_number":532,"line_number":9,"text":"مِنْ","translation":{"text":"থেকে","language_name":"bengali","language_id":20},"transliteration":{"text":"min","language_name":"english","language_id":38}},{"id":35434,"position":9,"audio_url":"wbw/055_033_009.mp3","char_type_name":"word","page_number":532,"line_number":9,"text":"أَقْطَارِ","translation":{"text":"সীমা সমূহ","language_name":"bengali","language_id":20},"transliteration":{"text":"aqṭāri","language_name":"english","language_id":38}},{"id":35435,"position":10,"audio_url":"wbw/055_033_010.mp3","char_type_name":"word","page_number":532,"line_number":9,"text":"ٱلسَّمَـٰوَٰتِ","translation":{"text":"আকাশের","language_name":"bengali","language_id":20},"transliteration":{"text":"l-samāwāti","language_name":"english","language_id":38}},{"id":35436,"position":11,"audio_url":"wbw/055_033_011.mp3","char_type_name":"word","page_number":532,"line_number":9,"text":"وَٱلْأَرْضِ","translation":{"text":"ও পৃথিবীর","language_name":"bengali","language_id":20},"transliteration":{"text":"wal-arḍi","language_name":"english","language_id":38}},{"id":35437,"position":12,"audio_url":"wbw/055_033_012.mp3","char_type_name":"word","page_number":532,"line_number":9,"text":"فَٱنفُذُوا۟ ۚ","translation":{"text":"তবে তোমরা অতিক্রম করো","language_name":"bengali","language_id":20},"transliteration":{"text":"fa-unfudhū","language_name":"english","language_id":38}},{"id":35439,"position":13,"audio_url":"wbw/055_033_014.mp3","char_type_name":"word","page_number":532,"line_number":9,"text":"لَا","translation":{"text":"না","language_name":"bengali","language_id":20},"transliteration":{"text":"lā","language_name":"english","language_id":38}},{"id":35440,"position":14,"audio_url":"wbw/055_033_015.mp3","char_type_name":"word","page_number":532,"line_number":9,"text":"تَنفُذُونَ","translation":{"text":"তোমরা অতিক্রম করে পালাতে পারবে","language_name":"bengali","language_id":20},"transliteration":{"text":"tanfudhūna","language_name":"english","language_id":38}},{"id":35441,"position":15,"audio_url":"wbw/055_033_016.mp3","char_type_name":"word","page_number":532,"line_number":10,"text":"إِلَّا","translation":{"text":"ব্যতীত","language_name":"bengali","language_id":20},"transliteration":{"text":"illā","language_name":"english","language_id":38}},{"id":35442,"position":16,"audio_url":"wbw/055_033_017.mp3","char_type_name":"word","page_number":532,"line_number":10,"text":"بِسُلْطَـٰنٍۢ","translation":{"text":"শক্তি দিয়ে (যা তোমাদের নেই)","language_name":"bengali","language_id":20},"transliteration":{"text":"bisul'ṭānin","language_name":"english","language_id":38}},{"id":35443,"position":17,"audio_url":null,"char_type_name":"end","page_number":532,"line_number":10,"text":"٣٣","translation":{"text":"(৩৩)","language_name":"bengali","language_id":20},"transliteration":{"text":null,"language_name":"english","language_id":38}}]},{"id":4935,"verse_number":34,"verse_key":"55:34","hizb_number":54,"rub_el_hizb_number":213,"ruku_number":469,"manzil_number":7,"sajdah_number":null,"page_number":532,"juz_number":27,"words":[{"id":36349,"position":1,"audio_url":"wbw/055_034_001.mp3","char_type_name":"word","page_number":532,"line_number":10,"text":"فَبِأَىِّ","translation":{"text":"অতএব কোন কোন","language_name":"bengali","language_id":20},"transliteration":{"text":"fabi-ayyi","language_name":"english","language_id":38}},{"id":36350,"position":2,"audio_url":"wbw/055_034_002.mp3","char_type_name":"word","page_number":532,"line_number":10,"text":"ءَالَآءِ","translation":{"text":"অনুগ্রহকে","language_name":"bengali","language_id":20},"transliteration":{"text":"ālāi","language_name":"english","language_id":38}},{"id":36351,"position":3,"audio_url":"wbw/055_034_003.mp3","char_type_name":"word","page_number":532,"line_number":10,"text":"رَبِّكُمَا","translation":{"text":"তোমাদের উভয়ের রবের","language_name":"bengali","language_id":20},"transliteration":{"text":"rabbikumā","language_name":"english","language_id":38}},{"id":36352,"position":4,"audio_url":"wbw/055_034_004.mp3","char_type_name":"word","page_number":532,"line_number":10,"text":"تُكَذِّبَانِ","translation":{"text":"উভয়ে অস্বীকার করবে","language_name":"bengali","language_id":20},"transliteration":{"text":"tukadhibāni","language_name":"english","language_id":38}},{"id":36353,"position":5,"audio_url":null,"char_type_name":"end","page_number":532,"line_number":10,"text":"٣٤","translation":{"text":"(৩৪)","language_name":"bengali","language_id":20},"transliteration":{"text":null,"language_name":"english","language_id":38}}]},{"id":4936,"verse_number":35,"verse_key":"55:35","hizb_number":54,"rub_el_hizb_number":213,"ruku_number":469,"manzil_number":7,"sajdah_number":null,"page_number":532,"juz_number":27,"words":[{"id":37563,"position":1,"audio_url":"wbw/055_035_001.mp3","char_type_name":"word","page_number":532,"line_number":10,"text":"يُرْسَلُ","translation":{"text":"পাঠানো হবে","language_name":"bengali","language_id":20},"transliteration":{"text":"yur'salu","language_name":"english","language_id":38}},{"id":37564,"position":2,"audio_url":"wbw/055_035_002.mp3","char_type_name":"word","page_number":532,"line_number":10,"text":"عَلَيْكُمَا","translation":{"text":"তোমাদের উভয়ের উপর","language_name":"bengali","language_id":20},"transliteration":{"text":"ʿalaykumā","language_name":"english","language_id":38}},{"id":37565,"position":3,"audio_url":"wbw/055_035_003.mp3","char_type_name":"word","page_number":532,"line_number":11,"text":"شُوَاظٌۭ","translation":{"text":"শিখা","language_name":"bengali","language_id":20},"transliteration":{"text":"shuwāẓun","language_name":"english","language_id":38}},{"id":37566,"position":4,"audio_url":"wbw/055_035_004.mp3","char_type_name":"word","page_number":532,"line_number":11,"text":"مِّن","translation":{"text":"থেকে","language_name":"bengali","language_id":20},"transliteration":{"text":"min","language_name":"english","language_id":38}},{"id":37567,"position":5,"audio_url":"wbw/055_035_005.mp3","char_type_name":"word","page_number":532,"line_number":11,"text":"نَّارٍۢ","translation":{"text":"আগুন","language_name":"bengali","language_id":20},"transliteration":{"text":"nārin","language_name":"english","language_id":38}},{"id":37568,"position":6,"audio_url":"wbw/055_035_006.mp3","char_type_name":"word","page_number":532,"line_number":11,"text":"وَنُحَاسٌۭ","translation":{"text":"ও ধোঁয়া","language_name":"bengali","language_id":20},"transliteration":{"text":"wanuḥāsun","language_name":"english","language_id":38}},{"id":37569,"position":7,"audio_url":"wbw/055_035_007.mp3","char_type_name":"word","page_number":532,"line_number":11,"text":"فَلَا","translation":{"text":"না তখন","language_name":"bengali","language_id":20},"transliteration":{"text":"falā","language_name":"english","language_id":38}},{"id":37570,"position":8,"audio_url":"wbw/055_035_008.mp3","char_type_name":"word","page_number":532,"line_number":11,"text":"تَنتَصِرَانِ","translation":{"text":"তোমরা প্রতিরোধ করতে পারবে","language_name":"bengali","language_id":20},"transliteration":{"text":"tantaṣirāni","language_name":"english","language_id":38}},{"id":37571,"position":9,"audio_url":null,"char_type_name":"end","page_number":532,"line_number":11,"text":"٣٥","translation":{"text":"(৩৫)","language_name":"bengali","language_id":20},"transliteration":{"text":null,"language_name":"english","language_id":38}}]},{"id":4937,"verse_number":36,"verse_key":"55:36","hizb_number":54,"rub_el_hizb_number":213,"ruku_number":469,"manzil_number":7,"sajdah_number":null,"page_number":532,"juz_number":27,"words":[{"id":38021,"position":1,"audio_url":"wbw/055_036_001.mp3","char_type_name":"word","page_number":532,"line_number":11,"text":"فَبِأَىِّ","translation":{"text":"সুতরাং কোন কোন","language_name":"bengali","language_id":20},"transliteration":{"text":"fabi-ayyi","language_name":"english","language_id":38}},{"id":38022,"position":2,"audio_url":"wbw/055_036_002.mp3","char_type_name":"word","page_number":532,"line_number":11,"text":"ءَالَآءِ","translation":{"text":"অনুগ্রহকে","language_name":"bengali","language_id":20},"transliteration":{"text":"ālāi","language_name":"english","language_id":38}},{"id":38023,"position":3,"audio_url":"wbw/055_036_003.mp3","char_type_name":"word","page_number":532,"line_number":11,"text":"رَبِّكُمَا","translation":{"text":"তোমাদের উভয়ের রবের","language_name":"bengali","language_id":20},"transliteration":{"text":"rabbikumā","language_name":"english","language_id":38}},{"id":38024,"position":4,"audio_url":"wbw/055_036_004.mp3","char_type_name":"word","page_number":532,"line_number":12,"text":"تُكَذِّبَانِ","translation":{"text":"উভয়ে অস্বীকার করবে","language_name":"bengali","language_id":20},"transliteration":{"text":"tukadhibāni","language_name":"english","language_id":38}},{"id":38025,"position":5,"audio_url":null,"char_type_name":"end","page_number":532,"line_number":12,"text":"٣٦","translation":{"text":"(৩৬)","language_name":"bengali","language_id":20},"transliteration":{"text":null,"language_name":"english","language_id":38}}]},{"id":4938,"verse_number":37,"verse_key":"55:37","hizb_number":54,"rub_el_hizb_number":213,"ruku_number":469,"manzil_number":7,"sajdah_number":null,"page_number":532,"juz_number":27,"words":[{"id":38835,"position":1,"audio_url":"wbw/055_037_001.mp3","char_type_name":"word","page_number":532,"line_number":12,"text":"فَإِذَا","translation":{"text":"যখন অতঃপর","language_name":"bengali","language_id":20},"transliteration":{"text":"fa-idhā","language_name":"english","language_id":38}},{"id":38836,"position":2,"audio_url":"wbw/055_037_002.mp3","char_type_name":"word","page_number":532,"line_number":12,"text":"ٱنشَقَّتِ","translation":{"text":"ছিঁড়েফেটে","language_name":"bengali","language_id":20},"transliteration":{"text":"inshaqqati","language_name":"english","language_id":38}},{"id":38837,"position":3,"audio_url":"wbw/055_037_003.mp3","char_type_name":"word","page_number":532,"line_number":12,"text":"ٱلسَّمَآءُ","translation":{"text":"আকাশ","language_name":"bengali","language_id":20},"transliteration":{"text":"l-samāu","language_name":"english","language_id":38}},{"id":38838,"position":4,"audio_url":"wbw/055_037_004.mp3","char_type_name":"word","page_number":532,"line_number":12,"text":"فَكَانَتْ","translation":{"text":"অতঃপর হবে (তা)","language_name":"bengali","language_id":20},"transliteration":{"text":"fakānat","language_name":"english","language_id":38}},{"id":38839,"position":5,"audio_url":"wbw/055_037_005.mp3","char_type_name":"word","page_number":532,"line_number":12,"text":"وَرْدَةًۭ","translation":{"text":"লাল","language_name":"bengali","language_id":20},"transliteration":{"text":"wardatan","language_name":"english","language_id":38}},{"id":38840,"position":6,"audio_url":"wbw/055_037_006.mp3","char_type_name":"word","page_number":532,"line_number":12,"text":"كَٱلدِّهَانِ","translation":{"text":"মতো লাল চামড়ার","language_name":"bengali","language_id":20},"transliteration":{"text":"kal-dihāni","language_name":"english","language_id":38}},{"id":38841,"position":7,"audio_url":null,"char_type_name":"end","page_number":532,"line_number":13,"text":"٣٧","translation":{"text":"(৩৭)","language_name":"bengali","language_id":20},"transliteration":{"text":null,"language_name":"english","language_id":38}}]},{"id":4939,"verse_number":38,"verse_key":"55:38","hizb_number":54,"rub_el_hizb_number":213,"ruku_number":469,"manzil_number":7,"sajdah_number":null,"page_number":532,"juz_number":27,"words":[{"id":39722,"position":1,"audio_url":"wbw/055_038_001.mp3","char_type_name":"word","page_number":532,"line_number":13,"text":"فَبِأَىِّ","translation":{"text":"তখন কোন কোন","language_name":"bengali","language_id":20},"transliteration":{"text":"fabi-ayyi","language_name":"english","language_id":38}},{"id":39723,"position":2,"audio_url":"wbw/055_038_002.mp3","char_type_name":"word","page_number":532,"line_number":13,"text":"ءَالَآءِ","translation":{"text":"অনুগ্রহকে","language_name":"bengali","language_id":20},"transliteration":{"text":"ālāi","language_name":"english","language_id":38}},{"id":39724,"position":3,"audio_url":"wbw/055_038_003.mp3","char_type_name":"word","page_number":532,"line_number":13,"text":"رَبِّكُمَا","translation":{"text":"তোমাদের উভয়ের রবের","language_name":"bengali","language_id":20},"transliteration":{"text":"rabbikumā","language_name":"english","language_id":38}},{"id":39725,"position":4,"audio_url":"wbw/055_038_004.mp3","char_type_name":"word","page_number":532,"line_number":13,"text":"تُكَذِّبَانِ","translation":{"text":"উভয়ে অস্বীকার করবে","language_name":"bengali","language_id":20},"transliteration":{"text":"tukadhibāni","language_name":"english","language_id":38}},{"id":39726,"position":5,"audio_url":null,"char_type_name":"end","page_number":532,"line_number":13,"text":"٣٨","translation":{"text":"(৩৮)","language_name":"bengali","language_id":20},"transliteration":{"text":null,"language_name":"english","language_id":38}}]},{"id":4940,"verse_number":39,"verse_key":"55:39","hizb_number":54,"rub_el_hizb_number":213,"ruku_number":469,"manzil_number":7,"sajdah_number":null,"page_number":532,"juz_number":27,"words":[{"id":40782,"position":1,"audio_url":"wbw/055_039_001.mp3","char_type_name":"word","page_number":532,"line_number":13,"text":"فَيَوْمَئِذٍۢ","translation":{"text":"সেদিন অতঃপর","language_name":"bengali","language_id":20},"transliteration":{"text":"fayawma-idhin","language_name":"english","language_id":38}},{"id":40783,"position":2,"audio_url":"wbw/055_039_002.mp3","char_type_name":"word","page_number":532,"line_number":13,"text":"لَّا","translation":{"text":"না","language_name":"bengali","language_id":20},"transliteration":{"text":"lā","language_name":"english","language_id":38}},{"id":40784,"position":3,"audio_url":"wbw/055_039_003.mp3","char_type_name":"word","page_number":532,"line_number":13,"text":"يُسْـَٔلُ","translation":{"text":"জিজ্ঞেস করা হবে","language_name":"bengali","language_id":20},"transliteration":{"text":"yus'alu","language_name":"english","language_id":38}},{"id":40785,"position":4,"audio_url":"wbw/055_039_004.mp3","char_type_name":"word","page_number":532,"line_number":13,"text":"عَن","translation":{"text":"সম্পর্কে","language_name":"bengali","language_id":20},"transliteration":{"text":"ʿan","language_name":"english","language_id":38}},{"id":40786,"position":5,"audio_url":"wbw/055_039_005.mp3","char_type_name":"word","page_number":532,"line_number":14,"text":"ذَنۢبِهِۦٓ","translation":{"text":"তার পাপ","language_name":"bengali","language_id":20},"transliteration":{"text":"dhanbihi","language_name":"english","language_id":38}},{"id":40787,"position":6,"audio_url":"wbw/055_039_006.mp3","char_type_name":"word","page_number":532,"line_number":14,"text":"إِنسٌۭ","translation":{"text":"কোনো মানবকে","language_name":"bengali","language_id":20},"transliteration":{"text":"insun","language_name":"english","language_id":38}},{"id":40788,"position":7,"audio_url":"wbw/055_039_007.mp3","char_type_name":"word","page_number":532,"line_number":14,"text":"وَلَا","translation":{"text":"আর না","language_name":"bengali","language_id":20},"transliteration":{"text":"walā","language_name":"english","language_id":38}},{"id":40789,"position":8,"audio_url":"wbw/055_039_008.mp3","char_type_name":"word","page_number":532,"line_number":14,"text":"جَآنٌّۭ","translation":{"text":"কোনো জিনকে","language_name":"bengali","language_id":20},"transliteration":{"text":"jānnun","language_name":"english","language_id":38}},{"id":40790,"position":9,"audio_url":null,"char_type_name":"end","page_number":532,"line_number":14,"text":"٣٩","translation":{"text":"(৩৯)","language_name":"bengali","language_id":20},"transliteration":{"text":null,"language_name":"english","language_id":38}}]},{"id":4941,"verse_number":40,"verse_key":"55:40","hizb_number":54,"rub_el_hizb_number":213,"ruku_number":469,"manzil_number":7,"sajdah_number":null,"page_number":532,"juz_number":27,"words":[{"id":41246,"position":1,"audio_url":"wbw/055_040_001.mp3","char_type_name":"word","page_number":532,"line_number":14,"text":"فَبِأَىِّ","translation":{"text":"তখন কোন কোন","language_name":"bengali","language_id":20},"transliteration":{"text":"fabi-ayyi","language_name":"english","language_id":38}},{"id":41247,"position":2,"audio_url":"wbw/055_040_002.mp3","char_type_name":"word","page_number":532,"line_number":14,"text":"ءَالَآءِ","translation":{"text":"অনুগ্রহকে","language_name":"bengali","language_id":20},"transliteration":{"text":"ālāi","language_name":"english","language_id":38}},{"id":41248,"position":3,"audio_url":"wbw/055_040_003.mp3","char_type_name":"word","page_number":532,"line_number":14,"text":"رَبِّكُمَا","translation":{"text":"তোমাদের উভয়ের রবের","language_name":"bengali","language_id":20},"transliteration":{"text":"rabbikumā","language_name":"english","language_id":38}},{"id":41249,"position":4,"audio_url":"wbw/055_040_004.mp3","char_type_name":"word","page_number":532,"line_number":14,"text":"تُكَذِّبَانِ","translation":{"text":"উভয়ে অস্বীকার করবে","language_name":"bengali","language_id":20},"transliteration":{"text":"tukadhibāni","language_name":"english","language_id":38}},{"id":41250,"position":5,"audio_url":null,"char_type_name":"end","page_number":532,"line_number":14,"text":"٤٠","translation":{"text":"(৪০)","language_name":"bengali","language_id":20},"transliteration":{"text":null,"language_name":"english","language_id":38}}]}],"pagination":{"per_page":10,"current_page":4,"next_page":5,"total_pages":8,"total_records":78}}
