{"verses":[{"id":4942,"verse_number":41,"verse_key":"55:41","hizb_number":54,"rub_el_hizb_number":213,"ruku_number":469,"manzil_number":7,"sajdah_number":null,"page_number":532,"juz_number":27,"words":[{"id":42122,"position":1,"audio_url":"wbw/055_041_001.mp3","verse_key":"55:41","verse_id":4942,"location":"55:41:1","text_uthmani":"يُعْرَفُ","qpc_uthmani_hafs":"يُعۡرَفُ","char_type_name":"word","page_number":532,"line_number":15,"text":"يُعۡرَفُ","translation":{"text":"চেনা যাবে","language_name":"bengali","language_id":20},"transliteration":{"text":"yuʿ'rafu","language_name":"english","language_id":38}},{"id":42123,"position":2,"audio_url":"wbw/055_041_002.mp3","verse_key":"55:41","verse_id":4942,"location":"55:41:2","text_uthmani":"ٱلْمُجْرِمُونَ","qpc_uthmani_hafs":"ٱلۡمُجۡرِمُونَ","char_type_name":"word","page_number":532,"line_number":15,"text":"ٱلۡمُجۡرِمُونَ","translation":{"text":"অপরাধীদেরকে","language_name":"bengali","language_id":20},"transliteration":{"text":"l-muj'rimūna","language_name":"english","language_id":38}},{"id":42124,"position":3,"audio_url":"wbw/055_041_003.mp3","verse_key":"55:41","verse_id":4942,"location":"55:41:3","text_uthmani":"بِسِيمَـٰهُمْ","qpc_uthmani_hafs":"بِسِيمَٰهُمۡ","char_type_name":"word","page_number":532,"line_number":15,"text":"بِسِيمَٰهُمۡ","translation":{"text":"তাদের লক্ষণ দ্বারা","language_name":"bengali","language_id":20},"transliteration":{"text":"bisīmāhum","language_name":"english","language_id":38}},{"id":42125,"position":4,"audio_url":"wbw/055_041_004.mp3","verse_key":"55:41","verse_id":4942,"location":"55:41:4","text_uthmani":"فَيُؤْخَذُ","qpc_uthmani_hafs":"فَيُؤۡخَذُ","char_type_name":"word","page_number":532,"line_number":15,"text":"فَيُؤۡخَذُ","translation":{"text":"পাকড়াও করা হবে অতঃপর","language_name":"bengali","language_id":20},"transliteration":{"text":"fayu'khadhu","language_name":"english","language_id":38}},{"id":42126,"position":5,"audio_url":"wbw/055_041_005.mp3","verse_key":"55:41","verse_id":4942,"location":"55:41:5","text_uthmani":"بِٱلنَّوَٰصِى","qpc_uthmani_hafs":"بِٱلنَّوَٰصِي","char_type_name":"word","page_number":532,"line_number":15,"text":"بِٱلنَّوَٰصِي","translation":{"text":"সামনের চুল ধরে","language_name":"bengali","language_id":20},"transliteration":{"text":"bil-nawāṣī","language_name":"english","language_id":38}},{"id":42127,"position":6,"audio_url":"wbw/055_041_006.mp3","verse_key":"55:41","verse_id":4942,"location":"55:41:6","text_uthmani":"وَٱلْأَقْدَامِ","qpc_uthmani_hafs":"وَٱلۡأَقۡدَامِ","char_type_name":"word","page_number":532,"line_number":15,"text":"وَٱلۡأَقۡدَامِ","translation":{"text":"ও পা সমূহকে","language_name":"bengali","language_id":20},"transliteration":{"text":"wal-aqdāmi","language_name":"english","language_id":38}},{"id":42128,"position":7,"audio_url":null,"verse_key":"55:41","verse_id":4942,"location":"55:41:7","text_uthmani":"٤١","qpc_uthmani_hafs":"٤١","char_type_name":"end","page_number":532,"line_number":15,"text":"٤١","translation":{"text":"(৪১)","language_name":"bengali","language_id":20},"transliteration":{"text":null,"language_name":"english","language_id":38}}]},{"id":4943,"verse_number":42,"verse_key":"55:42","hizb_number":54,"rub_el_hizb_number":213,"ruku_number":469,"manzil_number":7,"sajdah_number":null,"page_number":533,"juz_number":27,"words":[{"id":42952,"position":1,"audio_url":"wbw/055_042_001.mp3","verse_key":"55:42","verse_id":4943,"location":"55:42:1","text_uthmani":"فَبِأَىِّ","qpc_uthmani_hafs":"فَبِأَيِّ","char_type_name":"word","page_number":533,"line_number":1,"text":"فَبِأَيِّ","translation":{"text":"তখন কোন কোন","language_name":"bengali","language_id":20},"transliteration":{"text":"fabi-ayyi","language_name":"english","language_id":38}},{"id":42953,"position":2,"audio_url":"wbw/055_042_002.mp3","verse_key":"55:42","verse_id":4943,"location":"55:42:2","text_uthmani":"ءَالَآءِ","qpc_uthmani_hafs":"ءَالَآءِ","char_type_name":"word","page_number":533,"line_number":1,"text":"ءَالَآءِ","translation":{"text":"অনুগ্রহ","language_name":"bengali","language_id":20},"transliteration":{"text":"ālāi","language_name":"english","language_id":38}},{"id":42954,"position":3,"audio_url":"wbw/055_042_003.mp3","verse_key":"55:42","verse_id":4943,"location":"55:42:3","text_uthmani":"رَبِّكُمَا","qpc_uthmani_hafs":"رَبِّكُمَا","char_type_name":"word","page_number":533,"line_number":1,"text":"رَبِّكُمَا","translation":{"text":"তোমাদের উভয়ের রবের","language_name":"bengali","language_id":20},"transliteration":{"text":"rabbikumā","language_name":"english","language_id":38}},{"id":42955,"position":4,"audio_url":"wbw/055_042_004.mp3","verse_key":"55:42","verse_id":4943,"location":"55:42:4","text_uthmani":"تُكَذِّبَانِ","qpc_uthmani_hafs":"تُكَذِّبَانِ","char_type_name":"word","page_number":533,"line_number":1,"text":"تُكَذِّبَانِ","translation":{"text":"উভয়ে অস্বীকার করবে","language_name":"bengali","language_id":20},"transliteration":{"text":"tukadhibāni","language_name":"english","language_id":38}},{"id":42956,"position":5,"audio_url":null,"verse_key":"55:42","verse_id":4943,"location":"55:42:5","text_uthmani":"٤٢","qpc_uthmani_hafs":"٤٢","char_type_name":"end","page_number":533,"line_number":1,"text":"٤٢","translation":{"text":"(৪২)","language_name":"bengali","language_id":20},"transliteration":{"text":null,"language_name":"english","language_id":38}}]},{"id":4944,"verse_number":43,"verse_key":"55:43","hizb_number":54,"rub_el_hizb_number":213,"ruku_number":469,"manzil_number":7,"sajdah_number":null,"page_number":533,"juz_number":27,"words":[{"id":43641,"position":1,"audio_url":"wbw/055_043_001.mp3","verse_key":"55:43","verse_id":4944,"location":"55:43:1","text_uthmani":"هَـٰذِهِۦ","qpc_uthmani_hafs":"هَٰذِهِۦ","char_type_name":"word","page_number":533,"line_number":1,"text":"هَٰذِهِۦ","translation":{"text":"(বলা হবে) এই সেই","language_name":"bengali","language_id":20},"transliteration":{"text":"hādhihi","language_name":"english","language_id":38}},{"id":43642,"position":2,"audio_url":"wbw/055_043_002.mp3","verse_key":"55:43","verse_id":4944,"location":"55:43:2","text_uthmani":"جَهَنَّمُ","qpc_uthmani_hafs":"جَهَنَّمُ","char_type_name":"word","page_number":533,"line_number":1,"text":"جَهَنَّمُ","translation":{"text":"জাহান্নাম","language_name":"bengali","language_id":20},"transliteration":{"text":"jahannamu","language_name":"english","language_id":38}},{"id":43643,"position":3,"audio_url":"wbw/055_043_003.mp3","verse_key":"55:43","verse_id":4944,"location":"55:43:3","text_uthmani":"ٱلَّتِى","qpc_uthmani_hafs":"ٱلَّتِي","char_type_name":"word","page_number":533,"line_number":1,"text":"ٱلَّتِي","translation":{"text":"যা","language_name":"bengali","language_id":20},"transliteration":{"text":"allatī","language_name":"english","language_id":38}},{"id":43644,"position":4,"audio_url":"wbw/055_043_004.mp3","verse_key":"55:43","verse_id":4944,"location":"55:43:4","text_uthmani":"يُكَذِّبُ","qpc_uthmani_hafs":"يُكَذِّبُ","char_type_name":"word","page_number":533,"line_number":1,"text":"يُكَذِّبُ","translation":{"text":"মিথ্যা মনে করত","language_name":"bengali","language_id":20},"transliteration":{"text":"yukadhibu","language_name":"english","language_id":38}},{"id":43645,"position":5,"audio_url":"wbw/055_043_005.mp3","verse_key":"55:43","verse_id":4944,"location":"55:43:5","text_uthmani":"بِهَا","qpc_uthmani_hafs":"بِهَا","char_type_name":"word","page_number":533,"line_number":1,"text":"بِهَا","translation":{"text":"যাকে","language_name":"bengali","language_id":20},"transliteration":{"text":"bihā","language_name":"english","language_id":38}},{"id":43646,"position":6,"audio_url":"wbw/055_043_006.mp3","verse_key":"55:43","verse_id":4944,"location":"55:43:6","text_uthmani":"ٱلْمُجْرِمُونَ","qpc_uthmani_hafs":"ٱلۡمُجۡرِمُونَ","char_type_name":"word","page_number":533,"line_number":2,"text":"ٱلۡمُجۡرِمُونَ","translation":{"text":"অপরাধীরা","language_name":"bengali","language_id":20},"transliteration":{"text":"l-muj'rimūna","language_name":"english","language_id":38}},{"id":43647,"position":7,"audio_url":null,"verse_key":"55:43","verse_id":4944,"location":"55:43:7","text_uthmani":"٤٣","qpc_uthmani_hafs":"٤٣","char_type_name":"end","page_number":533,"line_number":2,"text":"٤٣","translation":{"text":"(৪৩)","language_name":"bengali","language_id":20},"transliteration":{"text":null,"language_name":"english","language_id":38}}]},{"id":4945,"verse_number":44,"verse_key":"55:44","hizb_number":54,"rub_el_hizb_number":213,"ruku_number":469,"manzil_number":7,"sajdah_number":null,"page_number":533,"juz_number":27,"words":[{"id":44390,"position":1,"audio_url":"wbw/055_044_001.mp3","verse_key":"55:44","verse_id":4945,"location":"55:44:1","text_uthmani":"يَطُوفُونَ","qpc_uthmani_hafs":"يَطُوفُونَ","char_type_name":"word","page_number":533,"line_number":2,"text":"يَطُوفُونَ","translation":{"text":"তারা ছুটোছুটি করবে","language_name":"bengali","language_id":20},"transliteration":{"text":"yaṭūfūna","language_name":"english","language_id":38}},{"id":44391,"position":2,"audio_url":"wbw/055_044_002.mp3","verse_key":"55:44","verse_id":4945,"location":"55:44:2","text_uthmani":"بَيْنَهَا","qpc_uthmani_hafs":"بَيۡنَهَا","char_type_name":"word","page_number":533,"line_number":2,"text":"بَيۡنَهَا","translation":{"text":"তার মাঝে","language_name":"bengali","language_id":20},"transliteration":{"text":"baynahā","language_name":"english","language_id":38}},{"id":44392,"position":3,"audio_url":"wbw/055_044_003.mp3","verse_key":"55:44","verse_id":4945,"location":"55:44:3","text_uthmani":"وَبَيْنَ","qpc_uthmani_hafs":"وَبَيۡنَ","char_type_name":"word","page_number":533,"line_number":2,"text":"وَبَيۡنَ","translation":{"text":"ও মাঝে","language_name":"bengali","language_id":20},"transliteration":{"text":"wabayna","language_name":"english","language_id":38}},{"id":44393,"position":4,"audio_url":"wbw/055_044_004.mp3","verse_key":"55:44","verse_id":4945,"location":"55:44:4","text_uthmani":"حَمِيمٍ","qpc_uthmani_hafs":"حَمِيمٍ","char_type_name":"word","page_number":533,"line_number":2,"text":"حَمِيمٍ","translation":{"text":"গরম পানির","language_name":"bengali","language_id":20},"transliteration":{"text":"ḥamīmin","language_name":"english","language_id":38}},{"id":44394,"position":5,"audio_url":"wbw/055_044_005.mp3","verse_key":"55:44","verse_id":4945,"location":"55:44:5","text_uthmani":"ءَانٍۢ","qpc_uthmani_hafs":"ءَانٖ","char_type_name":"word","page_number":533,"line_number":2,"text":"ءَانٖ","translation":{"text":"ফুটন্ত","language_name":"bengali","language_id":20},"transliteration":{"text":"ānin","language_name":"english","language_id":38}},{"id":44395,"position":6,"audio_url":null,"verse_key":"55:44","verse_id":4945,"location":"55:44:6","text_uthmani":"٤٤","qpc_uthmani_hafs":"٤٤","char_type_name":"end","page_number":533,"line_number":2,"text":"٤٤","translation":{"text":"(৪৪)","language_name":"bengali","language_id":20},"transliteration":{"text":null,"language_name":"english","language_id":38}}]},{"id":4946,"verse_number":45,"verse_key":"55:45","hizb_number":54,"rub_el_hizb_number":213,"ruku_number":469,"manzil_number":7,"sajdah_number":null,"page_number":533,"juz_number":27,"words":[{"id":45150,"position":1,"audio_url":"wbw/055_045_001.mp3","verse_key":"55:45","verse_id":4946,"location":"55:45:1","text_uthmani":"فَبِأَىِّ","qpc_uthmani_hafs":"فَبِأَيِّ","char_type_name":"word","page_number":533,"line_number":2,"text":"فَبِأَيِّ","translation":{"text":"তখন কোন কোন","language_name":"bengali","language_id":20},"transliteration":{"text":"fabi-ayyi","language_name":"english","language_id":38}},{"id":45151,"position":2,"audio_url":"wbw/055_045_002.mp3","verse_key":"55:45","verse_id":4946,"location":"55:45:2","text_uthmani":"ءَالَآءِ","qpc_uthmani_hafs":"ءَالَآءِ","char_type_name":"word","page_number":533,"line_number":2,"text":"ءَالَآءِ","translation":{"text":"অনুগ্রহকে","language_name":"bengali","language_id":20},"transliteration":{"text":"ālāi","language_name":"english","language_id":38}},{"id":45152,"position":3,"audio_url":"wbw/055_045_003.mp3","verse_key":"55:45","verse_id":4946,"location":"55:45:3","text_uthmani":"رَبِّكُمَا","qpc_uthmani_hafs":"رَبِّكُمَا","char_type_name":"word","page_number":533,"line_number":3,"text":"رَبِّكُمَا","translation":{"text":"তোমাদের উভয়ের রবের","language_name":"bengali","language_id":20},"transliteration":{"text":"rabbikumā","language_name":"english","language_id":38}},{"id":45153,"position":4,"audio_url":"wbw/055_045_004.mp3","verse_key":"55:45","verse_id":4946,"location":"55:45:4","text_uthmani":"تُكَذِّبَانِ","qpc_uthmani_hafs":"تُكَذِّبَانِ","char_type_name":"word","page_number":533,"line_number":3,"text":"تُكَذِّبَانِ","translation":{"text":"উভয়ে অস্বীকার করবে","language_name":"bengali","language_id":20},"transliteration":{"text":"tukadhibāni","language_name":"english","language_id":38}},{"id":45154,"position":5,"audio_url":null,"verse_key":"55:45","verse_id":4946,"location":"55:45:5","text_uthmani":"٤٥","qpc_uthmani_hafs":"٤٥","char_type_name":"end","page_number":533,"line_number":3,"text":"٤٥","translation":{"text":"(৪৫)","language_name":"bengali","language_id":20},"transliteration":{"text":null,"language_name":"english","language_id":38}}]},{"id":4947,"verse_number":46,"verse_key":"55:46","hizb_number":54,"rub_el_hizb_number":213,"ruku_number":470,"manzil_number":7,"sajdah_number":null,"page_number":533,"juz_number":27,"words":[{"id":45871,"position":1,"audio_url":"wbw/055_046_001.mp3","verse_key":"55:46","verse_id":4947,"location":"55:46:1","text_uthmani":"وَلِمَنْ","qpc_uthmani_hafs":"وَلِمَنۡ","char_type_name":"word","page_number":533,"line_number":3,"text":"وَلِمَنۡ","translation":{"text":"এবং তার জন্যে যে","language_name":"bengali","language_id":20},"transliteration":{"text":"waliman","language_name":"english","language_id":38}},{"id":45872,"position":2,"audio_url":"wbw/055_046_002.mp3","verse_key":"55:46","verse_id":4947,"location":"55:46:2","text_uthmani":"خَافَ","qpc_uthmani_hafs":"خَافَ","char_type_name":"word","page_number":533,"line_number":3,"text":"خَافَ","translation":{"text":"ভয় করে","language_name":"bengali","language_id":20},"transliteration":{"text":"khāfa","language_name":"english","language_id":38}},{"id":45873,"position":3,"audio_url":"wbw/055_046_003.mp3","verse_key":"55:46","verse_id":4947,"location":"55:46:3","text_uthmani":"مَقَامَ","qpc_uthmani_hafs":"مَقَامَ","char_type_name":"word","page_number":533,"line_number":3,"text":"مَقَامَ","translation":{"text":"দাঁড়াতে","language_name":"bengali","language_id":20},"transliteration":{"text":"maqāma","language_name":"english","language_id":38}},{"id":45874,"position":4,"audio_url":"wbw/055_046_004.mp3","verse_key":"55:46","verse_id":4947,"location":"55:46:4","text_uthmani":"رَبِّهِۦ","qpc_uthmani_hafs":"رَبِّهِۦ","char_type_name":"word","page_number":533,"line_number":3,"text":"رَبِّهِۦ","translation":{"text":"তার রবের (সামনে)","language_name":"bengali","language_id":20},"transliteration":{"text":"rabbihi","language_name":"english","language_id":38}},{"id":45875,"position":5,"audio_url":"wbw/055_046_005.mp3","verse_key":"55:46","verse_id":4947,"location":"55:46:5","text_uthmani":"جَنَّتَانِ","qpc_uthmani_hafs":"جَنَّتَانِ","char_type_name":"word","page_number":533,"line_number":3,"text":"جَنَّتَانِ","translation":{"text":"দুটো বাগান (রয়েছে)","language_name":"bengali","language_id":20},"transliteration":{"text":"jannatāni","language_name":"english","language_id":38}},{"id":45876,"position":6,"audio_url":null,"verse_key":"55:46","verse_id":4947,"location":"55:46:6","text_uthmani":"٤٦","qpc_uthmani_hafs":"٤٦","char_type_name":"end","page_number":533,"line_number":3,"text":"٤٦","translation":{"text":"(৪৬)","language_name":"bengali","language_id":20},"transliteration":{"text":null,"language_name":"english","language_id":38}}]},{"id":4948,"verse_number":47,"verse_key":"55:47","hizb_number":54,"rub_el_hizb_number":213,"ruku_number":470,"manzil_number":7,"sajdah_number":null,"page_number":533,"juz_number":27,"words":[{"id":46666,"position":1,"audio_url":"wbw/055_047_001.mp3","verse_key":"55:47","verse_id":4948,"location":"55:47:1","text_uthmani":"فَبِأَىِّ","qpc_uthmani_hafs":"فَبِأَيِّ","char_type_name":"word","page_number":533,"line_number":3,"text":"فَبِأَيِّ","translation":{"text":"সুতরাং কোন কোন","language_name":"bengali","language_id":20},"transliteration":{"text":"fabi-ayyi","language_name":"english","language_id":38}},{"id":46667,"position":2,"audio_url":"wbw/055_047_002.mp3","verse_key":"55:47","verse_id":4948,"location":"55:47:2","text_uthmani":"ءَالَآءِ","qpc_uthmani_hafs":"ءَالَآءِ","char_type_name":"word","page_number":533,"line_number":4,"text":"ءَالَآءِ","translation":{"text":"অনুগ্রহকে","language_name":"bengali","language_id":20},"transliteration":{"text":"ālāi","language_name":"english","language_id":38}},{"id":46668,"position":3,"audio_url":"wbw/055_047_003.mp3","verse_key":"55:47","verse_id":4948,"location":"55:47:3","text_uthmani":"رَبِّكُمَا","qpc_uthmani_hafs":"رَبِّكُمَا","char_type_name":"word","page_number":533,"line_number":4,"text":"رَبِّكُمَا","translation":{"text":"তোমাদের উভয়ের রবের","language_name":"bengali","language_id":20},"transliteration":{"text":"rabbikumā","language_name":"english","language_id":38}},{"id":46669,"position":4,"audio_url":"wbw/055_047_004.mp3","verse_key":"55:47","verse_id":4948,"location":"55:47:4","text_uthmani":"تُكَذِّبَانِ","qpc_uthmani_hafs":"تُكَذِّبَانِ","char_type_name":"word","page_number":533,"line_number":4,"text":"تُكَذِّبَانِ","translation":{"text":"উভয়ে অস্বীকার করবে","language_name":"bengali","language_id":20},"transliteration":{"text":"tukadhibāni","language_name":"english","language_id":38}},{"id":46670,"position":5,"audio_url":null,"verse_key":"55:47","verse_id":4948,"location":"55:47:5","text_uthmani":"٤٧","qpc_uthmani_hafs":"٤٧","char_type_name":"end","page_number":533,"line_number":4,"text":"٤٧","translation":{"text":"(৪৭)","language_name":"bengali","language_id":20},"transliteration":{"text":null,"language_name":"english","language_id":38}}]},{"id":4949,"verse_number":48,"verse_key":"55:48","hizb_number":54,"rub_el_hizb_number":213,"ruku_number":470,"manzil_number":7,"sajdah_number":null,"page_number":533,"juz_number":27,"words":[{"id":47269,"position":1,"audio_url":"wbw/055_048_001.mp3","verse_key":"55:48","verse_id":4949,"location":"55:48:1","text_uthmani":"ذَوَاتَآ","qpc_uthmani_hafs":"ذَوَاتَآ","char_type_name":"word","page_number":533,"line_number":4,"text":"ذَوَاتَآ","translation":{"text":"(উভয়ে) বিশিষ্ট","language_name":"bengali","language_id":20},"transliteration":{"text":"dhawātā","language_name":"english","language_id":38}},{"id":47270,"position":2,"audio_url":"wbw/055_048_002.mp3","verse_key":"55:48","verse_id":4949,"location":"55:48:2","text_uthmani":"أَفْنَانٍۢ","qpc_uthmani_hafs":"أَفۡنَانٖ","char_type_name":"word","page_number":533,"line_number":4,"text":"أَفۡنَانٖ","translation":{"text":"ঘন শাখা পল্লব","language_name":"bengali","language_id":20},"transliteration":{"text":"afnānin","language_name":"english","language_id":38}},{"id":47271,"position":3,"audio_url":null,"verse_key":"55:48","verse_id":4949,"location":"55:48:3","text_uthmani":"٤٨","qpc_uthmani_hafs":"٤٨","char_type_name":"end","page_number":533,"line_number":4,"text":"٤٨","translation":{"text":"(৪৮)","language_name":"bengali","language_id":20},"transliteration":{"text":null,"language_name":"english","language_id":38}}]},{"id":4950,"verse_number":49,"verse_key":"55:49","hizb_number":54,"rub_el_hizb_number":213,"ruku_number":470,"manzil_number":7,"sajdah_number":null,"page_number":533,"juz_number":27,"words":[{"id":47880,"position":1,"audio_url":"wbw/055_049_001.mp3","verse_key":"55:49","verse_id":4950,"location":"55:49:1","text_uthmani":"فَبِأَىِّ","qpc_uthmani_hafs":"فَبِأَيِّ","char_type_name":"word","page_number":533,"line_number":4,"text":"فَبِأَيِّ","translation":{"text":"সুতরাং কোন কোন","language_name":"bengali","language_id":20},"transliteration":{"text":"fabi-ayyi","language_name":"english","language_id":38}},{"id":47881,"position":2,"audio_url":"wbw/055_049_002.mp3","verse_key":"55:49","verse_id":4950,"location":"55:49:2","text_uthmani":"ءَالَآءِ","qpc_uthmani_hafs":"ءَالَآءِ","char_type_name":"word","page_number":533,"line_number":4,"text":"ءَالَآءِ","translation":{"text":"অনুগ্রহকে","language_name":"bengali","language_id":20},"transliteration":{"text":"ālāi","language_name":"english","language_id":38}},{"id":47882,"position":3,"audio_url":"wbw/055_049_003.mp3","verse_key":"55:49","verse_id":4950,"location":"55:49:3","text_uthmani":"رَبِّكُمَا","qpc_uthmani_hafs":"رَبِّكُمَا","char_type_name":"word","page_number":533,"line_number":4,"text":"رَبِّكُمَا","translation":{"text":"তোমাদের উভয়ের রবের","language_name":"bengali","language_id":20},"transliteration":{"text":"rabbikumā","language_name":"english","language_id":38}},{"id":47883,"position":4,"audio_url":"wbw/055_049_004.mp3","verse_key":"55:49","verse_id":4950,"location":"55:49:4","text_uthmani":"تُكَذِّبَانِ","qpc_uthmani_hafs":"تُكَذِّبَانِ","char_type_name":"word","page_number":533,"line_number":5,"text":"تُكَذِّبَانِ","translation":{"text":"উভয়ে অস্বীকার করবে","language_name":"bengali","language_id":20},"transliteration":{"text":"tukadhibāni","language_name":"english","language_id":38}},{"id":47884,"position":5,"audio_url":null,"verse_key":"55:49","verse_id":4950,"location":"55:49:5","text_uthmani":"٤٩","qpc_uthmani_hafs":"٤٩","char_type_name":"end","page_number":533,"line_number":5,"text":"٤٩","translation":{"text":"(৪৯)","language_name":"bengali","language_id":20},"transliteration":{"text":null,"language_name":"english","language_id":38}}]},{"id":4951,"verse_number":50,"verse_key":"55:50","hizb_number":54,"rub_el_hizb_number":213,"ruku_number":470,"manzil_number":7,"sajdah_number":null,"page_number":533,"juz_number":27,"words":[{"id":48665,"position":1,"audio_url":"wbw/055_050_001.mp3","verse_key":"55:50","verse_id":4951,"location":"55:50:1","text_uthmani":"فِيهِمَا","qpc_uthmani_hafs":"فِيهِمَا","char_type_name":"word","page_number":533,"line_number":5,"text":"فِيهِمَا","translation":{"text":"উভয়ের মধ্যে থাকবে","language_name":"bengali","language_id":20},"transliteration":{"text":"fīhimā","language_name":"english","language_id":38}},{"id":48666,"position":2,"audio_url":"wbw/055_050_002.mp3","verse_key":"55:50","verse_id":4951,"location":"55:50:2","text_uthmani":"عَيْنَانِ","qpc_uthmani_hafs":"عَيۡنَانِ","char_type_name":"word","page_number":533,"line_number":5,"text":"عَيۡنَانِ","translation":{"text":"দুটো ঝরনা","language_name":"bengali","language_id":20},"transliteration":{"text":"ʿaynāni","language_name":"english","language_id":38}},{"id":48667,"position":3,"audio_url":"wbw/055_050_003.mp3","verse_key":"55:50","verse_id":4951,"location":"55:50:3","text_uthmani":"تَجْرِيَانِ","qpc_uthmani_hafs":"تَجۡرِيَانِ","char_type_name":"word","page_number":533,"line_number":5,"text":"تَجۡرِيَانِ","translation":{"text":"প্রবহমান (উভয়ে)","language_name":"bengali","language_id":20},"transliteration":{"text":"tajriyāni","language_name":"english","language_id":38}},{"id":48668,"position":4,"audio_url":null,"verse_key":"55:50","verse_id":4951,"location":"55:50:4","text_uthmani":"٥٠","qpc_uthmani_hafs":"٥٠","char_type_name":"end","page_number":533,"line_number":5,"text":"٥٠","translation":{"text":"(৫০)","language_name":"bengali","language_id":20},"transliteration":{"text":null,"language_name":"english","language_id":38}}]}],"pagination":{"per_page":10,"current_page":5,"next_page":6,"total_pages":8,"total_records":78}}
