{"verses":[{"id":4952,"verse_number":51,"verse_key":"55:51","hizb_number":54,"rub_el_hizb_number":213,"ruku_number":470,"manzil_number":7,"sajdah_number":null,"page_number":533,"juz_number":27,"words":[{"id":49319,"position":1,"audio_url":"wbw/055_051_001.mp3","char_type_name":"word","page_number":533,"line_number":5,"text":"فَبِأَىِّ","translation":{"text":"সুতরাং কোন কোন","language_name":"bengali","language_id":20},"transliteration":{"text":"fabi-ayyi","language_name":"english","language_id":38}},{"id":49320,"position":2,"audio_url":"wbw/055_051_002.mp3","char_type_name":"word","page_number":533,"line_number":5,"text":"ءَالَآءِ","translation":{"text":"অনুগ্রহকে","language_name":"bengali","language_id":20},"transliteration":{"text":"ālāi","language_name":"english","language_id":38}},{"id":49321,"position":3,"audio_url":"wbw/055_051_003.mp3","char_type_name":"word","page_number":533,"line_number":5,"text":"رَبِّكُمَا","translation":{"text":"তোমাদের উভয়ের রবের","language_name":"bengali","language_id":20},"transliteration":{"text":"rabbikumā","language_name":"english","language_id":38}},{"id":49322,"position":4,"audio_url":"wbw/055_051_004.mp3","char_type_name":"word","page_number":533,"line_number":5,"text":"تُكَذِّبَانِ","translation":{"text":"উভয়ে অস্বীকার করবে","language_name":"bengali","language_id":20},"transliteration":{"text":"tukadhibāni","language_name":"english","language_id":38}},{"id":49323,"position":5,"audio_url":null,"char_type_name":"end","page_number":533,"line_number":6,"text":"٥١","translation":{"text":"(৫১)","language_name":"bengali","language_id":20},"transliteration":{"text":null,"language_name":"english","language_id":38}}]},{"id":4953,"verse_number":52,"verse_key":"55:52","hizb_number":54,"rub_el_hizb_number":213,"ruku_number":470,"manzil_number":7,"sajdah_number":null,"page_number":533,"juz_number":27,"words":[{"id":49884,"position":1,"audio_url":"wbw/055_052_001.mp3","char_type_name":"word","page_number":533,"line_number":6,"text":"فِيهِمَا","translation":{"text":"উভয়ের মধ্যে রয়েছে","language_name":"bengali","language_id":20},"transliteration":{"text":"fīhimā","language_name":"english","language_id":38}},{"id":49885,"position":2,"audio_url":"wbw/055_052_002.mp3","char_type_name":"word","page_number":533,"line_number":6,"text":"مِن","translation":{"text":"ধরনের","language_name":"bengali","language_id":20},"transliteration":{"text":"min","language_name":"english","language_id":38}},{"id":49886,"position":3,"audio_url":"wbw/055_052_003.mp3","char_type_name":"word","page_number":533,"line_number":6,"text":"كُلِّ","translation":{"text":"প্রত্যেক","language_name":"bengali","language_id":20},"transliteration":{"text":"kulli","language_name":"english","language_id":38}},{"id":49887,"position":4,"audio_url":"wbw/055_052_004.mp3","char_type_name":"word","page_number":533,"line_number":6,"text":"فَـٰكِهَةٍۢ","translation":{"text":"ফল","language_name":"bengali","language_id":20},"transliteration":{"text":"fākihatin","language_name":"english","language_id":38}},{"id":49888,"position":5,"audio_url":"wbw/055_052_005.mp3","char_type_name":"word","page_number":533,"line_number":6,"text":"زَوْجَانِ","translation":{"text":"দুই রকম","language_name":"bengali","language_id":20},"transliteration":{"text":"zawjāni","language_name":"english","language_id":38}},{"id":49889,"position":6,"audio_url":null,"char_type_name":"end","page_number":533,"line_number":6,"text":"٥٢","translation":{"text":"(৫২)","language_name":"bengali","language_id":20},"transliteration":{"text":null,"language_name":"english","language_id":38}}]},{"id":4954,"verse_number":53,"verse_key":"55:53","hizb_number":54,"rub_el_hizb_number":213,"ruku_number":470,"manzil_number":7,"sajdah_number":null,"page_number":533,"juz_number":27,"words":[{"id":50593,"position":1,"audio_url":"wbw/055_053_001.mp3","char_type_name":"word","page_number":533,"line_number":6,"text":"فَبِأَىِّ","translation":{"text":"সুতরাং কোন কোন","language_name":"bengali","language_id":20},"transliteration":{"text":"fabi-ayyi","language_name":"english","language_id":38}},{"id":50594,"position":2,"audio_url":"wbw/055_053_002.mp3","char_type_name":"word","page_number":533,"line_number":6,"text":"ءَالَآءِ","translation":{"text":"অনুগ্রহকে","language_name":"bengali","language_id":20},"transliteration":{"text":"ālāi","language_name":"english","language_id":38}},{"id":50595,"position":3,"audio_url":"wbw/055_053_003.mp3","char_type_name":"word","page_number":533,"line_number":6,"text":"رَبِّكُمَا","translation":{"text":"তোমাদের উভয়ের রবের","language_name":"bengali","language_id":20},"transliteration":{"text":"rabbikumā","language_name":"english","language_id":38}},{"id":50596,"position":4,"audio_url":"wbw/055_053_004.mp3","char_type_name":"word","page_number":533,"line_number":6,"text":"تُكَذِّبَانِ","translation":{"text":"উভয়ে অস্বীকার করবে","language_name":"bengali","language_id":20},"transliteration":{"text":"tukadhibāni","language_name":"english","language_id":38}},{"id":50597,"position":5,"audio_url":null,"char_type_name":"end","page_number":533,"line_number":7,"text":"٥٣","translation":{"text":"(৫৩)","language_name":"bengali","language_id":20},"transliteration":{"text":null,"language_name":"english","language_id":38}}]},{"id":4955,"verse_number":54,"verse_key":"55:54","hizb_number":54,"rub_el_hizb_number":213,"ruku_number":470,"manzil_number":7,"sajdah_number":null,"page_number":533,"juz_number":27,"words":[{"id":51153,"position":1,"audio_url":"wbw/055_054_001.mp3","char_type_name":"word","page_number":533,"line_number":7,"text":"مُتَّكِـِٔينَ","translation":{"text":"হেলান দিয়ে বসবে","language_name":"bengali","language_id":20},"transliteration":{"text":"muttakiīna","language_name":"english","language_id":38}},{"id":51154,"position":2,"audio_url":"wbw/055_054_002.mp3","char_type_name":"word","page_number":533,"line_number":7,"text":"عَلَىٰ","translation":{"text":"উপর","language_name":"bengali","language_id":20},"transliteration":{"text":"ʿalā","language_name":"english","language_id":38}},{"id":51155,"position":3,"audio_url":"wbw/055_054_003.mp3","char_type_name":"word","page_number":533,"line_number":7,"text":"فُرُشٍۭ","translation":{"text":"বিছানা সমূহের","language_name":"bengali","language_id":20},"transliteration":{"text":"furushin","language_name":"english","language_id":38}},{"id":51156,"position":4,"audio_url":"wbw/055_054_004.mp3","char_type_name":"word","page_number":533,"line_number":7,"text":"بَطَآئِنُهَا","translation":{"text":"তার আস্তরণ (হবে)","language_name":"bengali","language_id":20},"transliteration":{"text":"baṭāinuhā","language_name":"english","language_id":38}},{"id":51157,"position":5,"audio_url":"wbw/055_054_005.mp3","char_type_name":"word","page_number":533,"line_number":7,"text":"مِنْ","translation":{"text":"তৈরি","language_name":"bengali","language_id":20},"transliteration":{"text":"min","language_name":"english","language_id":38}},{"id":51158,"position":6,"audio_url":"wbw/055_054_006.mp3","char_type_name":"word","page_number":533,"line_number":7,"text":"إِسْتَبْرَقٍۢ ۚ","translation":{"text":"মোটা রেশমের","language_name":"bengali","language_id":20},"transliteration":{"text":"is'tabraqin","language_name":"english","language_id":38}},{"id":51160,"position":7,"audio_url":"wbw/055_054_008.mp3","char_type_name":"word","page_number":533,"line_number":7,"text":"وَجَنَى","translation":{"text":"এবং ফল সমূহ","language_name":"bengali","language_id":20},"transliteration":{"text":"wajanā","language_name":"english","language_id":38}},{"id":51161,"position":8,"audio_url":"wbw/055_054_009.mp3","char_type_name":"word","page_number":533,"line_number":7,"text":"ٱلْجَنَّتَيْنِ","translation":{"text":"দুই বাগানের","language_name":"bengali","language_id":20},"transliteration":{"text":"l-janatayni","language_name":"english","language_id":38}},{"id":51162,"position":9,"audio_url":"wbw/055_054_010.mp3","char_type_name":"word","page_number":533,"line_number":7,"text":"دَانٍۢ","translation":{"text":"নিকটে (ঝুঁকে পড়বে)","language_name":"bengali","language_id":20},"transliteration":{"text":"dānin","language_name":"english","language_id":38}},{"id":51163,"position":10,"audio_url":null,"char_type_name":"end","page_number":533,"line_number":8,"text":"٥٤","translation":{"text":"(৫৪)","language_name":"bengali","language_id":20},"transliteration":{"text":null,"language_name":"english","language_id":38}}]},{"id":4956,"verse_number":55,"verse_key":"55:55","hizb_number":54,"rub_el_hizb_number":213,"ruku_number":470,"manzil_number":7,"sajdah_number":null,"page_number":533,"juz_number":27,"words":[{"id":51790,"position":1,"audio_url":"wbw/055_055_001.mp3","char_type_name":"word","page_number":533,"line_number":8,"text":"فَبِأَىِّ","translation":{"text":"সুতরাং কোন কোন","language_name":"bengali","language_id":20},"transliteration":{"text":"fabi-ayyi","language_name":"english","language_id":38}},{"id":51791,"position":2,"audio_url":"wbw/055_055_002.mp3","char_type_name":"word","page_number":533,"line_number":8,"text":"ءَالَآءِ","translation":{"text":"অনুগ্রহকে","language_name":"bengali","language_id":20},"transliteration":{"text":"ālāi","language_name":"english","language_id":38}},{"id":51792,"position":3,"audio_url":"wbw/055_055_003.mp3","char_type_name":"word","page_number":533,"line_number":8,"text":"رَبِّكُمَا","translation":{"text":"তোমাদের উভয়ের রবের","language_name":"bengali","language_id":20},"transliteration":{"text":"rabbikumā","language_name":"english","language_id":38}},{"id":51793,"position":4,"audio_url":"wbw/055_055_004.mp3","char_type_name":"word","page_number":533,"line_number":8,"text":"تُكَذِّبَانِ","translation":{"text":"উভয়ে অস্বীকার করবে","language_name":"bengali","language_id":20},"transliteration":{"text":"tukadhibāni","language_name":"english","language_id":38}},{"id":51794,"position":5,"audio_url":null,"char_type_name":"end","page_number":533,"line_number":8,"text":"٥٥","translation":{"text":"(৫৫)","language_name":"bengali","language_id":20},"transliteration":{"text":null,"language_name":"english","language_id":38}}]},{"id":4957,"verse_number":56,"verse_key":"55:56","hizb_number":54,"rub_el_hizb_number":213,"ruku_number":470,"manzil_number":7,"sajdah_number":null,"page_number":533,"juz_number":27,"words":[{"id":52188,"position":1,"audio_url":"wbw/055_056_001.mp3","char_type_name":"word","page_number":533,"line_number":8,"text":"فِيهِنَّ","translation":{"text":"তাদের মধ্যে (থাকবে)","language_name":"bengali","language_id":20},"transliteration":{"text":"fīhinna","language_name":"english","language_id":38}},{"id":52189,"position":2,"audio_url":"wbw/055_056_002.mp3","char_type_name":"word","page_number":533,"line_number":8,"text":"قَـٰصِرَٰتُ","translation":{"text":"লজ্জাবনত","language_name":"bengali","language_id":20},"transliteration":{"text":"qāṣirātu","language_name":"english","language_id":38}},{"id":52190,"position":3,"audio_url":"wbw/055_056_003.mp3","char_type_name":"word","page_number":533,"line_number":8,"text":"ٱلطَّرْفِ","translation":{"text":"দৃষ্টির (রমণী)","language_name":"bengali","language_id":20},"transliteration":{"text":"l-ṭarfi","language_name":"english","language_id":38}},{"id":52191,"position":4,"audio_url":"wbw/055_056_004.mp3","char_type_name":"word","page_number":533,"line_number":9,"text":"لَمْ","translation":{"text":"নি","language_name":"bengali","language_id":20},"transliteration":{"text":"lam","language_name":"english","language_id":38}},{"id":52192,"position":5,"audio_url":"wbw/055_056_005.mp3","char_type_name":"word","page_number":533,"line_number":9,"text":"يَطْمِثْهُنَّ","translation":{"text":"তাদেরকে স্পর্শ করেছে","language_name":"bengali","language_id":20},"transliteration":{"text":"yaṭmith'hunna","language_name":"english","language_id":38}},{"id":52193,"position":6,"audio_url":"wbw/055_056_006.mp3","char_type_name":"word","page_number":533,"line_number":9,"text":"إِنسٌۭ","translation":{"text":"কোনো মানুষ","language_name":"bengali","language_id":20},"transliteration":{"text":"insun","language_name":"english","language_id":38}},{"id":52194,"position":7,"audio_url":"wbw/055_056_007.mp3","char_type_name":"word","page_number":533,"line_number":9,"text":"قَبْلَهُمْ","translation":{"text":"তাদের পূর্বে","language_name":"bengali","language_id":20},"transliteration":{"text":"qablahum","language_name":"english","language_id":38}},{"id":52195,"position":8,"audio_url":"wbw/055_056_008.mp3","char_type_name":"word","page_number":533,"line_number":9,"text":"وَلَا","translation":{"text":"আর না","language_name":"bengali","language_id":20},"transliteration":{"text":"walā","language_name":"english","language_id":38}},{"id":52196,"position":9,"audio_url":"wbw/055_056_009.mp3","char_type_name":"word","page_number":533,"line_number":9,"text":"جَآنٌّۭ","translation":{"text":"কোনো জিন","language_name":"bengali","language_id":20},"transliteration":{"text":"jānnun","language_name":"english","language_id":38}},{"id":52197,"position":10,"audio_url":null,"char_type_name":"end","page_number":533,"line_number":9,"text":"٥٦","translation":{"text":"(৫৬)","language_name":"bengali","language_id":20},"transliteration":{"text":null,"language_name":"english","language_id":38}}]},{"id":4958,"verse_number":57,"verse_key":"55:57","hizb_number":54,"rub_el_hizb_number":213,"ruku_number":470,"manzil_number":7,"sajdah_number":null,"page_number":533,"juz_number":27,"words":[{"id":52806,"position":1,"audio_url":"wbw/055_057_001.mp3","char_type_name":"word","page_number":533,"line_number":9,"text":"فَبِأَىِّ","translation":{"text":"অতএব কোন কোন","language_name":"bengali","language_id":20},"transliteration":{"text":"fabi-ayyi","language_name":"english","language_id":38}},{"id":52807,"position":2,"audio_url":"wbw/055_057_002.mp3","char_type_name":"word","page_number":533,"line_number":9,"text":"ءَالَآءِ","translation":{"text":"অনুগ্রহকে","language_name":"bengali","language_id":20},"transliteration":{"text":"ālāi","language_name":"english","language_id":38}},{"id":52808,"position":3,"audio_url":"wbw/055_057_003.mp3","char_type_name":"word","page_number":533,"line_number":9,"text":"رَبِّكُمَا","translation":{"text":"তোমাদের উভয়ের রবের","language_name":"bengali","language_id":20},"transliteration":{"text":"rabbikumā","language_name":"english","language_id":38}},{"id":52809,"position":4,"audio_url":"wbw/055_057_004.mp3","char_type_name":"word","page_number":533,"line_number":9,"text":"تُكَذِّبَانِ","translation":{"text":"উভয়ে অস্বীকার করবে","language_name":"bengali","language_id":20},"transliteration":{"text":"tukadhibāni","language_name":"english","language_id":38}},{"id":52810,"position":5,"audio_url":null,"char_type_name":"end","page_number":533,"line_number":10,"text":"٥٧","translation":{"text":"(৫৭)","language_name":"bengali","language_id":20},"transliteration":{"text":null,"language_name":"english","language_id":38}}]},{"id":4959,"verse_number":58,"verse_key":"55:58","hizb_number":54,"rub_el_hizb_number":213,"ruku_number":470,"manzil_number":7,"sajdah_number":null,"page_number":533,"juz_number":27,"words":[{"id":53397,"position":1,"audio_url":"wbw/055_058_001.mp3","char_type_name":"word","page_number":533,"line_number":10,"text":"كَأَنَّهُنَّ","translation":{"text":"তারা যেন","language_name":"bengali","language_id":20},"transliteration":{"text":"ka-annahunna","language_name":"english","language_id":38}},{"id":53398,"position":2,"audio_url":"wbw/055_058_002.mp3","char_type_name":"word","page_number":533,"line_number":10,"text":"ٱلْيَاقُوتُ","translation":{"text":"হীরা","language_name":"bengali","language_id":20},"transliteration":{"text":"l-yāqūtu","language_name":"english","language_id":38}},{"id":53399,"position":3,"audio_url":"wbw/055_058_003.mp3","char_type_name":"word","page_number":533,"line_number":10,"text":"وَٱلْمَرْجَانُ","translation":{"text":"ও মুক্তার (মত সুন্দরী)","language_name":"bengali","language_id":20},"transliteration":{"text":"wal-marjānu","language_name":"english","language_id":38}},{"id":53400,"position":4,"audio_url":null,"char_type_name":"end","page_number":533,"line_number":10,"text":"٥٨","translation":{"text":"(৫৮)","language_name":"bengali","language_id":20},"transliteration":{"text":null,"language_name":"english","language_id":38}}]},{"id":4960,"verse_number":59,"verse_key":"55:59","hizb_number":54,"rub_el_hizb_number":213,"ruku_number":470,"manzil_number":7,"sajdah_number":null,"page_number":533,"juz_number":27,"words":[{"id":53852,"position":1,"audio_url":"wbw/055_059_001.mp3","char_type_name":"word","page_number":533,"line_number":10,"text":"فَبِأَىِّ","translation":{"text":"অতএব কোন কোন","language_name":"bengali","language_id":20},"transliteration":{"text":"fabi-ayyi","language_name":"english","language_id":38}},{"id":53853,"position":2,"audio_url":"wbw/055_059_002.mp3","char_type_name":"word","page_number":533,"line_number":10,"text":"ءَالَآءِ","translation":{"text":"নিয়ামত সমূহকে","language_name":"bengali","language_id":20},"transliteration":{"text":"ālāi","language_name":"english","language_id":38}},{"id":53854,"position":3,"audio_url":"wbw/055_059_003.mp3","char_type_name":"word","page_number":533,"line_number":10,"text":"رَبِّكُمَا","translation":{"text":"তোমাদের উভয়ের রবের","language_name":"bengali","language_id":20},"transliteration":{"text":"rabbikumā","language_name":"english","language_id":38}},{"id":53855,"position":4,"audio_url":"wbw/055_059_004.mp3","char_type_name":"word","page_number":533,"line_number":10,"text":"تُكَذِّبَانِ","translation":{"text":"উভয়ে অস্বীকার করবে","language_name":"bengali","language_id":20},"transliteration":{"text":"tukadhibāni","language_name":"english","language_id":38}},{"id":53856,"position":5,"audio_url":null,"char_type_name":"end","page_number":533,"line_number":11,"text":"٥٩","translation":{"text":"(৫৯)","language_name":"bengali","language_id":20},"transliteration":{"text":null,"language_name":"english","language_id":38}}]},{"id":4961,"verse_number":60,"verse_key":"55:60","hizb_number":54,"rub_el_hizb_number":213,"ruku_number":470,"manzil_number":7,"sajdah_number":null,"page_number":533,"juz_number":27,"words":[{"id":54424,"position":1,"audio_url":"wbw/055_060_001.mp3","char_type_name":"word","page_number":533,"line_number":11,"text":"هَلْ","translation":{"text":"কি (হতে পারে)","language_name":"bengali","language_id":20},"transliteration":{"text":"hal","language_name":"english","language_id":38}},{"id":54425,"position":2,"audio_url":"wbw/055_060_002.mp3","char_type_name":"word","page_number":533,"line_number":11,"text":"جَزَآءُ","translation":{"text":"পুরস্কার","language_name":"bengali","language_id":20},"transliteration":{"text":"jazāu","language_name":"english","language_id":38}},{"id":54426,"position":3,"audio_url":"wbw/055_060_003.mp3","char_type_name":"word","page_number":533,"line_number":11,"text":"ٱلْإِحْسَـٰنِ","translation":{"text":"উত্তম (কাজের)","language_name":"bengali","language_id":20},"transliteration":{"text":"l-iḥ'sāni","language_name":"english","language_id":38}},{"id":54427,"position":4,"audio_url":"wbw/055_060_004.mp3","char_type_name":"word","page_number":533,"line_number":11,"text":"إِلَّا","translation":{"text":"ব্যতীত","language_name":"bengali","language_id":20},"transliteration":{"text":"illā","language_name":"english","language_id":38}},{"id":54428,"position":5,"audio_url":"wbw/055_060_005.mp3","char_type_name":"word","page_number":533,"line_number":11,"text":"ٱلْإِحْسَـٰنُ","translation":{"text":"উত্তম","language_name":"bengali","language_id":20},"transliteration":{"text":"l-iḥ'sānu","language_name":"english","language_id":38}},{"id":54429,"position":6,"audio_url":null,"char_type_name":"end","page_number":533,"line_number":11,"text":"٦٠","translation":{"text":"(৬০)","language_name":"bengali","language_id":20},"transliteration":{"text":null,"language_name":"english","language_id":38}}]}],"pagination":{"per_page":10,"current_page":6,"next_page":7,"total_pages":8,"total_records":78}}
