{"verses":[{"id":4962,"verse_number":61,"verse_key":"55:61","hizb_number":54,"rub_el_hizb_number":213,"ruku_number":470,"manzil_number":7,"sajdah_number":null,"page_number":533,"juz_number":27,"words":[{"id":55097,"position":1,"audio_url":"wbw/055_061_001.mp3","verse_key":"55:61","verse_id":4962,"location":"55:61:1","text_uthmani":"فَبِأَىِّ","qpc_uthmani_hafs":"فَبِأَيِّ","char_type_name":"word","page_number":533,"line_number":11,"text":"فَبِأَيِّ","translation":{"text":"সুতরাং কোন কোন","language_name":"bengali","language_id":20},"transliteration":{"text":"fabi-ayyi","language_name":"english","language_id":38}},{"id":55098,"position":2,"audio_url":"wbw/055_061_002.mp3","verse_key":"55:61","verse_id":4962,"location":"55:61:2","text_uthmani":"ءَالَآءِ","qpc_uthmani_hafs":"ءَالَآءِ","char_type_name":"word","page_number":533,"line_number":11,"text":"ءَالَآءِ","translation":{"text":"অনুগ্রহকে","language_name":"bengali","language_id":20},"transliteration":{"text":"ālāi","language_name":"english","language_id":38}},{"id":55099,"position":3,"audio_url":"wbw/055_061_003.mp3","verse_key":"55:61","verse_id":4962,"location":"55:61:3","text_uthmani":"رَبِّكُمَا","qpc_uthmani_hafs":"رَبِّكُمَا","char_type_name":"word","page_number":533,"line_number":11,"text":"رَبِّكُمَا","translation":{"text":"তোমাদের উভয়ের রবের","language_name":"bengali","language_id":20},"transliteration":{"text":"rabbikumā","language_name":"english","language_id":38}},{"id":55100,"position":4,"audio_url":"wbw/055_061_004.mp3","verse_key":"55:61","verse_id":4962,"location":"55:61:4","text_uthmani":"تُكَذِّبَانِ","qpc_uthmani_hafs":"تُكَذِّبَانِ","char_type_name":"word","page_number":533,"line_number":12,"text":"تُكَذِّبَانِ","translation":{"text":"উভয়ে অস্বীকার করবে","language_name":"bengali","language_id":20},"transliteration":{"text":"tukadhibāni","language_name":"english","language_id":38}},{"id":55101,"position":5,"audio_url":null,"verse_key":"55:61","verse_id":4962,"location":"55:61:5","text_uthmani":"٦١","qpc_uthmani_hafs":"٦١","char_type_name":"end","page_number":533,"line_number":12,"text":"٦١","translation":{"text":"(৬১)","language_name":"bengali","language_id":20},"transliteration":{"text":null,"language_name":"english","language_id":38}}]},{"id":4963,"verse_number":62,"verse_key":"55:62","hizb_number":54,"rub_el_hizb_number":213,"ruku_number":470,"manzil_number":7,"sajdah_number":null,"page_number":533,"juz_number":27,"words":[{"id":55719,"position":1,"audio_url":"wbw/055_062_001.mp3","verse_key":"55:62","verse_id":4963,"location":"55:62:1","text_uthmani":"وَمِن","qpc_uthmani_hafs":"وَمِن","char_type_name":"word","page_number":533,"line_number":12,"text":"وَمِن","translation":{"text":"এবং","language_name":"bengali","language_id":20},"transliteration":{"text":"wamin","language_name":"english","language_id":38}},{"id":55720,"position":2,"audio_url":"wbw/055_062_002.mp3","verse_key":"55:62","verse_id":4963,"location":"55:62:2","text_uthmani":"دُونِهِمَا","qpc_uthmani_hafs":"دُونِهِمَا","char_type_name":"word","page_number":533,"line_number":12,"text":"دُونِهِمَا","translation":{"text":"সে দুটো ছাড়াও","language_name":"bengali","language_id":20},"transliteration":{"text":"dūnihimā","language_name":"english","language_id":38}},{"id":55721,"position":3,"audio_url":"wbw/055_062_003.mp3","verse_key":"55:62","verse_id":4963,"location":"55:62:3","text_uthmani":"جَنَّتَانِ","qpc_uthmani_hafs":"جَنَّتَانِ","char_type_name":"word","page_number":533,"line_number":12,"text":"جَنَّتَانِ","translation":{"text":"দুটো বাগান (থাকবে)","language_name":"bengali","language_id":20},"transliteration":{"text":"jannatāni","language_name":"english","language_id":38}},{"id":55722,"position":4,"audio_url":null,"verse_key":"55:62","verse_id":4963,"location":"55:62:4","text_uthmani":"٦٢","qpc_uthmani_hafs":"٦٢","char_type_name":"end","page_number":533,"line_number":12,"text":"٦٢","translation":{"text":"(৬২)","language_name":"bengali","language_id":20},"transliteration":{"text":null,"language_name":"english","language_id":38}}]},{"id":4964,"verse_number":63,"verse_key":"55:63","hizb_number":54,"rub_el_hizb_number":213,"ruku_number":470,"manzil_number":7,"sajdah_number":null,"page_number":533,"juz_number":27,"words":[{"id":56167,"position":1,"audio_url":"wbw/055_063_001.mp3","verse_key":"55:63","verse_id":4964,"location":"55:63:1","text_uthmani":"فَبِأَىِّ","qpc_uthmani_hafs":"فَبِأَيِّ","char_type_name":"word","page_number":533,"line_number":12,"text":"فَبِأَيِّ","translation":{"text":"অতএব কোন কোন","language_name":"bengali","language_id":20},"transliteration":{"text":"fabi-ayyi","language_name":"english","language_id":38}},{"id":56168,"position":2,"audio_url":"wbw/055_063_002.mp3","verse_key":"55:63","verse_id":4964,"location":"55:63:2","text_uthmani":"ءَالَآءِ","qpc_uthmani_hafs":"ءَالَآءِ","char_type_name":"word","page_number":533,"line_number":12,"text":"ءَالَآءِ","translation":{"text":"অনুগ্রহ সমূহকে","language_name":"bengali","language_id":20},"transliteration":{"text":"ālāi","language_name":"english","language_id":38}},{"id":56169,"position":3,"audio_url":"wbw/055_063_003.mp3","verse_key":"55:63","verse_id":4964,"location":"55:63:3","text_uthmani":"رَبِّكُمَا","qpc_uthmani_hafs":"رَبِّكُمَا","char_type_name":"word","page_number":533,"line_number":12,"text":"رَبِّكُمَا","translation":{"text":"তোমাদের উভয়ের রবের","language_name":"bengali","language_id":20},"transliteration":{"text":"rabbikumā","language_name":"english","language_id":38}},{"id":56170,"position":4,"audio_url":"wbw/055_063_004.mp3","verse_key":"55:63","verse_id":4964,"location":"55:63:4","text_uthmani":"تُكَذِّبَانِ","qpc_uthmani_hafs":"تُكَذِّبَانِ","char_type_name":"word","page_number":533,"line_number":13,"text":"تُكَذِّبَانِ","translation":{"text":"উভয়ে অস্বীকার করবে","language_name":"bengali","language_id":20},"transliteration":{"text":"tukadhibāni","language_name":"english","language_id":38}},{"id":56171,"position":5,"audio_url":null,"verse_key":"55:63","verse_id":4964,"location":"55:63:5","text_uthmani":"٦٣","qpc_uthmani_hafs":"٦٣","char_type_name":"end","page_number":533,"line_number":13,"text":"٦٣","translation":{"text":"(৬৩)","language_name":"bengali","language_id":20},"transliteration":{"text":null,"language_name":"english","language_id":38}}]},{"id":4965,"verse_number":64,"verse_key":"55:64","hizb_number":54,"rub_el_hizb_number":213,"ruku_number":470,"manzil_number":7,"sajdah_number":null,"page_number":533,"juz_number":27,"words":[{"id":56581,"position":1,"audio_url":"wbw/055_064_001.mp3","verse_key":"55:64","verse_id":4965,"location":"55:64:1","text_uthmani":"مُدْهَآمَّتَانِ","qpc_uthmani_hafs":"مُدۡهَآمَّتَانِ","char_type_name":"word","page_number":533,"line_number":13,"text":"مُدۡهَآمَّتَانِ","translation":{"text":"(এ দুই) ঘন সবুজ বাগান","language_name":"bengali","language_id":20},"transliteration":{"text":"mud'hāmmatāni","language_name":"english","language_id":38}},{"id":56582,"position":2,"audio_url":null,"verse_key":"55:64","verse_id":4965,"location":"55:64:2","text_uthmani":"٦٤","qpc_uthmani_hafs":"٦٤","char_type_name":"end","page_number":533,"line_number":13,"text":"٦٤","translation":{"text":"(৬৪)","language_name":"bengali","language_id":20},"transliteration":{"text":null,"language_name":"english","language_id":38}}]},{"id":4966,"verse_number":65,"verse_key":"55:65","hizb_number":54,"rub_el_hizb_number":213,"ruku_number":470,"manzil_number":7,"sajdah_number":null,"page_number":533,"juz_number":27,"words":[{"id":57226,"position":1,"audio_url":"wbw/055_065_001.mp3","verse_key":"55:65","verse_id":4966,"location":"55:65:1","text_uthmani":"فَبِأَىِّ","qpc_uthmani_hafs":"فَبِأَيِّ","char_type_name":"word","page_number":533,"line_number":13,"text":"فَبِأَيِّ","translation":{"text":"অতএব কোন কোন","language_name":"bengali","language_id":20},"transliteration":{"text":"fabi-ayyi","language_name":"english","language_id":38}},{"id":57227,"position":2,"audio_url":"wbw/055_065_002.mp3","verse_key":"55:65","verse_id":4966,"location":"55:65:2","text_uthmani":"ءَالَآءِ","qpc_uthmani_hafs":"ءَالَآءِ","char_type_name":"word","page_number":533,"line_number":13,"text":"ءَالَآءِ","translation":{"text":"অনুগ্রহ সমূহকে","language_name":"bengali","language_id":20},"transliteration":{"text":"ālāi","language_name":"english","language_id":38}},{"id":57228,"position":3,"audio_url":"wbw/055_065_003.mp3","verse_key":"55:65","verse_id":4966,"location":"55:65:3","text_uthmani":"رَبِّكُمَا","qpc_uthmani_hafs":"رَبِّكُمَا","char_type_name":"word","page_number":533,"line_number":13,"text":"رَبِّكُمَا","translation":{"text":"তোমাদের উভয়ের রবের","language_name":"bengali","language_id":20},"transliteration":{"text":"rabbikumā","language_name":"english","language_id":38}},{"id":57229,"position":4,"audio_url":"wbw/055_065_004.mp3","verse_key":"55:65","verse_id":4966,"location":"55:65:4","text_uthmani":"تُكَذِّبَانِ","qpc_uthmani_hafs":"تُكَذِّبَانِ","char_type_name":"word","page_number":533,"line_number":13,"text":"تُكَذِّبَانِ","translation":{"text":"উভয়ে অস্বীকার করবে","language_name":"bengali","language_id":20},"transliteration":{"text":"tukadhibāni","language_name":"english","language_id":38}},{"id":57230,"position":5,"audio_url":null,"verse_key":"55:65","verse_id":4966,"location":"55:65:5","text_uthmani":"٦٥","qpc_uthmani_hafs":"٦٥","char_type_name":"end","page_number":533,"line_number":14,"text":"٦٥","translation":{"text":"(৬৫)","language_name":"bengali","language_id":20},"transliteration":{"text":null,"language_name":"english","language_id":38}}]},{"id":4967,"verse_number":66,"verse_key":"55:66","hizb_number":54,"rub_el_hizb_number":213,"ruku_number":470,"manzil_number":7,"sajdah_number":null,"page_number":533,"juz_number":27,"words":[{"id":57766,"position":1,"audio_url":"wbw/055_066_001.mp3","verse_key":"55:66","verse_id":4967,"location":"55:66:1","text_uthmani":"فِيهِمَا","qpc_uthmani_hafs":"فِيهِمَا","char_type_name":"word","page_number":533,"line_number":14,"text":"فِيهِمَا","translation":{"text":"উভয়ের মধ্যে রয়েছে","language_name":"bengali","language_id":20},"transliteration":{"text":"fīhimā","language_name":"english","language_id":38}},{"id":57767,"position":2,"audio_url":"wbw/055_066_002.mp3","verse_key":"55:66","verse_id":4967,"location":"55:66:2","text_uthmani":"عَيْنَانِ","qpc_uthmani_hafs":"عَيۡنَانِ","char_type_name":"word","page_number":533,"line_number":14,"text":"عَيۡنَانِ","translation":{"text":"দুটো ঝরনা","language_name":"bengali","language_id":20},"transliteration":{"text":"ʿaynāni","language_name":"english","language_id":38}},{"id":57768,"position":3,"audio_url":"wbw/055_066_003.mp3","verse_key":"55:66","verse_id":4967,"location":"55:66:3","text_uthmani":"نَضَّاخَتَانِ","qpc_uthmani_hafs":"نَضَّاخَتَانِ","char_type_name":"word","page_number":533,"line_number":14,"text":"نَضَّاخَتَانِ","translation":{"text":"উচ্ছলিত উভয়েই","language_name":"bengali","language_id":20},"transliteration":{"text":"naḍḍākhatāni","language_name":"english","language_id":38}},{"id":57769,"position":4,"audio_url":null,"verse_key":"55:66","verse_id":4967,"location":"55:66:4","text_uthmani":"٦٦","qpc_uthmani_hafs":"٦٦","char_type_name":"end","page_number":533,"line_number":14,"text":"٦٦","translation":{"text":"(৬৬)","language_name":"bengali","language_id":20},"transliteration":{"text":null,"language_name":"english","language_id":38}}]},{"id":4968,"verse_number":67,"verse_key":"55:67","hizb_number":54,"rub_el_hizb_number":213,"ruku_number":470,"manzil_number":7,"sajdah_number":null,"page_number":533,"juz_number":27,"words":[{"id":58087,"position":1,"audio_url":"wbw/055_067_001.mp3","verse_key":"55:67","verse_id":4968,"location":"55:67:1","text_uthmani":"فَبِأَىِّ","qpc_uthmani_hafs":"فَبِأَيِّ","char_type_name":"word","page_number":533,"line_number":14,"text":"فَبِأَيِّ","translation":{"text":"অতএব কোন কোন","language_name":"bengali","language_id":20},"transliteration":{"text":"fabi-ayyi","language_name":"english","language_id":38}},{"id":58088,"position":2,"audio_url":"wbw/055_067_002.mp3","verse_key":"55:67","verse_id":4968,"location":"55:67:2","text_uthmani":"ءَالَآءِ","qpc_uthmani_hafs":"ءَالَآءِ","char_type_name":"word","page_number":533,"line_number":14,"text":"ءَالَآءِ","translation":{"text":"অনুগ্রহ সমূহকে","language_name":"bengali","language_id":20},"transliteration":{"text":"ālāi","language_name":"english","language_id":38}},{"id":58089,"position":3,"audio_url":"wbw/055_067_003.mp3","verse_key":"55:67","verse_id":4968,"location":"55:67:3","text_uthmani":"رَبِّكُمَا","qpc_uthmani_hafs":"رَبِّكُمَا","char_type_name":"word","page_number":533,"line_number":14,"text":"رَبِّكُمَا","translation":{"text":"তোমাদের উভয়ের রবের","language_name":"bengali","language_id":20},"transliteration":{"text":"rabbikumā","language_name":"english","language_id":38}},{"id":58090,"position":4,"audio_url":"wbw/055_067_004.mp3","verse_key":"55:67","verse_id":4968,"location":"55:67:4","text_uthmani":"تُكَذِّبَانِ","qpc_uthmani_hafs":"تُكَذِّبَانِ","char_type_name":"word","page_number":533,"line_number":14,"text":"تُكَذِّبَانِ","translation":{"text":"উভয়ে অস্বীকার করবে","language_name":"bengali","language_id":20},"transliteration":{"text":"tukadhibāni","language_name":"english","language_id":38}},{"id":58091,"position":5,"audio_url":null,"verse_key":"55:67","verse_id":4968,"location":"55:67:5","text_uthmani":"٦٧","qpc_uthmani_hafs":"٦٧","char_type_name":"end","page_number":533,"line_number":14,"text":"٦٧","translation":{"text":"(৬৭)","language_name":"bengali","language_id":20},"transliteration":{"text":null,"language_name":"english","language_id":38}}]},{"id":4969,"verse_number":68,"verse_key":"55:68","hizb_number":54,"rub_el_hizb_number":213,"ruku_number":470,"manzil_number":7,"sajdah_number":null,"page_number":533,"juz_number":27,"words":[{"id":58642,"position":1,"audio_url":"wbw/055_068_001.mp3","verse_key":"55:68","verse_id":4969,"location":"55:68:1","text_uthmani":"فِيهِمَا","qpc_uthmani_hafs":"فِيهِمَا","char_type_name":"word","page_number":533,"line_number":15,"text":"فِيهِمَا","translation":{"text":"তাদের উভয়ের মধ্যে রয়েছে","language_name":"bengali","language_id":20},"transliteration":{"text":"fīhimā","language_name":"english","language_id":38}},{"id":58643,"position":2,"audio_url":"wbw/055_068_002.mp3","verse_key":"55:68","verse_id":4969,"location":"55:68:2","text_uthmani":"فَـٰكِهَةٌۭ","qpc_uthmani_hafs":"فَٰكِهَةٞ","char_type_name":"word","page_number":533,"line_number":15,"text":"فَٰكِهَةٞ","translation":{"text":"ফলমূল","language_name":"bengali","language_id":20},"transliteration":{"text":"fākihatun","language_name":"english","language_id":38}},{"id":58644,"position":3,"audio_url":"wbw/055_068_003.mp3","verse_key":"55:68","verse_id":4969,"location":"55:68:3","text_uthmani":"وَنَخْلٌۭ","qpc_uthmani_hafs":"وَنَخۡلٞ","char_type_name":"word","page_number":533,"line_number":15,"text":"وَنَخۡلٞ","translation":{"text":"ও খেজুর","language_name":"bengali","language_id":20},"transliteration":{"text":"wanakhlun","language_name":"english","language_id":38}},{"id":58645,"position":4,"audio_url":"wbw/055_068_004.mp3","verse_key":"55:68","verse_id":4969,"location":"55:68:4","text_uthmani":"وَرُمَّانٌۭ","qpc_uthmani_hafs":"وَرُمَّانٞ","char_type_name":"word","page_number":533,"line_number":15,"text":"وَرُمَّانٞ","translation":{"text":"ও ডালিম","language_name":"bengali","language_id":20},"transliteration":{"text":"warummānun","language_name":"english","language_id":38}},{"id":58646,"position":5,"audio_url":null,"verse_key":"55:68","verse_id":4969,"location":"55:68:5","text_uthmani":"٦٨","qpc_uthmani_hafs":"٦٨","char_type_name":"end","page_number":533,"line_number":15,"text":"٦٨","translation":{"text":"(৬৮)","language_name":"bengali","language_id":20},"transliteration":{"text":null,"language_name":"english","language_id":38}}]},{"id":4970,"verse_number":69,"verse_key":"55:69","hizb_number":54,"rub_el_hizb_number":213,"ruku_number":470,"manzil_number":7,"sajdah_number":null,"page_number":533,"juz_number":27,"words":[{"id":59039,"position":1,"audio_url":"wbw/055_069_001.mp3","verse_key":"55:69","verse_id":4970,"location":"55:69:1","text_uthmani":"فَبِأَىِّ","qpc_uthmani_hafs":"فَبِأَيِّ","char_type_name":"word","page_number":533,"line_number":15,"text":"فَبِأَيِّ","translation":{"text":"অতএব কোন কোন","language_name":"bengali","language_id":20},"transliteration":{"text":"fabi-ayyi","language_name":"english","language_id":38}},{"id":59040,"position":2,"audio_url":"wbw/055_069_002.mp3","verse_key":"55:69","verse_id":4970,"location":"55:69:2","text_uthmani":"ءَالَآءِ","qpc_uthmani_hafs":"ءَالَآءِ","char_type_name":"word","page_number":533,"line_number":15,"text":"ءَالَآءِ","translation":{"text":"অনুগ্রহ সমূহকে","language_name":"bengali","language_id":20},"transliteration":{"text":"ālāi","language_name":"english","language_id":38}},{"id":59041,"position":3,"audio_url":"wbw/055_069_003.mp3","verse_key":"55:69","verse_id":4970,"location":"55:69:3","text_uthmani":"رَبِّكُمَا","qpc_uthmani_hafs":"رَبِّكُمَا","char_type_name":"word","page_number":533,"line_number":15,"text":"رَبِّكُمَا","translation":{"text":"তোমাদের উভয়ের রবের","language_name":"bengali","language_id":20},"transliteration":{"text":"rabbikumā","language_name":"english","language_id":38}},{"id":59042,"position":4,"audio_url":"wbw/055_069_004.mp3","verse_key":"55:69","verse_id":4970,"location":"55:69:4","text_uthmani":"تُكَذِّبَانِ","qpc_uthmani_hafs":"تُكَذِّبَانِ","char_type_name":"word","page_number":533,"line_number":15,"text":"تُكَذِّبَانِ","translation":{"text":"উভয়ে অস্বীকার করবে","language_name":"bengali","language_id":20},"transliteration":{"text":"tukadhibāni","language_name":"english","language_id":38}},{"id":59043,"position":5,"audio_url":null,"verse_key":"55:69","verse_id":4970,"location":"55:69:5","text_uthmani":"٦٩","qpc_uthmani_hafs":"٦٩","char_type_name":"end","page_number":533,"line_number":15,"text":"٦٩","translation":{"text":"(৬৯)","language_name":"bengali","language_id":20},"transliteration":{"text":null,"language_name":"english","language_id":38}}]},{"id":4971,"verse_number":70,"verse_key":"55:70","hizb_number":54,"rub_el_hizb_number":213,"ruku_number":470,"manzil_number":7,"sajdah_number":null,"page_number":534,"juz_number":27,"words":[{"id":59465,"position":1,"audio_url":"wbw/055_070_001.mp3","verse_key":"55:70","verse_id":4971,"location":"55:70:1","text_uthmani":"فِيهِنَّ","qpc_uthmani_hafs":"فِيهِنَّ","char_type_name":"word","page_number":534,"line_number":1,"text":"فِيهِنَّ","translation":{"text":"তাদের মধ্যে (থাকবে)","language_name":"bengali","language_id":20},"transliteration":{"text":"fīhinna","language_name":"english","language_id":38}},{"id":59466,"position":2,"audio_url":"wbw/055_070_002.mp3","verse_key":"55:70","verse_id":4971,"location":"55:70:2","text_uthmani":"خَيْرَٰتٌ","qpc_uthmani_hafs":"خَيۡرَٰتٌ","char_type_name":"word","page_number":534,"line_number":1,"text":"خَيۡرَٰتٌ","translation":{"text":"সচ্চরিত্রা (স্ত্রীরা)","language_name":"bengali","language_id":20},"transliteration":{"text":"khayrātun","language_name":"english","language_id":38}},{"id":59467,"position":3,"audio_url":"wbw/055_070_003.mp3","verse_key":"55:70","verse_id":4971,"location":"55:70:3","text_uthmani":"حِسَانٌۭ","qpc_uthmani_hafs":"حِسَانٞ","char_type_name":"word","page_number":534,"line_number":1,"text":"حِسَانٞ","translation":{"text":"সুদর্শনা","language_name":"bengali","language_id":20},"transliteration":{"text":"ḥisānun","language_name":"english","language_id":38}},{"id":59468,"position":4,"audio_url":null,"verse_key":"55:70","verse_id":4971,"location":"55:70:4","text_uthmani":"٧٠","qpc_uthmani_hafs":"٧٠","char_type_name":"end","page_number":534,"line_number":1,"text":"٧٠","translation":{"text":"(৭০)","language_name":"bengali","language_id":20},"transliteration":{"text":null,"language_name":"english","language_id":38}}]}],"pagination":{"per_page":10,"current_page":7,"next_page":8,"total_pages":8,"total_records":78}}
