{"verses":[{"id":4972,"verse_number":71,"verse_key":"55:71","hizb_number":54,"rub_el_hizb_number":213,"ruku_number":470,"manzil_number":7,"sajdah_number":null,"page_number":534,"juz_number":27,"words":[{"id":60058,"position":1,"audio_url":"wbw/055_071_001.mp3","char_type_name":"word","page_number":534,"line_number":1,"text":"فَبِأَىِّ","translation":{"text":"অতএব কোন কোন","language_name":"bengali","language_id":20},"transliteration":{"text":"fabi-ayyi","language_name":"english","language_id":38}},{"id":60059,"position":2,"audio_url":"wbw/055_071_002.mp3","char_type_name":"word","page_number":534,"line_number":1,"text":"ءَالَآءِ","translation":{"text":"অনুগ্রহ সমূহকে","language_name":"bengali","language_id":20},"transliteration":{"text":"ālāi","language_name":"english","language_id":38}},{"id":60060,"position":3,"audio_url":"wbw/055_071_003.mp3","char_type_name":"word","page_number":534,"line_number":1,"text":"رَبِّكُمَا","translation":{"text":"তোমাদের উভয়ের রবের","language_name":"bengali","language_id":20},"transliteration":{"text":"rabbikumā","language_name":"english","language_id":38}},{"id":60061,"position":4,"audio_url":"wbw/055_071_004.mp3","char_type_name":"word","page_number":534,"line_number":1,"text":"تُكَذِّبَانِ","translation":{"text":"উভয়ে অস্বীকার করবে","language_name":"bengali","language_id":20},"transliteration":{"text":"tukadhibāni","language_name":"english","language_id":38}},{"id":60062,"position":5,"audio_url":null,"char_type_name":"end","page_number":534,"line_number":2,"text":"٧١","translation":{"text":"(৭১)","language_name":"bengali","language_id":20},"transliteration":{"text":null,"language_name":"english","language_id":38}}]},{"id":4973,"verse_number":72,"verse_key":"55:72","hizb_number":54,"rub_el_hizb_number":213,"ruku_number":470,"manzil_number":7,"sajdah_number":null,"page_number":534,"juz_number":27,"words":[{"id":60462,"position":1,"audio_url":"wbw/055_072_001.mp3","char_type_name":"word","page_number":534,"line_number":2,"text":"حُورٌۭ","translation":{"text":"হুর সমূহ (থাকবে)","language_name":"bengali","language_id":20},"transliteration":{"text":"ḥūrun","language_name":"english","language_id":38}},{"id":60463,"position":2,"audio_url":"wbw/055_072_002.mp3","char_type_name":"word","page_number":534,"line_number":2,"text":"مَّقْصُورَٰتٌۭ","translation":{"text":"সুরক্ষিতা","language_name":"bengali","language_id":20},"transliteration":{"text":"maqṣūrātun","language_name":"english","language_id":38}},{"id":60464,"position":3,"audio_url":"wbw/055_072_003.mp3","char_type_name":"word","page_number":534,"line_number":2,"text":"فِى","translation":{"text":"মধ্যে","language_name":"bengali","language_id":20},"transliteration":{"text":"fī","language_name":"english","language_id":38}},{"id":60465,"position":4,"audio_url":"wbw/055_072_004.mp3","char_type_name":"word","page_number":534,"line_number":2,"text":"ٱلْخِيَامِ","translation":{"text":"তাঁবু সমূহের","language_name":"bengali","language_id":20},"transliteration":{"text":"l-khiyāmi","language_name":"english","language_id":38}},{"id":60466,"position":5,"audio_url":null,"char_type_name":"end","page_number":534,"line_number":2,"text":"٧٢","translation":{"text":"(৭২)","language_name":"bengali","language_id":20},"transliteration":{"text":null,"language_name":"english","language_id":38}}]},{"id":4974,"verse_number":73,"verse_key":"55:73","hizb_number":54,"rub_el_hizb_number":213,"ruku_number":470,"manzil_number":7,"sajdah_number":null,"page_number":534,"juz_number":27,"words":[{"id":61062,"position":1,"audio_url":"wbw/055_073_001.mp3","char_type_name":"word","page_number":534,"line_number":2,"text":"فَبِأَىِّ","translation":{"text":"অতএব কোন কোন","language_name":"bengali","language_id":20},"transliteration":{"text":"fabi-ayyi","language_name":"english","language_id":38}},{"id":61063,"position":2,"audio_url":"wbw/055_073_002.mp3","char_type_name":"word","page_number":534,"line_number":2,"text":"ءَالَآءِ","translation":{"text":"অনুগ্রহ সমূহকে","language_name":"bengali","language_id":20},"transliteration":{"text":"ālāi","language_name":"english","language_id":38}},{"id":61064,"position":3,"audio_url":"wbw/055_073_003.mp3","char_type_name":"word","page_number":534,"line_number":2,"text":"رَبِّكُمَا","translation":{"text":"তোমাদের উভয়ের রবের","language_name":"bengali","language_id":20},"transliteration":{"text":"rabbikumā","language_name":"english","language_id":38}},{"id":61065,"position":4,"audio_url":"wbw/055_073_004.mp3","char_type_name":"word","page_number":534,"line_number":3,"text":"تُكَذِّبَانِ","translation":{"text":"উভয়ে অস্বীকার করবে","language_name":"bengali","language_id":20},"transliteration":{"text":"tukadhibāni","language_name":"english","language_id":38}},{"id":61066,"position":5,"audio_url":null,"char_type_name":"end","page_number":534,"line_number":3,"text":"٧٣","translation":{"text":"(৭৩)","language_name":"bengali","language_id":20},"transliteration":{"text":null,"language_name":"english","language_id":38}}]},{"id":4975,"verse_number":74,"verse_key":"55:74","hizb_number":54,"rub_el_hizb_number":213,"ruku_number":470,"manzil_number":7,"sajdah_number":null,"page_number":534,"juz_number":27,"words":[{"id":61472,"position":1,"audio_url":"wbw/055_074_001.mp3","char_type_name":"word","page_number":534,"line_number":3,"text":"لَمْ","translation":{"text":"নি","language_name":"bengali","language_id":20},"transliteration":{"text":"lam","language_name":"english","language_id":38}},{"id":61473,"position":2,"audio_url":"wbw/055_074_002.mp3","char_type_name":"word","page_number":534,"line_number":3,"text":"يَطْمِثْهُنَّ","translation":{"text":"তাদের স্পর্শ করেছে","language_name":"bengali","language_id":20},"transliteration":{"text":"yaṭmith'hunna","language_name":"english","language_id":38}},{"id":61474,"position":3,"audio_url":"wbw/055_074_003.mp3","char_type_name":"word","page_number":534,"line_number":3,"text":"إِنسٌۭ","translation":{"text":"কোন মানুষ","language_name":"bengali","language_id":20},"transliteration":{"text":"insun","language_name":"english","language_id":38}},{"id":61475,"position":4,"audio_url":"wbw/055_074_004.mp3","char_type_name":"word","page_number":534,"line_number":3,"text":"قَبْلَهُمْ","translation":{"text":"তাদের পূর্বে","language_name":"bengali","language_id":20},"transliteration":{"text":"qablahum","language_name":"english","language_id":38}},{"id":61476,"position":5,"audio_url":"wbw/055_074_005.mp3","char_type_name":"word","page_number":534,"line_number":3,"text":"وَلَا","translation":{"text":"আর না","language_name":"bengali","language_id":20},"transliteration":{"text":"walā","language_name":"english","language_id":38}},{"id":61477,"position":6,"audio_url":"wbw/055_074_006.mp3","char_type_name":"word","page_number":534,"line_number":3,"text":"جَآنٌّۭ","translation":{"text":"কোন জিন","language_name":"bengali","language_id":20},"transliteration":{"text":"jānnun","language_name":"english","language_id":38}},{"id":61478,"position":7,"audio_url":null,"char_type_name":"end","page_number":534,"line_number":3,"text":"٧٤","translation":{"text":"(৭৪)","language_name":"bengali","language_id":20},"transliteration":{"text":null,"language_name":"english","language_id":38}}]},{"id":4976,"verse_number":75,"verse_key":"55:75","hizb_number":54,"rub_el_hizb_number":213,"ruku_number":470,"manzil_number":7,"sajdah_number":null,"page_number":534,"juz_number":27,"words":[{"id":61984,"position":1,"audio_url":"wbw/055_075_001.mp3","char_type_name":"word","page_number":534,"line_number":3,"text":"فَبِأَىِّ","translation":{"text":"অতএব কোন কোন","language_name":"bengali","language_id":20},"transliteration":{"text":"fabi-ayyi","language_name":"english","language_id":38}},{"id":61985,"position":2,"audio_url":"wbw/055_075_002.mp3","char_type_name":"word","page_number":534,"line_number":4,"text":"ءَالَآءِ","translation":{"text":"অনুগ্রহ সমূহকে","language_name":"bengali","language_id":20},"transliteration":{"text":"ālāi","language_name":"english","language_id":38}},{"id":61986,"position":3,"audio_url":"wbw/055_075_003.mp3","char_type_name":"word","page_number":534,"line_number":4,"text":"رَبِّكُمَا","translation":{"text":"তোমাদের উভয়ের রবের","language_name":"bengali","language_id":20},"transliteration":{"text":"rabbikumā","language_name":"english","language_id":38}},{"id":61987,"position":4,"audio_url":"wbw/055_075_004.mp3","char_type_name":"word","page_number":534,"line_number":4,"text":"تُكَذِّبَانِ","translation":{"text":"উভয়ে অস্বীকার করবে","language_name":"bengali","language_id":20},"transliteration":{"text":"tukadhibāni","language_name":"english","language_id":38}},{"id":61988,"position":5,"audio_url":null,"char_type_name":"end","page_number":534,"line_number":4,"text":"٧٥","translation":{"text":"(৭৫)","language_name":"bengali","language_id":20},"transliteration":{"text":null,"language_name":"english","language_id":38}}]},{"id":4977,"verse_number":76,"verse_key":"55:76","hizb_number":54,"rub_el_hizb_number":213,"ruku_number":470,"manzil_number":7,"sajdah_number":null,"page_number":534,"juz_number":27,"words":[{"id":62450,"position":1,"audio_url":"wbw/055_076_001.mp3","char_type_name":"word","page_number":534,"line_number":4,"text":"مُتَّكِـِٔينَ","translation":{"text":"(জান্নাতীরা) হেলান দিয়ে বসবে","language_name":"bengali","language_id":20},"transliteration":{"text":"muttakiīna","language_name":"english","language_id":38}},{"id":62451,"position":2,"audio_url":"wbw/055_076_002.mp3","char_type_name":"word","page_number":534,"line_number":4,"text":"عَلَىٰ","translation":{"text":"উপর","language_name":"bengali","language_id":20},"transliteration":{"text":"ʿalā","language_name":"english","language_id":38}},{"id":62452,"position":3,"audio_url":"wbw/055_076_003.mp3","char_type_name":"word","page_number":534,"line_number":4,"text":"رَفْرَفٍ","translation":{"text":"গালিচার","language_name":"bengali","language_id":20},"transliteration":{"text":"rafrafin","language_name":"english","language_id":38}},{"id":62453,"position":4,"audio_url":"wbw/055_076_004.mp3","char_type_name":"word","page_number":534,"line_number":4,"text":"خُضْرٍۢ","translation":{"text":"সবুজ","language_name":"bengali","language_id":20},"transliteration":{"text":"khuḍ'rin","language_name":"english","language_id":38}},{"id":62454,"position":5,"audio_url":"wbw/055_076_005.mp3","char_type_name":"word","page_number":534,"line_number":5,"text":"وَعَبْقَرِىٍّ","translation":{"text":"ও অমূল্য চাদরের (উপর)","language_name":"bengali","language_id":20},"transliteration":{"text":"waʿabqariyyin","language_name":"english","language_id":38}},{"id":62455,"position":6,"audio_url":"wbw/055_076_006.mp3","char_type_name":"word","page_number":534,"line_number":5,"text":"حِسَانٍۢ","translation":{"text":"সুন্দর","language_name":"bengali","language_id":20},"transliteration":{"text":"ḥisānin","language_name":"english","language_id":38}},{"id":62456,"position":7,"audio_url":null,"char_type_name":"end","page_number":534,"line_number":5,"text":"٧٦","translation":{"text":"(৭৬)","language_name":"bengali","language_id":20},"transliteration":{"text":null,"language_name":"english","language_id":38}}]},{"id":4978,"verse_number":77,"verse_key":"55:77","hizb_number":54,"rub_el_hizb_number":213,"ruku_number":470,"manzil_number":7,"sajdah_number":null,"page_number":534,"juz_number":27,"words":[{"id":62938,"position":1,"audio_url":"wbw/055_077_001.mp3","char_type_name":"word","page_number":534,"line_number":5,"text":"فَبِأَىِّ","translation":{"text":"অতএব কোন কোন","language_name":"bengali","language_id":20},"transliteration":{"text":"fabi-ayyi","language_name":"english","language_id":38}},{"id":62939,"position":2,"audio_url":"wbw/055_077_002.mp3","char_type_name":"word","page_number":534,"line_number":5,"text":"ءَالَآءِ","translation":{"text":"অনুগ্রহ সমূহকে","language_name":"bengali","language_id":20},"transliteration":{"text":"ālāi","language_name":"english","language_id":38}},{"id":62940,"position":3,"audio_url":"wbw/055_077_003.mp3","char_type_name":"word","page_number":534,"line_number":5,"text":"رَبِّكُمَا","translation":{"text":"তোমাদের উভয়ের রবের","language_name":"bengali","language_id":20},"transliteration":{"text":"rabbikumā","language_name":"english","language_id":38}},{"id":62941,"position":4,"audio_url":"wbw/055_077_004.mp3","char_type_name":"word","page_number":534,"line_number":5,"text":"تُكَذِّبَانِ","translation":{"text":"উভয়ে অস্বীকার করবে","language_name":"bengali","language_id":20},"transliteration":{"text":"tukadhibāni","language_name":"english","language_id":38}},{"id":62942,"position":5,"audio_url":null,"char_type_name":"end","page_number":534,"line_number":5,"text":"٧٧","translation":{"text":"(৭৭)","language_name":"bengali","language_id":20},"transliteration":{"text":null,"language_name":"english","language_id":38}}]},{"id":4979,"verse_number":78,"verse_key":"55:78","hizb_number":54,"rub_el_hizb_number":213,"ruku_number":470,"manzil_number":7,"sajdah_number":null,"page_number":534,"juz_number":27,"words":[{"id":63260,"position":1,"audio_url":"wbw/055_078_001.mp3","char_type_name":"word","page_number":534,"line_number":6,"text":"تَبَـٰرَكَ","translation":{"text":"বড়ই মহান","language_name":"bengali","language_id":20},"transliteration":{"text":"tabāraka","language_name":"english","language_id":38}},{"id":63261,"position":2,"audio_url":"wbw/055_078_002.mp3","char_type_name":"word","page_number":534,"line_number":6,"text":"ٱسْمُ","translation":{"text":"নাম","language_name":"bengali","language_id":20},"transliteration":{"text":"us'mu","language_name":"english","language_id":38}},{"id":63262,"position":3,"audio_url":"wbw/055_078_003.mp3","char_type_name":"word","page_number":534,"line_number":6,"text":"رَبِّكَ","translation":{"text":"তোমাদের রবের","language_name":"bengali","language_id":20},"transliteration":{"text":"rabbika","language_name":"english","language_id":38}},{"id":63263,"position":4,"audio_url":"wbw/055_078_004.mp3","char_type_name":"word","page_number":534,"line_number":6,"text":"ذِى","translation":{"text":"সম্পন্ন","language_name":"bengali","language_id":20},"transliteration":{"text":"dhī","language_name":"english","language_id":38}},{"id":63264,"position":5,"audio_url":"wbw/055_078_005.mp3","char_type_name":"word","page_number":534,"line_number":6,"text":"ٱلْجَلَـٰلِ","translation":{"text":"মহিম","language_name":"bengali","language_id":20},"transliteration":{"text":"l-jalāli","language_name":"english","language_id":38}},{"id":63265,"position":6,"audio_url":"wbw/055_078_006.mp3","char_type_name":"word","page_number":534,"line_number":6,"text":"وَٱلْإِكْرَامِ","translation":{"text":"ও মর্যাদা","language_name":"bengali","language_id":20},"transliteration":{"text":"wal-ik'rāmi","language_name":"english","language_id":38}},{"id":63266,"position":7,"audio_url":null,"char_type_name":"end","page_number":534,"line_number":6,"text":"٧٨","translation":{"text":"(৭৮)","language_name":"bengali","language_id":20},"transliteration":{"text":null,"language_name":"english","language_id":38}}]}],"pagination":{"per_page":10,"current_page":8,"next_page":null,"total_pages":8,"total_records":78}}
